149.4 154.228 151.789 149.073 136.095 130.341 87.6704 81.059 75.4299 82.0552 121.393 120.81 -62.7615 149.779 134.026 -62.1451 140.509 138.516 -58.6679 128.928 141.756 -60.3483 115.346 142.451 -65.9125 141.12 163.385 -84.974 22.4594 13.5568 12.0567 
149.569 154.341 151.525 149.24 135.972 130.176 87.7352 81.0049 75.4067 82.1526 120.909 120.858 -62.9583 149.866 134.188 -62.5176 140.447 138.624 -59.0739 128.9 141.782 -60.6676 115.334 142.227 -66.2485 140.783 163.449 -85.2323 22.6317 13.5574 11.9129 
149.577 154.323 151.349 149.477 136.64 130.042 87.8437 81.1185 75.7124 82.5379 120.55 120.782 -62.9453 149.775 134.311 -62.9223 140.259 138.601 -59.4168 128.814 141.772 -60.7616 115.462 142.066 -66.3224 140.37 163.559 -85.4682 22.6654 13.4212 11.8353 
149.597 154.017 151.13 149.601 137.373 129.871 87.7905 81.2792 76.0308 82.9874 120.498 120.759 -63.3663 149.661 134.338 -63.2663 140.1 138.471 -59.5949 128.689 141.629 -60.729 115.503 141.817 -66.1999 139.893 163.558 -85.6073 22.6162 13.305 11.801 
149.352 153.772 150.916 149.67 137.927 129.629 87.7009 81.3956 76.2889 83.2934 120.528 120.825 -63.6841 149.401 134.373 -63.4631 139.753 138.324 -59.7064 128.403 141.518 -60.6993 115.269 141.698 -66.0948 139.476 163.574 -85.6994 22.4838 13.2194 11.7465 
149.162 154.035 150.792 150.074 138.306 129.148 87.6948 81.3619 76.3172 83.3753 120.845 121.181 -64.0531 149.571 134.719 -63.5663 139.772 138.464 -59.9064 128.44 141.656 -60.7993 115.194 141.66 -66.2168 139.273 163.694 -85.8763 22.5483 13.1375 11.6531 
148.759 154.179 150.633 150.059 138.203 128.473 87.6211 81.3269 76.0792 83.4123 121.105 121.652 -64.4847 149.596 135.014 -63.6041 139.569 138.594 -60.0374 128.168 141.777 -61.0308 114.822 141.555 -66.4482 139.029 163.793 -85.9988 22.7145 13.1276 11.4736 
148.188 154.101 150.365 149.892 138.265 127.945 87.6013 81.3288 76.1822 83.6131 121.149 122.095 -64.816 149.214 135.017 -63.5986 139.048 138.493 -60.0999 127.661 141.703 -61.0427 114.394 141.555 -66.4018 138.7 163.818 -86.0522 22.571 13.0823 11.3736 
147.492 154.144 150.163 149.933 138.043 127.386 87.3724 81.1665 75.93 83.7235 121.364 122.662 -65.2952 149.024 135.323 -63.7693 138.682 138.675 -60.3418 127.337 141.946 -61.3446 114.033 141.704 -66.7175 138.568 164.044 -86.2 22.6969 13.1126 11.2805 
146.983 154.064 149.901 149.65 137.882 127.157 87.2907 81.049 75.7311 83.8087 121.484 122.887 -65.4975 148.512 135.325 -63.7046 138.028 138.569 -60.4037 126.697 141.858 -61.5189 113.384 141.688 -66.8474 138.302 164.106 -86.2204 22.6607 13.2052 11.2181 
146.958 153.794 149.611 148.68 137.482 127.383 87.2801 81.0596 75.6474 84.2583 121.231 122.747 -65.3233 147.577 134.947 -63.4896 137.048 138.074 -60.2689 125.71 141.348 -61.5817 112.492 141.469 -66.665 137.853 163.964 -86.1271 22.3206 13.4055 11.2629 
147.119 153.784 149.337 148.126 137.149 127.724 87.1835 80.8556 75.4168 84.2608 121.065 122.631 -65.1835 147.225 134.99 -63.509 136.686 138.066 -60.385 125.204 141.289 -61.7484 112.117 141.527 -66.6972 137.587 164.036 -86.1679 22.2539 13.4568 11.3123 
147.751 153.846 149.38 148.479 137.39 128.129 87.0294 80.6594 75.3485 84.1079 120.579 122.365 -64.9704 147.127 135.04 -63.7045 136.632 138.121 -60.5584 125.146 141.363 -61.7653 112.09 141.56 -66.7193 137.302 164.035 -86.2535 22.3372 13.3758 11.3636 
148.044 153.92 149.438 148.605 137.208 128.494 87.0135 80.5177 75.0456 83.8609 120.193 122.113 -64.7566 147.067 135.185 -63.8241 136.613 138.35 -60.6903 125.101 141.628 -61.9092 111.964 141.653 -66.8456 136.995 164.068 -86.3877 22.5459 13.3624 11.3663 
148.289 153.731 149.546 148.82 137.212 128.932 86.91 80.3015 74.6585 83.203 119.782 121.944 -64.625 146.997 135.35 -63.9434 136.638 138.749 -60.7542 125.051 142.016 -61.9962 111.851 141.971 -66.8702 136.726 164.104 -86.4846 22.6605 13.3814 11.3723 
148.178 153.84 149.798 149.251 136.787 128.936 86.8793 80.1898 74.2936 82.6701 119.577 121.798 -64.5407 147.15 135.64 -64.1316 136.819 139.196 -60.9219 125.267 142.489 -62.2216 111.793 142.16 -67.1433 136.502 164.165 -86.6561 22.9445 13.4009 11.3242 
147.836 153.766 149.86 149.694 136.465 128.691 86.9471 80.1675 74.0254 82.4715 119.56 121.657 -64.4183 147.069 135.716 -64.3019 136.74 139.377 -61.0773 125.292 142.684 -62.4708 111.642 142.125 -67.4429 136.267 164.208 -86.7797 23.1805 13.4978 11.2798 
147.85 153.842 149.824 149.828 136.387 128.845 87.1421 80.3186 73.9766 82.1883 119.11 121.376 -64.2282 146.96 135.782 -64.2415 136.584 139.488 -61.0693 125.198 142.907 -62.5291 111.53 142.256 -67.5726 136.012 164.145 -86.8795 23.2616 13.4281 11.1842 
148.186 154.207 149.989 150.302 136.568 129.171 87.4398 80.6404 74.0665 81.8146 118.57 121.326 -64.0571 146.951 136.015 -64.1944 136.546 139.67 -61.0566 125.21 143.212 -62.6134 111.38 142.486 -67.865 135.929 164.227 -87.0728 23.4099 13.3288 11.1302 
148.383 154.331 150.115 150.771 136.753 129.377 87.782 80.9622 74.2482 81.4226 118.108 121.288 -63.7631 146.899 136.22 -64.0426 136.523 139.926 -60.9246 125.263 143.613 -62.5002 111.278 142.807 -67.9633 135.822 164.287 -87.1886 23.5416 13.1833 11.1008 
149.01 154.388 150.291 151.021 136.692 129.915 88.2443 81.4351 74.5179 81.3937 117.274 121.119 -63.404 146.491 136.162 -63.6505 136.197 139.914 -60.5767 124.923 143.704 -62.2856 110.761 142.858 -67.9682 135.6 164.173 -87.2211 23.6787 13.072 11.1182 
149.145 154.356 150.344 151.28 136.734 130.028 88.4996 81.6727 74.7804 81.2549 117.015 121.183 -63.2021 146.219 136.184 -63.4354 136.066 139.993 -60.3833 124.823 143.888 -62.0638 110.554 143.048 -67.9148 135.457 164.146 -87.2529 23.7286 12.9356 11.2232 
149.289 154.337 150.447 151.35 136.881 130.217 88.872 82.0136 75.1622 81.3295 116.593 121.105 -63.0482 145.748 136.004 -63.0894 135.7 139.895 -60.0618 124.441 143.87 -61.7181 110.184 143.137 -67.6576 135.163 163.993 -87.2096 23.6096 12.7839 11.2593 
149.258 154.298 150.435 151.366 137.259 130.1 89.1464 82.2621 75.5004 81.4124 116.396 120.977 -63.015 145.376 135.783 -62.7916 135.397 139.739 -59.8197 124.149 143.791 -61.4337 109.971 143.122 -67.4062 134.852 163.737 -87.1757 23.4293 12.6389 11.2735 
149.026 154.113 150.385 151.352 137.353 129.97 89.2142 82.3241 75.5024 81.2937 116.297 120.991 -63.0376 144.976 135.697 -62.6254 135.092 139.735 -59.6889 123.876 143.848 -61.3648 109.627 143.161 -67.3871 134.63 163.649 -87.1522 23.4713 12.6301 11.3424 
149.207 154.046 150.459 151.298 137.613 130.243 89.4339 82.5069 75.5794 81.182 115.907 121.031 -63.1382 144.566 135.671 -62.4558 134.8 139.767 -59.5384 123.561 143.942 -61.2767 109.232 143.273 -67.3567 134.427 163.65 -87.1561 23.5218 12.5829 11.4212 
149.335 153.956 150.65 151.229 138.121 130.411 89.609 82.6338 75.677 81.1924 115.595 121.111 -63.1881 144.236 135.616 -62.4285 134.575 139.749 -59.475 123.307 143.887 -61.2333 109.011 143.253 -67.3261 134.266 163.678 -87.1724 23.5299 12.5973 11.5016 
149.591 153.719 150.541 150.981 138.66 130.673 89.7313 82.7147 75.7526 81.2127 115.204 121.14 -63.3558 143.845 135.461 -62.4248 134.284 139.661 -59.463 123.025 143.845 -61.198 108.829 143.302 -67.1944 134.029 163.668 -87.2028 23.4016 12.571 11.5626 
149.81 153.423 150.364 150.668 139.946 131.047 89.6607 82.7156 75.8919 81.1642 114.991 121.126 -63.3674 143.29 135.294 -62.4631 133.877 139.452 -59.4387 122.688 143.727 -61.0716 108.716 143.512 -66.8662 133.78 163.7 -87.1838 22.9915 12.5489 11.7351 
150.029 153.231 150.292 150.658 141.467 131.449 89.4364 82.4962 76.0297 81.0086 114.876 121.225 -63.3868 142.944 135.369 -62.7295 133.697 139.53 -59.6492 122.616 143.819 -61.0611 108.882 143.903 -66.7147 133.685 163.924 -87.2781 22.6545 12.5647 11.9438 
150.375 153.304 150.339 150.76 142.319 131.765 89.4193 82.4176 76.1698 80.8202 114.428 121.254 -63.4857 142.731 135.461 -62.853 133.526 139.658 -59.8028 122.524 144.06 -61.0393 108.961 144.33 -66.6593 133.546 164.017 -87.3982 22.4365 12.4492 11.9799 
150.642 153.186 150.231 150.513 143.141 132.068 89.3085 82.2604 76.1285 80.7888 114.102 121.239 -63.632 142.364 135.427 -62.9102 133.208 139.608 -59.8833 122.153 144.024 -61.0425 108.739 144.458 -66.5141 133.301 164.021 -87.4075 22.2263 12.4029 12.0578 
150.788 152.941 150.084 149.943 144.026 132.255 89.2899 82.1711 76.1982 81.016 114.037 121.103 -63.6571 141.992 135.253 -63.0333 132.862 139.352 -60.0057 121.768 143.702 -61.0826 108.604 144.339 -66.3281 133.061 164.03 -87.4136 21.9266 12.4299 12.1252 
151.058 152.909 149.966 149.774 144.442 132.356 89.3446 82.1287 76.4087 81.1391 113.699 121.013 -63.5694 141.695 135.131 -63.226 132.546 139.158 -60.2306 121.519 143.494 -61.1814 108.611 144.364 -66.3704 132.912 164.061 -87.5229 21.6394 12.4144 12.1495 
151.251 152.81 149.8 149.753 144.767 132.467 89.3315 82.0322 76.5676 81.1379 113.37 120.964 -63.5962 141.447 135.034 -63.3987 132.297 139.042 -60.4159 121.334 143.434 -61.1739 108.595 144.462 -66.2977 132.718 164.067 -87.5874 21.4228 12.3226 12.1697 
151.173 152.665 149.659 149.935 144.495 132.341 89.2489 82.0347 76.7718 81.2758 113.251 120.996 -63.7646 141.352 134.989 -63.7044 132.227 138.958 -60.638 121.363 143.404 -61.2217 108.662 144.465 -66.3733 132.565 164.109 -87.6983 21.3674 12.259 12.2144 
151.367 152.726 149.712 149.8 144.504 132.565 89.2177 81.9801 76.8797 81.604 112.982 120.939 -63.6707 141.134 134.892 -63.932 131.995 138.792 -60.8102 121.175 143.168 -61.2927 108.554 144.277 -66.3496 132.364 164.183 -87.7621 21.3011 12.324 12.2316 
151.427 152.793 149.695 149.796 143.948 132.642 89.1264 81.8659 76.8347 81.8467 112.776 121.051 -63.5667 141.038 135.01 -64.24 131.945 138.86 -61.0921 121.166 143.201 -61.5263 108.563 144.275 -66.5649 132.251 164.399 -87.8953 21.3866 12.3915 12.3163 
151.31 152.883 149.682 149.641 143.494 132.61 89.0506 81.8333 76.8214 82.1849 112.759 121.179 -63.5355 140.907 134.976 -64.3686 131.783 138.728 -61.1891 120.994 143.019 -61.617 108.399 144.071 -66.5761 132.059 164.493 -87.9136 21.404 12.4527 12.323 
151.331 153.125 149.662 149.27 142.983 132.673 89.0261 81.8294 76.6969 82.5485 112.719 121.175 -63.3794 140.849 134.962 -64.3524 131.594 138.636 -61.1477 120.664 142.808 -61.6321 108.129 143.78 -66.4316 131.792 164.512 -87.8549 21.4417 12.5015 12.2035 
151.461 153.082 149.455 148.99 142.511 132.788 88.9338 81.8482 76.6149 82.8208 112.548 121.209 -63.3298 140.752 134.975 -64.3851 131.428 138.597 -61.1307 120.392 142.726 -61.6488 107.918 143.656 -66.3299 131.545 164.534 -87.8463 21.4676 12.5084 12.1413 
151.445 153.206 149.513 149.086 142.092 132.721 88.9768 81.9208 76.578 82.9536 112.414 121.269 -63.1949 140.727 135.024 -64.43 131.44 138.647 -61.1178 120.347 142.768 -61.6417 107.885 143.624 -66.3034 131.328 164.567 -87.865 21.561 12.4827 12.1595 
151.634 153.536 149.866 149.327 141.595 132.828 89.1116 81.9697 76.4186 82.9959 112.055 121.426 -62.9832 140.814 135.266 -64.3857 131.605 138.96 -61.0767 120.381 142.988 -61.7069 107.799 143.64 -66.4121 131.187 164.674 -87.9086 21.7993 12.5164 12.1955 
152.025 153.567 150.051 149.829 141.417 133.17 89.1014 81.9968 76.3369 82.7575 111.388 121.506 -62.6922 140.716 135.538 -64.3035 131.641 139.389 -60.912 120.29 143.388 -61.5154 107.592 143.882 -66.2439 130.711 164.705 -87.9158 21.9587 12.4312 12.252 
152.447 153.434 150.042 149.788 141.402 133.576 89.2442 82.1418 76.272 82.4618 110.759 121.365 -62.3109 140.272 135.495 -64.0222 131.39 139.568 -60.6268 120.01 143.725 -61.3147 107.283 144.243 -66.045 130.374 164.629 -87.8701 21.9667 12.3315 12.3492 
152.877 153.086 149.955 149.085 141.358 133.996 89.5486 82.3225 76.2624 82.5476 110.293 121.336 -62.1097 139.685 135.301 -63.5741 131.008 139.583 -60.2572 119.533 143.7 -61.1677 106.871 144.336 -65.8255 130.101 164.577 -87.7486 21.8736 12.4343 12.4585 
153.115 152.84 149.946 149.154 141.201 134.133 89.7018 82.3659 76.1381 82.1625 110.005 121.496 -62.173 139.529 135.569 -63.5583 131.003 140.014 -60.3018 119.614 144.233 -61.3145 106.894 144.842 -66.0798 130.02 164.809 -87.8845 21.9763 12.4409 12.559 
153.197 152.657 149.971 149.254 140.769 134.068 89.9081 82.5489 76.1051 82.1202 109.668 121.628 -62.3073 139.381 135.734 -63.6375 130.893 140.211 -60.3965 119.572 144.442 -61.5765 106.734 144.973 -66.4738 129.934 164.979 -88.0349 22.0964 12.5204 12.5716 
153.365 152.624 150.143 149.275 140.96 134.154 90.1152 82.6956 76.1223 82.0881 109.252 121.314 -62.0082 139.029 135.553 -63.5494 130.498 140.02 -60.3002 119.194 144.241 -61.5336 106.387 144.755 -66.4118 129.559 164.835 -87.9853 22.0524 12.5293 12.5062 
153.351 152.454 150.142 149.874 141.337 134.002 90.1577 82.6381 76.3149 82.027 108.958 121.083 -61.9204 138.721 135.415 -63.6995 130.222 139.941 -60.4462 119.136 144.281 -61.4506 106.318 144.762 -66.4246 129.199 164.764 -88.0053 22.0371 12.4375 12.5341 
153.286 152.454 150.164 150.107 141.357 133.886 90.1288 82.5809 76.3743 81.7985 108.495 121.052 -61.932 138.177 135.294 -63.6469 129.66 139.885 -60.4311 118.711 144.361 -61.3599 105.845 144.918 -66.4 128.822 164.678 -87.9628 21.9559 12.3798 12.5007 
153.453 152.578 150.277 150.662 141.754 133.951 90.0995 82.5777 76.4634 81.6184 107.871 120.791 -61.856 137.894 135.221 -63.5948 129.283 139.837 -60.3477 118.406 144.382 -61.1346 105.481 144.853 -66.218 128.347 164.457 -87.8841 21.9483 12.2719 12.3911 
153.283 152.194 150.101 150.899 142.261 133.94 89.9196 82.43 76.5424 81.445 107.607 120.646 -62.1221 137.408 135.111 -63.6901 128.789 139.788 -60.3864 118.029 144.356 -60.998 105.019 144.837 -66.0511 127.855 164.342 -87.8316 21.8479 12.2694 12.3805 
153.414 152.124 150.046 150.955 142.457 134.145 89.8504 82.4749 76.4878 81.6536 107.082 120.255 -62.0047 136.965 134.876 -63.5112 128.261 139.469 -60.1441 117.438 143.989 -60.7655 104.323 144.308 -65.6943 127.212 163.986 -87.6474 21.869 12.2665 12.3025 
153.184 151.742 149.939 150.955 142.911 134.153 89.567 82.4625 76.4722 81.8141 106.971 120.036 -62.162 136.697 134.93 -63.854 127.955 139.37 -60.2889 117.149 143.833 -60.867 104.072 144.096 -65.6947 126.765 164.036 -87.6582 21.8392 12.3191 12.3246 
152.857 151.639 149.814 150.735 143.322 134.027 89.3279 82.441 76.4607 82.0224 107.072 120.061 -62.2966 136.471 135.043 -64.1449 127.706 139.324 -60.4139 116.873 143.728 -60.9461 103.875 143.981 -65.6473 126.394 164.208 -87.6541 21.8212 12.3592 12.3541 
152.556 152.009 149.986 150.807 143.337 133.851 89.2685 82.3748 76.2428 82.0971 107.1 120.37 -62.3766 136.434 135.436 -64.3222 127.565 139.597 -60.592 116.673 143.888 -61.2315 103.548 143.904 -65.9946 126.231 164.539 -87.7525 22.1604 12.4793 12.2967 
152.309 152.121 149.744 150.534 142.997 133.596 89.4099 82.5795 76.2101 82.305 107.06 120.634 -62.4615 136.383 135.683 -64.3285 127.378 139.622 -60.6238 116.432 143.86 -61.4061 103.276 143.769 -66.1644 125.968 164.751 -87.7905 22.2682 12.5432 12.19 
151.903 152.181 149.665 150.545 143 133.124 89.2794 82.4756 76.1898 82.4512 107.253 120.886 -62.6328 136.324 135.926 -64.6415 127.192 139.678 -60.9439 116.281 143.824 -61.6985 103.203 143.743 -66.4267 125.748 165.041 -87.8896 22.2241 12.6327 12.1373 
151.336 152.159 149.583 150.408 142.811 132.553 89.2658 82.5839 76.3084 82.7114 107.004 121.448 -63.1241 135.747 136.168 -64.9357 126.54 139.77 -61.1679 115.688 143.898 -61.916 102.735 143.911 -66.6088 125.109 165.457 -87.9596 22.1703 12.7105 12.0747 
150.916 152.417 149.447 150.011 142.464 131.944 89.5214 82.782 76.2852 82.7369 106.957 121.609 -63.2179 135.525 136.171 -64.7946 126.122 139.693 -61.1348 115.227 143.834 -62.0316 102.4 143.877 -66.7194 124.811 165.488 -87.9381 22.1141 12.7014 11.8708 
150.76 152.548 149.484 149.828 142.162 131.723 89.6389 82.943 76.4663 82.87 106.77 121.639 -63.3354 135.181 136.096 -64.7421 125.736 139.535 -61.0699 114.799 143.647 -61.963 102.069 143.792 -66.6301 124.419 165.486 -87.8628 21.9694 12.661 11.8269 
150.597 152.703 149.699 149.824 142.066 131.518 89.622 82.9118 76.6076 83.013 106.624 121.723 -63.2454 134.756 136.131 -64.7185 125.327 139.548 -61.0406 114.351 143.648 -61.8356 101.746 143.906 -66.5183 124.043 165.553 -87.8165 21.8977 12.5803 11.8601 
150.508 152.832 149.918 149.092 141.899 131.633 89.9345 83.1535 76.7711 83.4469 106.507 121.9 -63.239 134.23 136.137 -64.3929 124.834 139.503 -60.7702 113.66 143.473 -61.7251 101.205 143.877 -66.3427 123.765 165.717 -87.7114 21.782 12.6084 11.8901 
150.639 152.949 150.02 148.201 141.808 131.807 90.0697 83.1648 76.7028 83.4695 106.253 122.001 -63.1015 133.506 136.111 -63.9594 124.14 139.503 -60.4499 112.704 143.326 -61.6008 100.461 143.994 -66.094 123.367 165.75 -87.5569 21.5743 12.6637 11.926 
151.129 153.007 149.808 147.325 141.88 132.377 90.0459 83.0412 76.5506 83.4212 105.551 121.776 -62.711 132.825 136.1 -63.3846 123.417 139.457 -60.0053 111.627 143.142 -61.2393 99.6602 144.029 -65.5365 122.771 165.549 -87.2642 21.3876 12.6375 11.9201 
151.888 152.825 149.643 146.97 142.048 133.126 89.9831 82.8974 76.4934 83.172 104.447 121.694 -62.5077 132.128 136.153 -63.0287 122.772 139.54 -59.7451 110.825 143.277 -60.9231 98.9852 144.363 -65.1614 122.257 165.453 -87.1135 21.2729 12.5171 11.9951 
152.112 152.811 149.542 146.945 142.329 133.447 89.9561 82.7835 76.2915 82.9781 103.696 121.806 -62.4158 131.707 136.316 -62.902 122.317 139.686 -59.6864 110.359 143.448 -60.8934 98.5301 144.532 -65.0986 121.85 165.506 -87.056 21.3247 12.5455 11.9886 
152.213 152.48 149.414 147.113 142.517 133.636 89.8319 82.6243 76.1393 82.8271 103.068 121.962 -62.554 131.28 136.438 -63.0642 121.862 139.787 -59.8453 110.06 143.603 -61.0169 98.1842 144.673 -65.2181 121.515 165.665 -87.0924 21.3845 12.6213 11.9938 
152.704 152.212 149.354 147.51 142.625 134.066 89.7278 82.4924 76.212 82.7894 102.141 122.061 -62.7177 130.827 136.449 -63.3393 121.476 139.832 -60.0374 109.804 143.696 -61.007 97.885 144.781 -65.1897 121.11 165.785 -87.1225 21.3516 12.5876 12.0577 
152.63 152.085 149.322 147.821 142.092 134.004 89.6479 82.5324 76.1958 82.954 101.681 122.128 -62.7783 130.709 136.461 -63.7911 121.326 139.711 -60.3369 109.717 143.529 -61.2649 97.6263 144.403 -65.4992 120.805 165.897 -87.2264 21.5422 12.6369 12.0596 
152.785 152.097 149.451 148.261 142.003 134.106 89.5652 82.4511 76.1317 82.8506 101.244 122.253 -62.8365 130.763 136.693 -64.1669 121.407 139.954 -60.6337 109.837 143.759 -61.4633 97.6821 144.452 -65.7479 120.582 166.106 -87.3731 21.7162 12.604 12.0704 
153.046 152.285 149.631 148.646 141.571 134.225 89.6113 82.5008 76.1606 82.7505 100.594 122.478 -62.8842 130.574 136.948 -64.2425 121.242 140.246 -60.7456 109.708 144.127 -61.5902 97.4833 144.752 -66.0302 120.394 166.301 -87.5178 21.8253 12.525 12.0794 
153.018 152.384 149.712 149.247 141.327 134.165 89.4457 82.4939 76.2769 82.7492 100.265 122.539 -63.0033 130.418 137.097 -64.5102 121.13 140.379 -60.9175 109.704 144.319 -61.6581 97.3818 144.891 -66.226 120.181 166.441 -87.6004 21.8903 12.4673 12.1335 
152.712 152.583 149.739 149.817 141.379 133.728 89.3286 82.5247 76.2414 82.6139 100.46 122.71 -63.1067 130.439 137.378 -64.6237 121.116 140.692 -60.997 109.893 144.838 -61.7033 97.3718 145.246 -66.3822 120.017 166.627 -87.7074 22.0065 12.3989 12.0749 
152.412 152.674 149.767 150.134 141.076 133.365 89.3534 82.5692 76.1203 82.5026 100.643 122.907 -63.3137 130.376 137.662 -64.6601 121.034 141.042 -61.0421 109.96 145.309 -61.8035 97.1553 145.446 -66.5579 119.79 166.86 -87.765 22.2175 12.4324 12.0119 
151.965 152.7 149.7 150.187 140.637 132.783 89.5499 82.7978 76.116 82.6777 100.985 123.25 -63.5357 130.333 137.839 -64.7311 120.986 141.168 -61.1096 109.982 145.448 -62.0123 96.9403 145.304 -66.8937 119.615 167.108 -87.8689 22.5004 12.5201 11.9893 
151.412 152.523 149.451 149.982 140.261 132.125 89.6903 83.0745 76.117 82.974 101.213 123.639 -63.7412 130.131 137.87 -64.7064 120.748 141.123 -61.0467 109.762 145.378 -62.1362 96.5588 145.057 -67.0248 119.327 167.24 -87.8718 22.6399 12.6446 11.9348 
150.764 152.223 149.283 149.904 140.003 131.255 89.9162 83.4208 76.1195 83.1061 101.848 123.986 -63.8599 130.034 137.95 -64.6383 120.661 141.093 -60.9224 109.656 145.341 -62.1909 96.2565 144.756 -67.1847 119.058 167.411 -87.8225 22.9359 12.7058 11.9243 
150.465 151.954 149.215 150.161 139.968 130.997 90.2904 83.9317 76.5826 83.3382 101.848 123.996 -63.792 129.938 137.897 -64.7332 120.674 140.955 -60.8629 109.706 145.217 -62.063 96.2257 144.528 -67.1813 118.748 167.49 -87.8399 23.0089 12.6287 11.9698 
150.599 151.69 149.254 150.235 140.554 131.185 90.6716 84.4214 77.1799 83.5527 101.53 123.953 -63.7644 129.709 137.787 -64.7083 120.51 140.797 -60.6914 109.522 145.008 -61.7587 96.1928 144.445 -66.8721 118.391 167.536 -87.7976 22.7717 12.5123 11.9572 
151.059 151.527 149.283 150.234 141.11 131.587 90.7787 84.5876 77.4714 83.6969 100.955 123.526 -63.4707 129.321 137.495 -64.5849 120.091 140.492 -60.442 109.044 144.61 -61.363 95.8454 144.136 -66.3398 117.824 167.281 -87.6277 22.5267 12.4287 11.8795 
151.32 151.532 149.274 150.372 141.677 131.877 90.7794 84.5554 77.7724 83.7165 100.248 123.207 -63.2678 128.886 137.295 -64.4683 119.601 140.322 -60.2838 108.525 144.366 -60.9301 95.5068 144.007 -65.8175 117.212 167.004 -87.4722 22.3038 12.2928 11.7913 
151.434 151.596 149.331 150.519 142.324 132.138 90.6636 84.3525 77.8602 83.5818 99.5013 123.043 -63.2341 128.359 137.361 -64.5394 118.981 140.391 -60.3698 108.057 144.483 -60.801 95.2636 144.335 -65.601 116.721 166.996 -87.4588 22.0707 12.2721 11.7189 
151.949 151.868 149.455 150.553 142.613 132.74 90.7344 84.2915 78.022 83.3179 98.2363 122.969 -63.2621 127.511 137.375 -64.2994 118.063 140.437 -60.2566 107.278 144.648 -60.5962 94.5937 144.818 -65.4398 116.232 166.947 -87.4462 21.8585 12.2454 11.6673 
152.439 151.945 149.441 150.27 142.931 133.428 90.8814 84.3762 78.2928 83.3534 96.9642 123.169 -63.3413 126.559 137.372 -64.023 117.146 140.489 -60.0706 106.421 144.796 -60.3609 93.8602 145.263 -65.2304 115.774 167.013 -87.4274 21.7072 12.2096 11.6979 
152.493 152.151 149.529 150.262 143.335 133.605 90.8431 84.1798 78.2431 83.1244 96.1373 123.51 -63.3793 126.111 137.757 -64.2469 116.728 140.895 -60.3778 106.081 145.241 -60.5905 93.6334 145.794 -65.5262 115.508 167.351 -87.6059 21.7755 12.2287 11.7644 
152.51 152.408 149.601 150.38 143.348 133.627 91.006 84.3263 78.43 83.2823 95.3587 123.563 -63.3476 125.907 137.854 -64.4874 116.513 140.921 -60.5943 105.935 145.273 -60.7437 93.5277 145.791 -65.7451 115.151 167.47 -87.724 21.8294 12.2259 11.75 
152.491 152.542 149.607 150.741 143.725 133.599 91.2123 84.5794 78.8842 83.5446 94.7491 123.6 -63.4345 125.769 137.882 -64.7953 116.435 140.94 -60.7919 105.969 145.278 -60.7403 93.5827 145.718 -65.8377 114.761 167.563 -87.8612 21.8547 12.1721 11.7548 
152.221 152.517 149.425 151.004 143.96 133.304 91.1447 84.5857 79.1236 83.6763 94.7443 123.829 -63.8225 125.652 138.031 -65.2077 116.422 141.072 -61.0977 106.061 145.404 -60.8395 93.6117 145.809 -65.9522 114.456 167.802 -87.977 21.8194 12.1555 11.8432 
