145.774 148.505 140.519 143.674 148.986 151.164 85.8926 84.0216 86.2002 86.1022 50.7739 273.047 -11.9789 36.5516 273.279 15.9398 33.4215 268.356 26.306 27.0368 261.815 36.9447 18.4577 252.483 38.7076 -0.142547 275.374 15.6736 13.5532 8.20218 13.2987 
146.506 148.522 140.386 143.557 148.928 151.492 85.902 84.0888 86.266 86.2009 50.6041 272.177 -12.0553 36.6068 273.326 16.1516 33.5231 268.344 26.3957 27.185 261.81 36.9596 18.6496 252.472 38.6872 0.0806332 275.133 15.5728 13.5702 8.26606 13.2566 
146.728 148.538 140.504 143.686 149.153 152.017 85.7505 84.0895 86.3265 86.3534 50.5131 271.35 -11.9428 36.6766 273.395 16.2375 33.7025 268.415 26.4706 27.4538 261.863 37.0128 18.9725 252.52 38.7824 0.332081 274.931 15.5441 13.5451 8.2831 13.2809 
147.099 148.343 140.753 143.933 149.595 152.268 85.636 84.2529 86.4846 86.5497 50.4783 270.266 -11.6732 36.9225 273.124 16.0701 34.1646 268.067 26.3357 27.9289 261.517 36.9274 19.3939 252.274 38.8105 0.543563 274.636 15.5686 13.4833 8.23192 13.2315 
147.762 147.984 141.062 144.416 150.019 151.964 85.3834 84.3645 86.4952 86.636 50.2822 268.664 -11.1613 37.2851 272.601 15.7544 34.7442 267.607 26.1193 28.4099 261.054 36.7824 19.7489 251.926 38.8361 0.789298 274.37 15.6404 13.4217 8.09448 13.291 
148.238 147.661 141.098 144.548 150.043 151.802 85.1957 84.3862 86.439 86.5626 50.3503 267.513 -10.7349 37.703 272.252 15.5999 35.2341 267.231 25.9994 28.81 260.692 36.6935 20.0016 251.679 38.8559 1.06843 274.168 15.6908 13.4078 8.00753 13.2189 
148.478 147.35 141.044 144.702 149.906 152.003 84.7825 84.2219 86.2289 86.3484 50.6402 266.708 -10.3425 38.0945 272.095 15.4047 35.6906 267.037 25.847 29.1948 260.526 36.552 20.2182 251.57 38.8284 1.40559 274.134 15.7512 13.4068 7.95152 13.1443 
148.575 147.353 141.024 144.758 149.858 152.098 84.6985 84.2653 86.245 86.3011 50.9605 266.502 -10.0426 38.5401 272.027 15.3199 36.1929 266.98 25.7849 29.6361 260.499 36.5321 20.5282 251.591 38.8926 1.7287 274.23 15.8471 13.3775 7.88248 13.1093 
148.348 147.214 141.065 144.815 149.804 151.669 84.7121 84.2806 86.1878 86.2182 51.2274 266.658 -9.87962 39.0236 272.089 15.1276 36.6764 267.067 25.6261 30.0512 260.547 36.4054 20.8842 251.617 38.8137 2.0213 274.363 15.8866 13.3681 7.79646 13.0992 
148.372 146.952 141.199 144.643 149.485 151.203 84.7029 84.1018 86.023 86.1748 51.4859 266.772 -9.81009 39.4249 272.222 14.8466 36.9762 267.344 25.4724 30.365 260.737 36.3166 21.3223 251.765 38.7186 2.28087 274.472 15.9698 13.4602 7.72218 13.1943 
148.066 146.868 141.259 144.308 149.115 150.348 84.9039 84.0124 85.967 86.0738 52.0925 267.557 -10.1095 39.8883 272.306 14.6833 37.2413 267.462 25.4179 30.6751 260.797 36.3062 21.7547 251.771 38.6055 2.58467 274.492 15.9538 13.5643 7.70904 13.171 
148.001 146.621 141.16 143.907 148.837 150.113 85.2168 84.0369 85.9924 86.0829 53.2296 269.19 -10.6797 40.4118 272.681 14.5196 37.6133 267.685 25.2956 31.0922 260.898 36.2026 22.2818 251.816 38.4313 2.85986 274.662 15.9698 13.5923 7.67871 13.012 
148.402 146.772 141.139 143.618 148.686 150.014 85.3452 83.9383 85.9978 85.9874 54.3014 270.474 -11.4229 40.7345 272.847 14.6061 37.7251 267.688 25.3953 31.2865 260.823 36.2617 22.563 251.663 38.3583 3.16357 274.601 15.8601 13.6025 7.71854 12.8486 
149.007 147.339 141.207 143.657 148.872 150.299 85.5612 83.9869 86.0755 85.7904 55.4204 271.458 -12.1633 40.9316 272.535 14.8817 37.8162 267.343 25.6471 31.4037 260.471 36.4956 22.6321 251.237 38.529 3.4382 274.333 15.8127 13.5315 7.72175 12.7924 
149.219 147.356 141.195 143.555 148.715 150.218 85.632 83.937 86.1342 85.8871 56.0351 271.765 -12.4427 41.1873 272.59 15.0942 37.9136 267.389 25.8742 31.5814 260.524 36.6542 22.8813 251.172 38.5924 3.77179 274.147 15.7663 13.5572 7.80806 12.7353 
148.974 147.464 141.033 143.594 148.855 150.57 85.6772 84.1245 86.3464 86.0423 56.2476 271.677 -12.4689 41.4341 272.409 15.373 38.2457 267.132 26.0581 31.9134 260.309 36.8366 23.203 250.935 38.7168 4.13214 273.885 15.7529 13.5439 7.82444 12.6691 
148.802 147.662 140.916 143.392 148.944 150.438 85.8302 84.35 86.5069 86.1986 56.3772 271.385 -12.2888 41.6849 272.416 15.676 38.5324 267.173 26.3286 32.1964 260.375 37.0315 23.5525 250.877 38.8906 4.49584 273.579 15.7085 13.4925 7.88249 12.6858 
149.207 147.673 140.806 143.46 149.23 150.562 85.7491 84.4835 86.6388 86.3426 56.4132 270.747 -12.2889 41.8153 272.343 15.799 38.8637 267.006 26.35 32.5548 260.215 37.0272 23.8925 250.663 38.9604 4.7932 273.359 15.6902 13.3763 7.89192 12.6496 
149.497 147.672 140.836 143.593 149.254 150.684 85.4562 84.4201 86.6193 86.3881 56.4893 269.839 -11.9849 42.1131 272.216 15.898 39.2741 266.876 26.3975 32.9543 260.154 37.0522 24.2056 250.633 39.0721 5.20915 273.273 15.7073 13.3324 7.91655 12.6549 
149.451 147.841 140.922 143.713 149.214 150.276 85.1946 84.3076 86.5339 86.2679 56.6793 268.835 -11.4929 42.512 271.943 16.0397 39.666 266.596 26.5171 33.2708 259.991 37.1614 24.3812 250.585 39.2097 5.67857 273.189 15.6766 13.3434 7.94893 12.6152 
149.395 147.432 140.79 143.544 148.914 149.749 85.1535 84.2555 86.4886 86.3114 56.9108 268.491 -11.1551 42.9527 272.088 15.9679 40.0318 266.717 26.4975 33.6171 260.134 37.1407 24.7426 250.745 39.1828 6.02602 273.256 15.6653 13.3869 7.9709 12.5483 
148.895 147.261 140.74 143.347 148.496 149.388 85.1824 84.1502 86.3414 86.199 57.3505 268.675 -11.1083 43.3713 272.013 15.8526 40.318 266.694 26.4205 33.8601 260.145 37.0403 24.9815 250.815 39.0421 6.36059 273.348 15.6169 13.4651 8.01361 12.5679 
148.897 147.202 140.786 143.362 148.366 149.372 85.2871 84.0606 86.2463 86.141 58.0356 269.217 -11.5013 43.7148 272.073 15.6874 40.5392 266.666 26.2741 34.1225 260.052 36.8572 25.3107 250.698 38.7871 6.64127 273.382 15.5226 13.5136 8.03714 12.4924 
148.327 147.154 140.708 143.151 147.986 148.927 85.3649 83.8958 86.1289 86.1635 58.1971 269.656 -11.6174 44.0449 272.316 15.5534 40.7129 266.916 26.1264 34.335 260.242 36.7039 25.6733 250.879 38.502 6.94607 273.54 15.4219 13.6545 8.06928 12.5312 
148.091 146.979 140.785 143.142 147.91 148.883 85.3266 83.6679 85.9287 86.0749 58.6 270.13 -11.8545 44.3445 272.598 15.3702 40.8712 267.14 25.9471 34.5193 260.349 36.5048 25.9817 250.973 38.2218 7.22685 273.679 15.2811 13.6962 8.0708 12.5435 
148.047 147.025 140.965 143.213 147.996 148.759 85.3862 83.4191 85.7097 85.9026 59.145 270.429 -11.9214 44.6844 272.791 15.2429 40.9955 267.365 25.8489 34.6869 260.464 36.3599 26.2581 251.034 38.004 7.53611 273.761 15.1291 13.7011 8.09385 12.6227 
148.002 147.802 141.177 143.4 148.326 148.693 85.4675 83.1125 85.4056 85.4857 60.1677 269.876 -12.0597 45.2186 272.304 15.35 41.2377 266.98 25.8276 34.953 260.007 36.1785 26.5965 250.437 37.6759 8.23147 273.093 14.6809 13.6827 8.20622 12.7898 
148.908 147.658 141.213 143.435 148.532 149.113 85.4764 83.1292 85.3694 85.4241 60.8565 269.239 -12.0742 45.4666 271.975 15.3866 41.3729 266.645 25.9207 35.0855 259.608 36.1479 26.7595 249.927 37.5793 8.53631 272.472 14.5221 13.6248 8.26286 12.8092 
149.473 147.341 141.062 143.43 148.626 149.425 85.415 83.2434 85.4838 85.5954 60.9411 268.397 -11.8303 45.7417 271.715 15.4151 41.7137 266.28 25.8854 35.4261 259.163 36.0244 27.0694 249.441 37.4269 8.81368 271.96 14.4361 13.5803 8.25856 12.7556 
149.849 147.587 140.638 143.134 148.393 149.088 85.4113 83.3035 85.4913 85.545 61.1529 267.874 -11.5124 46.0819 271.69 15.6695 42.1418 266.017 25.8784 35.8088 258.911 35.9565 27.4197 249.194 37.3105 9.24876 271.682 14.314 13.5979 8.28944 12.55 
150.193 147.229 140.451 143.067 148.317 149.033 85.2816 83.2151 85.424 85.5495 61.1962 267.414 -11.3998 46.355 271.701 15.6612 42.4266 265.958 25.8143 36.0919 258.849 35.8639 27.6753 249.126 37.2217 9.55676 271.602 14.2968 13.6032 8.31568 12.5045 
150.418 146.579 140.193 142.884 148.307 149.018 85.0101 83.1655 85.3859 85.6069 61.104 267.153 -11.4336 46.5724 271.864 15.4038 42.8367 266.001 25.5442 36.5196 258.826 35.6358 28.1065 249.066 37.09 9.84105 271.547 14.2704 13.5299 8.26261 12.4674 
150.335 146.455 140.08 142.961 148.437 148.99 84.7457 83.0674 85.2585 85.4368 61.2193 266.982 -11.4747 46.8118 271.765 15.311 43.1805 265.795 25.4246 36.7911 258.652 35.592 28.264 248.966 37.1515 10.1356 271.608 14.2779 13.4639 8.19823 12.3743 
150.625 146.479 139.881 142.874 148.54 149.102 84.5671 82.9214 85.0468 85.112 61.7332 267.021 -11.7941 47.0328 271.659 15.1396 43.4559 265.64 25.216 37.0091 258.555 35.4198 28.3658 248.871 37.0972 10.4597 271.591 14.1501 13.3741 8.19747 12.3375 
151.297 146.541 140.025 142.778 148.436 149.391 84.6265 82.7385 84.86 84.8817 62.5137 267.1 -11.9922 47.3002 271.542 15.024 43.5335 265.62 25.184 37.0905 258.547 35.3651 28.448 248.868 37.0616 10.7293 271.601 14.0377 13.3719 8.22459 12.3749 
151.652 146.922 140.119 142.725 148.269 149.493 84.7262 82.6779 84.805 84.8142 63.1342 267.247 -12.2585 47.5689 271.587 15.0039 43.692 265.71 25.1487 37.2729 258.631 35.2808 28.68 248.917 36.9231 11.058 271.635 13.8389 13.426 8.2497 12.3812 
152.47 147.413 140.119 142.642 148.114 150.161 84.9538 82.7251 84.8384 84.7732 64.3955 267.978 -12.6004 47.9301 271.604 15.1748 43.912 265.681 25.2502 37.4609 258.618 35.3257 28.8982 248.914 36.8681 11.4171 271.721 13.6893 13.4626 8.27899 12.2991 
153.492 147.421 140.108 142.752 148.283 150.911 85.3146 82.8278 84.9862 84.8207 65.2943 268.658 -13.0896 48.3545 271.518 15.1624 44.1382 265.742 25.2857 37.7084 258.674 35.3439 29.1388 248.934 36.8412 11.6883 271.825 13.5563 13.4069 8.28085 12.3794 
154.262 147.327 140.138 142.747 148.278 151.663 85.5088 82.7844 84.9436 84.7961 65.8991 269.106 -13.4239 48.7281 271.44 15.2067 44.2776 265.812 25.3737 37.8438 258.711 35.3562 29.2997 248.98 36.7948 11.9777 271.952 13.4839 13.4048 8.30109 12.4891 
155.261 146.987 140.137 142.794 148.22 152.432 85.7098 82.8796 85.0101 84.8301 66.5056 269.607 -13.9246 49.1523 271.414 15.1538 44.5615 265.836 25.3787 38.1253 258.662 35.3097 29.6542 248.886 36.6484 12.2722 271.89 13.3565 13.3985 8.29452 12.5452 
155.879 147.15 139.992 142.699 148.322 152.938 85.9021 82.9942 85.0524 84.7643 67.0402 269.839 -14.1283 49.4439 271.188 15.3125 44.7828 265.61 25.4742 38.3166 258.384 35.3384 29.8845 248.558 36.6168 12.5714 271.52 13.2129 13.3265 8.30198 12.5741 
156.046 147.323 139.765 142.444 148.236 153.075 86.0969 83.1265 85.1549 84.9126 67.2816 269.769 -14.3426 49.7132 270.893 15.3541 45.0271 265.345 25.4294 38.5514 258.1 35.2557 30.173 248.264 36.5097 12.8392 271.111 13.0432 13.3097 8.3115 12.6107 
156.27 147.218 139.396 142.151 148.053 153.382 86.2491 83.2354 85.2565 85.0519 67.5948 269.554 -14.7902 50.1916 270.473 15.3513 45.5154 264.855 25.2672 39.0467 257.557 35.0437 30.7135 247.65 36.2641 13.3406 270.428 12.7797 13.2667 8.31516 12.5691 
156.785 147.015 139.358 141.772 147.786 153.806 86.5609 83.262 85.3345 85.113 68.1178 270.054 -15.1687 50.492 270.454 15.3649 45.5944 264.857 25.3179 39.2222 257.496 34.9931 30.9354 247.512 36.1597 13.544 270.223 12.6909 13.2286 8.38758 12.575 
157.045 147.033 139.164 141.318 147.311 153.889 86.6325 83.2445 85.3464 85.0774 68.4752 270.657 -15.4687 50.6707 270.656 15.4929 45.7131 264.966 25.3508 39.3739 257.603 34.9651 31.114 247.581 36.0516 13.8141 270.205 12.5717 13.2644 8.45571 12.4944 
157.162 146.819 139.1 141.275 147.326 153.916 86.5152 83.1893 85.3232 85.0494 68.4275 270.829 -15.7745 50.7266 270.79 15.3855 45.8373 265.037 25.2445 39.5407 257.652 34.8628 31.3057 247.578 35.9538 13.9921 270.194 12.4736 13.2283 8.47094 12.4845 
157.406 146.874 139.033 141.298 147.356 153.968 86.3004 83.1242 85.2354 84.8336 68.4063 270.787 -15.971 50.7568 270.916 15.3734 46.0031 265.007 25.182 39.6863 257.641 34.8407 31.3752 247.588 35.982 14.1707 270.268 12.4249 13.1831 8.44712 12.3445 
157.034 146.667 138.873 141.105 147.162 153.735 86.2347 83.2005 85.2871 84.9114 68.2835 270.761 -16.0361 50.8498 270.891 15.2557 46.1892 265.01 25.1272 39.8463 257.673 34.8186 31.5669 247.59 35.9804 14.3113 270.207 12.3659 13.1907 8.43515 12.3779 
156.831 146.669 138.749 140.957 147.093 153.708 86.3506 83.3366 85.4284 84.9478 68.4524 270.988 -16.3328 50.9708 270.713 15.2007 46.3588 264.868 25.1031 40.0198 257.583 34.8399 31.7195 247.49 36.0331 14.4341 270.096 12.2938 13.1389 8.43297 12.3861 
157.029 146.603 138.647 140.796 146.852 153.955 86.4076 83.4685 85.5527 85.0305 68.7852 271.458 -16.7651 51.1712 270.701 15.1861 46.5947 264.845 25.0689 40.2011 257.635 34.8339 31.8746 247.593 36.0228 14.6121 270.167 12.1856 13.1415 8.44086 12.3413 
157.528 146.688 138.811 140.973 146.951 154.509 86.4814 83.4518 85.5285 84.8916 69.1834 271.716 -17.1642 51.2964 270.484 15.0953 46.6728 264.613 24.9755 40.2435 257.439 34.7883 31.8359 247.496 35.9909 14.6676 270.207 12.0979 13.1392 8.41055 12.2853 
157.812 146.865 138.829 141.166 147.165 154.853 86.3489 83.2872 85.3568 84.5892 69.4538 271.738 -17.5753 51.2902 270.196 14.9978 46.7239 264.126 24.7511 40.2597 256.976 34.6432 31.7621 247.142 35.8985 14.7204 270.069 11.9581 13.1245 8.35695 12.09 
158.144 147.062 138.705 141.138 147.108 155.154 86.119 83.1393 85.2141 84.3752 69.68 271.727 -18.1202 51.2142 270.031 14.9538 46.7585 263.77 24.5486 40.266 256.628 34.4778 31.7253 246.853 35.759 14.8429 269.877 11.7368 13.1326 8.31124 11.9294 
158.604 147.229 138.6 141.015 147.063 155.788 86.1432 82.9995 85.0972 84.1212 70.2118 272.249 -18.6586 51.2333 269.862 14.9855 46.7095 263.537 24.4598 40.202 256.423 34.3997 31.5666 246.721 35.7049 14.9219 269.812 11.5881 13.1158 8.30646 11.8396 
159.166 147.315 138.607 140.876 146.813 156.571 86.2443 82.9723 85.0832 84.0943 70.8165 272.933 -19.2422 51.3457 269.695 14.9141 46.7549 263.398 24.311 40.227 256.306 34.2341 31.5289 246.673 35.5369 15.0115 269.801 11.4127 13.1505 8.30489 11.8295 
159.253 147.46 138.533 140.837 146.688 156.779 86.1648 82.9865 85.1201 84.1424 71.0485 273.344 -19.4936 51.3323 269.556 14.8477 46.7939 263.179 24.1858 40.2355 256.144 34.1218 31.5065 246.56 35.4068 15.0438 269.707 11.2665 13.189 8.31958 11.7596 
159.198 147.647 138.413 140.751 146.502 156.967 86.079 82.854 84.9698 84.0205 71.3054 273.439 -19.8255 51.2636 269.355 14.751 46.7164 262.889 23.9449 40.1324 255.843 33.8451 31.4038 246.283 35.098 15.0857 269.444 11.025 13.2517 8.32474 11.6983 
158.979 147.843 138.601 141.46 147.045 156.837 85.6389 82.3802 84.4778 83.5991 71.3504 273.387 -19.8869 51.2983 269.162 14.6487 46.7207 262.627 23.7282 40.0178 255.593 33.6979 31.2192 246.089 34.9483 15.2674 269.319 10.8785 13.3047 8.28942 11.71 
158.662 148.117 138.559 141.453 146.951 156.517 85.4482 82.3586 84.4171 83.5446 71.4108 273.125 -19.7868 51.1651 269.13 14.5518 46.6701 262.48 23.5584 39.9053 255.463 33.4968 31.0964 245.987 34.6897 15.3023 269.193 10.6617 13.375 8.29744 11.6485 
158.226 148.127 138.484 141.389 146.796 156.046 85.4159 82.4362 84.477 83.6323 71.363 272.846 -19.5542 51.1751 269.036 14.3004 46.723 262.29 23.3066 39.9295 255.236 33.2353 31.1443 245.774 34.3715 15.2731 269.042 10.4847 13.4197 8.27313 11.5868 
157.254 148.332 138.627 141.488 146.683 155.271 85.2329 82.43 84.4581 83.735 71.1108 272.137 -19.0751 51.1657 269.004 14.0727 46.7802 262.274 23.1176 39.9722 255.205 33 31.2291 245.74 34.0814 15.3182 268.984 10.3354 13.5066 8.28614 11.6419 
156.721 148.057 139.113 141.932 146.896 154.735 84.8586 81.9663 83.9529 83.394 70.8467 271.798 -18.6893 51.2662 269.127 13.7318 46.7932 262.449 22.8662 39.96 255.315 32.7733 31.2807 245.85 33.8523 15.3906 269.106 10.3007 13.6063 8.2876 11.7439 
156.836 148.204 139.233 141.899 146.798 154.626 84.7724 81.9997 83.9462 83.3654 70.8271 271.337 -18.6812 51.2524 269.138 13.5751 46.871 262.378 22.6882 40.0309 255.2 32.5596 31.3588 245.753 33.6199 15.4369 269.065 10.137 13.6287 8.26284 11.7051 
156.213 148.62 139.227 141.884 146.777 153.973 84.7243 82.1636 84.0808 83.5026 70.5693 270.589 -18.3327 51.1593 269.126 13.6239 46.9345 262.293 22.6537 40.0735 255.125 32.4576 31.4233 245.665 33.4603 15.5161 268.965 9.94561 13.6451 8.27876 11.7053 
155.463 148.362 139.085 141.752 146.68 153.255 84.6091 82.3193 84.2428 83.7563 70.0923 269.769 -17.9697 51.1896 269.206 13.3993 47.1098 262.325 22.4624 40.2583 255.123 32.2439 31.6461 245.647 33.2215 15.557 268.914 9.82597 13.6636 8.26905 11.7135 
154.989 147.936 138.954 141.67 146.597 152.824 84.6155 82.525 84.4638 84.0458 69.9157 269.075 -17.7845 51.2765 269.173 13.2269 47.2908 262.241 22.3381 40.4663 254.991 32.0984 31.8944 245.482 33.049 15.5628 268.771 9.75695 13.6633 8.24449 11.6787 
154.736 147.807 138.862 141.634 146.63 152.674 84.6733 82.6535 84.5514 84.1258 69.9348 268.657 -17.5278 51.3008 269.101 13.2182 47.34 262.086 22.3229 40.5079 254.802 32.0364 31.9515 245.297 32.9243 15.5368 268.644 9.73315 13.7039 8.24118 11.61 
154.469 147.771 138.792 141.464 146.49 152.402 84.6964 82.7231 84.6733 84.2494 69.9847 268.364 -17.1784 51.2993 269.167 13.3345 47.3273 262.08 22.414 40.521 254.789 32.0774 31.9712 245.307 32.9125 15.5564 268.617 9.71227 13.7184 8.27324 11.5435 
154.291 147.644 138.822 141.417 146.399 152.243 84.6538 82.7419 84.7135 84.3696 69.8144 267.926 -17.0954 51.258 269.266 13.3604 47.2907 262.156 22.4272 40.5065 254.843 32.0305 31.9716 245.344 32.8388 15.5707 268.629 9.6793 13.739 8.29198 11.5222 
153.908 147.693 138.787 141.385 146.373 151.97 84.7616 82.8401 84.8396 84.5233 69.6879 267.535 -16.9506 51.2636 269.183 13.3479 47.2834 262.158 22.4354 40.538 254.84 32.0053 32.0178 245.309 32.7949 15.5624 268.56 9.63401 13.737 8.30857 11.584 
153.635 147.607 138.804 141.321 146.33 151.671 84.8723 82.9699 84.9999 84.7493 69.6049 267.195 -16.699 51.3849 269.208 13.2835 47.3996 262.222 22.4257 40.6871 254.911 31.9944 32.209 245.376 32.7758 15.574 268.571 9.64278 13.7481 8.32603 11.5946 
153.639 147.73 138.897 141.336 146.385 151.585 84.9565 82.9489 84.9902 84.7051 69.7337 266.971 -16.5182 51.4348 269.153 13.2928 47.3589 262.215 22.4689 40.6649 254.919 32.0275 32.1914 245.39 32.8106 15.565 268.573 9.64891 13.7335 8.35488 11.6011 
153.568 147.997 138.914 141.404 146.525 151.678 85.0993 83.0099 85.0396 84.6772 69.9294 267.15 -16.5856 51.4332 268.965 13.4009 47.3035 262.094 22.5639 40.5872 254.841 32.1248 32.0801 245.314 32.8925 15.5374 268.521 9.66031 13.7256 8.36738 11.6328 
153.589 148.314 138.93 141.409 146.538 151.692 85.0638 82.9366 84.9613 84.4835 70.0753 267.252 -16.6393 51.4168 268.815 13.5028 47.2491 261.913 22.6055 40.4828 254.711 32.1712 31.9016 245.209 32.9277 15.5669 268.49 9.65407 13.7161 8.38096 11.5978 
153.637 148.405 138.908 141.388 146.535 151.912 85.151 82.9882 84.9819 84.3531 70.5837 267.584 -16.6229 51.5341 268.555 13.6213 47.2737 261.649 22.7281 40.438 254.472 32.3 31.7888 244.976 33.0349 15.5865 268.287 9.66091 13.6791 8.36125 11.5389 
154.175 148.12 138.842 141.34 146.6 152.534 85.2463 83.0578 85.0131 84.2892 70.9961 268 -16.9459 51.7187 268.291 13.5259 47.3954 261.338 22.6637 40.5104 254.163 32.2571 31.7793 244.685 33.0212 15.5695 268.078 9.67631 13.6246 8.32967 11.442 
155.108 148.055 138.932 141.364 146.579 153.305 85.4318 83.07 85.011 84.2265 71.3543 268.38 -17.4329 51.8149 268.087 13.5093 47.3512 261.217 22.6682 40.4589 254.057 32.2503 31.6815 244.573 33.024 15.5464 267.973 9.64727 13.5976 8.33766 11.4444 
155.788 147.887 138.95 141.303 146.562 153.898 85.5097 83.09 85.0208 84.2104 71.5628 268.801 -17.7989 51.8986 268.055 13.4341 47.3954 261.151 22.6062 40.511 253.986 32.1937 31.7 244.504 32.9994 15.5193 267.953 9.67475 13.5691 8.33484 11.3779 
156.224 147.81 138.928 141.275 146.596 154.264 85.666 83.1421 85.0822 84.2716 71.6501 269.004 -18.1164 51.9161 267.919 13.3679 47.3796 261.06 22.5589 40.5286 253.904 32.1602 31.7172 244.402 33.0076 15.4738 267.856 9.65096 13.5223 8.34119 11.3894 
156.309 147.783 138.857 141.223 146.629 154.42 85.8187 83.2398 85.1706 84.3246 71.7862 269.253 -18.2941 51.9871 267.697 13.2542 47.4345 260.858 22.4648 40.5805 253.735 32.0962 31.751 244.249 32.9719 15.4458 267.714 9.57837 13.4879 8.34328 11.3812 
156.432 147.62 138.701 141.012 146.544 154.537 85.9686 83.2866 85.2338 84.4082 71.8025 269.423 -18.3927 52.0425 267.656 13.1785 47.4637 260.854 22.3899 40.6394 253.749 32.0365 31.8185 244.277 32.9494 15.4272 267.689 9.54523 13.4614 8.36752 11.4037 
156.689 147.517 138.867 141.065 146.534 154.691 86.0341 83.2736 85.2648 84.4781 71.7003 269.25 -18.5063 52.0806 267.593 13.0772 47.4554 260.902 22.3564 40.6801 253.792 32.0017 31.8657 244.33 32.9269 15.4239 267.729 9.53278 13.4656 8.3794 11.4853 
156.779 147.572 138.943 141.101 146.493 154.692 86.0448 83.2388 85.2723 84.516 71.5806 269.222 -18.5952 52.0404 267.679 13.0496 47.4092 261.073 22.342 40.6916 253.964 31.9664 31.8978 244.488 32.8832 15.4289 267.839 9.49755 13.4846 8.41303 11.5721 
156.507 147.732 138.904 141.182 146.546 154.499 86.0512 83.2988 85.3646 84.6051 71.351 268.993 -18.6223 51.9983 267.507 13.0607 47.4415 260.95 22.3278 40.719 253.885 31.9915 31.9058 244.431 32.9079 15.4266 267.788 9.4666 13.5048 8.39971 11.6294 
156.559 147.665 138.866 141.272 146.676 154.59 86.0301 83.339 85.4263 84.7001 71.2257 269.032 -18.8309 51.9984 267.388 12.978 47.5353 260.83 22.2447 40.8241 253.76 31.9708 32.0248 244.306 32.9264 15.4054 267.696 9.4771 13.5011 8.34909 11.645 
156.402 147.88 139.005 141.592 146.939 154.534 85.9892 83.383 85.4534 84.7163 71.0483 268.883 -18.9474 51.96 267.124 12.8749 47.5631 260.662 22.2036 40.8189 253.636 31.9977 32.0092 244.202 32.9854 15.3816 267.613 9.43496 13.5052 8.30257 11.7254 
156.46 148.071 139.081 141.841 147.067 154.637 85.8689 83.3014 85.3726 84.6563 70.9055 268.769 -19.1943 51.7622 266.997 12.8196 47.4088 260.547 22.1816 40.678 253.537 32.0133 31.9054 244.096 33.0261 15.319 267.511 9.37084 13.5162 8.28253 11.738 
156.694 148.088 139.189 141.945 147.129 154.848 85.7735 83.1886 85.2614 84.5782 71.0778 268.747 -19.3354 51.6778 266.906 12.7827 47.2767 260.504 22.1855 40.5567 253.494 32.012 31.803 244.053 33.049 15.3133 267.383 9.30687 13.5123 8.28904 11.7609 
156.779 148.39 139.033 141.819 147.164 154.73 85.8012 83.1783 85.2452 84.5474 71.1552 268.79 -19.3688 51.6295 266.879 12.8388 47.2564 260.435 22.17 40.5431 253.441 32.0258 31.8219 244.005 33.1003 15.3431 267.232 9.24309 13.484 8.28872 11.7325 
157 148.501 138.955 141.679 147.087 154.912 85.9479 83.1393 85.2169 84.5272 71.4157 269.06 -19.5142 51.6549 266.878 12.8304 47.1769 260.509 22.1583 40.5007 253.509 31.9992 31.8095 244.038 33.0953 15.3562 267.146 9.16909 13.4605 8.31436 11.7651 
