152.763 129.482 138.095 136.555 136.439 146.365 75.7479 78.7497 80.8731 78.3227 132.561 122.528 90.0465 103.808 135.851 100.783 89.7824 131.653 101.278 75.7586 130.318 99.4067 65.1993 129.797 89.7762 83.7202 156.694 81.0724 12.6586 8.19546 9.28032 
152.589 129.887 138.348 136.832 136.727 146.16 75.8261 78.8778 80.986 78.3923 131.415 121.931 89.7955 103.252 135.249 100.945 89.2277 131.12 101.524 75.1904 129.9 99.7194 64.5816 129.514 90.1428 83.265 156.354 81.3114 12.6441 8.18995 9.30069 
152.523 130.15 138.602 137.168 137.055 146.133 75.9204 79.0727 81.2084 78.5539 130.455 121.524 89.7801 102.757 134.821 101.209 88.7707 130.778 101.929 74.7139 129.648 100.205 64.0523 129.383 90.6582 82.8892 156.215 81.6636 12.5983 8.16839 9.40266 
152.394 130.316 138.901 137.534 137.402 146.055 75.9186 79.1511 81.3348 78.6551 129.409 121.121 89.7757 102.272 134.513 101.418 88.3075 130.586 102.316 74.234 129.508 100.678 63.5083 129.292 91.1556 82.4621 156.104 81.9699 12.5479 8.15524 9.54906 
152.166 130.669 139.212 137.939 137.816 145.862 75.8538 79.1276 81.3566 78.6874 128.279 120.692 89.8867 101.798 134.3 101.676 87.8721 130.47 102.731 73.7823 129.378 101.156 62.9845 129.134 91.6565 81.9906 155.955 82.2527 12.4871 8.13333 9.71235 
152.157 131.113 139.535 138.246 138.118 145.876 75.9864 79.2422 81.4903 78.8489 127.393 120.367 90.2045 101.479 134.193 101.999 87.6435 130.432 103.224 73.5302 129.295 101.684 62.7093 128.951 92.1761 81.5921 155.933 82.547 12.4489 8.11274 9.96603 
152.583 131.664 139.795 138.601 138.489 146.204 76.1046 79.3009 81.5851 78.9733 127.044 120.317 90.7718 101.16 134.221 102.387 87.4039 130.468 103.716 73.2677 129.273 102.223 62.4134 128.799 92.697 81.1544 155.954 82.845 12.4066 8.10091 10.1379 
152.878 132.098 139.891 138.838 138.816 146.572 76.2464 79.3359 81.6617 79.0859 126.924 120.409 91.3847 100.917 134.32 102.716 87.2174 130.512 104.13 73.0339 129.237 102.716 62.1004 128.638 93.2018 80.6234 156.018 83.1398 12.3413 8.07468 10.2405 
153.205 132.328 139.817 138.859 138.984 146.941 76.3788 79.302 81.6722 79.1527 127.199 120.686 91.861 100.635 134.383 102.869 86.957 130.491 104.272 72.7761 129.119 102.889 61.8046 128.425 93.3772 80.1037 156.026 83.3051 12.2893 8.09561 10.2904 
153.175 132.511 139.692 138.879 139.046 147.123 76.3323 79.1052 81.5592 79.0971 127.42 121.21 92.1082 100.324 134.565 102.925 86.6711 130.507 104.267 72.5031 128.993 102.934 61.4963 128.2 93.4282 79.5211 155.992 83.4226 12.2817 8.12252 10.2668 
152.894 132.422 139.598 138.939 139.162 147.254 76.4156 79.0118 81.5283 79.0527 127.782 121.759 92.392 100.002 134.566 102.933 86.3156 130.452 104.276 72.146 128.902 103.06 61.0511 128.145 93.607 78.9409 155.98 83.5826 12.2726 8.14948 10.1973 
152.752 132.046 139.527 138.776 139.015 147.541 76.4323 78.9141 81.5478 79.0936 127.881 122.243 92.4347 99.5944 134.646 102.876 85.8756 130.499 104.238 71.7309 128.971 103.151 60.5413 128.324 93.7615 78.432 156.078 83.7798 12.2493 8.20643 10.1403 
152.618 131.628 139.541 138.771 139.017 147.691 76.2326 78.7375 81.5112 79.0461 127.742 122.479 92.4368 99.045 134.614 102.823 85.3127 130.484 104.227 71.1872 129.065 103.281 59.9084 128.589 93.9437 77.9788 156.053 83.9368 12.2467 8.27287 10.0998 
152.594 131.118 139.512 138.74 138.978 147.873 75.9561 78.6183 81.5013 78.9916 127.792 122.719 92.7332 98.4879 134.636 102.92 84.7292 130.491 104.339 70.6223 129.16 103.484 59.281 128.843 94.1756 77.5473 155.996 84.1242 12.2605 8.30242 9.97503 
152.723 130.764 139.466 138.775 139.058 148.216 75.4778 78.3732 81.3784 78.8424 128.029 122.964 93.1442 97.879 134.69 103.054 84.0649 130.477 104.395 69.99 129.223 103.584 58.6383 129.035 94.2671 77.1486 155.858 84.2609 12.2923 8.35036 9.78889 
152.923 130.43 139.414 138.908 139.288 148.274 75.1097 78.2251 81.2971 78.6836 128.114 123.234 93.7041 97.4226 134.812 103.261 83.5505 130.569 104.58 69.4548 129.348 103.823 58.0553 129.29 94.5403 76.7648 155.905 84.5005 12.2964 8.31034 9.61247 
153.149 130.454 139.329 139.033 139.562 148.245 74.7338 78.1058 81.2252 78.6034 128.077 123.441 94.4024 96.9025 134.879 103.562 82.993 130.55 104.791 68.883 129.322 104.016 57.4807 129.345 94.7509 76.3565 155.872 84.7248 12.3 8.25436 9.42277 
153.409 130.364 139.128 138.957 139.757 148.221 74.4779 78.0384 81.2024 78.634 127.646 123.44 94.8957 96.3816 134.809 103.785 82.4357 130.472 104.921 68.3224 129.287 104.105 56.9336 129.428 94.8642 75.9777 155.906 84.9566 12.295 8.22825 9.31326 
153.542 130.304 138.789 138.773 139.849 147.984 74.1624 77.9033 81.1228 78.6388 127.087 123.541 95.25 95.9161 134.784 103.912 81.9596 130.336 104.935 67.8361 129.109 104.076 56.4491 129.296 94.871 75.5025 155.852 85.1063 12.2849 8.19265 9.19751 
153.408 130.438 138.563 138.758 140.101 147.714 74.0467 77.8557 81.101 78.6375 126.226 123.406 95.4035 95.3316 134.636 104.03 81.3641 130.149 105.013 67.2229 128.954 104.185 55.7666 129.213 95.0441 74.9266 155.781 85.2503 12.2262 8.16262 9.10675 
153.213 130.906 138.635 139.008 140.521 147.514 74.0721 77.8908 81.1019 78.6356 124.954 123.019 95.2266 94.6299 134.315 104.153 80.6916 129.78 105.162 66.5063 128.655 104.394 54.9402 128.954 95.331 74.1878 155.522 85.3189 12.1435 8.12091 9.06155 
153.307 131.379 138.856 139.285 140.888 147.464 74.0687 77.8837 81.0752 78.5922 123.745 122.645 94.9539 94.0439 134.072 104.24 80.1414 129.465 105.334 65.9013 128.387 104.671 54.1944 128.678 95.6931 73.4437 155.238 85.3786 12.0468 8.09028 9.04723 
153.013 131.763 139.232 139.575 141.158 147.118 74.0812 77.8594 81.0477 78.5389 122.158 122.076 94.5017 93.4815 133.931 104.295 79.6077 129.262 105.532 65.31 128.196 105.006 53.4245 128.409 96.1159 72.6323 154.975 85.4118 11.9126 8.06048 9.05108 
153.129 131.91 139.678 139.825 141.331 147.24 73.7988 77.7037 80.9573 78.3424 120.848 121.513 94.186 92.8773 133.917 104.283 78.9607 129.263 105.706 64.6629 128.298 105.319 52.6675 128.581 96.4612 72.0286 154.954 85.5593 11.8325 8.12884 9.12851 
153.57 132.19 140.03 140.024 141.419 147.412 73.7128 77.7098 80.9951 78.2888 119.947 121.264 94.3243 92.3343 134.096 104.533 78.4342 129.465 106.104 64.1387 128.541 105.788 52.0829 128.848 96.9326 71.5292 155.191 85.8588 11.7731 8.15142 9.24 
153.91 132.581 140.363 140.159 141.47 147.471 73.7009 77.7705 81.0365 78.2943 118.961 120.813 94.4547 91.7218 134.146 104.789 77.8177 129.574 106.403 63.5469 128.692 106.05 51.5118 129.036 97.1624 71.0758 155.349 86.0798 11.7514 8.17639 9.31598 
153.953 133.195 140.705 140.266 141.516 147.517 73.8762 77.9737 81.1609 78.4353 117.816 120.254 94.6238 90.9933 134.091 105.184 77.1367 129.595 106.762 62.8842 128.787 106.288 50.8986 129.186 97.3571 70.6636 155.512 86.3231 11.7118 8.16284 9.40149 
153.891 133.927 141.036 140.34 141.51 147.576 74.2097 78.2549 81.3666 78.7325 116.518 119.776 94.6754 90.3227 134.138 105.639 76.5815 129.645 107.165 62.3389 128.829 106.57 50.3932 129.192 97.6147 70.209 155.729 86.5818 11.6754 8.10857 9.49628 
154.211 134.715 141.523 140.577 141.679 147.861 74.7477 78.6885 81.6702 79.1653 114.972 119.131 94.3579 89.6273 134.117 106.051 76.0264 129.593 107.614 61.7698 128.804 106.967 49.8053 129.109 98.0467 69.5835 155.919 86.8125 11.643 8.03501 9.57588 
154.478 135.573 142.183 141.067 142.002 148.331 75.1338 79.0125 81.8537 79.4211 113.475 118.528 94.1453 88.9571 134.003 106.42 75.457 129.47 108.106 61.1356 128.772 107.479 49.0799 129.052 98.6222 68.9054 156.008 87.0558 11.6069 7.92709 9.62787 
154.424 136.256 142.713 141.419 142.047 148.739 75.0181 79.0615 81.9018 79.5177 112.259 118.188 93.953 88.461 134.142 106.572 75.0469 129.395 108.374 60.6595 128.656 107.797 48.5328 128.778 98.9249 68.1565 155.91 87.1509 11.6068 7.8612 9.64573 
154.127 136.66 143.126 141.727 142.055 148.983 74.7299 78.9727 81.899 79.5201 111.361 118.088 93.9628 88.0644 134.449 106.627 74.7352 129.49 108.563 60.285 128.681 108.088 48.0878 128.626 99.1685 67.4501 155.875 87.2297 11.6279 7.82409 9.68821 
153.665 136.581 143.366 141.969 142.047 149.176 74.1969 78.5252 81.638 79.22 110.575 118.145 93.7917 87.6436 134.809 106.398 74.3122 129.763 108.456 59.8424 128.89 108.158 47.5844 128.706 99.1967 66.7721 155.883 87.2565 11.6932 7.87202 9.74664 
153.648 136.449 143.485 142.261 142.211 149.325 73.6906 78.0733 81.3389 78.8076 110.241 118.089 94.1372 87.0255 135.01 106.293 73.6285 130.019 108.43 59.153 129.189 108.275 46.8233 129.007 99.267 66.159 155.888 87.3504 11.7174 7.9232 9.77471 
154.709 136.114 143.304 142.366 142.381 149.712 73.522 77.8503 81.19 78.6399 110.226 117.948 94.6884 86.4261 134.984 106.236 72.9687 130.12 108.366 58.4901 129.348 108.276 46.1449 129.229 99.2614 65.6149 155.939 87.4508 11.7315 7.95261 9.78549 
155.462 135.975 143.164 142.438 142.487 149.688 73.4862 77.7798 81.1357 78.5602 110.09 117.897 95.2237 85.7841 135.01 106.366 72.2576 130.238 108.419 57.806 129.511 108.31 45.5061 129.487 99.2646 65.1402 156.062 87.6075 11.7627 7.97715 9.73726 
155.31 136.143 143.189 142.554 142.602 149.597 73.7169 77.9348 81.1946 78.6302 109.408 117.921 95.4586 85.0944 134.903 106.631 71.5537 130.213 108.632 57.0956 129.575 108.469 44.8274 129.662 99.4273 64.6106 156.22 87.8408 11.7856 7.94887 9.71279 
155.068 136.214 143.184 142.705 142.806 149.491 73.83 78.0122 81.1974 78.7061 108.787 117.864 95.8349 84.4155 134.758 106.848 70.9165 130.067 108.83 56.4124 129.47 108.638 44.1213 129.568 99.6405 63.9945 156.145 87.9604 11.7884 7.85987 9.68989 
154.887 136.228 143.235 142.913 142.984 149.533 73.6195 77.9331 81.1185 78.6509 108.222 117.791 95.9441 83.781 134.701 106.806 70.3012 129.902 108.846 55.7393 129.321 108.709 43.3885 129.405 99.7526 63.2407 155.961 87.9516 11.8112 7.79362 9.64203 
155.101 136.221 143.334 143.091 143.085 149.634 73.1297 77.6394 80.895 78.4058 107.886 118.045 95.8907 83.3921 134.932 106.633 69.9107 129.923 108.739 55.2944 129.216 108.682 42.8761 129.207 99.7475 62.485 155.808 87.9027 11.8553 7.74526 9.56788 
155.443 136.069 143.373 143.14 143.086 149.605 72.7064 77.4033 80.729 78.1793 107.868 118.398 96.13 83.017 135.177 106.533 69.4959 130.061 108.668 54.8678 129.274 108.64 42.417 129.225 99.6772 61.9101 155.736 87.8584 11.8687 7.75046 9.50126 
155.64 135.431 143.334 143.118 143.114 149.95 72.2809 77.1221 80.5394 77.8911 107.626 118.553 95.9507 82.4655 135.279 106.287 68.8482 130.241 108.504 54.2302 129.513 108.547 41.7012 129.564 99.5799 61.3768 155.755 87.8052 11.8221 7.79737 9.48809 
156.378 134.773 143.272 143.053 143.275 150.624 72.1328 77.0586 80.4827 77.7635 107.433 118.716 95.8092 81.7854 135.223 106.191 68.0722 130.398 108.434 53.4992 129.859 108.465 40.9435 130.167 99.4955 61.0023 155.995 87.8795 11.7408 7.87998 9.53193 
158.705 134.417 143.266 143.002 143.371 151.892 72.199 77.1398 80.5159 77.7674 107.628 118.835 95.7507 81.04 134.993 106.219 67.2592 130.415 108.434 52.7306 130.054 108.386 40.2088 130.565 99.3958 60.627 156.077 87.8944 11.6835 7.93298 9.57201 
160.179 134.088 143.252 142.859 143.317 152.814 72.26 77.2227 80.5445 77.7487 107.417 119.021 95.3136 80.4022 134.969 106.214 66.5633 130.55 108.391 52.0722 130.308 108.269 39.5973 131.005 99.2669 60.2738 156.311 87.9583 11.6554 7.97259 9.58863 
159.889 134.009 143.089 142.572 143.207 153.441 72.4691 77.4608 80.7361 78.0025 107.031 119.166 95.0311 79.7867 134.87 106.277 65.9718 130.473 108.348 51.5171 130.289 108.105 39.1401 131.127 99.1059 59.9149 156.409 87.9292 11.6544 7.98389 9.5969 
158.242 134.196 143.204 142.539 143.079 153.503 72.6221 77.7037 80.9057 78.1413 105.996 119.03 94.8554 79.1549 134.917 106.433 65.3834 130.516 108.467 50.9347 130.403 108.11 38.6385 131.365 99.0731 59.5791 156.643 87.9926 11.654 7.95372 9.65485 
151.19 134.566 143.138 141.792 142.243 153.244 73.4672 78.0696 81.326 78.6104 103.195 119.294 94.6059 78.4685 134.81 106.895 64.6178 130.712 108.735 50.2907 130.317 108.143 38.2599 131.355 99.0828 59.205 156.551 87.7582 11.9384 7.85413 9.45966 
151.969 134.778 142.884 141.3 141.642 154.485 74.2834 78.3232 81.6751 78.923 102.032 119.928 94.1698 77.9071 134.783 107.223 63.9865 130.932 108.867 49.7636 130.263 108.161 37.9286 131.317 99.0687 58.8299 156.505 87.5133 12.1494 7.82398 9.28206 
157.857 134.972 142.827 141.031 141.101 155.691 74.8262 78.4317 81.8919 79.0182 101.277 120.598 93.5155 77.5204 135.032 107.453 63.5351 131.301 109.007 49.3548 130.355 108.287 37.6521 131.366 99.1636 58.4313 156.576 87.3327 12.3439 7.77982 9.13907 
171.625 135.124 142.861 140.934 140.798 157.751 75.2478 78.4778 82.0201 79.0121 101.494 121.167 93.4063 77.1351 135.425 107.637 63.0939 131.852 109.168 48.931 130.783 108.504 37.3256 131.833 99.385 58.096 156.975 87.286 12.5144 7.75556 9.06269 
170.928 134.889 142.839 140.892 140.538 159.679 75.5641 78.4755 82.1311 78.994 101.569 121.881 93.0845 76.738 135.719 107.558 62.6451 132.365 109.114 48.5115 131.227 108.542 36.9609 132.323 99.4128 57.7575 157.329 87.1376 12.6394 7.7697 9.04855 
159.434 134.576 142.876 140.815 140.153 160.05 75.8279 78.473 82.2148 79.0106 100.297 121.944 92.4787 76.3133 135.993 107.34 62.1911 132.827 108.906 48.1082 131.648 108.388 36.6289 132.773 99.2354 57.4268 157.737 86.9316 12.7654 7.81745 9.07859 
148.695 134.149 142.775 140.686 139.759 160.109 76.1112 78.3811 82.2261 79.037 98.8198 121.963 91.8895 75.8229 136.12 107.025 61.6817 133.263 108.508 47.6827 132.084 108.001 36.2928 133.248 98.8138 57.1793 158.135 86.6618 12.8662 7.91677 9.15951 
145.623 133.481 142.627 140.379 139.189 157.88 76.2401 78.2503 82.1985 79.0747 95.5824 120.962 90.4485 75.0365 136.042 106.643 60.9116 133.631 108.015 47.0263 132.56 107.407 35.7685 133.843 98.139 57.0637 158.521 86.3951 12.8996 8.06034 9.38145 
145.623 132.665 142.472 140.208 138.738 154.975 76.1163 77.9838 82.0275 78.9627 91.9795 119.973 88.846 74.3354 135.98 106.134 60.2002 133.967 107.451 46.3812 133.005 106.781 35.2102 134.352 97.4455 56.9012 158.808 86.0944 12.9026 8.16661 9.58684 
145.623 132.004 142.356 140.228 138.578 152.761 75.9266 77.7192 81.8391 78.7209 88.9463 119.446 87.517 73.5563 135.834 105.708 59.4155 134.244 107.001 45.6325 133.462 106.285 34.5282 134.93 96.8646 56.726 159.02 85.8505 12.8584 8.24536 9.81487 
145.623 131.642 142.474 140.38 138.513 151.32 75.708 77.4684 81.5961 78.4399 86.2969 118.842 86.4614 72.7579 135.558 105.242 58.6326 134.368 106.554 44.8741 133.841 105.793 33.84 135.415 96.2924 56.5165 159.111 85.5701 12.8429 8.31419 10.0749 
145.623 131.378 142.633 140.508 138.534 150.474 75.5265 77.341 81.4319 78.3107 84.2913 118.488 85.4339 72.1439 135.322 104.736 58.0449 134.324 106.071 44.296 134 105.259 33.3337 135.621 95.7133 56.2545 159.112 85.2066 12.8527 8.35142 10.2645 
145.623 131.254 142.937 140.764 138.737 150.399 75.6134 77.3875 81.3984 78.3091 82.5188 118.142 84.3232 71.4311 134.955 104.202 57.4137 134.23 105.63 43.6642 134.242 104.835 32.7501 135.957 95.2685 55.9257 159.17 84.8205 12.8734 8.37539 10.5077 
146.253 131.437 143.472 140.958 138.793 151.913 76.0102 77.6098 81.5273 78.5539 81.5275 117.063 84.3063 70.612 134.672 103.791 56.7885 134.245 105.263 43.083 134.628 104.426 32.2748 136.43 94.7945 55.6855 159.433 84.5201 12.9213 8.43193 10.8549 
167.255 131.528 144.076 141.144 138.731 148.642 76.2365 77.7671 81.6567 78.843 76.3491 115.622 82.0218 69.9755 134.688 103.34 56.345 134.419 104.907 42.6614 135.113 104.082 31.9286 136.949 94.3871 55.4397 159.86 84.2613 13.0049 8.47352 11.1759 
177.636 131.726 144.722 141.443 138.869 146.431 76.4059 77.8606 81.7613 79.1738 71.3033 114.575 80.6457 69.1285 134.772 102.94 55.721 134.706 104.563 42.0799 135.791 103.751 31.4559 137.728 93.9927 55.2332 160.441 84.0863 13.0953 8.53914 11.5193 
166.783 131.831 145.089 141.654 138.935 144.438 76.424 77.7012 81.6797 79.3528 66.9316 113.867 79.7391 68.1928 134.922 102.527 54.9668 135.091 104.062 41.3846 136.48 103.237 30.892 138.5 93.4109 55.0202 161.016 83.9224 13.1878 8.6252 11.7842 
159.838 131.726 145.335 141.805 138.906 142.79 76.0323 77.3064 81.4097 79.33 63.564 113.674 79.1679 67.4177 135.275 102.097 54.2654 135.574 103.544 40.7051 137.135 102.695 30.3308 139.195 92.8168 54.7683 161.565 83.8194 13.2819 8.67977 11.9596 
155.987 131.796 145.642 141.803 138.733 141.703 75.5142 76.9644 81.1541 79.4009 60.7175 113.635 78.7037 66.5456 135.609 101.774 53.4577 135.965 103.149 39.9279 137.678 102.178 29.7044 139.699 92.2225 54.4743 161.915 83.7106 13.3524 8.72779 12.1707 
153.543 131.946 146.176 141.888 138.436 140.844 74.6962 76.3492 80.6021 79.2559 58.3555 113.699 78.1945 65.7501 135.857 101.416 52.6704 136.221 102.635 39.1565 138.034 101.447 29.1121 139.972 91.4016 54.1758 162.038 83.592 13.4628 8.77021 12.3567 
152.051 131.896 146.506 141.916 138.133 140.289 74.1259 75.9341 80.1158 79.1353 56.9869 113.721 77.8074 65.0598 135.898 100.972 51.9883 136.234 102.082 38.4942 138.13 100.652 28.6152 139.97 90.5335 53.8104 162.071 83.4042 13.5633 8.80643 12.5618 
150.928 131.599 146.699 141.778 137.668 139.975 73.5537 75.6296 79.7089 79.0349 56.4274 113.581 77.614 64.6677 135.94 100.496 51.5627 136.071 101.557 38.0816 137.883 99.8835 28.318 139.549 89.7147 53.3621 161.946 83.1398 13.6595 8.82825 12.7041 
149.061 131.218 147.257 141.856 137.423 139.382 73.0497 75.1836 79.0587 78.8717 55.3858 113.749 76.9597 63.4521 135.862 99.7269 50.3204 135.876 100.622 36.925 137.538 98.54 27.3974 138.869 88.2896 52.2825 161.585 82.5231 13.8264 8.915 12.94 
148.678 130.602 147.152 141.603 137.09 139.089 72.7546 75.1159 78.8632 78.813 56.3828 113.76 77.1102 63.838 136.161 99.4646 50.5228 135.797 100.359 37.1125 137.04 98.1074 27.5981 138.038 87.8574 51.8688 161.399 82.1767 13.9284 8.88668 12.7809 
148.64 130.163 146.983 141.423 136.962 138.833 72.8401 75.2497 78.9436 78.7636 57.2592 113.971 77.2131 63.9113 136.583 99.3429 50.4723 136.045 100.289 37.0564 136.893 97.9536 27.532 137.643 87.6578 51.3326 161.386 81.8584 13.954 8.84592 12.6632 
149.569 129.778 146.465 141.015 136.873 139.233 73.3838 75.816 79.3994 78.9955 58.1346 113.958 77.2886 63.6895 136.806 99.3351 50.1979 136.234 100.406 36.8315 136.938 98.0775 27.2424 137.605 87.7635 50.7985 161.482 81.5931 13.8568 8.85222 12.5563 
150.644 129.512 145.953 140.774 137.011 139.751 73.9678 76.4049 79.9271 79.256 59.0533 114.171 77.5031 63.4968 137.176 99.4066 49.9571 136.576 100.645 36.633 137.143 98.4196 26.9288 137.732 88.0994 50.1598 161.742 81.4021 13.7575 8.87138 12.4241 
151.859 129.437 145.49 140.397 137.055 140.573 74.4577 77.024 80.4383 79.5523 59.6617 114.207 77.8647 62.9802 137.351 99.4833 49.4365 136.739 100.884 36.1798 137.349 98.7037 26.4245 137.986 88.3961 49.5362 161.971 81.2628 13.6527 8.91129 12.3738 
152.476 129.405 145.16 139.998 136.806 141.038 74.7224 77.364 80.6314 79.6207 59.7325 114.119 78.2339 62.2322 137.247 99.4592 48.7106 136.671 100.904 35.4947 137.431 98.6464 25.7627 138.15 88.3053 48.963 162.073 81.1639 13.5699 8.92838 12.4339 
152.801 129.4 144.958 139.723 136.516 141.261 74.8609 77.6308 80.736 79.6151 59.3448 113.889 78.5314 61.3906 137.046 99.396 47.8939 136.521 100.872 34.6991 137.445 98.4796 25.0118 138.212 88.0548 48.3865 162.027 81.0101 13.4848 8.91682 12.5458 
152.98 129.315 144.729 139.405 136.117 141.488 74.8616 77.7947 80.8193 79.6357 58.6471 113.734 78.5978 60.6044 136.85 99.2773 47.1175 136.329 100.784 33.9386 137.405 98.3155 24.3058 138.22 87.828 47.8009 161.987 80.8905 13.4424 8.926 12.6422 
153.126 128.908 144.415 139.231 135.975 141.617 74.8203 77.9035 80.8489 79.6395 57.6083 113.55 78.3708 59.8659 136.537 98.9976 46.3465 136.039 100.593 33.1576 137.326 98.1651 23.5125 138.208 87.684 47.1058 161.889 80.7209 13.411 8.95147 12.6895 
153.375 128.231 144.069 139.388 136.332 141.675 74.9109 78.0653 80.9627 79.6626 56.7619 113.425 77.9992 59.3808 136.212 98.6317 45.7861 135.743 100.429 32.5385 137.153 98.2091 22.7504 138.056 87.8054 46.2456 161.737 80.4692 13.3716 8.95736 12.6365 
153.422 127.671 144.075 139.967 137.021 141.582 75.048 78.1492 81.0256 79.4732 56.2265 113.361 77.5964 58.9352 135.818 98.2851 45.2801 135.515 100.334 31.9629 137.01 98.3534 21.9986 137.927 87.9797 45.425 161.468 80.2094 13.3157 8.95478 12.668 
153.261 127.691 144.279 140.408 137.362 141.527 75.0175 77.9469 80.8711 79.129 55.6258 113.47 77.3038 58.3058 135.754 98.1001 44.6457 135.665 100.2 31.2793 137.179 98.312 21.2512 138.149 87.9259 44.7858 161.489 80.0992 13.3044 8.92424 12.7403 
153.263 127.817 144.418 140.527 137.487 141.727 75.2675 77.9914 80.8492 78.9822 54.5929 113.357 77.1213 57.2158 135.446 98.0248 43.6684 135.67 100.159 30.3088 137.423 98.243 20.317 138.591 87.8253 44.2131 161.588 80.1349 13.2506 8.92112 12.9938 
153.158 128.162 144.495 140.534 137.478 141.715 75.4336 78.0942 80.8164 78.8706 53.6717 113.259 77.2802 56.2499 135.28 98.1294 42.8267 135.603 100.214 29.4727 137.504 98.1479 19.5503 138.775 87.6625 43.7075 161.618 80.1894 13.1806 8.8943 13.189 
153.208 128.445 144.459 140.356 137.219 141.806 75.5472 78.1776 80.8252 78.891 52.4956 113.054 77.2562 55.1969 135.116 98.141 41.8947 135.478 100.153 28.5617 137.564 97.9839 18.7136 138.966 87.4561 43.1584 161.653 80.2411 13.133 8.88952 13.3205 
153.295 128.892 144.452 140.361 137.154 141.923 75.6918 78.1952 80.7602 78.8255 51.2511 112.688 77.2555 53.9391 134.669 98.1059 40.7635 135.205 99.9868 27.4683 137.565 97.6928 17.7355 139.136 87.0868 42.6363 161.549 80.2559 13.0859 8.8958 13.4829 
153.505 129.145 144.559 140.555 137.236 142.126 75.5999 78.0422 80.5779 78.6831 49.8111 112.33 77.0487 52.874 134.263 97.9715 39.7974 134.932 99.8303 26.4978 137.56 97.5418 16.8047 139.242 86.9197 42.0535 161.358 80.2762 13.0706 8.91301 13.6555 
153.502 129.242 144.728 140.853 137.353 142.18 75.3001 77.6276 80.21 78.3991 48.7439 112.164 76.6816 52.1674 134.043 97.7205 39.0974 134.749 99.5025 25.7568 137.475 97.2854 16.0624 139.163 86.6902 41.4423 161.159 80.2242 13.1057 8.93798 13.6957 
153.331 129.276 145.011 141.237 137.546 142.01 75.0293 77.1878 79.8162 78.0733 47.8352 111.906 76.2881 51.629 133.687 97.469 38.533 134.413 99.129 25.1459 137.165 96.9527 15.4459 138.831 86.3721 40.8932 160.765 80.105 13.1506 8.94442 13.6668 
153.077 129.255 145.499 141.748 137.792 141.842 74.7394 76.6833 79.4272 77.6236 47.0105 111.675 75.9195 51.0698 133.381 97.2506 37.9411 134.269 98.8409 24.4929 136.961 96.6788 14.7838 138.631 86.0675 40.335 160.371 79.9988 13.1933 8.89385 13.703 
