151.067 143.09 135.653 134.419 139.865 152.412 87.4953 82.6642 83.3782 84.9106 94.5841 178.895 -29.7613 69.1056 182.114 -11.7716 57.4851 175.963 -3.32085 47.3622 167.984 3.2596 39.8832 157.629 2.18429 29.0653 177.245 -24.4606 13.8088 8.41776 12.3382 
150.896 143.017 135.575 134.529 140.288 152.142 87.427 82.5075 83.4386 85.1358 93.71 178.782 -29.4929 68.6012 182.29 -11.674 56.9078 175.949 -3.26168 46.7843 168.067 3.44792 39.294 157.752 2.45268 28.4283 177.361 -24.2983 13.7317 8.46396 12.1179 
151.068 143.21 135.51 134.794 140.757 152.006 87.2154 82.3843 83.4903 85.2545 92.9729 178.866 -29.3452 67.7857 182.293 -11.4084 56.1661 175.77 -3.09684 45.9956 168.012 3.70988 38.4626 157.711 2.73027 27.7424 177.358 -24.1201 13.6881 8.49424 11.798 
151.578 143.522 135.432 135.046 141.252 152.066 87.0422 82.2524 83.5453 85.4448 92.3949 179.382 -29.4011 66.9046 182.274 -11.109 55.3756 175.595 -2.94444 45.2496 167.873 3.89562 37.7334 157.56 2.90708 27.0611 177.269 -23.9548 13.6612 8.52434 11.5829 
151.38 143.696 135.374 135.227 141.62 151.878 87.0531 82.2091 83.5889 85.5743 91.5754 179.678 -29.4067 66.1204 182.386 -10.9314 54.6224 175.748 -2.82451 44.5579 168.037 4.02923 37.0636 157.712 3.02487 26.335 177.46 -23.7598 13.6778 8.55501 11.6282 
151.467 143.882 135.389 135.426 141.859 151.75 87.155 82.2799 83.6933 85.7047 90.8967 180.022 -29.414 65.4203 182.464 -10.765 53.9483 175.925 -2.68289 43.9229 168.23 4.16131 36.4093 157.916 3.11557 25.6315 177.723 -23.5859 13.7076 8.56803 11.7102 
151.541 144.082 135.387 135.58 142.032 151.568 87.2495 82.4217 83.8625 85.8648 90.162 180.392 -29.4186 64.6777 182.618 -10.538 53.3494 176.093 -2.49627 43.3813 168.4 4.34219 35.8421 158.097 3.24563 24.9308 177.987 -23.369 13.7361 8.57783 11.6878 
151.981 144.477 135.376 135.939 142.285 151.497 87.101 82.5719 84.0474 86.0236 89.7624 180.937 -29.3583 63.7839 182.675 -10.1263 52.7808 175.97 -2.22301 42.8061 168.301 4.58198 35.2462 157.972 3.36291 24.3396 178.003 -23.1861 13.7732 8.59035 11.4037 
152.161 145.943 135.968 136.841 142.263 152.53 86.3437 82.7535 83.459 85.2449 89.115 180.682 -29.6287 62.0382 181.678 -9.49161 51.9436 175.007 -1.65011 41.6116 167.208 4.92319 34.0286 156.913 3.61613 23.6215 177.414 -22.7665 13.9692 8.31885 11.2659 
153.273 147.449 136.368 137.686 142.346 153.359 85.5907 82.8218 82.698 84.1741 88.378 180.391 -29.9734 60.2544 180.961 -8.81382 51.1377 174.372 -1.10211 40.4145 166.445 5.21046 32.7858 156.106 3.79668 22.9626 177.002 -22.3495 14.2015 8.05225 11.3235 
154.423 148.834 136.656 138.473 142.47 153.979 85.0531 82.8844 81.9774 83.0969 87.6828 180.36 -30.3745 58.6515 180.501 -8.15668 50.4147 173.979 -0.611498 39.2836 165.952 5.47349 31.6176 155.53 3.93283 22.383 176.682 -22.0062 14.465 7.8067 11.4825 
154.262 150.13 136.382 139.866 143.782 153.474 84.7212 82.7243 81.2364 81.9491 86.7228 180.563 -30.3963 57.2744 180.548 -7.33864 49.7779 173.821 -0.180336 38.1163 165.721 5.89081 30.4795 155.004 4.3019 22.0187 176.494 -21.7749 14.4126 7.51914 11.4674 
153.012 151.099 136.033 140.848 144.801 152.816 84.6074 82.5954 80.7205 81.1462 85.6532 181.153 -30.6279 56.2334 181.004 -6.7717 49.2766 174.084 0.0486436 37.2583 165.909 6.12285 29.6596 154.927 4.51769 21.7187 176.605 -21.6622 14.3439 7.33045 11.4882 
149.77 151.594 135.788 141.318 145.304 151.829 84.7079 82.5317 80.366 80.5915 84.3988 181.863 -30.6987 55.4868 181.865 -6.42992 48.8452 174.883 0.148248 36.6276 166.575 6.19443 29.1033 155.371 4.57266 21.4039 177.042 -21.6011 14.3152 7.21108 11.5974 
146.007 151.823 135.521 141.53 145.557 150.786 84.9723 82.5586 80.2053 80.2812 82.9605 182.566 -30.8584 54.8739 182.852 -6.20286 48.475 175.83 0.152639 36.1505 167.382 6.21995 28.7015 155.992 4.58275 21.0105 177.603 -21.54 14.3087 7.11335 11.6898 
142.277 151.673 135.317 141.521 145.552 149.675 85.2838 82.5963 80.1572 80.1949 81.4109 183.294 -30.996 54.3982 183.833 -6.22325 48.1467 176.84 0.00209618 35.8582 168.222 6.14407 28.5246 156.686 4.52456 20.4962 178.186 -21.4752 14.3206 7.06434 11.8149 
139.858 151.321 135.187 141.441 145.508 148.807 85.6345 82.6689 80.2399 80.2966 79.8647 183.853 -31.342 53.9914 184.713 -6.33617 47.7911 177.759 -0.142142 35.6461 168.98 6.14986 28.4138 157.34 4.59778 19.8431 178.738 -21.3326 14.3085 7.01898 11.881 
139.42 150.794 135.15 141.31 145.393 148.356 86.0359 82.7857 80.4112 80.5085 78.7141 184.319 -31.7921 53.7793 185.496 -6.57386 47.4992 178.623 -0.32122 35.5283 169.743 6.12446 28.3108 158.038 4.65312 19.1321 179.376 -21.1742 14.2625 7.0052 11.9149 
141.154 150.349 135.257 141.268 145.24 148.185 86.3557 82.8072 80.4913 80.6586 78.1335 184.803 -32.0608 53.4888 186.33 -6.71069 47.0908 179.408 -0.427782 35.2769 170.441 6.1136 28.0997 158.689 4.68683 18.4458 180.024 -21.022 14.2393 7.01609 11.8257 
143.14 150.131 135.472 141.173 144.989 148.026 86.547 82.752 80.5251 80.7487 77.6128 185.108 -32.0804 53.0463 187.082 -6.77948 46.5179 180.187 -0.463356 34.8567 171.137 6.11966 27.7448 159.365 4.70878 17.8056 180.553 -20.9055 14.2482 7.04716 11.8389 
144.32 149.788 136.161 141.343 144.901 147.912 86.4068 82.163 80.0486 80.3755 77.6044 184.687 -31.3472 52.5458 187.539 -6.95486 45.7038 180.705 -0.434816 34.3368 171.576 6.26285 27.1432 159.936 5.07299 17.1414 180.898 -20.5827 14.2914 6.97111 11.8052 
145.542 149.39 136.856 141.179 144.533 147.918 86.4516 81.8202 79.8534 80.3128 77.4113 184.457 -30.7027 52.1925 188.145 -7.10587 44.9511 181.363 -0.300992 33.9343 172.135 6.47836 26.7681 160.603 5.47348 16.4592 181.218 -20.2422 14.3086 6.98403 11.7692 
146.285 147.688 136.701 139.462 143.344 147.507 86.3772 81.4018 80.1644 80.9503 76.5365 185.419 -29.7121 52.4601 189.877 -7.98232 44.2605 183.023 -0.465021 34.0156 173.739 6.64353 27.218 162.275 5.9525 15.6866 182.213 -19.9116 14.205 7.2925 11.7714 
147.122 147.069 137.653 139.511 143.151 147.548 86.5677 81.1446 80.1585 81.1642 75.7837 185.146 -29.4963 51.9745 189.29 -8.12253 43.452 182.853 -0.334063 33.5755 173.515 6.85437 26.8029 162.214 6.3387 14.8116 182.389 -19.4914 14.0939 7.31023 12.3541 
148.301 146.662 138.498 139.535 142.922 147.999 86.8204 80.9147 80.1155 81.2842 75.3709 185.019 -29.3015 51.4584 188.737 -8.08585 42.5568 182.792 -0.0933928 32.977 173.443 7.05307 26.1749 162.311 6.62729 14.0637 182.515 -19.1356 14.0713 7.38752 12.9937 
149.679 146.585 138.994 139.271 142.553 148.517 86.9814 80.7377 80.1316 81.4594 74.8951 185.214 -29.1125 50.7114 188.596 -7.80382 41.6077 182.891 0.26604 32.3472 173.524 7.35418 25.5642 162.524 7.01469 13.3065 182.666 -18.7352 14.0459 7.4953 13.3411 
150.666 146.677 139.055 139.191 142.436 149.182 87.0396 80.7233 80.2002 81.6265 74.3154 185.949 -29.3473 49.9168 188.301 -7.32216 40.8956 182.657 0.666733 31.7235 173.338 7.72559 24.9176 162.437 7.4269 12.6403 182.673 -18.3607 14.0048 7.55597 13.3884 
151.589 146.598 139.193 139.359 142.493 149.622 86.9083 80.6106 80.0874 81.6323 73.9248 186.756 -29.1838 49.0684 188.225 -6.90448 40.1822 182.557 1.0076 31.0362 173.231 8.01409 24.2749 162.347 7.72426 11.9891 182.717 -18.0221 13.9917 7.59529 13.4176 
151.988 146.966 138.983 139.734 142.858 149.947 86.7807 80.7255 80.1934 81.7088 73.3677 187.426 -29.2004 48.0917 187.995 -6.36666 39.6531 182.211 1.3398 30.3902 172.977 8.43448 23.5533 162.123 8.15852 11.3397 182.627 -17.6811 13.9708 7.54427 13.1678 
152.253 147.215 138.764 140.066 143.2 150.138 86.6478 80.7958 80.2903 81.8393 72.4774 187.997 -29.4604 47.1418 187.824 -5.95257 39.0719 181.965 1.64657 29.8184 172.762 8.8563 23.0341 161.888 8.62367 10.6721 182.445 -17.3045 13.9518 7.51359 13.0723 
152.273 147.37 138.48 140.36 143.46 150.229 86.5315 80.8815 80.284 81.8783 71.6067 188.408 -29.6092 46.1998 187.772 -5.55724 38.5981 181.672 1.86437 29.2907 172.487 9.13608 22.5471 161.562 8.92449 9.95127 182.298 -16.9433 13.9404 7.50208 12.8504 
152.756 147.878 138.116 140.646 143.713 150.535 86.6123 81.0575 80.3496 81.8944 71.0394 188.627 -29.8087 45.312 187.594 -5.09361 38.0583 181.446 2.13014 28.6394 172.296 9.46357 21.9183 161.352 9.24163 9.32825 182.182 -16.684 13.9523 7.4472 12.7969 
153.768 148.223 137.837 140.796 143.887 150.694 86.788 81.3047 80.514 81.9532 70.595 188.799 -29.7837 44.6229 187.605 -4.69364 37.5918 181.436 2.40698 28.085 172.309 9.76902 21.3136 161.379 9.51002 8.70659 182.263 -16.417 13.955 7.40072 12.7645 
155.062 148.643 137.546 140.725 143.895 150.922 86.9681 81.4887 80.6502 81.9511 70.1504 189.156 -29.759 43.9611 187.655 -4.36319 36.9998 181.546 2.6867 27.4584 172.428 10.0795 20.6345 161.511 9.81236 8.04881 182.339 -16.1404 13.9384 7.36691 12.8069 
156.233 148.873 137.275 140.724 144.014 151.037 87.0402 81.6481 80.7918 82.0395 69.6094 189.155 -29.6505 43.199 187.42 -3.98895 36.3533 181.356 3.00639 26.7678 172.262 10.4313 19.9442 161.337 10.1426 7.37288 182.02 -15.8625 13.9612 7.35511 12.851 
156.945 149.114 136.807 140.545 144.018 151.074 87.0733 81.7912 80.8962 82.0809 68.8668 189.527 -29.7596 42.377 187.285 -3.67375 35.7923 181.097 3.19556 26.1678 172.027 10.673 19.3331 161.094 10.3788 6.6774 181.684 -15.6069 13.982 7.35822 12.7585 
157.244 149.7 136.096 141.017 144.772 151.279 86.6527 81.8112 80.6339 81.342 68.6078 189.902 -29.7291 41.5091 187.084 -3.19817 35.2713 180.445 3.47514 25.1942 171.454 10.9621 18.0461 160.375 10.5715 6.08498 181.284 -15.4685 13.9072 7.19815 12.2893 
157.008 150.08 135.5 141.287 145.419 152.007 86.4597 81.8555 80.5396 80.8863 68.2105 190.467 -30.2202 40.6477 187.047 -2.89969 34.6368 180.133 3.64389 24.3341 171.189 11.193 16.9668 160.02 10.7398 5.40208 180.967 -15.3314 13.8876 7.09384 12.014 
153.177 150.536 134.722 140.985 145.288 151.405 86.4446 82.177 80.7358 80.842 66.6039 191.056 -30.7239 39.6969 187.601 -2.7465 34.1886 180.449 3.5463 23.7602 171.454 11.0892 16.4944 160.093 10.4358 4.85099 180.768 -15.424 14.0221 7.12832 11.9834 
146.358 151.082 133.63 140.816 145.614 150.334 86.2782 82.4527 80.8988 80.6962 63.5665 190.977 -30.9851 37.8607 187.842 -2.3762 33.0546 180.378 3.5869 22.4441 171.345 11.2504 15.2228 159.738 10.467 3.52098 180.098 -15.2049 14.0882 7.1325 11.9953 
143.262 150.903 133.112 140.528 145.597 149.899 86.3076 82.6563 81.0861 80.8351 62.0681 190.752 -31.2655 37.3497 187.922 -2.35949 32.753 180.388 3.52406 22.096 171.316 11.2675 14.9691 159.539 10.4657 3.05341 179.571 -15.1377 14.104 7.17029 12.0039 
142.001 150.599 132.673 140.158 145.453 149.823 86.4196 82.863 81.3043 81.0769 60.7942 190.755 -31.5615 36.7907 188.166 -2.33273 32.288 180.562 3.51981 21.6456 171.468 11.3368 14.6037 159.56 10.5481 2.37676 179.33 -14.9853 14.1132 7.21729 11.9408 
141.59 150.347 132.42 139.874 145.395 149.942 86.6107 83.0521 81.6047 81.3847 59.8937 190.709 -31.8663 36.3476 188.28 -2.29466 31.7965 180.724 3.54999 21.2056 171.674 11.4297 14.1926 159.69 10.6443 1.76594 179.243 -14.8919 14.1121 7.27099 11.9262 
142.24 150.096 132.303 139.602 145.26 150.199 86.7714 83.1355 81.8143 81.5983 59.3341 190.945 -32.0176 35.8776 188.631 -2.22307 31.2191 181.085 3.63156 20.7218 172.057 11.5449 13.7473 160.015 10.7397 1.12285 179.409 -14.7407 14.1329 7.33637 11.863 
142.963 149.845 132.277 139.338 145.036 150.202 86.842 83.1478 81.9288 81.7243 58.8761 191.087 -31.9654 35.3794 189.081 -2.20317 30.6528 181.495 3.64852 20.2517 172.463 11.5503 13.3395 160.374 10.6842 0.540533 179.686 -14.6606 14.1924 7.40616 11.7918 
142.969 149.703 132.381 139.07 144.731 149.688 86.8341 83.0435 81.9504 81.7853 58.084 190.971 -31.6966 34.7838 189.68 -2.21474 30.0014 182.111 3.63278 19.7457 173.03 11.5209 12.9576 160.911 10.589 -0.00799441 180.04 -14.5911 14.2976 7.47353 11.811 
142.066 149.61 132.514 138.686 144.204 148.89 86.8483 82.9419 81.9605 81.7776 57.1714 190.848 -31.151 34.2038 190.24 -2.1913 29.3565 182.711 3.65266 19.2748 173.58 11.4888 12.5717 161.46 10.4797 -0.536353 180.405 -14.4916 14.3888 7.56371 11.8593 
142.261 149.493 132.746 138.432 143.703 148.682 86.8494 82.7957 81.8866 81.6602 56.5812 191.138 -30.908 33.6482 190.63 -2.2354 28.6653 183.209 3.65637 18.751 174.008 11.4276 12.1317 161.886 10.3514 -1.04364 180.639 -14.4367 14.4647 7.64293 11.9592 
142.349 149.41 132.912 138.325 143.422 148.657 86.8337 82.6756 81.8548 81.5855 56.0885 191.39 -30.7539 33.1333 190.779 -2.236 28.0491 183.473 3.69633 18.2543 174.249 11.4474 11.6674 162.122 10.3451 -1.52103 180.74 -14.3446 14.4875 7.69743 12.071 
141.723 149.363 132.818 138.006 143.099 148.798 87.1258 82.8268 82.076 81.7163 55.496 191.802 -30.6008 32.5687 190.961 -1.97766 27.468 183.715 3.87433 17.7988 174.495 11.5369 11.1735 162.388 10.4138 -1.93192 180.817 -14.3213 14.4191 7.75442 12.1351 
141.37 149.348 132.793 137.88 143.031 149.02 87.3 82.9076 82.2472 81.8874 54.9212 192.029 -30.4833 32.0081 191.024 -1.81777 26.9353 183.788 3.99149 17.3855 174.574 11.6382 10.7517 162.49 10.5396 -2.39368 180.785 -14.2597 14.3504 7.79533 12.1623 
141.54 149.31 132.804 137.797 142.999 149.409 87.4457 82.9607 82.3843 82.085 54.247 192.142 -30.4268 31.4081 191.124 -1.64864 26.3731 183.929 4.13603 16.9623 174.706 11.7861 10.3594 162.622 10.7404 -2.90403 180.744 -14.1093 14.2938 7.83431 12.2262 
142.569 149.242 132.903 137.73 142.981 149.976 87.578 83.0021 82.5138 82.3249 53.5444 192.204 -30.5498 30.7755 191.227 -1.561 25.7704 184.094 4.22569 16.5208 174.862 11.8937 9.99105 162.774 10.9098 -3.47538 180.713 -13.9599 14.2625 7.8842 12.3103 
143.862 149.216 132.851 137.534 142.944 150.545 87.8275 83.1146 82.7406 82.6581 52.7932 192.208 -30.7121 30.124 191.356 -1.39368 25.1376 184.281 4.34482 16.0584 175.08 12.0252 9.58894 162.987 11.0974 -4.10029 180.748 -13.7919 14.2298 7.95672 12.3763 
145.278 149.148 132.713 137.276 142.934 151.109 88.0682 83.2546 82.9841 83.0059 52.1189 192.04 -30.8453 29.479 191.46 -1.20051 24.5243 184.407 4.47801 15.5661 175.31 12.1704 9.10148 163.232 11.3034 -4.75879 180.854 -13.6175 14.2098 8.05377 12.3869 
146.995 149.236 132.398 136.761 142.61 151.649 88.5187 83.5439 83.4797 83.5227 51.0528 192.076 -30.6857 28.3694 191.644 -0.585483 23.3478 184.646 4.98127 14.5229 175.771 12.5994 7.99169 163.746 11.6959 -5.88639 181.229 -13.3064 14.2143 8.23904 12.3785 
146.337 147.785 133.335 137.893 143.571 150.916 87.8233 83.0221 83.2425 83.8258 50.2686 191.69 -31.0608 28.1209 190.804 -1.48431 23.0161 183.941 4.67259 14.5091 175.048 12.7548 8.08927 163.226 12.2175 -6.61626 181.304 -12.8512 14.1941 8.00177 12.4046 
145.717 146.598 133.618 138.445 144.297 150.509 87.3837 82.6857 83.1404 84.1716 49.4668 191.77 -31.3522 27.6824 190.251 -2.03667 22.4795 183.423 4.54932 14.1998 174.557 12.962 7.8851 162.899 12.7172 -7.43842 181.263 -12.4311 14.1481 7.89505 12.3526 
145.022 145.744 133.76 138.74 144.665 150.329 87.0602 82.5079 83.0842 84.4136 48.7199 192.144 -31.678 27.2188 189.743 -2.30996 21.9826 182.916 4.6083 13.8527 174.063 13.2201 7.63412 162.554 13.1503 -8.08905 181.037 -12.0593 14.1561 7.83269 12.2991 
143.406 145.293 133.307 139.037 145.297 149.813 86.5556 82.468 82.9612 84.5769 47.7819 192.432 -31.5918 26.6878 189.526 -2.26167 21.7156 182.384 4.74485 13.4649 173.501 13.491 7.2898 162.041 13.5912 -8.65994 180.869 -11.7717 14.0157 7.71026 12.0269 
141.138 145.668 132.462 139.438 146.382 150.039 86.5312 82.9203 83.0458 84.697 46.8931 192.555 -31.3023 26.0431 189.302 -1.53095 21.5243 181.826 5.23506 12.8842 172.991 13.991 6.63646 161.479 14.1929 -9.10034 180.524 -11.5888 13.8202 7.58602 11.7822 
139.542 145.785 131.662 139.747 147.318 150.759 86.5844 83.4313 83.1843 84.875 46.0011 192.517 -31.228 25.396 189.04 -0.958467 21.2981 181.327 5.65341 12.2894 172.529 14.4453 5.98226 160.968 14.7369 -9.59928 180.157 -11.4299 13.6881 7.43809 11.6559 
139.165 145.825 130.853 139.873 148.029 151.84 86.6166 83.8607 83.3607 85.1028 45.1025 192.578 -31.5216 24.6975 188.957 -0.582291 21.0018 181.047 5.91332 11.7464 172.305 14.7722 5.38725 160.685 15.1657 -10.1664 179.917 -11.2728 13.5917 7.33547 11.6045 
140.104 145.786 130.299 139.884 148.519 153.054 86.7833 84.3333 83.6367 85.3893 44.3626 192.681 -31.9403 24.1331 188.878 -0.269257 20.7226 180.833 6.17298 11.3078 172.153 15.056 4.90842 160.489 15.5028 -10.7037 179.722 -11.1198 13.53 7.28862 11.5661 
141.51 145.811 129.919 139.835 148.826 154.109 86.9932 84.7606 83.8979 85.6713 43.7345 193.079 -32.3563 23.614 188.979 0.00879812 20.4104 180.824 6.40709 10.9063 172.162 15.258 4.53909 160.451 15.6985 -11.1607 179.614 -11.0311 13.5346 7.26804 11.5303 
142.921 145.911 129.632 139.868 149.174 155.031 87.137 85.0795 84.046 85.8259 43.1453 193.582 -32.7164 23.0843 189.059 0.241001 20.063 180.815 6.6053 10.4582 172.125 15.4439 4.16228 160.384 15.8609 -11.5765 179.459 -10.9638 13.5671 7.22535 11.5181 
144.415 146.102 129.316 139.76 149.339 155.885 87.216 85.2587 84.0879 85.8413 42.7577 194.405 -32.9998 22.5202 189.307 0.439626 19.648 180.995 6.73795 9.97841 172.247 15.5325 3.77186 160.458 15.8968 -11.934 179.398 -10.94 13.6197 7.20759 11.5414 
146.133 146.335 129.188 139.704 149.467 156.829 87.3456 85.4429 84.1334 85.8002 42.5673 195.218 -33.247 21.9499 189.468 0.643739 19.1693 181.132 6.87964 9.44034 172.318 15.604 3.28085 160.515 15.8755 -12.3375 179.378 -10.9292 13.6828 7.18661 11.5782 
147.943 146.531 129.095 139.663 149.588 157.775 87.4822 85.5007 84.0091 85.625 42.4984 196.195 -33.4509 21.4055 189.627 0.815006 18.6492 181.28 6.94818 8.85285 172.317 15.5985 2.78551 160.51 15.7747 -12.7187 179.353 -10.9416 13.7588 7.12271 11.6184 
149.643 146.863 128.989 139.599 149.549 158.601 87.6696 85.5572 83.9987 85.4505 42.5306 197.17 -33.6228 20.9476 189.598 1.06657 18.1352 181.306 7.03632 8.30966 172.25 15.5344 2.25301 160.37 15.5574 -13.0188 179.205 -11.0101 13.7765 7.13866 11.7086 
151.759 147.097 128.796 139.336 149.321 159.497 87.9367 85.6328 84.0811 85.3597 42.5805 198.233 -33.8767 20.5871 189.658 1.24352 17.6997 181.455 7.03833 7.90651 172.309 15.4056 1.85703 160.321 15.2918 -13.3006 179.056 -11.0832 13.7671 7.1828 11.8066 
153.828 147.523 128.618 139.076 149.071 160.366 88.22 85.6876 84.1832 85.2344 42.643 199.396 -34.0135 20.2308 189.776 1.52356 17.2949 181.647 7.13115 7.52006 172.44 15.4147 1.45379 160.361 15.1812 -13.5467 178.962 -11.1028 13.7491 7.21394 11.9097 
156.025 147.835 128.519 138.751 148.735 161.127 88.4371 85.7003 84.2281 85.0958 42.6028 200.509 -34.1849 19.8312 189.976 1.73244 16.8954 181.876 7.17381 7.16632 172.591 15.3846 1.11111 160.426 15.0554 -13.8313 178.884 -11.0913 13.7375 7.25731 11.9886 
158.353 148.015 128.408 138.522 148.557 161.896 88.4789 85.6277 84.224 84.9767 42.5051 201.349 -34.3687 19.4322 190.095 1.81703 16.5657 181.966 7.13653 6.89456 172.632 15.3552 0.843965 160.397 14.989 -14.1434 178.721 -11.0153 13.7164 7.30706 12.037 
160.674 147.987 128.466 138.386 148.483 162.517 88.5306 85.5428 84.1825 84.9781 42.3463 201.957 -34.514 19.1166 190.174 1.75891 16.2587 182.063 7.04599 6.6543 172.671 15.3196 0.678789 160.403 14.9787 -14.4982 178.582 -10.929 13.7198 7.3322 12.0606 
162.782 147.778 128.592 138.259 148.4 162.954 88.4735 85.4005 84.096 85.014 42.0404 202.454 -34.6784 18.782 190.325 1.56919 15.9588 182.208 6.89839 6.46645 172.766 15.273 0.597824 160.489 15.0108 -14.9033 178.488 -10.8029 13.7308 7.36967 12.0482 
164.373 147.423 128.725 138.145 148.262 163.048 88.3578 85.2492 84.0708 85.0551 41.5506 202.532 -34.8893 18.4466 190.446 1.31464 15.6643 182.24 6.72645 6.3012 172.817 15.2419 0.464954 160.52 15.0847 -15.3793 178.382 -10.6423 13.7067 7.42682 11.9423 
165.204 146.998 128.954 137.949 147.931 162.775 88.1868 85.1036 84.131 85.1667 40.9755 202.248 -34.9814 18.1143 190.554 1.06563 15.314 182.269 6.62677 6.12508 172.923 15.2325 0.306638 160.607 15.1423 -15.8463 178.31 -10.4787 13.7052 7.54011 11.7942 
165.194 146.494 129.222 137.945 147.85 162.302 87.9332 84.9553 84.0932 85.2332 40.2862 201.751 -34.9772 17.7267 190.546 0.782549 14.9407 182.17 6.54493 5.84822 172.859 15.2761 0.0885565 160.561 15.2691 -16.328 178.185 -10.3315 13.7266 7.57359 11.6348 
164.634 145.997 129.562 138.003 147.828 161.703 87.6447 84.7906 83.9922 85.3038 39.5323 201.264 -34.8546 17.2685 190.609 0.508084 14.5033 182.169 6.48635 5.493 172.844 15.3269 -0.14132 160.584 15.3814 -16.811 178.129 -10.201 13.8073 7.56539 11.5016 
163.658 145.81 129.901 137.944 147.538 160.939 87.4251 84.6018 83.9045 85.208 38.8685 200.728 -34.5657 16.7859 190.74 0.439509 13.9524 182.287 6.56582 5.05617 172.959 15.3978 -0.51338 160.717 15.4122 -17.2203 178.222 -10.1051 13.9079 7.59015 11.4223 
162.275 145.742 130.27 138.003 147.344 160.016 87.2562 84.4117 83.8103 85.0342 38.157 200.212 -34.2071 16.2856 190.858 0.448598 13.3485 182.444 6.69485 4.5533 173.092 15.5037 -0.957607 160.842 15.448 -17.6197 178.32 -10.0291 13.9925 7.60669 11.3979 
160.468 145.734 130.625 138.021 147.128 159.106 87.0794 84.2113 83.6151 84.7657 37.5075 200.056 -33.9228 15.7664 191.12 0.43226 12.7558 182.718 6.76702 4.04114 173.282 15.5286 -1.39816 161.031 15.4065 -17.9975 178.517 -9.99793 14.0788 7.58376 11.3769 
158.663 145.818 130.824 138.057 146.941 158.301 87.0565 84.129 83.55 84.526 36.9562 199.976 -33.6601 15.3661 191.178 0.533169 12.2118 182.863 6.91436 3.52866 173.377 15.6082 -1.92276 161.091 15.4018 -18.3403 178.592 -9.97695 14.1031 7.56641 11.4131 
157.066 145.896 131.106 138.272 146.944 157.726 86.9869 84.0312 83.4134 84.2934 36.4095 199.882 -33.51 14.9445 191.198 0.53756 11.7203 182.972 6.97028 3.05051 173.407 15.6522 -2.40008 161.125 15.4058 -18.7191 178.676 -9.94873 14.1336 7.49906 11.4796 
155.624 146.138 131.222 138.536 147.014 157.281 86.9583 83.9279 83.2945 83.9907 35.8904 199.807 -33.4068 14.6038 191.027 0.6446 11.2795 182.879 7.07186 2.58464 173.283 15.7393 -2.95002 160.969 15.4534 -19.0533 178.643 -9.89712 14.1101 7.44621 11.5431 
154.126 146.55 131.276 138.751 146.975 156.724 86.9324 83.8286 83.1592 83.7131 35.2759 199.815 -33.3503 14.2134 190.906 0.707604 10.8931 182.749 7.06081 2.17273 173.097 15.7241 -3.39724 160.75 15.4035 -19.3716 178.52 -9.90404 14.0916 7.3984 11.5781 
152.856 146.898 131.414 139.026 146.984 156.221 86.8736 83.6985 83.0457 83.4576 34.6461 199.749 -33.2797 13.8369 190.778 0.781452 10.512 182.615 7.08141 1.79385 172.915 15.7489 -3.80021 160.5 15.3932 -19.6872 178.347 -9.8746 14.0651 7.36829 11.6059 
151.97 147.147 131.494 139.22 147.016 155.779 86.8471 83.6188 83.0126 83.3519 33.9937 199.612 -33.2991 13.4514 190.69 0.813573 10.1793 182.48 7.06288 1.49264 172.765 15.7738 -4.12584 160.29 15.4287 -20.066 178.161 -9.79556 14.0304 7.35678 11.5986 
151.101 147.176 131.583 139.429 147.179 155.294 86.738 83.5385 82.9737 83.322 33.3215 199.4 -33.269 13.0908 190.611 0.688826 9.94638 182.278 6.94962 1.2882 172.577 15.7667 -4.3364 160.062 15.4906 -20.4949 177.959 -9.67599 13.9871 7.36849 11.5147 
