150.416 146.962 131.694 139.522 147.215 154.793 86.6514 83.4518 82.8978 83.3829 32.6741 199.28 -33.1302 12.7247 190.762 0.492499 9.66544 182.368 6.80944 1.09126 172.633 15.7064 -4.43903 160.068 15.5136 -20.9556 177.887 -9.5354 13.9874 7.38632 11.4621 
149.762 146.784 131.814 139.517 147.088 154.325 86.4709 83.3264 82.8578 83.4686 31.984 199.081 -32.9849 12.2693 190.856 0.332931 9.31461 182.394 6.7032 0.842492 172.665 15.6724 -4.59274 160.062 15.5387 -21.4073 177.77 -9.41502 14.0133 7.43246 11.4153 
149.264 146.634 131.91 139.399 146.853 153.952 86.3396 83.2338 82.8466 83.5504 31.3203 198.935 -32.8264 11.74 190.992 0.252562 8.89063 182.481 6.66624 0.529789 172.744 15.6909 -4.79263 160.129 15.5894 -21.8423 177.661 -9.30513 14.0643 7.47378 11.3895 
149.256 146.51 132.394 139.95 147.44 153.782 86.1047 82.9086 82.5282 83.1867 30.5681 198.959 -32.7604 11.1614 191.387 -0.0715847 8.46228 182.961 6.38596 0.353187 173.075 15.5935 -4.79255 160.333 15.6 -22.2963 177.433 -9.13243 14.0134 7.54255 11.5393 
149.43 146.676 132.418 139.722 147.2 153.669 86.0309 82.9402 82.604 83.2183 30.2002 198.248 -32.5332 10.5705 191.212 0.196022 7.93381 182.759 6.67635 -0.189887 172.97 15.8717 -5.40913 160.315 15.874 -22.7412 177.368 -8.97944 14.0731 7.55835 11.5106 
149.704 146.948 132.455 139.467 146.874 153.601 86.1217 83.0205 82.7566 83.2511 29.8534 197.534 -32.3702 10.0096 190.984 0.58048 7.32975 182.565 7.05769 -0.785336 172.862 16.1994 -6.082 160.294 16.1486 -23.1596 177.322 -8.85064 14.1441 7.55159 11.5184 
149.915 147.113 132.553 139.187 146.533 153.609 86.3271 83.2022 82.9754 83.3652 29.5026 197.091 -32.2744 9.48077 190.863 0.888991 6.72279 182.55 7.40503 -1.33327 172.906 16.4723 -6.67842 160.42 16.3718 -23.6206 177.37 -8.73292 14.2034 7.55498 11.5658 
149.92 147.819 132.791 139.239 146.631 153.789 86.7011 83.3703 83.1738 83.3296 28.8434 196.5 -31.9907 8.52763 190.272 1.62341 5.4998 182.29 8.10322 -2.54533 172.718 17.0333 -7.99001 160.339 16.8229 -24.4474 177.333 -8.51586 14.2368 7.54333 11.8291 
150.052 148.215 132.766 139.125 146.618 154.042 87.059 83.5336 83.3762 83.3979 28.6311 196.468 -32.0153 8.27781 189.975 2.0001 5.06575 182.263 8.40048 -2.92428 172.723 17.2167 -8.41956 160.36 16.9468 -24.686 177.347 -8.44176 14.2091 7.56754 12.0667 
149.937 148.683 132.723 139.163 146.717 154.239 87.3533 83.6285 83.5118 83.3893 28.1679 196.476 -32.0526 7.91133 189.621 2.36605 4.54144 182.126 8.64214 -3.41922 172.596 17.3698 -8.99465 160.216 17.0437 -25.0596 177.246 -8.34693 14.1595 7.5712 12.2768 
149.758 149.223 132.683 139.228 146.81 154.377 87.6398 83.7299 83.6615 83.423 27.7999 196.426 -31.9299 7.57111 189.318 2.74782 4.09577 182.005 8.8669 -3.8595 172.487 17.5115 -9.49289 160.064 17.1154 -25.371 177.115 -8.26256 14.1284 7.57954 12.4719 
149.779 149.691 132.704 139.389 146.926 154.46 87.8028 83.7522 83.7647 83.454 27.3774 196.21 -31.7452 7.19369 188.998 3.02309 3.68114 181.852 9.03107 -4.25184 172.359 17.6675 -9.94462 159.904 17.2432 -25.7521 176.982 -8.09727 14.1201 7.57232 12.6607 
149.923 150.014 132.696 139.465 146.9 154.512 87.8964 83.7529 83.8746 83.583 26.8891 195.95 -31.4947 6.83782 188.818 3.26056 3.34121 181.743 9.19983 -4.53861 172.306 17.8607 -10.2657 159.845 17.4431 -26.1472 176.911 -7.84915 14.1326 7.59469 12.7525 
150.5 150.068 132.757 139.481 146.871 154.688 87.9899 83.7666 84.0305 83.8273 26.3884 195.743 -31.2433 6.48546 188.789 3.40866 2.97947 181.836 9.36647 -4.76757 172.431 18.0805 -10.4611 159.971 17.6893 -26.5956 176.932 -7.54492 14.1605 7.62192 12.8665 
151.166 150.146 132.751 139.485 146.961 154.932 88.0965 83.8668 84.2215 84.1271 25.9047 195.307 -31.0129 6.1423 188.685 3.58121 2.68475 181.853 9.56194 -4.96738 172.49 18.347 -10.6468 160.074 18.0212 -27.0498 176.934 -7.21876 14.1617 7.62486 12.9817 
151.702 150.31 132.553 139.402 147.037 155.231 88.2049 83.9983 84.4288 84.4408 25.4133 195.031 -30.8311 5.77492 188.57 3.8598 2.45079 181.779 9.81265 -5.14253 172.476 18.6841 -10.8188 160.109 18.4499 -27.454 176.878 -6.86867 14.1281 7.62343 13.0467 
152.243 150.353 132.288 139.229 147.198 155.567 88.2345 84.1072 84.5742 84.7615 24.9333 194.909 -30.6442 5.32174 188.569 4.15002 2.17779 181.774 10.0883 -5.36384 172.503 19.0486 -10.9757 160.215 18.9376 -27.8379 176.848 -6.53208 14.0828 7.60544 13.0884 
152.787 150.145 132.078 139.072 147.338 156.018 88.154 84.2359 84.6198 85.1194 24.4612 195.145 -30.5568 4.86179 188.677 4.37503 1.95015 181.824 10.3636 -5.57618 172.514 19.3939 -10.9925 160.32 19.3952 -28.1606 176.772 -6.22039 14.0933 7.56353 13.079 
153.324 149.926 131.888 138.971 147.603 156.47 88.0446 84.3535 84.5481 85.3162 24.0377 195.397 -30.4929 4.35128 188.823 4.60379 1.73579 181.831 10.6172 -5.82562 172.429 19.723 -11.0673 160.348 19.8463 -28.4829 176.708 -5.95179 14.097 7.45787 13.0203 
153.742 149.703 131.742 138.928 147.866 156.943 87.8461 84.4477 84.3852 85.4311 23.8106 195.856 -30.3303 3.89475 188.88 4.82768 1.56805 181.733 10.9005 -6.08433 172.203 20.0641 -11.1151 160.243 20.2893 -28.7028 176.543 -5.72982 14.1181 7.32949 12.9422 
154.45 149.486 131.617 138.893 148.188 157.674 87.6953 84.4815 84.1317 85.4556 23.7876 196.621 -30.1931 3.52593 188.883 5.03361 1.38577 181.602 11.1674 -6.37577 171.904 20.3756 -11.1932 160.082 20.6805 -28.8979 176.393 -5.53358 14.1681 7.17716 12.8593 
156.091 149.268 131.64 138.896 148.58 159.005 87.4851 84.3959 83.6947 85.3776 24.0811 197.919 -30.3637 3.18396 188.712 5.14327 1.17628 181.309 11.3821 -6.71663 171.414 20.6749 -11.28 159.815 21.0838 -29.0707 176.197 -5.38151 14.2913 6.96665 12.7642 
157.666 149.124 131.682 138.983 149.045 160.81 87.2747 84.2655 83.2275 85.2501 24.6064 199.741 -30.6767 2.94958 188.462 5.18648 1.00355 180.926 11.5429 -7.01711 170.807 20.9401 -11.3574 159.467 21.4278 -29.2412 176.019 -5.25857 14.4429 6.71838 12.636 
156.998 149.153 132.091 139.211 149.645 162.779 86.9382 84.0102 82.4603 84.9529 24.8463 202.007 -30.9235 2.43095 187.973 5.23996 0.49294 180.353 11.8128 -7.62719 169.829 21.34 -11.5875 158.884 21.9062 -29.6286 175.629 -5.00911 14.742 6.32655 12.5145 
156.656 149.301 132.34 139.719 150.196 163.833 86.7322 83.8204 81.9949 84.6174 24.9948 203.373 -31.2892 2.3499 187.71 5.17975 0.354933 180.1 11.8586 -7.84487 169.289 21.5208 -11.6737 158.572 22.0814 -29.6944 175.476 -4.96322 14.9342 6.01782 12.4952 
156.796 149.483 132.461 140.239 150.711 164.666 86.5336 83.7057 81.6272 84.2846 25.0528 204.359 -31.5906 2.16647 187.336 5.2445 0.181663 179.743 11.9657 -8.12919 168.705 21.7285 -11.9071 158.145 22.2739 -29.8256 175.206 -4.86651 15.0674 5.76963 12.526 
157.16 149.693 132.442 140.723 150.989 165.303 86.4131 83.6423 81.4495 84.0008 24.9465 205.055 -32.0014 1.94133 187.039 5.33197 0.0256844 179.479 11.9974 -8.35073 168.248 21.8677 -12.1554 157.76 22.3373 -29.9633 174.932 -4.79872 15.1753 5.55116 12.6192 
157.714 149.794 132.398 141.065 151.086 165.912 86.4132 83.625 81.3796 83.7845 24.8234 205.713 -32.4152 1.78851 186.88 5.43767 -0.106147 179.351 12.0453 -8.5091 167.971 22.0036 -12.3473 157.506 22.3994 -30.0831 174.727 -4.7272 15.2405 5.39675 12.6824 
158.222 149.843 132.428 141.372 151.134 166.331 86.4516 83.5693 81.3572 83.5879 24.6888 206.162 -32.7044 1.68497 186.827 5.54254 -0.26803 179.345 12.0938 -8.64323 167.851 22.0976 -12.5175 157.352 22.403 -30.1886 174.59 -4.65302 15.2735 5.30931 12.7375 
158.748 149.952 132.376 141.602 151.088 166.659 86.541 83.5703 81.4106 83.3813 24.6446 206.339 -32.9752 1.60146 186.749 5.7173 -0.372351 179.288 12.1534 -8.7751 167.753 22.1721 -12.7465 157.164 22.3825 -30.2581 174.455 -4.60909 15.2489 5.27597 12.7937 
159.158 149.865 132.328 141.76 151.071 166.744 86.6078 83.6051 81.4958 83.2929 24.5529 206.519 -33.148 1.5084 186.82 5.80543 -0.418924 179.388 12.1495 -8.82413 167.834 22.191 -12.8538 157.143 22.3412 -30.34 174.41 -4.5534 15.2156 5.28335 12.8658 
159.417 149.768 132.28 141.857 151.052 166.849 86.7152 83.6336 81.6221 83.2597 24.4833 206.66 -33.2295 1.48437 186.936 5.92219 -0.45913 179.494 12.1979 -8.86128 167.975 22.2423 -12.9637 157.172 22.3509 -30.4122 174.439 -4.49174 15.1481 5.32816 12.8682 
159.664 149.724 132.302 141.92 151.007 166.871 86.8765 83.6387 81.7695 83.208 24.4746 206.79 -33.1766 1.46966 187.037 6.02004 -0.580931 179.637 12.2454 -8.94659 168.172 22.2605 -13.1271 157.252 22.3171 -30.5046 174.516 -4.46968 15.0575 5.41037 12.891 
159.799 149.673 132.237 142.003 151.014 166.843 86.9973 83.6389 81.9258 83.161 24.401 206.755 -33.1623 1.46876 187.055 6.13675 -0.635126 179.709 12.2815 -9.01466 168.341 22.294 -13.3066 157.28 22.3215 -30.5621 174.564 -4.44119 14.9383 5.49934 12.9582 
159.871 149.7 132.157 142.007 151.007 166.746 87.0559 83.622 82.049 83.1609 24.2897 206.795 -33.1795 1.35126 187.141 6.218 -0.74403 179.85 12.282 -9.12077 168.572 22.299 -13.4938 157.41 22.319 -30.6652 174.668 -4.41901 14.8537 5.57744 13.0483 
159.759 149.77 132.075 142.047 150.988 166.739 87.1276 83.6492 82.1994 83.1451 24.2539 206.811 -33.1553 1.30918 187.132 6.3002 -0.786704 179.854 12.2943 -9.20531 168.7 22.3028 -13.7023 157.428 22.3073 -30.7454 174.73 -4.41931 14.7529 5.66325 13.0845 
159.779 149.827 131.976 141.952 150.83 166.684 87.216 83.6708 82.383 83.134 24.1405 206.809 -33.2276 1.22469 187.229 6.35011 -0.889061 179.974 12.2694 -9.2809 168.954 22.2377 -13.9016 157.531 22.221 -30.8588 174.835 -4.44154 14.6333 5.78794 13.1243 
159.537 149.879 131.882 141.886 150.707 166.578 87.2453 83.6909 82.5507 83.195 23.902 206.973 -33.306 1.12435 187.407 6.35255 -0.969422 180.142 12.2097 -9.3402 169.263 22.1358 -14.0358 157.681 22.1171 -30.9692 174.961 -4.47382 14.5243 5.92751 13.1391 
159.43 149.881 131.949 141.86 150.641 166.396 87.2162 83.6406 82.5856 83.1911 23.6944 207.027 -33.3226 1.00124 187.622 6.27242 -1.10122 180.356 12.1204 -9.42195 169.557 21.9934 -14.1421 157.852 21.9924 -31.1051 175.121 -4.51327 14.4477 6.03229 13.1418 
159.184 149.873 131.938 141.904 150.646 166.288 87.2069 83.6648 82.6502 83.2037 23.4828 207.049 -33.332 0.894446 187.748 6.22826 -1.16839 180.444 12.0673 -9.50887 169.726 21.921 -14.2899 157.922 21.9413 -31.2545 175.257 -4.53793 14.3735 6.0903 13.1158 
159.086 149.802 131.898 141.958 150.745 166.103 87.1027 83.6618 82.6923 83.2513 23.1549 206.958 -33.3648 0.722943 187.933 6.09223 -1.20841 180.534 11.9272 -9.53152 169.914 21.7783 -14.3638 158.016 21.8473 -31.4759 175.411 -4.53197 14.294 6.18776 13.0689 
158.879 149.704 131.903 141.985 150.799 165.819 87.0448 83.6592 82.7372 83.3187 22.7618 206.729 -33.3503 0.596963 188.1 5.93563 -1.24508 180.589 11.7662 -9.53371 170.062 21.5927 -14.4081 158.072 21.7012 -31.6899 175.524 -4.53522 14.2284 6.29242 12.9862 
158.586 149.657 131.868 141.987 150.789 165.402 86.9881 83.6293 82.7722 83.3646 22.2387 206.403 -33.3167 0.437612 188.335 5.81396 -1.28799 180.635 11.5985 -9.53376 170.193 21.4022 -14.4284 158.09 21.5475 -31.8728 175.564 -4.5477 14.1583 6.40356 12.8532 
158.367 149.31 131.858 141.941 150.791 164.796 86.8854 83.5789 82.7874 83.5057 21.6012 206.09 -33.2455 0.254786 188.703 5.54938 -1.37033 180.818 11.3558 -9.52191 170.427 21.1544 -14.3674 158.237 21.3578 -32.1171 175.642 -4.56517 14.1126 6.52053 12.6881 
158.184 148.925 131.807 141.967 150.998 164.198 86.7606 83.5204 82.7188 83.6576 20.9868 205.825 -33.1786 0.0731792 189.05 5.26933 -1.41588 180.92 11.1101 -9.52613 170.553 20.9492 -14.3082 158.352 21.2535 -32.3762 175.739 -4.57704 14.0809 6.58195 12.4727 
158.307 148.515 131.827 141.986 151.087 163.511 86.6937 83.5255 82.7229 83.8133 20.4288 205.312 -33.0261 -0.0929575 189.338 5.00775 -1.50885 181.037 10.9163 -9.56636 170.693 20.7816 -14.2952 158.46 21.1576 -32.6755 175.797 -4.56566 14.0514 6.64434 12.2829 
158.485 148.06 131.872 141.952 151.153 162.731 86.51 83.495 82.7141 83.9817 19.8646 204.722 -32.8436 -0.350852 189.636 4.70037 -1.65941 181.189 10.7069 -9.65107 170.877 20.5969 -14.3027 158.608 21.0496 -32.9854 175.828 -4.56217 14.0315 6.725 12.1207 
158.496 147.69 131.925 141.855 151.172 161.949 86.3697 83.4967 82.708 84.1182 19.2785 204.231 -32.5678 -0.649405 189.913 4.49309 -1.85421 181.299 10.608 -9.7927 170.998 20.5227 -14.3827 158.745 21.0521 -33.308 175.86 -4.53412 14.0115 6.76848 11.9289 
158.557 147.509 131.991 141.623 150.95 161.307 86.1888 83.4583 82.6806 84.1935 18.5717 203.984 -32.5133 -1.10317 190.218 4.30646 -2.19131 181.484 10.5207 -10.0383 171.178 20.4367 -14.5408 158.94 21.02 -33.633 175.865 -4.54054 14.0272 6.80633 11.7946 
158.661 147.288 132.11 141.294 150.593 160.669 86.0238 83.4507 82.6843 84.2826 17.9728 203.829 -32.3892 -1.59799 190.594 4.1293 -2.56364 181.758 10.4484 -10.2959 171.44 20.327 -14.6867 159.205 20.9381 -33.9487 175.886 -4.56139 14.0568 6.86735 11.6692 
159.117 147.126 132.211 141.095 150.27 160.255 85.8992 83.476 82.6991 84.3454 17.5897 203.606 -32.3478 -2.03288 190.812 4.0393 -2.91043 181.931 10.4393 -10.5898 171.594 20.2947 -14.8964 159.358 20.9159 -34.2255 175.868 -4.59866 14.0905 6.87664 11.605 
160.201 146.942 132.344 140.82 149.957 160.227 85.8686 83.4999 82.6704 84.4432 17.4477 203.776 -32.3506 -2.51266 191.043 3.97695 -3.37945 182.245 10.4675 -10.9765 171.852 20.2701 -15.1384 159.654 20.9041 -34.5348 175.915 -4.64623 14.159 6.87426 11.6326 
161.528 146.928 132.482 140.6 149.669 160.57 85.9071 83.49 82.6182 84.4207 17.4549 203.893 -32.4844 -2.94432 191.11 4.02636 -3.89196 182.411 10.5704 -11.4334 171.975 20.319 -15.5078 159.818 20.9469 -34.8165 175.92 -4.69229 14.2183 6.85297 11.6755 
162.713 146.912 132.544 140.33 149.321 161.126 86.0985 83.5777 82.6836 84.4255 17.6673 204.149 -32.6094 -3.28939 191.137 4.13985 -4.41496 182.619 10.7316 -11.9052 172.167 20.4033 -15.9587 160.049 20.9976 -35.1128 175.993 -4.75793 14.2562 6.84255 11.7652 
162.695 146.95 132.684 140.135 149.161 161.659 86.3063 83.6021 82.6342 84.3968 17.8974 204.368 -32.679 -3.61106 191.101 4.22506 -4.96686 182.787 10.8608 -12.4023 172.274 20.4563 -16.3863 160.243 21.0196 -35.4229 176.095 -4.8348 14.3312 6.79865 11.8791 
162.131 147.081 132.846 140.014 149.124 162.299 86.6289 83.6696 82.6217 84.3902 18.245 204.549 -32.6962 -3.84297 190.965 4.37066 -5.49954 182.937 11.0325 -12.9008 172.354 20.5689 -16.8374 160.445 21.0936 -35.7313 176.228 -4.92543 14.4015 6.72683 12.0711 
161.167 147.076 133.468 140.761 149.947 162.824 86.4772 83.3445 82.2495 83.819 18.3808 204.728 -32.5518 -3.97027 190.809 4.07562 -5.94448 183.107 10.9391 -13.3041 172.455 20.6018 -17.2426 160.54 21.1497 -35.9902 176.194 -4.96282 14.3946 6.71253 12.2882 
160.369 147.218 133.532 140.818 150.174 163.137 86.6639 83.4011 82.2114 83.7868 18.5067 204.656 -32.6252 -4.20548 190.516 4.11632 -6.36533 183.048 10.9878 -13.7433 172.299 20.6848 -17.6777 160.519 21.2183 -36.3081 176.182 -5.02773 14.4481 6.57425 12.4891 
159.955 147.331 133.526 140.806 150.274 163.526 86.8686 83.5195 82.2798 83.8547 18.6326 204.7 -32.8111 -4.44705 190.324 4.13257 -6.76063 183.115 10.9801 -14.0984 172.27 20.669 -18.027 160.591 21.1561 -36.621 176.229 -5.13522 14.4996 6.45981 12.736 
159.327 147.427 133.419 140.868 150.558 163.956 86.9554 83.5843 82.2347 83.9388 18.3794 205.073 -33.0904 -4.71383 190.233 4.07461 -7.02344 183.089 10.8827 -14.3521 172.147 20.5976 -18.2639 160.607 21.086 -36.9644 176.337 -5.20172 14.5568 6.34186 12.8247 
158.77 147.415 133.29 140.915 150.67 164.221 87.009 83.6931 82.3769 84.0766 17.9692 205.484 -33.3573 -4.97026 190.333 3.90666 -7.23187 183.237 10.6967 -14.4815 172.293 20.4134 -18.4695 160.757 20.8944 -37.3613 176.546 -5.24393 14.5159 6.33969 12.8934 
158.337 147.432 133.096 140.991 150.796 164.367 86.9525 83.752 82.528 84.1653 17.3376 205.587 -33.6913 -5.28202 190.434 3.74345 -7.40936 183.285 10.479 -14.5942 172.398 20.1985 -18.6809 160.786 20.6753 -37.7514 176.657 -5.26072 14.4386 6.39875 12.8879 
158.063 147.339 132.9 141.043 150.848 164.429 86.9164 83.8178 82.7004 84.2714 16.5635 205.601 -34.101 -5.58732 190.562 3.547 -7.53352 183.277 10.2005 -14.6428 172.445 19.9188 -18.8106 160.708 20.3844 -38.098 176.654 -5.29865 14.3546 6.47458 12.8105 
157.935 147.197 132.56 141.03 150.891 164.464 86.9307 83.9071 82.9038 84.4626 15.8306 205.674 -34.3763 -5.86923 190.625 3.46253 -7.6596 183.223 10.0169 -14.7291 172.459 19.7283 -18.9346 160.581 20.1826 -38.383 176.53 -5.30305 14.2761 6.56878 12.7518 
158.232 146.995 132.351 140.972 150.854 164.394 86.8517 83.9368 83.0626 84.6473 15.0645 205.785 -34.6388 -6.25415 190.839 3.29464 -7.85456 183.29 9.80907 -14.8153 172.595 19.5184 -19.0086 160.578 19.9969 -38.7008 176.417 -5.27826 14.2027 6.68923 12.6523 
159.042 146.646 132.194 140.931 150.883 164.273 86.755 83.9094 83.1652 84.7805 14.3965 205.544 -34.8726 -6.59121 190.955 3.14408 -8.04725 183.218 9.65128 -14.9155 172.61 19.3759 -19.0981 160.468 19.9082 -38.9929 176.218 -5.2275 14.1184 6.80466 12.4862 
159.999 146.234 131.945 140.866 150.889 164.074 86.6468 83.9086 83.2486 84.958 13.7045 205.257 -35.0364 -6.93896 191.07 3.04811 -8.2343 183.126 9.55953 -15.0448 172.595 19.3005 -19.1916 160.344 19.9033 -39.2834 176.026 -5.14179 14.0458 6.89311 12.2967 
161.155 145.71 131.795 140.676 150.835 163.826 86.6573 83.919 83.258 85.2381 13.2169 205.054 -35.0332 -7.17905 191.162 2.95288 -8.44432 183.07 9.54953 -15.1951 172.568 19.2876 -19.2066 160.312 19.9849 -39.555 175.891 -5.047 14.0402 6.93408 12.0992 
162.663 145.226 131.696 140.567 150.81 163.691 86.5214 83.8759 83.2329 85.4532 12.9103 204.887 -35.0057 -7.48746 191.23 2.89644 -8.70391 183.044 9.60877 -15.4245 172.578 19.3641 -19.3113 160.322 20.1583 -39.8108 175.781 -4.95274 14.0371 6.9569 11.9586 
163.581 144.828 131.62 140.332 150.669 163.656 86.4122 83.804 83.0827 85.6058 12.7054 205.029 -34.9145 -7.79878 191.235 2.90403 -8.99726 182.949 9.72487 -15.7096 172.461 19.4522 -19.4197 160.273 20.3225 -40.0133 175.644 -4.89161 14.0915 6.95166 11.8168 
163.581 144.534 131.647 140.093 150.51 163.734 86.3554 83.7027 82.9003 85.7089 12.6998 205.236 -34.76 -8.12477 191.235 2.95939 -9.37216 182.914 9.88031 -16.0894 172.389 19.5847 -19.6263 160.298 20.5243 -40.2227 175.573 -4.86187 14.1656 6.91717 11.7323 
162.504 144.281 131.707 139.937 150.344 163.798 86.3412 83.6963 82.743 85.8118 12.5794 205.485 -34.6262 -8.43306 191.24 3.04013 -9.7305 182.905 10.0737 -16.5045 172.332 19.7462 -19.8855 160.331 20.7385 -40.4621 175.537 -4.82286 14.2465 6.86688 11.6533 
161.425 144.219 131.838 139.79 150.137 163.943 86.4382 83.7161 82.6569 85.845 12.5723 205.733 -34.4407 -8.64258 191.186 3.17132 -10.0694 182.873 10.3119 -16.8854 172.271 19.9585 -20.1929 160.364 20.9881 -40.7036 175.555 -4.77464 14.2958 6.81196 11.5952 
160.551 144.163 131.957 139.62 149.933 164.135 86.5759 83.7453 82.5856 85.7717 12.5848 206.156 -34.2716 -8.8566 191.17 3.29975 -10.4383 182.905 10.529 -17.2834 172.267 20.1412 -20.5644 160.451 21.1821 -40.9665 175.635 -4.75033 14.3233 6.76923 11.5706 
160.36 144.096 132.111 139.601 149.878 164.44 86.8178 83.8625 82.5864 85.6766 12.7531 206.295 -34.1208 -8.95576 191.099 3.42193 -10.7465 182.941 10.7319 -17.6385 172.256 20.2988 -20.9327 160.479 21.3233 -41.2255 175.698 -4.74025 14.3213 6.71728 11.5943 
160.041 144.217 132.23 139.527 149.745 164.698 87.108 83.9747 82.639 85.5692 12.8245 206.47 -33.9792 -9.0671 190.988 3.60252 -11.1083 182.97 10.941 -18.0338 172.248 20.4449 -21.3599 160.496 21.4108 -41.4563 175.738 -4.77255 14.3202 6.68656 11.6732 
159.974 144.385 132.307 139.538 149.706 164.97 87.4541 84.1214 82.7715 85.4709 12.8056 206.707 -33.9006 -9.18209 190.868 3.79312 -11.4526 183.038 11.129 -18.3883 172.287 20.6085 -21.7848 160.541 21.5157 -41.7196 175.775 -4.77608 14.2802 6.65914 11.8232 
159.971 144.504 132.386 139.653 149.778 165.203 87.6999 84.2224 82.8976 85.3468 12.75 206.736 -33.8674 -9.28258 190.725 3.88224 -11.7429 183.054 11.2067 -18.6777 172.295 20.664 -22.1844 160.51 21.5069 -41.9871 175.794 -4.79013 14.2239 6.6538 11.9616 
159.802 144.526 132.359 139.782 149.834 165.296 87.7731 84.3054 83.0271 85.207 12.5287 206.905 -33.8984 -9.44582 190.652 3.8792 -11.9665 183.055 11.1839 -18.9005 172.316 20.6177 -22.5561 160.43 21.3931 -42.2712 175.8 -4.79094 14.1404 6.69183 12.042 
159.788 144.349 132.384 139.826 149.734 165.323 87.7988 84.3389 83.1607 85.1182 12.0751 207.278 -34.017 -9.61755 190.792 3.73619 -12.1582 183.183 11.057 -19.0034 172.499 20.4506 -22.7632 160.461 21.1779 -42.5833 175.851 -4.7596 14.0345 6.82014 12.0385 
159.972 144.252 132.437 140.066 149.889 165.298 87.737 84.3164 83.2189 84.9687 11.4567 207.56 -34.1819 -9.83399 190.852 3.52604 -12.2834 183.127 10.848 -19.064 172.497 20.2675 -22.937 160.33 20.9853 -42.935 175.814 -4.70639 13.9129 6.9276 11.952 
160.532 143.937 132.542 140.258 149.926 165.136 87.6012 84.2735 83.2905 84.8992 10.7927 207.664 -34.3081 -9.98408 190.975 3.22251 -12.3581 183.109 10.6018 -19.059 172.581 20.018 -23.0518 160.255 20.7396 -43.2944 175.817 -4.60686 13.7964 7.09575 11.8169 
161.325 143.922 132.569 140.625 150.079 164.85 87.4178 84.1893 83.4742 84.7685 9.19024 207.477 -34.5147 -10.5265 190.942 3.10994 -12.7223 182.771 10.4423 -19.3284 172.395 19.9069 -23.533 159.84 20.5994 -43.9778 175.562 -4.35338 13.6238 7.28986 11.5577 
161.775 143.956 132.63 140.767 150.069 164.049 87.292 84.0425 83.5008 84.6388 8.39327 206.877 -34.3783 -10.6638 190.979 3.06657 -12.7885 182.605 10.3494 -19.3435 172.312 19.8284 -23.6594 159.625 20.5059 -44.191 175.459 -4.21436 13.5407 7.4069 11.3904 
161.577 144.064 132.631 140.81 149.939 162.947 87.1316 83.922 83.5167 84.5638 7.54723 206.142 -34.0813 -10.9744 190.98 3.11698 -13.01 182.446 10.3387 -19.5286 172.198 19.8097 -23.8777 159.409 20.4411 -44.4466 175.279 -4.08431 13.5255 7.497 11.2713 
160.969 144.462 132.588 140.836 149.753 161.902 87.0301 83.824 83.5058 84.4375 6.84715 205.241 -33.69 -11.3312 190.78 3.37145 -13.3091 182.13 10.496 -19.8392 171.912 19.9385 -24.2286 159.068 20.5006 -44.66 175.028 -3.97131 13.5398 7.53902 11.2015 
160.209 144.824 132.655 140.783 149.489 160.868 86.9211 83.6541 83.4952 84.2924 6.24448 204.232 -33.317 -11.7078 190.536 3.59222 -13.6895 181.834 10.6773 -20.1715 171.683 20.1202 -24.6056 158.81 20.6422 -44.8865 174.76 -3.83411 13.5654 7.5922 11.1728 
159.207 145.275 132.849 140.862 149.355 159.87 86.7424 83.4669 83.4277 84.1033 5.70824 203.181 -32.9029 -12.1606 190.257 3.85921 -14.1225 181.541 10.9222 -20.5843 171.442 20.3737 -25.0575 158.561 20.8684 -45.1221 174.535 -3.6868 13.6072 7.60058 11.1797 
158.12 145.655 132.984 140.881 149.236 159.036 86.5394 83.3051 83.3546 84.0233 5.27318 202.287 -32.4505 -12.6542 190.044 4.11949 -14.5577 181.339 11.186 -21.0072 171.275 20.6644 -25.4343 158.414 21.1613 -45.3347 174.347 -3.54912 13.6789 7.57532 11.2037 
156.959 146.384 133.208 141.109 149.282 158.253 86.4503 83.2068 83.3254 83.8215 4.97799 200.992 -32.0624 -13.0316 189.489 4.50336 -14.9234 180.798 11.5615 -21.4216 170.817 21.0897 -25.9308 158.007 21.5991 -45.4982 174.032 -3.42078 13.7015 7.51682 11.2121 
