178.575 137.777 126.531 141.457 154.352 130.406 82.1698 76.8827 75.8176 78.1807 -58.7349 134.605 10.5871 -56.4674 167.197 20.5107 -58.9 161.076 26.5376 -67.2547 152.834 38.2689 -74.4972 141.679 42.6429 -91.8278 157.318 19.0408 13.0299 8.18833 15.3495 
178.516 137.455 126.255 141.548 154.174 130.533 82.9217 77.2709 76.1977 78.5051 -58.5229 134.634 10.7081 -56.2828 167.312 20.6721 -59.0437 161.236 26.5904 -67.3803 153.045 38.309 -74.6191 141.889 42.5754 -91.9572 157.454 18.9729 13.08 8.22175 15.2094 
178.282 137.265 126.029 141.644 154.054 130.796 83.5621 77.6169 76.521 78.7236 -58.3102 134.641 10.7393 -56.0658 167.27 20.8901 -59.1172 161.254 26.6747 -67.4759 153.139 38.3618 -74.8071 142.014 42.5465 -92.0632 157.58 18.9181 13.0924 8.23784 15.1115 
177.937 136.375 127.15 144.639 154.187 131.912 85.2522 77.4277 76.9018 79.8567 -58.3236 134.354 10.8585 -56.1496 167.841 21.4227 -60.4558 161.637 27.4515 -68.2174 154.12 38.6391 -74.499 142.562 41.9452 -92.0325 157.426 18.7198 14.3381 9.06751 14.4146 
177.105 137.561 129.245 147.76 154.586 133.296 86.2351 77.2275 77.3778 80.6873 -58.1139 134.1 10.8907 -56.5827 168.491 21.7768 -61.3795 162.325 27.7734 -68.4978 155.043 38.762 -74.0219 143.017 41.4795 -92.0001 157.328 18.5188 15.1696 9.44265 14.41 
176.187 139.406 131.677 150.284 154.948 134.455 86.7212 77.0358 77.816 81.2013 -58.035 134.049 10.8262 -57.1615 169.162 22.0429 -62.0825 163.116 27.9207 -68.5946 155.862 38.7805 -73.6176 143.435 41.0916 -92.0143 157.334 18.3468 15.7199 9.56597 14.6272 
175.363 141.37 133.98 152.27 155.347 135.423 86.8521 76.8459 78.2191 81.7656 -58.3404 133.881 10.7465 -57.7877 169.764 22.1096 -62.6938 163.85 27.9036 -68.6546 156.563 38.6975 -73.2597 143.825 40.7898 -92.0547 157.385 18.1429 16.032 9.58724 14.8722 
175.217 139.413 132.62 151.16 156.234 135.814 86.9266 76.978 78.1192 81.5349 -58.7111 134.078 10.6914 -57.304 168.808 22.128 -62.3559 163.073 28.0194 -68.6155 156.143 38.8429 -73.9459 144.067 41.1974 -92.327 157.881 18.2155 15.6674 9.77124 14.8215 
174.71 140.226 133.523 152.412 155.324 136.457 87.4175 76.9901 78.5473 82.7367 -59.0895 133.985 10.6696 -57.4769 168.603 22.4275 -62.8009 163.126 28.2106 -68.8798 156.558 38.8714 -73.6803 144.309 40.975 -92.4145 157.942 18.079 16.1213 10.1503 15.026 
174.556 138.699 132.545 150.984 155.937 136.448 87.13 77.0562 78.4957 82.3481 -59.2923 134.288 10.4619 -57.0726 168.098 22.1654 -62.3641 162.568 28.0737 -68.6068 156.118 38.8051 -74.2538 144.427 41.2747 -92.6185 158.329 18.0829 15.5432 10.0822 14.7919 
174.705 138.077 131.719 149.353 155.883 136.173 86.7728 77.2618 78.5868 82.0074 -59.4645 134.493 10.2379 -56.6883 167.754 21.8718 -61.8545 162.189 27.8571 -68.2688 155.68 38.7065 -74.6597 144.435 41.5489 -92.7714 158.648 18.0708 14.9296 9.81227 14.6362 
174.975 137.816 130.742 148.028 155.742 135.671 86.4124 77.509 78.6995 81.7369 -59.2829 134.907 10.1629 -56.3563 167.579 21.608 -61.3153 162.006 27.5875 -67.8794 155.345 38.5891 -74.8353 144.435 41.7732 -92.8406 158.887 18.0446 14.3884 9.46935 14.5982 
175.36 137.78 129.941 147.14 155.749 135.307 86.106 77.8119 78.8179 81.5038 -59.0598 135.131 10.1088 -56.1431 167.445 21.3904 -60.8596 161.946 27.3307 -67.5672 155.073 38.477 -74.9474 144.407 41.9333 -92.9139 159.089 18.0143 13.945 9.0946 14.689 
171.786 139.748 132.16 148.084 155.885 135.983 85.9753 79.0124 79.941 82.3763 -59.0292 134.526 12.0761 -55.6235 166.239 22.7771 -60.4012 160.39 29.3017 -67.9773 153.949 40.0666 -76.2426 143.835 43.1364 -92.5953 158.807 18.0237 13.97 8.93326 13.6921 
173.057 139.758 131.785 147.524 155.973 136.229 85.4698 78.7024 79.6666 81.9846 -58.8246 135.038 11.4142 -55.8375 166.598 22.0488 -60.29 160.851 28.5628 -67.694 154.246 39.4819 -76.1261 144.285 42.8787 -92.7777 159.146 17.9167 13.7485 8.80174 14.0044 
174.063 139.778 131.449 146.996 156.054 135.903 85.0512 78.6172 79.469 81.6553 -58.7419 135.242 10.9123 -55.865 166.81 21.4052 -59.9607 161.212 27.8853 -67.3316 154.42 38.9376 -75.8532 144.542 42.5454 -92.8499 159.375 17.7963 13.6221 8.64373 14.3567 
171.643 142.026 133.423 148.193 155.944 136.603 84.5363 79.1382 80.0833 82.1528 -58.9268 134.65 12.0474 -55.8592 166.201 22.1008 -59.9507 160.247 29.1648 -67.8269 153.883 39.9074 -76.6962 144.177 43.0876 -92.6193 159.069 17.7112 13.8638 8.74034 13.641 
172.943 142.156 133.152 147.882 156.189 136.66 83.9503 78.7829 79.7875 81.949 -59.1163 134.948 11.2739 -56.2024 166.627 21.2812 -59.8757 160.753 28.3601 -67.5465 154.261 39.2462 -76.4543 144.637 42.7085 -92.824 159.376 17.6033 13.7723 8.68684 13.9856 
173.97 142.08 132.447 147.362 156.272 136.326 83.576 78.7043 79.5948 81.6971 -59.324 135.142 10.4277 -56.4339 167.055 20.6018 -59.6659 161.232 27.5493 -67.2422 154.538 38.562 -76.1519 144.893 42.1986 -92.9695 159.632 17.4448 13.6942 8.57255 14.3188 
172.238 144.014 134.296 148.334 156.249 136.906 83.3645 79.3886 80.1529 82.2547 -59.4779 134.773 10.9918 -56.3678 166.656 21.1887 -59.5754 160.536 28.653 -67.6251 154.167 39.2624 -76.7472 144.619 42.4645 -92.7498 159.388 17.2951 13.9515 8.73026 13.7271 
173.51 143.831 133.623 147.923 156.452 136.776 82.9403 79.0615 79.8763 81.936 -59.8846 134.838 10.2481 -56.6616 167.053 20.5986 -59.5037 160.944 27.9156 -67.3581 154.487 38.5771 -76.5592 144.95 41.9537 -92.8838 159.647 17.1659 13.8999 8.7824 14.0344 
171.872 145.854 135.467 148.79 156.384 137.305 82.7635 79.6084 80.4616 82.4889 -60.0829 134.384 10.8617 -56.6427 166.782 21.1131 -59.4906 160.341 28.912 -67.6745 154.271 39.1883 -77.05 144.785 42.1566 -92.6929 159.446 17.0474 14.1401 9.05054 13.4495 
170.028 149.026 137.919 149.991 156.702 137.89 82.3661 79.9722 80.9758 83.0723 -60.4183 133.9 11.6779 -56.6417 166.368 21.6227 -59.4979 159.764 29.8715 -67.9699 154.013 39.8435 -77.5471 144.669 42.4722 -92.5203 159.27 16.978 14.3281 9.19115 13.1016 
172.19 148.025 137.272 149.569 156.97 137.891 81.9063 79.3483 80.5214 82.6627 -60.8813 133.832 10.7921 -56.9245 166.774 20.9489 -59.5066 160.325 28.9888 -67.6355 154.497 39.0186 -77.2315 145.165 41.8813 -92.6717 159.632 16.8769 14.2874 9.37227 13.5607 
171 149.406 138.992 150.215 156.737 138.208 81.9296 79.6719 81.1613 83.2979 -61.0753 133.436 11.4426 -56.8786 166.458 21.4669 -59.5869 159.898 29.79 -67.8592 154.455 39.5586 -77.5372 145.146 42.0381 -92.5151 159.572 16.7947 14.4899 9.66003 13.2773 
169.479 151.37 141.126 151.055 156.825 138.655 81.6992 79.8346 81.5997 83.7954 -61.3673 133.069 12.0761 -56.8299 166.051 21.8724 -59.6437 159.484 30.4645 -68.0412 154.311 40.0115 -77.8519 145.091 42.2214 -92.392 159.514 16.7371 14.6137 9.82275 13.1325 
168.028 153.566 143.085 151.865 156.916 139.103 81.3032 79.8158 81.8434 84.1204 -61.6501 132.943 12.4857 -56.8512 165.813 22.0907 -59.7232 159.292 30.8865 -68.1812 154.289 40.2988 -78.0357 145.108 42.3188 -92.3044 159.553 16.6853 14.7193 9.92224 13.1114 
170.997 150.955 141.794 151.236 157.308 138.82 80.9127 79.0106 81.179 83.4814 -62.2281 133.076 11.3886 -57.1031 166.498 21.2068 -59.785 160.124 29.7438 -67.7451 154.904 39.2837 -77.531 145.655 41.6346 -92.5135 160.03 16.601 14.628 10.0862 13.5247 
170.424 151.373 142.929 151.643 157.147 138.899 80.9972 79.1835 81.6313 84.0044 -62.5275 132.761 11.8628 -57.1625 166.395 21.6104 -59.9395 159.922 30.2174 -67.9783 154.954 39.6192 -77.7056 145.664 41.6964 -92.4411 160.065 16.5046 14.7532 10.2794 13.3496 
169.401 152.465 144.335 152.226 157.256 139.175 80.9165 79.2442 81.8258 84.2762 -62.7491 132.399 12.3505 -57.023 165.977 21.9795 -59.97 159.533 30.6552 -68.1908 154.726 39.9428 -77.9729 145.496 41.8109 -92.3243 159.999 16.449 14.8559 10.3208 13.2942 
168.413 153.123 145.661 152.691 157.341 139.538 80.8317 79.3334 82.0233 84.5262 -62.9026 132.135 12.6871 -56.7899 165.592 22.1575 -59.9526 159.295 30.9288 -68.3157 154.568 40.1373 -78.1468 145.429 41.8201 -92.2317 160.002 16.3558 14.96 10.3003 13.2976 
167.544 153.266 146.724 152.986 157.306 139.848 80.6795 79.4219 82.203 84.766 -63.0214 132.178 12.8472 -56.605 165.371 22.2302 -59.9416 159.294 31.1176 -68.4056 154.589 40.286 -78.2252 145.505 41.8112 -92.1852 160.121 16.2951 15.0634 10.2524 13.3801 
166.789 152.907 147.47 153.139 157.22 140.131 80.5156 79.4728 82.3149 84.9311 -63.0449 132.213 12.9429 -56.4529 165.112 22.2323 -59.9267 159.267 31.212 -68.466 154.564 40.3552 -78.2711 145.536 41.7585 -92.1496 160.235 16.226 15.147 10.201 13.5125 
166.098 152.32 148.104 153.275 157.13 140.422 80.4096 79.5165 82.3711 85.0031 -63.0933 132.137 13.0438 -56.2886 164.827 22.2778 -59.9333 159.234 31.3291 -68.556 154.542 40.4157 -78.3702 145.572 41.6959 -92.1134 160.344 16.1702 15.23 10.1782 13.6564 
165.453 151.471 148.475 153.367 157.067 140.664 80.3207 79.5433 82.3769 84.9839 -63.2385 131.985 13.1426 -56.1102 164.563 22.2718 -59.9524 159.19 31.3938 -68.6595 154.489 40.4314 -78.4936 145.553 41.6008 -92.0711 160.447 16.1016 15.2905 10.1446 13.7657 
164.896 150.553 148.695 153.353 156.956 140.937 80.2571 79.526 82.3178 84.8938 -63.3062 131.833 13.1188 -55.9019 164.246 22.2191 -59.9491 159.098 31.3963 -68.7415 154.419 40.3929 -78.5988 145.516 41.4907 -92.0236 160.495 16.0331 15.3479 10.1388 13.8798 
164.655 149.701 148.977 153.562 156.957 141.111 80.0755 79.4532 82.2225 84.7689 -63.5117 131.645 13.1255 -55.781 163.992 22.1619 -59.9831 159.016 31.3904 -68.8378 154.338 40.3619 -78.7033 145.461 41.3956 -91.9848 160.55 15.9772 15.3991 10.1181 13.968 
164.445 148.926 149.208 153.697 156.937 141.416 79.8295 79.3921 82.1452 84.692 -63.7503 131.369 13.1499 -55.7093 163.727 22.0922 -60.0247 158.911 31.3934 -68.9371 154.265 40.3284 -78.8338 145.437 41.3345 -91.9831 160.655 15.9308 15.3972 10.1237 14.0594 
164.186 148.08 149.249 153.851 156.938 141.661 79.636 79.3258 82.0447 84.5715 -63.9472 131.246 12.998 -55.5953 163.597 22.0017 -60.0288 158.88 31.3284 -68.9577 154.186 40.2333 -78.8507 145.373 41.1886 -91.9353 160.719 15.8639 15.4337 10.0923 14.0904 
164.142 147.339 149.284 154.002 156.966 141.82 79.4071 79.2809 81.8961 84.4023 -64.0856 131.122 12.8194 -55.4487 163.506 21.8415 -59.9866 158.873 31.2084 -68.9391 154.094 40.0611 -78.8285 145.261 40.9794 -91.882 160.756 15.7758 15.4618 10.0544 14.1093 
164.19 146.561 149.05 153.905 156.829 141.892 79.3801 79.2748 81.7698 84.2156 -64.0807 131.222 12.5549 -55.2542 163.557 21.7043 -59.9387 158.979 31.0719 -68.8642 154.057 39.8792 -78.7153 145.193 40.7429 -91.8215 160.814 15.686 15.5209 10 14.0875 
164.184 145.912 148.75 153.736 156.651 141.973 79.3235 79.239 81.6101 84.007 -64.0315 131.311 12.2838 -55.0978 163.586 21.5648 -59.9231 159.126 30.9296 -68.8552 154.036 39.7188 -78.6542 145.134 40.5362 -91.7678 160.896 15.5676 15.5642 9.88952 14.1588 
163.868 145.161 148.236 153.493 156.439 142.056 79.2786 79.2018 81.4046 83.7177 -64.0299 131.409 11.9843 -54.9259 163.697 21.4457 -59.9057 159.277 30.7639 -68.8557 153.959 39.5146 -78.6133 145.005 40.2591 -91.7043 160.987 15.4141 15.6124 9.73576 14.1516 
163.57 144.668 147.853 153.213 156.093 142.161 79.1163 79.0236 81.0918 83.3385 -63.9762 131.562 11.7361 -54.8253 163.836 21.3629 -59.9573 159.443 30.6255 -68.9081 153.894 39.3307 -78.6091 144.862 40.0271 -91.6385 161.104 15.2638 15.6303 9.59612 14.1766 
163.243 144.155 147.568 153.087 155.776 142.381 78.8857 78.7752 80.7052 82.9001 -64.0595 131.643 11.5119 -54.807 164.025 21.3471 -60.1062 159.636 30.5108 -69.0492 153.807 39.1207 -78.6676 144.674 39.731 -91.5756 161.302 15.0803 15.6491 9.44006 14.2 
162.862 143.97 147.661 153.214 155.613 142.752 78.5038 78.4426 80.1654 82.3734 -64.2488 131.603 11.3325 -54.8457 163.974 21.3744 -60.2942 159.723 30.4594 -69.3738 153.685 38.9764 -78.9416 144.486 39.5419 -91.5196 161.515 14.9059 15.6414 9.26978 14.3975 
162.309 143.855 147.809 153.376 155.483 143.235 78.0331 78.0228 79.5133 81.7846 -64.6023 131.526 11.1713 -54.9622 163.939 21.4204 -60.5823 159.749 30.4349 -69.8217 153.508 38.8349 -79.3479 144.275 39.3564 -91.4914 161.784 14.7431 15.6413 9.10067 14.5215 
161.366 143.926 147.875 153.324 155.174 143.937 77.6002 77.5804 78.8298 81.1743 -64.9587 131.497 10.938 -55.1076 163.964 21.4746 -60.8578 159.786 30.3622 -70.2529 153.306 38.6256 -79.7452 144.025 39.1226 -91.4665 162.123 14.5539 15.589 8.91394 14.6492 
159.925 144.073 147.905 153.239 154.795 145.003 77.2829 77.1172 78.1255 80.4994 -65.3841 131.418 10.6593 -55.2563 164.057 21.5213 -61.1689 159.864 30.2426 -70.7029 153.114 38.3586 -80.1492 143.742 38.8276 -91.4408 162.517 14.3167 15.5018 8.71555 14.7657 
157.697 144.164 147.819 152.977 154.151 146.403 76.8092 76.5614 77.3293 79.7169 -65.8493 131.243 10.4166 -55.3869 164.204 21.5102 -61.4478 159.885 30.0714 -71.1366 152.826 38.0223 -80.5465 143.291 38.4757 -91.3559 162.895 14.0579 15.348 8.49183 14.7995 
156.317 144.545 147.663 152.612 153.362 147.098 76.4552 76.2013 76.759 79.0382 -65.9279 131.1 10.3212 -55.3832 164.236 21.4811 -61.5593 159.796 29.9175 -71.4112 152.471 37.7542 -80.8016 142.735 38.2122 -91.1814 163.08 13.7949 15.1233 8.24554 14.785 
155.687 143.227 147.492 151.246 153.106 146.977 76.8777 76.3965 75.9416 78.2717 -65.9383 130.852 10.37 -55.1034 163.891 21.5203 -61.1643 159.43 29.8309 -71.5577 151.759 37.1811 -81.3762 142.204 38.0284 -91.0723 163.291 13.5193 14.3524 7.89321 14.914 
155.681 142.06 147.35 150.229 153.001 146.85 77.2863 76.6341 75.5269 77.7916 -65.7889 130.711 10.3023 -54.946 163.873 21.4108 -60.7032 159.291 29.5742 -71.446 151.299 36.6275 -81.6788 141.934 37.7831 -90.9715 163.481 13.2247 13.7039 7.55642 15.0025 
156.156 140.942 147.479 149.637 153.184 146.602 77.6407 76.8965 75.3853 77.5242 -65.7068 130.692 10.3375 -54.9056 163.84 21.2301 -60.2962 159.279 29.3206 -71.3351 151.102 36.2529 -81.9803 141.972 37.6573 -90.9441 163.702 12.9874 13.2022 7.2556 15.2368 
156.669 140.038 147.452 149.194 153.547 146.308 78.2522 77.2733 75.4859 77.4208 -65.3109 130.869 10.2396 -54.7232 164.126 20.9272 -59.763 159.533 28.8978 -70.9407 151.082 35.8311 -81.8459 142.152 37.3711 -90.883 163.882 12.6999 12.9592 6.93686 15.3676 
157.416 139.703 147.371 149.038 154.308 145.967 78.9117 77.7312 75.7694 77.4262 -64.9435 131.119 9.97158 -54.4988 164.609 20.6091 -59.2525 159.932 28.4725 -70.4365 151.227 35.4707 -81.5244 142.538 37.0165 -90.7861 163.994 12.4145 13.017 6.69452 15.3561 
158.365 139.55 147.174 149.011 155.359 145.749 79.6698 78.2894 76.209 77.5934 -64.4328 131.751 9.47517 -54.3009 165.411 20.2344 -58.8069 160.672 28.0748 -69.8777 151.721 35.2357 -81.0321 143.3 36.7008 -90.7518 164.15 12.1857 13.3966 6.49973 15.3021 
159.474 139.557 146.521 148.71 156.141 145.4 80.621 79.0014 76.8111 77.9815 -63.7602 132.787 8.56598 -54.0816 166.464 19.774 -58.3317 161.608 27.5874 -69.1592 152.419 34.9585 -80.276 144.192 36.3665 -90.7724 164.323 11.9734 13.8613 6.38082 15.1388 
160.91 139.61 145.942 148.462 156.733 144.683 81.5886 79.8128 77.4593 78.5145 -63.3344 133.711 7.92817 -53.9294 167.363 19.3611 -57.9263 162.483 27.1902 -68.553 153.251 34.7218 -79.6504 145.122 36.2262 -90.8611 164.543 11.8149 14.0578 6.42688 15.0255 
162.543 139.76 145.532 148.449 157.332 143.594 82.4881 80.6152 78.0763 79.0947 -62.9822 134.476 7.63697 -53.7395 168.05 19.0495 -57.5468 163.246 26.9029 -68.0199 154.1 34.5233 -79.0717 145.932 36.1803 -90.9014 164.695 11.6885 14.0575 6.60387 14.988 
163.991 139.936 144.933 148.322 157.711 142.484 83.4066 81.3214 78.6689 79.6869 -62.6538 135.196 7.32845 -53.5102 168.559 18.9506 -57.2359 163.918 26.7299 -67.6061 154.896 34.3992 -78.5885 146.591 36.2094 -90.8853 164.855 11.5808 13.8961 6.79666 15.0474 
165.221 140.17 144.552 148.323 158.08 141.474 84.107 81.9866 79.2661 80.2693 -62.5213 135.678 7.20128 -53.2981 168.996 18.8129 -56.9136 164.475 26.6014 -67.2184 155.657 34.3372 -78.1314 147.147 36.3632 -90.8235 164.939 11.4988 13.5832 7.02881 15.0641 
166.358 140.299 144.08 148.224 158.262 140.66 84.7395 82.4933 79.7696 80.7389 -62.3869 136.279 6.93896 -53.0678 169.49 18.7481 -56.6476 165.061 26.4764 -66.8608 156.361 34.2994 -77.6349 147.645 36.4883 -90.7626 165.055 11.4532 13.351 7.17862 15.0494 
167.268 140.399 143.819 148.203 158.443 139.903 85.1505 82.8519 80.1818 81.1316 -62.3089 136.612 6.85335 -52.8076 169.704 18.7312 -56.3582 165.406 26.4099 -66.5445 156.822 34.3328 -77.1915 147.898 36.6891 -90.6052 165.045 11.4073 13.0556 7.2612 15.106 
168.162 140.045 143.626 148.749 158.376 139.429 85.1957 83.0154 81.0317 81.9268 -62.3028 136.846 6.5695 -52.5456 170.355 18.2341 -56.5443 165.912 26.2093 -66.4897 157.587 34.4441 -76.6195 148.336 36.4734 -90.4741 165.025 11.3139 13.4001 7.43427 14.569 
169.025 139.843 143.005 149.006 158.206 138.833 84.7927 83.1273 81.8133 82.5875 -62.247 137.28 6.21583 -52.2797 171.118 17.5838 -56.6191 166.531 25.8719 -66.3653 158.372 34.4794 -76.049 148.798 36.2318 -90.3184 165.075 11.2257 13.6988 7.4816 14.0654 
169.626 139.926 141.865 148.684 157.647 138.173 84.404 83.233 82.5469 83.2716 -61.8766 137.935 5.69956 -51.9393 171.967 16.9657 -56.6224 167.191 25.4815 -66.1455 159.114 34.452 -75.4551 149.283 35.9544 -90.1835 165.143 11.162 14.0139 7.4685 13.5201 
170.057 140.251 140.921 148.508 157.091 137.69 83.7066 83.2414 83.1121 83.8658 -61.3471 138.423 5.37908 -51.5681 172.586 16.417 -56.5088 167.683 25.167 -65.9164 159.678 34.4842 -74.9457 149.642 35.7817 -89.944 165.202 11.0973 14.259 7.39024 13.0671 
173.929 139.46 138.855 148.106 156.805 135.864 81.7382 81.4356 81.9079 82.7077 -62.5462 138.453 5.11737 -52.0484 173.821 15.776 -56.939 168.03 24.4102 -65.7297 160.285 33.8225 -74.7603 150.044 35.4302 -89.8006 165.713 11.2133 14.154 7.88902 12.3152 
175.354 139.032 136.4 147.377 156.161 134.487 80.6163 79.8625 80.9502 81.6709 -62.5532 139.271 4.49199 -52.5687 175.039 15.3725 -57.3177 168.395 23.6306 -65.4491 160.817 33.2149 -74.4805 150.418 35.026 -89.6806 166.263 11.2377 14.1464 8.26556 11.782 
176.329 138.398 134.01 146.511 155.375 133.238 80.0961 78.7363 80.1199 80.6564 -62.0502 140.12 3.95036 -52.9256 175.741 15.1715 -57.3307 168.518 22.9401 -64.9845 161.039 32.6657 -74.0318 150.54 34.6122 -89.4524 166.643 11.2266 14.2107 8.52846 11.701 
177.334 137.413 131.771 145.477 154.473 132.183 80.159 78.0244 79.5045 79.6934 -61.4049 140.939 3.44915 -53.1808 176.247 15.0093 -57.1852 168.684 22.2616 -64.5105 161.222 32.1749 -73.5608 150.672 34.2158 -89.2253 166.982 11.1782 14.2909 8.64533 11.917 
178.244 136.428 129.801 144.505 153.586 131.353 80.4911 77.5656 78.9514 78.7717 -60.5421 141.606 3.11581 -53.2716 176.47 14.9591 -56.8911 168.818 21.6675 -64.0593 161.289 31.7771 -73.0599 150.678 33.8483 -88.9341 167.236 11.1157 14.3971 8.63264 12.3862 
179.028 135.761 128.518 143.881 153.076 130.819 80.8683 77.2048 78.4684 78.0827 -59.8722 141.962 3.01314 -53.1145 176.337 14.948 -56.5338 168.889 21.2097 -63.764 161.374 31.5283 -72.775 150.771 33.6717 -88.623 167.503 11.0357 14.4293 8.59388 13.006 
179.762 135.478 127.815 143.634 152.937 129.896 81.367 77.0164 78.0829 77.5019 -59.6952 141.891 3.53763 -52.7801 176.126 14.9795 -56.1478 168.903 20.8729 -63.5308 161.419 31.3469 -72.5803 150.857 33.5339 -88.2863 167.71 10.9473 14.452 8.58583 13.4859 
179.695 135.25 127.579 143.653 152.986 129.197 81.8203 76.8478 77.7721 77.0785 -59.5449 141.774 4.22332 -52.3343 175.809 15.2054 -55.7779 168.898 20.7854 -63.3738 161.469 31.3607 -72.493 151.012 33.5447 -87.9305 167.954 10.9144 14.4963 8.58118 13.9472 
179.379 135.104 127.269 143.537 153.092 128.482 82.2145 76.7322 77.4141 76.6513 -59.2249 141.92 4.70383 -51.7386 175.514 15.3224 -55.2677 168.758 20.6687 -63.0903 161.374 31.3077 -72.2734 151.009 33.4964 -87.5108 168.049 10.8835 14.5848 8.59207 14.1871 
179.279 135.265 127.026 143.439 153.06 127.957 82.4392 76.6345 77.1625 76.4157 -59.1646 142.153 4.93879 -51.2658 175.43 15.253 -54.8767 168.731 20.5522 -62.8571 161.473 31.2781 -72.0623 151.197 33.5372 -87.1878 168.205 10.8733 14.6302 8.67252 14.2377 
179.259 135.252 126.627 143.104 152.852 127.808 82.5806 76.5613 76.9696 76.2548 -58.812 142.917 4.65628 -50.924 175.857 15.1338 -54.5832 169.031 20.4212 -62.6206 161.822 31.2126 -71.7901 151.62 33.5037 -86.9508 168.567 10.8713 14.7302 8.749 14.0924 
179.326 135.332 126.358 142.736 152.673 127.719 82.7631 76.5547 76.879 76.2613 -58.2356 143.763 4.02873 -50.4871 176.235 14.9405 -54.2115 169.278 20.2955 -62.2681 162.108 31.1529 -71.3596 151.954 33.4919 -86.6604 168.765 10.86 14.817 8.81518 13.8848 
179.712 135.16 125.924 142 152.161 127.578 83.1838 76.6685 76.8634 76.2785 -56.9905 145.255 2.94797 -50.0804 176.928 14.6937 -53.8544 169.783 20.06 -61.777 162.483 30.9572 -70.6734 152.274 33.3165 -86.3758 168.952 10.8222 14.9156 8.80555 13.6266 
179.782 135.153 125.649 141.46 151.572 127.288 83.5495 76.8431 76.9789 76.3792 -55.9499 146.573 2.15312 -49.6601 177.383 14.6318 -53.4874 170.139 19.9795 -61.3207 162.742 30.8879 -70.1209 152.489 33.254 -86.089 169.149 10.7971 14.9199 8.73991 13.4644 
179.216 135.098 125.447 141.012 151.057 127.187 83.8962 77.063 77.1104 76.4683 -54.8596 147.414 1.60941 -49.197 177.684 14.4974 -53.0361 170.433 19.8598 -60.7719 162.899 30.7883 -69.4844 152.58 33.1963 -85.7444 169.199 10.7644 14.8813 8.61133 13.3969 
179.075 135.124 125.63 141.048 151.013 127.955 83.9327 76.9674 77.2324 76.8002 -54.0598 147.697 1.17421 -48.8968 178.104 14.3927 -52.8577 171.031 19.7827 -60.4187 163.39 30.7606 -68.9661 152.973 33.2641 -85.4549 169.499 10.7333 14.7105 8.50359 13.5242 
179.115 135.207 125.903 141.139 151.046 128.767 84.1195 76.9352 77.3646 77.1738 -53.2286 147.537 1.25451 -48.451 178.221 14.4741 -52.6127 171.394 19.8494 -60.121 163.708 30.855 -68.5563 153.275 33.4087 -85.1338 169.744 10.7535 14.6029 8.42862 13.7035 
179.266 135.243 126.582 141.613 151.484 129.737 84.1128 76.8546 77.5122 77.6576 -52.7286 146.89 1.61163 -48.0831 178.31 14.5233 -52.4348 171.77 19.9481 -59.8773 164.03 30.9644 -68.206 153.589 33.5663 -84.8522 170.009 10.8051 14.4824 8.35302 13.9185 
179.139 135.093 126.995 141.856 151.804 130.64 84.1279 76.7985 77.6163 77.9865 -51.9757 146.408 2.00686 -47.6144 178.14 14.6654 -52.1053 171.902 20.1001 -59.5551 164.135 31.1343 -67.8635 153.728 33.769 -84.497 170.161 10.8995 14.3924 8.27309 14.1915 
178.937 135.126 127.46 142.157 152.222 131.34 84.091 76.8125 77.7375 78.2358 -51.3335 145.612 2.67665 -47.0642 177.574 14.9761 -51.65 171.651 20.4073 -59.2249 163.906 31.423 -67.6497 153.588 34.0523 -84.0707 170.141 11.0211 14.3058 8.19403 14.4853 
178.759 134.974 127.944 142.648 152.724 131.318 83.9277 76.8037 77.7579 78.416 -50.992 144.92 3.67914 -46.4861 176.925 15.1687 -51.0541 171.329 20.6414 -58.7671 163.643 31.6503 -67.3062 153.442 34.2772 -83.5835 169.99 11.1844 14.3415 8.1555 14.8311 
178.558 134.813 128.523 143.15 153.122 131.132 84.0115 76.9671 77.8939 78.6056 -50.4076 144.606 4.54714 -45.8355 176.394 15.4728 -50.4192 171.11 20.9681 -58.2376 163.421 31.8896 -66.8427 153.283 34.3951 -83.0494 169.782 11.301 14.4676 8.12033 15.131 
