178.383 134.584 129.008 143.497 153.413 130.813 84.1139 77.2037 78.1563 78.9354 -50.1227 144.599 5.21334 -45.2427 176.196 15.8245 -49.8046 171.078 21.3514 -57.6413 163.386 32.1629 -66.2712 153.298 34.5326 -82.5413 169.698 11.4366 14.6008 8.12004 15.2702 
178.156 134.34 129.128 143.417 153.387 130.333 84.3452 77.5057 78.4334 79.2549 -49.4067 145.188 5.4934 -44.7101 176.203 16.0294 -49.1895 171.116 21.6078 -56.9409 163.369 32.3281 -65.4746 153.267 34.5717 -82.0576 169.529 11.5437 14.7568 8.13495 15.2881 
177.651 134.057 129.052 142.975 152.968 129.538 84.5215 77.6652 78.6795 79.5703 -48.6234 146.462 5.53698 -44.2411 176.533 16.215 -48.6354 171.373 21.8193 -56.2098 163.507 32.4866 -64.5883 153.323 34.6629 -81.6142 169.492 11.6957 14.8093 8.10071 15.235 
177.231 134.052 129.029 142.655 152.539 128.797 84.5242 77.6191 78.8626 79.8757 -47.8525 147.854 5.4042 -43.8943 176.901 16.4232 -48.1943 171.626 21.9925 -55.5923 163.598 32.712 -63.8208 153.343 34.8402 -81.2408 169.501 11.8497 14.8166 7.94905 15.1896 
173.047 137.509 131.119 143.967 152.949 121.258 84.6392 78.7648 79.941 81.1717 -48.7338 150.315 8.1358 -43.6757 177.89 15.7881 -47.02 172.861 21.684 -53.9507 164.322 32.6349 -61.5653 153.553 35.0346 -80.9537 169.532 12.0271 14.254 7.50733 15.5751 
170.632 138.093 130.926 143.475 152.831 119.604 85.1585 78.973 80.1547 81.6375 -48.0597 151.361 9.10883 -43.0745 177.7 16.3717 -46.5483 172.783 22.2163 -53.6498 164.209 33.1922 -61.2234 153.492 35.6118 -80.6166 169.566 12.1742 14.12 7.36907 15.6418 
169.53 138.521 130.847 143.054 152.313 119.857 85.6387 78.9531 80.2459 81.8247 -46.7198 151.707 9.69326 -42.3469 177.416 17.0267 -46.1232 172.582 22.7778 -53.4106 163.99 33.7483 -61.0744 153.308 36.1888 -80.1607 169.598 12.2846 13.9073 7.23848 15.661 
169.487 139.292 131.038 142.981 151.873 120.962 86.131 78.8667 80.3349 81.9833 -45.2201 151.728 10.2108 -41.5528 177.061 17.7983 -45.7427 172.358 23.4303 -53.246 163.794 34.3823 -61.0753 153.158 36.8313 -79.7134 169.714 12.4246 13.6707 7.12542 15.6913 
170.377 140.138 131.596 143.392 151.719 122.882 86.4617 78.7033 80.2875 82.0123 -43.6659 150.834 10.8263 -40.642 176.281 18.4831 -45.3103 171.904 24.031 -53.1211 163.469 34.8747 -61.2148 152.936 37.2836 -79.2312 169.837 12.5344 13.5056 7.12338 15.8936 
168.929 140.563 133.212 143.732 151.144 126.933 88.0135 79.843 81.1974 82.7683 -42.1529 149 11.1341 -39.391 174.911 19.6485 -44.7158 171.045 25.3357 -52.9297 162.688 35.5987 -61.3186 152.302 37.5287 -78.6267 169.747 12.4165 13.6207 7.11298 15.9042 
167.226 140.688 134.579 143.81 150.49 131.068 89.4063 81.0227 82.1844 83.5976 -40.9768 147.283 11.1975 -38.2925 173.839 20.5185 -44.1185 170.544 26.3046 -52.633 162.166 36.0795 -61.2321 151.853 37.5785 -78.0485 169.693 12.2296 13.6794 7.05855 16.0777 
165.814 140.478 135.658 143.769 149.858 134.427 90.5268 82.0245 82.9909 84.2609 -40.0892 146.205 11.0573 -37.3509 173.078 21.1302 -43.5061 170.317 26.9818 -52.2457 161.855 36.3696 -60.9734 151.583 37.4814 -77.4643 169.714 12.0374 13.7733 6.98655 16.3462 
167.798 140.06 135.1 143.794 149.882 135.247 90.1664 81.5575 82.4074 83.4785 -40.0822 145.979 10.8265 -36.9549 173 21.2233 -43.1737 170.189 26.9238 -52.0245 161.801 36.1414 -61.0019 151.578 37.1981 -76.9752 170.036 12.0401 13.7125 7.17241 16.4109 
167.32 139.561 136.069 143.468 149.178 136.809 91.0542 82.5707 83.0616 84.0338 -39.9023 145.162 10.551 -36.313 172.27 21.7814 -42.4502 169.642 27.525 -51.5384 161.145 36.3408 -60.5877 151.051 37.0307 -76.3855 169.934 11.8551 13.877 7.09194 16.437 
166.753 138.976 136.673 143.052 148.416 138.286 91.5995 83.3715 83.6888 84.6214 -39.7608 145.043 9.87365 -35.8482 172.074 22.2355 -41.8863 169.516 27.9911 -51.1154 160.878 36.5328 -60.1803 150.871 36.9117 -75.8471 169.987 11.6958 14.0316 6.96306 16.3958 
165.365 138.383 137.102 142.416 147.474 139.295 91.9116 84.0781 84.3421 85.2226 -39.1881 145.964 9.08043 -35.4475 172.442 22.4727 -41.351 169.773 28.3322 -50.6189 160.955 36.7171 -59.6233 150.951 36.8569 -75.3673 170.133 11.5924 14.1403 6.81476 16.2032 
163.744 137.999 137.087 141.791 146.671 139.954 92.0301 84.5932 84.9253 85.7836 -38.7405 146.76 8.45712 -35.0941 172.893 22.6465 -40.9151 170.11 28.5795 -50.1934 161.164 36.8711 -59.1095 151.129 36.8038 -74.886 170.301 11.4863 14.226 6.70403 16.0241 
162.363 137.857 136.919 141.456 146.273 140.571 91.967 84.9858 85.4816 86.3407 -38.3618 147.155 7.99913 -34.7706 173.334 22.848 -40.5927 170.281 28.8624 -49.8394 161.311 37.0637 -58.648 151.272 36.7636 -74.3844 170.435 11.4104 14.3449 6.69756 15.6475 
161.042 138.158 136.294 141.035 146.007 140.816 91.9937 85.2892 86.0059 86.8734 -37.6922 147.545 7.70603 -34.3534 173.763 23.0653 -40.3036 170.364 29.0516 -49.4929 161.445 37.1589 -58.1899 151.416 36.6325 -73.8287 170.567 11.2595 14.4403 6.77807 15.1729 
160.297 138.083 135.361 140.529 145.683 140.911 92.0693 85.5811 86.4299 87.2208 -36.8465 147.892 7.32752 -33.831 174.113 23.1558 -39.9811 170.237 29.1255 -49.11 161.387 37.1298 -57.7481 151.383 36.4036 -73.2764 170.614 11.0949 14.5216 6.88125 14.5205 
160.467 137.811 134.343 140.131 145.484 141.124 92.0832 85.7369 86.7005 87.4178 -36.267 147.649 7.00531 -33.2851 174.252 23.2059 -39.6989 170.043 29.1437 -48.817 161.325 37.0631 -57.4554 151.373 36.1805 -72.7279 170.688 10.9301 14.5789 7.00483 14 
160.591 138.172 134.902 140.761 145.778 140.779 92.4217 86.144 86.5939 87.1693 -35.5384 147.682 6.62492 -32.1392 174.727 23.2062 -39.0561 170.408 29.2155 -48.3574 161.51 36.8469 -56.9784 151.407 35.8365 -72.0316 170.578 10.69 14.5402 6.9406 13.6111 
160.514 138.244 135.338 141.266 145.982 140.539 92.5618 86.5596 86.6177 87.1046 -34.8061 147.92 6.25496 -31.2118 175.436 23.1345 -38.45 171.044 29.2747 -47.8752 161.962 36.6636 -56.4581 151.711 35.5288 -71.3653 170.653 10.4432 14.4951 6.88336 13.3649 
160.809 137.458 135.729 142.288 146.081 138.783 91.4156 85.5486 85.7428 85.9339 -34.9332 148.805 5.91076 -31.4736 176.62 22.7858 -38.4849 171.456 28.8892 -47.5505 162.429 36.1306 -55.9739 151.957 34.7784 -70.8406 171.059 10.319 14.7727 7.28202 12.8438 
158.939 137.553 136.856 142.804 146.502 138.357 91.474 85.8843 85.7023 86.0412 -34.3439 149.064 6.05255 -30.7957 177.024 22.6948 -37.8199 171.937 28.9771 -47.0934 162.716 36.079 -55.5198 152.216 34.7924 -70.3342 171.127 10.1631 14.6281 7.11341 12.8804 
157.41 137.779 137.727 143.277 146.929 138.196 91.5872 86.1698 85.7253 86.2242 -33.4276 149.566 5.9408 -30.0471 177.375 22.6219 -37.1703 172.305 29.0524 -46.6139 162.921 36.0939 -55.0536 152.409 34.8899 -69.8322 171.112 10.0465 14.5056 6.93328 12.803 
156.117 137.491 138.785 144.017 147.708 138.209 91.3535 86.2458 85.6201 86.3613 -32.7609 149.52 5.84955 -29.4684 177.322 22.3881 -36.6279 172.327 29.0425 -46.2945 162.927 36.1134 -54.7651 152.469 35.0189 -69.3935 170.94 9.98833 14.463 6.80671 12.7761 
155.097 137.375 139.425 144.573 148.249 138.314 91.0655 86.1687 85.5092 86.4408 -32.0768 149.599 5.69719 -28.9791 177.377 22.1126 -36.2558 172.446 28.9445 -46.063 163.065 36.094 -54.5449 152.628 35.0846 -68.996 170.892 9.92919 14.4539 6.72086 12.7335 
154.366 137.551 139.593 144.829 148.513 138.273 90.82 85.9545 85.3611 86.379 -31.3133 149.665 5.52109 -28.5036 177.307 21.9437 -35.9816 172.309 28.8056 -45.8503 162.984 35.9966 -54.3615 152.606 35.002 -68.557 170.856 9.82542 14.4853 6.69962 12.555 
153.725 137.617 139.417 144.86 148.63 138.299 90.6227 85.7444 85.2323 86.2997 -30.5847 149.593 5.3091 -28.0052 177.212 21.8206 -35.6892 172.066 28.6401 -45.5923 162.805 35.8222 -54.1569 152.51 34.8117 -68.0611 170.865 9.67785 14.5018 6.71567 12.302 
153.541 137.615 138.846 144.617 148.434 138.599 90.4886 85.477 85.1671 86.1261 -29.8691 149.175 5.06448 -27.5312 176.848 21.8532 -35.5166 171.608 28.523 -45.4758 162.52 35.6744 -54.1903 152.396 34.5566 -67.5272 171.002 9.47733 14.5242 6.78798 12.0664 
153.703 137.6 138.33 144.321 148.184 138.994 90.5693 85.3091 85.1645 85.9686 -29.2463 148.471 4.96079 -26.9468 176.264 21.9447 -35.2473 171.081 28.4442 -45.2746 162.207 35.5242 -54.1772 152.298 34.2806 -66.9598 171.161 9.27998 14.5459 6.90644 11.9811 
153.881 137.491 137.984 144.136 148.029 139.284 90.6775 85.1901 85.1657 85.7833 -28.8652 147.756 5.02737 -26.4625 175.693 22.1095 -35.0083 170.718 28.4426 -45.1268 162.042 35.4316 -54.2005 152.326 34.032 -66.4059 171.396 9.10225 14.5733 7.02256 12.0931 
153.987 137.283 137.57 143.769 147.714 139.411 90.842 85.0656 85.1519 85.6364 -28.6431 147.036 5.22962 -26.0459 175.387 22.1676 -34.7545 170.661 28.3281 -44.9047 162.083 35.2324 -54.0774 152.465 33.7183 -65.9033 171.684 8.90477 14.5569 7.12405 12.3492 
154.169 136.969 137.387 143.439 147.39 139.551 90.877 84.9272 85.0662 85.5296 -28.6916 146.323 5.50449 -25.765 175.256 22.2194 -34.5101 170.771 28.2546 -44.727 162.262 35.0718 -53.9874 152.726 33.5017 -65.5286 172.093 8.80327 14.5097 7.19919 12.6505 
156.671 137.414 137.445 142.588 146.539 141.519 90.3052 84.1566 84.5392 85.2745 -29.3266 144.632 5.81668 -25.7374 174.296 22.7353 -34.5886 170.214 28.499 -45.0747 162.012 35.068 -54.5441 152.675 33.4 -64.9195 172.43 8.71475 14.3748 7.40305 13.1889 
157.719 137.425 137.959 142.373 146.127 142.951 89.4177 83.3128 84.0115 85.0056 -29.778 143.742 6.14764 -25.8564 173.299 23.0953 -34.6712 169.762 28.7209 -45.4559 161.929 35.1302 -55.1496 152.814 33.3565 -64.3723 172.833 8.64684 14.2858 7.57535 13.8985 
158.421 136.666 138.596 142.59 146.254 143.816 88.6086 82.623 83.6086 84.7088 -30.0848 143.201 6.52566 -25.9542 172.062 23.2422 -34.704 169.172 28.8802 -45.8331 161.797 35.2248 -55.8021 152.975 33.3362 -63.8816 173.197 8.56766 14.2334 7.71234 14.6635 
158.911 136.102 139.206 143.038 146.666 144.311 88.0286 81.9981 83.2663 84.3757 -30.5356 142.41 6.71955 -25.952 170.555 23.2558 -34.6553 168.279 28.8763 -46.0833 161.414 35.1707 -56.3333 152.956 33.1217 -63.3239 173.437 8.39984 14.2349 7.8902 15.355 
159.148 135.873 139.802 143.626 147.187 144.605 87.5525 81.3426 82.9432 84.0094 -30.9505 141.892 6.66472 -25.9263 169.353 23.1156 -34.654 167.599 28.7217 -46.2853 161.204 35.0158 -56.7944 153.091 32.8141 -62.7575 173.788 8.18547 14.2383 8.06588 15.9298 
159.179 135.961 140.15 144.109 147.747 144.716 87.4273 80.8668 82.6729 83.6772 -31.1957 141.227 6.51132 -25.7627 167.926 23.0299 -34.5103 166.592 28.5147 -46.3431 160.676 34.7596 -57.0965 152.977 32.3934 -62.0764 174.002 7.9176 14.2553 8.25503 16.3349 
159.136 136.202 140.206 144.32 148.168 144.783 87.6739 80.6085 82.5407 83.5315 -31.2169 140.602 6.42333 -25.4299 166.642 23.0266 -34.2375 165.658 28.3335 -46.2229 160.146 34.4809 -57.1647 152.866 31.9621 -61.315 174.261 7.65077 14.2706 8.42457 16.6126 
158.563 136.628 139.964 144.136 148.109 144.691 88.3871 80.2495 82.2162 83.2416 -30.1391 140.329 6.15793 -24.4135 165.121 22.6595 -33.04 164.919 27.6784 -45.2194 159.778 33.7217 -56.3176 152.88 31.0753 -59.8539 174.782 7.17791 14.2854 8.64326 17.5774 
157.546 136.399 140.026 144.138 148.002 144.113 89.0006 80.0523 81.8629 82.959 -29.4898 140.621 6.50469 -23.849 164.063 22.22 -32.2828 164.811 27.2738 -44.7517 159.867 33.287 -55.9454 153.097 30.6312 -59.3193 175.216 7.01563 14.277 8.71628 18.7827 
156.676 135.371 140.382 144.544 148.231 143.561 89.2404 79.5571 81.2917 82.3523 -28.9683 140.645 7.02437 -23.2621 162.704 21.6903 -31.7108 164.574 26.9681 -44.5564 160.125 32.9741 -55.9265 153.596 30.2584 -58.6134 175.708 6.83165 14.2935 8.93837 20.0384 
155.988 134.533 140.941 145.236 148.797 142.895 89.5589 78.8113 80.5916 81.4689 -28.8072 140.411 7.45436 -22.9865 161.002 21.4243 -31.7512 164.105 26.8276 -44.9388 160.319 32.757 -56.5281 154.208 29.8378 -57.9385 176.192 6.64235 14.4044 9.22708 21.1356 
155.702 133.532 141.8 146.101 149.635 142.429 89.9243 77.9773 79.8639 80.4849 -28.7939 139.81 7.67909 -22.7983 159.043 21.0787 -31.9997 163.58 26.6988 -45.4867 160.51 32.4998 -57.3074 154.865 29.3171 -57.1848 176.579 6.37338 14.517 9.53432 22.3627 
155.509 132.632 142.586 146.809 150.348 142.061 90.3639 77.2291 79.209 79.5983 -28.8597 139.198 7.60219 -22.5728 157.49 20.8145 -32.1544 163.222 26.5344 -45.8465 160.7 32.1581 -57.7927 155.534 28.6603 -56.3689 176.911 6.07375 14.7754 9.77071 23.3547 
155.38 133.009 142.732 146.982 150.488 141.708 90.757 76.7193 78.788 78.9783 -28.7338 138.831 7.28626 -22.2611 156.858 20.9055 -32.1184 163.066 26.3165 -45.8957 160.805 31.7341 -57.8445 156.041 27.8991 -55.5038 177.311 5.731 15.0813 9.87182 23.5378 
155.211 133.556 142.402 146.646 150.09 141.587 90.7804 76.3324 78.4492 78.5409 -28.8848 138.124 6.79883 -21.9272 156.558 21.0514 -31.83 162.579 25.9867 -45.6791 160.472 31.2123 -57.5899 156.077 27.1051 -54.593 177.492 5.38301 15.3447 9.93863 23.146 
155.456 133.287 142.018 146.249 149.581 141.769 90.7726 76.2218 78.391 78.5064 -29.1741 137.483 6.42303 -21.5824 156.335 21.0393 -31.5411 162.203 25.7525 -45.4498 160.334 30.8523 -57.3341 156.204 26.5927 -53.8296 177.779 5.08917 15.4243 10.0355 22.781 
155.904 132.539 141.774 146.07 149.265 142.028 90.667 76.1924 78.3854 78.5524 -29.6086 137.011 6.19565 -21.3702 156.047 20.8413 -31.3352 161.961 25.5663 -45.3537 160.476 30.6081 -57.2439 156.529 26.2691 -53.2156 178.171 4.82444 15.3851 10.1886 22.6798 
156.528 132.036 141.578 146.132 149.208 142.268 90.7622 76.2808 78.435 78.5352 -29.8734 136.535 5.90988 -21.0794 155.59 20.6096 -31.1667 161.72 25.3819 -45.2766 160.644 30.3643 -57.1949 156.81 25.9374 -52.6223 178.431 4.50649 15.2959 10.361 22.6323 
157.187 131.973 141.293 146.206 149.242 142.386 91.0509 76.4163 78.5257 78.5003 -29.8632 136.196 5.38409 -20.7362 155.193 20.4381 -31.0839 161.629 25.1703 -45.1995 160.861 30.0417 -57.1282 157.101 25.4871 -52.0346 178.645 4.11386 15.2295 10.5063 22.5464 
157.707 132.354 140.771 145.983 149.004 142.349 91.2871 76.5799 78.6807 78.4986 -29.4519 136.071 4.52418 -20.3408 155.14 20.3642 -31.012 161.648 24.9097 -45.0293 160.98 29.6268 -56.9128 157.247 24.9106 -51.4119 178.826 3.6897 15.2045 10.5708 22.1819 
157.996 133.274 139.969 145.474 148.535 142.187 91.4291 77.0117 79.0713 78.695 -28.6893 136.296 3.49332 -19.9201 155.502 20.4949 -30.794 161.643 24.6806 -44.7178 160.96 29.2294 -56.5454 157.284 24.3246 -50.7695 179.062 3.25901 15.1793 10.5347 21.3568 
157.961 134.549 138.992 144.733 147.785 141.974 91.4202 77.6687 79.571 78.9067 -27.5371 136.864 2.3473 -19.6831 156.048 20.7324 -30.658 161.477 24.4967 -44.5434 160.81 28.8289 -56.2908 157.341 23.654 -50.1878 179.452 2.8752 15.2475 10.4706 20.1754 
157.73 135.361 137.793 143.885 146.975 141.74 91.1774 78.3204 79.9657 79.0227 -26.1782 137.268 1.53199 -19.2556 156.442 20.8681 -30.2756 160.957 24.2796 -44.2032 160.302 28.4099 -55.8509 157.095 22.9996 -49.5073 179.641 2.54216 15.357 10.4005 18.9612 
157.391 135.595 136.623 143.024 146.108 141.653 91.0506 78.8546 80.2388 79.121 -25.1361 137.545 1.22587 -18.9021 156.452 20.9879 -29.963 160.326 24.1681 -44.0044 159.832 28.1081 -55.568 156.969 22.4995 -48.833 179.898 2.34117 15.4581 10.3759 18.1005 
157.007 135.404 135.547 142.302 145.297 141.576 90.8965 79.1754 80.3476 79.075 -24.1979 137.824 1.12957 -18.7516 156.078 20.9766 -29.8417 159.659 24.052 -44.0389 159.5 27.8567 -55.5316 157.023 22.0539 -48.2088 180.201 2.2202 15.5698 10.4288 17.6313 
156.966 135.396 135.521 142.155 144.941 141.454 90.1441 79.3085 80.3895 78.9918 -23.187 137.711 1.47733 -18.7009 155.928 20.5649 -29.8894 159.364 23.879 -44.2035 159.493 27.6097 -55.6309 157.308 21.671 -47.7684 180.504 2.06842 15.6963 10.3587 17.3454 
157.067 136.042 135.586 142 144.581 141.125 89.4443 79.1936 80.2369 78.7085 -21.8867 138.025 1.48519 -18.8953 156.046 20.1899 -30.2924 159.412 23.5409 -44.6322 159.7 27.1533 -55.9704 157.745 21.1043 -47.4505 180.962 1.87432 15.7885 10.2737 16.9877 
157.245 136.813 135.553 141.723 144.059 140.898 88.7161 79.2365 80.2385 78.5995 -20.5306 138.339 1.32259 -18.8176 156.678 19.9272 -30.3439 159.559 23.1963 -44.6625 159.83 26.7197 -55.9264 157.954 20.6112 -47.1129 181.334 1.68524 15.8318 10.1683 16.3092 
157.379 136.935 135.392 141.257 143.387 140.816 88.0531 79.3788 80.26 78.499 -19.0778 138.255 1.20086 -18.7002 156.866 19.7369 -30.2901 159.289 22.9507 -44.6417 159.519 26.32 -55.8709 157.76 20.1796 -46.6896 181.355 1.52538 15.8126 9.96089 15.6861 
157.404 137.047 135.423 140.892 142.863 140.739 87.5362 79.4259 80.2717 78.4515 -17.816 138.213 1.20123 -18.5079 157.047 19.6872 -30.1697 159.206 22.8835 -44.5121 159.318 26.0944 -55.7005 157.619 19.9355 -46.2422 181.326 1.44071 15.8002 9.75139 15.3001 
157.39 137.258 135.5 140.621 142.387 140.676 87.0294 79.2533 80.1464 78.2412 -16.4822 138.258 1.21555 -18.3546 157.274 19.6927 -30.2192 159.319 22.826 -44.5112 159.279 25.8562 -55.6636 157.609 19.6403 -45.7814 181.345 1.36116 15.7627 9.58617 14.9937 
157.212 137.506 135.685 140.548 142.052 140.596 86.4049 78.9024 79.9049 77.918 -15.6765 138.325 1.1951 -18.2577 157.505 19.7459 -30.3368 159.44 22.7529 -44.551 159.327 25.6064 -55.6364 157.732 19.2692 -45.2282 181.432 1.30286 15.7929 9.52444 14.7019 
157.032 137.638 135.919 140.392 141.565 140.52 85.8535 78.5006 79.6933 77.6643 -15.1948 138.329 1.28521 -18.1286 157.728 19.7911 -30.367 159.611 22.6595 -44.5135 159.454 25.3657 -55.536 157.927 18.9005 -44.6173 181.588 1.24095 15.8034 9.50232 14.5328 
156.849 137.663 136.131 140.322 141.263 140.461 85.5072 78.2668 79.6041 77.6414 -15.0986 138.41 1.52439 -17.8656 158.038 19.9336 -30.133 159.827 22.7002 -44.2453 159.69 25.3404 -55.209 158.213 18.8124 -44.014 181.859 1.29656 15.8314 9.50411 14.4103 
156.708 137.236 136.136 139.97 140.704 140.636 85.2062 78.0838 79.5195 77.5514 -14.8996 138.216 1.88835 -17.7229 157.986 20.0596 -30.0909 159.805 22.7384 -44.1871 159.736 25.2324 -55.0992 158.416 18.6226 -43.3743 182.058 1.32271 15.8227 9.46311 14.2986 
156.526 137.196 136.14 139.623 140.08 140.726 84.856 77.8408 79.4385 77.4729 -14.4131 138.211 2.10903 -17.6007 158.064 20.1254 -30.0553 159.887 22.6968 -44.0984 159.869 25.0693 -54.9468 158.681 18.3626 -42.703 182.34 1.34195 15.815 9.4654 14.1955 
156.368 137.162 136.019 139.397 139.595 140.787 84.4758 77.5544 79.3117 77.3482 -13.9627 138.172 2.50039 -17.4264 157.952 20.1571 -29.9375 159.865 22.6586 -43.9774 159.995 24.9901 -54.7946 158.906 18.207 -42.0417 182.533 1.40284 15.7716 9.50666 14.2068 
156.529 136.758 135.59 139.08 138.923 141.095 84.1906 77.4154 79.1723 77.2354 -13.4409 137.592 3.23518 -17.0874 157.377 20.1987 -29.6014 159.398 22.6784 -43.7327 159.875 24.9949 -54.5336 158.842 18.1619 -41.2925 182.396 1.4781 15.7042 9.59693 14.2694 
156.584 136.36 135.241 138.917 138.487 141.18 84.1615 77.4135 79.1109 77.187 -12.6472 137.585 3.79373 -16.5481 157.33 20.1269 -29.0359 159.451 22.6753 -43.2547 160.165 25.0051 -54.0757 159.117 18.1334 -40.6059 182.655 1.52439 15.6327 9.6777 14.4377 
156.541 135.991 134.579 138.148 137.579 141.194 84.1256 77.7937 79.3239 77.3028 -11.4528 137.585 4.05222 -16.0578 157.65 20.1425 -28.5604 159.444 22.6216 -42.8649 160.236 24.7736 -53.6991 159.264 17.7885 -39.891 183.033 1.48967 15.4883 9.61413 14.131 
156.274 135.863 133.936 137.379 136.814 141.075 84.3539 78.4069 79.7716 77.7059 -10.4628 137.841 4.38587 -15.5732 158.031 20.2912 -27.912 159.412 22.7039 -42.3146 160.268 24.7147 -53.1876 159.35 17.6457 -39.2062 183.485 1.55594 15.2785 9.54853 13.9028 
156.015 135.795 133.511 136.7 136.098 140.965 84.4056 78.8964 80.1893 78.0213 -9.68007 137.799 4.56526 -15.1524 158.299 20.4511 -27.4039 159.232 22.74 -41.8222 160.065 24.5876 -52.6771 159.248 17.4004 -38.4832 183.691 1.59403 15.1566 9.47374 13.5645 
155.707 135.502 132.95 136.032 135.304 140.904 84.3965 79.1915 80.464 78.203 -9.27127 137.607 4.53852 -14.8716 158.218 20.5296 -27.1576 158.997 22.6888 -41.5611 159.945 24.3678 -52.3757 159.328 17.0308 -37.6873 183.879 1.63858 15.0717 9.44735 13.3155 
155.436 135.277 132.408 135.472 134.672 140.877 84.4329 79.5403 80.7558 78.4935 -8.97449 137.379 4.70611 -14.519 158.058 20.6911 -26.7793 158.631 22.7474 -41.1652 159.69 24.2784 -51.9306 159.225 16.8528 -36.8967 183.963 1.71953 14.9972 9.43167 13.1121 
155.015 135.591 132.079 135.181 134.325 140.785 84.4144 79.794 81.0044 78.8579 -8.79788 137.383 4.79542 -14.2106 158.058 20.8989 -26.35 158.377 22.8442 -40.6909 159.529 24.2925 -51.3996 159.146 16.8171 -36.1808 184.081 1.83896 14.955 9.4711 12.9869 
154.997 135.669 131.685 134.922 133.931 140.904 84.2812 79.9965 81.1631 79.1514 -8.86121 136.818 5.05661 -13.7975 157.754 21.1015 -25.8521 157.803 22.9625 -40.1641 159.169 24.4127 -50.8419 158.86 16.9444 -35.4719 183.863 1.97783 14.9446 9.55442 12.7863 
155.195 135.635 131.187 134.696 133.615 141.341 84.3619 80.1809 81.2632 79.4099 -9.21467 136.013 5.49498 -13.6259 157.074 21.3792 -25.6464 157.221 23.2023 -39.9702 158.999 24.6635 -50.6022 158.851 17.1982 -34.8758 183.651 2.14502 14.9676 9.66078 12.7637 
155.473 135.227 130.77 134.304 133.294 141.777 84.5391 80.5298 81.5067 79.7161 -9.4063 135.279 5.81873 -13.4615 156.473 21.6725 -25.5542 156.703 23.4476 -39.865 158.837 24.7996 -50.4309 158.963 17.2883 -34.1939 183.598 2.26646 14.9573 9.69248 12.6331 
155.607 134.845 130.06 133.744 132.903 141.975 84.9235 81.0742 81.8045 80.0719 -9.51555 134.708 6.05907 -13.1483 155.865 21.9463 -25.2009 155.986 23.6231 -39.5257 158.461 24.8516 -50.0653 158.856 17.3283 -33.4349 183.549 2.40795 14.8739 9.74346 12.5018 
156.192 133.739 129.012 132.879 132.213 142.54 85.4966 81.8108 82.1746 80.5909 -9.44844 133.587 7.17512 -12.2533 154.785 22.5885 -24.2621 154.936 24.2153 -38.6391 158.01 25.2565 -49.1395 158.742 17.7113 -31.8976 183.413 2.79014 14.7474 9.85401 12.4948 
156.652 132.875 128.431 132.292 131.956 142.971 86.2055 82.4381 82.4869 81.0255 -9.59457 132.684 7.70902 -11.8363 153.746 22.8247 -23.8506 154.089 24.4644 -38.2786 157.588 25.355 -48.7592 158.546 17.8025 -31.1223 183.228 2.90592 14.6155 9.95201 12.5944 
156.981 132.138 127.44 131.445 131.695 143.249 87.1991 83.7316 83.0818 81.8191 -9.82689 132.078 8.07796 -11.3648 152.806 23.0407 -23.1633 152.794 24.6055 -37.7152 156.888 25.3298 -48.1712 158.255 17.8556 -30.3025 183.28 3.08701 14.5009 10.0656 12.4935 
157.06 131.656 126.31 130.094 131.204 143.577 88.3473 85.3747 83.9055 82.9375 -9.90461 131.778 8.31921 -10.9955 152.12 23.3578 -22.5629 151.405 24.6163 -37.1595 156.061 25.0752 -47.556 157.903 17.7081 -29.5218 183.532 3.26795 14.3762 10.2022 12.1524 
157.042 131.237 125.46 129.348 131.15 143.683 89.0968 86.6361 84.6288 83.8652 -10.0784 131.313 8.49751 -10.6154 151.176 23.5773 -22.0473 149.961 24.6021 -36.6901 155.137 24.9697 -46.988 157.301 17.6706 -28.7678 183.388 3.40996 14.3 10.3683 11.9081 
156.878 130.993 125.013 128.87 131.196 143.411 89.4337 87.3629 85.1394 84.5456 -10.309 130.708 8.43088 -10.1218 150.395 23.6914 -21.4799 148.778 24.4747 -36.0978 154.184 24.7943 -46.3243 156.55 17.56 -28.0302 182.982 3.42428 14.2631 10.4353 11.6732 
