154.334 137.304 137.855 141.527 140.285 150.6 93.7088 80.2019 79.4525 74.1961 11.0998 127.882 2.76544 1.61512 142.007 11.5008 -10.3438 160.709 14.5402 -21.4874 172.148 10.5911 -27.4125 178.605 -1.66408 6.23363 186.737 0.898472 10.615 9.91125 23.5502 
154.35 137.556 137.898 141.54 140.355 150.654 93.7213 80.1906 79.4605 74.2099 11.142 127.953 2.68979 1.53864 142.119 11.3695 -10.4104 160.85 14.3886 -21.5442 172.29 10.444 -27.4536 178.785 -1.80535 6.23015 186.862 0.838406 10.5877 9.89231 23.5207 
154.368 137.62 138.155 141.573 140.448 150.799 93.8572 80.153 79.441 74.2334 11.0697 127.897 2.63221 1.39763 141.983 11.1544 -10.5481 160.98 14.2542 -21.6181 172.409 10.2645 -27.4855 178.952 -1.97269 6.25575 186.885 0.791982 10.5621 9.84126 23.726 
154.401 137.609 138.29 141.525 140.474 150.913 93.9645 80.0734 79.3822 74.2174 11.0118 127.829 2.72309 1.22704 141.875 11.0377 -10.6796 161.119 14.1477 -21.6849 172.54 10.0854 -27.4976 179.124 -2.14445 6.29771 186.914 0.793251 10.5391 9.7807 23.8821 
154.472 137.488 138.13 141.472 140.499 151.104 94.2898 80.1099 79.4116 74.2602 10.9564 127.781 2.83993 1.13877 141.664 10.9002 -10.7371 161.129 14.075 -21.7426 172.648 9.98466 -27.4982 179.279 -2.23584 6.35109 186.977 0.823658 10.5134 9.77045 24.0667 
154.551 137.49 137.85 141.45 140.565 151.243 94.5715 80.1089 79.4043 74.2678 10.9718 127.813 2.93415 1.0908 141.582 10.791 -10.7236 161.168 13.9622 -21.7614 172.82 9.88064 -27.4836 179.49 -2.33273 6.4139 187.1 0.838974 10.4767 9.80096 24.1336 
154.665 137.407 137.601 141.432 140.64 151.435 94.7697 80.1518 79.4201 74.2877 10.99 127.829 3.02044 1.09312 141.547 10.6751 -10.7011 161.201 13.8453 -21.7593 172.993 9.78029 -27.4543 179.701 -2.42553 6.49608 187.232 0.815018 10.4421 9.84457 24.1664 
154.72 137.176 137.281 141.411 140.682 151.617 95.0073 80.2108 79.4381 74.3342 10.8233 127.819 3.13795 1.12148 141.385 10.5851 -10.6822 161.141 13.7863 -21.7664 173.108 9.73839 -27.4432 179.827 -2.46331 6.55354 187.299 0.797729 10.4178 9.9174 24.278 
154.812 136.855 137.009 141.395 140.709 151.841 95.3338 80.3511 79.5661 74.4719 10.6883 127.82 3.17072 1.20949 141.14 10.4526 -10.6513 161.026 13.7501 -21.7741 173.154 9.73383 -27.4169 179.871 -2.47466 6.61254 187.349 0.760406 10.4125 10 24.4629 
154.896 136.807 136.57 141.419 140.748 151.997 95.6612 80.4355 79.6685 74.5759 10.5695 127.848 3.13816 1.21711 140.958 10.3609 -10.5779 160.91 13.6838 -21.7824 173.234 9.71708 -27.3907 179.95 -2.49816 6.66786 187.387 0.705603 10.4075 10.0951 24.5339 
154.925 136.657 135.86 141.393 140.761 152.035 95.833 80.3962 79.6778 74.6342 10.2999 127.955 3.06468 1.19578 140.859 10.2035 -10.483 160.788 13.5173 -21.8184 173.329 9.59848 -27.3985 180.05 -2.59333 6.68976 187.466 0.616522 10.4176 10.1802 24.556 
154.91 136.544 134.92 141.23 140.709 151.961 95.8346 80.3509 79.655 74.7258 9.94189 127.936 3.0194 1.17085 140.801 10.2627 -10.3127 160.453 13.3693 -21.7845 173.203 9.48909 -27.372 179.929 -2.6568 6.72966 187.386 0.548693 10.4142 10.2802 24.2586 
154.917 136.519 134.488 141.119 140.686 151.931 95.834 80.515 79.7471 74.8518 9.7373 128.03 2.90001 1.15106 140.891 10.2507 -10.2523 160.274 13.2765 -21.7629 173.183 9.42039 -27.3373 179.938 -2.70713 6.76896 187.439 0.488996 10.4036 10.3695 24.0213 
154.92 136.367 134.215 141.022 140.652 151.961 95.7756 80.6109 79.7759 74.926 9.46515 128.081 2.84218 1.14907 140.955 10.2075 -10.2166 160.159 13.212 -21.7487 173.197 9.36836 -27.3187 179.983 -2.7286 6.79767 187.5 0.440325 10.4106 10.421 23.8942 
154.951 136.028 134.22 140.925 140.628 152.034 95.8984 80.6901 79.8173 74.9637 9.38079 128.131 2.75324 1.1755 140.892 10.0614 -10.2225 160.204 13.1685 -21.7283 173.303 9.30864 -27.2825 180.114 -2.78766 6.85464 187.573 0.390359 10.3954 10.4228 24.0324 
154.999 135.808 134.411 140.89 140.641 152.089 95.9466 80.812 79.9193 75.0356 9.41735 128.156 2.63142 1.25578 140.906 9.92805 -10.2126 160.247 13.1211 -21.6745 173.332 9.24997 -27.201 180.187 -2.84796 6.95184 187.639 0.354877 10.3829 10.3913 24.091 
155.062 135.647 134.532 140.781 140.584 152.147 96.0994 81.0204 80.103 75.1958 9.50726 128.213 2.54467 1.35963 140.917 9.85245 -10.1778 160.269 13.1213 -21.5934 173.332 9.23689 -27.0898 180.226 -2.86924 7.07725 187.728 0.3515 10.3615 10.3703 24.1285 
155.083 135.038 134.609 140.692 140.541 152.135 96.0514 81.1923 80.2586 75.349 9.43957 128.179 2.5989 1.48962 140.861 9.86754 -10.1924 160.183 13.1445 -21.5578 173.24 9.21953 -27.0037 180.158 -2.89561 7.18988 187.704 0.378109 10.3541 10.3442 24.127 
155.112 134.547 134.667 140.644 140.537 152.185 95.9531 81.3193 80.3911 75.4825 9.27883 128.093 2.6347 1.52097 140.805 9.91026 -10.2465 160.103 13.1782 -21.5567 173.172 9.22255 -26.9393 180.123 -2.89091 7.29619 187.639 0.424031 10.3598 10.3087 24.0972 
155.108 134.217 134.562 140.496 140.448 152.17 95.7462 81.3976 80.4629 75.571 9.19055 127.886 2.61627 1.57524 140.81 10.0259 -10.1939 159.897 13.159 -21.4707 172.947 9.17828 -26.8276 179.923 -2.92199 7.42322 187.462 0.418031 10.3641 10.2728 23.8457 
155.056 133.872 134.848 140.315 140.346 152.078 95.351 81.4761 80.5312 75.6953 9.13321 127.764 2.50869 1.69982 140.987 10.1815 -10.1498 159.835 13.1824 -21.3057 172.729 9.13047 -26.6426 179.727 -2.95039 7.59534 187.318 0.424491 10.3711 10.1836 23.5974 
155.09 133.478 135.05 140.26 140.297 152.146 95.4633 81.5119 80.6063 75.8092 9.11266 127.643 2.474 1.67832 140.768 10.1195 -10.1795 159.852 13.195 -21.2294 172.703 9.07665 -26.4913 179.717 -3.00895 7.77653 187.201 0.453251 10.3751 10.1228 23.8014 
155.036 133.352 135.589 140.197 140.228 152.122 95.251 81.6032 80.7763 76.013 9.08829 127.618 2.31152 1.65839 140.894 10.1155 -10.2362 160.027 13.2321 -21.1229 172.688 9.03943 -26.3097 179.737 -3.0389 7.9815 187.155 0.455875 10.3923 9.9857 23.8293 
155.019 133.169 136.172 140.259 140.234 152.187 95.1833 81.625 80.9039 76.1474 9.19881 127.538 2.24646 1.73126 140.856 10.0358 -10.2289 160.211 13.2796 -20.9947 172.711 9.03975 -26.1097 179.779 -3.04399 8.20256 187.111 0.476714 10.4172 9.87536 24.0416 
155.011 133.221 136.84 140.331 140.276 152.218 94.9245 81.6068 80.9721 76.2262 9.25275 127.405 2.16443 1.62125 140.949 9.97391 -10.3288 160.449 13.2844 -20.9363 172.786 8.97524 -25.98 179.908 -3.10228 8.38655 187.044 0.481874 10.4211 9.72615 24.115 
155.041 133.249 137.332 140.325 140.246 152.352 94.7609 81.5448 80.9664 76.2479 9.48009 127.339 2.16464 1.68394 141.111 9.83745 -10.2704 160.762 13.2395 -20.7585 172.975 8.88491 -25.7555 180.136 -3.17501 8.62944 187.134 0.4783 10.4383 9.62734 24.2367 
155.035 133.403 137.743 140.263 140.135 152.402 94.4747 81.5193 80.9783 76.2707 9.69571 127.296 2.19597 1.84662 141.341 9.85208 -10.1149 160.989 13.2982 -20.5098 173.039 8.90496 -25.5117 180.216 -3.1417 8.87325 187.179 0.465334 10.454 9.53599 24.2308 
155.04 133.543 137.808 140.243 140.111 152.416 94.1907 81.4665 80.9262 76.231 9.84419 127.36 2.21247 1.99002 141.595 9.79817 -9.90921 161.156 13.2587 -20.2547 173.218 8.87358 -25.2408 180.44 -3.14122 9.16524 187.295 0.476999 10.4655 9.51296 24.1519 
155.075 133.236 137.957 140.209 140.11 152.492 94.0723 81.4335 80.9035 76.1825 10.0116 127.218 2.35853 2.09881 141.517 9.71778 -9.80284 161.207 13.2128 -20.0614 173.275 8.78801 -24.989 180.563 -3.22468 9.46203 187.248 0.522257 10.4435 9.46258 24.2297 
155.034 132.568 138.34 140.149 140.116 152.425 93.6044 81.3964 80.9113 76.1452 10.4818 127.379 2.33472 2.54933 141.871 9.57903 -9.56462 161.572 13.1283 -19.7234 173.472 8.64694 -24.6039 180.82 -3.36319 9.82579 187.458 0.494983 10.4487 9.37708 24.2867 
155.011 132.004 138.659 140.145 140.112 152.49 93.4588 81.4252 81.0283 76.2017 10.848 127.326 2.46853 2.96955 141.818 9.63476 -9.30975 161.691 13.2527 -19.3952 173.408 8.69891 -24.2337 180.761 -3.35659 10.1889 187.407 0.534261 10.442 9.30278 24.4853 
155.018 131.268 138.775 140.134 140.086 152.666 93.5979 81.454 81.1265 76.3001 11.0523 127.169 2.61487 3.35959 141.437 9.62095 -9.08015 161.618 13.3311 -19.1282 173.259 8.73293 -23.9277 180.586 -3.35461 10.4966 187.263 0.540584 10.4551 9.28101 24.8149 
154.98 130.627 139.01 140.034 140.006 152.735 93.6505 81.4396 81.2445 76.4207 11.4671 127.151 2.54883 3.71978 141.275 9.46759 -8.83821 161.824 13.3437 -18.8038 173.273 8.67565 -23.5515 180.614 -3.43549 10.8746 187.229 0.520927 10.4455 9.19816 25.2085 
154.928 129.998 139.079 139.865 139.875 152.735 93.7157 81.4156 81.3224 76.5299 11.849 127.137 2.41853 4.18024 141.119 9.39645 -8.46835 161.928 13.4058 -18.4054 173.206 8.68494 -23.173 180.515 -3.4471 11.2297 187.143 0.445659 10.4305 9.14807 25.5332 
154.888 129.791 139.031 139.692 139.74 152.666 93.6839 81.3535 81.2996 76.571 12.1533 127.081 2.38653 4.56144 141.057 9.39435 -8.05418 161.916 13.4022 -17.9568 173.105 8.63505 -22.7415 180.393 -3.49268 11.6354 187.033 0.368946 10.4357 9.12862 25.6068 
154.845 129.849 138.831 139.639 139.673 152.61 93.783 81.3711 81.3151 76.6126 12.4466 127.09 2.34944 4.9255 141.012 9.32557 -7.62499 161.802 13.3256 -17.5443 173.06 8.58203 -22.3133 180.348 -3.53544 12.0436 187.01 0.325078 10.4588 9.15989 25.5653 
154.811 129.725 138.773 139.458 139.585 152.654 93.7286 81.3677 81.3177 76.6541 12.6924 127.174 2.33003 5.25083 141.109 9.15555 -7.30548 161.887 13.1416 -17.1637 173.159 8.37397 -21.8807 180.504 -3.71977 12.4804 187.128 0.285419 10.4519 9.16437 25.5655 
154.723 129.392 138.691 139.118 139.394 152.651 93.5003 81.4968 81.5033 76.8637 13.3722 127.089 2.09866 5.92973 141.192 8.91994 -6.64838 161.809 12.8096 -16.3813 172.978 7.95066 -20.9628 180.441 -4.11914 13.3802 187.082 0.129507 10.4676 9.09657 25.369 
154.691 129.282 138.62 138.99 139.363 152.698 93.4588 81.5136 81.5711 76.9653 13.6078 126.986 1.96714 6.05946 141.128 8.78261 -6.5085 161.775 12.6232 -16.1689 172.878 7.7133 -20.6582 180.404 -4.34142 13.6711 187.011 0.105599 10.479 9.05996 25.3362 
154.439 129.181 138.595 138.817 139.258 152.43 92.9787 81.5931 81.7834 77.2213 13.8144 126.934 1.64997 6.53255 141.412 8.95357 -6.06417 161.686 12.6565 -15.7083 172.566 7.68453 -20.1689 180.096 -4.36884 14.127 186.825 0.0402293 10.5095 8.98362 25.0036 
154.318 129.266 138.842 138.846 139.33 152.317 92.5232 81.5428 81.891 77.3383 14.1224 126.861 1.54312 6.85298 141.692 9.0337 -5.72502 161.87 12.6625 -15.3313 172.558 7.62055 -19.7426 180.083 -4.4622 14.5454 186.738 -0.0270845 10.5142 8.91185 24.8924 
154.136 129.586 139.024 138.843 139.397 151.963 91.6692 81.4807 81.9211 77.3894 14.3885 126.958 1.38465 7.24339 142.355 9.21629 -5.32185 162.073 12.6289 -14.8983 172.603 7.53462 -19.2996 180.138 -4.54762 14.9812 186.742 -0.127776 10.5183 8.85763 24.421 
154.019 129.899 139.064 138.838 139.475 151.725 91.1114 81.5341 82.0074 77.4885 14.5206 127.139 1.28107 7.45243 142.911 9.29156 -5.07812 162.232 12.5076 -14.5992 172.739 7.3877 -18.9215 180.341 -4.66862 15.3752 186.882 -0.153182 10.5337 8.832 23.9652 
153.952 129.933 138.991 138.773 139.507 151.569 90.6682 81.5252 81.9629 77.4673 14.6772 127.215 1.30509 7.71048 143.242 9.34283 -4.81241 162.269 12.3754 -14.2894 172.832 7.24042 -18.5742 180.474 -4.79053 15.7334 186.946 -0.187837 10.5379 8.83566 23.6186 
153.871 129.857 138.948 138.699 139.498 151.492 90.3347 81.5264 81.9353 77.4369 14.8566 127.209 1.39881 7.99047 143.361 9.43521 -4.55309 162.239 12.2841 -13.9811 172.832 7.1044 -18.2186 180.487 -4.93472 16.0819 186.91 -0.228252 10.5386 8.84035 23.3897 
153.815 129.782 138.997 138.674 139.554 151.48 90.0718 81.4603 81.8648 77.3972 14.9843 127.033 1.50949 8.11607 143.325 9.46391 -4.39812 162.198 12.1616 -13.7524 172.805 6.91991 -17.9254 180.48 -5.12304 16.386 186.76 -0.243521 10.5305 8.82616 23.2644 
153.756 129.732 138.919 138.619 139.572 151.478 89.9413 81.4695 81.878 77.4287 14.9821 126.83 1.50356 8.23523 143.179 9.53619 -4.2278 162.022 12.1031 -13.5177 172.633 6.81786 -17.6314 180.332 -5.23216 16.6934 186.52 -0.242642 10.5238 8.82054 23.131 
153.729 129.719 139.063 138.664 139.659 151.59 89.8172 81.3679 81.8407 77.3779 15.2057 126.553 1.59268 8.30853 142.976 9.5268 -4.08516 162.055 12.0535 -13.3015 172.635 6.70201 -17.3331 180.354 -5.38232 17.0126 186.29 -0.211998 10.497 8.78051 23.2297 
153.763 129.665 139.14 138.68 139.762 151.705 89.5904 81.231 81.7698 77.3285 15.4592 126.29 1.73509 8.40401 142.813 9.61053 -3.91717 162.075 12.0364 -13.0717 172.646 6.62864 -17.036 180.391 -5.46908 17.3367 186.065 -0.118067 10.4591 8.7448 23.2425 
153.694 129.691 139.337 138.746 139.89 151.664 89.333 81.0647 81.6402 77.2052 15.854 126.138 1.83654 8.72966 142.768 9.75504 -3.57049 162.101 12.1343 -12.7135 172.636 6.69396 -16.6838 180.373 -5.42711 17.6856 185.882 0.000289321 10.4236 8.72714 23.2631 
153.683 129.72 139.612 138.848 140.075 151.598 88.9409 80.8639 81.4767 77.0253 16.246 126.101 2.14518 9.09623 142.904 10.0845 -3.20197 162.304 12.3913 -12.338 172.793 6.91038 -16.3392 180.501 -5.25094 18.0295 185.827 0.186317 10.3755 8.71282 23.2783 
153.665 129.795 139.861 138.979 140.284 151.45 88.1997 80.6258 81.2481 76.7915 16.4773 126.088 2.49408 9.45086 143.237 10.4651 -2.87181 162.521 12.6145 -11.9814 173.012 7.0948 -15.9899 180.72 -5.09002 18.3792 185.803 0.426917 10.3356 8.69648 23.0967 
153.683 129.961 139.823 138.997 140.383 151.282 87.3413 80.3923 81.0033 76.5578 16.6402 125.886 3.03684 9.76319 143.465 11.0792 -2.54846 162.43 12.8365 -11.6337 173.006 7.2732 -15.6182 180.707 -4.93953 18.7369 185.586 0.738388 10.3086 8.69852 22.6027 
153.637 130.384 139.778 139.035 140.459 151.167 86.5761 80.2444 80.8317 76.3877 16.8682 125.74 3.67934 10.0888 143.68 11.7531 -2.22227 162.297 13.1002 -11.2798 172.954 7.49231 -15.2181 180.634 -4.75489 19.0937 185.425 1.08242 10.3144 8.71832 22.0716 
153.566 131.051 139.643 139.046 140.489 151.122 85.9877 80.0498 80.5992 76.1927 17.0154 125.418 4.61209 10.2729 143.631 12.4315 -1.96312 161.975 13.3332 -10.9642 172.744 7.66084 -14.8183 180.39 -4.63156 19.4263 185.134 1.48933 10.3448 8.76556 21.6168 
153.359 131.724 139.486 139.012 140.438 150.92 85.5179 79.8573 80.3565 76.0495 17.1289 125.143 5.44306 10.5576 143.544 13.044 -1.60846 161.508 13.525 -10.5726 172.331 7.78326 -14.3583 179.938 -4.52182 19.7696 184.818 1.89101 10.4197 8.81793 21.1422 
153 132.569 139.438 139.001 140.436 150.487 84.8182 79.6225 80.1303 75.9427 17.3305 125.012 6.0092 10.9762 143.78 13.5716 -1.16053 161.105 13.6603 -10.1297 171.854 7.87322 -13.8756 179.442 -4.41718 20.1041 184.589 2.27483 10.5155 8.85722 20.5132 
152.694 133.364 139.306 138.921 140.367 149.885 84.1181 79.3515 79.8419 75.8009 17.6582 125.032 6.4202 11.5215 144.147 14.1334 -0.562566 160.77 13.9051 -9.58347 171.447 8.08719 -13.3828 178.963 -4.19167 20.4384 184.408 2.60776 10.6019 8.9047 19.9288 
152.502 133.936 139.294 138.903 140.343 149.367 83.5661 79.0857 79.5209 75.5833 18.082 125.022 6.82955 11.89 144.494 14.5122 -0.101441 160.607 14.0583 -9.12454 171.269 8.20791 -12.9282 178.762 -4.04162 20.7558 184.309 2.95257 10.6768 8.93136 19.4858 
152.263 134.552 139.365 138.907 140.325 148.829 82.9024 78.8475 79.2534 75.3824 18.4249 125.078 6.91891 12.271 144.966 14.8052 0.322813 160.505 14.1526 -8.70605 171.134 8.30227 -12.5152 178.648 -3.90819 21.0296 184.264 3.24607 10.7466 8.94643 18.9654 
151.988 135.113 139.366 138.816 140.2 148.362 82.3571 78.6774 79.0694 75.2446 18.8481 125.134 6.87178 12.7421 145.434 15.0429 0.814357 160.431 14.2222 -8.23321 170.992 8.37165 -12.0524 178.521 -3.80747 21.3505 184.236 3.47818 10.8101 8.95362 18.4937 
151.639 135.646 139.42 138.713 140.042 147.986 81.7533 78.4738 78.8974 75.088 18.9202 124.932 6.76743 12.9924 145.672 15.2298 1.11895 160.288 14.2822 -7.89868 170.768 8.42583 -11.7012 178.339 -3.72849 21.6108 183.953 3.67151 10.8574 8.93638 18.1028 
151.345 136.026 139.434 138.594 139.877 147.627 81.3141 78.2889 78.7435 74.959 19.0665 124.74 6.7242 13.2223 145.815 15.4287 1.40969 160.124 14.3223 -7.5766 170.523 8.44212 -11.3485 178.125 -3.68853 21.8731 183.677 3.85267 10.9064 8.92412 17.756 
151.039 136.414 139.455 138.474 139.732 147.044 80.7507 78.1356 78.6465 74.885 19.1991 124.704 6.47444 13.4937 146.143 15.5983 1.69665 159.987 14.3077 -7.27061 170.26 8.41452 -11.0046 177.922 -3.67124 22.1177 183.481 4.0344 10.9641 8.90504 17.2737 
150.795 136.944 139.453 138.32 139.6 146.544 80.2721 78.0593 78.6769 74.9274 19.415 124.657 6.13904 13.7514 146.458 15.8148 1.98863 159.916 14.3446 -6.95981 170.025 8.4177 -10.6457 177.736 -3.6457 22.3962 183.274 4.18134 10.9936 8.86826 16.825 
150.523 137.364 139.489 138.203 139.531 145.939 79.8172 77.9388 78.6589 74.9271 19.731 124.702 5.84655 13.9759 146.756 16.017 2.25478 159.914 14.3824 -6.67145 169.866 8.41252 -10.3082 177.617 -3.62675 22.661 183.096 4.34237 11.0216 8.83431 16.4468 
150.375 137.697 139.481 138.048 139.412 145.562 79.6963 77.8778 78.6795 74.9647 19.8834 124.581 5.58103 14.1559 146.695 16.2589 2.5216 159.736 14.5336 -6.3901 169.539 8.51561 -10.006 177.298 -3.51287 22.9082 182.762 4.48161 11.0456 8.80952 16.261 
150.301 137.881 139.419 137.906 139.286 145.151 79.5933 77.7437 78.5701 74.8866 19.9655 124.529 5.53024 14.3021 146.609 16.4801 2.758 159.564 14.6792 -6.1355 169.291 8.63101 -9.74674 177.051 -3.37251 23.1133 182.511 4.65397 11.0863 8.81011 16.147 
150.294 137.963 139.448 137.885 139.238 144.947 79.6404 77.6728 78.4706 74.8249 20.1014 124.398 5.70952 14.4328 146.524 16.6593 2.97201 159.388 14.765 -5.8994 169.131 8.71389 -9.49946 176.893 -3.2619 23.3195 182.367 4.80397 11.1265 8.83015 16.0236 
150.53 137.856 139.522 137.856 139.223 145.014 79.766 77.6642 78.4598 74.8367 20.2282 124.054 5.88968 14.4174 146.337 16.7852 3.04041 159.256 14.8197 -5.78165 168.994 8.74246 -9.34615 176.775 -3.21105 23.4879 182.159 4.88481 11.1351 8.82185 15.9456 
150.816 137.406 139.586 137.856 139.213 145.162 79.9448 77.6123 78.3882 74.7673 20.3336 123.592 6.17978 14.3427 145.937 16.826 3.0436 159.123 14.8258 -5.70547 168.891 8.70705 -9.21704 176.695 -3.23771 23.6533 181.884 4.9543 11.1207 8.80422 16.0093 
151.092 137.093 139.634 137.82 139.185 145.293 80.0078 77.5384 78.3503 74.7322 20.3718 123.189 6.29445 14.2851 145.738 16.7943 3.07142 159.076 14.7554 -5.61739 168.816 8.60028 -9.06545 176.669 -3.31418 23.839 181.666 4.98013 11.1181 8.77611 15.994 
151.31 136.842 139.734 137.86 139.223 145.331 79.9765 77.4886 78.3217 74.7132 20.6928 122.924 6.38559 14.4417 145.687 16.7897 3.25413 159.105 14.7491 -5.41351 168.795 8.55373 -8.83861 176.65 -3.35018 24.0895 181.537 4.99656 11.1089 8.7464 16.0015 
151.743 136.334 139.22 137.857 139.184 145.645 80.8895 78.1993 78.8967 75.3315 20.2601 122.398 5.93834 14.4112 144.559 17.0631 3.24025 157.875 14.9627 -5.39847 167.833 8.87095 -8.74931 175.696 -2.99439 24.2583 180.897 5.08763 11.161 8.79423 15.8367 
152.033 135.727 138.553 137.784 139.122 146.162 81.8596 78.7794 79.3764 75.8962 19.8142 122.027 5.70751 14.4655 143.47 17.2828 3.34786 156.874 15.2035 -5.28938 167.122 9.21986 -8.58085 174.961 -2.61308 24.4961 180.443 5.23588 11.2117 8.86539 15.9276 
152.118 135.376 137.853 137.709 139.069 146.482 82.5848 79.1734 79.6583 76.2765 19.3782 121.877 5.51455 14.5749 142.518 17.3716 3.51892 156.004 15.3926 -5.13091 166.568 9.53466 -8.39736 174.361 -2.27048 24.724 180.054 5.37044 11.2632 8.98354 16.1536 
152.138 135.278 137.249 137.655 139.068 146.596 82.8853 79.4735 79.8443 76.5611 19.0715 121.936 5.4296 14.8484 141.999 17.5372 3.78082 155.343 15.5871 -4.89466 166.187 9.84528 -8.16016 173.937 -1.92944 24.9906 179.85 5.52846 11.3126 9.11521 16.1975 
151.976 135.268 136.765 137.589 139.08 146.466 82.8855 79.6652 79.9492 76.7603 18.7451 122.16 5.23105 15.145 141.73 17.6107 4.05888 154.857 15.7175 -4.62594 165.924 10.0756 -7.88433 173.663 -1.66244 25.2733 179.714 5.69066 11.3566 9.23332 16.2166 
151.769 135.17 136.48 137.456 139.042 146.207 82.7098 79.7559 80.0235 76.9304 18.5835 122.415 5.03706 15.5583 141.707 17.6377 4.3932 154.575 15.7844 -4.30597 165.696 10.2154 -7.56107 173.451 -1.46609 25.5624 179.7 5.84526 11.421 9.30627 16.1727 
151.63 134.931 136.316 137.386 139.04 146.017 82.5571 79.7233 79.9965 76.9808 18.5777 122.563 4.94446 15.8528 141.666 17.5601 4.65244 154.447 15.7647 -4.03822 165.603 10.2425 -7.27583 173.39 -1.39126 25.823 179.692 5.98103 11.4566 9.34935 16.2225 
151.485 134.568 136.254 137.314 139.047 145.913 82.3606 79.5614 79.9035 76.9352 18.7349 122.604 4.95316 16.097 141.698 17.4492 4.89135 154.535 15.7135 -3.78154 165.663 10.2025 -6.99343 173.498 -1.39798 26.084 179.705 6.11241 11.4576 9.34134 16.3222 
151.436 134.21 136.183 137.198 138.982 145.808 82.3248 79.4295 79.8127 76.8918 18.926 122.676 4.8296 16.4025 141.737 17.339 5.19736 154.647 15.6591 -3.4728 165.72 10.1601 -6.69484 173.577 -1.40608 26.36 179.755 6.16808 11.4634 9.34199 16.4234 
151.372 133.966 136.106 137.078 138.898 145.819 82.415 79.3403 79.7324 76.8389 19.1699 122.671 4.79541 16.7082 141.665 17.2739 5.5187 154.672 15.6466 -3.15676 165.718 10.1642 -6.39813 173.583 -1.38094 26.6069 179.786 6.22302 11.4764 9.36337 16.5397 
151.527 133.672 136.229 137.063 138.915 146.073 82.5924 79.2693 79.7407 76.8322 19.5677 122.448 4.8188 16.8392 141.602 17.1956 5.70479 154.88 15.5986 -2.95155 165.859 10.0954 -6.16591 173.75 -1.45147 26.8451 179.818 6.23188 11.4486 9.32057 16.6532 
151.681 133.346 136.243 137.049 138.882 146.228 82.905 79.2284 79.7116 76.7988 19.8456 122.282 4.83059 17.0023 141.465 17.2105 5.93743 154.959 15.6384 -2.72931 165.919 10.1227 -5.95628 173.804 -1.43073 27.0582 179.821 6.25715 11.4326 9.29661 16.7613 
151.938 133.024 136.419 137.087 138.909 146.557 83.1442 79.2033 79.7253 76.7576 20.2342 121.964 5.03426 17.0438 141.365 17.2504 6.05371 155.172 15.6718 -2.57208 166.103 10.1023 -5.76023 173.986 -1.48753 27.2875 179.796 6.26005 11.3861 9.24683 16.8658 
152.137 132.824 136.627 137.155 138.96 146.719 83.2123 79.1117 79.7079 76.6932 20.5908 121.676 5.23064 17.1496 141.386 17.2882 6.22678 155.4 15.6739 -2.36771 166.252 10.0401 -5.51196 174.144 -1.57705 27.556 179.765 6.25732 11.3548 9.17955 16.8992 
152.328 132.663 136.819 137.195 138.991 146.866 83.0997 79.0324 79.6902 76.6182 21.0154 121.306 5.54772 17.3184 141.501 17.4464 6.43911 155.577 15.7617 -2.1319 166.351 10.0495 -5.25428 174.234 -1.61315 27.8347 179.656 6.25327 11.3075 9.11076 16.8374 
152.423 132.55 136.975 137.175 138.967 146.826 82.9718 78.9784 79.6931 76.5627 21.399 121.031 5.70286 17.5365 141.656 17.541 6.68929 155.699 15.7862 -1.85445 166.357 10.0082 -4.94716 174.249 -1.67416 28.1506 179.535 6.23224 11.2893 9.04928 16.7122 
152.532 132.389 137.04 137.131 138.966 146.766 82.8429 78.9899 79.7362 76.5713 21.6577 120.851 5.78827 17.6842 141.88 17.572 6.88297 155.842 15.725 -1.59173 166.441 9.89475 -4.61335 174.378 -1.77732 28.5084 179.486 6.20821 11.2809 9.00224 16.5198 
