150.361 129.546 132.964 134.212 136.384 146.048 86.3818 82.7884 80.821 78.0587 52.6217 119.281 -9.73547 48.9661 140.371 1.22818 38.7985 152.908 -1.56398 31.9557 165.473 -7.46105 29.7394 173.387 -19.1351 62.8286 177.985 -10.3016 11.6315 9.62562 14.6238 
150.412 129.561 133.396 134.352 136.562 146.042 86.1873 82.6497 80.7551 77.9426 52.9351 119.114 -10.049 49.1745 140.345 0.905076 38.9497 152.982 -1.8665 32.1409 165.413 -7.76903 29.9383 173.354 -19.4451 62.9922 177.918 -10.5526 11.6413 9.59824 14.6329 
150.441 129.757 133.843 134.488 136.708 146.026 86.1321 82.6372 80.8335 77.9418 53.3074 118.982 -10.3742 49.4255 140.327 0.673936 39.1614 153.017 -2.06274 32.3663 165.28 -7.997 30.1847 173.225 -19.703 63.2172 177.829 -10.795 11.6406 9.56047 14.66 
150.502 130.012 134.306 134.684 136.878 146.073 86.052 82.5833 80.917 77.919 53.781 118.884 -10.7672 49.6844 140.423 0.444833 39.4096 153.233 -2.21316 32.6147 165.323 -8.183 30.4546 173.252 -19.9468 63.4859 177.778 -11.0479 11.6207 9.50329 14.7464 
150.62 130.174 134.655 134.863 137.041 146.065 85.9574 82.5432 81.0099 77.9101 54.2482 118.796 -11.0937 49.8861 140.577 0.25817 39.6171 153.46 -2.3419 32.8092 165.4 -8.34067 30.6592 173.314 -20.1525 63.7262 177.734 -11.31 11.5927 9.4421 14.7798 
150.667 130.394 135.045 135.018 137.164 145.93 85.7205 82.4664 81.1362 77.9224 54.7747 118.795 -11.4945 50.147 140.865 0.150661 39.8603 153.76 -2.41958 33.0112 165.472 -8.45861 30.8568 173.364 -20.3333 63.9574 177.698 -11.5885 11.5622 9.36179 14.7434 
150.695 130.579 135.206 135.129 137.238 145.819 85.3892 82.4807 81.2632 77.9541 55.2207 118.776 -11.8575 50.4264 141.149 0.078495 40.0887 153.923 -2.49056 33.2042 165.522 -8.54373 31.041 173.385 -20.471 64.194 177.624 -11.8584 11.5368 9.31085 14.621 
150.692 130.661 135.063 135.055 137.161 145.656 85.3819 82.6376 81.4744 78.132 55.5273 118.625 -12.2051 50.7083 141.155 0.120929 40.3666 153.715 -2.4932 33.4269 165.242 -8.56688 31.2219 173.059 -20.5327 64.4463 177.345 -12.1268 11.5097 9.27225 14.4577 
150.746 130.843 134.747 134.958 137.036 145.682 85.7477 82.9039 81.7447 78.4046 55.6671 118.339 -12.3962 50.8847 140.852 0.232901 40.6168 153.261 -2.40486 33.6137 164.789 -8.48781 31.3608 172.522 -20.4898 64.6852 176.933 -12.3835 11.5076 9.25787 14.3879 
150.834 131.004 134.423 134.941 137.128 145.816 86.1602 83.1207 81.7998 78.4045 56.1719 118.16 -12.3995 51.2789 140.708 0.329792 41.1173 152.933 -2.27166 34.0633 164.453 -8.39593 31.705 172.1 -20.4851 65.0424 176.742 -12.5854 11.4657 9.30324 14.4501 
150.881 131.051 134.108 134.823 137.104 145.863 86.4624 83.3229 81.8508 78.438 56.724 118.156 -12.5721 51.8568 140.668 0.362576 41.7357 152.65 -2.21654 34.6229 164.162 -8.36184 32.1499 171.762 -20.5033 65.4689 176.688 -12.7933 11.4337 9.34891 14.4524 
150.839 131.013 133.519 134.581 136.948 145.984 87.0617 83.6516 81.9848 78.6058 57.0297 118.12 -12.7195 52.3032 140.409 0.360166 42.2962 152.19 -2.20239 35.1492 163.781 -8.35891 32.5942 171.345 -20.5275 65.9064 176.575 -12.9774 11.4099 9.4097 14.4906 
150.722 130.962 132.935 134.309 136.775 145.966 87.6688 84.039 82.1921 78.8817 57.2167 118.14 -12.8926 52.7133 140.133 0.430179 42.813 151.667 -2.13319 35.6433 163.333 -8.29314 33.0202 170.869 -20.4702 66.332 176.417 -13.1003 11.3937 9.47864 14.4888 
150.539 130.905 132.445 134.085 136.642 145.915 88.1797 84.3107 82.2834 79.0987 57.5182 118.279 -13.1377 53.1526 139.952 0.331291 43.3474 151.303 -2.23082 36.1699 163.056 -8.38266 33.4885 170.583 -20.5424 66.7761 176.39 -13.2515 11.3927 9.54914 14.5058 
150.266 130.812 132.084 133.89 136.49 145.764 88.536 84.3735 82.2438 79.209 57.8188 118.342 -13.3354 53.5838 139.79 0.23318 43.8786 151.037 -2.35567 36.6843 162.795 -8.52503 33.9453 170.299 -20.6604 67.1925 176.318 -13.365 11.4106 9.57075 14.515 
149.87 130.834 132.16 134.002 136.587 145.375 88.4624 84.0279 81.8976 79.0106 58.7334 118.537 -13.9219 54.5992 139.826 -0.122037 44.9663 151.071 -2.69326 37.7204 162.706 -8.89403 34.8808 170.179 -21.0325 68.0237 176.3 -13.6285 11.4307 9.54091 14.5854 
149.623 130.824 132.168 134.032 136.603 145.134 88.2975 83.7486 81.6373 78.7926 58.8624 118.496 -13.8893 54.7446 139.79 -0.23552 45.1624 151.116 -2.84371 37.9234 162.681 -9.0899 35.0536 170.153 -21.2378 68.1674 176.209 -13.6782 11.4123 9.50695 14.6095 
149.509 130.805 132.176 134.089 136.64 144.882 88.1983 83.5371 81.4335 78.6201 59.128 118.438 -13.9813 55.003 139.769 -0.311947 45.4861 151.121 -2.9894 38.259 162.632 -9.27277 35.3607 170.099 -21.4286 68.4542 176.076 -13.7812 11.3921 9.48595 14.572 
149.358 130.709 132.11 134.065 136.635 144.687 88.1974 83.4187 81.2983 78.4845 59.2781 118.305 -14.011 55.0829 139.698 -0.36464 45.6691 151.087 -3.1319 38.4992 162.574 -9.46674 35.6271 170.056 -21.6292 68.7131 175.881 -13.8323 11.3668 9.46163 14.5119 
149.306 130.59 131.987 134.016 136.641 144.542 88.2439 83.4275 81.2613 78.4183 59.3142 118.153 -14.0386 55.0579 139.62 -0.380672 45.7476 151.019 -3.24927 38.6675 162.534 -9.63539 35.8547 170.044 -21.8105 68.9537 175.67 -13.8769 11.3243 9.44801 14.4213 
149.267 130.302 131.969 134.035 136.732 144.438 88.0741 83.3283 81.1492 78.2764 59.5287 118.01 -14.0828 55.0878 139.694 -0.507014 45.8452 151.133 -3.46623 38.8641 162.674 -9.89104 36.1234 170.237 -22.0681 69.2302 175.549 -13.9444 11.2808 9.42167 14.3175 
149.254 130.001 131.978 133.992 136.774 144.385 87.8677 83.2294 81.0831 78.1542 59.7562 117.841 -14.132 55.1269 139.822 -0.610557 45.9474 151.285 -3.67231 39.0582 162.818 -10.1453 36.3986 170.445 -22.3254 69.5103 175.435 -14.0144 11.2299 9.37224 14.1819 
149.304 129.743 131.945 134.008 136.836 144.42 87.6832 83.202 81.0529 78.0539 59.9989 117.673 -14.156 55.1542 139.92 -0.749321 46.021 151.406 -3.88173 39.2189 163.001 -10.3716 36.6484 170.676 -22.558 69.7725 175.347 -14.1072 11.1938 9.34993 14.0701 
149.381 129.531 131.705 133.968 136.837 144.565 87.6743 83.269 81.0654 78.0353 60.2456 117.53 -14.1588 55.2647 139.97 -0.86535 46.1793 151.425 -4.07824 39.4383 163.136 -10.5661 36.9346 170.833 -22.7473 70.0803 175.308 -14.2164 11.1763 9.35385 13.9613 
149.341 129.296 131.403 133.832 136.714 144.617 87.6226 83.2884 81.017 77.9789 60.4056 117.362 -14.1078 55.3953 139.923 -0.977727 46.3186 151.315 -4.3044 39.6098 163.132 -10.7966 37.1514 170.833 -22.9598 70.3049 175.223 -14.3221 11.1901 9.34853 13.8183 
149.308 129.09 131.168 133.699 136.593 144.68 87.5632 83.2857 80.9148 77.9375 60.5807 117.235 -14.1303 55.5897 139.846 -1.2768 46.4793 151.162 -4.71632 39.8005 163.11 -11.1869 37.3844 170.84 -23.28 70.5376 175.227 -14.4942 11.2448 9.35146 13.6625 
149.245 129.19 131.16 133.609 136.369 144.7 87.4664 83.2597 80.9127 78.1278 60.6118 117.083 -14.1765 55.6598 139.631 -1.63422 46.4607 150.941 -5.19387 39.7897 163.045 -11.6047 37.436 170.784 -23.5517 70.6754 175.111 -14.7169 11.3581 9.32126 13.4861 
149.198 129.243 131.253 133.532 136.221 144.705 87.3876 83.2522 80.9307 78.286 60.6973 117.009 -14.3148 55.731 139.488 -2.05516 46.4386 150.862 -5.67441 39.809 163.059 -12.0426 37.5298 170.814 -23.8721 70.8265 175.075 -14.9694 11.4585 9.29559 13.3893 
149.188 129.359 131.335 133.496 136.123 144.788 87.4429 83.2591 80.9429 78.4228 60.7879 116.89 -14.4459 55.7314 139.238 -2.5035 46.3953 150.732 -6.12973 39.8158 163.037 -12.4401 37.6179 170.816 -24.158 70.9529 175.027 -15.1683 11.5618 9.28902 13.3739 
149.167 129.599 131.43 133.487 136.078 144.842 87.6476 83.3927 81.042 78.628 60.9344 116.935 -14.7547 55.8157 139.019 -2.9324 46.421 150.572 -6.53058 39.8671 162.966 -12.7778 37.7269 170.762 -24.3939 71.0918 175.078 -15.3925 11.6689 9.30168 13.382 
149.134 129.949 131.58 133.536 136.093 144.91 87.8456 83.4916 81.1056 78.7828 61.2701 117.021 -15.1601 56.0216 138.885 -3.33943 46.5661 150.49 -6.88942 40.0109 162.958 -13.0675 37.8882 170.76 -24.6118 71.2559 175.188 -15.6281 11.7522 9.32403 13.4083 
149.125 130.474 131.571 133.592 136.13 145.082 88.2039 83.7527 81.3348 79.0947 61.5659 117.087 -15.5663 56.2261 138.68 -3.58046 46.7319 150.262 -7.0692 40.1388 162.799 -13.1898 38.0168 170.56 -24.704 71.4111 175.218 -15.8537 11.8162 9.36717 13.4683 
149.137 131.06 131.654 133.677 136.19 145.348 88.4997 83.9407 81.5219 79.3544 61.8088 117.102 -15.8167 56.4324 138.469 -3.8041 46.9017 150.109 -7.16153 40.2645 162.666 -13.2518 38.1221 170.352 -24.7754 71.5371 175.235 -16.0715 11.8601 9.41483 13.6649 
149.213 131.616 131.752 133.764 136.236 145.615 88.804 84.1191 81.7086 79.5994 61.9983 117.053 -16.043 56.6037 138.195 -3.97825 47.0399 149.913 -7.19793 40.3528 162.476 -13.2575 38.1745 170.084 -24.8023 71.6177 175.19 -16.2887 11.8949 9.46276 13.8662 
149.212 132.166 131.901 133.748 136.221 145.737 89.1126 84.3515 81.9947 79.947 62.2158 117.065 -16.3406 56.8744 137.981 -4.01633 47.2578 149.694 -7.13825 40.5047 162.152 -13.2068 38.2664 169.671 -24.7893 71.7359 175.101 -16.5212 11.9088 9.48612 14.007 
149.207 132.515 131.973 133.768 136.312 145.82 89.4154 84.6278 82.2135 80.0983 62.5869 117.09 -16.6716 57.3078 137.87 -3.98534 47.6438 149.46 -7.00496 40.8067 161.787 -13.11 38.4539 169.222 -24.8007 71.901 175.067 -16.746 11.8543 9.5293 14.1272 
149.226 132.739 131.92 133.757 136.38 145.883 89.7927 84.9594 82.4617 80.263 62.641 116.98 -16.9201 57.4956 137.592 -4.00494 47.8376 149.103 -6.90443 40.9625 161.354 -13.0353 38.5363 168.741 -24.8217 71.9788 174.91 -16.9435 11.7935 9.57505 14.2641 
149.286 132.828 132.069 133.796 136.471 145.95 89.9139 85.1327 82.5821 80.3093 62.6233 116.801 -17.2258 57.6627 137.383 -4.10243 47.9842 148.841 -6.88594 41.1009 160.994 -13.0532 38.6033 168.351 -24.9325 72.0273 174.702 -17.183 11.7294 9.59812 14.3837 
149.353 132.897 132.268 133.876 136.581 145.954 89.946 85.2499 82.6884 80.3674 62.4657 116.646 -17.5266 57.7323 137.257 -4.18629 48.046 148.637 -6.8943 41.1684 160.673 -13.0961 38.6235 168.011 -25.0466 72.0381 174.493 -17.4125 11.689 9.60185 14.4393 
149.483 133.001 132.43 134.011 136.706 145.999 89.9867 85.2695 82.7097 80.3746 62.4002 116.527 -17.8612 57.8393 137.177 -4.32218 48.1821 148.528 -6.93952 41.2892 160.469 -13.163 38.6798 167.774 -25.1761 72.0825 174.337 -17.6725 11.6561 9.60968 14.5397 
149.811 133.225 132.276 134.121 136.784 146.215 90.282 85.4027 82.8051 80.578 62.4006 116.253 -18.4754 58.0442 136.948 -4.65081 48.5199 148.165 -7.22929 41.5963 160.057 -13.463 38.9026 167.293 -25.5356 72.2906 174.071 -18.231 11.6375 9.65687 14.6047 
150.021 133.197 132.024 134.097 136.792 146.274 90.4601 85.4722 82.8578 80.7125 62.2997 116.122 -18.5849 58.0281 136.868 -4.65616 48.6102 147.971 -7.30155 41.6745 159.86 -13.5435 38.9422 167.078 -25.6221 72.3466 173.944 -18.4189 11.6176 9.6778 14.543 
150.235 133.379 131.386 133.946 136.668 146.419 91.0245 85.6048 83.0895 81.1019 62.1694 115.972 -18.7836 58.0267 136.5 -4.74206 48.7819 147.54 -7.47784 41.7609 159.391 -13.6614 38.9861 166.58 -25.712 72.4186 173.769 -18.6835 11.6287 9.73951 14.5227 
150.353 133.61 130.903 133.826 136.572 146.475 91.4219 85.7159 83.2388 81.4066 62.0698 115.846 -18.9834 58.0832 136.178 -4.85785 48.956 147.095 -7.7152 41.8721 158.927 -13.8697 39.0678 166.105 -25.8863 72.5143 173.6 -18.9289 11.6449 9.77447 14.4371 
150.503 133.668 130.428 133.706 136.492 146.586 91.8064 85.9069 83.3889 81.6804 61.8184 115.619 -19.1222 57.9664 135.806 -5.0458 48.9476 146.641 -8.02324 41.8729 158.533 -14.1576 39.0846 165.737 -26.1349 72.5846 173.385 -19.1848 11.6469 9.80448 14.3274 
150.541 133.716 129.99 133.549 136.411 146.635 92.0742 86.0848 83.5414 81.9268 61.6107 115.436 -19.364 57.8408 135.556 -5.25838 48.9155 146.269 -8.39285 41.8616 158.222 -14.5095 39.1132 165.471 -26.4398 72.6582 173.192 -19.4668 11.6551 9.81375 14.1408 
150.52 133.703 129.635 133.428 136.364 146.697 92.2955 86.2653 83.6346 82.0954 61.4911 115.219 -19.7638 57.7399 135.299 -5.6116 48.8857 145.934 -8.84673 41.8726 158.014 -14.9254 39.1635 165.32 -26.8041 72.7498 172.994 -19.7876 11.6601 9.82792 13.9811 
150.515 133.638 129.264 133.362 136.35 146.76 92.5636 86.5358 83.7675 82.2281 61.3919 115.078 -20.154 57.5348 135.102 -5.9965 48.7418 145.677 -9.34747 41.8067 157.959 -15.3672 39.188 165.354 -27.1914 72.8387 172.869 -20.0985 11.6647 9.85544 13.7767 
150.514 133.399 128.939 133.337 136.326 146.806 92.6912 86.7649 83.7801 82.1768 61.4553 114.813 -20.6041 57.3496 134.914 -6.45331 48.5813 145.445 -9.9027 41.7394 158.031 -15.8395 39.1955 165.487 -27.6291 72.8996 172.686 -20.4638 11.6607 9.91237 13.555 
150.625 133.232 128.664 133.403 136.376 146.967 92.9265 87.033 83.8795 82.1737 61.6281 114.562 -20.9128 57.1627 134.717 -6.81136 48.4358 145.299 -10.3113 41.6786 158.172 -16.1766 39.2241 165.648 -27.9707 72.9986 172.534 -20.7723 11.6451 9.98167 13.4346 
150.792 133.081 128.389 133.389 136.436 147.155 93.3175 87.4529 84.2234 82.4113 61.7771 114.315 -21.2677 56.9742 134.395 -7.11533 48.271 145.009 -10.6218 41.5732 158.068 -16.408 39.2068 165.584 -28.1958 73.0802 172.331 -21.0665 11.6154 10.0482 13.3621 
150.939 132.841 128.342 133.367 136.504 147.246 93.612 87.925 84.57 82.6266 61.932 114.086 -21.6039 56.7692 134.139 -7.33322 48.0428 144.736 -10.8617 41.4408 157.955 -16.635 39.1835 165.512 -28.4208 73.1545 172.109 -21.3154 11.589 10.0637 13.2451 
151 132.635 128.289 133.213 136.488 147.263 93.8344 88.3797 84.9824 82.9395 62.0582 113.819 -21.8884 56.7118 133.822 -7.47109 47.936 144.302 -11.0573 41.3834 157.565 -16.851 39.2108 165.164 -28.6314 73.2603 171.806 -21.5809 11.5702 10.0402 13.0983 
151.116 132.399 128.466 133.095 136.498 147.38 93.9105 88.7518 85.2791 83.1467 62.1592 113.498 -22.0214 56.7001 133.535 -7.56679 47.8361 143.932 -11.1565 41.351 157.212 -17.023 39.236 164.823 -28.8238 73.3609 171.483 -21.8236 11.542 9.99838 13.0319 
151.167 132.168 128.937 133.149 136.578 147.445 93.7745 88.8769 85.3191 83.07 62.338 113.262 -22.1961 56.7718 133.379 -7.77562 47.8111 143.819 -11.3182 41.4265 157.101 -17.2852 39.3726 164.704 -29.1368 73.526 171.219 -22.0855 11.5231 9.94034 13.0508 
151.126 132.091 129.55 133.229 136.672 147.386 93.435 88.751 85.2264 82.896 62.7266 113.15 -22.5674 57.0831 133.429 -8.02523 48.0242 143.904 -11.551 41.6932 157.048 -17.6267 39.6608 164.647 -29.5199 73.781 171.054 -22.3935 11.5168 9.83457 13.0399 
151.065 132.363 130.095 133.356 136.815 147.313 93.1352 88.5998 85.1785 82.8168 63.283 113.117 -22.9675 57.5548 133.525 -8.25334 48.4201 143.942 -11.7795 42.059 156.889 -17.9339 40.0068 164.483 -29.8542 74.0693 170.98 -22.6922 11.5164 9.74134 13.0203 
150.926 132.908 130.649 133.475 136.89 147.205 92.8696 88.4141 85.0806 82.6955 63.8952 113.139 -23.3982 58.1748 133.631 -8.45557 48.9893 143.938 -11.9646 42.5672 156.663 -18.2053 40.4617 164.231 -30.1635 74.4235 170.913 -22.9938 11.5264 9.66405 13.0414 
150.831 133.744 131.144 133.574 136.967 147.128 92.634 88.2895 85.0924 82.7843 64.5928 113.226 -23.8546 58.9484 133.825 -8.57768 49.7034 143.861 -12.1121 43.1575 156.316 -18.4131 40.9438 163.841 -30.3853 74.812 170.917 -23.3344 11.5477 9.60249 12.9946 
150.836 134.654 131.837 133.843 137.136 146.982 92.2949 88.0884 85.037 82.8277 65.4135 113.379 -24.4918 59.7976 134.028 -8.87592 50.4487 143.807 -12.3727 43.7554 156.006 -18.6685 41.4083 163.493 -30.6327 75.1704 170.987 -23.7172 11.5885 9.56886 12.9789 
150.775 135.519 132.531 134.119 137.284 146.784 91.7717 87.735 84.8693 82.8009 66.2188 113.569 -25.1851 60.6814 134.359 -9.22543 51.2223 143.877 -12.7139 44.3744 155.814 -18.9775 41.8619 163.261 -30.9285 75.4941 171.123 -24.1558 11.6384 9.53806 12.9082 
150.728 136.365 132.875 134.143 137.247 146.577 91.4034 87.6047 85.0168 83.1277 66.8491 113.614 -25.7029 61.5236 134.591 -9.31007 51.9624 143.643 -12.9271 44.9264 155.232 -19.1426 42.2262 162.654 -31.064 75.7704 171.116 -24.5764 11.6649 9.51424 12.6591 
150.895 137.157 132.96 134.028 137.189 146.584 91.347 87.7149 85.4145 83.6781 67.3336 113.604 -26.1287 62.2291 134.722 -9.3584 52.5837 143.319 -13.1437 45.3883 154.575 -19.2794 42.5295 162.02 -31.1537 76.0465 171.142 -25.0145 11.662 9.52442 12.3735 
151.079 137.669 132.961 134.025 137.204 146.53 91.3797 87.8548 85.746 84.1034 67.6847 113.447 -26.4708 62.6164 134.654 -9.44114 52.9279 142.98 -13.3526 45.6564 154.032 -19.3969 42.7045 161.462 -31.2578 76.2256 171.007 -25.383 11.6661 9.56889 12.1552 
151.229 138.005 132.729 133.941 137.187 146.464 91.5415 88.0643 86.1464 84.5673 67.8855 113.182 -26.8672 62.7851 134.427 -9.50532 53.1106 142.572 -13.5482 45.8095 153.489 -19.4758 42.816 160.915 -31.3242 76.3666 170.706 -25.716 11.6628 9.64079 11.9489 
151.29 138.133 132.446 133.901 137.208 146.273 91.6534 88.2178 86.4885 84.9021 67.9034 112.981 -27.2426 62.8215 134.18 -9.62877 53.1725 142.212 -13.8236 45.878 153.057 -19.6282 42.8969 160.532 -31.4684 76.4892 170.413 -26.0136 11.6384 9.72444 11.7485 
151.311 137.909 132.004 133.767 137.166 146.087 91.9276 88.4877 86.8753 85.2393 67.7988 112.729 -27.5447 62.6582 133.821 -9.83817 53.0814 141.847 -14.1515 45.8512 152.732 -19.8466 42.9603 160.286 -31.6655 76.6475 170.084 -26.2843 11.6121 9.7998 11.6026 
151.375 137.616 131.696 133.707 137.142 145.876 92.1292 88.7931 87.2067 85.4973 67.6752 112.505 -27.8815 62.4528 133.498 -10.1205 52.9253 141.488 -14.5507 45.7797 152.495 -20.1578 43.02 160.151 -31.9464 76.7963 169.802 -26.5445 11.6034 9.84707 11.437 
151.42 137.235 131.339 133.586 137.058 145.776 92.4336 89.1396 87.6176 85.8096 67.49 112.213 -28.1533 62.2281 133.12 -10.3708 52.7753 141.11 -14.9124 45.7127 152.228 -20.4461 43.0988 159.986 -32.2136 76.9881 169.474 -26.8136 11.5814 9.88148 11.2953 
151.37 136.673 131.051 133.425 136.93 145.613 92.6733 89.4851 87.86 85.9596 67.3127 111.974 -28.4427 62.0064 132.841 -10.5859 52.6173 140.876 -15.2022 45.6795 152.19 -20.7527 43.2235 159.99 -32.5239 77.2115 169.148 -27.077 11.5781 9.86784 11.1876 
151.255 136.348 130.928 133.31 136.828 145.544 92.8721 89.7584 88.0432 86.0894 67.2102 111.81 -28.6758 61.9681 132.624 -10.8326 52.6233 140.696 -15.481 45.7748 152.154 -21.08 43.4424 159.983 -32.8554 77.495 168.924 -27.351 11.5774 9.83457 11.1494 
151.116 136.165 131.045 133.313 136.794 145.547 92.9788 89.9222 88.0379 86.0853 67.2778 111.684 -29.0246 62.0443 132.486 -11.1786 52.7194 140.62 -15.7869 45.9526 152.249 -21.4382 43.7063 160.076 -33.207 77.7862 168.772 -27.6215 11.603 9.78963 11.1682 
150.993 136.031 131.444 133.38 136.749 145.625 92.8765 89.8257 87.7861 85.8455 67.4794 111.497 -29.2661 62.2354 132.39 -11.5902 52.9069 140.703 -16.0736 46.2125 152.427 -21.8458 44.0095 160.182 -33.6499 78.083 168.61 -27.9241 11.6324 9.70802 11.305 
150.785 136.943 132.149 133.418 136.674 145.812 92.8119 89.8538 87.9399 86.0378 68.3462 111.168 -29.7585 63.3681 132.121 -11.8544 53.9667 140.142 -16.2878 47.098 151.607 -22.2496 44.7574 159.301 -34.1193 78.7666 168.225 -28.5533 11.5846 9.5607 11.4012 
150.597 137.822 132.706 133.488 136.679 145.942 92.7544 89.7872 87.9801 86.1158 68.6581 111.12 -29.9049 63.9869 132.104 -11.7499 54.5739 139.875 -16.1272 47.5577 151.097 -22.2477 45.0817 158.742 -34.1843 79.0155 168.064 -28.7145 11.5242 9.45218 11.5347 
150.489 138.604 133.241 133.54 136.658 145.857 92.562 89.6712 88.0152 86.1555 69.0387 111.061 -30.1855 64.7051 132.169 -11.6954 55.2619 139.58 -16.0911 48.0835 150.502 -22.3593 45.4604 158.111 -34.356 79.3112 167.863 -29.0028 11.4628 9.34356 11.5716 
150.374 139.382 133.534 133.316 136.51 145.748 92.4968 89.7428 88.2627 86.3808 69.374 111.102 -30.5543 65.4324 132.271 -11.571 55.9581 139.153 -16.0522 48.6098 149.734 -22.4389 45.8416 157.394 -34.439 79.5931 167.721 -29.2691 11.3974 9.25232 11.5247 
150.373 140.065 133.785 133.014 136.298 145.58 92.4668 89.9334 88.6087 86.615 69.6609 111.167 -31.0234 66.0819 132.39 -11.4413 56.5706 138.674 -16.0378 49.0713 148.928 -22.523 46.171 156.687 -34.5128 79.8394 167.566 -29.5655 11.3208 9.17337 11.4273 
150.584 140.705 133.836 132.57 135.693 145.485 92.3086 90.1181 89.0658 86.9708 69.5947 111.144 -31.7733 66.3329 132.428 -11.7567 56.7657 138.334 -16.396 49.1769 148.389 -22.8606 46.2801 156.253 -34.7485 79.961 167.475 -29.9417 11.358 9.08797 11.3214 
150.616 140.904 134.034 132.579 135.71 145.198 92.2015 90.1651 89.2433 87.0788 69.8081 111.099 -32.3094 66.6083 132.498 -11.8037 57.0373 138.117 -16.5006 49.3917 147.949 -22.9962 46.4554 155.779 -34.9157 80.0751 167.207 -30.2881 11.3728 9.0748 11.2668 
150.728 140.772 134.14 132.828 135.941 144.938 92.0366 90.0651 89.1592 87.0091 69.8589 110.977 -32.8443 66.5113 132.51 -12.1323 56.9569 138.151 -16.865 49.3584 147.959 -23.3336 46.4802 155.7 -35.2787 80.1065 166.938 -30.7014 11.4528 9.10623 11.2081 
150.859 140.489 134.214 133.063 136.169 144.641 91.6827 89.7713 88.7371 86.7079 70.0852 110.839 -33.4333 66.3977 132.573 -12.6293 56.8384 138.361 -17.4131 49.3336 148.297 -23.8395 46.5063 155.865 -35.794 80.1121 166.725 -31.1766 11.5826 9.16365 11.1141 
150.914 140.248 134.258 133.274 136.365 144.137 91.2843 89.5188 88.4 86.3776 70.4366 110.872 -34.1228 66.4126 132.661 -13.1365 56.8152 138.515 -18.002 49.377 148.54 -24.3841 46.5895 156.009 -36.3519 80.1379 166.584 -31.678 11.6717 9.22163 10.9867 
150.981 139.983 134.412 133.495 136.537 143.61 90.8336 89.2741 88.1365 86.095 70.9149 111.013 -34.9797 66.4951 132.838 -13.6651 56.8173 138.694 -18.6405 49.4256 148.734 -24.9759 46.6727 156.159 -36.942 80.134 166.543 -32.1897 11.7546 9.26025 10.8017 
150.745 139.721 134.263 133.345 136.388 143.12 90.5457 89.2046 88.1831 86.0792 71.1813 111.199 -35.7331 66.719 132.943 -14.046 56.9744 138.607 -19.1564 49.5647 148.539 -25.4551 46.7988 156.017 -37.4164 80.1492 166.487 -32.678 11.7673 9.28845 10.6385 
150.161 138.743 133.532 132.994 135.764 141.667 89.2796 88.1519 87.5711 85.4891 71.2779 111.171 -36.2942 66.9219 133.429 -15.305 57.1968 138.924 -20.3055 49.6882 148.577 -26.4409 46.8587 156.153 -38.2544 80.0516 166.477 -33.2916 11.8732 9.30133 10.8082 
149.44 138.687 133.309 132.411 135.052 141.709 89.4219 88.2747 87.6875 85.2365 71.3336 111.115 -36.7883 67.2236 133.344 -15.1694 57.5023 138.654 -20.3029 49.9171 148.091 -26.6074 46.9747 155.719 -38.5697 80.0432 166.151 -33.7424 11.7313 9.23007 10.6964 
148.963 138.995 133.31 131.664 134 141.993 89.8994 88.6488 87.8565 85.0399 71.1639 111.031 -37.1423 67.5031 133.238 -14.7795 57.7956 138.246 -20.07 50.1408 147.522 -26.6672 47.1051 155.196 -38.7687 80.0629 165.811 -34.1341 11.6133 9.08696 10.596 
148.79 139.452 133.4 130.837 132.776 142.402 90.3825 88.9918 87.9361 84.8132 70.9792 110.982 -37.5351 67.8294 133.284 -14.4583 58.1705 137.982 -19.8719 50.4546 147.152 -26.7726 47.3437 154.869 -38.9991 80.1336 165.632 -34.5431 11.5494 8.93989 10.5565 
148.954 140.081 133.568 130.01 131.313 142.854 90.795 89.2701 87.9709 84.5486 70.2748 110.785 -38.3691 67.8976 133.236 -14.6355 58.2978 137.647 -20.0887 50.5292 146.699 -27.253 47.3493 154.389 -39.6323 79.9444 165.306 -35.464 11.5652 8.83516 10.5891 
