152.123 174.27 180 174.27 174.27 137.42 177.946 180 178.008 176.806 -51.3953 192.354 -49.747 -43.8481 211.885 -97.9381 -43.6353 218.505 -107.963 -25.2505 232.669 -97.7531 1.23016 233.597 -72.4701 -7.04262 196.545 -13.0602 0.401401 2.99701 12.4561 
150.945 108.741 140.973 149.838 143.333 135.804 38.3705 53.3697 65.0187 83.2828 -42.482 169.027 -37.6774 -37.1284 176.555 -40.5849 -25.4178 174.881 -38.0436 -5.19811 175.553 -35.7139 10.7612 182.333 -29.1808 -10.5823 210.036 -20.229 4.6166 7.0167 9.778 
150.34 145.794 149.701 145.417 145.291 136.254 84.6491 90.1573 90.6278 91.7555 -33.1796 158.908 -41.202 -31.3234 170.978 -38.6219 -21.6988 162.915 -40.0472 -7.3452 165.614 -38.5134 5.3303 174.96 -37.0245 -16.364 213.399 -26.5401 11.59 7.18353 13.4685 
151.117 141.449 144.535 144.636 144.502 141.09 92.4991 100.863 99.0673 95.0498 -34.7035 154.903 -44.0749 -29.7666 165.001 -42.012 -20.0598 156.033 -42.9518 -5.36032 159.333 -39.9399 7.04072 170.446 -37.6191 -14.7405 211.134 -28.1513 11.028 5.87463 11.9419 
152.573 139.406 144.548 144.307 143.731 142.634 92.7834 99.721 99.3073 95.2313 -37.271 153.6 -46.8796 -29.734 163.592 -50.4251 -19.9177 155.015 -50.7743 -5.14202 157.58 -44.8767 7.87881 168.682 -41.0456 -13.5767 209.957 -29.9446 10.3299 5.56051 11.5497 
153.27 140.943 145.191 144.494 143.849 145.666 90.9543 96.9749 97.5092 94.9578 -41.6311 154.772 -49.7052 -29.0915 165.842 -58.8944 -18.915 157.868 -62.1936 -3.39232 159.265 -53.4451 10.2368 169.592 -46.6659 -12.0105 210.125 -30.2364 9.2127 5.36379 11.3955 
154.34 139.962 142.647 144.691 143.887 149.182 87.5875 94.6335 95.4493 93.1874 -44.4976 154.756 -50.4688 -29.6507 170.185 -67.315 -17.3741 162.662 -71.7269 -0.781557 162.527 -60.4725 13.1087 172.108 -50.6295 -10.7316 210.738 -29.9028 8.1129 5.84757 9.17732 
156.882 136.591 138.047 143.395 143.678 154.117 88.2648 94.1761 95.0115 92.2949 -47.1591 153.925 -50.0201 -30.9931 174.776 -75.3328 -15.3442 169.048 -80.5639 2.33206 166.857 -68.0841 16.9017 174.55 -54.2159 -9.50493 211.527 -29.0768 6.03071 6.25396 5.15735 
159.169 134.645 135.575 140.915 143.293 158.123 91.6636 95.7597 95.7761 91.6943 -48.7155 153.299 -49.2492 -31.2463 177.472 -80.5834 -13.1903 172.811 -85.2647 5.46635 169.65 -71.7836 20.3488 175.826 -54.7357 -8.39583 211.804 -27.813 5.50212 6.78684 2.17488 
160.98 134.827 134.247 139.967 142.488 160.589 97.5085 99.6438 98.2997 92.6071 -50.0529 153.088 -48.8302 -31.0241 179.178 -85.8539 -11.0073 175.146 -89.8637 7.99189 170.012 -73.6963 23.1568 175.781 -54.7638 -7.23114 211.665 -27.0716 5.6893 9.7128 0.803834 
162.973 136.277 135.589 140.983 143.36 161.936 103.743 104.699 102.762 96.5543 -51.1608 154.063 -49.5421 -31.2849 180.691 -90.7102 -9.49323 175.73 -93.7863 9.75593 168.877 -75.6846 25.002 174.454 -55.5055 -6.73028 211.924 -27.0749 5.77816 11.6027 3.06966 
163.819 138.18 137.003 141.873 145.063 162.394 108.579 109.015 107.062 100.45 -51.9483 154.694 -49.5658 -31.3948 181.811 -93.8381 -8.06168 176.598 -97.1188 11.8662 168.86 -78.7569 26.923 173.602 -56.9244 -6.30333 212.035 -27.0041 6.68557 11.7943 4.26235 
164.74 139.836 138.748 142.987 146.672 162.982 111.483 111.309 110.581 104.581 -52.6779 155.074 -49.2843 -31.1509 181.883 -95.3468 -7.0633 175.892 -98.2418 13.6494 168.385 -81.0732 28.7603 172.299 -58.4623 -5.89943 211.723 -26.9105 6.92423 10.5464 5.28423 
166.323 142.041 141.326 144.578 148.337 164.114 114.718 114.283 114.878 109.79 -53.1933 155.108 -49.1212 -30.9432 180.601 -96.1483 -6.29465 174.123 -99.0665 15.4508 167.413 -83.4066 30.9353 170.699 -60.4632 -5.53604 211.061 -26.6938 6.55459 8.90842 5.72912 
169.621 146.882 145.652 147.538 150.614 167.226 120.064 119.224 121.492 118.071 -54.443 153.834 -48.7324 -30.5741 175.797 -95.9889 -6.30817 169.395 -99.2213 17.2494 164.33 -85.5274 33.844 167.728 -63.0498 -5.05962 209.633 -26.3269 5.14702 7.06423 4.87927 
169.723 146.663 145.328 147.418 150.399 167.757 119.027 118.158 120.73 118.056 -54.5228 152.619 -48.2948 -30.3988 173.414 -94.5947 -6.65644 166.976 -97.4885 16.8344 162.584 -84.3273 33.8533 166.592 -62.777 -5.18636 208.664 -26.236 4.28557 6.48543 4.52839 
169.511 146.066 144.736 146.974 149.965 167.989 117.085 116.676 119.339 116.699 -54.3197 151.185 -47.9578 -29.3022 169.839 -92.0682 -6.69042 163.901 -95.0622 16.2984 160.38 -82.3992 33.1282 165.157 -61.4697 -5.16548 207.481 -26.2146 3.72738 5.69481 3.27176 
168.367 144.352 143.042 145.753 149.942 167.25 111.749 112.534 115.044 112.509 -54.0527 149.303 -47.1784 -27.9562 165.467 -87.2893 -6.60001 160.364 -90.8858 15.5482 157.693 -78.6599 31.6591 163.281 -58.7344 -5.07293 205.607 -26.2731 3.42372 4.97654 1.45439 
166.73 141.794 140.698 144.391 148.13 166.033 104.477 107.254 110.408 108.588 -52.7769 146.551 -45.4713 -26.4625 160.834 -80.5568 -6.51158 156.366 -84.8525 14.3555 154.48 -73.3057 30.1098 161.512 -55.3461 -4.99822 203.853 -26.1355 2.44208 4.05849 0.764441 
165.199 139.415 142.993 144.475 145.599 164.407 97.0364 102.348 105.559 104.944 -51.2689 143.413 -44.2453 -25.3691 156.995 -74.2336 -7.32345 149.034 -74.4628 12.2808 149.265 -64.8587 27.9135 158.309 -51.0984 -4.90249 201.498 -26.3708 2.39525 1.52384 3.99662 
163.705 142.136 146.719 145.25 143.816 162.372 90.9256 98.3241 100.437 99.9611 -49.4375 139.879 -42.3751 -24.7617 153.192 -65.6037 -8.81865 144.072 -62.8077 9.08871 145.977 -54.8543 24.6036 156.302 -45.5885 -4.87396 199.454 -26.658 5.50392 1.56091 6.59471 
163.313 148.05 150.773 146.925 144.463 160.511 94.9405 102.895 102.761 100.428 -46.6312 136.61 -41.0863 -23.0765 143.783 -54.5831 -9.62305 135.565 -50.6051 7.00944 139.51 -44.1306 21.6286 151.508 -38.7812 -4.99411 195.905 -27.1911 8.0275 3.1086 7.74131 
162.166 148.959 150.966 146.974 144.585 157.739 96.9705 104.498 103.664 100.292 -42.6158 133.679 -39.8381 -22.4563 139.256 -44.4496 -11.0448 132.262 -38.4014 4.31534 136.909 -33.3513 18.0219 149.177 -31.7913 -5.54221 192.953 -27.8864 10.2317 4.50583 9.5619 
161.604 146.731 147.335 144.657 143.629 155.822 96.2317 103.157 103.343 99.5127 -39.0711 132.659 -40.5759 -22.19 139.554 -33.8633 -12.568 134.088 -27.6057 1.51538 138.171 -24.0296 14.4293 149.712 -25.469 -7.03126 191.054 -28.3574 11.9039 5.99073 11.049 
160.722 142.074 140.642 139.72 140.696 153.298 95.0985 101.524 102.567 97.9466 -35.7692 131.888 -41.3816 -20.4726 140.96 -24.5347 -11.7742 136.838 -18.4618 0.724782 140.38 -15.618 12.4263 150.888 -18.9177 -7.87221 188.484 -28.2323 13.1058 7.55117 12.1473 
159.014 142.301 137.675 136.997 139.606 148.825 93.9542 98.3176 98.5597 94.8033 -31.8355 132.191 -40.8187 -19.3232 143.43 -17.1562 -10.6764 140.519 -12.1496 0.971659 144.289 -9.58833 11.62 153.183 -13.7874 -8.32005 186.387 -27.5294 14.2033 8.45592 12.5794 
156.076 142.95 136.53 136.257 138.681 143.981 91.4137 93.245 92.7536 89.8441 -28.1706 131.332 -37.7116 -19.6673 144.518 -14.1766 -10.8151 143.129 -9.5828 0.604189 147.546 -6.71882 11.1753 155.271 -10.9998 -8.81541 184.545 -26.4141 14.7188 8.82553 12.6856 
155.083 141.486 133.75 134.814 137.126 140.088 90.5186 89.4451 87.8504 86.3928 -25.4876 130.616 -33.234 -20.1784 142.739 -13.266 -10.7631 142.814 -9.14482 0.546263 148.626 -5.45656 11.1585 155.951 -8.82405 -9.58155 183.404 -24.4145 14.5649 9.048 12.3037 
155.531 139.444 129.925 133.219 135.97 138.774 91.7777 88.1149 85.7021 85.0434 -24.0612 130.01 -29.4017 -21.332 139.548 -13.8303 -11.6388 140.179 -10.3165 -0.177923 147.207 -5.20803 10.5928 155.129 -7.3102 -10.3822 182.936 -22.1794 14.0333 9.25815 12.1206 
156.181 136.576 125.475 130.209 134.299 140.094 95.4216 91.5534 86.9186 85.839 -25.0248 127.758 -25.2729 -22.2715 134.595 -14.3793 -12.061 134.596 -11.1545 -0.503394 143.584 -4.40218 10.2766 152.592 -5.59928 -11.0629 181.847 -20.01 13.4527 9.88101 11.4264 
157.689 129.011 118.137 121.317 127.76 143.65 102.051 98.7247 91.7266 89.4795 -26.3164 125.677 -21.3309 -21.5364 127.69 -12.8165 -11.5987 126.981 -9.86678 -0.0739045 137.829 -2.35954 10.0176 148.862 -2.63986 -11.8404 179.767 -17.4276 13.2495 10.085 11.4029 
158.941 130.12 121.038 115.897 124.299 146.474 111.513 110.502 99.3296 95.6721 -28.504 125.078 -18.4393 -21.7322 121.409 -10.6084 -11.3615 118.598 -8.43796 0.13635 132.104 -0.0890093 9.38548 145.206 0.598976 -12.661 178.69 -14.5831 13.2575 10.4142 10.5327 
158.903 136.033 120.383 111.149 125.263 148.285 119.702 116.722 103.408 100.404 -29.4387 125.514 -17.6127 -22.0525 117.621 -8.04082 -12.8897 116.443 -5.09858 -1.84713 132.566 4.46 6.78136 145.367 4.29198 -13.4803 178.409 -12.7863 14.1221 12.5023 11.2206 
158.653 144.454 141.601 109.382 128.163 148.895 121.312 118.143 101.05 100.546 -29.2661 125.977 -16.6723 -22.1664 118.157 -4.11265 -13.877 117.533 1.2232 -2.84424 137.517 9.50807 5.43404 148.158 8.20558 -14.2812 178.665 -11.6602 14.5819 14.4274 12.2605 
158.342 146.434 136.686 112.178 129.462 148.88 114.116 105.626 97.9094 98.7935 -28.0101 125.508 -15.8564 -22.9308 122.184 -0.317747 -15.4736 125.821 6.12367 -3.23035 140.936 12.4067 5.08751 150.091 10.316 -14.6194 178.337 -11.1262 14.7348 11.4113 14.3501 
158.53 140.45 119.135 113.73 129.398 148.353 103.698 89.5058 94.7349 96.6034 -26.4471 124.399 -14.6371 -24.2451 127.194 2.38234 -17.3146 136.048 7.65032 -3.49477 142.469 13.5896 4.92447 150.671 11.3362 -14.799 177.384 -10.5858 14.8639 6.6471 17.1712 
158.698 134.818 124.755 116.924 128.828 147.795 94.5196 82.8138 90.8331 93.3264 -25.1198 123.57 -12.8699 -24.7635 131.307 4.1584 -17.7712 140.56 9.77605 -3.27911 144.718 15.0546 5.47849 152.111 12.4256 -14.8915 176.595 -9.7273 14.8063 5.74239 18.4621 
159.094 130.006 125.963 120.05 126.31 147.525 88.9418 78.3405 86.0356 88.3081 -22.4327 122.956 -11.8579 -25.0646 133.074 5.6695 -17.005 142.432 10.6123 -1.82373 146.247 15.5764 6.40837 152.979 12.4105 -15.2693 174.931 -9.05899 15.8815 5.31664 17.9447 
159.103 128.057 123.215 124.077 124.307 146.953 84.5552 76.3979 81.8022 82.9971 -20.8252 123.188 -10.8565 -25.5117 134.224 6.33026 -16.4403 141.334 10.1614 -0.650908 147.181 15.3428 7.19334 153.61 11.376 -15.8705 173.776 -8.54051 16.9575 5.01031 16.2146 
158.825 130.404 112.55 126.609 124.611 146.055 81.619 77.3637 79.2508 79.5571 -19.9725 124.109 -9.50188 -26.0754 135.195 7.15256 -15.8524 137.624 8.51164 -0.264958 147.458 14.9453 7.53906 153.966 10.4893 -16.5661 173.331 -8.05213 17.2884 8.84139 13.4679 
158.464 133.023 107.014 126.902 124.078 145.849 79.8131 79.3699 78.1791 78.3496 -19.4162 124.62 -8.7604 -26.5028 135.897 7.79671 -15.8422 134.374 7.48791 -0.410878 147.093 14.5786 7.58388 153.551 9.847 -17.0479 173.003 -7.74604 17.1849 12.365 13.4605 
158.007 136.129 103.092 124.402 122.61 146.005 79.6184 83.3478 78.523 79.0902 -19.2108 125.089 -8.37327 -26.8972 136.32 8.76986 -15.9116 130.98 6.93486 -0.940688 145.891 14.1318 7.33754 152.54 9.41475 -17.4365 172.906 -7.52642 16.7246 14.8965 14.7229 
157.513 138.365 103.655 120.845 120.577 146.1 80.2207 87.2769 79.8384 80.6002 -19.1963 125.47 -8.09908 -27.0026 136.486 9.57902 -15.8634 128.603 7.07716 -1.19927 144.577 13.5984 7.13924 151.669 8.88557 -17.7358 173.044 -7.43351 16.4017 15.4594 15.8485 
157.264 139.219 106.053 116.612 118.892 146.131 81.0812 90.0496 81.7958 82.3625 -19.0888 125.787 -7.92603 -26.8222 136.398 10.101 -15.62 127.187 7.42757 -1.10293 143.088 12.9518 7.11094 150.925 8.39285 -17.9448 173.252 -7.40371 16.1679 14.5931 16.322 
157.302 139.4 108.394 112.824 117.832 146.414 82.0311 91.7574 84.3738 84.3991 -19.0366 125.779 -7.76373 -26.4434 136.12 10.4302 -15.1989 126.528 7.73068 -0.585824 141.616 12.3312 7.33403 150.315 7.95108 -18.0672 173.467 -7.46973 16.0353 13.0323 16.2566 
157.529 139.108 111.158 110.704 117.803 146.766 82.8743 92.5817 86.7359 85.9496 -19.0599 125.55 -7.69467 -26.1396 135.762 10.5023 -14.7992 126.427 8.0802 -0.0147682 140.429 11.915 7.58342 149.844 7.65795 -18.1218 173.588 -7.64109 16.031 11.4596 15.7265 
157.822 138.089 112.656 110.479 118.846 147.172 83.5121 92.6825 88.652 86.9916 -19.214 125.15 -7.64086 -25.807 135.474 10.3855 -14.3665 127.019 8.3977 0.577758 139.852 11.7452 7.83471 149.781 7.41743 -18.1127 173.71 -7.88864 16.1353 10.1719 14.8989 
158.158 136.949 112.495 111.255 120.334 147.619 84.2405 92.3898 89.9813 87.7241 -19.4724 124.78 -7.69345 -25.5357 135.161 10.0849 -14.0677 127.97 8.47566 1.0113 139.656 11.6269 8.05755 149.872 7.1969 -18.0679 173.885 -8.22243 16.1449 9.20615 14.013 
158.445 134.765 110.2 112.339 121.888 148.019 84.5137 91.3384 90.5489 88.1308 -19.7655 124.393 -8.0713 -25.4124 135.067 9.47505 -14.0093 129.35 8.19144 1.17258 139.878 11.4934 8.13966 150.051 6.96766 -17.9724 173.992 -8.67898 16.1195 8.57732 13.3143 
158.485 132.282 107.364 112.809 123.101 148.094 84.5617 89.9922 90.486 88.2408 -19.9763 124.262 -8.40831 -25.5681 135.072 8.75168 -14.3968 130.642 7.71503 0.899369 140.245 11.298 7.97589 150.234 6.79487 -17.8604 174.093 -9.15951 16.046 8.22538 12.9979 
158.249 130.246 105.56 112.838 123.652 147.861 84.7025 88.8037 89.9149 88.0598 -20.1197 124.301 -8.55488 -25.8115 135.131 8.11007 -14.9277 131.66 7.31298 0.405203 140.657 10.9987 7.65469 150.41 6.58271 -17.7103 174.199 -9.65365 16.0466 8.034 12.9473 
157.663 128.606 104.624 112.01 123.593 147.306 84.7572 87.3861 88.9235 87.7318 -20.245 124.633 -8.6445 -26.2288 135.256 7.49246 -15.7161 132.534 6.91451 -0.37649 140.895 10.4885 7.13718 150.368 6.32617 -17.5258 174.312 -10.1361 16.0783 7.7773 13.1365 
157.036 128.102 104.24 109.472 122.567 146.682 84.8753 86.3258 88.3216 87.8527 -20.0276 125.179 -8.65022 -26.5346 135.319 7.03907 -16.4297 132.948 6.50676 -1.13237 140.555 9.6255 6.60323 150.009 5.94397 -17.312 174.453 -10.5875 16.1432 7.31869 13.4947 
156.292 128.392 103.631 105.413 120.718 146.057 84.6922 84.9105 88.0505 88.3288 -19.785 126.042 -8.76761 -27.0272 135.735 6.62133 -17.3798 133.488 5.91142 -2.02517 139.923 8.53635 5.94994 149.477 5.54204 -17.0995 174.708 -11.0716 16.2084 6.66638 13.9991 
155.633 129.418 103.171 101.114 117.898 145.665 84.4322 83.9908 88.3474 89.1831 -19.1796 126.877 -9.23304 -27.0363 136.42 6.26323 -17.7525 134.012 5.21466 -2.37524 139.421 7.19183 5.58938 149.192 4.69286 -16.9124 175.093 -11.6141 16.4442 6.20074 14.4723 
155.376 131.107 102.733 98.4373 115.728 145.546 84.6526 83.9208 89.2917 89.9401 -18.7576 127.506 -9.66441 -26.8553 136.996 6.16923 -17.7706 134.258 4.72038 -2.21224 138.946 6.30722 5.63177 149.042 3.98752 -16.7607 175.469 -12.1362 16.6485 5.80359 14.7308 
155.351 134.177 102.69 98.2517 113.342 145.804 85.4462 84.4151 90.9976 90.7382 -18.0359 128.441 -10.8152 -25.8007 137.893 5.76106 -16.8149 134.877 3.64072 -0.736752 139.337 5.1339 6.57879 149.865 2.25621 -16.6651 176.342 -13.4363 16.9834 5.09535 14.817 
155.532 135.188 103.486 100.552 113.731 146.094 85.9957 85.4263 91.4868 90.802 -18.0286 128.95 -11.4278 -25.3641 138.443 5.68952 -16.1644 135.113 3.37098 0.0862774 140.095 4.95096 7.17284 150.596 1.54342 -16.8292 176.954 -13.9497 16.9319 4.93779 14.5728 
155.539 134.831 105.672 100.671 113.755 146.16 86.6572 86.8685 92.8382 91.6539 -18.0023 129.347 -12.1031 -25.0691 138.614 5.23371 -15.633 134.902 3.02181 0.472949 139.813 3.92077 7.41343 150.616 0.415465 -17.0724 177.46 -14.6293 16.8127 4.93026 14.279 
155.309 133.719 109.189 97.3073 112.783 146.028 87.3027 88.035 95.362 93.9926 -17.6452 129.771 -12.5979 -25.1739 138.695 4.73643 -15.6785 134.621 2.89121 0.116256 138.532 2.40622 7.04639 149.828 -0.602571 -17.4353 177.887 -15.229 16.6634 5.18951 14.1776 
155.103 132.578 112.429 95.0844 113.061 145.937 87.9897 88.8443 98.4618 96.2657 -17.2298 130.173 -12.9708 -25.6861 138.644 4.1068 -16.2109 134.357 2.70775 -0.566241 136.931 1.33788 6.57336 148.889 -1.13937 -17.7376 178.273 -15.8017 16.3741 5.77473 14.1204 
154.766 131.722 115.134 91.9395 113.152 145.735 88.7686 89.9704 102.39 99.1694 -16.9919 130.887 -13.0343 -26.6467 138.573 3.60714 -17.203 133.761 2.5513 -1.59884 134.736 0.158778 5.82601 147.534 -1.38664 -18.0021 178.75 -16.272 16.2207 6.73754 14.0965 
154.6 131.155 117.235 90.0456 113.153 145.837 89.0201 90.4713 106.635 102.054 -16.9924 131.689 -13.2166 -27.4395 138.755 3.12092 -18.0682 133.48 2.35086 -3.6611 132.789 -0.458674 5.24053 146.392 -1.4654 -18.1356 179.235 -16.7025 14.7851 8.70938 14.1884 
154.686 131.483 118.888 90.0456 113.421 146.172 89.1135 91.1219 110.775 104.725 -17.1071 132.29 -13.4417 -27.9339 138.925 2.6969 -18.5764 133.215 2.1083 -4.01282 131.19 -0.851154 5.03949 145.639 -1.56164 -18.1853 179.718 -17.0937 14.6292 9.26354 14.23 
154.894 132.238 119.478 90.0456 113.657 146.73 89.1213 91.1848 114.062 106.71 -17.0315 132.699 -13.7822 -28.0768 139.117 2.37213 -18.8029 133.375 1.78823 -3.92004 130.369 -1.00931 5.20406 145.461 -1.62118 -18.1648 180.148 -17.4755 14.4284 9.49718 14.3157 
155.08 133.163 119.603 90.0456 113.682 147.19 88.7326 90.352 115.307 107.387 -17.2341 133.051 -14.1752 -28.1554 139.544 2.07059 -18.982 134.22 1.51313 -3.61918 130.695 -0.827632 5.53135 145.943 -1.57502 -18.1127 180.528 -17.8712 14.1937 9.3716 14.386 
155.168 133.393 118.563 90.5712 113.423 147.537 87.9318 88.2947 112.911 106.046 -17.4729 133.377 -14.7187 -28.1773 140.207 1.57517 -19.1512 135.958 1.08024 -1.55624 132.721 -0.481669 5.87482 147.4 -1.54217 -18.0357 180.922 -18.2835 15.6856 7.86354 14.4757 
155.784 133.81 117.483 95.5484 115.777 148.425 87.8899 88.2978 109.192 103.808 -17.9971 133.15 -15.7255 -27.7412 141.116 1.00806 -18.2431 137.126 0.329165 -0.397281 135.623 -0.0611486 6.5152 149.447 -2.03875 -18.0323 181.507 -18.891 15.7988 6.03666 13.9627 
155.484 132.984 118.473 105.184 124.054 148.239 90.9423 90.9326 102.224 99.5581 -19.356 132.625 -16.0993 -27.3364 141.883 0.395811 -17.593 138.877 0.501988 -0.992033 141.457 1.45526 6.22899 153.055 -1.72301 -18.0922 182.52 -19.7775 15.307 4.33754 13.2771 
155.759 131.005 117.346 111.025 128.569 148.122 93.3843 91.7758 98.284 97.0577 -20.0763 132.325 -16.2454 -27.2796 142.311 -0.215455 -17.7324 141.05 0.6955 -1.81842 145.639 2.48726 5.67574 155.61 -1.31368 -18.0225 183.351 -20.4022 15.1753 4.88211 13.1644 
156.079 129.459 116.347 115.313 130.459 148.358 95.3587 92.6164 95.9805 95.3722 -20.6241 132.31 -16.9017 -26.9072 142.509 -0.9019 -17.5229 142.442 0.619028 -2.05005 148.484 2.90285 5.42507 157.481 -1.33883 -17.9573 184.033 -20.9059 15.3737 5.68659 13.2681 
156.479 128.033 115.056 117.351 130.746 148.751 96.8688 93.2547 94.2387 94.1275 -21.0798 132.275 -17.6444 -26.438 142.409 -1.54872 -16.9991 143.241 0.311004 -2.01377 150.531 2.81932 5.38848 158.853 -1.64252 -17.9451 184.476 -21.3351 15.595 6.61481 13.2137 
156.719 127.179 114.463 117.701 130.104 149.006 98.1786 93.6105 92.8407 93.3098 -21.2535 132.248 -18.2493 -26.1426 142.288 -1.93395 -16.8287 143.863 0.138963 -2.06563 151.918 2.476 5.29819 159.719 -1.98869 -17.9855 184.759 -21.6668 15.773 7.07562 13.3699 
156.922 126.678 113.301 116.868 128.872 149.291 98.7403 93.3858 91.6632 92.6379 -21.4706 132.276 -18.5681 -26.119 142.286 -2.32348 -16.9775 144.314 -0.251474 -2.2098 152.721 1.95045 5.19086 160.246 -2.31088 -18.0376 184.984 -21.9172 15.8551 7.20124 13.5692 
156.983 126.746 111.864 115.133 127.005 149.588 99.1132 93.1566 90.695 92.3236 -21.5335 132.355 -18.6671 -26.334 142.165 -2.68147 -17.3137 144.249 -0.843103 -2.44981 152.765 1.18856 4.95916 160.22 -2.66491 -18.0794 185.154 -22.1016 15.9748 7.11879 13.6092 
156.852 127.315 111.16 113.648 125.679 149.669 99.4665 93.3469 90.4891 92.3383 -21.5286 132.757 -18.8651 -26.452 142.21 -2.93043 -17.4738 144.24 -1.22475 -2.63812 152.851 0.682547 4.7561 160.376 -2.95877 -18.1555 185.462 -22.2727 16.0461 7.11833 13.5682 
156.637 127.098 111.427 112.094 124.797 149.712 99.9182 92.9409 90.7499 92.4987 -21.6811 133.06 -18.9353 -26.6681 142.096 -3.30788 -17.7659 144.603 -1.50483 -2.82514 152.758 0.243473 4.51475 160.464 -3.24094 -18.2916 185.741 -22.459 16.1258 6.76214 13.7358 
156.553 127.461 111.252 111.151 124.257 149.909 100.346 93.2305 91.0777 92.5651 -21.8855 133.282 -18.9477 -26.8712 141.986 -3.52954 -17.9236 144.574 -1.69085 -3.05476 152.697 0.0352364 4.27058 160.608 -3.38709 -18.4225 186.004 -22.5943 16.1655 6.75411 13.6628 
156.551 127.435 111.006 110.184 124.006 150.197 100.756 93.48 91.276 92.6466 -22.1209 133.426 -18.7167 -27.2132 141.749 -3.8105 -18.1925 144.589 -1.79478 -3.3413 152.77 -0.0485635 3.9987 160.81 -3.37774 -18.5172 186.265 -22.7141 16.1868 6.75562 13.6426 
156.529 128 110.938 109.896 123.694 150.451 101.113 94.2277 91.2049 92.4887 -22.5161 133.528 -18.4513 -27.5873 141.559 -4.01618 -18.4552 144.361 -1.78357 -3.72018 153.01 -0.0314093 3.7127 161.057 -3.37512 -18.6758 186.491 -22.8097 16.148 7.03781 13.543 
156.414 128.84 111.87 110.925 123.65 150.701 101.32 94.4187 90.3862 91.7705 -22.7405 133.661 -18.2838 -27.8559 141.389 -4.22167 -18.6865 144.533 -1.56252 -4.04645 153.767 0.18352 3.57238 161.567 -3.27239 -18.8093 186.668 -22.8755 16.0386 7.36098 13.6659 
156.464 129.307 113.284 112.851 123.695 151.026 101.502 93.4293 88.8027 90.4962 -22.9975 133.575 -18.183 -28.0205 141.079 -4.46302 -18.9619 145.454 -1.18675 -4.33731 155.021 0.529801 3.53488 162.281 -3.12121 -18.9096 186.688 -22.9279 15.9344 7.54318 14.2727 
156.739 129.61 114.858 114.502 123.683 151.32 101.546 92.2079 87.4373 89.3185 -23.3583 133.584 -18.1626 -28.5037 141.024 -4.73027 -19.6472 146.432 -0.978902 -4.9808 156.004 0.743526 3.07252 162.699 -3.09248 -19.0374 186.952 -22.9534 16.0527 7.62079 14.999 
156.813 130.061 116.611 116.04 124.103 151.226 101.344 90.1178 86.2871 88.3482 -23.6748 133.709 -18.1894 -28.9693 141.165 -4.98238 -20.4167 148.002 -0.880725 -5.5589 157.037 0.946489 2.72944 163.341 -2.96286 -19.1628 187.031 -23.0918 16.0181 7.29888 16.0211 
156.794 129.679 118.076 117.453 124.726 150.786 100.642 87.3996 84.8201 87.124 -24.3013 134.001 -18.0694 -29.8729 141.549 -5.35266 -21.6087 149.925 -0.954152 -6.45703 158.216 1.09076 2.11164 164.1 -2.79238 -19.3407 187.158 -23.2244 16.0232 6.87874 17.2988 
156.612 129.485 121.151 120.211 126.201 150.242 99.9313 84.7371 83.3827 85.7649 -25.1091 134.538 -17.9149 -30.7113 142.267 -5.68399 -22.8436 152.466 -0.812215 -7.5547 159.984 1.37194 1.42024 165.333 -2.61931 -19.5469 187.513 -23.4254 15.9267 6.57602 19.0588 
156.497 128.712 123.555 122.413 127.516 149.732 99.1094 82.7095 82.178 84.5057 -26.2175 135.042 -17.6528 -31.6173 142.707 -6.37231 -23.9729 154.467 -0.944258 -8.53112 161.517 1.42111 0.816586 166.471 -2.63854 -19.7535 187.9 -23.6876 15.8208 6.38176 20.7198 
156.545 127.797 125.403 124.471 128.751 149.249 98.5239 81.0908 81.1784 83.3147 -27.2872 135.437 -17.3419 -32.2174 142.939 -6.86165 -24.6825 156.147 -1.06504 -9.2295 162.955 1.43043 0.426302 167.588 -2.77464 -19.9746 188.196 -23.9612 15.7272 6.37485 22.1689 
156.359 126.843 127.516 126.888 130.082 148.715 98.0291 79.5647 80.1574 82.0358 -28.5201 135.871 -17.2659 -32.7501 143.304 -7.39318 -25.3456 157.903 -1.3006 -9.92103 164.485 1.27775 0.0443794 168.768 -3.11546 -20.2762 188.529 -24.323 15.6451 6.40469 23.6362 
156.457 125.943 128.333 128.427 131.148 148.235 97.333 78.2366 79.2882 80.9565 -29.3999 136.383 -16.9917 -33.154 143.633 -7.76445 -25.6843 159.12 -1.61397 -10.3242 165.701 1.1215 -0.177024 169.825 -3.37049 -20.6233 188.845 -24.5902 15.5724 6.55227 24.5391 
