154.178 129.527 129.282 129.519 131.016 144.853 97.7735 80.7156 81.2061 81.891 -40.6835 130.81 -45.3138 -42.1332 140.822 -32.3783 -35.4514 155.921 -29.0916 -21.2465 162.671 -28.1929 -11.7039 166.271 -34.0857 -34.212 181.442 -56.5652 15.6546 7.11452 22.5383 
154.291 129.688 128.899 128.835 130.763 145.007 98.3837 81.3023 81.6431 82.4152 -40.6683 130.61 -45.2285 -42.155 140.26 -32.4165 -35.5604 155.391 -29.0038 -21.309 162.186 -28.1582 -11.7718 165.922 -33.9911 -34.2856 181.288 -56.6693 15.5532 7.02187 22.5515 
154.269 129.641 128.988 128.762 130.823 145.008 99.0826 81.6325 81.9582 82.7549 -40.756 130.547 -45.1684 -42.0916 139.581 -32.5852 -35.6278 155.157 -28.9514 -21.3767 161.97 -28.124 -11.7823 165.756 -33.9612 -34.3268 181.195 -56.7741 15.4225 6.99604 22.9752 
154.334 129.572 129.156 128.808 130.999 144.984 99.5272 81.854 82.2489 83.0329 -40.9132 130.346 -45.14 -42.0676 139.061 -32.7654 -35.6831 154.967 -28.9475 -21.4511 161.766 -28.0788 -11.7781 165.586 -33.9114 -34.3097 181.065 -56.8663 15.2918 6.97983 23.2588 
154.331 129.816 129.499 128.924 131.213 144.84 99.7838 81.9583 82.4702 83.3143 -41.0283 130.375 -45.2319 -42.1026 138.841 -32.928 -35.7756 154.968 -28.9981 -21.5574 161.665 -28.1109 -11.8605 165.505 -33.9403 -34.3367 181.06 -56.9853 15.2446 6.95326 23.4608 
154.26 130.06 129.875 129.301 131.53 144.719 100.156 82.002 82.6227 83.514 -41.1078 130.464 -45.1802 -42.1285 138.603 -33.1177 -35.8611 155.132 -29.0518 -21.7009 161.821 -28.1408 -11.9496 165.621 -34.0018 -34.4052 181.144 -57.1154 15.1757 7.00761 23.8248 
154.281 130.182 130.393 129.641 131.882 144.676 100.389 81.9634 82.731 83.6387 -41.1943 130.421 -45.2835 -42.1672 138.44 -33.3524 -35.9767 155.346 -29.1402 -21.839 161.918 -28.2099 -12.0286 165.672 -34.0862 -34.4416 181.17 -57.2545 15.1154 7.0045 24.2057 
154.293 130.489 130.889 130.025 132.203 144.56 100.368 81.9277 82.7792 83.6938 -41.3499 130.383 -45.3763 -42.2677 138.501 -33.5108 -36.0862 155.594 -29.2319 -21.9869 162.059 -28.3107 -12.1323 165.749 -34.22 -34.5051 181.191 -57.3988 15.088 7.03071 24.3836 
154.326 130.786 131.352 130.636 132.58 144.505 100.514 81.8096 82.7005 83.6115 -41.4556 130.378 -45.532 -42.351 138.449 -33.6799 -36.2066 155.934 -29.3306 -22.1661 162.355 -28.3881 -12.2355 165.898 -34.3329 -34.5472 181.218 -57.528 15.0725 7.10164 24.7286 
154.42 131.25 131.57 130.81 132.806 144.485 100.325 81.8636 82.7555 83.7006 -41.6059 130.317 -45.7154 -42.5094 138.642 -33.8688 -36.3302 156.028 -29.5008 -22.3003 162.385 -28.5655 -12.357 165.884 -34.506 -34.617 181.23 -57.7456 15.0767 7.09962 24.6395 
154.467 131.548 132.068 131.569 133.223 144.461 99.9422 81.6475 82.5947 83.4909 -41.702 130.247 -45.8871 -42.6883 139.021 -34.0063 -36.4731 156.415 -29.6761 -22.5018 162.733 -28.7024 -12.4846 166.054 -34.6955 -34.6567 181.229 -57.9136 15.0877 7.19038 24.6797 
154.517 131.662 132.337 132.015 133.434 144.614 99.8785 81.5057 82.466 83.3342 -41.7379 130.116 -46.0099 -42.7812 139.096 -34.0684 -36.5745 156.651 -29.7579 -22.6353 162.954 -28.7639 -12.5556 166.144 -34.7771 -34.6848 181.174 -57.9952 15.0771 7.24497 24.8256 
154.527 131.996 132.702 132.488 133.64 144.678 99.7575 81.3925 82.3228 83.1486 -41.6624 130.024 -45.9816 -42.7543 139.233 -34.1074 -36.5657 156.94 -29.8072 -22.6698 163.275 -28.8414 -12.551 166.356 -34.8998 -34.6919 181.166 -58.0811 15.0827 7.30357 24.9635 
154.577 132.256 133.19 132.867 133.633 145.004 99.6832 81.0074 81.8784 82.5994 -41.5488 129.904 -46.1102 -42.5174 139.256 -34.1099 -36.3842 157.079 -29.905 -22.5476 163.439 -28.9838 -12.4773 166.378 -35.0769 -34.6721 181.202 -58.0986 15.284 7.36393 25.0414 
154.593 132.431 133.567 133.266 133.89 144.987 99.7125 80.9052 81.8545 82.4956 -41.4397 129.697 -46.0936 -42.4583 139.211 -34.0015 -36.3911 157.233 -29.8702 -22.5723 163.539 -28.9358 -12.462 166.397 -35.0713 -34.6442 180.994 -58.1239 15.2646 7.37593 25.1993 
154.488 132.871 133.803 133.658 134.293 144.827 99.4634 80.9399 81.7453 82.3473 -41.5962 129.625 -46.0306 -42.7018 139.45 -33.8427 -36.5527 157.351 -29.79 -22.7687 163.657 -28.9074 -12.5538 166.464 -35.0229 -34.6723 180.814 -58.1583 15.1355 7.46636 25.1051 
154.492 132.958 133.957 133.87 134.426 144.717 99.0584 80.8874 81.7041 82.211 -41.5899 129.494 -46.0999 -42.6791 139.71 -33.7627 -36.5413 157.429 -29.7972 -22.7644 163.725 -28.9133 -12.5271 166.517 -35.0557 -34.6434 180.653 -58.1983 15.1238 7.46139 24.9384 
154.482 132.927 133.915 133.966 134.456 144.646 98.7156 80.8401 81.6541 82.1041 -41.5992 129.375 -46.0391 -42.6694 139.878 -33.634 -36.5222 157.437 -29.7724 -22.7525 163.76 -28.8948 -12.4979 166.538 -35.0553 -34.6359 180.496 -58.1973 15.107 7.46686 24.7724 
154.438 132.774 133.897 133.912 134.343 144.54 98.2489 80.6844 81.4968 81.9808 -41.638 129.315 -45.9938 -42.7992 140.041 -33.6045 -36.5965 157.35 -29.8179 -22.7866 163.631 -28.9294 -12.5281 166.409 -35.0479 -34.6153 180.343 -58.1915 15.131 7.42813 24.572 
154.356 132.611 133.94 133.963 134.326 144.487 98.0173 80.5347 81.3505 81.8523 -41.7173 129.313 -45.9792 -42.8719 140.097 -33.6572 -36.6821 157.377 -29.8629 -22.8572 163.678 -28.9534 -12.5786 166.445 -35.049 -34.6106 180.287 -58.1924 15.1419 7.42747 24.6154 
154.064 132.71 132.557 132.936 133.512 144.371 96.9303 79.9817 80.2189 81.4908 -41.8977 129.625 -45.7981 -44.2289 140.905 -33.2792 -37.5461 156.488 -30.0886 -23.3908 162.603 -29.1756 -13.2341 165.296 -34.7584 -34.7142 179.986 -58.0578 15.4529 7.25529 23.2037 
154.029 132.948 130.574 131.031 132.511 144.218 95.526 79.3854 79.5961 81.5423 -41.5731 129.905 -45.8866 -45.1921 141.764 -33.11 -38.0923 155.291 -30.5205 -23.6327 161.181 -29.4289 -13.7541 164.094 -34.5996 -34.7917 179.75 -57.9484 15.8212 7.01407 21.5458 
154.127 133.154 128.746 129.071 131.661 144.059 93.9947 79.0087 79.423 81.7947 -41.2276 130.156 -46.1031 -45.9835 142.643 -33.1274 -38.5012 154.145 -30.9469 -23.855 159.828 -29.6457 -14.1579 163.029 -34.52 -34.8911 179.573 -57.8984 16.0044 6.86474 20.0191 
154.353 133.298 127.151 127.058 130.725 143.986 92.666 78.8367 79.508 82.213 -40.8688 130.282 -46.4281 -46.4955 143.362 -33.1918 -38.706 153.054 -31.3209 -23.8967 158.539 -29.8568 -14.368 162.054 -34.4939 -34.9549 179.405 -57.8744 16.1202 6.688 18.7044 
154.567 133.333 125.773 125.483 129.96 143.872 91.4561 78.8088 79.8503 82.7749 -40.5953 130.406 -46.7674 -46.8629 143.945 -33.2894 -38.8192 152.103 -31.6032 -23.9488 157.448 -29.9494 -14.4982 161.227 -34.441 -35.008 179.268 -57.8422 16.1172 6.61153 17.6759 
154.769 133.344 124.825 124.502 129.404 143.796 90.4422 78.8236 80.2602 83.3545 -40.4375 130.5 -47.1644 -47.1348 144.486 -33.3856 -38.8891 151.457 -31.8084 -24.0367 156.703 -29.9718 -14.6019 160.637 -34.4028 -35.0788 179.194 -57.8176 16.0612 6.62465 16.9411 
154.936 133.36 124.043 123.595 128.905 143.786 89.7065 79.0816 80.8265 84.012 -40.2353 130.439 -47.3897 -47.2448 144.8 -33.3871 -38.8195 150.822 -31.8527 -23.9971 155.994 -29.9312 -14.5808 160.077 -34.3477 -35.1561 179.069 -57.7712 15.9594 6.62868 16.3482 
155.086 133.412 123.752 123.18 128.658 143.814 89.1735 79.4291 81.4545 84.6348 -40.0995 130.288 -47.5539 -47.258 145.029 -33.3327 -38.6986 150.375 -31.7671 -23.9228 155.482 -29.8038 -14.4994 159.663 -34.2754 -35.2385 178.934 -57.7279 15.8248 6.63822 15.9428 
155.223 133.483 123.507 122.675 128.456 143.859 88.958 79.8556 82.1953 85.3718 -39.9365 130.11 -47.6899 -47.1459 145.059 -33.2496 -38.4688 149.952 -31.6711 -23.7393 154.984 -29.6988 -14.3377 159.301 -34.2233 -35.3343 178.842 -57.6753 15.6731 6.62605 15.6096 
155.3 133.606 123.334 122.219 128.247 143.894 88.829 80.3245 82.8968 86.0095 -39.8367 129.787 -47.6506 -47.0168 144.962 -33.0578 -38.2176 149.504 -31.4626 -23.5209 154.437 -29.5361 -14.1388 158.856 -34.126 -35.4268 178.635 -57.563 15.5232 6.6059 15.3129 
155.357 133.819 123.723 122.565 128.343 143.842 88.6581 80.6393 83.3485 86.4533 -39.7866 129.438 -47.6337 -46.9882 144.943 -32.8347 -38.092 149.31 -31.178 -23.4837 154.172 -29.2852 -14.0268 158.504 -33.9681 -35.5269 178.363 -57.4319 15.3468 6.67306 15.1321 
155.404 133.994 124.244 123.417 128.67 143.699 88.4786 80.7773 83.5207 86.6399 -39.9168 129.053 -47.6199 -47.0868 144.927 -32.6562 -38.0698 149.244 -30.9431 -23.5871 154.086 -29.0513 -14.0159 158.208 -33.8338 -35.6472 178.058 -57.298 15.202 6.81466 14.9892 
155.419 134.274 124.89 124.108 128.965 143.591 88.406 80.9472 83.6253 86.6921 -40.1408 128.688 -47.5779 -47.1466 144.804 -32.4468 -38.0311 149.207 -30.6489 -23.6375 154.011 -28.8546 -13.9791 157.987 -33.7353 -35.7905 177.778 -57.1316 15.0821 6.90806 14.9119 
155.43 134.25 125.083 124.432 129.088 143.507 88.2868 80.8975 83.5816 86.7067 -40.466 128.401 -47.4813 -47.2284 144.592 -32.3044 -38.0607 149.125 -30.4675 -23.715 153.89 -28.7027 -13.9932 157.754 -33.5971 -35.9043 177.533 -56.9392 15.0038 6.96694 14.915 
155.489 134.398 125.022 124.354 129.087 143.454 88.3614 81.2382 83.8288 86.9731 -40.76 127.827 -47.2192 -47.2791 144.015 -31.9056 -38.0397 148.517 -30.0545 -23.7317 153.276 -28.4087 -14.0058 157.155 -33.3154 -36.1421 177.056 -56.5545 14.9024 6.98307 14.7726 
155.578 134.341 124.785 124.046 128.992 143.427 88.8146 81.3473 83.8514 86.9225 -40.9887 127.478 -46.9843 -47.2378 143.326 -31.7983 -38.0654 148.134 -29.9645 -23.7179 152.899 -28.3646 -14.0222 156.855 -33.2382 -36.2034 176.806 -56.4033 14.8994 6.9316 14.8947 
155.615 134.013 124.267 123.637 128.801 143.484 89.1868 81.4022 83.9086 86.9574 -41.0935 127.124 -46.7023 -47.1318 142.644 -31.6457 -38.0292 147.72 -29.8451 -23.6888 152.563 -28.2296 -14.0209 156.585 -33.0761 -36.2546 176.528 -56.2147 14.8927 6.92947 15.0097 
155.569 133.778 124.011 123.694 128.893 143.512 89.6688 81.5333 83.9106 86.918 -41.1676 126.851 -46.4769 -47.081 141.951 -31.5509 -38.0681 147.363 -29.713 -23.7738 152.406 -28.0766 -14.0843 156.453 -32.9292 -36.328 176.302 -56.0534 14.8564 6.98688 15.201 
155.591 133.44 123.488 122.953 128.682 143.633 90.1563 81.5324 83.9451 86.9824 -41.2635 126.533 -46.1463 -47.0861 141.252 -31.4 -38.1674 146.925 -29.6239 -23.7991 151.97 -27.9641 -14.1811 156.147 -32.7204 -36.3673 176.057 -55.8694 14.9023 6.8924 15.3389 
155.543 133.119 123.191 122.559 128.64 143.649 90.5159 81.5049 83.9721 86.9214 -41.2645 126.31 -45.9381 -47.0651 140.698 -31.2764 -38.2481 146.61 -29.5159 -23.8492 151.709 -27.7924 -14.2796 156.007 -32.516 -36.3901 175.822 -55.7126 14.95 6.84742 15.4963 
155.542 132.69 122.794 122.123 128.611 143.711 90.9969 81.398 83.9701 86.8515 -41.3207 126.038 -45.6447 -47.1284 139.99 -31.1711 -38.437 146.236 -29.4333 -23.979 151.363 -27.5816 -14.4597 155.768 -32.2379 -36.3909 175.548 -55.5344 15.022 6.78242 15.7311 
155.459 132.266 122.566 121.935 128.656 143.633 91.3005 81.135 83.7792 86.6088 -41.4389 125.93 -45.3374 -47.3048 139.442 -31.1071 -38.7379 145.983 -29.3822 -24.2035 151.136 -27.3794 -14.6998 155.611 -31.961 -36.3774 175.322 -55.382 15.1097 6.70781 15.9852 
155.376 131.869 122.659 121.975 128.806 143.731 91.6842 80.8266 83.5132 86.3272 -41.5619 125.793 -45.1026 -47.3928 138.898 -31.0453 -39.0128 145.923 -29.2795 -24.4271 151.121 -27.1437 -14.9051 155.595 -31.6684 -36.3389 175.116 -55.2367 15.176 6.66253 16.4074 
155.296 131.432 122.696 122.052 128.924 143.789 92.0573 80.5586 83.1992 86.013 -41.6537 125.677 -44.8468 -47.5 138.356 -31.0231 -39.267 145.835 -29.2036 -24.6538 151.121 -26.9708 -15.1255 155.586 -31.4516 -36.3215 174.917 -55.1345 15.2677 6.65535 16.7994 
155.164 131.038 122.743 122.123 129.104 143.762 92.3413 80.2395 82.8015 85.6503 -41.751 125.688 -44.5831 -47.6908 137.882 -31.0143 -39.5918 145.724 -29.1447 -24.9186 151.076 -26.8148 -15.398 155.545 -31.216 -36.3136 174.76 -55.0116 15.3858 6.62033 17.1677 
155.007 130.709 122.885 122.442 129.369 143.661 92.5559 79.8963 82.4299 85.2936 -41.7961 125.699 -44.3896 -47.9147 137.498 -31.0411 -39.921 145.683 -29.1293 -25.2341 151.101 -26.6805 -15.6898 155.528 -31.0404 -36.3178 174.611 -54.918 15.4832 6.64636 17.5103 
154.911 130.169 123.031 122.532 129.574 143.65 92.917 79.5775 82.1197 84.9763 -41.7226 125.705 -44.2022 -47.9938 137.043 -31.0768 -40.1549 145.71 -29.1161 -25.4065 151.195 -26.5583 -15.871 155.635 -30.8657 -36.2858 174.502 -54.8599 15.5799 6.58984 17.9416 
154.848 129.708 123.077 122.6 129.707 143.708 93.2819 79.2901 81.8031 84.6271 -41.562 125.663 -44.017 -47.9543 136.52 -31.0796 -40.2663 145.626 -29.0873 -25.4621 151.221 -26.4361 -15.9587 155.699 -30.7088 -36.2245 174.366 -54.7688 15.697 6.53856 18.3306 
154.772 129.47 123.32 122.819 129.923 143.711 93.5831 79.032 81.4949 84.2878 -41.4928 125.645 -43.9512 -47.9946 136.116 -31.1459 -40.4183 145.634 -29.0962 -25.6025 151.291 -26.387 -16.1038 155.769 -30.6465 -36.1906 174.256 -54.7427 15.8016 6.54521 18.7017 
154.705 129.355 123.499 123.19 130.221 143.704 93.9375 78.8568 81.2413 83.9578 -41.4127 125.628 -43.8844 -48.0094 135.731 -31.176 -40.5345 145.606 -29.0926 -25.7173 151.382 -26.3108 -16.217 155.852 -30.5801 -36.1511 174.144 -54.7251 15.8907 6.57797 19.0157 
154.669 129.277 123.902 123.658 130.663 143.832 94.5152 78.6414 80.8849 83.5443 -41.4317 125.6 -43.6485 -48.0364 135.165 -31.1559 -40.764 145.602 -29.012 -25.8981 151.55 -26.1418 -16.3738 156.029 -30.3796 -36.082 174.042 -54.6708 15.97 6.55728 19.5317 
154.626 129.407 124.175 123.903 130.754 143.948 94.6929 78.6126 80.711 83.3522 -41.5021 125.611 -43.532 -48.0508 135.038 -31.1502 -40.8563 145.682 -28.9473 -25.9694 151.709 -26.091 -16.4232 156.174 -30.3231 -36.0501 174.05 -54.6846 15.9971 6.54983 19.7409 
154.598 129.199 124.543 124.392 131.007 143.982 94.9819 78.3937 80.4761 83.1065 -41.5234 125.614 -43.4688 -48.0269 134.716 -31.2201 -40.8958 145.817 -28.9566 -26.0303 151.883 -26.0374 -16.4143 156.276 -30.2462 -35.9766 174.002 -54.7031 15.9742 6.57973 20.0914 
154.611 129.337 124.758 124.481 131.076 143.99 95.0349 78.2591 80.3239 82.9821 -41.6395 125.64 -43.5271 -48.0357 134.664 -31.2377 -40.9256 145.891 -28.9851 -26.0499 151.901 -26.0573 -16.4372 156.275 -30.2292 -35.9091 173.963 -54.7562 16.0207 6.54301 20.1858 
154.556 129.515 124.865 124.299 130.915 144.05 95.2077 78.2838 80.2837 82.9495 -41.6663 125.625 -43.6203 -47.9073 134.466 -31.2967 -40.8302 145.832 -29.0318 -25.9067 151.802 -26.156 -16.3257 156.223 -30.3067 -35.847 173.925 -54.8465 16.0445 6.45355 20.2639 
154.538 129.671 125.011 124.2 130.869 144.034 95.2219 78.2388 80.265 82.9431 -41.773 125.658 -43.7588 -47.7781 134.383 -31.388 -40.7043 145.842 -29.1202 -25.7674 151.75 -26.2892 -16.213 156.206 -30.4366 -35.8038 173.913 -54.9683 16.0566 6.4048 20.3105 
154.529 129.967 125.124 124.054 130.798 143.965 95.315 78.3165 80.394 83.0764 -41.7472 125.682 -43.8875 -47.6734 134.354 -31.4741 -40.5843 145.873 -29.2164 -25.6582 151.696 -26.4478 -16.1256 156.179 -30.6136 -35.7919 173.928 -55.1316 16.0437 6.38486 20.3026 
154.561 130.288 124.982 123.786 130.681 143.913 95.4076 78.4894 80.6136 83.2721 -41.7358 125.638 -44.0157 -47.5232 134.342 -31.4775 -40.4013 145.767 -29.2882 -25.4981 151.52 -26.5826 -15.9989 156.049 -30.774 -35.7797 173.88 -55.2858 16.0183 6.38052 20.1451 
154.646 130.527 124.9 123.452 130.469 143.959 95.5477 78.6906 80.91 83.56 -41.5254 125.518 -44.0537 -47.1803 134.281 -31.4506 -40.0546 145.702 -29.3084 -25.1865 151.415 -26.7007 -15.7548 156.013 -30.9494 -35.7658 173.847 -55.4306 15.9936 6.37593 20.0487 
154.716 130.787 124.604 123.081 130.28 143.966 95.5106 78.7875 81.1217 83.8318 -41.4599 125.495 -44.125 -47.0045 134.321 -31.4724 -39.8409 145.578 -29.4157 -24.9866 151.24 -26.8534 -15.6107 155.901 -31.111 -35.7704 173.848 -55.568 15.9761 6.36052 19.8534 
154.802 130.993 124.283 122.985 130.163 143.962 95.4362 78.8819 81.2876 84.0997 -41.441 125.532 -44.1784 -46.8974 134.445 -31.4943 -39.6731 145.544 -29.5076 -24.8998 151.243 -26.9719 -15.5271 155.884 -31.2567 -35.8111 173.906 -55.6917 15.9238 6.454 19.6671 
154.949 131.081 124.184 123.028 130.114 144.054 95.4609 79.0455 81.4827 84.367 -41.3761 125.421 -44.1454 -46.7203 134.473 -31.4271 -39.4942 145.511 -29.4815 -24.787 151.244 -26.9905 -15.4092 155.842 -31.3108 -35.8162 173.869 -55.7832 15.8592 6.513 19.5695 
155.098 131.028 124.106 122.424 129.83 144.213 95.58 79.1182 81.7148 84.7026 -41.3339 125.26 -44.0042 -46.5092 134.349 -31.3226 -39.3227 145.418 -29.4331 -24.5531 151.011 -27.0118 -15.2658 155.693 -31.3041 -35.8151 173.803 -55.8216 15.8613 6.37959 19.5458 
155.169 130.885 123.953 122.127 129.694 144.303 95.687 79.1546 81.9135 84.9778 -41.4288 125.225 -43.8998 -46.3946 134.255 -31.2983 -39.2342 145.447 -29.424 -24.4635 150.983 -27.025 -15.203 155.695 -31.3273 -35.8504 173.806 -55.8931 15.8263 6.3476 19.6111 
155.22 130.391 123.795 122.06 129.617 144.449 95.8488 79.0766 81.951 85.0082 -41.4842 125.146 -43.7873 -46.1968 133.97 -31.3434 -39.0907 145.499 -29.4348 -24.3462 151.118 -27.0327 -15.1088 155.842 -31.3913 -35.9019 173.778 -55.9485 15.8207 6.36288 19.8511 
155.353 129.951 123.725 121.494 129.329 144.739 96.189 79.0001 82.0485 85.163 -41.4088 124.976 -43.5597 -45.896 133.511 -31.2881 -38.8927 145.428 -29.3899 -24.0413 150.995 -27.0278 -14.9303 155.837 -31.3779 -35.9048 173.692 -55.9762 15.8761 6.18507 20.1046 
155.519 129.716 124.399 121.505 129.074 145.415 96.2041 78.1861 81.2886 84.3891 -41.3613 124.89 -43.5062 -45.6311 133.094 -31.3593 -38.7049 145.474 -29.487 -23.7388 150.935 -27.1903 -14.7264 155.754 -31.5547 -35.9097 173.726 -55.9229 16.124 6.04094 20.495 
155.601 129.52 124.012 120.862 128.698 145.707 96.6517 78.1126 81.4076 84.5502 -41.2294 124.728 -43.2358 -45.3849 132.455 -31.3307 -38.5639 145.175 -29.4923 -23.4762 150.68 -27.1724 -14.5933 155.68 -31.5334 -35.9287 173.594 -55.9286 16.1793 5.8636 20.7293 
155.639 129.385 123.542 119.994 128.262 145.867 97.1318 78.1262 81.6052 84.8013 -41.0796 124.681 -42.9216 -45.2064 131.894 -31.2438 -38.451 144.884 -29.4662 -23.2485 150.403 -27.1654 -14.4882 155.611 -31.503 -35.9697 173.504 -55.942 16.2015 5.7011 20.8751 
155.661 129.061 123.239 119.164 127.908 146.02 97.6914 78.1425 81.8489 85.0084 -41.0393 124.54 -42.5802 -45.0348 131.186 -31.1555 -38.3763 144.574 -29.3874 -23.0453 150.037 -27.1073 -14.3877 155.465 -31.4333 -36.008 173.329 -55.9326 16.2022 5.52208 21.1408 
155.621 128.73 122.877 118.587 127.633 146.124 98.2572 78.0461 81.9496 85.0997 -41.1304 124.47 -42.2881 -45.0192 130.458 -31.1361 -38.463 144.285 -29.367 -23.0321 149.761 -27.0253 -14.4182 155.342 -31.3235 -36.0758 173.161 -55.9068 16.1919 5.386 21.4804 
155.562 128.351 122.559 118.429 127.537 146.25 98.9688 78.1267 81.9311 85.1012 -41.1486 124.43 -41.9587 -45.0503 129.719 -31.1557 -38.5964 144.06 -29.282 -23.1726 149.763 -26.936 -14.5411 155.402 -31.2412 -36.1821 173.062 -55.8871 16.1633 5.37879 21.899 
155.543 128.105 122.437 118.557 127.585 146.36 99.7853 78.3783 81.9067 85.0265 -41.2162 124.316 -41.648 -45.098 128.988 -31.0902 -38.7756 143.79 -29.103 -23.3496 149.793 -26.7831 -14.6834 155.462 -31.1131 -36.3008 172.92 -55.8547 16.1238 5.36478 22.2672 
155.474 127.983 122.493 119.013 127.847 146.328 100.536 78.4857 81.8071 84.8733 -41.3104 124.246 -41.3764 -45.1724 128.295 -31.0636 -38.9624 143.611 -28.9802 -23.6001 149.915 -26.6379 -14.8475 155.552 -31.0061 -36.391 172.773 -55.8367 16.059 5.45804 22.6807 
155.429 127.899 122.642 119.775 128.232 146.338 101.29 78.5682 81.6202 84.6667 -41.3964 124.17 -41.1806 -45.2576 127.673 -31.0558 -39.1702 143.552 -28.8598 -23.927 150.201 -26.4917 -15.0504 155.735 -30.9017 -36.4855 172.648 -55.8304 15.982 5.64852 23.1499 
155.38 128.015 122.912 120.649 128.665 146.342 102.054 78.7742 81.4577 84.3818 -41.4469 124.012 -40.9275 -45.228 126.996 -30.9659 -39.2808 143.417 -28.6496 -24.133 150.435 -26.3302 -15.1665 155.894 -30.8248 -36.5838 172.455 -55.8129 15.9265 5.822 23.5835 
155.333 128.184 123.691 121.845 129.315 146.354 102.741 79.0035 81.33 84.1293 -41.4809 123.804 -40.7027 -45.1391 126.438 -30.8651 -39.3459 143.483 -28.3781 -24.3285 150.817 -26.1711 -15.2311 156.151 -30.7782 -36.6535 172.281 -55.8173 15.8216 6.02223 24.1011 
155.284 128.274 123.774 122.502 129.602 146.353 103.452 79.1559 81.2451 83.9534 -41.4746 123.723 -40.5201 -45.0785 125.946 -30.777 -39.3914 143.478 -28.2368 -24.4773 151.13 -26.0638 -15.3095 156.386 -30.7489 -36.7607 172.183 -55.8205 15.7663 6.21646 24.4509 
155.186 128.072 123.964 123.35 130.009 146.344 104.312 79.1138 81.0274 83.6348 -41.6238 123.685 -40.4474 -44.9754 125.365 -30.7804 -39.433 143.619 -28.1634 -24.6425 151.581 -25.9987 -15.393 156.711 -30.7711 -36.8704 172.114 -55.8364 15.7313 6.46417 25.0423 
155.148 128.167 124.32 124.19 130.368 146.411 105.206 79.1233 80.8406 83.341 -41.7361 123.612 -40.3697 -44.8851 124.777 -30.8044 -39.5016 143.769 -28.0851 -24.7906 151.986 -25.9696 -15.4385 156.994 -30.8197 -36.9775 172.055 -55.8797 15.6554 6.64966 25.6641 
155.117 128.375 124.481 124.857 130.71 146.432 105.941 79.1013 80.6908 83.0724 -41.741 123.51 -40.2638 -44.7622 124.249 -30.7518 -39.5097 143.79 -28.0067 -24.863 152.221 -25.9149 -15.4573 157.153 -30.8285 -37.0644 171.93 -55.885 15.6163 6.79717 26.101 
155.064 128.647 125.342 125.935 131.203 146.472 106.644 79.0939 80.5528 82.7907 -41.752 123.376 -40.2084 -44.4997 123.803 -30.7192 -39.4386 144.106 -27.8706 -24.9183 152.71 -25.8839 -15.4032 157.502 -30.9065 -37.1309 171.84 -55.9401 15.5212 6.96038 26.7464 
155.022 129.013 126.18 126.997 131.715 146.435 107.253 79.1128 80.476 82.5315 -41.6908 123.198 -40.1332 -44.1859 123.413 -30.6274 -39.2948 144.4 -27.7237 -24.9232 153.133 -25.8429 -15.3302 157.81 -30.9884 -37.1759 171.722 -55.9757 15.4566 7.10861 27.2752 
154.975 129.274 126.819 127.75 132.139 146.471 107.878 79.1093 80.4262 82.3655 -41.7408 123.102 -40.0996 -43.9881 123.095 -30.5944 -39.2503 144.711 -27.631 -24.9751 153.498 -25.8147 -15.341 158.087 -31.0383 -37.2399 171.681 -56.0147 15.4306 7.19875 27.7902 
154.984 129.503 127.397 128.364 132.505 146.516 108.366 79.0964 80.4349 82.2869 -41.8481 122.996 -40.1093 -43.8338 122.858 -30.6068 -39.208 145.006 -27.5952 -25.0172 153.789 -25.818 -15.3502 158.309 -31.0976 -37.2912 171.669 -56.0791 15.4004 7.23757 28.2006 
154.994 129.782 127.946 128.987 132.847 146.589 109.041 79.0623 80.428 82.1752 -41.9499 122.839 -40.0812 -43.6829 122.482 -30.5848 -39.1877 145.305 -27.5365 -25.0957 154.068 -25.8036 -15.3835 158.495 -31.1536 -37.3534 171.61 -56.1182 15.373 7.3074 28.7319 
154.991 130.075 128.313 129.284 132.972 146.678 109.629 79.0133 80.4157 82.0768 -42.074 122.671 -40.0811 -43.5144 122.104 -30.5877 -39.1423 145.473 -27.5236 -25.0793 154.183 -25.8467 -15.3815 158.578 -31.2573 -37.4353 171.524 -56.1761 15.3853 7.28171 29.1628 
155.009 130.249 128.723 129.714 133.147 146.752 110.249 78.8676 80.313 81.8809 -42.1532 122.558 -40.0242 -43.2906 121.694 -30.5837 -39.0686 145.695 -27.5004 -25.0753 154.421 -25.8735 -15.3648 158.77 -31.3556 -37.5319 171.456 -56.2059 15.3793 7.32948 29.6917 
155.024 130.668 129.083 130.336 133.393 146.846 110.933 78.6424 80.1495 81.6327 -42.3058 122.431 -40.0228 -43.1064 121.258 -30.6348 -39.0373 145.928 -27.566 -25.1407 154.726 -25.9439 -15.3863 158.986 -31.4918 -37.6366 171.387 -56.2757 15.3627 7.4501 30.2551 
155.033 131.307 129.526 130.906 133.632 146.926 111.878 78.4653 80.035 81.4063 -42.4639 122.362 -39.9889 -42.8935 120.677 -30.6799 -39.0202 146.202 -27.5984 -25.1969 155.055 -26 -15.4057 159.249 -31.626 -37.7482 171.354 -56.3572 15.3434 7.52129 30.96 
