148.249 141.027 138.076 138.843 139.461 140.539 86.5725 84.2706 84.3409 81.1579 15.5731 177 -61.9893 12.323 198.08 -33.4222 23.9096 200.137 -31.835 35.5895 205.85 -30.1418 45.8068 212.378 -36.8456 21.588 230.358 -49.1118 14.1547 9.42441 10.4993 
148.42 140.837 137.952 138.703 139.427 140.667 86.594 84.3948 84.3208 81.2042 16.0339 176.599 -61.7811 13.1968 197.676 -33.3408 24.7565 199.792 -31.6941 36.4177 205.675 -30.0202 46.6429 212.244 -36.6814 22.2239 230.142 -48.9576 14.0614 9.40034 10.53 
148.802 140.675 137.837 138.605 139.362 140.964 86.66 84.508 84.3163 81.2581 16.3922 176.264 -61.6959 14.1584 197.36 -33.2151 25.6941 199.575 -31.5208 37.3282 205.634 -29.8396 47.5338 212.251 -36.4547 22.8971 229.995 -48.7993 13.9848 9.37372 10.5393 
148.966 140.764 137.795 138.564 139.205 141.076 86.4967 84.3543 84.1787 81.1452 16.7468 176.463 -62.0005 14.7952 197.421 -33.3829 26.3139 199.669 -31.644 37.9476 205.75 -29.8977 48.1738 212.396 -36.4519 23.5411 230.086 -48.7861 13.995 9.36699 10.5576 
149.003 140.934 137.766 138.538 138.965 141.115 86.4049 84.2221 84.0843 81.0228 17.122 176.54 -62.1914 15.2346 197.429 -33.4898 26.7127 199.667 -31.7219 38.3806 205.691 -29.9234 48.6542 212.317 -36.4515 24.1309 230.073 -48.7585 14.0177 9.35428 10.6027 
148.999 141.004 137.597 138.386 138.807 141.24 86.526 84.3025 84.1571 81.0638 18.163 175.981 -62.1277 16.4332 196.898 -33.3754 27.8727 199.16 -31.6176 39.5685 205.159 -29.8259 49.8909 211.768 -36.3336 25.3356 229.595 -48.6485 13.9343 9.31995 10.6168 
149.103 140.938 137.519 138.348 138.854 141.426 86.6024 84.4035 84.229 81.1167 18.5188 175.655 -62.0449 16.8578 196.556 -33.3009 28.2654 198.819 -31.5105 39.9467 204.858 -29.6999 50.2769 211.501 -36.1815 25.7178 229.327 -48.5836 13.9023 9.32299 10.6456 
149.002 140.809 137.442 138.274 138.719 141.547 86.6068 84.3587 84.1503 81.0651 18.9115 175.537 -61.8458 17.539 196.375 -33.296 28.9031 198.663 -31.494 40.5944 204.742 -29.6906 50.8995 211.386 -36.1748 26.3082 229.234 -48.5119 13.9262 9.32482 10.7133 
148.858 140.707 137.346 138.204 138.595 141.541 86.5251 84.2361 84.0417 81.0014 19.2774 175.447 -61.817 18.0732 196.322 -33.3046 29.4612 198.58 -31.5553 41.1649 204.639 -29.7426 51.483 211.282 -36.1963 26.8599 229.126 -48.4769 13.919 9.32104 10.695 
148.575 140.763 137.241 138.086 138.393 141.476 86.4328 84.0819 83.971 80.921 19.7341 175.103 -61.8396 18.4433 196.098 -33.3399 29.8454 198.368 -31.5932 41.5975 204.348 -29.7402 51.9579 210.968 -36.1681 27.4045 228.8 -48.4508 13.918 9.29177 10.6759 
148.605 140.784 137.201 137.972 138.158 141.6 86.4044 84.0805 83.9935 80.9556 20.2031 174.465 -61.613 18.8713 195.677 -33.3333 30.2285 197.887 -31.5415 42.01 203.827 -29.6685 52.4009 210.393 -36.0924 27.9608 228.341 -48.4341 13.94 9.27962 10.7456 
148.907 140.789 137.232 137.968 138.059 141.846 86.4262 84.1148 83.9906 80.959 20.6932 173.959 -61.4017 19.5267 195.334 -33.1859 30.8537 197.562 -31.3728 42.621 203.555 -29.514 52.9743 210.107 -35.9666 28.4979 228.008 -48.3575 13.9811 9.27602 10.7822 
148.795 140.768 137.199 137.871 137.937 141.898 86.3636 84.023 83.9018 80.8899 21.2045 173.665 -61.0937 20.2679 195.147 -33.0308 31.5735 197.457 -31.2329 43.3454 203.492 -29.4221 53.6673 210.036 -35.9011 29.0695 227.795 -48.3051 13.979 9.25534 10.8065 
148.609 140.784 137.19 137.818 137.848 141.94 86.1915 83.8179 83.6846 80.7369 21.4984 173.696 -61.0058 21.0225 195.209 -33.0702 32.3158 197.606 -31.2997 44.0982 203.697 -29.5224 54.3912 210.241 -36.0035 29.6322 227.838 -48.3205 13.9814 9.23487 10.833 
149.043 140.53 136.306 136.928 137.574 142.101 86.365 84.2543 84.2285 81.8608 21.5252 173.617 -61.6121 22.0037 194.676 -33.1815 32.7969 197.113 -31.2324 44.7199 203.269 -29.4452 54.9353 209.73 -35.7772 30.3072 227.492 -48.3991 14.0192 8.97434 11.3274 
149.595 140.556 135.62 136.28 137.452 142.145 86.3844 84.4465 84.5724 82.7075 21.5848 173.682 -62.2097 22.7861 194.536 -33.3589 33.2093 197 -31.2426 45.2351 203.116 -29.397 55.4117 209.432 -35.5954 31.0278 227.362 -48.5551 14.1097 8.80896 11.6988 
150.043 140.789 135.05 135.689 137.305 142.253 86.4631 84.6973 84.9449 83.4624 21.8301 173.67 -62.5374 23.4799 194.448 -33.3956 33.5381 196.892 -31.1376 45.6278 202.936 -29.2629 55.7916 209.086 -35.3913 31.7007 227.255 -48.6489 14.2006 8.70515 12.0688 
149.992 140.9 135.206 135.848 137.156 142.371 86.3878 84.5501 84.7003 83.026 22.1147 173.516 -62.5234 23.9344 194.407 -33.2189 34.2068 196.889 -31.0767 46.2539 202.972 -29.2212 56.4668 209.148 -35.3869 32.2492 227.11 -48.6023 14.1619 8.7498 11.799 
149.647 141.065 135.476 136.012 137.041 142.398 86.2417 84.3393 84.4313 82.5416 22.532 173.173 -62.1714 24.4009 194.276 -33.1156 34.8235 196.788 -31.0201 46.7853 202.914 -29.1747 57.0055 209.141 -35.3919 32.7059 226.91 -48.5196 14.1714 8.85827 11.6511 
149.63 141.183 135.091 135.655 137.082 142.334 86.1687 84.3992 84.5966 82.9583 22.743 172.937 -62.2296 25.1386 193.92 -33.1294 35.2934 196.512 -30.9287 47.3268 202.641 -29.0853 57.4789 208.811 -35.2561 33.2198 226.587 -48.5421 14.2413 8.73148 11.9267 
149.764 141.339 134.799 135.428 137.215 142.272 86.0926 84.4178 84.731 83.3582 22.9112 173.101 -62.7235 25.696 193.858 -33.1712 35.6553 196.463 -30.9446 47.7657 202.525 -29.103 57.8639 208.612 -35.2301 33.7544 226.43 -48.6523 14.3442 8.62352 12.1105 
150.148 141.556 134.523 135.237 137.331 142.214 85.9909 84.3836 84.7137 83.5695 23.1303 173.353 -63.4898 26.8153 193.763 -33.6908 36.5583 196.374 -31.3389 48.7756 202.389 -29.4443 58.9311 208.45 -35.4167 34.9362 226.442 -48.8952 14.321 8.50182 12.34 
150.43 141.549 134.241 134.935 137.302 142.313 86.2623 84.7916 85.0655 83.9787 23.1556 173.31 -63.6481 27.0465 193.492 -33.7773 36.6577 195.967 -31.3383 48.8805 201.942 -29.4183 59.0516 207.98 -35.3125 35.2345 226.336 -48.8944 14.2949 8.49201 12.4805 
150.52 141.677 134.108 134.803 137.308 142.417 86.3835 84.9293 85.2012 84.137 23.4791 173.023 -63.6387 27.4635 193.18 -33.8917 36.953 195.617 -31.3731 49.206 201.522 -29.4305 59.408 207.505 -35.291 35.7481 226.102 -48.9399 14.2928 8.48188 12.6197 
150.345 141.827 133.922 134.661 137.353 142.394 86.4495 85.0271 85.3781 84.3385 23.9395 172.543 -63.5188 27.7378 192.832 -33.8365 37.1468 195.246 -31.2944 49.4161 201.049 -29.3388 59.6138 206.956 -35.2079 36.1523 225.674 -48.9935 14.3388 8.48277 12.6983 
150.337 141.911 134.023 134.727 137.459 142.502 86.3788 84.8451 85.2075 84.2143 24.1157 172.378 -63.6054 28.1052 192.816 -34.0236 37.4823 195.316 -31.4474 49.8041 201.08 -29.504 60.0239 206.934 -35.3633 36.5655 225.602 -49.1441 14.3387 8.45154 12.7452 
150.161 141.926 134.179 134.895 137.562 142.427 86.2214 84.5563 84.9196 83.917 24.2706 172.402 -63.6488 28.6088 192.935 -34.2185 38.0207 195.57 -31.6532 50.3782 201.346 -29.7366 60.5729 207.206 -35.6099 36.9853 225.678 -49.2837 14.3753 8.41606 12.7094 
150.192 142.007 134.379 135.086 137.616 142.483 85.9816 84.2243 84.6252 83.6676 24.3602 172.627 -63.9351 28.9585 193.351 -34.5822 38.4246 195.996 -32.0324 50.8153 201.718 -30.1116 61.0125 207.535 -35.9889 37.4187 225.972 -49.5164 14.4336 8.41463 12.6918 
150.299 141.999 134.428 135.12 137.519 142.703 85.966 84.1865 84.5808 83.6118 24.5583 172.459 -64.0783 29.3746 193.284 -34.9057 38.8151 195.906 -32.286 51.1914 201.594 -30.3287 61.4025 207.395 -36.1917 37.8766 225.966 -49.6444 14.4596 8.45155 12.7532 
150.679 141.947 134.422 135.034 137.393 143.082 86.0124 84.2613 84.6262 83.6602 24.8903 172.078 -64.1022 29.9332 193.037 -35.0803 39.2952 195.66 -32.3604 51.6282 201.374 -30.3959 61.8432 207.146 -36.2716 38.3546 225.811 -49.7366 14.4646 8.50381 12.8744 
151.033 141.921 134.411 134.97 137.306 143.368 86.0487 84.3348 84.6607 83.686 25.2696 171.829 -64.1693 30.3404 192.89 -35.2767 39.6826 195.44 -32.498 51.9769 201.145 -30.5071 62.2249 206.88 -36.3643 38.838 225.718 -49.8799 14.4631 8.56239 12.9254 
151.213 141.814 134.4 134.968 137.254 143.535 86.1036 84.3807 84.6727 83.6409 25.7639 171.568 -64.2528 30.8374 192.65 -35.4299 40.204 195.168 -32.63 52.4776 200.883 -30.6089 62.7371 206.642 -36.4473 39.3593 225.566 -49.9582 14.4515 8.58893 12.9083 
151.117 141.598 134.315 134.852 137.108 143.526 86.2548 84.5039 84.7073 83.5445 26.2624 170.907 -64.1183 31.5243 192.015 -35.4823 40.9118 194.618 -32.676 53.1582 200.453 -30.683 63.3877 206.31 -36.5254 39.7851 225.116 -50.0071 14.3869 8.57552 12.8634 
151.097 141.635 134.469 134.979 137.179 143.452 86.0776 84.2688 84.4642 83.2868 26.8765 170.727 -64.0094 32.1202 192.097 -35.4555 41.6051 194.745 -32.7614 53.8553 200.642 -30.8295 64.0301 206.508 -36.7248 40.2484 225.059 -50.1493 14.4302 8.55994 12.7598 
151.244 141.426 134.49 134.956 137.148 143.503 85.9987 84.2096 84.3769 83.2048 27.2521 170.48 -64.0528 32.6925 192.035 -35.5301 42.2273 194.694 -32.8876 54.4925 200.672 -30.9879 64.6379 206.567 -36.8857 40.7015 224.964 -50.286 14.4083 8.5202 12.703 
151.276 141.382 134.619 135.149 137.242 143.429 85.793 83.946 84.1628 83.0622 27.7146 170.826 -64.5256 33.1584 192.359 -35.8949 42.7361 194.963 -33.2838 55.0358 200.906 -31.315 65.1931 206.802 -37.1509 41.2761 225.197 -50.4726 14.4369 8.50191 12.6819 
151.273 141.356 134.567 135.184 137.162 143.307 85.727 83.8458 84.0908 83.0254 28.3033 171.023 -64.968 33.5332 192.464 -36.2396 43.1178 194.964 -33.6552 55.4392 200.828 -31.6083 65.6081 206.707 -37.3865 41.8409 225.264 -50.6268 14.5014 8.50413 12.683 
151.329 141.413 134.566 135.329 137.213 143.277 85.6464 83.7472 84.0166 82.9962 28.9514 171.491 -65.724 33.733 192.737 -36.6302 43.3455 195.057 -34.0977 55.689 200.778 -31.9551 65.8924 206.603 -37.673 42.4115 225.413 -50.8529 14.6109 8.52073 12.6561 
151.312 141.367 134.441 135.284 137.137 143.221 85.618 83.7806 84.0466 83.0322 29.6372 171.293 -65.9607 34.0939 192.621 -36.6032 43.7062 194.846 -34.1364 56.0603 200.539 -31.9575 66.2721 206.318 -37.6722 42.9356 225.121 -50.9591 14.6829 8.49677 12.6239 
151.045 141.492 134.645 135.589 137.316 143.116 85.4112 83.4684 83.7193 82.6172 30.0731 171.436 -66.2491 34.5663 192.772 -36.7529 44.2552 195.07 -34.3497 56.6401 200.759 -32.169 66.8726 206.573 -37.8911 43.4647 225.121 -51.1275 14.7174 8.46442 12.5222 
150.696 141.689 134.799 135.733 137.427 143.034 85.28 83.3404 83.6369 82.4946 30.4372 171.577 -66.4295 34.9624 192.976 -36.8569 44.679 195.278 -34.4663 57.0698 200.918 -32.2785 67.3235 206.708 -38.0281 44.0086 225.129 -51.3321 14.7604 8.46818 12.4855 
150.555 141.79 134.937 135.884 137.523 142.976 85.0297 83.0414 83.3638 82.2043 30.5872 171.837 -66.6192 35.3596 193.4 -37.0562 45.1312 195.725 -34.7051 57.5747 201.328 -32.5202 67.8544 207.091 -38.2723 44.5344 225.338 -51.5806 14.7826 8.43439 12.4396 
150.593 141.916 135 135.951 137.547 142.959 84.9139 82.9033 83.2579 82.0797 30.7913 172.113 -66.9171 35.6933 193.773 -37.236 45.5124 196.056 -34.9256 58.0045 201.586 -32.7362 68.3219 207.309 -38.4889 45.0547 225.538 -51.8107 14.79 8.40624 12.3973 
150.646 141.943 134.905 135.861 137.424 142.997 84.9205 82.9412 83.3009 82.126 31.1713 172.15 -67.2255 36.0219 193.798 -37.5182 45.8031 195.975 -35.1897 58.3156 201.429 -32.9652 68.6636 207.107 -38.6931 45.5425 225.524 -51.9976 14.8096 8.40922 12.4599 
150.634 142.085 134.909 135.854 137.44 143.031 84.9332 82.9819 83.3546 82.2072 31.6589 172.352 -67.4521 36.4052 193.957 -37.68 46.1576 196.053 -35.3568 58.6751 201.452 -33.115 69.053 207.087 -38.8312 46.0444 225.622 -52.1688 14.8105 8.42097 12.5026 
150.398 142.168 134.871 135.768 137.393 142.991 85.0004 83.0817 83.436 82.2388 32.1275 172.252 -67.5521 36.9445 193.716 -37.802 46.6465 195.815 -35.4471 59.1365 201.232 -33.1868 69.5119 206.897 -38.8851 46.5128 225.451 -52.2563 14.8076 8.43199 12.5436 
150.258 142.223 134.88 135.77 137.406 143.023 85.0645 83.1233 83.4855 82.2353 32.5772 171.989 -67.5345 37.5051 193.463 -37.8229 47.1898 195.638 -35.4458 59.6582 201.097 -33.1714 70.0102 206.805 -38.8631 46.9323 225.257 -52.3225 14.798 8.42218 12.5352 
150.125 142.205 134.877 135.733 137.393 143.087 85.1641 83.1944 83.548 82.2221 32.9302 171.501 -67.2546 38.0182 193.077 -37.7824 47.6958 195.358 -35.3546 60.1383 200.859 -33.099 70.4679 206.599 -38.8124 47.2905 224.956 -52.3401 14.7661 8.43141 12.5263 
149.836 142.202 134.9 135.761 137.402 143.066 85.1634 83.0885 83.4932 82.1426 33.2236 171.081 -66.9513 38.3958 192.839 -37.7601 48.103 195.231 -35.3467 60.5476 200.719 -33.1213 70.8384 206.449 -38.8762 47.5819 224.704 -52.3866 14.7829 8.43705 12.4904 
150.034 142.209 135.059 135.893 137.477 143.228 85.0258 82.7771 83.1594 81.7999 33.3398 170.979 -66.9075 38.9786 192.883 -37.9542 48.704 195.464 -35.5116 61.159 201.016 -33.3191 71.4328 206.769 -39.0732 47.9441 224.801 -52.5019 14.7606 8.4285 12.4887 
150.165 142.328 135.148 135.958 137.508 143.393 84.9425 82.5674 82.9738 81.6171 33.4271 170.975 -67.014 39.4302 193.001 -38.1917 49.1455 195.695 -35.7235 61.604 201.25 -33.5453 71.8592 206.998 -39.3072 48.2769 224.947 -52.6561 14.7719 8.43799 12.5214 
150.383 142.287 135.237 136 137.5 143.555 84.7977 82.3555 82.7122 81.3567 33.3895 171.09 -67.1406 39.9475 193.174 -38.4539 49.6719 195.957 -35.9693 62.1437 201.572 -33.8212 72.4187 207.342 -39.5735 48.6627 225.189 -52.7748 14.7241 8.43116 12.5385 
150.493 142.256 135.26 135.915 137.376 143.697 84.8434 82.3981 82.7247 81.3882 33.5095 171.14 -67.2233 40.3015 193.191 -38.7312 49.9829 195.987 -36.1574 62.4383 201.59 -34.0181 72.7414 207.325 -39.7702 49.0295 225.315 -52.9107 14.7019 8.47228 12.6193 
150.594 142.143 135.125 135.721 137.222 143.91 85.0814 82.7096 82.9936 81.6897 33.9108 170.998 -67.1643 40.577 193.034 -38.8367 50.168 195.743 -36.1851 62.6095 201.313 -34.0539 72.9455 206.971 -39.8206 49.4042 225.263 -52.9993 14.6798 8.50757 12.7367 
150.608 142.116 135.081 135.668 137.184 144.002 85.2397 82.7968 83.0519 81.773 34.4173 170.992 -67.3448 40.8241 192.967 -38.9952 50.3847 195.643 -36.3411 62.8366 201.174 -34.1943 73.2012 206.794 -39.9443 49.776 225.259 -53.0863 14.6812 8.51735 12.7643 
150.811 142.029 134.891 135.447 137.076 144.185 85.5823 83.1949 83.425 82.08 34.9206 170.484 -67.0821 41.2078 192.626 -38.6992 50.7396 195.281 -36.0878 63.1969 200.814 -34.0179 73.5611 206.398 -39.84 50.1432 224.939 -53.1262 14.6086 8.49654 12.7523 
150.823 142.005 134.903 135.536 137.154 144.175 85.6143 83.1892 83.4345 82.0361 35.4745 170.226 -67.057 41.7274 192.461 -38.6368 51.297 195.134 -36.0952 63.763 200.68 -34.0405 74.1085 206.294 -39.8848 50.5775 224.744 -53.1815 14.5929 8.46831 12.6872 
150.901 141.986 135.023 135.604 137.229 144.433 85.5631 83.0736 83.276 81.8222 35.6666 169.836 -66.8119 42.3963 192.341 -38.5312 52.0045 195.15 -36.0146 64.4931 200.778 -34.0354 74.8244 206.42 -39.9149 51.0515 224.611 -53.2046 14.543 8.42027 12.6326 
151.122 141.994 135.108 135.61 137.245 144.665 85.452 82.8843 83.1115 81.675 35.9449 169.679 -66.6859 42.9785 192.459 -38.4736 52.6116 195.378 -35.9871 65.1073 201.032 -34.0502 75.4121 206.656 -39.954 51.552 224.635 -53.2724 14.5654 8.40679 12.599 
151.278 141.908 135.323 135.802 137.345 144.821 85.1965 82.4954 82.6434 81.2124 36.1654 169.796 -66.5516 43.7566 192.757 -38.6026 53.4477 195.833 -36.131 65.9643 201.601 -34.2375 76.2735 207.273 -40.1228 52.1516 224.938 -53.3182 14.5389 8.37488 12.5523 
151.555 141.847 135.26 135.682 137.218 145.031 85.2242 82.4993 82.5947 81.1522 36.4008 169.719 -66.4127 44.4059 192.785 -38.6586 54.0378 195.943 -36.1059 66.5773 201.751 -34.2311 76.9118 207.402 -40.1061 52.7309 225.043 -53.3329 14.492 8.34693 12.6338 
151.93 141.873 135.242 135.589 137.13 145.337 85.3243 82.6552 82.6615 81.219 36.7426 169.728 -66.3156 45.0675 192.754 -38.7324 54.629 195.901 -36.0664 67.1477 201.752 -34.1955 77.4942 207.387 -40.0562 53.3448 225.161 -53.3171 14.4772 8.36682 12.7425 
152.041 141.892 135.303 135.591 137.14 145.561 85.4582 82.728 82.6504 81.133 37.0864 169.533 -66.2144 45.6355 192.601 -38.7819 55.1887 195.81 -36.0694 67.7161 201.692 -34.2145 78.0863 207.347 -40.0608 53.8765 225.137 -53.3322 14.4303 8.34758 12.7416 
152.29 141.785 135.473 135.736 137.204 145.888 85.3388 82.4116 82.2932 80.7302 38.0371 169.147 -66.003 47.1063 192.569 -38.7788 56.7172 195.992 -36.1016 69.2732 201.974 -34.2854 79.6341 207.668 -40.1327 55.131 225.107 -53.3488 14.3949 8.28731 12.6588 
152.382 141.981 135.559 135.78 137.3 145.901 85.2865 82.4129 82.3408 80.808 38.3576 169.343 -66.258 47.4458 192.819 -38.7856 57.0989 196.168 -36.1301 69.6496 202.095 -34.2972 80.0326 207.753 -40.1311 55.6165 225.21 -53.4577 14.3957 8.29914 12.6054 
152.604 142.092 135.702 135.872 137.433 145.93 85.1797 82.355 82.2606 80.7078 38.7067 169.761 -66.5538 48.0869 193.226 -38.8747 57.8074 196.498 -36.249 70.3674 202.42 -34.4114 80.7968 208.101 -40.2043 56.3522 225.537 -53.5617 14.3341 8.29211 12.5361 
152.867 142.163 135.86 136.008 137.556 146.087 85.1773 82.2836 82.1707 80.6187 39.0939 170.275 -66.8805 48.7036 193.657 -39.1628 58.4329 196.923 -36.4856 70.9987 202.826 -34.6 81.4654 208.522 -40.3319 57.0432 226.053 -53.6513 14.2985 8.30687 12.5533 
152.837 142.01 135.867 136.019 137.573 146.019 85.1651 82.2538 82.1236 80.5833 39.6715 170.741 -67.2211 49.2183 194.024 -39.4425 58.9869 197.187 -36.7743 71.5545 203.067 -34.8119 82.0518 208.781 -40.466 57.7163 226.467 -53.7032 14.2911 8.32596 12.5175 
152.785 141.896 135.779 135.902 137.436 146.049 85.2703 82.3979 82.2636 80.7301 40.1863 170.783 -67.2599 49.5912 194.119 -39.5262 59.348 197.137 -36.889 71.9219 202.952 -34.9109 82.4245 208.608 -40.5726 58.2632 226.543 -53.7682 14.332 8.34777 12.5349 
152.757 141.928 135.691 135.887 137.44 146.011 85.4263 82.6578 82.5721 80.9977 40.8699 170.619 -67.2842 50.0308 193.962 -39.3498 59.8206 196.826 -36.7918 72.3669 202.588 -34.7814 82.8312 208.244 -40.4647 58.8252 226.326 -53.7545 14.3806 8.37111 12.4597 
152.757 141.949 135.703 135.876 137.502 145.956 85.4468 82.7813 82.7536 81.1656 41.3341 170.645 -67.3294 50.5251 193.973 -39.2217 60.3464 196.767 -36.6766 72.8786 202.506 -34.6415 83.3404 208.179 -40.3175 59.3935 226.268 -53.7401 14.358 8.37684 12.411 
152.769 142.064 135.754 135.904 137.535 145.993 85.4095 82.8264 82.8703 81.2864 41.8511 170.775 -67.4919 51.1461 194.029 -39.2349 60.9597 196.784 -36.658 73.4434 202.508 -34.5609 83.8834 208.215 -40.2088 60.0257 226.301 -53.7348 14.3901 8.41315 12.4111 
152.7 142.153 135.87 136.003 137.601 145.94 85.1972 82.579 82.6483 81.0545 42.1259 171.199 -67.8601 51.6376 194.376 -39.5175 61.495 197.122 -36.9314 73.9915 202.794 -34.7946 84.4539 208.518 -40.3942 60.6111 226.594 -53.8197 14.4116 8.42112 12.3867 
152.529 142.343 136.036 136.088 137.664 145.827 85.0241 82.336 82.3858 80.765 42.5123 171.644 -67.9974 52.1612 194.88 -39.6557 62.075 197.681 -37.0518 74.5809 203.342 -34.8867 85.1018 209.058 -40.439 61.2437 227.025 -53.8594 14.3939 8.42319 12.3251 
152.325 142.46 136.196 136.165 137.673 145.786 84.8851 82.1127 82.1353 80.4583 42.7954 171.982 -68.0391 52.6576 195.241 -39.8365 62.5934 198.095 -37.1991 75.1072 203.738 -35.0199 85.6783 209.455 -40.5457 61.7954 227.377 -53.8711 14.3813 8.43642 12.3186 
152.478 142.565 136.21 136.04 137.594 145.988 84.9826 82.2491 82.2395 80.545 43.1699 172.016 -67.975 53.2366 195.315 -39.7242 63.1469 198.151 -37.0712 75.6454 203.801 -34.9159 86.2286 209.49 -40.451 62.3613 227.47 -53.8472 14.3627 8.44397 12.3359 
152.481 142.584 136.22 136.071 137.621 145.866 84.9928 82.3213 82.3325 80.6559 43.6432 172.364 -68.0913 53.6709 195.475 -39.7512 63.5968 198.195 -37.126 76.0774 203.792 -34.9614 86.6542 209.461 -40.5009 62.876 227.622 -53.8823 14.397 8.47645 12.3302 
152.334 142.475 136.146 136.005 137.596 145.667 85.0626 82.4431 82.456 80.8219 44.1612 172.578 -68.1497 54.0784 195.544 -39.7002 64.0238 198.172 -37.1024 76.5226 203.725 -34.9371 87.1116 209.346 -40.4652 63.4016 227.662 -53.8886 14.3885 8.46395 12.3037 
152.464 142.417 136.071 135.883 137.532 145.739 85.1852 82.6209 82.6485 81.0508 44.6023 172.6 -68.1888 54.5883 195.509 -39.6229 64.481 198.099 -36.986 76.9713 203.64 -34.8039 87.5639 209.24 -40.3108 63.9242 227.644 -53.8704 14.3622 8.46437 12.3565 
152.225 142.376 136.157 135.995 137.644 145.726 85.1469 82.4451 82.4787 80.8471 45.543 172.265 -67.8369 55.5691 195.499 -39.3598 65.5248 198.198 -36.8005 78.0621 203.751 -34.6636 88.6304 209.342 -40.2008 64.8441 227.514 -53.7496 14.3709 8.40249 12.2592 
152.062 142.397 136.303 136.112 137.781 145.613 85.015 82.2267 82.2632 80.6082 45.797 172.338 -67.7992 55.8324 195.761 -39.3148 65.8774 198.479 -36.8382 78.4615 204.028 -34.722 89.055 209.622 -40.2456 65.1365 227.627 -53.7505 14.3227 8.3576 12.1594 
152.053 142.509 136.364 136.147 137.812 145.632 85.0275 82.1682 82.2367 80.5443 46.2274 172.42 -67.5852 56.3875 195.984 -39.2244 66.4532 198.776 -36.7788 79.0639 204.3 -34.7257 89.6525 209.862 -40.3147 65.6212 227.8 -53.7727 14.2967 8.33761 12.1415 
152.083 142.653 136.468 136.237 137.89 145.695 85.0259 82.15 82.2352 80.5213 46.6325 172.773 -67.481 56.8102 196.287 -39.2636 66.8552 199.078 -36.7995 79.4747 204.564 -34.7811 90.0497 210.111 -40.4219 66.0234 228.118 -53.7824 14.3172 8.35157 12.1987 
152.041 142.771 136.5 136.353 137.961 145.694 85.0261 82.1392 82.2795 80.5193 47.1403 173.109 -67.6703 57.2405 196.435 -39.3343 67.309 199.181 -36.9 79.9248 204.592 -34.859 90.4845 210.162 -40.5101 66.505 228.289 -53.7751 14.3502 8.37192 12.1772 
152.022 142.811 136.46 136.413 137.967 145.643 85.004 82.1806 82.3676 80.5788 47.7576 173.269 -67.8753 57.7331 196.413 -39.3604 67.8235 199.064 -36.9648 80.4079 204.439 -34.8731 90.9278 210.047 -40.5183 67.0237 228.266 -53.7549 14.4223 8.39817 12.144 
151.787 142.819 136.514 136.532 137.982 145.459 84.9064 82.097 82.3096 80.5096 48.3812 173.341 -67.9284 58.2837 196.268 -39.4502 68.3832 198.924 -37.0325 80.9143 204.306 -34.8802 91.399 209.959 -40.5093 67.5333 228.175 -53.7106 14.5063 8.44636 12.1327 
151.723 142.834 136.506 136.539 138.013 145.387 84.9176 82.0829 82.3198 80.5263 48.894 173.517 -68.2058 58.6776 196.228 -39.538 68.7574 198.901 -37.0616 81.2904 204.242 -34.8464 91.8096 209.882 -40.4263 68.0495 228.142 -53.7294 14.5021 8.45135 12.1479 
151.363 142.86 136.451 136.508 138.009 145.188 84.9129 82.049 82.3055 80.5108 49.3254 173.435 -68.2859 58.8989 196.147 -39.4293 69.0073 198.816 -36.989 81.5716 204.107 -34.7446 92.1535 209.693 -40.309 68.502 227.916 -53.7048 14.4839 8.42912 12.0827 
151.02 143.06 136.544 136.642 138.116 144.83 84.7179 81.8365 82.1253 80.298 49.7416 173.702 -68.5446 59.0636 196.413 -39.4901 69.2782 199.004 -37.1423 81.8867 204.19 -34.8887 92.525 209.723 -40.4601 68.9808 227.915 -53.8234 14.5158 8.41884 11.965 
150.983 143.116 136.595 136.744 138.202 144.717 84.6583 81.7408 82.0147 80.1405 50.0546 173.932 -68.5784 59.3503 196.724 -39.4164 69.6428 199.293 -37.1549 82.3091 204.433 -34.9457 92.9956 209.928 -40.5531 69.425 228.052 -53.884 14.4838 8.37774 11.8721 
