149.532 143.059 138.893 140.443 141.173 143.812 83.3421 80.8858 80.7229 77.1458 45.169 185.268 -116.643 59.536 211.255 -92.3965 71.7969 213.307 -93.3312 85.1661 218.026 -94.4837 95.5709 223.093 -102.79 67.7364 240.273 -110.757 12.2981 7.96949 9.99824 
149.812 142.874 138.841 140.403 141.23 143.85 83.1767 80.7154 80.5726 77.0211 45.2269 185.062 -116.871 59.8834 211.162 -92.5639 72.2147 213.295 -93.5261 85.5922 218.052 -94.6691 96.0233 223.164 -102.926 67.9918 240.158 -110.84 12.2181 7.9422 9.90869 
149.817 142.825 138.785 140.34 141.171 143.746 83.119 80.7497 80.5979 77.0804 45.3759 185.079 -117.087 60.1485 211.104 -92.7219 72.4926 213.182 -93.6567 85.8741 217.932 -94.7879 96.3144 223.03 -103.018 68.3042 240.065 -110.969 12.2307 7.92879 9.90286 
149.661 142.996 138.822 140.414 141.176 143.502 83.1426 80.7496 80.6293 77.0976 45.851 185.291 -117.597 60.3382 211.24 -92.8479 72.7001 213.284 -93.8035 86.091 217.973 -94.9038 96.5405 223.059 -103.126 68.5999 240.085 -111.136 12.2717 7.92115 9.85959 
149.483 143.083 138.853 140.49 141.197 143.255 83.2176 80.8229 80.6887 77.1484 46.4664 185.506 -118.022 60.5658 211.346 -93.0024 72.9174 213.352 -93.9331 86.3149 218.012 -95.0051 96.7708 223.085 -103.216 68.9026 240.145 -111.289 12.3021 7.91505 9.86686 
149.12 143.102 138.773 140.456 141.12 142.927 83.2207 80.8339 80.6857 77.1611 46.9912 185.766 -118.392 60.7499 211.463 -93.1301 73.0901 213.339 -94.0986 86.4943 217.946 -95.1312 96.9658 223 -103.303 69.2241 240.174 -111.402 12.3618 7.92062 9.87081 
148.948 143.04 138.693 140.365 141.094 142.827 83.2758 80.9547 80.7997 77.2802 47.3131 185.948 -118.6 60.9776 211.561 -93.2279 73.3418 213.4 -94.1789 86.7537 218.01 -95.1838 97.2476 223.07 -103.322 69.5555 240.233 -111.583 12.3433 7.90762 9.83177 
148.846 142.833 138.496 140.202 141.037 142.638 83.497 81.2901 81.1451 77.5963 47.7077 185.909 -118.839 61.1141 211.321 -93.1299 73.4836 213.111 -94.0326 86.8931 217.716 -95.0019 97.41 222.809 -103.119 69.8148 240.022 -111.609 12.2952 7.89412 9.79925 
149.003 142.797 138.446 140.212 141.12 142.752 83.403 81.281 81.2095 77.6641 48.1939 185.731 -118.903 61.5996 211.437 -93.1954 73.9776 213.166 -94.0911 87.4103 217.741 -95.0411 97.952 222.816 -103.16 70.3588 239.94 -111.803 12.2562 7.87488 9.80625 
149.019 142.814 138.329 140.215 141.118 142.71 83.4896 81.3181 81.2663 77.7036 48.5618 185.542 -118.668 61.8617 211.472 -93.1256 74.1946 213.167 -94.0867 87.6208 217.724 -95.0697 98.1161 222.78 -103.244 70.5434 239.895 -111.862 12.3056 7.8798 9.8458 
149.034 142.91 138.421 140.291 141.212 142.708 83.4162 81.1947 81.1299 77.5799 48.7052 185.578 -118.629 62.0307 211.62 -93.2875 74.3602 213.306 -94.296 87.7933 217.85 -95.314 98.2993 222.889 -103.502 70.7144 240.021 -112.029 12.3023 7.88704 9.85406 
149.106 142.955 138.482 140.259 141.191 142.779 83.3514 81.1375 81.0583 77.5196 48.8679 185.609 -118.668 62.308 211.658 -93.4756 74.6052 213.408 -94.4443 88.0547 217.997 -95.4822 98.5687 223.072 -103.659 70.9209 240.15 -112.117 12.2687 7.86083 9.90231 
148.996 142.956 138.478 140.186 141.093 142.787 83.263 81.0118 80.9474 77.448 49.0462 185.553 -118.641 62.6534 211.591 -93.6821 74.8699 213.423 -94.5935 88.3317 218.044 -95.622 98.8532 223.153 -103.761 71.14 240.186 -112.136 12.2515 7.84467 10.0157 
149.123 142.965 138.548 140.243 141.116 142.834 83.1536 80.8667 80.767 77.2841 49.1877 185.609 -118.712 62.9728 211.601 -94.0019 75.1436 213.505 -94.8269 88.6255 218.171 -95.8472 99.1219 223.292 -103.96 71.3343 240.334 -112.194 12.276 7.82734 10.118 
149.116 142.954 138.62 140.242 141.066 142.872 83.0116 80.8176 80.7152 77.2366 49.3046 185.625 -118.909 63.251 211.547 -94.2089 75.4251 213.434 -94.9955 88.8984 218.154 -95.9824 99.3938 223.35 -104.05 71.5338 240.384 -112.164 12.2565 7.82793 10.1442 
148.956 142.854 138.501 140.133 140.931 142.776 83.0398 80.9251 80.7912 77.2723 49.5822 185.496 -118.887 63.5635 211.276 -94.2254 75.6942 213.107 -95.0042 89.1276 217.882 -95.9723 99.5813 223.146 -104.021 71.6999 240.25 -112.044 12.2869 7.84913 10.2008 
148.841 142.724 138.444 140.097 140.86 142.705 82.8433 80.7365 80.5776 77.0969 49.6137 185.24 -118.884 63.7418 211.013 -94.3977 75.8922 212.815 -95.1999 89.3239 217.605 -96.1547 99.7708 222.882 -104.157 71.8414 240.044 -111.988 12.3212 7.85608 10.2029 
148.568 142.577 138.423 140.105 140.808 142.536 82.7199 80.5681 80.3984 76.9523 49.771 184.892 -118.708 63.9705 210.734 -94.3917 76.1557 212.541 -95.2743 89.5721 217.348 -96.2473 100.002 222.636 -104.237 71.9698 239.755 -111.9 12.3319 7.86758 10.1611 
148.429 142.884 138.669 140.341 140.84 142.404 82.4436 80.2493 80.1219 76.7009 50.0752 185.214 -118.93 64.1176 210.964 -94.6174 76.3223 212.729 -95.5436 89.7494 217.498 -96.5106 100.166 222.785 -104.511 72.1592 239.914 -111.963 12.4195 7.88208 10.1722 
148.251 142.689 138.528 140.309 140.781 142.169 82.4435 80.2177 80.0657 76.6731 50.5187 185.255 -119.032 64.3388 210.91 -94.7103 76.5393 212.625 -95.6906 89.9619 217.395 -96.6572 100.354 222.692 -104.635 72.3284 239.899 -111.962 12.4439 7.88878 10.1795 
147.974 142.593 138.408 140.243 140.655 141.961 82.4263 80.2078 80.0477 76.6767 50.9062 185.196 -119.102 64.5356 210.762 -94.6952 76.7238 212.439 -95.7148 90.1307 217.218 -96.6716 100.511 222.539 -104.633 72.4778 239.756 -111.896 12.4634 7.90089 10.1915 
147.695 142.623 138.424 140.293 140.625 141.84 82.4538 80.1769 80.0261 76.5936 51.2918 185.364 -119.336 64.6139 210.768 -94.703 76.8181 212.479 -95.7111 90.2299 217.222 -96.6434 100.619 222.514 -104.627 72.6595 239.721 -111.947 12.5025 7.91056 10.1571 
147.543 142.627 138.295 140.267 140.605 141.782 82.5975 80.2275 80.095 76.5915 51.68 185.486 -119.497 64.7246 210.754 -94.6479 76.899 212.507 -95.6354 90.3197 217.192 -96.5444 100.717 222.443 -104.553 72.8433 239.676 -111.983 12.5217 7.91673 10.1669 
147.317 142.577 138.122 140.19 140.516 141.564 82.5843 80.2321 80.1374 76.5786 52.1269 185.496 -119.56 64.8351 210.804 -94.5334 77.0539 212.506 -95.588 90.4646 217.147 -96.4794 100.862 222.372 -104.512 73.0595 239.574 -112.042 12.5535 7.93677 10.0923 
147.118 142.697 138.113 140.187 140.511 141.422 82.6866 80.3478 80.3181 76.7067 52.4654 185.627 -119.613 64.8219 210.953 -94.3027 77.0916 212.59 -95.3915 90.5055 217.116 -96.2822 100.928 222.27 -104.357 73.2763 239.513 -112.105 12.5612 7.95062 10.006 
146.896 142.756 138.124 140.194 140.521 141.318 82.6676 80.3497 80.3603 76.732 52.8181 185.736 -119.733 64.8689 211.087 -94.2582 77.1767 212.696 -95.3467 90.6012 217.176 -96.219 101.042 222.312 -104.297 73.4738 239.514 -112.181 12.575 7.95062 9.95785 
146.857 142.888 138.145 140.245 140.532 141.368 82.7837 80.4818 80.5679 76.8859 53.1823 185.887 -119.871 65.0136 211.216 -94.2602 77.2757 212.825 -95.2822 90.7153 217.236 -96.1376 101.148 222.336 -104.267 73.704 239.566 -112.318 12.6037 7.94345 10.0095 
146.851 142.895 138.138 140.264 140.543 141.43 82.9497 80.6353 80.793 77.0847 53.6627 185.891 -119.926 65.2604 211.207 -94.1784 77.4788 212.831 -95.1478 90.9255 217.21 -95.9655 101.351 222.312 -104.111 73.9795 239.545 -112.34 12.6033 7.93625 10.049 
146.773 142.866 138.133 140.215 140.521 141.492 83.0992 80.8366 80.9737 77.2558 53.8658 185.59 -119.65 65.4993 210.97 -94.0086 77.6888 212.581 -94.9547 91.1261 216.987 -95.7861 101.544 222.096 -103.947 74.1898 239.344 -112.278 12.5889 7.92615 10.0695 
146.707 142.827 138.133 140.106 140.467 141.479 83.2201 81.0669 81.1809 77.499 54.0596 185.232 -119.351 65.7795 210.658 -93.8127 77.9442 212.233 -94.7397 91.3494 216.679 -95.5961 101.753 221.804 -103.761 74.408 239.047 -112.221 12.5808 7.93069 10.0914 
146.818 142.998 138.166 140.078 140.46 141.717 83.335 81.1925 81.3732 77.6799 54.1771 184.886 -119.065 66.0157 210.411 -93.5974 78.0909 212 -94.4536 91.4886 216.405 -95.3171 101.865 221.491 -103.527 74.589 238.763 -112.141 12.6082 7.93769 10.2017 
147.038 143.123 138.459 140.218 140.608 142.067 83.2084 81.1098 81.2369 77.576 54.062 184.737 -118.8 66.2448 210.438 -93.6243 78.3375 211.995 -94.4867 91.7257 216.436 -95.4068 102.119 221.502 -103.651 74.7978 238.756 -112.203 12.5926 7.94897 10.2092 
147.339 143.209 138.506 140.27 140.693 142.331 83.1188 80.9071 81.0113 77.4144 54.1044 184.59 -118.564 66.6109 210.497 -93.7683 78.6545 212.127 -94.6327 92.0649 216.595 -95.5868 102.448 221.632 -103.834 75.033 238.878 -112.23 12.5915 7.93661 10.2875 
147.745 143.125 138.396 140.175 140.682 142.517 83.0302 80.8 80.9108 77.3425 54.1202 184.314 -118.186 66.9115 210.573 -93.7539 78.9402 212.227 -94.6489 92.3567 216.697 -95.6576 102.735 221.689 -103.93 75.23 238.926 -112.247 12.5479 7.93437 10.3176 
147.854 143.354 138.49 140.184 140.636 142.672 82.9968 80.7221 80.8419 77.293 54.2391 184.195 -118.036 67.2738 210.449 -93.8796 79.2236 212.15 -94.7054 92.648 216.614 -95.7235 103.027 221.588 -104 75.5155 238.92 -112.211 12.5454 7.93618 10.4426 
148.067 143.382 138.575 140.223 140.641 142.839 82.8656 80.5706 80.6885 77.1398 54.2956 184.097 -118.206 67.5253 210.401 -94.0472 79.5183 212.165 -94.8437 92.9504 216.658 -95.839 103.375 221.668 -104.08 75.7726 238.911 -112.234 12.4876 7.92976 10.4076 
148.156 143.523 138.678 140.269 140.675 142.819 82.6274 80.3353 80.4979 76.9657 54.4921 184.123 -118.451 67.7688 210.536 -94.1945 79.8096 212.27 -95.0369 93.2578 216.735 -96.0199 103.71 221.758 -104.231 76.055 238.926 -112.303 12.4737 7.923 10.3652 
148.297 143.434 138.523 140.104 140.584 142.987 82.5606 80.1726 80.3462 76.8411 54.4634 183.91 -118.454 68.1837 210.321 -94.3821 80.1856 212.191 -95.1934 93.6419 216.713 -96.1525 104.105 221.783 -104.303 76.3175 238.851 -112.291 12.4279 7.90699 10.4125 
148.314 143.252 138.288 139.908 140.471 142.952 82.5655 80.1325 80.3145 76.8169 54.5266 183.647 -118.393 68.558 210.078 -94.4273 80.5741 212.042 -95.2782 94.0084 216.632 -96.2189 104.468 221.764 -104.324 76.5275 238.711 -112.265 12.3696 7.90886 10.3647 
148.263 143.298 138.292 139.892 140.489 142.86 82.5128 80.0863 80.2812 76.7806 54.6007 183.691 -118.47 68.8048 210.125 -94.4775 80.8813 212.11 -95.3798 94.3101 216.71 -96.3193 104.785 221.863 -104.405 76.7779 238.696 -112.373 12.3302 7.90647 10.2714 
148.326 143.166 138.106 139.798 140.487 142.878 82.6565 80.2426 80.4711 76.9973 54.7382 183.659 -118.427 69.0907 210.074 -94.4341 81.1606 212.046 -95.3685 94.5821 216.648 -96.3067 105.025 221.813 -104.381 76.9966 238.646 -112.442 12.3173 7.89576 10.2525 
148.078 143.191 138.049 139.765 140.45 142.837 82.6504 80.2042 80.4955 77.0099 54.9596 183.586 -118.264 69.3069 210.047 -94.422 81.3813 212.036 -95.3835 94.8096 216.603 -96.3251 105.258 221.763 -104.409 77.2135 238.564 -112.507 12.2971 7.89167 10.2362 
147.982 143.108 137.942 139.738 140.482 142.739 82.8387 80.4666 80.7845 77.2337 55.3855 183.47 -118.101 69.5181 210.035 -94.1849 81.6429 211.994 -95.1898 95.0498 216.535 -96.1549 105.476 221.679 -104.291 77.4379 238.452 -112.582 12.2707 7.89488 10.1398 
147.74 143.049 137.926 139.683 140.452 142.669 82.8089 80.5079 80.8146 77.2894 55.5535 183.484 -118.013 69.6503 210.172 -94.1458 81.839 212.085 -95.2155 95.2429 216.635 -96.2101 105.701 221.748 -104.363 77.6475 238.44 -112.753 12.2244 7.8907 10.0466 
147.532 143.147 137.878 139.65 140.374 142.584 82.8876 80.5963 80.9691 77.4309 56.1322 183.571 -118.096 69.8925 210.266 -94.0956 82.0493 212.135 -95.1839 95.4422 216.652 -96.1654 105.878 221.766 -104.347 77.8956 238.455 -112.832 12.2598 7.9031 10.0736 
147.53 143.333 137.987 139.728 140.403 142.392 82.9075 80.7272 81.127 77.5009 56.7314 184.001 -118.463 69.996 210.617 -94.0648 82.2019 212.371 -95.1723 95.6052 216.84 -96.1405 106.055 221.947 -104.369 78.2099 238.654 -112.997 12.2871 7.89685 10.01 
147.457 143.254 138.051 139.769 140.429 142.309 82.9687 80.8423 81.1794 77.5205 57.1173 184.235 -118.636 70.2257 210.798 -94.1572 82.4275 212.502 -95.2274 95.8389 216.99 -96.1822 106.303 222.096 -104.406 78.4961 238.843 -113.089 12.2864 7.88413 10.0238 
147.517 143.278 138.078 139.757 140.432 142.341 82.9642 80.8828 81.1928 77.5113 57.2428 184.344 -118.731 70.4228 210.889 -94.3073 82.5841 212.555 -95.3143 96.0201 217.008 -96.277 106.494 222.056 -104.508 78.7434 238.92 -113.227 12.3017 7.86505 10.0941 
147.571 143.272 138.259 139.817 140.504 142.324 82.9343 80.9244 81.1574 77.5182 57.282 184.435 -118.952 70.5387 210.9 -94.4767 82.7337 212.497 -95.4323 96.1814 216.949 -96.3826 106.692 221.965 -104.565 78.9888 238.934 -113.327 12.2929 7.85956 10.0811 
147.737 143.228 138.341 139.773 140.492 142.42 83.0158 81.0779 81.2142 77.5741 57.2641 184.224 -119.004 70.6756 210.643 -94.537 82.8462 212.197 -95.3948 96.2813 216.671 -96.333 106.805 221.665 -104.478 79.1638 238.752 -113.31 12.2987 7.86977 10.1325 
147.727 143.349 138.554 139.913 140.553 142.343 82.9726 81.0408 81.1053 77.4835 57.4257 184.418 -119.191 70.6752 210.731 -94.6872 82.8533 212.191 -95.4817 96.2974 216.624 -96.3881 106.852 221.545 -104.507 79.3565 238.804 -113.372 12.3549 7.89355 10.1629 
147.692 143.182 138.48 139.861 140.553 142.27 83.1442 81.1593 81.178 77.5227 57.6667 184.201 -119.116 70.8512 210.482 -94.6354 82.9973 211.959 -95.4047 96.4275 216.384 -96.3172 106.986 221.288 -104.432 79.5076 238.637 -113.337 12.3374 7.90745 10.188 
147.725 143.275 138.472 139.875 140.549 142.04 83.1387 81.1112 81.1534 77.501 58.171 184.253 -119.321 71.0139 210.468 -94.6603 83.1432 211.878 -95.4607 96.5586 216.247 -96.3532 107.108 221.133 -104.458 79.7129 238.589 -113.349 12.3922 7.94016 10.2109 
147.715 143.293 138.446 139.81 140.494 142.155 83.2222 81.1059 81.1463 77.453 58.3635 183.929 -119.266 71.2088 210.138 -94.6579 83.2544 211.622 -95.3797 96.6546 215.99 -96.2412 107.207 220.871 -104.333 79.8437 238.364 -113.259 12.4068 7.96447 10.3118 
147.707 143.617 138.657 139.923 140.478 142.19 83.0749 80.9281 80.9877 77.2869 58.7491 183.927 -119.513 71.3665 210.141 -94.7841 83.3811 211.591 -95.4786 96.767 215.94 -96.2939 107.334 220.831 -104.367 80.0387 238.337 -113.24 12.4707 7.99891 10.3756 
147.845 143.823 138.791 140.065 140.517 142.228 82.9601 80.7552 80.8557 77.1179 59.2556 184.098 -119.968 71.5531 210.365 -95.0178 83.561 211.785 -95.7286 96.9297 216.095 -96.4932 107.505 221 -104.559 80.279 238.492 -113.395 12.5292 8.04058 10.3932 
148.005 143.782 138.656 140.027 140.497 142.384 83.1225 80.8261 80.9458 77.1569 59.5219 183.99 -120.094 71.7578 210.283 -95.1427 83.6831 211.782 -95.7999 97.0577 216.067 -96.5527 107.617 220.963 -104.634 80.4235 238.506 -113.501 12.5435 8.03566 10.4758 
148.157 143.525 138.409 139.906 140.528 142.508 83.1929 80.8677 80.9873 77.1785 59.6548 183.824 -120.114 72.0131 210.219 -95.1736 83.9416 211.822 -95.8239 97.3214 216.137 -96.5899 107.884 221.057 -104.663 80.5788 238.477 -113.59 12.4763 8.01132 10.4497 
148.317 143.495 138.355 139.922 140.571 142.481 83.177 80.8511 80.9856 77.1816 59.9188 183.931 -120.447 72.2255 210.3 -95.2962 84.1681 211.919 -95.9529 97.5584 216.239 -96.7079 108.114 221.164 -104.773 80.7767 238.511 -113.747 12.4768 7.99356 10.4268 
148.298 143.375 138.294 139.984 140.606 142.452 83.233 80.8461 80.98 77.1781 60.2014 184 -120.726 72.4826 210.2 -95.5656 84.396 211.907 -96.1735 97.794 216.258 -96.9059 108.338 221.206 -104.964 80.9573 238.555 -113.901 12.4754 7.98193 10.4616 
148.13 143.362 138.148 140.026 140.605 142.219 83.3784 80.9588 81.0959 77.2476 60.8659 184.139 -120.823 72.8182 210.138 -95.6652 84.6734 211.86 -96.2635 98.0639 216.229 -96.9783 108.568 221.221 -105.053 81.2018 238.634 -113.948 12.5049 7.98384 10.5195 
147.867 143.322 138.05 140.026 140.552 142.16 83.4171 80.9792 81.0836 77.1767 61.3133 184.125 -120.844 73.1543 210.051 -95.7798 84.9731 211.84 -96.3631 98.3565 216.262 -97.0851 108.829 221.297 -105.186 81.4233 238.649 -113.996 12.5246 7.98095 10.5556 
147.579 143.385 138.049 140.09 140.564 141.935 83.2926 80.8359 80.9349 77.0178 61.6598 184.231 -120.903 73.3278 210.184 -95.9486 85.1761 211.936 -96.5983 98.5696 216.357 -97.3204 109.043 221.402 -105.42 81.6505 238.717 -114.147 12.5539 7.98262 10.5201 
147.447 143.473 138.028 140.127 140.611 141.831 83.1856 80.7046 80.864 76.9095 61.8899 184.324 -121.013 73.5005 210.397 -96.0751 85.4105 212.132 -96.7999 98.8435 216.508 -97.5142 109.333 221.541 -105.624 81.9204 238.792 -114.344 12.5383 7.95248 10.4359 
147.152 143.531 138.105 140.236 140.65 141.47 83.0077 80.593 80.7483 76.8102 62.364 184.417 -121.246 73.6841 210.598 -96.2384 85.6704 212.219 -97.0585 99.1088 216.588 -97.775 109.604 221.624 -105.878 82.1933 238.837 -114.536 12.561 7.95052 10.3519 
146.851 143.357 138.009 140.163 140.57 141.301 82.9168 80.6254 80.7798 76.8368 62.5256 184.247 -121.315 73.9604 210.504 -96.2881 86.0147 212.067 -97.1608 99.4502 216.457 -97.8826 109.959 221.531 -105.972 82.4946 238.66 -114.645 12.53 7.9336 10.2669 
146.904 143.349 138.091 140.199 140.58 141.252 82.8825 80.6954 80.8937 76.9124 62.7439 184.222 -121.51 74.1984 210.465 -96.3925 86.3072 211.987 -97.2386 99.7661 216.322 -97.9683 110.28 221.381 -106.075 82.8526 238.545 -114.824 12.5195 7.90677 10.2124 
146.764 143.194 137.965 140.078 140.53 141.158 82.8913 80.7302 80.9221 76.9202 62.9854 183.833 -121.202 74.5338 210.381 -96.2925 86.6945 211.893 -97.2073 100.136 216.208 -98.0055 110.632 221.196 -106.173 83.1563 238.296 -114.955 12.5104 7.91597 10.1389 
146.597 143.033 137.919 139.968 140.494 140.848 82.8213 80.7519 80.9533 76.9571 63.452 183.552 -121.029 74.8488 210.298 -96.2122 87.1266 211.728 -97.2344 100.527 216.016 -98.0932 111.042 220.966 -106.299 83.5351 238.024 -115.122 12.4649 7.95526 9.99655 
146.716 143.021 137.986 139.958 140.541 140.899 82.5776 80.4865 80.7134 76.7822 63.7395 183.155 -120.77 75.2916 210.287 -96.3589 87.591 211.714 -97.4167 100.993 215.979 -98.3167 111.543 220.879 -106.525 83.9526 237.868 -115.295 12.4162 7.97405 10.0025 
147.09 143.142 138.17 139.963 140.569 141.168 82.4494 80.4512 80.6953 76.8156 63.976 182.97 -120.775 75.751 210.333 -96.5864 88.0575 211.635 -97.6535 101.43 215.887 -98.5624 112 220.767 -106.765 84.423 237.821 -115.573 12.3938 8.01958 10.0377 
147.463 143.276 138.316 140.033 140.637 141.421 82.4734 80.4897 80.7288 76.8647 64.4781 183.02 -121.01 76.2785 210.404 -96.8378 88.5325 211.639 -97.855 101.896 215.887 -98.7338 112.483 220.758 -106.914 84.9766 237.916 -115.783 12.3882 8.04351 10.1231 
147.931 143.137 138.267 139.974 140.657 141.731 82.598 80.6705 80.8687 76.9653 64.7851 182.883 -121.22 76.8324 210.258 -97.046 89.0917 211.489 -98.0338 102.441 215.785 -98.9056 113.048 220.698 -107.066 85.4988 237.904 -115.996 12.3121 8.04195 10.1082 
148.264 143.178 138.361 140.051 140.69 141.849 82.6087 80.6571 80.8563 76.9211 65.1933 182.984 -121.712 77.36 210.266 -97.4223 89.6315 211.499 -98.3933 102.992 215.824 -99.2112 113.628 220.801 -107.322 86.0386 238.029 -116.238 12.2641 8.03011 10.0953 
148.554 142.989 138.194 139.888 140.621 142.021 82.8275 80.9442 81.1826 77.2291 65.3899 182.887 -121.866 77.8333 210.22 -97.5415 90.1119 211.453 -98.4837 103.487 215.783 -99.285 114.147 220.785 -107.38 86.5364 238.044 -116.486 12.1653 7.99041 10.0588 
148.834 142.829 138.057 139.749 140.635 142.349 83.091 81.2117 81.4346 77.4901 65.4002 182.486 -121.735 78.2951 210.025 -97.4988 90.5743 211.304 -98.4319 103.957 215.642 -99.2712 114.636 220.608 -107.377 86.944 237.875 -116.657 12.058 7.95569 10.021 
149.284 142.771 138.058 139.712 140.725 142.683 83.1876 81.254 81.4691 77.5838 65.3814 182.015 -121.601 78.7232 209.809 -97.5639 91.0066 211.212 -98.4228 104.444 215.532 -99.2995 115.167 220.407 -107.4 87.399 237.639 -116.858 11.9673 7.88856 10.0004 
149.564 142.76 137.966 139.616 140.75 143.083 83.7532 81.773 81.9692 78.0812 65.6749 181.359 -121.185 79.1624 209.33 -97.2884 91.3266 210.815 -98.0455 104.741 215.124 -98.9872 115.4 219.912 -107.163 87.6738 237.247 -116.912 11.9567 7.88006 10.1055 
149.865 142.919 138.159 139.665 140.854 143.495 83.9493 81.8705 82.0874 78.2528 66.0956 180.846 -120.966 79.6387 209.081 -97.2516 91.7134 210.641 -97.9683 105.141 214.944 -98.9592 115.773 219.664 -107.18 88.0548 237.008 -117.045 11.9524 7.86302 10.2019 
149.891 143.047 138.328 139.744 140.873 143.62 83.8194 81.7324 81.9483 78.1505 66.6124 180.599 -120.942 80.1134 208.979 -97.3083 92.1908 210.522 -98.048 105.603 214.864 -99.0338 116.253 219.601 -107.254 88.5046 236.856 -117.083 11.9525 7.8841 10.2101 
149.858 143.356 138.564 139.911 140.931 143.64 83.7481 81.5847 81.8124 78.0267 67.4035 180.785 -121.386 80.6186 209.017 -97.6375 92.6311 210.546 -98.3425 106.059 214.888 -99.283 116.725 219.653 -107.477 89.0376 236.947 -117.247 11.9887 7.88738 10.308 
149.685 143.476 138.62 139.911 140.88 143.454 83.669 81.5527 81.8524 78.066 68.2779 181.087 -121.969 81.043 209.194 -97.8714 93.0292 210.636 -98.5624 106.467 214.939 -99.4432 117.145 219.728 -107.619 89.5785 237.035 -117.449 12.0276 7.89161 10.3497 
149.503 143.442 138.52 139.824 140.786 143.258 83.6976 81.6074 81.9379 78.141 68.918 181.178 -122.477 81.3805 209.149 -98.1371 93.3197 210.532 -98.7887 106.777 214.795 -99.6157 117.468 219.58 -107.765 90.0101 236.961 -117.68 12.055 7.88111 10.4104 
149.075 143.521 138.538 139.871 140.758 142.743 83.5469 81.4212 81.7341 77.933 69.6795 181.649 -123.098 81.7087 209.398 -98.5413 93.6876 210.711 -99.2107 107.18 214.916 -99.9947 117.931 219.659 -108.107 90.5612 237.076 -118.013 12.0745 7.87539 10.3767 
149.087 143.458 138.268 139.705 140.706 142.458 83.6513 81.4321 81.7788 77.9766 70.6389 181.668 -123.568 82.48 209.459 -98.8969 94.4881 210.763 -99.5813 108.04 214.845 -100.333 118.847 219.482 -108.406 91.5612 237.034 -118.474 12.0352 7.83808 10.3175 
148.89 143.639 137.505 139.031 139.809 142.27 83.4107 80.9717 81.6364 78.0752 70.6133 181.74 -123.639 82.7393 209.444 -98.9706 94.4602 211.089 -99.6288 108.076 214.993 -100.403 118.752 219.331 -108.584 91.7952 236.607 -118.916 12.4061 7.80076 10.602 
148.59 143.801 137.173 138.657 139.214 142.158 83.0465 80.4509 81.3274 77.9747 70.3713 181.621 -123.588 83.1063 209.262 -99.2239 94.6385 211.187 -99.8567 108.314 214.985 -100.68 118.913 219.119 -108.941 92.0825 236.116 -119.321 12.6563 7.75895 10.8184 
148.47 143.844 137.064 138.427 138.797 142.243 82.7421 80.0408 81.0211 77.8526 70.1722 181.378 -123.429 83.7587 208.813 -99.6026 95.1293 211.068 -100.104 108.813 214.88 -100.951 119.36 218.948 -109.218 92.5069 235.711 -119.572 12.8153 7.75257 11.0396 
148.527 144.001 136.879 138.25 138.365 142.357 82.1093 79.3503 80.5052 77.3988 70.1477 181.424 -123.887 84.328 208.801 -100.093 95.6315 211.214 -100.563 109.333 214.967 -101.372 119.824 219.022 -109.632 92.9674 235.52 -119.787 13.0246 7.77294 11.1772 
148.501 144.41 136.845 138.305 138.074 142.329 81.525 78.6821 80.0492 77.002 70.672 181.794 -124.66 84.9528 208.98 -100.65 96.1835 211.473 -101.091 109.9 215.12 -101.802 120.341 219.19 -110.036 93.5248 235.575 -119.985 13.2485 7.81596 11.3297 
