153.248 146.477 138.255 138.553 139.161 143.889 88.1363 86.714 87.1128 83.466 150.172 205.929 -87.0839 162.063 222.26 -53.7392 172.184 221.941 -50.7962 185.592 223.07 -49.2947 197.633 226.145 -55.6514 178.858 252.041 -68.677 12.9211 8.11661 12.2103 
153.045 146.649 138.287 138.651 139.282 143.641 87.9775 86.5726 86.9909 83.3095 150.694 205.772 -86.4142 162.354 222.263 -53.1382 172.468 221.938 -50.1885 185.872 223.043 -48.6665 197.939 226.11 -55.0208 179.199 251.892 -68.1196 12.9435 8.1268 12.2218 
152.867 146.795 138.285 138.7 139.335 143.612 87.7677 86.2776 86.7184 83.0414 151.097 205.602 -85.9077 162.743 222.189 -52.6183 172.826 221.953 -49.6538 186.234 223.047 -48.0967 198.31 226.109 -54.4324 179.539 251.699 -67.5525 13.0098 8.12935 12.2792 
152.926 146.834 138.309 138.594 139.276 143.718 87.7526 86.2498 86.6747 83.0405 151.215 205.465 -85.3656 163.012 221.964 -52.0974 173.054 221.773 -49.0548 186.479 222.844 -47.4741 198.563 225.84 -53.7746 179.895 251.456 -66.995 13.0278 8.11214 12.3401 
152.806 146.942 138.467 138.74 139.325 143.648 87.5959 86.0381 86.4789 82.8346 151.547 205.534 -84.9282 163.388 221.908 -51.7281 173.438 221.761 -48.6109 186.867 222.78 -46.9866 198.972 225.753 -53.255 180.309 251.35 -66.4678 13.0588 8.10815 12.3667 
152.721 146.912 138.509 138.763 139.346 143.651 87.7307 86.2365 86.6331 82.9902 151.743 205.315 -84.4002 163.51 221.522 -51.24 173.519 221.34 -48.0446 186.938 222.36 -46.3789 199.039 225.305 -52.6281 180.553 251.05 -65.8948 13.0917 8.11015 12.3925 
152.836 146.757 138.531 138.794 139.383 143.786 87.9297 86.4781 86.7909 83.1309 151.807 204.955 -83.7625 163.81 221.024 -50.5525 173.828 220.829 -47.3587 187.232 221.928 -45.7283 199.306 224.913 -52.0025 180.742 250.707 -65.2674 13.0815 8.11479 12.3567 
152.994 146.464 138.546 138.757 139.44 143.962 88.2175 86.8906 87.1067 83.4281 151.697 204.409 -82.9329 163.863 220.416 -49.7744 173.929 220.166 -46.566 187.314 221.362 -44.9896 199.362 224.4 -51.2887 180.793 250.301 -64.5773 13.0312 8.12998 12.2761 
153.178 146.377 138.507 138.692 139.494 144.082 88.3981 87.1498 87.3516 83.6482 151.845 203.998 -82.3593 163.942 220.008 -49.0765 173.993 219.708 -45.8502 187.371 220.9 -44.2916 199.427 223.94 -50.5995 180.959 249.924 -63.9551 12.9829 8.13326 12.2699 
153.23 146.396 138.502 138.641 139.554 144.093 88.6265 87.4488 87.5968 83.8796 152.127 203.536 -81.5828 164.046 219.437 -48.4166 174.059 219.12 -45.1368 187.428 220.352 -43.5945 199.491 223.431 -49.8846 181.084 249.557 -63.2765 12.9286 8.13772 12.3033 
153.311 146.475 138.58 138.641 139.619 144.112 88.4873 87.2746 87.4462 83.776 152.23 203.408 -80.9914 164.118 219.322 -47.9391 174.177 218.988 -44.6256 187.554 220.162 -43.0584 199.663 223.175 -49.302 181.34 249.351 -62.7164 12.8923 8.14638 12.2868 
153.156 146.627 138.639 138.788 139.7 143.968 87.9742 86.6551 86.8989 83.237 152.625 203.424 -80.3805 164.595 219.602 -47.5169 174.726 219.261 -44.2618 188.117 220.361 -42.6628 200.246 223.34 -48.8784 181.824 249.329 -62.2163 12.9493 8.15577 12.2593 
152.889 146.73 138.518 138.781 139.629 143.673 87.6608 86.3159 86.6478 83.0599 153.185 203.271 -79.7077 164.965 219.765 -46.9346 175.088 219.301 -43.8007 188.477 220.316 -42.1469 200.578 223.227 -48.3282 182.255 249.178 -61.6723 13.0577 8.16187 12.243 
152.658 146.618 138.635 138.942 139.693 143.61 87.5063 86.1633 86.5168 82.9565 153.557 202.967 -78.3157 165.861 219.429 -45.7217 176.061 218.893 -42.6687 189.459 219.921 -41.0009 201.553 222.854 -47.1573 183.122 248.758 -60.5305 13.073 8.14887 12.1315 
152.561 146.616 138.74 138.92 139.652 143.69 87.6401 86.3985 86.7132 83.1483 153.643 202.691 -77.681 166.156 219.012 -45.301 176.36 218.413 -42.2159 189.71 219.519 -40.5343 201.777 222.503 -46.6755 183.436 248.502 -60.1374 13.102 8.1935 12.102 
152.753 146.483 138.798 138.914 139.739 143.982 88.0016 86.8063 87.0133 83.352 153.727 202.263 -76.8329 166.463 218.472 -44.5113 176.694 217.921 -41.3802 190.03 219.109 -39.7899 202.059 222.157 -46.0022 183.69 248.207 -59.5033 13.0765 8.20194 12.0699 
153.099 146.427 138.867 138.942 139.883 144.31 88.3503 87.2395 87.3275 83.5772 153.968 201.815 -76.1538 166.689 217.868 -43.8148 176.874 217.383 -40.5777 190.201 218.662 -39.0523 202.218 221.776 -45.3139 183.886 247.895 -58.8728 13.0407 8.20766 12.1287 
153.327 146.478 138.974 139.038 140.024 144.554 88.4798 87.2667 87.3323 83.5101 154.386 201.508 -75.6076 167.012 217.443 -43.3747 177.182 217.121 -40.0194 190.508 218.414 -38.5103 202.539 221.589 -44.7799 184.168 247.721 -58.2908 13.0148 8.21373 12.2162 
153.279 146.664 138.965 139.116 140.097 144.511 88.4747 87.2116 87.3479 83.5779 155.301 201.435 -75.2821 167.243 217.288 -42.958 177.322 216.921 -39.5781 190.62 218.133 -37.9866 202.654 221.279 -44.2086 184.539 247.563 -57.7096 13.0795 8.24659 12.3163 
153.037 146.897 139.023 139.23 140.156 144.404 88.2819 86.9274 87.169 83.5157 156.15 201.587 -75.0516 167.475 217.431 -42.6765 177.468 216.988 -39.2951 190.759 218.046 -37.6046 202.822 221.083 -43.7543 185.003 247.503 -57.2461 13.1474 8.26253 12.4134 
152.82 147.164 139.097 139.432 140.253 144.21 87.8861 86.4108 86.8098 83.3195 157.19 201.945 -74.9505 167.849 217.971 -42.3892 177.8 217.382 -39.0995 191.084 218.255 -37.2843 203.155 221.168 -43.3484 185.591 247.628 -56.8181 13.2764 8.2733 12.4349 
152.445 147.401 139.088 139.471 140.184 144 87.7567 86.2111 86.7377 83.3473 158.173 202.032 -74.7327 168.27 218.151 -42.0974 178.141 217.471 -38.87 191.39 218.232 -36.9746 203.437 221.088 -42.9952 186.07 247.605 -56.4731 13.3897 8.29418 12.488 
151.999 147.521 139.07 139.577 140.156 143.665 87.539 85.9975 86.657 83.3471 158.865 202.074 -74.576 168.626 218.219 -41.711 178.434 217.399 -38.595 191.637 218.077 -36.6035 203.674 220.908 -42.5785 186.459 247.395 -56.0901 13.495 8.32563 12.4934 
151.769 147.638 139.021 139.597 140.093 143.468 87.538 85.9854 86.7107 83.4063 159.365 201.827 -74.2611 168.905 218.002 -41.1968 178.633 217.121 -38.1642 191.805 217.765 -36.1407 203.798 220.598 -42.1304 186.687 247.044 -55.6966 13.5982 8.34272 12.5359 
151.45 147.682 139.087 139.758 140.095 143.235 87.3985 85.8304 86.5822 83.2977 159.707 201.659 -73.9543 169.205 217.824 -40.8052 178.924 216.83 -37.9052 192.076 217.48 -35.8419 204.035 220.343 -41.8324 186.911 246.753 -55.3101 13.7025 8.3626 12.5103 
151.574 147.683 139.16 139.731 140.073 143.35 87.5131 85.9674 86.6135 83.2553 159.759 201.184 -73.4813 169.464 217.318 -40.4162 179.182 216.346 -37.5094 192.322 217.102 -35.4886 204.249 220.019 -41.5238 187.058 246.423 -54.9496 13.7335 8.38546 12.5121 
151.964 147.726 139.316 139.765 140.17 143.674 87.6671 86.0862 86.5967 83.1147 159.864 200.639 -72.8231 169.888 216.808 -39.912 179.624 216.048 -36.8811 192.763 216.956 -34.9463 204.677 219.957 -41.0569 187.254 246.237 -54.4471 13.7101 8.40203 12.5528 
152.337 147.62 139.315 139.635 140.11 144.007 87.9224 86.3051 86.6801 83.0523 159.885 199.84 -72.0116 170.223 216.003 -39.3668 179.983 215.544 -36.1536 193.117 216.631 -34.3099 204.997 219.723 -40.5109 187.338 245.89 -53.8858 13.683 8.41961 12.6123 
152.604 147.625 139.272 139.515 140.104 144.216 88.1135 86.4261 86.7909 83.1634 160.176 199.313 -71.4236 170.357 215.505 -38.8933 180.097 215.246 -35.5366 193.225 216.366 -33.7212 205.08 219.437 -39.9616 187.442 245.609 -53.3931 13.672 8.43405 12.7107 
152.518 147.761 139.423 139.801 140.379 144.041 87.8841 85.8975 86.3219 82.834 161.372 199.321 -70.8616 171.042 215.471 -38.4509 180.784 215.344 -35.0083 193.954 216.38 -33.0778 205.888 219.357 -39.2018 188.257 245.508 -52.6198 13.646 8.41315 12.8031 
152.323 147.816 139.329 139.798 140.324 143.877 87.8986 85.7564 86.2021 82.8077 162.282 199.267 -70.9379 171.185 215.245 -38.6657 180.877 215.195 -35.0627 194.036 216.178 -32.9766 205.995 219.096 -38.97 188.607 245.39 -52.4002 13.7053 8.42419 12.8994 
152.035 148.003 139.377 139.978 140.448 143.524 87.7978 85.6 86.0776 82.7407 163.287 199.597 -70.9628 171.392 215.312 -38.6986 181.037 215.182 -35.0211 194.158 216.076 -32.7838 206.166 218.937 -38.6621 189.067 245.407 -52.0758 13.7683 8.45563 12.9367 
151.959 148.147 139.331 140.006 140.482 143.311 87.7035 85.4892 85.9807 82.647 163.923 199.83 -70.8736 171.658 215.475 -38.5514 181.259 215.241 -34.8885 194.372 216.027 -32.59 206.408 218.814 -38.4071 189.555 245.402 -51.8591 13.8177 8.45727 12.9486 
151.821 148.092 139.277 139.98 140.456 143.095 87.7673 85.5777 86.0161 82.622 164.233 199.775 -70.5337 172.013 215.272 -38.1797 181.61 215.011 -34.533 194.719 215.812 -32.2269 206.756 218.605 -38.0289 189.936 245.196 -51.572 13.8385 8.44905 12.9033 
151.924 148.006 139.218 139.904 140.351 143.109 87.8216 85.6173 86.0055 82.5594 164.344 199.534 -70.186 172.387 215.011 -37.7743 182.013 214.753 -34.1745 195.117 215.611 -31.8834 207.135 218.448 -37.6896 190.226 244.989 -51.2477 13.8585 8.45056 12.8425 
152.012 147.941 139.295 139.839 140.298 143.323 87.9884 85.7503 86.0592 82.5117 164.239 199.18 -69.8072 172.809 214.341 -37.5161 182.508 214.269 -33.8032 195.607 215.251 -31.5542 207.611 218.207 -37.3716 190.478 244.701 -50.8894 13.822 8.45459 12.8136 
152.089 147.761 139.325 139.829 140.283 143.383 88.198 85.9804 86.1932 82.6019 164.283 198.72 -69.3814 173.064 213.733 -37.2069 182.809 213.725 -33.4501 195.911 214.837 -31.2295 207.888 217.889 -37.0604 190.589 244.409 -50.5084 13.7912 8.44924 12.7712 
152.317 147.651 139.312 139.908 140.366 143.491 88.3829 86.1295 86.2892 82.6415 164.501 198.212 -68.9674 173.27 213.302 -36.7841 183.038 213.381 -32.9908 196.169 214.546 -30.8019 208.133 217.65 -36.6582 190.702 244.146 -50.1093 13.7492 8.41324 12.7656 
152.582 147.491 139.195 139.74 140.269 143.711 88.6877 86.36 86.4391 82.743 164.728 197.58 -68.6712 173.406 212.557 -36.4819 183.179 212.872 -32.5138 196.311 214.124 -30.3591 208.261 217.266 -36.2318 190.759 243.752 -49.7161 13.7106 8.41224 12.8412 
152.705 147.449 139.071 139.69 140.266 143.812 88.8589 86.4116 86.479 82.7717 165.236 197.114 -68.4408 173.466 212.072 -36.3147 183.226 212.581 -32.1976 196.371 213.815 -30.0459 208.318 216.919 -35.9343 190.873 243.428 -49.4597 13.7108 8.40232 12.9519 
152.765 147.466 138.991 139.746 140.371 143.841 88.9294 86.3198 86.4071 82.6941 165.88 196.688 -68.0903 173.656 211.863 -35.9426 183.404 212.538 -31.772 196.563 213.736 -29.6354 208.505 216.785 -35.5607 191.047 243.18 -49.174 13.7163 8.39233 13.0423 
152.709 147.619 138.98 139.955 140.569 143.693 88.5829 85.8887 86.0889 82.4174 166.601 196.827 -68.0209 173.98 212.33 -35.6689 183.712 212.928 -31.6061 196.898 213.991 -29.4225 208.89 216.953 -35.3266 191.454 243.206 -48.9811 13.72 8.37356 13.0521 
152.812 147.688 138.986 140.022 140.649 143.721 88.4949 85.7537 85.9905 82.3882 167.071 197.004 -68.0471 174.314 212.569 -35.4483 184.024 213.126 -31.3919 197.229 214.11 -29.1698 209.271 217.014 -35.0013 191.878 243.246 -48.7697 13.681 8.34089 13.0535 
152.657 147.925 139.083 140.229 140.773 143.564 88.1841 85.4337 85.7524 82.218 167.86 197.511 -68.0709 174.803 213.115 -35.3397 184.499 213.544 -31.3222 197.687 214.42 -29.0223 209.768 217.272 -34.7867 192.483 243.495 -48.5599 13.7265 8.35524 13.0386 
152.546 148.051 139.056 140.232 140.718 143.401 87.9474 85.2693 85.6084 82.1558 168.257 197.948 -68.1812 175.157 213.494 -35.2526 184.791 213.692 -31.3093 197.948 214.522 -28.8764 210.07 217.314 -34.52 193.003 243.633 -48.3195 13.7793 8.3786 12.9983 
152.51 148.06 139.145 140.224 140.627 143.459 87.7712 85.064 85.3623 81.9499 168.349 198.374 -68.2633 175.653 213.708 -35.2821 185.305 213.844 -31.3327 198.444 214.675 -28.8305 210.595 217.45 -34.3813 193.56 243.799 -48.124 13.8195 8.39629 12.9541 
152.387 148.012 139.071 140.009 140.347 143.512 87.7514 85.022 85.2874 81.9068 168.524 198.542 -68.2015 176.077 213.748 -35.1939 185.709 213.858 -31.2786 198.815 214.726 -28.7444 210.923 217.491 -34.2748 193.96 243.87 -47.9511 13.9258 8.4329 12.9379 
152.2 147.949 139.037 139.912 140.206 143.452 87.6261 84.8875 85.1991 81.8761 168.74 198.81 -68.2642 176.414 213.917 -35.1786 186.025 213.954 -31.3296 199.104 214.801 -28.7346 211.192 217.553 -34.2281 194.324 243.962 -47.8268 14.0068 8.4598 12.9196 
152.125 147.863 138.957 139.766 140.038 143.41 87.6759 84.9345 85.2266 81.8996 168.804 198.81 -68.1469 176.645 213.855 -35.0548 186.233 213.86 -31.2356 199.295 214.728 -28.6028 211.36 217.47 -34.0832 194.588 243.926 -47.6721 14.0649 8.47486 12.9062 
152.194 147.694 138.876 139.651 139.92 143.484 87.8353 85.0626 85.3308 81.9809 168.911 198.658 -68.1035 176.831 213.661 -34.8877 186.394 213.658 -31.1172 199.461 214.55 -28.4814 211.482 217.324 -33.9725 194.74 243.807 -47.5228 14.1101 8.46444 12.8965 
152.35 147.417 138.797 139.54 139.817 143.574 88.1147 85.3639 85.5522 82.1522 168.921 198.307 -67.9665 176.973 213.329 -34.567 186.541 213.327 -30.8472 199.624 214.303 -28.2606 211.605 217.142 -33.7887 194.756 243.601 -47.3658 14.0945 8.43567 12.8404 
152.552 147.248 138.796 139.507 139.763 143.683 88.2492 85.5037 85.6324 82.1568 168.818 197.935 -67.7587 177.187 212.882 -34.287 186.815 212.955 -30.5629 199.904 214.028 -28.0371 211.85 216.969 -33.607 194.746 243.355 -47.1516 14.0736 8.42159 12.7768 
152.66 147.207 138.927 139.675 139.862 143.667 88.2855 85.6087 85.7084 82.1601 168.896 197.687 -67.4471 177.42 212.605 -34.0232 187.11 212.669 -30.3139 200.19 213.827 -27.8281 212.112 216.875 -33.4445 194.802 243.22 -46.9299 14.0574 8.42568 12.7056 
152.701 147.252 138.939 139.781 139.947 143.613 88.2318 85.6218 85.7295 82.0894 169.072 197.421 -67.0042 177.595 212.539 -33.6419 187.303 212.606 -29.9701 200.372 213.791 -27.5384 212.267 216.885 -33.2381 194.852 243.126 -46.7041 14.076 8.44225 12.6961 
152.823 147.395 138.924 139.822 140.03 143.639 88.264 85.7019 85.8107 82.1489 169.401 197.197 -66.7279 177.646 212.531 -33.3492 187.323 212.583 -29.6916 200.378 213.767 -27.2884 212.252 216.834 -33.0502 194.915 243.041 -46.5868 14.1063 8.46295 12.7318 
152.818 147.433 138.915 139.848 140.105 143.595 88.3538 85.7794 85.8847 82.23 169.742 197.135 -66.5126 177.664 212.469 -33.1648 187.308 212.568 -29.4639 200.358 213.734 -27.0825 212.221 216.765 -32.877 194.954 242.982 -46.4741 14.1153 8.47015 12.7879 
152.771 147.424 138.908 139.842 140.181 143.52 88.5751 86.0101 86.0715 82.3922 169.904 196.915 -66.1579 177.578 212.244 -32.8845 187.211 212.376 -29.15 200.26 213.545 -26.8188 212.111 216.555 -32.659 194.906 242.834 -46.3101 14.0926 8.4721 12.8053 
152.76 147.573 138.915 139.913 140.331 143.452 88.6504 86.0939 86.1608 82.4473 170.211 196.66 -65.8384 177.533 212.116 -32.6504 187.154 212.295 -28.8738 200.195 213.436 -26.5859 212.045 216.417 -32.4832 194.889 242.703 -46.1746 14.0812 8.48455 12.8518 
152.729 147.633 138.925 139.946 140.406 143.405 88.7121 86.1782 86.2053 82.4554 170.269 196.413 -65.4941 177.497 211.976 -32.3733 187.11 212.198 -28.5696 200.152 213.372 -26.3077 212.013 216.338 -32.2406 194.849 242.565 -46.0152 14.0573 8.4897 12.8731 
152.778 147.707 138.987 139.973 140.467 143.605 88.7735 86.1984 86.1825 82.398 170.17 196.122 -65.2598 177.51 211.684 -32.237 187.13 212.082 -28.2928 200.182 213.299 -26.0595 212.061 216.275 -32.0065 194.805 242.407 -45.8506 14.0172 8.48211 12.9409 
152.891 147.824 139.052 140.096 140.578 143.818 88.7267 86.0381 86.0356 82.2533 170.232 195.959 -65.153 177.535 211.696 -32.1989 187.156 212.188 -28.1954 200.243 213.385 -25.9427 212.155 216.339 -31.877 194.856 242.412 -45.7325 13.9893 8.45582 13.003 
152.875 147.903 138.976 140.125 140.647 143.828 88.7638 86.0284 86.0414 82.2733 170.412 195.918 -65.1154 177.419 211.802 -32.0988 186.986 212.262 -28.1014 200.093 213.39 -25.819 212.036 216.268 -31.7421 194.89 242.397 -45.6495 13.9817 8.43598 13.0542 
152.858 147.96 138.925 140.179 140.716 143.841 88.7973 85.9932 86.0392 82.3083 170.634 195.92 -65.1052 177.296 211.915 -32.0709 186.839 212.354 -28.0655 199.974 213.397 -25.7435 211.934 216.206 -31.6465 194.921 242.427 -45.568 13.9824 8.40507 13.0847 
152.827 148.022 138.915 140.231 140.817 143.785 88.745 85.9639 86.0394 82.3462 170.738 196.066 -65.2173 177.234 212.118 -32.0374 186.74 212.463 -28.0414 199.886 213.422 -25.665 211.899 216.151 -31.5184 195.031 242.453 -45.4989 13.9461 8.38411 13.0909 
152.777 148.182 138.924 140.314 140.882 143.683 88.5388 85.7389 85.8531 82.2253 170.921 196.354 -65.2856 177.251 212.514 -32.0662 186.742 212.764 -28.1017 199.898 213.62 -25.6718 211.938 216.23 -31.4958 195.232 242.585 -45.4733 13.9793 8.37943 13.098 
152.747 148.33 138.885 140.375 140.909 143.569 88.3525 85.5053 85.6438 82.0432 171.211 196.587 -65.3481 177.3 212.934 -32.0797 186.757 213.111 -28.1652 199.933 213.871 -25.6895 211.991 216.375 -31.4989 195.409 242.747 -45.4544 14.0263 8.36479 13.1255 
152.694 148.461 138.832 140.282 140.826 143.511 88.3119 85.4493 85.6478 82.0769 171.426 196.778 -65.3624 177.263 213.2 -32.0628 186.671 213.347 -28.1351 199.844 214.005 -25.6195 211.923 216.411 -31.4112 195.537 242.851 -45.4202 14.0373 8.36068 13.1775 
152.763 148.416 138.851 140.271 140.805 143.574 88.3024 85.4025 85.6179 82.1391 171.518 197.014 -65.4409 177.292 213.439 -32.0648 186.663 213.529 -28.1406 199.854 214.126 -25.5732 211.965 216.449 -31.3085 195.727 242.98 -45.359 14.0181 8.34021 13.2015 
152.847 148.484 138.936 140.326 140.818 143.641 88.1757 85.2555 85.5167 82.1039 171.667 197.352 -65.6147 177.418 213.774 -32.1523 186.763 213.816 -28.2134 199.96 214.351 -25.5839 212.104 216.625 -31.2619 195.967 243.196 -45.3165 14.015 8.3307 13.2294 
152.872 148.547 138.925 140.262 140.726 143.681 88.1526 85.2454 85.5283 82.0971 171.832 197.504 -65.6796 177.507 213.931 -32.1001 186.824 213.948 -28.1459 200.013 214.44 -25.4963 212.165 216.699 -31.1592 196.111 243.281 -45.2322 14.0291 8.33117 13.25 
152.774 148.641 138.978 140.335 140.783 143.558 88.0656 85.1938 85.4992 82.0502 172.102 197.682 -65.7066 177.669 214.144 -32.0142 186.96 214.088 -28.0978 200.139 214.546 -25.4284 212.312 216.795 -31.0812 196.288 243.35 -45.1738 14.0295 8.33453 13.2465 
152.746 148.699 139.065 140.415 140.843 143.489 87.9874 85.1781 85.5188 82.0566 172.439 197.99 -65.8237 177.945 214.349 -31.937 187.207 214.229 -28.0261 200.361 214.669 -25.3289 212.561 216.944 -30.9582 196.554 243.469 -45.0773 14.0221 8.34805 13.2458 
152.707 148.707 139.101 140.393 140.835 143.434 88.0006 85.2561 85.6039 82.1624 172.655 198.336 -65.9545 178.116 214.495 -31.9444 187.354 214.318 -28.0033 200.477 214.746 -25.2656 212.703 217.025 -30.8477 196.812 243.605 -45.0056 14.0107 8.3702 13.2393 
152.608 148.616 139.026 140.292 140.725 143.336 88.0824 85.4009 85.7241 82.2623 172.86 198.436 -65.9031 178.275 214.459 -31.8033 187.472 214.232 -27.8771 200.566 214.679 -25.1247 212.784 216.975 -30.6988 197.005 243.585 -44.8842 14.0453 8.3918 13.2333 
152.553 148.594 139.103 140.391 140.78 143.305 88.0108 85.3156 85.6394 82.1773 173.066 198.724 -65.8901 178.54 214.621 -31.7628 187.753 214.348 -27.8674 200.839 214.788 -25.0904 213.071 217.114 -30.6341 197.298 243.726 -44.7794 14.0645 8.39973 13.1987 
152.352 148.571 139.092 140.444 140.758 143.144 87.8779 85.1812 85.524 82.048 173.359 198.903 -65.7874 178.838 214.729 -31.6725 188.064 214.387 -27.8643 201.132 214.822 -25.0722 213.343 217.199 -30.6073 197.543 243.795 -44.6321 14.1307 8.41907 13.1589 
152.253 148.532 139.153 140.456 140.724 143.089 87.7352 85.0313 85.3796 81.8944 173.497 199.219 -65.8959 179.19 214.82 -31.7172 188.429 214.436 -27.956 201.486 214.887 -25.1473 213.709 217.325 -30.6402 197.826 243.902 -44.5519 14.1452 8.43246 13.131 
152.223 148.485 139.189 140.419 140.641 143.104 87.588 84.8828 85.2467 81.7975 173.516 199.559 -65.893 179.573 215.012 -31.6496 188.845 214.564 -27.9627 201.886 215.031 -25.1386 214.086 217.507 -30.5979 198.163 244.079 -44.4175 14.1991 8.45169 13.0757 
152.313 148.505 139.137 140.315 140.508 143.182 87.4367 84.7254 85.0972 81.6708 173.429 199.787 -66.0127 179.936 215.166 -31.6524 189.221 214.658 -28.0428 202.252 215.122 -25.2046 214.447 217.591 -30.6405 198.514 244.177 -44.3657 14.2386 8.46873 13.0449 
152.243 148.402 139.15 140.247 140.388 143.095 87.3163 84.6277 85.0084 81.6165 173.418 199.987 -65.9545 180.345 215.253 -31.5817 189.688 214.654 -28.081 202.698 215.149 -25.2366 214.866 217.678 -30.6381 198.843 244.284 -44.2397 14.273 8.49038 12.9506 
152.204 148.433 139.117 140.165 140.251 143.045 87.1554 84.4354 84.8397 81.4589 173.427 200.111 -66.0021 180.742 215.306 -31.6209 190.106 214.694 -28.1722 203.105 215.189 -25.3157 215.262 217.742 -30.6868 199.161 244.332 -44.1887 14.3115 8.50436 12.9287 
152.196 148.397 139.163 140.102 140.171 143.14 87.0742 84.2612 84.608 81.2488 173.291 200.115 -65.8465 181.15 215.277 -31.634 190.568 214.756 -28.1522 203.592 215.287 -25.3115 215.754 217.838 -30.645 199.511 244.39 -44.0718 14.2994 8.49288 12.9075 
152.269 148.387 139.188 140.06 140.146 143.285 87.05 84.1716 84.4803 81.1456 173.413 200.174 -65.6648 181.58 215.44 -31.5403 191.021 214.937 -28.0923 204.063 215.486 -25.2781 216.206 218.039 -30.6052 199.9 244.569 -43.9646 14.3146 8.48875 12.8959 
152.275 148.312 139.136 140.051 140.132 143.212 87.0484 84.1795 84.4277 81.0622 173.551 200.167 -65.4777 181.894 215.441 -31.4249 191.359 214.898 -28.0164 204.402 215.476 -25.1925 216.557 218.042 -30.4943 200.227 244.588 -43.8221 14.3035 8.49032 12.848 
152.189 148.191 139.066 140.038 140.139 143.092 87.2281 84.3838 84.559 81.1663 173.72 199.962 -65.1763 182.059 215.271 -31.2186 191.511 214.683 -27.8255 204.549 215.298 -24.9838 216.712 217.853 -30.2798 200.473 244.452 -43.6814 14.2962 8.49006 12.8165 
152.208 148.101 139.103 140.075 140.208 143.155 87.473 84.5678 84.6908 81.2911 174.022 199.696 -64.9036 182.235 215.018 -31.0622 191.656 214.481 -27.6109 204.707 215.105 -24.7606 216.881 217.653 -30.0385 200.712 244.313 -43.5166 14.2595 8.46946 12.8437 
152.416 148.135 139.261 140.26 140.438 143.277 87.6829 84.7617 84.8742 81.4531 174.51 199.588 -64.7038 182.553 214.893 -30.8563 191.956 214.414 -27.3026 205.012 215.034 -24.4367 217.216 217.597 -29.6924 201.112 244.286 -43.322 14.1893 8.45105 12.8645 
152.469 147.959 139.211 140.314 140.478 143.24 87.9855 85.1003 85.2039 81.7724 175.366 199.367 -64.561 182.762 214.536 -30.6469 192.101 214.086 -26.9856 205.136 214.727 -24.0646 217.334 217.325 -29.2989 201.382 244.073 -43.0692 14.1771 8.44876 12.9068 
152.71 147.943 139.176 140.36 140.605 143.445 88.5273 85.7521 85.883 82.4056 177.026 198.94 -64.075 183.157 214.102 -29.9615 192.298 213.65 -26.1684 205.272 214.277 -23.2127 217.446 216.899 -28.4798 201.958 243.724 -42.5362 14.1912 8.48343 13.07 
152.915 147.916 139.232 140.455 140.819 143.607 88.9022 86.1574 86.2809 82.8296 177.92 198.822 -63.961 183.234 213.842 -29.663 192.291 213.4 -25.7462 205.259 213.983 -22.7712 217.475 216.557 -28.022 202.275 243.541 -42.2434 14.1034 8.47454 13.141 
