160.36 142.41 143.094 144.55 146.069 160.277 89.173 85.0613 83.867 82.7674 75.2482 228.538 -58.4543 87.1578 218.549 -30.5775 90.1601 213.326 -17.3365 93.3057 202.614 -7.18862 97.214 189.77 -5.21796 125.998 201.953 -22.4306 13.8615 7.33826 15.2518 
160.065 142.293 143.064 144.595 145.994 160.058 89.0037 85.054 83.9227 82.7559 74.9815 228.358 -58.5799 86.9174 218.494 -30.7125 89.9972 213.269 -17.2608 93.1336 202.623 -7.12666 97.0138 189.747 -5.17947 125.682 201.859 -22.6486 13.8513 7.3729 15.2738 
159.987 142.126 143.103 144.501 145.849 160.092 88.935 84.9883 83.9073 82.6982 74.7937 228.553 -58.8536 86.7878 218.61 -30.958 90.0327 213.395 -17.2021 93.096 202.787 -7.12373 96.8943 189.88 -5.19664 125.439 201.841 -22.8784 13.8268 7.43397 15.4496 
159.763 142.119 143.128 144.465 145.825 159.969 89.0037 85.0465 84.0088 82.7548 74.5004 228.663 -59.0372 86.5289 218.693 -31.1569 89.9645 213.517 -17.1523 92.9981 202.969 -7.10869 96.7581 190.049 -5.19323 125.183 201.846 -23.1106 13.7926 7.49527 15.6068 
159.765 142.052 143.235 144.481 145.918 159.93 89.0604 85.1405 84.1769 82.9333 74.2884 228.578 -59.253 86.3109 218.719 -31.4683 89.7894 213.653 -17.2953 92.7664 203.157 -7.22586 96.5257 190.257 -5.27349 124.986 201.883 -23.278 13.7633 7.51441 15.7575 
159.622 141.946 143.281 144.479 145.987 159.723 88.9488 85.1517 84.2857 83.0329 73.9388 228.002 -59.4262 86.0867 218.568 -31.711 89.5505 213.599 -17.4702 92.5129 203.205 -7.39167 96.3291 190.352 -5.42732 124.742 201.908 -23.5031 13.7837 7.58016 15.8238 
159.452 141.773 143.367 144.478 146.103 159.516 89.0307 85.1761 84.3498 83.1319 73.7538 227.683 -59.5695 85.9243 218.615 -32.0028 89.3416 213.696 -17.772 92.2441 203.337 -7.67887 96.0631 190.507 -5.68472 124.558 201.944 -23.6686 13.7864 7.61714 15.8749 
159.516 141.7 143.553 144.512 146.231 159.461 89.0558 85.0857 84.3014 83.1553 73.5168 227.358 -59.708 85.7427 218.586 -32.287 89.1747 213.753 -18.0923 92.0663 203.421 -7.98702 95.9256 190.637 -5.96442 124.424 202.07 -23.8429 13.8182 7.64297 15.973 
159.606 141.747 143.606 144.401 146.23 159.419 89.0733 85.0418 84.2579 83.1717 73.3489 227.275 -59.8665 85.63 218.681 -32.5143 89.0064 213.871 -18.4388 91.8936 203.522 -8.34331 95.7926 190.779 -6.29436 124.335 202.26 -24.0287 13.8276 7.64576 15.9749 
159.697 141.899 143.565 144.305 146.226 159.412 89.0262 84.9802 84.1944 83.1267 73.0686 227.182 -59.997 85.4766 218.705 -32.6828 88.794 213.889 -18.7588 91.7001 203.539 -8.68134 95.6437 190.813 -6.61803 124.186 202.378 -24.2529 13.834 7.66004 15.9214 
159.793 142.017 143.626 144.232 146.229 159.4 89.0265 84.9367 84.1477 83.0912 72.8899 227.264 -60.1164 85.3677 218.854 -32.8501 88.6609 213.994 -19.0143 91.5854 203.631 -8.97007 95.5605 190.909 -6.91273 124.083 202.539 -24.4595 13.8383 7.67982 15.8748 
159.812 142.048 143.614 144.113 146.154 159.433 89.0571 84.8515 84.0759 82.9799 72.7331 227.509 -60.3555 85.2112 219.035 -33.0787 88.6169 214.128 -19.1942 91.538 203.758 -9.20918 95.5044 191.002 -7.18386 123.928 202.65 -24.7117 13.8166 7.73428 15.9536 
159.944 142.083 143.707 144.076 146.1 159.445 89.1014 84.7725 83.9688 82.8463 72.6953 227.72 -60.5667 85.0081 219.203 -33.4053 88.5278 214.292 -19.4407 91.4771 203.875 -9.49178 95.4461 191.089 -7.49234 123.787 202.806 -24.9571 13.7953 7.74655 16.1002 
160.032 142.087 143.775 144.001 145.998 159.371 89.1568 84.7606 83.9445 82.7542 72.6084 227.826 -60.6837 84.8231 219.489 -33.7627 88.4675 214.543 -19.6352 91.4371 204.099 -9.71194 95.3995 191.273 -7.74653 123.673 202.978 -25.201 13.7644 7.77317 16.2438 
159.903 142.142 143.788 143.916 145.835 159.29 89.178 84.7913 83.9082 82.6513 72.3491 228.101 -60.7609 84.5276 219.645 -34.1148 88.2336 214.669 -19.8636 91.2345 204.187 -9.94247 95.1578 191.321 -7.99428 123.432 203.001 -25.4691 13.7322 7.77514 16.3262 
159.777 142.086 143.89 143.962 145.779 159.322 89.1248 84.7803 83.8688 82.5401 72.1005 228.27 -60.8875 84.1905 219.658 -34.4912 88.0474 214.7 -19.9682 91.1011 204.238 -10.0418 95.0099 191.339 -8.11797 123.199 203.006 -25.7058 13.7296 7.80022 16.4929 
159.683 141.943 143.935 143.883 145.597 159.443 89.1593 84.8333 83.8924 82.5183 71.831 228.474 -61.1695 83.8058 219.629 -34.9256 87.8415 214.697 -20.0735 90.9108 204.241 -10.1637 94.7706 191.312 -8.27131 122.925 202.925 -25.9627 13.7189 7.82181 16.7146 
159.673 141.859 143.965 143.891 145.536 159.537 89.1525 84.8723 83.9089 82.5127 71.629 228.718 -61.4681 83.5245 219.629 -35.2337 87.6835 214.732 -20.144 90.7672 204.282 -10.2367 94.5947 191.337 -8.35334 122.701 202.914 -26.1805 13.7091 7.81684 16.858 
159.677 141.624 144.021 143.83 145.451 159.557 89.1861 84.8446 83.8803 82.4917 71.4163 228.788 -61.7743 83.2539 219.638 -35.6422 87.499 214.784 -20.3852 90.5562 204.326 -10.4631 94.3461 191.379 -8.56365 122.476 202.917 -26.4154 13.7007 7.80204 17.0068 
159.518 141.526 143.901 143.864 145.552 159.373 89.1226 84.7136 83.8289 82.4674 71.2233 228.695 -61.977 83.1712 219.734 -35.7537 87.4507 214.867 -20.5587 90.454 204.45 -10.6395 94.2256 191.519 -8.73875 122.287 203.002 -26.6599 13.7239 7.82623 16.9755 
159.444 141.448 143.764 143.852 145.634 159.382 89.1638 84.6733 83.8297 82.5107 71.059 228.793 -62.348 83.0539 219.83 -35.9515 87.2932 214.984 -20.8564 90.2127 204.565 -10.9299 93.9585 191.646 -8.99574 122.084 203.089 -26.911 13.7143 7.80444 16.9361 
159.464 141.237 143.741 143.848 145.714 159.426 89.267 84.7169 83.9019 82.6127 70.7589 228.689 -62.6172 82.7494 219.849 -36.2984 87.0364 215.115 -21.1312 89.8973 204.702 -11.2088 93.6324 191.784 -9.24354 121.811 203.136 -27.1582 13.6944 7.79947 17.0852 
159.619 140.982 143.571 143.746 145.792 159.577 89.2546 84.6533 83.8404 82.6069 70.4549 228.854 -62.9964 82.4893 219.831 -36.6944 86.7063 215.112 -21.5504 89.4941 204.673 -11.6192 93.2121 191.767 -9.59008 121.512 203.115 -27.4142 13.6648 7.7723 17.1009 
159.744 140.94 143.378 143.737 145.877 159.64 89.1259 84.5421 83.7093 82.515 70.3057 229.259 -63.4169 82.4001 219.993 -36.9399 86.4913 215.193 -21.9399 89.2798 204.738 -11.9846 93.0163 191.846 -9.89273 121.324 203.283 -27.7078 13.6278 7.74652 16.9239 
160.004 140.765 143.274 143.749 145.959 159.702 89.0283 84.431 83.6097 82.4763 70.1507 229.426 -63.6961 82.3826 220.243 -37.1022 86.4055 215.388 -22.2421 89.1915 204.937 -12.3092 92.9354 192.057 -10.2119 121.193 203.542 -27.9883 13.6388 7.76894 16.812 
160.202 140.709 143.121 143.71 145.884 159.741 88.8384 84.3828 83.5286 82.3535 69.6575 229.88 -64.2268 81.9739 220.62 -37.6051 85.9809 215.692 -22.7336 88.8207 205.248 -12.8619 92.5752 192.33 -10.8126 120.738 203.928 -28.592 13.6394 7.82424 16.7737 
160.214 140.784 143.117 143.795 145.911 159.624 88.5042 84.263 83.409 82.2303 69.482 230.025 -64.2667 81.9288 220.801 -37.6534 85.8861 215.798 -22.8424 88.8037 205.365 -12.996 92.5788 192.427 -10.9823 120.585 204.125 -28.8331 13.6499 7.85549 16.6665 
159.93 140.906 143.067 143.764 145.84 159.314 88.2276 84.1416 83.3115 82.144 69.3138 230.195 -64.4853 81.8346 221.052 -37.7281 85.7622 215.937 -23.0337 88.7635 205.559 -13.1942 92.5433 192.635 -11.2129 120.349 204.344 -29.1932 13.671 7.92475 16.4895 
159.771 141.059 143.091 143.687 145.758 159.089 88.1448 84.1151 83.3088 82.196 69.1755 230.397 -64.6278 81.7455 221.41 -37.7781 85.6994 216.227 -23.1845 88.7502 205.88 -13.3761 92.4903 192.969 -11.4434 120.155 204.581 -29.5364 13.6897 7.9927 16.4009 
159.497 141.117 143.091 143.681 145.697 158.758 88.1691 84.1732 83.343 82.2871 69.1243 230.742 -64.7991 81.6433 221.781 -37.9046 85.596 216.581 -23.4438 88.6871 206.236 -13.6615 92.3897 193.333 -11.7747 119.987 204.843 -29.9076 13.7025 8.03804 16.3543 
159.274 141.159 142.973 143.668 145.746 158.479 88.0811 84.0694 83.2861 82.3199 69.0666 230.895 -65.0397 81.6438 222.036 -37.9445 85.505 216.763 -23.7974 88.6039 206.423 -14.0368 92.3189 193.564 -12.1924 119.832 205.112 -30.2985 13.7509 8.06862 16.1678 
158.994 141.123 142.922 143.729 145.815 158.24 88.0939 83.9536 83.2243 82.2827 68.947 230.917 -65.2815 81.5229 222.102 -38.0641 85.4086 216.877 -24.1321 88.5118 206.549 -14.3926 92.2716 193.713 -12.5823 119.675 205.356 -30.6641 13.7874 8.0883 16.1718 
158.934 141.113 143.36 144.234 146.442 158.007 88.1885 83.8525 83.1813 82.3061 68.8876 230.867 -65.4986 81.4048 222.246 -38.1896 85.2883 217.174 -24.4294 88.3578 206.853 -14.744 92.158 194.02 -13.0019 119.466 205.627 -31.045 13.8407 8.15173 16.3905 
158.943 141.082 143.856 144.619 146.929 157.961 88.4272 83.9085 83.2668 82.5205 68.7445 230.886 -65.6678 81.1707 222.386 -38.371 85.0879 217.489 -24.6716 88.1118 207.134 -15.0637 91.9273 194.319 -13.4066 119.252 205.861 -31.3602 13.8947 8.18374 16.6804 
158.749 140.853 144.335 144.972 147.374 158.129 88.8813 83.886 83.237 82.5171 68.556 230.924 -65.7144 80.9094 222.562 -38.761 84.9981 217.901 -24.9752 87.9591 207.499 -15.4401 91.7624 194.648 -13.8504 119.188 206.285 -31.6402 13.9173 8.19222 17.1454 
158.729 140.925 144.561 145.043 147.609 158.161 89.1219 83.9076 83.3034 82.6092 68.3138 231.099 -65.7796 80.7418 222.819 -38.9008 84.9947 218.234 -25.0315 87.8887 207.836 -15.596 91.6778 194.982 -14.0764 119.046 206.52 -31.8813 13.9465 8.25226 17.3895 
158.684 141.268 144.76 145.086 147.778 158.156 89.1488 83.9001 83.3113 82.6452 68.0297 231.331 -65.8541 80.6298 223.001 -38.9842 84.9186 218.398 -25.0841 87.7714 208.007 -15.7165 91.5553 195.174 -14.2335 118.867 206.633 -32.062 13.9828 8.29509 17.4362 
158.681 141.403 144.552 144.8 147.455 158.079 89.0626 83.9417 83.3022 82.5828 67.7124 231.407 -65.9321 80.4409 223.082 -39.2063 84.7056 218.363 -25.282 87.6084 207.954 -15.9197 91.4237 195.118 -14.4236 118.726 206.735 -32.196 13.9592 8.26582 17.2598 
158.655 141.389 144.321 144.403 146.987 157.998 88.9547 83.9876 83.3268 82.5531 67.4453 231.41 -66.0578 80.3318 223.167 -39.4657 84.6114 218.323 -25.423 87.5368 207.926 -16.0932 91.3635 195.106 -14.6029 118.637 206.826 -32.3574 13.9553 8.27318 17.1214 
158.648 141.357 144.057 144.067 146.579 157.964 88.8273 83.9501 83.2764 82.4653 67.1605 231.664 -66.1227 80.2275 223.308 -39.7241 84.5075 218.307 -25.6253 87.4278 207.894 -16.3078 91.2382 195.071 -14.8061 118.519 206.877 -32.5086 13.9344 8.26237 16.9686 
158.67 141.32 143.764 143.769 146.2 158.002 88.6939 83.911 83.2264 82.3648 66.8411 231.928 -66.1853 80.0882 223.387 -39.8799 84.3936 218.224 -25.7134 87.2878 207.787 -16.4314 91.0384 194.929 -14.9527 118.311 206.763 -32.6333 13.9163 8.26494 16.8578 
158.614 141.161 143.322 143.373 145.709 158.081 88.4285 83.8133 83.0979 82.1806 66.3669 232.589 -66.4149 79.8575 223.486 -40.1756 84.1208 218.095 -25.958 86.9979 207.623 -16.6801 90.6863 194.727 -15.1607 117.95 206.62 -32.8704 13.8424 8.24536 16.6401 
158.759 141.114 143.109 143.125 145.438 158.196 88.2635 83.7688 83.0665 82.1148 66.0612 232.791 -66.5861 79.6633 223.405 -40.3163 83.8492 217.874 -26.0995 86.7307 207.422 -16.7839 90.4118 194.543 -15.2189 117.697 206.456 -32.9695 13.8108 8.24263 16.4438 
158.899 141.228 142.809 142.856 145.162 158.328 87.9862 83.6827 82.969 81.9821 65.7922 233.094 -66.7705 79.5225 223.281 -40.3982 83.5617 217.586 -26.2432 86.462 207.155 -16.8912 90.1227 194.278 -15.2655 117.436 206.248 -33.0643 13.7601 8.24834 16.1838 
159.056 141.135 142.815 142.8 145.076 158.47 87.8486 83.7193 83.039 82.0601 65.545 233.279 -66.8902 79.3293 223.214 -40.5458 83.2762 217.473 -26.3654 86.1924 207.075 -16.9573 89.8555 194.206 -15.2855 117.229 206.108 -33.1281 13.7321 8.24925 16.0696 
159.275 141.098 142.75 142.655 144.889 158.699 87.7117 83.6987 82.9953 82.0116 65.311 233.652 -67.0122 79.1537 223.203 -40.6203 83.1306 217.42 -26.3406 86.0712 207.028 -16.9523 89.6979 194.14 -15.2748 117.029 206.016 -33.1825 13.7073 8.27581 16.0798 
159.479 141.111 142.717 142.613 144.833 158.808 87.623 83.7241 83.024 82.0521 65.0875 233.771 -67.1088 78.9702 223.168 -40.5889 82.9312 217.335 -26.3289 85.8989 206.957 -16.9457 89.5141 194.069 -15.2745 116.812 205.924 -33.2621 13.6997 8.28652 15.9849 
159.621 141.039 142.758 142.546 144.766 158.9 87.5613 83.6615 82.9757 82.0093 64.8513 233.737 -67.1583 78.7389 222.977 -40.6478 82.7728 217.155 -26.3375 85.7697 206.798 -16.9539 89.3988 193.931 -15.2788 116.617 205.779 -33.3171 13.7049 8.31385 16.0485 
159.643 141.021 142.793 142.519 144.727 158.937 87.4723 83.5565 82.9094 81.9383 64.6164 233.688 -67.1602 78.5555 222.842 -40.7803 82.6543 217.003 -26.3887 85.6615 206.673 -16.9789 89.3102 193.816 -15.2755 116.467 205.665 -33.3692 13.699 8.32693 16.0866 
159.774 141.286 143.104 142.829 145.182 159.029 87.4408 83.4339 82.8332 81.9353 64.5896 233.78 -67.2627 78.4971 222.757 -40.7046 82.5507 216.939 -26.3777 85.5024 206.621 -16.9975 89.1453 193.783 -15.3118 116.275 205.534 -33.4317 13.739 8.3713 16.1617 
159.957 141.524 143.388 143.068 145.638 159.169 87.4457 83.346 82.7826 82.0101 64.5886 233.741 -67.4367 78.4381 222.626 -40.6157 82.4309 216.833 -26.3278 85.2938 206.523 -16.9915 88.8961 193.726 -15.3216 116.052 205.345 -33.4554 13.7942 8.41166 16.2451 
159.998 141.746 143.693 143.419 146.095 159.224 87.4396 83.2815 82.7813 82.1147 64.4912 233.626 -67.5888 78.252 222.388 -40.4953 82.2789 216.656 -26.2109 85.102 206.369 -16.9031 88.6922 193.585 -15.267 115.78 205.108 -33.4897 13.8377 8.44511 16.3616 
160.014 142.076 144.048 143.775 146.483 159.223 87.5009 83.3129 82.8648 82.2684 64.4556 233.647 -67.7483 78.1114 222.256 -40.4051 82.1604 216.621 -26.1198 84.9658 206.371 -16.8223 88.5681 193.59 -15.1965 115.609 205.013 -33.5169 13.855 8.47129 16.4581 
160.048 142.495 144.288 144.047 146.811 159.269 87.451 83.3662 82.9629 82.4243 64.4493 233.631 -68.0156 78.063 222.086 -40.2443 82.1013 216.576 -25.9601 84.8865 206.382 -16.7118 88.5047 193.61 -15.1169 115.464 204.968 -33.5451 13.8903 8.51757 16.5466 
160.073 143.108 144.286 144.191 147.079 159.305 87.3264 83.4029 83.088 82.5859 64.4492 233.849 -68.2586 78.1648 222.085 -39.8308 82.0953 216.546 -25.7209 84.8395 206.419 -16.528 88.4492 193.644 -14.9715 115.301 204.947 -33.5879 13.895 8.57175 16.3678 
160.034 143.623 144.3 144.367 147.274 159.28 87.2628 83.5202 83.2997 82.8389 64.2985 233.928 -68.3832 78.1705 222.045 -39.3974 82.0169 216.526 -25.4987 84.7557 206.466 -16.3557 88.3814 193.693 -14.8667 115.108 204.936 -33.6711 13.9237 8.61633 16.1962 
160.035 143.864 143.926 144.097 146.938 159.318 87.0963 83.6291 83.4233 82.9101 64.1264 234.048 -68.5459 78.1989 222.045 -39.2073 81.8865 216.395 -25.4885 84.6642 206.368 -16.3481 88.3278 193.589 -14.8516 115.029 204.968 -33.7241 13.8921 8.59753 15.795 
160.165 143.96 143.399 143.675 146.515 159.47 87.0251 83.7379 83.5065 82.9316 64.0099 234.235 -68.682 78.223 222.147 -39.053 81.7448 216.333 -25.5164 84.5339 206.32 -16.3834 88.193 193.538 -14.8689 114.961 205.014 -33.734 13.8636 8.58272 15.3943 
160.332 144.314 143.399 143.795 146.661 159.603 87.0474 83.8138 83.5832 82.9998 63.9579 234.491 -68.8409 78.182 222.212 -38.8677 81.581 216.374 -25.4942 84.3634 206.371 -16.3627 88.0285 193.583 -14.8502 114.825 205.029 -33.7723 13.8593 8.57588 15.2371 
160.468 144.48 143.504 143.924 146.783 159.694 87.0246 83.778 83.5711 82.9863 63.9225 234.681 -68.9406 78.2028 222.281 -38.6968 81.5595 216.45 -25.449 84.3155 206.45 -16.3547 87.9735 193.648 -14.8788 114.706 205.075 -33.8396 13.8803 8.5937 15.2081 
160.599 144.604 143.532 143.963 146.902 159.749 87.0973 83.7834 83.5595 82.9849 63.9196 234.792 -68.9922 78.1979 222.35 -38.5584 81.4901 216.522 -25.4433 84.2323 206.516 -16.3744 87.8804 193.714 -14.9109 114.608 205.113 -33.8612 13.8865 8.61181 15.182 
160.683 144.431 143.296 143.624 146.492 159.807 87.0376 83.7744 83.5476 82.9214 63.6675 234.726 -68.933 78.1678 222.414 -38.5899 81.4708 216.519 -25.5045 84.2304 206.51 -16.4505 87.8962 193.71 -14.9901 114.599 205.222 -33.8872 13.8841 8.60593 15.06 
160.753 144.247 142.88 143.228 146.105 159.87 87.117 83.8743 83.6247 82.9322 63.519 234.761 -68.9151 78.192 222.637 -38.5693 81.4549 216.629 -25.5832 84.2153 206.619 -16.543 87.8895 193.819 -15.0759 114.644 205.396 -33.9306 13.8609 8.5956 14.8369 
160.856 144.301 142.932 143.402 146.317 159.853 87.1649 83.8742 83.6037 82.921 63.5771 234.845 -68.9624 78.2208 222.706 -38.4468 81.3954 216.747 -25.6645 84.1478 206.708 -16.6547 87.8417 193.901 -15.2172 114.601 205.508 -34.011 13.8813 8.59061 14.8408 
160.977 144.426 143.003 143.539 146.527 159.828 87.1538 83.8112 83.5026 82.8713 63.6148 234.929 -68.973 78.372 222.849 -38.3284 81.3858 216.823 -25.7978 84.121 206.72 -16.8279 87.8177 193.914 -15.4246 114.6 205.593 -34.094 13.9166 8.5695 14.7178 
161.065 144.379 143.208 143.663 146.699 159.822 87.2704 83.7727 83.4817 82.9098 63.7147 235.025 -69.0338 78.4245 223.032 -38.3867 81.4334 217.029 -25.9529 84.1189 206.892 -17.0273 87.8057 194.091 -15.6718 114.617 205.736 -34.2072 13.9621 8.58166 14.7969 
160.919 144.071 143.364 143.888 147.039 159.913 87.5046 83.7137 83.4123 82.8657 63.8357 234.832 -69.0551 78.4037 223.063 -38.4677 81.4827 217.196 -26.0865 84.1192 207.009 -17.2104 87.7854 194.188 -15.9219 114.681 205.969 -34.293 14.007 8.56697 15.042 
160.849 143.658 143.216 143.687 146.743 159.887 87.4776 83.6619 83.3637 82.8027 63.7777 234.606 -68.9694 78.3255 223.088 -38.7644 81.5173 217.205 -26.2756 84.1674 206.977 -17.3927 87.8397 194.146 -16.1191 114.764 206.078 -34.331 14.0143 8.5288 15.0901 
160.975 143.442 143.404 143.765 146.858 159.951 87.57 83.5242 83.2359 82.7151 63.8084 234.679 -68.947 78.2875 223.159 -38.913 81.6145 217.323 -26.3639 84.208 207.046 -17.5249 87.8442 194.199 -16.2906 114.764 206.113 -34.3674 14.0453 8.5423 15.3207 
161.099 143.46 143.577 143.803 146.964 159.922 87.6446 83.4535 83.1695 82.7075 63.8792 234.855 -68.9677 78.3552 223.362 -39.0602 81.7006 217.491 -26.5115 84.2533 207.182 -17.7021 87.861 194.335 -16.4793 114.818 206.219 -34.4549 14.048 8.55708 15.3882 
161.207 143.268 143.787 143.862 147.034 159.92 87.6751 83.3769 83.1143 82.7005 63.9126 234.855 -68.9845 78.3601 223.475 -39.3157 81.8051 217.646 -26.6374 84.3327 207.314 -17.8481 87.9411 194.475 -16.6362 114.896 206.327 -34.5268 14.0645 8.57043 15.5838 
161.208 143.063 143.908 143.911 147.069 159.895 87.7619 83.3195 83.0611 82.6852 63.961 234.998 -68.9797 78.3328 223.618 -39.5913 81.9125 217.83 -26.7754 84.4258 207.47 -18.0124 88.0342 194.632 -16.8227 114.983 206.481 -34.6249 14.077 8.58198 15.798 
161.069 142.901 144.025 143.941 147.09 159.77 87.8175 83.3312 83.0766 82.7244 63.9907 234.978 -68.9035 78.2729 223.732 -39.8925 81.938 218.008 -26.911 84.4405 207.634 -18.1573 88.0527 194.795 -16.9716 115.049 206.605 -34.7021 14.0811 8.58644 15.9954 
160.884 142.746 144.128 143.945 147.043 159.569 87.8877 83.3397 83.0815 82.7412 63.9915 234.902 -68.8179 78.2537 223.891 -40.1699 82.0509 218.236 -27.0135 84.5469 207.849 -18.2931 88.1514 194.999 -17.1311 115.141 206.767 -34.8086 14.0888 8.60532 16.2177 
160.654 142.712 144.011 143.788 146.957 159.392 88.0556 83.4005 83.1073 82.7498 64.0784 235.086 -68.729 78.2901 224.204 -40.3091 82.1558 218.508 -27.0974 84.6498 208.108 -18.4208 88.2356 195.245 -17.2758 115.232 206.962 -34.9205 14.0661 8.6386 16.276 
160.522 142.693 144.072 143.787 146.924 159.289 88.1077 83.3848 83.0825 82.739 63.9701 235.244 -68.5577 78.3245 224.535 -40.5001 82.2663 218.81 -27.2321 84.7612 208.386 -18.5915 88.3436 195.509 -17.4668 115.326 207.205 -35.0452 14.0621 8.65549 16.3519 
160.343 142.54 144.21 143.854 146.976 159.15 88.1563 83.3271 83.043 82.7464 63.8559 235.238 -68.4207 78.3614 224.761 -40.6838 82.4542 219.096 -27.3168 84.9177 208.635 -18.7079 88.4772 195.75 -17.6063 115.402 207.383 -35.1647 14.0725 8.65113 16.5613 
160.161 142.649 144.197 143.789 146.929 158.999 88.206 83.2901 82.9665 82.6692 63.9631 235.55 -68.4875 78.4827 225.057 -40.7989 82.6591 219.367 -27.3743 85.1017 208.868 -18.8019 88.6295 195.969 -17.7052 115.505 207.587 -35.2771 14.0578 8.64769 16.6355 
160.157 142.753 144.281 143.768 146.908 158.986 88.2802 83.2206 82.8714 82.5791 64.1689 235.885 -68.6091 78.65 225.357 -40.9464 82.935 219.677 -27.4631 85.3499 209.16 -18.9289 88.8177 196.235 -17.8476 115.65 207.799 -35.3953 14.0503 8.67766 16.7802 
160.086 142.771 144.354 143.73 146.843 158.956 88.3997 83.2196 82.8243 82.5506 64.4075 236.266 -68.7225 78.8039 225.694 -41.1985 83.1983 220.049 -27.6002 85.5943 209.511 -19.0979 89.0007 196.569 -18.0319 115.835 208.054 -35.5244 14.0462 8.70287 16.9717 
160.215 142.743 144.38 143.589 146.704 159.149 88.5159 83.2067 82.7337 82.4671 64.5894 236.726 -68.8699 78.9251 226.033 -41.5167 83.4839 220.417 -27.6798 85.8412 209.838 -19.2414 89.1572 196.87 -18.191 115.995 208.276 -35.6259 14.0288 8.73258 17.2684 
160.193 142.875 144.327 143.433 146.577 159.159 88.5768 83.1416 82.5953 82.3155 64.8732 237.303 -69.0323 79.1757 226.445 -41.7103 83.8491 220.763 -27.7516 86.1681 210.152 -19.3723 89.3824 197.145 -18.3235 116.184 208.484 -35.7569 13.9852 8.77181 17.4034 
160.309 143.012 144.32 143.225 146.344 159.378 88.7709 83.1607 82.4805 82.1525 65.1878 237.973 -69.2949 79.256 226.751 -42.0031 84.1244 221.055 -27.8046 86.4336 210.398 -19.5006 89.5676 197.362 -18.4663 116.364 208.681 -35.8668 13.9459 8.80583 17.6789 
160.513 143.136 144.373 143.072 146.191 159.486 88.7376 83.0936 82.3589 82.0265 65.4094 238.302 -69.5019 79.3967 226.97 -42.2703 84.387 221.272 -27.8769 86.685 210.604 -19.6157 89.7742 197.575 -18.5839 116.513 208.855 -36.0002 13.9466 8.84174 17.8878 
160.603 143.205 144.404 143.088 146.16 159.417 88.5732 83.0788 82.2935 81.9423 65.7346 238.587 -69.7069 79.6166 227.237 -42.4431 84.5813 221.522 -27.9713 86.8969 210.856 -19.7314 89.9586 197.83 -18.7236 116.651 209.072 -36.162 13.9609 8.87829 17.9405 
160.543 143.123 144.517 143.072 145.99 159.339 88.4723 82.9988 82.1408 81.739 65.9332 238.788 -69.7727 79.7187 227.406 -42.7562 84.7539 221.65 -28.0816 87.0818 210.952 -19.8601 90.1064 197.916 -18.8795 116.759 209.181 -36.2936 13.9681 8.89224 18.1188 
160.435 143.027 144.613 143.068 145.849 159.235 88.2908 82.9238 82.0104 81.5511 66.0628 238.94 -69.8236 79.8244 227.489 -43.0265 84.8669 221.684 -28.1886 87.2228 210.971 -19.9763 90.2406 197.941 -19.013 116.841 209.254 -36.4354 13.9772 8.90891 18.217 
160.305 143.131 144.565 143.07 145.759 159.141 87.965 82.8103 81.8281 81.3054 66.2689 239.251 -69.9711 80.0693 227.59 -43.1859 84.9346 221.643 -28.3832 87.3233 210.897 -20.1499 90.3263 197.849 -19.1787 116.91 209.265 -36.5823 13.9554 8.89894 18.0505 
160.108 143.335 144.465 143.103 145.706 159.014 87.6831 82.7224 81.6996 81.11 66.5302 239.517 -70.2181 80.3252 227.649 -43.2373 84.9695 221.549 -28.574 87.3673 210.777 -20.3141 90.3612 197.717 -19.3455 116.953 209.25 -36.7311 13.9422 8.87727 17.7772 
159.834 143.703 144.375 143.103 145.674 158.786 87.4531 82.6851 81.6827 81.0173 66.7569 239.556 -70.4049 80.5871 227.636 -43.1989 84.9953 221.395 -28.7445 87.4101 210.649 -20.4513 90.4488 197.605 -19.4903 117.037 209.257 -36.882 13.954 8.87793 17.4157 
