161.127 143.161 138.825 140.644 143.901 160.177 85.5899 82.5785 81.6523 80.6488 31.3975 236.532 -86.1793 44.2853 220.757 -52.7523 46.6876 213.313 -41.1051 50.1639 202.816 -31.9834 54.1009 189.322 -30.1078 79.9915 203.257 -49.1888 12.8744 8.35854 13.1274 
160.912 143.083 138.538 140.551 143.791 160.075 85.6654 82.6529 81.798 80.7374 30.9096 236.703 -86.3137 43.6391 220.901 -52.7269 46.0969 213.458 -41.0795 49.5826 202.992 -31.9458 53.5447 189.478 -30.0938 79.3891 203.43 -49.2651 12.8257 8.37461 13.1379 
160.761 143.227 138.418 140.639 143.855 159.999 85.6844 82.7996 81.9599 80.8388 30.1107 236.356 -86.3832 42.9421 220.773 -52.65 45.3924 213.391 -41.0112 48.9646 202.985 -31.8371 53.018 189.47 -29.9802 78.7708 203.482 -49.2866 12.7963 8.3766 13.1142 
160.53 143.461 138.336 140.585 143.835 159.857 85.6664 82.8075 81.9704 80.8426 29.3084 236 -86.3383 42.3915 220.745 -52.4926 44.8474 213.368 -40.8846 48.4273 202.988 -31.7365 52.4785 189.454 -29.8719 78.1328 203.439 -49.2678 12.7856 8.39796 13.0737 
160.328 143.262 138.348 140.408 143.72 159.8 85.6505 82.7841 81.9402 80.9011 28.6437 235.665 -86.2682 41.7567 220.619 -52.4429 44.2152 213.225 -40.7848 47.7845 202.855 -31.6367 51.7917 189.359 -29.7279 77.4572 203.274 -49.1845 12.7771 8.40756 13.0562 
160.112 143.305 138.325 140.422 143.678 159.688 85.642 82.8248 81.9559 80.9437 28.0079 235.395 -86.1889 41.0327 220.464 -52.3403 43.4716 213.043 -40.6628 47.0833 202.697 -31.4647 51.0942 189.236 -29.5276 76.7782 203.138 -49.0637 12.7836 8.39282 12.9739 
159.945 143.347 138.211 140.379 143.584 159.635 85.772 82.9514 82.1027 81.0761 27.5054 235.317 -86.1472 40.287 220.33 -52.0489 42.7663 212.891 -40.3899 46.4098 202.58 -31.18 50.4019 189.121 -29.2661 76.0709 202.967 -48.9453 12.7597 8.41094 12.9214 
159.813 143.56 138.037 140.267 143.413 159.738 85.8929 83.0006 82.152 81.0823 26.8626 235.378 -86.2189 39.596 220.193 -51.7522 42.1981 212.741 -40.1383 45.8858 202.434 -30.9467 49.8755 188.951 -29.0598 75.3986 202.814 -48.9233 12.7338 8.40214 12.8856 
159.909 143.842 137.742 140.14 143.334 159.848 85.9826 83.0917 82.2303 81.0996 26.2676 235.297 -86.2677 39.0894 220.117 -51.3735 41.6547 212.656 -39.8908 45.377 202.366 -30.6937 49.3902 188.852 -28.7998 74.8257 202.741 -48.8144 12.6949 8.38791 12.78 
160.212 143.874 137.745 140.044 143.254 160.116 85.9252 83.077 82.1539 81.0215 25.7577 235.245 -86.4423 38.6546 219.996 -51.1545 41.1351 212.498 -39.7237 44.8738 202.19 -30.5251 48.8792 188.663 -28.5886 74.2782 202.611 -48.6676 12.6578 8.36247 12.6798 
160.365 143.585 137.765 139.998 143.237 160.292 85.8735 83.0804 82.1674 81.0792 25.2573 235.178 -86.4403 38.1192 219.905 -51.1258 40.5117 212.388 -39.6665 44.2116 202.054 -30.4232 48.1841 188.511 -28.4407 73.7353 202.45 -48.4891 12.6301 8.31366 12.6365 
160.338 143.163 137.831 140.013 143.209 160.317 85.8553 83.1313 82.2054 81.1398 24.7233 235.003 -86.2275 37.6362 219.9 -51.0991 39.9787 212.367 -39.557 43.6448 202.016 -30.3175 47.574 188.456 -28.3448 73.2546 202.338 -48.3285 12.6452 8.30833 12.6282 
160.324 142.962 137.824 140.035 143.174 160.335 85.9086 83.2437 82.2795 81.1961 24.39 234.844 -86.0903 37.1294 219.791 -51.0086 39.3779 212.203 -39.4594 43.0406 201.823 -30.1906 46.9442 188.273 -28.2431 72.7798 202.172 -48.1546 12.6525 8.27842 12.5568 
160.187 142.903 137.669 139.979 143.05 160.262 85.8255 83.2945 82.2601 81.1554 24.2068 234.914 -86.0758 36.6898 219.787 -50.7959 38.7872 212.079 -39.3248 42.4815 201.665 -30.0496 46.3486 188.118 -28.1416 72.2286 202.07 -48.0104 12.6582 8.2652 12.3897 
160.215 143.013 137.562 139.947 142.947 160.402 85.6713 83.243 82.1094 80.9259 23.9013 234.942 -86.1421 36.2756 219.601 -50.4915 38.2351 211.757 -39.1247 42.0041 201.307 -29.8119 45.868 187.757 -27.9052 71.6548 201.855 -47.8344 12.6352 8.22841 12.1819 
160.278 143.142 137.488 140.02 142.943 160.484 85.489 83.2124 82.023 80.8026 23.4844 234.871 -86.0753 35.7682 219.389 -50.2443 37.6081 211.458 -38.9741 41.4338 200.968 -29.657 45.349 187.415 -27.7653 71.0621 201.662 -47.6851 12.644 8.18305 12.0308 
160.495 143.002 137.486 140.054 142.998 160.698 85.4061 83.2343 82.011 80.7944 23.0261 234.768 -86.0099 35.2085 219.136 -50.1228 36.9472 211.162 -38.8356 40.8106 200.654 -29.4485 44.7423 187.106 -27.5269 70.5174 201.43 -47.4459 12.6383 8.12774 11.9365 
160.746 142.778 137.324 140.028 143.049 160.964 85.2659 83.3465 82.1464 80.9202 22.7109 234.559 -86.1076 34.7877 218.915 -50.0915 36.2955 210.9 -38.752 40.1664 200.442 -29.2301 44.1158 186.907 -27.2309 70.0373 201.203 -47.1975 12.6123 8.08945 11.7704 
160.864 142.616 137.047 139.983 143.029 161.219 85.2754 83.5033 82.3581 81.1087 22.4575 234.559 -86.2699 34.3313 218.758 -49.9253 35.6871 210.713 -38.5868 39.5836 200.335 -28.9305 43.5749 186.814 -26.8598 69.592 201.061 -46.9424 12.5916 8.05564 11.583 
161.14 142.618 136.827 139.926 143.007 161.508 85.2627 83.5325 82.4539 81.2564 22.2477 234.493 -86.3902 33.9197 218.588 -49.6853 35.2003 210.498 -38.3618 39.0999 200.211 -28.6162 43.1066 186.737 -26.4697 69.1463 200.908 -46.6679 12.6008 8.05453 11.4096 
161.418 142.902 136.476 139.81 143.013 161.701 85.3242 83.6337 82.6927 81.5138 22.1224 234.596 -86.4363 33.5575 218.505 -49.3014 34.8167 210.446 -38.0575 38.6748 200.246 -28.3017 42.701 186.767 -26.134 68.7229 200.843 -46.4463 12.5823 8.07988 11.3576 
161.739 143.231 136.242 139.703 142.916 162.074 85.1987 83.6926 82.7942 81.6619 21.2945 234.813 -86.1291 32.5492 218.182 -48.6549 33.6973 210.099 -37.5005 37.5468 199.9 -27.7681 41.6051 186.431 -25.5928 67.6442 200.553 -45.9514 12.5688 8.05205 11.2688 
161.846 143.488 136.054 139.788 142.886 162.288 85.1101 83.7562 82.8457 81.6497 21.0873 234.805 -86.0406 32.2195 217.893 -48.3324 33.2597 209.789 -37.2519 37.1036 199.561 -27.5147 41.2133 186.062 -25.3468 67.2468 200.258 -45.7184 12.5725 7.98538 11.1747 
162.152 143.484 135.926 139.65 142.828 162.466 85.1914 83.8548 82.9775 81.8219 20.7161 234.991 -85.8267 31.7075 217.783 -47.879 32.7225 209.665 -36.8407 36.5232 199.42 -27.1475 40.5892 185.892 -25.0205 66.7045 200.031 -45.3829 12.5826 7.98221 11.1507 
162.19 143.524 135.798 139.689 142.837 162.449 85.2345 83.9051 83.0258 81.8761 20.3276 234.997 -85.6197 31.2291 217.59 -47.4177 32.2191 209.459 -36.4539 36.0117 199.216 -26.8007 40.0514 185.639 -24.7261 66.1636 199.799 -45.0985 12.5949 7.99861 11.1261 
162.494 143.602 135.679 139.683 142.905 162.679 85.2989 84.0158 83.1155 81.9849 19.8803 234.913 -85.4672 30.763 217.234 -46.8471 31.7017 209.077 -36.0149 35.5328 198.838 -26.4075 39.5536 185.236 -24.3884 65.5901 199.448 -44.8287 12.5747 8.02155 11.0768 
162.677 143.936 135.377 139.578 142.92 162.767 85.3734 84.0747 83.1647 82.0197 19.6385 234.738 -85.3056 30.3817 216.832 -46.1564 31.2687 208.669 -35.5666 35.1247 198.44 -26.013 39.1258 184.814 -24.0672 65.0376 199.099 -44.5581 12.5862 8.04749 11.058 
163.531 143.733 135.004 139.533 143.094 163.561 85.2686 84.2215 83.3336 82.206 19.4927 234.807 -85.2692 30.035 216.478 -45.7626 30.6319 208.299 -35.3385 34.4724 198.101 -25.742 38.5131 184.476 -23.7827 64.5458 198.81 -44.1751 12.5859 8.03295 10.9635 
164.812 143.424 134.869 139.551 143.148 164.326 85.129 84.2576 83.3766 82.2811 19.1515 234.495 -85.1685 29.5558 215.942 -45.5402 29.9692 207.785 -35.1541 33.7948 197.615 -25.5071 37.88 184.032 -23.5398 64.0539 198.453 -43.7889 12.6465 8.01378 10.9467 
166.436 143.019 135.114 139.733 143.319 165.335 84.9964 84.281 83.4426 82.4445 18.6755 234.344 -84.9893 29.0194 215.485 -45.3879 29.2994 207.376 -34.9232 33.1112 197.258 -25.1721 37.2382 183.729 -23.1405 63.593 198.139 -43.3005 12.6931 7.98401 10.9342 
168.393 142.669 135.147 139.812 143.366 166.36 84.8742 84.2926 83.4501 82.4876 18.394 234.449 -84.9173 28.4254 214.962 -45.2283 28.5564 206.79 -34.7089 32.3951 196.732 -24.8373 36.5985 183.289 -22.7472 63.1207 197.796 -42.772 12.7692 7.94873 10.7858 
170.45 142.303 135.403 139.807 143.353 167.357 84.6967 84.3259 83.4876 82.568 18.2932 234.922 -84.7417 28.0427 214.624 -45.0057 27.9683 206.388 -34.4366 31.7559 196.328 -24.5576 35.9915 182.94 -22.4504 62.774 197.492 -42.2201 12.8129 7.94782 10.694 
171.933 142.046 135.352 139.639 143.349 168.564 84.3071 84.3041 83.4906 82.6233 18.0979 235.433 -84.5391 27.7631 214.243 -44.7549 27.5217 205.972 -34.0475 31.2339 195.899 -24.2205 35.4667 182.536 -22.096 62.3928 197.131 -41.7077 12.821 7.95624 10.6411 
173.872 141.921 135.187 139.371 143.306 169.681 84.0912 84.2627 83.5414 82.7319 18.0173 235.978 -84.3028 27.4072 213.77 -44.2547 27.1434 205.459 -33.4632 30.7905 195.399 -23.7132 34.9944 182.023 -21.5911 61.9568 196.645 -41.1824 12.7825 8.00143 10.6087 
175.519 142.028 134.98 139.297 143.374 170.692 83.9189 84.219 83.5619 82.7504 17.9492 236.282 -84.1522 27.0292 213.117 -43.7064 26.7238 204.756 -32.9703 30.3482 194.708 -23.2965 34.6023 181.302 -21.1774 61.4968 196.067 -40.764 12.7441 8.02518 10.557 
175.706 142.065 134.734 139.306 143.642 171.367 83.9308 84.3227 83.7065 82.8976 17.8657 236.138 -84.1053 26.684 212.434 -43.3062 26.265 204.098 -32.6742 29.8889 194.085 -22.9423 34.2109 180.703 -20.7639 61.1531 195.524 -40.3627 12.7128 7.98998 10.5378 
175.877 142.004 134.599 139.228 143.715 171.762 83.9484 84.3955 83.7786 82.9656 17.8015 235.831 -83.9974 26.3209 211.762 -42.9165 25.8236 203.422 -32.3487 29.4534 193.428 -22.6099 33.8073 180.055 -20.4185 60.7854 194.93 -39.9753 12.6943 7.99878 10.5296 
177.604 141.943 134.512 139.478 144.137 173.508 83.8692 84.4511 83.8774 83.0594 17.9065 235.702 -83.7416 25.6598 210.461 -42.1543 24.9821 202.036 -31.6641 28.636 192.136 -21.7955 33.1827 178.839 -19.485 60.291 193.998 -38.9598 12.6827 7.94543 10.3638 
178.341 141.82 134.613 139.701 144.339 174.402 83.7316 84.3543 83.7797 82.9731 18.2095 235.523 -83.8188 25.5151 209.863 -42.0716 24.7017 201.391 -31.5813 28.3299 191.529 -21.6111 32.9389 178.317 -19.2322 60.1842 193.604 -38.5456 12.7327 7.91197 10.295 
179.038 141.868 134.575 139.784 144.559 174.929 83.6153 84.3507 83.7609 82.9237 18.4081 235.046 -83.7178 25.3321 209.137 -41.7499 24.3891 200.68 -31.2656 27.9873 190.797 -21.2085 32.6246 177.657 -18.7866 59.9526 192.981 -38.0639 12.7672 7.82799 10.2901 
179.093 141.911 134.374 139.722 144.853 174.828 83.3699 84.2859 83.6664 82.8674 18.422 233.946 -83.5796 25.4249 208.583 -41.4245 24.3244 200.141 -30.9745 27.8825 190.221 -20.8723 32.4849 177.12 -18.3968 59.7802 192.397 -37.6657 12.7959 7.76013 10.2838 
179.082 141.693 134.151 139.669 145.16 174.507 83.1561 84.2751 83.6828 82.9303 18.6353 232.901 -83.4677 25.6329 208.183 -41.1004 24.2881 199.746 -30.7216 27.7519 189.793 -20.5457 32.2748 176.709 -18.0491 59.6488 191.877 -37.2517 12.8189 7.7032 10.2853 
178.875 141.39 133.987 139.652 145.502 174.083 82.8576 84.22 83.6206 82.9279 18.6609 231.597 -83.2092 25.8374 207.576 -40.7663 24.2921 199.207 -30.3902 27.698 189.212 -20.132 32.131 176.151 -17.5961 59.518 191.232 -36.7956 12.8202 7.63482 10.353 
179.222 141.126 133.77 139.649 145.824 173.926 82.9032 84.2932 83.6975 82.9394 18.6282 230.605 -82.8851 25.7485 206.86 -40.3073 24.1139 198.557 -29.9803 27.4958 188.567 -19.6193 31.9291 175.501 -17.0384 59.3668 190.576 -36.2379 12.786 7.58266 10.4195 
179.328 140.845 133.527 139.735 146.254 174.05 82.901 84.3677 83.7935 82.9314 18.784 229.623 -82.7058 25.6993 206.044 -39.8312 23.9299 197.841 -29.5586 27.2906 187.905 -19.0471 31.7647 174.873 -16.3897 59.224 189.978 -35.677 12.7619 7.51496 10.5067 
176.589 140.295 133.17 139.829 146.515 174.457 82.8835 84.3971 83.7423 82.82 19.2691 229.013 -82.5811 25.5626 205.211 -39.5571 23.6847 197.106 -29.2854 27.056 187.223 -18.6159 31.548 174.218 -15.8551 59.0929 189.413 -35.1158 12.7428 7.46442 10.5922 
175.18 139.761 133.077 140.094 146.617 174.563 82.8267 84.2771 83.5826 82.4831 19.6254 228.191 -82.3225 25.3455 204.324 -39.3386 23.3685 196.238 -29.0182 26.7104 186.448 -18.1319 31.2118 173.461 -15.279 58.9306 188.76 -34.4597 12.7602 7.43505 10.5802 
174.489 139.479 133.197 140.34 146.736 174.412 82.8566 84.0778 83.4216 82.124 19.6483 227.02 -82.0039 25.0067 203.365 -39.2264 23.0672 195.366 -28.8207 26.3771 185.721 -17.6933 30.8897 172.759 -14.7159 58.7579 188.144 -33.8576 12.7548 7.43507 10.6342 
172.616 139.127 133.162 140.477 146.991 174.673 82.876 84.0664 83.3091 81.8092 20.1482 226.151 -81.906 24.7429 202.416 -38.9987 22.7563 194.525 -28.5196 26.0684 184.942 -17.2351 30.5966 172.01 -14.1278 58.5907 187.499 -33.2668 12.7029 7.39541 10.7087 
170.383 139.009 133.063 140.543 147.324 175.122 82.9864 84.1938 83.357 81.646 20.7218 225.53 -81.6942 24.4203 201.548 -38.5436 22.4021 193.761 -28.0383 25.7091 184.194 -16.6706 30.3057 171.255 -13.431 58.4008 186.839 -32.5865 12.6098 7.32166 10.7665 
168.593 138.945 133.075 140.541 147.654 175.321 83.1631 84.2795 83.4361 81.6137 21.1329 225.192 -81.5905 24.2613 201.022 -38.0548 22.2067 193.22 -27.4706 25.4799 183.722 -15.9407 30.0184 170.872 -12.5981 58.2612 186.298 -31.958 12.5631 7.27713 10.6589 
168.568 138.838 133.1 140.472 147.765 174.817 83.339 84.1421 83.3119 81.4286 20.9756 224.435 -81.2029 24.0428 200.413 -37.7207 22.1111 192.674 -27.0192 25.3608 183.302 -15.3253 29.8152 170.516 -11.8694 58.1317 185.828 -31.322 12.5266 7.32563 10.6769 
168.37 138.997 133.255 140.679 147.648 174.583 83.5964 83.826 83.0447 80.9666 20.7362 223.377 -80.8163 23.575 199.445 -37.4308 21.9523 191.819 -26.6698 25.244 182.654 -14.801 29.7123 169.851 -11.3157 57.9238 185.264 -30.7672 12.5635 7.45237 10.8123 
166.997 139.442 133.651 141.181 147.605 174.763 83.9751 83.6553 82.9786 80.4894 20.7009 221.959 -80.0205 22.537 197.664 -36.6052 21.2709 190.279 -25.7068 24.581 181.379 -13.6365 29.2246 168.531 -10.1538 57.3159 184.119 -29.5689 12.6367 7.576 11.0482 
167.723 139.476 133.937 141.054 148.122 174.194 84.1589 83.8994 83.1096 80.5889 20.2267 220.958 -79.6864 22.1616 196.891 -36.4955 20.9359 189.821 -25.4419 24.2444 180.86 -13.4019 28.9241 168.037 -9.7373 57.0682 183.503 -29.2106 12.4816 7.4852 11.3123 
169.182 139.744 134.211 140.836 148.544 173.582 84.6043 84.2321 83.4421 80.8329 19.4069 220.072 -78.953 21.6234 196.416 -36.0359 20.4677 189.546 -24.9518 23.7347 180.508 -12.9795 28.4927 167.704 -9.19925 56.7947 183.124 -28.6136 12.3361 7.4071 11.5014 
169.706 140.106 134.611 140.843 149.059 173.536 84.9131 84.5639 83.8665 81.1266 18.901 219.374 -78.3439 21.2897 196.219 -35.3719 20.106 189.397 -24.302 23.2959 180.305 -12.4076 28.1586 167.521 -8.5548 56.5745 182.886 -28.0046 12.2182 7.32177 11.4914 
170.116 140.095 134.861 140.906 149.229 173.381 85.1493 84.8175 84.0895 81.2083 18.5036 218.74 -77.7322 20.9805 195.956 -34.7992 19.6976 189.155 -23.8235 22.8744 180.001 -11.9804 27.8183 167.241 -8.13934 56.3448 182.745 -27.4846 12.1923 7.25826 11.5188 
169.518 140.345 135.09 141.092 148.814 173.603 85.2178 84.8289 84.0897 81.0125 18.1203 218.352 -77.2605 20.655 195.606 -34.2317 19.3439 188.732 -23.3116 22.5525 179.583 -11.4317 27.6387 166.875 -7.70412 56.1049 182.602 -26.9843 12.3466 7.20508 11.4444 
169.384 140.412 135.553 141.549 148.541 173.794 85.2233 84.7807 84.0363 80.822 17.5848 217.793 -76.6769 20.2708 195.18 -33.8434 18.944 188.302 -22.9091 22.2184 179.193 -10.8978 27.525 166.579 -7.24273 55.9481 182.643 -26.3622 12.5465 7.12021 11.422 
170.169 140.454 135.906 141.83 148.555 173.208 85.343 84.836 83.9263 80.6483 16.6919 216.75 -75.9171 19.8468 194.714 -33.5376 18.5581 187.929 -22.4994 21.9343 178.804 -10.3829 27.3729 166.28 -6.71579 55.7902 182.595 -25.7263 12.6729 7.00108 11.4666 
170.425 140.554 136.137 141.966 148.749 172.69 85.5621 84.9659 83.9574 80.6075 16.0608 215.945 -75.2353 19.5127 194.372 -33.1844 18.2776 187.707 -22.0205 21.6798 178.535 -9.84061 27.2183 166.106 -6.12595 55.6745 182.56 -25.0893 12.7093 6.87492 11.5401 
170.886 140.638 136.278 141.925 148.959 172.129 85.7609 85.026 83.9707 80.6443 15.5868 215.344 -74.4675 19.2664 194.32 -32.7711 18.0563 187.618 -21.5632 21.4168 178.355 -9.36869 26.9076 165.995 -5.63048 55.5046 182.363 -24.4819 12.7125 6.80605 11.4964 
171.962 140.588 136.369 141.938 148.329 171.193 85.6024 84.5028 83.5125 80.2886 14.8205 214.25 -73.5892 19.0194 193.741 -32.5796 17.9958 187.045 -21.2572 21.375 177.941 -8.94711 26.8077 165.634 -5.3727 55.2804 181.93 -23.92 13.0673 6.99063 11.5788 
171.977 140.573 136.366 142.171 147.919 170.598 85.5528 84.256 83.209 80.0685 14.4589 213.253 -73.0233 18.7441 193.089 -32.3707 17.8051 186.411 -20.9442 21.2667 177.475 -8.48384 26.68 165.214 -5.05677 55.0584 181.489 -23.4019 13.3771 7.14413 11.6282 
172.851 140.694 136.509 142.483 147.829 169.696 85.5474 84.1557 82.9563 79.9869 14.0693 211.83 -72.5499 18.5072 192.416 -32.2418 17.5814 185.766 -20.6638 21.1347 177.005 -8.03388 26.5079 164.855 -4.6491 54.863 180.993 -22.8415 13.6261 7.28388 11.621 
172.126 140.879 136.052 142.547 147.104 168.651 84.8041 83.1784 81.9247 79.3197 12.6729 210.664 -71.3552 18.6768 192.062 -31.2492 17.9381 185.278 -19.8308 21.6734 176.776 -7.26641 26.717 164.668 -4.23861 54.336 180.29 -22.7235 14.1918 7.7346 11.6234 
173.068 141.232 135.754 142.882 146.716 167.371 83.8164 82.3138 81.2223 78.8329 11.4463 209.198 -70.3561 19.1335 191.982 -30.149 18.39 184.909 -19.0041 22.2158 176.573 -6.53973 27.0621 164.411 -3.81469 53.8673 179.857 -22.7525 14.538 8.00822 11.4325 
176.056 141.866 135.887 143.328 146.703 165.889 82.9889 81.6399 80.7488 78.4817 10.2038 207.484 -69.3264 19.5826 191.909 -29.1533 18.7493 184.541 -18.3172 22.6321 176.287 -5.93569 27.4145 164.041 -3.39036 53.5045 179.564 -22.6915 14.7176 8.12063 11.22 
179.742 142.607 136.107 143.827 146.999 164.226 82.2888 81.1718 80.4044 78.1855 9.24139 205.563 -68.3792 20.0433 191.779 -28.3103 19.0444 184.131 -17.7586 23.0119 175.937 -5.40335 27.8035 163.616 -2.94784 53.2586 179.322 -22.5811 14.7952 8.15785 11.0148 
174.636 143.395 136.096 144.177 147.412 162.511 82.0025 81.0112 80.2896 78.1084 8.41003 203.902 -67.4396 20.3616 191.778 -27.5191 19.2236 183.875 -17.2448 23.2545 175.651 -4.875 28.0273 163.271 -2.49433 53.0505 179.058 -22.4228 14.8179 8.09893 10.8402 
170.032 143.828 136.03 144.417 147.947 160.942 81.8488 80.9359 80.2119 78.0899 7.73381 202.355 -66.5514 20.5987 191.757 -26.9548 19.3516 183.711 -16.8894 23.4342 175.401 -4.46465 28.1776 162.976 -2.10677 52.8982 178.796 -22.2292 14.8022 7.98859 10.7886 
165.895 144.018 135.898 144.543 148.4 159.345 81.7891 80.8835 80.1557 78.0852 7.15941 201.013 -65.7121 20.7188 191.674 -26.5294 19.3838 183.568 -16.6464 23.5 175.184 -4.14168 28.2009 162.718 -1.78896 52.7284 178.484 -22.0276 14.797 7.89721 10.8182 
162.429 144.094 135.733 144.687 148.877 158.108 81.7369 80.889 80.1572 78.1739 6.81633 199.944 -65.0584 20.8141 191.621 -26.106 19.365 183.478 -16.3865 23.4974 175.025 -3.81558 28.1468 162.544 -1.43801 52.5434 178.192 -21.8201 14.746 7.81279 10.865 
160.055 144.066 135.585 144.69 149.304 157.156 81.6943 80.8934 80.138 78.2818 6.44816 198.907 -64.5163 20.8491 191.364 -25.7586 19.3266 183.258 -16.1697 23.4924 174.749 -3.55417 28.0818 162.269 -1.13555 52.3501 177.769 -21.6257 14.6856 7.76819 10.9836 
158.898 143.886 135.299 144.462 149.652 156.291 81.8913 81.0517 80.2443 78.589 6.0298 198.081 -64.2009 20.9026 191.18 -25.4077 19.3557 183.176 -15.9467 23.5302 174.562 -3.30949 27.9984 162.105 -0.84943 52.2054 177.296 -21.4661 14.5994 7.70866 11.1414 
158.334 143.622 135.021 144.132 149.833 155.641 82.0533 81.1727 80.3292 78.8865 5.62557 197.329 -63.9612 20.9696 190.965 -25.0753 19.4301 183.129 -15.7281 23.6201 174.437 -3.10237 27.9751 162.001 -0.579791 52.0666 176.861 -21.3465 14.5001 7.67775 11.3625 
158.175 143.551 134.976 143.865 149.922 155.283 82.1682 81.1849 80.3673 79.1513 5.17568 196.516 -63.7797 21.0691 190.595 -24.6916 19.5511 182.935 -15.4569 23.7272 174.206 -2.8733 28.0039 161.845 -0.311141 51.925 176.401 -21.2329 14.482 7.65484 11.6031 
158.32 143.317 134.935 143.558 149.943 155.254 82.3199 81.1113 80.4218 79.4783 4.83544 195.945 -63.5867 21.1609 190.283 -24.2303 19.7469 182.801 -15.0949 23.8454 174.011 -2.56182 28.0047 161.756 0.0126991 51.7583 175.957 -21.1186 14.4813 7.60441 11.8397 
158.886 142.891 134.783 143.085 149.702 155.207 82.5103 81.0811 80.4774 79.776 4.63418 195.742 -63.5546 21.3084 190.173 -23.8786 19.9696 182.805 -14.8177 23.9585 173.892 -2.33263 27.9757 161.734 0.228962 51.6242 175.585 -21.0584 14.5015 7.51747 11.9886 
159.591 142.291 134.573 142.517 149.556 155.339 82.7582 81.0928 80.584 80.0723 4.5354 195.62 -63.548 21.3528 190.044 -23.609 20.111 182.738 -14.5977 23.9601 173.67 -2.16423 27.8835 161.601 0.421057 51.4958 175.192 -20.9726 14.4507 7.39856 12.0642 
160.258 141.964 134.698 142.046 149.444 155.667 82.9932 80.921 80.5877 80.3895 4.50131 195.671 -63.5452 21.372 189.877 -23.3658 20.3101 182.666 -14.3794 23.9634 173.487 -2.0154 27.7606 161.564 0.630292 51.3838 174.926 -20.889 14.4029 7.31667 12.1803 
160.794 141.825 135.017 141.701 149.445 155.998 83.0997 80.7184 80.5451 80.6921 4.48338 195.682 -63.4865 21.3983 189.645 -23.1463 20.4548 182.535 -14.1604 23.9242 173.273 -1.87156 27.6076 161.527 0.852036 51.2445 174.687 -20.8011 14.3795 7.24582 12.3033 
161.186 142.183 135.779 141.507 149.337 156.368 83.089 80.2889 80.3156 80.8236 4.53302 195.752 -63.4277 21.5032 189.351 -22.9159 20.6903 182.303 -13.9225 23.9394 173.039 -1.77765 27.509 161.477 1.01261 51.1061 174.506 -20.7493 14.4208 7.27885 12.407 
161.496 142.243 136.456 141.424 149.331 156.597 83.0431 79.9888 80.1329 80.919 4.77253 195.906 -63.3483 21.5472 189.117 -22.859 20.7568 182.094 -13.8048 23.8225 172.827 -1.75314 27.3169 161.418 1.1192 51.0097 174.379 -20.6372 14.4284 7.3236 12.4494 
161.852 142.149 137.125 141.333 149.357 156.711 82.9596 79.7546 79.9026 80.9319 4.93249 196.037 -63.3155 21.5048 188.847 -22.978 20.6901 181.861 -13.8012 23.6217 172.568 -1.81891 27.0713 161.349 1.15564 50.9335 174.313 -20.5405 14.4496 7.34647 12.4797 
162.012 142.013 137.854 141.299 149.294 156.794 82.8229 79.4677 79.5726 80.8302 5.084 196.163 -63.1718 21.444 188.527 -23.1422 20.6147 181.554 -13.8045 23.4553 172.287 -1.91524 26.8633 161.237 1.17135 50.8986 174.281 -20.4194 14.4711 7.44136 12.4795 
162.072 141.949 138.614 141.309 149.268 156.802 82.6438 79.2172 79.2948 80.7478 5.18196 196.279 -62.9864 21.3773 188.283 -23.315 20.5157 181.304 -13.7802 23.2782 172.105 -1.99423 26.6561 161.217 1.18825 50.8607 174.309 -20.2897 14.5076 7.58034 12.4389 
162.064 141.987 139.364 141.389 149.336 156.835 82.4935 79.1024 79.1002 80.6786 5.21658 196.086 -62.7913 21.193 187.862 -23.4961 20.2661 180.903 -13.7657 23.0318 171.795 -2.07344 26.4526 161.051 1.20526 50.8204 174.266 -20.1393 14.5343 7.71936 12.415 
161.982 141.96 139.965 141.473 149.479 156.798 82.2146 79.0256 78.9157 80.5882 5.32047 195.799 -62.619 21.087 187.483 -23.7253 20.0122 180.508 -13.8022 22.7921 171.465 -2.17384 26.2497 160.848 1.20442 50.7815 174.161 -19.9849 14.5557 7.81978 12.3535 
