160.179 133.895 138.93 138.541 146.724 166.214 81.8244 76.0418 78.3782 81.8854 58.3774 219.703 -43.7781 33.6279 203.384 5.49498 30.2348 200.376 12.9123 24.2231 192.669 22.978 19.8086 181.017 27.9723 54.4866 181.72 15.6049 12.5402 8.28871 17.2185 
160.215 133.726 139.049 138.852 147.049 166.194 81.9682 76.2754 78.5682 82.0364 58.6517 219.406 -43.963 33.8074 203.312 5.38728 30.2796 200.347 12.7695 24.274 192.667 22.8985 19.8932 181.016 27.9454 54.6509 181.641 15.5994 12.4983 8.24051 17.1491 
160.281 133.571 139.128 138.96 146.977 166.17 82.0311 76.3988 78.6546 82.0544 58.914 219.26 -44.1688 34.0582 203.354 5.31469 30.4108 200.391 12.6883 24.3938 192.732 22.8776 20.0204 181.081 27.9449 54.8226 181.639 15.5828 12.5066 8.18796 17.0472 
160.395 133.31 139.26 139.19 146.982 166.285 81.9473 76.403 78.6645 82.0229 59.2724 219.3 -44.3913 34.4306 203.442 5.30421 30.6795 200.475 12.6772 24.6304 192.848 22.9472 20.2008 181.187 27.9829 54.9842 181.654 15.556 12.5675 8.1235 16.9636 
160.39 133.362 139.252 139.24 146.934 166.339 81.9563 76.342 78.6124 81.9526 59.4916 219.287 -44.4675 34.7105 203.522 5.28293 30.9716 200.467 12.6385 24.8971 192.826 22.952 20.4293 181.146 27.9661 55.1419 181.612 15.4968 12.5907 8.07097 16.879 
160.411 133.325 139.4 139.395 147.023 166.383 82.0139 76.3264 78.5748 81.9004 59.6819 219.031 -44.487 34.9054 203.438 5.21425 31.1926 200.314 12.6132 25.0959 192.651 22.9284 20.6031 180.968 27.8977 55.2806 181.403 15.4212 12.6369 8.04226 16.7998 
160.512 133.528 139.482 139.396 146.929 166.369 81.851 76.2306 78.492 81.8422 59.7679 218.991 -44.6042 35.1969 203.431 5.12594 31.4356 200.259 12.5519 25.3233 192.616 22.8829 20.7942 180.943 27.8746 55.443 181.339 15.375 12.6389 8.04102 16.7175 
160.539 133.621 139.693 139.715 147.01 166.276 82.0092 76.243 78.4419 81.7458 59.9694 218.576 -44.6594 35.2995 203.226 5.05797 31.5613 199.993 12.5023 25.4857 192.37 22.8171 20.9787 180.665 27.7483 55.6336 181.155 15.3581 12.7462 8.08884 16.6433 
160.561 133.923 139.807 139.773 146.958 166.163 82.0933 76.2447 78.4404 81.7321 60.1535 218.395 -44.6283 35.4141 203.194 4.9445 31.7755 199.966 12.4136 25.6661 192.31 22.6422 21.1654 180.569 27.4871 55.8664 181.137 15.3219 12.8387 8.11279 16.6985 
160.449 134.192 139.878 139.885 147.003 166.178 82.1027 76.1385 78.3022 81.5967 60.2036 218.091 -44.5476 35.5114 202.985 4.90444 32.0056 199.7 12.4357 25.9026 192.005 22.6012 21.42 180.253 27.3378 56.0495 180.955 15.3007 12.9813 8.14883 16.7097 
160.374 134.472 139.97 139.86 147.103 166.096 82.1103 76.0754 78.2489 81.6033 60.1615 217.751 -44.4906 35.6149 202.867 4.82856 32.1711 199.555 12.4076 26.0024 191.832 22.4688 21.5554 180.121 27.2034 56.2164 180.869 15.2895 13.0279 8.17132 16.7084 
160.258 134.805 140.069 139.826 147.102 166.224 82.0757 75.9268 78.0806 81.4935 60.1184 217.662 -44.4339 35.7165 202.844 4.83387 32.3949 199.478 12.5045 26.2113 191.717 22.4954 21.7633 180.038 27.1934 56.3597 180.869 15.2832 13.0912 8.20236 16.715 
160.083 135.291 140.076 139.717 147.077 166.245 82.1558 75.8453 78.0081 81.4627 60.0284 217.622 -44.2877 35.7006 202.882 4.85471 32.5645 199.46 12.5958 26.3932 191.657 22.5202 21.9572 179.972 27.1654 56.5253 180.947 15.2927 13.1314 8.23924 16.752 
160.113 135.12 139.9 139.757 147.109 166.299 82.0217 75.7607 77.9236 81.3653 60.1186 217.563 -44.3629 35.8769 202.71 4.91753 32.7157 199.359 12.6353 26.5913 191.615 22.6033 22.1379 179.933 27.2636 56.6831 180.94 15.3068 13.1344 8.2811 16.8232 
160.168 134.714 139.693 139.61 147.127 166.393 81.6631 75.5739 77.7876 81.2863 60.342 217.615 -44.4823 36.0719 202.482 5.03519 32.8257 199.243 12.733 26.7507 191.606 22.7506 22.2196 179.961 27.4742 56.7227 180.875 15.3209 13.0839 8.36501 16.935 
160.181 134.5 139.509 139.575 147.152 166.625 81.5353 75.4573 77.6665 81.1701 60.5883 217.726 -44.5075 36.2033 202.334 5.17069 32.9883 199.155 12.8749 26.9585 191.56 22.9109 22.3699 179.918 27.5823 56.8371 180.846 15.3386 13.1436 8.41889 17.039 
160.225 134.23 139.162 139.427 147.204 166.64 81.4015 75.3716 77.5915 81.1069 60.7409 217.722 -44.537 36.2894 202.03 5.29028 33.0743 198.987 12.9458 27.1297 191.479 23.0056 22.4974 179.839 27.6965 56.9506 180.765 15.3439 13.1208 8.52502 17.2242 
160.197 134.015 138.947 139.448 147.533 166.74 81.5119 75.4273 77.6254 81.0776 60.9353 217.597 -44.5403 36.3329 201.744 5.36151 33.1386 198.846 12.9619 27.2351 191.395 23.0443 22.6102 179.755 27.7846 57.0976 180.67 15.3975 13.063 8.57138 17.4007 
160.215 133.804 138.766 139.422 147.718 166.805 81.5568 75.52 77.6885 81.1156 61.1065 217.481 -44.566 36.4029 201.513 5.43191 33.1828 198.781 12.9704 27.321 191.365 23.0973 22.6766 179.718 27.8663 57.2344 180.585 15.466 13.0305 8.58072 17.5708 
160.268 133.306 138.283 139.165 147.615 166.856 81.2758 75.4813 77.6819 80.9997 61.4841 217.489 -44.751 36.6411 201.198 5.50627 33.2601 198.693 12.8854 27.4733 191.393 23.1384 22.7929 179.692 28.0625 57.3627 180.526 15.5482 12.8886 8.6181 17.7876 
160.427 132.899 137.922 138.956 147.585 166.959 81.155 75.5676 77.7599 81.0168 61.8034 217.545 -44.8995 36.8576 200.955 5.56024 33.3455 198.695 12.7952 27.5862 191.448 23.1417 22.886 179.737 28.1874 57.5346 180.495 15.6239 12.776 8.58988 18.0147 
160.52 132.481 137.751 138.731 147.536 166.879 81.0282 75.5875 77.8284 81.0121 62.1702 217.558 -44.8653 37.0979 200.751 5.60535 33.4851 198.686 12.7631 27.6913 191.508 23.1432 22.9546 179.803 28.3523 57.65 180.345 15.7035 12.5661 8.59407 18.2023 
160.579 132.56 137.673 138.483 147.374 166.809 80.9912 75.6064 77.8939 81.0232 62.4182 217.587 -44.7867 37.3597 200.747 5.64838 33.6982 198.716 12.7481 27.8297 191.555 23.1445 23.0293 179.845 28.5001 57.7486 180.151 15.7897 12.3583 8.54925 18.2189 
151.074 124.712 136.891 140.213 148.725 161.062 82.5253 75.519 77.8923 79.3714 57.7224 220.669 -39.0124 37.5866 202.581 3.43816 36.4294 201.972 12.479 28.5538 193.851 22.4736 23.008 181.765 26.5642 57.6854 180.682 14.7899 12.3463 7.03049 21.7628 
149.907 123.471 136.596 139.891 147.874 161.897 82.7567 75.4229 77.6766 79.0604 56.4868 219.746 -39.1584 37.3218 202.31 3.15825 36.2194 201.389 12.3601 28.9095 193.343 22.7288 23.7744 181.168 27.1559 57.9333 180.532 15.2112 12.4653 7.19871 21.2154 
150.032 123.206 136.473 139.594 147.203 162.002 82.4401 75.2148 77.4232 79.236 56.0251 218.582 -39.8224 37.2432 201.568 3.13684 35.9921 200.45 12.3592 29.0806 192.474 22.8848 24.1816 180.354 27.5694 58.2186 180.283 15.5083 12.5656 7.37373 20.716 
150.794 123.004 136.193 139.884 146.19 162.566 83.2973 75.6918 77.7965 79.7441 58.0152 218.727 -40.3414 38.0702 202.673 3.03447 36.3574 200.788 12.2841 29.3443 192.959 23.0133 24.2778 180.956 27.5564 58.5603 180.438 15.5498 12.7047 7.25981 19.4561 
152.645 124.096 136.491 139.708 146.371 163.346 82.6842 75.6242 77.7747 79.9851 58.8556 217.833 -41.1485 38.3598 202.113 3.32771 36.2612 199.998 12.4134 29.4324 192.211 23.1391 24.5397 180.308 27.8035 58.7966 180.026 15.6915 12.7443 7.3817 18.869 
151.038 117.945 135.595 141.094 146.658 155.76 83.7597 74.5442 77.3496 78.4107 55.9115 221.93 -36.0636 39.306 204.397 1.4823 38.5352 201.91 12.0522 30.6159 194.153 22.5904 24.9988 181.964 26.1786 58.8776 180.484 14.9538 12.7486 7.1971 20.6967 
149.973 117.639 136.714 143.128 148.504 153.862 82.0473 73.1401 76.3443 77.4762 52.3919 221.039 -34.116 39.5903 204.072 0.255194 39.0327 201.172 11.5839 30.8239 193.048 22.3516 25.2625 180.904 25.8158 59.0325 179.914 14.8401 12.4825 6.8416 21.2758 
157.19 116.831 137.8 143.83 147.818 151.075 80.3516 73.5819 76.4898 78.0391 53.8472 221.385 -34.2404 42.2088 206.243 0.860211 40.2507 202.283 12.8646 31.8597 193.84 23.7324 25.9833 181.966 27.1119 59.7697 180.676 14.8494 12.452 6.27405 19.1032 
158.883 120.733 137.573 142.383 148.275 155.341 80.567 74.2585 77.069 79.0876 55.7216 219.381 -36.8237 41.6478 205.101 2.05079 39.2859 200.905 13.3862 31.4519 192.66 24.0398 26.0674 181 27.7727 59.9925 179.935 15.1255 12.5965 6.73879 17.7059 
161.123 120.194 136.294 142.91 147.033 154.87 78.1848 72.8997 75.8624 78.6495 57.6971 219.506 -36.7389 43.8445 205.774 1.7206 40.7505 200.96 12.8433 32.6949 192.723 23.5351 26.7687 181.101 26.8509 60.283 179.826 15.0111 13.0631 6.81437 17.0471 
161.358 117.308 135.57 143.893 147.062 153.521 75.6589 71.4778 74.8729 78.583 58.6469 219.771 -36.1186 45.8578 205.992 0.933833 42.1075 200.764 12.3163 33.8618 192.689 22.954 27.5687 181.273 25.7687 60.5779 179.57 14.8162 13.6352 7.13192 16.8792 
157.26 114.452 134.449 142.892 148.159 153.246 74.8302 72.2244 75.3899 79.3486 61.5571 219.817 -36.6087 47.1362 206.039 1.38923 42.5165 200.968 12.9763 34.5648 193.053 23.7364 27.798 181.771 26.9399 60.7616 179.365 14.7974 13.0792 7.33056 15.9767 
157.394 111.949 133.307 143.104 148.598 151.6 74.0901 71.5249 74.7053 78.9485 61.7895 219.635 -36.3461 48.107 206.104 0.864468 43.1562 200.662 12.5739 35.4788 193 23.4492 28.2337 181.731 26.5117 60.9294 178.993 14.704 13.1554 7.9722 15.7138 
157.747 110.294 132.758 143.963 149.128 149.923 73.4781 70.8425 74.0548 78.0319 61.6277 219.908 -35.5254 49.011 206.154 0.229228 43.7656 200.288 12.07 36.2309 192.714 23.0738 28.7507 181.322 25.6432 61.1845 178.496 14.5879 13.5932 8.50605 15.6476 
157.13 110.51 132.421 142.403 149.226 150.584 74.877 72.5462 75.1151 78.0997 63.3585 219.866 -36.1123 49.07 206.529 0.971294 43.6274 200.9 12.9309 36.5516 193.261 24.0447 29.0476 181.698 26.8282 61.4842 178.496 14.7311 13.2148 8.63317 15.1618 
156.707 113.381 131.426 139.113 148.357 151.184 76.7322 72.4116 74.9709 77.6163 64.1871 222.543 -34.3876 49.13 207.53 1.97796 44.0928 200.926 13.5916 37.1776 193.402 24.4189 29.3698 182.143 27.2187 61.5105 178.179 14.6547 12.881 9.21391 14.9466 
158.803 118.143 131.245 137.616 147.501 151.863 79.0086 72.7109 75.1135 76.9737 65.1242 223.622 -33.3366 49.238 209.005 2.60449 44.622 201.3 13.9427 37.6974 193.621 24.5686 29.905 182.417 27.1071 61.9078 178.109 14.5578 12.7015 9.47549 14.8022 
159.427 123.074 131.094 136.934 146.888 152.088 81.1924 73.6352 75.7995 76.7775 65.3622 224.332 -31.9423 49.0584 210.2 2.70654 44.8606 201.77 14.0943 37.92 193.816 24.6762 30.3374 182.595 26.8784 62.37 177.946 14.4097 12.5371 9.59297 15.0944 
159.923 127.694 131.685 136.52 146.48 152.329 83.1147 74.5659 76.3568 76.81 65.1496 224.702 -30.527 48.8451 211.314 2.51181 45.1642 202.276 14.2144 38.2617 193.843 24.7577 30.939 182.589 26.6927 62.969 177.834 14.2846 12.4439 9.62989 15.6799 
161.974 131.312 133.236 135.872 145.937 152.56 84.2219 74.5463 76.2674 76.6885 64.5797 224.925 -29.4141 48.8211 211.849 2.48589 45.8308 202.27 14.548 38.8189 193.474 24.8388 31.6678 182.314 26.6424 63.5885 177.694 14.203 12.4776 9.50261 16.5088 
166.727 133.919 134.939 135.226 145.297 152.512 84.9181 74.1659 75.8817 76.6396 64.192 224.879 -28.6468 49.1206 212.426 2.53712 46.7798 202.138 15.1153 39.5913 193.108 24.9526 32.5178 182.135 26.6894 64.2729 177.713 14.1814 12.5434 9.33742 17.3381 
170.978 135.257 135.807 134.718 144.78 152.172 85.233 73.7891 75.5125 76.6329 63.7592 224.416 -28.0824 49.4831 212.8 2.46099 47.6126 201.903 15.5655 40.3225 192.706 25.1043 33.2298 181.86 26.8885 64.8165 177.597 14.1438 12.4411 9.25586 18.0991 
172.176 135.966 136.499 134.348 144.328 151.152 85.2957 73.452 75.3555 76.856 62.9872 223.573 -27.6541 50.0903 213.117 2.44911 48.5732 201.711 16.0658 41.1046 192.501 25.3699 33.8507 181.732 27.3335 65.2849 177.442 14.1307 12.0894 9.11609 18.7595 
169.532 136.248 136.956 133.95 143.818 149.843 84.7992 73.1261 75.2594 77.1489 62.1171 222.582 -27.2259 50.8764 213.078 2.54447 49.4455 201.493 16.4714 41.7476 192.374 25.5422 34.2586 181.668 27.7259 65.6814 177.242 14.1314 11.6633 8.95762 19.1947 
165.691 136.04 137.178 133.714 143.266 148.332 84.3001 72.8591 75.2126 77.4197 61.2699 221.737 -26.7161 51.7437 213.347 2.30216 50.2312 201.414 16.7941 42.4036 192.406 25.7737 34.7145 181.774 28.0777 66.1416 177.177 14.2072 11.3854 8.91884 19.6178 
160.11 135.643 136.967 133.597 142.724 146.337 83.7805 72.7109 75.2441 77.6472 60.4208 221.042 -25.85 52.6622 213.586 2.01142 50.8377 201.441 16.9122 43.0285 192.571 26.0145 35.0629 181.967 28.4827 66.4962 177.06 14.2661 10.9963 9.04645 19.7803 
154.754 135.458 137.063 133.309 142.148 144.552 83.211 72.3685 75.0684 77.7096 59.5571 220.547 -24.9329 53.3876 213.651 1.56866 51.3711 201.217 17.0298 43.5732 192.491 26.1587 35.4782 181.986 28.7333 66.882 176.922 14.3257 10.8855 9.15702 20.1536 
151.529 135.337 136.926 133.042 141.69 143.265 82.9796 72.1268 75.0294 77.8426 59.2316 220.153 -24.3059 54.0153 213.605 1.30993 51.964 201.151 17.0018 44.0976 192.595 26.174 35.8393 182.153 28.8954 67.2889 176.825 14.3568 10.6651 9.20228 20.4378 
150.455 135.109 136.89 133.065 141.437 142.02 82.6215 71.9946 75.1449 77.9854 59.1676 219.973 -23.6236 54.8791 213.888 0.963591 52.5461 201.265 16.9939 44.6324 192.882 26.2684 36.2758 182.487 29.0256 67.7525 176.869 14.4168 10.5501 9.28994 20.621 
151.059 134.929 136.902 132.937 141.145 141.161 82.4822 71.6655 75.0147 77.9603 59.2496 219.863 -23.2639 55.325 213.707 0.823421 53.0449 201.092 16.9454 45.1187 192.908 26.225 36.7117 182.566 29.07 68.2105 176.866 14.4292 10.4967 9.39353 20.8118 
152.843 134.909 137.196 132.851 140.913 140.426 82.6252 71.2864 74.7888 77.8645 59.4257 219.985 -22.8977 55.6923 213.656 0.740043 53.5227 200.903 16.9244 45.5773 192.87 26.1854 37.1486 182.628 29.063 68.6566 176.886 14.423 10.5514 9.48926 21.0254 
155.666 135.319 137.541 132.767 140.855 139.815 83.3421 71.1592 74.6549 77.854 59.6148 220.543 -22.5579 55.8278 213.865 0.795305 53.9598 200.934 16.9254 46.0254 192.892 26.1598 37.647 182.723 29.048 69.1418 176.999 14.4214 10.6487 9.51241 21.186 
157.747 136.118 138.017 132.389 140.45 139.801 83.5743 70.8412 74.1992 77.7297 59.9524 221.089 -22.4323 55.9411 213.413 1.46258 54.4782 200.65 17.0774 46.5632 192.592 26.1353 38.2295 182.603 29.0637 69.6223 177.026 14.418 10.8485 9.54003 21.0751 
159.421 136.514 138.548 132.038 139.966 139.966 83.4004 70.5527 73.638 77.5374 60.3331 221.487 -22.5286 56.2517 212.838 2.25078 55.0491 200.413 17.327 47.1092 192.308 26.1392 38.8063 182.544 29.1172 70.0953 177.136 14.4266 11.0792 9.49992 20.8765 
159.506 136.213 138.946 131.487 139.279 140.728 81.6985 70.0494 72.8578 77.1534 61.0816 221.455 -23.1627 57.1238 211.472 3.19913 55.6759 199.894 17.5619 47.6981 191.827 26.1303 39.3676 182.299 29.292 70.5038 177.106 14.47 11.2331 9.47508 20.2453 
159.232 135.931 139.294 131.363 138.916 141.734 81.1816 69.7765 72.3571 76.9224 61.9299 221.674 -23.9047 57.6392 210.95 3.80518 56.216 199.688 17.8131 48.2132 191.653 26.218 39.9037 182.316 29.4793 70.8768 177.232 14.5018 11.4288 9.45547 19.941 
157.7 135.867 139.491 131.32 138.619 142.951 80.6594 69.5923 71.9526 76.7934 63.2318 221.821 -24.5453 58.3694 210.658 4.34904 56.7953 199.562 18.0714 48.7152 191.55 26.2905 40.3729 182.416 29.5797 71.2331 177.306 14.5371 11.6151 9.42814 19.5917 
155.642 135.654 139.569 131.216 138.242 144.334 80.3483 69.3933 71.586 76.6446 64.5451 222.107 -25.0828 58.9241 210.575 4.71202 57.2927 199.44 18.3122 49.181 191.479 26.3865 40.8105 182.512 29.726 71.4625 177.32 14.5418 11.7662 9.46928 19.389 
152.487 135.292 139.425 131.02 137.996 145.268 80.0384 69.2711 71.3562 76.5658 65.5476 222.144 -25.5032 59.4669 210.507 4.87254 57.7692 199.355 18.4496 49.6123 191.427 26.4279 41.1957 182.543 29.8547 71.7025 177.301 14.5596 11.7861 9.46941 19.2437 
149.783 134.799 139.355 131.061 137.971 146.043 79.8914 69.2586 71.2671 76.5329 66.5082 222.279 -25.8039 60.0359 210.734 4.82014 58.1906 199.384 18.566 49.9966 191.488 26.4688 41.5475 182.654 29.9005 71.9662 177.314 14.588 11.8383 9.47819 19.1292 
147.329 134.405 139.307 131.153 137.947 146.809 79.9555 69.296 71.2313 76.5036 67.545 222.352 -26.0873 60.5571 210.978 4.63275 58.6198 199.412 18.5823 50.3806 191.55 26.4173 41.886 182.764 29.8118 72.2056 177.233 14.5501 11.9008 9.49512 19.1618 
144.899 133.447 139.147 131.339 138.121 146.78 79.9042 69.369 71.3238 76.4996 68.1649 222.371 -26.0092 61.2142 211.485 4.19254 59.0339 199.58 18.5423 50.7658 191.742 26.3833 42.2448 182.945 29.6974 72.4728 177.237 14.5138 11.9499 9.50016 19.2391 
143.442 132.757 138.971 131.548 138.522 146.647 79.8645 69.4332 71.4734 76.51 68.6052 222.165 -26.0387 61.7073 211.849 3.67352 59.3745 199.717 18.4233 51.0747 191.894 26.3269 42.5431 183.04 29.5738 72.7473 177.225 14.5109 11.9597 9.46855 19.423 
142.357 132.323 138.811 131.694 138.964 146.206 79.6216 69.4571 71.7006 76.5352 68.8377 221.965 -25.8893 62.2972 212.31 2.9659 59.726 199.873 18.2343 51.4003 192.081 26.2396 42.8812 183.132 29.3805 73.0942 177.277 14.4717 11.9683 9.45757 19.7024 
142.534 132.202 138.73 131.887 139.464 145.771 79.5534 69.3742 71.8372 76.4605 69.1316 221.825 -25.7415 62.6846 212.638 2.35332 60.0541 199.937 18.0582 51.681 192.175 26.1778 43.1388 183.119 29.2454 73.3838 177.278 14.4521 11.9199 9.42662 20.1212 
142.911 132.368 138.701 132.161 140.153 144.993 79.431 69.3345 72.0675 76.4065 69.2149 221.672 -25.4294 63.0695 212.992 1.67932 60.3118 200.075 17.8018 51.9042 192.339 26.0747 43.355 183.108 29.075 73.7676 177.363 14.4567 11.7995 9.39531 20.4767 
144.01 132.67 138.593 132.454 140.835 143.894 79.4371 69.4098 72.4061 76.4372 69.1003 221.585 -24.9532 63.4031 213.429 1.05433 60.5373 200.364 17.5594 52.1375 192.656 26.0235 43.5562 183.247 28.9386 74.1949 177.554 14.4873 11.6281 9.41098 20.848 
145.939 134.47 140.191 135.154 139.884 145.219 81.3372 70.9108 73.4994 76.7659 71.9487 223.357 -23.9345 64.2143 214.69 0.0759392 60.6739 200.898 17.1085 52.0459 192.628 24.9827 43.6205 182.537 26.8913 75.2607 177.531 14.493 11.4905 9.22359 21.4277 
148.661 136.417 140.999 135.994 139.898 145.248 81.4173 70.8194 73.2696 76.6846 72.292 223.555 -23.9496 63.6846 214.274 1.12206 60.9874 201.006 17.3804 52.6225 192.524 25.092 44.337 182.224 26.8371 75.7251 177.901 14.6398 11.6519 9.3582 21.2241 
144.988 130.157 139.899 136.211 140.172 144.077 82.2384 72.1386 74.2949 76.9143 72.0336 222.435 -26.229 63.1101 212.337 2.80321 60.9714 201.559 17.4458 53.1012 193.142 25.7451 45.3707 182.211 28.2522 76.537 178.155 15.4969 11.6168 9.04014 18.7621 
141.282 134.229 140.716 138.137 142.131 143.572 83.4044 73.6267 75.7726 78.2139 72.8584 221.233 -28.7268 62.2457 209.783 5.26511 59.9099 200.634 17.4533 52.6635 192.353 26.3361 45.7338 181.121 28.8869 77.4785 177.98 16.0252 12.1045 9.02509 16.1188 
141.409 137.711 141.541 139.931 143.406 144.383 84.0681 74.5441 76.601 79.052 74.3596 219.408 -31.1595 62.1998 207.788 7.04729 59.3318 199.632 17.4358 52.4662 191.551 26.6553 46.065 180.159 29.3294 78.1445 177.498 16.3938 12.4552 9.06263 14.6522 
144.793 136.879 142.475 141.84 143.817 145.621 83.2481 73.6407 75.8037 78.6001 75.2589 217.959 -32.8409 62.393 205.752 7.44422 58.9199 197.742 16.94 52.557 190.102 26.3618 46.3306 178.486 29.1226 78.8264 177.167 16.7901 12.638 9.71239 13.7008 
150.606 133.867 144.014 142.661 140.338 149.271 84.5024 73.282 75.0132 76.6678 78.7678 221.125 -31.3092 63.3138 206.669 7.75999 59.5309 197.696 16.9846 52.5319 189.786 25.4489 46.164 178.342 26.9597 78.6333 176.3 16.1504 13.2026 9.8485 13.7184 
155.32 134.568 145.553 143.235 137.518 152.068 85.1723 72.7624 74.0608 75.2049 81.2868 223.649 -29.0948 64.0437 208.075 7.72701 60.0992 197.624 16.8873 52.6247 189.111 24.5423 46.2814 177.653 25.1153 78.6756 175.886 15.8234 13.6543 9.63615 13.4616 
159.044 135.64 146.981 143.853 135.79 154.175 85.6676 72.2 73.0409 73.9548 82.691 224.834 -27.0777 64.5529 209.674 7.0383 60.6768 197.632 16.8247 52.8943 188.542 23.7816 46.5561 176.996 23.7496 78.9554 175.856 15.7697 13.8385 9.39655 13.7598 
161.94 137.682 148.206 144.662 134.777 156.015 86.3299 71.8592 72.4488 73.2804 83.1107 225.816 -25.2813 64.8118 211.122 6.23768 61.2358 197.837 16.86 53.2304 188.379 23.3072 46.7956 176.708 22.8723 79.2689 176.002 15.8189 13.751 9.2051 14.6674 
162.658 140.083 149.096 145.282 133.882 157.511 86.9418 71.582 72.1089 72.8827 83.1849 226.512 -23.5975 64.9819 212.44 5.27635 61.7533 198.035 16.9064 53.5105 188.313 22.937 46.9406 176.506 22.1844 79.4978 176.075 15.8125 13.5419 8.99294 15.9539 
161.734 142.734 149.774 145.774 133.142 158.779 87.7584 71.4317 71.8209 72.5034 83.0807 226.981 -22.1927 65.0914 213.708 4.38262 62.2435 198.315 17.0015 53.8041 188.346 22.6811 47.0928 176.428 21.6785 79.6983 176.137 15.8357 13.3381 8.78411 17.3475 
161.322 143.932 150.535 146.389 132.551 160.165 87.4518 71.2909 71.5741 72.0288 83.0362 227.297 -20.9712 65.8585 215.018 3.15184 62.7748 198.652 17.1417 54.1476 188.434 22.5078 47.3082 176.393 21.1836 79.8922 176.229 15.8235 13.1595 8.5907 19.0203 
160.746 144.923 151.021 146.858 132.152 160.807 88.168 71.4057 71.6235 71.8932 82.9151 227.367 -20.0631 66.2256 216.349 1.88974 63.1987 199.051 17.3074 54.4363 188.667 22.4378 47.5189 176.522 20.8558 80.1176 176.33 15.8318 12.9895 8.4492 20.882 
160.164 146.493 151.45 147.26 131.868 160.962 89.2392 71.5791 71.7092 71.8855 82.772 227.387 -19.469 66.3212 217.359 0.878442 63.5059 199.375 17.4006 54.6858 188.863 22.388 47.7439 176.646 20.6552 80.3279 176.382 15.8601 12.8843 8.36759 22.3505 
159.604 148.173 151.709 147.665 131.934 160.778 90.3258 71.8592 71.9897 72.1349 82.6368 227.363 -19.1372 66.2084 217.909 0.143763 63.7079 199.592 17.4566 54.8727 189.024 22.4066 47.9383 176.743 20.6032 80.5295 176.356 15.8778 12.7656 8.33506 23.3864 
158.846 149.98 151.919 147.821 132.17 160.341 91.0166 72.0977 72.2029 72.4534 82.6774 227.277 -18.9425 66.1457 218.099 -0.137865 63.8778 199.748 17.4531 55.0504 189.148 22.362 48.13 176.865 20.556 80.7451 176.322 15.8981 12.7002 8.33471 23.7985 
157.778 152.152 152.166 147.941 132.702 159.418 91.0318 72.3106 72.3349 72.7496 82.8977 227.276 -18.8132 66.0885 217.722 0.274856 64.0612 199.871 17.4699 55.2867 189.253 22.3298 48.3969 176.989 20.5818 81.0502 176.389 15.9508 12.6691 8.35688 23.4509 
157.607 150.172 152.344 148.529 133.587 161.509 83.2579 72.0373 72.5529 72.5905 82.795 226.622 -19.7949 67.2168 213.036 4.00826 63.9925 198.896 18.3834 55.7814 188.684 23.7863 49.3408 176.32 22.1828 81.8279 177.297 16.0908 13.0555 8.76099 19.7001 
160.721 145.988 149.721 146.721 137.57 163.736 83.4116 73.1238 74.0565 74.5719 82.76 225.011 -23.792 65.7417 209.317 6.70142 62.9029 198.539 18.1441 55.4122 188.813 25.0377 49.5344 176.372 25.3269 82.2171 177.673 16.6926 12.5111 8.8417 16.0966 
