167.162 140.813 142.082 144.652 153.825 149.77 81.8937 78.8614 78.2624 81.4048 111.022 189.151 -43.1355 116.473 194.346 -17.3662 113.303 193.899 -4.77684 110.482 187.886 7.09927 108.503 177.467 16.534 142.256 178.932 4.37553 10.8724 9.05706 16.1295 
167.938 140.429 142.192 144.253 153.43 150.274 81.9857 78.9405 78.3737 81.3873 111.393 189.671 -43.5627 116.661 194.294 -17.4969 113.503 193.966 -4.84251 110.707 187.981 7.00473 108.694 177.504 16.4874 142.481 178.936 4.44268 10.7857 9.1241 16.249 
168.673 140.036 142.216 143.833 153.069 150.533 82.0508 79.0867 78.5161 81.389 111.606 190.076 -43.7784 116.861 194.25 -17.6144 113.684 194.08 -4.87751 110.921 188.128 6.92579 108.873 177.599 16.4713 142.677 178.941 4.49328 10.6845 9.20394 16.381 
169.701 139.74 142.16 143.416 152.758 150.702 82.2462 79.3341 78.7839 81.4696 111.815 190.483 -44.0003 117.053 194.242 -17.6504 113.918 194.22 -4.81429 111.199 188.31 6.95327 109.165 177.717 16.5767 142.982 178.947 4.5484 10.5576 9.26646 16.4914 
170.204 139.793 142.133 143.339 152.647 150.729 82.1481 79.3559 78.8229 81.4088 111.969 190.553 -44.14 117.257 194.165 -17.5073 114.084 194.183 -4.65983 111.37 188.289 7.07485 109.36 177.655 16.7075 143.181 178.927 4.58233 10.5453 9.28872 16.4961 
170.431 139.678 142.053 143.142 152.565 150.547 82.0507 79.3974 78.8764 81.4707 111.904 190.492 -43.9591 117.413 194.149 -17.3453 114.245 194.196 -4.43917 111.569 188.305 7.26965 109.576 177.681 16.8819 143.359 178.922 4.58198 10.5477 9.31085 16.4987 
170.419 139.573 142.066 143.117 152.772 150.15 81.9543 79.4229 78.9313 81.6059 111.775 190.292 -43.6352 117.565 194.193 -17.1543 114.389 194.206 -4.21131 111.755 188.353 7.45601 109.78 177.763 17.0388 143.509 178.924 4.55231 10.5723 9.36798 16.4186 
170.579 139.413 141.944 143.012 152.921 149.905 81.8251 79.3936 78.923 81.6652 111.845 190.195 -43.4863 117.793 194.201 -17.0042 114.62 194.226 -4.05796 112.007 188.396 7.56685 110.04 177.85 17.1698 143.701 178.936 4.5301 10.5443 9.42017 16.4243 
170.563 139.399 141.992 143.041 152.928 149.791 81.7606 79.3707 78.9534 81.7374 111.817 189.906 -43.3407 117.9 194.07 -16.7882 114.775 194.141 -3.86462 112.199 188.343 7.74531 110.28 177.818 17.3342 143.901 178.938 4.50431 10.568 9.44139 16.4698 
170.549 139.811 142.127 143.303 152.979 149.801 81.8181 79.3656 78.9808 81.8502 111.894 189.677 -43.3974 118.011 194.068 -16.5616 114.941 194.074 -3.71516 112.367 188.262 7.92871 110.525 177.785 17.432 144.138 178.969 4.44113 10.684 9.36858 16.4026 
170.796 140.208 142.183 143.567 153.114 149.926 81.9416 79.3701 79.022 81.9446 111.987 189.582 -43.5837 118.094 194.135 -16.3811 115.064 193.97 -3.64136 112.542 188.171 8.03372 110.832 177.744 17.4808 144.393 179.035 4.34716 10.7761 9.34381 16.2183 
171.093 140.816 142.243 143.804 153.213 150.066 82.1022 79.4125 79.1828 82.1552 111.984 189.514 -43.7623 118.04 194.147 -16.1493 115.066 193.782 -3.52574 112.621 188.043 8.16462 111.067 177.648 17.5457 144.598 179.082 4.2422 10.8708 9.35566 15.987 
171.286 141.121 142.357 143.821 153.168 150.332 82.4127 79.5462 79.4203 82.4304 112.138 189.554 -43.9357 118.03 194.224 -16.08 115.128 193.731 -3.51729 112.745 188.036 8.1545 111.306 177.662 17.4654 144.856 179.186 4.12698 10.9414 9.39177 15.8531 
171.401 141.24 142.48 143.719 153.006 150.645 82.8635 79.6803 79.5603 82.6377 112.377 189.789 -44.2644 117.998 194.38 -16.2163 115.229 193.803 -3.67177 112.894 188.084 8.0156 111.491 177.731 17.2655 145.098 179.312 4.02372 10.9868 9.37712 15.8218 
171.537 141.068 142.595 143.647 152.822 150.963 83.1788 79.7333 79.7314 82.8887 112.58 190.009 -44.5596 117.988 194.511 -16.3727 115.365 193.892 -3.78058 113.027 188.185 7.91217 111.64 177.848 17.0916 145.293 179.399 3.94152 11.029 9.37677 15.8431 
171.641 140.915 142.508 143.396 152.628 151.235 83.407 79.7874 79.9624 83.1501 112.888 190.362 -44.75 118.074 194.662 -16.6168 115.533 194.034 -3.94539 113.171 188.41 7.71696 111.749 178.059 16.8707 145.485 179.518 3.89995 11.0111 9.45561 15.875 
171.694 140.815 142.431 143.287 152.432 151.622 83.5491 79.8581 80.096 83.2386 113.236 190.694 -44.9599 118.216 194.749 -16.8483 115.694 194.163 -4.13982 113.328 188.589 7.54072 111.898 178.216 16.6937 145.701 179.654 3.867 10.9945 9.47946 15.9303 
171.764 140.545 142.47 143.124 152.193 151.968 83.4391 79.7774 80.0908 83.1596 113.49 190.926 -45.054 118.382 194.665 -17.0289 115.874 194.195 -4.23991 113.521 188.682 7.4507 112.06 178.272 16.6187 145.879 179.73 3.85635 10.9629 9.5326 16.0781 
171.881 140.419 142.533 142.985 152.087 152.141 83.1421 79.5579 80.0487 83.0357 113.764 191.279 -45.1814 118.621 194.598 -17.0883 116.093 194.182 -4.25664 113.713 188.753 7.4191 112.23 178.299 16.611 146.022 179.789 3.84444 10.9285 9.60422 16.1687 
172.301 140.257 142.445 142.85 151.976 152.459 82.6448 79.235 79.8859 82.8317 114.483 192.196 -45.6751 119.35 194.773 -17.3576 116.695 194.423 -4.53245 114.261 189.097 7.13908 112.681 178.607 16.4015 146.443 180.036 3.75392 10.8482 9.70256 16.2719 
172.414 140.151 142.507 142.95 152.014 152.622 82.1137 78.9924 79.6216 82.4886 114.854 192.547 -45.8114 119.876 194.811 -17.4945 117.009 194.447 -4.66888 114.594 189.172 7.01706 112.983 178.658 16.326 146.69 180.146 3.72575 10.837 9.76825 16.201 
172.418 140.06 142.584 142.984 152.046 152.777 81.865 78.836 79.4571 82.2498 115.283 192.802 -46.0564 120.303 194.893 -17.5966 117.307 194.472 -4.79973 114.897 189.215 6.88677 113.277 178.674 16.2162 146.967 180.275 3.67925 10.8367 9.80276 16.1169 
172.324 139.85 142.668 143.05 152.115 152.976 81.8098 78.7977 79.383 82.1565 115.493 192.932 -46.2176 120.545 194.949 -17.6199 117.523 194.5 -4.80237 115.146 189.235 6.88825 113.561 178.691 16.185 147.209 180.377 3.62864 10.8843 9.81437 16.0908 
172.229 140.005 142.881 143.22 152.099 153.066 81.7198 78.7711 79.2826 82.1372 115.652 193.118 -46.3436 120.788 195.077 -17.5921 117.74 194.592 -4.76875 115.412 189.274 6.95037 113.868 178.77 16.2078 147.484 180.549 3.54215 10.9459 9.76601 16.0371 
172.017 140.19 142.988 143.297 151.934 153.152 82.0116 79.0066 79.4083 82.2696 115.655 193.175 -46.4141 120.793 195.218 -17.6519 117.806 194.714 -4.75754 115.561 189.327 6.99656 114.106 178.835 16.1859 147.736 180.7 3.42215 11.0161 9.69261 15.9867 
171.69 140.275 142.954 143.237 151.839 153.17 82.4575 79.338 79.6951 82.5739 115.535 193.11 -46.4627 120.647 195.331 -17.6121 117.794 194.774 -4.66933 115.64 189.34 7.06327 114.303 178.857 16.1242 147.921 180.762 3.24571 11.1205 9.67593 15.9354 
171.656 140.443 142.746 142.951 151.559 153.115 82.8436 79.5769 80.0186 82.9073 115.501 193.229 -46.5541 120.635 195.569 -17.5515 117.896 194.918 -4.57664 115.763 189.481 7.09121 114.49 178.987 16.0488 148.113 180.847 3.09641 11.1765 9.70358 15.8589 
171.843 140.757 142.35 142.63 151.323 153.007 83.097 79.7492 80.3276 83.1726 115.48 193.447 -46.6376 120.675 195.821 -17.4584 118.011 195.036 -4.49165 115.885 189.658 7.1158 114.663 179.145 15.9928 148.265 180.913 2.94034 11.2099 9.76831 15.722 
171.866 140.937 141.939 142.296 151.016 152.875 83.285 79.935 80.5993 83.4123 115.547 193.69 -46.5771 120.794 196.015 -17.5028 118.189 195.224 -4.48719 116.058 189.887 7.08554 114.836 179.366 15.9411 148.442 180.971 2.83351 11.1777 9.80775 15.7152 
171.617 141.161 141.504 142.023 150.852 152.777 83.6344 80.143 80.9217 83.6593 115.581 193.768 -46.6591 120.791 196.164 -17.4172 118.317 195.255 -4.41006 116.204 189.987 7.14488 115.065 179.457 15.9079 148.637 180.992 2.67768 11.2411 9.84335 15.5919 
171.342 141.364 140.953 141.626 150.635 152.729 84.1978 80.4621 81.2957 84.0568 115.653 193.816 -46.8007 120.75 196.433 -17.423 118.44 195.389 -4.41025 116.344 190.15 7.13107 115.272 179.659 15.8033 148.843 181.051 2.50759 11.2978 9.85035 15.4584 
170.681 141.418 140.405 141.136 150.558 152.451 84.841 80.8677 81.7045 84.401 115.588 193.675 -46.5647 120.658 196.738 -17.3775 118.535 195.541 -4.34422 116.497 190.332 7.16322 115.525 179.866 15.7265 149.066 181.139 2.35518 11.3761 9.88773 15.2939 
170.096 141.566 140.078 140.93 150.375 152.236 85.4005 81.2037 82.0392 84.619 115.58 193.496 -46.4864 120.583 196.933 -17.3458 118.586 195.595 -4.35388 116.569 190.376 7.15301 115.705 179.895 15.5976 149.25 181.165 2.2052 11.4724 9.85993 15.1471 
169.402 141.681 139.836 140.765 150.288 151.868 85.8962 81.5309 82.2964 84.8624 115.504 193.214 -46.3377 120.499 197.08 -17.3122 118.63 195.638 -4.34193 116.673 190.378 7.15412 115.907 179.922 15.5057 149.44 181.189 2.04355 11.5524 9.83178 15.0335 
168.643 141.845 139.741 140.795 150.36 151.465 86.4264 81.8718 82.5563 85.1009 115.357 192.798 -46.0086 120.387 197.292 -17.2066 118.657 195.725 -4.2607 116.756 190.422 7.23789 116.108 179.998 15.5003 149.613 181.242 1.92886 11.639 9.7836 14.8842 
167.786 142.178 139.724 140.922 150.457 150.959 87.0313 82.2761 82.8194 85.4011 115.225 192.213 -45.6591 120.351 197.568 -17.1168 118.751 195.87 -4.21296 116.915 190.502 7.28905 116.368 180.135 15.4552 149.868 181.323 1.77135 11.739 9.71271 14.7038 
167.348 142.501 140.003 141.2 150.555 150.568 87.1868 82.3819 82.8039 85.4226 115.16 191.748 -45.5067 120.411 197.633 -17.1793 118.811 195.851 -4.322 117.014 190.401 7.21539 116.53 180.072 15.3844 150.047 181.349 1.64077 11.7582 9.62267 14.5755 
167.062 142.827 140.227 141.436 150.714 150.205 87.219 82.4806 82.7872 85.4621 115.152 191.477 -45.4014 120.467 197.605 -17.167 118.821 195.832 -4.39364 117.075 190.316 7.1871 116.665 180.049 15.3838 150.205 181.413 1.57979 11.7694 9.53793 14.5367 
166.863 143.059 140.592 141.809 150.792 150.058 87.1761 82.5982 82.7628 85.4399 115.156 191.201 -45.3499 120.514 197.463 -17.1721 118.817 195.82 -4.44442 117.135 190.218 7.1749 116.801 179.958 15.4032 150.377 181.492 1.52151 11.7621 9.44089 14.6149 
166.728 143.282 140.909 142.095 150.809 149.937 87.0334 82.6406 82.6849 85.3224 115.103 190.93 -45.1674 120.528 197.274 -17.1249 118.777 195.748 -4.43192 117.178 190.085 7.22782 116.932 179.829 15.4945 150.507 181.563 1.50446 11.751 9.37143 14.6924 
166.567 143.279 141.123 142.224 150.795 149.867 86.96 82.7529 82.6638 85.2577 115.087 190.722 -44.9837 120.515 197.146 -17.1776 118.733 195.762 -4.44737 117.222 190.039 7.25195 117.058 179.798 15.5591 150.634 181.661 1.5045 11.7279 9.31387 14.8013 
166.228 143.075 141.333 142.328 150.726 149.755 86.8932 82.8968 82.6621 85.2727 114.892 190.367 -44.6196 120.401 196.966 -17.2268 118.615 195.772 -4.41205 117.216 189.996 7.34088 117.107 179.795 15.6556 150.678 181.729 1.48772 11.7305 9.25224 14.9493 
165.948 143.001 141.658 142.563 150.765 149.743 86.8785 83.0313 82.6619 85.208 114.718 189.826 -44.2091 120.224 196.694 -17.207 118.465 195.707 -4.32877 117.18 189.892 7.48087 117.167 179.705 15.8138 150.713 181.764 1.5228 11.7323 9.1931 15.1236 
165.497 142.912 142.023 142.714 150.83 149.698 86.9036 83.1319 82.6772 85.15 114.311 189.132 -43.5403 119.868 196.328 -17.0346 118.232 195.561 -4.04847 117.064 189.708 7.82008 117.169 179.544 16.141 150.637 181.733 1.63119 11.7551 9.12595 15.3467 
165.128 142.899 142.401 142.938 151.007 149.702 86.8089 83.1403 82.6334 85.0024 113.835 188.408 -42.8433 119.453 195.909 -16.789 117.905 195.271 -3.73406 116.859 189.39 8.2029 117.124 179.26 16.4836 150.474 181.641 1.79198 11.8238 9.06892 15.4874 
164.54 142.787 142.676 143.193 151.233 149.685 86.7819 83.2407 82.7579 85.0223 113.045 187.301 -41.6889 118.74 195.366 -16.2951 117.381 194.88 -3.14107 116.487 189.003 8.82847 116.978 178.904 17.0332 150.139 181.485 1.98511 11.9028 9.03449 15.6394 
164.032 142.714 143.026 143.536 151.424 149.545 86.6241 83.232 82.7966 85.0571 112.184 186.216 -40.4946 118.02 194.708 -15.8273 116.82 194.378 -2.58145 116.105 188.539 9.4362 116.8 178.49 17.5914 149.787 181.273 2.21094 11.9725 9.02558 15.798 
163.449 142.696 143.357 143.852 151.677 149.43 86.4937 83.2295 82.8958 85.1198 111.311 185.199 -39.4065 117.327 194.161 -15.403 116.244 193.876 -2.09483 115.679 188.089 9.94301 116.593 178.076 18.0487 149.415 181.03 2.41878 12.0384 9.04892 15.8443 
163.336 142.643 143.541 143.995 151.858 149.328 86.4582 83.3952 83.0609 85.2426 110.688 184.598 -38.8062 116.813 193.711 -15.1825 115.762 193.575 -1.85769 115.331 187.797 10.1953 116.417 177.798 18.3204 149.179 180.858 2.56126 12.0271 9.04896 15.972 
163.311 142.533 143.748 144.085 151.992 149.42 86.5083 83.6199 83.2363 85.3856 110.221 184.098 -38.4902 116.354 193.205 -15.1327 115.334 193.274 -1.76325 115.021 187.482 10.3241 116.232 177.493 18.4627 149.002 180.631 2.6571 12.0155 9.01948 16.1643 
163.488 142.463 143.973 144.108 152.076 149.507 86.4773 83.7316 83.2607 85.4016 110.041 183.864 -38.4464 116.141 192.819 -15.1916 115.098 193.071 -1.80204 114.856 187.217 10.3202 116.143 177.243 18.526 148.939 180.479 2.75195 11.9694 8.961 16.3467 
163.521 142.303 144.081 144.143 152.234 149.557 86.4209 83.8023 83.3022 85.4135 109.832 183.649 -38.3429 115.955 192.421 -15.1384 114.895 192.825 -1.73624 114.722 186.963 10.415 116.087 176.994 18.6673 148.899 180.338 2.85313 11.9343 8.93436 16.4879 
163.764 142.32 144.388 144.322 152.394 149.729 86.2361 83.8071 83.2324 85.3091 109.893 183.588 -38.5077 115.924 192.098 -15.0743 114.746 192.568 -1.73229 114.625 186.646 10.4733 116.068 176.694 18.7906 148.919 180.221 2.95694 11.8965 8.84597 16.5184 
164.126 142.318 144.673 144.422 152.392 150.042 86.175 83.8833 83.2226 85.3064 110.033 183.602 -38.7761 115.898 191.84 -15.1448 114.63 192.391 -1.76096 114.56 186.404 10.5025 116.054 176.476 18.9079 148.979 180.129 3.08392 11.8237 8.75484 16.5509 
164.225 142.29 144.968 144.588 152.424 150.336 86.1155 83.9997 83.2272 85.2737 110.024 183.458 -38.7328 115.816 191.583 -15.1402 114.472 192.168 -1.70381 114.513 186.129 10.6338 116.108 176.22 19.0974 149.053 180.052 3.22092 11.7773 8.66752 16.5154 
164.187 142.3 145.193 144.695 152.39 150.502 86.0513 84.0244 83.1821 85.1761 110.009 183.307 -38.6003 115.799 191.402 -15.1127 114.399 191.933 -1.64925 114.53 185.848 10.7224 116.215 175.941 19.2259 149.165 180.001 3.33003 11.7457 8.61661 16.42 
164.242 142.279 145.433 144.783 152.338 150.719 86.0711 84.1406 83.1731 85.0678 110.123 183.099 -38.5002 115.857 191.235 -15.0699 114.394 191.756 -1.62842 114.607 185.563 10.7809 116.406 175.649 19.3188 149.351 179.97 3.45272 11.7177 8.51783 16.3837 
164.255 142.145 145.614 144.696 152.184 150.86 86.183 84.3251 83.2204 84.9568 110.187 182.836 -38.3582 115.834 191.092 -15.0206 114.333 191.583 -1.61246 114.653 185.275 10.8397 116.578 175.344 19.3735 149.5 179.913 3.54517 11.7114 8.42421 16.346 
164.105 142.062 145.823 144.717 152.085 150.873 86.3792 84.5052 83.2751 84.8163 110.053 182.426 -38.0231 115.72 190.909 -14.8459 114.281 191.378 -1.47162 114.742 184.981 10.9881 116.835 175.017 19.5077 149.634 179.848 3.56416 11.6993 8.3687 16.3293 
164.207 142.05 146.044 144.787 151.997 150.858 86.5616 84.7833 83.4432 84.7878 109.922 181.92 -37.7355 115.611 190.564 -14.6369 114.194 191.138 -1.34298 114.826 184.691 11.1289 117.11 174.685 19.6352 149.807 179.778 3.54672 11.6803 8.32136 16.4178 
164.358 142.035 146.523 145.058 151.937 150.963 86.8955 85.3388 83.9264 85.0329 109.726 180.82 -37.1015 115.387 189.671 -14.3374 114.119 190.622 -1.0444 115.072 184.176 11.392 117.703 174.101 19.9064 150.243 179.576 3.3911 11.5835 8.29516 16.7219 
164.127 142.062 146.751 145.166 151.806 150.736 87.0239 85.6843 84.227 85.2483 109.711 179.949 -36.6143 115.343 189.047 -14.3263 114.122 190.294 -1.03061 115.266 183.857 11.3764 118.049 173.72 19.8824 150.552 179.414 3.16166 11.5275 8.2875 16.9673 
163.947 141.925 146.863 145.181 151.632 150.457 87.1351 85.9552 84.5055 85.3896 109.827 179.289 -36.4916 115.317 188.505 -14.5388 114.137 189.982 -1.23997 115.376 183.517 11.1321 118.262 173.284 19.6333 150.806 179.157 2.84949 11.4628 8.26649 17.1861 
163.937 141.757 146.867 145.01 151.398 150.227 87.1783 86.0223 84.6158 85.4377 110.225 179.102 -36.7142 115.563 188.177 -14.9803 114.439 189.796 -1.60894 115.699 183.339 10.7252 118.592 173.038 19.2657 151.176 178.956 2.52524 11.3849 8.30227 17.3453 
163.616 141.607 146.743 144.888 151.359 150.021 87.2654 86.0432 84.7108 85.4874 110.713 179.004 -36.8986 115.952 188.052 -15.372 114.904 189.781 -1.95603 116.135 183.378 10.3104 119.052 173.051 18.8921 151.629 178.924 2.19503 11.3392 8.3911 17.4866 
163.192 141.562 146.724 144.889 151.357 149.873 87.2773 85.8727 84.5843 85.3258 111.149 178.867 -37.1196 116.459 188.044 -15.7176 115.49 189.759 -2.27941 116.676 183.377 9.96595 119.61 173.067 18.5523 152.109 178.925 1.86892 11.37 8.42817 17.5176 
162.961 141.577 146.53 144.745 151.308 149.733 87.3754 85.8113 84.4812 85.2797 111.494 179.044 -37.4893 117.078 188.405 -16.0817 116.102 189.979 -2.6621 117.239 183.563 9.55148 120.153 173.284 18.1277 152.625 179.084 1.5574 11.4272 8.44527 17.3946 
162.697 141.64 146.205 144.576 151.244 149.512 87.6926 86.0247 84.6109 85.2949 111.675 179.059 -37.5884 117.547 188.781 -16.2546 116.586 190.269 -2.92206 117.755 183.826 9.26402 120.785 173.552 17.8006 153.167 179.375 1.21909 11.4905 8.44084 17.2804 
162.981 141.897 145.92 144.44 151.079 149.511 88.023 86.268 84.7859 85.3518 111.917 179.416 -37.9907 118.065 189.326 -16.3179 117.067 190.632 -3.1609 118.273 184.169 8.98647 121.417 173.87 17.4512 153.735 179.764 0.913282 11.5681 8.4509 17.0723 
163.086 142.238 145.487 144.161 150.764 149.446 88.3226 86.5781 85.0436 85.4939 111.993 179.782 -38.2491 118.376 189.931 -16.208 117.354 190.917 -3.23913 118.67 184.44 8.8562 121.981 174.133 17.1849 154.193 180.192 0.617985 11.6751 8.47269 16.7138 
162.981 142.492 145.138 143.819 150.374 149.515 88.5644 86.9301 85.3375 85.6871 111.93 180.356 -38.6009 118.588 190.489 -16.1479 117.532 191.152 -3.30544 118.997 184.638 8.75971 122.48 174.326 16.9305 154.603 180.574 0.305423 11.7745 8.46572 16.3551 
162.648 142.659 145.027 143.658 150.062 149.594 88.6652 87.2181 85.5583 85.7924 111.657 180.578 -38.5317 118.525 190.683 -15.9697 117.499 191.182 -3.21813 119.225 184.654 8.85288 122.96 174.358 16.8996 154.9 180.938 0.0236614 11.8399 8.43221 16.1511 
162.208 142.885 144.865 143.487 149.811 149.65 88.6032 87.4928 85.7766 85.9127 111.436 180.582 -38.4406 118.475 190.744 -15.7995 117.377 191.098 -3.22805 119.344 184.563 8.83151 123.304 174.301 16.7653 155.096 181.196 -0.323851 11.9018 8.40479 15.969 
161.882 143.129 145.073 143.546 149.665 149.903 88.633 87.6688 85.8909 85.9101 111.099 180.174 -38.1332 118.237 190.619 -15.6648 117.187 190.858 -3.23175 119.424 184.31 8.84575 123.641 174.096 16.6753 155.216 181.35 -0.668259 11.9686 8.34843 15.8353 
161.95 143.414 145.214 143.628 149.524 150.107 88.5393 87.6519 85.8585 85.7687 110.749 179.862 -37.9065 118.09 190.553 -15.425 117.121 190.662 -3.14026 119.548 184.079 8.90507 123.973 173.898 16.65 155.287 181.443 -1.01054 12.0188 8.30447 15.7174 
161.95 143.631 145.181 143.607 149.424 150.039 88.4469 87.464 85.702 85.5374 110.682 179.854 -37.9964 118.2 190.758 -15.3741 117.316 190.689 -3.22744 119.742 184.025 8.75994 124.219 173.839 16.4131 155.362 181.458 -1.35564 12.092 8.28853 15.623 
161.955 143.667 145.052 143.53 149.141 149.919 88.1575 86.9227 85.2612 84.9578 110.675 180.131 -38.5031 118.45 191.121 -15.5521 117.67 190.654 -3.57062 119.986 183.859 8.36268 124.48 173.65 15.8815 155.422 181.39 -1.81692 12.2539 8.26789 15.3843 
162.015 143.481 144.637 143.3 149.131 149.709 87.8356 86.3225 84.7778 84.5126 110.802 180.572 -39.159 118.726 191.368 -15.7388 118.062 190.641 -3.81924 120.165 183.756 8.02327 124.556 173.571 15.5067 155.343 181.199 -2.12351 12.3429 8.31855 15.2811 
162.737 144.965 145.404 142.754 148.61 149.754 87.9773 85.5666 84.1531 84.2961 109.877 180.42 -39.0338 118.512 190.839 -15.0602 118.486 190.444 -3.21718 120.404 183.321 8.35907 124.773 173.412 15.7532 155.249 181.043 -2.46804 12.5379 8.29391 15.8637 
163.165 146.569 146.171 142.648 148.218 149.834 88.0338 84.9338 83.6644 84.1711 109.12 180.24 -38.7905 118.356 190.536 -14.5409 118.85 190.278 -2.76897 120.64 182.963 8.6453 125.028 173.206 15.9829 155.144 180.873 -2.83734 12.6271 8.25988 16.2108 
163.218 147.801 146.609 142.514 147.863 149.802 88.2427 84.579 83.4122 84.1933 108.472 180.3 -38.5755 118.164 190.314 -14.2245 119.131 190.22 -2.53172 120.861 182.78 8.78646 125.241 173.058 16.0795 155.03 180.685 -3.23214 12.6455 8.24437 16.5589 
163.533 148.723 147.045 142.527 147.649 149.83 88.3564 84.3376 83.2577 84.2399 107.949 180.25 -38.3225 118.032 190.079 -13.9965 119.385 190.199 -2.37003 121.08 182.649 8.91335 125.496 172.941 16.2122 154.954 180.504 -3.57459 12.6122 8.18981 16.9085 
163.917 149.464 147.236 142.468 147.457 149.844 88.1823 84.0445 83.0302 84.2989 107.791 180.384 -38.3768 118.223 190.055 -14.0173 119.785 190.297 -2.46407 121.403 182.655 8.82858 125.754 172.963 16.1887 154.976 180.359 -3.95193 12.5555 8.13214 17.1372 
165.115 148.12 146.303 142.249 148.074 150.08 87.9131 84.0213 82.9509 84.1867 108.59 181.676 -39.9016 118.734 190.607 -15.2941 120.124 190.816 -3.48124 121.508 183.087 7.92535 125.725 173.367 15.5017 155.16 180.322 -4.24888 12.4001 8.03295 17.145 
165.735 146.562 145.596 142.046 148.587 150.295 87.7506 84.0187 82.9005 84.0805 109.342 182.635 -40.8486 119.045 190.694 -16.4919 120.394 191.101 -4.32021 121.693 183.431 7.20456 125.817 173.684 14.9406 155.44 180.378 -4.43911 12.2959 8.02292 17.3716 
166.237 145.339 145.034 141.954 149.015 150.693 87.4974 84.0647 82.9194 84.0355 110.13 183.494 -41.6453 119.533 190.871 -17.4595 120.779 191.38 -4.98453 122.068 183.817 6.67629 126.14 174.039 14.5281 155.871 180.549 -4.60681 12.2082 8.02624 17.4507 
166.721 144.634 144.682 142.095 149.483 151.114 87.3451 84.1222 82.951 84.0075 110.786 184.24 -42.331 119.993 190.975 -18.1577 121.183 191.586 -5.45782 122.496 184.139 6.31042 126.557 174.335 14.2566 156.347 180.73 -4.75137 12.1322 8.04913 17.5156 
167.207 144.551 144.477 142.417 149.96 151.455 87.0228 84.0563 82.9336 83.9029 111.653 185.158 -43.2746 120.718 191.377 -18.5985 121.683 191.796 -5.911 122.946 184.457 5.93966 126.986 174.607 13.9585 156.849 180.946 -4.87938 12.0787 8.08149 17.2592 
167.218 144.702 144.312 142.755 150.426 151.741 86.8159 84.0137 82.9354 83.798 112.223 185.651 -43.6765 121.387 191.78 -18.8228 122.17 191.911 -6.17285 123.448 184.71 5.72032 127.529 174.848 13.7544 157.367 181.186 -5.01006 12.0861 8.15878 16.8828 
167.775 146.27 145.278 143.046 150.498 152.09 86.6995 83.7598 82.743 83.5495 111.604 184.599 -42.9297 121.393 191.259 -18.1064 122.345 191.336 -5.62795 123.811 184.228 6.17797 128.229 174.565 14.1893 157.659 181.258 -5.20393 12.1829 8.20424 16.7145 
