150.066 170.395 176.013 143.965 117.417 137.741 173.706 168.86 66.8432 71.4384 117.431 129.094 -24.2227 106.46 147.489 -109.106 139.918 167.8 -102.643 121.342 139.203 -4.25092 129.732 151.251 1.68145 84.8451 158.299 -9.64695 12.2555 92.5087 13.2226 
150.14 170.377 176.056 143.102 117.194 137.819 173.581 168.856 66.7935 71.8802 117.452 128.866 -24.3789 106.522 147.379 -109.209 140.019 167.807 -102.896 121.666 139.272 -4.63012 129.977 151.073 1.54231 84.945 158.332 -9.7099 12.0035 91.999 13.2051 
150.191 170.399 176.11 141.897 116.835 137.887 173.453 168.931 66.6639 72.041 117.423 128.532 -24.5813 106.583 147.2 -109.309 140.046 167.824 -103.203 121.973 139.368 -5.03225 130.139 150.986 1.41014 85.0336 158.333 -9.76714 11.709 91.5169 13.145 
150.205 170.5 176.135 140.238 116.604 137.951 173.322 168.994 66.4618 72.2598 117.368 128.173 -24.8209 106.609 147.081 -109.453 140.039 167.865 -103.55 122.226 139.482 -5.45219 130.244 150.784 1.26649 85.1248 158.353 -9.81292 11.4558 91.0592 13.0669 
150.325 170.598 176.225 138.294 116.49 138.106 173.212 169.149 66.1019 72.307 117.37 127.849 -25.0644 106.636 146.9 -109.622 140.103 167.907 -103.949 122.405 139.676 -5.78368 130.307 150.575 1.18896 85.2451 158.367 -9.89265 11.2602 90.8163 13.0395 
150.313 170.586 176.342 136.429 116.979 138.227 173.05 169.331 65.7765 72.3616 117.323 127.553 -25.3374 106.69 146.767 -109.745 140.203 168.08 -104.336 122.595 139.857 -6.14827 130.322 150.331 1.24936 85.3807 158.401 -9.95234 10.8267 90.5496 13.034 
150.34 170.611 176.436 134.086 117.435 138.404 172.93 169.513 65.2814 72.3766 117.287 127.291 -25.615 106.783 146.656 -109.855 140.308 168.226 -104.685 122.777 140.178 -6.52118 130.298 150.105 1.33601 85.5141 158.439 -9.98943 10.443 90.2046 13.0073 
150.431 170.632 176.59 131.194 117.393 138.587 172.757 169.723 64.7632 72.4504 117.302 127.007 -25.8654 106.906 146.405 -109.949 140.407 168.38 -105.094 123.102 140.583 -6.97516 130.435 149.934 1.3053 85.665 158.451 -10.0289 10.1806 89.6924 12.9906 
150.562 170.639 176.795 127.834 117.397 138.715 172.612 169.933 64.1578 72.4701 117.334 126.746 -26.0121 107.071 146.173 -109.99 140.561 168.473 -105.409 123.358 141.033 -7.40522 130.565 149.773 1.30116 85.8139 158.459 -10.0435 9.96554 89.1725 12.9772 
150.672 170.635 177.053 123.331 117.031 138.866 172.446 170.193 63.4596 72.3854 117.373 126.425 -26.2239 107.249 145.959 -110.069 140.706 168.643 -105.781 123.745 141.648 -8.01618 130.794 149.719 1.20139 85.976 158.45 -10.0819 9.74671 88.3802 12.9712 
149.511 171.628 175.964 122.474 111.169 137.991 172.386 170.936 63.276 74.0505 116.937 126.218 -25.5481 107.948 145.669 -110.189 140.842 168.658 -106.159 125.191 142.451 -8.93076 132.743 150.914 -0.0680027 86.0205 158.275 -9.94454 10.2598 85.7354 12.6783 
148.855 171.69 176.509 120.308 111.232 137.883 172.049 171.286 62.6927 73.73 116.905 126 -25.4351 108.167 145.541 -110.164 141.055 168.937 -106.38 125.607 143.035 -9.32539 133.05 151.129 -0.194207 86.2089 158.354 -9.92945 10.125 85.1719 12.7331 
148.153 171.689 177.204 118.501 111.425 137.859 171.83 171.53 62.0715 73.3736 116.896 125.807 -25.5274 108.374 145.545 -110.161 141.281 169.197 -106.546 125.82 143.447 -9.65797 133.159 151.08 -0.172278 86.4377 158.441 -9.95113 9.89778 84.8927 12.7702 
147.687 171.664 177.711 117.571 111.003 137.869 171.773 171.673 61.6942 73.1588 116.916 125.551 -25.6935 108.527 145.503 -110.23 141.511 169.312 -106.695 126.015 143.59 -9.86064 133.326 150.96 -0.262191 86.6673 158.452 -9.98867 9.91081 84.7825 12.8308 
147.561 171.571 177.984 116.423 110.74 138.026 171.799 171.665 61.2337 72.7848 116.967 125.375 -25.9552 108.73 145.562 -110.298 141.731 169.455 -106.758 126.19 143.837 -10.058 133.428 150.924 -0.290321 86.8919 158.497 -10.0078 9.8971 84.6105 12.8521 
147.73 171.397 178.097 116.04 110.14 138.18 171.825 171.596 60.9462 72.7593 117.073 125.235 -26.237 108.865 145.564 -110.352 141.949 169.522 -106.774 126.364 143.912 -10.1788 133.626 150.793 -0.406121 87.106 158.477 -10.0296 10.0185 84.5171 12.9224 
148.172 171.284 178.061 118.296 109.94 138.375 171.897 171.449 61.0285 72.5109 117.257 125.049 -26.5244 109.069 145.563 -110.395 142.199 169.43 -106.714 126.468 143.543 -9.90325 133.754 150.66 -0.449567 87.3717 158.442 -10.0489 10.3411 85.0718 12.9369 
148.864 171.176 177.921 119.74 110.924 138.605 172.004 171.265 61.049 72.137 117.526 124.925 -26.731 109.174 145.539 -110.412 142.451 169.282 -106.641 126.517 143.215 -9.69387 133.711 150.38 -0.293044 87.6211 158.392 -10.0609 10.4096 85.5321 12.9969 
149.689 171.043 177.665 120.086 111.734 138.787 172.16 170.994 61.0088 71.8662 117.968 124.969 -26.8261 109.351 145.569 -110.409 142.846 169.056 -106.39 126.719 143.091 -9.60525 133.715 150.118 -0.113964 87.891 158.332 -10.0712 10.4224 85.5619 13.0872 
150.35 170.846 177.394 119.867 112.471 138.902 172.259 170.767 60.8865 71.674 118.411 125.089 -26.8633 109.648 145.592 -110.284 143.193 168.917 -106.126 127.02 143.143 -9.52913 133.803 149.966 0.125598 88.1504 158.194 -10.0227 10.4051 85.4336 13.0965 
151.014 170.71 177.133 119.779 113.642 138.988 172.439 170.487 60.8817 71.4146 118.994 125.365 -26.7704 109.959 145.585 -110.158 143.557 168.667 -105.765 127.234 143.141 -9.28255 133.876 149.888 0.396951 88.4159 158.033 -10.0066 10.4576 85.6153 13.1239 
151.411 170.54 176.95 119.241 114.266 139.089 172.584 170.223 60.9278 71.4023 119.5 125.642 -26.6396 110.26 145.58 -109.957 143.963 168.423 -105.3 127.407 143.152 -8.98303 134.045 149.83 0.640018 88.6824 157.902 -9.94669 10.5344 85.8186 13.2053 
151.719 170.427 176.797 118.183 114.383 139.142 172.759 169.939 61.1187 71.4088 120.06 125.951 -26.4256 110.633 145.631 -109.731 144.332 168.166 -104.788 127.609 143.08 -8.70124 134.369 149.85 0.787939 88.9547 157.722 -9.86141 10.5552 85.965 13.2162 
151.873 170.333 176.706 116.815 114.813 139.138 172.899 169.682 61.3125 71.2315 120.49 126.167 -26.2017 111.074 145.519 -109.461 144.711 167.773 -104.251 127.605 142.872 -8.26923 134.615 149.855 1.00329 89.1895 157.439 -9.7803 10.5759 86.4105 13.2076 
151.908 170.292 176.598 116.541 114.925 139.143 172.998 169.432 62.009 71.3421 120.873 126.304 -25.9696 111.515 145.39 -109.256 145.128 167.37 -103.816 127.741 142.37 -7.63015 135.023 149.765 1.11872 89.4302 157.148 -9.70168 10.8914 87.0726 13.2013 
151.788 170.161 176.516 119.264 114.758 139.164 173.004 169.248 63.1641 71.3562 121.158 126.338 -25.6871 111.912 145.331 -109.002 145.552 167.055 -103.426 127.889 141.432 -6.66151 135.432 149.701 1.25001 89.6422 156.864 -9.58654 11.4935 88.1397 13.1937 
151.293 171.609 175.411 128.609 107.934 137.944 173.301 169.834 65.2408 73.9069 121.388 126.424 -24.3679 112.872 145.291 -109.01 145.945 167.151 -103.585 129.364 140.358 -5.70136 137.644 150.648 -0.0873499 89.8513 156.601 -9.32084 14.3786 88.1762 12.8437 
151.058 172.659 174.431 135.568 102.663 137.198 173.311 170.308 66.8716 75.7809 121.968 126.582 -23.1662 113.949 145.329 -108.965 146.381 167.308 -103.768 130.632 139.61 -4.97703 139.575 152.131 -1.51018 90.0617 156.394 -9.08906 17.7816 88.1063 12.4191 
150.608 173.351 173.914 139.246 99.0195 136.609 173.04 170.705 67.3385 76.2644 122.083 126.608 -22.5316 114.816 145.939 -109.014 146.496 167.382 -103.886 131.365 139.13 -4.77207 140.771 153.316 -2.80096 90.2346 156.174 -8.85118 20.9877 87.5632 11.7442 
150.368 173.792 173.468 140.42 97.6956 136.045 172.677 171.071 67.8536 77.4447 122.468 126.662 -21.7232 115.715 146.194 -108.872 146.895 167.493 -103.967 132.332 139.011 -4.7359 142.023 154.342 -3.70523 90.4113 155.95 -8.62209 23.0741 86.8096 11.3013 
150.278 174.078 173.152 141.039 98.2702 135.607 172.197 171.304 68.2119 78.5058 122.828 126.692 -21.029 116.464 146.486 -108.66 147.284 167.54 -104.004 133.122 139.016 -4.66468 143.024 155.02 -4.20304 90.5926 155.801 -8.40113 24.3359 86.2202 10.9182 
150.403 174.311 172.921 141.494 98.6367 135.32 171.742 171.394 68.4575 80.0269 123.26 126.767 -20.4136 117.116 146.852 -108.386 147.669 167.422 -103.888 133.871 139.169 -4.65003 144.156 155.7 -4.78376 90.8269 155.821 -8.16243 25.5637 85.5253 10.5747 
150.544 174.48 172.792 141.226 99.6861 135.068 171.372 171.422 68.5553 80.9414 123.663 126.892 -19.9151 117.694 147.371 -108.109 148.109 167.313 -103.646 134.592 139.472 -4.6498 144.996 156.195 -5.05002 91.0966 155.886 -7.90748 26.101 84.7699 10.3201 
150.722 174.55 172.746 141.308 100.322 134.991 170.973 171.459 68.4748 81.6141 124.022 127.003 -19.6436 118.131 148.096 -107.878 148.465 167.331 -103.498 135.117 139.787 -4.67845 145.819 156.767 -5.41249 91.3967 156.09 -7.71545 26.837 84.2983 10.077 
150.696 174.545 172.714 141.136 101.27 134.888 170.683 171.446 68.4196 81.3345 124.345 127.121 -19.4069 118.56 148.819 -107.632 148.778 167.281 -103.277 135.621 140.09 -4.65754 146.259 157.213 -5.44285 91.7169 156.275 -7.5209 27.0128 83.8755 9.84985 
150.594 174.51 172.759 141.532 102.645 134.85 170.509 171.494 68.1003 79.9379 124.627 127.226 -19.3729 118.961 149.647 -107.495 149.053 167.372 -103.194 135.721 140.274 -4.42147 146.314 157.46 -5.23282 92.0882 156.52 -7.41696 27.154 84.2124 9.61656 
150.447 174.421 172.784 141.54 103.014 134.864 170.376 171.466 67.7857 78.8799 124.877 127.358 -19.3957 119.329 150.489 -107.367 149.295 167.617 -103.151 135.861 140.5 -4.22438 146.515 157.784 -5.14999 92.4874 156.784 -7.32415 27.5313 84.5805 9.41254 
150.485 174.348 172.781 142.381 102.829 135.02 170.278 171.387 67.2271 78.3205 125.27 127.56 -19.4154 119.733 151.174 -107.18 149.635 167.82 -103.036 135.891 140.67 -4.02785 146.984 158.142 -5.26391 92.9384 157.048 -7.23129 28.4 85.0495 9.26471 
150.329 174.265 172.818 143.813 102.994 135.114 170.231 171.372 66.6208 77.2158 125.574 127.76 -19.3488 120.145 151.716 -106.913 150.038 167.954 -102.77 135.737 140.729 -3.62218 147.198 158.393 -5.1573 93.3751 157.306 -7.08973 29.2434 85.7799 9.17918 
150.124 174.179 172.851 144.449 104.459 135.187 170.268 171.31 66.283 75.8075 125.965 128.036 -19.1905 120.615 152.167 -106.639 150.57 168.081 -102.44 135.87 140.848 -3.30504 147.22 158.322 -4.63807 93.8802 157.59 -6.9147 28.8913 86.1787 9.17744 
149.836 174.1 172.865 144.819 106.978 135.184 170.401 171.242 66.0718 73.9234 126.317 128.363 -18.8948 121.082 152.474 -106.264 151.082 168.136 -101.955 135.959 140.951 -2.83712 146.836 158.024 -3.66778 94.3242 157.829 -6.65743 27.772 86.5824 9.20865 
149.5 174.044 172.921 144.32 111.411 135.137 170.576 171.162 66.1488 71.8785 126.729 128.718 -18.5401 121.694 152.7 -105.921 151.766 168.145 -101.339 136.294 141.025 -2.40218 146.135 157.274 -2.13802 94.7896 157.964 -6.38334 25.2656 86.6379 9.31552 
149.119 173.964 172.986 143.526 114.835 135.13 170.643 171.151 66.1656 71.061 127.071 129.018 -18.1041 122.317 152.771 -105.476 152.445 168.071 -100.688 136.788 141.146 -2.19787 145.819 156.554 -0.843191 95.214 158.065 -6.05885 22.9379 86.2023 9.3857 
148.732 173.919 173.125 141.808 118.516 135.13 170.707 171.244 66.2671 70.5208 127.428 129.309 -17.7266 122.925 152.949 -105.164 153.124 168.192 -100.285 137.404 141.257 -2.15161 145.421 155.562 0.586234 95.6591 158.149 -5.786 20.1435 85.6628 9.39951 
148.332 173.881 173.249 139.215 121.768 135.05 170.729 171.316 66.6183 70.6498 127.833 129.581 -17.2263 123.597 153.061 -104.816 153.819 168.362 -99.8886 138.371 141.452 -2.28739 145.201 154.589 1.96288 96.1145 158.213 -5.47197 17.3133 84.6372 9.38266 
148.041 173.843 173.289 135.431 122.681 134.836 170.712 171.375 67.0653 71.533 128.276 129.809 -16.6597 124.29 153.015 -104.417 154.415 168.565 -99.6054 139.741 141.908 -2.84217 145.476 153.992 2.9277 96.5091 158.182 -5.13854 14.9158 82.8016 9.27302 
147.908 173.935 173.406 131.476 123.232 134.426 170.798 171.459 67.9053 72.8197 129.088 130.037 -15.8727 125.671 153 -103.74 155.464 168.548 -99.0527 141.808 142.222 -3.13674 146.403 153.164 4.22379 97.3767 157.951 -4.56557 12.7064 80.778 9.01196 
148.29 174.067 173.432 129.931 121.999 134.17 170.937 171.265 68.5949 73.9782 129.499 130.306 -15.5404 126.171 152.667 -103.608 155.651 168.216 -98.866 142.877 142.455 -3.47145 147.047 153.077 4.46948 97.6343 157.779 -4.44765 11.9302 79.5284 8.90691 
149.328 174.184 173.479 129.211 121.339 134.391 171.218 171.318 68.9521 75.0577 130.257 130.686 -15.3023 126.628 152.261 -103.556 155.734 167.861 -98.9172 143.711 142.624 -3.72804 147.9 152.955 4.60853 97.8927 157.516 -4.22857 11.3026 78.563 8.70159 
150.085 174.227 173.616 129.378 120.299 134.612 171.386 171.459 68.9632 75.2775 130.681 130.782 -15.358 126.818 152.059 -103.633 155.737 167.595 -99.1907 144.128 142.492 -3.66463 148.4 152.721 4.65868 98.2074 157.357 -4.0924 11.2915 78.5442 8.50015 
150.856 174.245 173.676 129.791 119.659 134.727 171.316 171.272 67.7424 74.9508 131.275 130.936 -15.1815 127.119 151.628 -103.497 155.959 167.213 -99.2564 143.787 142.539 -3.23149 148.793 152.712 4.84535 98.747 157.439 -3.99869 11.5689 79.5555 8.39293 
151.448 174.267 173.772 133.159 118.603 134.704 171.221 171.164 65.6958 74.305 131.723 131.094 -14.951 127.32 151.258 -103.279 156.17 166.805 -99.1311 142.269 142.267 -2.11738 148.929 152.8 5.02483 99.2068 157.615 -3.89369 12.8567 82.0875 8.3551 
151.876 174.283 173.903 139.317 117.086 134.658 171.156 171.161 64.1765 73.4846 132.145 131.197 -14.6703 127.557 150.982 -102.981 156.513 166.363 -98.8022 140.429 141.498 -0.641798 148.932 152.865 5.26897 99.6844 157.834 -3.73218 14.9254 85.2801 8.38783 
152.13 174.259 173.984 143.963 115.529 134.556 171.127 171.144 63.4905 72.6618 132.468 131.249 -14.4014 127.843 150.84 -102.647 156.92 166.047 -98.3527 139.002 140.864 0.725717 148.793 152.943 5.63305 100.111 158.054 -3.54026 16.7912 87.9309 8.4584 
152.207 174.207 174.073 146.577 114.524 134.482 171.077 171.169 63.0336 71.7982 132.687 131.276 -14.2108 128.137 150.791 -102.316 157.362 165.747 -97.85 137.98 140.585 1.90069 148.6 153.033 6.09351 100.513 158.264 -3.33517 18.1611 89.9374 8.56849 
152.04 174.147 174.148 147.941 113.861 134.445 171.002 171.213 62.6606 71.0999 132.885 131.266 -13.9795 128.487 150.757 -101.94 157.82 165.617 -97.3935 137.41 140.647 2.86385 148.507 153.237 6.57023 100.861 158.463 -3.0915 19.098 91.3017 8.64143 
151.81 174.057 174.207 148.288 113.252 134.464 170.895 171.27 62.2153 70.6207 133.063 131.299 -13.7825 128.824 150.79 -101.588 158.268 165.585 -97.0104 137.151 141.024 3.6619 148.553 153.538 7.04129 101.226 158.704 -2.84024 19.7593 92.2704 8.71783 
151.409 173.953 174.222 147.623 112.542 134.484 170.746 171.317 61.6516 70.316 133.182 131.293 -13.5917 129.158 150.842 -101.254 158.743 165.681 -96.6688 137.246 141.639 4.23392 148.725 153.885 7.45418 101.55 158.902 -2.59238 20.1544 92.7202 8.80552 
151.124 173.885 174.193 146.552 111.644 134.504 170.609 171.308 61.056 70.0068 133.389 131.304 -13.2779 129.499 150.844 -100.916 159.219 165.879 -96.4196 137.637 142.326 4.55247 149.021 154.352 7.81714 101.828 159.041 -2.32472 20.2666 92.6438 8.86731 
150.925 173.798 174.173 145.137 110.608 134.527 170.414 171.241 60.4858 69.7286 133.498 131.18 -12.9746 129.761 150.68 -100.539 159.621 165.774 -96.013 138.147 142.929 4.7068 149.346 154.773 8.06273 102.053 159.087 -2.0471 20.2905 92.1192 8.97313 
150.612 173.73 174.19 142.977 110.161 134.576 170.335 171.205 59.3119 68.5548 133.427 131.201 -13.0085 129.784 150.868 -100.411 159.68 165.811 -95.9066 138.767 143.796 4.26631 149.607 155.314 7.921 102.237 159.136 -1.83113 20.3349 90.8124 8.92861 
150.773 173.727 174.145 140.951 108.832 134.698 170.209 171.026 59.0273 68.3523 133.797 131.282 -12.5756 130.073 150.519 -100.037 160.071 165.488 -95.3851 139.751 144.415 4.03229 150.112 155.945 7.88331 102.421 159.102 -1.55634 20.0816 89.2698 9.08322 
150.895 173.892 174.284 136.106 107.378 134.521 170.317 170.92 59.6785 69.0212 134.405 131.509 -11.5491 130.592 150.018 -99.3284 160.67 164.703 -94.2086 141.659 144.958 3.70273 150.832 156.324 8.12328 102.741 158.975 -0.975105 18.7759 86.2945 9.35816 
151.165 174.061 174.452 130.535 106.343 134.435 170.699 171.35 61.4841 71.3271 134.706 131.746 -11.1048 130.736 149.703 -99.1792 160.767 164.098 -93.6189 143.526 145.104 2.63133 151.534 156.215 7.78097 102.525 158.659 -0.73902 17.0372 82.6269 9.55084 
151.536 174.241 174.535 126.813 106.391 134.227 171.126 171.53 63.7991 73.1964 135.118 131.964 -10.437 130.98 149.427 -98.9032 160.932 163.395 -92.8597 145.246 144.895 2.01088 151.963 155.912 7.82591 102.385 158.349 -0.415408 15.405 79.7141 9.74845 
151.819 174.417 174.448 124.861 106.716 133.841 171.558 171.484 65.6946 74.3762 135.432 132.153 -9.66663 131.165 149.265 -98.6141 161.002 162.796 -92.3084 146.461 144.554 1.67913 152.124 155.521 8.00729 102.235 158.039 -0.0742419 14.2634 77.7602 9.83014 
152.077 174.545 174.391 125.013 107.506 133.502 171.928 171.445 67.0203 74.7493 135.681 132.327 -8.9822 131.346 149.278 -98.3393 161.049 162.419 -91.7809 146.989 143.96 1.89361 151.915 154.972 8.45601 102.144 157.824 0.263141 13.6932 77.1344 9.86206 
152.221 174.617 174.286 124.421 108.164 133.179 172.193 171.563 67.5056 74.8392 135.738 132.197 -8.41481 131.361 149.284 -98.0404 160.895 162.29 -91.6661 147.158 143.561 1.95639 151.658 154.369 8.87482 102.023 157.601 0.605565 13.1944 76.777 9.65716 
152.203 174.651 174.205 126.963 110.11 132.802 172.428 171.632 67.8625 74.6731 135.628 131.9 -7.93984 131.353 149.372 -97.781 160.784 162.057 -91.4435 146.725 142.579 2.71159 151.07 153.402 9.58248 101.936 157.423 0.926398 13.1464 77.6766 9.53131 
152.157 174.659 174.096 129.555 112.408 132.5 172.586 171.615 68.2052 74.6283 135.574 131.675 -7.47499 131.379 149.473 -97.5303 160.713 161.855 -91.228 146.267 141.69 3.53644 150.562 152.55 10.3324 101.904 157.303 1.24644 13.1059 78.6688 9.43411 
152.16 174.631 174.027 130.585 113.693 132.235 172.557 171.396 67.9579 73.961 135.53 131.345 -7.02884 131.42 149.55 -97.1981 160.684 161.713 -90.9622 145.721 141.14 4.2212 150.066 151.985 10.9848 101.958 157.262 1.49135 13.171 79.6202 9.29661 
152.083 174.668 173.925 131.533 115.14 131.817 172.579 171.222 67.0562 72.4989 135.216 131.118 -6.85868 131.24 149.816 -97.0751 160.419 161.687 -90.8845 145.062 140.794 4.559 149.521 151.533 11.3038 102.01 157.255 1.67827 13.5425 80.2325 9.06236 
152.273 174.647 173.848 130.704 115.382 131.71 172.651 171.273 66.8775 72.3847 135.296 130.879 -6.33351 131.205 149.447 -96.7858 160.306 161.458 -90.7587 144.89 140.735 4.80082 149.35 151.375 11.6887 101.864 157.055 1.96646 13.3579 80.2207 8.93515 
152.4 174.643 173.826 130.745 116.065 131.605 172.735 171.355 66.8191 72.3462 135.434 130.732 -5.8539 131.141 149.098 -96.58 160.158 161.277 -90.7621 144.674 140.647 5.13131 149.143 151.271 12.0476 101.745 156.906 2.16534 13.2301 80.546 8.82958 
152.477 174.665 173.852 131.112 116.477 131.486 172.853 171.454 66.8676 72.244 135.65 130.71 -5.27364 130.998 148.658 -96.3393 160.012 161.005 -90.7967 144.551 140.716 5.53986 148.994 151.472 12.3805 101.663 156.864 2.36674 13.1341 80.9326 8.8079 
152.409 174.621 173.944 131.27 116.823 131.379 172.776 171.418 66.2106 71.2983 135.786 130.727 -4.75345 130.795 148.368 -96.0401 159.867 160.941 -90.8292 144.16 141.03 5.91841 148.7 151.857 12.7131 101.697 157.011 2.49097 13.1366 81.6858 8.75176 
152.419 174.578 174.024 130.629 116.66 131.3 172.643 171.314 64.9945 69.9419 135.813 130.737 -4.32675 130.396 147.971 -95.7513 159.616 160.823 -90.8471 143.672 141.662 6.02122 148.405 152.465 12.9214 101.657 157.137 2.61512 13.0503 82.0785 8.75315 
151.375 173.733 174.443 135.846 123.561 131.166 172.644 170.95 61.8907 68.433 135.141 130.384 -5.08312 128.456 147.273 -95.8359 159.284 160.815 -90.6201 140.719 141.626 6.93672 146.844 151.312 14.2585 101.55 157.1 2.50345 12.3284 85.8353 9.85791 
151.119 173.841 174.39 136.878 124.954 131.092 172.785 170.789 60.2522 66.6412 134.952 130.497 -5.00114 127.823 147.128 -95.6928 158.989 160.902 -90.618 139.807 142.231 7.00399 146.171 151.836 14.5655 101.424 157.185 2.57638 12.1307 86.578 10.0557 
151.302 174.027 174.399 138.375 125.908 131.124 172.748 170.642 59.2759 65.3603 134.927 130.743 -4.76228 127.487 147.162 -95.526 158.67 160.951 -90.56 139.241 142.619 6.96122 145.735 152.375 14.634 101.259 157.32 2.64657 12.0117 86.8145 10.0532 
151.635 174.161 174.366 139.466 126.083 131.227 172.632 170.504 58.5094 64.3853 134.853 130.933 -4.54259 127.187 147.168 -95.3435 158.348 161.021 -90.4383 138.911 142.979 6.7266 145.468 152.901 14.5799 101.042 157.464 2.74093 11.7969 86.5226 10.0198 
152.029 174.248 174.234 139.186 126.127 131.295 172.473 170.258 58.1008 63.5831 134.707 131.349 -4.38028 126.76 147.267 -95.1717 157.806 160.986 -90.3341 138.697 143.352 6.24554 145.267 153.622 14.4078 100.748 157.675 2.82664 11.3058 85.7215 9.97184 
152.562 174.35 174.111 139.186 126.259 131.47 172.371 170.083 58.2834 62.9462 134.639 131.91 -4.20808 126.266 147.433 -95.0284 157.175 161.1 -90.3755 138.469 143.435 5.80159 145.085 154.383 14.1795 100.399 157.938 2.89918 10.7712 85.0458 9.88275 
153.136 174.463 174.052 140.48 126.42 131.597 172.301 170.023 58.7384 62.4776 134.471 132.451 -4.02887 125.616 147.549 -94.9323 156.302 161.171 -90.549 137.842 143.17 5.58046 144.869 155.126 13.9087 99.9655 158.21 2.9576 10.5569 85.0384 9.72684 
153.428 174.581 174.037 141.766 126.106 131.632 172.378 170.119 59.6347 62.3823 134.293 133.065 -3.71064 124.972 147.903 -94.9231 155.461 161.537 -90.7078 137.261 142.824 5.48486 144.686 155.929 13.6711 99.4763 158.549 3.04039 10.6451 85.127 9.62273 
153.595 174.644 174.034 142.135 124.72 131.664 172.433 170.329 60.5585 62.5982 134.003 133.571 -3.32437 124.408 148.333 -94.8806 154.746 162.147 -90.8788 136.905 142.723 5.35017 144.506 156.781 13.3951 98.8432 158.848 3.12936 10.9925 84.8473 9.50711 
153.435 174.602 173.967 141.399 121.779 131.49 172.478 170.521 61.0619 63.2672 133.517 134.11 -2.78761 123.793 148.723 -94.7017 154.163 162.755 -90.8418 136.595 143.162 5.22461 144.353 157.831 13.0829 98.0796 159.18 3.29764 11.5998 84.189 9.54263 
152.051 173.601 174.584 140.459 137.614 131.582 172.663 170.045 60.4804 64.3695 131.804 134.733 -3.49148 119.974 149.383 -95.1004 152.372 163.992 -90.5943 133.618 143.662 5.57757 140.149 155.379 16.1469 96.8346 160.421 3.26692 6.37247 86.4266 11.0607 
150.564 173.018 175.055 141.272 140.911 131.895 172.61 169.414 60.8752 66.2182 130.758 134.749 -4.41626 117.409 149.355 -95.6498 151.347 164.647 -90.4233 131.382 143.142 6.35226 137.685 153.466 17.1547 96.2866 161.153 3.10791 6.91614 89.2166 12.2567 
149.432 172.605 175.364 143.421 141.506 132.275 172.713 168.912 62.2777 67.476 129.779 134.798 -4.99888 115.317 149.338 -96.0677 150.316 165.558 -90.1383 129.39 142.257 7.39556 136.153 152.528 17.6126 95.5807 161.772 3.06743 7.20338 91.8247 13.2042 
