161.173 175.639 165.906 137.422 145.875 148.463 166.075 164.022 93.8907 93.8925 -60.1498 112.638 54.0331 -103.217 134.188 -31.4171 -49.8826 135.584 -30.1013 -62.4135 116.896 67.9167 -53.6847 126.845 72.0038 -77.011 168.043 62.7292 12.1972 86.7176 24.369 
161.16 175.494 166.403 137.206 145.702 148.406 165.948 164.207 94.0712 94.0976 -60.1796 112.601 54.1687 -103.352 134.035 -31.3425 -49.9513 135.475 -30.0905 -62.4272 116.744 67.888 -53.7152 126.702 71.9871 -77.132 167.968 62.761 12.1724 86.5844 24.4179 
161.072 175.329 166.883 136.783 145.438 148.311 165.831 164.43 94.3636 94.3738 -60.3311 112.558 54.4185 -103.467 133.862 -31.2141 -50.0546 135.28 -30.0233 -62.441 116.433 67.8101 -53.7618 126.436 71.9753 -77.2937 167.856 62.8498 12.1317 86.3161 24.4301 
160.972 175.202 167.721 136.202 145.05 148.336 165.746 164.749 94.5892 94.565 -60.6074 112.211 54.78 -103.669 133.129 -30.8271 -50.3017 134.653 -29.7388 -62.5364 116.006 67.9497 -53.9458 126.096 72.1709 -77.6123 167.514 63.095 12.1483 85.9597 24.3968 
160.861 175.074 168.107 135.703 144.696 148.295 165.671 164.85 94.7047 94.5932 -60.9084 111.988 55.0115 -103.515 132.698 -30.6019 -50.3097 134.093 -29.4825 -62.5548 115.743 68.0355 -54.0177 125.911 72.311 -77.6926 167.334 63.2177 12.1721 85.6514 24.2916 
160.708 174.966 168.489 135.335 144.391 148.148 165.646 165.053 94.7065 94.526 -61.2964 111.807 55.3046 -103.404 132.325 -30.3495 -50.4151 133.57 -29.2389 -62.7845 115.547 68.2574 -54.2394 125.748 72.523 -77.8167 167.166 63.3627 12.1969 85.5551 24.1407 
160.87 174.827 168.011 135.3 143.896 147.825 165.487 166.062 95.6929 95.4113 -62.0958 111.752 56.0869 -102.751 131.004 -29.3568 -51.1936 132.943 -29.4664 -62.9967 114.603 68.4983 -54.3925 124.943 72.5827 -77.9883 167.017 63.5764 12.1472 85.3062 23.0188 
160.959 174.575 165.665 134.978 143.266 147.553 165.295 167.153 96.1775 95.8601 -62.7901 111.803 56.8143 -102.26 129.782 -28.3709 -52.76 132.514 -29.8898 -63.165 114.052 68.6519 -54.5482 124.486 72.644 -78.1731 166.962 63.7991 12.1612 85.0865 21.4913 
161.007 174.373 164.018 134.504 142.568 147.304 165.142 167.483 96.4614 96.0974 -63.3966 111.875 57.4136 -101.727 128.665 -27.5037 -53.9212 132.12 -30.1385 -63.2774 113.716 68.8006 -54.6706 124.245 72.7429 -78.3367 166.937 63.9913 12.1939 84.8887 20.2833 
161.038 174.196 163.412 134.058 141.946 147.099 165.09 167.627 96.6672 96.255 -63.9201 111.973 58.0072 -101.376 127.778 -26.7543 -54.5873 131.826 -30.2183 -63.3724 113.556 69.0503 -54.769 124.18 72.9235 -78.5301 166.967 64.2078 12.2191 84.8122 19.589 
161.046 174.076 163.215 133.614 141.381 146.89 165.13 167.737 96.8219 96.3742 -64.466 111.981 58.5432 -100.892 126.801 -26.1179 -54.8533 131.309 -30.1464 -63.4232 113.395 69.3523 -54.822 124.105 73.1706 -78.6764 166.944 64.3797 12.2277 84.705 19.0841 
161.084 173.968 163.266 133.166 140.855 146.757 165.209 167.749 97.001 96.4935 -64.916 111.99 58.906 -100.346 126.044 -25.6589 -54.9416 130.74 -29.9905 -63.4516 113.251 69.559 -54.8227 124.047 73.3526 -78.7868 166.94 64.5128 12.1938 84.4347 18.6265 
161.132 173.862 163.323 132.748 140.461 146.694 165.32 167.829 97.2258 96.6196 -65.1961 111.86 59.2213 -99.8717 125.296 -25.3467 -54.8197 130.31 -29.9316 -63.2873 113.038 69.72 -54.6844 123.956 73.5047 -78.8361 166.845 64.5975 12.1697 84.2981 18.3907 
161.169 173.825 163.429 132.6 140.262 146.662 165.401 167.862 97.2504 96.5482 -65.5306 111.728 59.4412 -99.6321 124.732 -25.116 -54.8527 129.989 -29.9164 -63.2621 113.012 69.9629 -54.6552 124.014 73.7136 -78.9044 166.792 64.6721 12.1585 84.3451 18.2119 
161.179 173.821 163.659 132.523 140.077 146.599 165.629 167.948 97.1448 96.3316 -65.8498 111.553 59.6337 -99.4217 124.31 -25.0842 -54.8407 129.637 -29.9535 -63.2904 113.007 70.2747 -54.6462 124.043 73.9609 -78.9394 166.693 64.7171 12.1482 84.5324 18.0479 
161.2 173.839 163.651 132.478 139.968 146.556 165.809 167.955 97.1679 96.2162 -66.059 111.323 59.7839 -99.2949 123.889 -25.0996 -54.8287 129.256 -29.993 -63.2341 112.829 70.4386 -54.5543 123.927 74.0841 -78.9224 166.531 64.7236 12.1176 84.5891 17.9508 
161.243 173.819 163.781 132.638 139.975 146.562 165.937 168.059 97.0152 95.9418 -66.1741 111.114 59.8759 -99.2624 123.651 -25.1821 -54.7627 129.069 -30.0835 -63.1929 112.833 70.7232 -54.4918 123.957 74.2911 -78.89 166.402 64.7245 12.1255 84.9174 17.9617 
161.263 173.85 163.682 132.726 140.024 146.577 166.032 167.959 96.9805 95.8195 -66.3266 110.905 59.8807 -99.1507 123.4 -25.2722 -54.7441 128.722 -30.0837 -63.2009 112.729 70.834 -54.4693 123.879 74.3761 -78.8561 166.268 64.6877 12.1087 84.9469 17.8632 
161.298 173.838 163.545 132.955 140.103 146.6 166.05 167.875 96.931 95.6799 -66.2463 110.707 59.8318 -99.1648 123.268 -25.4079 -54.7718 128.602 -30.1981 -63.1296 112.636 70.8761 -54.3754 123.799 74.364 -78.7729 166.125 64.6187 12.1129 85.0873 17.8534 
161.305 173.833 163.418 133.179 140.189 146.611 166.059 167.777 96.8645 95.534 -66.1975 110.566 59.7317 -99.2102 123.263 -25.5484 -54.7566 128.534 -30.2718 -63.1037 112.569 70.8848 -54.3139 123.751 74.3152 -78.6873 166.008 64.5535 12.1242 85.2161 17.8879 
161.321 173.827 163.399 133.351 140.314 146.623 166.071 167.693 96.8924 95.4718 -66.0976 110.469 59.6544 -99.2851 123.328 -25.6768 -54.7377 128.507 -30.3225 -63.0255 112.479 70.8579 -54.2387 123.7 74.2509 -78.6094 165.923 64.4979 12.1458 85.2758 17.943 
161.329 173.836 163.371 133.436 140.376 146.641 166.102 167.623 96.8852 95.4233 -65.9705 110.375 59.5767 -99.3195 123.335 -25.8295 -54.6846 128.434 -30.3885 -62.9345 112.413 70.8123 -54.1207 123.653 74.1553 -78.5233 165.828 64.4153 12.1438 85.341 17.9902 
161.336 173.833 163.185 133.458 140.392 146.64 166.1 167.489 96.9981 95.5328 -65.7771 110.273 59.5108 -99.2478 123.323 -25.9809 -54.5911 128.322 -30.4017 -62.7982 112.203 70.6651 -53.9559 123.462 73.9849 -78.4123 165.701 64.3311 12.1195 85.2489 17.9915 
161.38 173.855 163.101 133.463 140.459 146.702 166.105 167.375 97.0496 95.6073 -65.5053 110.208 59.3837 -99.2672 123.347 -26.1564 -54.4422 128.289 -30.4374 -62.6492 112.09 70.492 -53.7838 123.358 73.7812 -78.306 165.61 64.226 12.1081 85.1779 18.1071 
161.368 173.874 163.05 133.428 140.488 146.723 166.134 167.218 97.1128 95.7282 -65.4354 110.165 59.2308 -99.2377 123.419 -26.342 -54.3174 128.154 -30.4243 -62.6338 111.937 70.2904 -53.7179 123.183 73.5627 -78.2395 165.531 64.1194 12.0841 85.0096 18.1475 
161.359 173.901 162.981 133.371 140.536 146.741 166.132 167.109 97.1978 95.8627 -65.3884 110.141 59.0924 -99.2653 123.444 -26.4871 -54.2459 128.043 -30.4441 -62.6413 111.763 70.0648 -53.6863 122.99 73.3391 -78.1985 165.459 64.0161 12.0607 84.833 18.2047 
161.327 173.926 163.014 133.313 140.614 146.704 166.14 167.089 97.2469 95.9224 -65.3723 110.233 59.0423 -99.3363 123.521 -26.5649 -54.2406 128.006 -30.4362 -62.6911 111.703 69.9426 -53.72 122.915 73.2397 -78.2031 165.472 63.9666 12.0446 84.7139 18.2484 
161.289 173.944 162.951 133.201 140.62 146.67 166.166 167.012 97.3872 96.1183 -65.3802 110.295 58.9935 -99.3081 123.496 -26.6584 -54.1578 127.877 -30.4035 -62.6783 111.542 69.7546 -53.6888 122.74 73.0723 -78.2166 165.456 63.8817 12.0081 84.4813 18.2762 
161.25 173.965 162.989 133.236 140.774 146.666 166.14 167.127 97.1486 95.8598 -65.4771 110.332 58.7755 -99.7051 123.504 -26.9751 -54.3344 128.085 -30.7757 -62.9341 111.642 69.5061 -53.9609 122.796 72.8587 -78.4079 165.457 63.6154 12.0325 84.7151 18.4655 
161.238 173.946 162.957 133.452 141.028 146.66 166.136 167.277 96.7654 95.4409 -65.7281 110.307 58.7339 -100.167 123.537 -27.1884 -54.5794 128.404 -31.0842 -63.2705 111.895 69.5655 -54.345 122.989 72.947 -78.6575 165.494 63.4722 12.0851 85.2307 18.6634 
161.179 173.982 163.072 134.212 141.372 146.594 166.261 167.631 95.905 94.5878 -66.1135 110.243 58.692 -100.68 123.563 -27.4948 -54.8726 128.861 -31.5721 -63.8721 112.539 70.101 -54.9046 123.441 73.3064 -78.9752 165.548 63.3065 12.1914 86.4981 18.8684 
161.18 174.033 163.203 134.946 141.852 146.601 166.453 167.925 95.1078 93.8037 -66.5946 110.049 58.6192 -101.188 123.551 -27.9442 -55.102 129.254 -32.0799 -64.5072 113.069 70.561 -55.5118 123.775 73.6869 -79.3253 165.527 63.1298 12.2528 87.693 19.0976 
161.207 174.124 163.342 135.543 142.292 146.608 166.611 168.123 94.3308 93.063 -67.043 109.74 58.427 -101.64 123.445 -28.4172 -55.2925 129.445 -32.5322 -65.1097 113.429 70.8739 -56.06 123.912 73.983 -79.6572 165.357 62.9128 12.2538 88.7084 19.2865 
161.247 174.169 163.228 135.899 142.643 146.636 166.599 168.249 93.7239 92.588 -67.4354 109.33 58.1242 -102.144 123.354 -28.7943 -55.3804 129.585 -32.8815 -65.6007 113.493 70.8775 -56.5293 123.746 74.0434 -79.9094 165.068 62.6595 12.2506 89.4037 19.6316 
161.34 174.11 162.87 136.191 142.919 146.69 166.377 168.213 93.2424 92.3 -67.5158 108.897 57.7117 -102.854 123.371 -29.0945 -55.6358 129.781 -33.2176 -65.9501 113.297 70.6027 -56.8494 123.322 73.8292 -80.1031 164.639 62.4204 12.2379 89.8574 20.0385 
161.471 174.019 162.539 136.572 143.125 146.74 166.028 168.176 92.8739 92.0207 -67.2325 108.505 57.1486 -103.767 123.546 -29.3568 -55.9842 130.178 -33.6891 -66.1388 113.044 70.1898 -57.0481 122.915 73.4349 -80.2407 164.166 62.1644 12.2803 90.2807 20.5576 
161.509 173.95 162.209 136.778 143.129 146.689 165.664 168.111 92.7224 91.987 -66.864 108.237 56.7612 -104.57 123.868 -29.4447 -56.5335 130.525 -33.9757 -66.3749 112.716 69.7555 -57.2945 122.454 73.0121 -80.3864 163.758 62.0194 12.335 90.4258 20.8502 
161.334 174.336 162.694 137.353 143.875 147.101 165.684 168.152 91.9656 91.4006 -66.3035 107.64 55.6251 -105.841 125.182 -30.4328 -56.7063 131.208 -34.2225 -66.5959 112.947 69.4326 -57.4484 122.494 72.7267 -80.4196 163.359 61.7916 12.3271 91.1014 21.5138 
161.065 174.517 163.981 137.889 144.385 147.312 165.899 168.156 91.2554 90.8009 -65.8587 107.195 54.7377 -106.967 126.444 -31.3328 -56.5027 131.622 -34.2027 -66.9398 113.18 69.3243 -57.6709 122.542 72.59 -80.4484 162.989 61.6542 12.3179 91.763 22.3303 
160.796 174.627 166.955 138.454 144.799 147.478 166.111 167.796 90.6923 90.3212 -65.5879 106.894 54.0354 -107.887 127.42 -31.922 -56.1789 131.824 -34.0051 -67.3841 113.456 69.4223 -57.9741 122.677 72.5857 -80.5291 162.712 61.5819 12.3166 92.4195 23.1443 
160.882 174.448 168.196 138.738 144.435 147.287 166.035 167.422 91.1811 90.8642 -65.9511 106.8 54.2865 -108.485 127.45 -31.5504 -56.4499 131.498 -33.9274 -68.0677 113.058 69.5762 -58.5243 122.192 72.5489 -80.7448 162.596 61.6531 12.3146 92.4347 23.4015 
160.848 174.282 168.149 138.679 143.882 147.047 165.944 167.265 91.6106 91.3014 -66.2945 106.764 54.6809 -108.625 127.091 -31.0605 -56.9221 130.949 -33.8174 -68.5869 112.66 69.7075 -58.9297 121.744 72.5435 -80.9468 162.477 61.7331 12.293 92.2304 23.2007 
160.823 174.152 167.914 138.637 143.292 146.852 165.91 167.342 92.0458 91.5819 -66.7011 106.777 55.1518 -108.584 126.576 -30.517 -57.6729 130.314 -33.7363 -69.0651 112.386 70.0142 -59.2922 121.509 72.6951 -81.1809 162.436 61.8626 12.2692 92.0312 22.6451 
160.759 174.024 167.434 138.484 142.724 146.675 165.882 167.64 92.3767 91.7481 -67.1993 106.746 55.5666 -108.432 126.071 -30.0593 -58.5213 129.78 -33.7728 -69.5103 112.177 70.3012 -59.613 121.337 72.8527 -81.4043 162.393 61.9728 12.2301 91.9226 21.9244 
160.697 173.89 166.758 138.531 142.341 146.114 166.006 168.174 92.6293 91.6125 -68.2664 106.552 55.8039 -108.507 125.649 -29.6481 -59.6802 129.166 -33.8812 -70.3418 111.847 70.4683 -60.1729 120.98 72.7947 -81.8332 162.29 61.9782 12.1435 91.8102 21.1183 
160.667 173.912 165.327 138.11 141.918 146.127 165.986 168.607 92.6553 91.5582 -68.5506 106.577 56.1799 -107.993 124.984 -29.2803 -60.3559 128.851 -33.9415 -70.4031 111.945 70.7572 -60.1555 121.136 73.0538 -81.8993 162.333 62.0773 12.0844 91.7962 20.3067 
160.635 173.881 164.474 137.64 141.439 146.15 165.978 168.766 92.7448 91.6175 -68.7847 106.515 56.4737 -107.604 124.432 -29.0925 -60.871 128.582 -34.0456 -70.381 111.894 70.8901 -60.0623 121.13 73.1901 -81.9669 162.296 62.1164 11.9914 91.7419 19.6957 
160.563 173.857 164.047 137.185 140.979 146.129 165.959 168.786 92.8086 91.6849 -69.1535 106.424 56.6102 -107.278 124.005 -29.0098 -61.1982 128.274 -34.1183 -70.4288 111.773 70.8968 -60.0345 121.014 73.2257 -82.0325 162.226 62.0796 11.8965 91.6349 19.2522 
160.551 173.901 163.897 136.953 140.694 146.148 165.982 168.788 92.7719 91.5951 -69.4006 106.41 56.6723 -106.922 123.585 -28.955 -61.3884 128.047 -34.1891 -70.4164 111.852 71.0012 -60 121.132 73.3123 -82.1049 162.23 62.0147 11.8715 91.6687 18.8863 
160.522 173.914 163.821 136.719 140.428 146.123 166.008 168.784 92.7871 91.6018 -69.709 106.365 56.6738 -106.723 123.333 -28.9938 -61.4759 127.883 -34.2759 -70.4348 111.833 70.9954 -59.9865 121.127 73.3169 -82.1761 162.212 61.9358 11.8237 91.6553 18.6901 
160.476 173.95 163.851 136.646 140.197 146.101 166.071 168.799 92.715 91.5117 -69.816 106.309 56.638 -106.543 123.075 -29.113 -61.5328 127.766 -34.4287 -70.378 111.865 70.9909 -59.8974 121.164 73.2748 -82.2144 162.156 61.8222 11.8018 91.7394 18.531 
160.445 173.929 163.812 136.418 139.971 146.033 166.044 168.74 92.7738 91.5656 -69.8268 106.301 56.6575 -106.399 122.923 -29.185 -61.535 127.708 -34.5004 -70.2336 111.761 70.8436 -59.7678 121.109 73.151 -82.2448 162.106 61.7326 11.7789 91.626 18.441 
160.398 173.909 163.78 136.313 139.744 146.007 166.022 168.715 92.7763 91.5424 -69.8265 106.24 56.633 -106.248 122.761 -29.2452 -61.5475 127.717 -34.6181 -70.03 111.702 70.7375 -59.5678 121.1 73.0263 -82.241 162.04 61.6343 11.7639 91.6441 18.3518 
160.348 173.864 163.746 136.18 139.61 145.946 165.987 168.697 92.792 91.5762 -69.8788 106.196 56.635 -106.283 122.681 -29.3348 -61.5315 127.691 -34.7044 -69.8743 111.601 70.6069 -59.4438 121.027 72.9053 -82.2575 161.978 61.5521 11.7636 91.5996 18.3986 
160.306 173.863 163.711 136.029 139.458 145.882 166 168.683 92.8442 91.6617 -69.9715 106.16 56.647 -106.165 122.606 -29.4285 -61.4339 127.578 -34.7109 -69.8165 111.462 70.5093 -59.4041 120.881 72.8396 -82.2631 161.923 61.4739 11.7495 91.5118 18.3783 
160.231 173.804 163.601 135.889 139.284 145.778 165.975 168.658 92.821 91.6902 -70.1111 106.123 56.6669 -106.199 122.655 -29.5593 -61.3801 127.53 -34.7489 -69.8008 111.352 70.4059 -59.3826 120.726 72.7577 -82.2694 161.865 61.3949 11.732 91.5013 18.4339 
160.222 173.747 163.578 135.872 139.259 145.747 165.912 168.579 92.885 91.7691 -70.1972 106.176 56.5918 -106.218 122.808 -29.7045 -61.3114 127.564 -34.78 -69.7866 111.276 70.2803 -59.39 120.646 72.6609 -82.2827 161.88 61.3202 11.7301 91.4279 18.4799 
160.212 173.718 163.622 135.868 139.227 145.686 165.892 168.57 92.8877 91.7677 -70.2741 106.181 56.4918 -106.319 122.882 -29.8824 -61.2473 127.514 -34.8511 -69.7781 111.236 70.1744 -59.4085 120.601 72.5598 -82.3017 161.866 61.1943 11.7439 91.4212 18.5795 
160.201 173.685 163.687 135.993 139.229 145.607 165.942 168.598 92.794 91.6642 -70.2581 106.222 56.4366 -106.471 123.009 -30.1422 -61.2065 127.526 -35.0027 -69.7779 111.284 70.1269 -59.4145 120.624 72.4786 -82.3071 161.862 61.051 11.7678 91.5685 18.6953 
160.215 173.692 163.851 136.234 139.261 145.576 166.018 168.676 92.6482 91.4767 -70.1595 106.295 56.3589 -106.513 123.085 -30.3724 -61.1271 127.603 -35.1705 -69.739 111.483 70.1908 -59.3686 120.809 72.4631 -82.2961 161.904 60.908 11.797 91.8613 18.7706 
160.224 173.75 164.252 136.315 139.223 145.49 166.215 168.778 92.5732 91.3227 -70.0532 106.495 56.1986 -106.401 123.133 -30.7455 -60.8106 127.578 -35.3383 -69.5421 111.715 70.146 -59.2183 121.078 72.3897 -82.2496 162.031 60.6671 11.823 91.9574 18.8781 
160.307 173.85 164.624 136.58 139.396 145.529 166.382 168.864 92.5456 91.1884 -69.9344 106.639 56.0911 -106.468 123.236 -30.9451 -60.7528 127.582 -35.4303 -69.585 111.888 70.2007 -59.2918 121.292 72.4054 -82.2756 162.137 60.58 11.8717 92.0389 18.9316 
160.379 173.929 164.892 136.683 139.54 145.589 166.547 168.888 92.7019 91.276 -69.9317 106.807 56.0139 -106.423 123.341 -31.0939 -60.6525 127.547 -35.4417 -69.6017 111.968 70.192 -59.3576 121.436 72.4031 -82.3172 162.296 60.515 11.8941 91.9098 18.9285 
160.438 173.987 165.05 136.628 139.611 145.657 166.654 168.881 92.8617 91.4222 -69.9387 106.941 55.8886 -106.418 123.48 -31.2616 -60.524 127.531 -35.4411 -69.5844 111.952 70.0082 -59.4044 121.478 72.2831 -82.3658 162.417 60.4386 11.9039 91.6213 18.9786 
160.484 174.064 165.189 136.697 139.709 145.754 166.795 168.956 92.8703 91.4243 -69.9204 107.011 55.7821 -106.422 123.557 -31.4445 -60.3853 127.524 -35.5091 -69.5959 112.048 69.9524 -59.4485 121.592 72.2312 -82.3945 162.51 60.3521 11.9286 91.5779 19.0475 
160.515 174.104 165.272 136.743 139.771 145.828 166.834 168.962 92.8915 91.3896 -69.8212 107.092 55.6938 -106.483 123.586 -31.5351 -60.443 127.556 -35.5765 -69.5737 112.142 69.832 -59.4633 121.756 72.105 -82.4656 162.592 60.2506 11.9545 91.4908 19.0447 
160.552 174.18 165.354 136.969 139.926 145.878 166.904 169.041 92.7989 91.2718 -69.7488 107.15 55.6566 -106.528 123.549 -31.627 -60.4731 127.617 -35.6688 -69.626 112.382 69.8991 -59.5425 122.018 72.1282 -82.5421 162.689 60.1696 11.9977 91.6362 19.0535 
160.625 174.2 165.368 137.442 140.214 145.602 167.167 169.309 92.8115 91.0468 -69.6708 107.171 55.4899 -106.581 123.622 -31.7452 -60.4308 127.753 -35.8015 -69.6719 112.534 69.8312 -59.5122 122.186 71.89 -82.6265 162.792 59.9971 12.0082 91.7148 19.1005 
160.619 174.248 165.31 137.654 140.364 145.643 167.277 169.288 92.7494 90.974 -69.6389 107.191 55.4928 -106.626 123.575 -31.8445 -60.5458 127.759 -35.9143 -69.7553 112.719 69.9393 -59.6073 122.379 71.9227 -82.7127 162.844 59.9255 12.0541 91.9077 19.0392 
160.663 174.232 165.225 137.937 140.549 145.394 167.444 169.472 92.9056 90.9661 -69.5737 107.236 55.4011 -106.772 123.717 -31.8921 -60.5297 127.953 -36.0066 -69.7513 112.806 69.861 -59.5757 122.501 71.6978 -82.8252 162.954 59.7959 12.073 91.9319 19.1478 
160.642 174.235 165.089 138.056 140.592 145.48 167.425 169.421 92.846 90.9307 -69.3866 107.299 55.5299 -106.858 123.582 -31.8372 -60.6272 128.051 -36.0682 -69.7073 113.095 70.0669 -59.576 122.837 71.8182 -82.9143 163.041 59.7853 12.1277 92.2011 19.1645 
160.671 174.194 164.884 138.22 140.705 145.311 167.51 169.497 93.104 91.1089 -69.303 107.312 55.4893 -107.002 123.65 -31.7956 -60.6527 128.241 -36.1178 -69.6308 113.096 69.9872 -59.4684 122.864 71.6269 -82.9925 163.136 59.7253 12.1056 92.1363 19.2569 
160.627 174.156 164.624 138.283 140.698 145.428 167.45 169.318 93.1615 91.2445 -69.3173 107.376 55.6387 -107.155 123.592 -31.6862 -60.8634 128.331 -36.1323 -69.6632 113.289 70.1879 -59.5104 123.08 71.7681 -83.1017 163.247 59.7826 12.1147 92.3003 19.2351 
160.606 174.119 164.549 138.414 140.732 145.235 167.573 169.363 93.3672 91.3879 -69.4501 107.427 55.61 -107.352 123.794 -31.7238 -61.0313 128.399 -36.182 -69.8074 113.297 70.1474 -59.5747 123.054 71.6309 -83.2137 163.357 59.7184 12.0736 92.2468 19.2293 
160.543 174.113 164.494 138.349 140.673 145.392 167.557 169.264 93.2763 91.4229 -69.4928 107.453 55.7504 -107.455 123.713 -31.6897 -61.1692 128.393 -36.2015 -69.9103 113.473 70.3304 -59.6629 123.188 71.7995 -83.295 163.411 59.7653 12.0644 92.4374 19.2097 
160.507 174.156 164.565 138.363 140.656 145.598 167.529 169.259 93.1349 91.3915 -69.5903 107.442 55.8264 -107.567 123.574 -31.6948 -61.3112 128.38 -36.2903 -70.0491 113.677 70.5626 -59.7812 123.335 72.0118 -83.371 163.445 59.7882 12.0565 92.7409 19.1978 
160.485 174.195 164.614 138.192 140.543 145.752 167.504 169.242 93.0671 91.3873 -69.5982 107.498 55.9893 -107.614 123.411 -31.586 -61.4546 128.371 -36.2708 -70.0634 113.824 70.7384 -59.7982 123.486 72.1941 -83.4341 163.499 59.8581 12.0395 92.8778 19.1519 
160.453 174.254 164.768 138.082 140.404 145.87 167.469 169.195 92.9957 91.3812 -69.6053 107.507 56.083 -107.499 123.215 -31.498 -61.57 128.229 -36.2193 -70.1193 113.916 70.8972 -59.8353 123.545 72.365 -83.4501 163.507 59.9023 12.0152 92.9474 18.9949 
160.439 174.289 164.936 137.864 140.259 145.998 167.43 169.146 93.005 91.4339 -69.6348 107.496 56.1028 -107.33 123.046 -31.448 -61.5812 128.05 -36.1556 -70.1193 113.887 70.9239 -59.8425 123.517 72.4538 -83.4387 163.489 59.9223 11.9844 92.8473 18.8655 
160.434 174.364 165.16 137.662 140.18 146.087 167.512 169.224 92.9938 91.4346 -69.809 107.499 56.1842 -107.196 122.957 -31.5019 -61.5128 127.827 -36.1024 -70.1985 113.875 71.0431 -59.9255 123.492 72.6389 -83.4412 163.493 59.9597 11.9566 92.8215 18.7828 
160.41 174.414 165.265 137.477 140.104 146.151 167.519 169.249 92.9965 91.461 -70.0006 107.554 56.2594 -107.121 122.925 -31.4776 -61.5619 127.701 -36.0548 -70.309 113.865 71.1045 -60.0336 123.474 72.757 -83.4761 163.528 60.0009 11.9329 92.7758 18.6778 
160.384 174.451 165.43 137.289 140.059 146.196 167.55 169.298 93.0609 91.5654 -70.1931 107.586 56.3137 -107.006 122.883 -31.4988 -61.536 127.504 -36.0108 -70.3863 113.775 71.1091 -60.1207 123.378 72.8347 -83.482 163.543 60.0168 11.9058 92.645 18.5841 
160.375 174.521 165.568 136.999 139.951 146.232 167.586 169.324 93.1676 91.6815 -70.3889 107.666 56.3995 -106.903 122.872 -31.4652 -61.5458 127.357 -35.9206 -70.4224 113.676 71.0508 -60.1866 123.312 72.8736 -83.503 163.606 60.0528 11.8802 92.3911 18.4835 
160.374 174.557 165.611 136.774 139.884 146.262 167.605 169.323 93.2546 91.7692 -70.4565 107.709 56.397 -106.817 122.863 -31.4651 -61.5368 127.31 -35.9043 -70.3606 113.572 70.9188 -60.1696 123.256 72.8206 -83.4918 163.632 60.0539 11.8716 92.1778 18.4219 
160.383 174.569 165.629 136.667 139.842 146.281 167.613 169.316 93.3045 91.8125 -70.4657 107.736 56.3689 -106.761 122.819 -31.501 -61.5622 127.284 -35.975 -70.2759 113.511 70.8115 -60.1127 123.229 72.7439 -83.4569 163.647 60.0121 11.8733 92.081 18.3636 
160.392 174.63 165.657 136.59 139.819 146.305 167.649 169.259 93.3202 91.8073 -70.4268 107.677 56.3088 -106.536 122.642 -31.5256 -61.4861 127.066 -35.9576 -70.1677 113.41 70.7086 -60.0333 123.167 72.6777 -83.3705 163.589 59.9483 11.8805 91.9094 18.2502 
160.418 174.66 165.734 136.648 139.876 146.312 167.627 169.267 93.2978 91.7761 -70.421 107.655 56.2605 -106.47 122.607 -31.5638 -61.4489 126.958 -35.9796 -70.1909 113.397 70.6905 -60.0607 123.146 72.6836 -83.3089 163.576 59.9023 11.8824 91.8895 18.2202 
160.421 174.711 165.752 136.646 139.881 146.3 167.643 169.273 93.2708 91.7563 -70.4104 107.588 56.2199 -106.322 122.489 -31.5389 -61.3534 126.767 -35.9374 -70.1621 113.337 70.6823 -60.0332 123.075 72.6895 -83.2191 163.514 59.8844 11.8896 91.82 18.1743 
160.452 174.792 165.72 136.615 139.936 146.338 167.704 169.224 93.3324 91.829 -70.398 107.478 56.1983 -106.137 122.327 -31.4991 -61.1577 126.491 -35.8054 -70.098 113.192 70.6667 -59.993 122.947 72.7097 -83.1114 163.436 59.8928 11.8997 91.6248 18.1663 
160.458 174.868 165.819 136.601 139.918 146.352 167.825 169.29 93.3035 91.7743 -70.2769 107.339 56.2677 -105.911 122.052 -31.4471 -60.9926 126.131 -35.7146 -69.973 113.111 70.7882 -59.8654 122.873 72.7981 -82.977 163.308 59.9193 11.9188 91.5842 18.0997 
