140.361 171.06 180 136.317 137.05 140.647 163.043 179.991 81.6327 84.7458 66.1034 134.981 -0.442514 93.8816 102.509 -49.759 62.3531 127.351 -43.1189 49.7103 123.875 35.9164 43.8095 110.384 38.1795 79.8383 100.704 40.7949 11.5909 65.2845 34.692 
140.468 171.121 180 136.361 137.088 140.739 162.935 179.995 81.6404 84.7455 66.2834 135.02 -0.61081 93.8456 102.415 -49.8543 62.1584 127.293 -42.393 49.7898 123.882 35.7383 43.8937 110.368 38.0247 79.9063 100.698 40.7099 11.5819 64.7854 35.0845 
140.659 171.165 180 136.386 137.13 140.834 162.836 179.996 81.6596 84.7637 66.4937 135.085 -0.77011 93.8138 102.341 -49.9568 61.9368 127.31 -41.7757 49.8734 123.921 35.5405 43.9782 110.387 37.8553 79.987 100.717 40.6218 11.567 64.2702 35.476 
140.941 171.241 180 136.362 137.136 141.008 162.756 179.996 81.7177 84.8296 66.6538 135.089 -0.983133 93.7712 102.263 -50.062 61.717 127.318 -41.2918 49.9312 123.91 35.34 44.0378 110.353 37.6651 80.0308 100.671 40.5031 11.5597 63.8131 35.8152 
140.973 171.331 180 136.269 137.068 141.043 162.712 179.996 81.7813 84.8663 66.8247 135.148 -1.08991 93.7171 102.28 -50.1731 61.6321 127.426 -41.1672 50.0054 123.964 35.2043 44.1108 110.393 37.5345 80.085 100.664 40.3911 11.5589 63.596 35.9443 
141.081 171.356 180 136.199 137.032 141.095 162.591 179.996 81.7922 84.8474 67.0191 135.186 -1.21004 93.6614 102.214 -50.2314 61.4163 127.48 -40.7553 50.0809 123.949 35.0483 44.1856 110.352 37.4204 80.1456 100.637 40.3255 11.5389 63.1476 36.2357 
141.152 171.442 180 136.205 136.945 141.142 162.496 179.996 82.1124 84.9797 67.0661 135.206 -1.40906 93.6104 102.279 -50.4596 61.1831 127.525 -41.7791 49.9644 123.999 34.8083 44.2216 110.331 37.1691 80.17 100.583 40.1342 11.6445 63.2825 35.8658 
141.223 171.491 180 136.183 136.886 141.13 162.543 179.99 82.3704 85.1206 66.9933 135.236 -1.43426 93.6172 102.428 -50.5584 61.355 127.278 -43.0963 49.8569 124.098 34.7561 44.2163 110.393 37.0926 80.1814 100.597 40.0601 11.7133 64.0007 35.0539 
141.145 171.484 180 136.254 136.842 141.029 162.577 179.986 82.6802 85.2187 66.866 135.213 -1.47406 93.6873 102.637 -50.7188 61.5845 126.85 -45.0641 49.7035 124.167 34.6807 44.2382 110.391 36.9862 80.2008 100.606 39.9528 11.8345 65.0379 33.8763 
140.975 171.411 180 136.467 136.901 140.923 162.609 179.978 83.0106 85.3105 66.7188 135.19 -1.53787 93.8197 102.848 -50.8862 61.8162 126.285 -47.6074 49.5327 124.236 34.6061 44.26 110.382 36.8949 80.2368 100.619 39.8382 11.9598 66.3081 32.4517 
140.897 171.37 180 136.567 136.875 140.83 162.666 179.97 83.3284 85.3774 66.6016 135.102 -1.63364 94.0599 103.106 -51.0869 62.4608 125.437 -49.7239 49.3897 124.267 34.5085 44.2891 110.331 36.7596 80.2657 100.571 39.6953 12.0776 67.6352 30.9848 
140.937 171.311 180 136.598 136.84 140.78 162.772 179.959 83.7142 85.4677 66.4068 135.047 -1.71053 94.3677 103.452 -51.2987 63.148 124.584 -52.0735 49.1959 124.353 34.3939 44.3046 110.315 36.6238 80.291 100.572 39.5576 12.1945 69.0396 29.448 
140.897 171.202 180 136.731 136.893 140.707 162.854 179.954 84.0394 85.5543 66.2674 134.992 -1.8126 94.6543 103.68 -51.4935 64.0894 123.385 -53.4791 49.0451 124.411 34.2443 44.3342 110.284 36.47 80.3531 100.556 39.4405 12.2829 70.2631 28.0859 
141.033 171.187 180 136.765 136.877 140.734 162.952 179.99 84.4147 85.6344 66.1569 134.919 -1.95405 94.9697 104.061 -51.6618 64.9891 122.499 -55.6932 48.9066 124.517 34.1132 44.3802 110.279 36.3272 80.4066 100.562 39.3208 12.3753 71.5879 26.5579 
141.332 171.225 179.999 136.616 136.702 140.775 163.086 179.987 84.7333 85.7029 66.0191 134.862 -2.06887 95.3019 104.531 -51.856 66.0913 121.499 -57.3002 48.8013 124.614 33.9776 44.4253 110.283 36.1691 80.453 100.562 39.199 12.4475 72.8613 25.0825 
141.549 171.275 180 136.449 136.526 140.791 163.257 179.985 85.0388 85.7922 65.898 134.879 -2.13687 95.6232 105.027 -52.0447 67.2376 120.557 -58.587 48.7672 124.779 33.8738 44.5251 110.377 36.0488 80.5579 100.623 39.1033 12.5095 74.0368 23.7114 
141.57 171.259 180 136.36 136.439 140.774 163.461 179.985 85.2196 85.8171 65.7599 134.913 -2.15795 95.9363 105.429 -52.2235 68.3065 119.656 -59.1284 48.7583 124.912 33.832 44.6164 110.466 35.9728 80.6467 100.707 39.0407 12.5711 75.0159 22.6617 
141.522 171.219 180 136.283 136.344 140.757 163.611 179.986 85.3253 85.8311 65.7167 135.022 -2.18778 96.2247 105.796 -52.3603 69.3328 118.972 -59.2764 48.7983 125.072 33.7819 44.6998 110.61 35.8955 80.7341 100.808 38.9864 12.6053 75.7652 21.8441 
141.531 171.207 180 136.179 136.179 140.771 163.777 179.989 85.3415 85.8188 65.7264 135.085 -2.27277 96.4269 106.018 -52.5148 70.2479 118.495 -58.9895 48.8896 125.183 33.7476 44.7808 110.732 35.8268 80.801 100.867 38.9137 12.6191 76.2841 21.3466 
141.391 171.135 180 136.15 136.104 140.748 163.867 179.986 85.2739 85.8506 65.7734 135.222 -2.30899 96.522 106.125 -52.6164 70.813 118.265 -58.3751 48.9987 125.276 33.7105 44.8535 110.874 35.7728 80.8651 100.965 38.8836 12.6216 76.437 21.2108 
141.155 171.035 180 136.202 136.121 140.693 163.909 179.952 85.1122 85.8646 65.8294 135.344 -2.3459 96.5894 106.076 -52.7159 70.8656 118.334 -57.5977 49.1345 125.317 33.6706 44.945 110.982 35.7171 80.9391 101.103 38.8655 12.6284 76.1925 21.5349 
140.791 170.9 180 136.308 136.241 140.599 163.895 179.959 84.8153 85.8553 65.9539 135.479 -2.33961 96.5301 105.862 -52.754 70.4061 119.11 -56.6429 49.3395 125.336 33.6627 45.0459 111.102 35.707 81.0202 101.282 38.8706 12.6044 75.3629 22.534 
140.158 170.727 180 136.462 136.405 140.292 163.924 179.974 84.4403 85.7878 66.0269 135.859 -2.27515 96.3815 105.819 -52.8545 70.1747 119.692 -54.7087 49.617 125.592 33.6382 45.2456 111.483 35.7085 81.2166 101.758 38.8952 12.5989 74.4869 23.5493 
139.645 170.746 180 136.395 136.338 140.044 163.88 179.98 84.1433 85.7006 66.1898 136.108 -2.15331 96.2086 105.768 -52.8121 69.8651 120.337 -53.2433 49.8537 125.701 33.6636 45.3774 111.68 35.7217 81.3012 101.982 38.93 12.5804 73.6896 24.4363 
139.191 170.697 180 136.249 136.34 139.858 163.788 179.986 83.8168 85.6251 66.3638 136.356 -2.06928 95.8427 105.668 -52.7334 69.1168 121.388 -51.8982 50.0763 125.79 33.6613 45.4689 111.857 35.7426 81.335 102.212 38.9368 12.5289 72.5334 25.6498 
138.796 170.71 180 136.062 136.272 139.683 163.784 179.989 83.5958 85.5132 66.3979 136.695 -1.96468 95.6268 105.765 -52.7441 68.643 121.967 -50.8884 50.2036 125.956 33.7096 45.5646 112.077 35.7907 81.3924 102.516 38.9283 12.5397 71.9533 26.36 
138.52 170.691 180 135.993 136.341 139.623 163.752 179.99 83.2868 85.3852 66.5071 137.01 -1.9282 95.3611 105.782 -52.703 68.0298 122.683 -49.8342 50.3945 126.091 33.7435 45.6723 112.278 35.839 81.4633 102.816 38.9308 12.5163 71.1725 27.2432 
138.245 170.713 180 135.858 136.434 139.51 163.747 179.995 83.0216 85.2887 66.6116 137.257 -1.92818 95.0535 105.651 -52.6542 67.1146 123.521 -48.6766 50.5867 126.217 33.7535 45.7806 112.463 35.8845 81.5409 103.108 38.9266 12.4753 70.1122 28.4049 
138.08 170.779 180 135.837 136.48 139.468 163.741 179.995 82.8279 85.158 66.7262 137.565 -1.93699 94.9035 105.606 -52.634 66.584 124.214 -47.6637 50.7423 126.453 33.8205 45.8819 112.741 35.9545 81.621 103.433 38.9317 12.4674 69.3979 29.3225 
137.806 170.823 180 135.943 136.707 139.422 163.69 179.995 82.5 84.9702 66.9208 137.776 -2.01574 94.6422 105.39 -52.5774 65.7787 124.977 -46.4009 50.9736 126.568 33.8637 46.0013 112.914 36.0293 81.7066 103.692 38.9302 12.422 68.3552 30.52 
137.81 170.896 180 136.02 136.854 139.554 163.637 179.995 82.1494 84.7493 67.1555 137.96 -2.16929 94.439 105.235 -52.5639 65.0509 125.817 -44.8687 51.1989 126.65 33.8974 46.1298 113.052 36.0839 81.7902 103.937 38.92 12.3914 67.1841 31.8519 
137.962 170.96 180 136.124 136.953 139.776 163.594 179.995 81.8087 84.5251 67.4322 138.126 -2.3811 94.34 105.094 -52.57 64.6744 126.502 -43.3192 51.4253 126.742 33.9191 46.2598 113.199 36.1217 81.8872 104.159 38.8993 12.3642 66.1734 33.0627 
138.163 171.015 180 136.306 137.138 139.954 163.546 179.995 81.6285 84.3744 67.6352 138.289 -2.58507 94.2495 104.966 -52.5874 64.4676 127.043 -42.1936 51.5558 126.889 33.9137 46.3599 113.362 36.1401 81.9755 104.393 38.8867 12.3552 65.3902 33.9968 
138.333 171.059 180 136.521 137.356 140.15 163.498 179.995 81.4428 84.2571 67.8552 138.442 -2.78996 94.1816 104.882 -52.6262 64.637 127.615 -41.0184 51.6664 126.98 33.8673 46.4434 113.476 36.1031 82.0489 104.577 38.8502 12.3535 64.6261 34.9015 
138.414 171.109 180 136.76 137.525 140.325 163.497 179.994 81.3455 84.1732 68.0056 138.642 -2.89667 94.1982 104.959 -52.6821 65.742 128.216 -40.3081 51.7149 127.135 33.8903 46.5117 113.642 36.104 82.1185 104.793 38.845 12.3836 64.3968 35.3654 
138.612 171.146 179.999 137.013 137.708 140.582 163.48 179.994 81.0946 83.9963 68.3148 138.854 -3.1066 94.1986 104.944 -52.7182 66.9928 128.477 -38.8163 51.8521 127.251 33.8686 46.591 113.779 36.0795 82.1791 104.987 38.8464 12.3585 64.0099 36.0065 
138.915 171.21 180 137.23 137.839 140.951 163.474 134.198 80.8524 83.829 68.7092 139.108 -3.38596 94.1033 104.938 -52.7839 60.4561 137.091 -26.6463 52.0006 127.391 33.8324 46.6717 113.949 36.0381 82.1306 105.273 38.7572 12.3574 51.4247 48.3506 
139.255 171.315 180 137.321 137.873 141.122 163.449 111.658 80.9065 83.8423 68.8988 139.445 -3.55072 94.018 105.062 -52.8168 56.6482 140.956 -14.3059 52.0416 127.696 33.7623 46.7238 114.238 35.9556 82.1126 105.618 38.6327 12.4146 40.5906 59.1097 
139.673 171.551 180 137.475 137.82 141.289 163.444 101.338 81.1525 83.9495 69.0481 140.132 -3.67826 93.8672 105.627 -52.9411 53.7407 143.863 -1.85415 52.0281 128.353 33.7092 46.7772 114.857 35.8264 82.1183 106.162 38.4897 12.5107 29.8085 70.1281 
139.772 171.676 180 137.489 137.582 141.269 163.45 99.9447 81.586 84.1389 68.8901 140.519 -3.6385 93.9358 106.33 -53.145 52.3184 145.262 2.94132 51.8423 128.709 33.6697 46.7559 115.142 35.685 82.1124 106.334 38.3606 12.6269 25.693 74.3556 
139.772 171.866 180 137.459 137.194 141.212 163.613 98.7515 81.9073 84.274 68.7377 141.095 -3.54912 94.1616 107.199 -53.4438 52.1721 146.284 5.7012 51.729 129.261 33.6592 46.7295 115.669 35.5594 82.1142 106.664 38.2135 12.7077 23.4209 76.7716 
140.183 172.003 180 137.353 136.741 141.297 163.763 97.9603 82.1989 84.3833 68.4519 141.515 -3.5991 94.4145 108.036 -53.7963 52.3376 146.98 7.02268 51.586 129.676 33.6058 46.6703 116.048 35.3791 82.0678 106.887 38.0242 12.7864 22.2709 77.9487 
140.191 172.053 180 137.376 136.472 141.239 163.896 97.4512 82.4734 84.4512 68.0903 141.942 -3.57138 94.6989 108.847 -54.1206 52.4852 147.384 7.23313 51.4129 130.05 33.5381 46.6131 116.363 35.2059 82.0343 107.138 37.8704 12.8668 22.0195 78.1208 
140.141 172.048 180 137.41 136.336 141.157 164.014 97.8032 82.6646 84.5676 67.7035 142.253 -3.58478 94.8306 109.374 -54.4329 52.3082 147.63 6.22592 51.2374 130.28 33.3824 46.521 116.557 34.9783 81.944 107.32 37.6858 12.9231 22.6905 77.3533 
139.918 172.059 180 137.514 136.232 140.96 164.099 97.6916 82.9266 84.6175 67.2355 142.541 -3.56503 94.955 109.907 -54.7323 52.5027 147.698 4.88224 51.0239 130.587 33.2789 46.4588 116.792 34.8232 81.8999 107.577 37.5293 13.0056 23.6491 76.2398 
139.481 172.036 180 137.611 136.202 140.698 164.196 97.6013 83.2123 84.6661 66.6934 142.694 -3.55681 95.0029 110.464 -55.0549 52.5233 147.622 3.50495 50.7277 130.808 33.1336 46.3316 116.934 34.6385 81.796 107.758 37.3198 13.091 24.6486 75.0416 
138.886 172 180 137.732 136.267 140.324 164.307 97.4576 83.4274 84.7157 66.1532 142.829 -3.4655 94.9521 110.952 -55.3635 52.8065 147.233 1.28165 50.4866 131.021 33.004 46.2258 117.087 34.4913 81.7074 107.968 37.1319 13.1484 26.4371 73.0286 
138.197 172.025 180 137.73 136.268 139.872 164.452 97.1542 83.6833 84.7787 65.6138 142.985 -3.27968 94.9242 111.525 -55.636 53.2421 146.693 -1.01923 50.2436 131.256 32.8653 46.1069 117.249 34.3199 81.6048 108.152 36.9361 13.1901 28.4112 70.8396 
137.519 172.092 180 137.608 136.154 139.329 164.642 97.3907 83.8599 84.7199 65.1111 143.267 -3.02305 95.0325 112.255 -55.9325 53.7602 146.193 -3.97385 50.0994 131.58 32.745 46.0691 117.501 34.1563 81.5636 108.436 36.7541 13.2302 31.0347 68.0474 
136.542 172.155 180 137.404 135.992 138.609 164.809 98.7874 84.0278 84.6343 64.7096 143.505 -2.66759 95.2926 112.936 -56.1868 54.2992 145.629 -7.88336 50.0114 131.878 32.6198 46.0787 117.712 33.9726 81.5509 108.719 36.6103 13.2659 34.4537 64.4828 
135.405 172.3 180 137.105 135.727 137.759 165.075 100.867 84.2102 84.5879 64.3255 143.693 -2.28054 95.5875 113.462 -56.4614 54.962 145.004 -12.0453 49.9956 132.229 32.5616 46.098 117.995 33.8337 81.5345 108.98 36.4726 13.2797 38.1528 60.7972 
134.159 172.476 180 136.808 135.452 136.926 165.378 103.543 84.3489 84.5631 64.0178 143.793 -1.89816 95.8543 113.862 -56.7185 55.7542 144.344 -16.1855 50.0581 132.579 32.56 46.1221 118.315 33.7253 81.51 109.207 36.3461 13.2735 41.8577 57.1829 
132.976 172.709 180 136.389 135.055 136.114 165.713 106.471 84.5005 84.4927 63.7019 143.856 -1.53914 96.1427 114.252 -56.9632 56.7696 143.683 -20.1711 50.1316 132.993 32.6088 46.1444 118.692 33.6719 81.4868 109.466 36.239 13.256 45.4598 53.7246 
132.152 173.026 180 135.873 134.538 135.482 166.095 110.779 84.7353 84.4144 63.4068 143.886 -1.32656 96.5515 114.676 -57.2251 57.8185 143.095 -24.6458 50.2001 133.49 32.655 46.1657 119.128 33.6212 81.4837 109.749 36.1064 13.2186 49.2801 50.101 
131.403 173.332 180 135.38 134.011 134.784 166.424 117.032 84.9004 84.2665 63.2008 143.976 -1.07113 96.9676 115.082 -57.4519 59.4029 142.017 -30.1345 50.332 133.973 32.7227 46.2212 119.567 33.5806 81.4977 110.01 35.9918 13.183 53.9536 45.6265 
130.863 173.642 180 134.975 133.463 134.234 166.711 124.281 85.0409 84.14 63.1032 144.147 -0.838775 97.4147 115.43 -57.6485 61.6726 140.265 -35.6771 50.501 134.441 32.8044 46.3015 120.009 33.5146 81.5173 110.245 35.9083 13.1695 58.9462 40.8842 
130.813 173.955 180 134.485 132.819 134.034 167.014 132.973 85.1298 83.9946 63.0035 144.357 -0.745841 97.8724 115.814 -57.8609 64.3641 138.134 -41.0735 50.6435 134.831 32.9397 46.3321 120.394 33.4667 81.4758 110.417 35.8283 13.1581 64.0142 36.1575 
131.328 174.224 180 133.966 132.151 134.166 167.262 142.748 85.1715 83.8534 62.8953 144.596 -0.825142 98.2201 116.148 -58.0734 67.3428 135.361 -46.0244 50.712 135.082 33.0791 46.3076 120.659 33.432 81.3848 110.513 35.7564 13.1607 69.0515 31.472 
132.036 174.417 180 133.545 131.587 134.397 167.41 152.286 85.1481 83.6966 62.7841 144.82 -1.02138 98.3807 116.435 -58.2886 70.2823 132.469 -50.0224 50.7588 135.204 33.2204 46.2763 120.808 33.4262 81.2787 110.55 35.6605 13.1739 73.5271 27.3179 
132.949 174.528 180 133.216 131.139 134.772 167.53 160.145 85.1375 83.5449 62.7085 145.152 -1.24025 98.5276 116.677 -58.48 72.7365 129.815 -52.8265 50.7339 135.331 33.3499 46.2065 120.955 33.432 81.1527 110.608 35.5979 13.1964 77.1548 24.0241 
133.846 174.606 180 132.997 130.812 135.197 167.656 166.426 85.1197 83.458 62.6382 145.455 -1.49344 98.5988 116.826 -58.6585 74.7179 127.575 -54.7621 50.69 135.444 33.4636 46.1052 121.106 33.4474 81.0317 110.662 35.5264 13.1997 80.0228 21.4937 
134.881 174.643 180 132.747 130.507 135.749 167.724 171.214 85.0854 83.3972 62.5759 145.725 -1.80776 98.589 116.948 -58.8122 76.2283 125.896 -56.151 50.6036 135.484 33.5578 45.9681 121.198 33.457 80.8716 110.667 35.4576 13.2084 82.1828 19.6274 
135.731 174.654 180 132.487 130.244 136.219 167.765 174.704 84.9996 83.3382 62.5561 145.878 -2.09724 98.4791 117.003 -58.9557 77.3008 124.55 -57.0737 50.5391 135.408 33.631 45.8691 121.184 33.4768 80.7379 110.621 35.3936 13.2273 83.7763 18.2491 
136.906 174.687 179.999 132.039 129.814 136.819 167.88 179.959 84.8428 83.2375 62.2756 145.934 -2.40516 98.1209 116.894 -59.0981 78.8313 122.109 -58.3539 50.3629 135.173 33.8639 45.5993 121.063 33.6403 80.423 110.427 35.3586 13.2243 86.3941 16.0428 
137.72 174.644 180 131.88 129.711 137.301 167.858 179.958 84.7058 83.2407 62.3523 145.941 -2.7121 97.9099 116.728 -59.1301 78.6207 122.198 -58.4102 50.3394 135.041 33.8576 45.5198 121.002 33.6659 80.3361 110.334 35.3229 13.2061 86.2925 16.2082 
138.465 174.603 180 131.81 129.717 137.71 167.86 179.958 84.5709 83.1698 62.3567 145.904 -2.93124 97.7204 116.535 -59.1455 78.3254 122.266 -58.455 50.2572 134.902 33.8974 45.4246 120.905 33.7635 80.2461 110.258 35.3368 13.1971 86.1882 16.4022 
139.127 174.557 179.998 131.763 129.738 138.07 167.84 179.962 84.4625 83.1054 62.3643 145.85 -3.10434 97.5782 116.365 -59.1449 78.033 122.304 -58.4577 50.1771 134.764 33.9192 45.3488 120.788 33.8315 80.1658 110.176 35.3583 13.1975 86.0708 16.581 
139.75 174.508 179.998 131.632 129.711 138.488 167.79 179.962 84.3707 83.0833 62.3728 145.657 -3.32756 97.4906 116.149 -59.1254 77.8294 122.26 -58.4076 50.1032 134.484 33.9046 45.262 120.522 33.8433 80.0589 109.955 35.3459 13.1872 85.9427 16.7466 
140.254 174.429 180 131.528 129.739 138.791 167.71 179.961 84.3084 83.0412 62.3369 145.333 -3.51983 97.365 115.865 -59.0963 77.5143 122.03 -58.2963 49.9918 134.123 33.8584 45.1854 120.142 33.8537 79.962 109.673 35.344 13.1898 85.7594 16.8705 
140.534 174.323 180 131.454 129.818 138.953 167.602 179.961 84.2527 82.9961 62.2271 144.859 -3.68218 97.1197 115.505 -59.0582 77.1294 121.592 -58.135 49.8543 133.65 33.8204 45.0802 119.63 33.8803 79.8334 109.292 35.3272 13.1771 85.6224 16.9095 
140.866 174.235 180 131.414 129.879 139.161 167.54 179.961 84.2283 82.9978 62.1932 144.412 -3.83458 96.9256 115.14 -59.014 76.841 121.167 -57.9734 49.7247 133.213 33.7932 44.9687 119.16 33.9184 79.7288 108.901 35.3275 13.1473 85.5133 16.9422 
141.256 174.142 180 131.513 130.051 139.306 167.525 179.961 84.2651 83.0232 62.1468 143.995 -3.89718 96.7177 114.692 -58.8749 76.457 120.747 -57.6913 49.56 132.889 33.8303 44.8197 118.789 34.0401 79.638 108.552 35.4233 13.096 85.3359 17.0499 
141.474 174.074 180 131.649 130.224 139.365 167.579 179.961 84.3286 83.1376 62.1134 143.475 -3.94292 96.4588 114.109 -58.6736 75.9707 120.328 -57.2664 49.3927 132.558 33.8422 44.6257 118.422 34.1613 79.5479 108.165 35.5242 13 84.9914 17.2802 
141.396 173.978 180 131.828 130.472 139.302 167.644 179.961 84.4096 83.2858 61.9961 142.8 -3.91218 96.0814 113.454 -58.4381 75.3998 119.854 -56.7642 49.1905 132.103 33.8767 44.4158 117.923 34.3145 79.4538 107.697 35.6306 12.8999 84.578 17.5469 
141.313 173.869 180 131.982 130.642 139.242 167.745 179.961 84.5068 83.4596 61.9524 142.191 -3.8208 95.8372 112.899 -58.1971 75.0053 119.447 -56.2287 49.0111 131.715 33.91 44.2009 117.501 34.4499 79.3675 107.252 35.7463 12.7802 84.2145 17.7751 
141.214 173.734 180 132.242 130.868 139.192 167.868 179.96 84.5933 83.6553 62.0028 141.625 -3.69486 95.7162 112.344 -57.8936 74.7481 119.091 -55.6469 48.8813 131.387 33.9446 44.0174 117.149 34.6061 79.3465 106.849 35.9233 12.6391 83.794 18.0303 
141.05 173.51 180 132.598 131.194 139.116 167.944 179.96 84.6502 83.8941 62.1247 141.022 -3.5502 95.5733 111.811 -57.5427 74.5862 118.749 -55.0022 48.7762 131.046 33.969 43.8382 116.81 34.757 79.3409 106.44 36.1223 12.4935 83.3331 18.2594 
140.813 173.176 180 132.98 131.577 138.986 167.889 177.105 84.7142 84.1313 62.3527 140.429 -3.37849 95.4448 111.327 -57.1304 73.9233 119.452 -53.924 48.6598 130.671 33.9516 43.6724 116.439 34.8501 79.3116 106 36.3311 12.3861 81.8992 19.3515 
140.596 172.762 180 133.311 132.012 138.833 167.811 172.605 84.6976 84.3358 62.6113 139.95 -3.18151 95.2627 110.932 -56.7182 72.8369 120.717 -52.5597 48.5992 130.361 34.0009 43.5468 116.171 35.0222 79.3153 105.675 36.5727 12.2795 80.002 20.9049 
140.41 172.068 180 133.7 132.493 138.699 167.738 165.454 84.6175 84.6496 62.8243 139.349 -2.64322 94.9251 110.522 -55.9672 71.0533 122.779 -50.0621 48.3736 129.898 34.3438 43.2131 115.808 35.5406 79.1953 105.211 37.1043 12.1176 77.1475 23.3637 
140.311 171.75 180 133.762 132.771 138.72 167.683 159.948 84.6295 84.8634 62.8343 139.203 -2.36491 94.6667 110.454 -55.5738 69.6562 124.738 -48.2913 48.1948 129.835 34.5606 43.0082 115.809 35.8522 79.1153 105.17 37.399 12.0492 74.9437 25.3892 
140.42 171.632 180 133.642 132.951 138.837 167.618 157.803 84.636 84.9741 62.8604 139.127 -2.06717 94.5287 110.504 -55.1642 68.9268 125.886 -47.4194 48.1068 129.799 34.8839 42.9375 115.81 36.2549 79.1271 105.188 37.7685 12.0141 73.8 26.4129 
140.564 171.6 180 133.509 133.158 138.939 167.439 156.736 84.6857 85.0417 62.8828 139.025 -1.85075 94.3908 110.488 -54.7543 68.4553 126.477 -46.8468 48.0477 129.779 35.1525 42.9176 115.787 36.6165 79.1416 105.21 38.1284 11.9892 73.0691 26.9602 
140.701 171.637 180 133.496 133.441 139.087 167.263 156.514 84.6909 85.0222 62.963 139.019 -1.64125 94.3482 110.549 -54.4157 68.2664 126.85 -46.5269 48.0715 129.806 35.4344 42.9774 115.801 36.9536 79.2199 105.281 38.4488 11.9799 72.7366 27.2063 
140.829 171.707 180 133.53 133.825 139.276 167.048 156.856 84.7015 84.9972 63.1261 138.987 -1.48711 94.2518 110.443 -54.0701 68.2904 126.94 -46.3474 48.152 129.812 35.7368 43.065 115.794 37.316 79.2965 105.281 38.7549 11.9595 72.6652 27.2576 
140.998 171.788 180 133.486 134.175 139.471 166.874 157.774 84.6611 84.9678 63.3398 139.039 -1.30317 94.14 110.331 -53.7215 68.6084 126.859 -46.3093 48.3039 129.873 36.0883 43.1592 115.876 37.7081 79.3578 105.298 39.0643 11.9185 72.9331 27.0666 
141.089 171.817 180 133.595 134.592 139.706 166.729 158.128 84.6283 84.9879 63.572 139.036 -1.14341 93.9857 110.142 -53.3209 68.8392 126.869 -45.9853 48.4457 129.939 36.4407 43.2298 115.976 38.0957 79.4181 105.313 39.3791 11.8716 72.9914 27.085 
141.058 171.782 180 133.789 135.074 139.852 166.565 157.772 84.6012 85.0162 63.8088 138.992 -0.912446 93.8279 109.904 -52.8633 68.7902 126.951 -45.383 48.5559 130.024 36.7855 43.2832 116.082 38.4944 79.4838 105.386 39.7502 11.8174 72.7649 27.3339 
140.92 171.786 180 133.955 135.498 139.934 166.435 157.366 84.5656 85.0274 64.0841 138.942 -0.668831 93.7513 109.74 -52.4216 68.7764 127.078 -44.7485 48.6643 130.097 37.1249 43.3386 116.174 38.8628 79.5513 105.468 40.1003 11.7746 72.5361 27.593 
140.735 171.802 180 134.046 135.858 139.949 166.4 157.216 84.5491 85.0688 64.2488 138.915 -0.342275 93.7469 109.71 -52.0019 68.6495 127.2 -44.1916 48.7327 130.197 37.5083 43.3734 116.298 39.2567 79.6163 105.597 40.4607 11.7439 72.3998 27.787 
