155.691 177.758 170.981 138.196 142.49 143.424 170.605 166.274 92.2181 88.4791 -24.9962 191.152 46.6554 -58.7665 212.817 -42.4005 -12.1547 223.166 -36.0614 -32.8806 196.038 68.0185 -29.8423 210.399 69.0656 -62.1596 232.911 57.2312 14.8734 95.0815 21.5915 
155.857 178.198 171.218 138.314 142.422 143.776 170.925 166.131 92.3056 88.2253 -23.7294 191.184 46.4811 -57.2844 212.48 -42.0376 -10.9937 222.277 -35.5349 -31.6486 196.049 68.2983 -28.7149 210.618 69.326 -61.1314 232.661 57.3838 14.7989 94.489 21.5506 
156.008 178.776 171.292 138.677 142.598 144.028 171.377 165.751 92.3933 87.9839 -22.3894 191.566 46.1996 -55.8179 212.322 -41.7541 -10.0178 221.559 -35.0913 -30.3691 196.337 68.6136 -27.5475 211.122 69.5572 -60.1268 232.544 57.4602 14.7016 94.0165 21.4591 
156.406 179.82 171.33 138.851 142.767 144.412 172.043 165.392 92.6207 87.7859 -21.3451 192.061 45.8525 -54.6937 212.493 -41.6027 -8.89606 220.835 -34.5944 -29.1031 196.727 68.8749 -26.4586 211.763 69.7882 -59.1944 232.714 57.5706 14.6206 93.2484 21.7242 
156.553 179.744 171.664 139.034 142.899 144.714 172.472 165.36 92.8623 87.7207 -20.2511 192.35 45.2218 -53.5681 212.45 -41.5937 -7.87225 219.501 -34.3188 -28.1235 196.659 68.9105 -25.4375 211.786 69.6983 -58.1635 232.643 57.4334 14.5938 92.4565 21.8777 
156.461 179.611 171.908 139.238 143.022 144.847 172.597 165.228 92.9763 87.6557 -19.0528 192.346 45.0325 -52.2731 212.139 -41.471 -6.65061 218.525 -33.9028 -27.1638 196.252 68.9391 -24.3938 211.425 69.6459 -57.0467 232.325 57.3769 14.5888 92.0154 21.9718 
156.329 179.668 172.363 139.827 143.541 144.86 172.086 165.277 92.7882 87.4675 -18.0517 192.56 44.9403 -51.1553 211.781 -41.4627 -5.34513 218.133 -33.6495 -26.6532 196.035 69.015 -23.6097 211.169 69.6527 -56.0085 232.225 57.3155 14.5535 92.0814 22.0249 
156.058 178.708 172.702 140.179 143.92 144.669 171.475 165.178 92.4494 87.1434 -17.1613 192.813 45.1059 -50.3282 211.73 -41.4975 -4.06061 217.847 -33.2656 -26.2626 195.784 68.8075 -22.9644 210.857 69.5272 -55.0154 232.274 57.2994 14.5709 91.8563 22.2668 
155.822 177.735 173.145 140.492 144.209 144.606 170.864 165.129 92.2061 86.9756 -16.0596 192.846 45.2374 -49.3609 211.15 -41.3464 -2.61486 216.963 -32.6949 -25.7188 195.351 68.6577 -22.2082 210.319 69.3856 -53.9641 232.075 57.2762 14.6443 91.3344 22.5693 
155.66 176.617 173.324 140.78 144.471 144.492 170.405 164.968 92.1227 86.8679 -15.168 192.569 45.5692 -48.1466 210.54 -41.2028 -1.15684 215.632 -32.0641 -25.3711 194.719 68.7202 -21.5738 209.629 69.3764 -52.877 231.867 57.2693 14.7127 90.9744 22.7346 
155.421 175.498 173.169 141.001 144.737 144.251 169.866 164.861 91.8995 86.7249 -14.3901 192.276 46.1878 -46.9074 209.805 -40.9201 0.133947 214.795 -31.4763 -25.0019 194.211 68.7743 -20.9709 209.08 69.4714 -51.8609 231.742 57.3537 14.7334 90.8771 22.6811 
155.208 174.581 173.256 141.344 144.996 144.032 169.284 164.753 91.489 86.4173 -13.3544 192.11 46.5337 -45.5605 209.085 -40.6367 1.50067 214.081 -30.9263 -24.51 193.942 68.8146 -20.2371 208.738 69.5025 -50.7592 231.564 57.3358 14.7675 90.8524 22.6601 
155.163 173.94 173.161 141.892 145.408 143.98 168.965 164.503 91.318 86.24 -12.3459 192.301 46.6298 -44.2684 208.942 -40.4522 2.55131 213.634 -30.5311 -23.9239 194.016 69.0673 -19.4839 208.764 69.65 -49.7681 231.604 57.3238 14.7996 90.8878 22.5484 
155.134 173.38 173.031 142.218 145.574 144.01 168.81 164.393 91.2877 86.284 -11.2659 192.316 46.88 -42.7808 208.528 -40.2764 3.63567 212.994 -30.2271 -23.2341 194.041 69.3856 -18.6726 208.73 69.7939 -48.8055 231.56 57.2961 14.8466 90.9372 22.3209 
154.904 173.025 172.71 142.562 145.738 143.798 168.699 164.775 90.8979 86.09 -10.0014 192.377 47.4397 -41.2691 207.823 -40.1314 4.60585 213.391 -30.3845 -22.3575 194.414 69.7721 -17.7113 209.025 70.085 -47.8534 231.525 57.3077 14.8176 91.7467 21.7706 
154.733 172.692 172.694 142.811 145.856 143.631 168.451 164.933 90.433 85.8767 -8.64801 192.72 47.7908 -40.0023 207.47 -40.0515 5.60479 214.157 -30.4713 -21.3311 194.894 69.9267 -16.6999 209.407 70.2129 -46.9786 231.5 57.331 14.8261 92.2951 21.5061 
154.615 172.366 172.957 143.54 146.364 143.524 168.281 165.321 90.0114 85.6343 -6.44016 193.577 47.9199 -37.6361 207.589 -40.0494 7.50858 215.166 -30.712 -19.7928 195.912 70.3407 -14.9974 210.301 70.3915 -45.1856 231.953 57.1976 14.8604 93.3242 21.0885 
154.534 172.503 173.375 143.643 146.281 143.391 168.409 165.799 89.7389 85.5421 -5.3113 193.775 47.8665 -36.4021 207.171 -40.1146 8.31734 215.472 -31.0751 -18.9654 196.356 70.5364 -14.1706 210.634 70.4389 -44.4533 231.821 56.994 14.8982 93.9186 20.7627 
154.435 172.502 173.715 143.912 146.318 143.269 168.267 166.042 89.408 85.4079 -4.23278 193.934 47.8908 -35.0443 207.166 -40.1558 9.35327 215.912 -31.1972 -18.215 196.756 70.6815 -13.3409 210.916 70.5417 -43.5683 231.851 56.9013 14.9138 94.4057 20.5211 
154.374 172.482 173.961 143.976 146.257 143.234 168.186 166.106 89.2327 85.2932 -3.1638 194.196 47.8103 -33.8287 207.517 -40.1876 10.2866 216.327 -31.2326 -17.4253 197.04 70.699 -12.569 211.14 70.5215 -42.7562 231.865 56.8132 14.9869 94.6065 20.3682 
154.39 172.592 174.134 143.93 146.157 143.341 168.239 166.194 89.3011 85.3329 -2.18385 194.377 47.5637 -32.8042 207.975 -40.3789 11.2362 216.458 -31.3345 -16.7042 197.192 70.7262 -11.8689 211.22 70.4602 -41.9828 231.881 56.6366 15.0856 94.6786 20.3783 
154.143 172.609 174.244 144.025 146.022 143.258 168.274 166.403 89.1427 85.2781 -0.975813 194.629 47.4476 -31.573 207.761 -40.3912 12.0232 216.967 -31.6327 -15.7878 197.543 70.8376 -10.9719 211.496 70.4542 -41.2262 231.697 56.453 15.1061 95.1831 20.0699 
153.979 172.602 174.412 144.185 145.892 143.027 168.248 166.791 88.7656 85.0264 0.210045 194.731 47.7125 -29.9298 206.961 -40.2441 13.0697 217.15 -31.7707 -14.9319 197.941 71.1496 -10.0963 211.839 70.6655 -40.4369 231.441 56.3067 15.0823 95.8451 19.6342 
153.829 172.671 174.635 144.229 145.818 142.779 168.202 167.205 88.4164 84.7981 1.32133 194.578 47.9484 -28.5471 206.437 -40.3498 14.1185 217.424 -32.1217 -14.1198 198.037 71.1841 -9.29257 211.861 70.6753 -39.6082 231.115 56.0821 15.1121 96.499 19.3504 
153.84 172.898 174.797 144.381 145.902 142.587 168.288 167.397 88.1799 84.5681 2.34983 194.728 48.0244 -27.476 206.473 -40.557 14.8904 217.791 -32.4708 -13.3517 198.219 71.2181 -8.55951 212.025 70.7022 -38.905 230.905 55.8935 15.0955 97.0117 19.163 
153.85 172.972 175.155 144.698 146.103 142.458 168.365 167.614 87.9514 84.3431 3.34755 195.138 48.1506 -26.2558 206.321 -40.6608 15.659 218.081 -32.6718 -12.6852 198.707 71.4719 -7.90481 212.492 70.8596 -38.2429 230.905 55.7064 15.0918 97.6077 18.9005 
153.834 172.906 175.435 144.764 146.129 142.284 168.435 167.977 87.7586 84.2292 4.22719 195.108 48.2405 -25.0948 205.552 -40.7402 16.4194 218.025 -32.9857 -12.0468 198.773 71.5656 -7.25525 212.505 70.8699 -37.5846 230.619 55.4773 15.0983 98.1683 18.5971 
153.925 172.853 175.602 144.776 146.079 142.121 168.402 168.311 87.4425 84.002 5.05177 195.127 48.6298 -23.8443 204.417 -40.5103 17.0974 217.701 -33.0486 -11.3501 199.005 71.7903 -6.56585 212.746 71.0713 -36.9888 230.411 55.388 15.0035 98.5746 18.2107 
153.883 172.761 175.827 144.873 146.108 141.823 168.298 168.486 87.0335 83.693 5.94652 195.032 48.867 -22.7383 203.647 -40.5036 17.7802 217.312 -33.2123 -10.7332 199.075 71.7533 -5.93204 212.793 71.0455 -36.3467 230.1 55.1644 14.9562 98.8772 17.9379 
153.8 172.926 176.019 145.291 146.257 141.486 168.387 168.451 86.6067 83.3194 6.96281 195.223 49.1629 -21.7652 203.192 -40.6241 18.5222 217.158 -33.2709 -10.0583 199.518 71.9357 -5.29196 213.219 71.1387 -35.7483 229.887 54.9507 14.9561 99.2783 17.9365 
153.611 173.196 176.119 145.825 146.518 141.134 168.521 168.276 86.145 82.8883 7.87264 195.751 49.3985 -21.1014 203.135 -40.7886 19.0927 217.465 -33.406 -9.329 200.297 72.1057 -4.65363 214.017 71.2279 -35.2376 229.871 54.7474 14.9198 99.7749 18.0803 
153.537 173.244 176.165 146.227 146.728 141.061 168.596 167.998 85.8568 82.5892 8.61462 196.059 49.4795 -20.4057 202.471 -40.8539 19.723 217.269 -33.4176 -8.58736 200.84 72.2716 -4.03404 214.587 71.2783 -34.7547 229.745 54.5387 14.897 100.032 18.2345 
153.467 173.349 176.284 146.519 146.804 141.021 168.705 168.008 85.6215 82.3641 9.28081 196.437 49.487 -19.6753 201.505 -40.7129 20.3708 217.467 -33.5189 -7.64749 201.493 72.4969 -3.33392 215.325 71.3698 -34.3808 229.497 54.3859 14.8229 100.435 18.4134 
153.512 173.406 176.09 146.716 146.983 140.986 168.663 168.029 85.476 82.2408 9.74486 196.814 49.5217 -19.2858 200.518 -40.5178 20.9291 217.832 -33.7857 -6.74361 202.014 72.5558 -2.65893 215.975 71.3698 -34.0446 229.372 54.2851 14.6919 100.766 18.7037 
153.499 173.361 176.028 146.871 147.162 140.858 168.574 167.919 85.2491 82.05 10.0653 197.266 49.4801 -19.1514 199.613 -40.3269 21.2049 217.919 -34.0716 -5.95629 202.464 72.4521 -2.08173 216.514 71.217 -33.793 229.253 54.1934 14.6114 100.836 18.9455 
153.492 173.311 176.062 146.942 147.326 140.734 168.489 167.87 85.0225 81.8924 10.308 197.395 49.3129 -19.0245 198.71 -40.1959 21.6179 217.873 -34.3343 -5.16955 202.716 72.2772 -1.49741 216.825 70.9898 -33.4665 229.014 54.0653 14.5812 100.887 19.2977 
153.556 173.047 176.473 147.492 147.583 140.681 168.171 167.895 85.0722 82.2432 10.322 197.091 48.9329 -19.0594 197.851 -40.2145 21.869 217.911 -34.7954 -4.40443 202.596 71.8997 -0.658776 216.601 70.6481 -32.9469 228.83 53.6019 14.4286 101.256 19.6215 
153.582 172.851 176.476 147.492 147.756 140.601 168.019 167.633 85.0294 82.2145 10.4768 197.136 48.7335 -18.831 197.668 -40.2662 22.2947 217.823 -34.7984 -3.73961 202.647 71.6324 -0.126579 216.747 70.3547 -32.5537 228.807 53.4899 14.4162 101.058 19.8757 
153.536 172.789 176.44 147.332 147.806 140.456 167.907 167.349 85.0578 82.2051 10.6122 197.047 48.4974 -18.6597 197.329 -40.3062 22.5943 217.345 -34.9387 -3.01927 202.638 71.2996 0.417442 216.854 69.9713 -32.181 228.713 53.3297 14.4063 100.691 20.0221 
153.542 172.719 176.425 147.126 147.817 140.423 167.723 167.272 85.1752 82.2386 10.8396 197.001 48.1711 -18.2708 197.341 -40.3639 22.9865 217.313 -35.1641 -2.16389 202.728 71.0177 1.03748 217.088 69.6635 -31.7837 228.664 53.2057 14.3711 100.408 20.0849 
153.646 172.684 176.635 146.871 147.787 140.364 167.551 167.405 85.2362 82.2515 11.0456 196.875 47.9406 -18.0007 197.101 -40.4415 23.5038 217.146 -35.4264 -1.32776 202.899 70.7361 1.64428 217.369 69.3158 -31.3669 228.669 53.0182 14.3724 100.188 20.323 
153.919 172.586 177.317 147.37 148.078 140.362 167.402 167.427 85.3327 82.5009 11.287 196.638 47.5809 -17.6715 197.177 -40.8233 23.9423 216.783 -35.6435 -0.646988 203.013 70.4331 2.3527 217.407 68.9996 -30.8327 228.669 52.4999 14.2916 100.17 20.4725 
153.99 172.606 177.403 147.286 148.028 140.221 167.106 167.427 85.1254 82.2146 11.5592 196.794 47.4608 -17.5009 197.684 -40.9025 24.2941 217.512 -35.8391 0.0621648 203.619 70.2535 2.86166 218.064 68.725 -30.5057 228.925 52.4226 14.3875 100.274 20.6977 
154.091 172.501 177.755 147.006 147.948 140.223 167.094 168.251 85.1369 82.1241 11.8235 196.868 47.1899 -17.2894 198.293 -41.2104 24.6742 217.629 -35.964 0.646846 203.796 70.0172 3.23606 218.296 68.4619 -30.2194 229.015 52.3358 14.49 99.9507 20.8435 
154.219 172.529 178.551 146.719 147.824 140.361 167.345 169.417 85.2165 82.0722 12.032 196.791 46.7025 -17.1132 198.814 -41.651 24.9667 217.679 -36.3478 1.20959 203.875 69.7735 3.6485 218.433 68.1985 -29.89 229.063 52.1844 14.5464 99.7681 20.9028 
154.561 172.566 179.269 146.558 147.741 140.421 167.754 169.993 85.8219 82.5494 12.3735 196.686 46.2125 -17.1068 199.315 -42.1632 25.3521 217.653 -36.9495 1.77119 203.858 69.5107 4.07173 218.52 67.9686 -29.5887 229.235 51.9017 14.4212 99.4194 21.0566 
154.595 172.599 179.659 146.115 147.507 140.543 167.964 170.26 86.0935 82.6643 12.6963 196.383 45.912 -17.15 199.449 -42.5739 25.4849 217.561 -37.6335 2.21345 203.416 69.0847 4.44186 218.152 67.5913 -29.2593 229.139 51.6922 14.4348 99.2878 21.0218 
154.567 172.624 179.585 145.931 147.436 140.555 168.083 170.321 86.1664 82.6474 12.9791 196.108 45.5913 -16.9552 199.478 -42.8821 25.6033 217.729 -38.3224 2.66311 203.166 68.6992 4.88193 217.944 67.2206 -28.9229 229.011 51.4487 14.4209 99.4278 20.8444 
154.494 172.639 179.223 145.937 147.474 140.449 168.262 169.935 86.1255 82.5952 13.339 195.935 45.1161 -16.5422 199.593 -43.3786 25.8836 217.603 -38.9593 2.99815 203.015 68.3114 5.26977 217.75 66.7992 -28.5286 228.85 51.0576 14.457 99.5514 20.6555 
154.444 172.645 178.2 146.151 147.552 140.245 168.356 169.228 85.9478 82.3991 13.7686 195.946 44.7665 -16.16 199.714 -43.7268 26.1484 217.872 -39.4577 3.41155 203.169 68.051 5.66913 217.854 66.4852 -28.2021 228.687 50.7496 14.4958 99.7917 20.581 
154.373 172.69 177.269 146.28 147.583 140.064 168.407 168.488 85.8948 82.3658 14.1885 195.829 44.5148 -15.7678 199.71 -44.083 26.6081 217.893 -39.8019 3.801 203.105 67.7693 6.03725 217.742 66.1743 -27.8444 228.49 50.4079 14.5432 99.8877 20.6491 
154.303 172.723 176.559 146.512 147.692 139.845 168.43 167.885 85.7095 82.2043 14.5278 195.889 44.3189 -15.4743 199.758 -44.3494 26.8389 218.136 -40.1534 4.14458 203.328 67.5486 6.35361 217.92 65.9086 -27.5795 228.415 50.1309 14.5789 100.1 20.652 
154.34 172.735 176.201 146.628 147.783 139.787 168.428 167.461 85.7466 82.1883 14.8392 195.92 43.9943 -15.0759 199.78 -44.6584 27.1386 218.225 -40.4262 4.55963 203.469 67.2759 6.68699 218.091 65.5945 -27.3175 228.396 49.8135 14.5708 100.087 20.6435 
154.496 172.792 176.331 146.62 147.777 139.835 168.511 167.546 85.9127 82.2641 15.0575 195.96 43.647 -14.8821 199.817 -45.0552 27.3281 218.192 -40.836 4.91149 203.617 67.0092 6.97306 218.294 65.2825 -27.0951 228.526 49.4857 14.5391 100.041 20.6421 
154.639 172.81 177.008 146.491 147.77 139.925 168.678 168.515 86.0316 82.2753 15.3053 196.089 43.2078 -14.6136 199.97 -45.5283 27.5768 218.328 -41.508 5.2355 203.772 66.7363 7.20793 218.495 65.0267 -26.8788 228.622 49.1399 14.4948 100.124 20.5372 
154.849 172.842 178.173 146.401 147.711 140.013 168.826 169.775 86.1513 82.265 15.565 196.27 42.7147 -14.4328 200.113 -46.0069 27.567 218.633 -42.4326 5.57803 204.055 66.4258 7.46053 218.837 64.6856 -26.7099 228.777 48.7976 14.4541 100.314 20.2715 
154.994 172.864 178.017 146.276 147.667 140.144 168.942 170.663 86.239 82.2262 15.8324 196.492 42.2091 -14.2156 200.304 -46.349 27.4975 218.661 -43.0565 5.90722 204.382 66.128 7.70516 219.218 64.3684 -26.553 228.936 48.506 14.4067 100.242 19.9997 
155.073 172.869 177.546 146.081 147.586 140.245 169.051 171.464 86.2815 82.1843 16.018 196.576 41.7249 -13.9869 200.414 -46.7136 27.6511 218.607 -43.5332 6.24101 204.527 65.7995 7.92136 219.404 64.0674 -26.4045 228.93 48.21 14.3845 100.061 19.9127 
155.09 172.932 177.576 146.656 147.936 140.255 168.876 172.01 86.2411 82.3661 16.33 196.768 41.2893 -13.4999 200.53 -47.082 27.7229 218.254 -43.7819 6.42397 204.849 65.5363 8.24831 219.641 63.8499 -26.1381 228.957 47.6416 14.216 100.097 19.7076 
154.966 172.903 176.418 146.495 147.923 140.16 168.914 172.85 86.1434 82.3288 16.585 196.991 40.9846 -13.0499 200.55 -47.3469 27.9195 217.959 -43.8522 6.59596 204.99 65.2724 8.34412 219.738 63.6147 -25.9934 228.869 47.3424 14.2429 99.8773 19.6135 
154.92 172.879 177.288 146.613 147.98 140.056 168.857 172.007 85.9134 82.1421 16.8705 197.334 40.6518 -12.9322 200.721 -47.6651 28.1255 217.838 -43.6818 6.75144 205.263 64.9178 8.45241 219.945 63.2509 -25.901 228.86 47.029 14.3073 99.5262 19.8709 
154.848 172.859 177.465 146.537 147.961 140.019 168.78 170.775 85.9213 82.1389 17.0594 197.418 40.1633 -12.8329 200.911 -48.0413 28.36 218.016 -43.6688 6.98057 205.182 64.3563 8.61631 219.886 62.7687 -25.792 228.793 46.6487 14.2838 99.1708 20.1183 
154.827 172.842 176.979 146.523 148.001 140.057 168.646 169.231 85.9631 82.1311 17.1099 197.484 39.6528 -12.8831 201.148 -48.3578 28.556 218.301 -43.5742 7.17326 205.122 63.8245 8.71316 219.87 62.3083 -25.7418 228.776 46.3027 14.2677 98.8272 20.462 
154.911 172.735 177.352 146.476 148.104 140.208 168.475 168.461 86.0737 82.1777 17.0323 197.649 39.0293 -12.8735 201.486 -48.6909 28.671 218.244 -43.268 7.31989 205.21 63.3275 8.78361 220.005 61.8326 -25.7226 228.951 45.9571 14.2611 98.2449 20.7575 
155.058 172.701 177.567 146.394 148.14 140.328 168.511 167.325 86.3434 82.3034 16.991 197.858 38.4871 -12.9502 201.776 -49.0661 28.7832 218.042 -42.8839 7.5862 205.306 62.8616 8.92494 220.183 61.3948 -25.7075 229.185 45.6297 14.2223 97.4621 21.1553 
155.25 172.705 177.34 146.138 148.095 140.502 168.586 166.594 86.6785 82.4279 16.9247 197.95 38.0237 -13.1553 201.919 -49.3626 28.841 218.269 -42.9254 7.9063 205.238 62.3838 9.10022 220.272 61.0219 -25.7031 229.366 45.386 14.1057 96.9699 21.4183 
155.37 172.721 177.343 145.831 148.024 140.632 168.691 166.52 86.9055 82.5073 16.8466 197.964 37.5048 -13.1555 201.924 -49.6342 28.805 217.775 -42.9369 8.19619 205.182 61.9269 9.26335 220.318 60.6472 -25.6827 229.449 45.1156 14.0323 96.2607 21.4799 
155.458 172.79 177.686 145.602 147.955 140.767 168.754 166.94 86.9515 82.4728 16.8112 198.036 36.9365 -12.9682 202.005 -49.8979 28.7451 217.312 -42.8439 8.424 205.348 61.5793 9.39437 220.519 60.3247 -25.6583 229.515 44.853 14.0122 95.6682 21.4801 
155.399 172.87 178.304 145.414 147.854 140.779 168.876 167.194 86.8971 82.4192 16.7834 197.956 36.4752 -12.7271 201.999 -50.11 28.777 216.738 -42.5104 8.58937 205.5 61.3123 9.49197 220.642 60.0482 -25.6183 229.444 44.5786 14.03 95.1384 21.6242 
155.458 172.819 178.148 145.424 147.976 140.666 169.026 168.084 86.9248 82.8485 16.919 198.135 35.907 -12.0595 202.124 -50.344 28.9101 216.416 -42.3227 8.70392 205.956 61.139 9.59008 220.954 59.9479 -25.5654 229.45 44.1798 13.8968 94.8905 21.5678 
155.443 172.849 179.431 145.509 147.983 140.449 169.037 169.17 86.8293 83.1296 17.1727 198.461 35.6136 -11.6231 202.046 -50.5207 29.1137 216.355 -41.8503 8.81442 206.535 60.9607 9.692 221.383 59.7538 -25.5618 229.499 43.8176 13.8381 94.6174 21.8219 
155.455 172.867 180 145.944 148.049 140.336 168.829 167.629 86.7776 83.2619 17.3973 198.862 35.4037 -11.6317 202.101 -50.6928 29.4111 216.589 -41.4665 8.86932 207.037 60.8257 9.74124 221.778 59.5268 -25.5833 229.637 43.5186 13.8688 94.3917 22.3443 
155.41 172.878 180 146.141 148.066 140.179 168.738 168.49 86.6303 83.3804 17.6516 199.118 35.1098 -11.422 202.03 -50.8618 29.5894 217.463 -41.6664 9.00214 207.424 60.5784 9.87624 222.043 59.2495 -25.5481 229.584 43.1869 13.8576 94.7866 22.409 
155.433 172.891 178.51 146.296 148.034 140.045 168.698 170.613 86.4588 83.3906 17.8307 199.379 34.8624 -11.2108 202.14 -51.0396 29.5391 218.862 -42.4927 9.17952 207.943 60.3656 10.0248 222.467 59.0013 -25.5332 229.634 42.9216 13.8567 95.6339 22.0765 
155.355 172.935 178.571 146.201 147.943 140.015 168.695 169.953 86.1996 82.9516 17.8574 199.202 34.673 -11.2974 201.957 -51.1192 29.5143 219.37 -42.9374 9.44721 208.004 60.0103 10.2258 222.59 58.5976 -25.4667 229.469 42.7436 13.8949 95.8673 22.0658 
155.63 172.93 174.967 146.018 147.862 140.042 168.572 170.209 86.4085 83.1653 17.8277 199.155 34.0805 -11.0304 201.863 -51.3801 29.8309 219.769 -43.2476 10.0523 208.385 59.433 10.6416 223.027 58.057 -25.3832 229.632 42.3153 13.7791 95.4816 22.1674 
155.682 172.942 176.22 145.902 147.907 140.024 168.519 169.168 86.6612 83.3367 17.735 198.865 34.034 -11.0504 201.436 -51.3453 30.0653 219.477 -43.3454 10.3354 208.247 59.2534 10.8176 223.007 57.9322 -25.3589 229.553 42.1953 13.6284 95.1722 22.319 
155.847 172.919 177.344 145.693 147.958 140.012 168.551 170.347 86.7435 83.4247 17.6796 198.946 33.8008 -10.7678 201.363 -51.4766 30.1621 218.946 -43.4439 10.4993 208.5 59.1093 10.9099 223.304 57.8258 -25.3331 229.697 42.0291 13.5323 94.7893 22.2076 
155.907 173.002 180 145.528 147.908 139.959 168.626 170.718 86.8705 83.449 17.6225 198.949 33.6656 -10.6299 201.314 -51.5837 30.3217 218.264 -43.3074 10.6263 208.61 58.9571 10.981 223.49 57.6584 -25.3131 229.836 41.8946 13.4882 94.1961 22.2909 
156.031 173.088 180 145.318 147.873 140.017 168.747 171.321 86.8894 83.4528 17.5693 199.101 33.5406 -10.3345 201.404 -51.643 30.6092 217.429 -42.7086 10.7102 208.947 58.9323 11.0173 223.862 57.6407 -25.289 230.08 41.8577 13.4436 93.3645 22.5451 
156.141 173.205 180 145.201 147.843 140.066 168.968 171.771 86.7861 83.3598 17.5512 199.281 33.3372 -9.969 201.49 -51.7861 30.9672 216.33 -41.8506 10.6983 209.359 58.9676 10.9838 224.257 57.6276 -25.2555 230.252 41.7632 13.4547 92.4583 22.9969 
156.18 173.324 180 145.153 147.781 140.01 169.122 170.699 86.7467 83.2727 17.6391 199.385 33.2264 -9.67144 201.385 -51.9315 31.6122 215.046 -40.7417 10.7506 209.527 58.954 11.0207 224.428 57.5621 -25.1822 230.271 41.6283 13.4642 91.2887 23.7959 
156.195 173.397 180 145.139 147.7 139.95 169.232 170.247 86.6027 83.157 17.6671 199.666 33.1225 -9.24901 201.422 -51.989 31.9845 214.006 -39.5663 10.7623 209.915 58.9828 11.0315 224.786 57.5246 -25.1599 230.397 41.5579 13.4936 90.2255 24.4165 
156.141 173.429 180 145.314 147.691 139.84 169.268 168.418 86.536 83.0463 17.6497 199.737 33.1397 -9.04972 201.262 -51.9248 31.9328 213.78 -39.5198 10.7026 210.181 59.0306 11.0565 225.099 57.4798 -25.1559 230.52 41.4668 13.4197 90.2439 24.3047 
156.143 173.357 180 145.639 147.686 139.764 169.167 167.981 86.5286 82.8987 17.6524 199.951 33.2317 -9.00844 201.268 -51.8349 31.569 215.195 -41.0023 10.7165 210.548 59.0934 11.1165 225.571 57.4706 -25.1819 230.764 41.4288 13.3023 91.5952 23.2968 
156.116 173.294 180 145.872 147.714 139.652 169.133 168.327 86.536 82.8098 17.6019 200.226 33.2143 -8.86152 201.364 -51.8387 31.2399 215.879 -42.0071 10.6819 210.844 59.0884 11.1163 225.946 57.4224 -25.2494 230.959 41.3546 13.203 92.3182 22.5549 
155.956 173.178 180 146.07 147.811 139.62 169.159 167.775 86.1726 82.1765 17.3754 200.402 33.075 -8.92008 201.565 -51.9287 30.8684 216.86 -43.0231 10.5322 211.062 58.9882 11.0747 226.263 57.2714 -25.2876 231.072 41.2703 13.1702 93.2835 21.9242 
155.742 173.09 180 146.827 148.048 139.449 168.95 167.003 85.7151 81.8406 17.2289 200.367 33.0986 -8.90672 201.413 -51.9093 30.3463 217.857 -44.0388 10.4318 211.379 58.9417 11.1581 226.567 57.2082 -25.2461 231.019 41.0351 13.08 94.6296 21.254 
155.551 172.994 178.616 147.063 148.011 139.26 168.842 167.238 85.3132 81.322 17.1201 200.611 33.2297 -9.11131 201.571 -51.8603 29.5745 219.806 -45.8759 10.3306 211.801 58.8617 11.1179 227.031 57.0584 -25.3655 231.133 41.0273 13.0938 96.3583 20.2544 
155.397 172.872 176.932 147.24 147.912 139.005 168.779 166.811 84.9049 80.7939 16.9268 200.778 33.3347 -9.41653 201.594 -51.8563 28.9382 221.181 -47.2691 10.1822 212.185 58.7547 11.0693 227.432 56.8378 -25.4998 231.266 40.9968 13.1466 97.6196 19.642 
