158.898 174.043 171.91 149.126 146.378 139.946 171.909 169.192 83.0605 74.8876 10.6246 262.232 42.6422 -12.7376 273.731 -41.3175 21.2359 295.865 -37.441 6.25043 279.755 71.5282 5.37297 296.41 68.7421 -32.1051 293.446 54.2785 13.7009 99.948 17.1647 
158.901 174.017 171.208 148.965 146.595 140.033 171.71 168.982 83.2434 75.3964 10.1628 262.388 42.4641 -13.2251 273.842 -41.3534 20.6569 295.507 -37.4744 5.92218 279.804 71.373 5.02251 296.35 68.7998 -32.489 293.682 54.2159 13.5412 99.6918 17.0741 
158.808 173.901 170.152 148.92 146.757 140.053 171.493 168.485 83.3078 75.4792 9.86646 262.611 42.3125 -13.5767 273.897 -41.4144 20.3302 294.923 -37.3709 5.66056 279.827 71.1813 4.69549 296.371 68.692 -32.7808 293.805 54.0977 13.4902 99.2628 17.1061 
158.785 173.816 168.746 148.927 146.871 140.127 171.359 168.257 83.428 75.6253 9.56187 262.817 42.0114 -13.7447 274.232 -41.5003 20.0815 294.741 -37.1446 5.4043 279.846 71.0674 4.41793 296.406 68.6477 -33.077 293.855 53.9948 13.4062 98.9253 17.1355 
158.724 173.771 168.454 148.943 147.05 140.014 171.224 168.405 83.5348 76.0698 9.4374 263.23 41.9443 -13.788 274.557 -41.5147 19.8397 294.882 -37.2578 5.14019 279.874 71.008 4.19494 296.324 68.7603 -33.3428 293.902 53.9293 13.2754 98.8946 16.9512 
158.809 173.895 167.937 148.974 146.672 140.21 171.185 167.204 83.4033 75.5798 9.24576 263.149 41.7681 -13.4342 274.162 -41.4652 19.7588 293.377 -35.9446 4.97791 280.134 71.0335 3.9998 296.671 68.4245 -33.5448 293.797 53.885 13.5089 97.8903 17.1914 
158.796 173.898 168.15 149.113 146.742 140.317 171.143 165.762 83.4625 75.5934 9.10179 262.99 41.6348 -13.2358 273.986 -41.5652 19.7704 293.037 -35.7696 4.68444 280.015 71.1129 3.74557 296.556 68.4582 -33.734 293.625 53.7318 13.4576 97.9182 17.1657 
158.799 174.064 165.119 149.081 146.676 140.522 171.17 165.269 83.3518 75.1678 8.86216 263.114 41.4254 -12.8948 273.928 -41.7299 19.9018 291.422 -34.5834 4.36713 280.266 71.1995 3.3849 296.875 68.3488 -33.9761 293.563 53.6291 13.5489 96.8702 17.5945 
158.867 174.129 168.338 148.995 146.795 140.706 171.214 165.411 83.4094 75.0986 8.76139 263.273 41.3003 -12.8102 273.716 -41.9383 20.3655 290.208 -33.5336 4.01896 280.388 71.3438 2.94055 296.985 68.4293 -34.2599 293.356 53.4796 13.5098 95.9633 18.4108 
158.932 174.156 170.059 149.077 146.92 140.775 171.321 164.764 83.3897 74.954 8.61911 263.209 41.2937 -12.9859 273.547 -42.1019 20.2591 290.233 -33.5299 3.64498 280.345 71.375 2.50704 296.96 68.4344 -34.5695 293.166 53.3498 13.4924 96.0825 18.5154 
159.009 174.132 170.523 149.044 146.843 140.863 171.344 164.228 83.4721 74.819 8.34323 263.226 41.2505 -13.5418 273.479 -42.3062 19.7627 290.262 -33.7632 3.38666 280.326 71.2345 2.16667 297.027 68.252 -34.9343 293.156 53.2441 13.4703 96.1079 18.5447 
159.072 174.046 172.196 148.969 146.785 140.818 171.369 166.068 83.5211 74.6823 7.96635 263.263 41.2375 -14.3664 273.434 -42.4464 19.0753 291.333 -34.7244 3.14306 280.191 70.9274 1.90811 297.02 67.9193 -35.3072 293.268 53.1545 13.4751 96.7321 18.2227 
159.116 173.952 172.366 148.984 146.723 140.781 171.448 168.307 83.4573 74.5761 7.57591 263.517 41.3089 -15.1785 273.45 -42.5804 18.1357 292.742 -35.9189 2.76131 280.332 70.7042 1.56805 297.228 67.6643 -35.7546 293.533 53.0905 13.4873 97.7087 17.7002 
158.986 173.839 174.313 148.891 146.663 140.624 171.6 169.37 83.3995 74.8738 6.92315 263.298 41.0573 -16.0882 273.563 -42.8085 17.2194 293.812 -37.3473 2.31601 280.097 70.3643 1.38419 296.915 67.5098 -36.1119 293.697 52.8924 13.3748 98.735 17.1832 
158.828 173.733 174.948 148.919 146.718 140.412 171.643 169.223 83.3149 75.079 6.44687 263.48 40.9194 -16.9204 273.795 -43.0007 16.4321 294.348 -38.0139 1.78503 279.924 70.068 1.04518 296.674 67.3235 -36.5339 293.811 52.7502 13.3755 99.1481 16.9974 
158.766 173.593 175.147 148.942 146.641 140.169 171.681 169.169 83.0903 74.7673 6.24311 263.722 40.9875 -17.5728 273.865 -43.0787 15.531 295.052 -38.737 1.40534 279.984 69.6927 0.662268 296.777 66.8363 -36.9591 293.844 52.6263 13.5778 99.5434 16.6683 
158.728 173.444 174.895 149.054 146.62 139.976 171.649 168.914 82.9208 74.4424 5.98345 264.035 40.9864 -18.2345 274.167 -43.0502 14.8472 295.733 -39.0295 0.992673 280.19 69.4923 0.185266 297.05 66.5745 -37.3898 293.902 52.5684 13.6799 99.7549 16.6334 
158.638 173.335 172.175 149.226 146.571 139.937 171.584 167.071 82.8155 73.9283 5.85209 264.382 40.8873 -18.5248 274.393 -43.078 14.5559 295.177 -38.2731 0.600598 280.584 69.4172 -0.396124 297.546 66.2697 -37.8029 293.891 52.482 13.8665 99.0676 16.9763 
158.612 173.284 170.524 149.364 146.402 139.912 171.363 166.115 82.7681 73.4158 5.72828 264.815 40.977 -18.8443 274.635 -43.0764 14.1557 295.331 -38.0882 0.125151 280.788 69.3842 -1.00261 297.933 66.0404 -38.2501 293.967 52.4536 13.9953 98.9448 17.0298 
158.48 173.466 167.569 149.512 146.678 140.07 171.214 164.942 82.7221 73.1998 5.64077 265.395 40.7463 -18.5698 274.859 -43.1944 14.2916 294.535 -36.2121 -0.294536 281.233 69.4562 -1.62263 298.343 66.0255 -38.661 293.887 52.3269 14.0602 97.7762 17.7698 
158.438 173.578 167.594 149.581 146.957 140.075 171.218 163.756 82.7972 73.2721 5.34963 265.568 40.6146 -18.6796 275.034 -43.322 14.2441 294.71 -35.9158 -0.775342 281.154 69.4571 -2.18775 298.235 66.1418 -39.0449 293.763 52.1678 13.9417 97.7211 17.9684 
158.508 173.782 165.125 149.648 147.161 140.408 171.149 160.602 82.8483 73.0554 4.96022 265.928 40.2826 -18.7598 275.645 -43.5565 14.6915 292.292 -33.4353 -1.35056 281.539 69.6551 -2.82092 298.662 66.2237 -39.4473 293.981 52.0465 13.9732 95.6249 19.4951 
158.566 173.982 162.162 149.486 146.963 140.72 171.088 156.925 83 72.8227 4.34566 266.081 39.9393 -18.8663 276.147 -43.7931 15.166 290.267 -30.58 -1.81325 281.965 69.6536 -3.31879 299.211 66.0627 -39.8686 294.452 51.8783 13.9841 93.2449 21.4013 
158.714 174.17 161.978 149.44 147.011 141.028 171.137 157.163 83.4104 73.3694 3.28611 266.027 39.4805 -19.5316 276.541 -44.0201 15.1604 290.077 -29.5084 -2.73375 282.631 69.7012 -4.26454 299.846 66.025 -40.7951 295.057 51.6224 13.817 92.3671 22.4946 
158.69 174.129 162.721 149.273 146.675 141.004 171.371 159.092 83.2254 73.2122 2.69289 265.816 39.2922 -20.1028 276.655 -44.1526 15.0229 290.828 -29.8185 -3.12475 282.821 69.4755 -4.50644 300.068 65.7644 -41.0777 295.419 51.5272 13.8775 92.6353 22.5325 
158.502 174.164 163.884 149.256 146.636 140.962 171.476 160.2 82.9185 72.9852 2.13 265.88 39.0097 -20.4931 276.955 -44.429 14.3033 290.52 -30.2278 -3.73965 282.9 69.3205 -4.95599 300.096 65.6573 -41.3902 295.614 51.377 13.9464 92.8895 22.2554 
158.359 174.211 163.606 149.111 146.375 140.938 171.618 161.079 82.7354 72.7727 1.5964 266.131 38.585 -21.1744 277.701 -44.7367 13.5165 290.2 -29.9665 -4.18334 283.164 68.9965 -5.33022 300.384 65.3258 -41.7738 295.894 51.2441 14.0579 92.3747 22.595 
158.365 174.371 163.994 148.937 145.898 141.152 171.67 161.734 82.927 73.3557 1.14875 266.204 38.2486 -21.4403 277.934 -44.8464 13.459 289.44 -28.4827 -4.45997 283.471 68.9535 -5.57178 300.586 65.2697 -42.2325 295.965 51.2354 14.0168 90.9975 23.7363 
158.529 174.558 155.733 148.399 144.7 141.656 171.549 162.463 82.7566 72.9744 0.786259 266.133 37.733 -21.3414 277.686 -44.8792 13.2779 287.534 -25.5577 -4.77269 284.009 68.8263 -5.88186 301.243 64.7171 -42.6613 295.834 51.1772 14.2733 88.6183 25.5781 
158.528 174.65 153.811 148.331 144.535 141.556 171.611 161.684 82.8941 73.2693 0.662525 266.221 37.792 -21.6406 277.377 -44.9676 13.6186 285.974 -23.7162 -4.97285 283.987 68.6136 -6.14569 301.183 64.4844 -43.0834 295.678 51.0735 14.2485 86.5528 27.2713 
158.738 174.783 154.992 147.99 143.98 141.758 171.5 165.183 82.8142 72.8812 0.453911 267.203 37.6662 -21.7339 277.842 -45.086 13.4639 285.81 -21.6768 -5.40083 284.874 68.519 -6.71777 302.174 64.0838 -43.6662 296.155 51.0796 14.5234 84.8429 28.6274 
158.97 174.912 162.402 147.638 144.453 142.151 171.368 162.782 82.9366 73.4097 0.0618382 268.023 37.2743 -21.6227 278.429 -45.3142 14.3903 283.637 -17.4935 -5.94756 285.456 68.5666 -7.28863 302.59 64.355 -44.1476 296.666 50.9469 14.3063 81.0788 32.1318 
159.022 174.966 180 147.663 145.454 142.255 171.397 152.655 83.2307 74.4884 -0.432893 268.328 37.0239 -21.908 278.886 -45.6258 15.5416 281.394 -13.0792 -6.53504 285.277 68.7167 -7.77979 302.047 64.9651 -44.5695 296.798 50.8022 14.0213 77.2811 36.1289 
159.046 175.062 180 147.613 145.982 142.348 171.49 140.579 83.3825 75.1763 -0.937934 268.498 36.6577 -22.1122 279.33 -45.9721 16.3812 279.406 -7.24293 -7.0238 285.066 68.6765 -8.21046 301.601 65.301 -44.9402 296.811 50.5986 13.8039 72.5269 41.0653 
158.984 175.041 180 147.893 146.15 142.117 171.719 130.686 83.5115 75.2108 -1.14748 268.455 36.8694 -22.8169 279.376 -46.0407 16.6842 281.273 -3.95795 -7.18896 284.795 68.528 -8.47494 301.38 65.2249 -45.2579 296.714 50.5618 13.733 70.8661 43.4063 
158.987 175.041 180 147.978 146.419 142.125 171.713 127.161 83.6732 75.3499 -1.5944 268.55 36.8286 -23.4052 279.646 -46.1511 16.2317 281.731 -3.58638 -7.54803 284.868 68.5421 -8.89301 301.44 65.3269 -45.6342 296.929 50.5 13.6542 70.7339 43.7777 
159.034 174.958 180 148.199 146.469 142.214 171.742 131.283 83.9264 75.5757 -2.06301 267.985 36.753 -24.2693 279.271 -46.1473 15.6156 284.131 -7.80877 -7.73339 284.539 68.4322 -9.11111 301.151 65.2535 -45.9634 296.841 50.3961 13.5428 74.6225 40.4144 
158.964 174.819 180 148.37 146.737 141.918 171.77 145.919 84.119 76.0624 -2.35523 267.54 37.0057 -25.2619 278.906 -45.9676 13.9491 287.875 -18.4178 -7.93624 284.008 68.2261 -9.30813 300.571 65.2905 -46.2741 296.667 50.3241 13.3722 82.7819 32.5594 
158.81 174.662 180 148.453 146.929 141.749 171.744 161.6 84.1995 76.2858 -2.58747 267.373 37.3148 -25.8711 278.447 -45.8727 12.1361 291.989 -27.14 -8.17093 283.767 68.1541 -9.5921 300.291 65.3468 -46.5539 296.573 50.2894 13.291 89.4028 26.4589 
158.668 174.532 180 148.544 146.824 141.614 171.818 168.446 84.2672 76.2589 -2.81913 267.416 37.6685 -26.5428 278.155 -45.7981 9.97662 293.85 -31.8936 -8.4568 283.755 68.162 -9.88032 300.327 65.2832 -46.8801 296.681 50.3312 13.3248 92.9172 23.1097 
158.488 174.347 174.272 148.513 146.664 141.421 171.915 169.123 84.1612 75.8728 -3.04357 267.619 37.7565 -27.19 278.161 -45.8957 8.43386 293.345 -33.4461 -8.76143 283.872 67.9752 -10.1746 300.553 64.988 -47.2078 296.791 50.27 13.4015 93.5871 22.0074 
158.619 174.287 173.17 148.389 146.429 141.515 171.874 171.001 84.351 76.0793 -3.34247 267.97 37.8147 -27.8634 278.116 -45.829 7.64831 293.662 -34.4673 -9.06731 284.155 67.9076 -10.5093 300.896 64.9058 -47.692 297.094 50.3529 13.3332 93.8644 21.4653 
158.873 174.392 180 148.278 145.792 141.878 171.757 179.99 84.2466 75.3627 -3.58857 268.333 37.5799 -27.7159 277.735 -45.8727 6.67394 295.501 -35.4961 -9.44981 284.799 67.947 -10.9233 301.735 64.3349 -48.1188 297.188 50.2684 13.6666 95.284 20.3445 
159.064 174.682 100.458 147.547 144.956 142.466 171.499 156.147 84.141 74.9024 -4.05343 268.66 36.7073 -27.0307 278.026 -46.0652 5.44686 278.563 -16.5227 -9.91372 285.254 67.8646 -11.489 302.291 63.9506 -48.5368 297.144 50.1068 13.8331 78.9432 33.3287 
159.025 174.831 180 147.009 144.209 142.721 171.451 179.997 83.8168 74.2168 -4.2886 268.635 36.2455 -26.6062 278.048 -46.3211 10.52 282.827 -19.3354 -10.3579 285.369 67.7513 -12.0034 302.52 63.5908 -48.9335 296.782 49.9308 14.0213 80.6649 32.4863 
159.081 174.963 180 146.694 144.392 143.078 171.305 149.749 83.8846 74.4918 -4.69448 269.133 35.7691 -26.7573 278.751 -46.6854 14.9038 275.336 -5.67421 -10.925 285.436 67.807 -12.5709 302.461 63.8022 -49.2987 296.87 49.8233 13.9613 68.2114 44.8674 
159.041 174.919 180 146.974 144.565 143.107 171.314 134.588 83.8984 74.4986 -5.0946 268.954 35.7645 -27.2333 279.015 -46.778 15.9543 273.748 1.52473 -11.3015 285.248 67.8683 -12.8759 302.306 63.9292 -49.5847 296.84 49.8347 13.906 62.6148 50.8308 
159.05 174.927 180 147.142 144.939 143.104 171.473 125.321 83.9169 74.6777 -5.47269 269.056 35.6617 -27.7037 279.399 -46.903 15.9818 272.75 7.34037 -11.7413 285.264 67.9347 -13.225 302.254 64.0677 -49.8801 296.958 49.8103 13.8864 58.1334 55.7133 
159.047 174.87 180 147.391 145.355 142.933 171.604 119.824 83.9156 74.8938 -5.66922 268.83 35.6836 -28.5907 279.227 -47.0275 15.7645 274.829 8.09723 -12.0311 284.738 67.7185 -13.4553 301.673 64.065 -50.1226 296.719 49.7042 13.7907 58.2929 56.2942 
158.97 174.882 180 147.576 145.859 142.743 171.725 115.348 83.7709 75.1037 -5.84169 268.644 35.738 -28.9512 278.869 -47.167 14.9335 274.852 10.1754 -12.4768 284.375 67.6397 -13.7876 301.151 64.1565 -50.3391 296.447 49.5405 13.7237 57.0726 57.9688 
158.918 174.878 180 147.708 146.312 142.627 171.744 112.002 83.6626 75.3196 -5.9783 268.442 35.919 -29.2301 278.242 -47.1718 13.882 274.617 11.6375 -12.8285 284.019 67.6041 -14.1276 300.654 64.3222 -50.5876 296.071 49.4653 13.5943 56.1572 59.0422 
158.91 174.764 180 147.924 146.358 142.395 171.745 114.643 83.6876 75.3458 -6.22755 268.002 36.277 -29.9906 277.593 -47.0011 12.9836 278.314 3.92111 -13.0657 283.557 67.5188 -14.2983 300.279 64.2917 -50.8939 295.895 49.5087 13.4949 63.5442 52.009 
158.794 174.711 180 147.965 146.153 141.985 171.864 123.971 83.7095 75.4289 -6.44209 268.077 36.8788 -30.9976 277.144 -46.7888 11.99 282.347 -6.05502 -13.2529 283.605 67.4021 -14.5059 300.368 64.1679 -51.3189 296.018 49.6706 13.4815 72.0124 43.6889 
158.693 174.643 180 148.025 146.198 141.771 171.938 128.364 83.8008 75.9062 -6.86355 268.315 37.1435 -31.6826 276.984 -46.64 10.541 284.124 -10.1487 -13.5658 283.741 67.2975 -14.7694 300.385 64.2143 -51.7557 296.3 49.7325 13.3674 75.4459 40.1661 
158.49 174.597 180 148.009 146.262 141.514 172.095 129.142 83.9096 76.4175 -7.15789 268.288 37.2715 -32.0995 276.69 -46.5936 9.09395 284.087 -11.4503 -13.8349 283.704 67.2444 -14.989 300.213 64.3014 -52.0818 296.235 49.6971 13.2233 76.5532 38.8743 
158.494 174.553 180 148.05 146.413 141.486 172.057 129.842 83.9903 76.5285 -7.37488 268.254 37.3224 -32.4548 276.389 -46.5986 8.19246 283.62 -12.042 -14.0994 283.638 67.2319 -15.2939 300.114 64.3134 -52.3841 296.173 49.6487 13.1926 76.9256 38.3053 
158.467 174.522 180 148.036 146.49 141.49 172.085 126.541 83.9741 76.6591 -7.51807 268.329 37.3022 -32.8491 276.139 -46.7412 7.54335 282.158 -9.75093 -14.5027 283.574 67.2403 -15.586 299.983 64.2997 -52.6438 296.11 49.557 13.1961 75.1568 40.0846 
158.358 174.446 180 148.08 146.353 141.456 172.037 124.664 84.0191 76.5223 -7.688 268.174 37.1418 -33.193 275.77 -46.9369 6.76776 280.77 -8.88399 -14.7719 283.381 67.1382 -15.8039 299.838 64.0323 -52.8684 295.904 49.4053 13.2739 74.1789 40.8511 
158.329 174.418 180 148.156 145.994 141.535 171.975 121.318 84.0178 76.0883 -7.83664 268.009 37.0601 -33.3047 275.461 -46.9669 5.75114 279.411 -7.10033 -14.9705 283.427 67.1421 -15.9434 300.075 63.6556 -53.0808 295.798 49.3628 13.442 72.6801 42.0389 
158.159 174.47 180 148.144 145.906 141.515 171.984 114.189 83.9983 76.1079 -7.98481 267.991 36.7874 -33.3303 275.533 -47.2344 5.15791 277.694 -2.26624 -15.1983 283.287 67.061 -16.1764 299.875 63.5563 -53.2327 295.535 49.1987 13.5139 68.6498 46.0751 
158.396 174.515 180 148.014 145.683 141.783 172.007 102.265 84.0016 75.9561 -8.26052 267.973 36.3414 -33.266 275.624 -47.4321 3.24232 274.948 6.36422 -15.3912 283.294 67.0105 -16.4009 299.929 63.396 -53.3947 295.428 49.0998 13.5893 60.9649 53.4765 
158.587 174.539 180 147.968 145.414 142.127 171.959 95.9618 83.9932 75.5532 -8.46777 267.705 36.0743 -33.1248 275.503 -47.5484 2.13465 272.996 13.1568 -15.539 283.031 67.0468 -16.6223 299.778 63.2047 -53.5342 295.109 49.0571 13.8157 54.4607 59.8689 
158.624 174.546 173.711 147.919 145.406 142.247 171.916 96.976 84.0361 75.5366 -8.63435 267.494 36.0819 -33.3229 275.451 -47.6032 2.92429 272.681 14.9343 -15.703 282.69 67.0385 -16.8234 299.45 63.2114 -53.7097 294.952 49.0797 13.868 52.8367 61.6849 
158.513 174.465 133.597 147.941 145.543 142.225 171.812 90.2991 84.0842 75.735 -8.76772 266.942 36.2168 -33.5001 275.122 -47.5113 -0.328849 274.409 18.7929 -15.8667 282.082 67.0554 -16.9661 298.806 63.3708 -53.8411 294.522 49.0888 13.7705 50.2527 64.8283 
158.4 174.427 130.089 148.125 145.646 142.198 171.808 87.9073 84.068 75.738 -8.85534 266.393 36.4574 -33.5256 274.633 -47.3475 -0.977881 275.391 19.9263 -16.1359 281.651 67.2771 -17.1722 298.388 63.5801 -53.9539 294.095 49.1058 13.7195 50.1247 65.6751 
158.411 174.432 128.137 147.99 145.64 142.296 171.857 86.8982 84.2554 75.8363 -9.07586 265.995 36.5114 -33.57 274.233 -47.3986 -1.73339 274.908 20.4393 -16.3067 281.126 67.3033 -17.344 297.899 63.5968 -54.0901 293.865 49.021 13.6988 49.626 66.167 
158.509 174.419 123.204 147.827 145.39 142.452 171.866 85.5184 84.4037 75.7982 -9.29865 265.623 36.5214 -33.6133 274.005 -47.351 -2.91016 274.431 21.2544 -16.3401 280.619 67.3137 -17.4094 297.475 63.5367 -54.169 293.649 49.0664 13.7806 48.6784 66.9274 
158.515 174.442 117.98 147.761 144.971 142.545 171.88 83.8354 84.3049 75.546 -9.56939 265.208 36.4616 -33.5968 273.624 -47.3097 -4.26527 273.733 22.7165 -16.4426 280.313 67.2904 -17.4312 297.231 63.2818 -54.2168 293.402 49.0531 14.0108 46.9535 68.5214 
158.487 174.508 119.275 147.729 145.036 142.618 172.041 83.874 84.2822 75.6044 -9.78956 264.79 36.3401 -33.7443 273.523 -47.3235 -4.14035 273.749 22.8055 -16.5862 279.954 67.2901 -17.551 296.862 63.3599 -54.2883 293.147 49.0457 13.9776 47.1028 68.664 
158.524 174.561 118.59 147.704 144.873 142.756 172.171 83.619 84.2899 75.5524 -9.89445 264.629 36.2929 -33.7458 273.505 -47.3101 -4.41933 273.517 23.2634 -16.6266 279.892 67.3531 -17.6616 296.812 63.37 -54.3704 292.983 49.0939 14.0524 46.5629 69.1935 
158.383 174.583 116.757 147.65 144.945 142.607 172.244 82.8078 84.2662 75.6568 -10.0077 264.523 36.3966 -33.8595 273.412 -47.3021 -5.04885 273.362 23.6624 -16.7211 279.649 67.3085 -17.7204 296.545 63.3989 -54.4288 292.847 49.1017 14.0088 46.1052 69.6786 
158.451 174.63 108.935 147.542 144.885 142.723 172.271 80.8042 84.248 75.6933 -10.1793 264.334 36.3271 -33.7809 273.388 -47.3151 -6.90592 272.714 25.386 -16.8087 279.562 67.3838 -17.7799 296.427 63.4589 -54.4486 292.771 49.1385 14.0373 43.8256 71.7551 
158.432 174.622 109.961 147.436 144.881 142.686 172.293 80.2501 84.223 75.69 -10.2558 264.054 36.5215 -33.8221 273.201 -47.2094 -7.18218 272.331 26.5522 -16.845 279.294 67.4128 -17.7825 296.193 63.5334 -54.4634 292.628 49.2211 13.9794 42.5745 73.0404 
158.323 174.566 180 147.391 145.095 142.64 172.32 84.8298 84.1502 75.7232 -10.3983 263.357 36.5978 -33.8756 272.706 -47.0432 -2.07435 270.057 27.2159 -16.8927 278.762 67.4436 -17.7976 295.652 63.714 -54.4269 292.154 49.2486 13.8332 42.4296 73.5416 
158.282 174.505 180 147.368 145.475 142.663 172.304 86.1025 84.1099 75.8528 -10.5567 262.742 36.7603 -34.147 272.068 -46.8403 -1.04627 269.7 28.0134 -16.9906 278.28 67.5501 -17.8692 295.127 64.0003 -54.4407 291.808 49.3399 13.6718 42.2203 74.1896 
158.147 174.381 180 147.38 145.668 142.492 172.207 88.179 84.0879 75.9372 -10.5903 262.175 37.0206 -34.4571 271.386 -46.5981 0.685545 270.177 25.7868 -16.9514 277.806 67.5407 -17.8048 294.646 64.0932 -54.4038 291.491 49.4205 13.5757 45.0562 71.6812 
157.986 174.306 180 147.361 146.056 142.313 172.16 89.3161 84.068 76.0248 -10.5908 261.583 37.2359 -34.456 270.735 -46.3631 1.58824 270.13 24.2132 -16.9129 277.291 67.5907 -17.7934 294.093 64.272 -54.3045 291.051 49.4598 13.462 46.9473 69.9401 
157.839 174.251 180 147.29 146.398 142.152 172.085 90.6188 84.0718 76.1606 -10.6438 261.065 37.489 -34.4578 270.16 -46.1479 2.31471 270.112 22.1034 -16.9228 276.798 67.6286 -17.832 293.552 64.4436 -54.2508 290.733 49.5137 13.3795 49.2407 67.6502 
157.911 174.279 180 147.19 146.591 142.23 172.051 90.5479 84.2033 76.3747 -10.8384 260.539 37.4384 -34.1906 269.706 -45.9991 2.04721 269.354 21.1673 -16.8525 276.298 67.7316 -17.8156 293.017 64.6625 -54.1678 290.388 49.5559 13.284 50.0121 66.5446 
157.983 174.315 180 147.001 146.584 142.382 171.93 89.4237 84.2862 76.5763 -10.9482 260.152 37.224 -33.7314 269.441 -45.9047 1.04849 268.018 22.0045 -16.7348 275.875 67.7717 -17.705 292.523 64.7499 -54.0161 290.084 49.6 13.3045 48.7687 67.2064 
157.923 174.314 180 146.763 146.595 142.355 171.692 88.1787 84.0515 76.3492 -10.9734 259.837 37.2653 -33.2838 269.122 -45.7627 -0.176201 265.998 25.2521 -16.6196 275.456 67.6863 -17.6663 292.066 64.7053 -53.8558 289.726 49.6938 13.4346 44.9462 70.3982 
157.971 174.321 180 146.576 146.769 142.464 171.565 88.6026 83.9833 76.6649 -10.9508 259.471 37.1595 -32.8663 268.688 -45.6632 -1.29022 262.901 30.5574 -16.5562 274.939 67.6952 -17.5518 291.366 64.8785 -53.6347 289.375 49.7313 13.4643 38.8973 75.936 
158.268 174.297 136.338 146.237 146.716 142.72 171.218 81.3409 83.6117 76.5393 -10.7266 259.026 37.1212 -31.6165 267.886 -45.0777 -10.6316 261.959 46.3722 -16.5344 274.583 67.9549 -17.5082 290.856 65.0539 -53.2916 288.764 50.0091 13.6783 20.9499 93.9167 
158.47 174.332 133.926 146.145 146.784 142.87 171.15 81.8468 83.3658 76.7562 -10.4679 259.037 37.2204 -31.2664 267.424 -44.8891 -10.4666 261.664 46.7301 -16.5972 274.495 68.2339 -17.4542 290.526 65.4173 -53.1044 288.533 50.2241 13.7552 21.0288 93.8504 
158.536 174.382 132.943 145.868 146.774 142.885 171.071 82.5268 83.2145 77.064 -10.1749 258.855 37.1824 -30.8646 266.874 -44.7524 -10.272 260.91 47.168 -16.4677 274.035 68.2315 -17.2593 289.868 65.614 -52.833 288.044 50.3135 13.7367 20.6658 94.012 
158.683 174.533 129.795 145.603 146.814 142.924 171.217 83.0737 83.1917 77.5623 -9.95185 258.648 37.2162 -30.5895 266.396 -44.6675 -9.35533 260.602 46.0936 -16.2297 273.562 68.3386 -16.9571 289.175 66.0013 -52.531 287.674 50.475 13.6529 22.1247 92.4456 
158.883 174.635 127.629 145.456 146.751 142.992 171.296 82.7873 83.0382 77.3433 -9.59447 258.484 37.3406 -29.9961 265.854 -44.4374 -9.30848 260.576 46.3672 -15.902 273.54 68.4877 -16.7174 289.153 66.0799 -52.2695 287.303 50.6401 13.6982 21.8678 92.4922 
158.877 174.683 123.389 145.537 146.682 142.857 171.401 82.2615 83.0636 77.5062 -9.35966 258.01 37.6522 -30.0121 265.065 -44.2022 -7.10725 262.159 42.8091 -15.5035 273.217 68.6765 -16.2273 288.779 66.2911 -51.9746 286.996 50.86 13.629 26.898 87.914 
158.801 174.601 99.599 146.01 146.752 142.631 171.355 83.9426 83.4301 77.7276 -9.00924 257.32 38.2951 -30.5172 264.011 -43.7763 -5.2895 263.851 32.424 -14.9294 272.686 69.06 -15.6496 288.307 66.5881 -51.6876 286.689 51.1697 13.5503 38.6245 75.7996 
158.672 174.514 115.222 146.368 146.825 142.414 171.436 89.8183 83.6913 77.8338 -8.57503 256.572 39.0826 -30.6094 262.994 -43.3739 -0.0115691 264.243 28.2938 -14.3388 272.212 69.4896 -15.0677 287.913 66.9397 -51.3232 286.303 51.5011 13.4468 44.8124 70.3129 
