148.294 172.975 176.62 147.215 147.857 136.877 173.697 171.039 81.7208 78.3106 131.825 94.7064 -5.80248 107.768 129.331 -90.2966 157.318 114.118 -93.5251 135.972 110.724 22.7173 148.397 118.643 20.4705 126.734 145.766 4.71707 13.6234 111.007 24.3958 
148.213 173.058 176.585 147.145 147.798 136.845 173.687 171.062 81.7676 78.378 131.804 94.6469 -5.89061 107.77 129.336 -90.3304 157.408 114.097 -93.6167 136.001 110.701 22.6508 148.458 118.559 20.3837 126.902 145.744 4.63344 13.6351 111.079 24.4413 
148.082 173.065 176.555 147.093 147.772 136.716 173.68 171.076 81.79 78.4272 131.871 94.5692 -5.95891 107.846 129.27 -90.3829 157.622 114.035 -93.7084 136.043 110.627 22.5724 148.522 118.435 20.2964 127.055 145.65 4.53989 13.6512 111.15 24.5028 
147.915 173.041 176.521 147.017 147.727 136.601 173.651 171.116 81.7446 78.4177 131.831 94.4177 -5.92903 107.891 129.029 -90.3212 157.758 113.846 -93.7358 136.083 110.541 22.5297 148.59 118.281 20.2371 127.199 145.523 4.48571 13.6781 111.22 24.508 
147.711 172.984 176.55 147.013 147.697 136.476 173.539 171.199 81.6328 78.3365 131.868 94.2974 -5.87381 108.06 128.742 -90.2944 158.123 113.66 -93.7574 136.119 110.481 22.521 148.671 118.138 20.2134 127.347 145.373 4.4472 13.7138 111.347 24.5373 
147.561 172.934 176.599 146.995 147.692 136.479 173.366 171.266 81.5229 78.2677 131.771 94.0859 -5.82466 108.129 128.359 -90.2511 158.409 113.339 -93.7787 136.101 110.354 22.5227 148.679 117.905 20.2053 127.509 145.186 4.4029 13.7683 111.499 24.5729 
147.405 172.863 176.668 146.989 147.725 136.471 173.206 171.355 81.4092 78.1956 131.728 93.8853 -5.74878 108.242 127.93 -90.1851 158.709 113.025 -93.7888 136.116 110.215 22.5347 148.707 117.689 20.2211 127.659 144.986 4.37414 13.8134 111.64 24.5776 
147.344 172.785 176.811 147.105 147.861 136.505 173.012 171.41 81.2342 77.993 131.869 93.8022 -5.72794 108.492 127.573 -90.2024 159.178 112.785 -93.7307 136.251 110.175 22.5535 148.905 117.586 20.2167 127.863 144.854 4.35788 13.8359 111.742 24.6189 
147.226 172.66 176.985 147.318 148.044 136.489 172.894 171.468 81.0513 77.8037 132.156 93.8133 -5.79907 108.968 127.205 -90.2898 159.843 112.516 -93.6385 136.464 110.16 22.5843 149.153 117.538 20.2486 128.05 144.7 4.32601 13.8452 111.794 24.6673 
147.163 172.579 177.09 147.57 148.235 136.473 172.771 171.496 80.8479 77.619 132.57 93.9069 -5.90285 109.464 126.926 -90.3761 160.498 112.299 -93.5604 136.755 110.218 22.6042 149.459 117.557 20.2723 128.285 144.596 4.29171 13.8613 111.825 24.7213 
147.143 172.518 177.265 147.794 148.426 136.468 172.739 171.566 80.7032 77.4674 132.968 94.0124 -6.01592 109.956 126.641 -90.4663 160.994 112.028 -93.425 137.037 110.257 22.6414 149.757 117.593 20.3069 128.467 144.502 4.27598 13.8545 111.753 24.7141 
147.162 172.49 177.411 148.03 148.603 136.46 172.74 171.614 80.5735 77.3385 133.491 94.187 -6.17191 110.569 126.471 -90.6232 161.517 111.765 -93.2762 137.348 110.333 22.6655 150.08 117.663 20.3502 128.694 144.441 4.24179 13.8308 111.638 24.6966 
147.252 172.516 177.354 148.2 148.717 136.421 172.74 171.557 80.5082 77.2821 133.96 94.2576 -6.32041 111.178 126.438 -90.8034 162.02 111.673 -93.2201 137.584 110.325 22.6285 150.33 117.659 20.3619 128.889 144.375 4.20396 13.7881 111.525 24.6419 
147.277 172.442 177.369 148.365 148.852 136.38 172.755 171.509 80.4657 77.2236 134.376 94.3365 -6.49429 111.806 126.499 -90.9566 162.469 111.583 -93.1288 137.826 110.283 22.5947 150.576 117.655 20.3766 129.072 144.294 4.18425 13.7475 111.377 24.5983 
147.297 172.391 177.29 148.493 148.997 136.34 172.789 171.468 80.4443 77.2377 134.672 94.4066 -6.67309 112.387 126.498 -91.058 162.779 111.362 -92.9877 138.044 110.227 22.5943 150.782 117.626 20.4443 129.249 144.202 4.17485 13.6931 111.2 24.5351 
147.365 172.349 177.199 148.577 149.079 136.306 172.892 171.425 80.4608 77.2651 134.989 94.4219 -6.79647 112.954 126.448 -91.1205 163.054 111.133 -92.8455 138.33 110.113 22.6287 151.029 117.585 20.5375 129.406 144.068 4.19093 13.6434 111.008 24.4686 
147.445 172.259 177.175 148.696 149.203 136.286 172.962 171.403 80.48 77.2915 135.299 94.4722 -6.84257 113.423 126.282 -91.0681 163.204 110.714 -92.5323 138.682 110.052 22.7101 151.329 117.607 20.6434 129.561 143.979 4.23685 13.6047 110.673 24.459 
147.556 172.18 177.043 148.74 149.271 136.216 173.001 171.277 80.4706 77.281 135.646 94.5121 -6.7984 113.839 126.183 -90.9673 163.237 110.362 -92.2093 139.024 110.034 22.7584 151.639 117.649 20.711 129.747 143.952 4.29297 13.5731 110.32 24.4115 
147.671 172.111 176.955 148.744 149.287 136.151 173.05 171.135 80.5096 77.3205 135.902 94.5005 -6.74159 114.1 126.074 -90.8812 163.167 110.005 -91.9214 139.257 109.961 22.8246 151.834 117.634 20.7969 129.857 143.89 4.3525 13.5397 110.008 24.3908 
147.835 172.025 176.848 148.752 149.303 136.119 173.09 170.953 80.5467 77.3036 136.184 94.5416 -6.73749 114.325 126.074 -90.8144 163.113 109.743 -91.6437 139.537 109.938 22.846 152.105 117.669 20.7972 130.02 143.9 4.39882 13.5241 109.666 24.4186 
147.912 171.927 176.724 148.706 149.275 136.038 173.19 170.769 80.6157 77.335 136.395 94.5258 -6.64724 114.402 126.082 -90.7117 162.975 109.516 -91.3963 139.747 109.88 22.8667 152.302 117.651 20.7898 130.149 143.891 4.44226 13.5171 109.394 24.4789 
148.008 171.886 176.54 148.667 149.237 136.024 173.269 170.605 80.6735 77.3748 136.557 94.4664 -6.55431 114.449 125.985 -90.5976 162.845 109.27 -91.2273 139.923 109.805 22.912 152.461 117.612 20.8206 130.265 143.859 4.49311 13.5054 109.197 24.49 
148.132 171.9 176.27 148.583 149.16 135.981 173.367 170.471 80.7502 77.4049 136.687 94.3996 -6.48253 114.394 125.919 -90.5025 162.667 109.246 -91.297 140.088 109.7 22.8841 152.624 117.552 20.7743 130.363 143.845 4.51723 13.4804 109.102 24.4023 
148.175 171.873 176.108 148.5 149.081 135.91 173.501 170.388 80.8299 77.446 136.779 94.3104 -6.35871 114.298 125.786 -90.3505 162.492 109.134 -91.2467 140.234 109.574 22.8964 152.765 117.467 20.7546 130.442 143.791 4.56163 13.4701 108.996 24.3817 
148.292 171.928 175.958 148.437 149.009 135.871 173.602 170.274 80.887 77.4128 136.954 94.2473 -6.27774 114.22 125.71 -90.2658 162.374 109.094 -91.2119 140.413 109.487 22.8653 152.98 117.425 20.6695 130.541 143.77 4.58191 13.4474 108.874 24.3829 
148.349 171.934 175.831 148.375 148.929 135.811 173.703 170.241 80.9637 77.4001 137.099 94.2108 -6.17744 114.134 125.581 -90.159 162.269 109.096 -91.2528 140.554 109.423 22.8484 153.151 117.4 20.5951 130.644 143.77 4.59263 13.4343 108.837 24.3193 
148.358 171.86 175.698 148.328 148.837 135.666 173.779 170.2 81.0165 77.3542 137.259 94.1693 -6.09817 114.152 125.511 -90.0794 162.204 109.241 -91.3549 140.678 109.351 22.792 153.353 117.35 20.4728 130.735 143.75 4.59507 13.4043 108.856 24.1766 
148.365 171.829 175.619 148.274 148.753 135.552 173.86 170.246 81.0582 77.2698 137.418 94.1679 -6.03299 114.205 125.482 -90.0324 162.25 109.501 -91.5252 140.845 109.313 22.7278 153.605 117.35 20.3354 130.847 143.769 4.59094 13.3755 108.936 24.0314 
148.321 171.782 175.548 148.262 148.709 135.479 173.869 170.266 81.0826 77.1636 137.5 94.1627 -5.99085 114.234 125.543 -90.0107 162.302 109.79 -91.6899 140.96 109.302 22.6381 153.821 117.356 20.1676 130.961 143.814 4.56621 13.3578 109.037 23.9322 
148.32 171.745 175.541 148.283 148.667 135.388 173.906 170.321 81.1029 77.0909 137.685 94.1991 -5.92877 114.299 125.598 -90.0007 162.468 110.118 -91.8778 141.096 109.332 22.5856 154.037 117.405 20.0541 131.064 143.873 4.5548 13.337 109.167 23.853 
148.285 171.734 175.53 148.256 148.569 135.274 173.959 170.386 81.0782 77.0143 137.86 94.2282 -5.85307 114.361 125.688 -90.0094 162.596 110.493 -92.1092 141.21 109.385 22.5017 154.227 117.446 19.9226 131.174 143.935 4.52685 13.3343 109.341 23.7446 
148.285 171.761 175.579 148.239 148.497 135.205 174.023 170.426 81.0567 76.9269 138.056 94.3103 -5.81975 114.385 125.774 -90.0221 162.66 110.785 -92.2569 141.352 109.46 22.4307 154.417 117.537 19.7966 131.254 144.014 4.50582 13.3429 109.417 23.6852 
148.28 171.772 175.626 148.228 148.405 135.143 174.04 170.488 81.0458 76.8459 138.233 94.3701 -5.77172 114.385 125.86 -90.0484 162.731 111.086 -92.446 141.481 109.528 22.3579 154.603 117.612 19.6658 131.342 144.095 4.47489 13.3499 109.523 23.629 
148.288 171.768 175.726 148.211 148.308 135.119 174.065 170.579 81.007 76.738 138.391 94.4743 -5.74029 114.357 125.929 -90.043 162.823 111.388 -92.6111 141.638 109.647 22.3051 154.796 117.748 19.5514 131.418 144.209 4.46053 13.3743 109.615 23.5968 
148.309 171.808 175.809 148.227 148.261 135.094 174.063 170.619 80.9709 76.6791 138.525 94.5727 -5.7497 114.308 126.036 -90.104 162.935 111.664 -92.7974 141.741 109.785 22.2451 154.942 117.865 19.449 131.497 144.321 4.411 13.3801 109.746 23.6118 
148.305 171.838 175.902 148.225 148.215 135.054 174.076 170.71 80.9295 76.6426 138.617 94.7237 -5.80179 114.279 126.251 -90.214 163.078 112.002 -93.0401 141.772 109.953 22.1618 155.012 117.983 19.3449 131.593 144.472 4.33897 13.3967 109.929 23.621 
148.342 171.896 176.075 148.244 148.19 135.111 174.029 170.753 80.9277 76.591 138.678 94.8931 -5.88266 114.257 126.545 -90.3449 163.252 112.319 -93.1902 141.797 110.146 22.1131 155.069 118.141 19.2544 131.707 144.67 4.28146 13.4319 110.068 23.6964 
148.345 171.922 176.178 148.229 148.153 135.16 174.066 170.796 80.9098 76.5619 138.67 95.0968 -5.96421 114.224 126.879 -90.44 163.364 112.707 -93.3606 141.825 110.376 22.0804 155.117 118.324 19.1993 131.824 144.897 4.24881 13.4614 110.244 23.7233 
148.325 172.002 176.294 148.22 148.116 135.188 174.087 170.839 80.8888 76.5466 138.737 95.3594 -6.12231 114.318 127.268 -90.6111 163.568 113.138 -93.5649 141.852 110.627 22.008 155.162 118.524 19.1319 131.963 145.141 4.18313 13.4805 110.405 23.7235 
148.273 172.057 176.419 148.201 148.084 135.152 174.136 170.894 80.8598 76.5723 138.813 95.613 -6.2388 114.431 127.606 -90.7627 163.771 113.488 -93.7161 141.857 110.877 21.9721 155.168 118.712 19.122 132.077 145.351 4.13689 13.4918 110.554 23.7297 
148.256 172.112 176.511 148.177 148.006 135.173 174.185 170.939 80.8543 76.5812 138.881 95.8706 -6.37094 114.551 127.921 -90.8956 163.989 113.881 -93.872 141.947 111.149 21.9407 155.267 118.947 19.0913 132.218 145.597 4.0903 13.5005 110.689 23.7282 
148.133 172.211 176.61 148.14 147.867 135.198 174.213 171.055 80.8731 76.6522 138.842 96.2806 -6.64693 114.751 128.581 -91.1607 164.477 114.683 -94.1907 141.948 111.532 21.8728 155.303 119.251 19.0614 132.389 145.971 4.02243 13.5017 110.989 23.7773 
148.087 172.255 176.676 148.091 147.777 135.245 174.206 171.145 80.864 76.7017 138.818 96.5662 -6.89037 114.938 129.134 -91.3869 164.903 115.281 -94.444 141.977 111.797 21.7699 155.335 119.466 19.0216 132.529 146.248 3.94742 13.4977 111.171 23.8537 
148.008 172.271 176.721 148.061 147.735 135.257 174.256 171.22 80.8631 76.8095 138.78 96.7962 -7.06121 115 129.675 -91.5516 165.16 115.813 -94.6583 141.938 112.023 21.7015 155.275 119.634 19.0307 132.614 146.47 3.89458 13.4901 111.372 23.9463 
147.987 172.319 176.868 148.054 147.698 135.332 174.258 171.231 80.8611 76.8735 138.82 97.0404 -7.22406 115.062 130.239 -91.7083 165.353 116.232 -94.7285 141.969 112.286 21.6416 155.295 119.853 19.0161 132.731 146.725 3.85566 13.4896 111.437 24.0881 
147.992 172.362 176.876 148.023 147.639 135.383 174.294 171.222 80.8645 76.9031 138.9 97.2486 -7.34018 115.058 130.776 -91.8534 165.502 116.784 -94.8994 142.05 112.496 21.5475 155.369 120.057 18.9559 132.82 146.966 3.82089 13.4814 111.528 24.1816 
148.022 172.396 176.996 147.995 147.557 135.494 174.313 171.261 80.8456 76.8511 138.927 97.4399 -7.46109 115.03 131.176 -91.9492 165.615 117.153 -94.9606 142.129 112.721 21.4862 155.459 120.29 18.8971 132.895 147.197 3.79961 13.4832 111.539 24.2952 
148.143 172.458 176.948 148.663 147.971 135.96 174.519 171.274 80.8879 76.9332 138.747 97.4853 -7.54461 114.877 131.423 -91.9667 165.556 117.416 -94.9325 141.917 112.835 21.5397 155.356 120.28 18.9817 132.917 147.357 3.73369 13.4219 111.792 24.3116 
148.155 172.403 177.165 148.582 147.911 136.026 174.551 171.326 80.8596 76.8639 138.828 97.5866 -7.62977 114.885 131.629 -92.0186 165.604 117.495 -94.8442 142.028 112.942 21.5103 155.438 120.438 18.9637 132.936 147.45 3.74206 13.4347 111.642 24.4326 
148.153 172.389 177.246 148.475 147.835 136.052 174.549 171.311 80.8723 76.8473 138.893 97.6775 -7.68101 114.875 131.778 -92.0597 165.592 117.518 -94.7422 142.115 113.015 21.5011 155.475 120.574 18.9716 132.927 147.533 3.76776 13.4392 111.458 24.5298 
148.12 172.345 177.327 148.354 147.746 136.059 174.514 171.305 80.9053 76.8333 138.892 97.6997 -7.68954 114.809 131.839 -92.0456 165.507 117.487 -94.6201 142.198 113.029 21.5094 155.505 120.661 18.9758 132.897 147.565 3.80421 13.4505 111.288 24.612 
148.083 172.243 177.337 148.223 147.648 136.07 174.503 171.273 80.8947 76.7413 138.796 97.6768 -7.69492 114.674 131.802 -91.9774 165.341 117.419 -94.4653 142.283 113.02 21.5043 155.566 120.729 18.9349 132.821 147.564 3.85732 13.4697 111.085 24.6783 
148.027 172.166 177.33 148.152 147.592 136.082 174.477 171.219 80.893 76.6263 138.714 97.6392 -7.65973 114.543 131.821 -91.9082 165.256 117.377 -94.2751 142.328 112.973 21.5244 155.592 120.775 18.9183 132.725 147.538 3.93119 13.4947 110.91 24.8093 
147.972 172.085 177.259 148.1 147.537 136.068 174.461 171.155 80.8869 76.5545 138.598 97.5448 -7.61123 114.338 131.771 -91.8332 165.156 117.333 -94.1504 142.34 112.873 21.5533 155.575 120.76 18.9351 132.57 147.446 4.00462 13.4925 110.793 24.9435 
147.908 172.036 177.112 148.058 147.497 136.048 174.451 171.082 80.8662 76.5167 138.427 97.402 -7.56691 114.065 131.717 -91.7449 164.977 117.337 -94.1206 142.266 112.733 21.5587 155.454 120.683 18.9367 132.356 147.314 4.07385 13.5105 110.745 25.0269 
147.839 171.953 176.996 148.076 147.51 136.011 174.432 171.036 80.8018 76.4539 138.28 97.2808 -7.47487 113.804 131.636 -91.6117 164.843 117.343 -94.0385 142.183 112.594 21.6046 155.326 120.598 18.983 132.118 147.159 4.18306 13.5276 110.726 25.1234 
147.798 171.911 176.873 148.127 147.542 135.982 174.39 171.019 80.7321 76.3893 138.147 97.1218 -7.32222 113.484 131.564 -91.4874 164.698 117.415 -94.0544 142.055 112.459 21.6712 155.167 120.495 19.045 131.865 147.001 4.29903 13.54 110.81 25.1952 
147.73 171.851 176.883 148.232 147.612 136.023 174.328 171.051 80.6751 76.3168 137.97 96.985 -7.2181 113.138 131.478 -91.393 164.608 117.407 -94.0928 141.886 112.353 21.7584 154.972 120.403 19.1052 131.645 146.86 4.38744 13.5744 110.94 25.3179 
147.692 171.848 176.873 148.318 147.695 136.074 174.322 171.058 80.6415 76.2992 137.826 96.8675 -7.13299 112.779 131.412 -91.3184 164.501 117.42 -94.1557 141.719 112.222 21.8443 154.756 120.288 19.1862 131.415 146.718 4.48834 13.604 111.041 25.4278 
147.657 171.837 176.787 148.444 147.81 136.137 174.33 171.077 80.5824 76.2749 137.63 96.7385 -7.00764 112.337 131.251 -91.1752 164.277 117.419 -94.2243 141.528 112.111 21.9593 154.537 120.17 19.2936 131.154 146.573 4.6055 13.6117 111.184 25.4844 
147.584 171.822 176.713 148.588 147.966 136.169 174.372 171.041 80.5181 76.2684 137.484 96.6471 -6.91056 111.919 131.011 -91.0461 164.004 117.26 -94.1942 141.352 112.027 22.0699 154.331 120.069 19.4012 130.893 146.422 4.69374 13.611 111.234 25.5536 
147.515 171.829 176.593 148.751 148.186 136.233 174.454 170.989 80.4765 76.3181 137.255 96.6133 -6.88765 111.474 130.748 -90.9213 163.599 117.009 -94.1473 141.159 111.965 22.2031 154.106 119.985 19.5472 130.6 146.28 4.77793 13.5773 111.242 25.5892 
147.522 171.893 176.429 148.883 148.387 136.303 174.493 170.926 80.443 76.4018 136.988 96.5456 -6.85782 111.019 130.494 -90.8046 163.181 116.817 -94.1478 140.948 111.91 22.3259 153.856 119.906 19.6948 130.287 146.152 4.85207 13.5376 111.288 25.5969 
147.513 171.909 176.312 148.988 148.551 136.368 174.509 170.91 80.3927 76.4882 136.605 96.4486 -6.83972 110.457 130.26 -90.638 162.671 116.583 -94.109 140.677 111.844 22.4431 153.529 119.812 19.838 129.901 146.001 4.93461 13.5159 111.304 25.6539 
147.531 171.894 176.266 149.082 148.72 136.469 174.495 170.855 80.3448 76.5392 136.21 96.3464 -6.84658 109.809 130.014 -90.448 162.045 116.151 -93.9569 140.445 111.803 22.5515 153.211 119.756 19.927 129.528 145.85 4.98702 13.5424 111.221 25.8021 
147.578 171.828 176.119 149.156 148.856 136.568 174.422 170.701 80.2911 76.6037 135.677 96.2345 -6.76864 108.997 129.935 -90.2025 161.295 115.93 -93.8272 140.153 111.802 22.6402 152.831 119.72 19.9929 129.125 145.786 5.05657 13.5867 111.216 25.9637 
147.632 171.731 175.949 149.198 148.981 136.662 174.331 170.526 80.2652 76.668 135.079 96.1256 -6.69669 108.118 129.948 -89.9351 160.503 115.845 -93.7385 139.862 111.801 22.6662 152.456 119.709 19.9878 128.727 145.776 5.10775 13.6371 111.207 26.1327 
147.638 171.67 175.751 149.207 149.029 136.631 174.221 170.349 80.2174 76.6612 134.621 96.0967 -6.58117 107.281 130.215 -89.7332 159.774 116.104 -93.7687 139.596 111.875 22.5785 152.158 119.777 19.8537 128.376 145.879 5.12261 13.6817 111.249 26.2762 
147.731 171.655 175.601 149.163 149.002 136.565 174.147 170.148 80.2151 76.6003 134.331 96.1349 -6.43279 106.557 130.704 -89.5732 159.021 116.625 -93.8283 139.445 111.998 22.437 151.987 119.965 19.6315 128.079 146.1 5.15699 13.7368 111.221 26.3347 
147.994 171.812 175.555 149.047 148.874 136.586 174.127 170.057 80.3134 76.5896 134.062 96.2111 -6.31406 105.876 131.365 -89.527 158.318 117.462 -94.0631 139.247 112.169 22.273 151.767 120.203 19.3646 127.84 146.461 5.16455 13.8247 111.329 26.2867 
148.26 171.949 175.662 148.911 148.611 136.471 174.25 170.05 80.4723 76.4928 134.129 96.4582 -6.26557 105.489 132.295 -89.6734 157.864 118.693 -94.4178 139.121 112.332 22.0219 151.619 120.52 18.9884 127.62 146.871 5.14834 13.9407 111.433 26.1569 
148.539 172.205 175.901 148.82 148.357 136.422 174.428 170.125 80.6699 76.4364 134.358 96.9544 -6.39172 105.384 133.41 -89.9722 157.582 120.198 -94.8798 139.049 112.639 21.7722 151.549 120.966 18.622 127.471 147.415 5.11113 14.024 111.61 25.8859 
148.769 172.355 176.236 148.759 148.109 136.207 174.627 170.226 80.8245 76.3265 134.823 97.5491 -6.42668 105.449 134.497 -90.3085 157.446 121.771 -95.2914 138.983 113.055 21.5501 151.502 121.53 18.2986 127.3 147.983 5.05502 14.0741 111.845 25.5769 
148.893 172.475 176.493 148.779 147.932 136.015 174.783 170.423 80.8289 76.1731 135.228 98.1707 -6.43737 105.196 135.544 -90.6248 157.375 123.414 -95.9208 138.832 113.59 21.3452 151.435 122.139 18.0586 127.106 148.556 4.99126 14.0278 112.296 25.4305 
148.846 172.526 176.675 148.84 147.842 135.775 174.901 170.639 80.6887 76.0762 135.527 98.8203 -6.54712 104.827 136.543 -90.8855 157.27 124.846 -96.4947 138.6 114.205 21.0802 151.301 122.722 17.8408 126.878 149.087 4.87394 13.9369 112.682 25.4236 
148.786 172.699 176.681 149.527 148.308 135.775 175.126 170.732 80.5369 76.1951 135.614 99.394 -6.70368 104.155 137.262 -90.9771 156.819 125.858 -96.8366 138.152 114.715 20.8166 150.979 123.051 17.7312 126.578 149.541 4.67775 13.7708 112.959 25.4601 
148.656 172.777 176.607 149.457 148.443 135.501 175.176 170.819 80.3385 76.2682 135.76 100.068 -7.06451 103.472 138.115 -91.2074 156.394 126.827 -97.3226 137.915 115.241 20.3368 150.703 123.505 17.4401 126.321 149.989 4.45354 13.6795 112.936 25.6186 
148.539 172.781 176.326 149.287 148.452 135.326 175.235 170.827 80.2912 76.4595 135.553 100.817 -7.53299 102.899 139.303 -91.3366 156.066 128.015 -97.7298 137.747 115.709 19.8968 150.407 123.982 17.1969 126.09 150.521 4.32878 13.6232 112.861 25.812 
148.468 172.574 175.945 149.035 148.225 135.203 175.381 170.851 80.5419 76.6708 135.145 101.548 -8.16895 102.405 140.581 -91.466 155.935 129.419 -98.1749 137.747 115.9 19.4213 150.208 124.429 16.8394 125.807 150.977 4.21466 13.6122 112.7 26.0932 
148.465 172.52 175.678 149.405 148.026 135.322 175.602 171.198 80.8571 76.7806 134.597 102.311 -8.91254 102.083 142.123 -91.712 155.73 131.739 -99.0256 137.755 116.066 18.8411 150.133 124.828 16.2757 125.62 151.595 4.04668 13.6672 112.948 25.9017 
148.133 172.232 175.224 149.152 147.411 134.949 175.765 171.362 81.1553 76.7196 134.294 103.232 -9.65384 101.758 143.979 -91.9538 155.67 134.58 -99.9663 138.024 116.314 18.0924 150.241 125.432 15.3528 125.389 152.19 3.89476 13.9207 113.174 25.857 
147.75 172.058 174.904 148.84 146.645 134.501 175.985 171.483 81.3529 76.4934 133.881 104.101 -10.3864 101.303 145.686 -92.0913 155.397 137.276 -100.714 138.301 116.629 17.3638 150.363 126.126 14.3605 125.062 152.714 3.77886 14.2486 113.33 25.8238 
147.126 172.391 175.62 148.982 146.417 133.306 176.384 172.099 81.3031 75.5457 133.378 104.912 -11.0492 99.1874 147.232 -91.956 153.891 140.903 -101.17 138.953 116.967 16.0983 151.167 127.177 12.9785 124.572 153.169 3.63249 13.9859 113.391 26.2198 
146.34 172.891 175.98 149.247 145.817 131.8 176.563 172.428 81.0203 74.4735 133.291 107.04 -11.5562 96.4961 149.615 -91.4573 151.561 145.499 -101.486 139.833 118.308 14.485 152.22 129.267 11.3576 123.982 154.618 3.72607 13.6391 112.645 26.5348 
146.208 173.07 176.087 149.28 145.129 131.157 176.631 172.563 81.0202 73.9173 133.446 108.101 -11.7522 95.4709 150.263 -91.0649 150.263 147.378 -101.332 140.552 118.955 13.7017 153.116 130.382 10.4921 123.872 155.362 3.8781 13.4199 111.874 26.4208 
146.268 173.501 176.476 149.203 144.194 130.841 176.731 172.942 81.1761 73.216 133.352 108.923 -11.9089 94.6254 150.637 -90.7227 148.985 148.909 -101.041 140.91 119.499 13.2136 153.642 131.5 9.8019 123.582 155.991 4.06358 13.3269 111.316 26.1762 
146.257 174.179 176.475 149.069 143.472 130.594 176.877 173.01 81.1293 72.0074 132.919 109.398 -12.1595 93.7765 150.848 -90.4351 148.094 150.179 -100.775 141.109 119.887 12.7086 154.024 132.594 9.03486 123.228 156.352 4.17561 13.3638 110.913 26.216 
146.17 174.878 176.22 148.813 142.555 130.364 177.042 173.307 80.9775 70.4391 132.344 109.578 -12.4077 92.9039 150.809 -90.2245 147.249 151.457 -100.873 140.998 120.048 12.2344 154.195 133.543 8.21804 122.774 156.436 4.21491 13.4831 110.966 26.1893 
145.991 175.215 175.736 148.538 141.745 130.067 177.086 173.699 80.7433 68.7171 131.76 109.57 -12.4798 91.9177 150.636 -89.9789 146.259 152.607 -101.119 140.785 120.112 11.7981 154.255 134.441 7.4002 122.269 156.393 4.24082 13.6878 111.213 26.1468 
145.752 175.42 175.273 148.311 141.008 129.738 177.077 174.025 80.4807 66.8971 131.226 109.464 -12.3799 90.8324 150.247 -89.629 145.12 153.488 -101.348 140.601 120.13 11.463 154.315 135.354 6.58799 121.723 156.255 4.29496 13.979 111.523 26.1179 
