158.983 175.092 165.324 136.257 144.356 146.3 170.907 166.223 91.1811 93.5273 -68.2243 131.304 78.6851 -118.653 144.766 -7.07131 -64.6089 162.899 -8.08364 -73.2402 138.587 97.9096 -66.2001 149.421 98.8323 -98.936 180.296 91.282 13.1979 95.3565 25.6566 
158.989 175.123 165.677 136.001 144.224 146.416 170.801 166.33 91.3128 93.5737 -68.4647 131.121 78.6938 -118.849 144.785 -7.04152 -64.7157 162.848 -8.03464 -73.3648 138.251 97.6328 -66.3362 149.128 98.6727 -99.1067 180.181 91.3589 13.1574 94.9506 25.685 
158.931 175.096 165.921 135.963 144.288 146.414 170.689 166.384 91.4746 93.6941 -68.6986 131.027 78.8191 -119.145 144.805 -6.9052 -65.1166 162.813 -7.96397 -73.5814 137.979 97.4231 -66.5611 148.896 98.5451 -99.349 180.119 91.4661 13.1193 94.6174 25.6012 
158.897 175.112 166.202 136.298 144.443 146.441 170.686 166.517 91.5118 93.7099 -68.9761 130.856 79.0581 -119.389 144.678 -6.75924 -65.4914 162.631 -7.848 -73.9116 137.877 97.6453 -66.8751 148.784 98.6952 -99.5876 180.083 91.6099 13.1635 94.6542 25.484 
158.81 175.078 166.443 136.78 144.753 146.358 170.627 166.566 91.5267 93.6548 -69.1005 130.812 79.2136 -119.747 144.633 -6.66294 -65.953 162.688 -7.80184 -74.1973 137.93 97.8496 -67.1553 148.868 98.8394 -99.8382 180.074 91.7222 13.1767 94.7796 25.4266 
158.708 175.064 166.632 137.209 144.963 146.31 170.546 166.466 91.5834 93.5772 -69.2631 130.795 79.432 -120.094 144.59 -6.51077 -66.3078 162.43 -7.53459 -74.5246 138.001 98.2363 -67.4928 148.977 99.1507 -100.13 180.057 91.8832 13.1964 94.7917 25.3975 
158.66 175.088 166.874 137.945 145.288 146.307 170.587 166.611 91.4413 93.4426 -69.5736 130.529 79.5837 -120.549 144.443 -6.51511 -66.7083 162.092 -7.44212 -75.083 137.936 98.6823 -68.0105 148.807 99.4501 -100.406 179.93 91.9595 13.3037 95.1367 25.3701 
158.598 175.135 166.997 138.288 145.38 146.283 170.687 166.731 91.3172 93.42 -69.887 130.279 79.9824 -120.823 144.107 -6.29958 -66.978 161.701 -7.2417 -75.6101 137.869 99.1709 -68.4838 148.643 99.8019 -100.693 179.803 92.0873 13.3848 95.4954 25.3663 
158.574 175.182 167.335 138.925 145.614 146.354 170.805 167.025 91.2157 93.3027 -70.352 130.102 80.2952 -121.205 143.999 -6.13818 -67.4003 161.578 -7.19139 -76.298 137.925 99.8691 -69.1376 148.608 100.287 -101.047 179.793 92.2851 13.5414 96.1299 25.2825 
158.552 175.219 167.679 139.388 145.732 146.378 170.898 167.293 91.0555 93.1588 -70.7807 129.904 80.5743 -121.468 143.791 -5.99733 -67.7519 161.432 -7.19295 -76.9549 137.985 100.462 -69.709 148.58 100.715 -101.366 179.738 92.4158 13.6256 96.7603 25.1954 
158.509 175.228 167.706 139.652 145.753 146.412 170.958 167.237 90.7861 92.9447 -71.1346 129.597 80.6799 -121.508 143.481 -6.00688 -67.8191 160.896 -7.04145 -77.5851 137.916 100.811 -70.2351 148.386 100.97 -101.579 179.563 92.4063 13.6954 97.0613 25.1224 
158.451 175.22 167.762 139.819 145.676 146.446 170.968 167.167 90.5081 92.6217 -71.4334 129.41 80.7647 -121.551 143.325 -5.96615 -68.0902 160.445 -6.85358 -78.1434 137.969 101.17 -70.7287 148.364 101.239 -101.85 179.415 92.4399 13.7624 97.3259 24.9253 
158.426 175.206 168.043 140.285 145.66 146.389 171.063 167.438 90.1486 92.1829 -71.7944 129.286 80.862 -122.092 143.328 -5.94016 -68.9892 160.43 -7.05183 -78.7973 138.257 101.659 -71.279 148.554 101.53 -102.206 179.388 92.4989 13.8552 98.0816 24.6488 
158.441 175.224 168.651 140.893 145.764 146.395 171.277 168.05 89.7446 91.6955 -72.3051 129.135 80.9531 -123.132 143.441 -5.9288 -70.2909 160.684 -7.57788 -79.5875 138.524 102.136 -71.9112 148.717 101.789 -102.662 179.357 92.6281 13.915 99.0976 24.4065 
158.878 175.168 169.293 140.759 145.054 146.637 171.175 168.641 91.9128 92.4919 -73.2472 128.206 81.683 -124.205 142.416 -5.34415 -71.2473 160.861 -8.37596 -80.0151 136.212 101.861 -72.2007 147.135 101.575 -102.91 179.026 92.6858 13.5507 99.0042 24.6632 
158.93 175.065 169.697 141.04 145.445 146.769 171.144 168.872 92.4208 92.8807 -73.453 128.481 81.5691 -125.643 143.171 -5.52739 -72.4513 161.902 -8.86436 -80.3524 136.233 102.01 -72.5371 147.194 101.677 -103.487 179.166 92.913 13.4543 99.3858 24.7766 
159.235 174.939 169.961 141.154 144.979 146.92 171.16 169.014 93.7361 93.0597 -74.1286 128.023 82.1102 -126.96 142.942 -5.28932 -73.4321 162.202 -9.51817 -80.636 134.844 101.843 -72.8055 146.343 101.506 -103.832 178.989 93.0517 13.307 99.2996 25.0524 
159.364 174.695 170.074 141.281 144.688 147.059 171.174 169.16 94.6947 93.177 -74.7251 127.546 82.6514 -128.158 142.654 -5.19074 -74.3271 162.528 -10.2302 -80.8664 133.634 101.65 -73.0117 145.512 101.306 -104.167 178.743 93.1759 13.2098 99.3217 25.3108 
159.483 174.382 170.335 141.074 144.333 147.344 170.724 169.389 95.2816 93.2973 -75.7617 126.729 83.1295 -129.532 141.563 -4.72434 -75.2532 162.127 -10.6622 -81.5618 131.79 100.684 -73.5321 143.941 100.724 -104.773 178.048 93.2711 12.8946 98.4896 25.7823 
159.416 174.154 170.534 140.717 144.106 147.433 170.342 169.538 95.368 93.2751 -76.2133 126.415 83.2942 -129.86 141.02 -4.2844 -75.3731 161.803 -10.6548 -81.7378 130.88 99.8348 -73.6919 143.107 100.194 -104.87 177.748 93.2663 12.8087 97.6584 26.0698 
159.429 173.988 170.717 140.417 143.988 147.498 170.038 169.77 95.5003 93.3378 -76.6352 126.188 83.3914 -130.537 140.746 -3.92803 -75.7544 161.892 -10.6654 -82.0447 130.147 99.1623 -74.007 142.377 99.7815 -105.17 177.492 93.3297 12.752 97.0825 26.435 
159.488 173.838 170.819 140.337 144.071 147.56 169.801 169.825 95.5071 93.2484 -76.9416 126.037 83.3988 -130.956 140.561 -3.64426 -75.9028 161.774 -10.4937 -82.2736 129.643 98.8147 -74.3068 141.843 99.5562 -105.421 177.238 93.3437 12.8006 96.7273 26.7179 
159.492 173.749 170.856 140.317 144.202 147.493 169.581 169.907 95.4001 93.0824 -77.1873 125.996 83.6499 -131.593 140.577 -3.26288 -76.5842 161.87 -10.3036 -82.6006 129.382 98.656 -74.7021 141.517 99.4642 -105.762 177.093 93.4508 12.8736 96.6207 26.8338 
159.427 173.632 170.727 140.105 144.272 147.374 169.325 169.876 95.3185 93.0764 -77.4518 126.1 83.9244 -132.127 140.599 -2.80429 -77.103 161.967 -9.9504 -82.8695 129.17 98.2905 -75.045 141.237 99.2859 -106.108 177.053 93.5303 12.8765 96.2434 27.0299 
159.374 173.577 170.64 139.973 144.418 147.286 169.101 169.875 95.0454 92.8862 -77.789 126.074 84.1728 -132.573 140.425 -2.33684 -77.4324 161.837 -9.56006 -83.222 129.028 98.2044 -75.4631 140.96 99.2994 -106.395 176.942 93.6082 12.9553 96.1056 27.2743 
159.297 173.528 170.39 139.959 144.531 147.112 168.959 169.954 94.4149 92.3677 -78.2012 125.985 84.3975 -133.205 140.154 -1.94123 -78.0699 161.776 -9.4352 -83.695 129.062 98.1803 -75.9747 140.806 99.3096 -106.686 176.825 93.6136 13.0933 96.325 27.479 
159.22 173.501 170.251 140.018 144.76 147.021 168.694 169.955 93.7857 92.0023 -78.5452 125.812 84.3786 -133.562 139.715 -1.63763 -78.2454 161.484 -9.22936 -84.1454 128.994 98.0089 -76.4152 140.5 99.2464 -106.874 176.611 93.5295 13.166 96.3169 27.7804 
159.108 173.416 169.888 140.281 145.128 146.926 168.212 169.74 93.2674 91.7311 -78.8681 125.847 84.3215 -134.06 139.419 -1.1871 -78.6817 161.418 -8.94148 -84.62 129.032 97.8396 -76.8437 140.358 99.2288 -107.118 176.505 93.5554 13.1377 96.2521 28.0426 
159.014 173.347 169.606 140.447 145.411 146.853 167.766 169.699 92.781 91.5361 -79.1889 125.877 84.255 -134.617 139.11 -0.78463 -79.0801 161.478 -8.7444 -85.0929 129.081 97.6188 -77.2605 140.223 99.1666 -107.337 176.446 93.5559 13.1087 96.2234 28.4072 
158.95 173.354 169.467 140.772 145.724 146.808 167.563 169.845 92.4082 91.355 -79.5705 125.871 84.1189 -135.526 138.959 -0.535542 -79.7726 161.868 -8.8608 -85.5682 129.138 97.5005 -77.6851 140.129 99.118 -107.622 176.402 93.5787 13.0977 96.5031 28.7968 
158.905 173.381 169.412 141.15 146.02 146.826 167.495 170.016 92.0645 91.2185 -79.9301 125.988 84.0115 -136.575 139.065 -0.327577 -80.6565 162.412 -8.97328 -86.0784 129.336 97.5194 -78.111 140.18 99.1819 -107.943 176.464 93.7182 13.0538 96.8389 29.0754 
158.891 173.373 169.387 141.569 146.241 146.896 167.498 170.103 91.9573 91.1423 -80.2562 125.997 83.9113 -137.654 139.131 -0.138709 -81.4904 162.787 -9.03628 -86.412 129.433 97.6496 -78.3853 140.25 99.3091 -108.237 176.476 93.8594 12.9874 97.1382 29.3518 
158.894 173.515 169.475 141.961 146.364 146.971 167.708 170.237 91.97 91.1038 -80.5618 125.948 83.8133 -138.811 139.303 -0.0435514 -82.2096 163.224 -9.15432 -86.6002 129.572 97.9228 -78.5352 140.405 99.5082 -108.498 176.498 94.0302 12.9407 97.5301 29.6852 
158.874 173.616 169.377 142.252 146.488 147.072 167.951 170.197 92.0104 91.1637 -80.8821 125.72 83.6973 -139.836 139.309 -0.0592089 -82.5312 163.309 -9.2438 -86.6621 129.493 98.018 -78.5852 140.343 99.6375 -108.669 176.387 94.1023 12.8536 97.6781 30.1182 
158.825 173.935 169.489 142.498 146.552 147.343 168.413 170.385 92.3028 91.427 -81.6087 125.625 83.7528 -141.364 139.154 0.069623 -83.1091 163.686 -9.26108 -86.883 129.457 98.4709 -78.8173 140.369 100.12 -109.232 176.355 94.4773 12.7134 97.9148 30.7528 
158.957 174.113 169.525 142.382 146.479 147.623 168.702 170.232 92.8039 91.9129 -81.8672 125.572 83.6035 -141.905 139.189 -0.0433483 -82.8992 163.803 -9.24398 -86.6874 129.459 98.6438 -78.6598 140.482 100.348 -109.355 176.423 94.6122 12.5789 97.7766 31.1319 
159.147 174.228 169.613 142.497 146.524 147.909 168.852 170.042 93.1994 92.266 -82.1455 125.344 83.4244 -142.301 139.226 -0.116116 -82.8056 163.583 -9.1111 -86.6875 129.369 98.8885 -78.6496 140.474 100.571 -109.454 176.387 94.7322 12.4984 97.6244 31.2859 
159.29 174.332 169.715 142.466 146.436 148.163 168.943 169.885 93.6648 92.6468 -82.3683 125.168 83.2733 -142.479 139.148 -0.0526419 -82.614 163.376 -8.86158 -86.6199 129.199 99.0167 -78.5881 140.425 100.697 -109.547 176.337 94.8714 12.4243 97.2973 31.4509 
159.455 174.353 169.664 142.364 146.428 148.377 168.964 169.608 94.0586 93.0252 -82.5349 124.94 83.1431 -142.461 139.001 -0.00472546 -82.2367 163.008 -8.54032 -86.4908 128.956 99.0109 -78.4927 140.283 100.776 -109.576 176.219 94.9766 12.3419 96.8069 31.6001 
159.606 174.334 169.551 142.475 146.528 148.583 168.884 169.25 94.4959 93.3854 -82.6996 124.785 83.013 -142.433 138.885 0.0297527 -81.8843 162.542 -8.20308 -86.4943 128.715 99.0814 -78.5015 140.131 100.906 -109.633 176.144 95.0678 12.258 96.2961 31.6888 
159.746 174.356 169.513 142.557 146.544 148.784 168.901 168.999 94.9101 93.7087 -82.8456 124.658 82.9474 -142.457 138.836 0.13274 -81.683 162.242 -7.88906 -86.4715 128.524 99.1725 -78.4883 140.07 100.999 -109.714 176.094 95.2237 12.2102 95.8729 31.7494 
159.876 174.385 169.559 142.763 146.641 148.938 169.006 168.792 95.2406 93.9106 -83.1298 124.493 82.9103 -142.404 138.953 0.187134 -81.6179 161.835 -7.61496 -86.5707 128.406 99.4307 -78.5783 140.05 101.166 -109.825 176.076 95.3727 12.213 95.6003 31.5932 
160.006 174.418 169.598 142.876 146.736 149.064 169.072 168.687 95.6309 94.1754 -83.3392 124.347 82.9557 -142.426 138.98 0.218531 -81.4903 161.546 -7.42319 -86.6643 128.242 99.636 -78.6725 139.989 101.341 -109.941 176.06 95.5186 12.1856 95.3487 31.5628 
160.212 174.461 169.737 143.038 146.903 149.254 169.191 168.696 95.916 94.4323 -83.8571 124.08 82.9782 -142.249 139.041 0.146973 -81.2932 161.026 -7.23266 -86.939 127.972 99.8182 -78.9448 139.735 101.538 -110.095 176.03 95.6639 12.1832 95.0051 31.3401 
160.415 174.487 169.778 143.163 147.064 149.425 169.213 168.692 96.1962 94.6469 -84.4258 123.802 83.0337 -142.026 138.976 0.221795 -81.1056 160.423 -6.9516 -87.2582 127.63 99.9723 -79.2573 139.416 101.704 -110.263 175.982 95.7932 12.1924 94.6224 31.1563 
160.587 174.593 169.856 143.463 147.317 149.56 169.315 168.772 96.0823 94.5353 -85.0573 123.431 82.9448 -141.77 138.795 0.223436 -81.0072 159.798 -6.81996 -87.7524 127.497 100.317 -79.7103 139.201 101.922 -110.417 175.88 95.8512 12.3099 94.6215 30.897 
160.777 174.723 169.974 143.745 147.575 149.683 169.472 168.963 95.7865 94.2351 -85.7337 122.946 82.8317 -141.693 138.589 0.229 -81.1593 159.282 -6.9015 -88.3572 127.481 100.741 -80.225 139.075 102.151 -110.573 175.763 95.8496 12.4459 94.9635 30.6344 
160.935 174.788 170.029 144.008 147.898 149.767 169.525 169.051 95.6045 94.0691 -86.329 122.535 82.6436 -141.811 138.521 0.221327 -81.435 158.867 -7.01655 -88.8972 127.298 100.868 -80.696 138.813 102.208 -110.758 175.589 95.8367 12.5082 95.089 30.4256 
161.007 174.803 170.038 144.296 148.193 149.766 169.554 169.091 95.366 93.8781 -86.929 122.29 82.4317 -142.081 138.723 0.138414 -82.03 158.611 -7.24862 -89.5684 127.169 100.996 -81.2863 138.534 102.231 -110.985 175.467 95.8409 12.6055 95.3145 30.0537 
160.894 174.686 170.02 144.278 148.311 149.626 169.304 168.978 95.0954 93.7821 -87.4731 122.181 82.2942 -142.666 139.202 0.276396 -82.9999 158.623 -7.38337 -90.2323 127.008 100.773 -81.8809 138.24 102.032 -111.242 175.344 95.8899 12.6528 95.3725 29.7515 
160.654 174.602 170.119 144.612 148.698 149.402 169.073 169.117 94.8489 93.5916 -88.3896 121.943 82.0554 -143.473 139.487 0.407678 -84.0938 158.662 -7.55044 -91.196 126.694 100.899 -82.7425 137.769 102.111 -111.697 174.999 95.9789 12.6924 95.8644 29.5526 
160.433 174.556 170.173 144.624 148.772 149.177 168.993 169.338 94.5709 93.4576 -88.6538 121.93 81.991 -143.988 139.757 0.425026 -84.6671 159.072 -7.78881 -91.5588 126.579 100.826 -83.0703 137.503 102.073 -111.799 174.82 95.9892 12.7139 96.3281 29.5896 
160.233 174.521 170.181 144.64 148.91 149.007 168.932 169.486 94.4459 93.5107 -89.0245 121.924 82.0357 -144.369 139.985 0.589483 -84.9823 159.373 -7.74601 -91.9978 126.423 100.86 -83.4797 137.204 102.165 -111.983 174.681 96.1018 12.719 96.6143 29.7098 
160.034 174.426 170.057 144.356 148.835 148.81 168.842 169.366 94.4762 93.6851 -89.2623 122.057 82.2791 -144.485 140.211 0.902397 -85.1951 159.425 -7.33866 -92.2649 126.279 100.856 -83.756 136.986 102.286 -112.182 174.633 96.2841 12.6735 96.4943 29.7074 
159.874 174.204 169.794 144.147 148.803 148.691 168.533 169.028 94.5478 93.8511 -89.3921 122.314 82.5208 -144.834 140.607 1.26596 -85.5101 159.659 -6.88409 -92.4749 126.28 100.833 -83.9936 136.957 102.409 -112.423 174.696 96.5044 12.6106 96.2982 29.8031 
159.732 173.964 169.511 143.811 148.7 148.624 168.179 168.591 94.8003 94.1498 -89.2542 122.666 82.8577 -144.958 140.794 1.69781 -85.5119 159.792 -6.26125 -92.4047 126.336 100.795 -83.999 137.087 102.553 -112.648 174.815 96.7663 12.5053 95.8172 29.9704 
159.675 173.769 169.363 143.828 148.62 148.599 167.94 168.343 95.0206 94.3948 -89.1493 122.85 83.1132 -145.097 140.973 1.98412 -85.6522 159.94 -5.88676 -92.4057 126.354 100.969 -83.9571 137.109 102.743 -112.809 174.859 96.9849 12.3917 95.713 30.0182 
159.673 173.608 169.279 143.679 148.453 148.63 167.877 168.13 95.3244 94.6321 -89.1113 122.987 83.4948 -145.229 141.256 2.24958 -85.8824 160.024 -5.48568 -92.3694 126.44 101.238 -83.9091 137.285 102.979 -113.014 174.98 97.2473 12.3137 95.5822 29.9463 
159.768 173.526 169.266 143.579 148.294 148.749 167.911 168.068 95.5956 94.8737 -89.1197 122.972 83.81 -145.316 141.467 2.3711 -85.8996 160.228 -5.25486 -92.2387 126.415 101.423 -83.7535 137.324 103.174 -113.136 175.04 97.4898 12.2106 95.5121 29.9776 
159.825 173.499 169.268 143.364 148.078 148.85 167.98 167.958 95.8562 95.0248 -88.9143 122.979 84.0384 -145.328 141.666 2.41987 -85.7882 160.48 -5.07761 -91.9025 126.453 101.514 -83.4456 137.502 103.274 -113.154 175.084 97.6558 12.1407 95.4312 30.0685 
159.921 173.588 169.378 143.275 147.913 148.988 168.095 168.013 96.0245 95.0457 -88.8172 122.912 84.2173 -145.313 141.672 2.39212 -85.6217 160.495 -5.01542 -91.7225 126.406 101.694 -83.2371 137.552 103.415 -113.141 175.067 97.7912 12.0895 95.4294 30.1221 
160.027 173.682 169.487 143.139 147.689 149.077 168.246 168.084 96.3446 95.1772 -88.6397 122.869 84.3984 -145.358 141.666 2.33358 -85.46 160.555 -4.99363 -91.4384 126.259 101.825 -82.9382 137.522 103.515 -113.123 175.019 97.9057 12.0146 95.3966 30.2251 
160.07 173.787 169.624 143.002 147.446 149.052 168.417 168.2 96.4776 95.1156 -88.5509 122.751 84.5457 -145.331 141.7 2.25574 -85.4005 160.566 -5.02377 -91.2585 126.192 102.036 -82.7273 137.541 103.632 -113.069 174.941 97.9735 11.9986 95.5597 30.2084 
160.11 173.875 169.763 142.865 147.23 149.05 168.556 168.278 96.594 95.0299 -88.3852 122.71 84.7643 -145.342 141.751 2.23795 -85.4314 160.569 -5.02859 -91.1085 126.212 102.322 -82.5619 137.663 103.803 -113.039 174.912 98.0915 12.0052 95.7296 30.1445 
160.147 173.998 169.839 142.728 147.015 149.029 168.772 168.359 96.765 95.0552 -88.1524 122.593 84.9761 -145.289 141.795 2.13105 -85.2777 160.441 -5.04395 -90.8981 125.988 102.405 -82.328 137.512 103.858 -112.928 174.791 98.1853 11.9796 95.6672 30.1181 
160.191 174.126 169.815 142.601 146.881 149.015 168.958 168.322 96.9404 95.0838 -88.0259 122.509 85.107 -145.263 141.873 2.07523 -85.1168 160.258 -4.97854 -90.7025 125.762 102.431 -82.1342 137.365 103.891 -112.811 174.7 98.2679 11.96 95.5045 30.1219 
160.176 174.275 169.736 142.403 146.783 148.901 169.185 168.228 96.9776 95.0263 -88.038 122.353 85.2835 -144.998 141.802 2.06222 -84.712 159.743 -4.80887 -90.4999 125.498 102.471 -81.9583 137.159 103.956 -112.631 174.548 98.3528 11.982 95.2252 30.0985 
160.131 174.366 169.646 142.215 146.692 148.765 169.332 168.077 96.9486 94.9674 -87.8525 122.274 85.4383 -144.694 141.68 2.08418 -84.3071 159.256 -4.60183 -90.228 125.302 102.441 -81.7035 136.995 103.948 -112.414 174.398 98.4 11.994 94.9264 30.0928 
160.118 174.466 169.596 141.849 146.527 148.675 169.452 167.991 96.9407 94.9316 -87.4174 122.207 85.6053 -144.197 141.37 2.13434 -83.7134 158.933 -4.36051 -89.7071 125.101 102.268 -81.2495 136.894 103.864 -112.139 174.204 98.4415 11.9831 94.5583 30.1794 
160.098 174.556 169.519 141.665 146.462 148.571 169.57 167.918 96.8334 94.8436 -87.1051 122.087 85.7151 -143.655 141.022 2.15266 -83.1839 158.498 -4.20493 -89.3267 124.939 102.211 -80.9053 136.762 103.829 -111.873 174.007 98.4552 12.0072 94.3181 30.1522 
160.073 174.598 169.438 141.534 146.396 148.424 169.646 167.833 96.6508 94.6869 -86.8196 122.011 85.8976 -143.182 140.741 2.19646 -82.7842 158.066 -4.03937 -89.0641 124.842 102.255 -80.6517 136.664 103.881 -111.643 173.843 98.4963 12.026 94.1781 30.0694 
160.031 174.581 169.253 141.37 146.277 148.276 169.609 167.635 96.4724 94.5528 -86.4716 121.997 86.1127 -142.742 140.423 2.34119 -82.3421 157.711 -3.76819 -88.7423 124.785 102.266 -80.3587 136.627 103.907 -111.431 173.694 98.5512 12.0497 93.9931 30.1034 
160 174.613 169.13 141.244 146.214 148.123 169.651 167.644 96.3783 94.5049 -86.1195 121.918 86.3897 -142.558 140.152 2.38774 -82.0346 157.55 -3.70014 -88.4548 124.597 102.169 -80.0795 136.448 103.875 -111.237 173.522 98.5913 12.0299 93.8775 30.2143 
160.012 174.636 169.045 141.23 146.189 148.063 169.62 167.672 96.3335 94.4726 -85.8105 121.838 86.5853 -142.569 139.887 2.49233 -81.9214 157.546 -3.71842 -88.2107 124.434 102.142 -79.8411 136.302 103.882 -111.069 173.376 98.6633 12.0108 93.9011 30.3481 
160.062 174.734 169.016 141.235 146.205 148.067 169.692 167.711 96.358 94.4514 -85.5703 121.814 86.6472 -142.436 139.481 2.59757 -81.6587 157.423 -3.65656 -87.9417 124.362 102.238 -79.6048 136.281 103.957 -110.94 173.269 98.7155 12.0179 93.8901 30.4853 
160.149 174.909 169.035 141.157 146.136 148.042 169.878 167.876 96.2989 94.3232 -85.2784 121.705 86.8131 -142.205 138.746 2.76503 -81.3233 157.104 -3.56722 -87.6874 124.245 102.537 -79.3817 136.195 104.173 -110.804 173.052 98.8184 12.0667 93.9989 30.6095 
160.206 174.918 168.986 141.022 146.063 148.054 169.975 167.916 96.3727 94.3607 -85.1183 121.665 87.0619 -142.044 138.345 3.05607 -81.2602 156.983 -3.33306 -87.5328 124.196 102.738 -79.2685 136.205 104.353 -110.772 173 98.9948 12.0822 93.9505 30.6211 
160.262 174.858 168.98 140.88 145.929 148.092 169.913 167.901 96.4952 94.4752 -84.9767 121.587 87.1575 -142.107 138.198 3.21233 -81.3481 157.059 -3.20648 -87.4094 124.113 102.794 -79.1588 136.161 104.409 -110.775 172.907 99.1172 12.0561 93.944 30.6697 
160.272 174.835 169.141 140.818 145.873 148.084 169.878 168.058 96.6778 94.6827 -84.7727 121.55 87.266 -142.296 138.081 3.38707 -81.5169 157.408 -3.21722 -87.3382 124.034 102.865 -79.096 136.096 104.496 -110.82 172.823 99.2682 12.0051 94.0845 30.7805 
160.277 174.754 169.213 140.845 145.792 148.096 169.836 168.049 96.8042 94.8045 -84.5923 121.42 87.405 -142.198 137.923 3.53396 -81.6216 157.379 -3.04639 -87.3347 123.978 103.125 -79.0768 136.046 104.698 -110.862 172.694 99.4293 11.9865 94.1704 30.6696 
160.372 174.74 169.458 141.03 145.782 148.204 169.876 168.289 96.93 94.809 -84.7391 121.201 87.5393 -142.235 137.656 3.67291 -81.9114 157.318 -2.98009 -87.6234 123.96 103.726 -79.318 135.991 105.136 -111.006 172.627 99.6339 12.0253 94.5532 30.4871 
160.451 174.63 169.699 141.322 145.845 148.325 169.724 168.442 97.0651 94.8239 -84.8436 121.021 87.6583 -142.628 137.566 3.8712 -82.5294 157.474 -2.93395 -88.0807 123.98 104.362 -79.6748 135.961 105.618 -111.232 172.553 99.8756 12.008 95.0907 30.3587 
160.543 174.674 170.094 141.437 145.784 148.47 169.82 168.854 97.2622 94.859 -85.0504 120.819 87.8184 -143.089 137.285 4.10029 -83.2626 157.682 -2.97533 -88.5612 124.045 105.11 -80.0526 136.008 106.182 -111.537 172.493 100.156 11.981 95.7397 30.2308 
160.57 174.634 170.426 141.379 145.638 148.582 169.748 169.14 97.4534 94.9442 -85.4773 120.779 87.9462 -143.822 137.323 4.46514 -84.2597 158.127 -2.91551 -89.1114 124.217 105.689 -80.5248 136.181 106.66 -111.991 172.554 100.462 11.9142 96.2823 30.1623 
160.561 174.55 170.709 141.39 145.563 148.66 169.644 169.406 97.7232 95.1451 -86.0958 120.658 88.2433 -144.66 137.508 4.9185 -85.4653 158.557 -2.75974 -89.6975 124.303 106.265 -81.0531 136.273 107.168 -112.518 172.639 100.851 11.8393 96.7357 30.0146 
160.517 174.467 170.939 141.253 145.406 148.704 169.546 169.583 97.9272 95.2205 -86.8393 120.518 88.4625 -145.636 137.611 5.43454 -86.7288 158.676 -2.55151 -90.3146 124.33 106.744 -81.6088 136.333 107.594 -113.077 172.66 101.201 11.7539 97.0095 29.8885 
160.464 174.343 171.109 141.021 145.282 148.797 169.338 169.684 98.1626 95.4119 -87.8393 120.452 88.4991 -146.772 137.883 5.98304 -87.9508 159.069 -2.29973 -90.885 124.316 106.864 -82.1825 136.377 107.829 -113.719 172.731 101.597 11.6323 96.9601 29.9232 
160.415 174.216 171.235 140.783 145.09 148.873 169.196 169.72 98.335 95.5006 -88.6524 120.457 88.6689 -147.727 138.165 6.51802 -89.0546 159.327 -1.93465 -91.3872 124.422 107.037 -82.7025 136.601 108.08 -114.344 172.85 102.007 11.5383 96.8411 29.8756 
160.381 174.088 171.196 140.535 144.885 148.975 169.072 169.576 98.4194 95.6053 -89.3276 120.438 88.9491 -148.601 138.533 7.00908 -90.1235 159.557 -1.50726 -91.8021 124.491 107.062 -83.1461 136.771 108.26 -114.975 172.924 102.458 11.4136 96.5418 29.7529 
160.312 173.988 171.013 140.206 144.632 149.035 168.997 169.383 98.47 95.6827 -89.9523 120.489 89.4036 -149.404 138.629 7.55101 -91.1106 159.694 -1.04497 -92.1017 124.591 107.037 -83.4869 137.009 108.416 -115.624 173.043 102.928 11.2723 96.103 29.6712 
