148.025 175.675 175.011 151.817 150.282 131.654 171.903 171.825 81.9138 83.348 107.741 124.63 49.9711 88.2185 137.272 -37.668 129.991 146.425 -36.4295 100.803 133.65 70.7469 108.48 144.244 69.9292 77.562 164.245 53.3808 14.4799 104.326 16.0521 
148.198 175.987 175.494 151.871 149.942 131.463 172.099 171.956 82.014 83.3356 107.812 125.239 50.0109 87.9716 137.531 -37.8043 129.866 147.132 -36.8145 100.873 134.295 70.7355 108.579 144.955 69.7464 77.3175 164.621 53.2255 14.474 104.538 16.1397 
148.269 176.221 175.834 152.077 149.832 131.317 172.493 171.981 81.7058 82.5869 107.706 125.876 49.9028 87.5716 137.923 -38.0375 129.389 148.104 -37.4493 100.855 135 70.6394 108.59 145.753 69.5108 77.1001 164.952 53.0113 14.5809 105.11 16.0201 
148.259 176.368 176 152.318 149.84 131.21 172.816 172.002 81.3784 81.9018 107.441 126.447 49.6408 87.1016 138.396 -38.2955 128.846 149.068 -38.0259 100.663 135.595 70.5177 108.485 146.382 69.2568 76.8703 165.264 52.8056 14.7119 105.741 15.9107 
148.325 176.389 176.017 152.524 149.89 131.136 173.071 171.878 81.1437 81.3756 107.087 126.855 49.332 86.5696 138.681 -38.4582 128.068 149.769 -38.5656 100.503 136.082 70.3602 108.363 146.918 68.9703 76.6187 165.522 52.6126 14.8214 106.24 15.7062 
148.355 176.271 175.914 152.694 149.873 131.195 173.204 171.678 81.0558 81.0553 106.529 127.099 48.957 86.0145 138.745 -38.5044 127.222 150.176 -38.9433 100.328 136.444 70.2588 108.28 147.338 68.6902 76.3213 165.759 52.4769 14.9173 106.547 15.5006 
148.167 176.148 175.849 152.755 149.842 131.302 173.132 171.416 81.0654 80.9756 105.646 126.993 48.4345 85.2924 138.573 -38.5293 126.211 150.056 -39.2574 99.9459 136.52 70.1103 107.973 147.383 68.3482 76 165.873 52.303 15.0769 106.763 15.2909 
147.996 176.126 175.571 152.868 149.809 131.132 172.763 171.089 81.2793 81.47 104.828 126.94 47.9547 84.6638 138.434 -38.5647 125.352 149.99 -39.5194 99.6678 136.72 70.0271 107.881 147.488 68.0837 75.8044 166.132 52.1493 15.0864 106.978 15.1953 
147.694 175.873 175.429 152.831 149.72 131.419 172.594 170.962 81.4097 81.5989 103.764 126.608 47.4105 84.117 138.332 -38.6378 124.667 149.623 -39.6274 99.1071 136.556 69.9415 107.466 147.233 67.8686 75.5267 166.233 51.9975 15.2032 107.073 15.0651 
147.438 175.549 175.268 152.753 149.722 131.704 172.483 170.906 81.5043 81.7188 102.913 126.34 46.9665 83.6745 138.303 -38.7669 124.198 149.303 -39.6853 98.5767 136.329 69.8083 107.019 146.923 67.7208 75.2693 166.292 51.8368 15.2575 107.074 15.0117 
147.323 175.219 175.153 152.714 149.749 131.885 172.359 170.958 81.5714 81.8535 102.354 126.25 46.686 83.3285 138.372 -38.9309 123.892 149.094 -39.726 98.0821 136.177 69.6831 106.608 146.675 67.6176 75.0476 166.383 51.6817 15.2736 107.077 15.0084 
147.093 174.876 175.03 152.586 149.768 132.055 172.253 171.073 81.6567 82.0175 101.709 126.188 46.2969 83.0756 138.576 -39.1621 123.674 148.936 -39.7531 97.5454 136.02 69.4799 106.152 146.422 67.4852 74.8372 166.527 51.4773 15.2621 107.015 14.995 
146.965 174.607 174.974 152.451 149.872 132.274 172.055 171.153 81.7174 82.1819 101.212 126.223 46.0075 82.8431 138.779 -39.3709 123.515 148.725 -39.7267 97.1327 135.896 69.2375 105.748 146.233 67.3622 74.6702 166.733 51.3098 15.2341 106.757 15.0261 
146.898 174.352 174.896 152.306 150.048 132.513 171.852 171.228 81.7783 82.3554 100.796 126.325 45.6348 82.8413 139.158 -39.6823 123.504 148.589 -39.7477 96.7671 135.839 68.9553 105.363 146.142 67.2702 74.5122 166.977 51.0996 15.1366 106.437 14.9994 
146.927 174.158 174.856 152.223 150.254 132.665 171.694 171.326 81.8031 82.4995 100.526 126.561 45.2582 82.8553 139.609 -40.0598 123.511 148.542 -39.8427 96.4168 135.896 68.6427 104.998 146.163 67.1531 74.3549 167.244 50.8282 15.015 106.189 14.9889 
147.089 173.96 174.899 152.077 150.524 132.832 171.569 171.612 81.8048 82.6157 100.355 126.907 44.7833 83.0111 140.041 -40.4503 123.521 148.444 -39.9252 96.0942 135.96 68.268 104.602 146.223 67.0536 74.2048 167.502 50.5098 14.8411 105.858 14.8892 
147.278 173.849 174.982 151.968 150.833 133.025 171.45 171.772 81.7354 82.6641 100.226 127.405 44.3508 83.1212 140.735 -40.8873 123.55 148.528 -39.9473 95.6932 136.174 67.8885 104.1 146.439 66.9939 74.0251 167.889 50.2216 14.6628 105.526 14.8715 
147.541 173.845 175.077 151.861 151.105 133.061 171.445 171.791 81.5985 82.5774 100.345 128.029 44.123 83.3389 141.442 -41.2642 123.712 148.839 -39.9722 95.4146 136.546 67.5181 103.699 146.854 66.9159 73.8533 168.312 49.9449 14.513 105.231 14.8667 
147.831 174.007 175.2 151.837 151.402 133.033 171.54 171.673 81.3796 82.3437 100.646 128.888 44.0055 83.5473 142.295 -41.5722 123.933 149.551 -40.0394 95.3089 137.206 67.2122 103.419 147.616 66.8653 73.6298 168.824 49.7307 14.3895 104.997 14.9111 
148.03 174.371 175.677 151.824 151.573 132.928 171.534 171.592 81.1918 82.1237 100.856 129.639 44.0659 83.424 142.742 -41.6626 123.932 150.332 -40.2717 95.2754 137.976 67.038 103.218 148.476 66.8229 73.364 169.357 49.6039 14.3291 104.937 14.9425 
147.974 174.725 176.104 151.714 151.535 132.733 171.416 171.489 81.083 81.9921 100.747 130.144 44.1572 82.9284 142.838 -41.6317 123.59 150.997 -40.6073 95.2308 138.629 66.836 103.044 149.198 66.6294 73.0491 169.83 49.4929 14.3379 104.941 14.9739 
147.86 175.041 176.51 151.491 151.122 132.6 171.232 171.27 81.055 81.9054 100.395 130.381 44.2228 82.0947 142.62 -41.4841 122.719 151.473 -41.0968 95.2815 139.189 66.5779 103.014 149.825 66.1802 72.649 170.255 49.4318 14.4614 104.839 14.8746 
147.466 175.257 176.879 151.242 150.506 132.582 171.064 170.985 81.2552 82.0251 99.532 130.046 44.1443 80.9388 141.849 -41.3259 121.387 151.211 -41.6059 95.0872 139.328 66.3205 102.851 149.98 65.5583 72.1892 170.457 49.302 14.665 104.72 14.7191 
146.961 175.511 177.239 150.977 149.972 132.52 170.895 170.743 81.532 82.2875 98.4983 129.467 44.0304 79.8234 141.08 -41.3257 120.063 150.605 -42.106 94.6219 139.144 65.9753 102.523 149.772 64.9296 71.7082 170.514 49.0645 14.7722 104.566 14.5416 
146.55 175.707 177.615 150.794 149.576 132.472 170.837 170.541 81.8707 82.6403 97.4278 128.972 43.9227 78.8272 140.505 -41.3482 118.811 149.962 -42.5145 94.0517 138.956 65.7618 102.168 149.534 64.4817 71.251 170.615 48.885 14.7899 104.438 14.3182 
146.165 175.872 178.026 150.881 149.488 132.119 170.777 170.336 82.217 83.2894 96.3892 128.537 43.7037 77.8268 139.975 -41.5938 117.693 149.322 -42.8731 93.3893 138.675 65.4624 101.776 149.155 64.1637 70.8664 170.63 48.5849 14.5781 104.376 14.2921 
145.977 175.813 178.227 150.713 149.418 132.264 170.72 170.273 82.587 83.6869 95.3861 128.085 43.4502 77.2315 139.885 -41.7983 116.986 148.8 -43.0491 92.617 138.19 65.2564 101.126 148.671 63.9835 70.4088 170.596 48.4371 14.4733 104.168 14.1659 
146.011 175.693 178.371 150.649 149.415 132.427 170.806 170.34 82.8701 83.9326 94.6648 127.922 43.1895 76.9065 140.247 -42.1242 116.664 148.755 -43.1764 91.931 137.917 65.1551 100.531 148.417 63.9586 69.9814 170.655 48.3606 14.3546 104.064 14.1317 
146.149 175.518 178.441 150.607 149.573 132.565 170.885 170.391 83.0535 84.0934 94.2385 127.905 42.901 76.7985 140.643 -42.4886 116.584 148.762 -43.2084 91.2515 137.649 65.026 99.8746 148.18 63.9882 69.5736 170.623 48.243 14.2195 103.976 14.1402 
146.472 175.355 178.312 150.742 149.864 132.676 170.957 170.379 83.1368 84.1126 94.2568 127.974 42.7657 77.0518 140.855 -42.7358 116.777 148.759 -43.1416 90.8207 137.586 65.0883 99.3529 148.213 64.1961 69.1715 170.46 48.1262 14.0902 104 14.1279 
146.908 175.245 178.068 150.917 150.169 132.841 170.904 170.282 83.2106 84.0847 94.3548 128.103 42.7386 77.3567 141.017 -42.7972 116.953 148.777 -42.9907 90.4951 137.661 65.2848 98.9438 148.402 64.4929 68.8157 170.371 48.0995 13.97 104.049 14.0607 
147.329 175.158 177.892 151.198 150.472 132.963 170.856 170.168 83.2361 84.0157 94.5739 128.25 42.7721 77.6305 140.993 -42.7852 117.144 148.732 -42.8301 90.296 137.862 65.5449 98.6673 148.699 64.7771 68.499 170.265 48.049 13.8837 104.17 14.0458 
147.836 175.115 177.737 151.537 150.81 133.058 170.804 170.064 83.1978 83.8633 94.9288 128.534 42.8104 77.9682 140.905 -42.6981 117.312 148.737 -42.7481 90.294 138.266 65.8505 98.5593 149.207 65.0499 68.2425 170.209 47.998 13.8308 104.339 13.9572 
148.259 175.131 177.618 151.844 151.113 133.127 170.746 169.961 83.1852 83.7311 95.2075 128.766 42.8591 78.1962 140.823 -42.6108 117.47 148.795 -42.6752 90.2644 138.628 66.1275 98.4386 149.664 65.2853 68.002 170.163 47.9484 13.7861 104.528 13.9318 
148.597 175.133 177.509 152.13 151.343 133.169 170.641 169.823 83.154 83.574 95.4556 129 42.9299 78.2163 140.63 -42.4761 117.436 148.804 -42.6464 90.2823 139.015 66.3617 98.3859 150.122 65.411 67.7994 170.148 47.9011 13.7915 104.716 13.9166 
148.867 175.171 177.414 152.343 151.461 133.207 170.484 169.686 83.0827 83.3549 95.6823 129.284 43.0032 78.1824 140.595 -42.3545 117.422 149.039 -42.6613 90.3876 139.45 66.5194 98.438 150.625 65.4354 67.6419 170.233 47.8885 13.8371 104.862 13.9379 
148.938 175.2 177.313 152.427 151.405 133.239 170.349 169.566 83.054 83.1672 95.6125 129.361 43.013 77.9375 140.389 -42.2055 117.19 149.137 -42.6873 90.4034 139.746 66.6513 98.4452 150.956 65.3932 67.4587 170.283 47.9006 13.9208 104.979 13.9459 
148.981 175.226 177.275 152.435 151.269 133.278 170.204 169.487 83.0074 83.0065 95.5429 129.406 43.0499 77.6287 140.124 -42.0463 116.847 149.102 -42.7388 90.3995 139.958 66.7207 98.4712 151.171 65.2933 67.3214 170.336 47.9206 14.0139 105.038 13.9134 
148.902 175.231 177.252 152.373 151.102 133.306 170.007 169.409 82.9788 82.9124 95.3448 129.386 43.0585 77.2964 139.892 -41.862 116.494 149.113 -42.7681 90.3325 140.082 66.7495 98.4594 151.273 65.1844 67.1965 170.407 47.9604 14.1047 105.074 13.8691 
148.721 175.265 177.247 152.22 150.838 133.301 169.844 169.347 82.944 82.8296 95.074 129.209 43.1345 76.8442 139.479 -41.656 116.042 149.036 -42.8215 90.272 140.078 66.7214 98.4427 151.248 65.024 67.0467 170.395 48.0089 14.206 105.065 13.8431 
148.5 175.356 177.217 152.041 150.557 133.231 169.718 169.263 82.9141 82.7481 94.8302 129.03 43.195 76.4584 139.111 -41.5212 115.62 148.997 -42.9156 90.2487 140.003 66.598 98.4378 151.166 64.7791 66.8943 170.341 48.0129 14.321 104.996 13.8025 
148.3 175.45 177.169 151.857 150.281 133.168 169.601 169.186 82.897 82.6951 94.597 128.843 43.3527 76.0905 138.711 -41.3296 115.237 148.944 -42.935 90.2581 139.911 66.5225 98.4417 151.081 64.5936 66.7406 170.279 48.0697 14.4314 104.897 13.792 
148.034 175.535 177.126 151.632 150 133.133 169.535 169.154 82.9051 82.7083 94.2453 128.534 43.4823 75.6356 138.236 -41.142 114.779 148.799 -42.9608 90.2223 139.7 66.4136 98.412 150.864 64.4089 66.5846 170.179 48.1234 14.5135 104.779 13.7941 
147.758 175.624 177.117 151.387 149.726 133.109 169.496 169.143 82.9356 82.7548 93.8234 128.254 43.6307 75.1554 137.869 -40.9585 114.284 148.628 -42.9428 90.1316 139.459 66.3169 98.3499 150.614 64.2587 66.4357 170.129 48.221 14.5782 104.608 13.7906 
147.477 175.722 177.165 151.138 149.507 133.084 169.475 169.145 82.9714 82.8557 93.3965 127.989 43.7431 74.6911 137.531 -40.7993 113.817 148.402 -42.9062 90.0056 139.165 66.1785 98.2409 150.296 64.1041 66.2972 170.068 48.294 14.6311 104.394 13.7942 
147.205 175.794 177.233 150.885 149.314 133.109 169.455 169.147 83.0082 82.9641 92.9341 127.704 43.7725 74.2001 137.237 -40.6903 113.358 148.207 -42.9214 89.8988 138.859 65.992 98.1361 149.969 63.9224 66.1786 170.017 48.3434 14.671 104.177 13.8236 
146.913 175.838 177.384 150.667 149.134 133.104 169.533 169.214 83.0817 83.1061 92.4115 127.41 43.8159 73.6951 136.907 -40.5894 112.842 147.849 -42.8955 89.6728 138.53 65.8776 97.9528 149.601 63.7943 66.0321 169.944 48.3851 14.6999 104.003 13.822 
146.684 175.823 177.555 150.54 149.029 133.051 169.628 169.257 83.145 83.2464 91.9758 127.215 43.8727 73.2571 136.651 -40.5063 112.298 147.467 -42.86 89.4173 138.296 65.7994 97.7651 149.317 63.7086 65.8924 169.914 48.4057 14.7008 103.855 13.7495 
146.466 175.82 177.79 150.426 148.972 133.008 169.7 169.311 83.2152 83.4311 91.5656 127.062 43.9633 72.7856 136.491 -40.4395 111.771 147.144 -42.8197 89.0673 138.088 65.7361 97.4897 149.041 63.6545 65.754 169.934 48.4262 14.7017 103.76 13.7086 
146.261 175.762 178.022 150.306 148.926 133.017 169.769 169.368 83.3105 83.6301 91.1388 126.887 44.0129 72.3379 136.34 -40.3825 111.261 146.823 -42.7803 88.6781 137.862 65.6683 97.1849 148.752 63.6044 65.62 169.963 48.4341 14.6889 103.669 13.6539 
146.081 175.719 178.285 150.219 148.942 133.053 169.872 169.496 83.3911 83.8144 90.7433 126.751 44.0547 72.0093 136.295 -40.3614 110.937 146.661 -42.7461 88.2922 137.687 65.6388 96.8631 148.52 63.6193 65.4916 170.011 48.4537 14.6646 103.649 13.635 
145.902 175.617 178.533 150.147 148.944 133.125 169.963 169.629 83.4802 83.979 90.3322 126.612 44.0773 71.6786 136.27 -40.3651 110.634 146.539 -42.7397 87.9339 137.553 65.6228 96.5749 148.341 63.6263 65.3683 170.078 48.4661 14.6429 103.66 13.6413 
145.76 175.48 178.761 150.004 148.963 133.279 170.065 169.815 83.6229 84.2256 89.8613 126.43 44.079 71.3079 136.258 -40.4063 110.371 146.352 -42.7224 87.5 137.333 65.6065 96.2196 148.071 63.678 65.2635 170.158 48.4847 14.5812 103.654 13.6991 
145.744 175.359 178.977 149.867 148.995 133.437 170.186 170.011 83.7404 84.3962 89.5426 126.344 44.0842 71.0418 136.376 -40.5242 110.264 146.346 -42.7391 87.1702 137.2 65.5577 95.927 147.926 63.7285 65.1693 170.282 48.4885 14.4996 103.62 13.7969 
145.771 175.245 179.186 149.737 149.031 133.605 170.333 170.251 83.8677 84.5563 89.2847 126.294 44.111 70.8597 136.522 -40.6521 110.242 146.356 -42.7295 86.8522 137.078 65.563 95.6358 147.802 63.8447 65.0782 170.4 48.5112 14.4108 103.599 13.8979 
145.799 175.179 179.384 149.657 149.1 133.739 170.437 170.453 83.9681 84.699 89.0749 126.299 44.1063 70.7327 136.757 -40.7853 110.219 146.425 -42.7335 86.5435 137.016 65.5675 95.3514 147.732 63.9699 65.0006 170.534 48.5204 14.3164 103.613 13.9556 
145.873 175.078 179.617 149.548 149.23 134 170.615 170.722 84.2149 84.985 88.5437 126.385 44.0367 70.4617 137.263 -41.0128 109.974 146.476 -42.66 86.0179 137 65.5903 94.8554 147.737 64.1937 64.8008 170.88 48.5557 14.1268 103.476 13.9734 
145.958 175.096 179.631 149.44 149.28 134.184 170.614 170.852 84.3276 85.0846 88.2278 126.315 43.8276 70.3485 137.437 -41.1769 109.922 146.292 -42.6103 85.7219 136.9 65.5951 94.5785 147.639 64.3309 64.7578 170.963 48.5306 14.0116 103.386 14.0165 
146.105 175.053 179.675 149.36 149.37 134.329 170.647 171.031 84.4123 85.1612 88.021 126.379 43.698 70.3725 137.725 -41.31 109.993 146.307 -42.5618 85.4777 136.885 65.6272 94.3133 147.649 64.5023 64.6779 171.082 48.5466 13.9088 103.323 14.0339 
146.281 175.01 179.683 149.277 149.441 134.49 170.671 171.1 84.5145 85.2224 87.8644 126.47 43.5473 70.4861 137.961 -41.3822 110.093 146.315 -42.4695 85.3648 136.877 65.65 94.1456 147.709 64.6554 64.6113 171.192 48.5833 13.8078 103.153 14.0177 
146.438 174.923 179.706 149.23 149.521 134.577 170.645 171.098 84.5645 85.2278 87.8273 126.629 43.4526 70.6528 138.221 -41.4446 110.181 146.341 -42.3468 85.2844 136.904 65.6516 93.9901 147.803 64.7611 64.5307 171.286 48.6203 13.7495 102.958 13.9693 
146.63 174.895 179.646 149.198 149.617 134.644 170.591 171.074 84.5686 85.1924 87.857 126.841 43.3658 70.7688 138.453 -41.4917 110.209 146.396 -42.2533 85.1834 136.992 65.6635 93.8048 147.947 64.8716 64.4241 171.379 48.6504 13.7055 102.813 13.9141 
146.817 174.93 179.581 149.181 149.71 134.679 170.536 171.004 84.5862 85.1605 87.8924 127.049 43.3011 70.915 138.75 -41.5599 110.284 146.509 -42.1752 85.0858 137.071 65.6742 93.6341 148.086 64.9654 64.3252 171.473 48.6908 13.6763 102.677 13.8676 
146.974 174.908 179.45 149.203 149.797 134.642 170.429 170.885 84.5467 85.0747 87.9893 127.282 43.305 71.0345 138.982 -41.5725 110.308 146.652 -42.1069 84.9985 137.207 65.6861 93.47 148.27 65.0344 64.2058 171.558 48.7193 13.6701 102.601 13.7984 
147.138 174.896 179.356 149.268 149.884 134.596 170.311 170.778 84.5042 85.0006 88.1483 127.5 43.3804 71.146 139.17 -41.5589 110.304 146.734 -42.0048 84.9113 137.356 65.7557 93.3154 148.454 65.1312 64.1051 171.625 48.768 13.6844 102.56 13.7311 
147.289 174.872 179.262 149.374 149.981 134.554 170.196 170.679 84.464 84.9185 88.2567 127.742 43.4569 71.311 139.485 -41.5449 110.41 146.951 -41.8785 84.7921 137.531 65.8526 93.1502 148.661 65.2462 63.9838 171.725 48.8456 13.7021 102.553 13.6907 
147.441 174.855 179.181 149.426 150.078 134.523 170.123 170.604 84.4407 84.8661 88.3357 127.992 43.547 71.4394 139.769 -41.5164 110.465 147.107 -41.7125 84.6624 137.665 65.9403 92.9687 148.82 65.3636 63.8819 171.841 48.9336 13.7269 102.502 13.6482 
147.648 174.879 179.089 149.524 150.206 134.469 170.095 170.536 84.371 84.7582 88.5159 128.317 43.6409 71.6594 140.13 -41.504 110.566 147.355 -41.5605 84.5413 137.889 66.0704 92.7925 149.063 65.5397 63.7662 171.965 49.0235 13.7343 102.512 13.5718 
147.808 174.917 178.985 149.612 150.292 134.395 170.059 170.474 84.3277 84.6914 88.6602 128.553 43.7636 71.8409 140.329 -41.4448 110.622 147.476 -41.3697 84.4318 138.045 66.2284 92.6269 149.232 65.7295 63.6265 172.004 49.105 13.7397 102.516 13.5048 
148.013 175.01 178.841 149.69 150.391 134.316 170.052 170.447 84.2701 84.6159 88.8861 128.82 43.9423 71.996 140.461 -41.3898 110.738 147.587 -41.1832 84.3074 138.229 66.4084 92.4471 149.423 65.9482 63.491 172.039 49.1664 13.7382 102.57 13.4968 
148.127 175.109 178.594 149.82 150.524 134.207 170.021 170.368 84.186 84.5386 89.0712 129.105 44.1483 72.1245 140.583 -41.2539 110.826 147.741 -40.9396 84.1907 138.459 66.629 92.2579 149.654 66.1963 63.3241 172.066 49.2512 13.7522 102.657 13.4943 
148.226 175.195 178.367 149.982 150.644 134.107 170.01 170.277 84.0801 84.427 89.2729 129.421 44.3826 72.2431 140.677 -41.0898 110.912 147.939 -40.6991 84.1473 138.785 66.8659 92.1325 149.991 66.4287 63.1381 172.125 49.3332 13.7758 102.744 13.5051 
148.355 175.284 178.213 150.141 150.769 134.043 170.012 170.248 83.9643 84.2989 89.4444 129.782 44.6143 72.2863 140.836 -40.917 110.969 148.257 -40.5201 84.1206 139.172 67.0895 92.0524 150.389 66.6461 62.97 172.265 49.4239 13.781 102.875 13.5287 
148.448 175.392 178.08 150.301 150.844 134.011 170.02 170.259 83.861 84.1878 89.5722 130.166 44.8375 72.269 141.136 -40.7946 111.087 148.785 -40.4058 84.0879 139.642 67.3066 91.9976 150.855 66.8397 62.8124 172.515 49.5238 13.7916 103.06 13.6251 
148.503 175.497 178.048 150.477 150.891 134.006 170.035 170.306 83.7862 84.1061 89.7079 130.505 45.0913 72.178 141.321 -40.6543 111.107 149.299 -40.3522 84.0493 140.139 67.5311 91.9602 151.355 66.992 62.6219 172.762 49.6021 13.8036 103.296 13.7084 
148.448 175.616 178.08 150.542 150.855 133.991 170.066 170.354 83.7357 84.1054 89.7808 130.772 45.4121 71.8721 141.428 -40.5207 110.99 149.659 -40.2475 83.9459 140.486 67.6344 91.87 151.685 67.0486 62.4416 173.007 49.6618 13.8223 103.394 13.8732 
148.338 175.751 178.174 150.487 150.736 134.033 170.132 170.5 83.7196 84.1295 89.6966 130.885 45.7157 71.3968 141.38 -40.4356 110.832 149.931 -40.1861 83.793 140.69 67.6756 91.7099 151.876 67.0566 62.2151 173.2 49.7046 13.8496 103.444 14.1266 
148.176 175.902 178.396 150.368 150.516 134.119 170.22 170.792 83.7612 84.1974 89.4407 130.784 45.9585 70.7616 141.249 -40.4459 110.578 150.196 -40.3269 83.5182 140.736 67.6451 91.5115 151.88 66.9667 61.9954 173.355 49.6958 13.873 103.622 14.3863 
147.943 176.053 178.672 150.223 150.272 134.227 170.285 171.084 83.8257 84.2864 88.9712 130.578 46.1029 69.9984 141.053 -40.4336 110.151 150.382 -40.4689 83.1651 140.684 67.6009 91.2371 151.783 66.856 61.699 173.443 49.6976 13.8982 103.789 14.6243 
147.713 176.207 178.941 150.011 150.007 134.387 170.325 171.397 83.9791 84.4463 88.3038 130.196 46.2969 69.0879 140.774 -40.3928 109.595 150.398 -40.5917 82.6952 140.478 67.5862 90.8707 151.537 66.7819 61.4084 173.524 49.7427 13.9077 103.953 14.871 
147.52 176.307 179.059 149.81 149.809 134.582 170.316 171.649 84.1711 84.6171 87.5466 129.801 46.436 68.2128 140.645 -40.3691 108.964 150.471 -40.7184 82.1933 140.241 67.564 90.4603 151.287 66.7369 61.1023 173.63 49.8174 13.8905 104.078 15.0343 
147.289 176.406 179.271 149.51 149.636 134.928 170.309 171.999 84.6546 85.0572 86.0718 128.986 46.7475 66.6808 140.179 -40.2191 107.649 150.197 -40.763 81.1521 139.662 67.6665 89.5024 150.752 66.8361 60.3573 173.653 50.0174 13.8069 104.124 15.1911 
147.158 176.212 179.29 149.355 149.597 135.122 170.272 172.168 84.9622 85.3381 85.2175 128.379 46.6822 66.0298 139.824 -40.2076 106.86 149.769 -40.8415 80.5687 139.192 67.6794 88.9725 150.294 66.8421 60.0612 173.521 50.0468 13.7663 104.166 15.0824 
147.11 176.006 179.293 149.219 149.632 135.242 170.157 172.264 85.2235 85.5977 84.4402 128.035 46.7066 65.3386 139.742 -40.2088 106.084 149.538 -40.8054 79.7669 138.786 67.644 88.2074 149.894 66.8318 59.6506 173.49 50.0992 13.7731 104.147 15.0072 
147.169 175.801 179.314 149.144 149.726 135.326 170.095 172.323 85.4248 85.7677 83.8656 127.943 46.7463 64.85 139.876 -40.2092 105.456 149.497 -40.6982 79.0202 138.485 67.6428 87.4793 149.619 66.87 59.261 173.512 50.2198 13.7954 104.095 14.8865 
147.257 175.591 179.268 149.081 149.82 135.27 170.06 172.216 85.5273 85.83 83.5873 128.152 46.8979 64.4944 140.268 -40.2053 104.937 149.612 -40.4969 78.3217 138.392 67.666 86.7819 149.562 66.9478 58.8505 173.609 50.3663 13.8155 103.999 14.7618 
147.42 175.403 179.085 149.01 149.886 135.263 170.038 172.065 85.6343 85.8954 83.4991 128.406 47.0713 64.3055 140.705 -40.2128 104.718 149.799 -40.2052 77.6422 138.317 67.8137 86.0689 149.515 67.1705 58.4437 173.635 50.5406 13.8396 103.984 14.7484 
147.6 175.286 178.834 148.952 149.917 135.276 170.03 171.887 85.6931 85.9047 83.4917 128.678 47.4412 64.1382 141.1 -40.1135 104.609 150.029 -39.8031 76.9939 138.353 68.1154 85.4001 149.569 67.5319 58.0467 173.703 50.8122 13.8648 104.032 14.804 
147.641 175.23 178.548 148.866 149.861 135.264 169.862 171.668 85.7497 85.9504 83.3514 128.809 47.8914 63.9332 141.328 -39.8467 104.56 150.222 -39.2737 76.3792 138.357 68.4861 84.7571 149.578 67.9384 57.6441 173.735 51.1442 13.918 104.073 14.9403 
147.504 175.163 178.465 148.687 149.736 135.252 169.592 171.602 85.854 86.1182 82.879 128.495 48.3972 63.5543 141.128 -39.4577 104.335 150.041 -38.6917 75.5798 138.066 68.8286 83.9805 149.226 68.3033 57.2315 173.616 51.4671 14.0003 104.095 15.0606 
