157.168 176.862 173.43 142.644 145.614 140.04 173.403 169.997 82.2916 81.145 -42.3081 150.443 87.3658 16.955 174.683 13.047 -29.4744 162.794 -5.00814 -51.7811 168.519 107.518 -65.0304 172.121 101.377 -46.0455 205.744 91.0487 11.9829 106.809 21.8416 
157.34 176.678 173.251 141.791 145.631 139.977 173.252 170.273 82.3407 81.4818 -42.0611 151.632 87.5753 16.7318 176.532 13.8546 -29.5022 164.991 -4.58545 -51.8979 169.315 107.583 -65.2628 172.929 101.767 -46.4053 206.901 91.6017 11.6692 106.68 21.7916 
157.492 176.484 173.079 140.149 145.51 140.027 172.919 170.194 82.388 81.8842 -41.8556 152.434 87.5435 16.4436 178.117 14.5241 -29.7991 166.399 -4.06683 -51.7539 169.231 106.93 -65.2607 173.024 101.812 -46.669 207.638 91.9331 11.2398 105.531 21.9825 
157.681 176.375 172.893 139.335 145.312 140.171 172.622 169.938 82.5941 82.3581 -42.2502 153.372 87.2197 16.1278 179.95 15.0778 -30.0667 168.194 -3.71182 -52.0361 169.598 106.534 -65.569 173.537 101.729 -47.0434 208.578 92.3302 11.0651 104.726 22.1023 
157.872 176.252 172.597 138.37 145.072 140.475 172.184 169.277 82.6419 82.7552 -42.6305 154.245 86.518 15.8437 181.965 15.495 -30.2026 169.806 -3.31019 -52.2562 169.74 105.666 -65.8008 173.88 101.329 -47.3889 209.385 92.6442 10.8995 103.341 22.2116 
157.943 176.202 172.439 138.342 144.998 140.674 171.78 168.704 82.4311 82.8709 -43.3108 155.192 85.7586 15.6081 184.01 15.8256 -30.2167 171.755 -3.05654 -52.7098 170.657 105.265 -66.2459 174.803 101.054 -47.7484 210.316 92.9914 10.8514 102.823 22.2042 
158.048 176.245 172.381 138.446 144.979 140.992 171.489 168.188 82.2568 82.9885 -43.6522 155.588 85.0803 15.5341 185.135 16.045 -30.2868 172.465 -2.85151 -52.9439 171.074 104.952 -66.4758 175.216 100.836 -47.9767 210.685 93.1329 10.8254 102.336 22.3728 
158.067 176.278 172.344 138.811 144.912 141.171 171.272 167.876 82.2704 83.1709 -43.8849 156.261 84.7989 15.5066 186.427 16.3779 -30.0808 173.334 -2.57732 -53.0018 171.814 105.089 -66.5386 175.812 100.855 -48.1984 211.332 93.3586 10.8484 102.19 22.3543 
158.16 176.275 172.324 139.145 145.008 141.411 171.073 167.535 82.3797 83.3855 -43.9312 156.944 84.4349 15.537 187.597 16.6097 -29.9793 174.005 -2.33718 -52.9726 172.528 105.242 -66.5229 176.413 100.948 -48.3862 211.97 93.5286 10.853 101.939 22.4312 
158.223 176.321 172.233 139.092 145.149 141.578 170.888 167.189 82.4348 83.6585 -43.9401 157.415 84.1032 15.584 188.192 16.8755 -29.815 174.241 -2.03264 -52.8069 172.98 105.2 -66.3973 176.756 100.969 -48.4516 212.372 93.5565 10.7856 101.538 22.4651 
158.148 176.111 172.117 139.275 145.187 141.62 170.324 167.097 82.4736 83.9498 -44.3999 158.438 83.2461 15.9998 189.346 17.1611 -28.7995 175.957 -2.21044 -52.6331 173.902 104.825 -66.2618 177.563 100.582 -48.4683 213.239 93.4775 10.7286 101.344 22.056 
157.992 175.974 172.103 139.668 145.386 141.543 169.913 166.988 82.3699 83.9055 -44.8949 158.688 82.4841 16.445 189.728 17.2116 -28.0764 177.121 -2.59578 -52.6509 174.172 104.442 -66.1917 177.838 100.148 -48.4037 213.39 93.3267 10.8401 101.497 21.8119 
157.893 175.755 172.201 139.533 145.575 141.446 169.595 167.115 82.2746 83.9781 -44.9175 158.831 82.2187 16.9343 190.316 17.1964 -27.312 178.003 -2.96917 -52.2781 174.089 103.939 -65.854 177.716 99.789 -48.2945 213.448 93.172 10.7861 101.49 21.6477 
157.917 175.542 172.054 139.248 145.934 141.432 169.23 166.788 82.3801 84.3408 -44.8023 158.816 81.8636 17.3533 191.074 16.8439 -26.8587 178.341 -3.29067 -51.5577 173.593 103.196 -65.182 177.112 99.2875 -48.1289 213.352 92.8543 10.7112 100.967 21.71 
157.87 175.367 171.801 139.161 146.095 141.351 168.951 166.365 82.4398 84.413 -44.3439 158.668 81.525 17.9418 191.55 16.4642 -26.2204 178.006 -3.57569 -50.7876 173.073 102.583 -64.4214 176.446 98.8129 -47.9227 213.1 92.3574 10.7057 100.541 21.8157 
157.903 175.268 171.423 139.11 146.169 141.468 168.752 165.83 82.4109 84.3747 -43.7048 157.924 81.0205 18.3621 190.873 15.8513 -25.7154 176.501 -3.87014 -50.103 172.17 101.879 -63.7838 175.395 98.1912 -47.6602 212.318 91.5443 10.6528 100.109 21.8775 
157.903 175.299 171.185 139.167 146.32 141.573 168.733 165.578 82.4022 84.3229 -43.029 156.934 80.6396 18.625 190.014 15.0928 -25.3958 174.838 -4.31878 -49.6059 171.184 101.266 -63.2908 174.27 97.6317 -47.4555 211.394 90.6397 10.6319 99.9956 21.9596 
157.899 175.419 171.116 139.779 146.378 141.655 168.923 165.398 82.4759 84.222 -42.3037 156.032 80.261 18.5313 188.671 14.3358 -25.1959 172.735 -4.63715 -49.2246 170.483 101.141 -62.9396 173.311 97.2713 -47.331 210.481 89.7579 10.6255 100.167 21.8196 
158.096 175.48 171.046 139.659 146.315 141.905 169.147 165.362 82.8149 84.423 -41.6655 154.816 79.6762 18.1536 186.644 13.3607 -25.6625 170.243 -5.13583 -48.9788 169.11 100.603 -62.7232 171.892 96.7305 -47.2581 209.235 88.7856 10.5678 99.889 21.8515 
158.187 175.572 170.83 139.828 146.402 141.977 169.516 165.278 82.8541 84.4177 -40.9672 153.481 79.4208 17.6447 184.546 12.2567 -26.0029 167.181 -5.47365 -48.6785 167.848 100.343 -62.5028 170.405 96.4132 -47.2479 207.795 87.8225 10.4856 99.8664 21.7974 
158.177 175.65 170.589 140.717 146.654 142.139 169.959 165.219 83.0849 84.3934 -40.0967 152.11 79.3189 17.0069 182.297 11.0174 -26.2495 163.813 -5.72032 -48.2499 166.751 100.647 -62.1547 168.999 96.4083 -47.2434 206.329 86.9822 10.4981 100.106 21.5662 
158.053 175.698 170.382 141.285 146.984 142.267 170.429 165.432 83.5019 84.5673 -39.0154 150.757 79.6136 16.3592 180.075 9.70719 -26.5873 160.203 -5.9921 -47.5937 165.401 101.092 -61.559 167.29 96.6448 -47.2998 204.792 86.2337 10.5534 100.274 21.4407 
157.956 175.703 170.136 141.617 147.331 142.339 170.75 165.747 83.8128 84.8166 -37.7986 149.153 79.9145 15.726 177.26 8.33319 -26.8732 156.07 -6.2568 -46.6981 163.705 101.314 -60.6807 165.11 96.7555 -47.2762 202.927 85.2921 10.674 100.288 21.2838 
157.893 175.618 169.79 141.874 147.466 142.194 171.039 165.971 83.9168 84.8881 -36.8734 147.585 79.8563 14.9452 174.457 6.83671 -27.3086 152.266 -6.73729 -46.0819 162.117 101.211 -60.08 163.136 96.5763 -47.243 201.043 84.2537 10.7985 100.376 21.1205 
157.954 175.516 169.356 142.137 147.647 142.079 171.264 166.123 83.8875 84.908 -36.0937 145.968 79.4434 14.1837 171.861 5.116 -27.8387 148.908 -7.50157 -45.5289 160.586 100.798 -59.483 161.242 96.1277 -47.199 199.185 83.1179 11.0042 100.511 20.9908 
157.952 175.442 169.02 142.259 147.442 141.866 171.549 166.262 83.913 84.7666 -35.8506 144.563 78.9287 13.1453 169.526 3.6677 -28.5544 146.304 -8.19081 -45.4153 159.242 100.327 -59.3628 159.781 95.5156 -47.2786 197.571 82.1607 11.228 100.645 20.754 
157.98 175.355 168.537 141.926 147.354 141.741 171.769 166.386 83.8834 84.8161 -35.6059 143.443 78.559 12.1459 167.94 2.42054 -29.4269 144.411 -8.73834 -45.2733 157.914 99.6283 -59.1732 158.43 94.954 -47.4051 196.287 81.3677 11.388 100.422 20.7207 
158.022 175.28 168.238 141.685 147.237 141.571 171.835 166.574 83.9931 84.9049 -35.5943 142.548 78.079 11.1948 166.641 1.25355 -30.2483 143.057 -9.40419 -45.1835 156.706 98.8441 -59.0392 157.328 94.2854 -47.5076 195.296 80.5856 11.5359 100.134 20.6167 
158.105 175.237 167.925 141.19 147.043 141.466 171.903 166.644 83.995 85.0016 -35.2559 141.394 77.3556 10.6316 165.502 -0.0991135 -31.058 141.595 -10.3073 -44.8809 154.999 97.6685 -58.6902 155.716 93.3762 -47.5225 193.989 79.6857 11.6419 99.6197 20.8576 
158.195 175.136 167.611 140.711 146.853 141.376 171.835 166.555 83.9943 85.1944 -35.0969 140.285 76.3319 10.1171 164.354 -1.32313 -31.8251 140.351 -11.1805 -44.6911 153.455 96.3356 -58.4191 154.279 92.2663 -47.4563 192.816 78.7077 11.7585 99.0386 21.0657 
158.465 174.975 167.35 140.555 146.547 141.413 171.899 166.436 84.1887 85.3763 -35.1152 139.329 75.3373 9.71447 163.433 -2.48669 -32.5132 139.575 -12.0572 -44.772 152.292 95.307 -58.449 153.297 91.3275 -47.4633 191.963 77.8599 11.8451 98.686 21.2009 
158.782 174.915 167.247 140.268 146.209 141.524 171.963 166.458 84.2695 85.5065 -34.8506 138.614 74.613 9.51032 162.701 -3.41139 -32.7479 138.857 -12.7985 -44.6264 151.229 94.4257 -58.2621 152.278 90.5431 -47.456 191.194 77.1371 11.9148 98.4125 21.1993 
159.182 174.885 167.147 140.16 146.023 141.735 172.046 166.403 84.2264 85.5942 -34.6649 137.8 73.7075 9.35186 161.812 -4.2907 -33.1184 138.183 -13.6073 -44.7076 150.294 93.5088 -58.2995 151.421 89.6935 -47.4561 190.4 76.3528 11.98 98.3438 21.2772 
159.514 174.909 167.082 140.392 145.887 141.933 172.098 166.364 84.16 85.545 -34.5865 136.837 72.7916 9.40693 160.756 -5.11922 -33.155 137.258 -14.3895 -44.6612 149.401 92.7031 -58.2224 150.558 88.8246 -47.3725 189.473 75.4849 12.0864 98.4485 21.3142 
159.767 174.956 167.161 140.868 145.673 142.135 172.086 166.215 84.1532 85.4754 -34.8517 135.967 71.7334 9.46864 159.929 -5.9326 -33.3826 136.606 -15.2556 -44.8474 148.876 91.9621 -58.3951 150.091 87.8658 -47.3642 188.768 74.5811 12.2406 98.7382 21.4931 
159.975 174.902 167.268 141.525 145.509 142.307 172.055 165.86 84.3369 85.4747 -35.2351 135.525 70.5299 9.56341 159.652 -6.56657 -33.2879 136.56 -15.9786 -45.1371 148.912 91.399 -58.7083 150.188 86.974 -47.4408 188.531 73.8148 12.3548 98.9675 21.4884 
160.189 174.899 167.399 141.855 145.272 142.525 172.041 165.692 84.4987 85.4679 -35.8614 135.067 69.3773 9.53213 159.24 -7.12975 -33.4775 136.776 -16.8201 -45.7273 148.884 90.7607 -59.2675 150.339 86.044 -47.5151 188.332 73.082 12.4863 99.2938 21.475 
160.369 174.97 167.617 141.832 144.949 142.725 172.04 165.734 84.699 85.5183 -36.1358 134.5 68.5289 9.75146 159 -7.64451 -33.5401 136.83 -17.6346 -45.9893 148.487 90.0454 -59.4683 150.084 85.1729 -47.5619 187.966 72.3136 12.5929 99.5484 21.6497 
160.463 175.021 167.914 141.688 144.722 142.85 172 165.673 84.8756 85.625 -36.1253 134.14 67.7441 9.882 159.017 -8.14276 -33.4874 136.86 -18.3237 -46.0731 148.201 89.3195 -59.5538 149.859 84.374 -47.6528 187.713 71.5673 12.5957 99.6609 21.7783 
160.584 175.003 168.188 141.75 144.556 143.042 171.928 165.499 85.1171 85.706 -36.3793 133.934 66.7755 9.97235 159.111 -8.65438 -33.552 137.18 -19.045 -46.3363 148.144 88.5677 -59.8425 149.925 83.5172 -47.8406 187.698 70.8436 12.5791 99.6495 21.8695 
160.589 175.069 168.589 141.724 144.299 143.165 171.942 165.602 85.1357 85.6033 -36.6536 133.594 65.9333 10.0878 159.281 -9.09849 -33.5851 137.759 -19.9029 -46.7901 148.035 87.8418 -60.2564 149.913 82.6688 -48.0421 187.548 70.2102 12.6297 99.9718 21.9226 
160.638 175.109 168.979 141.617 144.177 143.35 171.797 165.403 85.2217 85.6234 -37.2264 133.223 64.8943 10.0025 159.3 -9.57317 -33.8215 138.043 -20.5493 -47.4436 147.72 86.9053 -60.8479 149.821 81.7005 -48.2913 187.349 69.5375 12.6208 99.8348 22.0557 
160.711 175.101 169.257 141.527 144.138 143.554 171.598 165.139 85.3817 85.7638 -37.3036 133.05 63.9971 9.87505 159.568 -10.0966 -33.9164 138.142 -20.9805 -47.5526 147.555 86.1866 -60.9189 149.673 81.0082 -48.4331 187.263 68.9012 12.5959 99.6367 22.1483 
160.758 175.074 169.471 141.631 144.24 143.727 171.328 164.847 85.5149 85.8246 -37.117 133.083 63.1074 9.82974 160.028 -10.6223 -33.8802 138.247 -21.357 -47.3396 147.618 85.5737 -60.7312 149.622 80.4275 -48.5873 187.307 68.2715 12.5474 99.4112 22.213 
160.736 174.892 169.48 141.685 144.369 143.923 170.776 164.185 85.5521 85.8429 -37.1669 132.888 61.938 9.73587 160.072 -11.1342 -33.8722 138.114 -21.7037 -47.2069 147.412 84.6553 -60.6515 149.362 79.602 -48.7141 187.141 67.5542 12.4514 98.8296 22.2262 
160.691 174.866 169.429 141.994 144.451 144.053 170.342 163.56 85.5367 85.7536 -37.4931 132.704 60.8172 9.75348 160.491 -11.4863 -33.673 138.401 -22.0712 -47.3856 147.489 83.9731 -60.8444 149.387 78.8019 -48.8581 187.03 66.9582 12.425 98.7398 22.2544 
160.537 174.798 169.155 141.979 144.37 143.984 169.989 163.063 85.563 85.6799 -37.7283 132.781 60.3673 9.67062 161.045 -11.6134 -33.3558 138.586 -22.1154 -47.3592 147.741 83.6148 -60.8899 149.53 78.3618 -49.1031 187.115 66.5582 12.3632 98.6472 22.1926 
160.386 174.699 168.819 141.638 144.19 143.876 169.583 162.586 85.3633 85.5411 -38.2105 132.761 59.9692 9.64661 161.508 -11.5942 -33.119 138.887 -22.2044 -47.6603 147.947 83.0244 -61.2495 149.717 77.7813 -49.4101 187.162 66.1402 12.2573 98.559 22.2206 
160.244 174.521 168.502 141.006 144.111 143.802 169.091 162.143 85.2504 85.6054 -38.658 132.603 59.805 9.62894 161.951 -11.6568 -32.873 138.938 -22.2737 -47.6978 147.72 82.2845 -61.3661 149.47 77.228 -49.7281 187.07 65.7574 12.0889 98.0974 22.2904 
160.102 174.402 168.097 140.561 144.072 143.743 168.719 161.722 85.2091 85.6725 -39.1439 132.497 59.6996 9.53835 162.172 -11.7616 -32.6024 138.706 -22.2867 -47.7711 147.599 81.7648 -61.5419 149.246 76.8298 -50.153 186.991 65.3545 11.9118 97.7076 22.2677 
159.991 174.199 167.54 140.144 144.059 143.673 168.367 161.087 85.2675 85.9 -39.943 132.467 59.3534 9.24122 162.396 -11.9269 -32.4424 138.673 -22.3342 -48.0607 147.479 81.1418 -61.9483 149.075 76.3194 -50.6644 186.997 65.0189 11.6969 97.0905 22.1223 
159.885 174.04 167.404 140.289 144.194 143.778 167.992 160.158 85.4657 86.1798 -40.8008 132.577 58.5026 8.64829 162.427 -12.1037 -32.5361 138.416 -22.186 -48.7095 147.463 80.5651 -62.671 149.068 75.6989 -51.3006 187.044 64.6171 11.5412 96.306 21.9972 
159.78 173.729 166.715 139.43 144.006 143.975 167.189 158.897 85.5788 86.6321 -42.4506 131.869 57.3396 7.48759 161.029 -12.285 -33.2051 136.793 -21.9667 -49.9213 146.344 78.9686 -63.9495 148.044 74.3775 -52.5071 186.338 63.5198 11.242 94.6621 21.9071 
159.801 173.401 166.183 139.164 143.918 144.005 167.009 158.397 85.7388 86.8332 -43.3971 131.453 56.9197 6.91594 160.166 -12.3788 -33.5424 135.87 -21.863 -50.7418 145.651 78.4253 -64.8023 147.511 73.9054 -53.137 185.885 63.1726 11.1108 93.9297 21.8481 
159.782 173.313 165.804 139.213 143.822 144.028 167.243 158.261 85.859 86.9568 -44.5847 131.122 56.2487 6.04357 159.395 -12.6974 -34.0191 135.43 -22.1428 -52.0657 145.372 78.106 -66.0974 147.358 73.4183 -53.9253 185.557 62.8713 11.088 93.8098 21.5337 
159.793 173.099 165.561 139.205 143.734 144.189 167.155 157.846 85.8657 87.1023 -45.1194 130.539 55.7403 5.31252 158.113 -12.7741 -34.2681 134.071 -21.8743 -52.975 144.539 77.6366 -66.9666 146.534 72.9432 -54.5918 184.83 62.4797 11.0249 93.1555 21.3274 
159.832 173.143 164.59 139.222 143.788 144.384 167.221 157.768 85.3414 87.1311 -44.813 130.131 56.0602 4.62992 157.462 -12.6349 -34.0167 132.893 -21.4234 -53.2391 143.36 77.3381 -66.9833 145.059 72.8306 -55.1635 183.943 62.3598 11.1975 92.8294 20.9541 
159.932 173.041 163.54 138.588 143.814 144.649 167.17 157.549 85.4594 87.6106 -44.4815 130.044 56.1726 3.79328 157.148 -12.8131 -34.0352 132.035 -21.1013 -53.2921 142.099 76.8732 -66.8964 143.687 72.72 -55.7924 183.367 62.18 11.211 92.005 20.6387 
159.951 173.03 162.705 137.85 143.742 144.758 167.191 157.467 85.9033 88.1313 -44.5642 129.663 55.9717 2.83629 156.255 -13.1421 -34.1172 130.769 -20.9417 -53.4498 140.575 76.3202 -67.0065 142.199 72.4564 -56.4043 182.569 61.7987 11.1416 91.0521 20.2383 
160.007 173.014 162.441 137.109 143.58 144.767 167.14 157.231 86.394 88.6188 -45.1438 128.937 55.6121 1.84662 154.602 -13.4076 -34.6167 128.916 -20.7174 -53.8324 139.041 75.6918 -67.4159 140.788 72.0641 -57.0305 181.611 61.234 11.025 89.9772 20.0234 
159.804 173.06 162.019 136.912 143.217 144.408 167.062 157.408 86.1523 88.473 -45.9921 128.093 55.366 1.0057 152.933 -13.3467 -35.0408 127.849 -20.8375 -54.3949 138.316 75.3475 -67.9286 140.006 71.6371 -57.5213 180.675 60.6257 11.1122 90.3068 19.5025 
159.024 173.158 161.827 136.764 143.493 144.43 167.133 157.508 85.8159 88.4925 -48.3508 127.248 53.9792 -0.103037 150.999 -12.96 -36.748 127.556 -21.3057 -56.496 138.133 74.7736 -69.8677 140.109 70.8017 -58.0812 179.928 60.1307 11.1769 91.2454 19.4106 
158.227 173.221 161.801 136.679 143.716 144.353 167.03 157.635 85.6902 88.7171 -50.3094 126.916 52.6742 -1.04374 149.66 -12.5081 -38.0822 127.812 -21.7716 -58.5086 138.432 74.3548 -71.7258 140.611 70.0799 -58.8088 179.596 59.6896 11.2162 92.2251 19.2359 
157.603 173.062 161.626 136.478 143.894 144.298 166.904 158.04 85.8103 89.06 -51.3766 126.703 51.3707 -1.49034 148.664 -12.31 -38.773 128.201 -22.5727 -59.8309 138.684 73.8714 -72.9658 140.893 69.3511 -59.5473 179.355 59.0519 11.2064 93.1178 18.9341 
157.907 172.486 160.704 136.928 143.389 144.296 166.641 157.957 85.7211 88.7589 -50.3164 126.09 50.8907 -1.05629 148.165 -12.7228 -37.8981 127.484 -23.1517 -59.1338 138.172 73.3981 -72.3508 139.847 68.7647 -60.0887 178.641 57.9343 11.2591 93.3874 18.4833 
157.681 172.159 160.55 136.361 143.433 144.504 166.621 158.478 86.2427 89.2821 -50.8002 125.488 50.0284 -0.993392 147.078 -12.656 -38.0054 127.176 -23.8882 -59.3823 137.644 72.958 -72.6835 139.237 68.3196 -60.642 178.078 57.2062 11.0726 93.7334 18.24 
158.019 172.013 160.455 136.508 143.35 144.409 166.05 158.821 86.1414 89.0734 -51.0911 125.038 49.8452 -0.922032 146.84 -12.8432 -37.8411 127.385 -24.7591 -59.3232 137.337 72.3695 -72.6245 138.77 67.7346 -61.1795 177.769 56.4706 11.1591 94.0705 17.9082 
157.539 171.899 160.526 135.904 143.476 144.202 165.854 159.257 86.5173 89.4399 -52.9968 125.011 49.1007 -1.57877 146.938 -13.0475 -38.7365 128.563 -25.9245 -60.4029 137.149 71.5689 -73.6402 139.002 67.0132 -61.7793 177.887 56.1694 11.1482 94.3424 17.8162 
156.312 172.477 161.048 135.084 143.376 143.534 165.811 159.952 86.7638 89.8007 -56.4667 124.972 47.4966 -3.53873 146.535 -13.514 -40.4099 130.461 -27.7989 -63.1734 136.953 69.9456 -76.1876 139.629 65.3245 -62.9021 177.919 55.6161 11.2645 94.8339 17.215 
155.428 173.347 161.562 134.605 143.204 142.949 166.02 159.956 86.6505 89.7804 -57.9131 124.946 47.0569 -4.33808 146.467 -13.6685 -40.8354 130.971 -28.1892 -64.4565 136.94 69.2819 -77.2875 140.076 64.6178 -63.1463 177.867 55.6054 11.3922 94.7869 17.0121 
154.791 173.792 161.778 134.196 142.898 142.531 166.03 159.632 86.4188 89.5964 -58.7402 124.776 46.8754 -4.95221 146.179 -13.7362 -41.0882 130.661 -28.1257 -65.3645 136.883 68.9108 -78.0645 140.247 64.205 -63.4643 177.636 55.5323 11.5106 94.5927 16.9332 
154.35 173.956 161.925 133.907 142.606 142.189 165.992 159.304 86.1039 89.2973 -59.135 124.684 46.935 -5.20452 146.024 -13.6724 -41.0662 130.222 -27.8772 -65.9087 136.977 68.8174 -78.5209 140.43 64.068 -63.65 177.475 55.5351 11.6003 94.4899 16.9561 
154.05 174.037 161.915 133.814 142.409 141.935 165.965 158.993 85.7711 88.9677 -59.2679 124.58 47.0432 -5.34874 145.91 -13.5283 -40.9353 129.791 -27.5424 -66.238 137.065 68.895 -78.791 140.526 64.1023 -63.7868 177.292 55.6297 11.6759 94.4339 16.9475 
153.831 174.189 161.973 134.112 142.349 141.766 165.96 158.788 85.4516 88.5808 -59.4715 124.423 46.9895 -5.42546 145.809 -13.333 -40.7128 129.581 -27.325 -66.7035 137.228 69.0118 -79.1543 140.734 64.0672 -63.8624 177.118 55.7204 11.7902 94.6068 16.8886 
154.429 174.356 162.219 135.188 142.303 141.802 165.835 158.489 85.4379 88.3599 -58.2409 124.193 47.9119 -4.83043 146.361 -13.2763 -39.5914 128.741 -26.6308 -65.4993 136.829 69.5612 -78.1474 140 64.5244 -63.7811 176.922 55.759 11.7776 94.1868 16.8191 
154.316 174.206 162.004 135.413 142.514 141.726 165.778 158.428 85.6809 88.5624 -58.7244 124.097 47.8773 -4.99862 146.162 -12.8993 -39.5584 128.907 -26.5073 -65.7643 136.748 69.8146 -78.418 140.047 64.6754 -63.8264 176.817 56.0268 11.7136 94.3592 16.6364 
153.998 174.027 161.942 135.56 142.684 141.572 165.583 158.373 85.8415 88.8026 -59.1553 123.852 47.8369 -5.1376 145.619 -12.3238 -39.5726 128.837 -26.2282 -66.2011 136.582 69.9641 -78.8306 140.016 64.704 -63.8491 176.582 56.313 11.6539 94.3728 16.5166 
153.761 173.868 161.907 135.907 142.876 141.476 165.435 158.25 85.8849 88.8499 -59.4616 123.667 47.6949 -5.21951 145.193 -11.8376 -39.4959 128.84 -25.9364 -66.5664 136.616 70.222 -79.1451 140.138 64.7911 -63.8159 176.397 56.6024 11.6554 94.516 16.3631 
154.437 174.027 161.925 136.676 142.676 141.586 165.34 157.769 85.8246 88.596 -58.3664 123.217 48.3565 -4.58133 145.278 -11.6289 -38.3831 127.83 -25.1005 -65.4947 136.196 70.7468 -78.1702 139.386 65.1917 -63.5202 176.051 56.6953 11.7048 94.0423 16.267 
154.255 173.957 161.518 136.4 142.64 141.557 165.422 157.612 86.1305 88.8148 -58.5894 122.842 48.2594 -4.57978 144.679 -11.1928 -38.2559 127.405 -24.6797 -65.3124 135.789 70.9338 -78.0195 139.066 65.3607 -63.2812 175.692 56.9033 11.6112 93.811 16.1549 
153.892 173.9 161.244 136.369 142.78 141.423 165.319 157.378 86.189 88.8692 -58.9554 122.716 48.124 -4.65977 144.262 -10.7591 -38.2624 127.444 -24.3135 -65.3897 135.862 71.1179 -78.0888 139.245 65.4963 -63.084 175.584 57.1578 11.568 93.8138 16.0039 
154.509 174.11 161.353 137.097 142.657 141.476 165.137 157.126 86.1194 88.6426 -58.192 122.543 48.6183 -4.01902 144.492 -10.4795 -37.3904 127.131 -23.756 -64.5303 135.857 71.5953 -77.2819 138.971 65.8349 -62.7536 175.549 57.2593 11.6264 93.7039 15.8972 
155.212 174.496 161.675 137.663 142.617 141.552 164.903 157.134 85.9354 88.317 -57.7162 122.304 48.9662 -3.33325 144.545 -10.1934 -36.8371 127.073 -23.5733 -64.0854 135.942 71.9302 -76.8372 138.929 66.0551 -62.4286 175.532 57.3739 11.6951 93.884 15.9372 
155.861 174.958 161.868 138.01 142.666 141.626 164.689 157.195 85.764 88.0645 -57.4003 121.992 49.3305 -2.51566 144.385 -9.79332 -36.4312 126.958 -23.4572 -63.6967 135.808 72.1742 -76.4301 138.732 66.2824 -62.0823 175.401 57.5304 11.7433 94.0352 16.1268 
156.403 175.391 162.021 138.248 142.768 141.754 164.553 157.433 85.6321 87.894 -57.2114 121.757 49.6849 -1.78662 144.175 -9.28594 -36.1573 127.1 -23.4227 -63.4738 135.646 72.4133 -76.1531 138.574 66.5434 -61.7907 175.319 57.8042 11.8094 94.2298 16.2599 
156.783 175.832 162.348 138.546 142.925 141.911 164.439 157.754 85.4034 87.7038 -57.2767 121.42 49.8736 -1.29108 143.721 -8.87468 -36.1172 127.287 -23.5642 -63.5715 135.494 72.5221 -76.1608 138.485 66.6603 -61.5656 175.15 58.0237 11.8995 94.5739 16.3629 
157.082 176.184 162.657 138.773 143.16 142.078 164.359 158.093 85.2082 87.5637 -57.2769 121.225 50.1081 -0.808867 143.349 -8.41737 -36.096 127.595 -23.6596 -63.6642 135.432 72.6476 -76.1815 138.49 66.8284 -61.367 175.083 58.2687 11.953 94.9113 16.484 
157.275 176.485 163.034 138.942 143.464 142.242 164.226 158.45 84.9928 87.4438 -57.4057 121.161 50.2198 -0.349665 143.176 -8.05746 -36.1944 128.216 -23.9158 -63.7999 135.464 72.6236 -76.2423 138.63 66.8965 -61.2026 175.133 58.4861 12.0106 95.2415 16.6866 
157.325 176.835 163.447 139.184 143.787 142.357 164.161 158.888 84.6893 87.2672 -57.4831 121.12 50.3465 0.0640569 142.914 -7.74723 -36.171 128.839 -24.2109 -63.967 135.572 72.5617 -76.3274 138.849 66.9121 -60.9805 175.186 58.6523 12.0703 95.6781 16.7909 
157.268 177.207 163.954 139.471 144.273 142.352 164.11 159.38 84.3254 87.0974 -57.557 121.253 50.409 0.513475 142.966 -7.51655 -36.0745 129.769 -24.6081 -64.1985 135.869 72.4037 -76.4536 139.27 66.8613 -60.738 175.374 58.785 12.1274 96.2225 16.9328 
