152.563 170.42 164.72 129.769 138.471 139.644 164.936 155.394 101.313 96.2417 12.0087 121.578 42.9628 102.475 135.186 5.61933 62.6731 127.017 -26.7878 7.23992 118.573 42.0422 -4.02699 133.924 42.8041 21.0011 173.885 50.401 12.7497 74.9861 25.7154 
152.398 170.506 164.7 129.621 138.68 139.444 164.986 155.579 100.712 95.7307 12.2986 121.32 43.191 103.023 135.142 5.87359 63.0857 127.062 -26.8222 7.52699 118.632 42.2139 -3.80322 133.891 43.0287 21.1703 173.645 50.4991 12.847 75.3134 25.8644 
152.263 170.739 164.777 129.343 138.919 139.181 165.17 155.98 100.004 95.1994 12.5921 121.136 43.3767 103.571 135.203 6.05236 63.4564 127.282 -27.0255 7.75723 118.878 42.5611 -3.61338 133.947 43.2939 21.314 173.475 50.5747 12.8502 75.9523 26.0416 
152.12 171.018 164.894 129.006 139.081 138.975 165.411 156.377 99.2755 94.6639 12.8221 120.899 43.573 103.983 135.129 6.18374 63.6728 127.381 -27.2097 7.79068 119.156 42.9869 -3.56162 134.044 43.5526 21.4236 173.267 50.6512 12.8036 76.7093 26.2269 
151.995 171.22 165.013 128.774 139.169 138.769 165.576 156.777 98.6921 94.2357 13.0741 120.683 43.7948 104.327 135.127 6.30847 63.9369 127.546 -27.3847 7.87325 119.335 43.3307 -3.47466 134.06 43.7429 21.5017 173.088 50.732 12.752 77.3646 26.3287 
151.943 171.441 165.181 128.584 139.245 138.551 165.734 157.178 98.2084 93.9211 13.3167 120.53 44.1074 104.557 135.129 6.38767 64.0825 127.592 -27.5151 7.93216 119.467 43.7932 -3.40091 134.004 44.0195 21.5614 172.953 50.8288 12.6701 77.9826 26.405 
151.849 171.63 165.406 128.401 139.27 138.419 165.945 157.584 97.7044 93.6128 13.4601 120.346 44.2912 104.699 135.027 6.38516 64.119 127.577 -27.7001 7.82838 119.684 44.2799 -3.4425 134.029 44.2393 21.6098 172.79 50.8738 12.5371 78.7362 26.5012 
151.775 171.808 165.654 128.362 139.249 138.334 166.153 157.917 97.3389 93.416 13.4956 120.239 44.3414 104.737 134.947 6.36916 64.0429 127.583 -27.8659 7.58916 119.955 44.7517 -3.57215 134.141 44.3701 21.6269 172.683 50.8996 12.3533 79.4939 26.6269 
151.724 171.943 165.884 128.335 139.199 138.271 166.351 158.251 97.1776 93.3309 13.562 120.154 44.544 104.739 134.87 6.32111 63.9753 127.53 -28.008 7.39615 120.066 45.1639 -3.68702 134.152 44.5193 21.6404 172.612 50.9367 12.2034 80.0829 26.6889 
151.657 172.093 166.097 128.222 139.122 138.234 166.528 158.48 96.98 93.1944 13.722 120.074 44.7325 104.755 134.941 6.16566 63.9157 127.502 -28.1368 7.27691 120.196 45.5221 -3.74553 134.16 44.6337 21.6557 172.566 50.9456 12.0704 80.5854 26.7236 
151.619 172.207 166.277 128.187 139.068 138.251 166.708 158.679 96.8054 93.0832 13.8305 119.939 44.8502 104.713 134.924 5.93424 63.836 127.432 -28.3064 7.10368 120.282 45.803 -3.84978 134.138 44.6781 21.6554 172.479 50.9087 11.9382 81.0725 26.7161 
151.63 172.313 166.473 128.155 139.003 138.271 166.896 158.912 96.7136 93.0182 13.8911 119.846 44.9319 104.637 134.891 5.73986 63.8057 127.4 -28.4553 6.95696 120.345 45.9858 -3.94406 134.147 44.695 21.6417 172.428 50.8816 11.8502 81.4343 26.6521 
151.64 172.388 166.639 128.102 138.889 138.276 167.014 159.115 96.8261 93.0756 13.958 119.775 45.0006 104.563 134.898 5.59549 63.7966 127.412 -28.5794 6.87251 120.252 46.0226 -3.99944 134.069 44.6748 21.6249 172.379 50.8676 11.8141 81.591 26.5936 
151.599 172.41 166.742 127.989 138.774 138.248 167.062 159.261 96.9292 93.1126 14.0761 119.737 45.1116 104.506 134.969 5.43583 63.8328 127.425 -28.6761 6.90764 120.114 46.006 -3.9776 133.939 44.6521 21.6168 172.346 50.8511 11.8 81.6208 26.4954 
151.516 172.465 166.945 127.987 138.695 138.298 167.166 159.458 96.8242 93.0801 14.1024 119.397 45.095 104.253 134.694 5.15702 63.6929 127.255 -28.9099 6.62675 120.019 46.1353 -4.19395 133.777 44.5467 21.5319 172.06 50.7705 11.6465 82.0849 26.406 
151.53 172.474 167.057 127.918 138.586 138.413 167.189 159.381 96.9096 93.1572 14.0194 119.162 45.0043 103.906 134.334 5.00374 63.4821 126.9 -28.8676 6.417 119.863 46.1056 -4.36968 133.66 44.4598 21.4525 171.85 50.7332 11.595 82.0293 26.2835 
151.578 172.491 167.104 127.898 138.5 138.537 167.192 159.24 96.87 93.1859 13.9472 118.95 44.8822 103.583 133.979 4.89505 63.2175 126.509 -28.7944 6.18875 119.807 46.15 -4.5416 133.585 44.4033 21.3815 171.651 50.6954 11.5384 82.029 26.2281 
151.64 172.471 167.086 128.005 138.457 138.598 167.171 159.038 96.9419 93.2687 13.782 118.813 44.7835 103.216 133.604 4.80249 62.9574 126.112 -28.6814 5.93108 119.752 46.1811 -4.7459 133.564 44.3311 21.2916 171.522 50.6559 11.474 81.9572 26.1284 
151.715 172.439 167.093 127.998 138.338 138.658 167.158 158.909 97.0792 93.3719 13.6909 118.692 44.7751 102.904 133.275 4.72675 62.741 125.716 -28.5805 5.75668 119.589 46.1774 -4.89867 133.448 44.2817 21.2169 171.398 50.6356 11.4288 81.8002 26.0323 
151.732 172.387 167.068 127.803 138.207 138.661 167.091 158.723 97.1312 93.3878 13.6693 118.612 44.7332 102.636 133.078 4.6025 62.5634 125.37 -28.4662 5.71135 119.456 46.0637 -4.95577 133.35 44.2213 21.1602 171.297 50.5764 11.4588 81.5212 25.9289 
151.772 172.39 167.051 127.674 138.113 138.654 167.098 158.622 97.1387 93.4018 13.663 118.555 44.7279 102.427 132.895 4.51 62.4334 125.078 -28.3697 5.65163 119.386 46.0533 -5.01051 133.278 44.1978 21.1147 171.224 50.5446 11.4543 81.3783 25.8314 
151.807 172.347 166.965 127.53 138.027 138.588 167.046 158.485 97.2181 93.437 13.6757 118.534 44.7768 102.271 132.782 4.40946 62.3354 124.765 -28.2597 5.7006 119.197 45.9683 -4.99582 133.109 44.1786 21.0759 171.162 50.4969 11.4891 81.077 25.7382 
151.843 172.324 166.851 127.415 137.999 138.519 167.025 158.356 97.2256 93.4241 13.7192 118.524 44.8425 102.212 132.798 4.31179 62.2768 124.575 -28.1721 5.77643 119.072 45.9089 -4.96304 132.985 44.1927 21.0408 171.131 50.4694 11.5311 80.8504 25.6881 
151.845 172.342 166.771 127.324 137.971 138.472 167.025 158.286 97.2566 93.4288 13.738 118.556 44.8786 102.228 132.923 4.20262 62.2566 124.546 -28.1638 5.87545 118.964 45.8223 -4.91328 132.879 44.1857 21.0137 171.136 50.4403 11.5646 80.6779 25.676 
151.854 172.355 166.673 127.265 137.998 138.44 167.056 158.252 97.2775 93.4317 13.7292 118.606 44.8954 102.232 133.045 4.10284 62.2552 124.595 -28.1757 5.92154 118.958 45.7299 -4.90151 132.88 44.1517 20.9766 171.201 50.4079 11.5869 80.5548 25.6413 
151.886 172.386 166.585 127.284 138.062 138.434 167.092 158.231 97.2801 93.4476 13.6989 118.698 44.8276 102.223 133.155 4.01471 62.2648 124.667 -28.2208 5.9597 119.018 45.6352 -4.88986 132.937 44.0993 20.9456 171.301 50.3407 11.6028 80.4578 25.605 
151.859 172.427 166.488 127.263 138.106 138.471 167.129 158.23 97.2528 93.4219 13.6706 118.794 44.6691 102.297 133.388 3.91041 62.3933 124.938 -28.3501 6.03534 119.138 45.4389 -4.84876 133.056 43.9549 20.9246 171.427 50.2334 11.6277 80.4284 25.5627 
151.864 172.471 166.428 127.289 138.104 138.573 167.157 158.301 97.4709 93.5341 13.6195 118.877 44.4658 102.408 133.679 3.78813 62.5589 125.311 -28.5938 6.11926 119.062 45.0336 -4.7993 133.061 43.6923 20.8732 171.55 50.0929 11.6976 80.258 25.5399 
151.914 172.573 166.42 127.307 138.085 138.747 167.217 158.439 97.6455 93.6366 13.5636 119.01 44.2222 102.549 134.024 3.65331 62.7438 125.773 -28.8909 6.18967 119.101 44.6892 -4.76189 133.137 43.427 20.8205 171.743 49.9224 11.7232 80.2113 25.5245 
152.016 172.635 166.363 127.308 138.014 138.966 167.19 158.477 98.0581 93.8859 13.4872 119.239 43.9352 102.577 134.409 3.48492 62.7922 126.191 -29.1568 6.25479 119.021 44.1916 -4.7429 133.182 43.1238 20.7377 171.993 49.7583 11.8004 79.8747 25.5225 
152.282 172.564 166.225 126.956 137.492 139.315 166.806 158.362 99.2138 94.6357 13.4592 120.13 43.6064 102.217 135.33 3.05728 62.6185 126.893 -29.3636 6.46764 118.834 43.1197 -4.63931 133.262 42.6325 20.5368 172.814 49.505 12.0672 78.5594 25.2945 
152.563 172.397 166.095 127.227 137.314 139.604 166.546 158.289 100.507 95.4389 13.4401 120.8 43.3748 102.001 136.051 2.87027 62.5993 127.538 -29.412 6.68503 118.533 42.297 -4.48946 133.324 42.3225 20.4688 173.462 49.492 12.2998 77.4251 25.0941 
152.769 172.15 165.968 127.783 137.223 139.828 166.134 158.122 101.888 96.3161 13.3195 121.661 43.1616 101.644 136.894 2.71253 62.4666 128.222 -29.3635 6.85442 118.355 41.5707 -4.37634 133.505 42.0351 20.3617 174.251 49.4387 12.4961 76.3247 24.8989 
153.005 171.983 165.799 128.488 137.37 140.107 165.931 157.926 102.634 96.8425 13.0637 122.375 42.7877 101.257 137.562 2.48002 62.2424 128.918 -29.4212 6.70522 118.752 41.3695 -4.49221 134.088 41.8251 20.2486 175.025 49.3298 12.4357 76.0464 24.7494 
153.261 171.94 165.697 128.786 137.553 140.4 165.852 157.798 102.744 97.0733 12.7473 122.888 42.3147 100.972 138.135 2.11618 61.9694 129.474 -29.6264 6.45752 119.395 41.4533 -4.66514 134.662 41.6873 20.1317 175.631 49.1033 12.2799 76.279 24.7038 
153.501 172.056 165.579 128.949 137.864 140.677 165.971 157.679 102.133 96.9526 12.3206 123.244 41.6742 100.65 138.558 1.59973 61.55 129.969 -29.9679 5.912 120.509 41.8924 -5.05009 135.464 41.5666 19.9543 176.139 48.774 11.9634 77.168 24.7219 
153.682 172.278 165.416 129.305 138.402 140.874 166.267 157.606 101.231 96.6208 11.8842 123.458 40.8869 100.574 139.118 0.958719 61.2625 130.674 -30.5463 5.32074 121.793 42.3818 -5.46118 136.354 41.3679 19.789 176.551 48.36 11.6094 78.5109 24.8474 
153.682 172.537 165.349 129.782 138.884 140.916 166.646 157.503 99.9797 95.9954 11.3382 123.681 39.9054 100.678 139.898 0.232637 61.0288 131.554 -31.3202 4.57148 123.313 42.742 -5.98213 137.423 40.9644 19.5888 176.898 47.8498 11.2702 80.1482 25.1481 
153.587 172.775 165.282 130.203 139.307 140.804 167.067 157.542 98.9355 95.391 10.8664 123.88 39.0547 100.998 140.878 -0.380592 61.0374 132.529 -32.1152 4.04469 124.541 42.9308 -6.3512 138.276 40.5624 19.3941 177.157 47.3718 11.0574 81.6631 25.4788 
153.46 172.911 165.279 130.332 139.279 140.592 167.343 157.735 98.2802 94.9788 10.5153 124.075 38.531 101.456 142.026 -0.82894 61.1997 133.519 -32.8902 3.7311 125.155 42.8451 -6.52589 138.608 40.1733 19.168 177.301 46.9748 11.0541 82.825 25.8252 
153.361 172.868 165.26 130.117 138.833 140.306 167.454 157.973 98.0512 94.8887 10.2277 124.414 38.3049 101.838 143.195 -1.03298 61.3186 134.391 -33.4384 3.51528 125.341 42.5554 -6.61081 138.608 39.8661 18.9196 177.475 46.716 11.2085 83.438 26.1609 
153.249 172.696 165.342 129.949 138.443 140.016 167.503 158.273 98.1827 95.0109 9.88302 124.751 38.1913 102.066 144.109 -1.08598 61.4261 135.075 -33.8505 3.2709 125.313 42.1778 -6.74544 138.552 39.5722 18.6761 177.639 46.4881 11.3759 83.7971 26.4219 
153.189 172.496 165.417 129.514 137.967 139.761 167.508 158.583 98.4903 95.3199 9.52404 125.185 38.1591 102.102 144.821 -0.992573 61.4628 135.703 -34.09 3.06463 125.253 41.6801 -6.87898 138.529 39.3215 18.4249 177.898 46.3518 11.5863 83.802 26.5709 
153.136 172.268 165.553 129.066 137.61 139.542 167.511 158.877 98.9773 95.7666 9.19236 125.699 38.1267 102.04 145.361 -0.76627 61.5344 136.212 -34.1609 2.95139 125.154 41.1229 -6.99949 138.543 39.0752 18.207 178.213 46.2844 11.7493 83.5064 26.6293 
153.063 172.037 165.702 128.693 137.339 139.431 167.523 159.118 99.596 96.3029 8.88971 126.192 37.9707 101.824 145.716 -0.602885 61.5404 136.739 -34.249 2.80869 125.053 40.3969 -7.19446 138.634 38.7293 17.9664 178.547 46.2175 11.885 83.0157 26.5857 
152.991 171.78 165.822 128.776 137.364 139.404 167.548 159.226 100.264 96.8226 8.49508 126.728 37.7222 101.53 145.923 -0.443177 61.54 137.306 -34.3153 2.60273 125.076 39.6369 -7.50367 138.957 38.3069 17.7422 178.953 46.1581 11.9225 82.4976 26.4861 
152.973 171.551 165.902 129.029 137.439 139.503 167.511 159.217 100.993 97.409 8.18176 127.234 37.4905 101.121 146.072 -0.246911 61.4648 137.795 -34.2572 2.43048 125.121 38.9597 -7.80868 139.291 37.9187 17.4955 179.402 46.1166 11.9109 81.8554 26.3453 
152.997 171.371 165.919 129.405 137.673 139.701 167.421 159.073 101.439 97.8009 8.06637 127.657 37.2018 100.787 146.285 -0.110059 61.3415 138.343 -34.225 2.41795 125.372 38.483 -7.98544 139.738 37.6991 17.3031 179.873 46.0727 11.9123 81.3236 26.2478 
153.071 171.277 165.855 129.722 137.846 139.914 167.301 158.859 101.845 98.1555 8.03329 128.041 37.1297 100.373 146.392 0.0477014 61.1219 138.639 -34.0618 2.46866 125.612 38.2651 -8.10005 140.106 37.6439 17.1053 180.369 46.0723 11.8822 80.7221 26.102 
153.088 171.269 165.723 129.88 138.057 140.07 167.147 158.552 101.5 97.9851 8.05456 128.223 37.0342 100.044 146.543 0.060667 60.7413 138.786 -34.0057 2.45857 126.185 38.4845 -8.23001 140.566 37.7685 16.8864 180.718 46.0134 11.7792 80.6215 26.1127 
153.143 171.363 165.56 130.041 138.285 140.195 167.066 158.253 101.092 97.7395 8.20235 128.425 37.1047 99.8356 146.733 0.0759864 60.4354 138.77 -33.8457 2.66423 126.696 38.8615 -8.1745 140.91 38.0753 16.7145 181.082 46.0021 11.7297 80.4023 26.0772 
153.196 171.505 165.336 130.268 138.605 140.332 167.012 157.878 100.482 97.3241 8.27439 128.535 37.1106 99.6807 146.747 0.0632706 60.1229 138.561 -33.6739 2.79011 127.288 39.3418 -8.16021 141.297 38.4125 16.5569 181.364 45.9537 11.6736 80.304 26.0575 
153.258 171.731 164.941 130.61 139.056 140.476 166.939 157.421 99.9245 96.8854 8.31184 128.637 37.0772 99.5879 146.747 0.00584602 59.7169 138.308 -33.5411 2.99492 127.824 39.8266 -8.08358 141.654 38.7733 16.404 181.633 45.887 11.6284 80.1213 26.1211 
153.327 171.986 164.573 130.878 139.468 140.604 166.925 156.971 99.3205 96.3841 8.22371 128.601 37.0819 99.499 146.595 -0.0569677 59.2609 137.81 -33.3458 3.05318 128.271 40.3557 -8.09886 141.915 39.1418 16.2293 181.755 45.8022 11.599 80.0249 26.225 
153.4 172.139 164.09 131.081 139.86 140.697 166.82 156.428 98.8348 95.8857 8.10416 128.498 37.0803 99.4778 146.394 -0.0517068 58.8673 137.262 -33.0985 3.18185 128.482 40.6356 -8.06418 142.05 39.4449 16.0693 181.764 45.7384 11.6883 79.6921 26.3561 
153.424 172.231 163.64 131.154 140.206 140.702 166.675 155.949 98.2867 95.3638 7.92537 128.416 37.1064 99.4076 146.221 -0.033524 58.4625 136.775 -32.8364 3.22313 128.702 40.8776 -8.09936 142.179 39.7246 15.871 181.738 45.6699 11.7988 79.4575 26.4832 
153.462 172.337 163.21 131.199 140.496 140.76 166.652 155.575 97.6559 94.8558 7.62879 128.211 37.0573 99.3175 145.807 0.0125985 57.9891 136.278 -32.6782 2.9583 129.02 41.1644 -8.35694 142.392 39.9187 15.6749 181.626 45.5705 11.8258 79.5881 26.6863 
153.606 172.338 162.884 131.037 140.548 140.877 166.639 155.478 97.5614 94.6524 7.4064 127.922 37.2125 99.3306 145.553 0.153216 57.5793 135.95 -32.6333 2.69111 128.827 41.2337 -8.64087 142.229 40.0621 15.4116 181.442 45.5501 11.9133 79.5847 26.9705 
153.806 172.273 162.557 130.904 140.618 141.014 166.576 155.437 97.7856 94.6699 7.22385 127.519 37.5422 99.3022 145.244 0.342049 57.2026 135.57 -32.5425 2.45944 128.298 41.2748 -8.90095 141.808 40.2588 15.1505 181.169 45.571 12.0379 79.492 27.2118 
153.994 172.131 162.371 130.596 140.512 141.186 166.551 155.634 98.276 94.8894 6.9995 127.122 37.9698 99.1895 144.936 0.596587 56.7856 135.308 -32.5108 2.12209 127.581 41.1165 -9.2614 141.304 40.372 14.8394 180.886 45.6379 12.2103 79.3292 27.4768 
154.15 171.921 162.279 130.349 140.278 141.316 166.469 156.096 98.9528 95.257 6.80962 126.69 38.5725 99.1264 144.816 0.859663 56.5383 135.256 -32.5515 1.86078 126.6 40.9517 -9.53569 140.518 40.4867 14.5244 180.539 45.7637 12.3814 79.2693 27.6754 
154.293 171.793 162.503 130.363 140.012 141.308 166.291 156.643 99.5684 95.7536 6.47136 126.232 39.0338 98.9132 144.529 1.1286 56.3751 135.282 -32.7186 1.42876 125.603 40.6671 -9.93796 139.709 40.4298 14.167 180.015 45.869 12.4882 79.4427 27.8165 
154.312 171.522 162.955 130.657 139.815 141.267 166.265 157.388 100.423 96.2929 6.09589 125.88 39.4609 98.7851 144.637 1.33667 56.4139 135.631 -32.9517 1.02055 124.622 40.4921 -10.254 138.938 40.2993 13.855 179.649 46.059 12.4959 79.76 27.852 
154.188 171.371 163.457 130.749 139.576 141.105 166.259 157.913 100.773 96.583 5.74244 125.468 39.5928 98.5604 144.843 1.3927 56.4844 135.985 -33.1722 0.609032 123.935 40.4218 -10.5591 138.265 40.123 13.5217 179.155 46.2156 12.4242 80.304 27.7987 
153.983 171.341 163.924 130.746 139.326 140.832 166.362 158.275 100.51 96.5194 5.30968 125.027 39.5088 98.2835 145.117 1.31287 56.5167 136.439 -33.4078 0.134956 123.681 40.5765 -10.9014 137.836 39.9368 13.1869 178.599 46.3865 12.2251 81.2381 27.7077 
153.763 171.457 164.414 130.501 139.097 140.526 166.625 158.449 99.6227 96.192 4.83748 124.561 39.1562 97.914 145.132 1.20012 56.5095 136.727 -33.5689 -0.502033 123.901 40.9482 -11.3632 137.652 39.7773 12.8498 177.987 46.5388 11.9339 82.4415 27.5358 
153.604 171.857 164.741 130.373 138.96 140.288 166.953 158.356 98.1594 95.4368 4.33608 124.056 38.6302 97.4555 144.822 0.99998 56.1139 136.816 -33.7284 -1.432 124.733 41.756 -12.0621 137.942 39.8142 12.483 177.421 46.6712 11.5597 84.0277 27.4901 
153.599 172.293 164.818 130.232 138.865 140.167 167.132 158.025 96.9338 94.7379 3.91254 123.373 38.2359 96.905 144.023 0.870797 55.4053 136.331 -33.7257 -2.23687 125.237 42.5714 -12.7208 138.006 40.076 12.1001 176.729 46.7891 11.3249 85.1425 27.5361 
153.686 172.794 164.796 130.162 138.838 140.128 167.252 157.655 95.8279 93.9856 3.56512 122.643 38.1309 96.3721 142.985 0.83121 54.4857 135.486 -33.6081 -2.91812 125.556 43.5132 -13.3283 137.952 40.5871 11.7043 176.035 46.9594 11.1671 85.9729 27.6784 
153.852 173.258 164.643 130.252 138.906 140.273 167.318 157.025 94.7867 93.2126 3.2079 121.788 38.0048 95.7993 141.533 0.831119 53.339 134.17 -33.4055 -3.61411 125.813 44.3242 -13.9429 137.927 41.0421 11.3491 175.306 47.0432 11.0654 86.4342 27.9491 
154.077 173.657 164.512 130.284 139.038 140.471 167.41 156.553 94.1634 92.6712 2.94719 120.918 38.3367 95.3584 140.133 1.02003 52.2403 132.691 -33.0774 -4.01788 125.634 45.1908 -14.4034 137.556 41.7039 11.0088 174.612 47.1942 10.9678 86.5691 28.2752 
154.385 173.971 164.263 130.32 139.205 140.773 167.517 156.156 93.6576 92.1736 2.69765 119.993 38.7115 95.0778 138.767 1.28092 51.3237 131.12 -32.7398 -4.25664 125.236 45.973 -14.7505 136.993 42.3642 10.6907 173.889 47.3243 10.8942 86.5352 28.5905 
154.801 174.403 164.046 130.412 139.664 141.076 167.883 155.827 92.6769 91.2778 1.9929 118.141 39.3863 94.5363 136.348 1.74849 50.2199 128.065 -32.0058 -4.74985 124.202 47.2315 -15.4133 135.666 43.4745 10.0589 172.252 47.5621 10.8376 86.6051 28.8008 
154.995 174.537 163.632 130.568 139.967 141.203 167.972 155.656 92.3035 90.9127 1.66602 117.534 39.3868 94.4079 135.374 1.9104 49.9123 127.009 -31.7973 -4.78635 123.845 47.5166 -15.5585 135.225 43.7341 9.89046 171.685 47.5348 10.7992 86.5086 28.8498 
155.185 174.652 163.487 130.673 140.251 141.259 168.092 155.694 91.6777 90.3995 1.33802 116.757 39.4122 94.1249 134.204 2.11587 49.6323 125.843 -31.542 -4.93661 123.534 47.9595 -15.8258 134.732 44.0943 9.5939 170.951 47.5612 10.7432 86.6387 28.75 
155.367 174.719 163.419 130.941 140.503 141.285 168.146 155.745 91.0864 89.9219 1.05419 116.133 39.4921 93.8265 133.075 2.33089 49.4054 124.749 -31.2667 -5.08208 123.299 48.4923 -16.0611 134.282 44.4601 9.32055 170.326 47.6204 10.6585 86.8246 28.5789 
155.512 174.766 163.404 131.084 140.691 141.277 168.165 155.806 90.5248 89.5021 0.727429 115.447 39.7084 93.5432 131.893 2.60966 49.1211 123.535 -30.9632 -5.21255 122.848 48.9423 -16.3162 133.63 44.8318 9.00528 169.603 47.6765 10.5843 86.8902 28.4878 
155.653 174.78 163.372 131.275 140.863 141.296 168.106 155.896 90.1715 89.2609 0.472514 114.749 39.9019 93.3029 130.831 2.911 48.8403 122.505 -30.7368 -5.31402 122.228 49.3807 -16.5434 132.802 45.1851 8.66606 168.855 47.7365 10.4907 86.9882 28.4547 
155.75 174.772 163.401 131.504 141.051 141.184 168.024 155.979 89.8085 89.0453 0.353972 114.319 40.1591 93.0956 130.165 3.11841 48.5513 121.719 -30.5288 -5.33305 121.718 49.8858 -16.6888 132.024 45.6022 8.32433 168.267 47.8693 10.4062 87.1007 28.4215 
155.848 174.778 163.585 131.824 141.177 141.048 168.049 156.154 89.584 88.8499 0.129401 113.821 40.4878 92.9367 129.417 3.34191 48.2685 120.78 -30.3916 -5.49694 121.023 50.333 -16.9378 131.15 45.9477 7.96554 167.595 47.9669 10.3321 87.2481 28.4661 
155.933 174.793 163.956 132.258 141.361 140.894 168.165 156.482 89.4611 88.6441 -0.242857 113.346 40.786 92.814 128.661 3.51738 48.0284 119.912 -30.4048 -5.81088 120.347 50.7242 -17.2775 130.394 46.2304 7.62403 166.95 48.0264 10.291 87.5361 28.5379 
156.018 174.815 164.08 133.012 141.597 140.838 168.213 156.566 89.0814 88.2264 -0.786282 112.806 40.7307 92.6548 127.889 3.54974 47.7182 119.196 -30.5525 -6.3373 120.003 51.0825 -17.7275 129.911 46.3693 7.28164 166.303 47.9876 10.2827 88.1305 28.6333 
156.1 174.824 164.074 133.776 141.943 140.776 168.242 156.603 88.4271 87.6145 -1.4186 112.298 40.5962 92.4333 127.225 3.47163 47.4104 118.588 -30.6807 -6.85562 119.947 51.4679 -18.1731 129.666 46.5565 6.92862 165.718 47.9399 10.3133 88.8552 28.6446 
156.064 174.817 163.979 134.845 142.362 140.736 168.238 156.477 87.7332 86.9181 -2.1783 111.808 40.049 92.2526 126.731 3.32961 47.289 118.334 -30.9111 -7.49026 120.108 51.7091 -18.6777 129.654 46.5019 6.57634 165.16 47.8602 10.3437 89.7541 28.5796 
155.949 174.815 163.943 135.894 142.736 140.646 168.206 156.285 87.0705 86.2585 -2.9715 111.374 39.3953 92.0615 126.254 3.18557 47.1776 118.094 -31.1158 -8.13802 120.356 51.9325 -19.1817 129.704 46.3807 6.23569 164.62 47.7551 10.3671 90.6488 28.5103 
155.809 174.822 163.914 136.765 143.078 140.477 168.127 156.078 86.3655 85.6151 -3.64839 110.963 38.9041 91.8086 125.78 3.09191 47.078 117.724 -31.1309 -8.59959 120.599 52.2503 -19.5614 129.674 46.3772 5.91835 164.087 47.6794 10.3824 91.4233 28.3603 
155.704 174.828 163.822 137.318 143.295 140.378 168.078 155.864 85.8575 85.1726 -4.20917 110.38 38.5833 91.5389 125.078 3.12793 46.9536 117.092 -30.998 -9.0328 120.52 52.4744 -19.9408 129.383 46.3725 5.61006 163.434 47.5995 10.3877 91.9524 28.235 
155.593 174.828 163.701 137.609 143.449 140.232 168.03 155.548 85.6829 85.016 -4.74983 109.874 38.344 91.1901 124.363 3.27453 46.7718 116.421 -30.7047 -9.44622 120.218 52.5514 -20.309 129.019 46.3116 5.31091 162.83 47.5469 10.3826 92.119 28.1233 
155.465 174.791 163.58 138.016 143.822 139.816 168.011 155.268 85.789 85.0805 -5.70522 108.804 38.5342 90.3717 122.625 3.74508 46.3791 114.689 -30.0365 -10.1875 119.03 52.7716 -21.0661 127.876 46.3841 4.66532 161.571 47.5307 10.2812 92.1315 27.846 
155.372 174.825 163.571 137.758 143.763 139.515 168.119 155.309 85.9809 85.3271 -5.7661 108.45 38.715 90.1144 122.23 3.71397 46.3899 114.218 -29.8659 -10.2924 118.501 52.6996 -21.1921 127.337 46.2745 4.52161 161.17 47.4176 10.2285 92.0994 27.6498 
