151.792 175.604 175.519 145.202 140.373 129.307 171.478 175.905 81.8749 78.9497 108.477 137.046 104.761 177.406 148.514 39.3782 151.857 143.955 9.3315 95.9652 157.158 119.378 83.6584 157.471 108.42 108.026 188.919 98.4298 11.3988 117.705 12.8627 
151.899 175.541 175.664 145.34 139.893 129.074 171.425 175.971 81.7061 78.6695 108.043 136.943 104.796 176.667 148.342 39.2904 151.188 143.634 9.38136 95.434 156.983 119.26 83.1226 157.151 108.143 107.394 188.623 98.3061 11.5348 117.807 12.773 
151.86 175.465 175.81 145.364 139.333 128.736 171.4 176.004 81.6634 78.487 107.51 136.93 104.847 175.732 148.107 39.0373 150.263 143.268 9.2826 94.8473 156.781 119.153 82.534 156.883 107.881 106.746 188.384 98.1658 11.6828 117.851 12.6693 
151.749 175.446 175.956 145.401 138.874 128.417 171.371 176.025 81.6704 78.2598 107.18 137.138 104.919 174.925 147.984 38.9044 149.434 143 9.22481 94.3685 156.733 119.183 82.0115 156.792 107.756 106.125 188.295 98.084 11.7552 117.878 12.6382 
151.73 175.577 176.005 145.49 138.622 128.297 171.284 175.917 81.735 78.1384 106.966 137.245 104.773 174.172 147.935 38.7083 148.564 142.801 9.07265 93.9581 156.563 119.149 81.5201 156.602 107.648 105.42 188.162 97.9359 11.7769 117.738 12.7051 
151.737 175.656 176.114 145.654 138.617 128.323 171.28 175.89 81.5727 77.9768 106.511 137.108 104.616 173.239 147.724 38.383 147.41 142.379 8.85419 93.3928 156.347 118.969 80.8766 156.359 107.5 104.649 187.91 97.7366 11.7927 117.636 12.7624 
151.79 175.757 176.49 145.937 139.025 128.379 171.429 176.078 81.4301 77.8925 106.061 136.867 104.475 172.437 147.515 38.0365 146.311 142.088 8.50843 92.7859 156.248 118.787 80.2656 156.254 107.406 103.983 187.69 97.5144 11.7848 117.774 12.9007 
152.017 175.757 176.636 146.109 139.143 128.417 171.455 176.118 81.265 77.8036 105.831 136.712 104.365 171.589 147.342 37.6266 145.311 141.766 8.26583 92.2767 155.993 118.604 79.6979 155.94 107.295 103.261 187.406 97.3029 11.7823 117.788 12.8991 
152.031 175.709 176.9 146.062 139.377 128.406 171.595 176.329 81.1961 77.8626 105.13 136.521 104.388 170.744 147.189 37.3193 144.335 141.555 8.02233 91.6137 155.851 118.466 79.0605 155.828 107.273 102.606 187.251 97.1595 11.7729 117.881 12.9028 
152.014 175.669 177.034 146.03 139.853 128.183 171.608 176.405 81.3312 78.0467 104.61 136.427 104.373 170.129 147.085 37.1549 143.789 141.352 7.89261 91.0424 155.606 118.409 78.5436 155.645 107.306 102.007 187.069 97.0364 11.7238 117.86 12.8299 
152.015 175.675 177.114 146.042 140.097 128.103 171.634 176.439 81.3767 78.1127 104.057 136.386 104.447 169.474 146.976 37.0922 143.161 141.141 7.9048 90.4546 155.442 118.384 77.9794 155.548 107.334 101.414 186.985 97.0007 11.7015 117.76 12.7612 
151.988 175.73 177.071 146.158 140.643 127.92 171.674 176.468 81.4531 78.183 103.718 136.255 104.648 168.78 146.785 36.9125 142.503 140.667 7.94802 89.9817 155.248 118.519 77.4816 155.37 107.567 100.801 186.745 96.9148 11.6151 117.804 12.6321 
151.891 175.784 176.878 146.528 141.292 127.991 171.559 176.344 81.2784 78.1618 103.253 135.976 104.812 168.142 146.64 36.8252 141.811 140.336 8.04185 89.4822 155.089 118.505 76.93 155.186 107.719 100.13 186.571 96.8678 11.5369 117.672 12.5939 
151.893 175.805 176.756 146.848 141.718 128.139 171.588 176.272 81.1043 78.1232 102.717 135.753 104.932 167.518 146.442 36.7218 141.128 139.978 8.10431 88.9694 155.032 118.482 76.3831 155.051 107.777 99.531 186.456 96.8142 11.5207 117.605 12.5465 
151.995 175.775 176.855 146.957 141.978 128.301 171.745 176.333 81.0659 78.1645 101.762 135.3 105.142 166.865 146.206 36.5993 140.421 139.696 8.03496 88.2162 154.887 118.43 75.6461 154.915 107.769 98.8958 186.313 96.7665 11.5013 117.638 12.5188 
152.128 175.815 176.972 146.858 142.314 128.32 171.971 176.501 81.2075 78.2682 100.813 134.957 105.35 166.181 145.896 36.5084 139.684 139.344 7.89979 87.4171 154.772 118.504 74.8543 154.843 107.87 98.229 186.137 96.6814 11.4235 117.837 12.5453 
152.393 175.857 177.047 146.639 142.725 128.275 172.141 176.71 81.4852 78.5547 99.5319 134.426 105.502 165.283 145.411 36.2002 138.815 138.947 7.5095 86.4873 154.624 118.521 73.97 154.824 107.974 97.5569 185.927 96.5062 11.3283 118.1 12.5046 
152.558 175.936 177.112 146.689 143.195 128.399 172.347 176.904 81.6662 78.8265 98.3841 133.847 105.596 164.47 145.116 35.8431 137.94 138.722 7.07724 85.6521 154.384 118.376 73.1679 154.671 107.905 96.8643 185.733 96.2729 11.285 118.249 12.5277 
154.028 175.958 177.778 147.296 144.565 128.664 172.07 176.467 81.9689 79.8491 96.2487 133.161 105.454 163.164 144.091 35.1864 135.816 137.16 6.78864 84.6332 153.955 118.382 71.9656 154.085 107.977 95.992 185.24 96.0773 11.3162 117.811 12.6541 
154.358 176.026 177.937 147.249 144.937 128.638 172.083 176.669 82.312 80.0097 95.7101 132.883 105.354 162.727 144.233 34.8478 135.17 137.108 6.34926 84.1297 153.771 118.379 71.4335 153.972 108.039 95.3332 185.152 95.8072 11.1354 117.932 12.8212 
154.98 176.006 177.937 147.576 145.641 128.65 172.066 176.155 82.3275 80.4997 93.6494 132.792 105.081 161.466 143.692 34.1924 133.264 136.085 6.19117 83.1753 153.715 118.388 70.3014 153.828 108.112 94.5269 184.959 95.7207 11.1486 117.66 12.8751 
155.231 175.856 177.786 147.998 146.005 128.463 172.196 175.686 82.6295 80.792 91.6293 132.845 104.59 160.235 143.199 33.3598 131.572 134.975 6.03895 82.3713 153.618 118.507 69.2885 153.62 108.015 93.7318 184.672 95.4935 11.1763 117.52 12.8048 
154.581 175.859 177.583 147.939 146.258 127.991 172.346 176.022 82.8011 80.6876 91.594 132.934 104.308 160.305 143.819 33.0995 131.72 135.35 5.44061 82.038 153.525 118.355 69.0204 153.449 107.866 93.1772 184.584 95.0761 11.0457 118.062 12.9376 
154.776 175.706 177.254 148.075 146.391 127.691 172.054 175.617 82.8023 80.9413 89.8406 133.062 103.719 159.429 143.263 32.6429 130.691 134.638 5.3457 81.2305 153.391 118.16 68.062 153.193 107.675 92.4387 184.3 94.7869 11.0641 117.915 12.8954 
155.046 175.53 176.892 148.135 146.658 127.661 171.72 175.108 82.7516 81.0657 88.3272 133.29 102.923 158.545 142.93 32.1495 129.966 134.062 5.33917 80.5729 153.317 117.903 67.2432 153.053 107.408 91.7577 184.156 94.5279 11.0866 117.487 12.6273 
155.351 175.397 176.519 148.055 146.883 127.97 171.466 174.587 82.5936 81.1493 87.0854 133.596 102.25 157.779 142.834 31.8763 129.456 133.832 5.45794 79.9984 153.312 117.597 66.5441 153.098 107.163 91.1655 184.309 94.4439 11.1153 116.77 12.3315 
155.536 175.088 176.363 148.209 147.401 128.212 171.399 174.327 82.4919 81.2741 85.7157 133.595 101.783 156.858 142.559 31.4163 128.646 133.406 5.36525 79.2362 153.146 117.366 65.7175 152.909 106.978 90.4539 184.157 94.2408 11.1791 116.573 12.1321 
155.606 174.695 176.358 148.37 147.891 128.318 170.952 174.104 82.3418 81.3477 84.7014 133.452 101.063 156.1 142.189 31.0355 127.807 132.839 5.25721 78.5829 152.868 117.007 65.0007 152.484 106.693 89.6996 183.756 93.8429 11.231 116.476 12.139 
155.682 174.541 176.299 148.335 148.124 128.46 170.742 173.903 82.4993 81.4727 83.5467 133.381 100.419 155.015 141.537 30.6066 126.453 132.258 5.08305 77.7609 152.758 116.806 64.1321 152.399 106.436 89.0419 183.551 93.5102 11.3091 116.377 12.2039 
155.73 174.441 176.07 148.227 148.191 128.504 170.426 173.684 82.4374 81.4305 82.6933 133.734 100.035 154.315 141.496 30.532 125.43 132.189 5.12436 77.1418 152.844 116.677 63.4558 152.512 106.334 88.4357 183.683 93.4354 11.3216 116.162 12.3797 
155.879 174.376 175.834 148.045 148.33 128.711 170.271 173.519 82.5553 81.5855 81.7523 133.962 99.7639 153.458 141.328 30.4763 124.305 132.072 5.14806 76.3698 152.913 116.567 62.7216 152.761 106.244 87.851 183.916 93.4086 11.3477 115.804 12.4962 
156.048 174.404 175.555 148.051 148.646 129.074 170.402 173.312 82.5928 81.658 81.0933 133.966 99.5346 152.736 141.253 30.3133 123.136 131.789 5.12621 75.5537 152.812 116.47 61.9876 152.704 106.146 87.1544 183.977 93.3596 11.4676 115.54 12.7316 
156.194 174.28 175.377 147.931 149.073 129.301 170.23 173.192 82.8195 81.8384 80.6914 133.89 99.0426 152.425 141.256 30.2818 122.544 131.719 5.00453 74.9602 152.738 116.301 61.4876 152.628 105.959 86.5743 183.951 93.0924 11.5051 115.492 12.9773 
156.288 174.37 175.209 147.872 149.493 129.403 170.285 173.098 83.1289 82.0621 80.1117 133.833 98.7197 151.882 141.161 30.1639 121.777 131.661 4.87268 74.2933 152.621 116.226 60.8934 152.62 105.874 85.9702 183.937 92.9191 11.4943 115.414 13.1275 
156.917 174.402 175.3 145.746 148.623 130.446 170.35 173.116 83.4982 81.9736 79.2071 133.182 97.2884 151.547 140.669 29.9378 121.158 132.042 4.41875 73.18 151.667 114.941 59.9784 152.526 104.4 85.2867 184.027 92.5343 11.5305 113.966 13.3038 
157.344 174.836 175.476 144.393 147.135 131.199 170.975 173.333 83.9793 81.8364 78.4356 132.641 96.3506 151.009 140.183 29.5981 120.468 132.224 3.98575 72.1958 150.84 113.889 59.0893 152.61 103.107 84.6436 184.207 92.2451 11.4284 112.547 13.3282 
157.709 174.971 175.231 145.112 146.686 131.242 171.505 173.393 84.0103 81.6182 77.5491 132.748 96.34 150.127 140.106 29.3682 119.468 131.669 4.04824 71.8327 150.791 114.083 58.6235 152.545 103.12 84.0454 184.227 92.23 11.4413 112.407 13.28 
157.764 175.134 175.411 144.186 144.86 131.632 171.822 173.514 84.279 81.3256 76.8951 132.341 95.7985 149.381 139.651 28.9548 118.613 131.47 3.79911 70.9685 150.127 113.274 57.7972 152.611 102.14 83.3782 184.275 91.994 11.3275 111.227 13.2201 
157.893 175.305 175.625 143.831 143.281 131.849 172.161 173.615 84.4408 81.0164 76.194 131.901 95.1056 148.482 139.163 28.3452 117.752 131.302 3.37227 70.0493 149.542 112.467 56.8992 152.714 101.317 82.6457 184.169 91.6727 11.0731 110.375 13.0451 
157.998 175.455 175.75 143.798 141.97 131.985 172.357 173.625 84.6645 80.8422 75.6107 131.697 94.7514 147.669 138.537 28.1176 116.795 131.002 3.16083 69.2103 148.89 111.838 56.0327 152.7 100.66 81.9476 184.173 91.5197 10.8689 109.302 13.0447 
158.134 175.635 176.077 143.727 140.952 132.115 172.636 173.841 84.6009 80.6121 75.0743 131.513 94.4835 146.813 138.235 27.6893 115.887 130.855 2.8597 68.4041 148.623 111.246 55.2224 152.916 100.256 81.2383 184.242 91.3052 10.6116 108.647 12.963 
158.243 175.753 176.364 143.44 139.962 132.353 172.806 174.008 84.328 80.4014 74.34 131.074 94.1192 145.626 137.52 27.1759 114.677 130.295 2.5505 67.4927 148.188 110.456 54.3323 152.86 99.7306 80.4243 184.037 90.9498 10.4677 107.955 12.8503 
158.313 175.81 176.563 143.001 139.232 132.402 173.032 174.128 84.0664 80.3169 73.6198 130.747 93.8786 144.512 136.842 26.6271 113.526 129.578 2.2342 66.5798 147.767 109.73 53.471 152.723 99.3396 79.5859 183.812 90.5708 10.3516 107.34 12.7467 
158.364 175.859 176.695 142.822 138.786 132.381 173.184 174.189 83.9711 80.3673 72.8819 130.574 93.5777 143.704 136.334 26.1628 112.555 129.078 1.85548 65.7638 147.317 109.008 52.6864 152.547 98.8632 78.884 183.666 90.1979 10.2496 106.721 12.7839 
158.337 175.982 176.948 142.605 138.45 132.306 173.382 174.454 83.6996 80.3071 72.159 130.391 93.3314 143.021 135.978 25.7777 111.835 128.782 1.43924 64.9513 147.157 108.332 51.9357 152.485 98.3877 78.2154 183.545 89.7829 10.2172 106.518 12.7919 
157.604 176.232 176.483 143.196 138.426 132.021 173.635 174.214 82.626 79.6466 73.1928 130.228 93.654 142.51 136.334 25.4328 110.161 128.401 0.844615 64.4419 147.715 108.075 51.6155 152.625 98.5545 77.6414 183.525 89.2864 10.4348 107.369 13.6212 
156.763 176.439 175.9 143.249 139.119 131.246 173.956 174.228 81.6805 79.4808 73.9392 130.284 94.2702 141.665 136.599 24.8913 108.549 128.006 0.306938 64.0402 148.156 107.901 51.3043 152.568 99.0168 77.0194 183.444 88.8075 10.5556 108.191 14.1328 
155.314 176.356 175.145 143.993 142.674 131.103 173.526 173.164 80.6555 79.6964 74.4567 130.584 94.8428 140.127 136.559 24.3146 106.094 126.766 0.598902 63.6738 148.289 107.897 50.7247 152.62 100.428 76.2098 183.376 88.662 10.1048 107.721 14.5584 
153.997 176.426 174.995 142.591 144.534 131.444 173.389 172.648 80.378 79.8924 73.2631 129.407 94.8221 137.527 134.901 22.9477 102.375 124.664 0.386945 62.2616 147.527 107.346 49.4719 152.145 100.798 75.0275 182.545 87.9292 10.1916 106.972 14.9639 
153.067 176.319 174.291 141.202 145.775 131.75 173.371 171.635 80.316 80.1694 72.5733 128.615 94.7871 135.614 133.735 21.8265 99.5162 122.762 0.580381 61.2206 146.911 106.919 48.5245 151.759 101.067 74.0972 182.052 87.3511 10.2268 105.896 15.3018 
152.836 176.594 173.499 140.755 146.567 131.022 174.081 171.382 80.0365 80.4181 71.993 128.385 95.6305 134.759 133.359 21.4021 98.5636 121.872 0.629905 60.4225 147.089 106.854 47.9866 151.611 101.251 73.5971 181.791 86.8984 10.4853 106.527 15.3165 
152.065 176.536 173.293 139.646 147.38 131.319 174.298 171.213 80.0622 80.6252 71.6592 127.976 95.479 133.866 133.035 20.4679 97.3551 121.238 0.312395 59.7911 146.654 106.541 47.369 151.304 101.349 72.8592 181.531 86.4836 10.4841 106.145 15.3956 
151.376 176.518 173.331 138.528 148.16 131.555 174.386 171.209 80.1473 80.8212 71.1556 127.492 95.1837 132.863 132.47 19.6323 96.2458 120.481 -0.0687728 59.1299 146.238 106.204 46.7199 151.039 101.364 72.1169 181.175 86.0331 10.4844 105.82 15.3506 
150.954 176.458 173.397 138.073 149.068 131.787 174.364 171.163 80.4375 81.1013 70.5061 127.039 94.6777 131.851 131.8 18.9126 95.2154 119.607 -0.411128 58.4545 145.896 106.04 46.0399 150.802 101.356 71.377 180.789 85.5831 10.449 105.612 15.2676 
150.809 176.429 173.354 137.5 149.641 131.935 174.292 171.154 80.6892 81.3317 69.9295 126.845 94.4664 130.83 131.199 18.5671 94.2546 118.906 -0.364079 57.8635 145.899 106.185 45.4611 150.816 101.593 70.6441 180.614 85.3257 10.4713 105.55 15.1316 
150.788 176.326 173.152 137.095 149.999 132.016 174.119 170.942 80.8098 81.5165 69.4429 126.915 94.3766 130.218 131.006 18.6093 93.6247 118.604 -0.00423813 57.425 145.986 106.226 45.0046 150.913 101.708 70.0889 180.684 85.2233 10.4528 105.256 15.1177 
151.503 176.377 172.841 138.361 149.924 131.424 174.315 171.167 80.3705 81.4311 69.0976 127.007 94.8425 130.317 131.291 19.302 94.0788 118.775 0.289566 57.1157 146.812 106.537 44.7323 151.035 101.625 69.7961 180.677 85.1585 10.5027 106.723 15.0333 
151.736 176.328 172.867 138.104 150.066 131.62 174.18 171.298 80.4461 81.4281 68.5217 126.965 94.4442 129.959 131.529 19.1668 93.7365 119.051 0.0805616 56.6614 146.626 106.437 44.2307 150.825 101.523 69.1386 180.657 85.1444 10.4779 106.541 15.0359 
152.425 176.366 173.036 139.609 150.141 130.999 174.358 171.796 79.5001 81.0663 68.0239 127.097 94.7349 130.38 132.149 19.7327 94.5904 119.611 0.00824547 56.3077 147.141 106.332 43.8795 150.629 101.23 68.7951 180.551 85.1697 10.5097 107.88 14.9408 
152.597 176.307 173.267 138.812 150.122 131.314 174.096 171.988 79.8595 81.3137 66.9888 126.934 94.2392 129.807 132.126 19.5729 93.9806 119.899 -0.367337 55.5169 146.392 105.92 43.1195 150.12 100.926 68.0606 180.483 85.1629 10.5099 107.022 14.9627 
153.364 176.479 173.442 139.799 149.909 130.966 174.428 172.554 79.7948 81.2531 66.0963 126.922 94.6956 129.677 132.162 20.0982 94.3049 120.187 -0.46497 54.8011 146.646 106.205 42.4524 150.084 100.866 67.5709 180.434 85.2286 10.5475 108.128 14.7682 
154.012 176.644 173.725 141.202 150.009 130.368 174.757 173.317 79.4171 81.1298 65.4928 126.959 95.0702 129.774 132.379 20.3554 95.0853 120.525 -0.912688 54.2424 146.95 106.31 41.9406 149.88 100.7 67.0786 180.282 85.1621 10.6176 109.468 14.456 
153.975 176.547 174.178 141.052 150.252 130.888 174.777 173.46 79.7459 81.2546 64.8082 126.691 94.3696 129.103 132.538 19.4486 94.3803 120.648 -1.71263 53.5209 146.495 106.094 41.25 149.566 100.5 66.2682 180.141 84.9749 10.6552 109.174 14.4015 
153.777 176.468 174.611 140.922 150.61 131.358 174.762 173.403 80.2367 81.4203 64.1665 126.325 93.5314 128.491 132.597 18.6025 93.8106 120.458 -2.33951 52.9361 146.094 105.889 40.6633 149.333 100.244 65.5236 179.904 84.6394 10.6376 108.873 14.3245 
153.794 176.42 175.041 140.649 150.752 131.815 174.59 173.496 80.7864 81.648 63.5373 125.975 92.7977 127.684 132.076 18.0717 92.9279 119.871 -2.74449 52.3604 145.84 105.802 40.0812 149.242 100.097 64.8115 179.674 84.2456 10.6284 108.563 14.3214 
153.926 176.29 175.293 140.013 150.784 132.211 174.14 173.353 81.3234 82.0265 62.7617 125.846 92.191 126.877 131.402 17.9349 91.7986 119.247 -2.80348 51.7876 145.506 105.571 39.4894 149.162 99.9607 64.1405 179.632 83.9209 10.5875 107.673 14.492 
154.059 176.122 175.272 139.312 150.672 132.476 173.698 172.944 81.6921 82.2584 62.122 125.969 91.7145 126.253 130.934 17.9244 90.7283 118.655 -2.57137 51.4273 145.325 105.349 39.0558 149.188 99.8457 63.5787 179.721 83.659 10.5202 106.689 14.754 
154.16 175.973 174.913 138.967 150.615 132.655 173.41 172.396 81.9287 82.3404 61.3928 126.202 91.419 125.863 130.818 17.922 89.9988 118.356 -2.31169 50.959 145.394 105.156 38.5627 149.413 99.6685 63.0621 179.936 83.4579 10.4977 105.975 14.9698 
154.222 175.825 174.435 138.584 150.646 132.836 173.143 171.881 82.0019 82.4106 60.7698 126.289 91.287 125.528 130.705 17.9253 89.4474 117.991 -2.1047 50.4574 145.238 104.833 38.0281 149.395 99.4919 62.4793 180.029 83.245 10.4598 105.214 15.1285 
154.323 175.814 174.211 137.975 150.52 133.103 172.944 171.614 82.2342 82.6 60.2308 126.297 91.0481 125.046 130.366 17.7974 88.7868 117.469 -2.16706 49.9539 144.943 104.516 37.4875 149.273 99.3484 61.9154 180.056 83.0213 10.4028 104.4 15.2315 
154.494 175.808 174.138 137.755 150.446 133.369 172.902 171.453 82.6091 82.8547 59.9912 126.347 90.6892 124.913 130.399 17.4575 88.3955 117.061 -2.36306 49.7535 144.803 104.384 37.2245 149.138 99.2342 61.4487 180.121 82.7342 10.3445 103.909 15.3979 
154.523 175.869 174.062 137.532 150.532 133.622 172.959 171.3 82.8449 83.093 59.4908 126.223 90.4256 124.681 130.256 17.1026 87.9908 116.622 -2.63641 49.2395 144.674 104.148 36.7206 149.069 99.0724 60.9303 180.077 82.4528 10.3218 103.589 15.5054 
153.731 175.957 173.871 138.611 151.076 133.86 173.259 171.155 82.5491 83.2475 58.1248 125.881 90.3555 123.489 128.636 16.5585 87.1197 115.361 -2.65054 48.1709 144.517 104.159 35.7505 148.653 99.0453 60.2392 179.324 82.0685 10.3564 104.251 15.0938 
153.108 175.99 173.805 139.266 151.388 133.989 173.551 170.993 82.5714 83.4147 57.0392 125.585 90.2933 122.401 127.395 16.0377 86.2843 114.262 -2.65256 47.3036 144.379 104.281 34.9556 148.37 99.0613 59.6134 178.716 81.721 10.3912 104.804 14.7763 
152.587 175.991 173.689 139.727 151.572 134.068 173.711 170.812 82.5986 83.5336 56.2963 125.303 90.3212 121.094 126.163 15.5925 85.1605 113.013 -2.49883 46.6559 144.267 104.554 34.3186 148.102 99.2681 59.0026 178.128 81.4336 10.4075 105.244 14.5169 
152.121 175.922 173.468 140.094 151.695 134.11 173.744 170.617 82.5215 83.536 55.9547 124.984 90.3706 119.989 125.259 15.2282 84.2412 111.958 -2.32966 46.2203 143.997 104.74 33.852 147.668 99.4531 58.4205 177.547 81.1852 10.4132 105.528 14.3117 
151.678 175.879 173.203 140.266 151.731 134.119 173.829 170.509 82.3635 83.5259 56.0162 124.728 90.4375 119.11 124.675 14.9112 83.4743 111.138 -2.14305 46.043 143.588 104.885 33.6234 147.055 99.6709 57.8977 176.979 80.9914 10.4336 105.738 14.1946 
151.208 175.873 172.947 140.451 151.757 134.058 173.934 170.471 82.1867 83.4814 56.2925 124.599 90.4335 118.299 124.197 14.5326 82.7338 110.436 -2.03701 46.0318 143.233 105.01 33.5596 146.49 99.8834 57.4866 176.484 80.7811 10.4684 105.957 14.1022 
150.792 175.85 172.648 140.586 151.759 133.989 173.963 170.42 82.098 83.445 56.4888 124.466 90.4679 117.484 123.599 14.3114 81.9632 109.78 -1.95138 45.8747 142.877 105.133 33.3739 146.02 100.061 57.1176 176.049 80.634 10.4966 106.111 14.0214 
150.51 175.899 172.384 140.566 151.653 133.937 174.015 170.398 82.1738 83.5304 56.4879 124.325 90.5532 116.656 122.972 14.221 81.2163 109.234 -1.90589 45.5315 142.547 105.249 33.0302 145.692 100.206 56.8012 175.751 80.5574 10.4999 106.141 13.9158 
150.29 175.917 172.25 140.522 151.566 133.892 174.038 170.469 82.319 83.6334 56.4703 124.063 90.5623 116.003 122.435 14.0786 80.6371 108.806 -2.09157 45.1861 142.172 105.271 32.6877 145.357 100.221 56.5458 175.448 80.4581 10.4853 106.197 13.8282 
150.283 175.924 172.186 140.39 151.447 133.888 173.957 170.568 82.5725 83.787 56.448 123.769 90.5208 115.548 122.058 14.0507 80.2393 108.608 -2.31414 44.918 141.785 105.256 32.4256 145.061 100.193 56.3612 175.247 80.3859 10.4616 106.127 13.7692 
150.356 175.927 172.096 140.237 151.318 133.921 173.918 170.63 82.8404 83.9297 56.4134 123.461 90.54 115.183 121.773 14.0802 79.9109 108.469 -2.49857 44.6183 141.434 105.257 32.1304 144.833 100.163 56.1959 175.094 80.3662 10.425 106.046 13.7416 
150.53 175.977 171.984 140.06 151.186 133.967 173.918 170.664 83.1311 84.1106 56.3837 123.19 90.5741 114.916 121.497 14.1015 79.6722 108.328 -2.65217 44.3521 141.085 105.251 31.8829 144.608 100.132 56.0835 174.97 80.3449 10.398 105.915 13.7175 
150.745 176.013 171.933 139.927 151.108 134.027 173.822 170.687 83.3307 84.2368 56.1895 122.804 90.5388 114.687 121.207 14.1362 79.4744 108.241 -2.85738 44.0165 140.675 105.102 31.5926 144.346 99.9919 55.9713 174.799 80.3139 10.3916 105.704 13.7005 
150.988 176.089 171.947 139.817 151.064 134.09 173.805 170.758 83.541 84.4073 55.9814 122.356 90.5155 114.433 120.752 14.1239 79.3117 107.968 -3.04209 43.733 140.238 104.991 31.3496 144.03 99.8909 55.8818 174.537 80.2507 10.3777 105.551 13.6277 
151.309 176.217 172.007 139.607 150.98 134.163 173.882 170.857 83.784 84.5943 55.6853 121.831 90.5452 114.211 120.229 14.119 79.1701 107.63 -3.21856 43.4347 139.839 104.902 31.0781 143.771 99.7918 55.8262 174.261 80.1908 10.3318 105.453 13.5607 
151.587 176.316 172.045 139.418 150.929 134.193 173.962 170.933 84.031 84.7762 55.3184 121.257 90.5627 113.973 119.59 14.1045 79.0059 107.194 -3.38341 43.1552 139.384 104.829 30.8247 143.445 99.6969 55.769 173.88 80.1139 10.2925 105.408 13.4947 
151.807 176.435 172.131 139.277 150.928 134.209 174.078 171.016 84.2871 84.9776 54.9317 120.654 90.6289 113.822 118.852 14.1042 78.9244 106.645 -3.51953 42.9603 138.894 104.837 30.6406 143.055 99.6788 55.7522 173.424 80.0441 10.2418 105.428 13.43 
151.866 176.727 172.362 139.236 150.971 134.125 174.525 171.13 84.4577 85.2238 54.3822 119.581 90.7847 114.247 117.788 14.1068 79.2881 105.777 -3.71863 42.7597 137.905 104.814 30.4607 142.074 99.582 55.8833 172.421 80.032 10.1717 105.683 13.4907 
