152.661 173.706 170.918 141.339 140.895 136.716 167.317 166.563 79.7848 77.001 -125.413 184.819 41.2919 -45.819 203.333 2.01306 -72.1522 215.122 -27.31 -143.93 203.441 60.4981 -149.21 214.925 53.8224 -118.708 233.812 65.2062 13.9837 107.428 14.8921 
152.678 173.871 170.873 140.953 140.755 136.739 167.221 166.385 79.7827 77.1832 -125.029 184.678 41.4069 -45.2091 202.883 2.44588 -71.7541 214.678 -27.0389 -143.22 202.973 60.1838 -148.559 214.544 53.8218 -118.169 233.569 65.3112 13.9376 106.745 15.1191 
152.758 174.065 170.782 140.568 140.708 136.83 167.108 166.313 79.8148 77.3662 -124.455 184.521 41.5387 -44.5387 202.616 2.908 -71.2921 214.282 -26.7002 -142.399 202.593 60.1833 -147.902 214.179 54.0108 -117.657 233.446 65.4378 13.8372 106.17 15.2909 
152.875 174.257 170.65 140.519 140.85 136.933 166.895 166.191 80.0623 77.5976 -123.896 184.224 41.7086 -43.7905 202.419 3.42167 -70.7501 213.835 -26.4092 -141.423 201.96 60.4663 -147.083 213.525 54.303 -117.117 233.294 65.5216 13.7886 105.764 15.4555 
152.828 174.431 170.474 140.421 140.906 136.974 166.662 166.082 80.1206 77.6838 -123.446 184.028 41.7432 -43.276 202.033 3.90794 -70.2898 213.278 -26.0703 -140.571 201.553 60.6589 -146.355 213.084 54.5086 -116.569 233.082 65.5926 13.7505 105.343 15.5522 
152.687 174.462 170.376 140.235 140.792 136.999 166.657 166.226 80.0929 77.7027 -123.091 183.789 41.9615 -42.9658 201.228 4.41119 -69.596 212.343 -25.5791 -139.886 201.267 61.0384 -145.749 212.754 54.8187 -116.062 232.807 65.7572 13.7039 105.127 15.331 
152.529 174.458 170.239 140.03 140.54 137.034 166.535 166.279 80.1392 77.7923 -122.875 183.416 42.2382 -42.6003 200.003 5.16071 -69.0263 211.121 -25.0407 -139.314 200.78 61.1459 -145.198 212.32 55.0183 -115.574 232.436 65.9029 13.6835 104.551 15.3508 
152.597 174.355 170.11 139.762 140.444 137.087 166.279 166.209 80.0967 77.8624 -122.571 182.957 42.5693 -42.2451 198.743 5.74873 -68.5977 209.766 -24.6174 -138.709 200.212 61.1983 -144.638 211.808 55.2414 -115.108 232.013 66.0214 13.6806 103.911 15.3964 
152.817 174.237 169.961 139.615 140.423 137.13 166.023 166.057 80.3152 78.0796 -122.276 182.344 42.8928 -41.7616 197.565 6.33322 -68.1469 208.52 -24.2631 -138.063 199.394 61.2511 -144.038 211.128 55.4481 -114.6 231.517 66.1511 13.6296 103.259 15.5288 
153.174 174.378 169.642 139.291 140.683 137.245 165.973 166.081 80.7987 78.485 -121.936 181.691 43.3372 -41.2125 196.416 6.93039 -67.8555 207.089 -23.8766 -137.294 198.428 61.5914 -143.41 210.272 55.848 -114.165 231.13 66.2407 13.5097 102.575 15.7161 
153.424 174.531 169.162 139.254 141.202 137.314 165.793 166.122 81.1919 78.8891 -121.235 180.921 43.7609 -40.4399 195.545 7.43169 -67.6812 205.614 -23.571 -136.268 197.33 62.124 -142.587 209.119 56.3123 -113.61 230.61 66.2537 13.4145 102.062 16.0472 
153.633 174.677 168.656 139.274 141.655 137.512 165.658 166.434 81.447 79.2136 -120.449 180.254 44.0751 -39.7504 194.765 7.86892 -67.4227 204.359 -23.3031 -135.362 196.543 62.662 -141.829 208.184 56.7112 -113.115 230.231 66.2225 13.3893 101.768 16.2831 
153.752 174.926 168.031 139.663 142.426 137.625 165.503 166.67 81.6128 79.5687 -119.887 179.757 44.3513 -39.1923 193.978 8.25861 -67.2336 203.239 -22.9446 -134.488 195.911 63.1932 -141.107 207.325 57.0672 -112.656 229.955 66.1638 13.3576 101.53 16.4472 
153.881 175.082 167.647 140.121 142.879 137.945 165.365 167.198 81.9047 79.9285 -119.323 179.289 44.5117 -38.8474 193.215 8.49745 -66.8025 202.453 -22.701 -133.833 195.402 63.7494 -140.534 206.641 57.3592 -112.283 229.743 66.1135 13.3288 101.555 16.3605 
154.137 175.175 167.295 140.613 143.331 138.348 165.145 167.352 82.0089 80.2525 -118.639 178.803 44.6629 -38.4668 192.269 8.82519 -66.7367 201.434 -22.3827 -133.157 194.938 64.3465 -139.938 205.913 57.7085 -111.89 229.463 66.0398 13.3443 101.565 16.5366 
154.216 175.252 167.002 141.244 144.12 138.721 164.849 167.374 82.2182 80.7975 -117.746 177.979 45.1246 -37.6842 190.774 9.72288 -66.5102 199.632 -21.5864 -131.813 194.059 65.2438 -138.774 204.646 58.2708 -111.116 228.994 66.0279 13.3172 101.205 16.889 
154.268 175.353 167.229 141.361 144.255 138.998 164.533 166.743 82.1616 81.0591 -117.152 177.38 45.1333 -37.4302 189.859 9.92936 -66.86 198.357 -21.3244 -131.102 193.417 65.2109 -138.155 203.82 58.1983 -110.718 228.566 65.7679 13.3378 100.624 17.2199 
154.299 175.223 168.012 141.595 144.444 139.209 164.419 166.483 82.1926 81.2367 -116.612 176.963 45.3413 -37.2014 189.016 10.0819 -67.089 197.496 -21.2468 -130.707 193.104 65.3559 -137.789 203.401 58.2246 -110.391 228.363 65.6072 13.3246 100.526 17.5335 
154.26 174.746 167.586 141.976 144.4 139.298 164.42 167.682 82.2918 81.2527 -116.344 176.833 45.6051 -37.2397 188.663 9.81669 -65.9083 197.677 -21.9206 -130.879 193.253 65.5174 -137.872 203.577 58.1957 -110.229 228.415 65.5836 13.2993 101.441 16.9757 
154.149 174.531 167.409 142.168 144.196 139.317 164.515 168.037 82.4324 81.3123 -115.923 176.706 45.8787 -37.3546 188.41 9.51544 -65.3521 197.594 -22.3117 -131.038 193.341 65.6396 -137.952 203.719 58.1839 -110.073 228.44 65.5865 13.2642 101.928 16.5862 
153.932 174.433 167.21 142.451 144.143 139.263 164.638 168.247 82.5995 81.3862 -115.472 176.407 46.2289 -37.3768 188.13 9.26864 -64.9605 197.215 -22.4789 -131.017 193.313 65.844 -137.886 203.709 58.2116 -109.827 228.378 65.537 13.2038 102.295 16.2506 
153.671 174.186 167.379 142.782 144.113 139.201 164.667 167.771 82.678 81.4253 -114.965 176.123 46.5134 -37.394 187.846 8.93963 -64.9266 196.652 -22.8108 -130.988 193.25 66.0654 -137.783 203.63 58.304 -109.567 228.221 65.4503 13.2204 102.643 16.1264 
153.44 173.796 168.04 143.224 144.155 139.007 164.619 166.454 82.5972 81.2756 -114.653 176.073 46.7767 -37.4535 187.859 8.52168 -64.8041 196.294 -23.0225 -130.99 193.53 66.3647 -137.73 203.864 58.4801 -109.362 228.273 65.403 13.2515 103.023 15.8209 
153.311 173.426 168.447 143.915 144.303 138.897 164.708 165.706 82.6704 81.1307 -114.259 175.868 46.9029 -37.2409 187.917 8.04076 -64.6967 195.79 -23.3041 -130.993 193.672 66.7393 -137.679 203.976 58.641 -109.117 228.202 65.2747 13.2507 103.463 15.6753 
153.299 173.104 168.542 144.419 144.319 138.947 164.827 165.076 82.877 81.1649 -113.823 175.555 47.1379 -36.968 187.811 7.62565 -64.6276 194.979 -23.4921 -130.765 193.551 67.0884 -137.423 203.84 58.8116 -108.761 228.096 65.1416 13.2442 103.595 15.57 
153.321 172.972 168.404 144.938 144.503 139.168 164.855 164.514 83.3015 81.4886 -113.264 175.048 47.3808 -36.737 187.441 7.32134 -64.6503 193.92 -23.5358 -130.276 193.072 67.5489 -136.974 203.295 59.0759 -108.349 227.862 64.962 13.2016 103.539 15.4956 
153.163 172.976 167.97 145.275 144.699 139.225 164.586 163.872 83.4885 81.6481 -112.931 174.617 47.3817 -36.5064 187.15 7.24199 -64.7564 193.08 -23.4865 -129.686 192.599 67.6449 -136.433 202.772 59.0853 -107.921 227.558 64.717 13.1921 103.269 15.6133 
153.069 172.995 167.819 145.423 144.794 139.404 164.511 163.605 83.6412 81.858 -112.747 174.272 47.5625 -36.4682 186.732 7.19921 -64.7779 192.491 -23.3251 -129.251 192.319 67.8036 -135.981 202.416 59.1774 -107.563 227.418 64.5845 13.2407 103.189 15.5505 
153.048 173.104 167.226 145.571 145.113 139.442 164.254 163.399 83.8294 82.1148 -112.537 174.138 47.6247 -36.0991 186.783 7.46564 -64.8656 192.469 -23.1221 -128.648 192.135 67.9133 -135.452 202.144 59.2668 -107.206 227.476 64.4814 13.2303 102.963 15.8883 
152.849 173.272 166.795 145.533 145.346 139.236 164.016 163.366 83.6966 82.2043 -112.606 174.132 47.7619 -35.7399 186.918 7.87551 -65.1293 192.619 -22.7833 -128.137 192.098 67.8087 -134.977 202.009 59.2333 -106.917 227.552 64.4523 13.2955 102.665 16.3763 
152.7 173.546 166.56 145.653 145.546 139.082 164.088 163.546 83.7002 82.2428 -112.675 174.152 47.9899 -35.4333 187.102 8.05276 -65.2976 192.646 -22.4144 -127.796 192.148 67.8782 -134.618 202.015 59.268 -106.651 227.675 64.4401 13.3509 102.553 16.6301 
152.551 173.959 166.145 146.09 145.772 139.039 164.389 164.329 83.7496 82.2406 -112.211 174.092 48.1528 -34.8635 187.309 7.8189 -64.7704 192.448 -22.1503 -127.039 192.262 68.1008 -133.77 202.081 59.3674 -105.971 227.782 64.2927 13.5018 102.691 16.4366 
152.448 174.029 166.193 146.322 145.785 138.952 164.742 164.71 83.6092 82.0649 -112.139 174.285 48.3153 -34.8262 187.615 7.2942 -64.498 192.327 -22.2725 -126.954 192.671 68.1007 -133.607 202.495 59.3391 -105.771 228.046 64.2195 13.5809 102.766 16.056 
152.415 174.113 166.067 146.483 145.873 138.757 164.969 165.064 83.5428 81.9158 -112.128 174.456 48.5356 -34.754 187.865 7.01028 -64.1782 192.313 -22.2303 -126.716 192.916 68.226 -133.387 202.774 59.4369 -105.549 228.246 64.2172 13.5628 102.867 15.7292 
152.432 174.089 166.752 146.607 145.824 138.631 165.337 164.839 83.4098 81.6981 -112.192 174.663 48.7847 -34.6625 188.242 6.67483 -63.8646 192.41 -22.3888 -126.734 193.406 68.4055 -133.391 203.299 59.5992 -105.457 228.539 64.2511 13.5626 103.171 15.4783 
152.575 174.059 167.055 146.76 145.818 138.809 165.695 164.852 83.4923 81.6787 -111.922 174.606 48.9908 -34.5335 188.323 6.29387 -63.8884 191.979 -22.4152 -126.583 193.487 68.7371 -133.223 203.402 59.8671 -105.268 228.561 64.2617 13.5732 103.28 15.3943 
152.717 174.022 166.779 146.883 146.02 139.079 165.82 165.006 83.6909 81.8973 -111.429 174.33 49.3468 -34.2534 188.124 6.26382 -63.8115 191.226 -22.323 -126.139 193.134 69.1911 -132.875 202.981 60.2549 -105.052 228.41 64.2713 13.528 103.228 15.4181 
152.801 174.109 166.126 146.999 146.285 139.062 165.909 165.026 83.6599 81.9573 -110.936 174.15 49.7134 -33.7259 187.995 6.49513 -63.6821 190.715 -22.0177 -125.696 193.017 69.7122 -132.545 202.684 60.7253 -104.836 228.283 64.356 13.4915 103.347 15.6148 
153.016 174.101 165.903 146.993 146.485 139.255 165.99 165.019 83.698 82.1712 -110.502 173.906 50.0118 -33.2677 187.747 6.75176 -64.0226 190 -21.6689 -125.277 192.724 70.1263 -132.25 202.257 61.1472 -104.69 228.115 64.4748 13.4429 103.056 16.0787 
153.228 174.052 165.412 147.154 146.767 139.632 166.198 164.994 83.9175 82.5311 -109.677 173.488 50.3997 -32.9965 187.195 6.78107 -64.1819 188.78 -21.1394 -124.661 192.097 70.8509 -131.797 201.458 61.7966 -104.477 227.709 64.5985 13.3785 102.799 16.1151 
153.505 174.014 164.892 147.32 146.979 139.94 166.354 164.939 84.1218 82.8538 -109.052 173.176 50.6771 -32.7685 186.762 6.80627 -64.4681 187.774 -20.703 -124.286 191.626 71.4437 -131.521 200.863 62.3329 -104.329 227.38 64.795 13.324 102.503 16.2701 
153.577 173.845 166.638 147.093 147.2 139.909 166.339 165.101 83.9789 83.0694 -108.578 172.793 51.0202 -32.3087 186.276 7.10425 -64.391 187.12 -20.6222 -123.656 191.155 71.797 -131.109 200.191 62.7747 -104.093 226.999 65.0081 13.1925 102.364 16.5214 
153.551 173.628 167.987 146.973 147.414 139.761 166.236 165.097 83.7585 83.1576 -108.052 172.422 51.2577 -31.7968 185.751 7.43641 -64.2595 186.406 -20.5988 -123.071 190.677 72.1117 -130.717 199.516 63.1712 -103.828 226.511 65.234 13.0771 102.259 16.8135 
153.57 173.505 169.065 146.756 147.403 139.734 166.31 165.238 83.6918 83.3424 -107.585 172.05 51.4572 -31.3907 185.005 7.77397 -64.0437 185.524 -20.4058 -122.527 190.123 72.4237 -130.291 198.811 63.5195 -103.518 226.001 65.4597 12.9968 102.061 16.9327 
153.663 173.383 170.411 146.515 147.469 139.846 166.415 165.684 83.6112 83.5727 -107.043 171.596 51.5656 -31.0513 183.96 8.0855 -63.8591 184.588 -20.2669 -121.946 189.485 72.5832 -129.798 198.052 63.7553 -103.138 225.428 65.6326 12.9375 101.796 17.0308 
153.678 173.342 171.22 146.432 147.587 139.924 166.447 165.945 83.6444 83.742 -106.664 171.27 51.6319 -30.961 183.064 8.27696 -63.7481 183.817 -19.9854 -121.56 188.956 72.7137 -129.408 197.491 63.9248 -102.78 224.961 65.8211 12.939 101.476 16.9551 
153.707 173.284 172.58 146.147 147.622 139.981 166.409 166.325 83.708 84.0639 -106.519 170.913 51.9799 -30.8574 182.209 8.69194 -63.6108 183.228 -19.8129 -121.155 188.348 72.8042 -129.042 196.868 64.127 -102.518 224.59 66.0545 12.9142 101.154 16.9807 
153.824 173.271 173.068 145.909 147.635 140.085 166.175 165.845 83.6705 84.2265 -106.104 169.984 52.1921 -30.2005 180.901 9.35584 -63.262 181.664 -19.1741 -120.124 187.172 72.9137 -128.099 195.685 64.375 -101.743 223.644 66.3693 12.8731 100.233 17.2027 
153.698 173.199 172.539 145.551 147.713 139.955 165.656 165.161 83.6858 84.3745 -106.24 169.462 52.0546 -29.9992 180.509 9.59891 -63.0519 181.229 -19.1447 -119.62 186.329 72.3957 -127.662 194.939 64.1036 -101.457 223.149 66.3222 12.8459 99.457 17.3095 
153.496 173.019 172.171 145.251 147.647 139.749 165.182 164.861 83.4798 84.2574 -106.41 168.878 51.9145 -29.777 179.823 9.90263 -62.74 181.204 -19.3887 -119.398 185.693 71.7396 -127.434 194.499 63.715 -101.141 222.593 66.3026 12.8378 99.1598 17.5052 
153.355 172.954 171.935 144.904 147.573 139.606 164.756 164.584 83.28 84.1848 -106.556 168.184 51.764 -29.4778 179.046 10.1907 -62.5132 180.949 -19.586 -119.044 184.932 71.1593 -127.083 193.886 63.4083 -100.771 221.918 66.2511 12.8517 98.8449 17.7936 
153.349 172.934 171.682 144.648 147.69 139.605 164.472 164.187 83.3947 84.3868 -106.707 167.593 51.7862 -29.3362 178.272 10.3818 -62.6564 180.155 -19.5137 -118.678 184.1 70.8875 -126.757 193.17 63.3717 -100.49 221.36 66.2251 12.8262 98.192 18.0456 
153.261 172.975 171.268 144.611 147.797 139.487 164.194 163.629 83.4537 84.4039 -106.906 167.095 51.7889 -29.251 177.668 10.4815 -62.6478 179.345 -19.242 -118.42 183.505 70.7192 -126.507 192.681 63.3113 -100.212 220.863 66.2012 12.8014 97.6746 18.0706 
153.204 172.973 171.205 144.507 148.042 139.487 163.95 163.446 83.4267 84.496 -106.914 166.603 51.8585 -29.0084 176.969 10.7654 -62.6331 178.525 -19.1618 -118.004 182.916 70.6712 -126.171 192.086 63.4266 -99.9624 220.384 66.1268 12.7645 97.3674 18.2931 
153.047 173.01 170.927 144.52 148.236 139.388 163.76 163.217 83.4735 84.5727 -106.859 166.208 52.0485 -28.9232 176.544 10.8645 -62.4672 178.051 -19.059 -117.682 182.448 70.6775 -125.899 191.65 63.5374 -99.7561 220.048 66.0945 12.7437 97.2192 18.2364 
152.91 172.996 170.597 144.45 148.436 139.323 163.579 163.095 83.5197 84.7477 -106.686 165.725 52.3303 -28.7685 176.08 10.972 -62.2125 177.471 -19.0377 -117.205 181.809 70.7295 -125.533 190.997 63.7159 -99.5373 219.633 66.0677 12.6898 97.0896 18.1761 
152.784 173.026 170.408 144.265 148.502 139.29 163.565 163.034 83.6548 84.9177 -106.651 165.37 52.7325 -28.7606 175.537 11.1771 -62.0332 176.761 -18.8273 -116.901 181.31 70.8476 -125.305 190.536 63.9459 -99.3995 219.372 66.0891 12.6391 96.8365 18.0315 
152.63 172.992 170.058 143.973 148.525 139.276 163.551 163.014 83.7586 85.1331 -106.555 165.091 53.3034 -28.7134 175.049 11.4772 -61.7503 176.024 -18.54 -116.52 180.862 71.0501 -125.027 190.047 64.2331 -99.2721 219.208 66.1342 12.5897 96.5966 17.8426 
152.478 172.947 169.755 143.84 148.575 139.351 163.551 162.814 83.9135 85.3966 -106.317 164.658 53.8774 -28.6685 174.349 11.7183 -61.5044 174.825 -18.0269 -116.094 180.268 71.3822 -124.681 189.382 64.5876 -99.0829 218.863 66.1471 12.5556 96.2829 17.5823 
152.397 172.914 169.453 143.687 148.703 139.406 163.477 162.552 83.9204 85.5153 -106.012 164.307 54.3301 -28.5226 173.699 11.9878 -61.2587 173.525 -17.5006 -115.53 179.806 71.6823 -124.213 188.822 64.9444 -98.7942 218.557 66.1472 12.5376 95.8463 17.3862 
152.342 172.871 169.083 143.7 148.769 139.409 163.367 162.305 83.7453 85.3448 -105.925 164.132 54.6029 -28.4029 173.253 12.0922 -61.0721 172.482 -17.089 -115.187 179.719 72.0075 -123.904 188.617 65.2156 -98.531 218.351 66.1711 12.552 95.6702 17.2097 
152.253 172.816 168.796 143.768 148.741 139.388 163.324 162.151 83.7022 85.26 -105.767 163.841 54.7908 -28.2558 172.634 12.1193 -60.906 171.481 -16.7926 -114.877 179.427 72.2484 -123.589 188.293 65.4002 -98.2061 217.99 66.1694 12.57 95.5461 17.0952 
152.211 172.825 168.237 143.807 148.7 139.411 163.302 161.768 83.7682 85.2784 -105.61 163.639 54.997 -28.152 172.328 11.9248 -60.8412 170.496 -16.3766 -114.505 179.098 72.5121 -123.201 187.936 65.6322 -97.893 217.705 66.1666 12.629 95.2386 16.9206 
152.264 172.928 167.735 143.865 148.608 139.568 163.425 161.427 83.9709 85.4154 -105.396 163.534 55.371 -27.9978 172.245 11.7854 -60.6485 169.824 -15.7794 -114.011 178.847 72.9349 -122.716 187.624 65.9771 -97.5882 217.623 66.2324 12.6773 94.9499 16.6555 
152.406 173.016 167.001 143.978 148.446 139.789 163.734 160.986 84.3826 85.5706 -105.264 163.473 55.6509 -27.9341 172.156 11.4594 -60.4864 169.039 -15.059 -113.641 178.578 73.3913 -122.313 187.432 66.3078 -97.2934 217.568 66.3212 12.7148 94.5202 16.2812 
152.602 173.212 166.121 144.317 148.363 139.974 164.13 160.643 84.7776 85.7166 -105.227 163.686 55.9204 -27.8508 172.409 11.2522 -60.1874 168.75 -14.2747 -113.467 178.712 73.9735 -122.062 187.553 66.67 -97.1168 217.805 66.4939 12.771 94.3356 15.8731 
152.727 173.389 165.621 144.556 148.308 140.129 164.445 160.459 85.2126 85.973 -105.023 163.992 56.0761 -27.6753 172.988 11.1081 -59.7977 168.978 -13.7511 -113.255 178.854 74.4385 -121.784 187.667 66.9453 -96.9441 218.125 66.7103 12.8115 94.2553 15.5695 
152.709 173.466 165.544 144.995 148.309 140.28 164.769 160.452 85.3608 86.0386 -104.497 164.356 56.1474 -27.4559 173.542 10.9563 -59.4159 169.335 -13.4381 -113.142 179.304 74.9719 -121.616 187.963 67.2527 -96.8335 218.459 66.8825 12.8609 94.5587 15.3286 
152.909 173.476 165.016 145.582 148.378 140.437 165.054 160.262 85.5974 86.0255 -104.064 164.699 56.0397 -27.2698 174.14 10.6952 -59.0827 169.743 -13.0814 -113.108 179.752 75.4787 -121.523 188.342 67.4831 -96.7264 218.784 67.0613 12.8807 94.7831 15.0811 
153.032 173.43 165.127 146.013 148.533 140.451 165.07 160.081 85.773 86.0431 -103.61 164.892 55.9182 -27.0605 174.648 10.4563 -58.8428 170.154 -13.0641 -112.991 179.959 75.7595 -121.388 188.507 67.6235 -96.6082 218.967 67.1717 12.8857 94.9611 14.9855 
153.133 173.174 165.859 145.948 148.546 140.516 164.923 160.431 85.7899 86.1114 -102.991 164.891 56.0019 -26.6477 174.991 10.3887 -58.3224 170.67 -13.553 -112.541 179.87 75.9092 -121.08 188.337 67.8116 -96.4454 219.029 67.2864 12.7948 95.271 14.9135 
153.123 172.869 166.35 145.829 148.49 140.417 164.619 160.695 85.52 85.9336 -102.516 164.671 56.1351 -26.2329 175.135 10.3352 -57.896 170.992 -14.1764 -112.126 179.728 75.8256 -120.82 188.125 67.7907 -96.2321 218.9 67.3137 12.6909 95.6273 14.9869 
153.093 172.62 166.97 145.695 148.35 140.355 164.438 160.913 85.3325 85.7905 -102.136 164.344 56.3336 -25.8765 175.082 10.2791 -57.4887 170.958 -14.5666 -111.775 179.512 75.8653 -120.556 187.792 67.804 -95.9864 218.656 67.3164 12.64 95.9833 15.0056 
153.156 172.459 166.71 145.812 148.217 140.365 164.364 160.701 85.2701 85.5961 -101.956 164.172 56.3477 -25.6715 175.104 10.1794 -57.3532 170.643 -14.4925 -111.675 179.488 75.9186 -120.438 187.752 67.741 -95.8007 218.532 67.3117 12.6488 95.9757 15.065 
153.211 172.343 166.398 145.875 148.258 140.406 164.198 160.274 85.1784 85.5729 -101.618 163.868 56.4215 -25.4054 175.039 10.096 -57.4661 169.871 -14.3068 -111.259 179.192 76.0344 -120.108 187.333 67.8422 -95.5682 218.227 67.265 12.6139 95.7114 15.3376 
153.25 172.227 166.458 145.978 148.361 140.403 163.972 159.97 85.0217 85.4825 -101.381 163.55 56.4976 -25.202 174.894 10.043 -57.6985 169.286 -14.2889 -110.937 178.958 76.0613 -119.867 187.033 67.901 -95.3788 217.944 67.1991 12.5819 95.5443 15.6738 
153.157 172.156 166.736 146.001 148.452 140.272 163.877 159.997 84.8021 85.3621 -101.412 163.292 56.7097 -24.9967 174.718 10.069 -57.6447 168.918 -14.3347 -110.734 178.811 76.1216 -119.71 186.787 67.9644 -95.222 217.679 67.1874 12.5744 95.6823 15.8241 
153.206 172.157 166.745 145.878 148.447 140.315 163.983 160.001 84.8855 85.5406 -101.422 163.177 57.0659 -24.8999 174.535 10.0859 -57.7608 168.292 -14.1604 -110.533 178.596 76.3486 -119.557 186.482 68.194 -95.1521 217.573 67.2023 12.5611 95.5253 15.9683 
153.207 172.129 166.658 145.814 148.521 140.282 163.991 159.867 84.8741 85.6173 -101.374 162.931 57.2716 -24.7439 174.259 10.1023 -57.6942 167.664 -13.9516 -110.279 178.332 76.4052 -119.335 186.155 68.2677 -94.9826 217.343 67.1418 12.5543 95.3543 16.0417 
153.092 172.145 166.613 145.685 148.601 140.278 163.984 159.775 84.844 85.7465 -101.226 162.649 57.5611 -24.5698 173.85 10.2932 -57.678 166.961 -13.7029 -109.992 178.01 76.5299 -119.11 185.763 68.4608 -94.8193 217.054 67.1273 12.5212 95.1988 16.1823 
153.058 172.268 166.496 145.497 148.621 140.278 164.107 159.795 85.0206 86.0301 -101.233 162.595 57.7929 -24.481 173.606 10.4802 -57.6888 166.49 -13.4576 -109.822 177.785 76.6794 -118.958 185.5 68.678 -94.7219 216.965 67.1526 12.4978 95.0021 16.2647 
152.982 172.243 166.862 145.223 148.7 140.254 164.058 160.037 85.05 86.1975 -101.177 162.384 57.9446 -24.4071 173.165 10.6548 -57.7743 166.064 -13.5114 -109.644 177.352 76.5584 -118.797 185.141 68.7472 -94.5823 216.708 67.1573 12.4831 94.7824 16.4126 
152.889 172.238 167.017 145.009 148.649 140.304 164.158 160.25 85.1616 86.4091 -101.105 162.353 58.3305 -24.3933 172.795 10.9187 -57.7997 165.688 -13.3266 -109.509 177.114 76.7345 -118.667 184.891 69 -94.5282 216.65 67.2646 12.496 94.6377 16.4177 
152.973 172.243 166.774 145.056 148.659 140.424 164.202 160.219 85.4315 86.5819 -101.166 162.261 58.5029 -24.4075 172.554 10.9662 -57.9829 165.384 -13.189 -109.561 176.859 76.8731 -118.648 184.738 69.1483 -94.4849 216.579 67.3679 12.5485 94.4355 16.5139 
152.974 172.234 166.921 145.038 148.582 140.389 164.297 160.463 85.4239 86.5613 -101.133 162.232 58.7982 -24.3319 172.32 11.1479 -57.7716 165.247 -13.1093 -109.484 176.84 77.0979 -118.561 184.677 69.3308 -94.4101 216.558 67.4994 12.5677 94.5579 16.3917 
152.931 172.242 167.124 144.97 148.45 140.386 164.434 160.685 85.3312 86.4976 -100.976 162.129 59.0649 -24.3139 171.904 11.2881 -57.6689 164.835 -13.0064 -109.442 176.746 77.2399 -118.528 184.522 69.4566 -94.3523 216.435 67.5708 12.5663 94.5801 16.3027 
152.885 172.252 167.246 144.831 148.253 140.452 164.569 160.892 85.3162 86.5371 -100.766 162.013 59.4515 -24.316 171.354 11.4864 -57.6839 164.227 -12.8335 -109.333 176.554 77.503 -118.442 184.244 69.7139 -94.2911 216.284 67.6505 12.5674 94.554 16.2664 
152.925 172.253 167.402 144.654 148.095 140.498 164.632 161.077 85.3725 86.6028 -100.562 161.895 59.6087 -24.2873 171.088 11.525 -57.5546 164.041 -12.863 -109.185 176.34 77.5853 -118.328 184.019 69.8243 -94.2106 216.173 67.6958 12.5448 94.5444 16.1626 
152.969 172.216 167.574 144.498 147.942 140.594 164.723 161.303 85.4104 86.6861 -100.337 161.708 59.7737 -24.1562 170.664 11.605 -57.5172 163.549 -12.9024 -108.957 176.073 77.76 -118.153 183.666 70.0163 -94.1207 215.97 67.6869 12.5243 94.5547 16.206 
153.043 172.216 167.283 144.47 147.811 140.575 164.857 161.316 85.5284 86.7747 -100.232 161.592 59.9993 -23.9882 170.442 11.6332 -57.3048 163.072 -12.7254 -108.778 175.899 77.9351 -117.972 183.444 70.1675 -93.9524 215.868 67.7175 12.5204 94.4512 16.15 
