142.834 164.821 172.809 148.908 153.864 128.11 171.909 168.807 87.3782 88.567 6.62377 466.044 61.9485 -12.9404 484.79 -57.0017 40.0468 484.593 -50.2663 7.4954 484.807 66.6126 20.4401 494.146 63.3833 -7.35902 525.606 42.0374 13.6891 104.913 23.3814 
141.862 165.406 172.201 148.442 153.333 128.827 172.02 169.494 87.7183 88.539 5.49845 464.728 62.3341 -13.8739 481.894 -56.804 39.2461 483.234 -51.3854 7.17428 484.92 67.6278 20.3559 494.02 64.0603 -7.35518 525.02 41.9878 13.7912 106.232 22.9271 
141.159 166.216 172.076 148.724 153.506 129.322 172.733 169.67 87.4068 87.4691 4.13481 462.968 62.9957 -13.7855 480.512 -56.2402 39.1672 482.463 -51.5823 6.88588 485.104 68.4651 20.3038 493.831 64.4498 -7.2231 524.312 42.0617 14.2406 107.462 22.6014 
142.129 166.711 172.151 148.564 153.767 128.765 172.934 170.244 87.1909 85.8654 5.35228 463.502 62.0682 -13.7349 479.746 -56.1459 39.4207 481.732 -51.6323 6.0009 484.767 68.6968 19.5117 493.432 64.5571 -7.02938 523.652 41.9098 14.3421 108.386 22.5685 
141.922 165.691 172.655 148.401 153.568 129.477 172.847 170.585 87.1495 86.485 6.03566 463.674 62.137 -14.2987 479.117 -55.7973 39.7944 481.64 -51.4507 6.22018 484.792 68.8282 19.4032 493.413 64.6741 -7.12761 523.606 41.9324 14.4145 108.515 23.1694 
141.968 165.694 173.237 148.445 152.964 129.845 173.238 170.857 87.1194 86.7753 7.24077 464.13 61.7866 -13.8759 478.362 -55.9788 40.4631 480.428 -51.2999 6.27626 485.192 68.758 19.1833 493.869 64.5589 -7.00093 523.671 41.6893 14.4504 108.059 23.2818 
142.863 166.941 173.913 148.387 152.435 130.803 173.065 171.547 87.4366 87.3468 7.50271 464.705 61.2015 -14.0589 476.561 -55.4253 40.4003 479.043 -51.1989 6.36562 485.245 69.0023 19.0608 494.032 64.7843 -6.88026 524.036 41.6837 14.3696 107.512 23.0862 
143.534 167.534 174.187 148.528 153.033 130.732 171.96 171.567 87.1204 86.815 7.73277 464.578 60.87 -13.9702 474.828 -55.146 40.5173 477.064 -51.0488 6.03224 484.343 68.5616 18.5999 493.034 64.4619 -6.72582 523.424 41.2988 14.5485 106.757 22.9666 
144.299 167.681 174.804 147.693 152.977 131.096 170.903 172.008 86.964 86.3121 7.94862 464.241 60.7104 -13.0549 472.363 -54.5523 41.2181 474.839 -50.1206 5.7868 483.673 68.6765 18.1055 492.393 64.7056 -6.38071 522.826 41.1798 14.7488 106.086 22.7572 
144.342 167.151 174.871 147.469 153.243 131.157 170.719 172.211 87.3023 86.5194 9.10009 463.531 60.597 -12.5149 471.236 -54.4514 42.0748 474.095 -50.0863 6.73235 482.649 68.7512 18.4941 491.797 64.7989 -6.14255 521.856 41.0668 14.7919 105.676 23.0266 
144.176 166.632 175.429 147.12 153.349 130.891 170.507 172.713 87.4485 87.3707 9.68117 462.559 61.3033 -12.2146 469.619 -54.3225 42.6741 472.597 -50.1462 7.12018 481.453 68.6314 18.6992 490.437 64.8124 -5.93679 520.684 40.8373 14.827 105.43 23.1991 
144.618 165.448 176.727 146.764 153.475 130.897 170.384 173.877 87.37 87.5919 10.6652 461.595 61.4187 -11.9325 468.344 -53.9721 42.33 473.1 -51.5789 7.7222 480.862 68.627 19.0962 489.886 64.6609 -5.76041 519.641 40.709 14.9894 106.771 22.6583 
144.144 167.095 177.23 146.566 151.662 131.023 172.462 174.225 87.4348 88.2819 10.879 461.178 62.0365 -11.0194 467.173 -54.0398 42.1451 471.62 -51.4101 8.40614 480.881 69.1838 19.5257 489.728 64.8247 -5.5978 519.153 40.7449 15.309 106.924 21.9052 
145.364 169.171 177.379 145.827 150.612 131.043 173.591 174.728 88.033 88.9459 10.7129 459.447 62.3713 -10.8549 465.258 -54.4631 42.6679 469.965 -51.9601 9.51659 479.908 69.679 20.1519 488.908 65.0532 -5.31774 518.113 40.6516 15.3979 107.045 21.995 
145.644 170.639 177.798 144.568 149.503 132.11 174.696 175.483 88.3884 89.292 9.41119 458.137 61.8586 -10.695 463.155 -54.556 42.7676 467.332 -52.3271 9.85739 479.088 70.0623 20.2034 488.146 65.3155 -4.95078 517.344 40.5235 15.4046 107.061 21.6836 
144.982 170.647 177.565 145.534 148.846 132.186 174.768 175.484 87.5325 88.587 8.21895 456.608 60.0516 -11.9704 460.661 -54.4631 41.8656 463.938 -52.6413 10.1957 478.235 69.7205 20.6623 487.167 64.8022 -4.69955 516.024 40.1981 15.3629 106.768 21.7916 
146.333 172.558 177.225 145.034 147.357 133.166 176.06 175.627 87.4895 89.4408 5.63777 452.935 60.2664 -12.3904 456.567 -54.5997 40.446 457.709 -52.4493 10.2481 475.557 69.9553 20.7397 483.771 65.0446 -4.07555 513.45 39.9667 15.368 106.258 20.911 
148.104 174.618 177.116 144.186 147.194 134.176 176.821 175.522 87.5111 91.6681 5.74522 452.085 61.2803 -11.5424 454.888 -54.6866 40.3698 455.372 -51.8302 10.542 474.651 70.2076 21.2493 481.824 65.8297 -3.63809 512.721 40.1998 15.1653 105.769 20.2645 
146.848 176.078 177.281 143.516 147.744 134.318 176.59 175.967 87.9187 92.0462 3.18638 451.168 62.5565 -11.7063 452.285 -54.2757 39.8669 451.945 -51.3163 9.20138 473.584 70.9221 20.1327 480.188 66.6458 -3.33964 511.833 40.1669 15.1509 106.039 19.7668 
146.655 177.499 177.208 143.392 148.672 134.645 176.543 175.96 87.9046 91.5533 1.37546 449.994 63.6669 -11.6766 451.028 -53.6049 39.2014 450.152 -50.4253 9.02355 472.722 71.3733 19.9829 478.971 66.6663 -2.99668 511.019 40.3559 15.5997 106.123 19.3718 
145.545 177.898 176.994 142.933 148.622 133.984 176.508 175.924 87.8654 91.1805 0.41011 449.277 63.867 -11.9157 451.287 -54.0545 39.311 449.696 -51.0803 8.78996 471.939 70.8953 20.0344 477.978 66.2179 -2.54435 510.297 39.944 15.5146 106.746 19.6119 
146.468 177.191 177.11 141.881 148.343 134.197 176.877 176.331 88.1653 90.9226 -2.06797 447.644 64.2115 -11.8597 449.827 -53.88 39.7286 447.763 -51.2103 8.89598 470.809 71.1094 20.1012 476.878 66.2626 -2.21272 509.259 39.6353 15.5709 107.134 19.7239 
143.904 176.477 177.003 141.854 147.482 133.226 176.569 175.586 88.0698 90.6173 -1.50027 446.359 64.043 -11.742 448.568 -54.7252 39.3476 446.639 -51.7264 9.74279 469.216 70.2729 20.8603 475.337 65.2086 -1.91031 507.837 39.1629 15.7928 106.539 19.529 
143.045 176.362 176.384 142.324 147.777 132.508 176.052 174.678 88.2908 90.0017 0.410765 445.854 63.3343 -11.5873 448.113 -55.4755 39.7794 446.322 -51.9754 10.0297 468.124 69.7229 21.6009 474.845 64.8515 -1.80279 506.956 38.9005 15.1278 105.939 19.8079 
143.246 176.88 175.594 142.976 147.596 132.726 176.116 174.058 88.7159 89.9487 2.5742 444.6 62.9004 -10.8292 447.679 -56.2331 40.5836 446.765 -52.2862 11.0813 467.488 69.4385 22.8967 474.596 64.3456 -1.34948 505.948 38.4995 14.8709 106.293 20.0943 
144.067 178.637 175.483 143.384 147.877 132.876 176.754 173.995 89.5202 89.2933 4.14183 443.879 62.4131 -10.8372 447.528 -56.8314 41.8084 447.248 -52.8225 11.5795 466.564 69.6375 23.5797 474.325 64.1164 -1.06167 505.162 38.2859 14.7024 106.996 20.9084 
145.932 179.008 175.287 145.333 145.915 131.633 175.947 173.317 88.8088 87.9982 7.49307 442.853 60.176 -11.1416 446.906 -57.9157 42.1751 447.228 -53.9511 11.6376 463.884 68.5736 24.1937 471.986 63.488 -0.909393 502.929 38.1497 14.2865 106.806 21.346 
145.042 178.543 174.905 146.097 147.339 131.46 175.387 172.721 88.6725 87.3454 8.43455 442.407 60.0221 -11.4992 446.278 -57.85 42.0108 447.104 -53.9854 12.105 462.891 68.4529 24.8538 471.375 63.3028 -0.934796 501.914 38.2314 14.1372 106.737 21.6313 
144.835 177.946 174.934 146.659 145.652 132.136 174.837 172.774 88.245 87.0581 7.95008 441.657 59.4419 -11.2761 446.034 -57.7325 42.3527 447.026 -54.0992 11.6988 461.754 68.4913 24.8859 470.346 63.9335 -0.731481 501.106 38.5918 13.6617 106.949 21.653 
144.371 177.195 176.003 146.577 147.301 132.075 175.536 173.754 88.3105 86.3955 7.73956 441.177 59.7119 -10.7848 445.721 -57.5014 42.9014 447.053 -54.2308 11.9165 461.656 69.1228 24.7758 470.621 64.3671 -0.398755 500.69 38.881 13.7561 107.848 21.6208 
144.101 176.247 176.269 146.467 147.219 131.61 176.806 173.929 88.8041 86.5724 7.64649 439.909 61.5139 -10.6615 445.861 -57.3377 42.4811 446.692 -53.9674 12.7271 461.791 70.1029 25.4366 470.81 64.5813 -0.187466 500.191 39.4042 14.1265 108.482 21.4314 
143.68 174.932 176.101 146.885 147.103 131.931 176.721 173.572 89.2054 86.9448 8.52212 438.862 61.5055 -11.2806 445.561 -56.8395 42.3033 446.775 -53.8256 13.5896 461.16 70.8105 26.305 470.511 65.1852 -0.240723 499.406 40.2324 13.8973 108.344 21.7941 
143.992 174.008 176.018 146.925 146.951 133.089 176.115 173.238 89.2489 86.9069 9.381 438.757 61.6669 -12.2419 444.044 -55.6114 41.6092 446.272 -53.0394 14.1997 461.435 71.7652 26.8248 470.754 65.5489 -0.468954 499.214 40.9242 14.3168 108.284 21.9886 
143.789 173.402 174.926 147.587 147.776 134.832 175.136 172.16 87.5774 88.4327 7.57689 437.153 61.7993 -14.5407 443.708 -54.8922 40.5775 446.353 -52.4688 14.236 461.272 71.7765 27.2022 469.199 66.723 -0.967244 498.78 41.9612 14.0896 107.918 22.819 
144.65 172.744 174.498 147.316 148.627 136.32 174.647 171.225 85.9316 90.1574 5.24202 435.098 61.7749 -16.3929 444.633 -53.9242 37.8589 445.898 -52.3392 14.4956 460.393 70.5186 27.2168 466.722 66.2856 -1.18206 498.167 42.3846 14.4816 106.822 22.4968 
143.259 172.094 173.959 146.653 150.233 136.061 174.957 170.886 86.3463 91.4538 4.17039 434.36 62.5627 -17.938 444.162 -53.4173 36.5848 444.599 -52.0974 14.9918 459.568 70.9258 27.4419 465.341 66.9395 -1.1214 497.497 42.7303 14.332 106.569 22.7637 
142.313 171.898 173.713 146.806 152.004 137.268 175.426 170.91 86.6997 92.358 4.10905 432.546 63.6611 -18.662 442.769 -52.5767 35.802 443.71 -52.0734 16.0052 459.923 72.109 28.4853 465.114 67.7516 -0.748853 496.706 43.266 14.5274 107.668 22.7287 
145.534 170.236 172.355 146.751 153.749 138.244 176.074 170.018 86.6037 93.3824 4.45525 432.067 63.4695 -19.8421 444.25 -52.1059 35.852 443.94 -51.1593 16.9788 459.629 72.4728 28.9462 464.348 68.3168 -0.270488 496.766 43.9941 14.7218 107.258 23.8315 
144.514 168.564 171.617 146.276 154.769 138.434 175.429 168.58 86.5076 94.0529 4.85995 430.84 62.8952 -20.2167 446.602 -52.737 35.6215 445.326 -51.2676 17.6957 458.114 71.7076 29.2208 462.64 68.0133 0.20456 496.013 44.3983 14.6423 106.782 24.2888 
141.062 168.479 172.044 146.685 153.227 137.371 175.073 168.576 86.6902 93.7667 6.49572 430.565 62.9152 -18.8478 447.084 -53.189 36.2556 446.071 -51.1611 17.7487 457.133 72.346 29.0149 461.708 68.4474 0.745232 495.136 45.0487 15.0228 107.325 23.7715 
141.513 168.723 171.872 146.296 153.562 136.908 174.682 168.83 87.241 93.4407 6.74193 429.979 62.7929 -19.0146 445.133 -53.2302 36.693 444.178 -50.5202 16.687 456.632 73.464 28.2899 460.986 69.2731 1.23079 494.501 45.3407 15.119 107.734 23.8647 
142.075 169.806 170.421 145.674 153.564 136.088 175.886 168.157 88.2174 93.3259 7.48005 429.976 63.4438 -17.26 445.864 -52.4158 37.6545 444.3 -48.4477 16.8396 457.003 75.007 28.5047 461.862 70.4318 1.51957 494.56 46.2645 15.0144 107.863 23.7948 
138.981 168.776 168.95 146.253 154.103 134.365 175.513 166.79 89.0669 93.0032 9.63513 431.184 64.4802 -17.2255 447.19 -51.9463 38.4935 445.32 -47.476 17.0818 456.368 75.6335 29.0033 461.896 70.9513 1.88902 494.489 46.912 14.5694 107.775 24.6125 
139.385 167.377 167.487 147.116 155.319 132.676 174.886 165.986 89.9031 92.7686 11.1593 432.212 65.1391 -17.7862 448.582 -51.5946 39.5167 446.588 -46.7872 17.255 455.843 76.2882 29.3188 462.165 71.7239 2.22429 494.669 47.4903 13.9721 107.842 25.8314 
141.954 167.899 167.314 148.216 155.971 131.405 174.51 165.746 90.0942 91.0509 12.5426 432.583 65.8874 -17.6831 448.356 -50.8985 39.315 446.823 -46.4187 17.3263 455.662 77.0847 29.7429 462.633 72.2438 2.62299 494.559 48.1057 13.7453 108.156 25.5568 
143.72 168.086 167.778 148.42 156.094 131.267 174.397 165.914 90.131 89.5151 13.1273 433.561 66.0662 -17.243 447.81 -50.1523 39.0429 446.078 -45.7991 17.1303 455.818 77.8533 29.6899 463.418 72.607 2.72362 494.917 48.7055 13.6949 107.987 24.8802 
143.439 168.47 168.887 148.849 155.521 131.581 174.545 166.812 89.9271 88.6443 11.7136 433.879 66.787 -17.2468 446.492 -49.0768 37.9845 443.563 -45.079 16.1572 455.657 78.6236 28.7914 463.187 72.883 2.88398 494.843 48.941 14.077 107.974 24.0467 
143.77 169.73 169.443 149.12 155.133 131.801 175.444 167.358 90.2263 88.7297 11.6511 434.537 67.3109 -16.6087 446.785 -48.4996 37.1813 442.799 -44.2762 15.4646 455.719 79.474 28.2229 463.21 73.5607 2.92538 495.097 49.492 14.14 107.923 23.1799 
144.569 171.434 171.112 148.776 154.09 132.686 176.676 168.41 90.4673 88.5841 12.9161 435.581 67.0452 -15.5485 446.65 -47.918 36.2896 442.39 -43.8843 15.7998 456.722 80.3656 28.2522 464.717 74.0778 3.04021 495.744 50.0039 14.1955 107.912 21.8682 
146.249 173.399 171.969 148.863 152.958 133.002 177.466 169.775 90.4694 88.1102 14.2817 437.05 66.933 -14.2531 447.337 -47.3662 35.9256 442.827 -43.3561 16.1476 457.957 80.7534 28.3447 466.502 74.2928 3.15434 496.824 50.4316 14.1814 107.502 20.8632 
146.298 173.29 172.145 148.861 152.29 133.135 177.12 170.786 89.8451 87.4505 13.4035 438.396 66.6753 -14.7243 447.986 -46.686 35.695 443.121 -42.7131 15.8319 458.923 80.7225 27.8853 467.545 74.299 3.19936 498.015 50.6826 14.3086 107.087 20.9418 
147.284 173.868 174.644 147.994 150.223 133.992 177.331 172.124 89.5576 87.1772 13.0344 439.778 67.4178 -14.9408 447.876 -45.7766 35.4848 443.87 -42.8358 16.24 460.316 81.058 27.8969 469.149 74.3416 3.274 499.393 50.7803 14.6202 107.609 20.5771 
148.148 175.444 175.15 147.105 149.016 134.12 177.443 173.984 89.3233 86.9383 12.195 441.454 67.4193 -14.7046 447.536 -45.2277 35.475 443.645 -42.7561 15.8236 460.861 81.1275 27.4273 469.337 74.446 3.49842 500.347 50.5255 14.895 107.83 20.1182 
149.206 176.848 175.048 146.892 148.615 134.348 177.167 174.525 89.7501 86.9158 12.7164 441.955 66.534 -14.241 447.913 -45.3974 36.1418 444.098 -43.0205 16.0234 460.209 80.7018 27.3627 469.174 74.1631 3.49666 500.638 50.4479 14.8603 106.992 20.1407 
149.883 178.08 174.521 147.052 148.106 134.163 176.869 174.448 90.2659 86.6785 15.0079 442.252 65.3547 -13.8296 448.567 -46.217 37.1284 445.342 -44.1462 17.6262 460.133 80.0302 28.6446 470.034 73.3488 3.5338 500.774 50.2607 14.6105 106.334 20.4592 
150.38 179.114 175.472 147.39 147.625 134.074 177.002 175.449 90.4565 86.5383 17.2167 442.49 64.7594 -12.9805 449.603 -46.8753 37.8076 447.519 -45.2345 18.9718 459.818 79.2253 29.6167 470.562 72.7211 3.63317 500.765 50.1101 14.3742 106.2 20.3611 
150.958 177.034 174.723 146.922 147.15 134.277 177.229 176.355 90.9675 86.586 18.7321 443.231 64.8494 -12.5122 449.597 -46.9477 37.5344 448.707 -45.6954 20.1907 460.913 79.3772 30.5538 472.078 72.5225 3.7542 501.487 49.9368 14.332 106.575 19.878 
151.122 176.05 174.55 146.881 147.67 133.942 176.49 176.039 91.361 86.5808 19.6032 442.278 65.417 -12.7762 449.098 -47.3957 37.9739 448.842 -46.7722 20.3907 460.105 79.0063 30.494 471.565 72.2587 3.69293 500.895 49.6453 14.387 106.512 20.1835 
152.134 175.487 175.011 147.165 148.506 134.482 175.955 176.172 91.6231 86.72 20.9675 442.507 64.5752 -12.9037 449.237 -47.9657 38.5199 449.562 -47.4364 20.4259 459.735 78.5817 30.3875 471.265 71.948 3.60795 500.922 49.4965 14.5462 106.11 20.4977 
152.522 175.166 175.455 147.736 148.733 134.45 175.705 176.695 91.6543 86.4659 22.4277 443.006 63.8073 -12.5379 450.179 -48.4271 39.0026 451.335 -48.0272 20.7469 459.579 78.2037 30.7114 471.348 71.8254 3.56537 500.955 49.559 14.4262 106.073 20.5812 
152.535 175.621 177.77 148.702 150.482 134.077 175.621 177.566 90.4254 84.8472 23.6169 443.15 62.6643 -12.7212 452.347 -49.4999 39.0083 454.34 -49.3899 20.6182 459.754 77.2832 30.8649 471.538 71.3013 3.33623 500.631 49.6043 14.3632 106.882 20.7724 
152.524 176.376 179.911 149.732 150.891 133.645 175.56 177.596 89.5048 83.8048 22.8123 443.457 61.3657 -12.6764 455.205 -50.1472 39.9913 456.8 -49.3666 19.6505 459.331 76.4796 30.2548 471.159 71.3612 2.99734 500.657 49.9642 14.0288 106.717 21.5117 
152.182 174.262 179.855 150.362 152.988 133.369 175.199 175.929 88.7558 83.246 22.8524 444.743 60.8272 -13.291 457.02 -50.0402 40.6398 457.283 -48.3338 19.4463 460.612 76.3782 30.0269 472.522 71.5859 2.70996 501.486 50.2593 13.9114 105.934 22.6581 
151.792 170.76 179.911 151.221 152.411 133.047 175.037 174.411 88.3448 82.9127 22.8543 446.068 60.1834 -13.7497 459.652 -49.9116 41.3841 458.221 -46.9031 18.8935 461.51 76.321 29.7655 473.465 71.9996 2.47543 502.186 50.57 13.5036 105.246 24.0136 
151.311 169.31 180 150.959 153.463 132.333 175.026 171.887 87.8618 82.2909 22.8315 447.127 60.3199 -14.1677 460.43 -49.4904 42.9769 459.543 -45.4688 18.697 463.023 76.6716 29.6514 474.904 72.207 2.25856 502.751 50.6042 13.4738 106.103 25.7095 
151.38 171.155 180 150.856 154.253 132.09 176.395 170.248 87.3314 82.2342 22.7495 448.408 60.8313 -14.3965 462.657 -49.7251 42.3392 462.076 -45.4729 18.8011 464.232 76.5465 29.767 476.195 72.374 1.63385 503.666 50.9365 13.2046 106.462 25.6812 
151.451 169.529 180 149.915 154.519 132.406 175.767 170.137 87.6297 82.4941 22.8125 448.624 61.1319 -14.3319 462.662 -49.3932 42.7387 463.713 -45.3273 18.8251 464.845 76.4863 30.0569 477.04 72.407 1.27134 504.079 50.7506 12.7546 106.924 26.0056 
151.451 168.318 179.934 149.317 154.653 132.789 175.359 172.311 88.2482 83.9793 22.117 448.609 61.7733 -15.2552 462.59 -49.2875 40.7411 465.638 -47.4919 18.3951 465.49 76.4377 29.6835 477.418 72.5252 0.780107 504.888 50.4113 12.5392 108.314 24.843 
151.375 167.238 179.161 150.882 152.993 132.113 174.557 171.624 86.8792 83.9045 21.7842 449.2 61.0107 -17.525 464.227 -50.7433 39.6074 467.521 -48.9458 16.9078 465.996 75.0916 29.0398 476.943 71.813 -0.0298989 505.093 49.8599 12.3235 108.825 25.526 
150.222 166.76 179.111 151.78 150.997 131.06 173.975 171.282 85.9625 82.9139 22.2383 450.659 60.0173 -18.2294 467.503 -52.4694 38.9381 469.996 -50.4362 15.4396 465.511 72.8811 28.3354 476.26 70.257 -0.608052 505.423 49.1001 12.0668 108.412 25.5445 
149.632 168.168 175.695 152.02 152.929 130.703 173.788 171.054 85.9801 82.6665 22.9768 452.225 60.2792 -18.6805 467.252 -53.2678 38.0992 470.972 -51.6871 14.4866 466.371 72.295 27.4688 477.14 69.8166 -1.01947 506.264 48.209 12.0082 108.955 25.1338 
149.692 171.781 175.368 151.371 154.056 130.315 173.266 172.205 85.1431 81.488 22.6089 453.868 60.6909 -19.6304 465.556 -54.2013 36.7309 469.559 -52.8181 12.4641 468.508 71.8006 25.635 478.552 69.1597 -1.51095 507.494 46.7726 12.4069 109.656 24.5667 
150.693 172.135 175.321 151.901 154.529 130.477 173.101 172.78 84.6745 80.645 21.2866 454.545 59.5534 -21.6261 465.838 -55.4672 35.4183 469.461 -53.9602 11.0919 468.961 70.3978 24.3015 478.914 67.892 -2.22537 508.152 45.5818 12.4938 109.233 24.9869 
150.516 170.765 175.232 152.321 154.869 130.215 173.076 172.928 85.1986 82.496 20.3574 455.862 59.4703 -21.1988 467.543 -56.1944 34.7166 469.93 -54.0078 10.0351 468.742 69.5092 23.2524 478.126 67.2864 -2.89789 509.096 45.2538 12.686 107.921 24.1966 
150.495 169.668 174.249 152.291 154.003 130.719 170.509 172.22 84.8236 81.9966 19.8708 454.808 58.9829 -20.0302 467.106 -56.1669 33.955 471.358 -54.292 9.75627 468.305 68.5224 23.1912 477.628 66.334 -3.66253 508.61 44.8551 12.7774 107.984 23.0243 
150.447 166.899 173.907 152.601 154.463 130.381 168.1 171.103 82.8289 79.6307 18.4468 455.73 57.4525 -22.4082 470.548 -57.0333 31.8897 473.599 -55.3533 7.09963 468.863 65.3048 21.6155 477.412 63.3781 -5.37136 509.172 43.6355 12.8438 107.456 23.3578 
150.833 166.612 173.353 152.462 155.505 130.577 167.619 168.887 81.7043 79.3458 17.987 457.175 55.8586 -24.0313 473.108 -57.2717 30.6396 475.193 -55.5998 6.51274 469.797 63.5143 21.1884 477.954 62.01 -6.25932 510.11 43.2518 12.6127 106.553 23.7408 
151.419 166.851 172.977 152.079 157.062 130.568 168.47 168.892 81.7844 80.2743 17.5106 458.824 54.3061 -25.7418 472.986 -57.3198 29.4339 474.99 -56.2401 6.38158 471.423 63.846 20.8813 479.294 62.1594 -6.82829 510.992 42.785 12.4556 107.502 24.0404 
152.887 169.311 173.379 152.962 157.743 131.306 167.965 168.855 81.6039 80.2578 18.092 460.006 53.4859 -26.7059 472.07 -57.7353 28.5508 475.147 -56.6263 5.51938 472.881 63.6937 20.3602 480.625 62.1934 -7.3342 511.912 42.229 12.1268 107.624 24.0312 
153.298 168.76 173.137 152.704 156.426 132.006 169.048 169.695 82.2364 80.6342 17.77 460.865 54.395 -28.7373 471.789 -57.2436 27.2469 475.617 -57.1201 5.24435 474.849 64.5558 19.867 482.808 62.6015 -7.86922 513.466 41.9077 12.2557 108.58 24.5575 
152.806 168.851 173.361 152.734 157.24 132.565 170.455 169.631 82.7734 81.1789 18.3893 461.813 54.6262 -28.1579 471.802 -57.0374 26.2337 476.028 -57.269 5.84823 476.41 65.0065 20.2623 484.932 62.6605 -8.37786 514.406 41.621 12.187 108.811 23.5545 
151.399 168.062 173.551 152.84 156.806 132.114 171.005 170.081 82.8274 80.9268 18.0592 463.475 54.4532 -28.3197 471.618 -57.0648 24.589 475.361 -57.6075 5.34823 477.654 65.0383 19.787 486.136 62.3819 -8.74928 515.5 41.1899 12.2502 108.709 22.3907 
150.485 167.878 173.203 152.365 154.799 132.352 171.039 170.588 83.6832 81.9117 16.6675 464.732 52.0608 -29.139 470.838 -57.0572 24.0984 472.665 -57.2052 4.43255 477.514 65.4034 18.7102 485.353 62.1067 -8.55476 516.041 40.5306 12.8955 108.403 22.4904 
150.301 168.246 173.444 151.6 153.085 131.993 172.262 170.862 84.5358 82.9674 15.5692 464.894 51.1113 -28.6533 470.779 -57.3081 24.0794 471.487 -57.2385 3.71643 477.013 65.7245 17.8567 484.245 61.8049 -8.58406 516.125 40.1566 13.6311 108.666 22.0083 
149.983 169.954 173.824 150.2 149.969 131.851 174.847 171.279 85.1406 83.9344 15.7912 465.585 51.3357 -26.3906 470.674 -57.1574 23.9357 470.593 -56.8455 4.51228 477.929 66.5178 18.2348 485.234 61.9705 -8.57697 516.738 40.205 14.1381 108.589 20.3612 
149.583 170.364 173.997 150.235 147.403 131.679 175.509 171.466 85.6945 84.2544 15.8431 465.228 50.9028 -26.0876 470.697 -57.2586 23.4167 470.113 -57.1999 4.60889 477.43 66.5247 18.0807 484.877 61.5816 -8.75162 516.37 40.1387 14.4577 108.305 19.8149 
148.88 170.696 173.802 149.974 145.598 130.97 176.439 172.224 85.8675 85.2864 15.8855 464.959 51.0825 -26.3783 471.803 -57.7085 23.7679 470.169 -57.3328 5.00585 477.008 66.1864 18.468 484.18 61.1046 -8.72977 516.124 40.1988 14.6898 107.912 20.4222 
148.506 170.795 173.558 149.774 142.255 130.43 176.485 172.918 85.7261 85.6857 15.801 465.382 51.4029 -25.5346 472.655 -57.8264 24.2968 471.057 -57.0592 4.77282 477.236 65.9784 18.3934 484.275 61.0786 -8.52335 516.532 40.3083 14.7405 107.745 20.2467 
148.244 173.071 173.585 150.059 140.081 129.831 177.288 174.225 85.931 85.8339 16.2332 465.664 51.4879 -24.8187 472.936 -57.9719 24.5337 471.757 -57.2864 5.10727 477.784 66.4492 18.8445 484.745 61.183 -8.5108 516.61 40.476 15.0893 108.201 19.9061 
150.248 172.398 173.751 149.859 137.25 129.621 175.904 174.507 84.9253 85.8374 15.2525 466.08 53.1553 -24.659 473.979 -57.8281 24.6094 472.653 -57.25 3.27235 477.38 65.9155 17.6495 483.695 61.7013 -8.6381 517.198 40.7954 14.6462 107.96 19.5109 
