130.241 177.439 176.64 151.14 154.47 123.744 170.722 177.818 76.6411 89.6281 -56.9632 343.992 -3.69005 -44.1971 357.797 -101.217 -23.2644 330.518 -105.469 -48.9706 342.16 18.8793 -41.2972 333.503 24.4684 -20.9257 372.324 0.602179 9.45864 114.908 7.6493 
130.021 177.59 175.837 151.827 154.304 122.973 170.516 177.025 76.5914 89.9942 -56.7705 344.173 -4.1357 -44.3092 356.9 -101.231 -23.0946 329.719 -105.618 -48.6271 341.595 18.9245 -40.9908 332.998 24.4956 -20.9964 372.076 0.691225 9.5399 114.717 7.62113 
129.715 177.33 175.067 152.302 154.679 123.229 170.408 176.767 76.7513 89.8562 -56.6066 343.826 -3.89011 -44.4278 356.146 -101.142 -23.2593 328.957 -105.625 -48.6467 341.357 19.0812 -40.7529 332.923 24.5797 -21.0581 371.947 0.665064 9.54725 114.585 7.53353 
130.36 177.169 175.005 152.428 154.853 123.687 170.393 176.818 76.9445 89.6028 -56.7671 343.372 -3.92695 -44.3422 356.05 -101.219 -23.2691 329.002 -105.704 -48.8286 341.401 19.0841 -40.699 332.993 24.445 -21.062 371.845 0.551465 9.54611 114.755 7.42924 
130.879 176.884 175.656 151.92 154.948 124.054 170.235 177.143 76.9228 89.6612 -56.7374 342.801 -3.83666 -44.3162 355.532 -101.102 -23.1525 328.772 -105.245 -48.872 341.111 18.9479 -40.6951 332.691 24.3911 -21.0054 371.6 0.510821 9.47876 114.605 7.40269 
131.322 176.374 174.916 152.249 155.366 124.564 169.53 176.678 76.9388 90.111 -56.5784 342.451 -3.76101 -44.5915 355.368 -100.892 -23.3292 328.514 -105.309 -48.8309 340.745 18.7598 -40.6858 332.358 24.3729 -20.9429 371.572 0.483973 9.37467 114.055 7.46563 
131.557 176.51 174.654 152.291 155.354 124.639 169.611 176.697 76.9316 90.3435 -56.7776 342.543 -3.96514 -44.4661 355.125 -101.012 -23.2526 328.247 -105.593 -48.8405 340.652 18.597 -40.7622 332.224 24.2325 -20.8581 371.484 0.368177 9.39749 113.947 7.41405 
131.579 176.857 175.893 151.909 154.751 123.656 169.431 176.576 76.558 90.3138 -56.4413 342.74 -4.42922 -44.2236 354.927 -101.12 -22.6841 328.342 -105.387 -48.5125 340.45 18.2057 -40.5363 332.09 23.8665 -20.824 371.386 0.400106 9.51689 113.899 7.43503 
131.668 176.469 176.41 152.153 155.088 123.586 169.008 176.207 77.0211 90.0487 -56.2097 342.884 -5.14471 -43.4188 354.702 -101.155 -21.7741 328.645 -105.478 -48.4317 340.824 17.9417 -40.1639 332.663 23.3249 -20.4411 371.435 0.0519416 9.69588 114.25 7.21966 
131.331 176.369 175.891 151.911 155.14 123.254 169.149 176.267 77.2398 89.9599 -56.0631 343.033 -5.11705 -43.0139 354.466 -101.279 -21.2881 328.571 -105.813 -48.2286 341.193 17.9421 -39.9134 333.103 23.1207 -20.1611 371.517 -0.220122 9.90471 114.64 7.14711 
130.892 176.252 175.766 151.657 155.234 123.513 169.379 176.626 77.1884 89.6536 -55.7353 342.628 -4.69517 -42.974 354.339 -101.422 -21.1864 328.227 -106.191 -48.0024 341.586 17.9112 -39.6903 333.54 23.032 -19.9444 371.58 -0.47682 9.9919 114.905 7.24207 
131.123 176.314 175.483 151.259 154.956 123.336 169.695 176.827 77.1402 89.5548 -55.5614 342.422 -4.34039 -42.878 353.867 -101.579 -20.99 327.615 -106.464 -47.7238 341.919 17.9664 -39.4562 333.905 22.9525 -19.7734 371.67 -0.702172 10.1935 115.176 7.29073 
131.241 176.157 175.231 151.074 154.991 123.786 169.724 177.031 77.2767 89.5646 -55.0024 341.964 -3.98575 -42.6347 353.359 -101.669 -20.9642 326.894 -106.348 -47.5879 342.223 18.083 -39.337 334.215 23.091 -19.5787 371.806 -0.867017 10.1765 115.099 7.25373 
132.258 176.214 174.901 151.126 154.698 123.273 169.51 176.83 77.5461 89.8994 -54.3569 341.68 -3.9188 -42.5505 353.203 -101.947 -20.5897 326.632 -106.391 -47.3319 342.211 18.2805 -39.1144 334.223 23.3458 -19.3909 371.873 -0.827633 10.1048 115.103 7.44375 
133.543 176.161 174.728 150.782 155.034 123.808 169.761 177.074 77.3417 90.0397 -53.5057 340.602 -3.41615 -42.2338 352.824 -102.123 -20.7353 326.259 -106.372 -47.043 342.434 18.3088 -39.1273 334.532 23.5767 -19.1702 371.904 -0.998826 10.1295 115.148 7.22083 
133.947 176.176 174.968 150.704 155.319 124.266 169.951 177.4 77.0871 89.9016 -53.1968 340.284 -3.21724 -42.0473 352.621 -102.29 -21.0939 326.046 -106.343 -46.8508 342.882 18.3522 -39.1333 334.962 23.7194 -18.9564 371.979 -1.15958 10.1616 115.215 6.99882 
134.908 176.289 174.785 150.665 155.589 124.768 170.232 177.67 76.8097 89.7782 -52.5087 339.512 -2.76232 -41.9618 352.589 -102.357 -21.3498 325.97 -106.346 -46.5892 343.125 18.3956 -39.0466 335.186 23.831 -18.7434 372.072 -1.20395 10.2017 115.166 6.87735 
135.167 176.312 174.54 150.872 155.627 125.317 170.415 177.904 76.5342 90.0492 -52.1141 339.124 -2.51195 -41.9782 352.262 -102.355 -21.6261 325.42 -106.288 -46.312 343.072 18.4404 -39.0327 335.073 24.0015 -18.5376 372.056 -1.22178 10.2215 114.909 6.84772 
135.057 176.478 174.394 150.989 155.76 125.682 170.731 178.111 76.2835 89.9748 -51.6944 338.918 -2.56786 -41.9187 351.652 -102.486 -21.9247 324.671 -106.37 -46.16 342.954 18.2526 -38.9703 334.933 23.9605 -18.3718 371.927 -1.39068 10.1652 114.542 6.72402 
134.91 176.589 176.482 151.143 156.148 125.998 170.875 178.815 76.0484 89.5617 -51.4834 339.131 -3.1433 -41.7347 351.178 -102.623 -22.1008 324.57 -106.323 -46.1171 343.371 17.8988 -38.8648 335.374 23.768 -18.2173 371.997 -1.67539 10.0324 114.418 6.41596 
133.074 177.187 176.431 151.399 155.858 126.417 171.71 178.658 76.3294 88.8754 -51.6591 339.353 -4.07002 -42.2518 350.914 -103.107 -22.2313 324.178 -106.55 -46.3345 343.052 17.2495 -38.5343 335.12 23.0883 -18.0392 371.698 -2.13956 9.77377 113.893 6.75545 
133.322 177.334 179.756 151.021 155.892 126.584 171.839 179.918 75.8436 89.1503 -51.398 339.189 -4.55597 -42.2177 350.604 -103.268 -22.2914 324.066 -106.35 -46.1825 343.042 16.6107 -38.7297 335.085 22.7868 -17.969 371.661 -2.46557 9.69494 113.555 6.68586 
133.899 177.177 179.999 150.16 155.875 126.675 171.806 179.997 75.1562 88.9707 -50.6447 338.426 -4.57443 -42.1704 350.218 -103.31 -22.8657 323.159 -105.616 -45.9385 342.657 15.7907 -38.6851 334.731 22.2872 -17.9224 371.506 -2.7856 9.61626 112.487 6.69383 
134.114 176.849 180 149.802 155.591 126.438 171.451 179.992 75.0076 89.4348 -49.9328 338.208 -4.94362 -42.1999 350.308 -103.231 -23.6259 322.895 -105.203 -45.7403 342.093 15.1285 -38.5515 334.044 21.747 -17.9788 371.591 -3.10709 9.4706 111.309 6.55562 
134.216 176.86 180 148.739 155.381 126.1 171.347 179.989 74.4668 89.8152 -49.2552 338.053 -5.2748 -42.0443 350.595 -103.356 -23.8998 322.618 -105.019 -45.4093 341.731 14.1359 -38.3574 333.737 21.329 -18.0057 371.748 -3.4314 9.13368 110.202 6.70215 
134.637 176.785 180 147.09 155.47 125.867 171.12 179.986 73.7387 90.0769 -48.8048 337.91 -5.55003 -41.8735 351.126 -103.483 -24.1488 322.624 -104.98 -45.0791 341.601 13.1703 -38.2812 333.609 20.9979 -18.0237 371.897 -3.69605 8.82468 109.404 6.87372 
135.098 176.926 179.999 145.334 155.225 125.676 171.064 179.986 73.0353 90.1212 -48.3561 337.771 -5.84294 -41.7336 351.596 -103.673 -24.2723 322.777 -105.055 -44.5857 341.532 12.2994 -38.0082 333.523 20.572 -18.0154 372.091 -3.97747 8.65518 108.798 7.01009 
135.262 177.144 180 143.337 155.029 125.173 171.158 179.985 72.6715 90.3211 -47.9314 337.805 -6.21217 -41.4353 351.867 -103.941 -24.1132 322.622 -105.131 -44.1714 341.465 11.5779 -37.7391 333.509 20.3385 -17.9948 372.242 -4.28377 8.44046 108.338 7.26695 
135.288 177.351 180 142.097 154.843 124.948 171.439 179.985 72.4354 90.4702 -48.101 338.038 -6.53697 -41.303 352.139 -104.308 -23.6005 322.798 -105.625 -43.861 341.497 11.2233 -37.632 333.565 20.2185 -17.9289 372.315 -4.5367 8.41827 108.646 7.40948 
135.295 177.586 180 142.785 154.837 124.769 171.802 179.984 72.7449 90.276 -48.1152 338.309 -6.83955 -41.1058 352.357 -104.693 -23.055 323.164 -106.065 -43.7379 342.033 11.6283 -37.4664 333.952 20.2228 -17.8459 372.438 -4.77719 8.54947 109.854 7.42161 
134.813 177.901 180 143.693 154.681 124.287 172.194 179.983 72.7127 89.9738 -48.2407 338.866 -7.2493 -40.8507 352.733 -105.214 -22.2967 324.086 -106.901 -43.4343 342.456 11.8531 -37.3133 334.116 19.9535 -17.7322 372.456 -5.03703 8.84536 111.344 7.24833 
134.313 178.089 180 144.09 154.706 124.077 172.647 179.982 72.5815 89.5213 -48.332 339.015 -7.59748 -40.7031 353.141 -105.871 -22.1442 324.42 -107.681 -43.27 342.729 11.8201 -37.2508 334.284 19.6824 -17.6563 372.306 -5.39851 9.02665 112.302 7.28779 
134.42 178.663 180 146.389 153.85 123.7 173.711 179.985 73.1201 88.2515 -49.2622 339.787 -8.58659 -40.1091 353.499 -106.637 -21.8545 325.098 -108.714 -43.4641 343.938 12.5639 -37.1039 334.938 19.2277 -17.4944 372.176 -5.74779 9.46357 114.429 6.95586 
133.647 178.78 180 148.432 153.505 123.27 174.455 179.992 73.5513 87.2655 -50.134 341.012 -9.19445 -39.6295 353.784 -107.237 -21.4764 325.584 -109.623 -43.5248 345.218 13.323 -36.9928 335.784 19.1036 -17.294 372.217 -5.9656 9.87957 116.305 6.74082 
132.395 178.981 180 149.936 153.046 123.049 175.298 179.999 74.0491 86.3312 -51.2874 342.457 -9.83123 -39.172 353.96 -107.833 -20.9195 325.591 -110.744 -43.7524 346.292 13.9244 -36.9831 336.518 18.9743 -17.1478 372.222 -6.15038 10.2125 117.863 6.74559 
131.315 179.12 180 151.086 152.661 122.174 175.573 180 74.2691 85.5805 -51.2018 343.013 -9.94277 -39.0168 354.157 -108.311 -19.7436 325.858 -111.721 -43.7005 346.321 14.4034 -36.7261 336.465 19.1441 -17.0647 372.026 -6.0233 10.3156 119.046 7.0793 
128.641 179.634 180 152.204 152.315 122.593 176.202 180 75.0105 84.9514 -52.186 343.683 -10.5819 -39.2878 353.905 -108.903 -18.825 325.332 -112.769 -44.1168 346.025 14.5875 -36.5484 336.13 18.9193 -16.9651 371.433 -6.22912 10.2529 119.922 7.70474 
126.691 179.822 179.056 153.177 152.132 123.295 176.842 179.663 75.5706 84.2329 -53.0934 344.314 -11.3264 -39.5992 353.395 -109.427 -18.5788 325.191 -113.766 -44.5466 345.933 14.6439 -36.4147 335.995 18.6527 -16.9286 370.995 -6.49832 10.1889 120.453 7.80319 
125.533 179.847 180 153.136 152.016 123.219 176.728 179.999 75.5716 84.4647 -53.2717 345.08 -11.1829 -39.4006 353.54 -109.628 -18.9602 325.091 -113.988 -44.6259 346.366 14.8028 -36.7881 336.414 18.9358 -16.8257 371.086 -6.47592 10.219 120.434 7.66485 
124.653 179.686 180 152.702 151.676 123.122 176.805 179.999 75.5423 84.4055 -53.1573 345.648 -11.2021 -38.8788 353.543 -109.866 -19.0898 324.938 -114.304 -44.6776 346.569 14.7404 -36.9497 336.685 18.9196 -16.7518 371.232 -6.53331 10.2679 120.256 7.38785 
123.998 179.912 179.142 152.797 151.625 123.679 177.078 179.691 76.1666 84.3273 -53.7381 345.974 -11.7758 -39.012 353.558 -110.173 -18.8681 324.978 -114.761 -45.1564 346.328 14.4274 -36.9288 336.634 18.6179 -16.7436 371.207 -6.77938 9.98863 119.962 7.5274 
123.633 179.857 177.699 153.052 151.567 124.395 177.265 179.132 76.653 84.1989 -54.4359 346.142 -12.2422 -39.3948 353.283 -110.287 -19.0562 324.426 -114.803 -45.6465 345.956 14.0669 -36.9289 336.421 18.2634 -16.782 371.086 -6.9724 9.76763 119.22 7.74352 
122.943 179.66 177.66 153.113 151.134 125.292 177.405 178.843 77.0741 83.7351 -55.451 346.236 -12.4384 -39.7493 352.974 -110.435 -19.0678 323.844 -114.794 -46.0446 345.753 13.9513 -36.9047 336.233 17.9192 -16.8133 370.822 -7.11611 9.76459 119.006 8.06489 
123.104 179.61 177.546 153.389 150.839 126.031 177.464 178.764 77.201 83.1526 -55.5756 345.941 -12.5814 -40.1017 352.712 -110.442 -19.2605 323.554 -114.689 -46.1688 345.888 14.0112 -36.7594 336.332 17.6937 -16.8791 370.785 -7.22098 9.89619 119.039 8.18901 
120.351 179.854 178.878 153.48 150.995 124.272 177.058 179.597 76.5517 83.3688 -54.4378 346.38 -11.1701 -39.804 353.247 -110.446 -19.6242 324.292 -114.676 -45.8286 346.777 14.2281 -37.0648 337.002 17.9415 -16.9882 371.187 -7.20383 10.1622 119.747 7.81788 
120.666 179.348 179.999 153.227 151.182 123.234 176.601 179.999 76.1257 83.4315 -53.6208 346.031 -10.2135 -39.5589 353.674 -110.338 -20.0674 324.83 -114.425 -45.5869 347.288 14.3517 -37.1986 337.418 18.038 -17.158 371.607 -7.22435 10.3638 120.031 7.45025 
121.69 179.029 180 153.207 151.317 122.779 176.175 180 75.7812 83.6199 -52.8349 345.645 -9.58648 -39.3028 353.566 -110.077 -20.4919 324.563 -113.887 -45.5081 347.808 14.5886 -37.4818 337.84 18.3211 -17.318 371.948 -7.135 10.5257 120.089 7.19738 
122.837 178.604 180 153.519 152.003 122.008 175.63 180 75.2186 84.0233 -51.0832 344.687 -8.70516 -39.1361 353.604 -109.8 -20.6623 324.756 -113.44 -45.1444 347.971 14.8054 -37.5916 338.031 18.6599 -17.5021 372.244 -7.04051 10.7412 120.401 6.9531 
124.242 178.321 180 153.967 152.855 121.821 175.133 180 74.8242 84.3331 -50.0136 343.962 -8.24574 -39.0944 353.557 -109.484 -20.982 324.84 -112.799 -44.9161 348.18 14.9455 -37.6347 338.212 18.9326 -17.7057 372.511 -6.96491 10.7968 120.496 6.73933 
126.153 178.055 180 153.591 153.257 122.181 174.627 180 74.6225 84.9878 -49.7669 343.086 -8.04621 -39.1163 353.201 -109.171 -21.1235 324.679 -112.122 -44.8546 347.962 14.8974 -37.7916 338.114 19.1751 -17.9119 372.575 -6.91306 10.7253 120.266 6.60769 
128.234 177.757 180 153.555 153.813 122.448 174.189 180 74.2846 85.5074 -49.3436 342.174 -7.75637 -39.4644 352.743 -108.811 -21.5994 324.574 -111.626 -44.6056 347.894 14.793 -37.7273 338.14 19.2891 -18.1722 372.779 -6.97947 10.7332 120.017 6.35389 
130.183 177.655 180 153.282 153.81 122.692 173.838 180 74.102 85.5744 -49.4444 341.773 -7.80825 -39.7971 352.943 -108.578 -22.1717 325.113 -111.076 -44.495 348.275 14.778 -37.634 338.44 19.2893 -18.4535 373.151 -7.01463 10.7336 120.008 6.14781 
132.085 177.609 180 152.285 153.569 122.757 173.607 179.999 73.9492 85.8067 -49.5559 341.208 -7.64155 -40.2009 353.279 -108.374 -22.7654 325.964 -110.819 -44.3905 348.399 14.599 -37.6037 338.539 19.0895 -18.7695 373.526 -7.07568 10.8253 119.811 5.83953 
133.936 177.323 179.999 151.63 153.827 122.982 173.046 179.99 73.47 86.3089 -49.1601 340.38 -7.28846 -40.7787 353.768 -107.991 -23.5837 326.643 -110.125 -44.175 348.356 14.199 -37.6159 338.531 18.9302 -19.1218 373.934 -7.12357 10.806 119.18 5.75837 
134.613 177.192 179.999 151.092 153.892 122.786 172.501 179.981 73.1771 86.8743 -49.1145 340.307 -7.05027 -41.1336 354.722 -107.655 -23.8668 327.924 -109.722 -43.9059 348.25 13.9624 -37.4722 338.404 18.8109 -19.4163 374.353 -7.06874 10.817 118.987 5.7212 
134.914 177.327 180 149.82 153.363 122.707 172.286 179.975 73.099 86.9418 -49.7908 340.585 -7.34652 -41.2594 355.771 -107.504 -24.1914 329.519 -109.677 -44.0134 348.185 13.4985 -37.4834 338.352 18.3753 -19.6956 374.689 -7.07226 10.7115 118.707 5.4252 
136.887 177.252 180 145.961 152.087 123.757 172.274 179.98 73.1005 86.4157 -50.5921 340.214 -7.46954 -41.2623 356.934 -107.241 -24.4377 330.793 -109.784 -44.3653 347.917 12.6038 -37.1866 338.821 18.1362 -19.9336 375.413 -6.83511 9.9515 117.121 5.23499 
138.446 177.337 179.999 142.831 150.7 124.167 172.751 179.988 72.9743 86.7219 -50.9822 340.329 -7.73586 -41.7699 358.036 -106.898 -23.8887 331.48 -109.824 -44.4588 347.52 11.9641 -37.1817 338.835 18.2446 -20.2141 376.188 -6.36665 9.43831 115.727 5.76896 
138.648 177.344 180 140.3 149.799 124.673 172.643 179.988 73.1203 86.9571 -51.5171 340.766 -8.21723 -42.2124 359.666 -106.844 -24.4533 332.007 -109.588 -45.0709 347.219 11.2141 -37.6515 338.88 17.8936 -20.677 376.771 -6.23311 9.19346 114.221 6.47662 
140.689 177.543 180 137.298 148.01 126 172.911 179.991 74.455 86.2655 -52.7806 340.591 -8.85508 -42.0194 361.025 -106.373 -24.9207 332.565 -109.189 -46.2889 347.179 10.6983 -37.9325 339.223 17.0255 -20.8843 377.311 -5.93869 9.07933 112.371 6.77656 
142.012 177.627 180 136.247 146.323 126.187 173.523 179.991 75.4455 85.7466 -53.599 340.85 -9.49905 -42.4004 362.383 -106.174 -25.5169 333.1 -108.926 -47.3678 347.375 10.3321 -38.6084 339.577 16.0838 -21.2408 377.888 -5.71637 9.33788 110.955 7.24883 
142.855 177.735 179.999 136.436 145.926 126.344 173.711 179.993 76.7658 85.731 -54.0189 340.982 -9.57691 -42.4965 363.164 -105.905 -27.2317 331.893 -108.027 -48.6752 347.742 10.5833 -39.3638 340.129 15.731 -21.5956 378.352 -5.45138 9.53652 109.131 8.28602 
142.504 177.653 179.999 137.423 145.815 126.068 173.571 179.996 77.5631 85.8669 -54.3776 341.785 -9.36799 -42.8617 363.699 -105.736 -29.6726 329.852 -106.894 -49.6506 348.462 11.2161 -40.1258 340.834 15.7346 -22.0388 378.893 -5.23277 9.85127 107.488 9.88803 
142.346 177.443 180 138.417 145.835 125.919 173.4 179.995 77.9905 86.2034 -54.7849 342.399 -8.94084 -43.5714 363.735 -105.212 -31.6181 327.514 -105.645 -50.4179 349.41 11.8316 -40.9271 341.452 15.9268 -22.4662 379.43 -5.04947 9.9721 106.297 11.3152 
142.122 177.739 180 139.532 146.342 125.834 173.718 179.993 78.2928 86.4849 -55.3277 343.356 -8.59035 -44.1085 363.735 -104.929 -33.3234 325.173 -104.768 -51.0683 350.626 12.6316 -41.6267 342.368 16.495 -22.879 380.12 -4.85764 9.98669 105.58 12.6261 
141.293 178.337 180 141.878 146.77 125.663 174.55 179.994 78.7172 86.4895 -55.4241 344.589 -8.11255 -44.2858 363.623 -104.974 -33.8751 324.485 -104.628 -51.4698 352.246 14.1081 -42.18 343.516 17.3352 -23.1701 380.861 -4.64935 10.3186 106.642 12.7288 
141.004 178.281 180 144.558 147.774 125.619 174.767 179.99 78.4378 86.3331 -55.2346 346.027 -7.14716 -45.0816 363.983 -104.691 -33.5226 323.528 -103.64 -51.4116 354.422 15.6412 -42.4279 345.321 18.4619 -23.6193 381.998 -4.35648 10.7665 108.242 13.4067 
140.242 177.127 180 146.334 148.815 125.049 173.947 179.989 77.8545 85.2961 -54.9434 347.288 -6.02001 -46.2866 365.193 -104.35 -34.044 323.904 -102.795 -51.8993 356.277 16.3055 -42.8754 346.971 18.9319 -24.1811 383.159 -4.07229 11.0059 108.899 13.8868 
139.717 178.345 180 147.314 149.084 124.924 175.075 179.987 77.7362 84.1793 -55.0629 348.132 -4.43353 -48.3383 368.123 -103.797 -31.6722 327.681 -103.606 -52.2946 357.736 17.4864 -42.9577 348.289 19.7051 -24.7544 384.032 -3.59703 11.2219 112.762 13.7603 
138.684 178.45 180 146.873 149.357 125.247 175.512 179.988 77.1832 83.096 -54.7419 348.946 -3.68302 -49.0868 369.374 -103.803 -30.7022 330.411 -104.24 -52.4588 358.678 18.354 -43.059 349.102 20.3666 -25.3936 384.794 -3.25337 11.4965 115.248 13.2586 
137.585 178.894 180 144.897 150.128 125.635 176.329 179.99 76.9341 82.2443 -55.3404 349.661 -3.29799 -48.8009 371.107 -104.164 -29.7066 333.254 -105.591 -52.856 359.316 18.9805 -43.3709 349.527 20.6775 -26.0797 385.198 -3.06365 11.7445 118.022 12.746 
138.766 179.078 180 146.933 151.903 126.237 176.45 179.986 76.7545 81.9044 -55.2021 349.842 -3.06919 -49.719 371.6 -103.837 -30.413 335.736 -106.09 -53.073 359.767 19.6453 -43.5127 349.943 21.0277 -26.5952 385.721 -2.93426 12.0962 119.189 11.6913 
139.108 178.596 180 150.776 154.2 127.03 176.176 179.983 76.5673 82.6958 -53.7486 348.701 -2.75324 -50.6838 371.146 -103.388 -30.6635 336.55 -105.718 -52.8836 359.045 20.2794 -43.7894 349.215 20.799 -27.1661 385.635 -2.80924 13.363 119.842 11.3049 
139.984 178.424 180 153.098 155.169 127.865 175.502 179.984 77.2581 83.4377 -55.0211 348.575 -3.13544 -52.0882 370.947 -103.405 -31.5025 337.563 -106.195 -53.8828 358.555 20.2329 -44.3771 349.041 20.899 -27.778 385.699 -2.94255 13.0302 119.421 10.8349 
140.39 178.464 180 154.332 156.823 128.831 175.367 179.983 77.6708 84.0374 -54.9675 348.227 -3.06001 -52.5432 369.863 -103.105 -31.9996 337.449 -105.669 -54.4646 358.255 20.6487 -44.773 349.507 21.7747 -28.1379 385.883 -2.72905 12.7064 118.753 10.2792 
139.997 177.559 180 157.718 158.859 128.639 168.12 179.984 77.6758 84.3243 -54.6019 347.174 -2.31202 -61.2725 362.991 -101.298 -34.3244 334.766 -103.248 -54.5962 357.583 20.7469 -44.9755 348.491 22.1687 -28.3734 385.453 -2.81876 12.5661 115.833 11.7028 
140.298 176.837 177.905 161.092 160.75 128.224 167.539 179.299 77.4745 84.2505 -54.0403 345.631 -1.19385 -66.3612 361.272 -100.242 -34.9825 333.359 -102.649 -54.3553 356.849 20.9373 -44.7811 347.613 22.1906 -29.0215 384.977 -2.98468 12.9128 115.419 14.3633 
141.138 176.76 172.411 163.108 161.737 127.745 166.863 177.462 77.7937 85.3325 -54.1396 343.936 -0.381028 -69.9337 359.829 -98.8813 -33.4126 330.502 -102.003 -54.3145 354.917 20.7682 -44.5929 346.444 21.878 -29.8872 384.35 -3.01175 13.2336 114.857 17.7259 
140.488 177.956 161.285 161.893 159.522 126.985 169.547 173.746 79.4589 85.4623 -57.5443 344.142 -1.73286 -71.7602 361.937 -99.9976 -34.1734 330.466 -103.285 -55.3852 354.161 20.609 -45.2599 345.944 20.9474 -30.2441 383.876 -3.32638 13.6211 114.256 19.0948 
140.387 177.023 163.655 160.777 158.13 126.231 168.55 173.092 79.6134 86.2014 -60.5269 345.53 -2.59466 -71.5873 363.163 -99.3242 -34.1303 332.112 -104.075 -56.4702 354.181 20.1669 -46.825 345.955 20.7593 -30.3152 384.039 -2.81191 13.5177 113.68 18.9785 
138.542 178.094 166.546 159.534 156.092 126.979 172.059 173.941 80.7257 86.8656 -62.3725 344.451 -2.64752 -73.4524 363.485 -99.9631 -32.6471 333.265 -105.908 -57.1403 352.257 19.9351 -47.4172 344.656 20.0716 -30.7169 383.05 -3.05991 13.911 114.78 20.7953 
137.671 179.508 170.652 157.006 154.177 127.923 176.447 173.793 81.0326 86.5884 -64.1186 343.547 -3.48934 -74.9476 363.967 -100.703 -33.1261 333.068 -106.626 -57.6887 351.312 19.4286 -48.0008 343.689 19.4831 -31.0498 382.055 -3.32547 13.8816 114.663 21.6798 
138.223 179.022 173.232 155.358 152.682 128.247 176.832 174.89 81.5084 85.7066 -66.1045 344.019 -3.88187 -74.0483 364.322 -101.263 -34.4867 332.983 -106.917 -59.072 351.587 19.4388 -49.0101 343.53 19.4811 -31.1309 381.716 -2.86815 13.3505 113.911 20.3265 
137.713 178.842 174.116 154.778 152.59 129.536 178.32 175.433 81.2274 84.5991 -66.3443 342.751 -3.36308 -73.6367 364.384 -102.127 -35.4609 331.882 -107.291 -58.855 350.973 19.8902 -48.4616 342.839 19.8996 -31.4504 380.945 -2.73524 13.1563 114.085 19.6729 
136.849 178.82 175.056 155.019 152.698 130.807 178.461 175.57 80.2143 83.7148 -66.3013 341.703 -3.00525 -73.4007 362.704 -102.494 -36.6008 329.542 -106.969 -58.6193 349.796 20.1732 -48.13 341.863 20.7985 -31.9575 379.903 -2.43548 12.7224 113.572 18.9228 
139.803 179.371 173.181 159.694 157.388 128.897 175.577 174.82 78.041 84.6908 -61.6678 338.809 0.261658 -76.9138 357.268 -98.6808 -38.5839 325.787 -104.249 -56.3086 347.153 20.8514 -46.6047 341.053 22.8517 -32.9988 379.096 -1.84679 12.5564 111.902 19.138 
141.606 178.11 171.928 160.832 158.845 128.866 173.175 173.139 77.768 87.2332 -58.3921 336.049 1.74399 -80.5245 352.354 -94.8917 -39.012 321.571 -101.374 -55.389 344.304 20.6572 -45.9956 339.725 23.8049 -34.0934 378.419 -1.4139 12.2692 108.974 20.6262 
138.95 178.047 171.351 160.067 158.637 128.406 175.3 172.871 77.5575 87.1357 -58.9771 337.283 -0.109054 -78.8147 353.572 -96.3933 -39.1491 323.976 -102.638 -56.0703 343.252 20.3834 -46.6208 337.612 23.9473 -34.495 377.757 -1.33234 11.3319 110.052 19.224 
137.022 179.964 172.594 158.903 157.566 127.994 177.306 173.264 77.1384 86.8354 -60.8686 338.621 -1.73011 -76.0707 355.195 -98.4127 -38.9054 325.768 -104.125 -57.3309 342.686 19.7909 -48.0182 336.241 23.6491 -34.7148 377.224 -1.02316 10.9179 110.577 17.5734 
135.339 178.523 173.43 158.298 157.354 127.977 177.569 173.982 76.7678 85.3876 -62.069 338.981 -1.89296 -74.109 354.618 -99.1701 -38.4578 326.023 -104.898 -57.9995 342.108 20.2822 -48.6309 335.362 23.6828 -34.802 376.163 -0.537111 11.2952 111.957 16.3558 
