153.954 178.866 168.489 144.146 146.075 140.03 175.923 169.38 81.2119 80.0162 20.708 206.493 20.0411 -26.6532 169.413 -57.5474 8.51498 187.181 -75.6072 16.0096 234.85 31.0868 18.8981 246.707 20.7479 -17.9344 251.442 7.62276 13.7166 107.688 15.7705 
154.025 176.306 169.357 143.881 145.698 140.067 176.149 168.308 81.0799 80.0628 20.8637 206.712 19.7016 -26.6611 170.024 -58.2854 8.63976 188.067 -76.3815 16.2612 234.841 30.5729 19.1253 246.549 20.2916 -17.7747 251.698 7.34831 13.9735 107.681 15.9168 
154.008 172.499 170.248 143.543 145.906 140.162 176.571 166.859 80.5532 80.1946 21.7527 207.487 19.0711 -26.6718 170.886 -59.3171 8.6862 190.195 -78.0746 17.0398 235.414 29.3152 19.8745 246.898 19.26 -17.2845 252.276 6.72297 14.2393 108.196 16.4867 
154.049 172.773 170.217 143.609 146.04 140.353 176.634 165.922 80.3483 80.2254 22.4534 207.767 18.8522 -26.7139 171.258 -59.7335 8.71157 190.938 -78.5377 17.5683 235.622 28.7505 20.2962 247.002 18.6608 -17.0422 252.352 6.55998 14.4108 108.235 16.7667 
154.093 173.067 169.99 143.556 146.26 140.514 176.705 165.06 80.1949 80.1656 23.0313 207.688 18.7598 -26.4309 171.698 -60.1925 8.64127 191.651 -79.0872 18.0921 235.639 28.1275 20.7359 246.981 17.9915 -16.7352 252.334 6.28291 14.5343 108.367 16.7318 
154.109 173.788 169.889 143.583 146.542 140.639 176.922 164.699 79.8795 79.9702 23.5869 208.075 18.634 -26.3653 172.37 -60.6286 8.40655 192.714 -79.7285 18.3673 236.222 27.6532 21.0145 247.468 17.4534 -16.485 252.72 6.08767 14.6765 108.826 16.7677 
154.087 174.535 169.961 143.403 146.737 140.767 177.128 164.713 79.4988 79.683 24.201 208.257 18.729 -25.9268 172.779 -60.9912 8.32162 193.67 -80.4153 18.7488 236.57 27.2021 21.352 247.695 16.9385 -16.1776 252.852 5.90481 14.9002 109.423 16.7194 
154.007 175.546 170.008 143.301 146.694 140.78 177.443 164.964 79.1904 79.4254 24.6155 208.601 18.7711 -25.7713 173.514 -61.59 8.30461 194.677 -81.1038 18.9221 236.925 26.939 21.5865 247.921 16.572 -15.8492 253.243 5.74187 15.1534 109.965 16.7038 
153.621 176.333 170.399 143.298 146.43 140.626 177.689 165.574 78.6183 79.0386 25.2658 208.893 18.8358 -25.0367 174.336 -62.3977 8.6035 195.4 -81.9743 19.0171 237.403 26.7258 21.8637 248.107 16.2555 -15.4008 253.413 5.55819 15.4948 110.843 16.3494 
153.078 176.958 170.749 143.35 145.857 140.343 177.877 166.271 78.1069 78.6871 25.8109 209.027 18.5928 -24.4356 175.136 -63.2198 8.87079 195.718 -82.799 19.2138 237.815 26.5024 22.1801 248.149 15.8544 -14.8787 253.456 5.40153 15.9642 111.586 15.9286 
152.408 173.205 170.559 143.516 145.623 140.201 176.605 166.377 77.9691 78.4684 26.5699 209.138 18.0134 -23.0679 176.644 -64.2749 9.3714 196.299 -83.328 19.9348 238.016 26.194 22.7794 248.246 15.3567 -14.2112 253.445 5.38429 16.2577 111.709 14.9911 
152.054 166.926 170.503 143.605 145.796 139.979 174.552 166.462 78.2371 78.4952 27.3223 209.259 17.5029 -21.5455 178.015 -64.8704 9.87219 196.744 -83.6829 20.9865 238.295 25.9691 23.6351 248.727 15.0908 -13.5302 253.498 5.42813 16.0586 111.548 14.0549 
152.254 164.528 170.689 143.53 146.141 139.621 173.789 166.621 78.6023 78.5858 27.6524 209.341 17.6263 -21.1231 178.466 -64.9774 10.705 196.76 -83.749 21.6751 238.242 26.0355 24.4226 249.034 15.3299 -12.857 253.85 5.28318 15.538 111.188 14.1133 
152.295 163.707 170.896 143.246 145.84 139.317 172.64 166.834 78.556 78.5867 27.8372 209.187 17.8802 -20.6899 178.619 -64.9 11.5539 196.553 -83.6949 22.0583 238.149 26.0555 25.077 249.245 15.661 -12.1997 254.028 5.13699 14.948 111.058 14.1864 
152.112 165.851 171.155 143.329 144.878 139.115 171.006 167.274 78.4203 78.4855 28.3674 209.737 17.6478 -19.6704 179.89 -65.7912 11.7308 197.466 -84.297 22.6421 239.161 25.8896 25.6602 250.363 15.6137 -11.5634 254.669 4.99626 14.6816 111.692 13.4843 
151.795 167.078 170.96 143.505 144.102 138.855 170.15 167.333 78.3126 78.2438 28.9865 210.025 17.4413 -18.7907 180.803 -66.4133 12.1708 197.938 -84.554 23.2026 239.95 25.9377 26.259 251.245 15.7493 -10.8449 254.987 4.93557 14.4333 112.269 13.0542 
151.514 167.874 170.115 143.564 143.051 138.865 169.37 166.902 78.3622 78.2465 29.5228 209.542 17.1826 -18.2004 181.336 -66.6626 12.6194 197.688 -84.5534 24.2904 240 25.6844 27.1676 251.259 15.6007 -9.98374 254.898 4.92704 14.4835 111.958 12.822 
151.676 169.054 169.202 143.403 142.284 138.909 169.048 166.471 78.5792 78.2236 30.0209 209.358 17.685 -17.5967 181.26 -66.5898 13.7326 197.171 -84.1832 25.126 240.111 25.8791 28.0549 251.511 15.9311 -9.05384 255.211 4.79354 14.2658 111.598 13.0037 
151.401 170.672 167.979 143.481 141.747 138.557 168.181 166.163 78.497 78.207 31.5218 209.227 18.0662 -16.3687 181.869 -67.2494 15.6616 197.043 -84.0199 26.7486 240.437 26.1943 30.07 251.962 16.6592 -6.91144 255.578 4.63058 13.8064 111.845 13.2261 
151.637 171.36 166.318 144.409 142.152 138.744 167.931 165.699 79.5108 79.0083 32.1335 209.275 18.5145 -16.5084 182.194 -67.3778 17.0693 196.872 -83.3665 27.7111 240.002 26.9957 31.1267 251.888 17.6456 -5.8628 256.042 4.65664 13.3966 111.051 14.1235 
151.349 171.585 165.126 144.349 142.259 138.853 167.951 165.477 79.8221 79.4929 33.1665 209.748 18.6646 -15.5684 182.865 -67.6391 18.0594 197.188 -83.0728 28.938 240.468 27.1582 32.3921 252.526 18.0572 -4.73955 256.608 4.69804 13.1007 110.753 14.1613 
151.189 171.803 165.249 144.538 142.112 138.815 168.11 165.788 80.2478 79.7734 33.8205 209.885 19.0917 -14.9865 182.946 -67.478 19.0223 197.303 -82.9704 30.0329 240.737 27.5044 33.5126 252.878 18.3978 -3.72085 257.031 4.72107 12.9513 110.726 14.4346 
150.49 171.841 164.37 145.385 142.369 138.57 168.065 165.81 80.6707 79.967 35.0165 209.942 18.9846 -14.5145 184.036 -67.8683 19.7325 198.355 -83.2658 31.3667 240.956 27.7006 34.7363 253.269 18.5912 -2.68915 257.122 4.93498 12.7711 110.921 14.763 
150.427 171.808 163.288 146.411 142.81 138.471 168.218 167.564 81.5456 80.3124 35.9235 210.43 19.191 -14.3324 185.034 -67.8502 20.6882 199.558 -83.2761 32.534 240.905 28.1657 35.8281 253.526 18.9074 -1.76089 257.678 5.07276 12.5635 110.713 15.3904 
150.511 170.754 162.866 147.279 143.085 138.58 168.896 169.673 82.3926 80.7951 37.1155 210.515 19.4294 -13.4282 185.568 -67.6378 22.5898 200.738 -83.4086 33.9418 240.537 28.4011 37.0136 253.564 19.0234 -0.852163 257.733 5.19345 12.304 110.283 16.3336 
150.948 168.374 158.347 147.56 143.491 138.7 171.431 171.803 83.2016 81.5215 38.3256 211.392 19.7369 -12.1913 186.359 -67.6066 25.0894 202.936 -83.7138 35.5558 241.187 28.5127 38.3604 254.448 19.1452 0.0232865 258.547 5.19529 12.1158 109.965 17.5216 
151.104 168.768 162.92 147.956 144.62 138.536 174.27 174.288 84.0142 82.1586 39.1193 212.226 19.9532 -11.8732 187.123 -67.68 27.0608 204.703 -84.1872 36.8455 241.697 28.7744 39.5847 255.194 19.3418 0.829923 259.414 5.18967 11.8639 109.777 18.8368 
151.055 174.27 166.911 148.429 145.733 138.121 179.555 175.62 84.3944 82.4213 39.9967 213.278 19.7779 -12.3344 189.848 -69.1066 28.3597 206.457 -84.6083 37.8798 242.371 28.7867 40.6671 255.942 19.211 1.61176 260.394 5.2121 11.7991 109.561 19.8629 
150.868 174.27 168.145 149.008 146.479 137.482 179.575 176.034 84.7404 82.3553 41.0521 214.745 19.3531 -11.7039 191.198 -69.1718 29.2873 208.492 -85.0675 39.1426 243.411 28.4438 41.7363 257.033 18.583 2.33458 261.668 5.16999 11.9931 108.982 20.2464 
150.929 174.27 167.961 149.37 146.715 136.734 179.506 175.975 84.5048 81.4958 42.0221 215.905 19.2235 -11.0495 192.181 -69.2295 30.436 209.203 -85.1097 40.0328 244.171 28.0886 42.3585 257.922 18.0827 3.10827 262.514 5.01959 12.2727 108.403 20.5931 
150.876 179.202 168.553 149.153 146.612 136.134 176.272 176.173 83.9821 80.5386 43.0177 216.676 19.083 -9.63372 191.859 -68.5438 31.2161 209.81 -85.4955 40.8797 244.676 27.564 42.904 258.536 17.6351 3.90563 262.999 4.93075 12.5719 108.151 20.3678 
151.272 178.612 168.902 149.756 146.437 136.063 173.646 176.288 83.7832 80.0206 43.7774 217.591 19.1962 -9.05852 191.7 -67.6808 31.7715 210.283 -85.8232 41.5473 245.344 27.689 43.5697 259.149 17.5077 4.64511 263.81 5.02488 12.8478 108.217 20.5102 
151.224 177.405 175.828 150.53 146.227 135.921 171.055 174.048 83.6059 79.5204 44.5558 218.507 19.0744 -8.65075 191.805 -67.1613 32.6586 211.37 -86.5313 42.1359 246.242 27.8266 44.2244 259.94 17.3517 5.43478 264.636 5.02422 13.1127 108.673 21.0875 
151.07 177.769 173.666 151.191 146.05 135.73 168.727 173.107 83.5081 79.1795 45.1941 219.381 18.7204 -8.64834 192.29 -67.2458 33.1008 212.151 -87.2109 42.62 247.133 27.8375 44.8074 260.726 17.1735 6.13541 265.523 4.89901 13.323 108.915 21.4512 
150.65 177.335 171.359 152.014 146.008 135.246 167.867 172.211 83.4419 78.6037 47.1187 221.52 17.9089 -6.98691 194.24 -68.0387 35.2883 214.59 -87.9998 44.2926 249.58 27.3613 46.4483 263.142 16.3277 7.49771 267.229 4.54476 13.4116 108.811 21.9668 
150.289 177.708 170.511 151.532 145.887 135.322 168.14 171.737 83.4129 78.4529 47.7565 222.6 17.3169 -6.06312 195.884 -68.888 35.9182 216.411 -88.4452 44.6986 251.37 27.3309 47.1809 264.839 16.0989 7.88579 268.277 4.45822 13.2368 109.291 21.7573 
149.993 177.898 170.316 151.402 145.938 135.404 168.734 171.547 83.1306 78.2794 48.3983 223.404 16.9163 -5.06681 196.932 -69.5073 36.6729 217.387 -88.9136 45.0725 252.883 27.2592 47.9824 266.253 15.9224 8.52799 269.117 4.22717 13.0019 109.936 21.5081 
149.736 178.58 170.791 151.335 145.905 135.184 168.251 171.492 82.7325 77.9058 48.6956 224.4 16.889 -4.96868 197.848 -69.9638 36.9658 218.217 -89.5565 45.068 253.992 27.2522 48.4165 267.204 15.9294 9.13893 270.224 3.93559 13.0049 110.641 21.4702 
149.514 178.163 171.32 151.239 145.961 134.907 169.65 171.606 82.3307 77.4941 49.3847 225.175 16.9431 -4.17183 199.062 -71.038 37.5673 218.988 -90.2201 45.0465 254.715 27.2685 48.8698 267.821 15.9142 9.78453 270.852 3.63005 12.9629 111.516 21.0273 
149.251 174.698 171.534 151.201 146.009 134.678 173.173 171.633 81.8979 77.0873 49.9706 225.851 16.8395 -3.40046 201.293 -73.0487 37.9916 220.027 -91.1031 45.1669 255.726 27.2104 49.4235 268.73 15.8963 10.4897 271.655 3.36065 12.8871 112.44 20.2435 
148.956 179.753 171.757 151.322 146.069 134.475 176.561 171.799 81.3939 76.7447 50.541 226.994 16.6991 -2.28736 204.144 -75.0264 38.3101 221.993 -91.9922 45.478 257.462 27.0077 50.1424 270.39 15.787 11.2321 273.118 3.16463 12.755 113.287 19.2624 
148.549 174.27 171.862 151.342 146.112 134.234 179.288 172.058 81.1583 76.5486 51.2634 228.251 16.5701 -1.70238 207.597 -77.201 39.1189 223.595 -92.6038 45.9535 259.208 26.8167 50.9264 272.005 15.4606 12.0871 274.518 2.82248 12.7673 113.952 18.9885 
147.959 174.665 171.985 151.322 146.156 133.994 176.896 172.443 81.0283 76.438 52.1381 229.738 16.7693 1.52234 207.846 -76.9725 40.5368 224.998 -92.6324 46.61 261.028 26.7651 51.7223 273.672 15.1682 12.9687 275.868 2.59398 12.9 114.334 17.8251 
147.266 173.531 172.756 151.238 146.319 133.204 176.577 173.05 80.9161 76.1251 52.7568 230.824 16.8177 3.64723 209.212 -77.8893 41.9019 226.154 -93.1543 47.045 261.956 26.6125 52.2924 274.519 14.9309 13.9012 276.809 2.16506 13.0266 114.806 17.094 
146.712 172.491 173.379 151.558 146.382 132.03 176.813 173.404 80.5646 75.695 52.9614 232.122 16.4353 5.0773 211.488 -79.0208 42.3604 227.992 -94.2356 47.3742 262.783 26.2525 52.7074 275.31 14.9108 14.7899 278.149 1.84687 13.0585 115.223 16.0636 
146.109 171.871 173.516 151.498 146.537 131.377 176.173 173.642 80.546 75.7012 53.221 233.241 16.3123 7.17557 213.335 -79.8211 43.6412 229.791 -94.8201 47.9504 264.014 26.1627 53.5641 276.415 14.8166 15.776 279.516 1.54377 13.1271 115.61 15.3006 
145.42 172.104 174.055 151.284 146.77 130.939 175.283 174.114 80.7076 75.9719 53.8388 234.18 16.8901 9.42072 214.591 -80.469 45.4255 231.233 -95.3774 48.6622 265.283 26.2731 54.5492 277.603 14.8586 16.8091 280.657 1.22998 13.093 116.195 14.8959 
144.467 172.177 174.135 151.137 146.989 130.533 174.711 174.385 80.815 76.118 54.5523 234.911 17.2915 11.5233 216.212 -81.2267 47.0817 233.316 -95.9949 49.5302 266.204 26.2284 55.6056 278.669 14.8571 17.7556 281.584 1.07434 12.9284 116.545 14.6076 
144.307 172.06 173.963 150.911 147.139 130.084 174.3 174.545 80.9204 76.3332 55.0534 235.541 17.7191 12.8636 217.677 -81.6449 48.5246 235.107 -96.2745 49.957 266.415 26.44 56.3645 278.909 15.2847 18.6014 282.339 1.0115 12.8681 116.878 14.5933 
144.483 172.053 173.88 150.771 147.048 129.679 173.914 174.667 81.0156 76.5779 55.4342 236.157 18.0989 13.8482 218.993 -81.9659 49.9875 236.742 -96.4697 50.3437 266.436 26.7735 57.0905 278.851 15.8957 19.4716 283.124 1.06656 12.9026 117.076 14.7711 
144.652 172.027 173.773 150.932 147.148 129.627 173.995 174.775 81.1499 76.8814 56.5171 237.285 18.8343 14.7645 219.605 -81.6351 51.5562 237.719 -96.2076 51.1948 267.348 27.0975 58.0223 279.618 16.2343 20.4537 284.116 1.09787 13.0059 117.19 15.2615 
144.597 171.923 173.635 151.101 147.343 129.19 173.945 174.719 81.3013 76.936 58.0087 238.373 19.2621 16.0659 220.414 -81.7858 53.8089 239.19 -96.344 52.0711 267.951 27.3624 58.9001 280.241 16.5136 21.477 284.676 1.10014 13.1007 117.365 16.0032 
143.949 171.716 172.768 151.448 147.6 128.485 173.64 174.3 81.3425 76.7102 59.6379 239.248 19.2389 17.533 222.301 -82.0831 55.6402 241.529 -96.3196 53.0931 268.05 27.3248 59.7605 280.635 16.584 22.4374 284.886 1.3472 13.095 117.166 16.3932 
143.389 171.489 171.795 152.036 147.85 127.731 173.431 174.258 81.3763 76.3407 61.2588 240.775 19.5934 19.0636 224.64 -82.1556 57.4521 243.452 -95.2949 54.052 268.695 27.4518 60.4177 281.526 16.7949 23.33 285.688 1.73263 13.211 116.262 16.5689 
142.956 170.729 170.88 152.861 148.259 127.398 173.865 173.88 81.4619 76.2757 63.0528 242.353 20.3464 20.1056 226.454 -82.0458 59.0971 245.352 -94.5862 54.9866 269.511 27.6415 61.1876 282.483 17.0122 24.2444 286.498 1.92663 13.2555 116.052 17.1393 
142.618 169.974 170.336 153.962 148.711 127.228 175.742 173.611 81.6293 76.2062 64.6663 243.396 21.1263 21.1128 227.527 -82.1163 60.8811 246.236 -93.7883 56.1048 270.576 27.9681 61.9643 283.622 17.1983 25.2245 287.081 2.00739 13.3551 115.92 17.8735 
141.625 174.27 169.249 154.293 149.254 127.053 179.442 173.01 81.8377 76.0478 66.1039 243.92 21.5031 20.9037 230.445 -83.1353 62.1075 247.966 -93.2633 57.2474 271.399 28.3659 62.9507 284.68 17.3311 26.0358 287.301 2.44161 13.3792 116.016 19.1411 
141.225 174.27 168.583 154.106 149.736 127.259 179.361 172.804 81.891 75.9641 66.9581 244.176 21.8016 22.0423 231.742 -82.8601 62.9345 249.31 -92.6984 58.1597 272.355 28.8835 64.0005 285.768 17.7515 26.8955 287.877 2.93825 13.2705 116.26 19.0911 
141.438 174.27 168.618 154.745 150.049 127.466 179.423 172.88 81.9778 76.0588 67.6185 244.814 22.3704 23.365 232.157 -82.2324 63.8571 250.671 -92.525 59.09 273.493 29.4716 64.7482 286.857 18.4854 27.7994 288.974 3.30979 13.2689 116.575 18.7851 
141.9 174.27 168.633 155.376 150.109 127.722 179.486 172.994 81.9728 76.0474 68.3748 245.478 22.6984 24.6247 232.321 -81.6564 64.9188 251.268 -91.5721 60.2879 274.946 29.8878 65.5635 288.129 18.8863 28.7011 290.066 3.64081 13.5033 116.178 18.7713 
142.121 174.27 169.623 155.647 150.241 127.748 179.552 173.021 81.7559 76.1286 69.5179 246.435 22.9737 25.1692 233.236 -81.5795 65.8882 252.689 -92.3182 61.4312 276.139 29.8424 66.372 289.344 19.196 29.7002 291.167 3.73547 13.4262 116.448 19.0534 
142.365 174.27 169.789 155.784 150.261 127.252 179.61 172.912 81.4783 76.1658 71.0948 247.855 23.1212 25.7441 234.323 -81.5889 66.7169 254.239 -92.7746 62.4093 276.944 29.7823 67.1884 290.262 19.5879 30.6866 292.057 3.90418 13.2757 116.591 19.2887 
142.622 174.27 170.037 156.104 150.341 126.822 179.64 173.02 81.0699 76.2265 72.4176 248.771 23.4548 26.6244 235.073 -81.5306 67.9227 255.584 -93.2441 63.2653 277.253 29.8607 68.1589 290.555 20.1673 31.8019 292.601 4.06844 13.1447 117.026 19.4967 
142.623 174.27 170.099 156.433 150.391 126.848 179.608 173.44 80.9579 76.4444 73.35 249.035 24.0124 27.5964 235.315 -81.0135 68.7998 256.496 -93.5252 64.2363 277.631 30.073 69.3257 290.849 20.523 32.9832 293.179 4.20645 13.088 117.648 19.5101 
142.99 174.27 170.288 156.26 150.217 126.996 179.532 173.813 80.7846 76.7576 74.1908 249.292 24.2698 28.1057 235.583 -80.6823 69.3811 257.143 -94.1702 64.9652 277.664 30.0241 70.2534 290.774 20.7314 34.0236 293.678 4.18167 13.042 118.224 19.5402 
143.531 174.27 170.489 155.7 150.002 126.836 179.501 173.893 80.6975 77.1295 75.4836 250.516 24.2897 28.9386 237.122 -81.0694 70.2054 258.743 -94.9624 65.7822 278.023 29.7588 71.169 291.195 20.8698 35.0122 294.659 4.11991 12.901 118.377 19.4154 
143.353 174.775 170.466 156.031 149.883 126.722 179.341 173.811 80.515 77.2616 76.4645 251.331 24.3666 29.5381 238.439 -81.1402 70.9723 260.334 -95.3678 66.6852 278.666 29.7012 72.1614 291.789 21.011 35.9581 295.509 4.27959 12.8923 118.566 19.5482 
143.289 178.654 170.468 156.487 149.761 126.706 176.312 173.418 80.3282 77.3795 77.5498 252.713 24.8155 31.255 238.427 -80.2062 71.9909 261.229 -94.8901 67.8179 280.177 29.8555 73.1579 293.123 21.2354 36.843 296.784 4.58963 13.049 118.147 19.3301 
143.075 179.142 170.411 156.738 149.599 126.715 175.513 173.348 80.3539 77.533 78.2384 253.374 25.3699 31.8361 238.541 -79.5016 72.8052 261.513 -94.5231 68.8428 280.959 30.0411 74.1299 293.79 21.3687 37.699 297.571 4.8087 13.1424 117.926 19.5899 
142.887 179.797 170.367 156.594 149.255 126.672 175.033 174.424 80.1532 77.4757 79.1945 254.396 25.4437 33.0218 239.168 -79.0806 73.4924 261.949 -94.5315 70.0773 282.27 29.9678 75.1379 294.977 21.2506 38.5431 298.45 5.00496 13.3366 117.649 19.27 
143.478 179.452 171.096 156.15 148.724 126.268 174.383 174.643 80.1413 77.6459 80.1276 255.41 25.1813 33.9067 239.94 -79.1093 74.3525 262.556 -94.4234 70.9738 282.507 29.8466 76.0226 295.124 21.2605 39.3318 299.048 5.0879 13.4557 117.171 19.1533 
144.052 178.821 171.794 156.101 148.332 125.908 174.157 175.25 80.0866 77.7195 80.8552 256.482 24.91 35.1406 240.988 -79.2286 75.4565 263.48 -94.2098 71.7722 282.852 29.9409 76.9639 295.327 21.4386 40.1861 299.799 5.22635 13.612 116.916 18.9063 
144.301 177.526 171.957 155.839 148.119 126.085 173.582 176.331 79.8931 77.789 81.8002 257.784 25.1243 36.2227 241.466 -78.8458 76.3353 263.832 -94.0632 72.5879 284.127 30.1277 77.8206 296.452 21.6896 41.1424 300.943 5.36514 13.6947 116.962 18.7316 
144.593 175.706 171.871 154.715 148.007 126.284 173.445 177.262 79.641 77.9203 82.6446 258.828 25.3686 36.7239 241.392 -78.5018 77.3351 263.243 -94.089 73.3219 285.223 30.2838 78.5173 297.35 21.994 42.1232 301.747 5.44364 13.7745 117.074 18.9424 
144.191 174.721 172.006 154.423 147.968 126.332 172.949 177.068 79.0793 77.7839 83.257 259.704 24.8096 37.9921 241.526 -78.4411 78.1851 263.225 -94.1609 74.074 286.437 29.9691 79.2893 298.34 21.7958 43.0005 302.398 5.36964 13.8926 117.108 18.6409 
143.577 173.661 171.93 155.063 148.159 126.059 172.554 176.521 78.9844 77.5955 84.1655 260.362 24.5553 39.1367 242.447 -78.7357 79.1392 264.295 -94.4603 74.8082 287.504 30.1046 80.2429 299.115 21.6341 43.7924 302.89 5.44065 14.1984 117.537 18.5318 
143.842 173.201 171.638 155.49 148.13 125.674 172.63 176.109 78.6434 77.3664 85.8716 262.09 24.8135 41.2386 244.191 -78.636 80.3414 265.57 -94.2131 76.2841 289.357 30.5805 82.1305 300.61 21.9752 45.5423 304.539 5.85969 14.4773 117.874 17.7125 
144.37 173.111 171.248 155.646 148.226 125.898 172.692 176.41 78.8463 77.3434 85.9777 262.678 25.3459 41.4936 244.321 -78.0748 80.539 265.053 -93.7923 76.5235 290.06 31.1669 82.6866 301.177 22.307 46.222 305.609 5.92876 14.4997 118.131 17.3977 
144.403 172.83 170.899 156.026 148.541 126.128 172.838 176.652 79.1799 77.4089 86.3449 263.282 26.0153 41.8894 244.378 -77.3577 81.3491 264.883 -93.2044 77.2016 291.263 31.9867 83.5882 302.28 22.7555 47.1849 306.678 6.18079 14.4975 118.541 17.6276 
143.761 172.501 170.007 155.249 149.144 126.413 174.33 176.38 79.5963 77.4484 86.6199 263.329 26.4088 42.5779 244.771 -76.8432 82.0172 264.757 -92.3326 77.7894 292.361 32.769 84.7182 303.386 23.119 48.0913 307.368 6.49946 14.3135 118.974 17.5746 
142.854 172.196 169.143 154.472 149.901 126.678 175.321 176.178 80.1645 77.5925 87.4046 263.503 27.1862 43.9731 245.654 -76.5379 82.9374 265.787 -91.6492 78.8751 293.6 33.5119 86.1547 304.839 23.5077 49.079 308.193 6.91708 14.0873 119.27 17.4084 
142.737 171.807 168.965 153.802 150.083 127.045 175.802 175.202 80.732 77.7866 87.9156 263.198 27.8444 44.9756 246.214 -76.2319 84.2581 266.661 -90.8473 79.7939 293.659 34.2636 87.4133 305.016 24.0613 50.0149 308.556 7.31847 13.9928 119.29 17.6953 
142.845 171.702 169.449 153.879 150.358 127.03 175.422 175.31 81.0431 77.7147 88.961 263.302 28.4297 45.9455 246.617 -76.1581 85.5977 267.794 -90.52 80.711 293.881 35.0214 88.4226 305.261 24.6419 50.9293 308.761 7.82685 14.1423 119.559 18.1057 
142.612 171.821 170.144 153.757 150.358 127.128 175.297 175.402 81.1085 77.6122 88.9296 263.288 29.2709 46.4098 247.388 -76.1235 86.0583 268.046 -90.5747 81.3256 294.196 35.673 88.965 305.675 25.3643 51.8068 309.477 8.3112 14.0292 119.862 17.8345 
142.048 171.488 170.41 154.756 150.684 127.464 174.612 175.138 80.5777 76.9595 90.566 264.179 30.0045 48.0323 247.649 -75.7302 87.3543 269.234 -90.0475 82.5214 296.164 35.7645 90.0427 307.587 25.0873 52.7449 310.245 8.71931 14.3836 120.078 18.0374 
141.135 170.985 169.779 155.189 151.059 127.774 174.408 174.761 80.1243 76.5596 91.6443 264.297 30.3985 49.8731 247.729 -75.4608 88.6052 270.257 -89.8013 83.4747 297.618 35.8856 91.3928 309.041 24.968 53.7841 310.628 9.00619 14.4791 120.721 18.0403 
140.428 170.73 168.943 155.471 151.217 128.274 174.375 174.482 79.8131 76.3067 92.6325 264.302 30.7753 51.7118 247.856 -75.3476 89.4072 270.97 -89.5564 84.5928 299.089 36.0498 92.7913 310.487 24.925 54.7706 311.041 9.31437 14.6283 121.206 17.6659 
139.86 170.531 168.058 155.709 151.948 128.887 174.283 174.152 79.7756 75.8869 93.2718 264.044 30.932 53.6008 248.641 -75.3514 90.3907 272.256 -89.3255 85.7579 300.339 36.5216 94.1976 311.894 25.0555 55.8816 311.608 9.75938 14.7847 121.77 17.287 
139.969 170.473 168.452 156.099 152.36 128.909 174.047 174.097 79.8509 75.7833 94.1574 264.672 31.3894 54.8068 249.564 -75.4556 91.5859 272.908 -89.1432 86.5976 301.009 36.8428 95.0434 312.464 25.2987 57.0261 312.384 9.92708 14.8845 121.965 17.1326 
140.584 170.371 168.715 157.026 152.361 128.524 173.894 174.108 79.4365 75.4132 95.9849 266.307 30.5384 56.6149 250.743 -75.808 93.1073 274.037 -89.0977 87.6042 301.777 36.4817 95.8097 313.219 24.993 58.2163 312.93 9.86363 15.017 121.847 16.9763 
