151.735 166.874 179.999 148.446 160.529 137.423 155.622 179.951 89.3461 95.4015 61.1473 332.473 68.4277 60.7644 347.17 -27.1182 99.596 300.429 -12.8797 59.4063 330.767 84.8957 73.8446 328.057 90.9287 91.4957 372.551 69.7207 8.5246 92.649 29.3202 
152.026 164.849 180 147.981 161.258 137.93 154.907 179.962 89.9156 95.4261 61.5992 336.059 67.0411 61.9758 348.534 -26.0946 99.1892 303.087 -12.3507 59.4536 331.734 84.8562 74.166 329.298 90.4567 91.7909 374.209 70.4871 8.95369 91.641 27.9712 
154.327 164.322 180 147.76 161.469 138.579 154.815 179.963 90.2391 94.9358 61.7972 337.711 65.6689 62.6581 348.125 -25.7436 96.8027 302.937 -11.4891 59.4925 332.19 85.4396 74.472 330.065 90.883 91.8935 374.634 70.7569 9.01349 90.3127 26.7462 
158.76 163.914 180 147.513 161.816 139.27 153.854 179.962 90.8307 95.0209 61.7218 339.525 64.0266 63.2671 349.055 -25.5209 94.4306 302.875 -10.3748 59.1565 332.85 85.8856 74.3105 330.717 91.045 91.9993 375.135 71.1395 9.18619 88.7783 26.5993 
168.783 164.526 180 147.027 161.124 141.17 153.89 179.963 91.1519 94.6835 61.0427 341.316 62.1128 63.4072 349.403 -24.8968 92.4522 302.202 -8.96194 59.2689 333.694 86.6934 74.8423 331.676 91.5489 92.0562 375.827 71.6785 9.27072 87.3527 26.7836 
178.977 165.411 180 147.369 162.193 143.285 154.621 179.949 91.1117 93.5442 60.1124 343.201 60.6465 63.0485 349.069 -24.1331 90.7865 300.711 -7.11263 59.7326 334.63 87.7928 75.7936 333.008 92.0537 92.0598 376.541 72.161 9.61981 86.2382 27.3632 
167.479 165.733 180 146.879 162.055 145.251 154.441 179.951 91.016 93.6252 59.0102 345.329 59.2854 62.7808 349.807 -23.6707 88.7914 299.777 -5.81175 59.592 335.7 88.2536 75.6061 333.839 92.1035 92.0249 377.217 72.6138 10.0121 84.8829 28.0782 
159.223 165.176 180 147.01 161.829 146.462 154.053 179.951 90.3976 92.6741 58.3344 347.705 58.6374 62.4768 351.884 -23.6562 87.6876 300.108 -5.08419 59.3403 336.222 87.8108 75.3409 334.442 91.5035 91.6857 378.191 73.4156 10.4163 83.1913 29.0775 
160.143 165.489 180 145.765 158.943 140.813 157.461 179.954 89.6676 91.4423 61.7589 343.815 63.7296 61.6425 351.381 -23.5498 85.7705 297.618 -3.61117 59.3955 337.119 88.8415 75.9514 334.901 92.3909 91.2317 378.034 73.7559 10.1226 82.7228 30.1806 
151.938 167.516 180 146.995 156.876 138.184 158.669 179.951 88.4369 90.5224 62.5599 341.66 66.9677 61.1338 351.456 -23.845 84.4364 296.227 -2.05291 59.1742 339.145 90.1635 76.2582 335.277 93.4303 90.6073 377.939 74.1789 9.80489 83.8214 31.4672 
145.628 167.178 180 147.771 155.454 138.33 157.561 179.948 88.4743 89.1436 61.9316 342.22 69.021 60.2649 352.396 -22.651 84.0743 297.581 -1.07704 58.9488 340.504 91.0702 76.8031 336.712 93.8956 90.2019 378.954 74.9276 9.87768 84.1827 31.4671 
148.4 170.071 180 149.392 154.015 138.358 162.055 179.96 88.2795 87.8002 60.5911 337.002 76.1792 59.2834 352.159 -22.5034 88.9162 300.913 -3.7409 60.4634 341.54 95.307 79.1207 337.885 96.95 89.4324 379.411 76.1483 10.1872 91.1118 30.0672 
146.053 169.463 180 150.113 152.827 139.269 164.894 179.974 89.1161 87.9271 61.3131 336.382 79.2653 58.9459 350.477 -21.4691 93.6252 308.011 -7.91443 61.2796 342.989 98.7359 80.6674 339.655 99.7368 89.1027 380.349 77.5526 10.0715 98.6141 25.341 
144.625 169.217 180 150.396 152.129 139.269 165.784 179.978 89.4437 88.0846 61.8087 335.382 82.3131 58.3665 348.03 -19.768 96.3786 310.906 -9.85358 61.1052 343.298 100.866 80.7957 340.435 102.255 88.425 380.537 78.7675 9.22382 102.73 22.7426 
144.299 168.846 180 150.864 151.353 140.313 166.546 179.989 89.9313 88.8332 61.4686 334.29 85.5029 57.3304 343.681 -17.336 95.1532 310.466 -10.2552 60.5645 343.958 103.506 80.0926 341.494 105.373 87.7594 380.504 79.9813 8.50349 104.216 19.8049 
144.611 166.971 180 151.152 153.025 141.321 168.057 179.989 89.9741 89.6393 62.0744 331.444 88.4926 56.5917 337.714 -14.2256 93.4938 308.271 -9.88604 61.615 344.553 106.762 80.3043 342.115 107.508 86.9486 379.568 80.4877 9.37208 106.603 16.9781 
145.786 166.349 180 151.027 153.837 142.16 170.401 179.991 90.8379 90.5216 61.7764 330.597 89.8074 57.0775 334.238 -12.4702 91.8261 306.821 -9.14769 60.659 344.979 108.718 79.5454 342.495 109.832 86.1523 379.038 80.968 8.55647 107.777 14.6717 
147.181 166.67 179.97 151.809 156.457 142.398 171.401 179.173 91.3807 91.3585 61.001 331.428 90.415 56.9175 333.708 -11.6189 90.7822 307.127 -8.45613 59.0713 346.538 109.838 77.9488 343.899 111.612 85.4278 379.68 81.6028 7.83979 108.592 13.7122 
147.582 168.627 179.817 152.018 158.062 142.621 172.409 177.049 91.2724 92.094 61.1998 330.446 92.1667 54.8495 332.268 -10.6892 90.4327 307.015 -8.80941 58.9389 346.183 110.967 77.8337 343.487 113.188 84.6798 379.571 82.3178 7.23499 109.305 13.7963 
148.103 170.047 178.203 152.156 158.287 142.358 172.913 175.054 90.742 93.1681 61.3314 330.271 92.9714 53.9997 331.577 -10.2485 89.7144 306.945 -8.12781 58.8064 346.158 111.602 77.1457 343.004 114.284 84.0722 379.704 82.9635 7.10614 109.296 13.6219 
148.508 170.148 177.612 152.225 157.199 141.99 171.847 175.054 90.2711 93.6423 60.9745 329.41 93.764 52.3839 330.622 -9.75496 87.7184 307.033 -7.41474 58.4374 345.26 112.14 76.0619 341.579 114.903 83.2888 379.107 83.5978 7.49593 108.628 13.2068 
148.531 171.327 175.82 152.156 154.518 141.49 173.401 174.119 90.1832 92.2739 62.5591 327.193 95.7389 52.2688 327.1 -8.88514 86.9261 306.551 -7.38185 59.9097 345.104 113.62 78.6991 340.653 114.973 82.8419 378.62 84.3012 8.23126 109.296 11.6478 
149.873 171.922 173.176 153.427 155.384 143.395 174.151 171.967 89.0559 90.1656 62.8793 326.315 97.3109 52.3584 324.532 -7.17204 84.2982 305.986 -4.86431 62.1018 344.865 115.146 81.9033 341.601 115.519 82.0815 379 85.0916 7.72125 108.532 9.6993 
150.269 171.734 171.996 154.058 152.441 143.261 173.644 173.193 88.8012 89.8044 63.0315 324.542 98.827 52.4268 321.689 -5.77806 82.1369 306.384 -4.84676 63.4813 345.3 116.958 82.9514 340.935 115.598 81.5707 378.563 85.757 9.73 109.686 7.32746 
151.899 172.278 171.749 154.372 153.525 144.877 173.529 172.809 87.7238 88.4573 62.2016 324.268 99.5221 52.6563 320.82 -4.7688 80.6379 306.979 -3.65202 64.2204 345.472 117.748 84.2324 341.002 116.24 81.1721 378.834 86.5152 9.42815 109.85 5.99554 
153.292 172.139 171.735 155.211 153.659 144.832 172.657 172.587 86.5563 86.6873 59.6623 324.993 99.0204 51.8503 322.802 -4.80245 79.5206 307.371 -3.42902 63.183 344.203 118.079 81.4711 339.437 115.99 80.6707 378.333 87.2978 10.7237 109.718 6.22529 
153.272 169.925 168.35 156.359 145.238 143.374 171.003 172.347 84.0386 84.6596 58.6402 326.12 96.5543 51.4583 327.586 -5.67178 78.0769 310.358 -2.71617 60.3797 342.493 114.666 77.8478 337.551 112.666 79.9108 377.862 87.4752 11.554 107.366 6.57952 
152.968 166.312 166.304 156.436 139.772 141.983 167.178 173.904 82.9918 84.6278 58.0597 325.526 95.5531 49.4556 331.852 -5.94416 77.6757 311.824 -3.53952 58.1436 339.446 111.771 74.5384 334.599 109.851 79.2261 376.716 87.4869 12.521 104.939 8.39228 
152.724 163.823 166.447 155.842 137.59 141.129 165.108 175.444 81.7844 84.7564 58.3975 323.31 95.9748 47.4536 334.78 -6.46548 77.3326 311.914 -4.1167 57.6937 336.227 109.851 73.1542 331.958 108.055 78.4806 375.131 87.6829 13.1477 103.128 10.4789 
152.626 163.769 170.471 154.986 135.386 140.938 164.872 176.793 80.9927 84.4752 58.642 321.018 96.521 45.443 336.224 -6.75701 76.7261 310.99 -4.29588 57.8225 332.831 108.58 72.8444 329.617 107.083 77.7752 373.437 87.9587 13.2602 101.297 12.3519 
152.268 164.179 174.571 152.76 131.307 141 164.759 178.17 80.7726 83.2159 59.2824 318.646 98.0556 44.0031 333.771 -5.0873 75.8849 308.458 -3.48089 59.7208 329.748 109.148 74.6517 328.415 107.021 77.0636 371.803 88.34 13.8534 100.317 12.6589 
152.008 165.129 178.248 151.7 130.209 141 164.445 179.409 81.2632 82.6505 59.5698 316.627 99.0478 42.9346 330.874 -4.06005 74.7245 305.939 -2.45841 60.9862 327.55 110.518 75.6195 326.966 107.192 76.4807 370.034 88.5633 14.9391 100.388 12.5981 
152.1 166.555 180 151.172 132.933 141.112 164.208 179.981 82.4203 82.8625 59.5997 314.21 100.294 42.2948 327.782 -3.58532 73.79 303.589 -1.7783 61.525 325.375 112.016 75.845 324.984 107.918 75.9383 368.136 88.9738 15.5557 100.477 12.2504 
152.44 168.01 172.534 150.496 135.872 141.69 164.697 177.486 84.1506 83.4227 58.9627 311.413 100.951 41.5689 325.209 -3.59431 72.9898 300.684 -0.562945 61.0389 322.459 112.981 75.354 322.584 108.6 75.3903 366.093 89.4193 15.5406 99.2799 12.6289 
152.68 169.289 166.494 149.197 138.251 141.914 164.98 174.501 85.88 83.4834 57.7071 309.831 100.837 40.4349 323.592 -3.35581 72.5801 298.458 0.223845 58.4869 319.857 113.588 73.7267 320.043 109.561 74.9718 364.066 90.1414 14.7197 98.4351 13.1908 
152.366 170.278 168.483 148.423 141.319 141.532 165.752 172.624 86.7162 82.2482 56.8541 307.916 100.945 39.7915 322.08 -3.52363 72.3663 296.278 -0.0636454 56.4393 317.147 113.694 72.715 317.417 109.658 74.1895 361.602 90.5621 14.2344 98.5095 13.5803 
152.001 171.632 169.597 147.581 142.08 141.599 166.545 170.626 87.6442 81.9162 56.7962 303.759 101.98 39.1098 317.129 -2.89281 73.3926 292.113 -0.263229 56.3827 313.622 114.044 73.9728 313.983 109.726 73.313 358.476 90.5569 13.4501 98.6468 13.9073 
151.72 172.84 170.509 147.786 143.368 141.701 167.671 169.764 88.133 81.2424 57.5117 298.792 102.717 39.0803 311.749 -2.35789 74.72 288.299 -0.91232 57.5129 309.62 114.348 75.5144 310.777 108.975 71.9449 355.006 90.3558 13.7897 99.2698 13.8156 
151.614 173.743 171.354 146.432 141.839 141.531 168.267 169.556 88.6539 80.8239 57.9543 294.263 103.417 38.2042 306.403 -1.86305 75.3649 284.781 -1.96976 57.8696 306.122 114.319 76.721 307.745 108.486 70.6695 351.603 89.9597 13.3708 99.9758 13.7428 
151.805 174.008 171.72 145.508 138.914 142.117 168.609 169.095 89.6075 81.4659 58.1266 289.744 103.774 36.9851 300.138 -0.716823 74.7028 280.641 -2.34898 58.1052 302.624 114.349 77.7733 304.789 107.94 69.5009 348.22 89.4229 12.982 99.9577 13.2089 
152.222 173.712 172.286 144.158 138.487 142.706 168.97 169.152 90.5372 83.0524 57.0232 286.008 104.204 35.3336 294.886 -0.123318 73.4073 276.343 -2.47528 56.9155 299.672 114.567 76.7764 302.09 108.676 68.402 345.034 88.9153 12.0486 100.04 13.0507 
152.527 173.749 172.539 142.892 139.372 143.331 169.078 169.193 90.7621 84.8047 55.3856 282.053 104.031 33.2993 290.085 0.103644 72.311 271.985 -2.71987 55.4534 295.974 113.717 74.7621 298.913 109.134 67.1268 341.429 88.2583 10.9894 99.4569 13.4684 
152.212 174.168 172.512 140.675 140.788 143.351 169.319 169.179 90.0682 85.9005 54.2647 276.819 102.943 31.2976 285.344 -1.15092 71.465 267.393 -4.25154 54.3885 290.969 110.97 73.0079 294.769 108.409 65.6128 336.668 86.8093 9.61717 98.4113 14.17 
152.213 174.41 173.066 140.639 141.876 143.474 170.337 169.95 90.5204 87.6019 49.4387 269.554 99.3638 28.3507 278.592 -5.87864 69.6048 259.191 -7.61873 49.044 283.215 107.468 67.1886 286.929 106.893 62.6272 328.792 83.5869 8.83936 98.346 15.2338 
152.922 174.126 173.026 141.511 141.267 143.632 171.283 170.532 90.2419 88.0207 46.6232 266.976 96.7973 27.3166 277.608 -10.1107 69.0532 256.306 -9.75152 46.0148 279.685 105.083 63.5917 283.213 105.563 61.1541 325.419 81.7075 8.93758 98.3534 16.2218 
153.545 173.489 172.71 141.099 141.188 143.631 171.685 170.073 87.6686 87.9164 45.3091 264.986 94.5742 25.8091 277.178 -13.3787 68.0704 254.574 -11.4635 44.6742 277.14 101.7 61.2063 280.349 103.535 59.4899 323.036 80.0589 9.07447 97.4281 17.1284 
154.203 173.225 172.496 138.874 140.126 144.022 172.031 169.541 86.6643 88.061 45.6135 262.688 93.6445 24.3371 274.722 -14.9625 66.9573 252.074 -12.382 45.1974 274.656 99.6005 61.0333 278.448 101.978 58.2555 321.047 78.4414 9.23408 96.3386 17.4913 
154.678 173.158 172.554 139.611 140.149 144.583 171.918 170.284 86.6775 87.5185 44.3193 260.688 92.2048 23.6863 270.834 -16.374 65.6114 248.619 -13.4253 43.8469 273.814 99.5838 59.9112 277.074 101.27 57.4307 318.793 76.5584 9.34323 97.9791 16.9392 
154.876 172.981 172.533 140.442 139.786 144.582 171.665 171.233 86.8825 86.6202 42.2482 259.049 89.969 23.2894 268.062 -18.711 64.8307 245.804 -15.2439 41.8363 272.707 98.6349 58.0926 275.525 99.6483 56.5677 316.628 74.4167 9.76264 99.3596 16.6797 
155.269 172.787 172.183 139.449 140.964 145.086 171.621 170.961 86.5279 85.6659 40.998 256.464 87.7402 22.5077 265.336 -21.2958 64.2125 243.289 -17.3094 41.6514 270.177 96.5493 57.1526 273.91 97.5425 55.5142 314.292 72.3282 10.6214 99.114 16.7139 
155.286 172.728 171.05 140.469 143.925 145.136 171.719 170.422 86.8505 84.2336 39.6513 253.638 85.4313 21.7898 261.735 -23.7275 63.1412 240.139 -19.256 41.076 267.928 95.2991 56.4108 272.477 95.7648 54.3799 311.556 70.0981 11.2375 99.7666 16.3868 
155.667 172.626 170.56 141.834 142.724 145.49 171.459 169.922 87.2836 83.4728 38.5439 250.346 84.2406 20.7397 257.623 -25.134 61.8762 236.089 -20.2299 40.3035 265.983 94.9814 56.2265 270.173 94.3954 53.2712 308.514 68.1555 11.0766 100.926 16.3336 
155.794 172.612 169.015 142.335 141.285 145.278 171.206 169.022 87.6871 83.1489 37.4121 246.701 82.2754 19.7901 254.751 -27.5471 61.3693 232.929 -22.076 39.6517 263.005 93.6215 55.9863 266.989 92.5488 52.1804 305.242 66.3348 10.8248 101.339 16.7577 
155.965 172.816 167.224 142.669 140.376 144.908 171.062 168.09 88.0636 83.4726 37.2791 243.764 80.9229 18.7762 252.508 -29.7064 61.4113 230.325 -23.4183 39.4199 260.726 92.6425 55.8374 264.477 91.1693 51.181 302.671 64.8129 10.7485 101.693 17.601 
156.243 172.915 166.13 143.497 140.363 144.68 170.848 167.704 88.1974 83.3769 36.5592 240.704 78.7867 18.0579 249.742 -31.7949 61.1698 228.167 -25.0834 38.9241 258.306 91.2873 55.5934 261.821 89.4894 50.0659 300.009 63.32 10.5862 101.927 17.7469 
156.255 172.977 165.524 144.954 141.394 144.071 170.76 167.472 87.9667 83.3121 35.0381 238.972 76.4163 17.6717 248.369 -33.9548 60.6699 226.829 -26.6506 37.8937 256.473 89.8269 54.6993 259.573 88.0347 49.0265 297.973 62.0488 10.4737 102.105 17.7565 
156.646 173.248 165.399 145.734 141.379 144.034 170.755 167.438 88.2407 83.8426 34.3132 236.602 74.5094 17.186 246.157 -35.3129 60.3257 224.93 -27.4972 36.9697 254.521 89.0995 53.8417 257.11 86.9878 47.9355 295.774 61.0241 10.652 102.294 17.8474 
157.506 173.658 165.878 146.273 140.564 144.407 171.14 167.413 88.3758 84.5741 34.9305 233.94 73.7532 16.6159 242.866 -35.7862 60.5314 222.612 -27.7506 37.5706 253.1 89.1199 54.2852 255.412 86.1861 46.8864 293.879 60.1919 11.2185 102.655 18.0916 
158.531 174.32 166.712 146.331 139.523 144.888 172.113 167.644 88.6457 85.2037 36.3744 231.757 73.9291 16.138 239.475 -35.4343 60.6831 220.83 -27.6276 38.769 252.646 89.8291 55.4107 254.853 85.7765 45.8218 292.657 59.6672 11.8626 103.387 18.0759 
158.792 174.734 168.912 147.857 137.111 144.939 172.998 169.187 87.7752 85.1377 35.4856 229.497 72.4436 14.8923 236.719 -36.7132 59.812 219.465 -29.84 38.3784 252.775 89.0567 55.0708 253.815 83.5669 43.6191 290.975 57.9196 13.3064 105.586 17.833 
158.599 174.747 171.117 147.739 137.512 145.198 173.369 170.696 87.2251 85.4556 35.9193 229.073 72.6813 14.7636 235.237 -36.1954 60.4888 219.422 -31.1618 38.9698 254.221 89.2287 55.4375 254.862 83.462 43.124 290.785 57.2545 13.683 107.938 17.687 
159.427 174.686 173.046 146.832 136.28 146.261 173.835 172.214 87.7831 86.6663 36.8945 228.958 73.8688 14.1788 233.501 -34.8182 60.7748 219.318 -31.8491 40.1647 255.859 90.2509 56.2744 256.712 83.9219 42.5425 291.32 56.8113 13.9981 109.691 17.6341 
159.596 174.578 173.965 146.181 135.891 146.349 174.446 172.81 87.878 87.352 37.7622 228.963 74.2925 14.1409 233.124 -34.4194 60.9582 219.612 -32.8456 40.9276 257.229 90.362 56.8288 258.086 83.699 42.1987 291.703 56.3231 14.11 110.999 17.4871 
159.201 174.398 174.425 145.886 134.634 146.396 175.035 173.284 88.1002 88.0112 37.854 228.833 74.5718 14.3229 233.083 -34.579 60.9224 219.595 -33.8665 41.1435 258.148 90.2869 57.1867 258.734 83.3423 42.1007 291.976 55.7522 14.2389 111.922 17.2354 
159.088 174.02 174.672 145.202 133.205 146.544 175.49 173.587 88.3204 88.7537 38.3476 228.858 75.0382 14.542 232.615 -34.1445 60.7944 219.173 -34.0934 41.6828 258.891 90.4987 57.708 259.297 83.2677 42.1189 292.215 55.5018 14.4201 112.397 16.9523 
158.875 173.436 174.681 144.183 132.404 146.32 175.799 173.732 88.6522 89.7513 40.2899 228.957 75.3512 15.2568 231.693 -33.6503 61.3049 219.128 -34.4929 43.2464 259.543 90.5135 59.0665 260.028 82.8931 42.35 292.527 55.1887 14.6682 112.557 16.6417 
158.48 172.715 174.655 143.255 131.851 145.912 175.809 173.861 89.1474 90.5348 41.8241 228.803 75.3332 16.161 230.822 -33.5578 62.0174 219.092 -34.9602 44.337 259.183 90.1488 60.0577 259.97 82.3604 42.6982 292.476 54.7819 14.7053 112.181 16.3908 
157.972 171.99 174.664 142.772 131.694 145.439 175.352 173.953 89.726 90.3902 42.8188 228.674 74.9561 17.1432 229.944 -33.3192 62.5126 219.209 -35.2665 45.1744 258.498 89.7296 60.9327 259.578 81.3957 43.0903 292.39 54.415 15.0325 111.55 15.9338 
157.219 171.655 174.444 143.497 129.347 144.505 174.836 173.715 89.5478 89.6748 43.7077 228.629 74.0652 17.9421 229.747 -33.5923 62.7825 219.421 -35.446 45.8789 257.951 88.8503 61.3911 258.685 79.3065 43.3901 292.125 53.8948 16.5539 110.954 15.6566 
156.585 171.643 174.015 144.611 127.616 143.812 174.421 173.453 90.0413 89.534 44.3352 228.476 73.6138 18.7661 228.78 -33.6496 62.9624 218.795 -34.9427 46.9093 257.603 88.7063 61.7428 258.025 77.742 43.6962 291.85 53.399 18.1848 110.281 15.3834 
156.225 171.612 173.046 145.542 127.485 143.616 174.171 173.431 90.342 89.5395 44.3844 228.467 73.48 19.2122 228.194 -33.4853 63.4017 218.295 -33.5877 47.8329 257.574 88.9794 61.9831 257.606 77.0487 44.1232 291.697 53.2152 19.53 109.815 15.6808 
156.034 171.357 171.786 146.048 127.889 143.549 174.063 173.728 90.5373 89.9767 44.2799 228.125 73.3935 19.7706 227.564 -33.1692 63.7334 217.605 -32.8759 48.6989 257.864 89.3617 62.1881 257.076 76.6123 44.679 291.361 53.021 20.9374 110.069 15.7188 
156.124 170.937 171.235 146.682 129.418 143.662 174.113 173.878 90.438 90.3729 44.062 227.695 73.4325 19.9457 227.747 -33.3214 64.856 217.117 -31.7974 48.9981 257.453 89.6616 62.0773 255.968 76.646 45.2588 290.866 53.1556 21.9373 109.973 16.6642 
155.526 170.551 171.237 147.714 129.82 143.529 173.788 174.211 89.9141 90.4125 42.0793 227.838 73.0443 19.7083 229.125 -34.1899 65.0347 216.816 -30.7891 47.5862 256.401 89.5297 60.6198 254.104 76.637 45.8488 290.407 53.3433 22.7617 109.665 17.4441 
154.923 170.367 169.379 147.183 129.246 143.298 173.492 175.312 89.3667 91.0527 41.0304 227.753 72.9177 19.7822 230.119 -34.6796 65.5936 217.122 -30.5998 46.8656 255.086 89.206 60.1451 252.293 76.9538 46.5935 289.784 53.6911 22.8228 109.668 17.9531 
153.827 170.801 169.108 146.606 129.369 141.727 172.714 174.315 88.686 91.0675 40.3345 227.821 73.2191 19.9479 230.444 -34.998 65.7374 216.923 -30.8085 46.1349 254.155 88.6817 59.6623 250.664 77.0787 47.5129 289.064 53.8239 22.9301 109.806 17.9867 
153.966 171.491 170.053 145.776 131.156 141.123 172.809 173.857 88.8436 91.4628 41.6465 227.193 74.0816 20.2308 228.68 -33.9249 66.1688 215.476 -30.2022 47.5551 253.747 89.3952 60.4426 250.453 78.1768 48.5423 288.223 54.1433 22.6267 109.935 18.0016 
152.075 171.773 170.055 145.551 132.601 139.781 172.714 172.728 88.4439 92.0413 43.1935 226.552 74.8691 21.3616 227.798 -33.172 67.4941 214.602 -29.4489 49.0586 253.183 89.7302 61.3955 249.859 78.9335 49.482 287.184 54.6226 22.5072 110.064 18.2343 
154.96 171.675 169.431 146.059 133.929 138.314 172.318 171.378 87.7671 92.6724 43.8326 226.18 75.0034 22.8004 229.427 -33.531 68.5697 215.245 -29.2022 49.2973 252.46 89.3486 61.289 248.622 78.9186 50.3786 286.649 55.11 22.8264 109.927 18.4015 
157.651 171.419 169.153 146.381 134.841 136.923 172.042 170.267 86.8362 93.2563 43.8469 225.808 74.3639 24.397 231.679 -34.3168 69.5224 216.037 -29.4618 49.3799 251.871 88.4814 60.9124 247.261 78.2846 51.3184 286.115 55.296 23.4351 109.948 18.4978 
159.329 171.185 169.018 146.565 136.054 136.364 172.096 169.828 86.225 94.0982 43.788 225.739 73.8076 25.6883 232.926 -35.0287 70.4539 216.459 -29.8356 49.6653 251.822 87.8961 60.6751 246.471 78.028 52.5719 285.845 55.1417 23.956 110.241 18.5613 
158.506 171.031 169.389 146.649 137.006 136.547 172.846 169.299 86.7428 94.9119 45.266 225.407 73.7306 27.2837 232.374 -35.0254 71.8818 215.988 -29.5452 50.9655 251.651 88.1689 61.9514 246.133 78.1274 53.8599 285.458 54.9779 24.1318 110.372 18.5773 
157.554 169.884 168.85 147.925 138.269 136.169 173.512 168.464 86.4884 95.6894 46.1597 226.238 72.8052 29.2519 235.151 -35.9407 73.2902 218.078 -29.9153 51.5309 251.97 87.6766 62.3804 245.862 77.6072 55.1484 286.069 55.0888 24.6124 110.389 18.6002 
155.24 168.713 168.872 149.451 139.534 135.524 174.006 167.991 86.1387 96.0981 47.0933 226.682 71.8002 31.3962 237.238 -36.5827 74.6198 219.875 -30.5509 52.1738 252.025 87.0822 62.8152 245.425 76.8259 56.1238 286.176 55.1701 25.0351 110.748 18.2371 
152.647 167.92 168.642 150.393 141.541 135.568 174.639 167.887 86.0777 96.7609 47.4309 227.606 70.9614 32.7424 239.243 -37.4323 75.3573 221.484 -31.3242 52.3928 252.751 86.6896 62.7937 245.45 76.5198 57.3456 286.701 55.0314 25.2782 111.361 17.9887 
149.798 167.752 168.669 150.393 144.976 136.075 175.489 168.072 86.2758 97.2128 47.6496 229.213 69.9981 34.1328 241.644 -38.1211 76.2429 223.617 -31.7948 52.4081 254.048 86.6014 62.6803 246.353 76.6819 58.5999 287.9 55.1116 25.2318 111.828 17.7475 
147.505 170.036 168.944 151.065 148.779 136.789 176.342 168.2 86.9193 97.6376 47.9013 230.731 69.4727 35.4436 243.431 -38.3725 77.0378 224.973 -31.6784 52.5849 254.92 86.9923 62.8501 247.341 77.1736 59.555 289.186 55.482 24.9452 111.449 17.5473 
146.968 169.576 167.742 151.291 154.14 137.658 176.232 168.411 86.6876 97.9961 48.3891 231.754 68.9456 37.2571 244.9 -37.9785 78.5514 226.766 -31.1654 53.0745 255.984 87.2957 63.1832 248.149 77.6829 60.3332 290.158 56.1117 24.9085 111.846 17.2438 
147.733 169.958 166.463 151.223 159.713 139.008 176.376 169.696 87.0128 98.6604 48.9134 232.905 69.7303 38.3119 245.752 -36.9707 79.4795 228.159 -29.7282 53.5362 257.388 88.5255 63.7023 249.196 79.0002 61.0098 291.571 57.0163 24.9216 111.993 17.1004 
148.969 169.109 168.001 150.592 160.237 140.127 176.072 170.972 87.2852 97.8443 49.6844 234.182 71.3113 38.8277 245.973 -34.9207 80.843 229.096 -28.3052 54.2097 258.923 90.1963 65.2658 251.432 81.0386 61.5151 293.163 58.3581 24.0546 112.216 17.1848 
