149.628 170.534 177.566 135.749 141.299 143.013 174.811 176.641 86.6572 84.1124 40.0173 332.714 24.134 -63.7528 328.287 -8.25042 -38.5464 313.387 -56.8628 51.2961 353.089 24.1845 60.332 359.741 11.2119 27.5413 391.526 2.49334 8.82967 103.722 23.0184 
149.412 169.094 177.668 137.864 142.194 143.023 175.499 178.794 85.9621 84.5145 41.2933 332.576 22.6009 -64.1349 329.318 -8.87671 -38.4423 315.042 -57.9441 51.4851 353.232 23.1193 60.1536 359.927 10.3043 27.5157 391.637 2.63702 9.12621 104.381 23.4301 
149.558 170.013 177.357 141.205 143.583 143.244 173.759 178.776 85.6696 82.55 42.9128 333.528 21.271 -64.8104 331.829 -7.65201 -39.9733 317.922 -58.2093 53.2218 355.006 22.8436 61.1626 361.723 8.91022 28.5543 393.186 3.33785 9.18318 105.756 23.5701 
149.777 170.215 179.314 134.834 143.375 142.469 174.308 179.659 86.2026 83.729 42.768 334.118 22.9609 -65.166 333.072 -7.66372 -40.1625 317.644 -57.1737 53.5886 355.089 23.9606 61.5934 361.412 11.4399 28.9571 393.135 3.6335 9.82426 106.221 23.2654 
149.979 171.382 179.77 131.405 144.377 141.539 175.781 178.301 87.0397 85.3272 42.5973 334.913 26.0651 -64.9518 333.193 -7.68465 -37.4886 315.315 -56.3789 53.4023 354.91 26.6803 61.6875 360.701 15.0473 29.48 392.719 4.09599 10.2802 106.152 24.0598 
151.132 172.505 179.849 131.027 144.885 141.603 175.75 178.699 87.265 85.3419 41.784 336.579 29.3016 -65.2508 334.903 -7.62389 -37.3346 314.525 -53.5949 52.9389 356.322 30.2907 61.9372 361.006 18.4217 30.5776 393.297 4.82782 9.91304 106.257 23.1438 
151.767 173.599 179.669 132.809 144.344 141.793 175.015 177.429 86.7874 84.1389 41.0069 337.999 30.9165 -65.7045 337.043 -6.81077 -36.4645 314.417 -51.9329 52.9531 357.969 32.6077 62.1375 361.598 20.0572 31.5539 394.055 5.68916 9.77569 106.54 23.5646 
152.628 172.806 179.488 133.84 142 141.356 173.332 176.184 87.3255 83.5034 39.9459 340.499 33.2982 -64.7379 337.977 -6.46376 -34.9537 314.219 -49.5652 52.5108 359.936 36.09 62.4625 362.412 22.9234 32.5439 395.178 6.20946 9.25273 106.316 23.1474 
152.49 177.112 179.407 132.685 142.249 140.793 173.999 175.417 87.4974 84.5401 40.9644 340.55 32.0686 -63.3533 338.027 -6.62038 -34.4039 316.086 -49.8436 53.763 359.547 35.7483 63.7474 362.102 23.0632 33.5471 395.668 7.04147 9.01429 106.147 22.4061 
151.477 179.878 179.27 131.766 143.532 140.215 173.993 174.186 88.1254 85.8685 41.4849 340.597 32.588 -61.8056 336.963 -6.3599 -33.024 315.755 -49.3255 53.9871 359.013 36.6251 64.1479 361.551 24.4957 34.1624 395.573 7.71685 8.94178 105.373 22.0585 
151.29 179.806 179.255 133.132 144.709 139.622 173.297 174.823 87.9662 85.2166 42.3267 341.341 33.2354 -60.6342 336.401 -4.98014 -32.6831 316.085 -49.0391 55.1375 359.259 38.0356 65.3018 361.555 25.5851 35.5434 395.594 8.76186 8.94527 106.201 22.0142 
150.564 179.363 179.104 132.73 145.07 139.749 173.822 172.858 87.7393 86.7919 44.4637 339.66 33.5067 -58.1393 333.838 -4.10405 -30.6876 314.849 -47.2535 56.9902 358.328 37.4439 66.6116 360.595 25.6459 36.1825 394.696 9.50464 9.36889 105.534 21.2072 
150.137 178.599 179.152 134.121 145.173 139.17 176.392 173.03 86.2951 86.4324 45.9259 338.904 32.6601 -56.6365 332.881 -5.35451 -30.0328 315.112 -47.1347 58.4265 358.573 36.1472 67.5109 360.854 24.4074 36.46 394.624 10.4297 9.67143 105.991 19.6887 
149.099 178.659 179.176 133.932 146.271 139.016 176.422 172.568 85.991 87.1617 46.7741 338.65 33.8353 -54.6906 331.062 -4.06701 -28.727 313.87 -44.9498 59.3306 358.425 36.9768 68.5287 360.835 25.5578 37.1606 394.158 11.5853 9.57464 105.554 18.917 
148.244 178.328 179.078 134.615 146.037 139.138 175.802 171.743 85.1928 85.8855 44.9618 340.536 36.9535 -53.5861 331.789 -3.61083 -27.2188 312.815 -41.4732 58.8723 358.494 40.4587 68.4464 360.103 29.3782 38.8211 394.405 13.1568 9.83903 104.038 17.8943 
147.935 178.979 179.117 134.902 146.078 138.933 175.737 172.149 85.1558 86.4835 44.5926 340.129 39.3346 -53.071 332.838 -3.79026 -26.6502 312.503 -41.0468 58.6124 356.732 42.9025 68.6108 358.008 32.4636 40.0278 393.243 14.6044 9.78775 103.958 18.0144 
148.674 179.592 179.012 133.887 145.857 138.633 175.991 171.668 84.551 87.1049 46.3757 338.726 41.3285 -51.5674 330.417 -3.01733 -25.7929 310.185 -39.0627 59.7378 355.734 43.8543 69.869 357.202 34.071 40.7295 391.839 16.1786 9.76337 103.65 17.0542 
148.007 179.956 178.632 137.1 147.844 137.578 177.743 172.351 82.6358 85.6804 48.9545 336.837 40.1915 -50.9215 329.206 -3.2275 -26.012 309.931 -40.1987 62.1997 355.526 42.1987 71.633 357.119 32.0069 41.3059 390.66 17.1267 10.1353 105.91 16.6429 
148.725 179.704 178.036 137.733 147.372 137.126 178.454 172.517 82.9521 86.2754 49.734 335.295 41.737 -51.5587 328.302 -2.84898 -26.3384 308.96 -39.5543 62.6603 354.481 43.3779 72.0638 356.025 33.1384 41.5657 389.541 18.3629 10.0378 106.257 16.4862 
149.077 178.815 178.23 136.113 148.203 136.725 179.067 172.696 82.4658 86.731 50.0306 334.837 43.9177 -50.9056 326.819 -2.34242 -25.5593 306.284 -37.6446 62.3051 354.155 45.6542 72.0196 355.15 36.4079 42.0374 388.402 19.3696 10.1569 106.34 16.0588 
150.849 178.551 176.909 134.028 147.883 138.376 178.767 172.188 83.1305 86.4647 46.2177 334.802 47.7406 -50.8195 325.467 -1.9052 -23.4859 303.894 -35.2879 60.4807 354.244 49.9067 70.5011 354.73 41.1755 42.511 387.828 20.2682 10.4332 105.523 16.3009 
152.343 179.353 176.151 131.015 148.173 138.254 178.131 172.683 85.21 88.9418 45.4983 334.454 48.5255 -51.3314 325.612 -0.622211 -21.8905 303.685 -35.4933 57.9013 352.278 52.0587 69.4717 353.469 44.0396 42.5982 387.593 20.9727 9.14808 102.862 18.0376 
151.961 179.202 176.162 131.175 148.105 138.042 178.802 172.659 86.3103 89.3587 46.6986 334.286 49.3064 -49.9012 324.748 -0.969663 -20.8296 302.921 -35.2929 58.6693 351.621 52.7906 70.3926 353.208 44.3297 43.0227 387.294 21.5204 8.84782 102.547 17.5921 
151.641 177.878 176.369 132.825 148.103 137.594 179.595 172.941 86.8511 89.884 48.2632 333.476 49.9032 -48.3596 323.781 -1.47858 -19.824 301.429 -34.9495 59.7232 349.841 53.2887 71.4942 351.73 44.5501 43.4495 386.187 22.2144 8.61258 102.25 17.1077 
150.478 176.664 176.258 134.127 148.055 136.771 178.819 173.384 86.5904 89.4789 49.569 332.757 48.8048 -47.9368 324.298 -1.58636 -20.2909 301.821 -35.7769 60.7011 348.473 52.2334 72.1124 350.727 43.0657 43.3361 385.671 22.6975 8.71396 102.447 17.0479 
150.291 175.178 176.542 134.323 147.219 136.377 178.293 173.898 87.0993 89.8162 50.4016 331.957 49.0043 -47.9901 324.28 -1.14108 -21.1346 301.94 -35.8016 61.6343 347.118 52.3381 72.5849 349.498 42.9632 43.5033 385.022 23.3311 8.98442 102.734 16.8442 
149.987 177.094 177.093 134.722 146.713 135.84 178.971 174.009 86.9395 89.7176 51.2865 331.194 48.4461 -48.5699 324.963 0.0706797 -21.9799 303.603 -36.3142 62.567 346.041 51.7062 73.1475 348.725 42.3009 43.6977 384.752 24.2144 9.2203 103.019 17.3363 
149.223 178.022 177.629 135.871 146.386 135.446 179.433 174.546 86.9151 89.4646 52.0458 330.7 47.9838 -49.4351 326.402 1.3441 -24.0657 306.708 -36.6057 63.9253 345.718 50.9979 73.6889 348.655 41.3688 44.102 385.078 25.2214 9.8146 103.879 17.1914 
149.061 177.694 178.728 135.344 146.427 135.677 179.183 175.059 86.8028 89.186 52.8187 329.807 47.2074 -50.1674 328.385 2.75695 -26.3891 309.13 -35.8517 64.5601 344.684 50.4074 73.6991 348.145 41.0873 44.3451 385.163 25.942 10.4967 104.159 16.8726 
150.024 177.986 179.488 135.879 144.258 136.135 179.486 176.872 87.3429 87.9625 52.2851 330.79 47.6859 -51.0928 330.229 3.81729 -28.7681 311.501 -35.8648 64.3274 344.919 52.1178 73.1593 348.376 42.0285 44.6678 385.783 26.4589 10.7812 105.508 16.8646 
150.239 178.943 179.616 136.091 140.878 136.189 178.614 177.992 87.0819 85.964 52.0051 331.771 47.2387 -52.1746 332.998 4.17361 -32.0707 314.914 -36.7248 64.6527 345.762 51.1294 73.3061 349.589 39.5513 44.575 387.202 26.8652 10.3265 106.843 16.2968 
150.095 179.914 179.659 136.813 139.519 136.507 178.117 178.428 86.2229 84.4146 53.29 332.568 47.1579 -53.0648 332.97 6.02414 -33.5101 315.317 -36.5531 66.4106 347.268 49.9731 74.4585 351.297 37.459 44.6327 388.339 27.3592 10.262 107.896 16.5372 
150.442 179.272 179.667 138.989 140.339 136.688 177.674 178.669 86.8864 84.5291 52.8075 334.516 50.0358 -54.0387 334.037 6.8561 -34.4215 315.229 -36.735 66.4561 349.288 52.0959 74.5396 352.931 38.7222 44.6829 390.089 27.9462 9.98108 108.627 16.8794 
150.488 179.224 179.671 140.118 140.926 136.952 177.752 178.763 88.289 85.4034 52.4632 336.822 52.2996 -54.3559 334.839 7.51628 -34.2345 315.854 -36.3626 66.0987 350.982 54.4048 74.6213 354.505 40.0467 44.7054 392.124 28.7541 9.31839 108.419 16.9972 
150.172 179.542 179.028 141.87 143.142 136.814 178.732 178.653 89.629 86.4829 51.4062 338.999 54.4296 -54.5297 335.487 6.40109 -34.4591 316.375 -35.862 65.4397 351.269 56.5649 74.3164 354.627 41.764 44.7151 393.577 29.2759 9.03549 107.72 16.0423 
149.371 177.665 178.424 142.636 144.033 136.255 179.172 178.058 90.313 86.4897 50.1211 341.856 55.358 -55.1724 336.48 6.28911 -34.1914 316.723 -35.8017 65.4202 351.55 57.199 74.3308 355.055 41.9865 44.6885 395.224 29.9359 8.82431 106.711 16.0862 
149.313 179.042 177.333 144.223 145.392 136.047 178.972 177.78 92.0335 87.1652 49.2498 343.763 57.6974 -55.9701 335.929 8.46603 -33.8046 316.167 -34.4788 65.3582 351.38 59.1264 74.4972 355.26 43.5594 44.7634 396.144 30.6089 8.46755 105.539 16.8505 
149.619 178.756 177.381 146.807 147.845 135.694 178.819 177.497 92.5918 87.6368 49.9637 344.106 58.3926 -56.4584 334.737 10.5452 -35.5488 316.651 -33.2534 66.6061 351.823 59.2645 75.0956 355.799 43.4576 44.6806 396.562 31.082 8.77965 105.931 16.5841 
150.527 178.221 177.543 149.1 149.568 135.197 178.902 177.367 93.2578 87.877 51.0309 343.837 59.4872 -57.0889 334.362 11.2971 -36.3608 316.446 -33.3213 67.5447 352.988 60.3307 75.6204 356.727 44.107 44.6716 396.656 31.4226 8.89615 107.38 16.7201 
150.163 177.825 177.481 149.864 150.796 134.804 178.35 177.172 93.9266 88.3449 50.2634 344.259 60.6203 -58.117 335.794 11.1801 -37.6417 317.017 -33.2467 67.1869 353.253 61.4126 75.4122 356.868 45.0313 44.4442 396.761 31.5834 8.64824 108.055 16.647 
150.368 177.813 177.6 150.38 151.774 134.239 178.367 177.112 94.0958 88.7894 50.805 343.932 61.2747 -58.4137 335.924 11.4558 -38.6748 317.383 -33.5786 67.6275 353.548 61.5154 75.8014 357.208 45.1073 44.4081 396.674 31.8348 8.48895 108.892 16.5784 
150.765 175.352 177.932 151.614 153.181 133.894 178.348 177.147 93.9461 88.9639 52.2842 342.98 60.5845 -58.9276 335.282 11.8305 -40.019 317.669 -34.38 68.9363 353.92 60.2842 76.5836 357.777 43.738 44.3609 396.573 31.8925 8.55228 109.906 16.5401 
150.936 174.811 178.532 151.363 153.772 133.863 178.156 177.666 93.9971 89.5917 52.5083 342.907 61.1909 -58.9618 335.431 11.6125 -41.0599 318.162 -35.2244 69.1352 354.374 60.5816 76.8676 358.11 44.0598 44.4823 396.695 32.0724 8.44844 110.8 16.3724 
151.233 174.33 179.022 150.824 154.041 134.23 177.985 178.326 93.6239 89.7614 52.6726 342.821 61.864 -59.0889 336.287 12.0533 -42.0147 319.539 -35.4539 68.9756 354.686 60.7318 76.8812 358.24 44.3015 44.6391 396.893 32.3579 8.41539 111.445 16.4197 
151.855 174.025 178.953 151.118 154.782 134.544 177.877 178.465 93.535 90.2895 53.0049 342.614 62.0361 -59.5267 336.909 12.0382 -43.321 320.885 -36.2586 69.2198 354.679 60.1984 77.0974 358.257 43.9342 44.8155 397.168 32.3072 8.42405 111.87 16.4027 
151.855 173.654 178.072 152.518 155.325 134.656 177.744 177.959 92.8731 90.3711 53.3473 342.49 62.2119 -60.2194 337.453 11.3558 -45.221 321.368 -37.7553 69.7748 354.946 59.5315 77.467 358.426 43.5333 45.0373 397.353 32.2429 8.59412 112.628 16.197 
151.43 174.27 177.879 153.419 155.746 134.279 177.963 177.702 91.7057 90.4401 53.542 342.513 62.3246 -60.1103 337.739 10.5232 -46.2733 322.207 -38.4307 69.4647 355.166 58.8417 77.3217 358.381 43.0461 45.1899 397.425 32.1041 8.64552 112.937 15.6584 
150.375 174.27 177.878 153.108 156.106 133.685 177.963 177.567 89.8484 90.733 53.3843 342.166 61.0818 -60.758 337.765 10.8431 -44.9638 321.747 -39.2027 68.7179 355.421 57.2825 76.5943 358.203 41.9104 45.3136 397.236 31.9759 8.99232 112.462 16.556 
149.804 174.27 177.455 153.696 156.72 132.5 177.963 176.878 88.7598 90.4559 53.1173 342.359 61.1734 -61.5692 338.528 11.0485 -44.2957 321.088 -39.1597 68.33 355.602 56.656 76.1319 358.067 41.5252 45.5072 397.228 31.9739 9.25638 111.847 17.0379 
149.176 174.27 176.944 153.905 156.732 132.577 177.963 176.591 88.8154 91.0436 52.0279 342.595 61.6738 -61.447 338.484 10.3485 -43.6823 319.818 -38.3582 67.9013 355.353 57.0686 75.6371 357.577 42.1279 45.6352 397.184 31.9324 9.49192 110.899 16.5627 
148.796 174.27 176.422 153.993 156.547 132.965 177.963 176.114 89.5237 91.8771 50.8629 342.512 62.0226 -61.7144 339.048 10.4601 -43.3075 319.412 -37.0329 67.7746 354.698 57.5592 75.4536 356.894 42.5766 45.8265 397.044 31.8594 9.51138 110.083 16.3932 
148.802 177.89 176.24 153.884 156.383 132.96 179.251 175.791 89.2939 91.7177 50.1966 342.79 63.5527 -60.9657 337.822 12.1185 -41.3235 317.38 -35.6594 68.1082 355.174 58.9783 75.9809 356.97 44.1013 46.9158 396.441 31.7501 9.60365 110.128 17.1368 
148.552 178.46 176.292 154.052 157.038 133.306 179.095 175.698 89.0062 91.9338 50.0987 341.956 62.7108 -60.1261 335.785 14.0923 -39.3496 315.61 -34.6375 69.0327 354.99 58.3729 76.6721 356.683 43.6498 47.216 395.445 31.316 9.79515 110.269 18.0632 
150.657 178.369 176.554 154.256 156.782 133.293 178.803 175.697 88.0444 90.7204 50.9981 341.446 62.9878 -60.103 333.866 15.5163 -39.1619 313.25 -33.4523 69.9679 356.229 58.5162 77.257 357.242 43.7028 47.3631 394.694 31.0346 10.2405 111.543 18.2742 
151.686 178.252 176.665 154.418 156.574 133.74 178.142 175.504 87.5317 89.2061 52.2957 340.536 63.5433 -59.5312 331.335 16.9091 -37.6793 310.442 -32.5421 71.2161 356.386 58.196 78.0489 357.441 43.1597 47.419 393.699 30.7839 10.5546 112.059 18.819 
151.973 178.193 176.827 153.379 155.052 134.35 177.561 175.6 86.6033 87.3102 52.9365 340.164 63.7559 -58.6173 329.988 17.888 -36.6201 309.574 -31.2175 71.3526 356.847 58.2913 78.286 357.906 42.9637 47.6143 392.971 30.5156 10.5439 112.628 18.9067 
151.897 178.365 176.989 153 154.635 134.759 177.653 175.904 85.7707 85.3183 53.9124 339.697 63.2732 -57.3602 329.902 17.8734 -35.8586 309.883 -30.7305 71.8106 356.919 58.0761 78.6855 358.13 42.4197 47.9386 392.378 30.3925 10.6145 113.49 18.7533 
151.608 178.292 177.177 152.553 153.313 136.371 177.304 176.457 84.0688 82.5144 54.5684 338.402 61.0923 -54.9817 328.852 17.7828 -33.2516 310.121 -30.4331 72.8966 356.569 56.3725 79.3432 357.858 40.2817 48.5073 391.644 30.33 11.0382 113.793 18.8129 
152.628 178.567 177.126 151.214 152.342 137.206 177.497 176.944 83.4025 81.1229 55.1532 337.411 60.1137 -53.8421 328.263 16.6854 -31.7696 309.743 -30.3505 72.6486 356.44 56.4566 79.3686 357.807 40.3016 48.8856 391.144 30.2407 10.9901 113.569 18.4656 
153.072 178.934 177.07 150.135 151.845 137.647 177.775 177.627 83.1714 80.4751 56.0503 336.197 59.0227 -52.4739 327.006 16.1036 -30.4346 309.487 -29.8931 72.8457 355.7 56.6999 79.9795 357.37 40.5849 49.5398 390.225 30.2642 10.7248 113.295 18.0326 
153.542 179.497 178.442 149.015 150.977 138.369 178.127 179.132 82.8151 79.5285 56.8232 335.279 58.7314 -50.5071 325.737 15.1475 -29.4166 309.473 -28.6228 72.8389 355.219 57.182 80.2597 357.202 41.0688 50.2579 389.514 30.472 10.75 112.674 16.7671 
154.268 178.485 177.883 147.828 149.435 139.171 178.809 178.834 83.0389 79.0352 56.5782 334.863 59.2719 -49.4087 325.715 13.4199 -27.3708 308.178 -27.001 72.1746 354.236 58.4657 80.302 356.451 42.3185 51.1657 389.023 30.8571 10.5603 110.249 15.6674 
154.093 177.881 174.238 146.868 147.211 138.708 178.861 172.901 82.8185 78.2702 57.023 334.764 58.2341 -48.2841 325.19 11.9037 -18.5675 302.808 -25.1824 72.0651 353.904 58.194 79.7244 356.559 42.0284 51.5303 389.026 30.9441 11.4538 105.74 17.9207 
153.176 177.938 175.988 146.686 146.681 137.946 177.909 170.697 83.102 77.9392 57.6468 334.87 57.3865 -48.1707 325.514 12.0225 -13.54 300.772 -23.898 72.5226 353.404 57.8352 79.9175 356.709 41.692 52.0023 389.244 31.0043 11.8293 102.641 20.251 
152.183 178.005 177.425 147.865 147.681 137.377 177.438 169.529 82.8768 77.3455 57.7765 334.958 56.52 -48.4762 326.024 10.7017 -10.7865 299.69 -23.0028 72.9041 352.64 57.1079 80.0548 356.675 41.2206 52.4772 389.42 31.0078 12.235 99.9733 21.3398 
151.173 177.992 177.68 147.956 148.819 137.073 177.356 167.704 83.4461 77.7978 57.6636 335.212 56.7824 -47.6854 326.213 9.84024 -7.00732 298.206 -20.9933 73.4725 352.152 57.3347 80.6538 356.606 41.7932 53.1002 389.605 31.1277 12.3118 97.2055 22.5417 
150.763 177.794 177.665 148.105 149.794 136.709 177.817 164.543 83.5549 78.324 58.0753 335.532 56.3256 -46.718 327.691 8.65577 -3.51431 298.605 -18.0008 73.8347 352.088 57.3744 81.3588 356.644 42.177 53.8519 390.005 31.3402 12.0687 94.5055 23.6381 
150.478 178.47 177.169 148.961 151.343 136.063 177.073 159.492 82.3946 78.4521 60.6532 334.46 55.08 -46.3953 323.755 7.7323 3.24472 296.043 -15.2077 74.9322 353.552 57.7742 83.1347 357.797 43.6143 54.7114 389.297 31.8132 11.7252 92.5698 25.6008 
149.653 178.426 177.279 149.597 151.81 135.524 177.331 163.37 82.0863 78.2223 63.0579 333.296 55.0161 -44.7977 321.535 6.69743 3.47542 294.444 -18.1485 76.3666 354.858 58.0418 84.6481 359.146 43.901 55.0637 388.451 32.1073 11.4806 95.5819 24.833 
148.802 178.504 177.422 149.109 150.795 135.762 177.18 165.799 82.8851 78.2048 65.0638 332.325 55.1518 -42.5552 318.341 6.8841 4.32915 293.353 -19.4629 77.8455 356.271 58.5167 85.8659 360.823 43.7279 55.4509 388.194 32.3603 11.3669 97.3521 23.6082 
147.488 176.839 176.608 148.25 149.744 135.48 176.166 168.33 83.2734 78.0169 67.8735 331.486 54.3962 -38.0874 315.386 4.61797 3.7948 293.972 -21.4097 79.8492 357.233 57.9625 87.2413 362.196 42.6541 56.0678 387.976 32.5157 11.6141 99.4468 20.2216 
146.038 175.089 175.695 146.158 147.757 134.652 174.734 169.113 82.926 77.3879 69.8176 331.217 54.6844 -35.4878 313.87 4.51028 3.23652 293.142 -21.9194 80.6395 358.141 57.8855 88.1551 363.322 42.3139 56.5806 387.696 32.6912 11.3171 100.737 18.53 
147.707 174.804 175.35 144.543 146.255 134.529 175.363 172.195 83.8426 77.5836 72.182 330.412 55.4276 -36.6174 313.811 3.43316 1.53668 293.994 -30.8047 81.699 359.157 57.6787 88.9502 364.478 41.7108 56.5038 387.644 32.439 11.0905 106.063 19.3727 
148.503 174.731 175.565 142.954 145.381 134.365 175.534 172.727 84.9208 78.7522 73.4885 330.149 56.6203 -37.439 313.576 2.06872 1.91166 294.049 -34.3578 81.8333 359.854 58.5238 89.5429 364.989 42.5204 56.673 387.671 32.3158 10.6024 107.976 20.1227 
147.985 174.476 175.602 141.766 145.988 133.655 175.674 172.758 84.9213 79.1723 74.356 329.596 57.6887 -37.5727 313.836 1.28383 0.0539918 296.317 -36.6716 82.473 360.34 58.0535 90.0609 365.692 42.1701 56.7835 387.629 32.471 10.421 110.344 19.4724 
147.398 174.657 175.596 140.715 145.206 133.156 175.917 173.686 85.4076 78.894 75.7908 330.016 58.1733 -37.1547 314.661 0.436477 -1.29676 299.237 -39.3955 83.7079 361.551 57.7733 91.1117 367.047 41.3334 57.3843 388.239 32.4904 10.1276 113.01 18.9671 
148.383 175.321 175.452 139.28 145.775 133.779 176.848 174.15 85.0958 79.7505 75.8761 329.572 59.6073 -37.1977 315.633 0.781158 -2.27119 301.145 -39.3162 84.0269 361.26 58.0783 91.3977 366.568 42.3004 57.8753 388.065 32.8158 10.4882 114.24 18.6942 
148.424 176.05 174.572 140.042 146.586 133.915 177.64 174.755 84.377 80.225 76.1163 329.265 59.7963 -36.5458 315.937 -0.388103 -3.67141 303.16 -39.8283 84.1246 361.302 58.6041 91.5166 366.193 43.186 58.5229 387.649 33.2304 10.9791 115.986 17.4218 
149.299 176.271 174.096 141.657 148.432 134.534 177.755 175.389 84.0405 80.9595 75.6721 328.331 59.504 -36.2059 316.914 -0.636723 -5.12746 304.529 -39.5518 84.4212 359.869 58.884 91.9031 364.798 44.0558 59.3108 386.973 33.5616 11.1906 116.084 16.5449 
149.26 176.518 173.991 143.953 149.445 134.477 177.773 176.445 83.899 81.2351 75.5457 327.863 59.4643 -35.4943 317.43 -0.51871 -5.59979 305.443 -39.1082 84.9585 359.144 59.255 92.2925 364.084 44.4354 59.981 386.482 33.929 11.456 116.416 16.0243 
149.676 176.134 173.772 144.721 150.134 135.48 176.518 176.519 83.8313 80.8186 74.1878 327.341 59.0923 -33.1335 315.53 0.332936 -5.32729 303.216 -34.8467 85.1069 358.645 60.2391 92.762 363.651 45.3773 60.8057 386.017 34.2316 11.4625 113.87 14.0047 
150.094 176.13 175.014 144.97 151.459 136.131 176.304 177.187 83.0162 80.5769 73.804 327.468 59.1897 -32.3797 316.108 0.43234 -4.46911 303.387 -35.0169 85.1876 358.958 60.4409 92.9477 363.587 45.8222 61.6962 386.425 34.4434 11.8695 113.45 14.1531 
149.846 176.311 173.126 143.408 148.667 135.975 175.995 175.339 83.6659 79.9073 74.749 328.196 58.2948 -30.765 316.557 0.637131 -0.990695 303.322 -35.0355 86.1543 360.026 60.0219 94.1249 364.871 44.6653 62.2857 387.378 34.3904 11.2367 112.526 15.203 
149.285 176.496 173.662 142.051 146.185 135.765 175.842 173.957 84.1801 79.0999 75.9592 328.329 57.771 -29.859 316.648 1.28788 2.18166 302.671 -36.4862 87.2998 360.632 59.6229 95.5561 365.495 43.8238 62.7851 387.708 34.2791 10.3757 112.557 17.0581 
150.185 176.672 174.315 141.529 144.935 136.483 175.774 174.004 85.6081 78.7903 76.3513 329.513 57.6141 -28.4905 316.878 0.463522 3.61555 301.872 -37.2274 87.6403 361.716 61.1901 96.6491 366.487 44.7174 63.5226 388.563 34.2344 9.44779 112.539 16.9653 
150.666 176.821 174.781 141.498 143.848 136.322 176.132 173.912 86.133 78.1066 77.2076 330.767 57.4968 -27.765 317.981 -0.602231 4.51172 303.236 -38.6725 88.1146 363.279 61.5773 97.2198 368.079 44.5024 64.0888 389.837 34.1921 9.11471 113.372 16.9825 
151.204 176.734 174.907 141.458 143.118 136.29 176.174 173.873 87.0282 78.3321 76.8692 331.624 58.1617 -26.9027 319.749 -1.28776 5.35464 304.462 -38.3442 88.2638 363.93 62.5108 97.6851 368.452 45.1852 64.6432 390.476 34.0561 8.73574 113.762 16.8145 
151.475 177.003 175.163 141.468 142.731 136.29 176.449 173.998 88.2695 79.1275 75.9155 332.489 59.144 -26.7444 320.789 -2.51592 5.86013 304.025 -38.4396 87.8145 364.206 64.0259 97.6451 368.142 46.7147 64.9561 390.743 33.72 8.50814 114.038 16.6731 
152.423 177.304 175.502 140.783 141.648 137.119 176.83 174.513 89.8282 80.1596 74.3664 333.315 61.2709 -26.763 321.671 -3.67583 6.08367 303.141 -38.3984 87.0225 364.043 66.2767 97.3721 367.402 49.0435 65.3677 390.927 33.5654 8.36715 114.119 16.4566 
154.327 177.372 175.538 140.592 141.791 138.626 177.058 175.193 91.9257 81.9925 72.9704 333.961 63.2759 -25.4741 320.964 -4.83934 6.22587 301.53 -37.8546 86.3512 363.516 68.7447 97.228 366.64 51.6347 65.8665 390.93 33.3766 8.27275 113.546 15.363 
