159.044 148.9 142.376 142.009 142.92 157.744 135.887 131.993 122.811 121.265 9.57792 401.143 -22.295 53.1688 389.828 -45.1359 70.5933 383.79 -40.5563 78.0782 386.673 -11.8333 82.558 375.126 14.2426 21.0996 350.984 29.7596 3.05115 9.0959 5.09489 
169.411 175.788 172.786 120.97 138.788 149.897 127.362 101.697 153.11 101.405 -4.61193 397.085 -24.5688 52.8939 388.952 -33.8086 61.4913 389.025 -27.9828 71.2632 389.097 -22.5388 55.3485 384.466 14.046 18.5844 352.757 31.7685 22.6303 8.69339 9.69738 
122.56 174.27 178.995 173.231 172.212 127.749 177.955 175.616 102.695 158.031 61.5898 319.133 40.7933 115.523 345.447 -23.864 107.339 340.199 -74.0021 47.8902 340.728 -49.4354 -6.21952 332.657 -59.463 14.2791 342.649 23.6918 35.9188 11.1611 16.9493 
176.623 174.27 180 174.943 172.271 165.544 177.637 180 117.065 169.793 83.0001 311.68 64.9385 32.9276 300.253 -52.318 81.7491 317.016 -56.8944 44.1941 280.417 -34.2243 -34.5955 298.562 -59.9455 5.24592 323.38 28.2037 53.3744 35.6528 47.8648 
175.141 177.028 175.886 176.611 176.633 170.856 177.596 176.142 177.133 173.451 -50.7311 316.906 5.00752 -57.3163 329.106 -62.9233 22.7127 276.624 -76.2836 58.2004 291.287 -58.578 77.0213 292.716 -28.9695 8.64342 305.254 34.5501 9.92529 13.3104 49.8307 
158.218 174.27 180 174.752 178.393 159.899 177.98 179.986 178.201 179.353 -45.964 327.426 -9.82837 -0.0730715 301.512 -72.7355 22.3378 282.677 -80.3659 62.2466 280.361 -61.4642 86.2033 283.888 -24.577 3.2209 294.273 30.1926 14.4054 14.7461 11.0855 
179.084 174.27 180 174.27 174.27 125.947 177.976 175.36 157.64 110.083 -2.1225 268.636 -5.79375 29.5842 263.678 -72.8912 6.06279 243.783 -76.4388 -7.56155 227.001 -57.3681 24.0897 209.167 -8.30171 5.07166 275.187 27.3058 26.5569 14.227 20.2835 
161.545 170.004 180 152.197 134.071 147.04 165.112 172.319 157.579 123.968 -10.3465 257.853 -26.5954 86.6599 237.049 -49.8199 1.99344 231.206 -73.7077 -42.1683 221 -52.1821 -49.6429 200.361 2.01228 1.82185 263.854 28.3641 31.3956 20.6632 48.9878 
156.238 153.836 180 141.073 132.951 157.135 158.183 161.154 153.65 98.9861 44.1178 256.786 -0.969853 57.939 209.656 -47.5124 -7.15936 222.028 -67.0246 -50.7599 229.665 -49.5026 -66.1915 222.429 6.4486 -2.82035 264.278 30.1175 32.3089 19.2358 36.7074 
119.504 158.101 150.335 153.337 112.268 141.446 172.314 157.955 146.234 127.217 56.4946 278.051 1.18831 24.674 235.192 -66.7852 -22.4274 229.329 -69.0337 -54.4351 220.03 -43.4875 -63.2925 209.54 3.68867 -4.45289 262.634 30.0712 23.7116 14.6569 19.6438 
94.3308 145.576 143.755 151.202 103.355 172.824 152.694 154.86 152.577 141.1 64.8548 265.979 5.75716 24.3599 241.911 -68.3118 -25.0678 234.086 -70.6815 -59.1544 222.517 -44.9585 -63.7845 211.355 -2.11305 -5.34265 260.761 29.5605 20.4892 16.7155 21.4097 
107.705 146.608 148.522 151.261 115.86 177.826 143.598 153.302 154.603 134.896 65.6059 252.662 8.32223 28.7494 233.029 -64.1507 -19.5558 233.924 -72.8734 -57.1408 225.625 -49.4985 -64.4618 213.59 -6.08788 -6.71407 258.675 29.2148 21.641 17.1993 20.8639 
160.613 150.764 152.275 151.433 145.561 170.847 136.422 148.043 151.95 115.943 62.8217 246.116 2.746 28.59 220.596 -59.1203 -14.1908 229.231 -72.7191 -53.6081 224.854 -51.9635 -65.0185 212.554 -6.24134 -8.26828 256.55 28.3045 24.8775 17.087 19.6352 
174.41 157.792 157.463 146.277 169.342 163.637 138.854 146.938 149.108 109.375 58.6117 239.264 3.46409 27.2998 210.726 -56.4273 -12.6342 224.017 -72.6776 -52.5523 223.525 -53.6544 -67.765 212.259 -7.30077 -9.78154 254.771 27.3414 26.0924 16.5219 20.3807 
157.208 160.659 156.807 145.49 179.207 163.607 144.072 148.266 147.417 109.121 52.8361 231.408 5.10401 25.8011 205.195 -55.7418 -13.3736 219.964 -72.5524 -52.9084 221.437 -54.4094 -70.9557 212.447 -8.26209 -11.4029 253.742 26.4305 26.3796 15.9488 20.4551 
145.623 161.91 156.482 147.891 173.655 173.564 148.607 151.512 147.138 113.311 45.5871 219.461 7.1062 25.4509 200.865 -54.9932 -15.1108 216.92 -72.9184 -54.005 219.13 -54.4629 -75.5149 213.958 -10.9315 -12.8329 252.627 25.7472 23.9769 15.5376 21.8021 
145.623 159.676 154.797 151.298 163.586 174.234 154.155 155.597 151.66 120.416 36.1944 210.792 6.45488 26.4994 195.767 -56.1562 -16.4793 212.309 -75.1732 -57.2592 216.391 -58.3413 -79.0734 211.81 -14.3536 -15.0265 248.339 24.5573 23.5105 16.2654 23.1318 
145.623 157.209 154.362 151.74 161.544 173.305 154.629 156.184 153.524 126.059 35.8973 209.66 5.07711 25.9045 193.979 -56.9168 -16.7113 210.363 -75.8336 -58.1944 215.723 -59.2508 -80.924 211.81 -16.5052 -15.3892 246.119 24.1125 22.3752 16.7667 22.7703 
145.623 155.141 153.658 152.943 162.141 172.193 154.211 156.016 154.516 132.348 35.6817 207.926 3.92956 24.7454 191.874 -57.4092 -17.5187 208.351 -76.2223 -59.4319 214.026 -59.6967 -82.7561 210.921 -18.0505 -15.9181 243.981 23.5487 21.4824 17.1544 22.6707 
145.623 153.768 153.588 154.728 162.394 172.589 154.527 155.725 156.825 136.742 35.6733 204.982 3.68589 23.8236 189.382 -57.9588 -17.897 206.152 -76.6461 -60.4027 212.958 -61.0214 -83.0656 208.991 -18.8987 -16.1823 241.764 23.2229 21.3455 17.451 22.4872 
145.623 152.189 152.815 156.18 159.661 172.122 154.502 155.741 158.811 137.647 35.4245 200.207 3.99084 23.5374 185.445 -57.8023 -17.6134 203.344 -77.1615 -60.572 211.015 -62.3855 -82.3319 205.393 -19.0602 -16.1454 238.395 22.9327 21.9551 17.6953 23.0219 
145.623 150.291 151.197 156.757 157.537 170.983 153.771 154.952 158.579 141.653 33.7787 195.821 4.15825 23.3428 180.92 -56.8718 -17.5383 200.393 -77.2813 -60.4888 208.044 -63.0356 -81.4433 202.204 -20.1176 -15.9611 234.834 22.9034 21.1998 17.603 24.0328 
145.623 151.755 150.657 158.248 161.361 169.824 154.081 155.004 157.722 145.714 31.9851 192.35 4.05026 23.5549 176.706 -56.7682 -17.9683 197.612 -77.8159 -60.309 203.949 -63.3843 -80.6661 198.704 -21.2426 -15.6646 231.697 22.8761 20.1139 16.9576 25.1011 
145.623 150.249 149.335 157.051 164.119 168.26 154.291 153.877 156.26 144.256 31.3649 188.306 5.74314 22.7121 171.492 -54.8913 -17.7019 193.017 -77.0384 -59.213 199.53 -63.365 -78.947 194.973 -21.965 -15.1381 228.591 23.1076 18.8429 16.2239 25.411 
147.148 152.595 147.745 156.217 157.763 163.74 153.555 152.463 154.847 140.642 25.6146 183.271 7.28969 24.0516 164.973 -52.0694 -16.077 186.482 -76.2642 -57.252 193.872 -63.9502 -76.9756 190.045 -22.4431 -14.4423 225.171 22.9386 18.221 15.7941 26.3814 
129.959 160.225 150.517 160.736 158.625 160.609 156.108 154.891 153.673 136.129 18.9523 180.341 13.4484 26.7879 158.457 -50.8473 -11.4025 181.397 -77.54 -55.4793 186.596 -64.1975 -77.4821 184.662 -21.0786 -13.3863 223.105 23.0113 20.1607 17.2602 26.5461 
132.194 175.617 158.02 157.88 159.468 163.545 160.082 157.177 152.82 130.884 14.0261 177.912 14.0701 25.4361 161.245 -52.1575 -12.5133 180.161 -79.0208 -55.0093 182.115 -63.8022 -75.873 177.899 -14.2513 -12.0851 223.906 22.3603 27.0303 16.1729 24.326 
141.967 175.846 140.942 174.27 136.569 158.728 160.884 149.033 133.894 147.736 21.3736 173.703 4.43742 18.5996 168.14 -64.0773 -14.8436 171.731 -75.5783 -40.8575 153.84 -43.765 -77.4689 173.728 -16.0165 -13.9307 222.625 18.1924 22.5778 21.8727 11.5492 
162.664 164.453 141.058 126.351 151.391 155.436 160.218 150.214 100 148.387 18.0537 167.917 3.30277 14.606 174.755 -69.7513 -22.446 171.106 -77.0567 -27.3222 156.602 4.59253 -71.118 166.945 -13.123 -16.7636 222.739 17.0262 42.665 59.82 12.0132 
162.655 159.885 147.548 134.47 172.193 153.876 159.309 158.608 89.773 155.505 15.2122 167.72 5.97981 9.07143 176.921 -71.3968 -28.5141 174.6 -81.4332 -19.5651 168.278 26.9723 -63.5208 164.606 -11.1419 -17.7197 224.358 16.1323 59.77 89.0512 12.185 
159.964 162.545 148.166 143.284 174.27 151.366 156.046 162.336 92.38 136.281 9.08991 166.372 8.02263 7.11837 172.029 -68.2924 -33.1112 176.723 -83.6732 -16.8055 174.958 35.9199 -53.9205 165.196 3.74479 -18.2224 225.572 15.0284 50.1263 102.306 16.0635 
159.269 161.415 153.023 140.232 158.533 149.909 154.377 164.13 92.9587 107.673 5.68529 166.929 8.38616 7.18961 169.098 -62.6881 -34.35 180.042 -86.4451 -20.4573 178.383 35.3384 -43.2956 176.576 14.5383 -18.0824 227.96 13.959 32.4315 103.944 20.7437 
160.97 160.14 162.1 134.196 144.645 150.977 156.494 165.862 94.1921 100.416 3.54109 168.765 10.1221 8.21763 168.827 -56.6119 -33.4794 182.457 -87.7204 -22.7463 181.712 34.6598 -38.6815 186.708 25.0818 -16.7227 231.681 14.5234 17.8481 101.852 24.166 
159.808 163.511 166.855 126.376 141.379 150.593 119.473 166.623 93.8658 100.702 2.3195 170.952 11.5403 5.03699 161.707 -18.7833 -29.906 181.284 -86.7692 -20.1721 184.441 32.0191 -33.7251 191.17 31.0081 -14.5734 234.408 14.844 10.4396 97.0538 51.251 
158.713 169.944 168.951 126.465 137.859 150.337 112.898 164.988 92.188 98.4766 2.32559 174.215 12.4388 0.00883825 167.599 10.5885 -26.0047 180.927 -81.6339 -16.9972 190.426 30.5464 -31.7914 197.712 28.7796 -12.5126 238.457 15.0949 10.2881 92.5001 71.4996 
155.741 165.388 172.838 128.303 137.239 147.754 114.572 166.332 91.1482 98.0538 3.09684 179.453 11.9606 -0.551808 171.672 17.8418 -23.3612 183.137 -81.5165 -13.9813 194.546 28.1603 -30.5908 201.388 25.6402 -11.1449 242.063 14.3084 10.3357 90.3936 76.784 
146.333 174.27 180 174.27 174.27 149.85 179.231 179.91 177.95 177.64 18.0683 273.097 -12.0261 -16.8358 279.819 -77.0108 -8.76685 251.267 -76.415 33.7963 231.691 -60.0789 11.6021 221.153 -29.6709 -26.9199 257.991 25.4269 5.44807 29.4136 8.23047 
153.052 170.964 162.866 146.926 137.511 146.124 162.852 160.447 78.2674 81.0014 -7.04727 195.585 19.5121 -51.0099 211.306 -76.8941 -18.2228 204.254 -85.0964 -16.2856 211.887 28.8097 0.86697 215.69 26.9319 -9.72168 257.18 17.4864 10.701 92.7706 8.33475 
155.774 168.734 170.625 141.267 143.653 143.456 168.98 167.457 86.4099 88.8514 -13.832 195.248 19.2918 -42.5774 214.095 -80.4744 -3.29567 198.385 -82.3926 -19.1591 206.355 29.5117 -3.55324 208.477 30.8496 -7.36401 255.642 15.9935 10.7185 89.6412 13.5532 
153.312 174.678 167.511 141.174 140.475 140.772 172.843 171.872 90.0843 90.3205 -20.8753 196.965 18.0666 -40.744 220.194 -80.6252 2.22697 199.681 -80.9442 -20.4755 201.114 30.9069 -5.71213 204.905 32.5965 -7.25141 253.395 16.9384 11.2854 92.6874 17.708 
151.911 172.709 170.393 142.369 146.231 139.643 171.886 172.945 87.5912 90.9892 -25.4709 200.388 16.3233 -39.4458 226.253 -81.6426 1.99389 204.036 -82.9404 -23.0917 205.445 32.8367 -9.76693 206.954 35.3652 -7.43697 254.133 16.9164 11.2985 99.2009 17.3232 
152.038 170.849 167.347 141.595 148.421 139.837 170.031 174.007 84.8766 90.6159 -26.9721 203.489 15.7706 -39.3843 231.757 -82.9104 1.60389 211.06 -85.2195 -23.1973 210.745 34.4976 -11.2267 210.747 37.0073 -7.60319 256.514 17.1261 11.9702 105.114 16.6446 
153.073 171.203 167.171 141.635 149.097 140.226 168.825 174.296 83.3024 89.3099 -26.328 206.092 16.4058 -39.2198 235.995 -83.5186 2.36607 217.001 -86.3736 -23.0252 215.874 35.7148 -11.3954 215.444 38.0306 -7.53541 259.785 17.5515 12.423 108.749 16.5751 
153.752 171.916 168.32 141.906 149.247 141.122 168.032 174.195 82.8867 88.4729 -25.0144 207.681 17.8371 -39.7403 238.067 -82.7012 3.34996 220.676 -86.6159 -22.4402 219.181 36.7002 -10.8239 218.953 38.8933 -7.22878 262.62 18.251 12.6539 109.991 17.1993 
154.003 172.709 169.131 142.151 148.829 141.583 168.141 174.365 82.5398 87.6663 -24.2569 209.276 19.4 -40.2011 240.531 -81.9845 3.61619 224.148 -86.9973 -22.0245 221.943 37.6336 -10.2602 221.7 39.6197 -6.87305 265.076 19.1034 12.7443 110.906 17.4791 
153.632 173.125 170.116 142.121 148.301 141.703 167.946 174.012 82.8099 87.7663 -23.5193 211.487 20.7365 -40.1522 242.498 -80.6412 3.85244 226.403 -86.1687 -21.5822 224.005 38.3635 -9.67028 224.002 40.2196 -6.67466 267.598 20.0872 12.7673 110.314 17.4962 
153.419 173.069 171.22 142.793 148.431 142.05 167.695 174.011 83.1688 88.2465 -22.9614 213.914 21.9414 -40.48 244.797 -79.3657 3.53588 229.094 -85.4218 -21.1886 227.081 39.7597 -9.16578 227.003 41.3464 -6.47951 270.514 21.1572 12.7258 110.392 17.3576 
153.421 173.197 172.298 142.929 148.217 142.581 167.902 174.258 83.2763 88.5005 -23.3479 216.418 22.722 -41.0716 247.064 -77.8889 2.91544 230.894 -84.1623 -20.8972 229.515 41.0932 -8.85193 229.29 42.6217 -6.32208 273.049 22.3466 12.5891 109.946 17.3774 
153.778 173.07 172.702 143.344 149 143.099 167.776 174.568 83.649 88.9158 -24.2215 218.45 23.5113 -41.8938 249.008 -76.6654 2.56771 232.121 -82.7185 -21.5185 231.289 42.2496 -9.54262 230.895 43.9517 -6.11433 274.9 23.4532 12.4303 109.436 17.8997 
153.882 172.287 172.392 143.72 149.85 143.375 167.005 174.943 83.2175 88.8697 -25.4947 221.101 24.4857 -42.5674 251.458 -74.8912 1.84543 234.338 -81.1052 -21.9174 234.523 43.8604 -10.1305 233.657 45.6047 -5.85466 277.101 24.7333 12.4802 109.98 18.1373 
153.817 171.971 172.281 143.701 150.762 143.357 167.169 175.696 83.4358 89.0473 -26.7405 223.824 25.4797 -42.1726 254.17 -73.6749 1.46472 237.001 -80.025 -22.2604 237.589 45.7649 -10.5286 236.475 47.454 -5.55138 279.33 26.0897 12.4606 110.948 17.6922 
154.212 171.709 172.349 143.499 151.019 143.727 167.439 176.504 83.6963 89.1248 -27.1657 226.522 25.8266 -40.8755 256.493 -72.991 1.7748 239.313 -78.582 -22.2554 240.157 47.4096 -10.6329 239.034 49.1325 -5.18863 281.638 27.3679 12.4829 111.276 16.9987 
154.619 171.815 171.814 143.335 151.428 144.079 167.551 176.876 83.7561 89.3022 -27.9128 229.307 26.6579 -40.4068 259.266 -71.7605 2.038 241.826 -77.0779 -22.5256 242.755 48.9399 -11.0037 241.518 50.8881 -4.82858 283.986 28.8667 12.3857 111.462 16.971 
154.678 172.315 170.04 142.5 151.61 143.957 167.538 176.619 83.5361 89.5901 -27.894 231.715 27.9017 -40.3729 261.795 -70.3595 2.72439 243.525 -75.1078 -22.6291 245.283 50.1817 -11.2537 243.716 52.4615 -4.49559 286.224 30.3019 12.1891 111.29 17.5937 
155.143 173.245 170.612 142.733 151.471 144.279 168.381 176.843 83.676 89.9833 -28.1502 234.005 29.4049 -40.9052 264.717 -69.4362 3.42971 245.843 -74.1334 -22.5688 246.738 51.472 -11.3612 245.241 53.9547 -4.22176 288.242 31.7765 12.1882 111.247 18.5122 
155.504 173.717 174.776 142.754 151.474 143.595 169.626 178.243 84.6195 91.1833 -27.9408 235.516 30.7539 -40.1322 266.369 -68.973 3.672 247.498 -73.13 -22.5837 247.519 52.6087 -11.4232 245.846 55.0678 -3.79213 289.952 32.9465 11.9719 110.749 18.0084 
155.04 173.665 174.641 143.423 151.441 143.448 169.971 178.198 83.7384 90.9155 -27.2951 237.254 31.6719 -39.94 267.851 -68.0822 3.75865 248.744 -71.9614 -21.6783 248.617 53.4609 -10.6505 246.454 55.7567 -3.53456 291.063 33.8879 12.0279 111.002 17.9842 
154.581 173.165 172.853 143.925 151.633 143.445 169.462 177.599 82.7495 90.505 -27.3952 239.091 32.565 -40.0368 269.412 -66.6979 3.98122 249.674 -70.0209 -20.8623 250.387 54.603 -9.87472 247.731 56.8132 -3.21104 292.258 34.889 12.0336 111.49 18.436 
155.099 173.035 171.818 144.518 152.128 143.814 169.147 177.251 82.5941 90.1809 -26.8385 240.275 33.6388 -40.0324 271.181 -65.5939 4.37722 251.641 -69.7051 -20.0218 251.644 55.6375 -8.9431 249.222 57.6545 -2.8804 293.686 35.8301 12.1938 111.997 18.621 
155.264 172.947 170.091 145.083 152.517 143.511 168.892 176.671 83.0029 90.3808 -25.4189 242.008 35.0255 -39.8938 274.024 -64.8384 5.12007 254.123 -69.0897 -19.6523 252.433 56.207 -8.50382 250.455 58.2752 -2.62211 295.482 36.8032 12.2179 111.629 19.0937 
155.381 173.11 170.828 144.874 152.642 143.388 168.833 176.918 83.2143 90.3099 -25.1568 243.619 35.9802 -39.1589 275.872 -64.1127 5.92285 255.738 -68.4109 -19.5201 253.365 56.688 -8.33153 251.782 58.8817 -2.29539 296.978 37.6591 12.2503 111.278 19.164 
155.24 173.187 171.819 144.587 152.798 143.352 168.707 177.25 83.0991 90.2052 -25.4325 245.545 36.8385 -38.4628 277.386 -63.2014 6.25609 257.461 -67.6137 -19.5558 255.286 57.4955 -8.32333 253.721 59.7498 -1.94255 298.639 38.5344 12.2568 111.492 18.9021 
155.592 173.275 171.665 144.284 152.456 143.776 168.593 177.198 83.414 90.5015 -25.3291 247.295 37.8668 -38.3432 278.555 -62.3452 6.44069 258.686 -66.5428 -19.4347 257.118 58.5949 -8.17381 255.674 60.8391 -1.63942 300.584 39.4657 12.2794 111.189 18.8814 
155.503 173.213 171.668 144.081 152.465 144.348 168.587 177.024 83.79 90.9994 -25.4343 249.052 39.0084 -37.9261 279.258 -61.2036 6.63725 259.354 -65.1292 -19.0889 258.828 59.7915 -7.8755 257.526 62.013 -1.28968 302.52 40.4224 12.3223 110.627 18.6687 
155.614 173.717 172.324 144.285 152.537 144.732 169.199 177.03 84.3098 91.5776 -24.9577 250.417 40.1113 -37.5603 280.118 -60.6463 7.09449 259.957 -64.2568 -18.7742 260.101 60.9475 -7.5904 258.88 63.0601 -1.076 304.198 41.2844 12.3339 110.248 18.6028 
155.416 173.868 172.323 145.032 153.079 144.789 169.36 176.781 84.3847 91.8417 -24.5396 252.058 40.9435 -37.3889 281.671 -60.0021 7.31718 261.145 -63.5404 -18.5467 261.79 61.8418 -7.39587 260.431 63.8531 -0.861253 305.831 42.002 12.3394 110.263 18.645 
155.184 173.935 171.951 145.369 153.362 144.733 169.108 176.571 84.4059 92.0896 -24.0275 253.476 41.6841 -37.629 283.059 -59.3536 7.20437 262.235 -62.9081 -18.6083 263.195 62.373 -7.51723 261.665 64.4274 -0.742217 307.209 42.5851 12.2752 110.029 18.7938 
154.872 174.12 171.629 145.252 153.421 144.712 169.13 176.316 84.3328 92.2209 -24.038 255.027 42.3192 -37.7836 284.372 -58.7048 7.17315 262.901 -62.1406 -18.5473 264.214 62.6995 -7.48698 262.697 64.8896 -0.667904 308.412 43.1469 12.2141 109.498 19.0105 
154.908 174.145 171.359 145.455 153.631 144.894 168.907 175.98 84.3046 92.2767 -24.1685 256.383 42.7481 -38.1046 285.644 -58.25 7.09449 263.586 -61.6107 -18.6187 265.147 62.8924 -7.57628 263.717 65.2288 -0.626183 309.561 43.5566 12.1674 108.962 19.302 
154.594 174.099 170.749 146.319 154.11 144.55 168.756 175.727 83.7271 91.8688 -24.3142 257.934 42.9193 -38.1861 287.138 -57.6807 6.55335 265.063 -61.2504 -18.7493 267.033 63.3006 -7.64549 265.243 65.57 -0.531225 310.686 43.9051 12.1266 109.489 19.0956 
154.477 174.181 170.317 146.358 153.978 144.231 168.509 175.621 83.3712 91.5106 -24.3293 259.435 43.3802 -38.5734 288.589 -57.0051 5.96602 266.385 -60.7846 -18.914 268.511 63.5948 -7.78365 266.55 65.8793 -0.438028 311.805 44.2661 12.105 109.589 19.117 
154.331 174.156 169.725 146.56 154.042 143.906 168.406 175.473 82.8431 91.0862 -24.1799 261.001 43.8526 -38.9055 290.201 -56.5434 5.71018 267.789 -60.2677 -18.9171 270.001 63.8237 -7.79206 267.861 66.1666 -0.351813 312.987 44.6515 12.0853 109.714 19.3041 
154.472 173.973 169.075 146.913 154.194 143.691 168.167 175.495 82.6367 90.7128 -24.3129 262.409 44.3465 -39.4169 291.977 -56.0661 5.50151 269.608 -59.8186 -19.1023 271.622 64.2413 -7.8505 269.362 66.5743 -0.231738 314.23 45.0735 12.0215 110.1 19.6013 
154.486 173.808 168.704 147.685 154.722 143.472 167.889 175.418 82.5102 90.4798 -24.334 263.947 44.5612 -39.7699 294.035 -55.7077 5.64017 271.764 -59.6294 -19.2756 273.318 64.5763 -7.99423 271.04 66.9259 -0.0665231 315.559 45.4651 12.0369 110.604 19.9866 
154.227 173.852 168.536 148.155 155.307 143.399 167.771 175.233 82.707 90.6137 -24.7358 265.67 44.5856 -39.62 295.675 -55.3951 6.11268 273.503 -59.4637 -19.6358 274.731 64.7199 -8.2498 272.528 67.2314 0.100852 316.92 45.8428 11.914 110.643 20.2083 
154.167 173.931 168.766 148.327 155.66 143.169 167.675 175.283 82.8655 90.7479 -24.9626 267.139 44.8331 -39.2374 296.972 -55.02 6.51339 275.106 -59.1136 -20.0365 276.248 65.0365 -8.59256 273.976 67.6328 0.255476 318.184 46.2875 11.8294 110.8 20.1958 
154.213 174.064 169.355 147.954 155.881 142.735 168.248 175.549 82.9764 90.8253 -25.1843 268.412 45.2773 -38.4639 297.81 -54.8894 7.02051 276.518 -58.7876 -20.4033 277.881 65.5181 -8.92295 275.462 68.1446 0.38303 319.384 46.6993 11.7742 111.263 19.8931 
154.577 174.012 169.894 147.12 155.798 142.797 168.602 175.671 83.2036 90.8691 -25.8842 269.454 45.7185 -38.1694 298.606 -54.5783 7.20237 277.486 -58.2177 -20.6437 279.317 66.1191 -9.13947 276.937 68.7466 0.477105 320.587 47.1327 11.7945 111.39 19.7765 
154.959 173.662 169.963 146.642 155.732 143.047 168.757 175.788 83.3667 91.0385 -26.3412 270.475 46.0721 -37.7823 299.92 -54.326 7.69884 278.803 -57.6659 -20.7279 280.532 66.5699 -9.32633 278.24 69.2514 0.60408 321.8 47.5507 11.8718 111.556 19.8623 
154.974 173.451 169.726 146.281 155.747 143.11 168.689 175.466 83.0803 90.9711 -27.1597 272.23 46.1308 -37.4853 301.445 -53.7261 7.86854 280.272 -56.6145 -20.7225 282.335 67.0658 -9.46902 279.941 69.7559 0.751508 323.232 48.0784 11.9951 111.726 19.8791 
154.978 173.345 169.496 146.047 155.528 143.253 168.627 175.13 82.8894 90.9072 -27.6413 273.973 46.2032 -37.1587 302.915 -53.1535 7.98054 281.68 -55.5988 -20.596 284.043 67.6087 -9.46733 281.549 70.2748 0.938927 324.707 48.6203 12.0926 111.753 19.8139 
154.267 172.265 168.216 146.457 154.567 143.667 170.415 174.117 83.7594 91.1781 -28.4159 276.758 45.6421 -35.8387 303.889 -52.6726 9.9687 281.977 -54.0635 -20.451 284.298 67.853 -8.80577 281.908 70.2413 1.20568 325.897 49.2659 11.9229 111.178 20.2813 
152.909 172.278 168.155 147.381 152.939 143.359 171.708 173.444 84.7794 91.1197 -28.5745 279.376 45.5545 -35.1448 305.649 -52.3609 11.5491 282.612 -53.1092 -20.1983 284.688 68.2458 -7.96281 282.648 70.2546 1.54601 327.255 49.8247 11.8557 110.644 21.0095 
151.345 172.561 165.862 146.358 151.516 143.202 172.573 173.225 85.2196 91.1913 -28.9837 281.701 45.5426 -35.0129 306.781 -51.7591 13.4293 283.587 -52.6229 -19.7484 285.316 68.5951 -7.27171 283.308 70.4733 1.90102 328.48 50.4029 11.7713 110.723 22.0778 
150.487 172.845 164.988 146.735 150.682 143.049 172.856 173.065 85.6766 91.3981 -29.1952 283.468 45.9073 -35.2384 307.691 -51.1413 14.368 284.052 -51.7856 -19.3195 285.914 69.152 -6.71268 283.996 70.8543 2.283 329.604 50.9176 11.78 110.386 22.8999 
148.904 172.729 167.218 144.647 149.592 142.195 173.694 171.265 85.6722 91.4532 -28.8019 285.164 46.6287 -34.8884 309.315 -50.8585 15.4226 285.428 -52.1326 -18.9465 286.811 69.4135 -6.41364 284.793 71.3036 2.71527 330.766 51.4738 11.6975 110.52 23.2845 
150.092 172.246 166.527 139.287 150.909 140.923 173.258 170.91 83.3612 91.8672 -29.0101 286.563 47.6606 -34.2931 309.741 -49.4316 13.8544 286.892 -51.7181 -18.1832 289.868 69.9189 -6.81487 286.824 72.8047 3.18327 331.688 52.1347 11.6405 111.484 21.8897 
148.796 173.579 166.593 142.509 150.306 139.971 174.755 171.349 84.5106 91.3776 -29.4744 288.999 47.7537 -32.904 312.5 -49.6685 14.0755 287.361 -51.134 -19.3339 290.92 70.3325 -6.9534 288.631 73.2839 3.74856 332.482 52.8256 11.3095 110.983 21.6396 
150.965 173.322 166.754 140.791 151.519 139.583 173.683 171.681 83.9947 91.5437 -28.564 288.678 49.3473 -32.2842 312.613 -48.1236 12.3903 287.972 -50.2118 -18.9576 292.337 71.2804 -7.07522 289.948 74.5689 4.30321 333.019 53.495 11.4443 110.866 20.2741 
148.385 173.157 167.537 144.291 150.253 138.821 173.775 172.225 84.906 91.0856 -27.7882 289.985 49.9645 -31.5683 314.501 -47.8886 12.9065 288.473 -49.47 -19.2856 292.631 71.6379 -6.78437 290.742 74.586 5.00407 333.403 54.0603 11.558 110.32 20.6031 
