153.074 172.721 178.615 150.254 149.455 138.915 165.235 175.355 81.4838 83.6832 132.147 333.876 46.8729 113.531 337.418 -49.1192 161.19 328.789 -49.7069 138.216 355.609 63.7521 152.471 359.484 62.7537 138.554 393.028 37.1842 11.8232 104.884 18.4952 
154.656 175.191 179.206 149.432 148.829 139.058 167.572 175.95 81.286 83.2054 132.992 333.829 46.7147 115.366 336.909 -49.2398 163.356 328.318 -49.6448 140.656 356.333 64.3894 154.956 360.367 62.9458 140.232 393.134 37.5027 12.0013 105.517 18.614 
155.644 176.998 180 149.103 148.518 139.626 168.685 179.221 80.8562 82.8729 133.549 333.846 46.7697 116.823 336.995 -48.6723 164.33 330.006 -49.1468 143.33 356.518 64.5782 157.336 360.723 62.6265 141.509 393.373 37.746 12.4223 106.159 18.3234 
155.559 177.391 180 149.083 148.209 139.325 168.482 179.972 80.837 82.9783 134.918 333.542 46.4383 118.19 337.47 -48.4446 166.249 331.549 -50.0052 145.167 356.154 64.2061 159.232 360.263 61.9873 142.786 393.248 37.785 12.6043 106.66 18.5832 
154.448 177.888 179.999 148.965 147.691 139.333 167.731 179.969 80.5145 82.5524 136.214 333.619 45.764 119.504 338.355 -48.2239 168.398 332.075 -49.0512 146.578 355.521 63.7189 160.669 359.89 61.5911 143.97 393.086 38.0673 12.5938 105.762 19.3794 
153.797 178.298 180 147.744 145.979 139.402 168.386 179.966 80.2794 82.1006 137.418 333.829 45.9312 121.094 337.544 -47.5295 169.319 330.489 -46.2677 148.025 355.713 64.0523 162.358 359.957 61.5059 144.786 393.052 38.3692 12.8508 104.139 19.3361 
152.673 179.395 179.999 148.067 145.399 138.442 168.686 179.966 80.2115 81.9812 138.707 333.799 46.1969 122.148 338.07 -47.589 170.435 331.355 -47.1009 148.808 355.078 63.7646 163.367 359.069 61.0935 145.597 392.752 38.3556 13.0457 104.512 19.273 
152.17 179.481 180 147.859 144.535 138.072 168.956 179.964 80.0317 81.7746 139.146 333.551 46.4499 122.559 337.623 -47.3534 170.418 330.031 -46.1989 149.348 354.359 63.6304 164.092 358.059 60.826 146.335 392.268 38.3179 13.2065 103.644 19.1981 
152.259 179.731 180 147.159 142.739 138.633 170.345 179.962 79.7447 81.3864 138.534 334.629 45.8241 123.967 337.867 -47.209 170.375 327.812 -44.2571 149.432 354.663 63.854 164.353 358.013 60.879 147.189 392.719 38.4659 13.5599 102.084 18.6724 
151.976 179.451 180 146.796 141.345 138.852 171.081 179.965 79.6463 81.1337 137.843 335.27 45.3225 124.323 338.218 -47.3386 169.277 325.809 -43.3992 149.509 354.768 63.885 164.551 357.822 60.5874 147.839 392.912 38.4147 13.96 100.782 18.2577 
151.675 179.341 180 146.608 139.898 138.893 171.033 179.961 79.4614 80.5532 139.207 335.66 45.7279 124.784 338.644 -46.9324 169.983 325.483 -42.4512 150.786 354.798 63.7097 165.808 358.158 59.8014 148.485 393.317 38.5899 14.5126 99.5698 18.7916 
151.336 178.838 180 146.229 139.533 138.422 171.433 179.955 79.4952 80.5563 140.935 335.931 46.9802 125.552 339.223 -46.5672 170.988 325.592 -41.6831 152.111 354.998 63.7301 167.136 358.521 59.3446 149.184 393.665 38.7613 14.7886 99.1246 19.3082 
149.528 177.741 180 146.011 139.978 137.752 171.6 179.953 79.8063 81.085 141.137 336.123 47.3496 126.23 339.695 -46.562 171.401 325.52 -41.4013 152.656 354.362 63.4886 167.549 358 59.3217 149.907 393.621 38.7731 14.6145 98.3624 19.3805 
148.869 177.625 180 145.598 139.383 137.673 171.319 179.951 79.8792 81.3732 141.483 335.995 48.3899 126.501 338.744 -45.581 171.976 325.044 -40.5721 153.9 354.094 63.5984 168.573 357.809 58.9903 150.548 393.602 38.9567 15.1218 97.6414 19.5097 
147.942 178.196 180 145.308 138.998 137.407 170.498 179.957 80.0703 81.3763 141.476 336.043 48.8424 126.374 337.704 -45.1597 171.766 324.675 -40.6192 154.52 354.455 63.9168 169.445 357.977 59.2503 151.321 393.709 38.8641 15.0366 97.7173 19.1321 
147.278 177.392 180 145.501 138.988 136.908 169.396 179.956 79.955 81.4114 142.283 336.422 49.8398 126.583 337.284 -43.8652 172.11 325.521 -40.3125 155.249 354.536 64.1096 170.178 358.06 59.3847 151.863 393.93 39.1533 15.1767 97.8095 18.8396 
147.16 178.027 180 145.59 138.822 136.435 168.561 179.953 79.8114 80.9768 143.884 335.939 50.8498 126.711 336.21 -42.9714 172.256 325.53 -40.0769 156.173 354.377 64.0997 171.076 358.134 58.8174 152.194 393.586 39.1814 15.6648 97.8616 18.7091 
147.244 179 180 145.921 138.124 136.119 167.922 179.955 79.8278 80.5039 144.864 335.524 50.6788 126.781 335.992 -43.1631 172.528 326.053 -40.6403 156.411 354.065 63.8523 171.842 357.824 58.2582 152.576 393.268 39.0922 15.8119 98.1477 18.7125 
147.369 179.874 179.999 145.889 139.789 136.167 168.308 179.959 79.9537 81.1334 144.814 336.209 50.3823 126.282 336.473 -43.6757 172.138 326.032 -40.8657 156.352 354.378 63.8118 171.847 357.93 58.9302 153.233 393.629 38.9678 14.9728 98.2219 18.8751 
146.463 178.633 179.999 145.851 139.504 136.121 168.82 179.962 79.3754 80.5178 144.956 337.328 49.5307 126.966 336.555 -43.9733 173.522 325.323 -40.3428 156.428 355.153 63.7968 172.23 358.444 59.3206 153.915 394.004 38.9922 14.6332 98.1296 19.3972 
144.711 177.795 179.998 146.193 140.926 135.688 168.704 179.965 79.3681 80.1946 146.397 336.684 49.215 128.13 336.461 -44.7928 174.137 325.361 -41.0792 156.681 354.398 63.6838 172.706 357.655 59.8218 154.975 393.12 38.8544 13.9968 98.7601 18.9955 
146.15 178.697 179.999 146.448 141.329 137.528 168.782 179.965 79.9734 81.0125 144.675 334.477 49.2107 127.425 334.73 -44.427 174.375 323.313 -42.0953 157.034 352.297 63.6889 172.797 355.788 59.5995 155.041 391.662 38.7449 14.1322 98.6939 19.367 
146.496 179.407 180 146.882 140.466 138.139 168.896 179.967 80.4513 81.6841 144.546 333.394 48.6578 127.216 333.969 -44.2761 175.328 324.059 -43.4872 157.764 350.784 63.4415 173.655 354.504 59.1122 155.363 390.92 38.9846 14.2713 98.9381 19.7007 
146.859 179.95 180 147.617 141.016 138.253 168.344 179.968 80.13 80.695 145.215 332.871 47.8356 127.094 333.381 -43.9789 176.421 324.293 -43.9409 157.985 350.25 63.3462 174.273 354.226 59.4401 155.806 390.241 39.1233 13.6003 99.5258 20.3517 
146.937 179.344 180 147.536 139.462 137.939 168.285 179.965 80.0167 80.2574 146.193 333.216 47.9425 128.21 333.549 -43.4123 177.198 324.891 -43.6742 158.909 350.504 63.7056 175.315 354.344 59.2851 156.618 390.405 39.4858 14.1944 99.7918 20.0599 
146.81 179.839 179.998 147.536 140.566 137.02 167.528 179.965 79.631 80.3397 147.811 333.482 47.8 129.636 333.735 -43.2549 177.541 325.161 -43.2595 159.301 350.923 63.8532 175.343 354.503 60.0669 157.384 390.32 39.5824 13.8968 100.09 19.3836 
146.437 179.822 180 147.572 141.147 136.426 167.117 179.966 79.7497 80.41 148.821 333.082 47.946 130.272 333.158 -43.3286 177.888 324.564 -43.055 159.212 351.016 64.2164 175.395 354.31 60.7496 158.073 389.801 39.5528 13.5345 100.703 19.2072 
147.013 179.795 179.998 146.414 141.851 135.723 167.891 179.969 80.7076 81.4485 147.572 332.577 49.4288 131.575 332.136 -43.0353 177.541 323.001 -42.231 159.691 350.601 65.2137 175.753 354.067 62.1121 158.825 389.465 39.7602 12.9366 100.342 18.1357 
145.355 179.945 180 145.921 142.17 134.862 167.906 179.968 81.4495 82.1851 146.7 332.624 50.2816 132.744 331.138 -42.8147 177.664 322.105 -41.7338 160.143 349.831 65.6725 176.054 353.446 62.6801 159.53 389.179 39.8927 12.8042 99.7761 17.3684 
144.473 179.164 179.999 145.77 142.725 134.49 167.697 179.975 81.4986 82.0516 146.728 332.396 49.4118 133.814 330.565 -43.3909 177.7 320.576 -42.1436 160.442 349.032 65.4647 176.353 352.972 63.1602 160.319 388.492 39.8281 12.0888 99.0359 16.6953 
142.589 179.013 180 145.416 143.509 135.077 168.021 179.976 82.0529 82.6497 146.019 332.315 48.8867 134.195 329.549 -43.3877 178.23 318.546 -41.3134 160.633 348.097 65.6726 176.602 352.419 63.8379 160.923 387.931 39.9639 11.3933 98.0298 16.97 
142.894 178.789 180 145.437 144.577 136.123 168.346 179.973 82.507 83.6126 144.316 332.809 49.3859 134.394 329.305 -42.9097 178.746 318.384 -40.9817 161.027 348.211 66.0407 176.987 352.551 64.5153 161.899 388.304 40.0825 10.927 98.2745 17.0964 
142.468 178.863 179.999 145.219 144.961 136.098 167.562 179.973 82.9035 84.1064 142.996 332.834 49.3443 135.012 329.282 -42.5003 179.477 318.577 -41.0597 161.347 347.904 66.3329 177.334 352.118 65.3053 162.932 388.031 40.1179 10.4655 98.7562 17.1233 
141.746 178.792 180 144.886 144.854 137.027 168.23 179.974 83.4136 84.7354 142.417 332.379 49.7135 136.1 328.323 -41.8878 180.22 318.112 -40.6846 162.501 348.982 67.6252 178.725 352.837 66.1048 164.078 387.887 40.3549 10.5579 100.236 16.8225 
144.346 178.806 180 144.028 145.311 138.3 168.795 179.976 84.3237 85.641 140.857 331.707 50.6924 135.906 326.114 -40.8256 179.626 316.475 -40.3403 163.159 348.813 68.6358 179.518 352.694 67.0056 164.932 387.47 40.3153 10.2063 100.691 16.3709 
147.353 177.975 180 143.417 145.325 139.253 168.815 179.982 85.2248 86.5346 138.854 330.648 51.5982 135.806 323.458 -39.7345 178.692 312.696 -39.8592 163.909 348.58 69.9487 180.086 352.419 67.836 165.459 386.701 40.4276 10.4424 100.351 15.7272 
146.752 177.548 180 143.082 146.037 140.073 169.024 179.985 85.9656 87.5371 136.916 330.338 52.4824 135.796 321.747 -38.9233 178.26 310.029 -39.0407 164.712 348.346 71.0022 180.571 352.049 68.623 166.274 386.046 40.5585 10.6708 100.14 15.5364 
143.52 177.443 180 142.707 147.055 139.995 169.612 179.988 86.7332 88.1788 136.796 329.711 53.9714 135.572 319.624 -38.0711 177.59 307.557 -38.5376 165.461 347.651 71.9268 181.095 351.553 69.1043 166.726 385.109 40.7379 10.868 100.002 15.2322 
137.662 176.966 180 142.704 147.69 138.124 169.172 179.99 86.7124 88.0809 137.87 330.432 54.3923 135.674 319 -38.1312 176.383 306.256 -38.2424 165.358 347.069 71.9909 180.961 350.749 69.2392 167.238 384.408 40.7723 10.96 99.4663 14.5305 
135.155 177.151 180 142.9 148.279 138.415 169.343 179.991 86.6789 88.2259 138.427 329.787 54.7499 136.393 318.117 -37.9839 177 305.363 -38.2647 165.892 346.572 72.1481 181.333 350.266 69.206 167.8 383.628 40.9679 11.2373 99.717 14.453 
133.387 176.923 180 143.479 149.181 137.151 168.972 179.988 86.293 88.2659 139.882 329.878 55.4087 136.564 318.705 -38.3795 177.753 307.279 -39.9235 166.325 345.861 71.8519 181.735 349.318 69.2602 168.432 383.35 41.2201 11.1814 100.7 14.4856 
132.764 176.766 180 143.93 149.825 136.156 168.428 179.985 85.6396 88.4421 141.847 330.359 54.1874 136.906 319.816 -39.0493 179.173 309.706 -41.5508 166.804 345.011 70.8893 182.193 348.293 69.033 169.167 383.296 41.3149 10.8758 101.189 15.0195 
134.247 176.925 180 144.27 149.063 137.177 168.589 179.983 85.3885 88.3655 144.416 329.83 53.2365 138.037 319.504 -39.1751 181.088 310.35 -41.4812 168.165 344.683 70.8945 183.287 348.01 68.7584 169.867 383.119 41.4048 11.3408 101.568 15.4862 
134.44 176.843 179.999 144.558 148.374 136.426 168.043 179.98 84.842 88.0488 146.531 329.304 53.4209 139.588 320.017 -39.3271 182.655 311.888 -41.7001 169.663 344.597 70.6538 184.809 347.551 68.341 170.804 382.874 41.5169 11.6793 102.192 15.5157 
144.981 176.454 180 144.327 148.631 138.939 168.042 179.98 85.2379 88.4046 144.066 328.382 52.1971 140.296 319.656 -39.0833 183.679 311.599 -41.6117 170.774 344.695 71.1407 185.999 347.638 68.7229 171.886 382.814 41.5491 11.5647 102.714 15.7209 
142.091 176.557 179.999 144.116 149.638 136.888 168.058 179.979 85.5373 89.1669 145.451 328.809 53.2476 141.389 319.599 -39.3632 185.095 311.524 -41.3121 171.448 344.214 71.3528 186.535 347.077 69.2465 172.684 382.618 41.7198 11.4474 102.596 15.959 
142.093 176.725 180 144.121 149.489 136.858 168.17 179.98 85.0384 89.0758 145.965 328.71 53.1666 142.542 318.719 -39.0188 185.689 310.31 -40.9286 172.911 344.175 71.5172 187.661 347.032 69.3819 173.532 382.18 41.8177 11.6364 102.496 15.5668 
143.757 176.628 179.999 144.288 149.982 137.269 168.05 179.981 85.2337 89.411 145.361 328.102 53.6075 143.06 317.907 -38.739 186.754 309.802 -41.156 173.777 343.793 71.814 188.232 346.558 69.5869 174.335 381.848 41.8361 11.8655 102.836 15.8206 
143.558 176.788 180 144.448 150.728 136.173 167.499 179.979 85.2713 90.0463 146.91 328.311 53.5476 143.883 318.107 -38.6581 188.303 310.096 -41.0224 174.539 342.856 71.8028 188.948 345.588 70.2078 175.186 381.685 42.1135 11.4657 102.399 16.3286 
141.473 177.196 177.087 145.02 151.383 136.712 166.906 179.023 85.2275 90.0223 147.261 327.206 53.3279 144.9 317.754 -38.7512 189.846 310.141 -41.0685 175.222 341.738 71.6145 189.598 344.497 70.2472 175.783 380.875 42.198 11.3903 102.246 16.7168 
141.339 177.197 176.337 145.309 151.87 136.648 167.04 178.312 85.1903 89.7879 147.684 327.194 53.6918 145.929 318.195 -39.0234 191.034 310.429 -41.5154 175.873 341.696 71.6296 190.426 344.289 70.1394 176.807 380.862 42.2728 11.5074 102.649 16.8092 
140.324 177.227 176.527 145.985 152.158 135.832 165.706 177.548 84.9195 89.3708 149.21 326.013 53.7677 147.082 318.117 -39.0463 192.669 311.195 -42.0766 177.283 341.122 71.4842 191.848 343.902 70.065 177.516 380.257 42.3713 11.4471 102.997 17.1552 
142.15 176.939 176.094 146.484 152.804 136.264 165.346 177.192 85.213 89.7427 148.147 324.854 53.0958 148.092 317.894 -39.5413 194.053 311.479 -43.1195 178.22 340.258 71.5851 192.807 343.127 70.2602 178.297 379.517 42.3727 11.2658 103.802 17.3493 
139.84 176.578 175.683 146.223 151.167 137.158 166.186 177.955 86.0141 90.3298 147.577 325.573 53.6942 149.236 317.61 -39.2048 195.687 311.932 -43.7597 179.486 341.111 72.4746 194.002 344.106 70.7264 179.587 380.024 42.4281 11.4182 105.217 17.5518 
135.865 176.54 175.753 146.752 151.821 135.818 165.176 176.883 86.0917 90.7201 150.405 325.32 53.8733 150.464 317.866 -39.2139 197.463 312.632 -44.254 181.306 340.701 72.5505 195.725 343.995 71.0937 180.687 379.798 42.8016 11.1767 105.05 17.9505 
136.75 176.835 175.627 146.962 153.055 135.947 165.319 175.84 85.7993 90.7658 149.771 324.522 53.4921 151.08 316.655 -38.9378 197.267 311.296 -44.0313 182.076 340.161 72.3491 196.355 343.232 71.1079 181.643 378.966 42.6453 11.1351 104.678 17.4322 
135.321 176.21 175.02 147.117 154.618 138.2 164.396 174.608 85.8674 91.7898 147.736 323.518 55.6149 151.824 316.251 -38.0935 197.215 311.223 -43.7281 183.875 339.256 72.3275 197.576 342.391 71.2154 182.726 378.719 42.9564 11.2848 103.902 16.9195 
136.51 176.282 174.44 146.992 155.232 140.276 164.096 173.949 85.7296 91.9905 147.27 323.224 57.0691 152.823 316.012 -37.2956 197.705 311.295 -43.181 185.887 338.88 72.373 199.425 342.03 71.188 183.991 378.698 43.1374 11.3585 103.535 16.6386 
138.471 176.146 173.692 146.884 155.865 142.128 162.802 172.973 84.8134 91.7544 147.237 322.287 58.2569 154.072 315.684 -36.431 198.653 311.841 -42.6806 188.087 338.129 71.5695 201.374 341.604 70.6444 184.91 378.394 43.3106 11.2618 102.845 16.5109 
144.16 176.296 173.898 146.602 155.341 142.256 162.606 172.391 83.7679 90.396 149.514 321.386 58.3634 154.851 316.098 -36.3006 199.192 311.935 -42.0696 189.209 338.004 71.1218 202.779 341.337 70.0815 185.941 378.125 43.4697 11.3085 102.615 16.422 
146.779 176.365 173.912 145.923 153.822 140.765 162.725 172.555 83.3235 89.3828 153.618 320.912 57.3829 155.504 316.572 -36.6962 200.066 312.056 -41.9905 189.735 336.911 70.5166 203.636 340.393 69.624 186.721 377.633 43.515 11.021 102.186 16.6143 
146.843 176.534 173.704 145.323 151.403 138.777 162.783 173.354 82.9538 88.0388 158.945 320.934 56.8097 157.356 317.367 -37.3594 202.131 312.976 -42.2679 190.95 336.21 69.8697 205.272 339.975 68.8333 187.751 377.575 43.6353 10.9593 101.747 16.7372 
141.253 176.671 174.104 144.784 149.498 135.459 163.67 174.441 83.2628 86.9333 166.079 321.489 58.3833 159.52 317.168 -37.2894 204.36 314.033 -42.48 193.457 336.155 69.9112 208.094 340.97 68.3122 188.8 377.824 43.8393 10.8307 101.709 16.7227 
135.85 177.183 174.262 145.063 147.462 131.429 164.045 174.522 83.3154 85.8899 173.223 321.433 59.5861 161.947 317.617 -38.3132 206.862 314.708 -42.533 195.82 336.056 69.7267 210.458 341.323 67.4922 189.727 377.428 43.7229 11.2336 101.6 16.7799 
135.553 176.941 174.175 145.187 146.84 128.882 163.732 175.269 82.9808 84.568 177.994 320.513 60.3744 164.386 316.97 -38.5591 209.435 315.255 -42.5925 197.732 335.624 69.1181 212.449 341.643 66.5853 190.246 376.537 43.5729 11.2233 101.636 16.9112 
134.875 176.497 172.192 145.367 145.741 127.317 162.865 177.391 82.289 83.3723 180.626 320.443 59.6609 165.581 317.867 -39.5067 211.663 316.298 -43.4227 198.336 335.003 67.9169 213.176 341.209 65.7145 191.015 375.961 43.2673 11.0127 101.751 17.666 
136.597 177.24 180 144.95 144.086 127.058 163.414 179.96 81.9926 82.749 182.698 319.795 59.1431 166.214 317.778 -40.1174 213.407 316.07 -44.0315 198.835 334.731 67.5927 214.01 340.682 65.3549 192.084 375.325 42.9097 10.9588 102.537 18.4509 
139.861 177.708 180 143.852 142.398 128.002 165.105 179.966 81.977 82.6002 184.884 319.973 58.8024 165.84 317.445 -39.8929 213.206 313.902 -43.2755 199.546 334.625 67.3984 214.989 340.646 65.4273 193.272 375.541 42.7265 10.4741 101.015 18.606 
143.898 178.354 179.999 143.344 141.228 128.45 165.744 179.976 81.8687 82.3044 187.114 320.039 58.1777 166.3 317.167 -39.8561 213.154 313.371 -43.3606 200.757 335.153 67.3654 216.549 341.014 65.268 194.576 375.754 42.5075 10.3398 100.863 18.2917 
147.338 178.508 180 143.264 140.658 130.713 165.986 179.975 82.0521 82.1007 185.75 319.167 57.2217 167.029 316.974 -39.5163 213.356 313.123 -43.4382 201.53 335.84 67.4908 217.718 341.595 65.1329 195.836 375.911 42.1697 10.2321 101.372 17.9954 
151.807 178.431 180 143.481 140.75 131.26 167.326 179.975 82.4767 81.9631 185.691 317.931 57.1458 168.418 316.671 -39.8521 214.876 312.762 -43.8096 202.604 335.829 67.8459 219.018 341.899 65.0829 196.759 375.576 42.0589 10.1787 102.144 18.0404 
154.77 178.174 180 143.427 140.578 130.465 167.243 179.975 82.2322 81.638 186.397 317.707 56.9105 169.521 316.89 -40.3261 216.194 313.192 -44.2124 203.674 335.777 67.4085 220.231 341.879 64.581 197.711 375.394 41.925 10.1831 102.333 18.1966 
157.921 177.425 180 143.407 140.37 130.318 167.696 179.975 82.8258 81.6785 186.213 316.976 56.4242 170.273 317.127 -40.8077 217.078 313.237 -44.5118 204.048 335.307 67.5627 220.829 341.472 64.2965 198.411 375.02 41.8589 10.3431 102.782 18.278 
160.407 176.676 180 142.957 140.541 130.869 168.747 179.976 83.6527 82.1264 186.229 316.577 56.3473 170.768 316.785 -41.0048 217.162 311.679 -43.7861 204.611 334.714 67.9108 221.443 341.252 64.5208 199.225 374.861 41.8974 10.1391 101.815 18.0738 
159.973 176.352 180 142.022 139.993 131.192 170.285 179.98 84.1703 82.2218 187.806 317.169 56.5707 171.696 316.103 -40.4857 215.01 309.718 -44.0006 206.032 334.764 68.3542 222.89 341.905 64.5327 200.013 375.034 42.1477 10.0502 100.659 15.954 
157.082 176.31 180 140.972 140.159 130.715 171.4 179.983 84.4321 82.7342 190.749 318.47 56.3404 172.352 316.068 -40.5342 213.765 308.818 -43.8098 207.472 334.645 68.3179 224.065 342.194 64.5935 200.731 375.304 42.3791 9.8583 99.2888 14.844 
155.021 176.348 180 140.36 139.667 129.245 171.852 179.984 84.1831 82.5772 194.477 319.788 55.8928 173.217 316.497 -41.0842 212.723 308.542 -43.8884 208.591 334.816 67.7091 224.93 342.501 64.1603 201.508 375.543 42.2099 9.82856 98.1513 13.7967 
155.489 176.447 180 139.995 139.613 128.966 172.119 179.985 84.0682 82.3794 195.817 320.489 55.2197 174.101 316.808 -41.5032 212.267 307.995 -43.4441 209.287 335.306 67.4569 225.534 343.06 63.9479 202.266 375.89 42.0592 9.86451 97.2127 13.2496 
154.035 176.585 180 139.863 139.4 128.482 171.975 179.983 83.5872 81.8004 196.082 321.007 54.0137 175.208 317.375 -42.2142 212.007 307.675 -43.1455 209.662 335.789 66.9596 225.9 343.342 63.5116 203 376.011 41.7879 10.0417 96.4872 12.7659 
154.149 177.221 180 139.91 138.619 128.102 172.478 179.984 82.9704 80.8227 196.648 321.414 52.9046 176.987 317.918 -42.7818 211.926 305.575 -41.1087 210.384 337.008 66.7068 226.73 344.212 62.8231 204.202 376.293 41.4026 10.6078 94.7758 13.1512 
151.92 178.175 180 140.282 138.399 128.125 173.008 179.984 82.2971 79.9863 195.881 321.384 52.0977 178.607 317.988 -42.8544 212.278 302.587 -38.1281 210.796 338.155 66.8421 227.201 345.008 62.5724 204.841 376.213 41.1811 11.1206 93.0104 14.7336 
150.534 177.983 180 141.182 138.751 129.28 173.351 179.988 81.9607 79.5178 194.566 321.351 51.5964 179.189 318.699 -43.3673 213.37 299.301 -35.5873 210.975 339.21 67.1627 227.606 345.57 62.6156 205.691 376.564 41.0787 11.423 91.3224 17.4493 
147.241 177.296 180 141.98 139.269 130.479 173.274 179.99 82.0178 79.6754 193.57 321.535 52.0022 178.625 318.904 -43.359 214.35 296.812 -33.5962 210.972 339.926 67.545 227.826 345.769 62.9613 206.535 376.97 40.9207 11.4549 90.2145 19.5073 
144.165 176.705 180 142.704 139.171 130.937 173.014 179.994 82.4405 79.8511 194.091 321.443 52.815 178.651 319.44 -43.0958 216.938 296.671 -33.5304 212.056 340.282 67.9796 228.955 346.164 62.8961 207.31 377.334 41.1287 11.7652 90.4845 20.7542 
145.861 176.655 180 142.82 138.909 131.139 172.055 179.991 83.1704 80.2942 194.434 321.24 52.6029 179.21 319.446 -42.8606 220.672 298.569 -35.1586 212.705 340.01 68.4747 229.512 345.903 63.102 208.003 377.448 41.3259 12.1664 92.3534 20.7241 
147.435 176.688 180 142.723 139.156 130.674 171.948 179.991 83.0086 80.4772 195.624 321.297 52.373 179.255 319.144 -42.9421 221.273 298.131 -35.0054 213.186 339.816 68.4775 229.922 345.491 63.3106 208.561 377.423 41.3746 12.2617 91.9681 20.9275 
146.783 177.384 180 142.686 138.902 130.216 172.793 179.993 83.4018 80.9877 197.879 321.473 52.4264 180.783 319.728 -43.577 221.996 297.087 -33.7779 214.539 339.751 68.9312 230.782 345.574 63.3864 209.197 377.513 41.7082 12.9339 90.5666 21.9389 
148.315 177.97 180 142.346 138.25 129.286 173.999 179.996 83.895 81.6658 201.138 321.961 52.553 182.282 320.271 -44.0071 223.003 294.921 -32.4198 216.098 340.129 69.5836 232.093 345.971 63.7192 210.061 377.777 41.9583 13.312 89.122 23.443 
152.358 178.999 180 142.122 137.086 128.298 175.29 179.995 83.9844 81.7439 204.625 322.44 52.7617 184.81 321.363 -44.622 225.091 292.731 -30.8123 217.733 340.592 69.8314 233.471 346.61 63.6995 211.071 378.08 42.0868 13.7305 87.4678 25.499 
157.965 178.971 180 142.32 137.137 127.506 176.623 179.995 84.267 81.56 208.331 322.766 53.495 187.125 322.092 -45.0597 227.034 290.216 -27.9753 219.096 340.569 70.1259 234.593 347.142 63.8596 211.828 378.274 42.3412 13.7823 84.9282 27.9748 
