125.361 177.987 178.453 174.27 152.661 153.191 155.951 174.084 177.355 99.6006 -15.9062 412.697 38.3079 14.4786 431.59 -47.5093 5.7363 410.681 -53.6549 -13.6086 414.481 -42.8747 -45.7277 430.513 60.7984 -33.9984 465.179 36.3988 102.69 5.25296 13.8308 
114.599 177.149 178.42 174.27 155.217 157.72 161.376 175.796 164.11 101.987 -15.191 414.984 38.2237 18.5385 436.901 -48.7646 7.23076 412.921 -54.9287 -13.2784 412.425 -43.7126 -43.363 432.838 60.1148 -32.62 467.03 36.5081 100.166 6.53749 15.6848 
107.826 177.591 176.408 174.622 156.487 161.137 164.961 176.478 166.718 103.538 -14.4681 416.324 38.9334 21.1911 438.998 -48.3458 8.89949 413.12 -55.3943 -9.73635 414.508 -45.8427 -42.3985 434.959 59.9913 -31.3195 468.246 36.4804 100.949 6.15466 17.0515 
103.352 178.81 175.943 177.797 159.285 163.816 165.536 175.923 165.453 105.788 -13.9736 417.699 38.8692 24.0721 437.995 -45.3014 10.1517 414.67 -56.4674 -8.67317 416.372 -46.5736 -41.7834 434.97 59.7792 -30.1823 469.67 36.3122 100.022 6.32421 14.8486 
102.304 165.941 175.279 174.945 161.33 165.009 172.955 175.181 164.007 106.373 -11.5839 419.92 38.013 25.1918 440.255 -45.8481 11.7793 417.619 -57.6619 -8.82905 417.582 -47.6965 -39.1335 434.073 58.5626 -28.5981 471.335 35.7879 98.171 5.97139 14.0359 
115.461 168.25 173.693 178.647 161.263 171.547 172.695 174.559 166.108 104.32 1.88798 421.846 37.7235 30.0175 440.897 -46.4779 11.0626 422.334 -60.8374 2.81207 436.514 -48.8534 -37.9785 436.196 60.3515 -28.2736 471.8 35.1054 105.437 14.2851 9.97687 
119.176 177.728 175.607 177.332 162.877 169.823 160.277 176.483 162.465 105.216 3.47987 423.055 35.834 36.5001 444.927 -47.0077 13.5484 425.841 -61.2847 3.49363 433.062 -49.3044 -36.7169 438.025 60.6074 -26.9521 472.729 34.5574 104.877 11.5269 11.4384 
119.43 179.696 174.815 173.188 161.138 170.797 156.952 175.161 162.764 103.456 4.56694 425.456 34.6224 35.7243 451.682 -49.5373 13.4899 428.92 -61.3924 -0.364838 431.12 -50.495 -34.2111 439.141 58.8252 -25.9179 474.216 34.5936 104.092 8.40697 13.6563 
119.965 177.817 173.141 177.732 159.711 172.424 155.55 172.688 159.831 102.332 6.62361 427.518 33.4006 33.7263 454.547 -50.9854 13.7137 430.88 -61.5989 -1.91384 430.175 -51.3931 -31.6961 441.075 58.0779 -24.7472 475.274 34.7164 104.279 7.31309 13.9301 
119.61 179.003 172.479 177.273 158.128 173.503 154.607 172.496 159.165 100.33 8.95284 430.262 33.8939 33.3691 457.291 -51.8044 15.0015 431.399 -60.8015 -1.66271 429.021 -51.8388 -30.8527 441.98 58.0193 -23.8113 476.095 35.3268 104.602 6.63998 15.0338 
121.251 178.562 170.753 176.106 156.362 173.933 153.471 169.912 164.08 100.687 10.2147 431.748 33.0812 34.6082 457.73 -50.6211 16.4372 431.821 -59.1013 -0.729313 429.522 -52.1334 -29.8023 443.095 57.6213 -22.93 477.176 35.4921 103.968 5.75426 15.4681 
125.303 179.255 169.893 174.584 154.169 172.591 153.39 167.984 164.371 98.6609 12.0663 433.674 33.2492 36.4272 460.755 -50.0023 17.9786 433.772 -58.1538 -1.19906 428.739 -50.1564 -29.1694 443.435 56.933 -22.1663 479.119 35.7352 101.516 6.10092 15.8128 
126.77 173.553 169.27 177.815 154.69 172.469 154.843 167.505 170.217 101.5 12.5307 435.33 34.5816 39.9448 462.808 -49.0314 20.5572 435.434 -57.4479 2.49914 433.83 -48.6565 -29.4957 444.168 58.6971 -20.6038 482.222 36.0989 101.43 5.83329 15.9599 
124.606 171.396 171.037 174.27 153.39 172.095 156.648 168.073 163.012 101.642 11.5333 433.007 36.7289 41.6857 458.334 -48.5749 21.0615 433.942 -58.117 4.73258 438.026 -46.5264 -30.7723 445.222 58.5716 -20.1657 482.362 36.2573 101.954 7.20209 14.1147 
121.389 173.765 173.619 174.27 155.041 172.013 154.535 169.338 179.09 99.647 12.2528 432.925 37.9327 42.9071 456.532 -47.0056 21.4489 435.288 -58.2811 9.78823 444.716 -50.7978 -31.4336 446.354 58.434 -19.0333 482.209 36.2986 107.117 10.0215 12.3548 
118.644 175.431 176.479 174.27 155.341 173.415 152.034 170.892 178.312 96.9562 13.8974 434.317 39.0207 46.7185 457.852 -43.9882 23.4558 437.648 -57.9023 16.2871 450.24 -47.9519 -31.7323 446.132 58.3189 -18.3817 482.691 36.1938 107.11 14.9859 11.4067 
121.939 175.36 175.193 174.27 158.404 171.305 150.127 169.892 178.502 93.2651 18.0833 434.866 40.2947 50.6682 458.347 -41.8349 25.7782 438.439 -57.175 19.6045 449.964 -43.2594 -30.2075 444.091 58.8246 -17.2601 482.367 36.0287 105.321 16.9007 10.5303 
128.27 172.142 175.939 174.27 159.628 161.98 150.663 169.763 178.976 93.0581 20.9249 435.7 41.3606 53.8934 458.312 -40.3855 27.7832 438.171 -56.3972 16.0467 443.393 -38.7952 -26.8645 441.737 60.0466 -16.304 481.887 36.5339 101.692 12.6729 10.6043 
137.32 172.593 175.337 174.27 161.625 151.894 151.14 168.115 178.971 92.6449 20.7393 434.788 41.3536 54.2188 457.454 -40.678 28.504 435.419 -55.1622 16.8521 446.551 -41.9552 -24.3349 442.795 60.6548 -15.1571 481.74 36.915 104.094 13.5721 11.2015 
143.753 175.103 174.318 174.27 163.421 149.253 153.71 167.07 178.907 94.606 22.2378 434.102 41.7844 54.5 456.087 -41.6174 28.684 433.954 -54.8696 12.2863 438.887 -42.3287 -21.6081 441.501 61.7696 -14.2349 481.245 36.7201 102.827 7.87961 10.9792 
146.393 175.683 172.921 179.653 163.02 145.588 154.777 166.235 179.881 94.2162 23.561 432.872 43.0248 53.6264 455.002 -43.6467 29.8638 429.701 -53.3848 12.2148 432.742 -42.8553 -20.6129 440.081 63.0161 -13.0274 479.49 36.82 103.45 5.9543 11.9189 
151.143 178.571 172.985 174.27 161.771 143.699 156.054 168.752 178.571 96.6901 24.1543 433.535 42.6115 51.6832 451.945 -42.0323 29.1678 428.23 -52.2528 29.2066 448.77 -34.9742 -16.6791 437.198 63.9466 -12.7731 478.452 37.5 95.9159 25.4457 9.8645 
155.878 178.183 173.376 174.27 163.391 142.836 164.862 166.209 178.258 94.0705 27.2988 435.83 41.4055 49.4458 450.859 -43.6313 29.3411 429.729 -52.2469 30.1462 433.387 -25.4001 -11.9486 438.499 63.8465 -12.827 478.92 37.4488 83.9092 21.8667 6.05036 
161.873 176.91 168.953 174.27 164.936 140.112 169.045 166.553 100.089 93.0827 26.7761 435.718 39.5589 49.27 450.05 -43.2968 27.5369 429.284 -53.4449 22.1956 432.75 14.9999 -8.46371 440.533 63.8718 -13.0365 478.678 37.5516 54.5585 46.7115 6.3137 
164.58 177.18 164.755 176.616 163.739 138.508 173.639 169.02 69.8341 88.0896 25.1382 435.515 40.5574 49.105 453.825 -42.825 27.317 431.555 -53.5558 5.89274 442.129 50.2903 -9.6758 442.389 62.8762 -12.2658 479.682 37.4441 14.8488 91.4401 7.11467 
162.332 177.749 163.959 166.301 158.48 135.699 175.515 170.513 79.6621 84.5501 24.0032 435.277 43.466 52.519 455.496 -39.8866 27.1238 432.301 -53.707 5.45805 448.328 63.3311 -9.0815 445.218 62.5821 -11.5053 480.532 37.6554 10.2895 106.006 10.5294 
164.844 174.27 164.76 173.748 166.48 138.96 177.052 172.954 87.2341 84.126 23.8416 433.941 43.9319 46.5195 450.37 -43.5004 27.8241 431.229 -53.8933 3.20216 443.184 68.5017 -12.6848 446.616 65.997 -10.0422 480.826 38.0046 13.4483 107.342 3.63275 
159.962 174.27 165.808 155.788 167.35 139.565 176.045 175.229 74.2307 81.0009 24.7308 435.725 44.1835 49.6039 456.134 -45.1538 27.4138 433.789 -55.5782 1.95864 446.424 61.225 -12.9205 448.219 65.4378 -8.98954 481.696 38.4388 14.0335 107.686 7.00205 
157.563 174.27 166.711 148.056 166.553 139.078 175.741 172.753 73.6497 80.4876 25.9726 436.355 43.3865 52.9259 460.313 -45.8732 29.3447 437.376 -56.6951 6.00238 446.197 57.9506 -8.83504 447.573 63.3995 -7.54402 482.413 38.3191 14.4061 104.466 8.26407 
150.902 174.27 167.318 158.817 168.672 136.774 174.516 172.213 70.3587 78.9045 27.2027 436.144 46.1697 54.6834 459.385 -45.8829 31.2701 435.997 -56.5789 6.51806 445.801 56.9165 -8.30895 445.497 62.3312 -6.31453 480.943 38.3674 12.7184 105.159 8.37325 
147.811 179.635 169.878 149.796 162.717 139.96 173.802 171.742 71.7237 79.7702 31.6944 435.059 46.8584 55.9945 458.771 -46.0008 32.8666 435.913 -57.4471 10.711 444.839 57.3778 -4.12878 440.544 61.3941 -5.78323 478.683 39.1477 8.20255 104.386 8.19981 
150.865 179.404 169.981 157.558 157.818 142.346 171.831 172.073 73.9448 83.3074 35.2031 435.133 46.9935 58.2429 455.412 -42.9813 34.5281 433.345 -56.2924 14.6159 446.163 59.4023 -0.422864 435.658 59.9569 -4.98019 477.225 39.8115 6.52211 104.455 8.66705 
152.537 174.826 170.255 163.191 153.039 141.575 168.528 172.112 73.2596 84.3109 36.5427 435.379 46.4697 58.7976 456.033 -42.5484 36.1685 433.129 -55.3427 14.2973 445.425 62.3431 3.944 433.999 60.3232 -4.40802 476.187 40.5464 12.4095 106.446 8.62242 
153.978 171.71 168.238 174.27 157.629 144.534 165.528 171.736 70.1082 90.8779 36.7677 434.328 44.6934 58.7856 454.524 -42.0942 37.7662 431.314 -54.875 24.7042 431.582 35.4481 6.49028 428.514 58.8113 -2.39553 475.458 40.9752 21.1369 69.4305 7.31831 
149.543 171.178 168.654 174.27 162.364 135.275 165.654 175.98 74.1226 83.3865 34.1751 432.649 50.0044 58.0232 457.679 -43.192 38.9754 436.257 -53.9786 34.0989 436.025 26.2732 8.45651 433.081 59.8616 -1.06303 475.411 41.4472 35.3721 59.7981 5.71746 
152.677 171.92 168.377 174.27 157.07 134.727 166.073 176.103 136.607 82.7944 36.7052 432.976 50.4087 56.8125 458.443 -43.9769 40.1525 435.592 -51.4833 45.6055 432.077 8.32494 9.94571 433.946 62.9261 -0.795382 475 42.5953 55.5234 40.7094 4.76862 
153.365 172.323 167.657 174.27 152.586 135.609 167.008 175.866 178.218 81.8405 40.3452 433.879 49.3161 57.4449 458.945 -44.1195 42.3587 436.724 -50.9711 54.7717 416.016 9.61091 10.7591 434.966 63.5934 0.527066 474.379 42.5607 54.9168 42.9206 3.76925 
155.155 174.687 168.331 174.562 155.634 137.316 168.669 176.094 178.066 83.4968 41.0232 433.757 48.9698 59.1851 458.275 -42.437 44.232 434.788 -49.2797 74.7893 398.007 10.6984 10.3551 435.016 65.3668 1.66726 474.082 42.6229 53.7996 44.8088 4.6008 
151.445 173.278 163.837 174.956 158.483 139.756 167.789 172.559 178.187 84.1025 43.8109 434.637 49.2927 61.219 459.028 -42.1901 46.2928 435.241 -49.5385 82.5013 380.028 15.922 11.2586 435.993 66.7152 3.14794 474.731 42.4005 53.9616 47.5432 4.6945 
156.479 172.534 168.455 175.122 158.262 142.537 166.222 169.726 178.241 84.8439 46.8641 434.74 47.7634 62.5647 456.621 -43.6547 48.0958 432.813 -50.6772 85.6398 368.663 20.7404 14.0117 435.427 66.7677 4.79113 474.574 41.7337 52.3056 49.3418 4.29521 
155.72 171.601 168.041 175.184 156.112 143.982 165.99 166.653 178.262 83.2391 48.9337 435.203 46.8663 63.2571 456.113 -43.8361 49.3263 431.957 -49.0162 86.0983 364.185 20.1022 15.4175 435.31 65.247 6.72173 475.238 42.1478 50.8249 48.063 4.42049 
155.525 171.036 170.484 174.581 151.654 143.41 166.417 167.746 178.106 81.9466 51.7693 437.268 45.0899 64.3896 457.477 -44.8792 50.4886 432.006 -50.4646 70.1623 394.346 25.4478 18.2681 436.418 65.0569 7.38445 475.809 42.0874 47.2682 50.5009 4.91198 
153.554 171.013 170.612 90.0456 154.171 142.542 165.944 166.38 151.49 83.4484 51.344 435.302 45.3822 66.2308 456.466 -44.7925 53.0863 431.134 -50.8611 46.8609 413.604 38.6269 21.4381 434.777 63.1779 8.6576 475.798 41.457 35.6358 61.3782 4.47351 
152.714 173.007 171.095 142.908 154.296 141.346 167.487 166.048 88.7863 84.3739 50.9559 434.688 44.9432 67.8791 455.403 -46.519 56.3524 430.357 -50.9379 41.4809 435.172 59.3514 24.4989 435.402 62.9314 10.7703 476.104 40.7019 11.729 86.6704 3.94894 
154.029 173.137 169.566 148.286 159.314 143.78 167.154 165.302 82.185 83.0161 52.2377 434.697 42.797 70.6991 455.273 -47.0749 56.6344 430.079 -53.3104 39.4623 442.644 60.7481 23.9329 436.053 59.9068 12.9845 476.757 39.8826 8.32204 95.0966 4.77401 
153.397 171.353 174.344 142.52 164.558 142.589 166.555 167.038 66.3907 79.7377 52.3706 433.663 41.3099 72.4872 456.811 -49.3266 58.2675 432.264 -56.8719 36.9226 451.592 53.7289 26.3066 436.407 55.328 15.5081 476.237 38.4746 11.0532 101.245 4.44756 
153.334 175.629 173.355 93.4877 165.037 148.673 170.811 165.902 63.6161 82.8313 51.4072 431.492 39.5345 71.9242 445.513 -48.0503 62.3326 427.906 -54.3849 33.7994 439.244 43.1388 25.8869 433.559 52.0585 18.7882 476.026 38.2422 11.9335 84.9889 3.54487 
150.845 171.536 173.797 174.27 160.288 147.629 166.075 164.703 179.822 77.6704 53.5913 430.444 38.0961 72.8909 447.052 -47.4286 68.0196 432.045 -54.7932 60.3209 411.468 -3.74637 26.6484 431.466 47.1528 21.2745 474.525 37.8011 51.2501 32.9582 6.66058 
157.027 172.239 173.266 174.637 142.728 146.169 165.356 163.719 178.117 71.5189 53.4208 431.167 34.2747 75.7357 452.983 -48.5133 70.8693 435.558 -55.9986 77.8221 399.717 -27.7761 26.9187 430.023 44.3861 23.493 473.888 37.4675 57.8875 24.0646 6.07833 
158.431 168.444 171.973 174.917 179.368 146.612 167.232 162.887 178.22 83.0577 54.7851 431.771 32.6317 75.8614 454.039 -50.4243 77.0811 439.145 -56.3948 75.3444 402.889 -41.0229 35.9922 424.875 36.9507 25.9993 474.158 36.2988 52.5516 16.4292 10.5448 
154.022 165.071 172.759 174.767 151.779 144.074 173.102 164.151 178.173 80.8089 57.2612 433.729 33.541 76.7529 455.066 -55.1064 79.0193 439.879 -57.3772 74.5786 404.497 -39.4499 36.8826 426.002 35.9807 27.4684 474.831 35.535 52.0221 16.607 11.593 
152.228 177.745 171.275 174.843 174.27 143.533 179.199 165.234 178.215 84.3401 56.5852 433.435 35.0265 76.4615 449.078 -56.4903 80.77 438.952 -56.4232 67.6347 408.751 -41.9315 38.9041 422.662 33.1193 28.9592 475.218 35.6273 51.0498 12.4043 13.9006 
152.045 179.153 169.246 174.497 174.27 144.196 179.699 166.935 178.098 85.2521 57.9127 434.801 34.8266 78.1653 447.927 -57.1789 80.7033 435.893 -56.8855 66.4068 410.494 -41.2585 38.195 420.619 34.0148 29.3486 475.829 35.4585 50.7499 9.97165 12.1151 
153.521 175.813 170.748 172.79 174.27 144.589 178.488 167.465 176.762 86.3181 54.3491 433.16 37.4322 76.7361 426.939 -48.1452 81.4223 429.247 -52.0526 59.1969 411.541 -39.6596 32.6787 419.797 31.2804 31.0201 476.961 36.4109 48.964 6.78974 17.1814 
158.056 177.42 172.124 173.068 174.27 147.419 178.796 167.833 168.172 108.152 49.9205 427.927 40.8628 69.6562 403.574 -41.684 81.9304 422.662 -47.1878 56.5788 411.991 -39.5748 28.2936 413.389 21.1371 32.979 476.882 37.7081 38.3671 4.37704 24.7255 
154.338 177.913 171.634 177.351 174.27 144.305 178.584 168.775 168.891 154.638 46.2933 427.346 43.0568 66.0183 397.711 -40.343 83.9335 422.554 -44.8558 59.8473 414.148 -39.1513 29.991 411.595 -1.01162 33.7151 477.104 38.6103 16.2908 2.62936 28.4078 
152.035 174.082 179.514 123.102 174.27 136.496 177.89 173.293 91.9165 178.268 51.6925 431.839 42.739 65.2493 426.476 -52.2634 82.1241 424.867 -48.1824 58.673 418.491 19.9811 35.3569 408.913 8.25455 32.2235 477.531 39.0681 21.6989 41.6356 22.3965 
151.148 175.468 178.889 167.924 99.3035 133.648 175.834 173.208 64.4758 33.7403 55.2989 432.997 44.2078 70.1764 434.104 -55.7192 80.7572 427.273 -50.0101 46.9652 445.07 58.926 24.5177 435.286 39.5036 31.9962 477.454 38.6554 35.4609 99.0218 17.2077 
153.313 176.964 176.005 161.964 174.356 131.327 165.775 171.813 73.5224 75.7596 59.1431 432.963 44.7329 85.7129 440.55 -52.4948 79.6408 426.387 -51.6001 55.709 441.891 56.7997 39.2454 438.498 60.6839 32.2023 476.867 37.1633 9.07736 91.6699 5.14024 
153.535 178.409 177.724 163.794 177.081 133.432 156.543 173.463 80.0464 86.8303 62.8372 432.898 42.3337 90.181 450.186 -51.7331 77.1578 428.542 -55.4216 64.3601 440.815 52.3607 45.6803 441.252 64.1591 32.253 476.345 36.4624 14.688 86.6218 2.38761 
152.611 177.99 179.998 162.877 165.2 132.364 157.381 176.745 74.3594 78.8529 65.6481 433.605 41.5023 94.3062 460.493 -51.7174 75.7045 431.176 -58.1 61.117 441.617 53.1661 43.7562 443.39 62.7439 32.1559 474.746 36.4918 17.9337 92.4604 9.17743 
153.546 179.903 180 161.089 164.867 132.165 154.227 176.523 68.8137 77.7713 66.8299 433.976 40.2621 93.0582 463.74 -50.5 76.4502 432.855 -57.4246 55.4159 444.11 55.3216 42.6991 442.437 62.9594 32.3078 474.135 36.1388 14.717 99.4073 9.55063 
154.322 179.532 180 150.266 165.433 132.933 148.985 176.207 63.8038 79.3426 68.8503 434.258 38.2549 95.2753 461.89 -44.7835 77.2757 434.753 -59.3079 52.585 445.58 51.7756 43.1944 441.26 60.8641 32.9163 474.01 34.991 12.5883 101.056 9.9873 
148.217 175.318 180 153.256 162.881 134.783 156.628 171.525 62.3205 75.035 73.0246 435.949 36.9631 96.3477 459.602 -47.3063 78.0377 434.769 -59.7434 51.329 447.21 50.9342 42.7504 438.659 55.7201 33.6275 473.459 34.0835 11.0406 103.822 8.39008 
147.525 179.511 178.355 152.778 163.883 136.652 162.541 170.653 62.2105 77.1727 73.4248 435.116 35.0614 94.6495 456.795 -48.7065 78.6562 434.388 -59.3357 50.9911 447.933 49.822 44.4486 437.576 52.8075 34.0452 473.665 33.2842 13.1584 103.63 5.36809 
148.878 174.197 176.293 158.004 154.845 133.812 168.144 170.959 61.4772 66.7394 71.6652 435.358 33.3156 93.2842 459.496 -50.9075 79.4167 435.463 -59.6526 47.627 450.483 53.0021 40.106 439.249 51.3581 34.7419 473.584 33.3074 16.7762 112.127 4.44191 
145.478 171.491 176.744 156.9 151.455 134.802 171.328 172.861 59.3658 67.8405 72.9409 436.064 33.6398 90.381 456.49 -51.3688 79.3862 435.373 -59.6875 46.4087 456.733 52.3394 40.9342 441.406 49.7697 34.9321 474.112 33.4263 20.2801 116.641 1.24145 
147.373 164.523 174.614 157.098 168.879 134.623 172.604 175.685 54.548 60.445 74.1233 437.763 31.8786 88.0644 460.057 -51.8477 81.575 438.635 -60.2966 45.2686 457.281 50.8251 39.9343 442.014 49.2492 35.613 473.77 33.7473 19.5419 119.736 1.80342 
150.546 159.375 180 158.843 172.396 140.27 170.563 179.999 57.2984 65.8474 78.3544 438.135 29.4479 86.591 458.123 -52.1596 80.266 438.487 -61.7446 47.7328 448.782 49.081 40.8518 439.292 47.8559 36.0081 473.472 33.167 18.3456 111.516 3.09333 
150.163 163.389 179.999 164.665 169.104 142.976 170.044 179.999 64.8946 74.5173 79.9982 436.779 29.0833 88.768 456.203 -52.8781 80.8756 436.659 -61.7997 53.0929 441.861 48.1754 42.5021 436.177 48.8439 36.3986 473.042 32.6162 14.0139 101.542 2.70176 
150.731 171.347 173.233 161.169 168.9 144.957 171.446 173.836 62.4872 80.6738 80.5204 435.344 28.9967 95.9589 458.014 -55.4603 82.7053 435.872 -61.4356 52.5565 438.899 43.4223 43.9922 432.405 46.8708 37.2678 473.322 31.7222 13.0616 95.5523 4.13391 
152.247 173.086 176.215 158.414 161.644 145.069 172.109 171.162 61.7998 84.9153 78.7937 432.716 29.4897 98.8099 455.982 -56.5938 82.2231 435.633 -64.0415 52.9607 434.152 37.9656 44.7857 427.758 43.3618 38.1529 473.371 31.5471 12.0698 88.9119 3.88026 
150.411 175.253 174.977 146.747 155.005 143.947 171.874 170.805 59.3339 85.7648 78.1233 431.001 31.5662 99.6747 456.278 -56.9496 81.9099 436.061 -65.5587 52.6169 432.413 32.1667 45.4398 426.305 39.6849 38.821 473.445 31.5516 12.9719 83.2364 4.39485 
148.945 177.218 171.971 137.947 148.94 143.779 172.501 167.98 57.1194 81.6728 79.9646 429.972 33.0491 101.491 453.92 -57.3427 82.0443 432.789 -65.3002 53.6685 431.499 27.6922 45.4519 427.732 40.4969 38.7816 472.168 31.351 16.1559 76.0756 5.40523 
147.282 177.08 167.661 132.97 150.186 142.932 172.011 166.861 58.7324 81.92 80.0728 429.075 33.2704 101.988 450.749 -57.7602 80.6734 428.537 -65.0335 55.5033 430.292 25.8522 46.2238 429.584 42.2721 38.9997 471.124 31.0574 20.7786 72.3808 6.63991 
146.152 175.761 163.614 146.85 143.183 142.416 171.32 166.339 56.54 72.0006 80.5044 429.043 32.9627 101.389 450.302 -57.6033 80.9001 427.017 -64.3267 55.4405 433.295 31.8657 42.5624 431.727 42.0179 39.2036 469.787 31.3638 16.2267 81.5954 6.80591 
145.476 175.709 156.511 141.461 144.113 141.319 170.267 164.806 56.3571 72.3249 80.3896 428.618 32.7274 101.662 447.849 -56.6941 79.4355 424.028 -63.0371 56.8932 433.816 31.0535 43.3326 432.309 43.3287 39.4482 468.937 31.3585 16.9352 80.0012 7.73948 
144.442 174.845 150.411 132.859 145.132 141.285 169.649 163.603 60.5128 75.735 79.9146 427.158 32.9258 101.834 445.934 -56.2988 77.5899 420.752 -61.6232 58.9104 430.43 28.8038 44.2418 431.143 44.5806 39.8612 468.189 31.1897 20.4965 74.8458 9.40651 
144.054 174.01 139.746 131.673 149.22 141.11 169.393 162.019 59.1095 78.8941 80.1467 425.431 33.622 101.675 443.969 -56.0506 76.2001 418.224 -59.7091 57.8586 428.823 28.4082 45.2305 429.885 45.8288 40.4665 466.851 31.036 22.1017 74.654 10.5402 
144.291 174.294 132.52 126.158 148.254 140.975 169.059 161.663 56.3133 80.6504 79.8399 424.599 33.9394 101.943 443.25 -56.4546 74.8139 417.352 -58.688 56.3331 429.07 26.3861 45.4969 429.294 45.8614 41.0942 466.662 30.8587 23.298 72.984 11.6658 
144.809 173.377 140.466 90.9818 155.927 140.36 167.495 162.238 76.2639 80.6268 76.687 421.286 34.5871 100.339 441.658 -55.9005 73.9094 417.546 -59.6654 59.1567 419.562 10.3651 44.7231 427.396 43.3405 41.5542 466.46 31.0539 42.1529 49.3121 10.6504 
145.38 172.682 147.234 90.0456 160.667 140.599 166.142 162.829 127.259 80.7105 75.2861 419.275 34.9613 100.318 440.961 -55.1818 72.7386 418.322 -60.4338 63.3731 405.682 -8.49682 43.4169 426.622 42.9349 41.9039 466.182 31.2068 57.9412 33.8495 10.6683 
147.232 172.544 149.682 90.0456 159.851 139.976 164.601 162.313 141.89 78.3248 73.6461 418.558 34.8691 100.677 440.772 -54.3203 73.6509 419.419 -60.5218 63.8667 403.783 -19.8154 42.7707 427.325 42.5639 42.3787 466.137 31.3219 66.0659 26.0765 9.84507 
148.944 171.817 160.981 96.3758 150.875 138.35 163.916 163.75 143.179 70.0614 70.9547 416.762 35.1514 100.947 439.044 -53.7199 75.0371 419.94 -61.8523 60.8832 399.711 -21.1961 39.1847 430.544 42.2617 42.8687 465.788 31.2696 72.0227 26.313 8.15201 
149.815 170.983 161.247 107.367 153.436 137.764 163.464 163.282 145.04 68.7969 69.6024 415.628 35.3559 100.947 437.679 -53.391 78.0605 420.34 -62.0053 62.7354 398.783 -23.5323 38.8812 431.271 43.0915 43.1971 465.452 31.3235 74.8602 24.8957 5.76076 
147.537 170.072 165.68 109.91 154.913 137.865 163.63 164.652 141.675 70.1643 69.6215 415.486 36.4523 101.099 436.789 -53.0725 80.3164 421.585 -62.9742 62.9748 397.855 -21.6059 39.1036 430.75 44.5698 43.6046 465.346 31.5786 74.7102 27.2033 3.73545 
147.12 169.531 171.597 108.484 162.88 138.592 163.115 167.612 119.37 79.8375 70.2787 416.271 36.9723 100.196 435.89 -54.4256 80.6962 420.762 -65.055 61.9459 401.456 -9.37398 41.8664 426.238 47.5114 43.9554 465.294 31.7832 64.8219 35.3308 2.9295 
147.776 168.492 172.802 179.986 163.185 139.749 161.818 167.258 156.66 85.1702 68.7435 413.979 39.1559 99.6173 432.49 -53.7661 80.5271 416.774 -64.1222 60.6353 394.411 -31.5331 42.1294 422.641 47.3855 44.7015 464.71 32.3422 74.9218 21.0387 3.35585 
146.602 168.162 171.538 174.27 158.563 138.71 161.838 166.378 157.912 86.6962 68.613 412.773 40.8526 100.667 431.985 -53.16 80.6472 414.923 -64.0448 60.0968 393.417 -33.0766 42.7821 420.091 43.8982 45.0126 464.294 32.5758 70.2499 19.9143 4.58549 
145.073 167.189 169.509 174.27 154.595 137.67 161.734 164.835 156.532 88.1656 69.0802 412.214 42.5705 101.419 431.784 -52.5033 80.587 412.331 -62.8119 61.2584 392.061 -31.4457 43.9152 417.008 41.9592 45.2036 463.334 33.0743 65.3353 19.4601 6.08362 
