151.598 175.156 176.471 144.55 157.022 133.241 173.021 173.193 75.284 80.4311 -42.0362 195.064 40.2258 5.45061 185.765 -58.1848 -45.3552 158.829 -61.0898 -53.7852 219.417 46.1826 -67.0462 219.912 45.9463 -56.9593 244.869 14.0846 11.3293 110.331 23.6747 
151.665 175.242 176.374 144.65 156.687 133.082 173.489 173.493 75.2825 80.3705 -40.521 194.921 40.6761 6.99628 185.641 -59.0905 -43.9523 158.34 -61.9472 -52.2408 219.302 46.4829 -65.3662 219.276 46.1692 -55.6951 244.483 14.2231 11.4426 111.125 23.6302 
151.831 175.298 176.161 144.483 156.594 133.248 173.757 173.722 74.9474 80.1232 -38.9462 194.331 41.4341 8.42479 184.714 -59.6457 -42.4256 157.134 -62.1883 -50.4052 218.739 46.5298 -63.5936 218.355 46.4886 -54.2686 243.703 14.2926 11.2462 111.398 23.475 
151.829 175.441 176.021 145.266 156.131 133.445 174.032 173.952 75.307 79.8991 -37.7585 193.589 42.0915 9.3464 183.278 -59.825 -41.3266 155.822 -62.0523 -48.8414 218.261 47.183 -61.9674 217.522 46.741 -52.9041 242.77 14.3966 11.5058 112.037 23.2585 
151.852 175.462 175.407 145.481 155.817 133.892 174.065 173.796 74.9792 79.2027 -35.868 191.987 42.3507 11.3439 181.278 -60.9533 -39.7158 153.794 -62.3819 -46.0984 217.043 47.0852 -59.2226 215.973 46.5795 -50.4072 241.338 14.3616 11.6819 112.143 23.2701 
152.003 175.247 174.92 145.917 155.915 134.332 173.782 173.527 74.9945 79.019 -35.1602 191.38 42.6201 11.3629 179.654 -60.2571 -39.4174 152.86 -61.6538 -45.4144 216.922 47.3822 -58.6181 215.841 46.7316 -49.5243 240.761 14.4294 11.7006 112.449 22.9693 
152.395 174.986 174.153 146.152 156.091 134.834 173.492 172.856 74.8482 78.6911 -34.482 190.387 42.0943 11.7637 178.701 -60.5481 -39.1593 152.322 -61.7466 -44.7426 216.334 47.184 -58.032 215.425 46.4379 -48.5174 240.331 14.4347 11.7027 112.096 22.8642 
152.902 174.754 173.694 146.342 156.5 135.641 173.095 172.286 74.4988 78.5771 -33.9959 189.461 41.3891 12.1631 177.863 -60.633 -39.2081 152.311 -61.939 -44.4545 215.364 46.8029 -57.7519 214.909 46.2063 -47.5201 240.134 14.5195 11.5979 111.227 22.8564 
153.215 174.616 173.35 147.154 156.787 136.33 172.819 172.035 74.6663 78.5328 -32.6377 188.755 41.0238 12.8589 176.97 -60.9641 -38.5071 151.659 -61.9502 -43.277 214.912 46.8514 -56.7289 214.494 46.2586 -46.4506 239.704 14.4633 11.4263 110.994 22.7182 
153.516 174.677 173.253 148.722 156.757 136.733 172.938 172.16 75.7706 78.5503 -30.996 188.028 41.0016 13.5871 175.555 -61.1836 -37.3014 150.402 -61.8344 -41.5721 214.797 47.6914 -55.3054 213.935 46.4666 -45.1865 238.91 14.3049 11.3998 111.743 22.337 
153.904 174.807 173.283 149.396 156.611 137.297 173.182 172.473 76.5574 78.4895 -29.551 187.69 40.8784 14.292 174.354 -61.4962 -36.437 149.39 -61.8166 -40.025 215.131 48.2178 -54.0122 213.93 46.5381 -44.0088 238.534 14.1149 11.3999 112.425 22.0904 
154.106 174.831 173.216 149.942 156.589 138.042 173.15 172.558 77.0516 78.5374 -27.5851 187.558 40.6717 15.1561 174.252 -61.8627 -35.4048 149.029 -61.7505 -38.4047 215.281 48.6045 -52.4853 213.855 46.7607 -42.8872 238.422 14.1454 11.4459 112.602 22.0303 
154.067 175.109 173.425 149.702 155.937 138.211 173.432 172.903 78.0755 78.471 -25.621 187.149 40.7856 15.9519 172.751 -61.6598 -34.051 147.662 -61.3765 -36.4738 215.261 49.254 -50.7678 213.538 46.842 -41.6539 237.654 14.0028 11.6578 113.187 21.6621 
154.086 175.359 173.412 148.836 155.449 138.021 173.514 173.227 78.7081 78.6613 -23.2798 187.333 40.5272 16.5843 172.279 -61.6567 -32.7757 147.177 -61.1456 -34.3972 215.428 49.4858 -48.7565 213.274 46.9953 -40.5 237.155 13.7782 11.7571 113.848 21.4096 
154.107 175.454 173.456 148.457 155.332 137.728 173.329 173.526 78.939 78.8834 -21.5747 188.147 39.9642 17.2004 172.93 -61.565 -31.8074 147.847 -61.1871 -33.0493 215.954 49.4785 -47.2333 213.613 46.938 -39.5851 237.481 13.6656 12.0465 114.144 21.3143 
153.758 175.73 173.574 148.035 154.879 137.181 173.337 173.812 79.2605 78.9084 -20.9981 187.922 39.8245 17.9393 172.7 -61.1772 -31.018 148.007 -61.1762 -32.0738 215.29 49.4351 -46.1693 213.061 46.5544 -38.6167 237.088 13.4867 12.3863 114.1 21.3621 
153.624 176.105 174.278 147.144 154.148 136.605 173.6 174.619 79.7193 78.9911 -20.779 187.457 39.6786 18.488 172.208 -60.5722 -29.9587 148.02 -61.1542 -31.1477 214.431 49.3902 -45.2624 212.321 46.1107 -37.6548 236.526 13.2484 12.6223 114.042 21.1315 
153.689 176.294 175.238 146.505 153.686 136.372 173.661 175.569 79.8729 79.0754 -20.0138 187.266 39.3812 18.6829 171.862 -60.38 -29.2593 148.084 -61.2591 -29.8864 213.979 49.1308 -44.0153 211.869 45.7676 -36.7284 236.173 12.9882 12.7753 114.12 20.8652 
153.86 176.32 176.019 146.424 153.456 136.3 173.418 176.214 79.6386 79.1301 -19.8116 186.737 38.6321 18.983 171.467 -60.055 -29.132 148.409 -61.6267 -29.2395 213.396 48.5615 -43.1684 211.374 45.1424 -35.8647 235.899 12.6601 13.1016 114.053 20.9191 
153.819 176.341 173.005 146.039 152.974 136.064 173.093 177.539 79.14 79.055 -19.7344 186.374 37.8961 19.4289 171.456 -59.4674 -28.3854 149.132 -61.864 -28.9174 212.729 47.8822 -42.6498 210.777 44.4203 -35.0736 235.795 12.4448 13.4345 113.565 20.7468 
153.281 176.467 174.923 145.379 152.44 135.64 172.791 178.292 78.5621 79.0715 -18.2074 185.712 37.1777 20.0571 171.783 -59.8469 -27.221 149.625 -62.2732 -27.2285 211.149 46.7924 -40.6717 209.3 43.5292 -33.477 235.19 11.9935 13.8032 112.758 20.647 
152.836 176.462 176.62 145.041 152.173 135.405 172.777 178.863 78.0826 79.1453 -17.982 185.556 37.0091 19.8527 171.817 -60.2122 -26.9772 150.13 -62.7911 -26.9868 210.346 46.0237 -40.2745 208.765 43.0038 -33.0606 235.087 11.6858 13.8642 112.197 20.3255 
152.592 176.456 178.503 145.069 151.902 135.206 172.868 179.497 77.6984 79.3069 -17.8823 185.223 36.5223 20.3174 172.231 -60.8877 -26.601 150.882 -63.7642 -26.7717 209.531 45.1443 -39.8397 208.098 42.1984 -32.4369 234.992 11.2387 14.0473 111.845 20.3701 
152.253 176.418 179.636 145.05 151.733 134.885 172.87 179.878 77.4372 79.5817 -17.8168 184.639 35.862 20.9902 172.525 -61.5776 -26.1034 151.26 -64.5607 -26.6235 208.281 44.1568 -39.5095 207.109 41.3259 -31.7428 234.605 10.6632 14.0656 111.203 20.5635 
151.744 176.396 180 144.918 151.422 134.439 172.768 179.319 77.0829 79.7148 -17.1174 184.137 35.2676 21.911 172.686 -62.3069 -25.3345 150.763 -64.6988 -25.9614 207.226 43.268 -38.6717 206.056 40.6045 -30.9727 234.01 10.1483 14.1498 110.478 20.9067 
151.557 176.267 180 144.51 151.213 134.167 172.445 178.955 76.4792 79.663 -16.8236 183.476 34.5093 22.8129 173.06 -62.9172 -24.8958 150.931 -65.1795 -25.8618 205.759 42.2195 -38.3353 204.924 39.742 -30.1928 233.494 9.75994 14.2456 109.606 21.3946 
151.546 176.098 180 144.176 150.836 134.032 172.044 178.791 76.081 79.7391 -16.1266 183.027 33.9482 23.7865 173.182 -63.4242 -24.3286 150.965 -65.6859 -25.1833 204.724 41.3251 -37.49 203.986 39.0298 -29.3909 233.15 9.3818 14.3587 108.885 21.7377 
152.011 175.95 180 144.128 150.383 134.328 171.859 178.769 76.0361 79.9175 -15.6416 182.483 33.286 24.8288 173.334 -63.828 -23.4321 151.362 -66.3891 -24.6044 204.182 40.6925 -36.8015 203.49 38.3778 -28.5004 233.095 9.01505 14.4524 108.441 21.7961 
152.306 175.758 180 144.308 149.975 134.476 171.697 178.509 75.9759 79.9233 -14.8406 182.041 32.4391 26.3487 173.995 -64.8102 -22.2138 151.653 -67.294 -23.6783 203.743 40.0145 -35.754 202.938 37.6604 -27.5182 232.999 8.56047 14.5958 108.143 22.0878 
152.267 175.486 177.538 143.905 149.485 134.389 171.661 179.174 75.6869 79.8387 -14.2564 181.963 31.6853 27.5029 174.913 -65.929 -21.5527 152.45 -68.501 -23.235 203.306 39.1891 -35.1731 202.548 36.927 -26.6068 233.054 8.11593 14.6253 108.137 22.4577 
152.132 175.333 180 143.855 149.309 134.245 171.427 177.598 75.2843 79.6023 -13.927 181.292 30.7836 28.8007 174.848 -66.6141 -21.0361 152.218 -69.0161 -23.1804 202.518 38.1673 -35.053 201.898 35.967 -25.7448 232.601 7.50976 14.574 107.65 23.0778 
152.037 175.303 179.508 143.912 149.308 134.291 171.076 177.081 74.9088 79.5098 -12.8796 180.467 29.9499 30.1653 174.272 -66.9704 -20.4086 151.537 -69.4836 -22.6934 201.512 37.2323 -34.4982 200.973 35.174 -24.8746 231.811 6.87939 14.5366 107.329 23.6534 
152.053 175.321 178.22 143.333 148.83 134.453 170.727 176.577 74.7999 79.5972 -11.7639 179.803 29.057 31.5227 174.839 -67.4935 -19.5437 151.695 -70.1116 -22.1853 200.491 36.4209 -33.9334 200.031 34.5141 -24.0787 231.245 6.40883 14.4115 107.061 24.2384 
152.055 175.12 177.792 142.28 148.304 134.465 170.069 175.913 74.6963 79.7015 -11.3169 179.708 28.1041 32.4 175.646 -67.9733 -19.0361 152.342 -70.5427 -21.8348 199.834 35.4114 -33.5468 199.642 33.7211 -23.3419 231.312 5.96045 14.2536 106.175 24.6729 
152.012 174.76 177.664 141.957 148.281 134.358 169.244 174.706 74.6443 79.6647 -11.0239 179.553 26.9105 33.2102 175.953 -68.2927 -18.206 152.757 -70.8698 -21.453 199.524 34.3551 -33.2384 199.591 32.7715 -22.6239 231.365 5.36918 14.0397 105.33 24.7531 
152.072 174.456 177.356 142.062 148.292 134.32 168.4 173.791 74.5813 79.5769 -10.2296 179.533 25.8675 34.1609 176.389 -68.5461 -17.3779 152.969 -70.9885 -20.7297 199.564 33.5617 -32.5532 199.697 32.0506 -21.9315 231.44 4.79244 13.9524 104.824 25.0164 
152.183 174.429 177.206 141.888 148.037 134.324 167.839 173.672 74.7538 79.6301 -9.65895 179.604 25.2269 35.0692 176.303 -68.233 -16.5845 153.073 -71.0239 -20.1261 199.641 32.9988 -31.9858 199.892 31.38 -21.2657 231.516 4.14977 13.9407 104.639 25.1708 
152.473 174.374 178.141 141.315 147.601 134.593 167.018 173.762 74.9878 79.7637 -9.49386 179.491 24.309 35.7489 176.211 -67.966 -16.149 153.356 -71.2495 -19.6158 199.353 32.174 -31.5072 199.88 30.4922 -20.6296 231.636 3.49245 13.9215 103.957 25.3604 
152.661 174.189 179.867 140.433 147.202 134.852 166.005 173.821 75.2245 80.082 -9.51934 179.718 23.4082 36.2707 176.635 -67.6714 -15.8163 154.278 -71.6422 -19.1703 199.233 31.2178 -31.1137 200.022 29.5556 -20.053 232.129 2.92566 13.8253 103.134 25.4947 
152.958 174.14 180 140.162 147.303 135.2 165.287 173.553 75.7061 80.5806 -9.26368 179.938 22.3977 36.6021 176.744 -67.6661 -15.5375 154.625 -71.8083 -18.5977 199.383 30.5001 -30.6444 200.359 28.8573 -19.5819 232.616 2.28871 13.6477 102.322 25.517 
153.034 174.188 180 140.451 147.53 135.375 164.874 174.307 75.964 80.7923 -8.63236 180.287 21.3985 36.8564 176.485 -67.7553 -15.9472 154.72 -72.1005 -17.9834 199.922 29.8937 -30.1791 200.882 28.2196 -19.1465 232.959 1.50399 13.4789 102.456 25.8696 
153.103 174.283 173.736 140.666 147.653 135.59 164.466 175.038 76.0504 80.771 -7.96296 180.719 20.3525 36.8482 175.807 -67.5898 -15.052 154.213 -71.5962 -17.3746 200.724 29.1816 -29.7458 201.654 27.4347 -18.7331 233.348 0.560219 13.3518 101.85 25.2407 
153.124 174.281 174.342 140.224 147.889 135.648 164.175 174.838 75.8424 81.0022 -7.29885 181.148 19.3416 36.8325 175.6 -67.4678 -14.3472 154.182 -71.5089 -16.8889 200.973 28.1378 -29.3715 201.926 26.6193 -18.3548 233.611 -0.253569 13.0909 101.251 24.7598 
153.077 174.42 175.032 139.798 148.045 135.757 163.935 174.199 75.7419 81.2295 -6.84104 181.401 17.5399 37.0665 175.953 -67.991 -14.1624 154.595 -72.0663 -16.6874 201.067 26.6532 -29.2465 202.176 25.3117 -18.0863 233.923 -1.28737 12.873 100.533 24.8501 
153.033 174.445 173.706 139.291 147.957 135.889 163.779 174.006 75.8713 81.562 -5.80581 181.861 16.0962 37.3502 177.134 -68.9663 -13.7142 155.494 -72.9417 -16.1461 201.114 25.415 -28.7804 202.294 24.2592 -17.9366 234.294 -2.22806 12.6833 100.203 24.9136 
153.158 174.287 170.746 138.251 147.502 136.214 163.472 173.809 75.9965 82.0241 -5.22921 182.356 14.734 37.3072 178.448 -70.135 -13.5743 156.579 -74.0039 -15.7388 200.981 23.9989 -28.3333 202.313 23.0779 -17.8896 234.825 -3.17312 12.6418 99.5366 24.9405 
152.946 174.005 169.948 137.992 147.385 136.43 163.12 173.941 76.274 82.5488 -4.54613 183.086 13.374 37.1471 180.131 -71.479 -13.5639 157.96 -75.2583 -15.1523 201.441 22.9036 -27.8378 202.672 22.1447 -17.8324 235.509 -4.10854 12.4556 99.6397 24.9883 
152.557 173.621 168.913 138.03 147.287 136.702 162.737 174.193 76.6222 83.0843 -3.50336 183.717 12.2063 37.1762 182.01 -72.9794 -13.4462 159.317 -76.593 -14.4711 201.832 22.1519 -27.2624 202.801 21.5608 -17.823 236.017 -4.85144 12.2335 100.08 25.1544 
152.131 172.949 162.646 137.746 147.253 137.137 162.156 173.748 77.0762 83.7966 -2.8807 183.992 10.8732 37.1038 183.892 -74.6616 -12.5484 160.943 -78.2036 -13.9511 201.443 20.8888 -26.847 202.467 20.536 -17.817 236.467 -5.5816 11.9922 99.3664 24.6805 
151.463 172.5 164.382 137.655 147.327 137.353 161.442 171.564 77.3611 84.5957 -2.39756 184.583 9.40847 36.8155 185.626 -76.366 -12.5218 162.764 -80.0927 -13.6306 201.434 19.2964 -26.6156 202.639 19.1553 -17.7835 237.101 -6.51912 11.7913 99.1236 24.5447 
150.865 171.824 162.307 137.087 147.429 137.437 160.812 169.991 77.8063 85.503 -1.70438 185.27 8.24722 36.68 187.176 -77.9821 -12.1938 163.841 -81.2016 -12.9877 201.025 17.66 -26.1091 202.582 17.9276 -17.7028 237.617 -7.45722 11.4701 98.0415 24.489 
150.441 171.201 160.427 136.235 147.677 137.516 160.053 168.064 78.1721 86.3614 -1.16004 185.997 7.04941 36.5743 188.04 -79.2611 -11.7867 164.178 -81.755 -12.6088 200.535 15.7959 -25.8018 202.591 16.5335 -17.625 238.097 -8.685 11.2108 96.4074 24.4658 
150.267 170.834 159.971 135.976 147.876 137.65 159.019 166.03 78.7263 87.1323 -0.722853 187.072 5.59995 36.3535 189.359 -80.8624 -11.5381 164.521 -82.2203 -11.7362 200.765 14.1509 -25.0173 203.057 15.1823 -17.5441 238.942 -10.0452 11.076 94.9951 24.6071 
150.093 170.404 157.991 134.724 148.007 137.915 157.802 164.024 79.9382 88.566 -0.562114 187.949 3.87949 36.0556 190.693 -82.4675 -11.4446 165.483 -83.3316 -11.5807 199.688 11.8999 -24.7457 202.901 13.4351 -17.4876 239.805 -11.4221 11.107 92.5129 24.6486 
150.205 170.295 157.493 133.276 147.914 138.17 156.556 162.447 80.7805 89.5006 -0.525925 188.163 2.47988 35.9218 191.021 -83.8038 -11.0518 165.278 -84.0756 -11.2553 198.598 10.0718 -24.214 202.318 12.0764 -17.3623 240.001 -12.76 11.2351 90.5112 24.5816 
150.146 170.218 157.006 132.657 147.958 138.538 155.27 160.578 82.0957 90.6489 -0.206122 188.469 0.735883 36.1199 191.925 -85.5097 -10.7779 165.549 -85.3318 -10.6414 197.216 7.99387 -23.5187 201.578 10.3802 -17.1359 240.251 -14.2564 11.3547 88.5703 24.894 
150.082 170.571 157.694 133.379 148.048 138.91 154.257 159.44 82.9814 91.2945 -0.0997066 188.77 -0.943233 36.2886 192.553 -87.0868 -11.0559 165.78 -86.7557 -10.2652 196.764 6.53741 -23.1268 201.349 8.84637 -16.9996 240.564 -15.7028 11.407 87.942 25.3733 
149.809 170.477 158.337 133.84 148.05 139.104 153.386 158.287 83.0225 91.3363 0.285997 189.099 -2.66346 36.7103 193.532 -88.8617 -10.6831 166.05 -88.2886 -9.94925 196.762 4.94196 -22.7429 201.314 7.23186 -16.8463 240.74 -17.2195 11.5026 87.7752 25.7557 
149.505 170.52 159.219 134.687 148.077 139.324 152.63 157.447 82.635 91.1302 0.491203 189.142 -4.53732 37.1113 194.326 -90.5902 -10.6757 166.486 -90.146 -9.97352 197.256 3.47953 -22.6721 201.471 5.54891 -16.6825 240.858 -18.7711 11.5388 88.4112 26.1974 
149.264 170.719 159.492 134.709 148.151 139.447 151.884 156.829 83.4641 91.7254 0.7917 189.037 -5.83411 37.5451 194.39 -92.0105 -10.7745 165.938 -91.3163 -9.41375 196.117 2.02632 -22.0609 200.632 4.2533 -16.5551 240.546 -20.1659 11.6204 87.6081 26.8088 
149.183 171.101 161.395 137.025 149.443 139.277 152.055 157.114 84.836 91.882 1.37888 189.307 -6.96875 38.0794 196.098 -94.4774 -10.2571 165.832 -92.9644 -8.02708 195.814 1.53111 -20.9483 200.585 3.37614 -16.3098 240.406 -21.5742 11.6963 88.3951 27.6151 
148.565 171.313 162.202 138.808 149.867 138.957 152.242 157.135 85.3571 91.5835 1.09469 189.118 -7.90884 38.2024 197.128 -96.5979 -10.2528 165.711 -94.4697 -7.93299 195.651 0.737955 -20.959 200.703 2.15782 -16.2377 240.162 -22.9729 11.8711 89.1496 28.37 
147.96 172.429 161.842 141.078 150.501 138.467 152.491 156.89 85.4509 91.2647 0.49443 189.188 -9.90101 38.1849 199.088 -100.474 -10.0056 166.063 -97.5577 -8.0242 195.871 -1.30138 -20.9594 200.98 -0.344979 -16.2997 240.097 -25.6736 12.1768 90.3443 29.2065 
147.445 174.689 161.446 142.119 150.585 137.897 153.481 157.119 84.9476 90.7598 -0.240739 189.087 -10.6783 38.2333 200.522 -102.421 -10.0581 166.699 -99.1368 -8.35007 196.579 -2.03319 -21.2139 201.411 -1.47032 -16.231 240.107 -26.6597 12.2737 91.6544 29.8487 
147.177 174.318 160.874 143.086 150.25 137.001 154.149 157.533 84.7349 90.3092 -0.594159 188.858 -11.2951 38.2566 201.218 -104.488 -9.79821 166.177 -100.427 -7.50851 196.825 -2.55523 -20.4268 201.144 -2.32477 -16.146 239.543 -27.7696 12.2987 92.8232 30.3297 
146.902 172.481 160.065 143.856 150.124 136.296 154.365 157.905 84.3755 89.859 -0.587383 188.826 -11.9892 38.4267 201.857 -106.048 -9.02489 165.949 -101.777 -6.85967 197.235 -3.24331 -19.9082 200.987 -3.31457 -16.0838 239.128 -28.8881 12.2158 93.9174 30.4285 
146.671 171.354 159.612 144.622 150.216 135.908 154.259 158.282 83.8399 89.3693 -1.0693 188.169 -13.1643 38.4587 202.155 -107.549 -8.69606 166.115 -103.59 -6.83522 197.601 -4.20718 -19.9132 200.79 -4.60106 -16.0359 238.622 -30.0019 12.1747 95.1772 30.3087 
146.708 170.417 160.055 145.295 150.205 135.525 154.21 159.314 83.6184 89.0876 -1.55636 187.601 -14.1955 38.3912 202.157 -109.011 -8.33616 166.231 -105.639 -6.59355 197.828 -5.06239 -19.7004 200.545 -5.72764 -15.9818 238.15 -31.1136 12.1602 96.4384 29.8203 
146.839 170.108 160.135 145.619 150.193 135.222 153.981 159.96 83.5877 88.9765 -1.73817 187.184 -14.8383 38.4757 202.033 -110.425 -8.05731 165.794 -107.011 -6.20013 197.768 -5.72978 -19.297 200.164 -6.5316 -16.0245 237.608 -32.1339 12.2025 97.2234 29.7486 
146.713 170.073 160.66 145.732 150.121 134.933 153.712 160.674 83.479 88.8832 -2.29846 186.547 -15.5296 38.5636 201.713 -111.487 -7.8364 165.537 -108.602 -6.43927 197.25 -6.61606 -19.485 199.491 -7.59281 -16.1083 236.974 -33.0951 12.2639 97.7987 29.5611 
146.661 170.422 161.445 145.889 150.004 134.762 153.663 161.493 83.3879 88.7625 -2.48649 185.865 -16.263 38.5135 201.298 -112.796 -7.80691 164.969 -110.102 -6.4535 196.744 -7.27804 -19.4313 198.732 -8.3234 -16.288 236.163 -34.0204 12.3164 98.58 29.4396 
146.725 171.037 161.568 145.919 149.96 134.58 153.599 162.005 83.317 88.8384 -2.60822 185.322 -16.8818 38.323 200.851 -114.169 -7.74784 164.078 -111.248 -6.23504 195.818 -8.11123 -19.1244 197.667 -9.03017 -16.4418 235.303 -34.9449 12.354 98.738 29.4364 
146.589 171.607 162.087 145.796 149.874 134.429 153.583 162.564 83.2368 88.7906 -3.49118 184.278 -17.8077 37.9178 199.952 -115.278 -7.70828 163.534 -112.866 -6.83359 194.56 -9.23379 -19.6954 196.386 -10.2436 -16.6684 234.32 -35.9451 12.354 98.9152 28.9517 
146.761 172.145 162.409 145.674 149.837 134.297 153.617 163.073 83.1672 88.8042 -4.23237 183.121 -18.8077 37.4917 199.056 -116.613 -7.82628 162.702 -114.342 -6.96572 193.197 -10.3437 -19.7762 194.938 -11.2933 -16.9104 233.147 -36.9325 12.3693 99.0455 28.6469 
147.185 172.699 162.558 145.567 150.003 134.075 153.64 163.47 83.4076 89.0268 -5.08522 182.312 -19.7106 37.082 198.355 -117.994 -7.96642 161.906 -115.681 -6.92187 191.796 -11.4571 -19.7107 193.651 -12.2993 -17.2384 232.196 -37.9515 12.4088 98.8076 28.4475 
147.508 173.029 162.36 145.395 150.13 134.197 153.256 163.299 83.8325 89.484 -6.22568 181.106 -20.8167 36.5735 197.408 -118.967 -8.34029 161.291 -116.975 -7.4106 189.947 -12.8634 -20.1914 192.113 -13.6453 -17.6792 231.229 -38.9608 12.4251 98.0419 28.2043 
147.772 173.418 161.934 145.179 150.105 134.565 152.742 162.739 84.4117 90.1042 -6.68655 179.978 -21.7961 35.8377 196.18 -119.918 -9.04717 160.036 -117.573 -7.31787 188.134 -13.9748 -20.1479 190.528 -14.5083 -18.1633 230.154 -39.8468 12.3511 97.0578 28.21 
148.068 173.677 161.681 145.289 149.996 134.796 152.426 162.111 84.9784 90.5171 -7.30319 178.703 -22.7565 34.907 194.586 -121.085 -9.92197 158.37 -118.059 -7.17659 186.384 -14.9175 -20.0711 188.937 -15.3171 -18.6758 228.87 -40.777 12.3246 96.289 28.2198 
148.433 173.754 162.133 144.948 149.228 134.996 152.732 162.196 85.3654 90.8428 -9.34698 175.945 -24.0854 33.1586 191.032 -123.026 -11.4266 155.374 -119.652 -8.07833 183.325 -16.5437 -21.0865 185.866 -16.9859 -19.6801 226.26 -42.4378 12.1839 95.922 27.7284 
148.648 173.728 162.343 144.555 148.631 135.153 153.054 162.171 85.6019 91.0742 -10.0051 174.551 -24.319 32.4244 189.337 -123.618 -12.2614 154.017 -120.154 -8.48779 181.733 -17.1436 -21.5541 184.423 -17.5639 -20.0376 224.968 -42.9575 12.1346 95.7366 27.6443 
149.129 173.764 162.595 144.306 148.153 135.558 153.356 162.331 86.1115 91.5008 -10.6025 173.33 -24.5067 31.6924 188.066 -124.01 -13.1868 153.128 -120.829 -9.01104 180.265 -17.7356 -22.0843 183.243 -18.2079 -20.602 223.996 -43.4583 12.2143 95.4469 27.5543 
149.562 173.639 162.878 143.926 147.615 135.902 153.895 162.572 86.3813 91.7045 -10.8746 172.288 -24.4399 31.0392 186.439 -124.121 -14.1006 151.82 -120.879 -9.42486 179.244 -17.9255 -22.5366 182.353 -18.3891 -21.1459 223.046 -43.8183 12.2117 95.3629 27.5241 
149.941 173.419 162.774 143.584 147.31 136.182 154.439 162.71 86.706 91.9986 -10.809 171.595 -24.3503 30.5381 185.066 -124.088 -14.8932 150.655 -120.707 -9.61218 178.46 -17.98 -22.7141 181.725 -18.3955 -21.6203 222.284 -44.1057 12.2648 95.2929 27.5726 
150.283 172.994 162.386 143.243 147.08 136.355 154.907 162.664 86.9516 92.2308 -11.025 170.753 -24.285 30.1284 183.671 -123.844 -15.4856 149.619 -120.452 -9.89423 177.591 -18.0552 -22.9954 181.029 -18.4293 -21.9954 221.491 -44.2388 12.2975 95.082 27.514 
150.63 172.451 161.603 143.062 147.075 136.51 155.211 162.261 87.183 92.4601 -11.2414 169.947 -24.1798 29.8918 182.568 -123.486 -15.8674 148.785 -119.988 -10.0935 176.745 -18.1265 -23.1841 180.39 -18.4414 -22.2626 220.797 -44.2619 12.3451 94.6813 27.541 
150.878 172.06 161.425 143.004 147.284 136.288 156.785 162.619 87.2558 92.2672 -10.6242 169.706 -24.1572 29.9738 182.487 -123.385 -15.8748 148.509 -119.689 -9.73759 176.352 -18.1407 -22.8859 180.03 -18.3701 -22.6454 220.466 -44.1477 12.4372 94.3283 27.5981 
151.033 171.404 160.944 142.861 147.263 136.289 157.411 162.57 87.2659 92.3089 -10.6891 169.423 -23.8799 29.768 181.86 -123.078 -16.1255 148.15 -119.34 -9.80011 176.069 -18.0278 -22.9448 179.877 -18.1786 -22.7388 220.191 -43.9811 12.4668 94.2335 27.5006 
151.137 170.774 160.526 142.68 147.153 136.354 157.894 162.75 87.1769 92.2904 -10.5983 169.377 -23.3228 29.5218 181.244 -122.592 -16.3394 147.785 -118.747 -9.89468 176.179 -17.561 -23.0284 180 -17.7038 -22.8362 220.065 -43.694 12.4868 94.4316 27.377 
151.186 170.052 160.008 142.444 146.955 136.366 158.173 162.975 86.9014 92.1404 -10.6057 169.498 -22.5438 29.4373 180.476 -121.733 -16.4377 147.443 -117.96 -10.1396 176.555 -16.8973 -23.2758 180.31 -17.0839 -22.8809 220.052 -43.3116 12.465 94.7861 27.1935 
151.273 169.652 160.208 142.419 147.154 136.118 159.42 163.786 86.5661 91.6569 -9.75342 169.934 -22.1588 29.5973 180.89 -121.381 -16.2006 147.792 -117.654 -9.80597 177.128 -16.4363 -22.9701 180.719 -16.5866 -22.9836 220.324 -42.8799 12.5197 95.0481 27.0285 
