144.078 168.849 173.904 153.908 150.416 137.29 169.906 177.058 81.8699 75.7354 124.09 110.565 -21.3304 118.423 136.61 -110.841 161.429 126.766 -101.379 120.084 127.856 7.50902 134.451 138.253 8.79988 114.172 161.165 -13.7466 10.5097 109.639 19.9821 
144.012 168.835 174.652 153.661 150.211 137.332 170.16 177.945 82.0015 75.8774 123.721 110.628 -21.1584 117.954 136.657 -110.804 160.21 127.261 -102.234 119.792 127.923 7.58163 134.153 138.418 8.89776 113.786 161.348 -13.6326 10.3826 109.897 19.1425 
143.991 168.802 180 153.399 150.001 137.332 170.398 177.548 82.1723 76.1575 123.28 110.554 -20.964 117.47 136.702 -110.742 158.739 126.849 -102.764 119.35 127.994 7.75324 133.701 138.486 9.10988 113.423 161.44 -13.5183 10.262 109.759 18.5838 
143.924 168.817 180 153.153 149.76 137.302 170.606 176.61 82.327 76.4244 122.908 110.432 -20.7952 117.078 136.853 -110.753 158.723 126.471 -102.409 118.887 127.998 7.88086 133.217 138.44 9.28014 113.063 161.449 -13.4421 10.19 109.589 19.0778 
143.759 168.753 179.986 152.772 149.43 137.269 170.783 175.771 82.6634 77.004 121.867 110.034 -20.5238 116.038 137.069 -110.742 157.97 126.039 -102.222 117.66 127.837 8.15043 131.99 138.054 9.62492 112.333 161.315 -13.2833 10.1455 109.742 19.4717 
144.004 168.504 180 152.945 149.237 137.191 170.426 174.727 83.0862 77.9744 121.121 109.398 -20.4017 115.265 136.846 -110.699 157.699 125.441 -101.937 116.748 127.553 8.38387 131.139 137.405 9.90351 112.164 160.876 -13.3295 10.1175 110.395 20.02 
146.063 169.79 179.945 151.926 148.598 137.412 171.228 173.517 83.5125 78.7285 121.358 108.875 -20.182 115.037 136.118 -110.355 158.635 124.813 -101.921 116.179 127.285 8.47991 130.282 136.717 9.63642 111.972 160.565 -13.555 10.8194 110.84 20.3348 
145.524 169.636 179.945 151.5 148.172 137.225 171.064 173.66 83.6939 79.1431 120.403 108.115 -19.8315 113.861 135.64 -110.253 157.838 124.223 -101.928 115.05 126.609 8.47573 129.134 135.775 9.70171 111.381 159.97 -13.4686 10.8943 111.024 20.4725 
144.879 169.332 179.962 151.259 147.876 137.06 170.955 173.921 83.7832 79.3138 119.539 107.397 -19.4762 112.771 135.124 -110.17 156.79 123.486 -101.868 114.045 125.874 8.50732 128.154 134.932 9.81439 110.785 159.291 -13.3181 10.8754 111.095 20.546 
144.287 168.997 179.984 151.069 147.678 136.845 170.884 174.186 83.825 79.4084 118.691 106.564 -19.0178 111.608 134.403 -110.05 155.584 122.602 -101.818 113.103 125.039 8.591 127.243 134.037 9.94581 110.125 158.479 -13.1466 10.8431 111.175 20.5687 
143.823 168.764 179.381 150.994 147.655 136.664 170.737 174.2 83.8953 79.4643 117.952 105.756 -18.498 110.575 133.643 -109.953 154.485 121.711 -101.832 112.286 124.176 8.68536 126.477 133.168 10.0853 109.533 157.712 -12.9662 10.7757 111.199 20.5252 
143.614 168.535 179.005 151.069 147.779 136.584 170.56 174.22 83.9093 79.3837 117.473 105.092 -18.055 109.711 132.748 -109.816 153.552 120.849 -101.815 111.727 123.417 8.7943 126 132.462 10.1986 109.041 157.042 -12.7857 10.6848 111.125 20.42 
143.507 168.431 178.671 151.179 147.948 136.455 170.47 174.281 83.9544 79.2694 117.156 104.545 -17.6238 109.143 132.019 -109.702 152.857 120.304 -101.835 111.334 122.688 8.91311 125.678 131.855 10.3345 108.595 156.467 -12.5744 10.5696 111.032 20.2198 
143.48 168.309 178.596 151.305 148.137 136.402 170.372 174.4 83.9863 79.1014 116.91 104.105 -17.3004 108.657 131.253 -109.572 152.247 119.842 -101.903 111.139 122.064 8.99776 125.567 131.382 10.4024 108.263 156.015 -12.3983 10.4506 110.893 19.9668 
143.394 168.227 178.387 151.385 148.353 136.284 170.298 174.455 84.0456 78.9817 116.661 103.641 -17.1047 108.287 130.699 -109.505 151.802 119.611 -102.015 110.945 121.323 9.00639 125.413 130.799 10.4294 107.907 155.5 -12.2332 10.3585 110.765 19.7465 
143.414 168.263 178.268 151.514 148.629 136.204 170.31 174.536 84.0868 78.841 116.536 103.255 -16.8782 107.979 130.201 -109.434 151.455 119.431 -102.122 110.87 120.672 9.07127 125.358 130.34 10.4989 107.591 155.046 -12.0567 10.267 110.678 19.5652 
143.422 168.362 178.238 151.688 148.923 136.111 170.295 174.57 84.1178 78.675 116.59 102.98 -16.7115 107.818 129.858 -109.404 151.239 119.362 -102.205 110.88 120.072 9.09138 125.387 129.939 10.5333 107.335 154.638 -11.9015 10.1733 110.545 19.4197 
143.473 168.413 178.093 151.809 149.164 136.071 170.245 174.567 84.1199 78.5278 116.549 102.703 -16.5743 107.622 129.496 -109.324 150.973 119.217 -102.287 110.89 119.587 9.13039 125.43 129.595 10.5801 107.125 154.299 -11.755 10.0808 110.42 19.2644 
143.64 168.462 178.114 151.925 149.363 136.078 170.238 174.584 84.0202 78.3188 116.538 102.439 -16.448 107.508 129.021 -109.182 150.825 118.915 -102.237 111.013 119.282 9.25801 125.571 129.412 10.6867 106.981 154.009 -11.6158 10.0083 110.323 19.1805 
143.773 168.507 178.144 152.022 149.533 136.157 170.166 174.556 83.9285 78.1306 116.465 102.215 -16.3895 107.374 128.625 -109.065 150.695 118.593 -102.176 111.124 119.07 9.3654 125.723 129.272 10.7663 106.893 153.806 -11.5057 9.93502 110.213 19.147 
143.841 168.556 178.251 152.095 149.674 136.22 170.147 174.543 83.8194 78.0029 116.313 101.945 -16.3913 107.233 128.22 -108.961 150.625 118.218 -102.081 111.164 118.86 9.46244 125.765 129.099 10.8378 106.768 153.553 -11.4365 9.90523 110.162 19.1861 
143.917 168.585 178.402 152.151 149.758 136.265 170.135 174.559 83.6817 77.8997 116.169 101.665 -16.3893 107.123 127.827 -108.84 150.555 117.824 -101.975 111.174 118.7 9.57173 125.771 128.942 10.9295 106.646 153.29 -11.3712 9.88424 110.157 19.2201 
143.97 168.566 178.547 152.166 149.831 136.398 170.077 174.57 83.538 77.8003 115.925 101.345 -16.4228 106.947 127.396 -108.715 150.382 117.334 -101.855 111.122 118.543 9.66045 125.726 128.76 10.9938 106.505 153.029 -11.3311 9.87354 110.131 19.2501 
144.02 168.539 178.802 152.217 149.935 136.491 170.046 174.706 83.3849 77.7029 115.77 101.103 -16.4104 106.825 126.959 -108.588 150.198 116.889 -101.716 111.119 118.435 9.74904 125.713 128.641 11.0503 106.388 152.807 -11.3043 9.8757 110.115 19.2451 
144.056 168.468 179.058 152.224 149.98 136.544 170.022 174.821 83.2168 77.603 115.578 100.845 -16.4012 106.673 126.444 -108.42 149.944 116.383 -101.548 111.095 118.332 9.84983 125.681 128.525 11.1121 106.226 152.556 -11.2766 9.87272 110.087 19.2193 
144.012 168.437 179.287 152.251 150.027 136.587 169.986 174.816 83.0575 77.5126 115.403 100.616 -16.4414 106.509 125.968 -108.307 149.726 115.926 -101.423 111.085 118.255 9.91359 125.666 128.42 11.1293 106.081 152.33 -11.2825 9.87565 110.062 19.2173 
143.875 168.332 179.437 152.206 150.025 136.588 169.951 174.784 82.8473 77.4342 115.056 100.251 -16.5275 106.249 125.367 -108.16 149.445 115.393 -101.308 110.996 118.125 9.9432 125.547 128.23 11.1063 105.846 151.998 -11.3245 9.91524 110.085 19.2226 
143.817 168.306 179.467 152.199 150.051 136.6 169.921 174.707 82.7032 77.411 114.757 99.8934 -16.5872 106.032 124.821 -108.075 149.182 114.874 -101.233 110.836 117.986 9.97684 125.361 128.019 11.0944 105.613 151.678 -11.3754 9.95808 110.13 19.2092 
143.805 168.275 179.289 152.174 150.1 136.718 169.834 174.577 82.5912 77.4033 114.25 99.5365 -16.7512 105.75 124.399 -108.052 148.927 114.406 -101.237 110.549 117.881 9.96318 125.084 127.795 11.0401 105.382 151.443 -11.4551 10.0096 110.207 19.2106 
143.662 168.249 179.154 152.128 150.115 136.732 169.849 174.44 82.4913 77.3832 113.792 99.1884 -16.9167 105.514 124.003 -108.058 148.621 113.982 -101.26 110.234 117.702 9.90783 124.773 127.528 10.9473 105.099 151.139 -11.5555 10.0567 110.291 19.1696 
145.122 169.33 177.993 151.143 149.663 137.036 170.827 173.252 82.2598 77.2634 114.344 99.0469 -16.9567 105.583 123.314 -107.694 149.362 113.677 -101.58 110.624 117.944 10.0101 124.76 127.531 10.5194 104.853 151.04 -11.721 10.8468 110.463 19.142 
145.985 170.527 177.052 150.146 149.167 137.266 171.694 172.337 82.1855 77.4326 114.564 98.8638 -17.0498 105.538 122.522 -107.382 149.697 113.397 -102.045 110.797 118.002 10.0784 124.574 127.331 10.156 104.504 150.851 -11.8814 11.5234 110.626 18.8859 
146.478 171.619 176.263 149.304 148.754 137.402 172.426 171.63 82.1664 77.6563 114.613 98.5938 -17.1675 105.441 121.755 -107.174 149.772 113.184 -102.624 110.769 117.915 10.0644 124.286 127.017 9.80399 104.099 150.561 -12.0735 12.0537 110.867 18.515 
145.775 171.33 176.12 149.634 149.065 136.875 172.1 172.086 82.0357 77.6935 113.865 98.1094 -17.3167 104.885 121.83 -107.62 149.211 113.37 -103.024 110.105 117.591 9.85503 123.613 126.623 9.76969 103.636 150.127 -12.2561 11.9346 111.408 18.5164 
145.082 170.959 175.968 150.085 149.349 136.517 171.664 172.535 82.0252 77.7195 113.114 97.7251 -17.5644 104.263 121.93 -108.184 148.507 113.583 -103.581 109.357 117.212 9.5359 122.993 126.236 9.65036 103.222 149.763 -12.4926 11.6874 111.887 18.445 
144.473 170.61 175.83 150.577 149.663 136.215 171.247 172.941 82.0708 77.7573 112.492 97.4887 -17.7871 103.702 122.059 -108.745 147.811 113.849 -104.166 108.701 116.875 9.22044 122.474 125.936 9.51508 102.841 149.498 -12.7222 11.4266 112.274 18.3215 
143.915 170.407 175.758 150.994 149.96 135.887 170.972 173.347 82.1796 77.8665 112.027 97.2602 -17.9555 103.067 122.213 -109.353 147.245 114.173 -104.784 108.098 116.438 8.89176 121.968 125.58 9.36806 102.432 149.176 -12.9563 11.1737 112.627 18.329 
143.484 170.215 175.742 151.386 150.216 135.635 170.676 173.694 82.268 77.8718 111.761 97.2036 -18.0053 102.491 122.376 -109.888 146.804 114.564 -105.324 107.657 116.106 8.57031 121.635 125.375 9.18711 102.081 149.003 -13.1489 10.9339 112.84 18.3615 
143.098 170.11 175.764 151.784 150.462 135.486 170.481 174.02 82.3809 77.8566 111.556 97.2223 -18.0172 101.991 122.506 -110.353 146.525 115.023 -105.824 107.315 115.851 8.28487 121.397 125.286 9.00913 101.759 148.933 -13.3179 10.7084 113.004 18.4037 
142.685 169.968 175.857 152.138 150.696 135.366 170.426 174.353 82.481 77.8848 111.359 97.199 -18.0059 101.554 122.384 -110.645 146.299 115.182 -106.146 107.006 115.583 8.11815 121.116 125.216 8.93469 101.406 148.761 -13.443 10.5232 113.128 18.4768 
142.293 169.852 176.116 152.356 150.794 135.274 170.333 174.603 82.5185 77.8506 111.219 97.197 -17.9594 101.138 122.132 -110.837 146.198 115.217 -106.315 106.789 115.325 7.937 120.905 125.15 8.82714 101.04 148.599 -13.5512 10.3713 113.072 18.6324 
141.883 169.755 176.438 152.515 150.921 135.268 170.26 174.879 82.5521 77.8644 110.901 97.1314 -17.8282 100.634 121.63 -110.879 145.95 114.983 -106.42 106.584 115.14 7.84578 120.662 125.118 8.74407 100.685 148.476 -13.6432 10.2984 113.001 18.732 
141.515 169.688 176.916 152.574 150.95 135.27 170.213 175.096 82.5445 77.8233 110.655 97.0936 -17.7013 100.203 121.197 -110.881 145.751 114.772 -106.443 106.463 114.987 7.7453 120.496 125.112 8.63703 100.346 148.376 -13.7181 10.2453 112.843 18.8559 
141.07 169.622 177.431 152.617 150.955 135.248 170.217 175.293 82.5306 77.8222 110.375 97.0195 -17.5153 99.7332 120.694 -110.801 145.472 114.431 -106.364 106.261 114.86 7.70067 120.235 125.093 8.56199 99.9631 148.231 -13.7795 10.2319 112.72 18.9897 
142.694 171.023 178.034 151.41 150.336 135.612 171.116 174.39 82.5932 77.5984 110.898 97.0779 -17.5294 99.5153 119.919 -110.393 146.212 113.965 -106.617 106.422 115.042 7.72465 120.071 125.306 8.06 99.588 148.265 -13.9602 10.8705 112.522 19.243 
143.805 172.277 177.703 150.245 149.694 135.976 171.855 173.588 82.7127 77.6164 111.058 97.1135 -17.6231 99.1687 119.271 -109.966 146.141 113.48 -106.946 106.441 115.185 7.72643 119.789 125.363 7.57073 99.1578 148.304 -14.111 11.495 112.237 19.1203 
144.751 173.7 176.954 148.904 148.79 136.419 172.701 172.565 82.986 77.6885 110.63 97.1274 -17.97 98.2932 118.764 -109.54 144.777 112.907 -107.558 106.158 115.342 7.61684 119.201 125.476 6.82842 98.2343 148.422 -14.3371 12.1865 111.643 18.5522 
145.396 174.421 176.404 148.148 148.169 136.689 172.96 171.835 83.1214 77.837 110.578 97.1731 -18.1311 97.9409 118.67 -109.281 143.825 112.642 -107.82 106.154 115.575 7.62761 119.044 125.592 6.49734 97.8601 148.604 -14.3788 12.5707 111.218 18.0966 
146.042 174.922 176.029 147.603 147.634 136.801 173.141 171.261 83.1759 78.0583 110.511 97.3422 -18.4381 97.389 118.692 -109.224 142.642 112.447 -108.093 105.92 115.849 7.49686 118.686 125.682 6.15663 97.3646 148.766 -14.5357 12.8478 110.843 17.7123 
146.475 175.286 175.736 147.174 147.19 136.841 173.251 170.826 83.1887 78.3105 110.359 97.3653 -18.5652 96.6077 118.482 -109.163 141.562 112.104 -108.225 105.468 115.994 7.40393 118.143 125.581 5.89955 96.8382 148.769 -14.6797 13.1044 110.645 17.5475 
146.786 175.485 175.561 146.908 146.891 136.955 173.265 170.584 83.2197 78.5648 110.122 97.3329 -18.5726 95.732 118.048 -109.07 140.614 111.657 -108.292 104.921 116.121 7.42034 117.54 125.468 5.76369 96.3235 148.72 -14.8095 13.3098 110.642 17.4954 
146.875 175.64 175.353 146.636 146.653 137.141 173.274 170.469 83.3136 78.8738 109.544 97.1294 -18.5317 94.6235 117.409 -108.906 139.539 111.06 -108.286 104.199 116.087 7.49244 116.744 125.216 5.70128 95.7326 148.564 -14.9145 13.5045 110.729 17.5032 
146.906 175.686 175.181 146.496 146.549 137.292 173.242 170.422 83.3161 79.0452 109.047 96.9712 -18.3822 93.6482 116.601 -108.63 138.687 110.44 -108.155 103.585 116.087 7.62996 116.06 125.062 5.70718 95.1703 148.381 -14.9547 13.6727 110.835 17.5384 
146.898 175.699 175.052 146.371 146.569 137.479 173.181 170.455 83.2904 79.0496 108.483 96.8243 -18.2088 92.6345 115.888 -108.374 137.967 110.009 -108.137 103.082 116.063 7.71826 115.481 125.003 5.65472 94.6104 148.252 -14.9755 13.8189 110.951 17.6369 
146.808 175.696 174.949 146.186 146.59 137.614 173.139 170.542 83.3075 79.0548 107.868 96.654 -18.0493 91.6879 115.413 -108.166 137.275 109.867 -108.244 102.611 115.927 7.78526 114.919 124.906 5.62377 94.024 148.114 -14.9371 13.9238 111.088 17.6889 
146.762 175.687 174.97 146.005 146.627 137.73 173.008 170.632 83.3024 78.9144 107.31 96.5441 -18.012 90.8912 115.293 -108.132 136.612 110.069 -108.553 102.242 115.814 7.71744 114.496 124.894 5.47077 93.5128 148.081 -14.9241 14.0002 111.201 17.6512 
146.823 175.642 174.982 145.967 146.757 137.882 172.827 170.66 83.3185 78.7169 106.802 96.5724 -18.133 90.2075 115.575 -108.267 135.917 110.578 -108.937 101.945 115.847 7.60147 114.193 125.061 5.28047 93.0549 148.231 -14.9244 14.0217 111.269 17.5682 
146.848 175.51 175.041 146.016 146.852 137.931 172.627 170.688 83.3662 78.6653 106.402 96.7102 -18.3183 89.6397 116.122 -108.512 135.226 111.25 -109.34 101.6 115.904 7.46304 113.828 125.201 5.12513 92.6026 148.407 -14.9393 14.024 111.349 17.456 
146.861 175.392 175.127 146.027 146.908 137.961 172.43 170.722 83.477 78.6876 106.09 96.9202 -18.5315 89.1484 116.846 -108.852 134.676 111.973 -109.71 101.215 115.947 7.29465 113.421 125.317 4.974 92.2231 148.616 -14.983 14.0265 111.422 17.4322 
146.758 175.229 175.199 146.124 146.981 137.891 172.275 170.735 83.5498 78.794 105.802 97.1582 -18.6539 88.7181 117.466 -109.048 134.231 112.602 -109.884 100.819 116.066 7.21495 112.978 125.468 4.93974 91.8057 148.794 -14.9912 14.0132 111.497 17.4606 
146.51 175.122 175.247 146.102 147.029 137.879 172.205 170.801 83.771 79.1521 105.389 97.2115 -18.6876 88.2744 117.768 -109.156 133.809 112.822 -109.916 100.201 116.021 7.23545 112.274 125.397 5.03266 91.3722 148.823 -15.0086 14.0187 111.608 17.5181 
146.218 175.062 175.21 146.103 147.062 137.951 172.111 170.814 83.9386 79.4797 104.887 97.186 -18.5512 87.6759 117.629 -108.993 133.263 112.631 -109.696 99.5253 116.026 7.37488 111.55 125.315 5.1906 90.9494 148.813 -14.9717 14.0432 111.702 17.5923 
146.036 175.027 175.11 146.093 147.032 138.182 172.007 170.854 84.0494 79.6943 104.251 97.1706 -18.3361 86.8304 117.353 -108.716 132.583 112.331 -109.392 98.86 116.185 7.56697 110.884 125.375 5.34633 90.506 148.917 -14.9183 14.0651 111.784 17.7419 
145.895 175.034 174.995 146.102 146.97 138.369 171.922 170.891 84.0609 79.7866 103.809 97.2426 -18.0413 86.1623 117.077 -108.384 132.084 112.16 -109.086 98.3674 116.429 7.72723 110.392 125.544 5.46381 90.1257 149.084 -14.8496 14.0954 111.828 17.8534 
145.726 175.068 174.905 146.085 146.938 138.438 171.974 170.948 83.9987 79.8361 103.311 97.3232 -17.6717 85.49 116.751 -107.948 131.456 111.991 -108.77 97.8759 116.711 7.93398 109.879 125.743 5.61525 89.6808 149.228 -14.7344 14.1488 111.923 17.8601 
145.608 175.174 174.834 146.089 146.915 138.482 171.987 171.007 83.8613 79.7809 102.888 97.4453 -17.3135 84.8968 116.558 -107.535 130.884 112.054 -108.558 97.5686 117.076 8.08897 109.532 126.08 5.71337 89.2591 149.457 -14.6111 14.1975 111.99 17.8256 
145.528 175.211 174.79 146.139 146.933 138.423 171.985 171.024 83.7051 79.7071 102.629 97.7167 -17.0614 84.4476 116.555 -107.199 130.317 112.292 -108.41 97.39 117.489 8.19371 109.301 126.489 5.77882 88.8591 149.74 -14.4931 14.2249 111.98 17.7127 
145.436 175.198 174.755 146.176 146.978 138.308 171.889 171.005 83.6082 79.6627 102.372 98.0135 -16.9224 83.8995 116.852 -107.092 129.684 112.803 -108.513 97.2082 117.77 8.13977 109.069 126.817 5.7279 88.4242 150.032 -14.4298 14.2036 111.935 17.6266 
145.346 175.195 174.712 146.2 147.004 138.225 171.715 170.972 83.6108 79.6852 102.039 98.3454 -16.8678 83.3298 117.463 -107.143 129.038 113.59 -108.754 96.9115 118.022 8.01428 108.759 127.093 5.61073 88.0278 150.419 -14.3923 14.1937 111.952 17.5371 
145.278 175.189 174.652 146.204 147.057 138.176 171.498 170.868 83.7626 79.8462 101.754 98.6826 -16.9226 82.802 118.241 -107.346 128.415 114.408 -109.002 96.459 118.221 7.88534 108.285 127.304 5.48953 87.6258 150.78 -14.4093 14.2101 112.009 17.485 
145.18 175.232 174.628 146.091 147.069 138.238 171.462 170.836 84.0281 80.1771 101.312 98.8597 -16.8913 82.1329 118.766 -107.452 127.686 114.833 -109.081 95.8158 118.329 7.93766 107.589 127.381 5.55057 87.1526 151.004 -14.3725 14.235 112.109 17.4949 
144.992 175.483 174.614 145.81 146.976 138.31 171.534 170.836 84.2855 80.5427 100.781 98.7965 -16.6425 81.2264 118.881 -107.343 126.856 114.903 -109.016 95.0883 118.247 8.06853 106.787 127.25 5.67259 86.625 151.019 -14.2803 14.2972 112.225 17.5918 
144.82 175.729 174.669 145.477 146.799 138.427 171.493 170.91 84.4319 80.8148 100.22 98.672 -16.3084 80.1862 118.729 -107.133 126.088 114.733 -108.833 94.3321 118.173 8.20059 105.973 127.099 5.80598 86.0697 150.985 -14.1914 14.3572 112.297 17.8158 
144.737 175.935 174.72 145.223 146.659 138.608 171.421 170.957 84.4864 80.9587 99.6906 98.7045 -15.961 79.3303 118.611 -106.815 125.437 114.676 -108.606 93.7455 118.304 8.36272 105.339 127.17 5.94586 85.616 151.134 -14.0572 14.4292 112.341 17.9499 
144.734 176.132 174.722 145.054 146.544 138.751 171.446 170.973 84.4123 80.9577 99.2564 98.9103 -15.6429 78.6744 118.54 -106.449 124.832 114.767 -108.372 93.4187 118.651 8.52336 104.943 127.494 6.06512 85.2195 151.441 -13.9041 14.5072 112.32 17.9664 
144.725 176.231 174.742 144.943 146.483 138.784 171.516 171.046 84.309 80.9584 98.9871 99.2734 -15.3793 78.2612 118.569 -106.101 124.359 115.042 -108.195 93.1675 119.029 8.645 104.604 127.873 6.18128 84.8441 151.783 -13.7425 14.5748 112.277 17.872 
144.829 176.241 174.796 144.878 146.449 138.854 171.552 171.149 84.271 80.9606 98.782 99.724 -15.2917 77.9688 118.877 -105.989 124.119 115.632 -108.231 92.9881 119.416 8.71271 104.349 128.307 6.27387 84.4963 152.206 -13.6131 14.588 112.264 17.8279 
144.922 176.207 174.887 144.861 146.483 138.848 171.57 171.245 84.2925 81.0115 98.7561 100.267 -15.2868 77.772 119.472 -106.09 124.013 116.492 -108.398 92.8047 119.735 8.68174 104.087 128.699 6.29951 84.1639 152.634 -13.5302 14.5883 112.261 17.8286 
144.996 176.18 174.994 144.83 146.533 138.831 171.522 171.298 84.4359 81.1654 98.6196 100.772 -15.4284 77.4265 120.329 -106.403 123.667 117.359 -108.663 92.4251 119.97 8.57051 103.68 128.948 6.24236 83.8088 153.051 -13.5189 14.5725 112.258 17.8205 
145.06 176.217 175.087 144.725 146.608 138.906 171.476 171.316 84.7753 81.4913 98.298 101.179 -15.6335 76.971 121.247 -106.791 123.17 117.981 -108.813 91.7388 120.114 8.4848 103.026 129.031 6.18674 83.4529 153.444 -13.5576 14.5665 112.248 17.848 
145.086 176.341 175.146 144.464 146.634 139.043 171.479 171.275 85.2107 81.92 97.9094 101.432 -15.6266 76.4235 121.941 -107.03 122.572 118.226 -108.69 90.8797 120.116 8.51767 102.188 128.956 6.22459 83.0543 153.718 -13.529 14.6096 112.159 17.9252 
145.019 176.481 175.236 143.954 146.516 139.303 171.631 171.281 85.735 82.4642 97.1533 101.388 -15.47 75.5738 122.149 -107.067 121.663 117.834 -108.345 89.7981 119.931 8.66161 101.128 128.658 6.35603 82.5658 153.811 -13.481 14.6577 112.008 18.0408 
144.958 176.621 175.272 143.48 146.363 139.586 171.761 171.311 86.1383 82.9022 96.4198 101.289 -15.2001 74.5676 122.015 -106.869 120.726 117.27 -107.919 88.8762 119.804 8.88127 100.208 128.44 6.53914 82.0715 153.846 -13.3933 14.6975 111.873 18.2186 
144.941 176.776 175.279 143.049 146.137 139.85 171.867 171.39 86.3108 83.1352 95.7046 101.208 -14.9248 73.5583 121.701 -106.535 119.84 116.846 -107.62 88.2375 119.824 9.05946 99.537 128.408 6.67426 81.604 153.926 -13.2999 14.7435 111.799 18.3381 
144.918 176.886 175.249 142.664 145.89 140.007 171.958 171.475 86.3379 83.256 95.1119 101.249 -14.5876 72.7033 121.526 -106.174 119.044 116.753 -107.448 87.8117 119.968 9.21209 99.0492 128.533 6.80158 81.192 154.102 -13.1551 14.7986 111.791 18.3579 
145.005 176.929 175.267 142.412 145.682 140.17 171.962 171.593 86.2652 83.2658 94.6943 101.525 -14.3356 72.012 121.596 -105.868 118.434 117.035 -107.385 87.5789 120.318 9.34799 98.7312 128.896 6.92148 80.8487 154.458 -12.9856 14.86 111.831 18.3598 
145.214 176.944 175.259 142.13 145.48 140.368 171.96 171.683 86.3751 83.4092 94.3536 101.896 -14.2802 71.6001 122.13 -105.859 118.167 117.713 -107.473 87.2993 120.552 9.3623 98.3764 129.178 6.96323 80.5766 154.913 -12.8478 14.9162 111.814 18.3996 
145.453 176.997 175.27 141.844 145.302 140.605 171.945 171.757 86.5943 83.6163 94.034 102.276 -14.2934 71.2375 122.881 -105.937 117.918 118.554 -107.614 87.008 120.744 9.38605 98.0095 129.442 7.00214 80.309 155.384 -12.7055 14.9753 111.823 18.4405 
145.677 177.11 175.307 141.572 145.154 140.83 171.893 171.804 86.8512 83.845 93.8292 102.735 -14.3641 70.9635 123.902 -106.151 117.811 119.504 -107.71 86.6743 120.9 9.3527 97.6026 129.663 6.99696 80.0516 155.875 -12.5713 15.0543 111.751 18.5686 
145.814 177.265 175.294 141.364 145.045 140.958 171.808 171.725 87.164 84.1085 93.657 103.274 -14.5413 70.7174 125.162 -106.446 117.658 120.485 -107.711 86.2651 121.007 9.25341 97.1389 129.827 6.93628 79.7659 156.361 -12.4533 15.1248 111.539 18.7211 
