144.688 174.816 176.465 146.095 152.346 138.837 172.346 178.544 84.2578 90.0232 -81.502 400.209 7.72109 -53.4735 414.512 -95.2189 -86.3963 383.202 -104.791 -93.7241 416.244 20.8714 -106.213 411.834 19.1957 -110.149 448.899 -8.96385 11.807 109.178 15.1975 
144.209 175.139 176.18 146.039 153.443 138.396 172.958 178.423 84.1594 90.0992 -81.113 399.887 7.50625 -53.7184 413.81 -95.1139 -85.2283 383.116 -105.085 -93.6676 416.295 21.17 -105.697 411.441 19.1631 -109.909 448.093 -9.04403 12.277 110.152 14.2167 
144.057 175.307 176.63 145.404 153.425 138.113 172.882 178.605 83.8528 90.0607 -81.3216 400.067 7.36228 -53.7511 413.137 -94.5608 -85.2145 383.16 -104.953 -93.9656 416.352 20.9747 -105.774 411.832 19.0621 -109.981 448.26 -8.99066 12.519 109.794 13.8955 
144.258 175.338 176.708 144.824 152.909 138.066 172.797 178.623 83.6882 90.1327 -80.8647 400.197 7.22556 -53.8603 413.267 -94.5277 -85.5528 382.963 -105.026 -93.9094 416.328 20.7825 -105.523 411.898 18.9442 -110.094 448.251 -8.92998 12.7341 109.561 14.1239 
144.401 175.598 177.043 143.86 152.981 138.206 172.693 178.769 83.719 90.3072 -80.3673 399.894 7.03914 -53.4013 412.613 -94.0177 -85.0395 382.681 -104.672 -93.7168 416.377 20.8644 -105.28 411.782 18.9168 -109.95 447.911 -8.82831 12.847 109.556 13.9931 
144.582 175.646 177.329 143.973 152.982 138.071 172.72 178.898 83.3454 90.3714 -79.9496 399.917 6.59207 -53.6603 412.893 -94.159 -85.2277 383.14 -104.595 -93.8261 416.284 20.527 -105.313 411.631 18.579 -109.989 447.897 -8.68133 12.9536 109.342 13.8961 
143.766 175.84 180 143.96 152.586 138.356 172.368 180 82.6851 89.3801 -80.4563 399.344 5.5241 -54.38 412.016 -93.7712 -86.3664 383.69 -104.593 -95.1942 415.976 20.3009 -106.974 411.999 18.6257 -110.138 447.928 -8.47239 12.6325 109.425 13.5892 
143.884 175.997 180 144.178 152.245 139.178 171.823 180 82.3729 88.5141 -80.8507 398.285 4.81509 -54.7104 410.685 -93.3856 -86.8611 383.377 -104.361 -96.0736 415.762 20.3542 -108.198 412.332 18.7692 -110.191 447.815 -8.21033 12.3897 109.161 13.2586 
144.421 176.015 180 144.062 151.318 140.004 171.517 180 82.3647 87.7886 -81.4999 397.125 4.49742 -54.9308 409.696 -92.7188 -87.1216 382.769 -103.594 -96.9578 415.571 20.7673 -109.417 412.541 18.9924 -110.257 447.693 -7.7939 12.2759 108.802 13.1212 
144.43 175.91 180 144.18 150.673 140.654 171.187 180 82.4087 87.0862 -81.5723 395.998 4.5186 -55.0606 409.345 -92.54 -86.9218 382.538 -103.509 -97.3681 415.705 21.4234 -110.053 412.713 19.4331 -110.256 447.471 -7.32587 12.2129 108.982 12.8703 
144.815 175.932 180 144.321 149.961 141.579 170.986 180 82.1836 86.1932 -81.5754 394.267 4.2303 -54.7938 408.64 -92.1358 -86.7958 382.238 -103.189 -98.1437 415.002 21.7413 -111.061 412.362 19.5026 -110.022 446.926 -6.80657 12.1961 108.748 12.845 
145.215 175.858 180 144.086 150.193 141.573 170.863 180 82.7274 87.0004 -80.3176 393.927 4.25533 -52.9172 409.326 -92.0908 -86.8774 382.122 -103.762 -97.3629 414.329 21.8502 -110.248 411.69 19.7107 -109.737 446.462 -6.52325 12.1101 108.73 14.2386 
146.26 176.559 180 143.658 150.876 141.898 171.595 180 83.3358 87.7754 -78.6761 393.809 4.30904 -51.4977 410.248 -92.1088 -86.6972 382.129 -103.974 -97.0677 414.082 22.3945 -109.949 411.504 20.2254 -109.448 446.192 -6.08864 12.0177 109.149 15.249 
146.971 177.325 180 142.417 150.85 141.528 172.623 179.998 84.1826 88.5535 -77.3534 393.468 5.18949 -49.9601 410.439 -91.9128 -86.4836 381.521 -104.057 -96.5382 413.445 23.3416 -109.285 410.691 20.8961 -108.951 445.555 -5.58749 12.1415 109.802 16.2501 
147.84 177.69 180 141.273 151.13 141.388 173.217 180 84.8073 89.388 -75.8884 393.023 6.1887 -48.2012 409.281 -90.6634 -86.0367 380.094 -102.902 -95.7609 412.631 24.3226 -108.453 409.833 22.0675 -108.352 444.717 -5.05939 11.9363 109.833 17.1196 
148.032 177.611 177.977 141.095 151.992 140.672 173.239 179.113 82.0122 90.2978 -76.0031 391.935 7.14292 -46.3051 406.015 -88.3326 -85.0539 376.809 -100.075 -96.2816 410.814 23.3695 -107.791 408.085 22.607 -107.456 443.455 -4.35296 12.2554 107.596 17.6522 
148.031 177.278 176.02 141.755 153.061 140.867 172.939 178.068 81.7798 91.2374 -75.1286 390.545 8.49845 -43.9095 402.897 -86.4831 -84.2147 373.866 -98.2236 -95.5556 408.709 23.7866 -107.02 405.824 23.5117 -106.418 442.016 -3.6883 11.8856 106.308 18.4259 
147.64 177.199 175.924 141.487 153.788 141.026 172.811 177.664 83.0683 91.5066 -73.1864 388.739 10.6083 -42.1377 399.247 -85.3595 -83.1876 371.049 -97.348 -94.0467 406.606 24.9194 -106.325 404.177 24.6768 -105.229 440.142 -3.2999 11.0701 106.279 18.4916 
147.312 176.905 176.248 142.543 154.222 140.665 172.572 177.287 83.8514 91.2757 -71.9022 387.042 11.8949 -40.6777 396.094 -85.0565 -82.407 368.619 -97.3525 -92.6166 405.16 25.7909 -105.444 402.835 25.2485 -104.122 438.351 -3.18685 10.729 106.946 18.5381 
146.409 176.593 176.661 144.154 154.924 140.48 172.293 177.623 84.6128 91.4567 -70.6075 386.137 13.3524 -39.1605 394.849 -84.9442 -79.9665 367.891 -97.6769 -91.1699 405.21 27.0289 -103.933 402.064 25.6225 -103.041 437.231 -3.17747 11.0799 108.508 17.8897 
145.74 176.203 178.021 143.755 154.859 140.328 171.942 178.241 85.2627 91.3551 -69.86 385.148 15.1293 -38.0083 393.205 -84.5253 -78.7318 366.99 -97.625 -89.9304 404.389 27.711 -103.113 401.219 26.024 -101.951 436.243 -3.11048 10.8057 109.287 17.6817 
145.751 175.718 178.567 143.203 154.91 140.488 171.303 178.321 84.42 91.1311 -69.6514 382.865 15.8784 -36.713 390.314 -83.8938 -77.5865 365.233 -97.2545 -89.2521 402.145 27.2754 -102.413 398.966 25.678 -100.567 434.371 -3.23777 10.8467 109.27 17.5857 
145.694 175.397 179.776 142.762 155.14 140.305 170.997 178.391 84.3888 91.0959 -70.0837 380.462 15.7391 -36.3868 388.219 -84.4134 -77.1545 364.698 -97.8385 -88.1296 398.861 26.1597 -101.848 396.616 25.1887 -99.3246 432.53 -3.41573 10.04 108.391 17.1732 
145.255 175.101 179.818 143.489 155.559 140.59 171.316 178.629 84.6529 91.0178 -68.7859 378.36 15.549 -35.7776 386.296 -85.302 -75.6013 362.571 -98.1759 -86.2566 396.706 25.8573 -100.346 394.452 24.8581 -97.9186 430.243 -4.00978 9.70909 108.73 16.6588 
145.297 175.034 179.811 142.971 156.061 141.07 171.43 178.389 83.5954 91.403 -68.2891 376.314 14.3612 -35.0021 385.421 -86.5453 -74.0742 361.963 -98.6061 -86.2342 394.002 24.1512 -99.5749 392.603 23.9524 -96.6228 428.615 -4.7529 10.0508 107.937 16.1371 
145.451 175.197 179.786 145.003 156.404 141.008 171.286 178.087 82.4134 91.5005 -66.1886 374.961 12.377 -33.6489 385.786 -88.683 -72.4773 360.971 -99.568 -84.0875 391.253 22.0806 -96.7757 390.205 22.845 -95.3746 426.625 -5.54264 10.521 106.626 16.3273 
146.373 175.382 179.827 146.549 156.555 141.608 171.241 178.344 82.3156 91.9526 -64.7179 373.92 10.5023 -32.2107 385.622 -89.1546 -70.9161 360.677 -100.385 -82.5646 388.382 19.7857 -95.116 388.332 21.3203 -94.319 425.548 -6.3059 10.845 104.28 16.4002 
147.897 175.687 177.453 148.284 156.732 142.396 170.865 178.461 81.6647 92.6421 -63.7251 373.16 8.72164 -31.1591 386.224 -89.649 -69.7634 360.098 -100.594 -81.2008 386.75 18.405 -93.0002 386.775 20.6958 -93.4572 424.66 -6.84991 11.3946 102.939 16.7924 
148.95 175.971 175.83 150.099 157.055 142.665 170.306 178.2 81.3685 93.7194 -63.1094 372.775 7.12209 -30.5972 387.323 -90.7217 -69.3056 359.242 -100.567 -79.8766 385.707 17.4253 -90.6126 385.759 20.1427 -92.834 424.066 -7.47533 12.287 101.802 17.5028 
149.075 176.163 175.459 152.105 157.794 142.918 169.957 178.325 80.6143 94.7146 -62.5547 372.584 5.42347 -30.3268 388.205 -91.4629 -69.3977 358.936 -100.629 -79.7261 385.569 16.7328 -89.1996 385.158 19.3996 -92.4483 423.767 -7.98359 13.1681 101.685 18.1717 
148.95 176.454 175.635 152.808 158.828 143.403 170.124 178.418 79.6436 95.0708 -62.2371 372.375 4.55145 -30.3307 388.362 -91.8193 -69.6235 358.78 -100.813 -80.983 386.334 17.0817 -89.3379 384.868 19.028 -92.0768 423.565 -8.37114 13.8711 103.642 18.4712 
148.738 177.332 176.22 151.753 159.103 143.801 170.549 176.975 79.1143 95.3622 -61.6704 371.701 4.25112 -29.7263 388.71 -92.2336 -68.8781 358.082 -100.64 -81.5611 385.72 16.8351 -89.3589 383.954 18.7249 -91.674 422.975 -8.61469 14.2453 103.648 18.8922 
148.811 178.166 176.154 151.317 159.554 144.128 171.105 176.479 78.7957 95.611 -61.7646 371.325 3.37775 -29.3099 389.262 -92.7947 -68.8549 357.683 -100.886 -82.1416 385.497 16.3257 -89.5245 383.545 18.1271 -91.5046 422.942 -8.89779 14.5808 103.258 19.4913 
148.644 179.06 175.73 152.021 159.561 143.992 171.955 176.317 78.8806 96.0787 -62.1634 371.665 3.41151 -29.4253 389.725 -93.0416 -69.2026 357.34 -100.656 -82.7841 386.487 17.1052 -89.6873 383.842 18.3605 -91.5104 423.312 -8.95675 14.9728 104.218 19.9342 
148.366 179.457 175.421 150.959 159.644 143.91 172.433 176.225 78.0193 96.2994 -62.2786 372.305 3.67253 -29.4421 390.263 -92.9594 -69.5213 356.96 -100.118 -83.4015 387.459 17.0826 -89.8624 384.25 18.5496 -91.7022 423.843 -8.90371 15.1793 104.257 20.4685 
147.735 179.683 175.44 146.246 159.471 143.461 172.97 176.692 78.7717 96.4178 -62.3494 372.547 4.20343 -29.7224 390.194 -93.0337 -69.5608 356.748 -99.9479 -82.9012 388.662 17.5195 -89.9644 384.941 19.0235 -91.896 424.026 -8.87076 14.4693 104.85 20.3743 
147.422 179.976 175.69 144.509 158.581 143.186 173.416 177.268 79.2914 95.8144 -62.789 372.518 5.31914 -30.0806 389.133 -92.7003 -70.0629 355.717 -99.3607 -82.9223 388.921 18.4414 -90.4859 385.451 19.9003 -92.1529 423.913 -8.5899 14.13 105.197 20.3665 
147.079 179.803 175.972 142.657 158.212 143.13 173.747 177.049 80.2651 95.128 -63.3111 371.909 6.14569 -30.3249 387.36 -92.3132 -70.8794 354.021 -98.8759 -83.0247 388.642 18.9725 -91.4788 385.899 20.2802 -92.5155 423.615 -8.55405 13.5967 104.83 20.5262 
146.672 179.679 176.079 141.632 157.587 142.868 173.572 177.202 81.0091 93.8461 -63.8353 370.919 6.5976 -30.6371 385.593 -92.3247 -71.3481 352.91 -99.2901 -82.2789 387.827 19.0506 -91.9733 385.78 20.4251 -92.7421 422.721 -8.65703 12.7043 104.812 20.2407 
146.572 179.287 176.049 142.253 156.964 142.938 173.394 177.486 82.5977 93.4393 -63.6597 370.363 6.81632 -31.4444 385.353 -92.9148 -72.0376 352.366 -99.7368 -80.6848 387.218 19.7001 -91.3802 385.272 20.4968 -92.99 421.953 -8.68278 12.1645 105.225 20.2468 
146.498 179.176 176.185 141.778 156.438 143.006 173.476 177.999 83.8724 93.4291 -63.6404 370.411 6.73302 -32.2755 385.319 -93.3218 -72.9512 352.27 -100.357 -79.7225 387.204 19.9734 -91.1048 385.325 20.4232 -93.5351 421.789 -8.73101 11.8313 105.394 20.2284 
146.874 179.071 176.592 143.765 155.699 142.816 173.945 178.63 84.1631 93.8906 -63.9852 371.163 7.27061 -32.5962 384.961 -93.0989 -73.6407 352.153 -100.72 -80.4161 387.763 21.1549 -91.0909 385.292 20.9598 -94.0364 422.083 -8.70273 12.5472 106.656 20.2101 
146.87 179.148 176.366 146.483 155.045 142.361 174.344 178.501 83.6873 93.8971 -65.2103 371.026 7.27449 -32.9271 383.521 -92.5567 -74.1798 350.335 -100.383 -81.6151 388.15 21.9075 -91.5481 384.868 21.094 -94.4659 421.747 -8.82176 13.3197 107.453 20.3177 
146.934 178.574 177.534 144.306 153.325 141.849 174.714 178.949 84.2239 93.5763 -67.7345 370.682 8.09467 -33.9021 381.346 -91.1316 -76.2833 349.163 -100.523 -83.14 389.44 23.168 -93.292 385.506 21.6745 -95.5948 421.763 -8.46215 13.4942 109.054 20.3971 
147.621 177.664 177.583 142.446 151.838 141.942 174.414 178.959 84.7224 93.3191 -68.2706 370.842 8.61806 -34.8936 381.307 -91.2402 -77.5756 348.849 -100.526 -82.5372 390.224 23.8371 -92.8975 385.708 22.126 -96.1283 421.862 -8.17765 13.5256 109.798 20.548 
147.336 176.91 179.999 142.154 150.994 141.495 173.587 179.992 84.4602 92.5188 -69.451 370.316 8.93085 -35.5912 381.07 -91.2943 -78.4432 348.892 -100.88 -82.1377 389.28 23.2809 -92.8425 384.893 21.646 -96.4217 421.464 -8.15864 13.3963 109.248 20.612 
147.143 176.448 179.999 141.553 150.76 140.918 173.008 179.996 84.5115 92.3755 -70.2411 370.155 8.93149 -35.9372 381.361 -91.6286 -77.9122 349.658 -101.419 -81.6682 389.042 22.6615 -92.6171 384.652 21.0358 -96.6857 421.353 -8.2671 13.3324 108.664 20.0514 
146.713 176.171 180 141.552 151.014 140.478 172.663 179.999 84.5117 92.1273 -70.699 369.687 8.45916 -36.4037 381.145 -92.1613 -77.6207 350.442 -102.278 -81.4211 388.317 21.8018 -92.6459 384.18 20.1285 -96.7501 420.967 -8.58378 13.2427 108.324 19.3688 
146.431 175.934 180 141.751 151.124 140.467 172.363 180 84.148 91.664 -71.0601 368.917 7.74856 -36.8057 380.516 -92.33 -77.715 350.863 -102.89 -81.8667 387.912 21.1004 -93.3559 383.641 19.2125 -96.8542 420.529 -8.7916 13.2251 108.4 18.8881 
146.1 175.864 179.999 141.344 151.623 140.277 172.548 179.998 84.3548 91.4556 -70.7993 368.808 7.16932 -37.4458 380.598 -92.9568 -77.6426 351.276 -103.364 -82.0181 388.161 20.9394 -93.6802 383.899 18.8793 -96.9477 420.385 -9.02037 13.1516 108.903 18.3507 
145.713 175.75 180 141.555 151.728 139.743 172.28 179.998 84.1382 91.4013 -71.5458 368.984 6.90186 -37.5669 380.912 -93.0954 -77.9671 352.249 -103.641 -82.4491 388.031 20.3391 -94.2686 383.907 18.2798 -97.0113 420.712 -9.14458 13.0468 108.605 18.3024 
145.697 175.671 180 141.169 152.037 139.6 172.075 180 84.3823 91.6903 -71.7754 368.668 6.95329 -37.2784 380.327 -93.0366 -77.9172 352.212 -103.836 -82.1868 387.802 20.3184 -94.0642 383.732 18.4163 -96.9274 420.466 -9.16942 12.8804 108.592 18.2883 
145.749 175.806 180 141.489 152.329 139.636 172.078 180 84.0754 92.1469 -72.1846 368.388 6.76407 -37.2346 379.562 -92.9137 -77.6133 351.797 -103.473 -82.6272 387.296 20.1323 -94.1637 383.363 18.4599 -96.8803 420.26 -9.2111 12.9994 107.991 18.0258 
145.799 175.907 180 141.551 153.076 140.078 172.128 180 83.7948 92.5687 -72.1438 367.611 6.25976 -37.0568 378.51 -92.8173 -77.3106 351.493 -103.579 -83.4837 386.365 19.8886 -94.5109 382.852 18.2818 -96.6668 419.775 -9.35794 13.3208 107.814 17.7269 
145.626 175.944 180 141.398 153.71 140.131 172.085 180 83.5751 93.144 -72.1064 367.633 6.1175 -37.0987 378.338 -92.4539 -76.8399 351.55 -103.236 -83.7594 385.96 19.6581 -94.4054 382.775 18.4541 -96.4824 419.78 -9.37608 13.3308 107.306 17.4081 
145.377 175.987 180 142.245 154.899 140.215 172.009 180 83.1172 93.6397 -71.7847 367.836 6.23728 -36.4598 377.888 -91.9046 -75.8559 351.448 -103.075 -83.9296 385.707 19.4716 -94.0916 382.934 18.8381 -96.1259 419.781 -9.49381 13.3434 107.067 17.1515 
145.207 175.608 180 142.65 154.976 140.261 171.581 180 83.3123 92.3128 -70.8434 367.799 6.15642 -35.8141 377.069 -91.6993 -74.3779 351.091 -103.426 -83.0111 386.605 19.5571 -94.1479 384.303 19.3433 -95.8024 419.606 -9.73968 12.351 107.5 16.5522 
144.824 175.714 179.999 142.559 155.026 140.166 171.723 180 83.6221 92.6901 -70.4535 367.397 6.68122 -35.5229 375.428 -91.321 -74.0377 350.057 -102.971 -82.5602 385.703 19.6443 -93.7434 384.062 19.7569 -95.2113 419.068 -9.84245 12.2225 107.219 16.3235 
144.202 175.756 180 142.502 155.52 139.85 171.571 180 83.3752 92.7322 -70.3418 366.325 6.59225 -34.7446 373.969 -91.1804 -73.4003 349.104 -102.873 -82.0109 383.843 18.9127 -93.2863 383.008 19.6065 -94.4722 417.953 -9.98089 12.1045 106.389 16.2859 
144.149 175.716 179.999 142.702 155.735 140.042 171.118 179.997 83.55 92.7058 -68.99 365.236 6.32447 -33.8414 373.197 -91.5036 -71.6628 347.93 -102.716 -80.1062 382.118 18.3802 -91.524 381.797 19.5129 -93.6345 416.665 -10.1684 12.1177 105.235 15.9334 
143.9 175.742 180 145.352 156.237 139.901 170.623 179.998 82.4222 93.0427 -67.6395 364.659 5.50023 -32.9977 374.287 -92.5475 -70.0781 348.457 -103.241 -78.5801 380.689 17.0266 -89.3217 380.42 18.8716 -92.8368 415.675 -10.4758 12.6076 104.408 15.7889 
143.344 175.588 180 147.178 156.484 139.293 170.621 179.997 80.7723 93.274 -66.2399 364.921 5.19154 -32.4048 375.652 -93.9224 -69.2377 348.274 -103.054 -77.1568 379.693 15.6664 -86.9507 379.394 18.5186 -91.998 415 -10.8505 13.1735 103.654 16.1476 
142.571 175.572 180 146.734 156.607 138.76 170.261 179.998 78.2869 93.9664 -65.4445 364.68 4.67369 -31.9875 376.198 -94.6722 -68.3651 348.34 -103.019 -76.6383 378.482 13.6778 -84.9913 377.761 17.7262 -91.233 414.176 -11.0904 13.808 102.574 16.1352 
142.083 175.299 180 144.241 157.114 137.973 169.987 179.998 72.6675 94.9989 -65.8971 365.443 4.50747 -31.7725 376.627 -94.4041 -67.87 348.656 -101.667 -78.0572 379.608 10.9083 -83.3789 377.081 16.5026 -90.4667 414.59 -11.2931 15.0051 101.869 16.1197 
141.566 175.303 179.664 143.016 157.771 137.442 169.668 179.887 69.266 95.1105 -66.0633 365.73 3.91737 -31.4147 376.816 -94.338 -66.9576 348.666 -101.264 -78.3552 379.183 8.37314 -82.1017 376.491 15.3507 -89.5945 414.58 -11.7259 15.9375 100.219 15.9567 
140.973 175.349 180 139.107 158.489 136.867 169.577 180 68.8971 95.0857 -66.6567 366.419 3.42295 -31.1334 377.749 -94.4445 -66.5317 349.653 -101.553 -78.0793 379.345 7.05997 -81.8386 376.97 14.8981 -88.9306 415.274 -12.0969 15.848 99.3185 15.8865 
141.141 175.071 177.486 138.632 158.857 136.678 168.766 179.154 67.1779 94.1247 -66.7212 366.384 2.1113 -30.155 378.381 -94.0872 -64.5198 351.04 -102.14 -77.9916 378.785 4.67108 -81.5341 377.006 13.4233 -88.0725 415.6 -12.5498 16.4453 97.1263 15.1254 
141.074 174.59 172.641 138.072 159.559 136.077 167.488 177.526 64.6803 93.253 -66.7246 366.278 1.10525 -29.336 377.92 -93.4564 -61.9039 351.705 -101.918 -77.3987 378.751 2.13654 -80.5966 377.235 11.9679 -87.197 415.621 -12.8929 16.9119 94.5078 13.7883 
140.509 175.199 171.557 146.87 158.929 134.952 166.997 177.163 67.162 92.0678 -65.9051 365.67 0.94648 -29.0918 377.801 -93.7558 -60.9522 351.459 -102.038 -74.8822 379.286 4.23388 -79.8184 377.152 11.5685 -86.4359 414.86 -13.3471 15.5865 97.1111 13.509 
140.94 176.221 171.609 148.992 158.558 133.861 166.694 177.182 70.2061 91.2009 -65.5061 365.331 0.410078 -28.6155 378.143 -94.3066 -60.3882 351.234 -102.123 -71.9973 380.169 5.4887 -78.9014 377.475 11.1066 -85.8405 414.548 -13.942 14.1 98.5394 13.7298 
141.608 176.683 172.108 146.297 158.555 133.46 166.369 177.348 74.0371 91.0999 -65.0395 364.754 0.302526 -27.3283 377.642 -94.582 -59.5637 350.45 -102.548 -69.5333 380.03 6.65184 -78.313 377.554 11.046 -85.0969 414.249 -14.4522 13.0301 99.0667 14.107 
143.569 176.706 171.022 145.729 159.316 133.61 166 176.957 70.5714 91.4667 -64.0178 363.817 -0.262759 -25.7255 376.679 -94.8748 -58.0377 349.034 -102.61 -69.6643 379.837 5.01839 -76.2321 376.478 10.0658 -84.0713 413.38 -14.9341 14.3039 98.9921 14.2985 
145.668 176.358 170.42 141.668 159.626 134.098 165.384 175.88 67.8414 92.0797 -62.6331 362.674 -0.836845 -23.8655 376.258 -95.0897 -56.5784 348.137 -102.556 -69.6926 377.496 2.54335 -74.333 374.745 9.02557 -82.9319 412.473 -15.3418 15.7849 96.5663 14.7608 
146.778 176.341 169.517 140.984 158.913 134.062 165.555 175.724 70.2862 92.4189 -60.4836 361.849 -0.929501 -22.6439 376.509 -96.2911 -55.6426 347.543 -103.222 -66.7914 376.293 3.16471 -72.5354 373.374 9.09628 -82.0352 411.311 -15.722 14.7489 97.0009 15.3324 
147.884 176.475 169.622 145.546 158.638 134.478 165.874 176.482 73.711 92.8831 -57.8317 361.085 -0.693006 -21.3444 376.92 -96.9727 -54.7096 347.255 -104.328 -64.4824 378.729 7.11846 -70.604 372.941 9.66069 -81.1652 410.353 -15.9614 14.8719 103.058 15.9217 
146.887 178.175 172.586 147.039 159.135 134.227 166.23 177.505 76.5092 93.342 -58.0682 360.063 -0.453763 -20.3237 376.528 -97.2781 -54.3675 346.73 -104.913 -63.7509 378.402 9.31511 -70.7216 371.995 10.3485 -80.1134 409.505 -15.9423 14.7981 105.605 16.3336 
145.957 178.634 173.867 146.225 159.654 134.497 166.078 177.935 78.6562 93.1361 -57.7995 359.122 -0.00712419 -18.5693 374.679 -96.9381 -53.9236 345.254 -105.469 -62.8862 377.665 10.5502 -71.3255 371.126 10.9293 -78.9358 408.714 -16.1502 13.8594 106.898 16.906 
145.635 178.457 176.212 146.241 159.264 135.192 166.635 178.724 80.7692 92.5026 -56.1854 358.665 0.564478 -17.4352 373.009 -96.7701 -52.898 344.244 -105.998 -61.4364 378.179 12.4401 -71.0354 370.642 11.6745 -77.9335 407.871 -16.3299 13.548 109.374 16.7778 
144.733 178.055 179.293 146.313 158.918 135.925 167.278 179.76 81.7896 92.0642 -55.2733 358.983 1.42343 -17.5895 371.245 -95.9925 -52.0269 344.128 -105.971 -62.1895 379.358 14.5243 -72.1486 371.041 12.6703 -77.1527 407.974 -16.0235 14.0553 111.991 15.5339 
143.536 177.47 179.288 146.389 159.38 136.38 167.481 179.758 82.2051 91.8066 -55.6624 358.929 1.23908 -18.2709 369.871 -94.9846 -52.0814 344.817 -105.746 -62.8368 379.623 14.7833 -73.994 371.337 12.5488 -76.6402 408.452 -15.866 13.4654 112.325 14.4268 
142.575 176.472 176.924 147.069 160.239 136.822 167.366 178.963 81.2706 91.4423 -54.4623 359.038 0.678438 -17.3351 369.88 -95.529 -51.0425 344.316 -105.991 -62.126 379.336 14.0568 -73.473 371.11 12.3599 -75.7963 408.343 -16.107 12.9915 111.849 14.4425 
143.252 175.927 177.652 144.413 159.585 137.507 166.994 179.207 80.5369 91.2356 -52.5269 359.473 0.532285 -16.6948 371.067 -96.2897 -50.8934 344.999 -106.606 -61.2018 378.91 13.3348 -72.0701 371.394 12.59 -75.1889 408.602 -16.0674 12.661 111.242 14.9456 
143.432 175.11 178.089 145.525 159.082 138.235 166.619 179.353 79.8776 90.9492 -51.5558 359.588 0.387151 -15.6838 371.648 -96.6079 -50.4896 345.23 -106.856 -60.2667 378.801 13.064 -71.301 371.08 12.5759 -74.3809 408.665 -15.8687 12.4359 111.197 15.4039 
143.216 174.655 177.241 145.023 158.454 138.747 166.3 179.058 79.4621 90.6481 -51.2885 359.401 0.800498 -14.585 371.557 -96.3016 -49.815 344.802 -106.863 -60.263 378.947 13.1094 -71.3896 371.3 12.7201 -73.8548 408.784 -15.7758 12.3582 111.182 15.7478 
142.762 174.421 179.151 145.808 157.701 139.349 165.789 176.563 79.3128 90.1179 -50.6945 359.015 0.796363 -13.8088 371.678 -95.6348 -49.0173 344.26 -106.144 -59.824 379.412 13.1909 -70.8611 371.187 11.9121 -73.4784 408.8 -15.6846 13.3273 110.766 15.9908 
143.118 173.738 174.24 145.802 157.455 139.962 165.169 177.437 79.0874 89.8551 -49.3876 358.598 0.795328 -13.3902 371.593 -95.6277 -48.1942 344.193 -106.525 -58.8433 379.648 13.2462 -69.6115 371.015 11.9299 -72.9702 408.511 -15.7135 13.6895 111.017 15.8346 
143.326 173.367 172.757 145.068 156.288 140.724 165.04 176.87 79.5653 90.0923 -48.7521 357.88 0.702543 -12.9363 371.567 -95.4378 -47.0905 345.725 -107.488 -58.6199 378.134 12.8373 -69.4146 370.4 11.2238 -72.5996 408.501 -15.6749 13.7891 109.814 15.1335 
143.624 173.104 172.021 146.772 155.243 141.141 165.198 176.412 79.3949 89.9345 -48.4519 357.53 0.72158 -12.413 371.546 -95.0374 -46.6883 347.154 -108.577 -58.6959 377.848 12.4922 -69.5512 370.628 10.8017 -72.4203 408.837 -15.6493 13.7721 109.544 15.02 
144.009 173.245 170.846 148.34 154.338 141.626 165.39 176.181 78.722 89.9369 -48.4054 356.941 0.822558 -11.6966 371.295 -94.3464 -46.4688 347.928 -108.881 -59.0516 376.318 11.8338 -69.7375 370.337 10.6492 -72.146 408.795 -15.3898 13.5013 108.378 15.2543 
144.322 173.464 169.517 147.9 154.047 141.462 165.117 175.479 77.5169 90.1757 -48.0884 356.744 0.334427 -10.9325 372.086 -94.147 -45.8231 349.08 -109.283 -58.3999 375.057 9.97768 -68.8664 369.917 9.88779 -71.7894 408.869 -15.4016 13.0205 106.324 15.448 
