142.261 174.367 180 149.509 155.639 136.832 178.011 180 77.5758 83.7239 -82.4481 492.906 10.4979 -49.1282 514.575 -85.3471 -82.1543 496.55 -98.7416 -94.7762 507.207 23.6467 -109.174 509.984 23.8495 -97.8056 547.802 5.79737 10.12 105.167 11.2178 
142.575 174.626 180 151.044 155.016 136.334 177.93 180 78.2292 83.3457 -82.7299 493.688 10.3233 -48.0863 515.394 -84.6598 -82.6551 498.12 -99.1876 -94.661 509.228 25.5059 -108.747 510.753 23.9818 -98.1532 548.582 5.77933 10.8945 107.839 11.9215 
142.74 175.28 180 151.58 154.353 136.092 176.842 180 79.0466 82.9945 -82.8912 494.354 10.6761 -47.4021 517.044 -84.5347 -83.3482 498.958 -99.3397 -94.5343 510.688 27.07 -108.407 511.697 24.4799 -98.4632 549.332 5.97551 11.6482 109.353 13.0008 
143.214 176.109 180 151.027 153.284 136.047 177.199 180 78.9219 82.9968 -84.0879 495.332 10.4667 -47.9171 518.5 -84.4391 -84.2142 501.04 -99.5248 -95.0075 511.756 26.8168 -109.134 512.861 24.3465 -98.7853 550.549 6.34594 11.3362 109.202 13.0844 
143.312 175.217 180 149.666 152.65 136.04 177.451 180 79.0673 83.2796 -84.6773 495.826 10.509 -48.3941 519.192 -84.3821 -84.9102 502.084 -99.3747 -95.1708 511.962 26.5146 -109.512 513.403 24.5109 -98.9212 551.243 6.66739 10.8993 108.505 13.1195 
143.044 174.856 179.999 148.385 152.119 135.887 177.414 180 79.8047 83.8109 -85.9307 496.693 10.7855 -49.406 519.97 -84.0417 -85.587 503.52 -99.0342 -95.7868 512.402 26.1889 -110.506 514.595 24.4911 -99.2086 552.47 6.96082 10.3247 107.524 12.7777 
142.72 174.576 180 147.649 151.187 135.535 176.979 179.999 79.9853 84.4909 -87.138 497.871 11.4588 -50.3389 520.701 -83.2761 -86.4852 504.689 -98.1647 -96.459 513.388 26.2015 -111.59 515.836 24.7651 -99.5088 553.747 7.53688 9.64794 106.917 12.6909 
142.109 174.077 180 146.876 150.769 135.372 176.435 179.999 78.3097 85.0793 -88.276 499.234 12.3622 -50.88 521 -82.4094 -86.7053 505.147 -97.0466 -96.6378 515.291 25.5827 -111.949 517.151 25.0356 -99.7629 554.987 8.0055 8.99025 106.148 12.4675 
142.078 173.393 180 146.08 150.634 135.183 177.262 180 79.4487 85.659 -89.4492 500.127 13.0333 -51.3813 520.613 -81.5612 -86.6106 505.324 -95.9315 -97.3952 516.538 26.7195 -112.638 518.759 25.6412 -100.153 556.08 8.23636 9.20137 106.303 12.0142 
142.637 173.478 179.999 147.132 150.955 135.445 176.734 179.999 79.5929 85.7067 -90.0003 500.607 13.1557 -51.4844 520.396 -81.0081 -85.8943 504.565 -95.3193 -97.3914 517.526 27.402 -112.791 519.694 26.0332 -100.212 556.66 8.35735 9.12426 106.188 11.6234 
142.589 174.109 179.999 148.134 151.209 135.123 177.702 180 79.4896 85.1967 -90.7303 501.107 13.4485 -51.1515 520.561 -80.8541 -85.1756 504.082 -94.9205 -97.9793 519.953 29.1184 -112.975 521.237 26.5124 -100.377 557.242 8.29348 10.0589 108.277 11.5823 
142.659 175.871 180 147.327 150.89 134.627 178.392 180 79.4024 84.8009 -91.3754 501.584 14.0086 -50.6406 521.045 -80.7342 -85.1088 503.898 -94.8129 -97.7697 520.306 29.264 -112.698 521.592 26.7752 -100.639 557.549 8.28691 10.1571 108.201 11.9876 
142.54 176.155 180 147.054 150.808 134.347 178.5 180 79.2587 84.0734 -91.0105 502.102 14.348 -49.9173 521.53 -80.3325 -85.1244 503.439 -94.4691 -98.0495 521.368 29.8697 -112.799 522.57 27.1399 -100.974 557.991 8.25749 10.5244 108.681 12.691 
142.299 174.27 180 149.045 151.604 134.17 177.977 180 79.0244 83.1975 -90.7683 502.683 14.197 -50.3251 524.562 -81.9393 -85.0474 504.195 -94.8752 -98.3145 523.255 30.8948 -112.8 523.773 27.4783 -101.244 558.609 8.18989 11.182 110.436 13.1225 
142.232 174.271 180 148.895 151.268 134.172 177.977 180 78.1412 82.759 -89.9462 503.551 14.7751 -49.8054 525.784 -82.0695 -85.6498 504.968 -94.8228 -98.0753 523.984 30.4425 -112.393 524.49 27.6197 -101.54 559.387 8.17629 11.2555 110.152 13.8472 
142.1 174.27 180 147.823 150.635 134.396 177.977 179.999 78.6694 82.6818 -89.3776 504.324 15.3928 -49.5675 526.799 -81.8355 -86.4174 505.777 -94.5482 -97.9505 524.581 30.749 -112.402 525.486 28.0386 -101.853 560.304 8.3706 11.1568 109.917 14.4736 
142.181 174.27 180 146.648 150.085 134.335 177.977 180 79.3391 82.7943 -89.0076 505.201 15.5398 -49.6785 527.631 -81.9085 -87.1733 506.245 -94.5679 -97.8896 524.791 30.7385 -112.482 526.108 28.1728 -102.139 561.136 8.3428 10.9922 109.319 14.9112 
142.232 174.271 179.999 145.983 149.472 133.95 177.977 180 79.7969 82.6454 -89.757 506.442 15.8218 -50.2547 528.588 -81.662 -87.9618 507.553 -94.4446 -98.7972 525.755 30.8819 -113.545 527.574 28.1306 -102.529 562.497 8.50826 10.8673 109.176 14.9615 
142.424 174.999 180 146.27 149.249 133.478 178.553 179.999 80.0391 82.4839 -90.3912 507.109 15.6676 -50.764 528.853 -81.6047 -88.8795 508.176 -94.5547 -99.8327 526.79 31.5158 -114.487 528.481 28.2833 -102.847 563.144 8.54281 11.0513 110.056 15.0955 
142.201 174.956 179.999 146.11 149.022 133.18 178.943 180 79.622 82.6043 -90.5074 507.602 15.4995 -51.409 529.279 -81.5823 -89.6789 509.652 -94.7295 -100.501 527.076 30.9919 -115.116 528.875 28.098 -103.12 563.618 8.64204 10.8948 110.013 14.9208 
142.537 175.03 180 146.115 148.821 132.928 179.424 180 79.6656 82.4973 -91.0248 508.163 14.9428 -51.7334 529.379 -81.529 -90.2602 510.763 -95.1623 -101.771 528.195 31.3225 -116.331 530.059 28.1598 -103.455 564.231 8.69023 10.9116 110.961 14.823 
142.218 174.902 180 146.907 148.788 132.47 179.522 180 79.0729 81.8244 -91.4285 508.898 15.0048 -52.375 529.378 -80.8752 -89.9293 511.974 -94.9605 -101.82 529.648 31.5542 -116.607 531.121 28.2434 -103.595 564.845 8.89 10.8036 111.696 13.9367 
142.944 174.716 178.91 147.218 148.967 131.871 179.516 178.546 78.1127 81.4275 -92.7576 510.455 14.2953 -52.9018 530.299 -80.2866 -90.0373 512.717 -94.0884 -102.688 531.348 30.7236 -117.784 533.166 27.9188 -103.695 566.343 8.85224 10.1125 110.788 13.8487 
142.829 174.559 178.25 147.296 148.998 131.412 179.552 177.989 78.0741 81.5172 -92.9664 511.444 14.7858 -52.8801 531.216 -79.9002 -89.3475 513.552 -93.6462 -102.502 531.975 30.387 -117.838 533.625 27.733 -103.702 567.242 8.70805 9.72513 110.284 13.5182 
142.634 174.461 177.947 146.679 148.822 131.245 179.522 177.582 78.0456 81.6302 -93.3065 512.451 15.4689 -52.767 531.511 -79.237 -89.4758 513.93 -92.959 -102.594 532.727 30.0777 -118.043 534.565 27.6027 -103.808 568.323 8.67541 9.52588 109.467 13.6668 
141.923 174.408 177.591 146.637 148.951 131.698 179.602 177.305 78.0247 81.7763 -92.2298 513.226 15.9046 -52.618 532.647 -79.0381 -89.2689 515.305 -92.9679 -102.112 533.494 29.8723 -117.592 535.274 27.6473 -103.796 569.318 8.67729 9.44205 109.226 13.5554 
141.193 177.435 176.944 146.116 148.857 131.879 176.927 176.791 78.5354 82.4692 -91.7631 514.349 16.8782 -51.5762 532.615 -77.7057 -89.6359 516.86 -92.7121 -102.141 534.26 29.9181 -117.588 536.289 27.8382 -104.045 570.632 8.86846 9.40169 108.87 14.1254 
140.447 176.176 176.538 146.482 148.697 131.836 178.651 176.462 78.7217 82.9557 -91.7055 515.122 17.565 -52.1836 537.127 -79.1341 -89.5967 518.659 -92.5287 -101.918 534.317 29.9354 -117.325 536.185 27.9195 -104.156 571.377 9.39442 9.41669 108.365 14.5027 
139.913 174.309 176.417 146.735 148.753 132.145 177.991 176.306 78.6802 83.7299 -90.5447 515.3 17.9565 -52.7713 538.365 -79.8746 -89.1159 519.164 -92.7862 -101.099 533.769 29.4351 -116.395 535.398 27.8237 -103.986 571.53 9.51443 9.38372 107.473 14.0145 
138.924 174.294 176.274 145.867 149.332 131.629 177.986 176.096 78.918 84.082 -89.7594 515.955 18.117 -52.6692 538.802 -80.3052 -88.796 519.216 -93.0014 -100.357 533.562 28.7885 -115.848 535.487 27.653 -103.887 571.81 9.32365 9.09021 106.534 13.9628 
137.451 174.331 176.503 145.857 150.109 131.569 177.998 176.712 78.4494 83.9177 -88.9676 516.978 18.6301 -53.1081 538.95 -80.4955 -88.0259 519.876 -93.1539 -99.7657 534.734 28.5238 -115.451 536.589 27.6593 -103.666 572.616 9.22445 8.85941 106.559 12.9996 
136.48 174.308 176.951 148.604 151.212 131.716 177.99 177.391 77.9823 83.4678 -87.7871 517.55 19.2404 -52.607 539.364 -80.2975 -87.1147 520.486 -93.1945 -99.1389 536.432 29.8565 -114.678 537.3 28.2663 -103.554 572.895 9.53293 9.35353 108.418 12.6151 
136.52 174.297 177.096 150.714 152.035 130.968 177.986 177.768 77.6674 82.9544 -88.4346 518.353 19.9845 -52.5966 539.004 -79.3162 -86.5951 520.894 -92.7232 -99.5122 538.632 31.5232 -114.882 538.647 28.978 -103.435 573.583 9.9404 9.94303 110.526 12.0383 
137.119 174.292 177.31 150.677 151.742 130.438 177.984 177.836 78.466 82.7582 -89.7161 519.058 20.7277 -53.1809 537.97 -78.1956 -86.3925 521.486 -92.1915 -100.196 539.863 32.6752 -115.791 540.138 29.3787 -103.332 574.715 10.417 10.0037 110.891 11.069 
138.402 174.3 177.558 150.624 151.657 130.521 177.985 177.882 78.252 82.39 -90.6666 519.506 20.8726 -53.2302 537.813 -77.9441 -86.3163 522.425 -92.2043 -100.474 540.529 33.0996 -115.897 540.873 29.6073 -103.122 575.48 10.9127 10.3212 111.057 10.6297 
138.706 174.295 177.525 150.499 151.459 130.531 177.984 177.592 77.6255 82.3931 -91.203 520.839 20.5811 -53.0329 539.861 -77.8075 -86.6117 524.404 -91.9947 -100.56 540.989 32.6886 -115.658 541.472 29.4983 -103.055 576.586 11.4324 10.5547 110.444 10.9785 
138.303 174.313 177.673 149.261 150.811 130.375 177.991 177.824 77.6769 82.9026 -91.1607 521.716 21.5319 -53.6012 540.065 -76.8418 -86.0805 525.415 -91.4657 -101.266 541.719 32.9425 -116.1 542.38 29.5624 -102.915 577.668 11.9759 10.8275 110.096 10.1583 
139.008 174.293 177.843 148.593 150.674 130.114 177.984 177.671 78.4389 83.2015 -92.6372 522.676 21.581 -53.4132 539.657 -76.0014 -85.7881 525.545 -90.754 -101.84 541.969 33.2242 -116.799 543.098 29.5838 -102.674 578.708 12.1699 10.664 109.184 10.0081 
141.224 174.276 177.633 147.101 149.736 130.179 177.978 177.074 79.5317 83.9599 -95.6606 524.499 20.3604 -53.8697 539.763 -74.9191 -86.4419 526.535 -89.4545 -103.565 543.294 32.9804 -118.488 545.32 28.8583 -102.367 580.997 12.033 10.5604 107.741 10.0921 
142.449 174.289 177.559 148.339 150.599 129.126 177.982 177.046 80.1287 84.1101 -96.1998 526.009 20.471 -53.8768 540.434 -75.2381 -85.0996 527.538 -89.8617 -103.778 544.087 32.9666 -118.467 546.301 28.5137 -101.835 582.546 11.7555 10.7049 107.278 9.05296 
143.242 174.29 177.52 147.738 150.705 128.97 177.983 177.247 79.8477 84.5732 -95.6878 527.036 21.0288 -53.5138 541.641 -75.5092 -83.4095 527.344 -89.6397 -103.448 545.156 32.6517 -117.862 547.16 28.4373 -101.281 583.8 11.5138 10.7379 106.473 8.60484 
142.965 174.932 177.921 148.278 152.179 129.355 177.927 177.741 79.3432 83.8568 -94.4444 527.269 21.0922 -51.6769 540.483 -74.804 -80.8519 527.156 -89.4339 -102.906 546.935 33.0632 -117.1 548.69 28.881 -100.58 584.481 11.1722 10.8902 107.088 7.82723 
143.132 174.768 177.348 147.479 153.524 129.475 174.539 177.287 79.4828 85.1882 -93.9781 527.423 20.9556 -49.4113 539.983 -74.4689 -79.5885 527.196 -89.584 -101.984 547.638 32.5622 -116.427 549.525 29.3391 -100.009 585.086 10.8248 9.99394 106.481 8.40823 
142.252 174.526 177.082 147.562 154.055 129.962 172.862 176.798 80.0703 85.7453 -92.1281 527.706 20.6336 -47.5542 541.59 -75.2845 -78.4981 527.387 -89.8128 -100.696 547.734 32.5505 -114.953 549.62 29.5385 -99.5424 585.493 10.5227 10.1169 106.055 9.1754 
141.633 174.878 177.172 147.756 154.741 130.761 174.218 176.895 81.2358 86.1818 -91.5737 528.233 20.9522 -48.1897 542.906 -75.836 -78.2661 528.179 -90.1418 -100.294 547.988 33.0985 -114.843 550.261 29.8623 -99.276 586.217 10.7321 9.81926 106.071 8.79488 
140.315 174.815 176.656 145.714 154.408 131.059 173.372 176.767 82.3681 88.1389 -90.737 529.255 21.7208 -46.9947 544.365 -75.9378 -77.7423 528.661 -90.2319 -98.656 548.034 33.5104 -113.296 549.628 30.2344 -98.9391 586.861 10.8395 9.7387 105.798 9.44803 
139.334 175.195 176.44 145.706 155.454 131.859 172.362 176.577 82.5117 88.8021 -88.9447 530.015 22.3129 -45.9245 545.894 -75.97 -77.0281 529.127 -90.0389 -97.159 547.845 33.4809 -111.829 549.305 30.6394 -98.4318 587.379 11.0947 9.57941 105.013 9.90305 
139.104 174.628 176.091 144.563 154.443 133.8 171.526 176.019 82.0529 89.219 -85.3833 530.239 21.7109 -44.5204 547.064 -76.0071 -76.4898 529.492 -89.9243 -94.6647 547.222 32.2662 -110.043 548.166 30.4129 -98.0475 587.344 11.0836 8.63852 103.432 10.5983 
138.954 173.83 175.73 144.827 154.136 135.134 171.513 175.598 81.5279 88.8549 -82.5162 530.428 21.0134 -43.4463 547.076 -75.1135 -76.4383 529.747 -89.4906 -94.3354 546.788 31.7861 -109.355 547.932 30.2236 -97.9447 587.157 11.1677 9.00861 102.865 11.1801 
138.959 173.579 175.655 144.377 153.851 136.665 170.057 175.258 80.6893 89.2118 -80.235 530.659 21.0248 -43.2586 547.734 -74.5439 -75.3283 530.53 -88.9956 -93.4288 546.444 30.9023 -108.059 547.678 30.2421 -97.5754 587.26 11.5148 9.17015 101.619 10.6254 
139.345 173.416 175.245 146.368 153.572 138.666 168.407 174.484 77.9177 89.0419 -78.5759 531.022 21.6888 -43.4841 548.673 -73.8781 -73.9252 531.525 -87.8846 -90.6624 548.521 29.5892 -106.923 547.923 30.0229 -97.1455 587.791 12.1159 7.0036 100.496 9.67353 
140.413 173.244 174.556 146.459 152.604 140.124 166.946 173.735 75.9524 88.4904 -76.7863 531.623 21.5409 -43.4676 550.829 -73.78 -72.6167 533.286 -87.1067 -88.2931 548.701 27.5022 -105.506 547.409 29.4634 -96.7384 588.05 12.7812 5.36815 98.015 9.08531 
141.552 173.426 174.093 147.225 152.15 141.372 165.287 173.301 74.5601 88.1729 -74.8428 533.081 21.5895 -42.7014 553.409 -73.5982 -71.223 535.659 -86.725 -85.9558 549.046 25.9024 -102.85 547.343 28.6902 -96.3711 588.76 13.5009 5.5428 95.6717 8.75375 
142.163 173.52 174.612 151.688 154.919 142.236 164.178 173.587 73.5688 87.8189 -73.8176 534.08 20.7834 -42.2325 555.625 -74.3239 -71.0564 536.447 -87.3332 -84.697 551.094 26.5567 -101.278 548.516 29.1235 -96.1526 589.363 13.5736 5.88927 96.9291 9.31135 
143.761 173.985 175.977 149.988 153.577 143.513 162.693 174.558 74.5667 87.2957 -71.4064 537.018 20.8363 -41.1393 559.119 -73.8566 -70.2457 539.674 -87.4929 -81.6715 551.572 25.7718 -98.7657 549.298 29.2093 -95.746 591.11 14.3783 5.4581 94.5118 9.53552 
144.903 174.707 176.415 147.033 152.319 142.94 163.064 175.265 76.2168 86.9145 -71.5992 538.07 20.3935 -40.399 559.219 -72.8279 -69.998 540.5 -87.391 -80.091 550.826 24.4409 -98.1642 549.666 28.6685 -95.6524 591.793 14.5303 5.11442 91.7518 9.71617 
145.139 175.195 177.509 145.41 152.096 142.39 162.985 176.45 76.698 86.9711 -71.4754 539.651 20.574 -40.2732 559.426 -71.8584 -69.6085 540.887 -86.6948 -79.4264 553.203 25.8435 -97.1682 551.039 29.0469 -95.563 592.918 14.6798 5.35838 92.9319 9.55894 
144.533 175.998 178.85 144.099 155.476 140.946 164.943 177.505 77.9074 86.2032 -72.3661 540.255 20.7242 -40.234 558.996 -72.5248 -71.1332 540.046 -87.1274 -80.1015 554.325 27.9514 -97.9797 553.12 31.074 -95.6141 593.295 14.6196 5.70048 95.5914 10.4309 
141.932 176.336 179.804 148.188 158.382 138.183 166.82 178.398 79.7245 84.9515 -74.1031 540.94 20.6785 -40.1905 558.872 -72.688 -71.6367 539.788 -87.4891 -80.9877 558.175 33.0533 -99.6126 555.574 32.9178 -95.7616 593.591 14.5825 6.11459 102.072 10.7628 
142.131 175.595 179.803 148.992 158.234 137.341 169.895 178.382 79.8156 84.8209 -73.6251 541.631 20.7812 -40.9599 559.115 -72.8758 -72.0419 540.194 -87.0134 -82.6413 559.921 35.1647 -100.449 556.822 33.7966 -95.783 594.338 14.6877 7.49134 104.62 10.3888 
141.981 174.387 179.701 147.509 157.388 137.029 171.271 177.641 80.3563 85.6913 -72.9627 542.192 20.997 -41.3596 560.105 -73.3245 -72.1647 540.867 -87.1622 -82.6586 559.822 35.2574 -100.073 556.708 33.7804 -95.7062 594.826 14.7744 7.80839 104.473 10.2309 
140.995 173.783 179.16 148.386 157.271 136.328 172.537 177.302 80.2089 86.3743 -72.5224 542.373 21.6195 -41.758 560.016 -73.2479 -72.0986 540.876 -86.4986 -83.6716 560.587 36.6253 -100.011 556.812 34.636 -95.6554 594.866 14.8481 8.95408 106.125 9.90837 
140.687 173.59 178.453 149.092 157.372 136.488 174.13 177 80.1582 86.7873 -72.192 542.038 22.5136 -42.0427 559.585 -73.2408 -72.0586 540.65 -86.0973 -85.052 561.857 38.3645 -100.461 557.204 35.4312 -95.5026 595.07 14.9444 10.3831 108.414 9.61171 
139.112 173.039 178.316 149.621 158.506 134.546 176.247 177.804 80.2854 85.9165 -75.0559 542.559 22.6091 -43.8463 557.478 -72.6862 -71.9619 540.709 -86.2274 -86.5456 562.942 39.773 -102.283 558.832 36.4822 -95.3622 595.224 15.2499 10.1573 110.492 7.81632 
139.528 177.281 178.255 151.077 159.319 133.595 178.827 177.935 80.0614 85.0919 -76.4344 542.15 22.1929 -44.256 556.211 -72.72 -72.2049 539.716 -86.3141 -88.0377 563.297 40.5453 -103.886 559.811 36.9147 -95.0968 595.051 15.4101 10.1704 111.595 7.58289 
140.031 177.183 178.543 148.668 157.249 134.349 178.8 178.212 78.1511 83.3628 -76.1212 542.04 22.1221 -44.3375 555.364 -71.9317 -71.7144 539.131 -85.692 -87.9604 563.458 39.6362 -103.878 560.186 36.9593 -94.8163 594.952 15.6547 9.57239 110.842 7.15084 
141.032 176.486 178.224 145.155 153.861 135.222 178.501 177.082 77.0392 83.2883 -76.262 541.51 21.8524 -44.4964 554.382 -71.3059 -71.4047 538.531 -85.1232 -86.9332 563.601 38.3029 -104.131 559.887 36.6101 -94.4773 595.028 16.0875 8.04587 108.951 6.74297 
141.05 173.707 178.576 144.711 154.332 136.851 177.336 176.773 74.3955 83.7718 -75.3453 542.128 21.4518 -43.9341 553.903 -70.2004 -70.2929 539.088 -84.2803 -87.1565 565.032 36.5058 -104.532 560.906 36.3371 -94.0411 595.98 16.1572 7.04269 107.689 6.23195 
141.956 173.572 178.037 144.001 153.009 139.504 175.871 176.153 74.133 83.361 -75.8723 542.652 22.1548 -43.3465 553.325 -68.1412 -69.2109 539.578 -82.6851 -82.9964 570.008 36.3834 -103.691 561.88 34.4952 -93.3764 597.431 16.8329 10.1259 108.065 5.75665 
142.769 175.132 176.81 137.555 153.517 141.586 175.395 175.376 74.2233 81.7652 -77.0336 543.524 22.7168 -44.5322 554.783 -69.9546 -68.5562 540.125 -81.583 -80.2408 572.528 35.8696 -103.34 562.473 33.6578 -92.827 598.395 17.4964 12.3358 107.631 4.9019 
143.406 175.225 176.115 141.192 154.033 142.691 172.403 174.508 72.1911 80.5806 -77.3131 544.062 23.074 -43.7124 557.364 -71.2086 -67.2736 540.948 -81.2028 -79.5891 573.672 35.5576 -102.187 562.072 32.7028 -92.399 598.857 17.8985 14.3277 107.79 5.60739 
144.135 175.482 175.403 146.609 152.461 143.301 170.583 173.947 71.9005 80.1643 -75.5868 544.962 23.3739 -41.6674 558.672 -71.1075 -65.6259 542.147 -81.2297 -78.8269 572.095 35.3177 -101.027 560.933 31.8406 -91.8218 599.311 18.1316 13.9868 105.897 5.66965 
142.891 175.002 175.605 144.451 152.872 142.429 170.213 174.081 74.1173 81.4763 -74.8018 546.151 22.827 -38.9847 561.065 -70.6728 -66.9418 543.086 -82.2579 -77.9288 571.201 35.4907 -100.637 560.81 31.8997 -92.0293 599.953 18.2995 13.269 104.908 8.21619 
141.175 175.187 175.814 143.65 154.454 142.165 169.908 174.823 77.491 82.2723 -74.7544 547.564 21.9455 -37.4879 563.183 -70.7173 -67.7344 544.532 -83.5772 -77.3284 570.236 36.9516 -100.724 561.378 32.9031 -92.2567 600.529 18.6112 11.826 105.142 9.69829 
141.92 175.689 176.313 144.808 154.767 143.001 169.473 176.062 76.7698 80.6766 -73.0303 548.706 21.5136 -36.7402 565.318 -70.9588 -67.3337 545.485 -83.535 -78.2676 570.645 37.3411 -100.166 563.387 33.5873 -92.5508 601.566 18.8648 10.1534 104.833 10.1968 
142.587 175.907 177.062 144.978 153.411 143.578 169.326 176.443 77.9545 82.221 -71.8741 549.23 21.9129 -35.7499 566.95 -71.7602 -67.8255 546.038 -83.8009 -79.4633 569.461 38.6471 -99.3498 563.542 34.9817 -92.4692 602.108 18.898 9.47691 105.349 11.286 
143.653 176.375 177.052 146.175 152.98 143.83 168.594 176.729 79.8759 83.5308 -71.8565 548.93 22.8158 -35.1637 565.44 -70.0987 -67.2466 544.99 -83.4731 -79.9985 565.675 38.195 -99.3816 563.08 35.7698 -92.283 602.32 18.9591 7.09188 101.727 11.1419 
143.765 176.592 177.107 145.618 155.032 142.905 168.598 177.218 77.446 83.2984 -71.6674 550.39 23.0945 -36.1082 566.959 -70.9747 -67.7873 545.907 -84.1292 -83.1804 564.091 36.8118 -99.0488 564.24 36.5712 -92.3797 603.153 18.8484 8.97942 100.526 10.9812 
142.752 176.538 177.355 139.476 155.481 141.397 168.657 177.784 75.7975 82.9186 -71.0709 552.173 23.3608 -36.457 568.896 -70.9263 -68.53 547.269 -84.2236 -84.4116 563.114 34.2388 -98.9278 566.119 37.6621 -92.6872 604.213 19.1824 11.1241 97.3142 11.3592 
143.28 176.032 177.352 128.268 154.163 140.27 168.205 177.388 74.847 83.891 -71.1898 552.841 24.0723 -36.8313 569.665 -70.1174 -68.9802 548.701 -83.7379 -87.0647 561.423 30.5546 -99.3198 567.02 38.0208 -92.5588 605.512 19.4079 15.3534 92.4948 11.2475 
143.946 175.944 177.988 135.531 152.807 137.761 169.359 178.759 74.1953 84.5667 -74.4085 552.187 24.1109 -37.5665 565.731 -68.9686 -69.0438 548.904 -83.6888 -88.7739 567.272 35.5325 -101.66 569.76 38.5437 -92.722 605.941 19.5166 11.6434 100.702 9.86799 
144.466 175.828 178.97 145.565 154.36 137.927 170.142 178.982 75.8895 84.9997 -74.9812 552.56 24.226 -38.2276 565.557 -68.3725 -68.0432 549.511 -82.4405 -88.9648 572.168 40.7823 -101.939 571.176 39.1466 -92.4673 606.713 19.4862 11.7229 107.659 8.70872 
144.752 174.825 180 148.562 155.202 138.751 171.156 180 76.8001 85.6749 -73.9765 553.565 23.6244 -38.0828 566.302 -67.5823 -66.9819 551.224 -82.2 -89.2428 575.67 43.2903 -101.406 572.464 39.6308 -92.119 607.767 19.4188 13.4801 111.635 8.02577 
144.452 174.016 179.874 152.255 156.701 137.538 172.546 179.409 75.5786 84.6327 -76.7427 554.78 22.9993 -39.3345 566.828 -66.8891 -66.5416 553.1 -82.0057 -90.2048 577.458 42.9 -103.62 574.812 40.0591 -92.1283 608.953 19.8654 11.6498 111.691 6.76112 
143.792 173.83 180 151.798 156.884 137.447 174.029 180 76.6232 84.3534 -76.7168 555.215 24.0515 -39.0214 567.264 -65.9803 -65.9062 554.155 -81.4559 -90.6367 578.049 44.3403 -103.778 575.449 41.1582 -91.8088 609.58 20.1783 11.7553 112.841 6.51992 
142.657 173.075 179.827 152.951 156.688 136.19 175.586 178.887 77.4311 83.6146 -78.1203 556.666 24.4822 -39.975 568.268 -65.6546 -66.0997 555.116 -81.1313 -90.9361 579.002 45.2235 -104.524 577.001 41.4639 -91.9402 610.78 20.7667 11.5811 112.569 5.99247 
142.734 174.798 179.792 154.095 158.573 137.699 177.138 178.628 75.647 83.0784 -78.4552 558.047 24.3332 -40.7229 569.61 -65.2622 -64.7909 556.81 -80.5709 -91.2078 580.914 44.9529 -104.144 578.123 41.4126 -91.495 612.187 21.0843 12.3151 112.882 4.61583 
142.519 175.88 179.757 153.99 160.444 138.809 178.136 178.42 73.7552 83.8105 -79.0278 558.996 24.7289 -41.1214 569.722 -64.3336 -63.6048 557.47 -79.8589 -91.6063 582.758 44.2765 -104.077 579.429 41.6663 -91.036 613.51 21.404 12.4235 112.573 3.5277 
142.654 177.311 179.96 150.946 160.534 139.77 179.049 179.744 73.1367 84.1415 -79.3615 560.2 25.0531 -41.9694 571.288 -65.2367 -63.9477 559.513 -80.4198 -91.2058 582.268 42.8758 -103.645 580.115 41.7648 -90.6528 614.776 21.5468 11.5218 110.952 3.01585 
143.433 174.902 179.973 150.246 160.098 140.271 178.197 179.822 73.3896 84.4881 -78.1583 561.244 25.2011 -42.1263 572.829 -65.8936 -64.4851 560.796 -80.6819 -90.7437 582.297 43.0727 -102.329 579.864 41.755 -90.3639 615.681 21.6675 12.5078 110.894 3.20322 
