151.801 171.673 176.257 144.339 141.701 140.951 176.494 171.2 73.1985 69.0477 -44.6134 406.687 -32.1869 -6.87173 374.435 -111.893 -46.2173 339.741 -96.2832 -27.158 397.522 9.01494 -26.6898 384.142 13.516 2.30884 383.388 -6.83865 14.7304 111.259 25.6878 
151.647 171.666 176.522 145.544 142.15 140.111 176.309 171.337 73.7181 69.1493 -43.163 407.529 -30.6352 -4.12598 376.109 -111.832 -43.3631 341.49 -96.694 -25.0267 398.749 9.71478 -24.4674 385.058 13.574 4.21599 384.355 -6.46724 15.2349 112.168 25.5997 
151.307 171.352 176.807 145.102 141.995 139.787 176.121 171.473 73.9549 69.6907 -43.0064 406.107 -29.4241 -1.73662 375.537 -112.067 -40.4654 341.451 -96.6791 -23.8401 398.036 9.67981 -22.9693 384.468 13.3742 5.81616 384.363 -6.60768 15.351 111.993 25.6447 
151.04 170.761 176.947 145.005 142.262 139.204 175.561 170.776 73.8893 70.3198 -42.1705 404.427 -28.3849 -1.10563 374.719 -112.002 -38.2189 342.221 -97.1855 -22.2156 396.739 9.42085 -21.5091 383.218 13.1472 7.35708 383.431 -6.94807 15.0679 111.808 24.3828 
150.636 169.598 176.734 146.221 142.324 139.333 174.51 170.209 73.4958 70.754 -40.7968 403.87 -27.897 -0.459028 375.642 -112.058 -36.9049 344.543 -98.1586 -20.7939 395.933 8.93793 -20.3223 382.507 12.341 8.82397 383.012 -7.38672 15.26 111.169 23.5207 
148.827 170.446 176.809 146.443 142.533 138.853 173.644 169.796 73.4666 71.1327 -39.0214 403.744 -26.9283 0.14723 377.702 -111.723 -35.5183 347.147 -99.1153 -19.0687 395.527 8.77429 -18.7352 381.88 12.119 10.5035 382.673 -7.27385 14.9257 110.414 22.5569 
147.131 169.928 177.478 146.565 143.105 138.633 173.007 169.727 73.0829 71.1676 -37.4639 402.758 -26.5396 1.29631 377.552 -111.131 -33.6993 347.896 -98.7641 -17.3264 394.658 8.80729 -17.031 380.97 12.3967 12.0197 382.328 -7.0918 14.5178 109.866 22.1557 
146.027 170.545 177.266 146.206 143.169 138.45 172.506 169.344 72.7394 70.7638 -36.321 400.518 -27.0332 1.50774 376.597 -110.672 -31.0092 346.991 -98.4101 -16.0129 393.371 8.4609 -15.3011 379.459 12.2775 13.5227 382.399 -7.18622 14.1507 109.072 20.9724 
145.676 171.34 177.562 145.645 143.048 137.622 172.066 168.462 72.2322 70.199 -34.8388 397.494 -27.4027 1.45943 375.022 -110.116 -29.3874 346.632 -97.7359 -14.8961 390.633 8.89059 -13.834 376.855 12.5859 14.7434 381.368 -6.99943 14.2003 107.867 20.0376 
144.032 172.569 175.96 146.049 143.663 135.111 170.977 169.146 71.313 68.885 -30.7143 396.812 -26.2449 1.28441 375.463 -108.657 -26.014 347.655 -97.7685 -11.566 390.417 9.6586 -10.2774 376.581 13.2024 17.8241 382.505 -6.49191 14.281 108.143 17.1861 
144.145 172.504 175.416 146.643 143.426 133.7 171.499 169.211 71.5128 67.8984 -29.7648 394.723 -25.017 0.490492 373.749 -108.427 -24.8791 344.853 -97.4102 -10.6924 389.198 10.6449 -8.91212 374.987 13.9072 18.8881 382.172 -6.39011 14.3017 109.12 16.3961 
143.127 172.907 173.019 147.826 143.421 132.928 171.168 167.811 71.8617 67.3847 -27.6324 393.814 -25.0764 0.369117 372.888 -107.656 -23.8478 343.502 -96.1608 -9.50195 389.086 11.0099 -7.13686 374.579 14.2194 20.3985 382.798 -6.3918 14.1923 108.49 16.0938 
142.096 172.75 170.437 148.925 143.555 131.58 170.98 165.955 72.0917 67.323 -25.9298 394.065 -24.3313 0.425485 374.512 -107.59 -24.7613 343.937 -96.0212 -8.52376 388.469 11.6089 -5.88147 373.972 14.3315 21.5645 383.081 -6.41803 14.3507 107.746 16.9859 
140.365 172.792 170.791 149.798 143.378 130.183 170.898 166.953 72.1841 66.8271 -23.9965 394.774 -23.041 0.761916 376.813 -107.446 -22.9517 344.362 -97.243 -7.55766 388.295 12.0883 -4.37099 373.747 14.491 23.0304 383.942 -6.25748 14.3444 108.299 16.3427 
139.173 172.612 170.889 149.945 143.21 129.262 170.499 166.93 72.0555 66.786 -22.6176 396.028 -22.5676 0.790232 378.938 -107.091 -22.332 345.778 -98.1096 -6.41718 388.01 12.4728 -3.41932 373.4 14.6228 24.1709 384.196 -6.1938 14.2602 108.462 15.8508 
137.773 172.441 171.472 151.057 144.103 128.198 170.124 167.467 71.9374 66.8513 -21.192 397.937 -22.01 1.19696 382.402 -107.19 -20.8826 347.772 -99.5978 -5.16393 388.768 12.5392 -2.09482 374.385 14.4488 25.3144 385.429 -6.4282 14.4284 109.321 15.4932 
136.071 172.593 172.193 152.27 144.881 126.954 170.437 168.553 71.6418 66.7173 -19.3775 399.565 -21.5151 1.84608 384.098 -107.388 -18.4523 348.9 -100.916 -3.68664 389.752 12.6412 -0.613897 375.429 14.4523 26.5949 386.836 -6.53769 14.5105 110.629 14.5983 
134.729 172.959 173.079 152.783 145.205 125.887 170.774 169.162 71.5521 67.1107 -17.9609 402.13 -21.1825 3.09549 387.211 -107.742 -17.6701 351.061 -102.079 -2.29878 391.612 12.3696 0.207238 377.192 14.1198 27.659 387.958 -6.73244 14.4111 111.511 14.8295 
132.373 172.947 173.832 154.115 147.28 123.984 170.76 169.456 70.8694 67.9661 -16.2189 403.344 -20.1829 3.68431 387.283 -108.121 -16.6407 350.997 -102.74 -1.19875 391.859 12.4511 1.31396 378.43 14.3653 28.7456 389.118 -6.85524 15.0142 112.019 14.4747 
132.174 172.828 173.928 154.49 149.385 123.152 170.491 169.387 69.9995 68.6765 -14.9659 403.734 -19.6527 4.16841 386.769 -108.58 -15.1405 350.674 -103.134 -0.262153 391.677 11.8421 2.71317 379.059 14.6514 29.9977 390.192 -7.13116 14.748 111.495 14.0072 
132.645 173.46 174.398 154.823 151.028 122.908 171.3 169.763 69.5983 69.3491 -13.9549 402.965 -18.967 5.5364 384.974 -108.874 -13.3189 348.899 -103.085 0.471004 391.228 11.7638 3.95991 379.253 15.2988 31.1327 390.735 -7.06471 14.5275 111.413 13.919 
133.501 173.482 174.473 155.277 152.639 123.12 170.972 169.784 69.161 69.8591 -12.828 402.229 -18.429 6.47954 384.209 -108.691 -11.4577 348.002 -102.985 1.60779 391.024 11.7242 5.60535 379.675 15.9256 32.5049 391.5 -6.96415 14.3826 111.138 13.545 
133.715 173.71 174.65 155.082 153.384 122.978 170.934 170.139 69.1936 70.5255 -11.6351 402.06 -18.0353 7.6459 384.264 -109.144 -9.52095 347.707 -103.458 1.77458 391.359 11.016 6.55802 380.54 16.0246 33.6521 392.76 -7.00355 14.06 109.979 13.3471 
134.142 174.042 174.914 155.835 154.49 122.869 171.209 170.953 70.533 71.1749 -10.888 401.089 -17.418 7.566 383.277 -109.308 -7.65291 346.627 -104.079 1.90765 391.615 11.3539 7.53428 380.653 16.3002 34.5256 393.507 -7.07583 13.6502 110.175 12.4896 
135.546 174.046 174.831 156.511 155.245 123.62 171.104 171.054 71.8314 71.4665 -10.1906 399.335 -17.2762 7.4678 382.281 -109.129 -6.41445 345.59 -104.104 2.53121 391.083 11.9502 8.72876 379.71 16.4596 35.5874 393.526 -7.09262 13.2209 110.045 12.04 
135.717 174.59 175.082 156.624 155.803 123.663 171.508 171.778 72.8202 72.0285 -9.24128 399.228 -17.2117 7.47187 382.203 -109.014 -5.04148 345.091 -104.886 3.56848 391.618 12.4804 9.66019 379.729 16.5674 36.6306 393.555 -7.10147 12.914 111.16 11.3961 
135.254 174.649 175.035 156.724 156.584 123.015 171.736 172.177 73.7666 72.6856 -8.34325 399.248 -16.9939 7.35767 381.809 -109.074 -3.99853 344.488 -105.424 4.1504 391.814 12.7939 10.4482 379.791 16.6311 37.3814 393.696 -7.35345 12.7922 111.784 10.9462 
133.377 175.297 175.114 157.11 156.832 121.809 172.065 172.422 74.3474 73.0078 -7.20288 400.199 -16.7121 8.08978 383.703 -109.324 -2.66899 346.539 -106.212 5.08367 392.075 13.0705 11.0195 379.981 16.1019 38.1769 393.749 -7.74231 13.2945 112.993 10.6784 
131.696 175.221 174.901 157.081 156.619 122.224 171.889 172.164 74.7124 73.1767 -6.58075 401.441 -17.6303 9.41982 385.34 -109.566 -1.6386 347.774 -106.857 5.74488 392.201 12.6842 11.2487 379.815 15.4417 38.8591 393.185 -8.11014 13.2614 113.44 11.0098 
130.707 174.363 173.713 157.753 156.778 121.764 170.891 170.787 73.9644 72.8594 -5.11942 402.188 -18.157 10.5965 385.96 -109.156 -1.06737 348.648 -105.954 6.57543 392.354 12.0621 11.7696 380.138 14.8197 39.6991 393.569 -8.24264 13.6338 112.384 11.2818 
130.25 173.968 173.482 158.259 156.703 121.473 170.585 170.34 74.0802 72.4666 -4.3756 402.294 -18.0778 11.1563 386.973 -108.996 -0.593819 349.36 -105.685 7.41047 392.657 12.0259 12.5538 380.242 14.4392 40.3675 393.525 -8.26342 13.8486 112.323 11.5862 
132.043 174.192 173.39 158.508 156.363 122.062 170.907 170.591 75.0795 72.4225 -4.28064 400.946 -18.7266 11.2289 386.718 -109.185 0.611086 348.757 -106.059 8.2354 392.38 12.4807 13.3134 379.484 14.0686 40.9163 393.139 -8.55223 14.0217 113.18 11.5174 
131.247 174.481 173.233 158.193 156.47 121.455 171.143 170.079 75.456 72.6578 -3.39151 401.101 -18.4303 11.9376 387.97 -109.15 1.08822 350.506 -106.027 8.88526 392.47 12.572 14.0213 379.661 13.7402 41.5951 393.443 -8.6138 14.3414 112.897 11.4517 
131.24 174.422 172.853 158.171 156.55 121.293 170.788 169.111 75.2364 72.5251 -2.66524 400.836 -18.2677 12.8718 388.776 -108.869 1.5339 351.948 -105.498 9.53735 392.118 12.181 14.9015 379.497 13.4185 42.3937 393.48 -8.65137 14.443 111.803 11.5182 
130.704 174.129 172.778 157.97 157.103 120.974 170.376 168.761 75.6265 72.9909 -2.48366 400.315 -17.0803 13.4456 389.141 -108.654 1.31005 352.455 -105.279 9.96816 392.083 12.4668 15.5094 379.602 13.7606 42.8739 393.057 -8.51 14.4723 111.652 11.7431 
130.233 174.029 172.569 157.713 157.31 120.898 170.493 169.006 76.1098 73.356 -2.35633 400.57 -16.6978 14.0873 389.392 -108.643 1.59835 352.57 -105.677 10.652 392.464 12.9511 15.9946 379.87 14.0312 43.2484 392.572 -8.41541 14.6091 112.551 11.7936 
130.551 174.505 172.455 157.924 157.643 120.735 170.887 169.452 76.5841 73.7903 -2.19084 399.466 -16.3609 13.5592 387.447 -108.51 2.54458 350.905 -105.746 10.8545 391.989 13.1457 16.7115 379.5 14.2782 43.5803 392.4 -8.33315 14.5551 112.651 11.1108 
131.403 174.122 172.094 158.071 157.734 120.447 170.69 169.186 76.8533 73.7931 -2.03953 398.105 -15.9064 13.4115 386.888 -108.143 2.92571 349.774 -105.337 11.1234 391.289 13.2845 17.3808 378.843 14.2841 43.9092 392.251 -8.35799 14.6088 112.306 11.4037 
134.024 173.819 171.609 157.643 157.255 121.448 170.748 168.842 77.2005 73.984 -2.68151 396.201 -15.8128 13.1426 386.032 -107.686 3.50782 348.779 -104.73 11.092 389.874 13.3516 17.9417 377.492 14.313 44.1784 392.243 -8.44837 14.3204 111.429 11.5497 
135.186 173.532 171.574 157.378 157.159 121.85 170.697 168.742 77.7702 73.8979 -2.72485 394.789 -15.6882 12.8099 385.513 -107.431 3.68835 348.288 -104.537 11.1244 389.065 13.6105 18.379 376.648 14.3167 44.4318 392.195 -8.58522 14.2297 110.944 11.4829 
135.911 174.004 171.958 157.498 157.653 122.349 170.756 169.048 78.0277 73.8288 -2.92898 393.082 -15.3939 12.2741 383.989 -107.438 3.40925 346.939 -104.53 11.3087 388.101 13.9901 18.7413 375.639 14.6078 44.5256 391.618 -8.73093 14.0611 111.01 11.3008 
136.305 174.142 172.334 157.619 157.966 122.922 170.902 169.315 78.2951 73.7454 -2.86202 392.386 -15.4475 12.2429 383.333 -107.444 3.52717 346.323 -104.449 11.6008 387.859 14.357 19.0834 375.305 14.9106 44.7286 391.267 -8.79189 13.9607 111.364 11.2399 
137.753 174.523 172.889 156.95 157.37 123.748 171.516 169.829 78.1891 73.5371 -3.02888 391.37 -15.4833 13.0836 383.846 -107.877 4.36293 346.239 -104.925 11.8878 387.509 14.3486 19.4073 374.994 14.8773 45.0135 391.315 -8.83963 13.9185 111.581 11.6534 
138.327 174.447 173.121 156.647 156.917 124.142 171.884 170.016 78.2668 73.23 -3.13668 391.711 -16.2867 13.7417 384.915 -108.228 4.9229 346.832 -105.429 12.0392 387.358 14.1812 19.5669 374.712 14.4932 45.2007 391.381 -9.02366 13.9486 111.632 12.0219 
138.336 174.413 173.291 155.886 156.586 124.228 172.172 170.268 78.3823 73.3846 -3.26147 392.53 -16.7996 14.3603 386.369 -108.475 5.25959 347.706 -106.015 12.0008 387.332 13.9075 19.4422 374.645 14.1982 45.3188 391.373 -9.20779 13.8467 111.744 12.436 
137.426 173.872 173.367 154.625 155.816 123.942 171.886 170.274 78.4645 73.7149 -3.31871 393.227 -16.9185 14.6677 388.326 -108.411 5.20007 349.225 -106.554 12.0437 387.08 13.7268 19.1285 374.292 13.9477 45.3279 390.991 -9.36855 13.7207 111.973 12.7784 
137.056 173.638 173.455 154.398 155.408 123.054 171.677 170.146 78.3567 73.7153 -3.26277 394.372 -17.4644 14.7324 389.674 -108.607 4.47408 350.345 -106.917 12.1271 387.369 13.3057 18.8274 374.487 13.442 45.2624 390.764 -9.73162 13.7766 111.996 13.0673 
136.441 173.276 173.206 154.444 154.4 123.555 171.242 169.653 77.9069 72.9839 -2.97196 395.241 -18.8955 14.4013 389.869 -108.732 3.69259 350.497 -106.709 12.0858 387.203 12.7377 18.5944 374.225 12.6564 45.1373 390.601 -10.0442 14.0958 111.337 13.295 
135.438 172.725 172.788 154.32 153.427 123.59 170.832 169.068 77.4275 72.7009 -2.77063 395.586 -19.5501 14.5511 390.105 -108.882 3.14224 350.813 -106.652 11.9186 386.876 12.0168 18.2961 373.891 11.9506 45.0057 390.593 -10.3396 14.1542 110.52 13.5589 
134.574 172.797 172.75 154.889 153.402 123.567 171.004 169.118 77.0596 72.5416 -2.43976 396.292 -20.3551 14.7437 389.532 -109.546 3.01716 350.558 -107.068 11.911 387.299 11.4928 18.0789 374.416 11.4315 44.8931 390.801 -10.714 14.4477 110.617 13.3939 
133.465 173.101 172.868 155.627 154.177 122.967 171.327 169.348 76.8292 72.3983 -2.21145 397.113 -20.4865 14.5593 389.078 -109.976 2.57359 350.43 -107.34 12.2961 387.857 11.4152 18.1432 374.805 11.306 44.8269 390.896 -10.9996 14.476 111.243 13.1787 
132.96 173.197 172.923 155.935 154.251 122.289 171.429 169.607 76.4823 72.5584 -2.27709 397.626 -20.7259 14.2817 388.737 -110.367 2.60465 349.93 -107.978 12.3598 388.046 10.8921 17.9348 375.094 10.8776 44.7058 390.86 -11.3688 14.5961 111.629 12.9804 
132.566 173.426 173.526 156.479 154.661 121.622 171.702 170.318 76.2625 72.5791 -2.33682 398.001 -20.5397 14.1083 388.668 -110.733 2.40318 349.32 -108.566 12.6217 388.42 10.8071 17.7857 375.349 10.7491 44.5654 390.596 -11.5806 14.661 112.662 13.0871 
132.52 173.868 173.908 156.918 155.053 121.242 172.234 170.926 76.1978 72.5046 -2.38414 397.473 -20.1938 14.1256 388.215 -111.138 2.3584 348.541 -109.075 12.9327 388.316 10.8606 18.0213 375.184 10.7329 44.5464 390.318 -11.7834 14.6606 113.468 13.2027 
132.832 174.115 173.873 157.52 155.519 121.003 172.445 171.093 76.0429 72.5406 -2.37528 396.539 -19.8388 14.1584 387.92 -111.41 2.3128 348.156 -109.3 13.2828 388.246 10.9216 18.3191 375.154 10.8364 44.5257 390.13 -11.9205 14.673 114.027 13.2735 
132.731 174.2 173.669 157.953 155.773 120.808 172.425 170.852 76.0385 72.3211 -2.19134 395.801 -19.6287 14.2855 387.721 -111.442 2.34149 347.926 -109.193 13.5532 387.94 11.0673 18.5884 374.714 10.8742 44.5797 389.886 -11.947 14.6616 114.214 13.4178 
133.058 174.098 173.634 157.978 155.872 120.707 172.362 170.879 76.2554 72.5691 -2.39656 395.999 -19.7486 14.4156 387.667 -111.454 2.47787 347.767 -109.322 13.6917 387.846 11.1973 18.5271 374.488 11.0324 44.6092 389.33 -11.9681 14.5101 114.723 13.4357 
132.573 173.884 173.411 158.356 155.944 120.616 172.305 170.694 76.1894 72.6639 -2.27232 395.341 -19.5589 14.6487 387.33 -111.525 2.54763 347.433 -109.327 13.814 387.47 11.1485 18.6168 374.087 11.1664 44.6237 388.745 -12.0156 14.3173 114.93 13.5103 
132.282 173.829 173.039 158.755 155.894 120.813 172.121 170.445 76.2678 72.6995 -2.27537 395.206 -19.7921 14.8451 387.442 -111.569 2.79667 347.383 -109.375 13.9178 387.418 11.2141 18.6036 373.985 11.2088 44.5917 388.412 -12.0505 14.344 115.271 13.6295 
132.194 173.776 172.632 159.182 155.838 121.621 172.074 170.17 76.2948 72.4349 -2.1952 395.034 -20.4998 15.1287 387.078 -111.633 3.12167 346.893 -109.271 13.9547 386.952 11.1301 18.7508 373.464 11.0966 44.7075 387.895 -12.1098 14.3924 115.194 13.7793 
132.345 173.712 172.528 159.115 155.636 122.073 172.134 170.096 76.3751 72.306 -2.24886 394.475 -20.5877 15.7305 387.127 -111.86 3.62242 346.708 -109.447 13.6732 386.459 11.0166 18.7665 373.053 11 44.7224 387.675 -12.0994 14.3867 115.007 14.0674 
132.021 173.511 172.413 159.219 155.741 122.433 172.16 170.124 76.4269 72.549 -1.9595 393.825 -20.883 15.9461 385.842 -112.049 3.93728 345.982 -109.563 13.407 385.884 10.884 18.7444 372.732 10.9887 44.707 387.306 -12.0903 14.4782 114.762 13.7186 
132.499 173.612 171.935 159.107 155.946 123.062 171.864 170.038 76.5358 72.8242 -1.85976 392.988 -21.1402 15.772 384.5 -112.115 4.30655 345.29 -109.525 13.1583 385.402 10.8775 18.8081 372.569 11.1018 44.7179 387.121 -12.0612 14.6309 114.492 13.2193 
132.486 173.129 170.918 158.812 155.922 123.108 170.763 169.309 76.6422 72.7662 -1.93315 393.071 -21.0554 15.8428 384.231 -111.785 4.52662 345.356 -108.987 12.8445 385.113 10.7949 18.75 372.374 11.0887 44.7788 387.217 -12.0205 14.6414 113.775 13.1566 
132.729 173.088 169.574 158.232 155.626 123.13 169.999 168.623 76.8997 72.7084 -2.07338 392.616 -20.6707 15.5739 383.672 -111.414 4.75513 345.472 -108.537 12.4612 384.679 10.8772 18.7214 371.986 11.1616 44.79 387.344 -11.9074 14.5887 113.059 12.7903 
133.774 173.347 168.65 158.246 155.697 123.613 169.385 167.921 77.0071 72.3605 -2.28819 391.251 -20.3933 15.2691 382.319 -111.205 4.64584 344.944 -107.831 12.2573 384.254 11.1 18.7742 371.504 11.3452 44.7276 387.313 -11.8455 14.573 112.514 12.4741 
133.699 173.508 167.165 158.037 155.722 123.348 169.017 167.131 77.1274 72.3464 -2.22516 390.919 -20.1321 15.05 382.115 -110.796 4.273 345.397 -107.324 12.2816 384.073 11.3702 18.7333 371.187 11.5169 44.6811 387.263 -11.7249 14.5298 112.123 12.2874 
132.728 173.464 166.723 158.213 155.663 122.771 168.707 166.89 77.2348 72.4954 -2.14815 391.311 -19.6635 15.2173 382.577 -110.577 3.68567 345.696 -107.093 12.1411 384.354 11.5473 18.4264 371.422 11.5291 44.5534 387.192 -11.5437 14.7274 112.058 12.6081 
133.683 173.516 165.527 158.444 155.202 122.906 168.268 166.131 77.2599 72.219 -2.6578 390.271 -19.2608 15.0696 382.462 -110.142 2.84798 345.55 -106.378 11.7896 383.871 11.8182 18.1056 370.792 11.5151 44.2287 386.853 -11.2621 14.9469 111.486 13.0298 
134.414 173.204 165.992 158.301 154.735 122.814 168.514 166.328 77.2977 72.4093 -3.07881 389.362 -18.7952 15.1138 382.527 -110.093 2.70091 345.283 -106.338 11.5403 383.656 11.8896 17.7598 370.534 11.5202 44.0005 386.591 -11.0505 14.9747 111.439 13.2457 
134.76 172.627 166.848 158.515 154.215 123.224 168.679 166.52 76.9658 71.9292 -3.16898 389.045 -19.0316 14.8306 382.197 -109.837 2.34239 344.657 -105.632 11.2314 383.448 11.9193 17.3507 370.276 11.4898 43.7193 386.402 -10.8175 15.1478 111.174 13.4755 
134.828 172.461 168.66 158.789 154.416 122.937 169.031 167.655 76.7429 72.0442 -3.2565 388.744 -18.6225 14.5297 381.455 -110.028 2.04318 343.579 -105.66 10.8083 383.636 11.8374 16.9215 370.653 11.6505 43.366 386.38 -10.7065 15.1084 111.395 13.4724 
134.54 172.223 170.509 158.596 154.086 122.671 169.614 168.599 76.5842 72.0228 -3.40914 389.229 -18.6089 14.0235 381.966 -110.018 1.75228 343.246 -105.878 10.5265 383.916 11.7353 16.5212 370.999 11.5906 43.0573 386.391 -10.6125 15.1374 111.678 13.6183 
134.427 172.015 171.889 158.194 153.378 122.538 170.145 169.359 76.4947 72.1496 -3.57983 389.43 -18.4895 13.3745 381.676 -109.86 1.49952 342.57 -105.884 9.96932 383.895 11.5451 16.0225 371.025 11.4964 42.7458 386.453 -10.4563 15.0628 111.496 13.5439 
134.238 171.411 172.55 157.97 153.123 122.29 170.199 169.545 76.3098 72.0482 -3.88251 389.169 -18.3904 12.6863 381.571 -109.658 1.32646 342.098 -105.918 9.38663 383.194 11.2203 15.6152 370.357 11.2553 42.3864 386.273 -10.4312 14.9103 111.059 13.5477 
134.527 171.253 173.528 157.861 153.217 122.294 170.527 170.159 76.2989 72.2169 -4.33689 389.278 -18.3347 12.3827 381.641 -109.858 1.21529 341.805 -106.289 8.91958 383.194 11.0032 15.2521 370.345 11.2086 42.0991 386.306 -10.4185 14.6694 111.079 13.5877 
135.299 171.115 174.109 157.402 153.346 122.368 170.648 170.734 76.603 72.4362 -5.09343 388.589 -18.017 11.8163 381.375 -110.022 1.12724 341.185 -106.882 8.40006 382.935 11.0665 14.8436 370.076 11.2939 41.7095 386.07 -10.4738 14.5002 111.422 13.4913 
135.851 170.914 174.477 157.387 153.822 122.525 170.425 171.003 76.5785 72.3151 -5.77101 387.564 -17.5924 11.685 380.681 -110.15 1.22113 340.267 -107.258 7.95392 382.505 11.0102 14.5062 369.618 11.3457 41.3453 385.734 -10.5017 14.3659 111.66 13.4427 
136.769 171.093 174.678 157.245 154.251 122.701 170.476 171.371 76.7338 72.4151 -6.51184 386.424 -17.369 11.5082 380.332 -110.444 1.12955 339.535 -107.859 7.82002 382.24 11.1204 14.2139 369.241 11.4008 41.0411 385.282 -10.651 14.2748 112.243 13.4989 
137.332 171.198 174.59 157.06 154.046 123.157 170.588 171.394 76.8659 72.4203 -7.00188 385.764 -17.7525 10.9945 379.086 -110.488 0.839504 338.401 -107.774 7.46162 381.708 11.1706 13.9293 368.693 11.353 40.7351 384.886 -10.6442 14.3624 112.029 13.3532 
137.112 170.963 174.442 156.818 154.272 123.562 170.54 171.445 77.3602 72.8303 -7.4822 385.927 -18.0712 10.0781 377.643 -110.027 0.564747 337.536 -107.557 7.08989 381.39 11.4417 13.6001 368.323 11.5433 40.4918 384.451 -10.6039 14.3431 112.061 12.6943 
136.282 170.769 174.328 156.947 154.723 123.871 170.525 171.464 77.7575 73.1251 -7.89036 386.734 -18.6101 8.91399 376.316 -109.099 0.263022 336.951 -107.192 6.77355 381.14 11.5669 13.4278 368.064 11.6868 40.3269 384.024 -10.5619 14.2691 111.915 11.776 
135.139 170.289 173.801 157.019 155.189 123.899 170.044 171.128 78.064 73.4328 -7.86145 386.788 -19.0213 8.02628 374.316 -107.845 0.0243721 335.853 -106.404 6.4884 380.545 11.7074 13.2746 367.466 11.9822 40.2401 383.313 -10.3673 14.1507 111.378 10.8161 
134.151 169.908 173.422 156.676 154.864 124.143 170.271 170.931 78.5202 74.0483 -7.79595 386.587 -19.373 7.06892 371.299 -106.591 -0.0623903 333.911 -105.632 6.02878 379.88 11.9464 13.0495 366.752 12.5479 40.1471 382.798 -10.0761 13.7665 110.654 9.62461 
133.247 169.314 173.6 156.103 154.362 124.375 170.772 171.083 79.0007 74.4433 -7.37886 385.802 -19.7253 6.47258 368.025 -105.124 -0.172119 331.431 -104.597 5.66673 378.894 12.3252 12.9243 365.568 13.1781 40.1346 382.137 -9.65455 13.3254 109.746 8.63196 
133.46 170.448 173.84 155.655 153.775 124.905 172.063 171.337 79.4652 74.734 -6.98276 383.818 -20.2103 6.24296 363.184 -103.709 0.704072 328.081 -103.869 5.2466 376.994 12.7054 12.9046 363.6 13.7459 40.1386 380.883 -9.16074 13.0448 109.062 7.07673 
132.876 171.934 174.6 153.174 151.67 123.944 174.319 171.932 80.1915 75.4267 -6.63829 381.774 -20.2735 6.02699 359.079 -102.122 2.4855 324.934 -103.536 5.312 373.964 13.5607 13.5422 360.74 14.8418 40.1322 379.471 -8.55304 12.5188 108.589 5.78941 
134.894 173.529 175.839 150.942 149.253 124.729 174.857 172.834 80.5206 75.5135 -6.55071 378.986 -20.5161 7.71354 356.864 -103.178 5.50229 322.08 -103.531 5.47936 370.848 14.2 14.4887 357.648 15.8112 40.098 378.378 -7.85444 11.7247 108.562 6.75179 
135.281 175.783 176.772 147.962 145.869 126.055 175.813 173.574 80.7388 76.3528 -6.57653 376.47 -20.9494 8.83403 354.929 -103.271 8.70323 320.838 -103.642 5.5228 368.717 13.9091 14.2973 355.473 15.2999 40.2569 377.432 -7.63956 12.038 108.576 6.27948 
136.659 177.109 177.907 145.717 143.03 126.763 176.644 174.548 80.4203 76.9858 -7.28599 374.877 -20.7532 9.55954 354.425 -103.57 11.6869 320.424 -103.93 5.84446 367.467 13.0887 14.6395 354.382 14.5938 40.355 377.558 -7.85769 11.9879 108.787 6.30242 
