145.95 170.329 170.776 145.588 148.475 139.359 168.213 172.85 83.7036 91.2901 45.9925 313.37 6.49216 4.91037 334.29 -90.8031 58.5404 315.382 -95.1951 40.8759 327.976 16.4355 52.6123 329.602 16.5351 48.438 370.232 -3.38504 13.181 103.301 25.7364 
145.899 168.911 170.237 145.343 147.949 139.168 168.924 171.896 83.1238 91.4809 48.9069 313.828 5.70859 6.91457 336.162 -91.1691 60.4309 316.988 -95.5159 43.3245 328.11 15.5514 54.974 329.846 15.5599 49.6594 370.528 -3.30567 13.2179 103.329 25.7768 
145.832 169.32 171.476 145.579 148.372 138.238 167.429 172.713 82.4966 90.6701 53.0711 312.835 5.3014 8.03553 335.552 -91.1452 63.3086 316.808 -96.4796 46.1573 327.997 14.958 57.9113 330.081 14.7248 50.938 369.732 -3.57018 13.2339 103.81 26.8848 
145.593 169.645 172.72 145.505 148.026 138.329 165.914 171.754 82.4293 90.2289 54.8823 311.52 4.23192 9.11552 335.687 -91.031 64.7926 315.927 -96.3648 48.2718 326.994 14.6055 60.1369 329.258 14.1773 52.127 368.57 -3.60616 13.1498 103.334 27.5994 
145.149 169.457 172.631 145.574 147.784 138.5 165.473 171.595 81.8488 89.5343 55.9758 311.207 4.10552 10.4433 334.807 -90.6892 66.783 314.855 -96.0134 49.9578 327.133 14.6549 62.0115 329.279 14.2899 53.5596 368.144 -3.75946 12.9456 103.532 28.1565 
145.048 168.924 171.059 146.021 147.693 138.222 166.008 170.708 81.1773 89.1226 57.4185 311.901 3.85692 12.3261 335.829 -91.0621 69.2694 316.617 -96.4189 51.4831 327.756 14.2525 63.8413 329.773 14.1305 54.9172 368.552 -3.63014 12.5422 104.307 28.3631 
145.293 168.472 170.923 145.596 147.076 137.985 167.273 169.705 80.5869 88.6882 59.9308 311.865 3.69606 14.0628 336.261 -91.4977 71.376 317.423 -96.7606 53.7026 327.706 13.6458 66.2379 330.136 13.8216 56.0599 368.516 -3.41914 12.1468 104.074 28.486 
145.575 168.337 171.913 145.584 146.688 138.359 168.059 169.588 80.5032 88.0072 61.93 311.195 3.41652 15.2473 335.664 -91.5503 73.0531 316.722 -96.6004 55.7371 327.541 13.9213 68.4427 330.259 13.8717 57.2889 368.064 -3.292 12.0747 103.961 28.8827 
145.459 167.979 172.064 145.484 146.336 138.462 167.604 168.884 80.3286 87.1087 63.4106 310.532 3.20874 16.2791 333.494 -90.826 74.4799 315.153 -95.9687 57.465 327.542 14.1005 70.4376 330.58 13.9839 58.5543 367.583 -3.29897 11.8854 103.286 29.0232 
145.484 168.925 171.328 145.409 145.714 138.721 166.876 169.223 80.0052 86.575 63.8057 310.685 3.42558 16.9531 332.469 -90.1531 75.7904 315.252 -95.9049 58.4019 327.969 14.2045 71.6907 330.897 14.4548 59.9788 367.848 -3.23783 11.4728 103.388 29.1554 
145.983 171.603 170.605 144.637 144.643 138.535 166.704 169.369 79.9935 86.8494 64.5964 311.232 4.02547 18.5289 332.792 -90.7339 77.6373 316.097 -96.0773 59.4385 327.925 14.2349 72.7403 330.806 14.8768 61.1402 368.235 -2.90735 11.2493 103.429 29.0416 
146.469 174.108 169.803 144.215 144.131 138.349 167.333 169.029 79.8844 87.0004 66.3687 311.491 4.67798 20.5362 332.847 -91.3048 78.9864 316.205 -96.1308 60.8773 327.557 14.1965 74.1174 330.57 15.1753 62.2135 368.316 -2.57981 11.0718 102.939 28.3891 
146.873 176.275 169.611 143.302 143.558 138.338 168.4 169.264 80.4772 87.3729 67.8869 310.85 5.46002 21.6672 331.871 -91.4154 80.1992 315.726 -96.2937 62.1546 326.513 14.3798 75.4879 330.044 15.5527 63.0133 367.825 -2.22728 10.7794 102.497 28.2062 
146.917 178.085 169.42 143.328 143.613 138.039 169.075 169.145 80.1091 86.8023 70.2005 310.508 5.97865 23.0133 331.168 -91.4326 81.1963 315.648 -96.1156 63.7065 326.605 14.6084 77.01 330.596 15.6501 63.8053 367.46 -1.81214 10.905 102.514 27.8344 
147.024 179.262 168.724 143.498 143.893 137.651 168.543 169.078 79.6208 86.1257 72.2903 310.422 5.94334 23.6961 330.045 -91.4386 81.9853 315.633 -96.2974 65.4494 327.428 14.7108 78.6572 331.664 15.5224 64.6853 367.452 -1.9476 11.0862 102.824 27.7245 
147.246 179.285 169.069 143.561 144.015 137.424 167.26 169.651 79.8899 86.2003 72.7516 310.727 6.31781 24.3959 330.148 -91.3549 83.4908 316.106 -96.4341 65.9804 327.946 14.966 79.2217 332.172 15.7935 65.7583 367.901 -1.97209 11.1249 103.286 28.1682 
147.667 177.868 169.791 143.876 144.342 137.374 166.195 170.356 80.4431 86.6481 72.3071 311.681 7.0001 25.2203 331.527 -91.4217 85.0902 316.794 -96.3875 65.9354 328.716 15.7235 79.0855 332.6 16.4713 66.9237 368.879 -1.76637 11.4042 103.982 28.7024 
148.066 177.274 170.85 143.918 144.43 137.746 166.336 170.798 81.4418 87.3968 72.5058 311.906 7.48551 26.3486 332.499 -91.8159 86.6922 317.162 -96.6147 66.2792 328.753 16.4754 79.2722 332.479 17.047 67.8703 369.361 -1.61142 11.6403 104.466 28.9777 
148.699 177.352 172.361 143.818 144.47 138.166 167.435 171.291 82.686 88.274 72.3796 311.405 8.45574 27.3408 332.438 -92.056 87.3347 315.976 -96.4213 66.5034 328.162 17.7361 79.3598 331.733 17.9707 68.7197 369.177 -1.33166 11.8917 104.749 28.7755 
148.912 178.184 173.061 144.096 144.7 138.457 168.628 171.259 83.6541 89.0716 72.2756 310.539 8.74213 28.3748 332.833 -92.5848 87.3066 314.999 -96.3651 66.4724 327.363 18.5111 79.2922 330.606 18.3957 69.3348 368.582 -1.20014 12.0556 104.981 28.2653 
148.692 177.769 173.35 144.287 144.97 138.418 169.412 171.14 83.7611 88.9242 73.4149 309.878 9.05914 29.26 332.294 -92.2696 87.5653 314.274 -95.8472 67.6606 327.355 19.2084 80.3871 330.587 18.5221 70.009 368.096 -1.02469 12.4206 105.276 27.9869 
148.567 178.061 173.092 144.409 145.227 138.497 169.346 170.623 83.5172 88.617 74.3306 309.672 8.81128 29.8379 331.65 -91.6298 88.1992 313.791 -95.0774 68.7957 327.813 19.3943 81.5347 331.086 18.4902 70.7586 368.015 -1.02684 12.5307 105.174 28.1681 
148.695 178.379 173.001 144.924 145.616 138.485 168.636 170.465 83.2012 88.1784 74.8721 309.89 8.60994 30.4105 331.245 -90.9749 88.9626 313.654 -94.6021 69.6313 328.872 19.6816 82.4575 331.949 18.5258 71.6515 368.361 -1.12493 12.6604 105.51 28.3232 
149.012 178.035 173.143 145.282 145.941 138.596 167.343 170.697 83.4014 88.3395 74.7354 310.72 8.66333 30.8833 332 -90.4885 90.0259 314.102 -94.2892 69.6341 329.544 19.9234 82.5298 332.366 18.8023 72.674 369.105 -0.996747 12.7358 105.575 28.782 
149.231 177.628 172.376 145.178 145.894 138.755 166.919 170.746 83.7459 88.6214 75.9129 311.692 9.36095 31.8288 332.941 -89.9734 91.4159 315.52 -94.1727 70.8358 330.154 20.4592 83.6994 333.1 19.3345 73.7265 370.07 -0.600779 12.7391 105.819 29.0309 
149.439 177.627 172.228 144.885 145.593 138.746 167.275 170.817 84.2054 88.7519 77.8241 312.35 10.4349 33.1629 333.561 -89.4061 92.5601 316.871 -94.0548 72.7171 330.508 21.2394 85.5288 333.838 19.9129 74.7047 370.815 -0.0243855 12.7824 105.96 28.8176 
149.928 176.619 173.02 144.621 145.306 138.596 167.951 171.446 83.6048 88.021 79.9846 312.342 11.6161 33.5147 331.642 -88.5167 93.2386 316.135 -93.9372 74.7576 331.335 21.9698 87.5921 334.729 20.3823 75.6019 370.966 0.214431 12.827 106.315 28.7169 
150.324 175.925 174.223 144.741 145.229 138.658 168.275 172.216 83.1281 87.2926 81.1975 311.277 11.8251 33.8901 328.909 -87.8465 94.0079 314.738 -93.9463 76.4484 331.863 22.6502 89.3089 335.226 20.7111 76.4483 370.319 0.175192 12.9538 107.079 28.6999 
149.97 176.646 174.56 144.32 144.857 138.595 169.221 172.147 82.7049 86.8385 82.9004 310.858 12.3348 35.3595 327.548 -86.9891 94.7703 313.999 -93.0875 78.158 331.643 22.9103 90.9745 335.333 20.8843 77.0219 369.773 0.537255 12.928 106.77 28.2419 
149.685 177.783 174.566 143.825 144.585 138.457 169.424 172.331 82.1998 86.4701 84.3467 310.735 12.6934 36.7614 327.296 -86.4321 96.0566 314.466 -92.8419 79.7368 331.313 22.6349 92.4555 335.378 20.709 77.6934 369.554 0.836532 12.9123 106.496 28.1894 
149.46 179.912 174.396 143.361 144.501 138.314 169.903 172.403 81.6204 85.9252 86.1602 311.14 12.682 38.3861 328.354 -86.3223 97.7716 316.237 -92.8884 81.8039 331.625 22.3081 94.2761 336.247 20.4258 78.5065 369.859 1.19666 13.0265 106.551 28.3287 
149.692 177.019 173.942 142.727 144 138.572 171.337 172.528 81.4889 85.8497 87.6827 311.501 12.9698 40.2055 329.551 -86.4192 99.5827 317.564 -92.787 83.9414 331.958 22.487 96.0698 337.014 20.5905 79.3528 370.256 1.55938 13.174 106.745 28.4596 
149.249 175.51 173.306 142.574 143.9 138.565 173.282 172.256 80.603 84.7462 91.3507 312.169 13.8306 42.7477 330.685 -85.7641 101.065 319.014 -92.0274 87.2207 332.602 22.5775 99.1907 338.369 20.6302 80.9962 370.578 2.35056 13.1656 106.614 28.0439 
149.225 175.556 173.028 143.211 144.228 139.13 174.116 171.884 80.2839 83.9868 92.3876 312.146 14.0788 43.0409 329.992 -85.1516 101.005 318.509 -91.3507 88.2474 332.918 23.0203 100.342 338.812 20.9211 81.6531 370.539 2.52712 13.0817 106.624 27.9056 
149.113 176.416 172.76 143.711 144.511 139.479 173.821 171.289 79.9022 83.425 93.2347 311.875 14.024 43.4035 329.249 -84.655 101.465 317.939 -90.711 89.1049 333.052 23.4162 101.388 338.921 21.299 82.3409 370.231 2.82728 12.9059 106.636 28.0104 
149.073 177.248 172.187 144.36 144.969 139.951 172.908 170.699 79.7555 83.215 93.0102 311.313 13.5654 43.3588 328.187 -84.3084 101.713 316.893 -90.0634 89.1832 332.776 23.6252 101.732 338.405 21.5548 82.8832 369.748 2.83309 12.7065 106.545 28.2114 
148.938 177.816 171.838 145.104 145.466 140.395 171.833 170.417 79.7773 83.2081 92.4639 310.697 13.0168 43.5587 327.348 -84.07 102.159 315.981 -89.6104 88.9783 332.36 23.7813 101.791 337.668 21.7689 83.4794 369.273 2.76678 12.5809 106.508 28.3638 
149.317 179.248 171.301 145.527 145.765 140.899 170.658 170.512 80.1789 83.5629 91.1887 310.587 12.8227 43.8391 327.515 -83.9756 102.726 316.129 -89.6084 88.5779 332.433 24.0642 101.593 337.369 22.1032 84.2344 369.62 2.68448 12.5801 106.762 28.4713 
149.508 179.5 171.198 145.587 145.785 140.828 169.924 170.493 80.547 84.0357 90.3261 311.006 12.9854 44.6564 327.888 -83.9915 103.717 316.2 -89.3604 88.3448 332.881 24.3693 101.49 337.504 22.4181 84.9485 370.206 2.72325 12.5907 106.913 28.4915 
149.595 179.465 171.12 145.384 145.741 140.605 169.314 170.608 80.8983 84.4437 90.3261 311.797 13.0861 45.7865 329.062 -84.0421 105.102 317.582 -89.5335 88.5829 333.407 24.3575 101.792 338.003 22.4678 85.7093 371.097 2.83278 12.5741 107.09 28.5694 
149.94 176.914 172.3 145.748 145.799 140.365 168.659 171.43 81.3832 84.596 90.2767 312.055 13.4884 46.7547 328.143 -83.981 105.445 317.044 -89.8739 88.2831 334.151 25.0519 101.681 338.238 22.9487 86.4225 371.487 2.6375 12.728 107.747 27.8323 
149.684 177.332 172.224 146.154 146.057 139.336 168.702 171.543 81.21 84.3898 92.0574 312.821 13.9456 47.8346 328.362 -84.1539 106.255 317.886 -90.1022 89.1243 335.121 25.3127 102.499 339.125 22.93 86.9975 371.988 2.72937 12.9524 108.391 27.4688 
149.689 177.404 172.729 146.498 146.284 138.7 169.164 171.883 81.2651 84.0087 94.0512 313.907 14.6343 48.9652 328.709 -84.4561 107.249 318.466 -90.2369 90.0999 336.208 25.6795 103.416 340.28 23.0704 87.7955 372.865 2.77207 13.2129 108.49 27.231 
150.279 177.926 172.774 146.255 146.351 138.269 170.308 171.769 81.4025 83.7695 95.398 314.922 14.7638 50.2748 329.539 -85.3881 108.009 319.171 -90.5705 91.2914 336.589 25.7442 104.439 341.032 23.1111 88.4705 373.747 2.99469 13.2924 107.864 26.6176 
150.684 177.27 173.03 146.216 146.391 138.227 170.989 171.926 82.1081 84.087 95.609 314.992 14.9157 51.1394 328.846 -85.6314 108.187 318.278 -90.5751 91.9278 336.49 26.4327 105.026 341.04 23.6053 89.0979 373.885 3.15139 13.3325 107.589 25.9479 
151.052 176.835 173.468 146.165 146.278 137.908 171.695 172.384 82.7236 84.2851 96.1295 315.558 15.4049 52.4789 328.091 -85.7154 108.098 317.815 -90.7052 92.8355 337.212 27.2806 105.954 341.753 24.1496 89.9021 374.422 3.16665 13.3564 107.887 24.7479 
151.129 176.207 173.549 146.174 146.281 137.705 171.796 172.425 83.0242 84.2959 96.3315 316.047 15.7509 53.1505 328.137 -85.751 107.925 317.439 -90.5497 93.1967 337.514 27.7061 106.366 341.989 24.4795 90.5809 374.811 3.27058 13.3558 107.724 24.1278 
151.125 175.756 173.931 146.097 146.254 137.528 171.87 172.604 83.3373 84.3174 96.9271 316.393 16.4575 53.7979 327.51 -85.4785 107.836 316.774 -90.2761 93.7488 337.519 28.0905 106.946 342.073 24.7627 91.1169 375.001 3.38062 13.3092 107.369 23.5349 
151.621 174.92 173.988 146.231 146.421 137.281 171.545 172.452 83.6936 84.15 99.0756 317.139 16.5622 54.8621 326.986 -85.2241 108.104 317.138 -90.3951 95.625 338.21 28.3772 108.802 343.079 24.7821 92.3322 375.709 3.4937 13.2517 107.03 22.7597 
152.038 174.539 174.408 145.994 146.293 137.481 171.363 172.551 84.2542 84.6123 98.578 317.268 16.5092 54.9363 327.008 -85.3181 107.816 316.679 -90.4843 95.3659 337.445 28.3441 108.558 342.359 24.9507 92.6035 375.794 3.4965 13.1004 106.275 22.4539 
152.343 174.458 174.155 145.673 145.989 137.709 171.593 172.38 84.8601 85.0926 98.2363 316.876 16.458 55.3649 327.291 -85.7427 107.863 316.338 -90.6432 95.3457 336.408 28.4757 108.495 341.328 25.1976 93.0107 375.461 3.60352 13.0468 105.929 22.2028 
152.41 174.605 173.94 145.852 146.07 137.662 171.928 172.459 85.1532 85.2691 98.4259 316.37 16.3492 56.1776 327.263 -86.0688 108.315 315.999 -90.7621 95.6722 335.48 28.4126 108.775 340.501 25.1203 93.3541 374.92 3.55891 13.0846 105.771 22.0239 
152.075 174.162 174.359 146.504 146.226 137.555 171.571 172.563 85.1305 85.3608 97.3571 315.658 16.6069 56.4361 327.611 -86.5279 108.711 315.109 -90.7812 94.5485 334.129 28.2172 107.788 338.778 25.2327 93.5546 374.095 3.63901 13.0821 105.418 22.2297 
151.996 174.07 173.937 146.193 146.035 137.488 171.66 172.484 85.5106 85.8958 96.8865 316.064 17.0722 57.3103 328.602 -86.7785 109.149 315.247 -90.607 94.1364 333.606 28.1301 107.357 338.208 25.4012 93.9746 374.329 3.77578 13.0571 104.93 22.0501 
152.023 173.926 174.146 145.845 146.048 137.609 171.577 172.56 85.7661 86.2394 96.3633 316.477 17.4769 57.6513 328.931 -86.47 109.239 314.921 -90.0711 93.8073 333.201 28.0473 107.105 337.852 25.5716 94.3526 374.571 3.91345 12.9064 104.214 22.0007 
152.087 173.923 174.082 145.69 146.057 137.745 171.6 172.477 85.6126 86.1542 96.6034 316.888 17.5704 58.1013 329.186 -86.5571 109.828 315.115 -89.8887 94.0395 333.39 27.9402 107.365 338.085 25.6317 94.7726 374.942 4.06221 12.8514 103.882 22.0464 
152.033 174.052 174.029 145.994 146.263 137.879 171.785 172.53 85.7531 86.3042 96.697 317.109 17.3598 58.3774 329.858 -87.2159 110.154 315.616 -90.4074 93.9101 333.585 27.8758 107.302 338.169 25.6018 95.1417 375.204 4.00129 12.8316 104.16 22.0061 
152.214 174.369 174.399 146.226 146.392 138.086 172.109 172.745 85.8369 86.4105 97.0671 317.362 17.0151 58.4879 330.082 -87.5636 110.583 316.074 -90.9019 94.1567 334.094 27.9234 107.642 338.609 25.644 95.4912 375.556 3.94145 12.7315 104.511 22.0709 
152.462 174.549 174.825 146.438 146.55 138.398 172.236 172.951 85.9424 86.425 97.6442 317.471 16.9265 58.4551 329.408 -87.4201 110.926 315.9 -90.9954 94.6471 334.556 28.1923 108.173 339.122 25.8131 95.8025 375.771 3.86974 12.6689 104.776 22.1551 
152.576 174.646 175.137 146.495 146.564 138.595 172.251 173.024 85.8452 86.3607 98.1929 317.36 16.9387 58.2613 328.831 -87.1603 111.25 315.369 -90.8081 94.9352 334.776 28.2773 108.483 339.361 25.8361 95.9631 375.766 3.89914 12.6775 104.648 22.4406 
152.612 174.648 175.395 146.47 146.596 138.753 172.138 173.232 85.8427 86.4816 98.0529 317.05 16.5982 58.1773 329.001 -87.1253 111.501 315.27 -90.8079 94.7792 334.583 28.0748 108.307 339.116 25.6716 96.0232 375.595 3.87557 12.7302 104.508 22.7304 
152.604 174.684 175.393 146.587 146.735 138.7 172.104 173.182 86.0129 86.6465 98.2695 316.865 16.5252 58.2514 328.389 -86.8082 111.558 314.777 -90.4206 94.8989 334.824 28.3683 108.458 339.374 25.8633 96.0619 375.491 3.92826 12.7164 104.496 22.7161 
152.604 174.664 175.373 146.623 146.657 138.757 172.146 173.173 86.3238 86.924 97.8922 316.696 16.6563 58.3802 328.271 -86.6496 111.362 314.296 -89.9515 94.6498 334.582 28.6823 108.177 339.046 26.1058 96.0772 375.307 4.00108 12.7862 104.435 22.6086 
152.679 174.694 175.16 146.635 146.69 138.802 172.117 173.147 86.4393 86.9102 98.0956 316.456 16.6394 58.2825 327.685 -86.2866 111.291 313.94 -89.7058 94.79 334.638 28.9046 108.345 339.109 26.1773 96.1154 375.125 3.96056 12.8117 104.592 22.6346 
152.633 174.702 175.173 146.651 146.692 138.744 172.043 173.149 86.4241 86.9224 98.0977 316.438 16.7405 58.5018 327.678 -86.1762 111.404 313.811 -89.4736 94.8549 334.593 28.964 108.368 339.064 26.2146 96.1751 375.077 3.98494 12.8721 104.559 22.6265 
152.526 174.721 175.028 146.752 146.701 138.65 172.078 173.003 86.6023 86.966 98.1998 316.286 16.6759 58.9889 327.632 -86.1657 111.247 313.911 -89.367 94.9598 334.513 29.0226 108.53 338.993 26.1709 96.1906 374.933 3.89913 12.8244 104.716 22.2612 
152.464 174.562 175.075 146.5 146.43 138.631 171.772 172.942 86.67 87.0194 97.9126 315.775 16.7019 59.0046 327.242 -85.8808 111.058 313.571 -89.2651 94.7785 333.689 28.8337 108.336 338.232 26.0383 96.1507 374.409 3.89709 12.8246 104.477 22.1807 
152.295 174.421 174.793 146.259 146.449 138.578 171.55 172.704 86.3716 86.8738 97.911 315.394 16.3445 59.0245 327.492 -85.9652 111.226 313.579 -89.3643 94.764 333.307 28.3735 108.253 337.844 25.6605 96.19 374.047 3.82842 12.904 104.351 22.3804 
152.163 174.331 174.739 146.248 146.419 138.498 171.572 172.682 86.2058 86.8142 97.857 315.146 16.2203 59.1139 327.755 -86.1064 111.27 313.541 -89.4133 94.7354 333.188 28.2604 108.188 337.636 25.5539 96.2892 373.82 3.84745 12.9903 104.412 22.4287 
151.943 174.309 174.652 145.867 146.128 138.388 171.609 172.52 86.1414 86.8113 98.086 314.965 16.473 59.5865 327.58 -86.076 111.636 313.222 -89.0875 95.0441 332.562 28.095 108.409 337.159 25.4616 96.3583 373.546 3.9719 13.0352 103.887 22.4181 
151.936 174.511 174.299 145.502 146.01 138.503 171.838 172.206 85.8558 86.6559 99.0934 314.911 16.6729 59.8672 327.161 -85.9558 112.269 313.274 -88.846 96.0586 332.703 28.0914 109.32 337.49 25.4272 96.5556 373.571 4.10261 13.0465 103.781 22.5898 
152.171 174.788 174.212 145.623 146.311 138.284 172.083 172.135 85.1323 86.0339 100.797 315.121 16.6875 59.7917 326.401 -85.9037 112.813 313.447 -89.0815 97.413 333.696 28.0871 110.597 338.584 25.2536 96.83 373.782 4.00141 13.103 104.272 22.7999 
152.067 174.703 174.12 146.216 146.753 138.041 171.851 171.925 84.1045 85.0572 102.763 315.257 16.4253 59.8723 325.738 -85.8542 113.5 313.86 -89.3125 98.9091 334.801 27.8668 112.007 339.815 24.8323 97.184 373.868 3.81495 13.2425 104.877 23.081 
152.137 174.709 174.531 146.769 147.236 137.872 171.644 171.979 83.1838 84.0139 104.878 315.686 16.0367 60.0201 325.136 -85.6455 114.016 314.45 -89.5191 100.676 336.019 27.6015 113.663 341.332 24.3485 97.6242 374.188 3.60676 13.3132 105.333 23.2189 
152.319 174.853 175.072 146.798 147.324 137.684 171.579 172.37 82.676 83.3647 106.215 315.85 15.5198 59.8865 324.332 -85.5112 114.292 314.973 -90.1113 102.263 336.3 27.0561 115.137 342.083 23.7077 97.9487 374.234 3.32993 13.2527 105.441 23.3622 
152.434 175.047 175.312 147.01 147.323 137.551 171.545 172.797 82.5397 82.919 107.274 315.786 14.7842 60.1999 323.21 -85.4522 114.491 315.325 -90.9692 103.644 336.728 26.8393 116.49 342.785 23.2149 98.3616 374.122 2.89629 13.2034 106.144 23.1516 
152.562 175.202 175.195 146.636 146.905 137.521 171.626 173.066 82.7809 82.8962 107.925 315.528 14.3522 60.7356 321.871 -85.526 114.074 314.976 -91.6255 104.648 336.567 26.702 117.407 342.814 22.8569 98.6678 373.832 2.46938 13.1666 106.406 22.3887 
152.653 175.264 175.33 145.912 146.357 137.673 171.579 173.176 82.6893 82.8471 108.42 315.138 13.772 60.8245 320.899 -85.7192 113.753 314.74 -92.5532 105.461 335.845 25.8262 118.144 342.232 22.0592 98.9016 373.451 1.92076 13.0707 106.058 22.0335 
152.723 175.275 175.388 145.328 145.767 137.532 171.49 173.468 82.4877 82.6698 109.208 315.003 13.5125 61.2704 319.845 -85.7043 113.562 314.812 -93.2259 106.608 335.767 25.2834 119.198 342.341 21.4829 99.1007 373.225 1.49444 12.969 106.177 21.5812 
152.688 175.312 175.456 145.328 145.395 137.416 171.34 173.401 82.1367 82.2529 109.894 314.47 12.5261 61.7072 319.068 -86.2506 113.342 314.522 -94.1928 107.414 335.251 24.2989 119.975 341.846 20.4233 99.2566 372.595 0.796277 12.9774 106.06 21.152 
152.364 175.31 175.241 145.918 145.244 137.492 171.108 173.459 81.9095 81.9643 111.253 313.755 11.1182 62.722 319.106 -87.082 114.772 314.967 -95.0493 108.502 335.33 23.8072 120.715 341.979 19.6685 99.3367 371.688 0.0704706 13.3691 107.083 21.6636 
151.724 175.102 174.314 145.635 145.06 137.57 170.45 172.997 82.3601 83.1297 111.521 313.492 9.8858 63.6576 321.156 -88.365 116.165 316.961 -96.0234 108.213 334.217 22.5939 120.442 340.861 18.915 99.421 371.303 -0.500876 13.1772 107.158 22.2035 
151.169 175.077 173.71 145.443 144.888 137.572 170.452 172.791 82.8191 83.9605 111.8 313.226 9.07032 64.3269 322.796 -89.3818 117.189 318.226 -96.6776 108.091 333.433 21.8443 120.238 340.116 18.4224 99.4385 370.895 -0.978162 13.1168 107.376 22.6514 
150.672 175.168 172.958 145.435 144.815 137.559 170.643 172.352 83.3707 84.5957 111.779 312.885 8.24199 64.8905 324.017 -90.4669 118.007 318.805 -97.1352 107.801 332.716 21.3155 119.909 339.383 17.9741 99.4272 370.388 -1.56378 13.1178 107.683 23.0188 
150.203 175.399 172.309 145.528 144.79 137.378 170.693 171.961 83.3156 84.6663 112.389 312.71 7.53249 65.4684 324.584 -91.202 118.786 319.498 -97.6153 107.894 332.459 20.7251 119.958 339.197 17.4876 99.3224 369.866 -2.02701 13.0778 108.142 23.3078 
149.952 175.5 171.902 145.569 144.779 137.252 170.566 171.649 82.9215 84.4155 112.936 312.861 6.7479 65.6708 325.078 -91.801 119.442 320.167 -98.0015 108.051 332.623 19.9499 120.039 339.46 16.8481 99.2026 369.671 -2.54365 13.0826 108.365 23.7675 
149.726 175.611 171.767 145.5 144.728 136.936 170.413 171.367 82.3308 84.1106 113.898 313.355 5.99167 65.9341 325.733 -92.3479 120.013 321.216 -98.4792 108.419 332.96 18.9439 120.31 339.983 16.0887 99.0342 369.671 -3.02172 13.0074 108.375 24.1246 
149.716 176.271 171.83 145.556 144.471 136.621 170.357 171.244 81.3177 83.8189 115.039 314.143 5.2445 66.2546 326.574 -92.6895 120.569 322.689 -98.8784 109.184 333.836 17.8419 120.951 341.074 15.3036 98.7541 369.911 -3.35293 12.8532 108.33 24.5085 
149.797 177.035 171.854 145.578 144.291 136.403 170.581 171.355 80.4495 83.4271 115.351 314.791 4.41812 66.1679 327.622 -93.2668 120.896 324.051 -99.4907 109.619 334.743 16.7964 121.239 342.147 14.4836 98.432 370.22 -3.88745 12.8034 108.593 25.0269 
149.614 177.719 171.881 145.575 144.079 136.125 171.23 171.572 79.7858 83.3406 114.665 315.164 3.70418 65.6474 328.988 -94.1376 120.586 324.84 -100.145 109.046 335.211 15.7654 120.738 342.481 13.7337 97.895 370.451 -4.49583 12.6598 108.774 25.3453 
