142.42 171.827 171.044 149.01 147.786 129.991 175.083 171.858 77.1123 74.6038 -24.9983 465.611 -19.249 -11.492 457.46 -101.129 -11.0615 423.537 -105.12 -1.86752 451.536 11.8749 5.43221 438.237 12.3224 29.6467 462.077 -11.319 11.4458 109.764 7.33125 
141.712 171.844 171.546 149.067 148.134 129.646 174.975 171.553 76.724 74.7046 -24.5191 465.52 -18.2343 -11.3193 457.436 -100.519 -10.8399 422.978 -104.413 -1.58976 451.216 12.2311 5.70374 438.008 12.9625 29.8821 462.044 -10.7312 11.293 109.624 7.70373 
140.676 172.106 172.456 149.758 149.437 129.238 174.782 172.764 74.9923 73.5068 -24.0253 465.246 -17.2292 -10.7428 457.465 -100.06 -8.44615 422.708 -103.943 0.0700097 450.336 12.9389 7.5395 437.194 13.8 29.8823 461.994 -9.8725 11.3177 111.952 8.23143 
140.737 172.336 172.579 150.093 150.285 129.608 173.795 173.22 73.2353 72.4963 -23.6711 465.38 -17.2163 -9.98076 457.283 -99.9494 -6.72464 422.211 -103.515 1.63487 449.832 13.2148 9.14107 436.551 14.1816 29.83 461.987 -9.16661 11.4576 113.724 8.73259 
142.023 172.909 171.91 149.624 148.605 130.433 173.53 173.513 72.7074 70.8645 -23.3423 465.001 -17.8733 -9.96382 456.573 -99.5341 -6.30833 421.422 -103.825 1.97909 449.792 13.4991 9.37656 436.108 14.1 30.0463 461.584 -8.92634 11.8044 114.453 8.60015 
141.871 173.193 172.754 150.659 148.279 130.364 173.246 174.33 73.0364 70.4507 -23.0753 464.656 -16.9109 -10.0825 457.183 -99.0402 -6.28247 420.438 -104.28 2.62628 450.137 14.522 9.96549 436.073 14.7493 30.4849 461.546 -8.47883 11.7521 115.425 9.47472 
142.001 172.691 174.15 151.788 149.04 130.97 172.912 176.577 71.7374 69.4504 -22.9967 462.632 -15.5313 -8.54626 456.746 -98.811 -3.02337 418.444 -104.129 3.75468 448.345 15.0143 11.2635 434.389 15.443 30.5473 460.687 -7.80333 11.614 117.822 10.8514 
140.831 172.95 174.543 152.635 147.171 130.199 172.961 176.446 71.4148 68.6537 -22.7399 460.994 -13.3362 -7.80865 456.747 -98.3791 -1.69091 417.763 -104.162 4.98266 447.69 16.0551 12.3736 433.271 15.9858 30.8536 459.818 -7.21673 11.8255 120.153 11.4165 
140.227 173.012 174.657 152.113 147.438 128.825 172.871 177.069 72.023 68.3072 -22.3026 459.61 -11.1304 -7.06308 458.688 -98.877 -1.69445 418.931 -105.572 5.72409 448.105 17.0352 12.7764 433.386 16.5525 31.5556 459.319 -7.00971 11.7208 121.745 11.8425 
139.391 173.49 174.462 152.58 145.722 128.105 173.18 176.351 72.4839 68.4848 -21.9821 458.077 -9.05874 -5.78133 459.531 -98.942 -0.137164 418.324 -106.03 6.35416 447.041 17.9332 13.592 431.939 16.9625 32.1058 458.508 -6.33608 11.7012 122.943 12.9144 
138.055 173.445 175.116 152.752 143.976 130.23 173.17 176.08 72.8163 68.9738 -21.7754 456.263 -7.32385 -5.11582 460.578 -98.2559 1.09572 417.693 -105.344 6.97299 444.853 19.0655 14.2956 429.817 17.7926 32.9361 457.349 -5.31557 12.0251 122.624 14.5144 
138.279 174.914 175.683 153.185 144.153 130.257 173.172 175.826 72.683 68.4036 -20.7897 455.364 -6.44543 -4.32706 459.751 -98.3919 1.35564 417.308 -104.993 7.7595 444.598 19.7948 15.1831 429.559 18.6342 33.9062 457.177 -4.74195 11.8743 122.12 14.0531 
138.829 175.611 175.765 152.91 144.286 130.27 172.511 175.329 72.7915 68.2793 -19.677 454.717 -6.2966 -3.81545 459.191 -98.3861 1.63177 417.21 -104.961 8.53264 444.157 20.3448 15.9115 429.159 19.372 35.0389 456.607 -4.16983 11.6454 121.273 13.6299 
139.384 176.125 176.104 152.163 144.736 130.087 172.85 174.879 73.64 68.8834 -18.6183 453.474 -6.34117 -2.72572 459.097 -98.5654 1.56144 417.883 -105.177 9.18629 443.338 20.819 16.5668 428.37 19.8381 36.2588 455.502 -3.7813 11.2988 120.194 13.0033 
139.429 177.129 176.639 151.797 145.247 130.775 173.424 175.151 75.1222 69.958 -17.3826 451.908 -5.43865 -2.00947 457.282 -98.3722 3.56461 417.137 -106.394 11.0179 442.059 22.3859 18.5085 427.149 21.2302 38.4059 454.196 -3.11629 11.1588 120.458 12.206 
137.955 176.721 176.632 151.846 145.725 130.941 174.027 175.811 75.3005 70.4523 -16.2898 450.818 -4.83575 -2.52349 456.662 -98.2482 4.96611 416.027 -107.745 11.9124 441.09 22.7471 19.3466 426.347 21.6929 39.1315 453.433 -2.98101 11.0125 121.377 12.7347 
138.585 178.551 176.655 152.495 145.517 133.069 175.534 175.984 74.9984 73.9133 -14.1314 445.254 -3.94104 -3.39464 453.73 -98.1253 8.15994 414.432 -107.199 13.8001 438.797 22.4142 21.0719 424.04 21.4576 40.0126 453.366 -2.4829 11.6815 121.222 12.5371 
138.513 179.078 176.209 153.185 145.128 133.906 175.634 175.589 75.5738 76.5382 -11.9203 441.688 -3.4499 -4.37687 452.356 -97.3543 10.8153 414.117 -106.492 15.298 436.587 22.1238 22.7816 422.184 20.5793 41.1653 453.76 -2.31329 12.6931 119.955 12.902 
136.734 179.233 175.445 151.82 142.683 133.51 173.618 174.598 76.3716 78.8032 -9.01716 437.435 -2.13926 -6.6023 449.431 -95.7841 12.1724 413.945 -106.477 15.9693 432.994 21.4338 23.8984 420.43 19.341 42.2239 454.019 -2.00741 13.7101 116.25 12.568 
133.709 178.756 174.503 149.982 140.935 132.337 172.442 173.642 76.2334 80.6755 -5.11008 433.813 -0.520891 -6.54903 448.203 -94.5079 13.6362 414.509 -106.096 16.5565 429.741 19.9932 24.9112 418.262 18.3043 43.184 454.319 -1.25168 13.5878 112.339 12.1036 
134.804 178.426 174.52 147.988 141.22 132.48 171.963 173.412 75.9875 82.6275 -2.87939 431.143 0.562734 -6.32395 447.027 -93.6738 13.932 414.774 -105.551 16.8698 428.204 18.3892 25.2337 417.704 17.9714 44.1498 454.596 -1.05006 12.8115 108.982 11.3886 
137.072 177.185 173.986 147.345 140.641 132.331 170.981 173.029 77.0409 85.0622 -0.359296 427.629 2.55726 -6.52616 445.195 -92.855 14.252 414.07 -104.736 17.3372 426.907 18.3333 25.7366 417.417 18.2268 44.8996 455.099 -0.986425 12.9407 106.959 11.0218 
137.107 176.42 173.624 147.323 138.9 132.663 170.484 172.737 77.7451 87.4605 0.81661 426.687 3.79181 -6.03578 443.062 -92.4722 14.8454 412.395 -104.472 17.0653 425.916 18.1569 25.3841 417.022 18.7294 45.4384 455.254 -0.746893 12.7159 105.172 10.6784 
137.634 176.243 174.466 150.127 139.466 132.757 170.956 173.591 77.9209 87.6794 1.78199 425.5 4.49116 -4.2903 441.784 -93.1013 17.0418 410.756 -105.778 16.9689 425.774 18.4588 25.9246 417.197 20.5628 46.0621 455.028 -0.476548 10.9781 105.599 10.8271 
137.753 177.114 175.193 149.212 141.07 132.503 172.535 174.378 79.399 86.8867 2.64598 424.504 4.37471 -1.74089 441.227 -94.8301 19.3248 409.519 -107.389 16.1727 425.048 18.1886 26.5171 417.533 21.5963 46.6603 454.408 -0.6473 9.64771 105.603 10.7419 
137.6 177.75 175.432 148.432 141.482 132.065 172.729 174.018 79.156 83.1976 1.73679 425.691 3.08756 1.18746 442.206 -95.8157 20.0238 409.312 -107.495 16.8584 427.636 18.5243 27.6278 420.103 20.5562 47.4163 454.133 -0.972772 10.8604 107.293 10.2046 
135.998 178.548 175.721 147.382 140.343 131.264 173.909 174.15 80.6549 82.2371 1.8811 426.564 1.84342 4.34713 442.205 -96.8402 21.5117 408.038 -107.79 16.65 427.379 18.7293 27.9874 419.727 19.9962 48.0302 453.295 -1.29671 11.0551 107.724 10.0169 
135.668 178.869 175.617 145.015 136.987 129.299 175.188 173.625 81.0149 80.5818 2.53449 426.727 0.829347 7.51298 442.767 -98.9451 22.14 407.736 -108.375 16.6049 426.201 17.8228 28.0439 418.161 18.4589 48.3036 452.076 -2.22515 11.2596 107.797 9.70329 
136.192 178.814 175.227 145.162 135.972 129.447 175.69 172.826 79.5014 78.9601 2.25354 426.457 -0.957128 10.8222 442.062 -100.467 23.982 407.836 -109.288 17.619 428.195 16.9563 28.6975 416.748 17.1187 48.5885 450.954 -3.11111 10.2179 110.641 8.84295 
135.981 179.018 175.042 146.452 136.433 129.123 176.1 171.843 79.274 78.1928 1.67563 427.313 -2.58789 12.9386 440.47 -101.726 23.9417 406.97 -109.214 18.1088 429.349 16.0831 29.281 416.45 16.1702 48.8601 450.255 -4.03194 9.82222 110.978 7.9728 
135.031 179.812 175.045 148.417 137.355 131.353 177.103 172.11 81.1628 79.2241 -0.327298 431.36 -7.87421 13.705 436.599 -103.307 20.7943 401.394 -108.942 18.0523 430.087 17.6545 28.1098 416.309 16.5928 48.9612 447.481 -5.11824 11.3102 112.231 8.52937 
137.893 179.448 175.504 150.311 138.205 130.329 177.635 172.87 82.2668 79.6077 -2.97673 436.383 -9.49166 13.5265 433.884 -103.425 19.8652 397.446 -108.008 17.6152 431.019 19.3481 27.099 416.787 17.872 48.9521 445.997 -5.13868 11.6276 114.194 8.89676 
139.909 179.108 175.622 151.064 139.873 130.28 177.613 172.983 82.0145 79.4058 -4.5786 440.432 -11.1916 13.3349 431.152 -102.765 18.6622 394.212 -106.49 16.9138 431.435 19.6946 26.0088 416.91 18.5544 48.7498 444.502 -4.92346 11.5869 114.535 8.88171 
140.197 178.525 175.972 151.874 137.204 132.804 177.235 173.661 82.3216 78.6877 -5.89345 444.434 -13.8331 13.3499 429.549 -101.883 17.4212 392.318 -104.758 15.5117 431.09 19.9711 23.8711 415.737 17.7257 48.593 443.382 -4.59925 13.4003 113.523 8.94745 
140.302 176.745 176.343 153.56 140.601 132.2 175.882 173.923 81.2617 76.2482 -5.8531 446.926 -15.7692 13.6945 429.443 -102.386 16.0726 391.069 -104.425 14.4953 431.598 18.8051 22.5806 416.166 16.8048 48.4284 442.111 -4.98917 13.5073 113.053 9.57661 
139.183 176.218 177.495 154.548 142.063 130.491 175.651 174.837 80.8934 74.2653 -4.87212 449.491 -17.406 14.0222 430.711 -102.875 14.9071 391.26 -104.778 13.5781 432.596 17.8856 21.465 416.909 15.3378 48.0948 441.464 -5.48565 14.3477 113.227 10.2289 
138.589 175.713 177.988 156.294 143.683 128.134 175.602 175.159 80.7543 73.0646 -4.68553 449.431 -17.3543 14.1942 431.335 -103.928 13.9594 390.763 -105.824 12.8393 433.33 17.0899 20.5067 417.361 14.17 47.6508 440.987 -6.28334 14.7806 113.798 10.8476 
137.073 175.552 177.6 157.707 146.827 125.313 175.815 174.717 79.6256 72.0125 -4.0995 449.343 -16.662 15.1221 432.555 -105.001 13.2756 391.423 -106.535 12.6231 434.647 15.6944 19.7122 418.857 13.1208 47.4874 440.869 -7.01544 14.921 114.135 11.2973 
137.419 175.144 177.204 157.8 148.959 123.722 175.575 174.638 78.8197 71.4835 -4.12014 448.283 -16.3005 16.292 432.692 -106.482 12.9744 391.362 -107.7 12.1269 435.253 14.0302 19.115 419.642 12.2225 47.2372 440.703 -7.98069 14.4086 114.044 11.4768 
135.921 174.443 177.103 157.095 151.26 123.434 175.308 174.589 78.8233 72.4331 -5.1801 446.898 -15.9425 15.9086 432.379 -108.196 12.2078 391.007 -109.021 10.9891 434.1 12.2271 18.5648 419.439 11.3098 46.673 440.137 -9.38227 13.6757 113.081 11.6744 
136.204 174.086 176.457 157.095 153.504 121.427 175.241 174.348 77.3313 72.3733 -4.76432 445.1 -15.8991 16.5986 430.514 -110.033 10.6075 389.532 -110.087 10.6066 434.376 10.8796 17.7944 420.451 11.404 45.8824 439.047 -10.1206 13.2686 113.291 11.6336 
136.897 173.402 176.254 157.013 155.005 119.964 174.579 174.153 75.4189 71.9458 -4.47427 443.925 -15.5619 17.6543 431.527 -111.587 9.56368 390.454 -111.596 10.7315 435.553 8.84025 17.2663 421.994 10.7036 45.4551 438.791 -11.0303 12.8657 113.502 11.9611 
139.273 172.562 175.61 156.808 155.877 120.818 172.717 173.257 74.4967 72.1307 -4.70411 443.01 -16.9518 18.4645 431.557 -113.159 8.75089 391.153 -112.296 9.5395 436.099 6.56544 16.0301 422.641 9.77492 44.8771 439.016 -11.8409 12.0514 111.703 12.1625 
139.527 172.607 174.167 155.996 156.395 121.645 171.71 171.959 73.8373 72.6406 -4.6606 442.883 -18.5098 19.2974 431.194 -114.499 8.14749 392.267 -112.789 8.71226 436.253 4.88244 15.3313 423.213 9.53736 44.5204 439.134 -12.463 11.1871 110.044 11.9805 
137.721 172.472 173.533 153.841 156.895 121.455 170.751 170.91 71.9975 73.4243 -4.50445 443.535 -19.7474 20.937 430.493 -115.842 7.33617 392.397 -113.475 7.63422 435.802 2.05447 13.8033 423.52 9.00834 43.8879 438.372 -13.0744 10.2981 107.964 12.4258 
138.185 172.73 173.674 153.415 156.385 122.711 170.542 170.677 71.8985 74.1273 -5.17019 443.152 -21.9782 22.6207 428.58 -117.329 7.42351 391.045 -114.849 6.64951 435.063 1.09043 12.3252 423.062 8.71927 43.0313 436.729 -13.7151 10.1274 108.511 12.6792 
140.273 172.615 173.403 151.695 155.804 125.003 169.487 169.97 71.1772 74.4204 -5.93798 442.606 -24.7463 23.7769 426.111 -118.348 7.42902 389.417 -115.142 5.53633 433.4 -0.324104 11.136 422.152 8.6103 42.2264 435.182 -14.3244 10.038 107.669 12.9636 
142.241 172.393 172.765 152.927 155.343 126.953 168.503 168.51 69.3305 74.5831 -6.16608 442.17 -28.0385 25.9734 424.806 -119.635 8.09965 389.368 -114.93 5.29817 431.515 -1.93185 9.79265 421.559 6.94583 41.7285 434.241 -15.606 11.1847 107.224 13.6971 
143.954 172.469 171.685 152.635 155.376 126.405 167.434 166.512 67.908 76.6201 -6.4199 442.125 -28.7664 27.5384 423.853 -120.33 8.44674 390.125 -114.713 5.34303 431.268 -3.15928 8.00372 422.327 6.01773 41.1412 433.941 -16.4497 11.5375 107.586 13.9777 
145.46 171.937 171.096 156.26 155.735 126.729 166.739 164.759 68.4389 77.3088 -6.97927 441.565 -30.2331 28.3976 421.724 -120.943 7.97276 389.167 -114.323 4.72349 430.768 -2.80078 6.85493 421.805 5.72968 40.3797 432.855 -17.0678 11.7216 108.38 14.6384 
146.764 171.318 169.829 158.852 154.537 128.531 166.145 163.511 69.1733 75.9247 -7.76477 442.363 -33.7744 29.3344 419.791 -121.777 6.55868 388.334 -114.524 4.60499 432.043 -2.98 5.91289 421.52 4.28218 39.3178 431.642 -18.0624 11.4956 109.802 15.6593 
148.001 170.091 169.548 160.804 153.899 129.934 164.671 162.521 69.0162 74.4621 -7.79678 443.532 -36.9402 28.9624 417.883 -121.779 5.80486 387.443 -114.092 4.67519 432.259 -2.9053 5.139 420.885 3.23427 38.5405 430.927 -18.7335 12.2729 110.846 15.7267 
150.111 169.309 169.498 161.67 152.401 132.656 164.392 161.659 68.5056 72.9759 -8.48867 443.638 -40.1407 28.2723 415.118 -121.977 5.01089 385.965 -113.841 4.08255 431.294 -3.71753 4.05202 419.256 2.07445 37.5445 429.125 -19.2633 12.6186 110.949 15.5079 
149.428 169.3 169.968 160.884 149.8 135.101 165.166 161.137 68.4321 71.2759 -9.12911 443.811 -42.62 28.2683 412.822 -122.24 3.08392 384.835 -113.099 3.33453 431.233 -5.16471 2.94017 418.149 0.76222 36.4286 427.051 -19.6978 12.2852 110.202 16.4722 
154.924 169.495 171.115 158.789 147.431 139.926 166.639 160.83 68.8547 69.8285 -10.0096 443.633 -45.8861 28.3104 408.952 -122.02 -0.38057 382.616 -110.711 2.4843 430.164 -5.46498 2.28375 416.231 0.871102 35.5581 425.085 -19.4309 11.7208 107.781 18.9621 
163.003 169.462 170.779 156.519 145.816 143.234 167.482 160.855 69.6838 68.7509 -10.7081 443.34 -48.6905 28.5024 406.424 -121.864 -1.62157 380.972 -109.32 1.23641 429.876 -5.96048 1.45189 415.158 0.491738 34.6809 424.013 -19.2907 11.5683 106.47 20.1358 
169.558 169.745 170.312 154.137 144.162 145.353 168.145 161.631 69.3905 68.0083 -10.9266 443.8 -50.5205 28.2111 406.307 -121.903 -3.43372 381.111 -109.323 0.932298 430.599 -6.80215 0.729886 415.885 -0.0845585 33.6313 423.052 -19.2872 11.3823 106.465 20.6831 
170.693 169.932 170.891 150.727 142.8 144.686 168.515 162.682 69.5236 67.4561 -12.1751 443.683 -50.1953 26.958 406.353 -122.177 -5.58776 381.466 -109.101 0.518651 431.251 -6.99968 0.285139 416.809 -0.294788 32.6 422.473 -19.4047 11.5375 106.694 20.9358 
170.239 169.943 172.189 147.933 141.626 143.569 169.371 163.434 70.1513 67.6392 -12.7186 443.894 -49.6121 27.2992 406.104 -122.37 -7.5824 382.47 -108.69 0.368567 432.566 -7.11154 -0.159192 418.347 -0.57474 31.917 422.047 -19.2439 11.867 106.514 21.9965 
164.754 170.931 173.355 144.495 140.28 140.706 172.072 164.192 71.2116 67.8145 -14.5211 443.156 -47.758 28.2502 405.423 -123.403 -10.5095 383.643 -108.935 -0.526865 432.7 -7.57053 -0.957592 418.293 -1.41516 30.9042 420.952 -19.6131 12.2266 105.383 24.485 
156.52 171.129 173.584 142.063 139.19 137.458 173.291 163.587 72.6431 68.4886 -16.4658 444.16 -45.6043 28.9101 405.961 -124.813 -13.5569 385.761 -109.53 -2.18604 433.498 -8.55564 -2.43491 418.774 -2.56089 29.7938 420.685 -20.2975 12.157 103.402 26.9213 
150.503 171.651 173.89 142.47 139.587 137.992 173.475 162.883 73.573 68.7842 -16.2937 447.703 -47.0568 29.1111 409.268 -126.952 -18.1028 390.044 -110.796 -3.00268 435.485 -10.081 -3.91748 420.462 -4.40834 28.6488 420.696 -21.8683 11.9925 101.957 29.7724 
147.552 171.216 171.68 142.109 139.081 138.19 174.177 160.249 74.4358 68.3367 -16.9166 448.326 -46.9606 29.4685 409.828 -127.542 -21.3352 392.069 -109.705 -4.20602 435.925 -10.6961 -4.7112 420.34 -5.0127 27.9697 420.468 -22.2616 11.809 99.3991 32.6883 
146.582 171.778 170.103 143.378 139.223 139.285 174.217 160.646 74.3067 67.8927 -16.3896 449.094 -48.3342 29.3593 410.257 -128.503 -23.1976 393.014 -110.16 -4.17716 436.048 -10.9791 -5.37971 420.343 -5.73849 27.3305 419.453 -22.9447 12.1086 99.8062 33.6515 
145.479 172.414 169.87 143.949 139.08 140.439 174.201 161.554 74.2714 68.1486 -15.511 449.474 -50.6269 28.356 410.197 -129.984 -25.5293 393.472 -110.931 -4.19322 436.054 -11.7624 -6.25599 420.654 -6.80566 26.3915 418.028 -24.0628 12.4483 100.248 34.1308 
149.633 171.833 169.483 144.817 138.113 143.111 172.617 171.569 74.2276 68.3151 -14.3961 449.882 -55.0159 25.6537 408.987 -131.143 -24.3989 391.851 -114.905 -4.74455 436.073 -12.846 -7.40992 420.638 -8.09008 25.0137 417.018 -25.143 12.823 102.861 30.2989 
149.446 171.044 178.526 146.084 137.024 144.422 172.859 179.506 74.5743 68.6854 -12.6774 450.221 -58.6069 24.9178 407.098 -132.16 -23.3147 391.175 -118.212 -5.85206 436.263 -14.3431 -8.93873 420.861 -10.0547 24.0757 416.16 -26.1829 13.6514 103.434 28.0067 
150.032 170.846 180 147.895 137.391 145.381 173.533 179.975 75.1479 69.5287 -10.7178 451.078 -62.5815 24.739 406.505 -132.998 -27.1456 392.764 -118.332 -6.52276 437.458 -16.1149 -10.1962 421.96 -11.9378 22.9904 416.043 -27.4308 13.9288 101.318 30.4657 
154.919 172.199 180 148.353 137.361 145.171 174.658 179.974 76.0263 70.4692 -10.4107 452.274 -65.2052 24.8627 406.28 -134.88 -29.0447 392.293 -119.782 -7.16352 439.256 -18.1746 -11.2748 423.94 -13.9252 21.6793 416.034 -29.0199 14.0371 101.734 31.356 
156.795 173.168 180 148.642 137.396 145.695 176.365 179.973 77.1353 71.3128 -10.0436 452.797 -67.8679 25.6816 406.85 -136.572 -30.2535 391.346 -121.21 -7.99764 440.547 -19.7315 -12.4746 425.069 -15.7221 20.5696 416.036 -30.465 14.228 102.541 32.5521 
157.787 174.959 180 148.425 138.09 146.654 177.006 179.971 78.0294 72.6671 -8.89214 453.731 -71.3023 26.7114 406.967 -138 -30.5829 388.806 -121.934 -8.91341 442.562 -21.8653 -13.8572 427.456 -17.5985 19.3305 416.518 -31.6618 14.2565 103.808 33.4517 
154.686 176.332 180 148.308 138.789 145.348 178.129 179.969 78.5353 73.5404 -9.79978 454.236 -72.0722 26.4909 406.463 -139.157 -29.6332 385.342 -123.354 -9.94765 443.719 -23.6621 -15.2416 428.954 -19.4344 18.0477 416.619 -32.9739 14.3971 106.65 32.6934 
155.185 176.598 180 147.099 138.955 142.865 178.205 179.97 80.1407 75.0826 -12.6167 454.567 -74.3294 25.7628 404.707 -141.644 -31.3155 383.043 -125.744 -13.2033 445.645 -27.9941 -18.677 430.791 -23.8125 15.236 416.831 -35.7453 14.654 106.98 33.2229 
155.254 174.714 179.454 145.446 138.771 141.247 177.444 179.833 80.8473 76.2533 -13.7171 455.304 -75.9217 25.3081 402.879 -142.299 -31.3913 380.799 -126.331 -15.5088 446.897 -31.1911 -21.0771 432.239 -26.5482 13.7934 417.281 -36.8876 14.6444 106.305 32.9713 
153.236 176.782 180 146.111 138.757 143.907 176.245 177.44 81.3298 77.5335 -14.1688 455.779 -76.986 22.5579 401.843 -143.537 -33.5937 382.489 -127.031 -17.6216 447.638 -33.8892 -23.1039 433.674 -28.8688 12.0172 416.653 -37.9843 14.5306 104.015 32.0902 
153.82 175.622 180 145.031 139.248 143.409 175.845 173.439 82.4311 78.862 -14.9663 456.407 -77.7524 22.4887 402.063 -144.054 -35.4573 384.754 -126.473 -19.7437 448.749 -36.1534 -25.3708 434.844 -30.7403 10.4854 416.632 -38.7735 14.1365 101.399 33.6391 
152.136 175.793 178.353 145.489 139.315 144.941 175.888 171.441 82.8001 79.5183 -17.0313 457.304 -77.0205 20.7685 402.464 -144.664 -36.4969 384.76 -127.715 -21.7925 449.662 -37.1529 -26.9452 435.92 -31.4955 8.99329 417.056 -39.1495 14.1203 101.341 32.81 
150.19 174.752 175.547 143.237 141.169 142.882 175.395 171.663 84.2403 81.985 -17.4039 458.131 -76.9361 22.9804 403.04 -145.332 -35.5982 383.192 -129.784 -25.167 451.069 -42.518 -29.7087 438.107 -34.9436 7.40487 417.284 -40.3048 12.6645 99.3485 33.6326 
146.615 174.598 176.274 144.737 143.059 142.694 175.414 171.876 86.2504 83.3175 -19.4046 458.872 -77.1071 24.2855 404.761 -146.486 -35.4878 384.053 -131.062 -26.8903 452.933 -45.2395 -31.4693 439.4 -37.2301 6.01335 417.678 -41.6071 12.0674 98.6894 34.766 
144.891 175.277 175.838 148.249 142.108 142.996 174.338 172.511 86.5345 84.4764 -19.0383 461.776 -77.2665 22.9675 406.685 -148.034 -37.327 386.853 -132.588 -28.0491 455.568 -47.6819 -32.9567 442.303 -39.9091 4.16811 418.565 -42.6661 12.478 97.7252 34.635 
144.767 175.55 174.812 145.726 141.809 143.586 173.882 174.552 86.2288 84.8465 -20.7355 463.952 -77.2891 21.1529 407.14 -149.327 -38.122 387.899 -134.26 -28.5337 457.328 -49.1275 -34.0039 444.576 -41.4379 2.346 419.71 -43.599 12.5794 98.456 33.4487 
145.164 176.348 177.248 146.978 140.765 144.614 174.722 176.378 86.5145 85.8783 -22.0489 466.035 -77.1544 19.4924 406.86 -150.298 -39.7406 389.178 -134.374 -29.5397 459.123 -50.2717 -35.4925 446.543 -43.0778 0.674026 420.436 -44.1388 13.0483 98.2639 33.1782 
144.626 177.442 179.999 147.663 139.92 144.289 176.276 179.967 87.1935 84.93 -25.4583 467.361 -78.1341 20.2925 406.173 -150.355 -39.8024 387.257 -135.338 -31.6685 460.104 -50.8827 -37.9581 446.408 -44.4737 -1.00174 421.74 -45.349 13.5126 100.602 34.1737 
148.037 176.955 180 147.151 138.855 145.487 177.048 179.967 86.0164 83.9116 -28.2245 467.53 -80.0901 19.9653 404.018 -150.424 -41.2186 387.292 -136.277 -32.7097 460.141 -52.0183 -39.632 446.3 -46.5651 -2.69795 422.457 -46.3775 14.6715 100.934 34.6605 
150.411 176.957 179.999 148.55 139.977 145.274 177.857 179.967 83.5917 84.2876 -28.9223 468.782 -79.9311 16.703 401.804 -150.759 -44.9814 393.298 -136.299 -33.0202 460.276 -52.4637 -40.432 447.933 -47.3344 -4.49363 422.77 -46.584 15.1626 97.7107 34.5637 
150.514 176.28 179.999 148.876 140.87 143.466 177.021 179.967 85.1791 83.8638 -33.0686 468.948 -79.2512 17.2615 401.609 -150.894 -47.103 393.913 -136.881 -35.1303 460.597 -53.5692 -42.46 446.901 -48.6562 -5.87199 422.886 -47.5201 15.3429 96.6654 36.8542 
151.275 174.506 179.999 148.865 139.957 141.584 176.246 179.963 87.1892 83.7873 -36.5792 468.661 -77.8302 16.9246 402.772 -150.703 -49.0705 395.742 -135.785 -37.742 461.519 -56.6663 -44.346 446.571 -50.3216 -7.25439 423.528 -48.0498 14.3913 92.9268 38.9331 
153.256 175.391 178.185 149.399 139.251 140.264 175.748 179.397 89.1479 83.6596 -38.8166 469.347 -77.0733 16.0306 402.785 -150.363 -50.9305 396.722 -135.15 -39.3014 463.24 -59.0789 -45.6721 447.198 -52.0776 -8.5387 424.202 -48.3449 14.3001 90.9869 39.8674 
154.502 174.316 174.554 150.398 138.104 140.54 175.532 178.191 89.4504 82.6583 -40.1717 470.482 -77.2822 14.8707 403.158 -150.464 -53.8927 400.679 -134.179 -40.1106 464.33 -59.4799 -46.6435 447.336 -52.6999 -9.8742 424.89 -48.4068 14.9771 88.6691 41.7889 
152.929 172.741 161.318 150.061 137.713 139.208 175.951 173.826 90.6408 83.0449 -42.2478 470.595 -76.234 14.2808 403.252 -150.061 -55.5078 404.294 -133.629 -42.0231 465.186 -60.9131 -47.9503 447.746 -53.8184 -10.9422 425.705 -48.5278 15.2679 84.8433 43.4026 
