161.395 171.782 179.701 131.86 139.214 148.847 164.706 166.4 93.5368 92.8896 -30.2991 128.903 27.6009 -65.9432 142.585 -57.3234 -15.1122 133.51 -55.9489 -25.9701 136.317 42.837 -16.6678 146.42 45.9742 -34.0685 186.543 31.7909 13.2224 83.3684 22.6167 
161.496 171.823 179.698 131.623 139.239 149.001 164.739 166.498 93.888 93.199 -30.4896 128.801 27.9216 -66.1169 142.625 -57.0826 -15.2237 133.5 -55.7132 -26.0648 135.975 42.9829 -16.7971 146.148 46.2344 -34.1446 186.499 32.1045 13.2035 83.1575 22.6554 
161.562 171.807 179.61 131.264 139.106 149.114 164.728 166.545 94.1274 93.3977 -30.8104 128.608 28.0724 -66.2137 142.456 -56.8317 -15.2979 133.239 -55.4173 -26.1346 135.45 43.0122 -16.8975 145.676 46.4089 -34.213 186.265 32.3846 13.1831 82.8181 22.683 
161.553 171.805 179.158 130.953 138.926 149.126 164.751 166.497 94.3318 93.5368 -31.113 128.437 28.2095 -66.2471 142.289 -56.6395 -15.3817 132.86 -55.0898 -26.2433 134.931 43.0531 -16.9967 145.183 46.5675 -34.2569 185.999 32.639 13.141 82.4718 22.6829 
161.486 171.782 178.834 130.7 138.782 149.067 164.754 166.484 94.4465 93.6129 -31.4109 128.292 28.2902 -66.2383 142.077 -56.4321 -15.4071 132.523 -54.8365 -26.314 134.464 43.0832 -17.052 144.722 46.7058 -34.2823 185.719 32.8691 13.0953 82.2016 22.6737 
161.36 171.781 179.068 130.879 138.726 148.897 164.713 166.47 94.2701 93.4509 -31.5439 128.33 28.3863 -66.3722 142.011 -56.1505 -15.6121 132.466 -54.6696 -26.4104 134.444 43.2383 -17.0651 144.665 46.8566 -34.3318 185.615 33.089 13.0336 82.2066 22.6226 
161.269 171.774 178.843 131.012 138.683 148.803 164.666 166.344 94.0524 93.2516 -31.6597 128.306 28.5635 -66.3715 141.81 -55.822 -15.6803 132.176 -54.3052 -26.5309 134.458 43.4857 -17.1011 144.625 47.0921 -34.3414 185.514 33.3197 12.9787 82.1212 22.5958 
161.192 171.767 178.671 131.108 138.749 148.664 164.661 166.198 93.9009 93.1318 -31.8535 128.386 28.702 -66.3916 141.604 -55.5003 -15.6456 131.856 -53.8781 -26.6208 134.468 43.747 -17.1666 144.608 47.3961 -34.3611 185.454 33.539 12.9566 82.0022 22.6603 
161.155 171.739 178.764 131.361 138.799 148.547 164.575 165.993 93.7602 93.0251 -31.902 128.475 28.8581 -66.4229 141.534 -55.1558 -15.6691 131.787 -53.517 -26.6333 134.612 44.026 -17.1287 144.733 47.6514 -34.3709 185.479 33.7778 12.9154 81.9645 22.6846 
161.154 171.72 178.765 131.404 138.755 148.473 164.523 165.883 93.7714 93.0465 -31.7746 128.505 29.0343 -66.4252 141.474 -54.8792 -15.6483 131.744 -53.2227 -26.5286 134.656 44.2297 -17.0319 144.781 47.8444 -34.3545 185.491 33.9929 12.9074 81.8553 22.7113 
161.201 171.716 179.272 131.419 138.708 148.454 164.512 165.979 93.8216 93.1314 -31.4751 128.502 29.2148 -66.4664 141.406 -54.588 -15.6472 131.921 -53.1039 -26.2818 134.742 44.4957 -16.8224 144.873 48.0519 -34.3556 185.508 34.2192 12.9028 81.9546 22.7032 
161.251 171.662 179.279 131.205 138.611 148.495 164.405 165.953 94.0519 93.3186 -31.2788 128.461 29.3434 -66.4206 141.194 -54.2215 -15.5567 131.94 -52.8569 -25.9438 134.603 44.6155 -16.579 144.844 48.2018 -34.3457 185.472 34.4389 12.9231 81.746 22.7211 
161.34 171.68 179.485 130.968 138.552 148.557 164.43 166.117 94.285 93.542 -31.1637 128.451 29.5137 -66.4085 141.106 -53.946 -15.4129 132.078 -52.7053 -25.6712 134.527 44.7611 -16.387 144.861 48.3755 -34.3439 185.493 34.6701 12.936 81.6634 22.7833 
161.357 171.634 178.147 130.317 138.32 148.628 164.283 166.02 94.8393 93.9698 -31.5126 128.348 29.8748 -66.2555 140.803 -53.3198 -15.3219 131.623 -51.9295 -25.5345 133.923 44.9058 -16.341 144.411 48.7167 -34.3317 185.343 35.136 12.9278 80.9038 22.8077 
161.352 171.652 177.534 129.955 138.187 148.617 164.254 166.125 95.3006 94.2975 -31.9148 128.174 30.0996 -66.2235 140.729 -53.1633 -15.3956 131.28 -51.6939 -25.6411 133.281 44.8221 -16.4618 143.852 48.7992 -34.3197 185.156 35.3181 12.8969 80.4305 22.7732 
161.334 171.696 177.584 129.871 138.205 148.57 164.285 166.265 95.4301 94.4199 -32.1523 128.102 30.3236 -66.2403 140.821 -53.1118 -15.5547 131.162 -51.6069 -25.8396 133.01 44.8844 -16.6115 143.555 48.9229 -34.3353 185.066 35.4709 12.8475 80.3494 22.6927 
161.246 171.732 177.897 129.953 138.23 148.412 164.328 166.451 95.5224 94.4642 -32.4296 128.181 30.5224 -66.2999 141.06 -53.1292 -15.7584 131.207 -51.6257 -26.1098 132.791 44.9103 -16.8302 143.322 49.0001 -34.394 185.04 35.6013 12.8169 80.3453 22.5974 
161.113 171.772 177.833 130.231 138.332 148.231 164.357 166.611 95.2502 94.2444 -32.8273 128.34 30.7056 -66.3534 141.297 -53.0668 -16.0934 131.138 -51.5266 -26.4972 132.9 45.1363 -17.0861 143.307 49.1986 -34.4432 185.07 35.739 12.7556 80.5249 22.4356 
161.007 171.82 178.166 130.574 138.57 148.109 164.433 166.788 94.8191 93.9457 -33.1288 128.512 30.7988 -66.4579 141.555 -53.0457 -16.2663 131.27 -51.5495 -26.8252 133.182 45.3872 -17.3295 143.437 49.411 -34.491 185.134 35.8675 12.7431 80.9064 22.3773 
160.931 171.831 178.345 130.801 138.762 148.013 164.422 166.85 94.5635 93.7696 -33.2558 128.694 30.9418 -66.565 141.839 -52.9909 -16.4253 131.49 -51.5226 -27.0618 133.458 45.5404 -17.5127 143.633 49.5496 -34.5488 185.282 35.9694 12.736 81.1155 22.3433 
160.906 171.835 178.704 131.053 138.999 147.973 164.406 166.758 94.4814 93.689 -33.326 129.015 31.0868 -66.7015 142.214 -52.924 -16.5601 131.848 -51.4918 -27.2017 133.742 45.6547 -17.6293 143.93 49.6712 -34.6341 185.557 36.1168 12.7348 81.1867 22.3328 
160.843 171.826 178.639 131.293 139.14 147.915 164.373 166.557 94.2499 93.5111 -33.3751 129.317 31.1737 -66.8975 142.627 -52.8416 -16.7636 132.231 -51.4177 -27.3254 134.178 45.795 -17.6979 144.319 49.7486 -34.7227 185.838 36.2267 12.7207 81.334 22.3493 
160.813 171.801 178.352 131.54 139.325 147.881 164.299 166.314 94.0719 93.4006 -33.4688 129.647 31.1855 -67.1545 143.148 -52.7811 -17.013 132.666 -51.3374 -27.4642 134.622 45.8859 -17.7975 144.71 49.7886 -34.826 186.154 36.3161 12.7153 81.4265 22.3968 
160.85 171.72 178.204 131.671 139.393 147.934 164.174 166.074 94.1487 93.437 -33.4964 130.049 31.138 -67.4589 143.773 -52.7268 -17.2873 133.251 -51.3039 -27.4378 134.978 45.9098 -17.7819 145.098 49.7869 -34.9564 186.543 36.4146 12.7115 81.3886 22.4543 
160.944 171.669 177.902 131.849 139.476 148.093 164.068 165.873 94.1251 93.4406 -33.4542 130.382 31.0407 -67.7362 144.393 -52.6754 -17.4728 133.932 -51.3044 -27.4263 135.453 45.9832 -17.7684 145.553 49.8128 -35.0615 186.945 36.5342 12.7019 81.4619 22.5259 
161.041 171.683 177.767 132.1 139.584 148.273 164.006 165.759 94.0926 93.432 -33.4139 130.746 30.9761 -68.1651 145.162 -52.6102 -17.7577 134.747 -51.3636 -27.4522 136.029 46.135 -17.7739 146.082 49.8768 -35.1606 187.407 36.6648 12.6887 81.6775 22.6372 
161.161 171.716 177.66 132.151 139.66 148.443 164.006 165.634 94.1152 93.4791 -33.2384 131.118 30.9015 -68.6515 145.964 -52.607 -17.9229 135.67 -51.5049 -27.383 136.578 46.1227 -17.7562 146.639 49.8445 -35.2582 187.897 36.7505 12.726 81.8164 22.858 
161.216 171.772 177.937 132.364 139.671 148.567 164.074 165.727 93.9564 93.3366 -33.1673 131.506 30.7918 -69.0493 146.801 -52.6874 -18.1172 136.565 -51.7367 -27.3872 137.205 46.236 -17.7683 147.201 49.8532 -35.357 188.349 36.8379 12.76 82.1787 22.9815 
161.218 171.784 178.235 132.543 139.709 148.633 164.095 165.731 93.8083 93.2431 -33.078 131.968 30.7226 -69.4435 147.739 -52.7148 -18.2702 137.557 -51.8873 -27.3573 137.862 46.3958 -17.7776 147.794 49.9068 -35.4704 188.828 36.9814 12.8188 82.5614 23.1541 
161.177 171.867 178.765 132.685 139.743 148.62 164.208 165.882 93.6146 93.0715 -32.9908 132.471 30.8102 -69.8347 148.562 -52.6514 -18.4402 138.522 -52.0566 -27.3679 138.584 46.6175 -17.7988 148.479 50.0467 -35.5809 189.354 37.1618 12.8555 82.991 23.2699 
161.114 171.947 179.18 132.883 139.697 148.603 164.319 166.145 93.3236 92.8573 -32.9875 132.919 30.867 -70.1761 149.254 -52.5521 -18.6595 139.435 -52.23 -27.4326 139.372 46.9476 -17.8488 149.168 50.2255 -35.7108 189.833 37.3368 12.8854 83.5742 23.3006 
161.052 172.024 179.762 132.919 139.516 148.577 164.452 166.453 93.1867 92.7744 -32.9065 133.434 30.9124 -70.5366 150.01 -52.4754 -18.9172 140.544 -52.4876 -27.2853 140.172 47.2253 -17.7197 149.932 50.3463 -35.8564 190.376 37.4919 12.8993 84.1587 23.3194 
160.98 172.122 179.795 132.968 139.333 148.566 164.556 166.639 93.0458 92.7158 -32.8664 133.904 30.9638 -70.8113 150.68 -52.415 -19.1037 141.49 -52.6737 -27.2214 140.892 47.4471 -17.6498 150.587 50.424 -35.9703 190.88 37.6348 12.9016 84.6065 23.3366 
160.878 172.133 179.527 132.988 139.112 148.51 164.566 166.702 93.148 92.7983 -32.934 134.357 31.0518 -70.9998 151.309 -52.306 -19.2825 142.243 -52.7105 -27.1746 141.315 47.5855 -17.5999 151.023 50.4777 -36.0658 191.321 37.8015 12.8893 84.764 23.3385 
160.759 172.137 179.029 132.977 138.859 148.415 164.598 166.717 93.3035 92.8767 -32.9103 134.722 31.1739 -71.1649 151.858 -52.1939 -19.4751 142.897 -52.6981 -27.1348 141.616 47.6673 -17.5409 151.368 50.4901 -36.1722 191.685 37.9632 12.8582 84.8081 23.3281 
160.703 172.097 177.922 132.894 138.73 148.403 164.542 166.632 93.3746 92.9066 -32.8245 134.993 31.3151 -71.1304 152.117 -52.0214 -19.4916 143.165 -52.4659 -27.1119 141.944 47.7925 -17.5069 151.736 50.5878 -36.229 192.001 38.1019 12.8379 84.6927 23.3176 
160.613 172.156 177.487 132.997 138.718 148.311 164.645 166.798 93.2605 92.7887 -32.98 135.373 31.4772 -71.2727 152.567 -51.8838 -19.7081 143.501 -52.3306 -27.3008 142.442 48.0727 -17.6245 152.184 50.795 -36.3244 192.366 38.2618 12.8054 84.8721 23.2855 
160.524 172.183 177.051 132.951 138.616 148.238 164.688 166.752 93.2248 92.7494 -33.0399 135.607 31.6071 -71.312 152.877 -51.8219 -19.7807 143.594 -52.1314 -27.4093 142.686 48.1947 -17.6862 152.398 50.8754 -36.3779 192.584 38.3517 12.7794 84.8285 23.3178 
160.311 172.173 176.668 133.153 138.648 148.052 164.603 166.468 93.1775 92.6513 -33.2751 136.378 31.8869 -71.6352 154.039 -51.6769 -20.2543 144.265 -51.7941 -27.8519 143.384 48.3822 -17.9941 153.06 51.0188 -36.573 193.283 38.5891 12.7137 84.7481 23.346 
160.282 172.162 176.733 133.305 138.709 147.984 164.563 166.343 93.0779 92.5383 -33.3362 136.631 32.0042 -71.7221 154.563 -51.6762 -20.4517 144.307 -51.573 -28.1607 143.607 48.4641 -18.2028 153.203 51.0845 -36.6233 193.501 38.6891 12.6717 84.628 23.3633 
160.233 172.113 176.946 133.726 138.98 147.902 164.419 166.045 92.9297 92.4075 -33.3834 137.018 31.9422 -71.8726 155.241 -51.6128 -20.7592 144.682 -51.4198 -28.426 144.041 48.5098 -18.3729 153.575 51.0726 -36.7179 193.842 38.7792 12.642 84.5831 23.3434 
160.18 171.985 176.536 134.103 139.182 147.83 164.187 165.542 92.812 92.2908 -33.3641 137.36 31.9665 -71.9448 155.745 -51.468 -21.0097 144.863 -51.0945 -28.6106 144.404 48.5422 -18.4976 153.906 51.0795 -36.7911 194.157 38.8772 12.628 84.3389 23.3295 
160.109 171.94 176.676 134.345 139.302 147.704 164.107 165.324 92.6772 92.1543 -33.5891 137.793 31.9688 -72.0931 156.383 -51.4025 -21.2315 145.114 -50.8966 -28.8979 144.751 48.596 -18.6862 154.181 51.1211 -36.8668 194.479 38.9832 12.5823 84.2513 23.3737 
160.019 171.913 176.75 134.479 139.388 147.602 164.069 165.226 92.6024 92.0363 -33.8666 138.242 32.0609 -72.2222 156.958 -51.287 -21.4758 145.243 -50.607 -29.1872 145.075 48.7669 -18.8817 154.446 51.2941 -36.9187 194.804 39.1152 12.5297 84.1858 23.4047 
159.952 171.879 176.853 134.657 139.456 147.565 164.051 165.037 92.4633 91.8558 -34.1895 138.664 32.0382 -72.3365 157.537 -51.2379 -21.7634 145.342 -50.3517 -29.4747 145.406 48.8994 -19.0696 154.688 51.4084 -36.971 195.105 39.2188 12.4831 84.0983 23.3966 
159.881 171.916 177.448 134.917 139.524 147.457 164.124 164.853 92.3173 91.6183 -34.2599 139.115 32.0997 -72.4555 158.138 -51.2039 -21.9804 145.598 -50.1747 -29.5956 145.882 49.1161 -19.0808 155.118 51.5382 -36.9986 195.466 39.2951 12.4201 84.2139 23.4339 
159.811 171.911 177.521 134.967 139.507 147.342 164.13 164.585 92.4151 91.6143 -34.4443 139.536 32.2164 -72.4963 158.596 -51.1251 -22.106 145.502 -49.8157 -29.7934 145.996 49.2107 -19.1894 155.214 51.6508 -37.0087 195.735 39.3934 12.3429 83.927 23.5255 
159.644 171.948 178.04 135.069 139.564 147.06 164.224 164.465 92.3654 91.4907 -34.5773 140.056 32.4769 -72.6226 159.25 -51.0648 -22.414 145.681 -49.5907 -30.0227 146.325 49.4093 -19.3205 155.494 51.841 -37.0448 196.091 39.4986 12.2706 83.9717 23.5354 
159.471 172.012 178.105 135.157 139.559 146.742 164.392 164.284 92.2861 91.3348 -34.8017 140.647 32.7122 -72.7274 160.017 -51.0719 -22.6292 146.131 -49.4941 -30.2752 146.715 49.5397 -19.457 155.831 51.9524 -37.0881 196.524 39.5706 12.192 84.1394 23.5559 
159.315 172.051 177.292 135.268 139.61 146.512 164.482 163.883 92.1899 91.2269 -35.1213 141.308 32.8346 -72.8369 160.929 -51.0641 -22.8296 146.585 -49.2855 -30.5998 147.204 49.6837 -19.6665 156.212 52.0838 -37.1158 197.031 39.6702 12.1227 84.2195 23.6335 
159.245 172.085 175.884 135.383 139.644 146.352 164.638 163.391 92.2855 91.2365 -35.2044 141.841 33.0292 -72.8331 161.647 -51.113 -22.8411 146.942 -49.0821 -30.7091 147.532 49.8181 -19.721 156.523 52.2061 -37.149 197.49 39.7604 12.0623 84.1814 23.7368 
159.194 172.147 174.063 135.683 139.826 146.213 164.75 162.857 92.1871 91.115 -34.942 142.38 33.3028 -72.7091 162.46 -51.1527 -22.8202 147.594 -48.9133 -30.6977 148.225 50.0613 -19.6962 157.2 52.3595 -37.1485 198.081 39.855 12.0803 84.3809 23.7611 
159.181 172.149 172.344 135.922 140.059 146.116 164.803 162.326 92.2318 91.1603 -34.6722 142.986 33.5574 -72.5872 163.263 -51.1363 -22.7083 148.356 -48.7146 -30.6722 148.892 50.2412 -19.6868 157.887 52.5066 -37.1744 198.752 39.9688 12.0901 84.4647 23.8106 
159.217 172.138 171.04 135.987 140.274 146.095 164.774 162.003 92.4773 91.4227 -34.4314 143.489 33.741 -72.5097 163.971 -51.0825 -22.4655 149.168 -48.6089 -30.6123 149.339 50.2346 -19.6978 158.417 52.5601 -37.1904 199.37 40.0675 12.1162 84.3925 23.9188 
159.218 172.206 169.463 136.314 140.652 146.076 164.842 161.644 92.4726 91.5224 -34.2493 144.545 33.8854 -72.6847 165.391 -51.0206 -22.5555 150.782 -48.5928 -30.6135 150.632 50.4881 -19.7226 159.691 52.744 -37.3354 200.547 40.2308 12.1166 84.7687 23.9634 
159.233 172.24 169.155 136.519 140.862 146.132 164.868 161.798 92.4239 91.6101 -33.9543 144.902 33.8206 -72.6964 165.963 -51.0611 -22.4637 151.694 -48.7998 -30.5398 151.3 50.5465 -19.6939 160.322 52.7585 -37.353 201.05 40.2656 12.1532 85.0766 23.9322 
159.304 172.201 169.06 136.654 141.066 145.935 165.037 161.947 92.6538 91.8355 -34.3574 145.265 33.7182 -73.3505 166.845 -50.8764 -23.0277 152.491 -48.7961 -30.922 151.828 50.5059 -19.9703 160.737 52.6478 -37.4461 201.706 40.2205 12.0901 85.0768 23.9851 
159.281 172.204 168.527 136.794 141.172 146.035 164.912 161.744 92.7478 92.022 -34.377 145.724 33.7855 -73.403 167.294 -50.6396 -22.9931 153.142 -48.6092 -30.9286 152.359 50.6482 -19.9991 161.292 52.78 -37.5013 202.22 40.363 12.0949 85.1004 24.0391 
159.295 172.182 168.122 136.867 141.292 146.181 164.774 161.608 92.9736 92.3124 -34.4934 146.272 33.7913 -73.5077 167.831 -50.4108 -22.9408 154.001 -48.5292 -30.9172 152.808 50.6771 -20.0353 161.842 52.8601 -37.6127 202.791 40.5528 12.0969 85.0375 24.0898 
159.352 172.138 168.045 136.85 141.219 146.37 164.72 161.664 93.3354 92.6438 -34.703 146.745 33.8769 -73.514 168.159 -50.1434 -22.8421 154.653 -48.4264 -30.8029 153.057 50.7654 -19.9391 162.24 52.9864 -37.7096 203.289 40.7915 12.0434 84.8914 24.0842 
159.381 172.109 168.201 136.784 141.167 146.563 164.682 161.798 93.5565 92.9192 -34.9821 147.067 33.8254 -73.4945 168.425 -49.9525 -22.775 155.238 -48.4167 -30.7416 153.279 50.7864 -19.9025 162.529 53.0463 -37.7993 203.658 40.9528 12.0072 84.8493 24.0357 
159.42 172.096 168.601 136.801 141.168 146.737 164.695 162.071 93.6648 93.0836 -35.1172 147.279 33.8373 -73.5272 168.742 -49.8437 -22.7923 155.882 -48.5606 -30.6746 153.571 50.9517 -19.8677 162.835 53.1925 -37.8844 203.957 41.1113 11.9955 85.1125 23.9427 
159.429 172.061 168.933 136.826 141.17 146.89 164.654 162.302 93.7751 93.247 -35.2851 147.496 33.8648 -73.5597 169.091 -49.6967 -22.918 156.527 -48.6541 -30.6319 153.888 51.1309 -19.8292 163.164 53.3373 -37.9645 204.264 41.265 11.9645 85.3759 23.8086 
159.449 171.99 169.41 136.743 141.136 147.045 164.539 162.553 93.9983 93.5142 -35.3851 147.623 33.8742 -73.5284 169.313 -49.5904 -22.9028 157.004 -48.7531 -30.5696 153.967 51.1228 -19.7993 163.284 53.3712 -38.0045 204.478 41.367 11.9418 85.4007 23.7277 
159.448 171.895 169.891 136.761 141.184 147.091 164.493 162.783 94.1542 93.7125 -35.5916 147.783 33.9409 -73.6138 169.618 -49.476 -23.0224 157.531 -48.8893 -30.5811 154.068 51.1448 -19.8275 163.42 53.429 -38.0767 204.687 41.4845 11.9199 85.539 23.6365 
159.472 171.862 170.578 136.845 141.088 146.876 164.722 163.254 94.2781 93.7952 -36.1634 147.833 33.9107 -74.1537 170.214 -49.3958 -23.5895 157.901 -48.9939 -31.0036 154.237 51.2693 -20.1117 163.42 53.3982 -38.159 204.91 41.4556 11.8657 85.8338 23.63 
159.371 171.889 170.821 136.857 141.012 146.832 164.777 163.462 94.1669 93.7155 -36.3046 148.047 34.0726 -74.1431 170.458 -49.348 -23.7973 158.173 -49.042 -31.1501 154.501 51.4517 -20.2123 163.634 53.5361 -38.2046 205.081 41.5415 11.8508 86.1121 23.4627 
159.294 171.916 170.938 136.937 141.044 146.776 164.808 163.58 94.0843 93.6775 -36.2953 148.378 34.2679 -74.1953 170.805 -49.2563 -23.9575 158.708 -49.1291 -31.133 154.875 51.6103 -20.1907 164.014 53.686 -38.2338 205.382 41.6676 11.8399 86.3975 23.339 
159.273 171.852 171.374 136.947 140.959 146.491 164.968 163.939 94.1332 93.7003 -36.6007 148.659 34.2771 -74.5467 171.308 -49.0746 -24.3826 159.135 -49.1352 -31.3926 155.218 51.7062 -20.3271 164.241 53.6732 -38.2771 205.736 41.7004 11.7775 86.5322 23.2729 
159.243 171.859 171.654 136.9 140.919 146.535 164.941 164.11 94.1114 93.6858 -36.4342 148.93 34.4281 -74.2984 171.339 -48.9857 -24.1848 159.353 -49.1093 -31.239 155.453 51.8679 -20.202 164.51 53.8562 -38.2351 205.941 41.8314 11.7762 86.6129 23.1773 
159.231 171.834 172.035 136.883 140.847 146.648 164.928 164.36 93.9365 93.5601 -36.2182 149.395 34.4621 -73.898 171.586 -48.9268 -23.9883 159.891 -49.1456 -30.9993 156.009 52.0931 -19.9715 165.049 54.0408 -38.1675 206.333 41.9977 11.7691 86.8508 22.9512 
159.243 171.79 172.117 136.887 140.815 146.805 164.826 164.422 93.7451 93.4147 -36.1305 149.62 34.3404 -73.6238 171.617 -48.9037 -23.7515 160.081 -49.1391 -30.8645 156.295 52.2033 -19.8546 165.286 54.1156 -38.0879 206.473 42.0562 11.7986 86.9892 22.88 
159.253 171.775 172.218 137.014 140.895 146.958 164.705 164.407 93.5807 93.3011 -35.9514 149.904 34.2572 -73.3348 171.852 -48.9227 -23.5444 160.376 -49.0866 -30.7859 156.718 52.3446 -19.7874 165.64 54.1926 -38.0053 206.731 42.0964 11.8378 87.1363 22.8148 
159.281 171.726 172.134 137.035 140.985 147.103 164.511 164.258 93.6624 93.3833 -35.7016 150.242 34.1998 -73.1702 172.249 -48.9428 -23.3093 160.672 -48.9833 -30.762 156.943 52.2862 -19.788 165.865 54.1718 -37.9398 207.029 42.1444 11.8578 86.9407 22.8942 
159.322 171.733 172.021 137.057 141.105 147.268 164.356 164.158 93.7342 93.4485 -35.4911 150.587 34.1647 -73.0887 172.652 -48.9218 -23.0846 160.989 -48.9228 -30.7851 157.184 52.2401 -19.8224 166.089 54.1724 -37.8395 207.355 42.2065 11.8763 86.77 22.9956 
159.363 171.712 171.679 136.89 141.152 147.411 164.254 163.973 94.0019 93.6199 -35.4366 150.858 34.2394 -73.0177 172.984 -48.896 -22.8291 161.071 -48.7581 -30.8168 157.066 52.0397 -19.911 166.058 54.1205 -37.7273 207.583 42.2717 11.9169 86.3072 23.1678 
159.358 171.698 171.345 136.88 141.248 147.511 164.101 163.708 94.0788 93.6477 -35.4787 151.175 34.1958 -72.9282 173.447 -48.8934 -22.7151 161.126 -48.5493 -31.0047 157.113 51.9583 -20.0825 166.064 54.1193 -37.6065 207.81 42.3232 11.9317 85.9983 23.2732 
159.3 171.666 170.976 136.887 141.328 147.554 163.951 163.484 94.1819 93.686 -35.613 151.455 34.1247 -72.8217 173.841 -48.8775 -22.6702 161.153 -48.3978 -31.1681 157.061 51.812 -20.2403 165.992 54.0694 -37.4893 207.984 42.3415 11.9469 85.6688 23.312 
159.242 171.662 170.209 137.152 141.604 147.523 163.815 162.981 94.1775 93.6748 -35.6026 151.988 34.125 -72.8935 174.59 -48.8233 -22.7939 161.556 -48.2175 -31.3489 157.372 51.7839 -20.3934 166.26 54.0679 -37.3938 208.387 42.4301 11.9717 85.5045 23.3744 
159.28 171.708 169.488 137.441 141.891 147.557 163.761 162.598 94.1668 93.6602 -35.3154 152.451 34.2266 -72.9454 175.223 -48.7221 -22.8062 162.129 -48.1063 -31.3283 157.87 51.8993 -20.3673 166.749 54.1611 -37.2665 208.872 42.5513 12.0008 85.5175 23.4237 
159.208 171.767 168.971 137.675 142.064 147.469 163.792 162.46 94.0439 93.5845 -35.1533 152.744 34.2502 -73.0309 175.872 -48.7095 -22.8197 162.805 -48.2328 -31.3275 158.258 51.9427 -20.3518 167.067 54.1625 -37.1415 209.177 42.6427 12.0355 85.7558 23.4544 
159.182 171.833 168.592 138.092 142.31 147.405 163.847 162.405 93.7647 93.3621 -34.8759 152.956 34.3045 -73.1036 176.529 -48.7365 -22.89 163.579 -48.4214 -31.3271 158.854 52.1912 -20.3237 167.544 54.2726 -36.9948 209.487 42.7025 12.0951 86.3551 23.42 
159.174 171.854 168.422 138.494 142.585 147.329 163.856 162.337 93.6554 93.3159 -34.6283 153.271 34.4469 -73.1529 177.038 -48.6368 -22.8824 164.233 -48.4552 -31.2779 159.408 52.4607 -20.2563 168.036 54.4317 -36.8729 209.869 42.7881 12.1248 86.7812 23.4282 
159.106 171.868 168.284 138.774 142.783 147.235 163.806 162.282 93.6288 93.3998 -34.5367 153.757 34.4276 -73.2206 177.793 -48.5792 -22.8321 164.981 -48.4785 -31.3368 159.863 52.5258 -20.301 168.382 54.4792 -36.7694 210.3 42.8619 12.1301 86.989 23.5113 
158.993 171.923 168.173 138.811 142.759 147.045 163.918 162.284 93.7871 93.566 -34.4952 154.39 34.5968 -73.229 178.526 -48.4604 -22.8085 165.675 -48.4301 -31.2994 160.229 52.621 -20.2459 168.746 54.5738 -36.6896 210.805 43.0282 12.1041 87.0476 23.5361 
158.921 171.95 167.917 138.852 142.776 146.955 163.914 162.232 93.8888 93.6919 -34.4583 154.971 34.6924 -73.1915 179.243 -48.314 -22.7932 166.416 -48.3995 -31.2753 160.606 52.6582 -20.2082 169.109 54.6251 -36.6119 211.312 43.1986 12.0895 87.0484 23.5066 
158.917 172.015 168.006 138.782 142.775 146.908 163.997 162.418 94.0226 93.844 -34.2914 155.407 34.9492 -73.1669 179.749 -48.155 -22.6102 167.028 -48.4151 -31.1954 160.928 52.7289 -20.1602 169.459 54.7428 -36.5331 211.774 43.3656 12.0974 87.0807 23.5566 
158.934 172.089 167.937 138.605 142.689 146.838 164.196 162.605 94.1107 93.9255 -34.0059 155.729 35.1562 -73.2413 180.312 -48.1456 -22.5106 167.723 -48.619 -30.9878 161.204 52.7485 -19.9929 169.782 54.7692 -36.4438 212.133 43.4675 12.1149 87.2888 23.621 
158.944 172.175 168.135 138.46 142.571 146.768 164.332 162.791 94.2666 94.0343 -33.7488 156.179 35.4231 -73.1977 180.926 -48.0513 -22.3926 168.457 -48.643 -30.7689 161.536 52.796 -19.8249 170.217 54.86 -36.364 212.6 43.623 12.1323 87.3565 23.6501 
158.994 172.249 168.38 138.264 142.392 146.769 164.42 162.962 94.4672 94.1825 -33.6079 156.605 35.7408 -73.0668 181.473 -47.8875 -22.384 168.953 -48.5181 -30.6405 161.85 52.9279 -19.6873 170.61 55.0289 -36.2955 213.066 43.8457 12.0928 87.274 23.5741 
