150.641 174.27 180 162.864 152.172 142.463 178.108 179.978 71.1833 81.409 83.2813 437.72 47.8583 43.7676 452.923 -44.0555 88.1962 432.686 -51.4702 93.1763 467.538 67.3059 101.802 460.02 60.3319 88.2548 493.777 42.4658 24.1489 117.99 19.5262 
151.889 174.27 180 160.798 152.613 142.796 178.113 179.98 70.6862 77.9163 84.5275 436.649 48.646 43.7854 449.915 -41.8745 88.9066 433.116 -52.3066 95.4587 468.263 66.6824 104.127 463.108 58.7364 88.1706 494.14 42.4512 24.3076 118.223 18.9864 
151.943 174.27 180 160.376 153.745 143.379 178.081 179.981 69.3389 75.7482 85.8744 435.955 49.1021 43.9026 447.688 -40.6936 89.4718 433.548 -53.0392 96.9226 470.063 66.056 105.386 464.904 57.2539 87.9952 494.329 42.3101 25.7061 120.081 18.6797 
152.241 174.27 179.806 160.623 156.066 143.959 178.053 178.76 68.2825 73.6011 86.7803 435.254 48.6778 42.9495 446.042 -39.5124 90.3911 434.2 -53.553 97.7437 471.135 65.3164 106.415 466.338 55.9231 87.7962 494.371 42.2109 26.3228 120.972 19.6672 
152.556 174.27 179.433 160.68 159.265 144.473 177.977 177.328 69.5242 74.5042 85.4538 434.732 48.4431 39.9132 444.588 -39.1327 89.0648 432.865 -54.3893 97.0602 470.607 65.6225 106.596 466.225 57.2658 87.7093 494.314 41.6714 23.7347 120.559 20.7913 
152.026 175.767 177.572 160.73 160.197 144.882 178.504 174.624 70.4655 76.4938 83.5731 435.247 46.0984 39.8297 445.224 -40.1412 90.1517 431.948 -53.8404 95.9125 471.005 66.0431 105.734 465.922 58.6068 87.5831 494.426 41.3502 22.5576 120.336 21.5861 
152.728 178.719 176.059 162.406 156.885 146.282 179.547 172.784 72.0917 80.5032 77.6776 434.592 45.2253 40.425 446.356 -42.5493 88.5279 431.5 -54.1468 91.7525 470.624 66.6676 102.779 463.955 61.5332 87.3897 494.158 40.8094 19.5575 120.618 20.0556 
152.739 176.955 176.162 163.716 155.295 147.736 178.741 173.089 71.9034 82.0523 74.2682 434.024 45.6997 41.0928 446.865 -43.014 87.7783 431.369 -54.3153 90.5622 470.491 66.6526 101.626 463.363 63.0171 87.2817 494.12 40.7868 18.2773 120.508 19.1605 
152.44 173.651 177.757 165.458 154.439 148.07 177.331 174.005 72.2071 83.8639 71.2413 433.543 45.1844 41.2379 447.202 -44.3035 86.7386 431.127 -55.9149 88.6488 469.628 66.7635 99.5795 461.881 64.3232 87.0275 493.093 40.6646 17.3829 121.286 18.3615 
151.221 172.607 179.694 166.527 153.321 147.971 176.77 176.431 72.6307 84.4551 71.1336 434.916 43.8008 42.1055 446.958 -45.8139 87.2702 433.503 -57.7832 87.504 469.594 67.0241 98.1534 460.919 64.2249 86.7967 492.687 40.6451 18.2014 123.745 17.5759 
150.231 172.526 179.872 167.524 152.289 147.417 176.18 178.792 71.8085 85.6638 70.28 436.069 41.9675 42.7701 447.866 -47.5837 87.3534 434.188 -60.0744 86.1504 469.435 66.4458 96.6582 459.311 64.4134 86.5941 492.063 40.4755 18.4514 124.991 17.0546 
148.509 172.08 180 167.465 149.313 146.739 175.406 179.997 70.1203 88.7368 70.9568 436.065 41.9529 42.9782 448.544 -48.8276 89.6328 435.304 -60.7489 85.0441 469.242 64.9301 93.7681 456.65 62.7456 86.1379 491.468 40.319 21.3221 126.179 18.259 
152.652 172.51 180 167.718 148.153 147.068 175.441 179.999 69.1156 89.5777 72.7379 435.26 41.2605 44.4526 448.965 -50.3871 88.7331 434.776 -59.0596 84.3608 469.948 64.4996 92.297 455.789 61.824 85.919 491.277 40.2497 23.3152 126.069 16.8104 
154.486 172.798 180 168.283 148.804 146.135 174.971 179.998 68.2394 88.5299 74.9707 435.112 41.1587 45.2945 448.106 -50.3595 89.729 433.46 -56.0397 86.173 470.535 64.3092 93.7859 455.677 59.4859 85.658 491.141 40.0614 26.6126 125.796 17.3588 
155.46 172.607 180 169.506 149.233 144.999 174.386 179.993 68.1347 88.1605 76.9752 433.615 42.4327 45.0444 446.903 -49.461 89.2017 431.097 -54.8812 87.1302 468.946 63.7861 94.5428 454.701 57.4474 85.2869 490.708 39.7587 28.0165 123.397 17.6028 
157.255 172.214 179.999 169.256 150.506 143.868 173.614 179.991 66.2551 87.4585 79.798 431.212 44.4342 44.7019 445.123 -48.6867 88.3096 428.216 -54.2545 86.9221 468.131 62.2973 95.2633 454.154 56.8021 84.7853 489.602 39.6442 27.1453 121.976 17.6166 
158.082 171.282 179.989 169.697 151.923 143.113 172.162 177.497 65.9076 85.3176 82.2717 430.262 45.6114 43.8984 443.471 -47.3501 84.6686 427.366 -52.2767 84.8217 468.541 61.3541 96.2756 454.842 55.3327 84.4988 489.143 39.6881 26.293 120.805 16.2295 
157.802 172.475 180 169.323 151.734 143.223 171.246 178.039 68.9616 84.9729 82.55 429.483 46.3872 42.5145 441.995 -46.2329 83.0054 427.419 -52.259 85.3613 465.322 62.2512 97.5978 454.061 54.7044 84.1448 488.788 39.466 24.9419 118.378 15.7095 
159.013 172.591 180 169.446 149.993 143.325 171.68 179.989 67.6601 87.1182 80.254 429.42 45.3733 41.1492 442.552 -46.6702 81.6464 427.761 -52.7565 85.8534 464.571 62.2032 96.7883 451.073 56.0124 83.9543 488.213 39.4719 25.8267 119.178 15.5709 
160.732 172.419 179.277 169.02 147.256 143.561 172.565 179.754 68.6165 83.5375 75.6455 429.869 43.7344 39.5622 445.075 -49.3618 77.0301 426.984 -52.8915 83.5755 463.051 62.4342 94.8973 448.95 54.0457 83.7039 487.705 38.8351 27.8055 117.973 14.6169 
160.055 171.501 179.475 168.982 146.103 143.148 171.464 179.803 68.6512 82.8352 72.5233 431.344 43.4218 38.1265 446.961 -49.8484 75.9417 426.371 -54.8414 82.4855 461.68 62.328 94.2958 447.139 54.3163 83.5693 487.404 38.7493 27.2086 117.65 15.1663 
157.112 170.501 171.161 169.2 146.23 142.342 171.432 176.531 70.372 82.7166 70.8493 432.038 43.6179 38.3746 447.896 -50.6067 74.9045 424.123 -53.2846 81.4741 461.16 63.2631 93.6483 446.168 53.5154 83.5349 487.208 38.7602 28.6517 115.981 15.8807 
157.381 170.451 168.162 169.588 143.228 141.61 171.564 175.243 71.2748 84.9057 67.4964 434.057 41.976 38.5775 449.682 -51.5669 72.2004 423.951 -53.1348 78.7332 461.254 63.7304 90.8468 444.234 54.2012 83.6018 487.255 38.8649 29.274 114.94 15.035 
155.754 170.343 166.377 170.987 139.988 139.783 171.732 174.328 71.9498 85.3935 66.1978 436.143 41.0285 39.1178 449.889 -52.538 75.8116 421.531 -52.3689 77.1464 461.919 64.4144 89.8468 442.979 54.9858 83.7001 487.265 38.9458 30.1605 115.619 17.3625 
154.486 170.06 168.031 171.702 138.669 138.908 171.368 174.84 72.9629 87.1871 65.0725 437.469 40.4895 40.1983 450.047 -52.6713 75.8441 420.831 -52.637 76.4232 462.273 64.9998 89.2772 442.235 56.0175 84.0108 487.355 38.9783 30.2695 115.409 16.992 
151.83 169.939 165.573 173.671 141.356 138.003 171.603 173.636 73.9008 87.3221 65.3349 438.08 40.0883 41.3292 448.786 -52.6597 77.8249 419.898 -53.0764 76.3384 462.112 65.4499 89.3212 443.285 58.3554 84.3297 487.082 38.9662 27.3278 115.585 17.0099 
148.132 169.874 165.643 174.903 146.525 137.695 172.129 173.127 73.1595 87.169 67.2806 437.198 41.3533 41.9817 446.013 -51.4528 79.6202 417.826 -52.6681 78.19 462.263 65.5717 90.6856 445.215 60.0888 84.4761 486.706 39.1385 24.9804 115.871 17.2127 
145.91 170.515 167.496 173.138 148.726 137.939 172.947 171.978 72.4813 88.3349 69.1514 435.902 41.9585 42.2173 443.445 -50.0584 81.9819 416.901 -51.9335 80.3702 463.375 66.0037 90.9139 445.724 58.8358 84.61 486.3 39.3374 28.1918 117.862 17.7811 
143.958 171.585 169.418 168.259 153.404 138.984 173.464 174.122 75.3299 89.7606 70.7284 434.843 42.1856 41.0233 441.332 -49.5153 83.2247 417.062 -53.7249 80.9424 460.744 66.9087 91.3068 446.445 60.6112 84.7636 485.762 39.1346 24.5291 117.206 17.988 
141.316 172.388 169.657 167.696 154.817 139.923 174.115 175.363 75.1549 90.175 72.6544 434.514 42.3858 41.1048 440.672 -48.7906 84.2918 417.883 -53.4307 82.0474 460.784 66.9595 92.2855 447.848 61.9825 84.9052 485.785 39.2668 22.5747 117.534 18.2447 
139.155 173.257 172.831 167.951 155.223 141.179 174.464 176.876 74.6647 89.3249 74.0482 434.057 42.7493 41.0373 440.254 -48.1784 85.1522 418.845 -53.5907 82.7842 460.639 66.9619 93.1589 448.42 62.5145 84.9169 485.546 39.5187 21.673 118.32 18.4454 
138.189 174.3 179.227 167.224 155.882 141.808 174.712 179.669 74.5855 88.7862 75.8662 432.978 43.8751 40.8262 437.971 -46.9373 85.5108 419.518 -54.2212 84.3884 459.883 67.431 94.6027 448.855 62.8856 84.8292 485.062 39.9184 21.3261 119.062 17.9714 
137.147 174.837 173.697 167.825 152.786 142.547 174.748 175.397 74.7379 88.0795 76.5127 431.38 44.4931 40.696 435.571 -45.9664 86.81 416.673 -52.3098 85.4482 459.893 68.0616 94.1322 448.391 61.0733 84.6216 484.103 40.0475 24.7911 118.942 19.0447 
139.297 174.836 174.092 168.373 154.196 143.108 174.446 174.669 74.9296 91.036 75.3097 429.668 44.7746 40.38 434.904 -46.0575 86.61 416.35 -52.2999 85.023 459.737 68.4707 92.9904 445.068 59.4821 84.3998 483.197 40.0992 28.8813 120.024 19.0864 
141.557 175.351 174.266 168.495 152.395 145.975 174.12 176.182 74.8254 96.5943 74.1209 426.227 45.6099 39.6753 434.168 -46.3184 85.0825 417.845 -52.8438 85.067 457.988 68.0399 90.3084 439.396 53.5344 83.6039 482.001 40.0924 37.45 120.312 18.2865 
141.582 174.888 173.99 168.109 150.232 146.646 173.642 173.136 73.8311 98.0543 74.4628 424.296 46.5131 39.1397 433.489 -47.7261 85.46 412.295 -49.8712 85.234 456.607 67.4358 90.3257 436.787 52.1507 82.7774 480.987 40.0731 39.0849 116.752 20.315 
142.322 174.951 171.829 168.903 150.564 146.255 174.912 174.719 71.8921 99.7998 75.189 422.356 46.6968 39.6454 433.299 -49.7908 85.4185 409.716 -48.6173 84.8897 455.443 66.5378 88.9246 433.941 52.3492 81.6768 479.377 39.8635 39.7018 116.505 21.1738 
144.139 176.611 172.597 165.1 155.88 144.316 176.829 176.928 66.0907 99.0739 75.2669 420.718 47.8315 38.6298 434.478 -51.0195 83.1245 407.681 -49.0337 81.8116 451.224 61.0547 87.2392 431.778 53.3697 80.4121 477.727 39.7072 32.634 111.109 21.6271 
147.13 179.904 173.859 160.22 153.914 143.643 178.928 177.631 64.3246 92.2317 74.5273 418.237 48.3758 37.6273 433.919 -51.1664 79.5312 403.905 -46.5329 80.0879 448.269 58.6795 86.9947 432.428 52.9113 78.9522 475.814 39.1327 28.8514 106.757 22.4924 
149.449 174.882 170.581 157.012 149.625 142.376 178.192 173.496 62.784 88.0417 72.1075 417.455 47.112 36.2043 434.938 -51.2561 70.9626 403.478 -45.9886 78.2928 446.172 56.978 85.6475 431.889 52.7805 77.327 474.32 38.4777 26.571 104.292 20.6836 
146.506 174.27 180 155.784 150.542 140.797 179.138 179.99 61.5089 83.1776 67.1795 420.587 44.3424 34.9588 436.984 -50.6512 65.8846 410.003 -50.6229 74.9392 446.069 55.9689 82.905 432.16 52.7204 76.1931 474.24 38.2253 25.1383 107.811 15.1076 
145.975 174.27 172.502 153.777 153.254 139.478 179.487 172.086 60.8124 79.0654 64.4412 421.895 41.6233 33.9089 439.237 -51.2871 62.9075 411.103 -50.4903 72.1178 446.608 54.175 81.3577 432.986 51.7233 74.8363 473.966 37.3491 23.3119 107.4 15.2889 
146.563 174.016 172.537 144.84 145.747 138.526 173.465 173.299 62.5968 70.788 62.751 422.841 41.4036 30.7052 435.919 -47.6609 59.8627 412.489 -50.3891 69.8824 448.092 54.2648 82.7028 436.181 48.8258 73.8638 474.441 36.85 23.8417 108.365 11.9937 
145.48 171.209 173.125 144.175 144.564 136.654 169.951 170.702 66.1982 70.6717 61.9854 424.468 40.2469 27.7373 435.694 -46.0155 57.4463 413.801 -51.2271 66.1287 448.206 54.998 80.961 435.028 46.8208 72.7472 474.256 36.0258 26.0887 109.38 11.1313 
143.91 167.813 168.242 144.896 142.4 134.685 166.111 168.7 66.5246 70.6071 61.6581 426.359 39.5093 24.1144 436.493 -44.3516 54.7067 415.843 -52.7128 63.5199 449.032 55.0248 79.7551 433.493 46.2906 71.426 473.886 35.7259 27.8555 111.728 11.081 
142.672 159.409 168.47 154.718 138.181 132.59 166.888 171.162 68.1741 72.0818 60.2247 426.834 41.6291 22.5423 438.809 -44.5508 55.4611 418.159 -55.0977 62.0791 449.072 57.1619 77.5734 433.776 48.2094 70.2808 473.943 35.7462 27.0296 115.713 12.7191 
143.063 174.27 167.879 158.097 146.55 132.321 178.45 166.619 69.724 70.6308 60.5166 428.561 41.6356 28.2352 440.356 -51.6829 61.8777 412.371 -52.8627 58.4404 451.264 59.1497 76.8893 433.462 51.8793 69.4955 474.077 36.0296 26.4443 118.444 15.7345 
142.433 174.27 167.471 158.871 143.606 132.436 178.271 166.77 71.4768 70.9174 60.1683 429.157 41.8302 27.9505 440.923 -53.573 66.531 407.865 -50.8328 56.8261 451.053 60.7158 75.7284 433.569 53.2012 68.5943 474.215 36.1048 25.958 118.789 20.8398 
144.298 174.27 169.489 157.924 144.09 133.246 178.13 167.582 73.4057 72.4846 59.7513 426.528 44.1081 26.3197 440.262 -54.2565 67.4881 405.774 -50.8793 56.4068 447.933 61.9105 74.3486 434.276 54.1624 67.658 473.728 36.4651 22.9886 116.228 22.8127 
145.026 174.383 171.187 155.505 132.204 135.192 178.085 167.979 75.5546 72.6097 56.309 424.039 44.6071 25.7305 440.998 -56.0298 67.1984 404.073 -52.9985 53.5537 444.084 61.2177 72.0568 434.352 54.4695 66.3844 472.844 36.4407 18.7 112.521 23.6539 
144.313 175.358 169.48 154.075 126.351 136.183 178.504 165.36 77.0371 71.5726 53.9598 423.736 44.0446 24.4997 442.94 -56.6682 65.0876 401.352 -53.0859 51.6223 441.239 60.6007 71.445 435.051 55.5954 65.1281 472.75 36.6645 13.8621 107.367 25.3214 
142.632 173.36 168.799 150.673 124.825 136.265 175.666 165.001 75.8195 72.1395 51.9648 424.133 44.1093 22.0916 442.501 -56.3606 64.3398 401.97 -54.4309 48.6237 440.361 57.3607 69.4194 436.176 56.4687 63.3736 473.118 36.5975 8.43916 104.345 25.0116 
143.016 171.588 168.348 148.643 121.996 137.139 172.931 165.815 76.369 74.0834 46.6406 423.14 42.3113 21.2782 443.597 -57.5914 61.981 403.205 -57.6712 44.5358 437.907 54.7421 64.771 434.714 55.6463 61.6522 471.93 36.0876 6.95215 102.722 23.7798 
142.49 171.846 168.751 152.314 129.808 139.275 170.612 166.743 81.7305 80.5902 40.9881 423.285 41.9518 20.3394 445.094 -58.6441 59.8023 408.559 -60.9284 38.806 435.807 54.2068 58.7905 433.244 57.6174 60.9019 471.89 36.3908 4.98798 101.396 21.0758 
144.018 172.46 168.446 150.891 137.681 142.905 170.029 167.282 85.9149 86.0734 35.0179 424.338 40.2208 19.8677 446.213 -59.3753 58.0233 412.272 -62.2306 33.6779 436.809 55.7069 52.6722 432.362 59.5068 60.3285 471.455 37.1421 5.40841 103.376 19.3699 
145.123 172.604 168.445 150.84 146.016 146.165 169.993 167.985 88.359 89.7704 29.8732 426.881 39.0235 19.6846 446.613 -59.6293 55.3381 413.545 -61.8849 30.6596 439.812 58.9078 47.7765 434.141 62.3021 59.762 472.098 38.0632 6.8407 105.31 17.6707 
144.828 173.816 168.94 146.652 148.717 145.977 170.456 169.814 90.0538 91.895 24.8471 429.561 38.4076 19.4176 444.812 -60.175 51.3467 412.854 -60.9624 28.3593 443.077 61.3349 43.7171 436.399 64.5825 58.9903 472.162 38.2959 7.72716 106.493 15.2744 
146.056 174.416 170.396 144.193 149.574 144.802 171.225 171.195 91.1728 93.2233 21.4985 430.322 38.2738 18.9272 446.126 -62.4297 49.9528 415.216 -63.6583 26.8054 443.274 62.6695 40.7362 436.781 65.5109 58.0289 471.708 38.3428 8.68526 108.841 14.2336 
148.241 174.38 170.237 142.72 150.593 144.933 171.713 171.52 90.5045 93.4176 18.8738 430.139 36.949 17.7527 446.484 -63.1476 48.3019 417.657 -65.0845 26.9652 442.753 62.9355 39.8433 436.4 65.5997 57.197 470.983 38.074 9.39546 110.195 13.295 
150.057 174.458 168.063 142.649 150.861 143.661 172.698 171.333 89.1909 93.0599 17.9018 428.297 37.811 15.3328 445.974 -62.3472 48.0217 419.853 -65.468 27.8966 441.653 63.1667 40.3398 435.119 65.0636 56.034 470.418 37.9216 10.3187 112.077 13.7243 
151.202 174.415 167.425 145.737 152.172 142.109 172.68 173.056 88.7382 92.9969 19.1671 424.198 39.598 12.3977 445.793 -61.7574 47.9817 421.907 -66.7888 28.2784 439.246 63.1427 40.5816 433.043 64.3631 54.6581 469.372 37.5642 10.8619 113.767 14.9456 
148.348 174.38 168.017 147.938 153.025 143.254 171.844 173.307 88.8899 93.2992 19.9365 419.944 40.1506 10.6573 442.704 -60.8992 46.4715 422.7 -68.1061 29.0428 435.307 61.9918 41.9468 431.251 63.0379 52.4017 468.479 36.7225 10.7948 113.382 14.0155 
143.648 174.659 169.778 151.154 151.189 142.19 171.373 173.647 88.5761 93.0585 22.0458 415.774 41.3202 9.51526 438.796 -59.0401 45.4745 421.569 -68.2182 31.2194 431.718 61.9302 44.6318 428.722 61.8542 50.3284 466.667 36.5024 11.0102 114.095 13.2831 
139.984 175.075 170.397 153.039 150.259 139.524 171.919 173.714 87.3363 92.3967 25.4065 411.739 42.2678 10.1564 436.915 -58.6636 44.7291 421.632 -68.3607 34.3674 427.886 60.8602 47.4124 426.282 59.828 48.3676 465.016 36.2094 11.7866 114.269 11.5458 
138.132 173.954 170.196 150.377 147.283 135.259 172.069 175.079 86.1603 90.1417 27.9833 410.704 42.458 8.28594 436.905 -58.8223 43.8554 423 -69.3149 34.4632 426.265 58.4808 47.9499 425.539 56.8956 46.4286 464.379 35.1509 12.0011 114.562 11.9819 
138.971 173.49 170.95 148.829 145.253 134.858 172.021 176.269 85.9598 88.6364 27.8602 409.735 43.1927 5.73897 433.81 -57.5815 42.1493 419.975 -69.0951 34.4958 425.911 58.6731 48.2799 425.916 56.3343 44.7099 464.167 34.8459 12.3144 114.036 12.4287 
139.743 171.992 172.455 146.741 142.801 133.535 171.054 177.068 85.8268 87.6738 27.7146 409.433 43.1448 3.14198 433.16 -57.7807 43.0238 418.23 -70.0751 33.8811 424.715 57.2481 47.5489 425.517 54.5531 43.0128 464.034 34.1128 12.7075 113.268 14.6985 
140.158 170.954 172.007 148.605 143.872 134.044 172.185 176.817 85.0717 85.8651 29.5084 409.809 43.1576 0.217639 433.917 -57.4648 41.9312 418.197 -68.9987 35.7953 424.091 56.2127 49.3851 426.422 52.6843 41.0946 465.267 34.1134 13.0217 111.293 15.8751 
141.802 172.181 180 147.119 142.171 133.729 173.305 179.998 84.6 84.5462 28.1749 410.815 43.8763 -2.94371 435.652 -58.0457 40.2054 419.178 -70.4157 34.0617 423.94 56.0521 48.0756 426.212 52.6725 39.8677 465.684 34.1506 12.7136 111.839 17.0192 
142.206 173.891 179.999 145.415 141.074 133.696 173.467 179.999 84.2733 85.1694 26.2308 411.342 43.9497 -5.09853 434.852 -57.8666 38.2312 418.66 -70.1426 32.7397 423.705 55.8981 46.3822 425.762 53.0441 38.6692 465.894 34.3015 12.6549 111.074 17.0515 
143.994 174.46 180 142.51 139.841 134.107 173.27 180 85.4083 86.5447 24.6156 412.839 43.836 -8.08889 435.118 -58.1587 36.285 417.686 -69.3889 29.7744 422.995 55.661 43.4556 425.257 53.6753 37.4298 466.63 34.299 12.2891 108.924 17.9931 
144.617 175.218 180 142.129 141.16 135.378 173.294 180 86.1745 87.8917 21.9363 414.072 43.2118 -9.82663 435.189 -58.8569 35.2328 416.189 -69.102 27.0064 423.512 56.0365 40.6541 425.547 54.6809 36.1481 467.522 34.1805 11.9384 107.987 18.5245 
144.196 175.706 180 143.496 141.698 136.098 173.413 180 85.8505 88.6547 19.9089 415.382 41.9016 -11.4981 434.528 -58.8206 33.1618 415.965 -68.3514 25.8532 424.246 56.2301 38.8748 425.89 54.6127 34.9736 468.236 33.9832 12.5792 107.501 18.1929 
144.333 175.734 180 147.104 142.671 137.165 172.973 180 85.9114 89.0257 17.5128 415.011 41.1288 -14.3608 431.929 -57.5186 30.6167 414.86 -68.2344 24.4912 424.104 57.1246 36.8721 425.282 54.6368 33.2457 468.032 33.772 13.4692 107.723 18.2566 
146.393 176.182 180 146.392 144.258 139.07 173.396 180 87.7299 89.7534 15.8247 412.855 41.5192 -15.1332 426.822 -57.3969 28.7414 411.068 -68.0641 23.0928 423.606 59.0485 35.9546 424.837 56.3908 31.6947 467.016 33.6633 12.8544 107.857 17.082 
145.871 175.971 180 145.704 145.034 139.674 173.343 180 89.4301 90.5225 14.4628 411.084 41.7281 -14.5589 425.191 -58.7571 28.7109 408.659 -68.3497 21.3004 423.334 60.2218 34.7979 424.565 57.4881 30.608 465.899 33.6944 12.2834 108.22 16.4504 
146.276 176.551 175.716 145.756 144.713 139.836 173.092 176.367 90.6203 91.6831 13.9643 406.981 42.7366 -16.7424 417.624 -56.5716 27.6129 401.348 -66.2942 21.1227 420.628 61.0698 34.6096 422.718 57.4785 26.6268 463.485 33.3515 12.3272 106.415 16.7535 
147.026 176.173 176.177 145.776 143.54 140.127 172.637 176.215 89.3182 91.2808 13.2954 406.769 43.9541 -18.1085 415.037 -55.3074 27.054 400.434 -65.7839 21.4263 421.084 61.0534 34.0917 423.312 57.3027 24.6135 463.665 33.2573 13.1791 106.349 16.9994 
147.047 175.122 176.367 147.143 142.981 139.903 173.131 175.689 88.5137 90.5013 12.7807 406.232 44.9983 -20.6453 412.458 -52.8433 25.9965 398.974 -64.4896 21.9634 422.05 61.5785 34.2706 424.115 56.868 22.5722 463.453 33.1186 13.9066 106.957 17.9812 
147.049 173.45 176.33 145.724 143.392 140.024 177.041 175.508 90.0343 90.8285 11.8924 404.904 46.271 -20.3568 410.526 -52.1394 23.5505 397.229 -63.7043 20.3425 421.923 62.0675 33.4981 424.006 56.5359 20.3996 462.82 32.8143 13.4882 106.853 16.1198 
147.116 174.446 176.194 148.123 143.757 139.193 178.033 174.535 89.8735 91.5004 12.7113 402.604 45.7561 -20.5254 409.064 -53.6435 22.8132 397.566 -65.6593 20.6145 421.125 61.0544 33.6354 423.279 54.9095 18.4003 461.505 32.3496 13.763 107.626 15.3793 
147.581 174.473 175.89 148.25 145.303 139.698 178.04 174.273 90.4443 92.1756 10.4079 401.842 45.3354 -21.7758 408.824 -54.6299 20.7407 398.072 -66.812 18.3762 420.796 61.1351 31.0694 423.119 55.5775 16.8393 461.289 32.2364 13.5744 107.933 14.7025 
147.317 174.436 175.869 146.899 145.027 139.756 178.026 174.588 90.587 92.4416 8.96575 400.694 45.3309 -22.807 407.231 -54.2125 19.9599 397.726 -67.0555 17.3569 420.067 60.9298 29.8138 422.911 55.6721 15.1991 460.478 32.2055 13.3888 108.246 14.7669 
147.001 174.43 175.332 146.498 145.267 139.473 178.022 174.72 91.1478 92.3044 4.99923 400.39 44.7415 -24.0551 408.76 -55.7878 17.3432 398.681 -67.964 14.4542 419.98 61.6248 27.2523 422.383 56.5694 14.0485 460.026 32.2809 13.0827 109.521 13.9363 
146.308 174.466 175.06 146.483 145.568 138.902 178.034 174.812 91.6235 92.993 2.17419 400.204 44.4129 -26.0781 408.543 -56.5476 15.1943 398.711 -68.3857 11.2589 419.304 61.8082 24.2777 421.469 57.2156 12.1816 459.368 32.2149 12.7057 109.924 13.8685 
146.323 174.456 175.122 146.254 146.259 139.445 178.03 175.066 91.0022 92.3553 0.102165 399.713 43.6008 -26.4635 406.748 -56.1377 13.0918 398.278 -68.0852 8.64557 418.951 61.5039 21.9532 420.658 56.9112 10.0332 458.579 32.0839 12.7456 110.105 12.745 
147.271 174.501 175.438 147.106 147.525 139.818 178.042 174.589 89.704 91.3786 -0.0442963 399.406 43.6393 -26.7413 402.076 -54.3018 12.5075 396.849 -66.8685 5.07518 420.09 60.4843 20.5737 421.587 55.9145 7.52479 458.236 32.201 11.5259 110.048 12.4182 
145.857 174.47 174.985 147.955 147.877 139.81 178.03 173.092 89.0607 90.4743 -0.644372 399.236 44.354 -27.2338 401.77 -53.5136 9.40555 398.17 -67.0965 1.80808 421.104 59.8113 19.4488 421.479 53.8714 5.62794 458.052 32.6227 11.9053 111.002 10.861 
145.177 175.096 175.831 150.634 150.638 140.538 178.239 173.568 85.6023 87.9207 0.616196 397.711 44.1151 -23.9579 392.265 -52.7225 6.10931 396.653 -66.7331 0.718008 422.071 58.3415 18.8001 422.627 52.0904 2.78049 456.923 32.7895 11.9575 111.167 8.55541 
146.174 174.704 174.366 150.361 159.582 143.37 178.106 172.23 86.45 88.5352 1.1578 396.057 44.989 -22.5427 390.152 -45.4602 1.57342 394.542 -64.172 -0.926972 421.689 58.8836 18.3723 423.116 52.8702 0.246477 456.399 33.7088 10.3999 109.618 7.8441 
