137.333 170.236 180 132.19 137.365 133.685 170.914 179.98 72.8865 77.1382 -167.951 375.863 33.2342 -206.414 383.063 -58.9618 -170.303 372.238 -81.1593 -143.014 396.198 37.4884 -129.66 393.516 33.2296 -148.016 426.868 13.5791 11.7902 120.728 14.777 
137.887 170.683 180 135.711 142.449 133.571 170.497 179.981 74.5467 76.7224 -164.904 375.993 32.8822 -203.656 382.589 -58.613 -167.992 371.092 -79.2157 -140.53 395.711 40.0826 -126.618 393.576 35.47 -145.35 426.354 14.5275 10.8124 120.92 14.2267 
138.323 170.641 180 136.15 142.168 133.215 170.408 179.983 74.5673 77.2455 -161.369 374.957 32.8929 -200.528 381.139 -58.6282 -165.92 369.756 -78.3561 -138.224 394.75 40.8052 -124.275 392.579 36.7171 -142.489 425.177 15.0018 10.5526 120.574 13.4131 
138.87 169.243 180 137.263 141.725 132.707 169.145 179.984 75.5688 78.5019 -158.657 373.819 33.5916 -196.652 378.549 -57.6907 -162.588 367.616 -77.5755 -136.488 393.159 42.7688 -122.649 390.082 39.0338 -139.383 423.431 15.6793 10.7485 120.646 13.4038 
143.226 170.438 180 134.649 141.812 134.501 169.249 179.99 78.683 81.45 -155.706 371.619 33.569 -193.155 377.205 -57.8912 -159.986 366.05 -77.5336 -134.348 390.59 44.8689 -120.115 388.488 41.9754 -136.139 422.138 16.4264 9.21913 119.593 12.7616 
145.902 172.72 175.242 133.355 140.146 135.015 169.25 178.242 80.2667 83.8098 -151.662 370.01 33.839 -189.546 376.78 -58.2738 -157.794 364.436 -76.2344 -132.836 388.689 46.6377 -118.589 386.769 44.7817 -133.12 420.824 17.4488 8.53464 118.306 11.5226 
147.845 176.461 179.997 136.133 143.148 134.199 169.705 179.999 79.9557 84.0182 -150.393 369.589 35.3177 -186.176 377.132 -59.2389 -154.355 364.709 -76.7742 -131.694 388.653 47.9356 -118.438 386.712 46.8695 -130.325 419.947 17.6482 9.40565 120.234 11.9086 
149.604 178.518 180 136.986 143.876 134.609 168.144 179.996 79.2071 84.5486 -150.723 368.504 37.0675 -183.681 377.605 -59.183 -151.235 364.297 -75.721 -129.893 387.216 48.8304 -118.025 384.729 48.2035 -127.023 418.136 18.2747 10.9308 120.829 12.6724 
151.341 179.836 180 134.906 142.133 133.515 169.708 180 79.5475 85.3296 -148.658 369.467 37.8254 -178.722 377.91 -61.0131 -148.041 364.071 -75.6891 -129.322 387.622 50.409 -118.209 384.876 50.7767 -124.064 418.222 19.2888 11.3567 120.237 11.4254 
150.493 179.341 180 134.108 141.111 132.013 171.505 180 79.9722 84.5038 -146.453 370.471 36.2783 -172.853 376.785 -62.985 -144.539 362.88 -76.2049 -128.402 387.601 51.6626 -116.999 384.641 52.4181 -121.194 417.47 20.0938 11.0104 119.621 9.77496 
151.523 179.152 179.999 134.103 139.887 134.964 171.996 180 80.1734 85.1598 -144.15 370.829 34.4248 -168.711 376.09 -64.0808 -138.794 361.247 -76.4202 -126.457 388.185 51.6866 -114.765 384.684 52.7401 -118.567 418.501 20.3952 10.5789 118.298 10.26 
154.111 177.21 180 136.314 140.565 136.917 171.29 180 80.2078 86.1178 -142.449 370.78 32.3939 -165.169 376.504 -64.4922 -133.035 359.666 -74.9923 -124.755 388.779 51.601 -113.077 384.596 52.9494 -116.028 418.98 20.5 10.5649 117.089 11.4073 
155.534 179.637 180 136.515 141.417 140.307 170.835 180 80.1615 87.8187 -139.108 370.058 30.3814 -162.984 375.706 -65.3093 -127.32 360.115 -76.9907 -122.009 389.523 50.7256 -110.531 384.742 52.3842 -114.032 419.705 19.845 10.8086 118.165 13.4373 
154.593 179.026 180 133.096 139.569 140.801 170.781 180 80.7516 88.5665 -136.735 369.943 28.5954 -159.959 376.328 -65.9179 -123.542 359.96 -77.8514 -120.051 388.366 49.9451 -108.603 383.643 52.1574 -110.977 419.061 19.7641 10.3287 117.342 14.0608 
154.665 175.169 180 133.104 138.944 142.413 170.327 180 82.3241 89.1604 -132.38 369.461 27.6512 -158.916 376.99 -65.781 -120.875 363.225 -79.4793 -116.982 388.634 49.7901 -104.964 384.462 51.1532 -109.114 420.313 19.4778 10.3021 117.725 15.0042 
155.043 172.041 173.073 132.558 140.81 144.373 170.303 177.047 82.9601 90.7799 -130.364 369.929 27.9857 -157.896 379.085 -65.3339 -119.352 364.663 -78.7591 -114.498 389.549 50.0009 -102.497 384.731 51.2623 -106.858 421.453 19.6751 10.308 117.51 15.2782 
156.751 171.644 172.798 129.19 140.393 146.558 172.269 175.209 85.0915 92.8126 -129.883 370.805 27.9613 -155.183 380.521 -66.9767 -116.726 364.786 -79.69 -113.083 389.88 50.111 -100.844 384.771 51.4185 -104.185 422.559 19.2387 9.9525 116.738 15.0422 
156.269 171.871 174.752 126.585 139.093 145.917 173.523 176.101 85.7698 93.1029 -129.999 373.265 27.8552 -151.708 382.243 -67.7776 -113.292 365.423 -80.1451 -112.873 391.089 50.7379 -100.722 385.871 52.653 -101.733 423.58 19.8883 9.45719 116.964 15.0521 
156.821 172.553 174.123 125.851 138.853 147.007 174.192 174.463 86.5459 93.0584 -127.798 374.878 28.4975 -148.502 382.6 -68.9829 -109.981 365.47 -80.0413 -110.303 392.679 51.6308 -97.9481 387.502 53.1242 -99.4105 425.29 19.8875 9.70274 117.136 14.7298 
156.974 173.348 174.765 125.394 139.508 146.518 174.959 175.056 86.4096 93.4435 -126.694 376.398 27.9273 -144.862 381.293 -68.6851 -107.711 361.138 -79.0691 -108.574 394.031 51.8445 -96.0864 388.57 53.611 -96.7934 425.728 19.9092 9.62672 115.638 13.9412 
157.259 174.272 175.011 124.464 138.841 147.236 175.881 173.333 86.9562 93.5963 -125.438 377.729 27.8687 -140.324 380.769 -70.2161 -104.279 358.388 -77.431 -107.081 395.481 51.5317 -94.5557 390.199 53.1966 -94.7168 426.985 19.2094 9.87039 114.032 13.2564 
157.131 174.732 174.383 123.975 139.006 147.839 176.085 172.159 87.3255 94.0445 -122.242 377.99 27.8148 -136.618 379.604 -70.8037 -100.426 356.812 -75.9348 -104.225 395.299 51.0372 -91.4403 390.069 52.4451 -92.4801 427.67 18.7383 10.1303 112.332 13.2616 
157.537 175.023 174.186 124.213 139.265 148.823 175.977 171.118 87.188 92.9813 -118.395 376.86 26.8361 -133.721 378.896 -71.941 -97.5261 355.356 -75.285 -101.15 394.725 49.6192 -88.0433 390.616 50.861 -90.121 427.688 17.7539 9.92985 110.359 13.4808 
157.2 175.355 174.443 125.854 142.019 150.249 175.495 170.479 86.8136 93.6931 -112.254 374.667 26.0977 -131.514 377.563 -70.9804 -90.5072 355.659 -75.3573 -94.9738 394.378 47.9913 -81.5072 391.273 48.6897 -88.1291 428.644 16.7883 10.0995 109.362 15.794 
158.284 175.064 174.76 130.058 145.113 150.416 174.576 171.06 87.3237 95.0332 -105.252 373.209 27.643 -129.558 377.229 -69.8585 -85.0637 357.076 -77.1039 -89.2023 395.151 47.9917 -75.5295 392.422 47.4387 -85.9278 430.085 16.557 10.824 109.631 17.2656 
159.766 174.754 173.686 134.639 148.108 151.398 173.293 169.908 88.3877 95.8094 -100.228 374.531 26.9046 -128.038 377.584 -68.7625 -80.4067 359.058 -76.7455 -85.6549 395.909 47.8282 -71.458 394.009 46.506 -83.8326 432.283 16.3067 10.8372 108.287 18.9358 
160.159 174.655 172.842 139.838 151.275 152.695 171.976 169.781 88.6395 96.4147 -96.3462 374.877 26.4748 -127.12 378.949 -67.5837 -76.7294 363.547 -79.4132 -82.0021 395.28 45.9678 -67.3103 394.663 44.2254 -81.6096 433.997 16.0749 10.4433 107.204 20.3827 
160.523 174.746 172.726 143.241 153.173 153.017 171.123 169.93 90.2422 96.3141 -92.5847 374.566 25.9016 -126.123 380.808 -68.8314 -72.4365 366.474 -81.2066 -79.1778 394.29 45.0212 -64.1049 395.389 43.0322 -79.0798 434.783 15.7947 9.68039 106.363 22.376 
159.323 174.367 173.95 144.559 154.901 153.527 169.981 170.556 90.6585 98.0809 -90.8115 375.624 26.37 -124.39 380.877 -67.9961 -70.5874 365.892 -80.4977 -79.6486 393.273 44.4061 -61.7075 392.991 42.8464 -76.6674 434.491 16.3675 8.54843 105.302 22.597 
155.721 174.274 173 145.856 154.92 151.858 169.97 170.583 89.6764 97.0956 -90.1953 376.718 26.2567 -121.731 383.403 -69.4551 -69.7199 365.048 -79.7976 -80.2474 393.448 44.3605 -61.7761 391.272 43.2913 -73.7667 433.733 16.3114 8.90346 105.699 22.0605 
154.533 174.166 172.644 146.452 154.955 150.673 170.032 170.763 90.1542 96.7392 -88.1179 376.977 25.286 -118.948 386.536 -71.7766 -68.3886 366.868 -81.0552 -78.3716 392.754 43.6687 -61.4381 391.408 42.806 -71.2419 433.91 15.9169 8.70527 105.252 21.3892 
153.167 173.808 172.407 147.458 155.601 149.582 169.519 170.719 90.801 97.0884 -85.0885 376.704 25.2273 -115.76 388.537 -73.1915 -66.0009 368.551 -82.0788 -75.8864 391.082 42.7402 -59.6814 390.519 42.0941 -68.5044 433.77 15.8306 8.72833 104.177 21.0198 
152.004 173.652 172.68 146.54 155.751 148.057 169.573 171.438 91.333 97.0427 -78.7637 377.692 26.3051 -112.501 389.803 -72.472 -64.5868 371.816 -82.8934 -71.0217 391.859 42.7132 -55.8848 392.821 41.687 -65.9587 435.655 16.2052 9.19276 103.63 19.4949 
150.555 173.452 172.832 146.079 155.566 146.594 169.412 172.045 92.0893 97.678 -73.1775 378.768 28.0509 -109.012 390.188 -71.8063 -61.5423 373.673 -83.1357 -65.9613 391.681 42.5246 -51.5782 394.112 41.5541 -63.0887 437.086 16.5181 9.39036 102.595 18.9487 
148.996 173.364 172.985 145.462 155.422 145.662 169.75 172.234 91.9876 98.175 -66.8234 379.283 28.0627 -105.188 389.627 -70.8783 -57.5297 375.11 -83.3487 -58.5983 391.276 40.885 -45.1949 395.515 39.7466 -60.4417 438.164 16.5307 9.76436 100.871 18.7944 
148.822 173.64 173.122 146.006 154.237 144.901 169.811 172.36 93.1129 98.344 -60.0046 379.233 27.6771 -102.016 388.97 -70.3437 -54.5802 375.678 -83.499 -53.1544 389.573 39.2727 -40.2926 395.783 37.8863 -58.0505 438.249 16.4846 9.90939 98.6724 18.6104 
149.419 173.817 173.769 146.064 155.61 144.564 169.438 173.224 97.1909 101.943 -54.5246 380.256 27.5207 -98.6133 387.644 -69.8511 -51.5152 374.56 -83.1162 -49.0736 384.875 36.5123 -36.5753 393.592 36.6257 -55.3943 438.289 16.2902 9.2711 93.5689 18.3349 
149.267 172.857 173.439 143.984 156.168 143.202 169.045 173.381 98.2841 103.469 -52.0917 382.214 27.0722 -96.6161 390.101 -69.7831 -49.6293 375.221 -82.5599 -46.8596 383.339 34.0977 -34.8029 392.674 35.3756 -52.825 439.184 16.1935 9.59161 90.4871 18.6823 
148.245 172.738 173.326 145.078 156.089 141.905 168.483 173.485 97.7195 102.836 -48.7181 383.55 27.4193 -94.0103 391.455 -69.8937 -48.393 375.414 -82.0903 -44.3183 385.015 34.6774 -32.381 394.274 35.4685 -50.0909 439.939 15.8046 9.8937 91.2478 18.2334 
148.978 172.771 174.428 146.524 156.802 142.415 167.54 174.715 96.7216 103.704 -46.647 383.303 27.0903 -90.3951 390.648 -70.055 -45.8061 374.563 -82.4602 -43.9661 386.69 36.2952 -31.0213 393.419 35.9251 -47.5329 439.838 15.5655 9.2413 93.6056 17.3072 
149.234 172.961 174.672 145.704 156.418 141.962 166.321 175.289 94.677 103.166 -42.3 382.738 28.2272 -86.2117 386.709 -67.2346 -43.5766 373.03 -82.1364 -40.2685 388.622 37.1974 -27.4854 394.125 35.9339 -44.4398 439.56 15.4907 9.83833 94.9889 15.6112 
148.838 173.691 174.635 145.182 156.491 141.157 165.153 175.458 93.1672 102.091 -39.8861 383.87 28.7988 -85.2932 388.085 -67.3861 -41.0422 373.275 -82.4643 -38.8813 390.069 36.8382 -26.2236 395.405 36.1524 -41.7554 440.288 15.3239 9.96797 95.2972 16.844 
149.92 175.203 174.291 140.565 152.968 139.887 166.791 175.383 91.8307 100.294 -37.71 384.049 30.1675 -82.4332 387.795 -68.1731 -37.4938 372.023 -81.4924 -34.8717 388.719 36.8751 -23.8026 394.048 36.787 -38.7127 439.73 15.4586 11.4157 94.43 17.3278 
150.667 175.683 176.029 139.838 150.928 139.169 167.893 176.501 92.921 97.6907 -31.5422 385.021 28.4582 -77.3795 386.281 -67.6033 -31.1569 373.973 -81.9573 -28.5226 389.66 36.2779 -16.9377 397.475 35.9042 -35.4774 440.536 14.8917 10.633 94.8577 17.779 
151.944 176.185 177.475 140.628 148.221 139.419 169.871 176.474 99.0743 98.8485 -28.3224 384.786 29.6539 -73.845 383.906 -66.4549 -27.0306 373.219 -80.997 -23.8002 383.984 35.8863 -12.2208 395.904 36.1712 -32.5171 440.256 15.3126 10.1331 90.834 17.9699 
152.333 177.93 177.069 135.815 145.624 138.617 172.66 176.492 99.0711 97.5584 -22.9237 384.7 28.8115 -68.3683 380.019 -65.2624 -22.8527 372.733 -81.2508 -18.5712 383.417 33.0974 -6.53246 397.102 34.4316 -29.7067 439.868 14.5727 9.32982 88.8806 16.937 
152.07 178.468 177.103 128.917 143.09 137.867 175.063 177.084 98.3556 96.7104 -19.3921 384.391 28.0904 -64.4054 376.847 -63.8812 -19.0624 373.328 -81.8959 -15.0337 383.335 30.5608 -3.03237 397.624 33.3 -26.8772 439.547 14.3345 9.48577 87.5889 17.0553 
152.565 177.205 176.451 126.232 141.714 138.107 176.186 176.893 98.5711 96.267 -15.8878 383.354 28.8227 -60.4582 374.895 -62.2023 -16.1257 372.605 -81.0705 -10.7271 382.111 29.6684 2.38359 397.234 33.1284 -23.52 438.827 14.9701 8.43156 86.2244 16.574 
151.977 177.834 176.074 122.811 140.713 137.015 178.572 176.788 99.5268 96.3009 -11.527 383.596 29.028 -56.3104 373.365 -60.4024 -12.0832 373.23 -80.7863 -6.8085 382.148 29.4936 5.9232 397.529 32.8326 -20.4695 438.781 14.968 8.57156 86.0685 17.0829 
151.916 174.27 176.067 120.203 138.956 136.748 177.975 177.11 99.7291 96.0031 -8.22418 384.032 29.1691 -52.7525 372.367 -59.07 -7.91729 373.506 -80.2488 -4.06526 382.481 28.9329 8.28965 397.905 32.1625 -18.0372 439.13 14.6168 8.78288 85.4855 17.9253 
151.381 174.27 175.889 121.044 138.056 136.329 177.976 177.579 97.0021 94.1925 -6.44423 384.028 29.3443 -50.2447 371.405 -58.2596 -4.16486 373.135 -80.5031 -2.37192 384.548 30.6183 9.97943 398.607 32.8916 -15.0807 439.059 14.1257 8.83936 88.2742 19.2748 
150.606 174.272 175.994 123.237 138.206 136.25 177.978 178.154 93.9772 93.0953 -6.09521 383.144 28.8335 -48.8824 372.667 -60.3239 0.293114 373.657 -81.5588 -1.08028 386.223 31.2945 11.1736 398.661 32.9216 -11.8553 438.478 13.3245 9.2975 91.6224 21.0646 
150.045 174.466 175.661 128.332 139.308 136.66 178.047 177.968 91.6924 91.9764 -5.42579 382.179 27.3646 -46.1096 374.367 -62.4467 3.35362 373.271 -82.1034 -0.831181 387.741 32.7763 11.9029 398.283 33.3594 -8.36878 437.789 12.5322 9.55564 95.0543 20.9637 
149.894 175.03 175.162 130.601 139.281 138.141 176.079 177.973 90.1692 91.4043 -3.88913 381.086 25.1331 -45.7907 376.215 -64.4518 7.10431 374.626 -83.0211 1.30013 388.547 33.2108 13.4227 397.921 33.4613 -5.56724 437.197 12.2647 10.4972 97.3516 23.1772 
149.511 172.94 174.481 135.463 139.794 137.892 174.02 177.859 87.0972 90.2632 -3.61036 379.614 24.4189 -43.7649 380.477 -68.3686 9.8348 374.993 -83.817 2.13215 390.222 34.9184 14.265 396.415 33.9037 -1.87488 435.689 12 11.615 102.389 23.2586 
148.456 172.254 176.588 138.942 141.286 138.367 172.079 178.707 84.3467 89.3333 -2.6566 379.506 23.8328 -40.9585 383.077 -70.3888 13.5491 375.776 -84.3587 3.91039 392.75 36.0582 15.6792 396.434 34.5757 1.6369 435.31 11.819 12.7772 106.416 23.8949 
147.402 171.004 175.595 143.624 143.359 138.862 169.323 178.408 83.9673 88.7937 -0.165338 378.327 23.6211 -36.4654 388.385 -73.4069 19.2912 376.583 -84.7169 5.52115 391.642 36.4609 18.0836 393.93 35.4901 7.57609 433.59 12.2745 12.2572 108.544 25.1199 
145.977 170.685 171.257 147.162 142.841 137.767 168.155 177.005 81.544 89.5263 2.22 379.709 23.4753 -34.1662 391.57 -73.8323 20.6756 378.642 -84.2057 7.38439 392.706 34.8119 20.0094 393.859 34.5882 9.59708 434.132 12.2518 11.8106 108.55 24.7616 
145.185 170.263 169.192 146.766 144.839 136.583 166.468 175.145 79.6836 90.5465 5.41344 380.555 23.5057 -31.5142 395.585 -74.2528 23.3053 381.741 -83.8793 10.8651 393.724 33.1703 22.9142 394.407 34.0754 12.2625 434.942 12.5009 11.5263 108.324 25.0527 
145.174 170.237 167.654 144.459 144.827 136.693 165.21 174.189 77.7019 91.1845 5.75107 381.452 23.4442 -30.6939 399.204 -74.2442 24.5641 382.738 -83.3225 12.0801 393.438 31.1731 23.209 393.601 33.6185 14.6465 435.279 12.7087 11.6669 106.44 26.1383 
144.459 170.38 167.345 142.853 146.92 136.557 164.244 173.603 79.0914 92.5319 7.26123 383.883 23.6751 -28.4551 402.632 -73.4099 26.5458 384.832 -82.6045 13.0393 393.461 30.48 24.5425 394.582 34.3002 17.3085 436.818 13.1968 10.643 104.807 26.431 
144.685 170.327 166.508 142.507 148.005 136.962 164.533 174.391 80.5173 92.6674 7.85075 385.501 23.5116 -27.0764 405.934 -73.3482 28.119 385.684 -82.5552 14.0671 392.588 30.1561 25.718 394.698 34.8203 20.396 437.373 13.4619 10.6055 103.579 27.3217 
143.984 172.077 166.336 146.886 150.115 137.542 164.703 174.999 81.8945 92.276 8.12517 387.37 22.7493 -24.9234 409.067 -73.3754 31.2769 386.289 -82.3079 14.2949 392.421 31.2018 26.5436 394.827 35.8769 23.7007 437.659 14.3549 10.4651 103.684 28.6998 
144.932 172.528 167.01 147.854 150.863 138.971 166.134 175.059 82.0512 92.8139 9.61666 388.6 23.3431 -22.4455 410.245 -73.0996 33.3824 385.993 -81.4125 16.6182 391.926 31.4193 28.7322 394.71 36.5999 26.5831 438.497 15.1705 10.604 101.833 28.6929 
145.613 174.569 166.177 148.244 153.379 138.827 164.231 175.054 83.6242 93.2145 9.19173 389.858 23.0527 -19.6589 411.739 -72.4143 35.3672 386.763 -81.1711 16.2038 389.136 30.2295 28.3102 393.445 37.2497 29.3489 437.877 16.2151 11.5709 99.2654 28.5523 
146.67 174.157 165.723 147.886 155.935 140.314 164.715 174.32 84.7337 94.2553 8.9489 389.797 22.0916 -16.6849 413.062 -72.6579 37.4546 386.052 -80.7077 16.4186 386.06 27.7087 28.0862 391.315 36.6062 31.6027 436.992 16.9428 12.5872 95.0298 28.5769 
148.468 174.614 166.03 151.935 157.431 141.583 165.637 173.42 85.7715 93.9134 11.5865 388.068 22.9663 -13.459 410.135 -71.4192 38.8543 383.426 -78.568 18.1245 382.893 26.4752 30.9031 389.097 36.6569 33.5922 435.847 17.8709 12.1578 90.8261 27.2242 
148.751 174.375 165.103 149.333 157.188 141.601 163.194 173.349 89.2519 94.1043 12.1568 388.906 22.8735 -10.2823 409.704 -69.1882 41.4757 384.392 -76.5568 17.7964 379.516 23.7308 31.3363 387.925 37.29 36.2228 435.182 19.4891 14.3637 86.3203 26.8633 
148.603 172.145 164.978 143.49 158.519 141.993 162.206 172.359 91.3343 94.1476 15.8033 389.205 23.6746 -7.37754 410.677 -67.6737 42.7861 386.327 -74.8069 20.6588 379.422 21.7555 34.4172 389.287 36.9719 38.4612 436.449 20.5962 15.9621 82.5273 25.6018 
148.544 170.883 163.329 144.64 161.091 141.883 161.86 171.053 94.6333 95.501 20.0747 389.093 25.7575 -5.58456 411.092 -66.5748 44.9277 387.279 -73.439 23.5452 378.953 21.9397 37.7266 389.884 36.9136 40.8858 437.857 21.4013 15.6031 80.5519 25.7329 
150.144 171.116 163.835 169.932 161.793 142.562 161.359 172.489 100.326 94.7647 24.6785 388.42 27.0577 -3.96784 411.911 -65.0784 45.7242 388.974 -72.3577 20.9841 378.217 21.0826 41.6054 389.973 34.568 42.7944 438.669 22.3083 11.0883 79.5027 25.0321 
149.861 171.48 166.655 176.645 160.562 141.094 160.871 172.647 104.193 93.1506 31.2417 386.43 29.9545 -3.46622 413.336 -63.7053 45.8492 390.322 -71.8021 23.5989 375.716 20.4962 47.2179 389.458 33.0762 44.5938 438.626 23.437 9.44315 77.6948 25.0025 
150.683 171.166 169.211 174.27 159.881 140.607 161.284 172.764 104.29 93.0661 36.4825 384.805 31.4872 -1.9396 411.52 -62.4627 47.7705 388.87 -71.5953 27.1181 374.624 22.0735 51.005 389.037 32.972 47.2765 438.059 23.6139 8.55572 78.0213 25.1725 
151.076 169.528 170.466 174.27 158.963 140.839 161.695 171.543 99.821 91.5181 39.5048 383.599 31.5365 -0.466238 411.773 -62.867 50.7795 388.832 -71.7181 31.5102 375.147 24.2916 53.1781 388.869 33.4589 49.511 437.216 23.8047 8.9092 80.2572 26.3288 
151.02 168.383 172.889 174.27 157.266 139.682 162.692 170.437 98.0164 92.4065 43.9286 382.398 33.7849 1.96924 411.635 -62.6779 53.3058 387.664 -71.2885 34.6637 375.449 24.7902 56.2329 388.115 34.3815 51.8358 436.678 24.2129 8.33167 80.3583 26.6567 
151.293 172.289 178.702 174.27 155.48 138.705 157.84 173.281 95.8115 92.705 49.4321 381.374 34.5694 2.72451 412.069 -62.1195 58.0057 388.992 -71.9782 38.2988 376.105 24.468 59.6859 387.785 32.4718 53.8461 436.324 24.3136 6.64229 82.2069 29.3214 
150.249 171.394 180 174.27 154.748 137.356 158.546 174.028 95.0423 93.104 52.1951 382.411 34.957 4.10295 414.029 -62.3075 61.2088 390.406 -72.6448 40.2352 377.21 24.4218 60.9851 388.354 32.6095 55.7146 436.889 24.3996 6.99496 83.1565 30.7219 
149.202 171.403 180 174.27 152.868 136.969 159.264 174.443 92.8421 91.432 53.8258 383.193 34.4561 6.7033 414.963 -63.1906 64.0651 390.478 -72.8448 44.2616 380.206 27.7945 62.5824 391.144 34.9681 58.0288 437.497 24.0615 9.3259 86.6534 31.034 
148.555 173.208 180 174.27 151.516 136.522 159.681 175.25 90.5989 90.385 56.9725 382.132 35.0937 7.3627 410.439 -61.2021 65.7574 388.039 -71.9042 47.6993 382.561 31.8469 65.7444 392.355 37.6108 59.6357 437.011 24.2115 8.70434 89.9099 31.0968 
147.969 172.407 180 174.27 151.507 136.819 159.035 174.301 90.0966 90.3108 60.1572 381.926 35.2666 8.30579 409.394 -60.2873 67.8691 388.924 -72.1717 53.096 383.28 33.3255 68.9303 394.233 39.2217 61.4468 437.566 24.351 10.9802 90.9152 31.4809 
147.109 173.065 180 179.436 153.045 136.713 155.88 172.923 88.5046 90.0229 60.8852 382.161 34.4891 9.61513 408.936 -58.5197 69.9244 388.917 -71.8265 55.121 385.89 35.8224 69.8139 395.444 40.6422 63.8254 437.768 24.6102 11.7168 93.3614 32.1827 
145.84 171.79 180 160.826 151.65 135.943 158.844 172.48 81.108 87.4347 64.3348 381.887 33.969 12.8531 408.941 -58.5221 73.8813 390.054 -71.8045 60.9146 393.415 39.7881 74.6023 398.171 42.14 66.1481 437.751 25.33 10.7972 101.164 32.3328 
144.315 167.684 180 149.807 151.156 135.032 160.595 171.263 76.5506 86.2536 67.0702 381.615 33.1486 15.9497 409.525 -57.9923 76.242 391.591 -71.9075 66.108 398.148 41.1094 78.627 400.067 42.7185 68.1147 437.746 25.9847 11.4436 105.527 31.7094 
144.021 165.372 177.946 146.839 151.423 135.197 164.444 170.977 75.1539 84.881 68.2654 380.883 33.1492 19.9636 411.3 -59.5016 78.3852 392.004 -71.808 68.3729 399.484 42.3329 81.0159 400.018 43.5913 70.4436 437.228 26.6694 11.5406 107.721 30.4102 
144.107 162.783 175.321 145.549 151.36 136.29 164.976 170.268 75.1798 84.1597 68.9882 380.005 32.5143 23.4624 410.404 -59.3003 81.3388 391.84 -70.8528 70.979 399.37 42.8145 83.9099 400.109 44.2251 72.7676 436.838 27.0705 11.1741 107.848 29.8898 
144.37 157.605 172.194 146.052 150.982 136.837 169.343 169.122 76.0334 84.2259 70.2305 379.893 32.7512 27.1548 412.509 -59.9762 83.7284 392.866 -70.2955 74.003 399.501 43.8168 87.0386 400.758 44.9753 74.9059 437.349 27.6638 11.1008 107.965 29.2679 
144.174 156.488 169.626 147.816 151.312 136.97 170.035 168.286 77.0969 83.995 72.354 380.316 32.7196 30.8647 414.188 -60.6461 86.2664 394.331 -69.6188 75.7322 398.958 44.0602 89.3746 400.794 45.3692 77.3058 437.76 28.2001 10.5158 107.054 28.5618 
144.283 156.813 168.427 150.297 151.608 136.755 170.415 168.738 78.0233 83.2327 75.0166 381.447 33.0546 35.3575 416.488 -61.0834 90.4979 396.871 -69.3473 76.6551 398.952 44.5812 91.1801 401.212 46.1992 79.9771 438.478 29.3745 9.86386 106.772 28.1517 
144.921 157.291 176.237 152.433 151.921 134.335 169.365 173.175 78.0315 82.9363 79.219 382.041 36.4368 38.9926 417.831 -61.1088 94.0734 398.969 -69.7665 78.0505 398.478 45.3164 92.678 400.656 47.0622 82.2571 438.424 30.0219 9.9224 108.462 27.9739 
145.586 158.169 180 150.648 151.444 134.01 168.329 174.574 75.8714 83.9356 82.2574 384.069 38.2069 41.8921 419.37 -60.8667 98.1946 401.194 -69.2809 80.7811 399.538 43.7398 94.4289 401.336 46.9191 84.9353 439.971 30.7039 10.0985 107.421 28.5391 
