177.142 174.27 180 174.27 146.191 172.142 174.693 158.476 145.729 135.908 104.305 412.67 -27.7422 113.67 426.676 -74.9257 107.772 429.486 -79.5017 92.7834 418.099 -63.7476 69.9744 404.048 -35.7575 100.522 400.552 18.8664 10.2403 4.78215 14.7386 
174.122 174.27 157.863 154.86 161.605 169.124 145.552 146.28 147.088 149.837 40.8573 355.599 -13.7644 52.878 376.506 -82.37 94.1846 374.044 -96.6508 128.927 367.931 -85.0797 159.111 358.13 -55.7253 102.255 393.716 3.60783 17.191 11.6584 18.2516 
172.265 152.926 149.252 150.512 166.978 168.67 133.657 137.962 135.717 142.461 36.6327 350.702 -17.4062 52.7257 371.871 -81.1822 90.5179 362.592 -92.7068 118.631 349.289 -77.1499 145.345 344.61 -51.583 96.7519 391.018 1.71463 12.4772 10.8525 15.5689 
169.596 149.969 147.201 148.442 158.268 167.407 135.724 143.061 140.976 144.041 36.0107 342.46 -15.9186 43.8176 365.608 -80.2953 83.8996 356.094 -95.075 111.62 340.128 -78.7281 135.503 331.8 -50.3122 91.5472 386.814 0.577718 12.8361 11.5581 18.0373 
168.175 153.159 151.77 153.576 159.099 166.721 139.619 146.14 144.231 144.09 32.4655 337.116 -15.2788 36.611 357.766 -80.488 77.6319 346.513 -95.9852 104.667 328.87 -78.2205 127.344 321.507 -48.0476 87.4548 382.008 -0.456272 12.8246 12.5049 18.9448 
167.989 156.541 154.843 157.501 159.238 165.873 145.34 148.78 147.546 145.829 25.6852 330.092 -14.9864 29.8938 349.605 -83.8383 69.9611 334.49 -97.8115 96.7259 314.77 -78.9439 120.072 309.084 -47.9224 82.389 373.979 -1.83159 12.5635 13.4546 17.9741 
168.549 155.783 153.779 156.622 159.825 167.254 146.59 147.853 143.621 139.455 20.213 320.639 -13.8987 25.4335 339.204 -84.571 66.9107 320.929 -96.1009 90.7841 299.327 -72.4322 111.068 296.483 -40.4755 78.119 365.66 -2.61124 12.1608 16.0842 19.1795 
169.363 155.504 152.807 157.941 156.176 169.145 147.874 148.31 140.076 130.639 14.2301 310.612 -14.155 21.3453 328.924 -85.8472 64.7089 310.187 -96.3221 83.5877 284.38 -65.5594 101.818 285.721 -32.8252 73.6694 355.764 -3.34847 12.623 21.9537 20.436 
172.496 157.626 153.188 157.265 157.161 171.48 149.083 149.616 133.344 121.632 9.24603 301.842 -14.2646 18.6701 317.116 -86.9836 64.3805 299.292 -96.5747 75.7572 271.791 -55.627 91.1829 277.316 -23.4872 70.1257 345.885 -4.12985 14.4027 30.1977 21.7659 
174.165 161.434 154.895 154.898 154.954 173.519 152.943 153.363 137.32 103.359 6.39204 293.536 -13.638 15.7511 306.958 -87.1543 64.1189 290.238 -96.3321 72.6101 263.24 -52.4177 79.2042 280.891 -5.22549 66.7254 338.671 -4.67246 35.2607 33.0815 23.3246 
172.294 164.281 159.799 157.847 152.988 172.96 157.159 160.164 159.828 102.436 2.64617 288.057 -9.9672 10.2585 295.982 -84.5177 60.563 279.392 -95.539 72.1843 255.59 -62.3281 69.8456 275.771 6.53486 62.2582 330.759 -3.42371 57.1298 23.4318 24.5072 
172.91 170.39 165.445 171.741 150.365 169.231 162.148 169.161 148.025 101.891 8.22562 275.731 -4.59683 5.74963 286.351 -83.068 60.378 268.459 -94.3563 59.2805 236.301 -27.0339 62.2993 274.847 20.6271 59.7903 323.385 -1.40834 48.1357 49.3224 27.3123 
162.865 174.635 171.346 137.786 147.177 164.75 168.141 174.779 103.355 101.06 13.9045 269.131 1.45202 4.63231 274.457 -83.2656 60.6614 251.879 -89.0976 45.4838 252.122 17.0848 54.5238 271.478 31.6469 58.1376 315.165 1.65816 22.9883 84.0114 27.9765 
159.105 178.333 168.957 139.096 142.701 161.092 171.957 172.93 96.1265 95.7708 18.7387 263.073 6.15226 3.82156 261.504 -82.4925 60.6477 234.626 -79.6579 38.9551 263.584 35.8422 51.4655 271.204 38.3688 57.5576 308.459 4.07021 13.1922 100.945 28.5295 
154.472 179.093 168.983 140.684 143.449 155.132 173.333 172.883 95.2459 94.2094 25.4269 255.114 13.1977 4.60911 249.07 -80.4067 62.0478 222.028 -74.1197 36.485 267.752 43.6258 50.8169 267.824 42.9041 55.9798 302.375 5.47063 10.7099 109.804 28.4564 
155.078 179.003 169.95 140.991 143.376 151.54 174.385 173.096 92.8478 92.4888 29.5681 249.739 20.0583 7.16632 238.109 -76.9761 63.3024 212.924 -68.562 36.0387 268.143 46.6893 51.2773 264.449 45.6963 54.3767 297.675 7.04387 11.1565 113.21 27.0214 
154.319 177.817 169.589 137.868 143.335 148.947 174.777 172.262 89.4475 90.1385 32.1651 246.258 24.7653 8.99663 230.694 -74.6188 63.5878 207.065 -64.9836 37.4895 264.114 46.4835 52.7344 261.048 46.5901 52.7065 294.253 7.96739 10.6217 111.18 25.6278 
155.291 174.739 167.3 140.171 148.831 146.391 174.976 171.949 86.2969 88.2753 33.6756 243.735 26.2891 9.17435 227.332 -75.0355 61.0346 207.37 -65.4296 36.108 263.559 45.053 50.4517 261.32 45.5644 48.972 292.777 6.87234 10.8505 112.482 23.4301 
158.258 173.662 167.887 141.281 151.731 147.751 174.781 173.241 84.7499 88.5732 33.9902 244.331 24.0591 9.38847 228.79 -76.0549 61.2953 212.404 -69.1039 36.5982 263.957 42.672 50.0518 262.856 43.305 47.4812 294.665 5.70692 11.3515 112.692 22.6493 
157.983 172.082 165.791 144.453 153.319 146.881 173.239 172.175 83.7876 87.2742 33.4773 246.064 21.7688 8.0681 234.805 -78.5521 60.3052 217.983 -72.6636 35.0629 264.499 39.6033 48.315 264.146 40.1975 46.3437 296.878 4.71327 11.6529 111.878 23.1562 
157.016 171.885 169.658 146.613 154.851 146.755 172.147 176.524 82.6241 87.4887 32.6106 249.844 18.745 7.22581 242.303 -81.3465 59.3267 226.47 -76.4146 33.6114 267.888 37.1265 45.9882 267.476 37.9182 45.5323 300.802 4.02063 12.5759 112.934 23.2235 
156.751 171.833 165.739 146.324 154.793 147.29 171.153 175.214 83.3495 88.5089 32.8896 252.627 18.5554 6.20113 250.649 -83.5723 58.1697 234.466 -79.1861 32.7104 271.088 35.5313 44.4105 271.478 36.0362 44.7722 305.447 3.6547 13.4173 112.252 23.2938 
155.229 171.657 165.827 143.727 154.086 146.833 169.901 175.255 83.2471 89.4426 32.6856 257.088 18.5483 4.58988 259.001 -84.6276 56.1671 241.932 -79.4629 32.1412 275.4 33.7048 43.2582 276.108 34.4702 43.924 310.773 3.38983 13.774 110.603 23.553 
154.19 171.605 179.999 139.929 153.374 146.227 168.568 179.98 82.2305 89.9261 31.4328 262.995 17.5273 3.53997 267.797 -85.6182 55.3451 250.645 -81.4744 30.5823 280.195 31.5392 41.1625 280.896 33.6434 43.1506 316.532 3.5037 13.4282 110.282 23.8945 
153.733 171.274 180 139.335 152.526 145.428 167.029 179.972 82.5792 90.4205 30.1883 269.06 18.2202 1.41592 275.59 -85.0028 53.8497 256.585 -80.131 29.1319 285.718 31.4921 39.486 286.394 33.6648 42.2662 322.427 3.99728 13.556 109.179 24.9758 
152.507 171.745 180 138.336 151.087 144.431 166.442 179.978 84.133 91.7066 29.7474 275.128 19.9211 -0.145786 284.192 -84.4485 53.3686 264.916 -81.3431 28.4698 290.451 32.1551 38.5499 291.599 34.0366 41.2743 328.84 4.97845 13.8522 109.112 25.6437 
152.242 172.3 180 137.821 150.007 143.952 166.02 179.978 85.988 93.2807 28.7181 281.683 21.5151 -2.30553 292.133 -82.736 53.0861 272.04 -80.653 27.9211 295.213 33.2274 38.093 296.831 34.6955 40.2802 335.63 6.26936 13.8622 107.934 27.0158 
151.454 173.35 167.003 136.035 146.779 143.309 165.591 174.173 87.9317 96.0328 29.1647 287.813 23.8962 -5.17076 299.401 -79.8744 50.9781 278.304 -78.433 28.217 298.659 33.5787 38.6956 300.94 35.4915 38.9117 342.192 8.09685 12.9265 103.773 27.7482 
150.761 173.024 166.185 135.322 145.101 143.02 164.916 171.594 91.0155 98.407 28.2944 294.033 25.8342 -8.04176 307.825 -77.4358 49.9041 284.841 -76.7846 27.7687 301.037 34.391 38.3546 304.121 36.588 37.5347 348.746 10.4199 12.3337 99.6401 29.3183 
149.748 172.932 166.361 135.116 144.034 143.008 164.302 170.053 93.4838 100.905 26.1392 300.064 27.0343 -9.89567 315.635 -74.5075 47.9808 290.457 -74.5913 26.7217 302.327 34.9301 37.2757 306.231 38.3383 36.136 354.097 13.2426 11.5546 95.5577 29.8705 
150.022 173.744 167.528 135.421 145.248 143.175 164.807 171.255 92.5607 101.333 23.2613 304.435 28.2445 -10.9691 322.089 -73.482 45.4531 295.341 -73.3413 23.4154 307.107 36.2973 34.6162 309.4 40.5271 35.0477 358.149 15.7455 10.2975 95.9127 29.2519 
149.941 174.38 167.848 139.492 145.878 143.384 165.354 170.735 90.1154 99.7551 21.0552 307.561 29.5746 -11.465 327.184 -71.8534 43.3693 299.484 -71.5846 22.4951 311.88 39.3948 33.3506 313.083 42.9446 33.9286 360.946 18.3845 10.7992 98.352 28.5679 
149.154 174.783 168.531 139.785 144.654 142.63 165.431 172.258 83.1976 96.7693 18.284 311.085 30.5635 -11.9795 333.815 -70.5606 40.4308 304.2 -70.2152 22.2638 319.346 41.1791 32.1958 316.84 44.7873 33.2219 363.685 20.7305 11.1684 102.269 27.8188 
148.909 173.059 167.397 143.074 146.513 143.149 164.286 172.505 83.9806 94.3155 17.192 316.869 33.2167 -12.0855 341.227 -66.3874 37.485 310.005 -65.5506 22.4531 329.179 47.1574 33.6602 327.098 49.553 33.5471 370.741 24.9388 10.848 103.309 26.6538 
150.212 173.137 170.298 143.778 146.397 143.557 164.937 170.716 85.1017 92.763 18.1345 320.284 34.97 -13.2832 343.772 -64.0667 36.7641 314.796 -65.131 23.7795 333.697 50.6543 35.3676 332.384 51.7463 33.7944 375.232 27.0162 11.3441 104.551 25.5913 
150.823 174.096 170.598 144.272 145.725 143.289 166.015 169.773 85.8578 92.8542 20.0785 323.604 37.2436 -13.5311 346.602 -61.7957 36.8075 319.89 -64.1328 25.815 336.401 52.9233 37.2218 335.964 53.5495 34.2308 379.2 29.2385 11.7338 104.272 24.8073 
151.578 174.001 172.381 143.467 144.732 143.125 166.526 172.072 86.0785 91.913 21.5179 327.554 39.8625 -12.3761 349.87 -59.9997 37.0579 323.363 -61.9351 26.8004 340.775 56.1229 38.2902 340.323 56.1968 34.9677 383.167 31.4736 11.9973 104.978 24.0599 
151.513 173.84 172.787 143.245 145.178 142.941 166.666 172.237 85.6648 91.2959 22.6447 329.706 41.6195 -11.8828 352.165 -57.6012 37.0101 326.752 -61.0867 27.873 343.739 58.1815 39.326 343.219 58.1303 35.8482 385.611 33.575 12.0983 105.864 23.2305 
151.597 173.945 172.408 142.096 143.2 142.067 167.32 173.664 85.975 90.9382 23.6069 332.006 43.6529 -11.5004 353.516 -55.0965 37.0947 329.219 -60.0002 28.5102 346.015 60.418 40.2388 345.064 59.6694 36.5764 387.503 35.2962 12.2548 107.026 22.7043 
150.844 173.852 172.586 142.118 142.735 141.565 168.403 174.519 84.2591 91.2424 25.2058 334.232 46.3422 -11.6289 353.497 -51.9618 38.0978 331.235 -58.2858 31.2466 348.584 62.1316 42.3559 346.966 61.5051 37.3905 389.512 37.0148 12.6837 108.077 22.9256 
150.994 174.057 173.007 137.06 140.75 141.941 169.125 175.255 82.4404 91.5227 25.1765 336.889 48.6628 -10.3703 355.113 -50.4925 39.4828 332.061 -56.3593 32.9794 350.952 62.8515 43.4582 348.637 63.4135 38.6558 391.67 38.5832 12.6132 107.498 23.0929 
152.46 171.985 171.942 138.794 145.486 141.122 167.574 175.298 80.359 94.1595 24.9292 339.223 51.5395 -11.2685 358.856 -49.0106 40.6987 333.023 -56.0787 31.1389 353.081 63.0566 41.6639 347.533 63.7922 40.0102 393.135 40.0508 12.9548 107.718 25.0699 
153.708 171.138 171.501 140.963 147.865 140.654 166.697 175.111 81.7448 98.2311 25.7689 340.689 53.7375 -10.4645 359.64 -47.7479 41.9203 332.336 -54.5711 29.5231 351.91 63.5215 40.68 344.361 63.8151 41.6021 393.489 41.457 13.1979 105.535 25.6235 
154.484 171.479 169.825 137.23 146.391 139.515 166.673 175.201 87.0001 100.047 26.7986 342.918 56.3732 -9.41148 358.801 -46.8195 42.0524 330.922 -52.7431 26.5267 350.018 64.7397 39.4015 343.091 65.0289 43.2583 393.833 42.2039 12.0352 102.918 25.2621 
153.983 171.557 170.453 139.486 148.555 140.26 166.524 175.318 90.4868 102.699 28.842 343.255 57.2778 -8.48518 356.827 -45.7036 44.3735 329.159 -51.3429 26.7497 349.337 66.408 40.1008 343.708 67.7984 44.4309 394.152 42.5847 10.3197 102.051 25.9618 
153.043 171.68 170.914 144.838 150.245 140.366 166.826 175.269 91.5393 104.304 30.895 343.739 57.5904 -6.28309 355.389 -45.7396 47.554 328.299 -50.4578 28.0195 348.284 67.6393 40.3332 343.027 69.2147 45.6584 394.127 42.8524 10.7145 101.851 26.3931 
154.763 171.774 171.508 138.216 153.955 141.414 165.738 174.413 92.48 107.045 34.0049 343.529 59.5177 -5.48814 354.054 -43.0702 50.3266 328.233 -49.1236 31.3681 342.415 62.9365 41.3964 340.653 65.0195 46.5244 394.878 43.6303 12.0502 93.362 27.3961 
156.524 171.791 171.997 133.818 152.907 143.088 169.13 174.637 92.6382 110.642 36.3922 342.355 62.7176 -4.1639 351.671 -41.4451 49.5824 328.314 -47.2213 37.8054 338.78 61.1938 46.0219 337.414 62.9731 46.8886 395.508 44.3788 13.3467 87.7591 25.3137 
156.718 174.604 170.957 123.815 150.127 142.968 170.407 174.326 97.6158 111.096 37.1615 343.286 63.9794 -2.78532 352.344 -41.6956 51.9774 328.078 -46.8103 37.3881 336.946 61.1275 46.0075 336.692 62.6908 48.0687 395.803 45.038 13.2989 86.4172 25.9854 
153.922 173.674 170.624 121.811 153.525 141.509 171.536 174.953 97.5574 106.846 37.1943 344.971 64.6368 -0.546242 353.328 -42.6656 53.3078 328.527 -46.4296 36.7749 337.867 61.1781 44.9638 341.097 68.1912 48.9637 396.093 45.63 12.0793 86.5842 25.506 
151.304 172.687 171.958 128.755 152.129 140.465 172.525 176.844 94.8065 99.8725 40.217 345.213 66.0393 1.1211 351.85 -42.8487 54.6345 328.428 -46.1986 38.8931 338.854 61.9336 47.8988 346.192 70.2642 49.6605 395.905 45.9578 14.1033 87.6563 24.85 
150.227 171.609 180 174.27 149.949 140.952 172.85 180 90.342 95.2826 43.6781 345.77 67.0567 3.75787 350.377 -42.2101 55.5619 330.297 -46.5046 34.8246 343.368 62.2644 51.2482 350.991 70.8833 50.4522 396.825 46.579 9.04076 91.0002 22.8441 
148.371 170.67 173.243 174.27 149.82 139.526 172.636 177.267 87.7617 92.3186 46.1517 347.062 67.3097 4.24296 352.526 -41.8961 54.877 331.551 -45.5269 35.0758 347.526 61.457 54.0272 354.047 69.7301 51.2792 398.441 46.6749 6.63865 90.7272 22.3545 
146.634 169.73 172.365 174.27 150.413 138.513 172.22 176.848 86.505 90.8346 48.8532 348.558 67.8792 5.69565 352.604 -39.7571 54.9707 333.54 -45.4046 39.2116 350.492 63.5649 57.2186 357.539 69.269 52.1718 400.413 46.5726 7.16496 92.5158 21.1864 
145.819 169.474 170.287 174.27 160.862 136.391 172.41 175.201 83.3098 90.4374 49.9854 350.959 68.2601 8.33717 353.018 -39.4163 54.611 333.486 -44.749 41.4005 358.159 68.1925 58.2862 360.972 71.7783 53.2311 402.1 46.2624 6.40764 98.876 19.2842 
145.993 170.718 170.56 174.27 160.445 136.532 173.835 174.491 84.8957 89.8535 51.6474 352.504 68.0985 10.7788 353.19 -39.0034 55.6618 334.225 -43.7861 42.379 362.326 70.5212 60.918 363.914 72.49 53.9149 404.08 45.9592 5.34652 101.375 18.1874 
146.645 172.573 170.54 174.27 160.614 136.865 175.215 174.216 86.0487 89.2773 52.1391 354.246 67.4437 11.1132 355.471 -40.3696 56.1043 335.532 -44.2513 42.626 365.012 70.9799 62.1891 366.247 71.963 54.4953 406.129 45.2841 5.2981 102.063 18.4573 
146.437 173.305 172.041 174.27 159.121 136.658 174.263 176.652 86.5099 88.9859 50.3518 356.819 65.25 12.731 358.529 -41.6852 56.7642 338.81 -45.6202 41.8495 367.549 71.3025 61.0765 367.937 72.4736 55.1922 408.06 44.7091 5.53065 103.906 17.8241 
147.35 172.519 180 174.27 157.408 136.899 173.928 179.99 86.1962 87.571 48.7601 358.819 62.886 16.1122 361.749 -43.4809 57.1319 343 -46.2215 40.6323 369.763 71.3567 59.3365 369.329 72.9621 55.6699 409.219 44.2388 5.75935 106.192 16.0199 
146.176 170.546 180 174.27 154.506 136.807 171.836 179.989 86.2772 87.1809 47.5016 360.172 60.135 17.7991 364.337 -44.9108 58.2779 345.243 -47.6828 40.0182 371.154 70.7655 58.5328 369.436 72.4716 56.1351 409.858 43.5711 6.00206 107.717 15.8477 
145.934 169.664 180 174.27 151.475 136.264 170.016 179.988 83.1598 86.3243 47.4344 360.971 57.963 18.489 365.89 -45.3454 58.444 347.122 -48.6356 41.8558 372.837 69.169 59.0344 369.6 71.0606 56.3129 410.431 42.7958 7.13787 108.825 15.5182 
146.029 169.277 175.712 174.27 148.756 136.569 168.532 178.556 82.671 86.5206 46.9533 361.681 56.2406 17.976 368.286 -45.8929 58.684 348.127 -49.2526 43.5251 373.192 68.2398 59.2104 370.822 70.1587 56.7924 411.356 42.1398 7.9059 108.143 16.4138 
146.06 168.114 173.477 177.512 146.121 136.057 167.008 177.805 84.7126 87.0061 46.7755 363.692 54.999 17.291 372.541 -46.9273 59.0112 350.933 -50.4712 43.4141 373.385 68.2734 58.5952 371.902 69.3826 57.2084 412.938 41.5538 8.76423 107.918 17.654 
147.421 167.772 171.356 165.006 139.156 135.638 167.233 176.919 78.5792 86.4502 49.41 363.962 54.3929 16.895 373.499 -45.9181 59.4338 353.774 -50.9327 48.5412 377.81 66.5186 61.8806 372.693 65.3563 57.5439 414.348 41.2889 13.4705 110.499 17.7285 
147.774 166.934 170.898 155.87 134.152 135.411 166.867 175.801 75.6624 86.6219 51.2296 364.1 53.3672 16.2949 375.086 -44.5612 59.2226 356.86 -51.7544 51.9133 380.025 64.5763 64.2776 373.475 61.3891 57.8387 415.576 41.0444 17.1397 111.088 17.7727 
147.745 166.478 170.818 150.512 134.415 136.164 166.572 174.856 75.1361 85.361 51.4361 364.385 52.1151 15.0528 375.907 -43.3584 58.5215 358.42 -52.087 52.7939 381.443 63.1788 65.21 375.616 58.9978 58.1847 416.639 40.5467 17.9657 110.635 18.1802 
147.932 167.674 171.743 147.3 136.399 135.972 166.341 174.345 74.6284 83.8599 51.8026 364.5 51.638 14.3492 375.819 -42.487 58.2977 359.069 -51.8695 54.2161 382.874 62.2569 66.7291 378.04 57.3061 58.5662 417.501 40.2609 18.4478 110.124 18.4752 
148.042 168.592 172.129 145.36 136.867 136.224 166.727 174.215 74.1616 82.1545 52.3776 364.952 51.811 13.9899 374.805 -40.4048 58.0279 359.648 -51.5897 56.1975 384.375 62.0068 68.8808 380.567 56.2153 58.844 418.643 40.1879 18.856 109.99 18.352 
148.049 167.487 172.45 143.309 136.903 135.853 168.259 173.709 73.9658 80.4603 52.0257 365.57 51.6942 13.0585 375.956 -40.4005 57.0103 359.539 -51.4572 57.0494 384.766 61.2857 70.1448 381.881 55.0498 58.9439 419.372 39.9327 18.711 108.728 18.5874 
147.463 166.985 172.432 143.271 140.624 135.752 166.263 175.007 74.3248 81.0653 49.8525 367.328 51.3342 12.457 378.603 -41.4809 56.594 361.676 -53.0841 55.2866 384.743 60.8444 69.4429 381.834 57.7566 59.2004 420.113 39.7352 14.5112 108.901 18.8773 
146.494 166.485 171.241 142.812 139.37 135.852 166.031 176.947 74.4453 81.362 49.0277 369.025 50.6875 12.5035 380.146 -41.7243 57.1806 362.806 -53.603 54.6702 384.862 60.185 69.2107 381.6 57.6774 59.4335 420.982 39.4785 13.7287 108.438 19.3468 
145.219 165.167 180 143.853 138.179 135.609 165.836 179.967 74.1525 81.4177 48.8137 370.704 49.719 12.9811 381.82 -41.8509 58.2836 365.026 -55.0801 53.9113 385.472 59.4599 68.9868 381.15 57.1686 59.5523 421.705 39.2152 13.4967 109.508 19.7638 
145.156 163.525 180 143.111 136.993 135.414 165.169 179.96 74.7361 81.6444 50.5596 370.38 48.8657 13.4413 381.261 -40.7223 59.4725 365.788 -55.387 54.7786 385.582 58.9288 69.7609 381.122 54.9801 59.608 421.896 38.8664 15.2095 109.757 20.1428 
145.609 162.554 171.092 142.334 137.32 135.464 164.77 176.898 75.5273 82.404 51.94 370.201 48.3079 13.5179 380.962 -40.1517 60.1096 364.664 -53.8707 55.7476 385.645 58.6719 70.4796 381.304 53.3631 59.5991 422.249 38.6102 16.4969 108.288 20.5246 
146.012 162.141 180 143.341 141.24 136.181 164.155 179.953 76.4546 83.2579 52.0896 369.694 47.7115 13.3704 382.363 -40.8642 60.6438 366.531 -55.5088 55.8123 385.662 58.7224 70.1908 381.724 53.5211 59.7527 422.359 38.3662 16.1308 109.58 21.0107 
147.179 162.524 180 145.188 145.216 137.194 163.527 179.959 77.961 83.5699 51.3104 368.874 47.0808 12.3187 384.389 -41.6228 59.585 366.461 -55.716 55.2617 385.603 59.243 69.436 382.464 54.242 59.7667 422.403 38.1504 15.2713 109.304 21.4539 
147.234 164.397 180 148.056 147.14 137.666 164.422 179.966 78.1519 85.4646 49.5765 368.587 46.8091 11.8157 386.59 -44.0349 59.3309 365.711 -56.8102 53.8098 385.447 59.4924 68.279 381.428 56.9794 59.8582 421.889 37.8849 12.6068 109.896 22.1023 
147.126 165.484 180 148.881 147.721 137.894 164.718 179.969 77.0644 86.2381 48.3769 368.817 46.6652 12.2107 388.461 -45.853 59.3887 365.506 -57.4846 53.1901 385.649 59.2958 67.2045 380.879 58.848 60.0457 421.607 37.8366 11.2164 110.378 22.2887 
146.943 165.986 180 148.526 148.686 137.808 164.192 179.971 76.4693 87.1199 48.0391 369.01 47.015 12.4573 389.397 -46.4837 59.714 364.516 -57.3826 53.2738 385.336 59.0331 66.8228 380.726 60.3072 60.3147 421.463 37.878 9.98547 109.672 22.8349 
146.782 166.505 180 148.212 148.544 137.934 163.816 179.971 75.9525 87.6987 48.4065 368.923 47.7097 12.2879 388.645 -45.9653 60.425 363.168 -56.7232 54.027 384.992 59.0543 67.3913 380.664 61.2476 60.4984 421.299 38.0402 9.35445 109.079 23.5654 
147.089 167.15 180 148.323 148.706 138.207 163.646 179.973 75.6688 87.8066 48.6919 368.706 48.2648 11.5306 388.149 -45.3509 60.6943 364.517 -57.31 54.4933 384.38 58.7879 68.0446 380.676 61.6751 60.5283 421.222 38.1302 8.59336 109.466 23.9001 
147.509 167.467 180 147.458 148.135 138.201 163.103 179.978 75.4771 87.8099 49.6756 367.877 48.5405 10.7366 386.804 -44.6675 60.8946 363.936 -56.9798 55.866 384.063 58.5622 69.0312 381.137 61.3746 60.52 420.956 37.9567 8.98271 109.155 24.4861 
147.938 167.904 180 149.053 145.41 138.54 163.238 179.978 76.6789 87.3891 50.2836 367.52 48.6287 9.60229 385.377 -43.5219 60.347 363.288 -56.3676 56.1717 384.316 59.392 69.5967 381.561 59.9977 60.3764 421.139 37.8521 10.4197 109.224 24.7731 
148.048 168.241 180 150.155 144.844 138.817 163.829 179.977 77.2161 87.5097 50.3712 367.332 48.8111 8.49821 384.217 -42.6909 59.7338 362.778 -55.8637 56.0332 384.49 59.6637 69.9786 381.796 59.7198 60.2188 421.224 37.7386 10.3356 109.075 25.0445 
147.569 169.626 174.339 150.596 143.715 139.004 165.585 177.861 77.7127 87.0514 50.2282 367.071 48.8073 7.93317 380.925 -41.2799 59.3976 360.85 -54.8799 55.7842 384.024 59.6097 70.247 381.878 59.2228 59.7939 420.969 37.4436 10.0964 108.117 24.8419 
147.744 170.665 175.085 149.647 141.853 139.322 166.995 177.436 77.4248 86.6777 50.7851 366.814 49.0363 7.51344 378.08 -39.6119 59.4741 360.315 -54.1208 56.7536 384.116 59.6443 70.3299 382.063 57.8488 59.4397 420.912 37.2952 12.0845 108.299 24.8425 
148.128 171.766 174.336 149.508 141.7 139.872 168.309 177.148 76.7398 86.332 50.3912 367.115 49.4847 6.97126 375.904 -38.5613 58.0669 359.584 -53.7986 57.0845 383.764 59.6963 70.0325 382.085 58.1725 59.1027 420.973 37.2071 12.479 107.691 24.1253 
148.261 171.328 173.75 149.531 142.527 140.143 168.943 176.847 76.299 86.3664 49.1665 367.533 49.4182 6.62666 375.614 -39.5157 56.2817 358.99 -53.6487 55.9004 383.272 59.2717 68.3694 381.67 58.2078 58.7874 420.939 36.8307 12.7521 106.688 23.1152 
147.948 170.716 172.868 151.294 144.216 139.966 169.446 175.519 76.5818 87.1817 48.2851 367.979 49.4317 6.75196 375.839 -41.0477 54.836 359.025 -54.4037 54.3727 383.607 59.5337 67.0493 381.341 59.0302 58.5866 421.051 36.513 12.2195 106.947 21.9429 
147.39 171.507 172.99 151.161 143.6 139.702 170.781 176.008 76.9191 87.1798 48.7891 368.092 49.3852 7.36726 374.364 -40.7242 53.9302 359.375 -54.6605 54.618 383.712 59.5763 67.331 381.214 58.2033 58.446 421.179 36.2844 12.972 107.06 20.6913 
