154.713 175.62 171.35 136.611 139.338 145.217 168.217 166.17 83.2265 83.5578 -127.645 408.502 -43.4963 -106.423 370.02 -122.318 -158.064 347.282 -103.179 -119.179 396.144 -7.85235 -126.136 385.674 -0.100093 -99.9199 359.669 -16.6996 10.8196 104.178 28.6864 
154.378 175.952 171.635 136.842 139.724 145.026 168.624 167.072 82.7842 83.5096 -126.004 407.416 -43.7844 -104.468 368.757 -122.845 -156.344 345.109 -103.644 -117.414 394.987 -8.4829 -124.408 384.693 -0.386067 -98.2198 358.745 -16.9992 10.5495 104.677 29.0299 
153.925 176.315 171.921 136.811 139.787 144.903 168.934 168.335 81.4103 83.2616 -123.964 406.152 -43.7729 -102.145 367.408 -123.324 -154.289 342.389 -104.146 -114.501 392.39 -8.22516 -122.215 382.813 -0.390887 -96.3507 357.134 -17.3618 10.4134 107.023 29.5811 
154.024 176.387 171.944 136.819 139.99 144.912 169.425 169.236 81.1443 83.2048 -122.082 404.905 -43.6376 -100.321 365.284 -123.51 -152.806 340.061 -103.974 -112.417 390.956 -8.32033 -120.305 381.58 -0.371145 -94.6419 355.663 -17.3818 10.2802 107.834 29.9273 
154.624 176.375 172.174 136.227 139.681 145.3 170.017 170.096 81.5661 83.0827 -121.208 404.114 -43.7564 -99.7781 363.072 -123.474 -152.4 338.299 -103.416 -111.017 390.463 -8.15567 -119.155 381.021 -0.289233 -93.5269 354.794 -17.3189 10.2328 108.446 29.9703 
155.119 176.395 172.321 135.942 139.649 145.484 170.543 170.727 82.19 83.0476 -120.557 403.476 -43.4117 -99.4094 361.138 -123.505 -152.092 337.064 -102.843 -109.789 390.218 -8.03613 -118.049 380.584 -0.211592 -92.4973 353.999 -17.2476 10.214 108.678 29.9151 
155.093 176.611 172.264 136.097 139.89 145.595 171.093 171.255 82.7312 83.0618 -120.754 402.269 -43.1322 -98.7272 359.291 -123.588 -151.264 334.638 -102.565 -109.384 389.717 -8.02872 -117.449 379.744 -0.204207 -91.55 353.342 -17.1928 10.2473 108.965 30.0376 
155.311 176.977 172.396 136.25 140.03 145.88 171.351 171.628 83.153 83.1816 -120.602 400.798 -43.2432 -97.2203 357.91 -123.865 -150.034 332.302 -102.663 -109.056 388.716 -8.18539 -116.923 378.444 -0.344789 -90.5681 352.338 -17.2217 10.2196 108.987 30.4945 
155.59 177.142 172.536 136.131 139.885 146.13 171.73 172.254 83.7322 83.2192 -120.293 400.204 -43.3808 -95.9304 356.703 -124.185 -149.419 331.024 -102.549 -108.51 388.494 -8.15116 -116.475 377.999 -0.467632 -89.9182 351.834 -17.2009 10.2518 109.223 31.0127 
155.679 177.273 172.67 136.257 139.87 146.17 172.272 172.674 84.0563 83.0963 -119.726 400.128 -43.3771 -94.7803 355.595 -124.546 -149.146 330.34 -102.534 -107.897 388.576 -8.06 -115.962 377.949 -0.500639 -89.4525 351.63 -17.1378 10.33 109.577 31.4664 
155.526 177.318 172.669 136.514 140.052 146.064 172.767 172.902 84.2527 82.9959 -119.086 400.137 -43.1184 -93.7373 354.609 -124.775 -148.896 329.767 -102.482 -107.374 388.574 -7.90971 -115.422 377.827 -0.392076 -89.0325 351.422 -17.0247 10.3868 109.939 31.8705 
155.295 177.308 172.613 136.685 140.234 145.973 173.05 172.931 84.3667 83.0108 -118.829 400.064 -42.8821 -93.1227 353.853 -124.891 -148.789 329.287 -102.304 -107.168 388.617 -7.91509 -115.126 377.821 -0.348879 -88.7642 351.332 -16.9303 10.4134 110.005 32.1729 
155.259 177.37 172.435 136.959 140.412 145.982 173.107 172.849 84.5713 82.9577 -118.469 399.749 -42.6195 -92.5719 353.407 -124.834 -148.463 328.941 -102.114 -106.802 388.449 -7.64562 -114.739 377.503 -0.140689 -88.4084 351.05 -16.778 10.4489 110.168 32.3294 
155.127 177.288 172.256 137.179 140.58 145.944 173.078 172.862 84.7995 83.0084 -118.304 399.613 -42.3095 -92.2972 353.176 -124.847 -148.287 328.882 -101.975 -106.544 388.427 -7.52155 -114.503 377.386 -0.0790691 -88.1757 350.851 -16.7278 10.4678 110.192 32.3958 
155.043 177.318 172.162 137.337 140.677 145.901 173.066 172.875 84.9791 83.0666 -118.18 399.255 -42.0633 -92.166 353.03 -124.787 -148.076 328.708 -101.903 -106.226 388.239 -7.36713 -114.225 377.136 -0.0233612 -87.9081 350.568 -16.6876 10.5154 110.259 32.3493 
155.012 177.297 172.087 137.244 140.523 145.934 173.022 172.975 85.1529 83.1664 -118.031 399.095 -42.0683 -92.163 352.874 -124.673 -147.904 328.568 -101.861 -105.892 388.295 -7.34468 -113.989 377.209 -0.0965261 -87.7025 350.482 -16.6552 10.5746 110.344 32.2004 
154.788 177.277 172.019 137.319 140.461 145.795 172.958 172.895 85.365 83.3235 -118.084 398.724 -41.9921 -92.3141 352.53 -124.457 -147.742 328.371 -101.668 -105.776 388.403 -7.45453 -113.893 377.321 -0.263041 -87.5451 350.421 -16.5752 10.6568 110.131 31.9525 
154.355 177.397 172.896 138.565 141.14 145.811 174.077 173.225 85.4056 83.1692 -119.421 397.261 -41.7245 -92.0065 351.361 -124.678 -146.84 327.188 -102.012 -106.602 388.062 -7.48246 -114.534 376.601 -0.272165 -87.3895 350.435 -16.4413 10.6255 109.704 31.5054 
154.15 177.127 173.569 139.609 141.67 145.884 174.539 173.365 85.5264 83.1798 -120.396 395.927 -41.8776 -91.7226 350.276 -124.935 -146.067 326.391 -102.387 -107.358 387.962 -7.93797 -115.099 376.236 -0.616153 -87.2823 350.485 -16.3806 10.6057 108.824 31.0549 
154.022 176.808 173.996 140.389 142.003 145.933 174.668 173.516 85.6573 83.2487 -120.975 394.783 -41.9361 -91.2754 349.423 -125.189 -145.234 325.928 -102.922 -107.819 387.776 -8.45879 -115.451 375.87 -1.03086 -87.1373 350.301 -16.3502 10.5858 107.926 30.6031 
154.215 176.564 174.087 140.82 141.984 146.361 174.606 173.376 85.7869 83.3509 -121.65 393.804 -42.2648 -91.2234 349.111 -125.307 -144.69 325.769 -103.184 -108.507 387.578 -8.94287 -115.936 375.498 -1.39791 -87.0442 350.214 -16.3431 10.5842 106.738 30.2333 
154.433 176.37 174.114 141.336 141.969 146.77 174.48 173.094 85.9235 83.4937 -122.165 392.867 -42.6185 -91.3507 348.707 -125.348 -144.231 325.76 -103.34 -109.038 387.356 -9.43679 -116.308 375.138 -1.78045 -86.9211 350.063 -16.3436 10.5834 105.511 29.7653 
154.631 176.144 174.278 141.72 141.946 147.09 174.3 173.037 86.0389 83.6749 -122.454 392.19 -43.0025 -91.5513 348.26 -125.278 -144.044 325.591 -103.39 -109.275 387.22 -9.83406 -116.512 374.97 -2.09574 -86.8272 349.924 -16.3016 10.5916 104.647 29.415 
154.812 176.012 174.298 141.97 141.912 147.318 174.198 173.142 86.0627 83.7482 -122.509 391.88 -43.3548 -91.5537 347.812 -125.292 -143.77 325.205 -103.647 -109.424 387.126 -10.1806 -116.659 374.863 -2.3705 -86.7772 349.819 -16.3008 10.591 104.263 29.1356 
155.061 175.938 174.25 142.153 141.811 147.632 174.126 173.078 86.1076 83.7895 -122.423 391.58 -43.9178 -91.3545 347.406 -125.462 -143.442 324.951 -104.053 -109.617 386.905 -10.589 -116.836 374.575 -2.74214 -86.7178 349.599 -16.4257 10.5859 103.838 28.9438 
155.218 175.898 174.298 142.299 141.718 147.874 174.059 173.141 86.1716 83.8832 -122.397 391.25 -44.3921 -91.334 347.168 -125.65 -143.141 324.511 -104.525 -109.698 386.615 -10.9288 -116.897 374.235 -3.06828 -86.6293 349.327 -16.6351 10.5778 103.684 28.7207 
155.289 175.84 174.234 142.35 141.644 147.986 173.894 172.946 86.299 84.0421 -122.34 390.723 -44.7433 -91.3538 346.696 -125.863 -143.132 324.29 -104.838 -109.803 386.19 -11.3812 -116.962 373.801 -3.46411 -86.5618 348.822 -16.8595 10.5591 103.152 28.5976 
155.349 175.754 174.15 142.513 141.613 147.969 173.606 172.815 86.4033 84.1919 -121.876 390.309 -45.209 -91.071 346.142 -126.033 -142.813 324.043 -105.286 -109.581 385.887 -11.9516 -116.802 373.547 -3.97849 -86.4127 348.298 -17.0656 10.5417 102.786 28.3999 
154.997 175.51 173.965 142.63 141.724 147.662 173.438 172.669 86.4809 84.2684 -121.327 389.98 -45.934 -91.0732 345.633 -126.221 -142.598 323.989 -105.724 -109.287 385.661 -12.7804 -116.58 373.452 -4.64294 -86.2538 347.904 -17.4337 10.4171 102.1 28.0383 
154.838 175.327 173.765 142.609 141.717 147.232 173.097 172.488 86.6228 84.4059 -120.508 389.892 -46.4241 -90.6956 344.825 -126.33 -142.365 323.871 -106.145 -108.773 385.724 -13.5273 -116.186 373.687 -5.27936 -86.1608 347.555 -17.6683 10.3857 101.89 27.8573 
154.805 175.156 173.594 142.485 141.688 147.051 172.629 172.131 86.6956 84.5323 -119.763 389.7 -47.0187 -90.2723 344.238 -126.444 -141.956 323.853 -106.58 -108.278 385.592 -14.2445 -115.804 373.718 -5.93953 -86.0153 347.118 -17.9379 10.3893 101.588 27.6551 
154.806 175.043 173.406 142.453 141.757 146.932 172.287 171.798 86.7509 84.7178 -119.176 389.355 -47.4889 -90.1876 343.648 -126.469 -141.386 323.706 -107.055 -107.74 385.283 -14.7277 -115.464 373.547 -6.4501 -85.8612 346.589 -18.1764 10.3789 101.509 27.138 
154.794 174.987 173.036 142.505 141.794 146.846 171.922 171.229 86.8453 84.8804 -118.6 388.638 -48.1629 -89.7123 342.802 -126.617 -140.267 323.332 -107.77 -107.354 384.754 -15.5047 -115.166 373.093 -7.23694 -85.5876 345.891 -18.5531 10.3959 101.157 26.529 
154.737 174.948 172.84 142.586 141.805 146.809 171.517 170.844 87.0299 85.1226 -118.041 387.766 -48.7764 -89.2932 342.127 -126.698 -138.99 323.001 -108.489 -106.917 384.108 -16.1794 -114.815 372.49 -7.9498 -85.2768 345.064 -18.9183 10.4056 100.781 25.8098 
154.7 175.062 172.909 142.74 141.839 146.801 171.401 170.891 87.043 85.1678 -117.55 386.885 -49.133 -88.6789 341.853 -126.843 -137.635 322.561 -109.178 -106.411 383.235 -16.3247 -114.375 371.568 -8.23706 -84.8556 344.249 -19.2221 10.4314 100.909 25.3009 
154.566 175.133 172.896 142.803 141.898 146.72 171.15 170.767 87.3589 85.4224 -116.734 386.037 -49.5614 -87.5928 341.169 -126.847 -136.477 322.106 -109.485 -105.966 382.74 -16.7871 -113.909 371.05 -8.73407 -84.3116 343.573 -19.3618 10.4667 100.485 25.174 
154.41 175.218 173.022 142.954 142.121 146.655 171.065 170.77 87.6422 85.6763 -115.994 385.161 -49.7435 -86.4079 340.824 -126.889 -135.038 321.668 -109.89 -105.399 382.114 -16.9424 -113.277 370.349 -8.95061 -83.6401 342.875 -19.4765 10.4809 100.346 24.9909 
154.326 175.316 173.273 143.043 142.305 146.662 171.089 171.002 87.8076 85.8624 -114.956 384.253 -50.1848 -84.7187 340.057 -127.134 -133.604 320.788 -110.407 -104.672 381.354 -17.2026 -112.551 369.597 -9.30828 -82.9401 342.046 -19.6545 10.5285 100.482 25.1366 
153.994 175.46 173.495 143.454 142.747 146.425 171.275 171.154 88.3265 86.3274 -113.782 383.41 -50.0892 -82.632 339.647 -127.602 -131.889 319.915 -111.289 -104.195 380.711 -18.0589 -111.754 368.868 -9.77455 -82.0669 341.036 -19.9064 10.2982 99.9459 25.3777 
153.776 175.58 173.571 143.748 143.033 146.258 171.706 171.749 88.4882 86.3273 -112.705 382.677 -50.3842 -80.4205 338.933 -128.293 -129.963 318.168 -112.274 -103.497 379.959 -18.4718 -110.892 367.967 -10.1048 -81.166 340.242 -20.2957 10.2376 100.711 25.7292 
153.347 175.965 173.645 142.581 142.54 145.711 171.44 171.623 88.7699 86.7381 -110.536 382.732 -50.8068 -78.6015 339.217 -128.805 -129.615 317.116 -112.615 -101.538 379.3 -18.4616 -109.039 367.514 -10.4372 -80.1926 339.203 -20.9161 10.4814 102.252 27.0139 
153.251 176.024 173.205 140.717 141.571 145.225 171.648 171.759 88.535 86.8036 -108.606 382.841 -51.0598 -76.9549 338.671 -129.361 -129.302 315.889 -112.832 -99.4001 378.31 -17.9518 -107.249 366.879 -10.4654 -79.1644 338.237 -21.4481 10.7121 104.371 28.0617 
153.36 175.985 172.542 139.222 140.73 144.918 171.847 171.81 87.9571 86.5214 -106.832 382.766 -51.2404 -75.7202 337.578 -129.907 -128.914 314.659 -112.899 -97.3578 376.983 -17.3141 -105.563 365.898 -10.3016 -78.1755 337.171 -21.8996 10.8945 106.457 28.7135 
153.72 175.925 171.993 137.925 139.866 144.822 172.174 171.899 87.2319 85.9925 -105.144 382.841 -51.5463 -74.7074 336.141 -130.327 -128.198 313.636 -112.979 -95.4998 375.74 -16.793 -104.045 364.986 -10.1684 -77.2237 336.271 -22.2772 11.0502 108.255 28.8761 
154.063 175.919 171.71 137.485 139.508 144.76 172.164 171.982 86.6256 85.4495 -103.672 382.456 -51.7602 -73.8285 335.388 -130.57 -126.978 312.676 -113.189 -93.8712 374.304 -16.3249 -102.655 363.692 -10.0091 -76.1915 335.236 -22.6517 11.1329 109.714 28.7704 
154.12 175.807 171.25 137.031 139.346 144.424 172.322 172.407 86.6306 85.3155 -103.11 381.45 -51.8552 -73.3987 334.597 -130.931 -125.28 311.212 -113.798 -92.8201 372.71 -16.1906 -101.641 362.071 -10.0275 -75.0726 333.987 -23.1666 11.0536 110.325 28.0967 
154.396 175.751 171.045 136.808 139.209 144.746 172.053 172.307 86.6369 85.3039 -102.204 380.484 -52.5189 -71.9972 334.305 -131.34 -123.17 310.468 -114.508 -91.6654 371.381 -16.3297 -100.586 360.727 -10.4181 -73.9418 332.883 -23.7219 11.0779 110.666 27.7807 
154.605 175.687 170.57 136.603 138.947 145.081 171.908 172.157 86.5167 85.2648 -101.469 379.504 -52.7526 -70.62 334.014 -131.323 -121.055 309.563 -115.088 -90.7814 370.02 -16.1273 -99.727 359.369 -10.4442 -72.8864 331.834 -23.9286 11.1389 111.026 27.4466 
154.812 175.608 170.244 136.58 138.636 145.518 171.909 171.829 86.3997 85.1239 -100.566 378.389 -53.0458 -69.1935 333.142 -131.305 -119.142 308.918 -115.623 -90.0145 368.671 -16.118 -98.9466 357.976 -10.6172 -71.8905 330.636 -24.0849 11.2496 110.873 27.0446 
155.135 175.495 170.459 136.587 138.368 146.185 171.672 171.681 86.3883 85.0883 -99.6276 377.08 -53.3709 -67.8455 332.395 -131.096 -117.3 308.589 -115.883 -89.2915 367.28 -16.0566 -98.1702 356.538 -10.7195 -70.9404 329.316 -24.0819 11.3754 110.317 26.6168 
155.4 175.344 170.506 136.521 138.102 146.811 171.474 171.18 86.511 85.0679 -98.9138 375.491 -53.9255 -66.637 331.16 -130.815 -115.67 307.799 -115.887 -89.0652 365.921 -16.2338 -97.714 355.019 -10.9785 -70.1019 328.017 -24.0671 11.519 109.488 26.2769 
155.078 175.223 170.312 136.209 137.517 147.152 171.065 169.348 86.7422 84.9437 -97.0604 372.48 -55.5793 -63.8302 326.731 -130.532 -113.116 305.599 -116.03 -88.2898 364.041 -17.7155 -96.6936 353.075 -12.4462 -68.9114 325.79 -24.2003 11.8373 107.836 25.853 
154.767 175.123 170.381 136.362 137.546 147.096 171.159 168.844 86.9798 84.9412 -96.6525 370.704 -55.9526 -62.5798 323.955 -130.327 -112.12 304.049 -116.051 -88.2381 363.111 -18.5497 -96.4864 352.055 -13.2082 -68.5176 324.559 -24.1313 11.9773 106.894 25.6757 
154.36 175.067 170.3 136.548 137.675 146.979 171.288 168.851 87.3535 85.0908 -96.5097 369.393 -56.3283 -61.4464 322.095 -130.254 -110.672 302.299 -116.674 -88.3392 362.583 -19.4564 -96.467 351.389 -14.024 -68.2547 323.75 -24.2309 12.0101 106.548 25.2816 
153.971 175.103 170.211 136.065 137.513 146.647 171.76 169.088 87.936 85.2867 -96.9043 368.023 -56.7192 -61.0286 320.385 -130.259 -109.587 300.616 -117.01 -88.8527 361.845 -20.2519 -96.6982 350.441 -14.6333 -68.0417 322.97 -24.3248 11.9857 105.636 24.7489 
153.74 175.219 169.906 136.289 137.606 146.649 171.988 169.578 88.1578 85.3593 -97.1289 367.145 -56.59 -60.5297 320.084 -130.264 -108.81 299.193 -117.623 -89.3031 361.168 -20.5215 -96.9672 349.564 -14.8232 -68.0041 322.265 -24.3596 11.9569 105.794 24.7032 
153.667 175.324 169.642 136.438 137.612 146.738 172.211 169.627 88.0989 85.2889 -97.603 366.071 -56.5615 -60.6223 319.171 -130.367 -108.708 297.724 -118.046 -89.9598 360.212 -20.6093 -97.4837 348.491 -14.8805 -68.2331 321.45 -24.3606 11.9778 105.996 24.6156 
153.919 175.484 170.052 136.487 137.552 146.816 172.571 169.512 87.9036 85.1321 -98.4306 365.308 -56.193 -61.5321 318.187 -130.451 -110.125 297.583 -117.888 -90.776 359.297 -20.17 -98.2797 347.538 -14.4801 -68.9098 320.687 -24.1298 11.994 105.678 24.715 
154.479 175.572 170.939 136.604 137.592 147.254 172.598 169.076 87.5016 84.8488 -99.4912 364.378 -56.3828 -63.2833 317.544 -130.639 -112.781 298.042 -117.32 -91.7585 357.985 -19.4762 -99.3338 346.258 -13.923 -69.9031 319.74 -24.0382 12.0093 105.08 25.169 
154.706 175.524 171.586 136.208 137.473 147.41 172.781 168.57 87.5632 84.844 -100.688 363.831 -56.6671 -65.0401 317.202 -130.612 -115.116 298.971 -116.607 -92.9631 357.252 -19.1736 -100.559 345.576 -13.5603 -71.0036 319.17 -23.9265 11.8868 103.679 25.4319 
154.669 175.631 171.69 135.803 137.093 147.255 172.792 168.831 87.5084 84.9353 -101.734 363.697 -56.3748 -66.1363 316.985 -130.757 -116.8 298.962 -116.795 -93.7533 356.901 -19.0512 -101.571 345.386 -13.5185 -72.3066 318.671 -23.8807 11.8902 103.798 25.6906 
154.895 175.597 171.654 135.717 136.98 147.442 172.56 168.431 87.4449 84.9509 -103.046 363.547 -56.6689 -67.7653 316.758 -131.231 -118.922 299.554 -117.025 -94.9764 356.63 -19.3731 -103.005 345.227 -13.806 -74.0246 318.166 -24.1384 11.819 103.383 25.8745 
155.158 175.629 171.741 135.486 136.823 147.745 172.428 168.425 87.4005 85.0133 -104.348 363.946 -56.8418 -69.5603 317.479 -131.403 -120.921 300.664 -117.053 -96.4258 356.738 -19.3775 -104.647 345.451 -13.7492 -75.8861 318.103 -24.1987 11.676 103.068 25.9702 
155.077 175.731 172.06 134.786 136.207 147.685 172.245 169.255 87.2085 85.0482 -104.994 364.734 -56.7147 -70.4042 318.141 -131.184 -122.049 300.478 -117.567 -97.3839 357.091 -19.3168 -105.914 346.092 -13.7021 -77.6946 318.226 -23.9873 11.64 104.009 26.0891 
155.234 175.566 172.05 134.801 136.135 147.733 171.881 169.013 86.9961 84.9078 -106.807 363.932 -57.0581 -72.3064 317.714 -131.494 -124.354 299.479 -117.772 -99.2877 356.189 -19.4364 -107.843 345.266 -13.803 -79.6592 317.384 -24.1194 11.6605 104.105 26.4261 
155.571 175.394 172.232 134.283 135.652 147.847 171.326 168.975 86.5212 84.4751 -107.809 363.57 -57.6803 -73.7084 317.512 -131.466 -125.68 298.984 -118.143 -100.447 355.443 -19.3361 -109.333 344.768 -13.7513 -81.6147 316.755 -24.1223 11.5985 104.726 26.3308 
155.636 175.239 172.408 134.036 135.341 147.781 170.936 169.123 86.5392 84.4901 -109.288 362.828 -58.0349 -75.5186 316.854 -131.348 -127.264 297.655 -118.435 -102.188 354.739 -19.5539 -111.164 344.186 -13.9587 -83.5709 315.908 -24.1122 11.5935 104.951 26.2013 
155.379 175.17 172.857 133.564 134.94 147.283 170.578 170.109 86.6771 84.6092 -112.327 361.479 -58.719 -78.4628 315.449 -131.385 -130.35 294.927 -119.185 -105.749 353.819 -20.5574 -114.984 343.508 -14.8241 -87.6621 314.573 -24.1999 11.4779 105.324 26.3945 
155.729 175.198 173.047 133.707 135.183 147.413 170.208 169.96 86.2787 84.3337 -115.111 360.598 -59.1948 -82.511 315.863 -131.625 -132.915 294.512 -119.227 -108.213 352.755 -20.5456 -117.397 342.481 -14.7128 -89.9368 313.859 -24.6115 11.3859 105.294 25.7273 
155.606 175.035 173.059 133.426 135.137 147.337 169.672 169.648 86.2474 84.4296 -117.342 359.523 -59.559 -85.4483 315.274 -131.178 -134.803 293.167 -118.824 -110.426 352.103 -20.8117 -119.558 341.906 -14.7952 -92.0464 313.289 -24.5382 11.3118 105.217 25.3227 
156.187 174.797 173.868 133.574 135.428 147.859 169.163 169.509 85.9139 84.219 -120.419 358.727 -60.0163 -90.2466 315.572 -131.195 -138.473 293.402 -118.226 -113.206 350.979 -20.258 -122.195 340.816 -14.2409 -94.6131 312.559 -24.7414 11.3441 104.895 24.7859 
156.259 174.476 174.638 133.089 135.422 147.836 169.134 169.747 85.8891 84.1338 -122.168 358.233 -60.7305 -93.1137 313.965 -130.672 -140.528 293.232 -117.577 -115.331 350.867 -20.4757 -124.292 340.902 -14.3167 -96.9795 312.354 -24.3474 11.4128 103.981 23.8811 
156.847 174.596 175.342 132.678 135.296 148.375 169.255 168.945 85.3579 83.7632 -125.082 357.479 -60.9101 -97.3856 313.011 -130.435 -144.356 293.975 -116.246 -117.863 349.832 -19.7447 -126.736 339.977 -13.5576 -99.5415 311.78 -24.1244 11.4824 103.322 23.3926 
156.815 174.644 174.89 132.298 135.182 148.303 169.568 168.684 85.2469 83.7208 -126.863 356.836 -60.723 -99.4262 311.264 -130.08 -146.858 293.132 -115.619 -119.602 349.187 -19.4703 -128.547 339.527 -13.3037 -101.711 311.082 -23.7906 11.5449 103.612 23.5216 
157.099 175.145 174.257 131.865 135.116 148.537 170.371 168.149 84.9153 83.4932 -129.283 356.033 -60.4411 -102.754 309.758 -129.984 -150.968 292.988 -114.479 -121.761 347.987 -18.7291 -130.674 338.47 -12.5997 -104.085 310.079 -23.5804 11.6314 103.607 23.9392 
157.111 175.701 173.788 131.003 134.399 148.493 171.008 168.153 84.5724 83.1665 -131.041 355.918 -60.7805 -104.268 308.824 -129.909 -153.087 291.939 -114.433 -123.861 347.644 -18.7256 -132.877 338.257 -12.5964 -106.326 309.955 -23.4765 11.6065 104.321 24.3543 
157.34 176.05 173.274 130.656 134.043 148.649 171.238 167.948 84.1729 82.9474 -133.46 355.598 -60.4426 -106.931 308.822 -129.893 -155.78 291.572 -113.976 -125.984 346.706 -17.9861 -135.036 337.394 -11.9024 -108.528 309.415 -23.3155 11.5721 104.887 24.5619 
157.285 176.004 172.462 130.098 133.828 148.411 171.712 168.06 83.9172 82.7324 -135.172 355.812 -60.3581 -108.385 307.655 -130.044 -158.27 290.992 -113.864 -127.893 346.711 -17.9616 -137.116 337.612 -11.8824 -110.86 309.399 -23.1251 11.547 105.547 25.1142 
157.25 176.407 172.092 129.824 133.526 148.262 172.168 168.084 83.5754 82.5364 -137.703 355.142 -59.8693 -110.686 306.732 -130.163 -161.031 289.907 -113.582 -130.07 345.721 -17.5679 -139.284 336.678 -11.4991 -113.044 308.67 -22.9736 11.5815 106.063 25.5053 
157.318 176.701 171.663 129.383 133.191 148.309 172.562 168.396 83.2873 82.3977 -140.18 355.205 -59.5339 -113.223 306.605 -130.215 -163.587 289.415 -113.667 -132.382 345.318 -17.3322 -141.64 336.383 -11.2102 -115.444 308.41 -22.9187 11.5093 106.624 25.5644 
157.099 176.829 171.369 129.26 132.951 148.043 172.657 167.684 82.9978 82.2783 -142.969 353.822 -58.9751 -115.402 305.195 -130.202 -165.822 287.838 -113.499 -134.67 343.88 -17.2157 -143.828 334.911 -11.0625 -117.498 307.275 -22.881 11.5574 106.833 25.7068 
157.152 176.964 170.895 129.339 133.075 148.026 172.884 167.668 82.645 81.9441 -145.835 353.2 -58.6413 -118.276 304.593 -130.34 -168.259 286.973 -113.464 -137.108 342.962 -17.042 -146.256 333.944 -10.7689 -119.797 306.635 -22.9162 11.4358 107.125 25.5225 
156.782 176.901 170.733 129.411 133.044 147.68 172.757 167.272 82.4587 81.7299 -148.651 351.536 -58.2246 -119.872 302.627 -130.109 -169.79 284.354 -113.121 -139.564 341.696 -17.0694 -148.52 332.473 -10.6996 -121.595 305.731 -22.6735 11.4712 107.352 25.6843 
156.88 176.95 171.096 129.695 133.353 147.692 172.682 167.662 82.2073 81.5012 -151.334 350.564 -57.8508 -122.668 301.881 -130.023 -172.389 283.373 -112.66 -141.907 340.607 -16.6649 -150.78 331.311 -10.188 -123.722 304.901 -22.4396 11.4218 107.315 25.694 
156.513 176.811 171.174 129.5 133.205 147.27 172.541 167.525 82.0106 81.195 -153.04 349.554 -57.8774 -123.489 299.89 -129.877 -173.742 281.53 -112.709 -143.786 339.881 -16.9222 -152.67 330.591 -10.4119 -125.556 304.258 -22.2672 11.4641 107.642 25.9492 
156.393 176.863 171.087 129.937 133.479 147.126 172.576 166.86 81.7754 80.9888 -155.338 347.992 -57.2682 -125.754 298.305 -129.589 -175.431 280.302 -112.378 -145.761 338.382 -16.6229 -154.536 328.959 -10.0401 -127.231 303.008 -21.9792 11.4568 107.371 25.5307 
156.212 177.074 170.642 129.858 133.588 146.903 172.993 167.25 81.6827 80.8919 -157.023 347.484 -57.0659 -127.118 297.078 -129.42 -176.618 279.176 -112.5 -147.663 338.012 -16.9465 -156.456 328.6 -10.19 -128.989 302.563 -21.8137 11.3276 107.384 25.318 
155.987 176.956 170.757 130.106 133.733 146.474 173.013 167.568 81.5284 80.5665 -157.777 346.331 -57.0198 -127.769 294.823 -129.472 -177.81 277.188 -112.936 -149.008 336.85 -17.1345 -157.874 327.423 -10.4077 -130.481 301.24 -21.7059 11.3928 107.863 25.4319 
156.064 176.935 171.205 130.196 133.935 146.322 173.311 168.281 81.4396 80.3621 -158.733 345.747 -57.0733 -129.655 293.245 -129.546 -179.644 276.613 -113.184 -150.367 336.257 -17.2449 -159.363 326.943 -10.4809 -132.263 300.333 -21.6321 11.376 107.936 25.0573 
156.081 177.004 171.668 130.129 133.866 146.114 173.505 168.697 81.3082 80.1255 -159.289 344.737 -57.1097 -130.296 291.309 -129.695 -181.113 275.107 -113.423 -151.507 335.037 -17.199 -160.595 325.809 -10.5168 -133.719 298.928 -21.5223 11.475 108.358 25.4119 
