156.001 175.326 174.065 129.259 131.389 146.791 170.651 165.244 78.7754 78.1987 -238.149 387.645 -52.0036 -220.877 338.251 -126.277 -271.126 331.027 -108.809 -229.938 375.242 -13.4866 -241.205 368.232 -7.53556 -217.669 337.876 -18.3976 12.4352 102.633 23.7293 
156.083 175.076 173.576 129.286 131.17 146.875 170.475 164.858 78.9434 78.3054 -237.861 386.129 -52.9793 -220.776 336.833 -126.537 -270.674 329.826 -109.341 -230.256 373.907 -14.3578 -241.582 366.781 -8.45903 -217.678 336.398 -18.8211 12.4841 101.723 23.4112 
156.09 174.784 173.499 129.349 131.236 146.951 170.352 164.725 79.0077 78.3158 -238.144 384.704 -53.58 -221.042 335.13 -126.832 -270.605 327.963 -109.913 -230.766 372.52 -14.9031 -242.039 365.28 -8.97569 -217.859 335.005 -19.2464 12.4702 101.611 23.1668 
156.025 174.6 173.129 129.39 131.306 146.89 170.328 164.712 78.8741 78.1958 -238.608 383.653 -53.7704 -221.298 333.395 -127.114 -270.539 326.189 -110.519 -231.223 371.409 -15.2851 -242.466 364.162 -9.24449 -218.204 333.946 -19.5032 12.3816 101.859 22.8916 
155.851 174.454 173.025 129.252 131.307 146.688 170.304 164.665 78.8279 78.2037 -239.539 382.247 -53.7881 -221.494 331.47 -127.48 -270.568 324.255 -111.055 -231.898 370.188 -15.8604 -243.001 362.876 -9.66209 -218.548 332.764 -19.8143 12.3132 101.77 22.7617 
155.879 174.25 173.103 129.047 131.159 146.758 170.321 164.484 78.739 78.0829 -240.45 380.527 -53.8772 -221.169 329.151 -127.88 -270.875 322.052 -111.107 -232.621 368.53 -16.3309 -243.626 361.037 -10.0109 -218.713 331.272 -20.0673 12.2866 101.516 23.3225 
155.818 174.216 173.246 129.08 131.247 146.649 170.724 164.547 78.6631 77.9403 -241.113 378.938 -53.8445 -220.793 326.8 -128.322 -271.379 319.953 -111.1 -233.119 366.846 -16.4664 -244.072 359.224 -10.1555 -218.859 329.754 -20.2965 12.3148 101.706 24.0473 
155.793 174.478 173.399 129.136 131.319 146.598 170.885 164.794 78.6541 77.9751 -241.653 377.562 -53.8172 -220.741 325.506 -128.492 -271.577 318.159 -111.388 -233.351 365.403 -16.5345 -244.322 357.778 -10.2508 -219.049 328.404 -20.4964 12.313 102.058 24.2386 
155.699 174.607 173.489 129.096 131.37 146.443 170.946 165.212 78.664 78.0629 -242.15 375.943 -53.7415 -220.911 323.965 -128.561 -271.403 315.822 -111.912 -233.541 363.884 -16.7181 -244.505 356.27 -10.3992 -219.151 326.934 -20.6391 12.2724 102.457 23.9262 
155.732 174.768 173.325 129.215 131.643 146.406 171.194 165.503 78.5021 78.0358 -243.72 373.297 -53.927 -221.816 321.167 -128.963 -272.253 312.511 -112.257 -234.515 361.253 -16.8884 -245.461 353.674 -10.5147 -220.003 324.589 -20.9687 12.1675 103.014 23.9351 
155.79 175.08 172.908 129.293 131.904 146.117 171.885 165.569 78.6919 78.1577 -244.488 371.966 -54.2327 -222.099 319.697 -129.296 -272.691 310.96 -112.229 -235.127 359.984 -17.0069 -246.01 352.236 -10.6803 -220.279 323.455 -21.0946 12.1545 102.866 24.0562 
155.847 175.494 173.042 129.387 132.128 146.203 171.991 165.505 78.5905 78.1174 -245.078 370.239 -54.5883 -222.599 318.4 -129.431 -273.381 309.082 -112.014 -235.437 358.275 -16.785 -246.269 350.526 -10.5239 -220.565 322.036 -21.2026 12.2145 103.299 24.3163 
155.899 175.899 173.273 129.522 132.294 146.278 171.941 165.82 78.5161 78.1369 -245.329 368.981 -55.0539 -223.128 317.758 -129.468 -273.708 307.47 -112.208 -235.6 357.108 -16.7358 -246.476 349.473 -10.5157 -220.953 320.994 -21.3046 12.2044 103.902 24.1991 
155.989 176.227 173.392 129.84 132.738 146.271 171.647 166.135 78.4647 78.2177 -245.477 367.853 -55.3572 -224.192 317.855 -129.483 -274.012 306.66 -112.715 -235.313 355.945 -16.6063 -246.303 348.562 -10.3955 -221.431 319.852 -21.4988 12.086 104.558 23.6116 
155.815 176.59 173.58 130.105 133.073 146.019 171.727 166.648 78.5548 78.3987 -245.979 367.268 -55.162 -225.564 318.096 -129.593 -274.82 306.507 -113.102 -235.362 355.235 -16.5483 -246.424 348.043 -10.3077 -222.142 319.009 -21.7753 11.9429 105.03 23.1954 
155.834 176.795 173.398 130.189 133.228 145.992 171.77 166.835 78.4636 78.3016 -246.532 366.592 -55.3263 -226.427 317.694 -129.697 -275.271 305.511 -113.444 -235.754 354.394 -16.4105 -246.929 347.299 -10.1822 -222.858 318.265 -21.921 11.8267 105.772 22.9387 
155.796 176.998 173.066 130.434 133.415 145.854 172.139 167.252 78.3327 78.1426 -246.92 366.255 -55.3912 -227.178 317.236 -129.829 -275.697 304.349 -113.855 -236.177 353.801 -16.1129 -247.479 346.807 -9.94704 -223.634 317.758 -21.9544 11.7538 106.92 22.7224 
155.821 177.193 172.924 130.742 133.594 145.842 172.442 167.791 78.2991 77.9863 -247.19 366.092 -55.68 -228.019 317.086 -130.029 -276.144 303.5 -114.474 -236.613 353.462 -15.9816 -248.073 346.541 -9.85903 -224.496 317.386 -22.0676 11.6679 107.895 22.4278 
155.786 177.351 172.956 131.182 134.017 145.739 172.399 168.155 78.3081 77.9316 -247.474 365.735 -55.8304 -229.217 317.223 -130.002 -276.694 303.087 -114.958 -236.798 353.031 -15.7691 -248.371 346.262 -9.64998 -225.375 316.899 -22.1298 11.5565 108.682 21.9575 
155.562 177.346 173.305 131.738 134.54 145.462 172.391 168.867 78.3874 77.9035 -247.848 365.558 -55.5888 -230.533 317.542 -130.008 -277.533 302.912 -115.394 -236.993 352.688 -15.5713 -248.666 346.033 -9.44127 -226.234 316.408 -22.2478 11.4439 109.386 21.6266 
155.335 177.389 173.631 132.161 135.024 145.172 172.516 169.566 78.5006 77.9016 -248.295 365.6 -55.1779 -231.681 317.618 -130.208 -279.102 302.911 -115.48 -237.256 352.384 -15.349 -249.065 345.848 -9.20247 -227.189 315.946 -22.4189 11.3138 110.175 21.9138 
155.092 177.297 173.66 132.454 135.263 144.964 172.578 170.061 78.4543 77.726 -248.9 365.781 -54.8097 -232.484 317.081 -130.613 -280.769 302.478 -115.48 -237.935 352.247 -15.3773 -249.9 345.796 -9.20352 -228.278 315.639 -22.5782 11.2327 110.936 22.5058 
154.974 177.309 173.839 132.866 135.481 144.866 172.651 170.259 78.4476 77.7348 -249.557 365.283 -54.6831 -233.328 316.173 -130.868 -282.078 301.633 -115.436 -238.62 351.715 -15.3667 -250.617 345.33 -9.15963 -229.233 315.018 -22.6311 11.2118 111.411 22.8269 
154.74 177.129 174.236 133.06 135.564 144.704 172.883 170.686 78.5521 77.7801 -250.388 364.597 -54.3502 -234.127 315.048 -131.184 -283.61 300.695 -115.282 -239.292 351.2 -15.5167 -251.249 344.824 -9.21151 -230.111 314.28 -22.6844 11.193 111.612 23.307 
154.625 177.148 174.342 133.175 135.86 144.436 173.283 171.148 78.5787 77.5885 -251.122 364.04 -53.9525 -234.925 314.228 -131.311 -284.646 300.204 -115.332 -240.058 350.779 -15.675 -252.022 344.343 -9.25189 -231.034 313.601 -22.5427 11.1286 111.378 23.3093 
154.528 177.112 174.562 133.407 135.991 144.166 173.486 171.451 78.5261 77.4333 -251.975 363.277 -53.4217 -235.546 313.114 -131.442 -285.679 299.283 -115.275 -240.8 350.06 -15.7697 -252.786 343.57 -9.26577 -231.81 312.761 -22.5303 11.0803 111.467 23.5531 
154.578 177.06 174.926 133.771 136.099 144.155 173.796 171.968 78.6766 77.4298 -252.571 362.871 -52.6328 -236.275 312.359 -131.446 -287.326 298.334 -114.611 -241.586 349.489 -15.3918 -253.605 342.845 -8.84743 -232.48 311.968 -22.3551 11.0429 111.895 24.3204 
154.511 176.864 175.285 134.297 136.269 144.114 173.714 172.216 78.7374 77.4209 -253.142 362.104 -52.1448 -236.65 311.398 -131.435 -288.286 297.17 -114.361 -242.507 348.797 -15.3741 -254.538 342.018 -8.77282 -233.189 311.051 -22.2181 11.0374 111.915 24.8067 
154.475 176.683 175.784 134.557 136.285 144.167 173.544 172.309 78.894 77.5748 -253.939 360.792 -51.7057 -237.016 310.322 -131.397 -289 295.855 -114.107 -243.574 347.787 -15.5276 -255.45 340.789 -8.81151 -233.69 309.775 -22.1349 11.0544 111.34 25.1581 
154.313 176.332 176.099 134.948 136.369 144.06 173.615 172.526 78.8356 77.313 -254.761 359.9 -51.0379 -237.537 308.849 -131.223 -289.736 294.608 -113.867 -244.881 347.027 -15.8534 -256.772 339.726 -9.00657 -234.322 308.752 -22.0019 11.0417 110.728 25.3219 
154.272 175.934 176.2 135.137 136.508 143.886 173.896 172.884 78.8398 77.0776 -255.589 359.287 -50.1134 -238.043 307.289 -131.063 -290.724 293.162 -113.425 -246.071 346.354 -15.7359 -257.979 338.768 -8.7775 -234.948 307.869 -21.7391 10.9844 110.744 25.6842 
154.185 175.708 176.088 135.158 136.415 143.683 173.93 173.005 78.9514 77.1686 -256.262 358.083 -49.331 -238.114 305.574 -131.009 -291.201 291.135 -113.292 -247.07 345.324 -15.8241 -258.861 337.522 -8.73519 -235.318 306.595 -21.5706 10.9613 110.631 26.023 
154.206 175.262 176.138 135.009 135.923 143.637 173.526 172.838 79.0876 77.3071 -257.056 356.35 -48.4542 -237.916 303.54 -130.97 -291.373 289.169 -113.116 -248.176 343.888 -16.1864 -259.8 335.794 -8.87643 -235.435 304.847 -21.3766 10.9333 109.522 26.2939 
154.336 174.89 176.082 134.825 133.83 143.967 173.04 172.14 79.0122 76.6348 -258.062 354.949 -47.6887 -238.179 301.958 -130.8 -291.426 288.072 -113.179 -249.74 342.561 -17.1424 -261.844 333.8 -9.87911 -235.708 303.209 -21.1601 11.2798 107.113 26.0423 
154.233 174.553 175.832 134.226 132.173 143.906 172.712 171.445 79.1411 75.9802 -259.153 353.619 -46.8722 -238.388 300.341 -130.533 -291.744 287.117 -113.036 -251.656 341.583 -18.2538 -263.994 332.037 -10.9096 -236.177 301.878 -20.9633 11.5952 104.666 26.0392 
154.137 174.234 175.392 133.148 129.985 143.92 172.312 170.67 79.8419 75.7046 -260.226 352.103 -46.2622 -238.278 298.753 -130.198 -291.5 285.609 -113.104 -253.794 340.645 -19.4264 -266.306 330.101 -11.9048 -236.629 300.477 -20.6959 11.8007 102.187 25.9221 
154.014 173.962 174.43 132.651 128.636 144.043 171.554 169.454 81.017 75.5658 -260.823 350.067 -45.8528 -237.57 296.904 -129.908 -290.366 283.76 -113.538 -255.353 339.482 -21.1267 -268.273 327.684 -13.3029 -236.675 298.652 -20.439 12.0799 99.2079 25.5497 
154.184 173.764 173.46 132.269 123.11 144.489 170.928 168.4 83.2311 77.7777 -261.289 348.041 -45.811 -237.275 295.498 -129.746 -289.356 282.213 -113.931 -257.811 338.637 -23.8675 -272.225 325.401 -16.139 -236.652 296.743 -20.0725 13.6581 94.3073 24.8939 
154.249 173.271 172.957 131.685 115.141 144.927 170.538 168.034 85.1557 79.6788 -261.631 347.062 -45.3943 -237.629 294.1 -129.297 -289.586 280.86 -113.498 -260.343 338.04 -25.5698 -276.527 322.652 -18.8083 -236.936 295.407 -19.7065 17.3041 91.1391 24.8587 
154.297 173.07 172.647 131.1 108.141 145.249 170.318 167.984 87.108 87.0335 -262.785 345.923 -44.8263 -238.027 292.913 -128.634 -290.084 278.956 -112.825 -263.034 337.497 -26.7259 -281.813 320.925 -21.5249 -237.557 294.376 -19.1865 21.7692 88.9999 25.1508 
153.879 173.223 171.878 129.798 111.328 145.073 169.797 167.377 89.2659 95.7986 -263.616 343.699 -44.4257 -238.06 291.638 -128.017 -289.374 276.962 -112.812 -265.633 336.168 -29.3565 -285.533 319.899 -24.375 -237.85 292.943 -18.7705 22.7745 85.3116 24.7452 
153.766 173.304 172.335 130.077 128.221 144.763 169.132 166.974 92.1552 101.823 -264.169 341.19 -43.9454 -238.67 290.651 -127.557 -289.625 275.934 -112.295 -267.576 335.021 -30.784 -286.434 320.834 -25.1021 -238.011 291.097 -18.4433 19.8333 82.3475 24.5541 
153.831 173.089 172.404 132.142 139.605 144.771 169.079 166.951 93.7946 100.61 -264.493 339.604 -43.6241 -239.593 289.365 -127.279 -291.022 274.752 -111.236 -269.5 333.996 -31 -286.302 320.62 -23.6467 -238.348 289.636 -18.079 16.595 80.838 24.9698 
153.747 173.052 172.162 131.566 134.616 144.915 168.811 167.03 95.2013 98.6486 -264.758 338.08 -43.3954 -240.206 288.395 -126.91 -291.856 273.13 -110.58 -271.553 332.562 -32.4061 -286.622 318.538 -23.0422 -238.886 288.195 -17.7074 14.5001 78.667 25.3058 
153.61 172.6 172.09 131.8 131.801 144.62 168.763 167.761 96.648 96.3845 -265.499 336.675 -42.8058 -240.277 286.735 -126.455 -292.132 270.805 -110.293 -273.157 331.698 -33.8743 -286.746 317.29 -22.3119 -239.625 287.175 -17.2293 12.1476 77.5071 25.5295 
153.49 171.933 171.797 133.356 126.965 144.083 168.541 168.323 98.5162 95.6599 -266.737 335.225 -41.7537 -240.857 285.296 -126.133 -292.565 268.58 -110.456 -274.992 331.091 -35.4045 -288.348 315.31 -22.5467 -240.416 286.175 -16.8861 11.9313 76.3954 25.4253 
153.31 171.399 171.769 136.206 121.873 143.614 168.47 168.826 96.5823 92.7029 -267.163 334.281 -40.6149 -241.803 284.265 -125.865 -294.023 267.088 -109.757 -274.988 330.116 -33.1785 -288.9 313.063 -21.3434 -241.024 284.946 -16.4987 13.8779 78.4734 25.8978 
153.285 171.458 171.849 137.223 124.13 143.525 168.635 169.259 96.9232 89.2992 -268.119 333.08 -40.1501 -242.244 283.435 -125.821 -295.375 265.345 -108.924 -276.217 329.22 -32.2236 -287.414 312.719 -18.9707 -241.856 283.799 -16.2218 10.4809 79.2413 26.8535 
153.534 171.504 171.485 135.561 123.673 143.066 168.872 169.15 95.7815 89.5939 -268.985 331.299 -39.423 -242.186 281.986 -125.738 -295.895 264.027 -108.746 -276.65 327.005 -32.8622 -287.965 311.464 -19.2326 -242.325 282.444 -15.7462 10.0838 77.9958 27.0153 
153.7 170.956 171.453 136.046 121.434 143.033 168.723 169.232 96.1334 88.9083 -269.827 329.756 -38.6199 -242.575 280.722 -125.594 -296.276 262.544 -109.004 -276.799 325.914 -33.251 -289.248 309.407 -19.5709 -242.788 281.108 -15.4102 11.3011 77.6981 26.7975 
153.617 170.698 171.373 133.35 116.546 143.418 168.635 169.594 94.5669 91.5957 -270.385 328.676 -38.317 -243.208 280.085 -125.405 -297.134 260.906 -108.551 -277.455 324.12 -31.5239 -291.958 307.228 -20.4034 -243.424 279.92 -15.0065 15.4268 78.9052 27.1706 
153.999 170.934 171.477 134.448 125.721 143.844 168.764 169.599 95.7789 95.0918 -271.029 327.143 -38.178 -243.446 279.296 -125.08 -297.887 259.7 -107.887 -278.339 323.079 -31.3282 -291.932 308.132 -19.7134 -243.925 278.578 -14.5081 12.8683 78.4543 27.6244 
154.212 171.144 171.476 130.191 141.713 143.981 168.852 169.491 94.349 101.054 -271.508 325.074 -37.6525 -243.206 277.799 -124.8 -298.002 258.462 -107.585 -279.435 319.693 -32.5703 -294.402 308.098 -21.3199 -244.116 276.923 -14.047 12.513 75.7739 27.7259 
154.055 171.564 171.594 131.439 157.592 143.73 169.221 169.49 98.0126 106.81 -273.008 323.179 -36.9931 -243.944 276.549 -124.604 -298.332 257.085 -107.552 -281.643 319.005 -34.78 -296.853 308.171 -22.9687 -244.837 275.858 -13.7207 11.6376 73.2845 27.3905 
154.165 172.538 172.181 134.509 159.885 144.236 169.76 169.969 97.7708 100.918 -273.719 321.853 -37.683 -244.727 276.144 -124.417 -298.946 255.507 -106.939 -280.881 318.926 -31.9077 -292.724 308.785 -18.4871 -245.455 274.718 -13.4974 7.52473 76.6188 27.6697 
154.284 172.861 172.544 139.924 158.049 144.587 169.919 169.983 100.372 101.551 -274.017 320.277 -37.926 -244.906 275.41 -124.279 -299.827 254.697 -106.332 -281.287 318.715 -31.9884 -291.053 308.565 -16.8599 -245.785 273.292 -13.2254 5.12491 76.1842 28.1835 
154.182 172.668 172.65 150.412 179.687 144.471 170.084 169.973 101.786 106.297 -273.954 318.869 -37.9891 -244.227 273.712 -124.056 -299.819 253.871 -106.219 -281.463 318.451 -33.3374 -292.591 308.67 -19.0553 -246.045 272.196 -12.9159 6.10286 75.0246 28.336 
154.034 172.567 172.7 177.786 174.27 144.153 170.228 169.869 105.878 107.274 -273.992 317.414 -37.734 -243.577 271.963 -123.804 -299.207 252.759 -106.359 -283.029 318.507 -36.9264 -293.279 307.797 -19.7804 -246.159 271.194 -12.6252 3.91226 71.9636 28.1069 
153.629 172.491 172.51 174.27 174.27 143.681 170.141 169.467 105.884 108.433 -274.196 316.057 -37.1426 -243.601 270.634 -123.308 -298.874 251.905 -106.218 -283.18 317.107 -38.0747 -293.694 306.925 -20.4084 -246.359 270.266 -12.2413 3.5036 70.6685 27.7331 
153.415 172.983 172.919 174.27 174.27 143.673 170.024 168.992 105.557 106.613 -274.289 314.982 -37.3102 -244.291 270.458 -122.781 -298.915 251.626 -105.716 -282.296 316.841 -36.0282 -291.49 306.659 -18.5053 -246.589 269.259 -12.0591 3.1823 72.2708 27.4943 
153.574 173.578 173.407 174.27 174.27 144.213 169.974 168.986 101.692 101.807 -273.774 314.428 -38.3639 -244.902 270.422 -122.347 -299.76 250.939 -104.33 -279.9 315.887 -31.0203 -287.835 306.04 -14.1077 -246.747 268.106 -11.944 3.82935 76.7421 28.1971 
153.327 173.707 173.818 174.27 169.12 144.13 169.624 168.463 100.304 97.874 -273.404 313.57 -38.808 -244.85 269.947 -121.902 -299.651 250.769 -103.862 -278.275 314.888 -29.4691 -284.159 304.762 -11.5987 -246.855 267.107 -11.8762 5.67109 78.1197 28.2812 
152.979 173.443 173.646 174.27 156.929 143.87 169.248 167.461 98.6845 94.8167 -273.106 312.368 -38.887 -244.311 268.915 -121.338 -298.888 250.77 -103.796 -277.543 313.29 -29.465 -282.909 302.62 -11.1318 -246.85 266.164 -11.6596 6.54577 77.4882 27.9322 
152.644 172.812 173.15 174.27 146.557 143.405 168.97 166.707 95.865 91.7231 -272.625 311.167 -38.8921 -243.52 267.088 -120.925 -297.885 250.218 -103.955 -276.446 311.475 -29.0658 -282.194 300.286 -11.4899 -246.867 265.276 -11.4243 6.89615 77.6928 27.4775 
152.331 172.348 172.905 174.27 140.52 142.944 168.833 166.413 93.7342 89.972 -272.285 309.697 -38.9701 -242.688 264.902 -120.635 -296.887 248.525 -104.053 -275.802 309.388 -29.0845 -281.416 298.322 -11.5981 -246.763 264.187 -11.2097 7.50668 77.9004 27.2168 
152.255 172.585 173.012 174.27 137.389 143.018 168.707 166.367 94.0188 86.944 -271.79 308.581 -39.6477 -242.069 263.181 -120.376 -296.407 246.503 -103.557 -274.69 308.694 -27.5497 -279.575 296.344 -9.6887 -246.639 263 -11.0568 8.69823 80.1487 27.5011 
152.438 173.403 173.698 154.365 137.819 142.924 169.072 167.142 88.0511 83.4233 -271.411 307.508 -40.0701 -242.245 262.446 -119.965 -296.36 245.062 -102.899 -270.14 305.292 -21.2037 -276.779 294.211 -6.80984 -246.454 261.639 -10.7421 8.94862 87.1127 27.534 
152.449 173.956 174.491 141.207 136.591 143.114 169.233 167.415 86.6257 83.3459 -271.535 306.722 -39.8886 -243.136 262.413 -119.69 -297.04 244.866 -102.488 -268.713 303.126 -18.4233 -275.958 293.046 -5.48113 -246.546 260.469 -10.6205 9.09354 89.5742 27.4902 
152.508 173.84 174.328 134.975 127.915 143.074 169.503 167.297 81.3606 81.0944 -271.548 304.72 -39.4921 -243.032 260.398 -119.595 -296.724 244.045 -102.953 -268.062 298.412 -17.2851 -276.819 289.818 -6.08516 -246.592 258.45 -10.652 9.27021 90.2589 27.0153 
152.367 173.83 174.245 131.379 128.778 142.741 169.756 167.395 80.9586 84.6472 -271.54 303.719 -39.0125 -242.501 259.157 -119.652 -296.092 243.543 -103.486 -268.567 297.306 -18.5403 -277.507 290.46 -7.73777 -246.432 257.742 -10.6671 9.26229 88.6416 26.6738 
152.18 173.861 174.287 129.439 131.679 142.615 169.874 167.411 81.5743 86.8694 -271.151 302.769 -39.2463 -241.603 257.708 -119.677 -295.114 242.411 -103.95 -268.811 296.659 -19.9043 -277.475 290.707 -8.81757 -246.258 257.022 -10.6982 9.03307 87.4504 26.4729 
152.151 173.854 174.218 128.399 133.157 142.72 169.932 167.521 82.1473 88.2336 -270.654 301.511 -39.5176 -240.643 256.27 -119.685 -293.914 240.647 -104.49 -269.449 295.472 -21.615 -277.376 289.967 -9.73003 -245.822 255.962 -10.6883 8.87202 85.6594 26.2529 
152.196 174.07 174.278 126.855 134.303 142.888 170.06 167.775 84.0625 88.8882 -269.807 300.677 -40.0835 -239.752 255.128 -119.641 -292.714 239.051 -104.803 -269.776 295.061 -22.9926 -276.716 289.322 -9.84102 -245.245 255.124 -10.7076 8.88705 84.5092 26.0735 
152.397 174.42 174.554 127.478 134.475 143.231 170.078 167.766 86.3145 88.415 -268.842 299.866 -41.0556 -238.828 254.293 -119.514 -291.427 237.763 -105.087 -269.678 295.064 -23.7932 -275.713 288.285 -9.56134 -244.786 254.329 -10.738 9.4824 84.114 25.8824 
152.436 174.764 174.947 128.296 134.026 143.348 170.094 167.768 87.2553 87.1858 -267.793 299.21 -42.0291 -238.016 253.557 -119.31 -290.225 236.838 -105.328 -268.577 294.972 -23.6026 -274.517 287.289 -9.08558 -244.494 253.688 -10.756 9.89415 85.0794 25.6188 
152.516 174.982 175.365 128.871 133.284 143.471 170.057 167.703 86.8552 85.5261 -267.059 298.5 -42.8345 -237.449 252.945 -119.157 -289.24 236.266 -105.611 -266.916 294.414 -22.4446 -273.378 286.078 -8.46538 -244.3 253.054 -10.7806 9.98752 86.9193 25.2653 
152.529 175.143 175.54 129.091 132.692 143.44 170.027 167.596 86.2097 84.513 -266.629 297.727 -43.3067 -237.198 252.403 -118.99 -288.352 235.909 -106.045 -265.679 293.691 -21.5198 -272.736 285.108 -8.28727 -244.199 252.429 -10.8313 9.96193 88.2546 24.7091 
152.659 175.29 175.661 129.204 133.094 143.422 170.059 167.724 85.4786 83.8397 -266.533 297.163 -43.4275 -237.537 252.3 -118.923 -287.995 235.707 -106.442 -264.41 292.943 -20.0405 -272.085 284.278 -7.73047 -244.159 251.832 -10.8739 9.91652 90.0676 24.1654 
152.796 175.235 175.584 129.8 133.761 143.355 169.871 167.628 83.7634 83.5386 -266.474 296.574 -43.428 -238.03 252.395 -118.823 -287.555 235.635 -106.873 -263.013 291.703 -18.3784 -271.532 283.626 -7.33272 -244.15 251.201 -10.9509 9.84957 92.0807 23.5158 
152.826 175.072 175.298 130.285 133.788 143.354 169.624 167.378 82.704 83.9109 -266.884 295.891 -43.093 -238.918 252.6 -118.653 -287.412 235.584 -107.211 -262.919 290.582 -17.8139 -271.932 283.04 -7.53015 -244.227 250.496 -11.0213 9.81367 92.3642 22.8658 
152.746 174.865 175.269 129.666 135.813 143.207 169.13 166.924 82.0652 84.1641 -267.183 295.188 -42.6254 -239.837 252.555 -118.44 -287.942 235.441 -106.841 -262.636 289.356 -17.0678 -271.349 282.345 -6.75546 -244.274 249.629 -11.0425 9.94124 92.8322 22.7548 
152.617 174.65 175.178 128.932 137.83 143.048 168.571 166.273 82.1875 84.6039 -267.664 294.168 -41.9834 -240.646 252.142 -118.076 -288.519 234.667 -106.053 -263.248 288.165 -17.0682 -271.03 281.344 -5.98553 -244.181 248.6 -10.9552 10.119 92.1536 22.9013 
152.394 174.609 174.964 130.393 139.068 143.112 167.996 165.537 82.0609 84.3822 -267.806 293.606 -41.844 -241.254 251.728 -117.669 -289.349 233.824 -104.867 -263.372 287.199 -16.2089 -270.858 280.265 -5.03611 -244.265 247.79 -10.8359 10.2557 92.8555 23.4636 
151.959 174.384 174.557 131.64 139.021 142.833 167.63 164.95 82.1018 84.095 -267.993 293.12 -41.6077 -241.829 251.016 -117.469 -290.351 233.177 -103.982 -264.056 286.575 -16.1553 -271.105 279.365 -4.86691 -244.514 247.139 -10.8405 10.6079 92.7384 23.9685 
151.605 173.98 174.05 133.306 138.51 142.474 167.359 164.039 82.3517 83.7898 -268.396 292.342 -41.5479 -242.419 249.686 -117.286 -290.982 232.425 -103.437 -265.365 286.118 -16.756 -271.958 278.441 -5.28858 -244.871 246.583 -10.8512 10.9694 91.7896 23.9979 
151.177 173.265 173.756 135.578 138.717 141.775 167.102 163.064 83.2857 83.6761 -268.998 291.339 -41.3293 -242.847 247.756 -117.237 -291.47 231.373 -103.019 -266.652 285.986 -17.7466 -272.755 277.65 -5.71453 -245.201 245.97 -10.9599 11.1468 90.7085 23.958 
150.744 172.54 173.358 137.969 138.608 140.961 167.002 162.659 84.1869 83.3789 -269.675 290.437 -40.9111 -243.178 245.6 -117.452 -292.114 229.965 -102.742 -267.774 285.809 -18.5925 -273.379 276.732 -6.13986 -245.382 245.33 -11.1639 11.3947 90.0896 24.1137 
150.578 172.47 173.236 138.631 138.201 140.472 167.041 162.65 83.7318 82.6229 -270.207 289.757 -40.7361 -243.531 243.357 -117.656 -293.002 228.213 -102.153 -267.67 284.888 -17.68 -273.726 275.575 -5.73559 -245.575 244.646 -11.237 11.1082 91.7902 24.5474 
150.575 172.941 173.622 138.851 137.725 140.183 167.554 163.132 82.6542 81.8112 -270.308 289.112 -40.6062 -243.568 241.357 -118.05 -293.954 226.678 -101.596 -266.631 283.603 -16.0528 -273.598 274.344 -5.15011 -245.462 243.86 -11.3083 10.7718 94.3077 25.2446 
150.722 173.905 174.431 138.57 137.607 140.268 168.548 164.157 80.6047 80.4791 -270.209 288.478 -41.1039 -243.495 239.499 -118.592 -294.836 224.799 -101.202 -264.712 281.46 -13.5651 -273.101 272.714 -3.96376 -245.418 242.938 -11.4092 10.4355 98.398 26.0261 
