148.489 179.923 175.176 155.017 155.034 135.765 175.661 178.313 76.8494 79.696 -13.6668 435.305 50.9443 -35.4755 441.056 -56.1201 -5.0522 431.026 -59.5184 -20.1795 453.446 59.0176 -5.68521 456.096 58.076 -16.7104 489.046 35.724 13.3812 109.446 6.62434 
151.071 175.778 173.621 146.133 145.917 137.185 173.848 177.617 75.9515 80.6949 -10.5795 434.805 53.8448 -37.1186 433.633 -47.9829 -6.62249 429.174 -56.9006 -15.7691 455.77 58.5124 -1.69653 459.915 57.0985 -18.8998 491.233 35.8037 12.83 106.133 5.96665 
149.744 171.758 173.535 143.31 144.8 137.852 174.087 177.192 76.8428 81.0238 -11.215 435.07 56.3481 -38.2211 429.457 -46.0338 -7.2892 425.637 -54.7109 -14.3969 457.748 59.0894 -0.960521 462.781 56.7826 -20.7592 491.998 34.7779 12.8599 105.572 6.07465 
148.409 167.856 174.565 145.588 145.536 139.454 169.134 176.822 80.1017 82.6359 -15.8761 434.98 54.3518 -45.2902 427.401 -44.7551 -9.12242 426.017 -56.9578 -17.6574 459.319 60.9899 -3.51771 463.344 58.2189 -21.7503 492.792 33.653 12.2808 108.653 10.9522 
149.934 176.114 174.768 143.298 143.112 140.554 179.025 175.36 80.8142 83.1882 -15.4623 433.044 54.2262 -44.5163 428.836 -49.6519 -8.79036 425.337 -57.3772 -16.6589 459.721 61.1158 -2.92746 463.749 57.2858 -23.0202 492.43 33.2876 13.0449 108.944 9.45875 
149.601 174.427 174.439 144.263 143.182 137.934 178.019 174.322 81.6895 83.5532 -18.2847 434.711 54.7903 -49.2807 427.624 -49.9498 -10.9681 424.667 -56.7384 -20.4718 459.631 61.8264 -6.30974 462.796 58.4124 -24.3208 492.494 32.8726 12.6638 109.403 11.431 
148.401 174.321 173.919 145.112 143.47 137.511 177.979 173.357 81.0004 84.284 -20.7427 435.912 54.3668 -54.184 429.353 -49.5083 -12.4782 425.609 -56.6477 -21.4592 460.068 61.2619 -7.91887 462.485 58.1332 -26.0289 493.134 32.4633 13.0185 109.612 13.9084 
148.952 175.698 174.251 142.182 142.282 138.534 178.876 173.475 80.68 84.7121 -19.4015 435.842 54.9622 -56.3018 429.489 -48.2555 -13.2771 426.143 -57.5508 -19.9699 460.673 60.4286 -7.51321 463.698 57.0428 -27.8663 493.652 32.1596 13.5586 109.296 14.8263 
149.245 175.015 173.488 143.807 142.806 137.716 177.663 172.473 81.9961 85.5986 -18.6049 438.982 53.8242 -59.2024 432.394 -47.2006 -14.3042 429.265 -58.3463 -21.0827 462.872 60.5443 -8.67856 465.657 56.3123 -29.6157 496.322 31.8479 14.0819 109.071 16.2841 
149.687 174.428 173.315 145.937 142.662 138.273 174.167 172.399 82.432 85.6466 -20.5676 439.763 52.739 -59.904 434.096 -47.459 -16.4327 429.554 -58.9283 -22.1693 462.603 60.4482 -10.0745 465.743 56.0578 -31.2916 496.903 31.7257 14.083 108.46 15.1664 
150.515 174.27 172.834 147.729 142.734 139.678 171.769 172.33 83.6473 86.3357 -23.1569 440.186 52.4383 -63.1141 436.768 -47.4791 -17.976 430.024 -59.5749 -24.0317 463.389 61.4082 -11.6005 466.433 56.7905 -32.4755 497.786 31.7505 13.9142 108.996 16.5001 
150.757 174.27 173.691 146.553 141.875 142.142 174.524 172.737 85.2876 88.4791 -25.0854 440.603 52.111 -64.3128 437.337 -45.9168 -19.5792 430.891 -60.4965 -24.2428 464.124 61.528 -12.0732 467.494 56.345 -34.1202 499.819 31.9869 14.1244 107.433 16.0983 
150.719 176.757 174.192 149.596 144.549 143.288 170.509 173.086 85.5267 88.5621 -27.966 440.31 50.2526 -68.0133 439.569 -48.4187 -19.8248 431.724 -62.5664 -27.2387 463.954 61.1196 -14.6884 467.543 56.8645 -35.1874 499.981 31.5258 13.19 107.94 18.4273 
151.329 176.159 173.976 146.358 143.197 144.254 173.988 172.953 85.0224 88.8577 -28.8886 439.482 49.818 -67.1641 438.8 -50.8016 -20.9405 431.811 -62.1942 -26.3524 462.825 59.5634 -14.2851 467.467 55.7768 -36.8667 499.835 31.7207 12.7991 105.547 16.7111 
151.041 178.25 171.332 148.497 143.129 142.399 177.214 171.445 85.2041 88.6645 -29.8261 440.362 48.9013 -65.8014 444.391 -54.8903 -23.6363 433.386 -61.5852 -29.0841 462.244 58.8924 -15.7453 466.848 54.7978 -38.6911 499.726 31.6744 11.8698 105.445 14.9999 
151.222 172.381 171.241 148.286 143.341 143.02 176.023 171.524 85.7158 89.6203 -32.6629 441.895 48.4411 -69.2515 444.652 -54.5661 -24.715 434.031 -61.1575 -30.2844 463.195 59.5433 -17.4449 467.838 55.65 -40.1362 501.078 32.0728 11.9769 105.149 16.392 
152.023 171.583 171.444 147.771 142.839 143.481 172.234 171.531 85.339 89.4417 -36.4789 443.559 47.5677 -73.784 446.112 -54.2017 -26.3768 434.634 -61.0272 -31.6391 463.837 59.6246 -18.8614 468.352 56.2502 -41.1374 502.3 32.3871 11.7126 104.759 18.2911 
154.095 172.283 172.622 148.137 142.899 145.509 170.458 172.435 86.7364 89.7826 -38.9455 443.983 46.0536 -76.6852 445.409 -55.0973 -28.1087 435.207 -62.5193 -32.5967 464.911 60.1059 -19.9026 469.589 56.3846 -42.1384 503.814 31.9812 11.7804 104.735 18.4732 
154.338 173.402 173.437 149.627 143.533 145.47 169.985 173.517 86.7813 89.9675 -42.3767 443.288 46.1344 -79.7102 444.76 -56.3942 -29.4588 434.468 -63.6396 -35.0049 464.262 60.651 -22.4505 468.155 57.2243 -42.8652 503.392 31.8048 12.1274 105.476 19.1732 
153.792 172.314 173.647 148.165 142.695 145.612 168.063 173.073 86.3435 91.0216 -42.4272 442.213 45.1741 -81.5178 444.836 -55.6911 -29.8341 436.279 -64.7092 -33.5377 462.373 58.7124 -21.927 466.393 55.8071 -43.8213 502.921 31.6365 12.4307 104.044 20.1146 
153.408 171.402 173.618 146.631 142.301 145.323 167.49 172.687 88.0828 93.0766 -41.3768 441.282 43.7316 -80.461 444.804 -53.9042 -30.4352 438.301 -64.4423 -31.4788 459.758 56.972 -20.8324 464.945 53.9907 -45.0221 502.401 31.6274 12.55 101.494 19.3678 
152.485 170.475 174.536 145.233 142.724 144.219 167.761 172.802 87.7763 93.9598 -39.3395 441.572 42.5525 -79.7143 444.569 -53.1757 -31.6911 439.737 -64.6888 -30.859 460.317 55.3397 -20.7114 465.66 52.3778 -46.2376 502.47 31.3139 12.7875 100.746 18.2214 
152.621 170.241 175.333 147.292 144.054 144.328 167.001 173.62 87.3683 94.004 -41.8939 441.534 42.0096 -80.8665 445.157 -52.4213 -32.7995 439.882 -64.1982 -32.7351 460.993 56.0531 -22.4768 465.543 53.0034 -47.2337 502.627 31.4027 13.0181 101.646 18.3129 
152.1 171.153 176.793 147.387 144.261 144.138 168.529 174.833 87.8757 93.8878 -45.0654 439.876 42.8159 -82.5063 444.644 -53.7761 -33.9557 437.988 -64.3148 -35.5569 459.496 57.1571 -24.9009 463.636 53.9963 -48.019 500.915 31.2523 12.9657 103.161 18.6491 
151.91 172.234 176.703 146.598 143.838 143.777 168.106 175.331 87.9145 92.7514 -47.4017 438.896 42.9566 -84.5538 443.744 -54.4735 -35.1541 436.975 -64.8942 -37.7066 458.295 57.5745 -26.8619 462.407 54.1422 -49.0537 499.604 31.1416 13.0852 104.347 19.1376 
151.088 173.748 175.339 147.544 144.279 143.53 169.585 175.597 87.8725 92.0419 -51.5853 438.958 44.2614 -86.0861 440.924 -55.6892 -36.6193 432.633 -63.2711 -41.3181 457.6 59.372 -30.4885 461.817 56.1717 -51.3607 498.033 31.2152 12.9624 105.333 19.025 
151.26 173.919 175.195 146.995 145.181 143.343 170.668 175.547 88.6601 91.8586 -53.2795 438.235 44.1773 -87.5335 442.687 -57.8547 -37.3031 433.069 -64.4545 -43.1214 456.507 59.7701 -31.9467 460.831 56.5025 -52.249 497.23 31.0878 12.6966 106.514 19.6476 
150.837 174.789 175.209 145.453 144.932 142.616 170.88 176.681 88.3978 91.4661 -55.0296 437.401 43.9501 -89.6965 441.851 -58.2863 -39.6288 433.258 -66.1147 -44.7544 454.873 59.0744 -33.6131 459.221 55.8866 -53.2027 496.08 30.7584 12.9417 107.019 19.4252 
151.463 174.279 175.269 145.187 144.151 142.614 171.09 176.447 87.266 91.0964 -56.0996 436.832 43.3961 -91.2849 442.691 -58.0842 -40.4832 435.331 -67.132 -43.3599 455.014 58.1958 -33.0342 459.445 54.6794 -54.0906 495.977 31.1015 13.7725 107.365 19.9465 
151.037 175.025 175.857 145.853 144.534 141.825 171.894 176.766 86.6502 91.2904 -56.007 436.356 42.6724 -92.7571 442.011 -58.2149 -41.3223 435.902 -68.3409 -43.4535 455.268 57.5767 -33.4817 459.25 53.6544 -55.3696 495.481 30.6572 14.4297 108.206 20.3465 
149.596 175.784 178.089 143.919 144.775 140.037 172.503 177.122 86.565 90.921 -54.3646 436.235 42.1236 -93.3225 440.874 -57.699 -41.6443 436.994 -69.2927 -43.1992 454.929 56.3833 -33.2561 459.625 52.3269 -56.5496 494.763 30.3554 14.159 108.607 20.5654 
148.966 175.868 178.112 143.362 145.142 138.486 172.072 175.655 86.6414 90.3573 -54.5035 435.688 40.7453 -94.5822 441.906 -57.8352 -43.5446 438.351 -70.2435 -43.2227 454.713 55.4229 -33.2462 460.194 51.0842 -57.6945 494.16 30.3157 13.9155 108.721 20.4118 
149.051 175.804 177.768 142.492 144.856 138.456 172.001 175.117 86.5818 90.7321 -55.7364 435.517 40.0142 -95.6764 442.066 -57.7828 -44.6379 439.223 -70.6017 -42.8465 454.946 54.6433 -33.2296 460.791 50.3493 -58.9457 494.298 30.2579 13.8941 108.283 20.5003 
148.424 175.996 176.629 141.753 144.623 138.053 171.908 174.178 85.9865 90.8415 -57.0138 434.567 40.4517 -97.8304 442.373 -57.7027 -45.8532 439.854 -70.6983 -43.3981 453.9 53.9961 -33.7909 459.882 50.0195 -60.1582 493.455 30.7196 13.7136 108.03 21.2609 
147.863 176.155 176.473 141.308 145.077 137.39 171.598 174.403 85.5074 90.9036 -57.9643 433.423 41.1183 -99.6105 442.258 -58.2884 -47.5928 439.032 -71.0035 -45.0429 452.297 53.2828 -35.2969 458.116 49.573 -61.1837 492.18 30.3858 13.6505 108.073 21.3905 
147.627 176.263 176.327 141.124 145.697 135.941 171.718 174.416 85.3 90.6192 -57.6035 433.824 40.8038 -101.146 442.415 -59.7557 -48.5356 439.088 -71.7325 -46.8892 451.493 52.1334 -37.1669 457.532 48.5325 -62.7172 491.82 29.6814 13.7089 107.663 21.6855 
146.739 176.575 175.432 141.836 146.202 134.17 172.128 173.728 85.4208 90.0846 -57.2868 434.928 40.6453 -102.502 444.233 -60.9193 -50.4321 440.903 -72.609 -48.3115 451.747 51.4261 -38.3304 458.074 47.6819 -64.3245 492.257 29.4291 13.4296 107.792 21.3304 
146.182 176.612 174.974 141.717 146.452 134.054 172.378 173.917 85.8421 90.1396 -58.624 435.34 40.5832 -103.227 446.14 -61.0263 -53.2528 443.231 -73.4787 -48.9975 452.021 50.8647 -38.9807 458.762 47.015 -65.6571 492.896 29.5196 13.1487 108.074 20.0543 
146.879 176.87 174.93 142.664 147.103 134.449 173.129 173.962 86.2542 89.7933 -59.8817 435 39.7884 -105.493 446.824 -62.0439 -56.1107 443.981 -74.8295 -50.4168 452.219 50.5763 -40.2273 459.238 46.2701 -67.2752 493.02 29.0681 12.9885 108.813 19.6244 
146.989 176.881 175.059 143.04 147.483 134.232 173.586 174.11 86.716 89.1544 -60.949 435.188 39.8747 -106.941 446.764 -62.2835 -58.8523 445.491 -76.0589 -51.9187 453.005 51.115 -41.399 460.552 46.5184 -68.8365 493.472 29.3212 12.5112 110.092 18.6004 
146.36 177 175.297 143.309 147.768 133.433 174.088 174.17 87.0832 89.2993 -62.0965 436.024 40.2408 -108.268 446.84 -62.3658 -61.1261 445.166 -76.4366 -53.8606 453.213 50.8585 -43.3271 461.017 46.1727 -70.8628 493.885 28.9886 12.3711 109.796 17.9582 
146.481 176.997 175.233 143.145 147.78 134.002 174.456 174.091 86.7212 89.0355 -63.4935 436.472 40.2924 -109.942 446.976 -61.5386 -63.692 445.169 -76.6593 -54.487 454.325 50.8243 -44.3526 462.228 46.0649 -72.6064 494.454 29.2235 12.5369 109.747 17.4796 
146.048 176.947 175.415 143.171 147.677 133.641 174.837 174.56 86.4843 88.2809 -64.9388 436.41 39.8194 -109.71 445.66 -60.4355 -67.1089 446.249 -76.9646 -54.8521 456.317 50.6172 -44.6818 464.734 45.3939 -74.5627 494.786 29.2771 12.0925 110.674 15.313 
144.915 176.039 175.256 144.245 148.093 134.655 174.595 174.286 87.9501 89.1463 -67.2154 435.809 41.3677 -112.515 443.468 -59.4996 -70.378 444.667 -77.3077 -56.8684 456.025 51.371 -46.19 464.679 45.5817 -76.3554 495.008 29.131 11.5923 110.461 15.0619 
144.367 175.5 175.418 145.235 148.614 135.742 175.608 174.123 89.8338 90.3271 -69.5871 434.646 42.3961 -115.725 442.013 -59.9573 -73.2032 442.149 -77.5304 -59.0827 455.15 52.8049 -47.9731 463.833 46.3876 -77.9497 494.466 28.9095 11.2411 110.853 15.2007 
143.874 174.349 175.434 147.118 149.829 137.157 176.064 173.975 91.5341 91.2847 -71.7074 433.261 42.0191 -118.996 441.114 -60.2456 -76.5567 440.219 -77.6305 -61.256 453.005 52.9077 -49.9709 462.365 46.2897 -79.8982 493.42 28.6918 10.7219 109.983 15.183 
144.634 174.543 175.244 146.617 148.879 135.242 176.882 174.015 90.4146 89.7367 -71.3151 434.669 40.9343 -119.228 440.745 -60.8295 -79.2254 442.163 -78.2225 -61.6991 455.186 52.1539 -50.5444 464.955 45.4273 -82.0914 494.124 28.7368 10.4648 110.569 13.6841 
144.038 174.397 175.368 147.282 148.593 135.678 176.89 173.875 92.3334 91.2519 -71.897 435.069 40.5899 -120.513 439.558 -60.0202 -82.1824 441.722 -78.1102 -62.1059 454.1 51.4248 -51.7206 465.061 44.6961 -84.1475 494.435 28.9305 10.2948 108.363 12.7782 
144.263 174.934 176.153 147.457 148.923 136.733 177.324 174.292 92.8487 91.5107 -74.279 434.517 40.9103 -123.637 438.905 -61.07 -84.814 439.123 -78.2505 -65.1719 452.104 51.8149 -54.6745 462.986 45.3521 -86.0163 493.633 28.9113 10.3891 107.443 12.7581 
144.278 175.093 176.4 148.653 150.353 136.822 177.605 174.411 92.7012 91.6311 -76.811 434.808 40.8783 -127.399 439.165 -61.7958 -87.9637 437.553 -77.9274 -68.7799 451.802 52.7809 -58.1954 461.904 46.2902 -88.1401 493.401 28.9424 10.8246 107.702 12.9383 
144.127 175.491 176.427 147.985 150.079 137.443 177.951 174.3 91.8775 91.7984 -79.0691 434.511 40.9214 -129.118 440.568 -63.3769 -90.7738 436.794 -78.3703 -71.6296 450.826 52.2876 -60.5764 460.012 46.1764 -89.5584 493.121 28.7896 10.9175 107.184 12.135 
144.056 174.15 176.326 149.34 153.238 138.027 177.72 174.169 90.6723 93.1644 -81.9709 434.783 39.6875 -131.728 442.768 -64.7372 -93.9827 437.105 -78.7015 -75.9151 449.622 50.231 -63.6953 458.077 45.356 -91.3969 493.153 28.4225 9.95169 105.568 11.9006 
143.042 173.665 176.689 150.606 156.526 138.705 177.629 174.415 90.3825 94.7115 -85.1696 434.901 39.9351 -134.33 445.243 -66.099 -96.9706 437.079 -78.9737 -79.4038 448.396 49.4284 -66.792 455.817 45.3831 -93.0527 493.18 28.1192 9.73193 104.705 11.8925 
142.637 173.295 176.761 150.791 156.969 138.05 177.43 174.621 91.728 96 -85.99 435.782 41.5784 -136.113 445.576 -65.758 -99.3559 435.661 -78.7178 -82.5205 448.623 51.2643 -68.7525 455.038 46.6186 -94.2941 493.564 28.1973 9.33432 105.14 11.6553 
141.954 173.881 176.866 151.993 157.503 138.236 177.833 174.929 92.8445 96.8864 -87.9034 435.537 42.6156 -138.134 446.834 -65.8847 -101.405 434.967 -78.311 -84.3319 448.705 53.1077 -70.5386 454.171 47.751 -95.3487 493.432 28.1354 9.95325 106.302 12.0322 
141.448 172.87 176.966 152.555 157.47 137.961 177.261 175.01 93.1836 97.1056 -89.7712 435.127 43.8104 -139.834 446.303 -66.1808 -102.671 433.737 -78.2335 -85.9223 449.209 54.662 -72.0441 453.72 48.7305 -96.3253 493.123 28.1231 10.6371 107.363 12.2536 
142.033 172.936 177.099 152.768 157.558 138.198 176.642 174.984 92.5647 96.4396 -92.7555 433.772 43.6149 -141.32 445.656 -66.9473 -103.974 432.012 -78.3775 -88.1253 448.672 54.8186 -74.1873 452.276 48.6418 -97.309 492.069 27.66 11.3017 107.686 12.4123 
141.379 172.77 176.93 152.574 157.178 137.84 176.464 174.859 91.9773 95.6117 -93.8455 432.516 42.5337 -141.913 445.102 -67.3204 -104.767 431.683 -78.8207 -88.41 448.868 54.6086 -74.6443 452.085 47.8606 -98.2023 490.936 27.0192 11.919 109.08 12.4399 
140.818 172.39 176.719 151.908 156.068 137.604 176.2 174.586 91.4793 94.4709 -94.7225 432.145 41.2305 -142.167 445.108 -67.0062 -106.361 432.169 -78.8665 -88.687 449.219 54.1713 -75.1104 452.417 47.0116 -99.1331 490.578 26.7158 12.2932 109.56 11.7498 
139.611 172.71 176.676 150.853 154.973 137.897 175.76 174.861 91.7114 94.1696 -95.7777 431.104 41.4778 -142.463 442.635 -66.4751 -106.544 431.344 -79.305 -88.8936 449.058 54.2848 -75.4333 452.778 47.2748 -100.148 489.84 26.3874 11.9838 110.16 11.398 
139.446 173.24 176.58 149.837 154.164 138.004 175.831 174.893 91.4206 93.8999 -97.8743 429.531 41.0149 -143.548 441.997 -66.6612 -107.551 430.293 -79.1829 -90.1259 448.241 53.9208 -76.7356 451.881 47.141 -101.215 488.575 25.9099 11.9467 110.364 11.6281 
139.393 173.202 176.264 149.211 153.709 138.779 175.401 174.68 90.7289 93.8162 -99.7557 427.796 40.2518 -144.123 440.325 -66.3292 -108.084 429.48 -78.9047 -90.9307 446.97 53.1215 -77.7071 450.682 46.7267 -102.347 487.104 25.6419 11.8827 110.365 11.5661 
138.347 173.595 176.118 147.466 153.189 139.077 175.213 174.641 89.4314 93.2904 -102.319 427.135 39.4238 -144.593 438.248 -65.5223 -109.022 429.063 -79.047 -92.0107 447.219 51.8599 -78.8073 451.05 46.0669 -103.73 486.563 25.1211 11.5115 110.568 11.0007 
140.026 174.437 176.37 146.936 152.756 139.302 174.735 174.654 89.0623 92.5222 -103.491 425.654 38.1263 -144.962 435.175 -65.3811 -109.141 427.258 -78.8814 -93.3714 447.266 51.6246 -80.2181 451.24 45.7708 -105.038 485.331 24.3676 11.5632 111.176 10.9326 
140.791 175.04 176.136 146.16 152.785 139.771 173.973 174.548 88.3449 92.407 -103.685 423.906 37.3172 -144.631 430.916 -64.2343 -108.736 425.51 -78.5763 -93.5967 446.078 50.5376 -80.7141 450.62 45.0872 -106.418 483.743 23.9795 11.3284 110.746 10.7386 
142.145 174.995 176.056 145.55 152.507 140.259 172.983 174.681 89.3237 92.8929 -104.558 422.062 37.8679 -144.021 425.493 -62.3851 -108.402 422.174 -77.7293 -94.6382 444.79 50.993 -81.7194 450.235 45.8387 -107.669 482.351 23.7467 10.6436 110.048 10.4107 
143.941 175.165 176.012 145.152 151.95 140.196 172.701 174.528 90.0503 93.0554 -104.011 421.574 36.8 -144.286 422.527 -62.08 -108.283 421.722 -78.2867 -94.4466 445.409 50.9407 -81.8615 451.573 45.3211 -109.195 482.168 23.3588 10.6521 110.369 10.74 
144.714 175.335 176.479 143.922 151.226 140.541 172.596 174.718 89.5396 93.0467 -106.804 420.414 36.4264 -145.476 420.499 -62.1451 -109.374 420.226 -78.8934 -95.8971 445.646 50.7732 -83.4495 451.813 45.5796 -110.65 481.417 22.9648 10.4341 111.147 10.8104 
145.156 175.322 176.148 143.211 151.079 140.45 172.139 174.234 87.8642 92.7333 -108.198 420.46 36.0425 -146.731 420.491 -61.4309 -110.685 420.71 -78.327 -97.618 446.388 49.6291 -85.174 452.396 45.0097 -112.478 481.451 22.9685 10.3459 111.007 10.8937 
144.308 174.853 176.529 139.966 151.855 139.965 171.522 173.991 83.5747 89.626 -109.235 420.23 34.6623 -147.262 419.588 -60.3732 -112.408 421.941 -78.0354 -100.077 449.149 47.1336 -87.2468 454.906 42.5943 -114.255 481.238 22.7761 10.5601 112.283 10.5681 
144.151 174.611 177.23 138.868 151.015 139.428 171.367 174.11 82.275 89.1726 -109.814 420.562 33.8163 -148.687 419.124 -59.6328 -114.292 422.527 -78.1039 -101.39 450.48 46.3765 -89.1476 456.854 42.6147 -116.237 481.338 22.8876 10.3277 112.704 10.5491 
142.396 174.373 177.187 139.695 149.632 138.374 171.894 174.159 81.5879 87.7569 -112.653 421.062 33.7019 -151.729 419.619 -60.1148 -117.279 421.33 -78.248 -104.549 449.696 46.2796 -91.8956 455.955 42.6358 -117.89 480.633 22.6449 10.0802 113.109 10.3496 
142.83 174.376 177.282 141.451 150.344 138.139 172.893 174.76 82.2338 88.38 -114.166 420.816 34.9961 -153.87 419.155 -60.9963 -119.291 419.779 -78.6639 -107.306 449.482 47.5226 -94.3704 455.315 43.7763 -119.788 480.137 22.5375 9.95284 114.274 10.1838 
142.418 174.389 177.177 145.512 150.944 138.299 172.625 174.711 83.3229 88.1917 -117.067 419.879 35.2308 -156.026 418.398 -62.1838 -121.524 418.446 -79.5953 -109.779 447.605 47.9672 -96.6858 453.38 43.4966 -121.37 479.054 21.8479 10.1974 114.628 10.0543 
142.883 173.583 175.717 143.55 149.443 138.377 172.086 173.881 81.9585 86.4006 -118.36 419.938 33.6424 -157.618 419.85 -62.772 -124.042 419.97 -79.3802 -111.963 448.059 46.2732 -98.7566 453.401 41.184 -123.371 478.888 21.3516 10.793 114.882 9.45894 
143.469 172.019 174.503 146.137 149.261 137.506 171.868 173.328 82.5889 85.8023 -119.905 419.672 32.1126 -159.811 421.979 -63.5142 -127.064 421.146 -80.2771 -115.065 447.178 45.8549 -101.517 451.428 39.0583 -125.402 478.001 20.627 12.0403 115.997 8.92737 
144.029 172.105 173.995 147.743 148.594 138.686 171.784 172.872 83.5882 85.4394 -123.625 418.434 31.5942 -162.499 423.924 -64.6452 -131.285 420.595 -81.6269 -117.56 444.9 46.1205 -103.823 448.567 39.0341 -127.278 476.963 20.0378 12.1956 115.984 7.82298 
143.361 173.383 174.202 149.388 150.782 138.225 171.539 172.981 85.194 87.2639 -125.977 418.179 31.1663 -166.828 425.878 -67.3622 -134.575 421.175 -83.7214 -119.977 442.707 46.0996 -106.357 445.762 39.5809 -128.676 476.653 19.368 12.0531 115.238 8.51909 
141.526 173.431 173.725 148.83 152.114 137.728 170.496 172.246 85.7889 88.3761 -129.119 418.021 31.3651 -169.882 428.676 -69.0317 -136.717 422.736 -84.777 -122.814 441.233 45.7535 -109.18 443 38.8109 -130.201 476.408 19.0192 12.9999 115.296 9.13429 
141.514 173.26 173.789 148.47 152.68 137.822 170.23 171.951 85.5809 88.1741 -131.424 417.434 31.2685 -172.587 431.056 -70.6715 -138.588 423.339 -85.7113 -124.914 439.826 45.0641 -111.322 440.753 37.8572 -131.658 475.85 18.5084 13.6802 115.392 9.76278 
141.523 173.291 174.154 149.495 153.019 137.026 169.891 171.891 85.3582 88.1756 -131.172 417.154 30.4601 -174.24 431.648 -72.1765 -139.024 424.106 -87.0193 -125.478 438.985 43.9427 -112.129 440.17 36.8136 -133.333 475.421 17.7738 13.8652 115.42 10.5426 
141.379 172.824 174.862 148.326 153.451 136.383 168.447 171.674 85.4512 87.8033 -132.572 416.932 29.4834 -176.686 432.179 -72.513 -139.56 424.805 -87.4199 -127.778 438.227 42.772 -114.383 439.898 36.0445 -134.959 475.221 17.1322 13.6145 114.647 11.85 
141.731 172.243 175.049 147.418 154.033 136.225 167.689 171.618 84.9979 87.789 -135.051 415.894 28.8327 -178.525 431.948 -72.8125 -140.106 424.248 -87.3293 -130.252 436.576 41.4615 -116.842 438.554 35.6837 -136.171 474.217 16.6451 13.1259 113.548 12.7871 
141.872 172.057 175.372 147.587 154.998 136.652 167.281 171.428 85.3252 88.9133 -137.162 415.429 28.3472 -180.693 431.87 -73.5503 -141.066 423.848 -88.1701 -132.47 435.702 40.8672 -118.823 437.793 35.9522 -137.809 473.879 16.2273 12.2575 113.071 13.5613 
141.923 171.922 175.878 145.814 155.95 138.346 167.522 171.522 87.8742 89.8491 -141.284 415.331 28.2872 -184.68 431.52 -74.4079 -142.236 421.524 -87.9591 -137.251 433.782 41.2075 -122.575 436.85 36.4726 -141.036 473.585 15.7485 11.2664 111.26 15.5179 
143.339 172.733 176.171 144.417 154.695 138.744 168.1 172.136 90.1286 91.713 -143.684 414.613 29.5024 -185.827 430.114 -75.4924 -142.622 418.955 -87.8656 -139.396 433.724 43.4651 -124.926 436.615 39.3952 -142.292 473.235 15.6333 10.687 111.795 15.8421 
145.104 173.306 176.36 144.208 155.018 140.066 168.549 172.567 91.0967 93.2067 -145.84 413.895 29.9492 -186.85 429.619 -75.4865 -143.511 418.342 -87.5019 -140.312 433.52 44.2886 -126.257 436.532 40.6546 -143.707 473.39 15.7714 10.5574 111.499 15.8844 
144.655 173.87 175.569 143.013 154.496 140.735 168.791 171.94 90.578 93.4396 -149.926 412.835 29.2088 -188.571 431.043 -76.1889 -146.18 418.024 -88.1031 -143.363 432.225 42.9565 -129.054 434.661 39.9313 -145.247 472.518 15.2087 10.2373 110.995 15.6471 
145.767 174.398 175.138 144.052 154.621 140.971 169.414 171.968 89.8641 93.0226 -154.081 411.741 28.904 -189.636 431.632 -76.8141 -148.081 417.246 -88.1802 -145.549 431.436 42.8609 -131.672 433.311 40.0847 -146.469 471.458 14.9187 10.6681 111.42 15.4194 
147.105 174.625 174.919 144.085 155.029 141.427 169.191 171.939 89.1998 93.5383 -155.922 410.512 28.4166 -191.522 430.943 -76.842 -148.409 416.945 -88.9353 -146.822 430.206 41.7617 -133.122 431.984 39.6531 -147.938 470.643 14.5776 10.577 111.071 16.4127 
