147.496 173.427 176.283 148.378 149.514 138.829 167.479 170.209 79.6748 78.4004 121.498 140.624 60.9737 72.3162 168.53 -24.9484 124.664 164.744 -32.2729 113.584 155.895 80.6571 125.331 163.236 78.8649 105.279 192.334 67.2073 14.614 108.142 24.0562 
147.452 173.358 176.323 148.437 149.622 138.861 167.399 170.071 79.6601 78.4121 121.776 140.56 60.9325 72.38 168.693 -25.0251 124.714 164.656 -32.2613 113.708 155.787 80.5186 125.463 163.179 78.7913 105.392 192.249 67.1623 14.5554 107.992 24.1031 
147.42 173.341 176.329 148.398 149.69 138.985 167.248 169.949 79.7204 78.5222 121.798 140.425 60.8359 72.4121 168.814 -25.1026 124.703 164.412 -32.2253 113.678 155.607 80.345 125.47 163.02 78.7055 105.524 192.191 67.0954 14.4837 107.726 24.1268 
147.4 173.311 176.343 148.39 149.737 139.035 167.145 169.807 79.785 78.6095 121.839 140.251 60.855 72.3875 168.897 -25.0749 124.63 164.208 -32.1489 113.722 155.491 80.2711 125.548 162.925 78.6614 105.661 192.147 67.0633 14.4231 107.577 24.1591 
147.389 173.315 176.299 148.314 149.754 139.082 167.025 169.648 79.9006 78.7271 121.777 140.059 60.9227 72.2223 169.104 -25.0232 124.45 163.94 -32.0411 113.67 155.359 80.208 125.583 162.798 78.6373 105.824 192.147 67.0632 14.3194 107.352 24.2298 
147.411 173.315 176.279 148.245 149.754 139.132 166.989 169.566 80.0408 78.8665 121.68 139.891 60.9154 72.1097 169.239 -24.9797 124.29 163.73 -31.9895 113.615 155.262 80.1908 125.613 162.674 78.6195 106.019 192.16 67.0536 14.241 107.241 24.2439 
147.358 173.316 176.216 148.19 149.801 139.113 166.914 169.533 80.1038 78.9863 121.727 139.794 60.9858 72.1344 169.301 -24.921 124.231 163.572 -31.9569 113.676 155.139 80.1222 125.743 162.534 78.59 106.271 192.161 67.0691 14.1573 107.104 24.2112 
147.339 173.324 176.145 148.135 149.839 139.155 166.918 169.491 80.186 79.1025 121.818 139.728 61.0407 72.1737 169.423 -24.8859 124.349 163.558 -31.9557 113.821 155.073 80.0943 125.935 162.466 78.5694 106.569 192.212 67.1087 14.1012 107.072 24.2715 
147.273 173.262 176.094 148.166 149.891 139.033 166.947 169.424 80.218 79.1465 122.156 139.792 61.1034 72.4186 169.441 -24.8146 124.481 163.609 -31.9581 114.15 155.131 80.1399 126.268 162.535 78.5692 106.883 192.267 67.1578 14.0956 107.11 24.1808 
147.247 173.241 176.027 148.109 149.836 138.998 166.973 169.364 80.3212 79.2396 122.373 139.694 61.1298 72.638 169.403 -24.7838 124.687 163.556 -31.958 114.458 155.115 80.1954 126.585 162.529 78.5784 107.21 192.278 67.1737 14.0763 107.151 24.1696 
147.184 173.187 175.978 147.958 149.751 139.039 166.872 169.281 80.4157 79.3682 122.435 139.618 61.014 72.8854 169.578 -24.7814 124.944 163.569 -31.9558 114.663 155.041 80.1221 126.792 162.446 78.5186 107.536 192.3 67.169 14.0667 107.081 24.1906 
147.213 173.213 175.934 147.9 149.728 139.136 166.876 169.219 80.4523 79.4036 122.604 139.656 60.8928 73.2269 169.86 -24.7666 125.417 163.721 -31.9244 115.013 155.093 80.1585 127.134 162.519 78.5554 107.889 192.37 67.2123 14.0671 107.137 24.3091 
147.356 173.256 175.939 147.949 149.753 139.166 166.786 169.222 80.4836 79.4297 122.847 139.873 60.8775 73.7607 170.246 -24.7365 125.905 164.134 -31.9133 115.442 155.37 80.346 127.562 162.756 78.694 108.34 192.616 67.3208 14.0954 107.366 24.2504 
147.485 173.307 175.948 148.012 149.761 139.207 166.77 169.153 80.4322 79.3389 123.213 140.244 60.8647 74.3052 170.683 -24.6618 126.453 164.565 -31.8268 116.009 155.805 80.559 128.099 163.175 78.8609 108.814 192.963 67.4573 14.1485 107.508 24.2443 
147.518 173.383 176.024 148.097 149.811 139.186 166.77 169.215 80.3729 79.2901 123.456 140.566 60.9109 74.6819 171.169 -24.5597 126.892 165.115 -31.7809 116.432 156.159 80.7178 128.514 163.479 79.0096 109.24 193.283 67.5991 14.1799 107.694 24.2739 
147.6 173.492 176.063 148.153 149.872 139.223 166.773 169.221 80.4027 79.325 123.701 140.927 60.9791 74.9727 171.714 -24.4634 127.224 165.479 -31.7046 116.765 156.523 80.8243 128.881 163.802 79.111 109.707 193.698 67.7197 14.172 107.67 24.3128 
147.615 173.559 176.076 148.094 149.877 139.212 166.741 169.162 80.4893 79.4219 123.917 141.325 61.0499 75.3507 172.354 -24.3884 127.603 165.806 -31.573 116.974 156.823 80.8373 129.122 164.071 79.1564 110.17 194.138 67.8322 14.1776 107.476 24.332 
147.579 173.598 176.115 148.13 149.905 139.167 166.767 169.117 80.4939 79.3977 124.237 141.719 61.1206 75.7116 173.028 -24.3546 127.976 166.163 -31.4612 117.231 157.187 80.8694 129.403 164.417 79.2111 110.574 194.55 67.9213 14.1858 107.352 24.3777 
147.57 173.618 176.09 148.274 149.969 139.144 166.852 169.036 80.3512 79.2072 124.901 142.269 61.2254 76.1059 173.704 -24.2893 128.553 166.758 -31.3613 117.76 157.761 80.977 129.924 165.029 79.3278 111 195.021 68.0671 14.1966 107.389 24.5303 
147.574 173.611 176.059 148.32 149.947 139.162 166.888 168.959 80.2855 79.0835 125.445 142.731 61.2509 76.5258 174.384 -24.2749 129.075 167.279 -31.2835 118.205 158.244 81.0415 130.365 165.552 79.4092 111.392 195.457 68.1898 14.2034 107.329 24.6265 
147.656 173.581 176.015 148.454 149.946 139.167 166.911 168.865 80.1242 78.8822 126.206 143.348 61.3437 76.9619 174.96 -24.1315 129.696 168.008 -31.1726 118.89 158.918 81.2167 131.007 166.301 79.5686 111.799 195.967 68.3861 14.2253 107.425 24.7588 
147.78 173.469 175.995 148.507 149.853 139.188 166.9 168.85 80.0181 78.7318 126.845 143.986 61.3077 77.4019 175.83 -24.0832 130.373 169.029 -31.1854 119.525 159.589 81.3396 131.598 167.01 79.6696 112.218 196.531 68.5682 14.2636 107.61 24.9075 
147.864 173.316 176.04 148.555 149.735 139.149 166.84 168.841 79.9665 78.6523 127.33 144.604 61.2423 77.9104 176.724 -24.0515 131.016 170.103 -31.2101 120.074 160.251 81.4872 132.087 167.676 79.775 112.601 197.088 68.7248 14.3316 107.88 24.9768 
148.002 173.239 176.104 148.707 149.723 139.126 166.932 168.878 79.9135 78.5133 127.906 145.28 61.1589 78.4289 177.587 -23.9805 131.612 171.155 -31.2354 120.76 160.983 81.731 132.731 168.472 79.9612 113.021 197.637 68.9038 14.348 108.24 25.025 
148.119 173.183 176.155 148.735 149.681 139.14 166.956 168.968 79.9559 78.5305 128.205 145.819 61.1194 78.7966 178.41 -23.8756 132.016 171.981 -31.2259 121.215 161.525 81.8894 133.182 169.039 80.1173 113.423 198.169 69.0839 14.328 108.37 25.0504 
148.328 173.115 176.215 148.749 149.669 139.143 167.009 168.994 80.0715 78.6074 128.448 146.428 61.1511 79.1006 179.424 -23.7763 132.266 172.838 -31.1888 121.601 162.064 82.0418 133.581 169.573 80.2488 113.872 198.799 69.2802 14.315 108.448 25.0191 
148.457 173.118 176.269 148.785 149.681 139.163 167.154 168.975 80.1302 78.6201 128.761 146.948 61.1977 79.2829 180.196 -23.6267 132.498 173.46 -31.1029 122.049 162.562 82.1838 134.031 170.088 80.3858 114.317 199.336 69.4342 14.2888 108.478 25.0884 
148.496 173.064 176.305 148.763 149.615 139.118 167.256 168.982 80.1924 78.694 128.964 147.315 61.1787 79.4436 180.78 -23.5044 132.672 174.018 -31.0738 122.459 162.887 82.2786 134.424 170.372 80.46 114.716 199.705 69.5381 14.2918 108.562 25.1133 
148.624 172.927 176.338 148.747 149.545 139.058 167.271 168.936 80.2213 78.687 129.392 147.739 61.105 79.8998 181.48 -23.4743 133.072 174.83 -31.0731 123.011 163.214 82.3462 134.949 170.674 80.5149 115.184 200.066 69.6522 14.3125 108.701 25.0603 
148.686 172.786 176.413 148.726 149.418 138.879 167.274 168.996 80.1986 78.6672 129.82 148.238 61.0297 80.5378 182.246 -23.4092 133.645 175.807 -31.0692 123.645 163.632 82.4556 135.544 171.033 80.5867 115.711 200.458 69.7937 14.37 108.967 24.9862 
148.708 172.709 176.496 148.636 149.239 138.715 167.276 169.128 80.2276 78.7589 130.134 148.678 61.0184 81.2281 182.993 -23.2766 134.32 176.721 -31.021 124.275 163.983 82.6028 136.129 171.298 80.6961 116.327 200.859 70.0018 14.4543 109.174 24.933 
148.726 172.571 176.628 148.703 149.224 138.616 167.275 169.404 80.3331 78.8758 131.116 149.552 61.2294 82.6539 184.056 -22.8397 135.591 177.829 -30.8258 125.437 164.727 82.9441 137.378 171.904 80.9437 117.813 201.699 70.3658 14.4774 109.409 24.7672 
148.688 172.382 176.678 148.745 149.288 138.674 167.186 169.542 80.4721 79.0069 131.481 150.037 61.2533 83.3658 184.778 -22.6363 136.246 178.3 -30.6646 125.759 165.096 83.0585 137.818 172.136 81.0462 118.616 202.217 70.5287 14.4527 109.342 24.708 
148.652 172.191 176.74 148.969 149.469 138.579 167.101 169.664 80.349 78.8811 132.645 150.572 61.3726 84.657 185.172 -22.4559 137.517 178.886 -30.4567 126.68 165.555 83.2939 138.763 172.508 81.2879 119.586 202.566 70.7476 14.4802 109.458 24.634 
148.66 172.017 176.74 149.007 149.422 138.41 166.946 169.877 80.3612 78.8765 133.78 150.912 61.4427 86.0939 185.304 -22.2933 138.824 179.514 -30.3286 127.769 165.781 83.5752 139.823 172.708 81.5471 120.545 202.736 70.9978 14.5281 109.636 24.44 
148.624 172.002 176.74 148.954 149.328 138.199 166.888 170.243 80.4624 78.9846 134.691 151.133 61.7511 87.3189 185.033 -21.938 139.812 179.854 -30.1983 128.776 165.866 83.9264 140.831 172.798 81.8505 121.491 202.845 71.2909 14.5281 109.852 24.1617 
148.585 172.001 176.786 149.032 149.309 138.151 166.924 170.503 80.5006 79.0238 135.698 151.142 62.189 88.3842 184.471 -21.5505 140.76 179.685 -29.9944 129.841 165.976 84.4235 141.89 172.887 82.2304 122.465 202.847 71.5433 14.559 110.137 24.0241 
148.687 172.076 176.805 149.022 149.269 137.991 166.91 170.803 80.5378 79.0215 136.74 151.04 62.7421 89.5984 183.915 -21.2299 141.876 179.578 -29.7688 130.962 165.938 84.8954 143.01 172.847 82.6648 123.454 202.766 71.8181 14.5432 110.392 23.8939 
148.758 172.07 176.81 148.968 149.252 137.923 166.769 171.065 80.5379 79.0259 137.6 150.958 62.9621 90.794 183.685 -21.0138 143.147 179.629 -29.577 131.991 165.776 85.1992 143.994 172.677 82.9875 124.399 202.618 72.0786 14.5788 110.539 23.8986 
148.62 172.098 176.718 148.979 149.255 137.917 166.653 171.261 80.467 79.0059 138.483 151.07 63.0564 92.0155 183.57 -20.8245 144.313 179.69 -29.4274 132.888 165.724 85.3449 144.928 172.535 83.1569 125.452 202.583 72.2742 14.5854 110.588 23.8002 
148.716 172.291 176.74 148.999 149.268 137.95 166.962 171.571 80.4298 78.8421 139.49 151.051 63.3089 93.1103 182.929 -20.6442 145.388 179.495 -29.3957 134.109 165.682 85.6849 146.114 172.55 83.4402 126.426 202.469 72.4355 14.5975 110.823 23.7101 
148.956 172.447 176.708 149.059 149.188 137.836 167.085 171.91 80.3838 78.6508 140.429 150.922 63.6029 94.2207 182.18 -20.4127 146.488 179.582 -29.4055 135.475 165.733 86.2486 147.431 172.62 83.8754 127.362 202.317 72.695 14.637 111.355 23.6005 
149.069 172.546 176.681 149.048 149.081 137.753 167.114 172.169 80.2951 78.5113 141.294 150.825 63.6192 95.3111 181.689 -20.2812 147.385 179.459 -29.3934 136.43 165.515 86.389 148.374 172.372 83.996 128.185 202.035 72.8229 14.6633 111.443 23.4058 
148.952 172.732 176.6 149.005 149 137.802 167.17 172.425 80.1953 78.338 141.817 150.876 63.531 96.2294 181.368 -20.2139 148.174 179.247 -29.4268 137.128 165.368 86.4185 149.136 172.156 84.034 129.03 201.899 72.8885 14.6511 111.438 23.2604 
149.028 173.029 176.543 149.224 149.156 137.809 167.328 172.702 79.917 77.9619 142.737 151.215 63.5248 97.2229 180.87 -20.0094 149.097 179.35 -29.4222 138.307 165.518 86.6334 150.295 172.317 84.2023 129.911 201.875 73.0731 14.7009 111.626 23.148 
149.241 173.172 176.557 149.318 149.102 137.683 167.46 173.014 79.7272 77.6757 143.513 151.403 63.4468 98.2618 180.415 -19.9279 150.055 179.702 -29.577 139.438 165.614 86.856 151.377 172.404 84.3267 130.711 201.789 73.199 14.7884 112.076 23.0125 
149.384 173.244 176.524 149.379 149.072 137.648 167.473 173.245 79.661 77.5446 144.052 151.415 63.4589 99.2006 179.844 -19.7478 150.883 179.684 -29.5927 140.317 165.645 87.1426 152.267 172.387 84.5409 131.475 201.693 73.3127 14.8042 112.415 22.8893 
149.389 173.352 176.435 149.424 149.021 137.587 167.431 173.321 79.63 77.4969 144.293 151.411 63.4422 99.8331 179.258 -19.4274 151.205 179.262 -29.5008 140.98 165.627 87.3748 152.996 172.259 84.6881 132.22 201.606 73.4196 14.7901 112.48 22.6659 
149.374 173.382 176.367 149.391 148.987 137.671 167.531 173.456 79.6319 77.4718 144.36 151.176 63.1841 100.341 178.778 -19.4051 151.584 178.762 -29.6396 141.368 165.282 87.3253 153.468 171.8 84.6142 132.89 201.305 73.336 14.7578 112.541 22.5601 
149.47 173.4 176.334 149.469 149.077 137.606 167.512 173.606 79.5053 77.3031 144.668 151.348 62.7127 101.4 178.719 -19.5914 152.583 178.955 -29.8598 142.007 165.21 87.2626 154.122 171.674 84.5504 133.596 201.162 73.2734 14.8058 112.807 22.4552 
149.579 173.469 176.434 149.489 149.046 137.488 167.517 173.793 79.418 77.2017 145.095 151.44 62.4832 102.478 178.687 -19.6549 153.626 179.348 -30.0659 142.905 165.244 87.314 155.012 171.676 84.5524 134.39 201.122 73.2854 14.8534 113.198 22.3807 
149.815 173.412 176.535 150.006 149.252 137.586 167.631 173.989 79.3501 77.3727 145.48 151.451 62.1753 103.112 178.653 -19.7441 154.105 179.434 -30.1842 143.452 165.214 87.2104 155.654 171.283 84.5061 135.202 201.049 73.0482 14.7896 113.415 22.3443 
150.016 173.353 176.536 150.011 149.32 137.605 167.623 173.923 79.3116 77.2988 146.07 151.418 62.0606 103.656 178.145 -19.5414 154.627 178.931 -30.0979 144.268 165.153 87.2528 156.441 171.24 84.5101 135.866 200.901 73.0294 14.8016 113.263 22.3525 
150.143 173.385 176.446 149.733 149.201 137.669 167.552 173.791 79.4486 77.4448 146.399 151.121 61.9156 104.208 177.513 -19.4437 154.941 178.113 -30.089 144.741 164.702 87.1325 156.904 170.806 84.4081 136.468 200.596 72.9763 14.7784 112.856 22.1716 
150.226 173.479 176.334 149.522 149.103 137.634 167.648 173.832 79.4292 77.3838 146.722 150.85 61.7123 104.946 177.162 -19.4977 155.527 177.912 -30.2461 145.31 164.269 86.9392 157.454 170.418 84.2498 136.981 200.25 72.9165 14.7808 112.764 22.0379 
150.283 173.513 176.302 149.382 148.997 137.564 167.529 173.892 79.4345 77.3873 146.966 150.687 61.3908 105.684 177.15 -19.7011 156.308 178.093 -30.5396 145.754 163.918 86.716 157.914 170.023 84.0306 137.564 199.999 72.8108 14.8198 112.905 22.0342 
150.468 173.519 176.273 149.391 149.096 137.716 167.306 173.768 79.394 77.3138 147.471 150.781 61.1403 106.426 177.219 -19.7304 157.18 178.044 -30.5425 146.367 163.826 86.6106 158.529 169.946 83.9566 138.279 199.968 72.7959 14.8369 112.806 22.106 
150.505 173.445 176.088 149.36 149.132 137.768 167.045 173.476 79.4162 77.347 147.866 150.807 60.7893 107.187 177.265 -19.7751 157.807 177.656 -30.4359 146.769 163.664 86.4266 159.011 169.702 83.8293 138.947 199.879 72.7093 14.7798 112.414 22.0029 
150.58 173.428 176.011 149.317 149.145 137.874 167.046 173.227 79.5465 77.4604 148.391 150.568 60.4866 107.883 177.033 -19.7449 158.394 177.04 -30.3397 147.331 163.306 86.2702 159.588 169.378 83.6631 139.539 199.592 72.5839 14.7545 112.069 21.9385 
150.494 173.376 175.95 149.197 149.048 137.817 167.128 173.078 79.607 77.5288 148.532 150.29 59.9038 108.551 177.156 -20.1109 158.96 176.74 -30.5674 147.566 162.712 85.8481 159.836 168.749 83.2918 139.961 199.129 72.3434 14.7583 111.85 21.8341 
150.374 173.411 175.953 149.187 149.04 137.816 167.142 173.047 79.6144 77.572 148.952 150.033 59.5202 109.341 177.202 -20.4 159.79 176.711 -30.77 148.04 162.232 85.5887 160.308 168.238 83.0502 140.504 198.73 72.2111 14.7944 111.867 21.8269 
150.284 173.435 176.011 149.235 149.041 137.802 167.105 173.051 79.5885 77.5479 149.492 149.844 59.3307 109.92 177.129 -20.5836 160.457 176.631 -30.9901 148.558 162.04 85.4274 160.849 167.999 82.8604 141.067 198.521 72.0404 14.807 111.991 21.8784 
150.388 173.367 176.021 149.459 149.186 137.786 166.907 172.908 79.4576 77.3348 150.418 149.846 59.0109 110.877 176.976 -20.7592 161.34 176.618 -31.1027 149.236 161.994 85.2865 161.558 167.945 82.701 141.72 198.332 71.8828 14.8288 112.073 21.807 
150.332 173.383 176.01 149.577 149.234 137.662 166.922 172.774 79.4676 77.3065 151.162 149.786 58.8816 111.632 176.744 -20.7586 162.006 176.357 -31.0536 149.891 161.848 85.2868 162.23 167.807 82.6813 142.3 198.124 71.8447 14.8132 111.989 21.7374 
150.335 173.461 176.002 149.546 149.177 137.586 167.107 172.66 79.5346 77.3481 151.918 149.597 58.547 112.509 176.726 -21.0415 162.742 176.14 -31.1444 150.442 161.488 85.0316 162.776 167.483 82.4268 142.83 197.793 71.6657 14.8347 111.817 21.614 
149.966 173.432 175.972 149.397 148.971 137.36 167.23 172.631 79.6243 77.4072 152.179 149.146 58.1461 113.286 176.683 -21.4903 163.351 176.091 -31.5207 150.665 160.894 84.686 163.015 166.859 82.0941 143.176 197.269 71.4045 14.8602 111.895 21.4457 
149.523 173.427 175.982 149.301 148.904 137.153 167.287 172.606 79.6651 77.4309 152.437 148.772 57.8637 114.095 176.77 -21.9449 164.069 175.978 -31.8555 150.887 160.401 84.3766 163.267 166.32 81.8223 143.607 196.848 71.1582 14.8739 111.983 21.3277 
149.288 173.508 176.034 149.353 149.016 136.984 167.443 172.556 79.5957 77.3288 153.273 148.569 57.8204 115.2 177.047 -22.3397 165.145 176.076 -32.0406 151.358 160.123 84.0841 163.74 166.078 81.6053 144.163 196.604 70.9728 14.8966 112.055 21.2504 
149.032 173.375 176.034 149.328 149.006 136.784 167.261 172.471 79.5375 77.2346 153.911 148.542 57.6966 116.138 177.028 -22.5076 165.87 176.001 -32.1517 151.802 159.97 83.823 164.236 165.877 81.3717 144.816 196.482 70.7986 14.9026 112.008 21.0704 
148.971 173.424 176.034 149.29 149.028 136.642 167.456 172.408 79.6578 77.3067 154.716 148.464 57.6111 116.936 177.096 -22.7192 166.467 175.869 -32.2526 152.375 159.703 83.6005 164.802 165.682 81.184 145.391 196.339 70.6583 14.8782 111.812 20.9037 
148.799 173.433 176.013 149.147 148.847 136.438 167.792 172.403 79.7633 77.3954 155.42 148.034 57.4926 117.66 177.063 -23.0182 166.975 175.748 -32.4864 152.837 159.203 83.2723 165.237 165.257 80.8926 145.76 195.936 70.4435 14.8608 111.717 20.7223 
148.309 173.334 175.938 148.966 148.597 136.225 167.874 172.385 79.9158 77.5882 155.607 147.562 57.332 118.028 177.095 -23.3256 167.148 175.462 -32.7769 152.92 158.65 82.9082 165.367 164.636 80.5535 146.101 195.541 70.188 14.8221 111.622 20.5813 
147.842 173.299 175.988 148.887 148.51 135.954 168.016 172.456 79.897 77.5985 155.968 147.188 57.3063 118.461 177.214 -23.6376 167.602 175.491 -33.0804 153.111 158.223 82.5143 165.576 164.187 80.2107 146.414 195.229 69.9837 14.8283 111.603 20.5733 
147.458 173.287 176.043 148.786 148.51 135.783 168.032 172.48 79.9064 77.6761 156.345 147.051 57.3392 118.825 177.403 -23.9329 168.071 175.498 -33.3298 153.297 157.978 82.1352 165.779 163.895 79.9069 146.804 195.156 69.804 14.82 111.438 20.6281 
147.069 173.242 176.061 148.804 148.532 135.509 168.032 172.483 79.7786 77.5679 156.887 147.148 57.3147 119.597 177.715 -24.2051 168.752 175.721 -33.4985 153.69 157.965 81.8307 166.211 163.841 79.6633 147.29 195.178 69.6633 14.821 111.365 20.5291 
146.896 173.281 176.052 148.873 148.65 135.36 168.02 172.497 79.6499 77.4312 157.659 147.377 57.4388 120.242 177.851 -24.2925 169.403 176.026 -33.5342 154.369 158.082 81.6431 166.891 164.027 79.551 147.79 195.346 69.6431 14.7882 111.196 20.5136 
146.713 173.209 176.021 148.908 148.705 135.24 167.891 172.453 79.5488 77.3399 158.33 147.631 57.4681 120.8 177.937 -24.3466 169.957 176.194 -33.5223 154.926 158.235 81.467 167.443 164.224 79.4414 148.218 195.516 69.5886 14.7619 110.987 20.5062 
146.91 173.291 176.054 148.83 148.642 135.129 168.109 172.48 79.5298 77.2674 158.986 147.676 57.5558 121.255 177.887 -24.4966 170.339 176.247 -33.631 155.666 158.224 81.342 168.112 164.353 79.3497 148.58 195.566 69.5361 14.7533 110.797 20.4381 
147.206 173.375 176.065 148.841 148.579 135.112 168.308 172.556 79.5573 77.2367 159.424 147.637 57.691 121.477 177.76 -24.5238 170.546 176.163 -33.6813 156.313 158.275 81.4573 168.706 164.502 79.4394 148.863 195.599 69.5396 14.7236 110.81 20.4326 
147.615 173.454 176.046 148.888 148.555 135.152 168.512 172.564 79.5639 77.2325 159.959 147.51 57.7189 121.592 177.541 -24.5744 170.466 175.902 -33.7789 156.914 158.286 81.4722 169.244 164.595 79.4313 149.121 195.56 69.4558 14.698 110.732 20.3226 
147.831 173.567 176.014 148.888 148.534 135.18 168.76 172.64 79.599 77.2881 160.231 147.289 57.658 121.594 177.504 -24.719 170.418 175.757 -33.9568 157.241 158.156 81.3528 169.523 164.51 79.3166 149.273 195.446 69.3169 14.6743 110.706 20.3125 
147.793 173.561 176.002 148.858 148.491 135.14 168.911 172.68 79.6689 77.4125 160.135 147.079 57.3829 121.591 177.671 -25.0122 170.457 175.638 -34.186 157.306 157.943 81.1337 169.566 164.283 79.1074 149.376 195.281 69.1155 14.6729 110.695 20.3624 
147.8 173.6 176 148.837 148.461 135.139 169.051 172.718 79.7618 77.5441 159.984 146.838 57.1064 121.526 177.733 -25.2814 170.441 175.497 -34.4709 157.373 157.739 80.9554 169.628 164.051 78.8928 149.487 195.122 68.9155 14.6785 110.744 20.4079 
147.754 173.688 175.989 148.852 148.472 135.112 169.241 172.752 79.7705 77.5716 160.011 146.704 56.8034 121.599 178.04 -25.598 170.576 175.642 -34.7932 157.414 157.602 80.6909 169.678 163.881 78.6026 149.615 195.01 68.7055 14.713 110.848 20.4494 
147.71 173.727 175.975 148.794 148.462 135.008 169.378 172.788 79.8511 77.6633 159.912 146.452 56.4227 121.717 178.133 -26.0244 170.783 175.807 -35.2321 157.363 157.337 80.3731 169.646 163.586 78.2647 149.671 194.79 68.4152 14.7303 111.039 20.4798 
147.434 173.692 175.967 148.757 148.383 134.825 169.375 172.836 79.8427 77.6641 159.613 146.258 56.0327 121.736 178.092 -26.3221 170.86 175.812 -35.5989 157.322 157.143 80.1215 169.642 163.318 77.946 149.739 194.559 68.142 14.7704 111.261 20.5054 
147.246 173.649 176.016 148.843 148.408 134.748 169.25 172.849 79.7386 77.5351 159.495 146.166 55.7169 121.744 177.972 -26.5065 171.01 175.749 -35.8438 157.433 157.061 79.9112 169.764 163.207 77.6786 149.846 194.412 67.9162 14.8249 111.399 20.605 
146.975 173.595 176.103 148.812 148.307 134.606 169.103 172.913 79.5878 77.4061 159.376 146.072 55.429 121.866 177.964 -26.7688 171.342 175.8 -36.1089 157.512 156.921 79.5942 169.85 163.003 77.3556 149.978 194.254 67.6756 14.8803 111.519 20.7422 
146.686 173.54 176.185 148.702 148.186 134.444 168.989 172.959 79.4548 77.3133 159.323 145.955 55.1447 122.019 177.92 -27.0254 171.623 175.792 -36.3829 157.491 156.717 79.2041 169.816 162.741 76.9978 150.084 194.052 67.3963 14.9382 111.594 20.8222 
146.548 173.5 176.254 148.656 148.203 134.346 168.82 172.95 79.339 77.2218 159.492 145.949 54.9938 122.354 177.939 -27.1816 172.021 175.872 -36.5451 157.672 156.645 78.8679 169.992 162.665 76.7002 150.335 194.003 67.1883 14.9666 111.614 20.8573 
