143.127 174.174 174.266 151.397 153.758 133.22 168.547 171.797 82.4241 86.4685 -64.0846 364.88 3.57037 -38.7734 406.623 -84.8369 -67.8835 377.312 -96.9881 -71.374 373.424 18.5519 -84.1071 374.348 19.034 -88.4982 413.655 4.71621 13.8379 101.193 14.7115 
142.892 173.564 173.659 150.771 153.448 132.636 167.876 170.444 83.2179 86.7592 -65.393 365.049 2.5685 -39.6253 406.323 -85.1983 -67.5032 377.704 -97.4572 -71.6178 373.421 17.0879 -84.815 374.639 17.5774 -88.9156 414.111 3.68672 13.5612 99.9257 13.8117 
142.608 172.761 173.155 150.146 152.853 131.914 167.338 169.83 84.0505 87.1018 -66.5214 364.831 1.88217 -40.7326 406.592 -85.717 -68.3436 379.109 -98.4037 -72.0504 372.766 15.8414 -85.5945 374.218 16.3244 -89.4353 414.1 3.09681 13.2973 99.6578 13.1652 
142.656 173.016 173.148 149.216 152.757 131.545 167.537 169.549 84.8584 87.2583 -67.4519 364.928 1.33922 -41.9356 406.435 -86.4422 -68.9619 379.082 -98.9746 -72.2352 372.334 14.63 -86.1195 374.342 15.5411 -90.251 414.232 2.42109 13.4037 98.3999 12.7828 
142.368 172.026 172.994 148.354 151.646 131.562 168.532 169.322 85.2927 86.8159 -68.5496 364.997 0.0347674 -43.6274 405.621 -87.1643 -70.2528 380.744 -100.273 -73.1323 372.813 13.5769 -87.5695 374.6 13.8257 -90.7251 414.844 1.69113 12.6808 98.7414 11.2361 
141.857 171.502 172.922 148.12 151.39 131.679 168.126 168.841 85.4632 86.4105 -69.6202 365.374 -1.36895 -44.5886 404.953 -87.9596 -71.8087 382.518 -101.612 -73.929 373.542 12.0972 -88.8821 375.322 12.3109 -91.3531 415.661 0.976778 12.1592 98.3613 10.3506 
141.419 172.736 172.467 148.191 151.105 132.479 168.244 168.235 85.4475 86.1118 -70.0243 366.039 -2.8455 -45.5523 404.323 -88.5293 -72.5467 383.079 -102.073 -74.7579 373.996 10.9131 -90.1754 375.762 11.2146 -91.9286 416.328 0.519214 11.6059 97.2596 9.66927 
141.296 173.127 172.45 147.021 149.989 132.879 167.812 167.252 85.3086 85.9141 -70.1033 366.992 -3.36557 -45.9937 403.851 -88.3719 -72.7027 383.138 -101.85 -75.2396 374.47 9.34575 -91.05 376.41 10.0676 -92.3719 417.322 0.261633 11.2425 94.9843 9.25408 
141.407 173.574 172.523 146.328 150.011 132.952 166.905 166.628 86.7174 86.9002 -69.9892 367.504 -3.03664 -46.1012 403.786 -87.857 -73.0677 382.507 -101.302 -74.7075 373.958 8.76016 -90.7813 376.409 10.0122 -92.9476 417.683 0.283724 11.3275 93.1586 9.63848 
140.636 174.712 172.645 146.153 150.142 132.525 167.423 166.155 87.1317 87.0717 -69.8168 368.121 -3.36425 -46.7764 405.703 -87.7578 -73.3859 382.844 -100.95 -74.3023 374.171 8.28968 -90.3926 376.759 9.69444 -93.2394 417.915 0.290816 11.6185 92.4046 10.1333 
139.843 175.207 172.212 147.425 150.506 132.215 167.652 166.179 86.9534 86.5713 -69.5833 368.793 -3.6161 -47.1255 406.653 -88.0969 -74.0713 384.208 -101.275 -74.686 374.942 8.42795 -90.9586 377.486 9.57129 -93.3329 418.412 0.348467 11.4633 93.1668 10.1733 
140.171 176.589 172.744 146.518 150.49 132.095 167.936 166.322 87.4812 87.1591 -69.4449 369.748 -3.35344 -47.509 408.559 -87.8368 -74.5715 385.295 -101.14 -74.2688 375.325 8.23404 -90.343 378.104 9.82954 -93.5925 419.144 0.676222 11.8941 92.6727 10.613 
140.178 175.745 172.85 144.889 150.469 132.024 166.894 166.2 87.9203 88.2428 -69.727 370.689 -2.80032 -47.5077 409.602 -86.783 -74.4693 386.125 -100.485 -74.1074 375.588 7.83687 -89.9022 378.834 10.5136 -93.5855 420.039 1.14191 12.3681 91.5368 10.6554 
139.981 172.331 172.919 143.401 150.232 131.649 166.672 166.351 87.824 87.9382 -69.7307 371.692 -2.43528 -47.2566 411.273 -85.8315 -74.0711 386.893 -99.8744 -73.8963 376.312 7.70916 -89.6528 379.907 11.0564 -93.4783 420.86 1.62922 12.8651 90.6819 11.0405 
139.908 169.921 173.32 143.447 150.354 131.225 167.74 167.141 87.9283 87.4603 -69.4593 373.333 -1.68595 -47.1255 412.829 -85.4983 -74.1692 387.502 -99.4675 -73.5873 378.27 9.21499 -89.4395 381.876 12.2014 -93.4477 422.258 1.97224 12.9984 91.6362 11.5896 
139.903 169.063 174.699 143.207 150.025 130.377 170.334 168.86 86.5051 85.7933 -69.0376 375.31 -0.643448 -47.3442 414.936 -85.62 -74.4289 388.944 -99.334 -73.0763 381.317 11.2637 -88.8786 384.109 13.7767 -93.2183 423.615 2.64445 12.9242 93.9279 11.8345 
139.285 169.823 175.838 145.009 149.83 128.326 169.268 170.65 85.4087 85.392 -68.4299 377.992 1.0075 -47.6031 417.64 -85.6672 -75.3068 391.954 -99.2471 -71.9212 384.754 13.7485 -87.2995 386.339 15.5744 -92.8124 425.144 3.52684 12.821 97.6351 11.9999 
137.887 171.961 177.039 145.214 149.344 126.451 168.44 173.598 83.3796 84.8005 -66.9938 382.487 4.99998 -47.6521 421.935 -85.6256 -75.8991 394.664 -98.1753 -71.033 389.796 17.5703 -85.329 390.122 18.6603 -91.1091 428.52 4.96968 12.8437 102.298 12.9523 
136.565 174.006 178.186 145.883 148.691 125.436 171.052 175.966 82.27 84.2621 -65.0435 387.042 7.09018 -47.1929 423.436 -86.1284 -75.754 395.862 -97.7229 -70.2024 392.965 19.8509 -83.7615 392.62 20.9766 -90.4659 430.785 5.59712 13.0529 104.631 13.1178 
135.75 176.723 177.533 147.125 148.557 124.69 172.918 177.906 82.0659 84.1626 -62.752 390.421 8.90623 -46.5218 425.846 -86.2184 -75.3268 397.938 -97.4096 -68.5364 395.805 22.1054 -81.8249 394.655 22.875 -89.5136 432.532 6.31489 12.9021 107.338 13.4236 
135.342 178.428 180 149.214 148.432 124.206 173.76 179.988 81.3095 84.0063 -58.6284 394.736 9.87254 -44.752 428.71 -87.7062 -73.1613 398.882 -97.7169 -64.5474 398.553 23.2053 -77.2837 396.547 24.6262 -87.6895 433.927 6.42575 12.8579 109.081 14.0607 
134.302 178.406 180 148.448 148.277 123.044 172.907 179.985 80.2265 83.5406 -56.111 397.689 10.5671 -43.4281 430.4 -88.0101 -70.7095 400.358 -97.3265 -62.3898 401.212 23.3942 -74.7538 398.758 25.5579 -86.2436 435.118 6.51367 12.8276 109.458 13.6706 
133.164 175.432 180 150.284 149.18 121.96 171.195 179.984 78.9603 82.7699 -55.5891 399.548 10.8774 -44.1762 432.502 -88.8505 -69.8317 403.668 -97.8585 -62.5323 402.643 23.8334 -74.5832 399.662 25.6987 -84.8845 436.62 6.86265 12.5002 111.288 12.1496 
133.009 175.583 177.47 150.934 149.104 121.083 170.783 179.102 78.205 82.2742 -55.3648 401.46 11.1608 -43.5025 434.835 -89.2297 -68.2273 405.574 -97.9005 -61.5979 405.659 24.7153 -73.5388 401.418 25.9158 -83.3193 438.473 7.18262 11.8315 112.955 11.867 
135.117 175.615 176.988 154.224 149.018 122.371 170.903 178.884 78.4865 81.6246 -51.8984 404.265 10.0237 -41.8725 436.477 -89.5668 -66.9046 406.922 -98.1458 -58.7255 407.667 25.7729 -70.8121 402.919 26.8828 -81.6645 439.96 7.68585 11.4608 113.662 11.9987 
134.2 176.143 180 157.128 149.972 122.4 172.186 179.996 75.9949 77.2063 -48.945 407.152 10.6616 -40.9345 437.176 -88.7671 -63.5746 408.74 -98.6471 -57.1641 410.577 26.5712 -69.8201 405.671 26.9071 -79.5155 441.881 8.43369 12.003 115.285 10.0065 
133.754 177.208 175.373 155.138 147.238 122.832 172.948 177.88 74.9706 75.5285 -46.1011 409.614 9.84154 -41.5141 438.788 -88.8808 -60.5243 410.081 -98.6004 -55.4753 413.253 26.4819 -67.97 407.62 26.2966 -77.774 443.67 8.47638 12.2085 114.984 8.51313 
133.784 178.23 176.038 153.607 145.526 124.057 173.405 177.136 73.2524 75.163 -42.664 413.661 9.17664 -42.2947 440.724 -89.3732 -57.6397 411.452 -98.581 -53.3475 417.471 26.9087 -64.5925 409.866 27.024 -76.2444 446.042 8.64982 11.9118 115.426 7.40803 
133.041 179.386 176.453 155.24 145.389 123.748 174.751 176.182 69.8278 71.034 -40.4755 415.963 8.65323 -41.1366 442.674 -88.7588 -53.4307 414.189 -98.8266 -52.687 420.205 26.0978 -64.0735 411.767 25.7037 -74.1497 447.446 8.75616 12.397 116.255 6.29953 
131.173 178.895 175.134 154.245 145.656 126.064 169.212 173.5 69.7172 72.0241 -40.7519 416.615 7.87662 -33.6444 441.974 -87.2357 -49.2714 414.006 -96.9911 -52.1505 421.32 25.5347 -63.767 414.177 25.454 -72.5308 449.51 8.41437 12.9959 113.146 6.7902 
147.1 177.585 174.739 158.134 145.353 124.543 168.004 173.367 71.5357 73.4438 -41.3961 412.417 10.8091 -31.9775 443.485 -85.6774 -46.082 415.79 -96.6456 -50.2486 423.352 27.5849 -61.3873 416.099 26.3262 -71.233 451.433 8.65262 13.9405 113.665 5.9322 
150.522 179.071 174.231 159.423 145.895 127.878 167.592 171.476 70.6504 73.5689 -41.314 412.801 12.2556 -27.347 443.323 -84.6968 -41.4753 416.944 -95.4639 -51.1708 427.137 28.4803 -60.6954 419.576 25.3197 -68.9624 454.937 8.51166 16.7504 114.682 5.29081 
152.78 175.327 174.26 158.094 148.098 131.306 164.238 170.597 69.444 74.1283 -41.2036 411.937 12.8847 -23.6989 441.374 -83.8879 -37.9108 415.32 -94.3328 -51.18 429.185 28.0355 -60.4802 420.059 24.623 -66.8273 456.611 8.11111 16.9789 114.107 5.35542 
147.256 174.141 174.246 158.006 154.162 131.86 163.013 170.223 69.8745 74.3189 -40.6001 412.306 13.0663 -19.1587 441.904 -83.6936 -38.4743 414.448 -93.0053 -51.1086 430 27.2151 -61.9617 422.693 25.76 -65.8373 457.958 7.30215 13.8893 113.097 8.09989 
139.612 173.564 176.36 156.983 157.433 131.073 163.04 173.59 69.6405 76.6889 -37.6762 413.541 14.4052 -18.5361 444.391 -83.841 -38.3651 417.89 -93.2338 -49.6634 429.641 27.1398 -60.3747 421.725 28.6246 -64.7575 458.477 7.76689 10.6594 113.061 7.85354 
135.926 173.824 176.826 155.945 158.289 130.804 164.205 174.27 69.4109 78.825 -37.5541 414.12 15.5207 -17.5258 444.843 -84.1125 -39.7855 417.978 -92.4851 -49.993 429.208 25.6616 -60.5254 423.045 28.2636 -63.8106 459.762 7.56899 10.9624 111.674 9.27134 
134.532 175.07 178.106 154.739 155.549 130.784 166.787 175.039 71.8517 80.3335 -34.6978 415.202 15.0604 -15.898 445.866 -84.615 -39.9724 418.912 -92.6496 -47.9683 428.602 25.8269 -58.2544 423.883 28.3607 -63.2018 460.354 7.52547 12.0085 110.188 10.1682 
129.745 175.767 179.273 153.409 155.423 131.371 167.868 174.801 72.1393 81.4946 -32.3586 417.389 15.68 -13.7851 445.831 -83.2717 -39.0406 419.19 -91.5523 -47.805 429.265 25.0338 -58.4959 425.904 28.636 -62.4731 461.731 7.53686 12.1778 107.923 10.7345 
135.983 176.121 179.003 147.652 156.167 131.855 170.424 174.333 74.3769 82.1563 -31.7967 416.213 17.4888 -11.7799 442.718 -81.7059 -36.3505 417.948 -91.3079 -46.9538 427.145 24.2156 -59.3788 426.745 29.0287 -60.8543 462.278 7.62929 12.7319 104.527 9.46512 
138.679 174.129 176.838 148.442 157.637 132.036 170.633 173.105 76.7614 81.6321 -30.8802 416.476 17.5227 -10.1167 441.618 -81.9436 -33.8176 416.926 -92.0151 -44.6602 427.452 24.8342 -58.201 428.442 28.8165 -59.1405 462.865 7.26662 13.3417 104.029 8.83396 
139.09 174.474 175.891 151.403 160.218 131.474 171.565 172.935 75.1479 80.3798 -31.4838 417.657 16.9735 -8.87095 440.099 -82.138 -31.4027 417.068 -92.5816 -45.2726 429.27 25.3963 -58.4326 430.391 28.8934 -57.8316 463.519 7.37328 13.8607 105.579 7.38586 
141.03 172.115 174.601 156.554 160.657 130.324 173.788 172.334 74.39 80.0452 -29.8597 419.664 18.3794 -8.92532 441.874 -82.2478 -29.0795 417.688 -91.7364 -44.2881 432.665 28.0153 -56.5884 432.351 30.2509 -56.8482 464.622 8.52279 13.6326 108.042 6.98595 
145.978 170.568 174.268 157.038 162.796 133.131 174.85 171.951 71.8988 84.5267 -28.1846 421.105 17.3531 -8.19053 444.653 -82.3253 -27.2806 417.414 -90.7961 -45.2328 431.421 27.818 -51.3193 431.902 30.241 -55.3844 465.444 9.83391 19.2327 106.375 8.75627 
137.188 172.814 173.181 91.6218 157.895 131.916 173.678 173.487 62.977 88.2705 -25.9347 426.923 15.3386 -10.5803 445.81 -83.2462 -25.0661 418.699 -90.9804 -43.5958 433.929 17.1584 -49.2885 432.824 33.9939 -54.4678 466.056 10.7476 17.8897 96.8 8.09253 
130.885 175.128 173.593 174.399 155.035 130.447 173.168 174.512 178.031 88.36 -25.4747 430.067 13.5273 -10.7788 452.462 -84.2834 -23.5953 422.878 -92.6211 -5.56196 383.69 -9.64152 -46.5983 432.589 34.4335 -53.2993 466.122 11.3318 54.2298 57.0429 9.51295 
131.173 176.202 171.715 175.009 154.499 132.68 171.488 175.406 178.207 88.6205 -23.8056 430.332 11.8351 -9.32889 453.491 -84.7418 -23.0857 423.471 -93.8929 14.6432 365.928 -22.3548 -44.9486 430.795 34.5771 -51.2476 465.133 11.1822 58.1761 52.9053 9.69479 
118.021 177.324 171.624 175.235 155.219 129.43 168.365 176.275 178.276 84.8385 -27.6209 435.407 10.642 -10.1689 457.546 -84.6396 -21.2017 427.497 -93.3552 28.3739 358.456 -30.0556 -41.5335 429.502 35.7543 -50.5004 465.362 11.7122 61.3968 50.0385 8.0723 
122.134 179.732 170.69 175.307 155.573 125.386 169.318 175.872 178.3 84.3097 -29.195 435.946 10.2576 -10.9684 460.512 -84.7624 -21.9853 429.452 -94.2442 31.7503 357.408 -37.8267 -36.9535 429.384 35.3424 -49.7558 465.701 11.7659 64.1606 47.8359 7.62229 
130.122 178.171 176.485 175.305 155.059 126.933 172.432 178.502 178.299 84.7975 -22.7709 435.735 7.99869 -9.10472 460.23 -84.876 -24.3343 427.268 -94.837 34.8416 359.656 -38.583 -34.9499 427.963 33.4737 -48.288 465.034 11.4043 61.4939 49.2117 9.4403 
136.318 176.945 176.01 175.172 154.329 130.703 173.313 178.314 178.255 84.208 -14.5383 436.34 7.84086 -6.09911 459.229 -84.2755 -24.0153 427.803 -94.6046 33.3002 365.178 -29.6052 -35.4538 428.322 33.0169 -47.5642 465.169 11.7337 57.4837 53.1615 9.43627 
149.299 178.596 175.934 175.149 156.553 137.616 168.212 178.233 178.248 85.6617 -9.87188 434.38 7.06675 -3.43226 455.362 -83.8694 -21.6033 425.131 -94.2177 30.8081 364.353 -33.07 -35.7996 427.661 31.7021 -45.8255 464.948 11.5574 56.6401 50.9116 9.09964 
155.321 176.666 175.073 175.218 148.687 141.025 163.91 177.879 178.27 85.1549 -8.05903 433.207 6.66154 -2.09699 452.06 -83.6785 -19.5846 421.573 -93.0889 37.1993 362.397 -33.4753 -33.4705 428.836 29.8658 -44.0341 464.642 11.486 54.6052 50.4372 9.20091 
165.306 177.505 178.622 174.27 140.927 140.855 165.038 179.401 179.218 82.9202 -1.47319 440.062 4.33261 -4.16317 456.572 -85.5895 -18.705 425.099 -94.9507 1.97358 408.849 -9.65172 -29.5927 429.932 28.755 -44.7739 465.599 10.8766 44.1096 61.1228 8.60571 
152.761 178.69 176.245 145.805 134.851 135.778 168.26 178.315 71.3963 81.5127 0.706405 442.993 5.9324 -4.48261 458.687 -86.2547 -19.2965 427.577 -95.243 -25.2859 434.721 30.9379 -27.567 431.628 28.2982 -44.0089 465.992 11.093 23.8208 114.415 8.2782 
136.396 179.253 175.33 153.895 132.573 131.049 169.444 176.07 83.3032 82.8873 1.78661 443.999 9.40033 -4.12111 461.218 -87.9426 -17.8915 427.549 -95.6923 -16.9117 444.395 37.2554 -26.1549 431.83 28.858 -42.8853 465.747 10.9765 18.5621 119.635 10.0316 
136.719 178.569 173.886 140.569 137.002 123.812 164.798 173.083 81.133 83.81 -8.72182 434.953 13.5792 -3.02173 458.316 -87.4403 -14.8766 425.6 -93.3298 -14.9072 438.125 30.4368 -26.547 431.309 28.3098 -41.491 466.671 10.9174 13.8027 108.322 10.2027 
135.718 179.224 172.319 140.705 139.642 118.356 165.071 171.994 76.6927 86.0879 -14.4618 433.046 17.967 -2.98697 461.205 -88.8494 -13.9881 423.557 -91.5273 -16.2964 436.895 27.9768 -26.2253 431.107 29.2732 -40.8318 467.397 11.0568 13.0392 105.142 14.4907 
131.848 176.999 175.036 146.538 140.856 118.79 168.335 172.958 74.9878 84.0529 -13.211 432.998 17.9559 -1.46448 464.291 -88.9477 -14.3568 427.681 -93.3991 -18.0632 436.007 29.1501 -25.0087 430.594 28.4162 -40.5482 467.54 10.5589 16.936 108.66 13.1512 
136.531 178.758 174.576 143.321 146.176 125.763 169.815 171.383 85.0247 87.8793 -11.4264 432.001 14.353 -0.77138 463.412 -88.1491 -14.9282 428.339 -92.8193 -11.6608 432.649 26.0469 -24.2829 431.326 28.151 -39.9113 468.647 10.3035 13.2945 100.644 12.8837 
141.425 175.331 175.278 134.827 147.642 121.376 176.724 172.215 80.4931 88.1383 -11.422 431.936 14.4507 1.65432 464.881 -88.091 -15.9292 431.771 -94.1249 -14.0036 430.34 23.5686 -20.8231 431.542 28.2345 -39.3303 469.304 10.0893 18.4762 99.9486 11.2533 
140.988 175.141 175.55 137.038 143.267 118.777 179.238 174.353 78.8092 85.0718 -10.802 432.604 15.4306 2.41269 465.027 -87.7976 -16.2116 432.72 -94.7757 -12.8201 431.902 23.3721 -21.1712 432.17 28.7461 -39.2091 469.288 10.22 17.2158 101.07 10.674 
130.433 175.346 174.144 141.461 140.252 123.522 178.897 173.6 79.1384 86.3329 -10.2281 429.986 14.8609 3.4705 460.042 -88.8383 -14.7631 428.402 -94.4169 -10.1193 436.758 23.1102 -22.8082 428.767 26.7325 -38.3612 467.82 9.7059 7.68706 102.135 10.4758 
125.629 174.27 173.123 139.791 139.038 121.368 177.976 173.583 79.7195 88.4112 -8.77681 428.818 18.0153 4.83535 455.464 -88.9535 -14.6348 425.885 -93.9903 -9.58132 440.039 24.8382 -23.0887 428.187 27.448 -37.46 466.006 9.38682 7.04905 106.661 9.82026 
117.137 174.686 172.09 135.483 141.119 124.997 178.605 171.312 76.5273 87.8844 -6.65879 428.476 17.8623 4.10269 453.937 -88.6692 -13.6065 423.733 -93.6938 -12.4386 435.49 23.492 -23.7512 426.927 26.2492 -36.3676 464.622 8.9137 9.26534 105.499 10.2685 
114.726 174.635 174.338 143.417 142.552 126.589 179.723 172.208 75.8014 85.5606 -1.43377 428.045 18.714 6.3083 455.59 -88.0871 -12.3125 425.048 -94.1283 -13.8454 431.62 26.4697 -23.1103 424.78 26.8408 -35.3545 462.848 9.47875 13.1793 108.835 10.3796 
117.348 179.86 174.259 127.418 144.87 128.945 173.882 169.81 75.2517 85.3742 0.0418339 425.621 19.6426 8.04912 453.454 -86.6646 -10.0165 424.018 -92.599 -13.0555 425.443 21.168 -23.0677 422.902 26.446 -34.1477 461.348 9.8811 13.2598 100.527 9.90999 
117.437 176.234 174.869 143.517 148.467 128.244 171.492 170.67 76.676 82.7379 1.51319 424.839 20.0201 9.82336 452.559 -85.564 -10.3298 424.108 -91.8913 -10.378 427.667 24.0763 -23.0976 423.546 26.6067 -33.6107 460.104 10.0177 11.4447 104.354 9.8646 
123.852 173.259 175.478 146.62 147.448 129.782 170.65 171.861 76.5181 81.2038 5.17138 423.195 18.9393 11.6049 451.26 -84.3349 -10.398 423.946 -91.4962 -9.17028 429.638 26.5642 -21.8089 422.863 26.6998 -32.7959 458.801 10.4792 11.5101 108.49 9.76634 
124.049 172.98 176.566 148.605 148.864 127.536 169.656 172.124 75.3634 80.1283 3.53487 421.722 18.5772 12.8835 451.396 -83.5855 -8.90115 423.686 -90.3695 -9.24289 430.442 27.7146 -21.0785 422.561 26.8581 -32.2681 457.741 10.8548 12.6078 109.658 10.0437 
129.399 170.185 177.238 139.264 146.929 130.446 166.49 171.578 72.7602 79.0542 4.88823 420.818 17.9981 13.1222 449.311 -81.4176 -6.93018 423.474 -88.5498 -8.72832 429.067 25.5916 -20.0879 422.287 26.749 -31.046 458.065 11.7834 12.241 105.909 8.13908 
131.541 169.666 178.071 139.483 143.908 129.023 167.183 172.498 73.9989 78.7689 6.42822 420.861 17.7931 14.3887 450.943 -81.1464 -6.24469 424.21 -89.1517 -8.7655 428.7 28.4762 -18.8623 421.523 27.5001 -30.3308 457.745 12.0066 14.2884 109.298 8.91363 
132.955 171.999 177.967 138.916 140.416 128.187 168.535 172.183 77.5855 79.6286 8.64692 420.522 18.8722 15.3595 451.974 -81.6971 -4.84309 424.111 -89.2724 -4.75548 429.727 29.1809 -17.0706 420.841 27.5079 -29.4318 457.69 12.2359 12.2833 108.303 9.31138 
132.797 173.715 177.326 140.23 140.15 127.687 169.841 172.642 77.8007 79.8129 10.0818 420.683 18.8105 16.8493 453.913 -82.3594 -3.76319 424.84 -89.6836 -3.45151 429.966 29.9356 -15.5606 420.168 27.6721 -28.3078 457.496 12.4722 12.5887 109.384 10.2218 
132.349 176.178 177.417 140.603 140.565 127.068 171.808 174.232 77.0706 79.1221 11.6606 420.588 18.2107 17.8165 456.363 -83.5336 -3.38143 426.426 -91.5324 -2.04549 428.867 28.7998 -14.2432 419.375 26.941 -26.9232 457.007 12.1864 12.1531 110.138 10.987 
132.566 178.136 177.686 136.84 139.298 127.089 172.661 174.614 75.5442 78.4358 12.5064 420.244 17.5502 19.415 456.633 -84.2634 -2.5751 425.895 -92.5182 -1.94041 427.799 27.8699 -13.5167 418.638 26.6986 -25.692 456.842 11.9043 12.2078 110.074 11.7105 
129.057 179.531 178.686 132.936 137.561 125.579 174.649 176.089 73.7908 77.1784 14.4188 422.053 17.0441 22.1542 457.048 -85.0953 -0.966921 425.389 -93.5678 -0.297395 428.58 27.492 -11.3761 418.198 26.8619 -23.3596 456.791 11.7531 11.7646 111.365 12.5584 
125.757 178.055 177.805 137.452 134.833 124.309 174.195 176.069 74.0107 77.3045 14.893 424.507 16.5818 23.1452 456.321 -83.4556 0.324814 425.302 -93.3183 0.650032 430.629 29.1579 -10.0607 419.277 27.4534 -22.1912 457.456 11.805 12.7042 113.546 12.1199 
124.082 178.499 177.379 140.383 134.791 123.21 174.767 175.724 73.5536 77.0223 17.2856 425.316 16.7718 24.2525 455.652 -84.1789 2.18322 424.884 -93.8433 1.26232 430.783 29.1704 -8.61976 419.642 26.9678 -20.9379 457.384 11.1362 13.7337 114.102 11.5975 
132.089 179.834 177.062 126.105 137.287 124.439 173.675 173.381 73.5283 80.3008 17.3031 423.452 16.5493 24.6684 454.759 -85.2699 3.04708 423.183 -92.4353 5.97978 428.329 20.7578 -6.93623 420.236 26.0335 -19.6401 457.797 10.6818 7.27658 102.193 11.9637 
133.393 179.609 175.532 122.407 139.289 124.287 173.808 173.159 70.2722 79.591 14.6744 421.227 16.481 24.8305 455.954 -85.6381 1.77921 423.715 -91.8894 3.07199 425.413 18.037 -8.41238 420.858 24.703 -18.7382 458.187 10.4654 11.0842 100.104 13.3343 
135.188 178.506 174.528 126.482 137.519 122.866 173.937 172.616 70.4437 79.1771 13.9673 420.532 16.0439 25.0236 456.073 -85.6973 2.58085 424.606 -91.512 4.2809 430.306 20.6012 -8.42404 422.497 24.4393 -17.605 458.372 10.4367 8.87381 105.26 12.9753 
137.136 176.196 176.625 146.951 136.905 120.459 172.802 175.891 68.6077 77.131 14.3955 418.368 19.6823 27.0654 457.732 -83.696 4.64011 426.93 -91.1176 1.76731 430.634 27.1379 -7.64973 422.323 26.1187 -16.4857 458.135 11.5291 15.2343 113.785 12.4509 
129.88 176.585 177.705 148.368 136.463 117.436 173.361 176.529 70.2371 75.3071 16.2151 421.064 20.1405 27.9983 457.38 -83.0148 6.80377 428.162 -91.5755 3.71665 432.72 29.6159 -6.07359 421.773 26.439 -15.2556 457.727 11.555 15.9036 117.443 10.8864 
125.266 175.73 180 155.365 141.331 119.713 173.054 178.904 67.4726 72.2614 20.2396 421.454 23.0099 27.6683 458.472 -81.8465 8.98268 427.497 -91.0739 3.70217 432.955 32.0628 -2.59104 421.712 28.746 -14.0838 457.026 12.291 18.122 121.292 10.6537 
123.598 173.647 180 161.843 151.27 122.705 172.978 179.986 66.3008 69.5417 25.7199 424.211 22.8075 26.8082 458.98 -81.5824 11.1677 426.783 -91.1577 5.88652 435.281 33.0547 0.779298 422.826 30.0794 -13.1219 456.856 12.5269 18.1552 122.43 10.1127 
124.028 174.718 180 160.295 151.917 121.665 175.242 179.99 67.8276 69.231 29.4553 426.446 23.7841 27.9292 458.419 -81.3683 13.6393 425.788 -90.9593 9.66788 437.704 33.3752 2.9327 423.338 30.971 -11.9756 456.707 12.8628 15.5678 121.251 9.78213 
128.649 177.531 179.539 156.679 152.465 125.8 176.2 179.843 68.5214 69.4751 37.1132 428.502 24.4901 29.7559 457.877 -81.1109 15.7155 424.612 -90.7037 12.219 438.229 32.7344 4.10345 423.273 31.3508 -10.8571 456.958 12.8312 13.4464 119.158 9.98983 
116.345 178.791 178.226 154.206 154.152 123.637 176.125 179.343 70.1589 69.3034 38.0446 431.1 25.5229 32.2906 455.777 -81.6357 15.7459 423.196 -91.9247 12.7444 435.977 32.151 2.29933 421.92 30.1498 -9.61155 457.389 12.184 12.7355 118.156 10.2243 
124.548 178.867 177.862 149.949 150.003 127.611 175.516 178.306 72.4091 71.9372 45.138 433.835 21.972 33.8937 454.816 -81.7069 16.2668 423.33 -93.1901 14.8345 434.534 31.8597 3.70495 421.654 30.0098 -7.91514 457.725 11.8155 12.1225 117.245 9.89801 
123.349 178.485 180 152.458 148.464 126.96 174.707 179.991 69.983 70.0652 45.0583 432.831 22.6743 35.5495 455.541 -81.0097 17.9547 421.537 -92.52 14.6696 435.677 33.5415 6.05212 421.121 31.0704 -6.56298 456.528 12.4729 14.2854 121.001 11.4091 
