121.934 177.651 177.91 149.169 148.418 125.983 174.676 179.179 70.4079 71.7981 45.8133 433.996 22.7529 35.8293 455.184 -80.9688 18.1961 421.306 -92.5821 16.3266 435.333 33.5766 7.89387 421.607 31.9391 -5.18447 456.685 12.9085 13.9664 120.28 11.2986 
126.136 178.541 174.835 150.226 140.712 127.982 175.842 177.845 75.0036 76.773 46.8801 431.547 19.2406 36.7906 452.752 -84.6694 18.7892 418.555 -94.3478 19.8349 434.376 34.8196 10.9284 420.868 32.7727 -3.3964 455.348 12.008 13.7502 120.455 11.4399 
120.835 175.309 173.737 146.009 139.091 125.962 178.949 176.653 74.9241 79.1028 43.032 428.918 17.8001 34.7653 451.672 -87.3408 19.4244 418.857 -94.4306 21.0039 432.138 32.8085 12.0071 420.716 31.4983 -2.02439 454.997 11.5184 13.967 117.584 10.0596 
119.923 174.27 175.039 143.078 135.955 124.019 178.624 176.442 74.0763 79.7052 41.8113 426.942 16.6121 35.3589 448.79 -87.3928 19.5631 416.628 -94.5937 21.7029 429.589 31.6107 13.0084 418.479 30.5505 -0.777146 453.515 11.2935 14.2672 116.774 9.66876 
123.151 178.189 174.655 134.589 132.68 122.825 177.516 175.645 73.2558 81.6353 41.0197 425.352 14.5997 37.5297 446.702 -88.6693 19.7122 415.869 -97.2179 23.0012 430.466 29.8028 14.4572 417.661 30.2932 0.654768 452.611 10.8041 13.3132 117.27 9.30352 
130.887 178.973 173.248 144.572 138.727 125.284 175.303 177.062 68.1887 77.7208 42.8732 425.079 12.263 39.3068 449.464 -85.775 22.9141 417.543 -96.4391 23.6337 434.24 31.2695 19.2167 420.282 31.7857 2.02901 452.094 11.7337 15.7505 121.313 9.54645 
132.668 179.38 174.816 144.338 138.295 126.239 174.93 177.956 71.8573 76.8751 46.0415 425.494 13.6827 42.4656 448.418 -84.1918 25.9942 416.187 -94.8958 27.0747 435.019 33.4748 20.198 421.346 33.7239 3.39527 451.301 12.4489 13.6581 120.827 9.96546 
134.216 179.8 172.586 146.481 134.432 126.986 173.893 176.859 74.3421 78.0979 47.5158 424.577 13.2129 45.0112 450.938 -84.3459 27.4893 416.388 -94.6199 28.7327 434.351 33.9232 20.4772 421.43 33.086 4.58515 451.125 11.841 13.8674 120.332 12.0381 
138.396 179.053 173.917 150.943 137.397 125.689 173.754 177.75 72.4815 76.5292 50.2727 423.83 14.6338 45.3428 452.147 -84.1848 30.342 417.233 -94.3455 29.1631 435.561 34.0003 22.4606 422.066 33.145 5.77364 450.763 11.7029 14.401 121.63 11.4298 
143.125 177.872 178.07 153.509 137.39 124.414 173.538 179.29 71.5165 74.5728 53.6626 425.036 16.0151 45.6169 454.078 -83.5558 31.5236 418.048 -93.8602 29.7939 437.085 34.6409 24.081 423.313 33.5535 6.77589 451.025 11.9039 14.6694 123.506 11.9356 
148.214 175.391 180 150.925 136.375 124.802 173.565 179.985 71.0977 73.1388 58.6238 428.644 15.4056 45.3983 456.665 -82.4928 33.089 421.585 -93.0884 31.3381 437.838 34.9674 26.3585 424.425 33.8447 7.84133 451.428 12.3648 14.625 123.775 11.1756 
149.383 174.387 180 148.391 135.713 123.756 173.553 179.985 70.4684 71.1811 60.6155 432.022 15.2834 46.1352 458.365 -81.2641 35.8151 423.974 -91.9913 32.6657 438.801 34.9918 27.7771 425.702 34.124 8.55865 451.982 12.8132 14.1523 122.718 10.4516 
147.699 174.348 180 147.489 135.263 122.973 174.23 179.985 70.1777 69.6481 61.5933 433.774 14.6404 48.0211 458.127 -81.0077 38.7118 423.915 -91.4833 34.15 437.897 34.58 28.4478 425.249 33.8553 9.87857 452.022 12.665 13.6662 121.36 9.97416 
149.715 175.215 180 148.424 134.976 123.451 174.654 179.986 69.9128 67.8525 62.7563 436.283 13.3709 48.6476 458.252 -81.2299 40.9786 424.809 -91.3085 35.8406 439.088 34.8694 29.9495 426.553 34.1704 11.2302 452.911 12.7468 13.5239 121.105 9.00838 
149.535 175.864 180 145.706 134.643 123.216 175.89 179.987 70.1658 67.2162 63.7362 437.873 13.045 49.6044 457.121 -81.7936 43.1975 423.219 -90.9619 38.1802 439.255 34.5962 31.6524 426.91 34.4956 12.6388 452.832 12.7413 12.8007 119.952 8.79336 
147.544 175.329 180 147.897 135.241 121.989 176.26 179.988 68.6322 65.8834 63.6635 439.916 12.6015 50.826 456.449 -81.8273 45.911 423.693 -90.4485 38.7683 440.463 34.4857 33.3339 427.891 34.4259 13.8851 452.828 12.588 13.2549 120.797 7.77084 
141.152 174.776 180 140.49 125.995 128.892 172.685 179.988 66.5812 62.0607 67.0721 436.707 9.97675 53.8738 452.868 -83.9628 42.5604 417.465 -95.2667 39.5743 436.79 30.9679 30.7352 423.852 31.096 15.1865 451.619 11.4401 12.609 120.633 10.4906 
137.924 174.241 180 149.795 127.601 130.167 172.085 179.987 69.9862 62.5738 67.5222 431.284 10.4083 56.8259 451.587 -84.4571 43.8289 417.7 -97.5035 41.3822 433.859 32.5498 31.1189 420.591 30.0982 16.8298 450.775 10.544 13.025 121.638 10.08 
135.485 175.812 180 160.553 132.345 128.985 174.681 179.984 65.6415 60.0096 59.8748 429.283 4.58184 53.3055 449.914 -87.1798 43.1684 419.852 -94.4307 40.984 435.595 30.9226 32.4602 418.778 27.6249 17.8122 451.274 10.5788 17.0585 121.867 6.70156 
134.654 177.971 180 152.012 135.111 125.757 179.693 179.99 62.9353 63.0823 53.9074 424.947 5.77626 50.9621 445.718 -87.8559 41.5973 419.768 -93.0241 39.7322 431.511 28.9458 31.5929 417.15 27.7356 19.0263 451.622 11.0162 16.3195 120.207 3.8237 
137.99 179.842 180 154.827 142.502 125.595 178.703 179.99 68.1648 67.9977 50.8341 423.389 3.9505 51.1171 444.737 -88.0336 48.5452 421.462 -91.3922 41.4798 433.089 31.9591 33.8625 415.738 28.6853 19.5401 451.379 11.4119 18.6672 117.417 4.81983 
144.118 178.596 169.255 164.272 156.157 124.824 178.876 156.434 69.3611 67.994 46.231 423.047 -0.635501 47.4866 443.986 -87.7451 64.5313 429.245 -78.1383 45.7587 434.258 30.9942 36.479 415.581 26.7116 20.5325 450.803 11.875 21.2053 100.666 20.9367 
148.235 174.908 157.531 165.051 157.289 119.779 173.783 118.487 69.2565 67.1049 42.7489 421.901 -0.465663 51.0332 444.592 -89.5678 77.6322 439.723 -57.3134 46.9005 434.761 31.4946 38.1611 415.214 26.1245 21.6529 449.397 11.5919 23.121 83.9931 37.4577 
138.464 174.016 172.581 159.956 157.338 122.97 173.472 131.387 69.8272 69.6273 55.0659 427.666 1.00378 53.6541 446.86 -88.7754 82.9691 437.44 -62.5684 47.9224 435.654 32.2842 40.8216 417.971 27.9093 22.3611 449.032 11.5943 20.6417 86.7475 33.7781 
137.732 174.401 180 152.92 150.708 121.703 173.476 179.857 64.0666 66.3529 54.4265 423.329 6.10776 54.5687 447.258 -87.0096 55.927 423.4 -83.1473 46.1835 431.337 30.2888 39.2501 417.239 28.084 23.7944 449.365 12.3167 19.5928 111.882 8.94686 
126.172 174.314 180 156.926 153.559 115.877 169.131 179.99 65.091 66.8823 61.4795 422.019 18.0728 60.486 448.587 -83.1302 57.19 420.958 -91.4303 46.8939 431.166 31.2956 40.1444 417.363 29.4822 24.7687 449.158 12.0029 17.5412 115.717 4.56661 
122.599 177.516 180 157.787 153.95 112.621 169.15 179.985 68.2351 68.9215 65.8386 424.428 22.1829 64.2176 449.927 -81.4767 56.4834 421.26 -95.0744 48.5349 432.624 33.281 41.9406 418.771 31.0919 25.9459 449.408 11.8512 16.0508 120.13 5.17075 
131.456 176.631 180 150.579 151.735 109.567 169.703 179.984 70.5403 69.5353 68.6469 425.23 24.1116 68.861 450.568 -79.4347 59.4381 419.237 -92.8965 50.2027 432.665 35.0212 43.081 420.567 32.8004 28.4692 449.972 11.9892 14.8466 121.813 7.30469 
134.488 176.518 180 150.104 147.185 112.743 171.844 179.984 72.5439 69.3215 72.5939 427.386 21.4197 70.6038 450.99 -79.7459 61.1722 420.402 -91.8928 52.2607 433.745 35.9527 44.7814 421.442 33.6845 29.9955 450.379 11.8359 13.1705 122.198 7.07061 
135.883 176.172 180 147.493 143.608 117.732 174.329 179.983 74.1819 69.7591 77.0083 432.208 15.7234 71.0081 451.45 -80.9265 63.2309 421.059 -90.8877 54.5173 435.088 36.274 46.9312 422.559 34.333 31.1936 450.568 11.7432 11.914 121.247 6.40396 
139.208 176.76 174.105 147.254 141.751 122.386 176.049 174.886 74.5981 69.5508 80.3249 435.001 11.6936 71.6401 451.331 -81.4667 67.4 421.191 -89.8464 55.6904 435.212 36.4647 48.1411 422.4 34.6849 32.1564 449.977 11.7847 11.1619 119.358 5.41665 
143.745 176.862 176.047 148.655 140.506 126.208 176.838 173.659 74.9426 69.7708 81.302 436.551 8.2449 72.6965 449.835 -81.0632 68.8932 421.408 -88.0241 56.6044 435.192 36.8778 49.0846 422.326 35.1102 33.0895 449.82 11.8795 10.9036 118.863 4.32385 
147.001 177.371 175.072 148.165 139.911 129.322 176.991 170.023 74.9393 70.3368 82.6297 439.36 5.43868 74.277 448.708 -80.7616 72.3807 422.432 -85.4816 57.2152 436.118 37.4448 50.3962 423.254 35.8889 33.9317 450.026 11.9943 11.152 117.386 3.15715 
150.712 177.434 174.75 146.743 138.929 132.956 176.889 164.248 74.6967 70.1592 84.1886 441.031 2.6867 74.9033 446.765 -81.2646 76.9893 422.532 -82.5623 58.0863 435.908 37.2843 51.1616 423.74 36.0561 34.6529 450.324 11.9634 11.6018 113.162 4.78725 
152.288 177.528 177.622 146.748 139.54 134.481 177.14 168.388 74.4217 70.0736 85.7926 440.466 2.10244 75.1919 445.166 -81.7048 76.1956 419.416 -84.6502 58.9536 435.505 37.0871 51.8119 423.668 36.0859 35.4193 450.194 11.9579 11.8606 113.951 4.11679 
143.978 175.808 179.795 141.638 141.941 127.311 176.206 176.55 74.4557 72.2736 82.0719 432.957 8.86721 75.2565 443.075 -81.5244 70.973 412.758 -87.4363 59.8024 433.324 36.4024 51.6817 422.084 36.9479 36.3993 449.859 12.483 10.7045 115.649 5.40405 
144.664 176.854 179.874 143.541 142.314 128.459 176.151 177.768 74.6759 72.592 83.0515 432.503 9.12812 75.9537 443.037 -81.8422 70.2446 412.599 -87.8317 60.7864 433.5 36.8893 52.8439 422.603 37.0923 37.2228 449.983 12.5804 11.381 117.107 5.50851 
143.615 177.505 178.472 144.575 142.286 129.005 175.957 176.824 74.6329 72.8559 84.1776 433.084 8.48705 76.5407 443.667 -82.2767 71.2535 413.456 -87.7227 61.1531 434.457 37.0919 53.9949 423.161 37.0304 37.6243 449.639 12.3649 11.7871 117.91 5.43092 
142.425 178.162 177.958 145.285 141.695 129.334 176.133 176.667 74.5543 72.6828 85.5409 434.714 8.05415 76.4943 445.026 -82.2128 71.1727 415.23 -87.3603 61.4171 435.583 37.2532 54.7312 423.916 36.9476 37.7415 449.809 12.4115 12.0058 118.616 5.28908 
142.036 178.705 176.413 144.982 141.043 130.203 176.267 174.744 74.1988 72.3069 86.6723 436.993 6.62831 76.2128 446.105 -82.3172 72.2923 417.54 -86.9486 61.6734 436.565 37.262 55.6624 424.584 36.8675 37.8772 449.676 12.4934 12.3101 118.492 4.45035 
141.717 179.315 176.65 144.629 140.746 131.097 176.865 173.921 74.1881 71.999 87.7872 438.332 5.54218 75.6356 447.673 -82.5895 72.4065 419.071 -87.4428 62.0753 436.864 37.0224 56.1704 424.677 36.5221 38.0155 449.465 12.493 12.3188 118.44 4.49114 
141.046 179.371 176.853 144.013 140.104 130.831 176.785 173.644 73.65 71.4024 88.3646 439.527 5.59336 75.1547 448.907 -82.1924 72.0676 420.559 -87.2584 62.1553 437.343 37.0297 56.6695 424.88 36.5813 37.9403 449.15 12.8229 12.3869 118.8 4.37511 
138.995 179.277 176.599 143.717 139.608 129.672 176.82 173.662 72.7132 70.4697 88.344 440.282 6.24839 75.3875 449.847 -81.7732 71.9921 421.494 -87.409 61.7595 437.902 37.0499 56.9153 425.058 36.6392 37.9525 448.899 13.0066 12.4708 119.773 4.52447 
137.287 179.484 176.492 143.878 139.422 129.236 177.595 175.939 72.6444 69.4883 88.6879 440.584 6.86708 75.2966 450.422 -81.9559 70.2328 419.923 -89.0302 62.0591 438.018 37.2153 56.9061 425.09 36.603 38.119 448.903 13.2188 12.5115 121.393 6.24686 
140.92 179.293 176.224 143.652 139.413 131.241 178.009 175.661 73.1092 69.5026 89.6346 439.867 6.14306 75.3685 450.151 -81.9663 70.1012 419.382 -88.9702 62.3052 436.743 37.2922 56.5516 424.033 36.4597 38.0864 448.492 13.364 12.4633 120.783 6.36114 
143.367 179.18 176.196 143.312 139.341 131.697 178.445 175.874 73.2839 69.7215 89.64 438.704 6.21628 75.406 450.135 -81.8889 69.6395 418.984 -88.9766 62.3643 435.727 37.1915 56.2657 423.159 36.2807 37.9639 448.129 13.4807 12.4123 120.541 6.67633 
144.581 179.045 175.533 142.171 139.047 131.562 178.498 175.001 73.2942 69.8469 89.4016 438.225 6.27156 75.4307 450.627 -81.5729 69.961 419.525 -88.5983 62.3854 435.079 37.0587 56.2525 422.567 36.1537 37.7269 447.64 13.6256 12.441 119.832 6.67526 
145.158 178.722 175.565 141.804 138.595 131.681 178.554 174.726 73.628 69.9748 89.2381 437.486 6.54242 75.7311 450.304 -81.2666 70.1638 419.325 -88.2829 62.3364 434.351 37.1899 55.8972 422.071 36.106 37.6153 447.563 13.6735 12.5349 119.368 6.5815 
145.224 178.355 175.005 141.091 137.963 131.305 178.215 173.123 73.6949 69.991 88.8471 437.017 6.54556 75.813 449.566 -81.2166 71.2959 419.049 -87.6358 62.0293 433.702 37.138 55.5247 421.514 35.9804 37.3212 447.271 13.6428 12.6455 118.081 6.06381 
145.543 177.906 176.272 141.827 138.106 131.867 177.599 173.517 73.2667 70.0259 88.0602 435.926 6.15977 76.1385 448.151 -81.0111 70.9709 417.808 -87.2115 61.473 433.149 36.9907 55.0422 421.043 35.9462 37.1174 446.928 13.4664 12.802 118.122 6.05067 
146.585 177.652 176.331 142.688 138.302 132.242 177.449 173.476 73.0364 70.0851 87.5986 435.418 5.90241 75.1978 447.467 -81.1889 70.2314 417.492 -87.1705 61.0787 433.117 36.7898 54.752 420.87 35.7922 36.7717 446.642 13.3781 12.8299 118.306 5.75217 
148.658 176.751 174.896 145.501 139.064 132.211 176.945 175.717 71.6509 69.8936 86.2212 434.035 5.32611 74.2287 446.092 -81.2362 67.1658 416.077 -88.1711 59.5841 432.917 36.7092 54.0673 420.515 35.9919 36.1809 445.956 13.3422 13.2823 120.632 6.34745 
145.245 176.575 174.472 146.792 139.12 131.015 176.124 173.82 71.3524 69.4302 84.2041 434.23 4.74468 73.2637 444.373 -81.3771 67.4901 415.412 -88.0108 58.87 432.818 36.4136 53.3257 420.316 35.6615 35.4479 445.696 13.2022 13.5207 119.386 5.2189 
145.574 176.361 174.388 146.319 138.513 131.012 175.773 173.296 71.4629 69.3905 83.1121 434.285 4.10973 72.3709 443.018 -81.2373 67.6752 414.651 -87.6439 58.3815 432.976 36.3139 52.7388 420.388 35.6638 34.5944 445.454 13.2596 13.5392 118.073 4.49406 
145.489 176.383 171.946 147.409 138.638 131.108 175.772 172.511 70.3566 68.9865 81.7615 433.903 3.64247 71.8025 442.482 -81.069 67.2142 415.16 -87.854 56.7288 433.256 36.3939 51.9651 420.425 35.9799 33.8005 444.95 13.2715 13.7829 118.972 4.01918 
144.104 176.466 169.758 148.673 138.171 130.533 175.67 170.831 69.1982 68.2392 81.1563 435.294 3.36175 71 441.984 -80.6525 66.5814 416.217 -87.1528 55.3513 434.027 36.4964 51.4904 421.031 36.3331 32.992 444.515 13.4117 14.2139 119.631 3.59511 
142.733 175.724 167.503 150.852 138.65 129.142 175.465 168.38 67.5343 66.9385 79.2839 436.383 3.00442 69.8574 442.326 -80.5396 66.0445 418.476 -85.8274 53.8433 434.583 36.1731 50.989 421.421 36.2848 32.2814 443.964 13.4118 14.6134 120.136 3.0412 
141.132 176.358 170.561 151.815 138.405 127.4 176.297 171.305 67.2976 66.1371 79.4083 437.1 4.41445 68.9088 442.572 -80.5771 63.3504 418.093 -87.6369 53.0383 434.543 36.0646 49.9728 421.117 36.2101 31.4693 443.713 13.4103 14.3536 121.889 4.67073 
143.904 174.7 167.203 151.677 137.748 127.767 177.049 169.876 67.4238 65.7332 78.4751 436.64 3.68237 67.2964 442.928 -81.4916 63.3248 417.384 -86.5634 52.8322 434.531 35.8728 49.1554 420.924 36.3277 30.6652 443.441 13.505 13.8319 120.198 3.80226 
147.207 173.422 165.98 152.451 138.059 129.135 177.251 170.305 67.1608 65.4173 77.7126 435.711 2.82366 66.2724 441.594 -81.8025 61.8698 415.65 -86.1301 52.2085 434.331 35.9044 48.182 420.905 36.7036 29.7928 443.113 13.6429 13.8283 119.921 4.13626 
148.713 172.886 159.489 154.113 138.454 129.575 177.494 171.185 66.5152 64.6982 76.7562 435.894 2.0705 64.8012 441.578 -81.4939 59.6055 415.501 -85.5643 50.7469 433.979 35.8253 46.9278 420.445 36.7073 28.4589 442.349 13.7453 13.8969 120.638 4.82549 
150.581 172.556 155.111 154.342 138.451 129.765 177.378 171.732 65.8075 64.1106 75.4748 436.058 1.9542 62.6458 441.97 -81.4279 57.4375 416.055 -84.6344 49.4345 434.079 35.8091 45.842 420.629 36.9229 27.0479 442.029 14.113 14.0193 120.826 4.91641 
151.6 172.838 155.735 153.745 138.428 129.929 177.128 171.929 66.1302 63.8718 74.5061 436.755 1.57311 61.1036 441.485 -81.6001 55.6419 415.546 -84.7445 48.4916 434.688 36.0815 45.0402 421.175 37.1875 25.7905 442.036 14.2425 14.0309 121.045 5.30392 
154.389 175.154 167.64 153.167 138.273 130.337 178.292 175.856 67.0754 64.1558 74.598 435.959 2.27261 59.7957 441.003 -82.1431 52.8762 412.239 -86.7452 47.9706 434.569 36.207 43.6262 421.111 37.1729 24.7947 442.589 14.0206 13.7434 122.514 6.97543 
152.872 175.798 168.817 153.576 138.463 130.09 178.519 176.04 67.6429 64.5028 72.9345 435.826 2.76805 57.6985 440.552 -82.7941 51.3662 410.109 -87.7168 46.9814 434.886 36.4993 42.5437 421.616 37.3805 23.491 442.592 14.0242 13.8178 123.261 7.42191 
162.325 177.035 169.139 156.751 140.995 133.607 176.452 171.848 65.7899 63.0948 73.6547 432.609 0.0316567 57.3627 437.464 -84.7665 49.2926 413.733 -92.4365 45.6874 433.659 35.5327 41.4916 420.743 37.2388 22.3312 441.832 13.2474 13.9253 122.389 6.27878 
161.89 176.139 167.037 155.459 141.238 133.882 174.739 169.747 66.4677 62.8558 72.311 433.141 -1.09118 55.1748 436.457 -84.3818 48.4101 413.537 -91.2623 44.8587 433.408 35.5789 40.2753 420.632 37.0851 20.7662 441.84 13.1515 13.9434 121.061 5.43549 
163.479 176.501 167.928 153.252 140.83 134.56 174.864 170.66 66.8668 63.5641 71.1069 433.695 -1.15534 52.3895 436.983 -84.4558 46.115 412.238 -90.6703 44.0561 433.67 35.2541 39.198 421.195 36.9363 19.2085 442.49 13.2909 13.7616 120.663 5.07578 
158.665 176.456 171.697 150.743 140.034 132.403 174.897 173.46 67.528 64.1623 70.2915 435.261 1.12794 50.27 438.189 -84.2023 42.6729 411.558 -90.2704 43.3997 434.625 35.2925 38.3608 422.208 36.9509 17.9512 443.7 13.5475 13.551 121.658 6.19651 
154.251 177.559 175.146 150.016 139.661 130.254 176.117 176.925 69.0948 65.2483 69.2907 436.124 3.35509 48.453 438.074 -84.3275 38.6214 409.787 -90.6636 42.5136 434.47 35.5266 36.7354 421.752 36.671 16.604 444.332 13.479 13.2038 123.282 7.32958 
151.237 177.539 174.78 148.172 139.706 130.243 176.287 176.194 69.927 66.1507 67.7705 437.985 3.6271 46.7125 439.048 -84.1866 38.8219 410.513 -89.3837 41.6223 435.613 35.5828 35.9868 422.644 36.6819 15.1875 444.808 13.6495 12.9263 122.165 6.43145 
149.767 175.549 168.583 147.268 139.436 130.92 174.708 173.541 69.5665 66.2671 65.922 440.807 2.5865 45.6614 438.222 -83.2448 40.896 411.561 -86.8237 40.3228 437.382 35.5669 35.4887 424.237 36.9155 13.8244 444.906 14.0108 13.2024 119.91 4.49941 
149.987 174.551 170.474 147.475 139.137 130.403 173.612 173.904 69.1865 66.012 64.3003 443.393 1.64897 44.9162 439.625 -83.1383 41.0486 414.047 -87.9449 38.9697 438.546 34.729 34.5949 425.118 35.8865 12.5571 445.425 13.674 13.4327 119.169 4.0034 
155.09 174.322 178.931 146.408 137.409 132.897 173.567 179.62 69.1491 65.9179 62.1443 445.369 -1.76212 42.9321 438.68 -83.2272 38.5811 410.472 -86.8876 38.1915 439.879 34.3873 34.2802 425.973 35.8152 11.4121 445.189 13.9678 13.3484 119.928 5.53967 
152.363 174.821 179.999 146.102 137.007 132.981 174.004 179.996 69.4071 65.7088 60.7313 446.37 -1.11553 41.8657 438.261 -82.8873 39.0312 409.909 -86.0123 37.381 441.046 34.7582 33.1974 427.031 36.1496 10.3351 446.361 14.3067 13.369 118.877 4.76951 
152.75 175.111 180 145.003 136.093 134.595 174.308 179.998 70.2613 65.6331 59.8823 449.552 -2.50574 40.2055 439.197 -82.7898 39.202 412.377 -85.7279 37.2327 443.497 34.7934 32.6275 429.147 36.1628 9.3079 448.208 14.6501 13.2481 116.848 3.29819 
151.074 175.739 180 144.991 136.54 135.246 175.005 179.996 71.4011 66.0541 58.7706 449.691 -2.49396 39.2695 439.954 -83.093 36.9967 413.48 -86.8704 36.5774 443.46 35.2558 31.1476 429.205 36.2494 8.18272 449.361 14.5501 13.0282 117.147 3.31595 
148.347 175.441 180 143.666 136.788 135.674 174.427 179.996 71.6292 66.3673 57.0108 452.189 -2.4457 37.9989 441.778 -82.6749 35.3815 415.297 -87.3049 35.6631 445.568 35.3137 30.5445 431.156 36.5775 6.75727 450.583 15.0233 12.7644 117.096 3.89066 
147.711 175.663 180 143.591 136.618 136.976 174.904 179.996 72.5714 66.945 55.985 453.475 -3.66022 36.4428 442.094 -83.1965 34.5557 414.86 -87.2589 35.2229 446.243 35.1755 29.6092 431.832 36.4333 5.69941 451.418 14.8248 12.5102 116.33 3.65158 
147.417 176.003 179.999 142.034 136.389 137.423 174.771 179.996 72.7227 66.9733 54.22 456.445 -4.61304 34.5196 445.392 -83.3836 34.9603 416.957 -86.7771 34.2398 447.818 34.8185 29.229 432.988 36.1463 4.34827 451.618 14.9755 12.3138 115.189 4.0676 
146.961 176.514 180 139.694 136.071 137.551 174.814 179.996 72.3569 66.9337 52.3471 459.502 -5.89276 33.2118 447.037 -83.5388 35.1 418.952 -86.3485 33.3435 449.085 33.7532 29.0547 434.246 35.4379 3.13667 451.381 14.7567 12.2917 114.009 4.02561 
144.714 176.661 180 138.754 135.336 137.441 174.889 179.99 72.7432 67.1648 51.7962 460.48 -4.69893 32.816 448.819 -82.8075 32.5301 419.951 -85.7955 32.484 448.662 34.5049 27.6433 434.037 36.1174 2.1427 452.173 15.1191 12.0687 114.812 5.03199 
143.355 177.278 180 137.543 135.484 137.744 175.367 179.989 73.3912 67.2308 51.3766 461.817 -3.08949 32.0283 451.605 -82.2418 30.6177 420.304 -85.3733 31.9806 450.219 35.1154 26.7365 435.387 36.9036 1.01551 453.6 15.7191 11.6236 115.326 6.96181 
142.566 177.652 174.998 137.274 135.327 137.321 175.439 178.315 72.884 66.8878 49.7497 461.96 -1.72136 30.4033 452.825 -81.6145 31.0075 422.09 -83.9476 30.0772 450.29 35.7721 25.122 435.399 37.5798 -0.622204 453.754 16.419 11.4914 114.2 6.23265 
141.106 178.179 179.003 138.991 136.441 136.172 176.044 178.598 71.6101 66.3486 47.956 463.984 -1.47869 28.4057 454.933 -81.6834 28.9668 424.565 -85.0164 27.6982 450.647 35.9531 23.6423 435.945 37.4127 -1.94067 453.951 16.522 12.1043 115.902 6.13798 
138.752 178.848 179.364 140.418 136.92 135.105 176.448 177.371 70.5746 65.5781 46.6619 466.879 -0.600041 26.9526 455.956 -82.0016 27.6212 425.639 -86.4327 26.0412 452.935 35.9254 22.7174 438.294 37.494 -3.02184 455.046 16.6143 12.5478 117.293 6.26779 
136.036 179.634 179.91 141.152 136.147 134.583 177.738 177.439 70.6047 65.5055 45.9675 468.441 0.266924 25.5033 457.436 -82.5586 26.1373 426.754 -87.2367 25.0734 453.818 36.1274 21.56 439.341 37.4265 -3.81511 456.445 16.389 12.7937 118.445 6.3279 
134.134 179.996 179.857 142.802 138.204 134.27 178.325 177.1 70.2285 65.46 45.0286 470.617 1.89223 23.4391 460.564 -82.5261 23.6831 428.561 -88.241 23.1429 455.413 36.578 20.257 440.85 37.7765 -5.33254 457.256 16.7538 12.7755 120.477 7.43575 
131.622 178.582 179.821 144.127 139.266 134.731 178.213 176.444 69.0293 64.7377 43.4197 471.588 2.64348 21.2237 463.087 -82.7318 22.0515 430.528 -88.6 20.9474 456.058 36.5927 18.459 441.717 37.7513 -6.72845 458.113 16.8644 13.0314 121.673 7.66939 
127.996 179.428 179.856 146.559 141.258 135.255 176.715 174.646 67.4639 63.8425 41.6594 472.087 3.56049 18.5973 465.143 -82.8064 20.7677 433.278 -88.0261 18.3604 456.508 36.3993 16.6447 442.236 37.5866 -8.16766 458.186 17.012 13.3663 122.223 7.22777 
