145.873 163.06 169.919 155.688 150.232 134.162 165.713 167.564 81.0107 83.6978 -165.919 460.597 15.5908 -159.132 490.899 -63.9281 -189.095 466.311 -77.4628 -177.942 463.355 27.0676 -194.762 461.618 30.2998 -200.968 503.852 23.5729 9.23667 88.795 12.9095 
151.815 170.063 179.841 155.25 154.088 136.621 168.452 176.338 82.8841 83.078 -168.309 456.494 15.8066 -162.395 493.534 -67.6589 -193.686 469.682 -79.1571 -178.15 463.147 30.9934 -195.196 462.365 34.5886 -201.128 502.947 24.556 9.47184 96.0873 12.9953 
150.764 166.751 180 152.92 153.229 136.513 165.212 178.353 83.7697 83.5551 -168.839 456.671 15.9325 -163.878 493.774 -67.3918 -197.479 468.761 -78.6145 -178.376 463.249 32.1013 -195.44 462.892 35.6303 -201.555 502.637 24.8283 9.84785 98.3662 14.7276 
148 167.337 178.301 153.034 151.492 134.072 164.468 175.736 81.7411 82.0591 -170.594 458.071 17.5072 -163.673 494.169 -68.2692 -198.114 468.514 -78.5963 -179.616 464.262 32.4349 -196.246 463.279 35.2217 -202.095 502.886 25.0312 10.1672 99.0658 15.4573 
146.909 169.17 178.544 152.304 151.227 134.361 162.469 175.491 82.8529 83.1684 -170.566 458.645 17.4633 -163.882 495.495 -68.1219 -198.959 468.38 -78.027 -179.207 464.23 32.9695 -195.727 463.267 35.6009 -202.479 502.771 25.2472 10.3836 99.3753 16.5327 
143.652 170.142 174.611 152.624 150.392 132.311 161.129 172.356 82.427 83.2203 -172.834 459.905 18.5316 -163.578 496.828 -67.1588 -197.277 470.12 -78.3577 -179.853 464.162 32.4358 -196.198 463.291 35.0652 -202.798 503.333 25.5276 10.5711 97.9121 15.7523 
141.437 169.069 173.013 154.874 149.441 130.965 160.602 171.516 81.3603 83.0233 -173.744 461.268 19.0637 -163.682 497.762 -66.3849 -197.521 472.053 -79.5529 -180.811 464.229 32.1116 -196.65 463.232 34.3374 -203.205 503.762 25.6272 11.1004 98.2468 15.57 
140.186 165.949 171.37 155.299 148.013 130.112 159.39 170.385 81.0014 84.0027 -173.381 462.23 19.1289 -163.645 497.3 -65.7952 -198.136 472.271 -80.3387 -180.821 464.91 31.9022 -196.173 463.272 33.7053 -203.476 504.035 25.4535 11.3057 98.692 15.7408 
140.604 162.426 167.989 156.5 147.302 130.091 157.755 167.793 80.7437 85.6154 -172.983 463.297 18.6675 -163.834 496.86 -65.0261 -198.587 472.23 -80.0079 -180.795 465.34 31.351 -195.591 463.094 32.9004 -203.649 504.476 25.4258 11.4498 98.0245 15.7934 
142.067 164.656 166.715 157.449 148.004 130.324 159.117 167.05 80.7135 86.8089 -172.936 462.998 18.2867 -164.055 495.061 -65.6211 -198.442 471.602 -79.8399 -180.903 465.157 31.4297 -195.344 462.48 32.9454 -203.666 504.285 25.3294 11.2872 97.9076 15.0293 
143.259 165.726 164.812 156.678 147.492 130.942 162.799 166.361 79.7106 87.3755 -173.06 462.842 17.8072 -164.793 495.283 -67.1771 -198.378 471.048 -79.1018 -182.241 464.466 30.9841 -196.241 461.667 32.6575 -203.631 504.174 25.3973 11.2316 97.0466 14.4662 
144.398 165.571 163.818 155.406 147.165 131.392 163.978 165.262 79.2238 88.4405 -173.373 462.436 17.3588 -165.321 495.709 -68.0347 -198.072 470.878 -78.6123 -183.07 463.843 29.7401 -196.673 461.119 31.9634 -203.656 504.353 25.3997 11.0384 95.1051 14.0707 
144.913 165.75 163.956 152.86 146.313 131.246 164.089 164.753 79.1873 88.9771 -173.727 462.256 17.5845 -165.702 495.73 -68.3178 -198.326 470.975 -78.4153 -183.498 463.566 28.7804 -196.938 461.017 31.6329 -203.787 504.698 25.4642 10.8015 93.6921 13.9165 
145.946 166.127 164.581 152.279 146.035 132.303 164.56 164.946 79.1396 89.1393 -173.452 461.825 17.2821 -165.042 495.483 -67.7931 -197.772 471.198 -78.4552 -183.658 463.308 28.1119 -197.129 461.062 31.4654 -203.647 504.976 25.5119 10.5942 92.579 13.8124 
147.148 164.911 164.856 153.585 146.944 133.43 164.431 165.624 77.6805 87.5134 -173.678 461.803 16.9588 -164.567 494.875 -66.9465 -197.659 471.913 -78.6018 -184.147 463.569 28.298 -197.614 461.225 31.7777 -203.57 504.937 25.8879 10.6085 92.9609 13.6512 
147.425 166.091 165.728 154.201 147.481 133.954 163.621 165.805 77.1856 87.1592 -173.277 461.528 16.8916 -164.282 493.637 -65.5155 -196.531 472.879 -78.9785 -183.384 464.021 28.0574 -196.98 461.357 31.5264 -203.27 504.978 25.9826 10.4497 92.9193 12.6356 
146.727 167.573 165.026 154.525 146.914 132.902 160.442 164.637 76.1412 86.6277 -172.042 462.844 17.0197 -164.613 491.274 -63.702 -194.904 474.039 -78.2331 -182.633 465.104 27.5435 -196.233 461.843 30.86 -203.174 505.333 26.114 10.479 92.0398 11.0906 
146.428 168.377 165.382 154.363 146.896 133.831 157.33 164.911 76.4006 86.7724 -170.515 463.152 16.9215 -164.326 490.132 -62.3921 -194.704 475.114 -78.1774 -181.917 465.51 27.4161 -195.594 462.174 30.7394 -202.976 505.698 26.146 10.4333 92.1175 11.5037 
145.376 168.976 165.656 154 146.806 133.375 157.452 165.314 76.6597 86.8507 -169.503 463.777 17.2046 -164.78 490.619 -62.8767 -194.802 475.149 -77.961 -181.466 465.997 27.6064 -195.159 462.593 30.8693 -202.779 506.017 26.0776 10.4184 92.4483 11.0592 
145.963 169.284 167.322 153.854 146.278 134.419 158.319 166.437 77.1592 85.804 -168.177 463.584 16.8286 -162.969 490.679 -61.8729 -194.005 474.35 -77.9827 -181.177 465.991 28.2327 -195.542 463.003 31.3139 -202.287 506.127 26.1524 10.242 92.5152 11.9732 
145.726 170.613 167.581 154.632 145.469 134.198 157.983 166.552 76.8562 85.6689 -167.637 463.371 17.0075 -161.669 490.554 -61.3056 -193.326 474.874 -77.9959 -181.112 466.352 28.5197 -195.391 463.264 31.4778 -201.994 506.269 26.1398 10.3227 92.8592 12.6522 
145.758 172.905 167.976 154.919 144.155 134.117 158.474 166.517 76.9694 86.1065 -167.474 463.384 16.7767 -160.2 491.218 -60.863 -192.433 474.867 -77.8191 -180.344 466.732 27.9431 -194.8 463.371 31.0901 -201.664 506.515 26.0525 9.94017 91.825 13.3181 
144.074 169.092 167.76 154.913 143.625 132.851 157.834 165.617 77.286 86.2 -167.017 464.646 16.8863 -158.573 492.687 -59.5094 -191.292 475.158 -77.3704 -179.888 467.066 27.0757 -194.674 463.924 30.6143 -201.427 507.238 26.027 9.57715 90.0341 14.1496 
144.373 170.438 167.432 154.543 143.715 132.73 158.615 164.723 78.0501 86.954 -167.049 466.185 16.6922 -158.281 492.66 -59.8565 -190.421 474.611 -76.3794 -179.396 466.543 25.4467 -194.51 464.125 30.17 -201.25 507.952 26.1676 9.07347 86.7876 13.4561 
145.028 170.045 168.205 153.361 144.506 134.165 156.535 164.754 78.1416 85.8458 -167.054 467.161 15.65 -156.525 490.782 -57.8888 -189.055 473.885 -75.7159 -180.281 466.883 25.2174 -195.883 465.31 30.636 -201.006 509.038 26.2074 8.77718 84.7526 14.0331 
144.44 163.353 167.445 153.1 145.963 134.196 158.433 165.11 76.905 85.1048 -166.041 467.708 15.4507 -156.159 493.175 -60.1533 -188.723 473.759 -76.1711 -180.198 466.558 25.1306 -195.186 465.115 31.0292 -200.222 508.561 26.1483 9.25953 85.3821 13.6948 
144.474 165.752 166.932 148.724 145.365 134.615 158.141 165.102 75.9706 84.7106 -165.285 466.891 15.2575 -155.688 492.007 -60.0752 -188.257 473.485 -76.6748 -180.638 465.999 24.3885 -194.714 465.031 30.899 -199.648 508.139 25.9041 10.2827 84.9681 13.7079 
146.125 164.743 167.25 149.667 144.967 136.228 157.022 165.996 75.8566 83.7199 -163.824 466.641 14.3021 -154.493 491.03 -58.9019 -187.288 473.629 -77.6671 -180.505 465.855 24.7059 -194.828 465.265 31.015 -199.195 508.178 25.5794 10.4517 85.7455 14.2964 
149.076 162.219 166.842 149.949 144.743 138.737 155.662 166.294 76.33 83.897 -162.13 466.602 12.6994 -153.305 489.46 -57.5265 -186.181 473.283 -77.6949 -180.542 465.608 25.2568 -195.087 465.27 31.2334 -198.664 508.41 25.2701 10.2912 86.0439 14.7545 
149.8 163.415 166.033 150.321 143.798 138.99 154.168 166.194 77.1947 84.2341 -161.194 466.65 13.1166 -152.767 488.112 -56.5598 -184.796 474.335 -77.9804 -178.905 465.85 25.5126 -193.875 465.355 31.2652 -198.274 508.711 25.1032 9.96213 86.3877 15.1195 
148.923 161.016 165.683 148.229 143.645 138.244 150.095 166.309 78.4082 85.0089 -161.426 465.43 14.2027 -151.931 486.401 -54.9512 -183.898 475.344 -78.7421 -177.303 465.77 25.6752 -192.193 465.253 31.3647 -197.769 508.549 24.7751 10.1342 87.1159 16.8709 
147.98 158.8 165.364 148.403 143.497 137.938 149.286 166.137 79.2654 85.151 -161.319 465.577 14.2895 -150.498 487.169 -53.9276 -182.568 475.29 -78.4233 -176.049 465.833 25.0883 -191.333 465.376 30.7066 -197.306 508.857 24.5468 9.97589 85.9166 17.4502 
146.942 156.326 165.444 148.006 143.575 137.289 147.415 165.824 79.8101 85.6001 -160.496 465.723 14.2813 -149.321 485.804 -52.7237 -181.48 474.345 -78.4175 -174.626 465.702 24.7451 -189.944 465.042 30.195 -196.717 508.534 24.2221 9.97888 85.3153 18.506 
146.49 156.112 164.286 145.26 143.553 136.74 150.742 164.31 80.0259 84.8454 -159.484 467.203 13.0012 -149.436 486.529 -54.9787 -180.257 473.443 -77.6726 -173.66 465.826 24.0034 -189.038 465.192 29.4904 -196.181 508.247 23.9063 10.2321 83.9316 16.3362 
143.538 157.669 164.533 141.862 142.344 134.924 151.231 163.571 80.9336 85.436 -158.707 468.329 13.305 -149.265 487.063 -55.7558 -179.164 472.969 -77.242 -171.686 465.523 22.244 -187.039 464.927 28.227 -195.473 508.023 23.7119 10.4257 81.6935 15.4434 
142.487 161.122 164.437 141.708 142.15 134.88 152.953 162.457 81.2192 85.2443 -157.586 468.873 12.6883 -149.721 487.023 -57.5226 -178.216 472.209 -76.8799 -170.463 464.863 21.0112 -185.999 464.311 27.298 -194.713 507.574 23.4123 10.3539 80.2391 13.6427 
142.821 167.033 164.946 142.668 143.407 134.393 157.562 161.457 81.6641 85.0404 -156.442 469.406 12.0316 -150.39 488.415 -61.535 -177.245 471.102 -77.018 -168.963 464.616 20.089 -184.856 463.96 26.4203 -194.008 507.254 22.9328 10.1385 79.2368 10.83 
143.426 170.488 166.059 144.331 143.696 134.23 159.003 161.468 81.8909 85.514 -155.357 469.677 11.4512 -149.853 488.327 -62.1875 -176.292 470.148 -77.0234 -167.71 464.853 19.7761 -183.841 463.61 25.69 -193.39 507.187 22.6786 9.66629 78.663 10.4038 
141.642 170.205 166.085 141.874 143.572 133.536 158.948 160.97 81.6693 85.774 -155.03 470.164 11.5792 -149.708 488.707 -62.2572 -175.728 469.736 -76.8396 -167.622 465.476 19.6427 -183.323 464.042 25.3786 -192.927 507.639 22.321 9.85883 78.4171 10.1233 
139.291 167.339 166.247 139.399 143.96 131.787 157.379 160.607 81.4079 84.9507 -155.561 470.308 11.9942 -149.664 488.783 -62.4551 -175.513 470.063 -77.12 -168.046 466.181 19.5063 -183.673 464.903 25.1782 -192.412 508.153 21.9733 10.0136 78.6558 9.81677 
140.579 167.726 166.387 138.563 144.709 132.366 157.775 161.21 81.0458 84.3162 -154.933 469.035 11.9486 -148.667 487.751 -63.2887 -174.681 470.016 -78.2756 -167.511 466.367 19.4067 -183.119 465.097 25.2785 -191.605 508.016 21.4344 9.97319 79.4419 9.90082 
139.472 168.382 166.881 136.276 145.385 131.204 159.27 161.61 81.0312 84.2588 -154.368 467.556 12.7493 -147.639 487.451 -65.0288 -173.345 468.816 -78.4517 -166.975 465.886 19.006 -182.447 464.668 25.5251 -190.573 507.552 20.846 9.8216 79.1583 9.19122 
139.464 170.969 168.211 133.47 145.455 130.507 162.571 162.131 81.8222 84.3989 -154.727 466.343 13.1479 -146.746 487.816 -65.8389 -171.618 467.805 -78.6335 -166.238 465.499 18.0643 -181.837 464.599 25.2491 -189.697 507.535 20.4934 9.88941 77.6389 8.52701 
138.845 173.314 169.074 131.98 145.171 129.443 162.898 163.15 83.0094 84.2591 -155.237 466.151 13.3533 -145.572 489.272 -66.0653 -171.291 468.289 -79.6497 -165.157 465.322 17.332 -181.1 464.925 24.865 -188.905 507.665 20.2594 10.1708 77.5644 9.33415 
138.062 173.926 169.171 146.405 147.611 129.909 165.218 164.85 78.4185 79.1548 -154.391 465.66 13.1016 -144.654 491.932 -68.1542 -170.131 467.879 -80.1802 -164.919 468.443 23.2476 -181.482 466.354 27.0574 -187.751 506.513 20.2527 9.77928 86.1506 9.7936 
137.433 174.748 169.178 148.177 147.197 129.606 166.838 164.805 77.4352 78.3232 -153.598 465.339 12.3274 -143.587 492.044 -69.4661 -168.267 467.274 -81.1482 -163.798 469.129 24.1089 -180.34 466.166 26.7583 -186.313 505.693 19.7348 9.75378 88.3965 9.47526 
135.303 174.515 168.49 146.409 146.543 128.586 166.672 164.086 77.4588 78.5198 -154.208 465.827 12.02 -142.936 492.45 -70.2561 -166.783 466.998 -81.2542 -161.645 468.536 23.2658 -177.915 465.487 26.1866 -185.004 504.718 19.6844 10.0925 87.8143 9.30996 
138.111 174.547 168.792 144.159 145.151 128.645 166.308 163.979 78.4475 79.6667 -153.362 464.407 12.1892 -142.352 492.795 -70.7398 -165.789 466.741 -81.9335 -158.521 467.548 21.8273 -174.84 464.423 25.4072 -183.715 503.693 19.5464 10.0333 86.9099 9.389 
137.692 172.889 167.779 144.128 145.87 127.548 166.861 163.971 78.8586 80.4965 -152.777 464.134 13.877 -141.503 492.019 -71.5934 -164.779 465.768 -82.1899 -156.312 465.882 21.3493 -172.45 463.58 25.8255 -182.18 502.694 19.7223 10.6301 86.7509 9.32517 
140.828 176.815 167.567 140.865 144.597 124.41 170.36 164.964 85.5147 81.9462 -150.509 462.207 17.2162 -140.151 487.582 -72.9991 -161.738 462.093 -81.9735 -149.78 459.735 17.6972 -168.363 461.713 26.4052 -178.951 500.885 19.8907 12.9903 80.7787 7.80981 
142.209 176.308 169.589 147.55 143.594 126.244 171.959 164.737 95.5045 83.9894 -147.074 460.604 18.986 -138.368 483.967 -72.4695 -158.144 459.636 -81.0464 -145.437 453.553 13.4496 -166.644 460.678 25.7688 -177.663 501.102 19.5348 16.1872 72.5875 6.20021 
141.966 176.802 169.607 138.553 145.518 127.058 175.281 164.352 102.303 85.7968 -145.594 460.203 19.9795 -136.814 483.686 -71.5081 -156.733 459.71 -80.2446 -145.032 449.756 9.31415 -166.372 459.834 26.2902 -176.657 501.78 20.0128 19.4067 66.8081 6.08854 
144.072 174.27 169.634 142.362 148.176 127.483 173.516 162.63 102.062 90.7911 -143.492 461.54 19.5475 -135.373 482.981 -69.9528 -154.279 459.307 -78.0412 -143.164 447.535 6.41552 -162.616 457.098 26.0805 -175.064 501.455 21.1993 19.9591 62.2129 5.46985 
149.038 174.27 170.844 137.206 147.699 126.714 171.115 161.454 97.7758 92.1825 -140.96 463.223 19.2319 -132.545 482.293 -67.8653 -150.794 458.648 -75.5404 -143.598 446.893 -0.00147629 -160.174 456.914 26.1923 -173.5 501.816 21.8674 25.2314 53.7955 5.17313 
145.475 174.839 166.757 136.476 146.931 125.384 170.73 161.311 96.1778 91.9 -136.918 465.994 19.8294 -132.025 483.909 -68.0371 -148.805 460.091 -75.4532 -142.818 447.192 -0.0295582 -157.434 457.869 26.9866 -172.463 501.619 22.3047 27.7793 53.3841 4.70303 
141.746 176.228 165.247 123.828 146.304 126.875 170.958 161.081 100.018 92.3754 -133.341 468.391 20.1624 -132.007 485.5 -67.4857 -147.642 461.6 -74.9899 -142.107 447.02 -2.54969 -154.933 458.837 27.6278 -171.496 502.109 22.9344 31.5671 50.5167 4.24802 
144.622 174.11 169.141 125.401 146.765 129.509 173.466 163.425 99.7995 91.6907 -131.695 466.751 20.5032 -131.612 487.271 -67.6668 -147.145 462.376 -75.9211 -140.595 447.384 -2.79038 -154.277 458.81 28.2669 -170.253 502.022 23.4296 31.8186 51.2508 4.86776 
146.521 174.27 169.137 129.045 147.703 130.884 174.892 163.985 99.6061 92.6431 -131.534 464.336 20.5493 -128.867 485.711 -68.7511 -147.09 461.685 -77.0494 -140.374 446.436 2.54414 -154.103 458.5 28.838 -168.951 501.994 23.0712 28.8089 56.9722 5.4452 
146.609 174.748 168.798 136.166 147.512 130.938 174.714 163.802 101.492 93.04 -131.807 462.866 20.4563 -126.888 484.832 -69.5189 -147.197 460.403 -77.6175 -138.564 445.89 5.44541 -153.523 458.274 28.5931 -167.924 501.851 22.75 26.0068 60.0652 6.66683 
143.666 175.544 168.827 129.734 148.4 128.762 172.783 163.676 97.509 93.1677 -132.125 462.692 22.3849 -124.634 483.986 -68.8367 -146.515 459.397 -77.6323 -137.766 448.259 9.46629 -151.62 458.633 29.3411 -166.822 501.485 22.7414 23.941 64.1231 7.54993 
141.206 176.103 168.789 134.796 148.737 129.242 170.197 163.25 92.2056 91.2808 -130.705 463.278 22.1451 -122.813 482.751 -68.0904 -145.37 459.028 -78.0353 -135.538 453.374 16.2976 -150.206 460.606 30.6967 -166.121 501.379 22.5365 19.7201 71.7657 7.78468 
145.354 179.155 168.988 143.027 148.516 133.737 169.89 163.854 88.5959 87.7239 -126.45 462.748 20.5876 -122.645 481.12 -68.7365 -143.384 457.694 -77.1022 -134.973 456.139 21.6575 -150.674 462.544 33.3896 -165.238 500.781 22.5666 18.665 77.0461 6.49605 
143.85 179.566 168.465 150.889 150.361 132.248 168.476 164.437 84.4056 86.0038 -125.451 460.158 20.9901 -121.742 479.055 -69.2478 -142.821 456.499 -78.0474 -134.688 461.916 29.669 -150.12 463.184 34.5814 -163.967 499.247 21.968 14.1274 88.7717 6.39371 
145.329 179.337 168.561 153.543 150.896 133.978 167.811 164.738 88.5809 86.7496 -123.556 458.355 21.0801 -120.372 478.256 -68.4717 -141.786 455.858 -77.823 -131.027 460.81 32.6567 -148.068 461.795 35.3113 -162.361 498.163 22.4308 13.3254 91.2741 6.57534 
144.445 178.873 167.86 154.204 151.512 135.077 165.935 163.022 90.5696 88.1373 -121.961 458.165 19.882 -119.118 478.319 -68.0748 -140.56 455.616 -77.5563 -128.2 461.456 33.9629 -145.752 460.379 35.514 -161.565 497.302 22.5378 11.821 92.1155 6.97707 
141.411 175.244 169.416 153.509 151.961 134.704 162.902 162.542 90.9296 89.2276 -120.725 458.187 19.6799 -117.879 475.586 -67.406 -139.414 454.113 -77.2984 -126.76 460.139 33.4643 -144.416 459.31 35.4914 -159.782 496.887 22.4219 11.3325 91.3066 6.53328 
143.776 177.152 168.96 152.095 151.893 137.227 165.713 164.566 86.1906 87.0143 -118.667 458.003 17.8448 -117.613 476.147 -68.6772 -139.977 453.722 -77.5169 -129.67 462.162 34.557 -146.228 460.003 36.4098 -159.051 496.466 22.4837 10.8665 94.9887 6.93825 
144.247 175.128 169.745 153.594 151.928 137.164 166.117 166.282 85.7366 86.4363 -119.338 457.116 16.8677 -117.408 477.956 -69.7154 -140.488 455.166 -78.7964 -130.362 461.404 34.114 -146.793 459.672 36.0099 -158.405 496.521 22.0874 10.9281 95.9258 7.45299 
145.531 173.719 171.088 153.258 153.642 136.775 167.769 167.511 84.934 87.1745 -119.546 457.017 17.9152 -117.192 479.223 -70.1416 -139.988 455.653 -78.8799 -130.246 460.547 34.0495 -145.583 459.758 36.8641 -157.676 496.782 22.3526 11.8512 95.8605 7.57188 
146.028 172.877 172.594 150.913 152.938 135.784 169.827 169.191 85.0956 87.1384 -120.232 456.347 18.7928 -116.35 479.149 -69.8359 -140.006 455.713 -79.2302 -130.004 459.421 33.8563 -145.332 459.415 37.2792 -157.155 496.637 22.5397 12.2206 95.8229 7.98256 
145.587 172.211 172.805 148.491 152.584 134.344 171.674 170.23 83.6887 86.2077 -120.369 456.059 19.4435 -115.968 479.846 -70.188 -139.413 455.877 -79.4441 -129.884 460.7 34.3131 -144.726 459.748 37.2638 -156.814 496.214 22.5588 12.2842 97.3734 8.13189 
144.451 171.206 172.329 148.537 152.965 133.472 173.023 170.682 83.5082 85.9239 -120.633 455.334 19.7558 -115.163 479.935 -70.1751 -138.93 455.783 -79.6634 -129.32 460.747 34.227 -144.333 459.531 37.1084 -156.374 495.66 22.4929 12.1237 97.7445 8.45347 
143.592 171.486 172.525 147.752 150.999 132.893 175.166 171.607 82.3024 83.8476 -121.879 453.314 19.7921 -112.788 480.744 -70.9625 -139.106 455.7 -80.9483 -130.487 460.794 34.0036 -145.836 459.167 35.8044 -155.936 495.247 22.0835 11.9928 98.9517 10.3167 
145.111 171.28 172.959 147.637 150.284 133.912 175.499 171.737 81.7312 83.4098 -121.552 451.946 19.4011 -112.149 479.441 -70.6322 -138.49 454.917 -80.7481 -130.919 460.586 34.5111 -145.926 458.792 35.811 -155.752 494.748 21.9803 12.3399 99.4003 10.1619 
145.272 174.082 173.125 149.48 149.788 134.851 176.024 171.774 80.5326 82.0311 -122.469 450.519 18.3238 -110.919 479.248 -71.0448 -138.478 454.302 -81.4384 -131.892 459.394 33.6515 -147.085 457.885 34.8472 -155.527 494.107 21.7244 12.4123 98.9768 11.0106 
144.975 174.736 173.792 151.065 150.091 135.162 176.456 172.039 79.6904 81.2938 -122.481 449.201 16.8877 -110.436 478.589 -71.9046 -138.111 453.623 -82.5342 -132.432 457.767 32.5258 -147.708 456.086 33.7265 -155.128 493.069 21.1924 12.0001 98.4294 11.0228 
144.837 176.204 173.6 148.966 150.595 135.415 176.47 171.63 79.9823 81.667 -122.862 448.08 15.6006 -110.095 478.084 -72.2778 -137.747 452.866 -82.7756 -132.686 455.447 30.9491 -148.104 454.265 33.0002 -155.003 491.984 20.9309 11.6573 96.4652 11.1031 
144.52 177.07 173.372 150.158 152.148 135.833 175.688 171.578 80.0682 81.522 -123.212 447.286 15.0066 -109.493 477.655 -72.7388 -137.536 451.712 -83.0741 -132.796 454.059 30.7273 -148.379 453.101 33.1389 -155.149 490.781 20.6515 11.5589 96.4154 11.6566 
145.001 178.234 173.137 151.116 151.641 136.663 175.149 171.333 79.1989 81.569 -123.129 446.017 13.956 -108.939 476.169 -73.2096 -136.789 449.938 -83.3365 -133.747 453.139 30.5466 -148.978 451.534 32.6362 -155.44 489.597 19.9146 11.2392 96.6035 11.6884 
145.101 178.06 172.172 151.294 151.139 136.049 172.269 169.995 80.6372 81.9793 -123.736 444.485 13.7031 -107.954 474.905 -72.9028 -136.432 448.912 -83.234 -133.376 452.139 30.0459 -149.153 450.299 31.8274 -156.145 488.597 19.1263 10.8013 95.6231 12.1205 
145.481 177.488 172.08 150.944 150.395 136.544 169.86 168.096 79.5183 82.4086 -124.418 442.419 12.9191 -106.746 472.324 -72.3165 -135.051 445.877 -82.3094 -134.781 450.932 29.2978 -149.945 448.373 30.7636 -156.689 487.112 18.3458 10.7389 94.08 12.2923 
145.197 176.429 171.093 149.688 149.355 136.439 168.062 166.77 79.0802 82.975 -124.942 440.891 12.6522 -106.735 470.93 -72.3481 -134.792 444.229 -82.1717 -135.301 449.508 27.8356 -150.318 446.579 29.6456 -157.609 485.627 17.724 10.4928 92.3987 12.3637 
143.502 175.476 171.083 146.44 150.835 135.228 166.592 166.95 81.3715 84.6922 -126.422 439.966 12.7383 -106.797 468.808 -72.1529 -135.539 442.39 -82.5556 -135.865 447.07 26.3193 -151.331 445.239 29.073 -158.681 484.647 16.8423 10.2374 90.3193 12.6839 
142.843 175.245 171.509 145.188 150.794 134.622 165.687 166.261 81.6478 86.1691 -128.356 438.435 12.2282 -106.916 466.291 -72.0664 -135.599 439.146 -81.9842 -137.511 444.673 24.2989 -152.444 443.596 27.7992 -159.915 483.411 15.6968 10.7537 87.2609 12.959 
143.998 173.82 170.809 146.254 151.335 135.61 163.706 165.036 82.1399 87.1405 -129.797 435.95 10.7873 -107.379 462.371 -70.9644 -135.377 436.274 -81.253 -138.818 442.23 22.1266 -153.867 441.77 26.3187 -161.173 481.843 14.691 10.8134 83.8495 12.2144 
144.436 172.651 171.332 140.473 151.507 137.344 162.049 165.123 81.6202 89.2784 -130.772 433.663 9.45794 -106.641 458.071 -68.97 -136.1 433.87 -81.1718 -140.91 439.227 17.9769 -155.432 439.374 25.2054 -162.481 480.424 14.0613 11.019 78.9483 12.5954 
143.997 173.298 171.312 145.892 152.582 136.876 162.818 165.636 83.36 89.4652 -132.547 432.121 8.35149 -108.358 457.124 -70.7998 -138.407 432.362 -82.3995 -141.811 438.862 20.0698 -156.917 438.204 24.3581 -164.055 478.795 12.7558 10.1567 83.0564 13.0619 
144.577 172.916 171.713 144.903 152.684 137.784 161.478 165.871 83.2837 90.4071 -133.563 429.051 7.95966 -107.824 452.906 -69.1805 -140.085 429.626 -82.7359 -143.936 435.707 18.629 -158.992 435.441 23.379 -164.824 476.804 12.0502 9.8871 82.179 14.264 
144.759 172.9 172.119 146.945 152.546 137.438 161.386 167.099 84.1268 89.5581 -135.99 426.679 7.88253 -109.021 450.034 -69.4215 -142.795 427.504 -83.4598 -146.46 435.27 21.1394 -161.784 434.824 23.5 -166.27 475.456 11.3814 9.97191 86.0479 14.9666 
145.526 173.264 172.398 148.487 151.493 138.013 161.217 168.299 85.1416 89.7005 -137.699 424.909 8.09507 -110.097 446.59 -69.0738 -145.38 425.144 -84.0318 -147.924 433.67 21.3241 -164.032 433.35 22.9229 -167.743 474.365 10.6759 9.48807 86.8794 15.7678 
