164.375 175.479 144.732 141.254 143.338 147.325 174.252 84.2667 86.9771 84.2787 -86.8513 114.221 45.5835 -99.9093 96.7357 -20.4489 -92.2923 130.56 68.9039 -79.8896 138.157 75.5924 -66.4205 139.877 71.2091 -82.9888 162.727 44.7293 12.4339 10.1564 101.399 
164.4 175.321 144.773 141.377 143.367 147.233 174.2 84.1111 86.783 84.1111 -86.9492 113.901 45.5704 -99.9775 96.3542 -20.2835 -92.3003 130.235 68.8736 -79.8756 137.81 75.5519 -66.3894 139.504 71.1936 -82.995 162.366 44.7812 12.4398 10.1388 101.281 
164.411 175.146 144.812 141.534 143.422 147.126 174.072 83.9677 86.5468 83.9475 -86.9612 113.601 45.6443 -99.9058 95.9815 -20.0797 -92.3143 129.856 68.8318 -79.8514 137.472 75.517 -66.3583 139.158 71.2171 -83.0175 162.047 44.8828 12.4489 10.1196 101.032 
164.42 175.018 144.772 141.596 143.494 147.009 173.914 83.8611 86.3718 83.8926 -86.9456 113.379 45.8335 -99.835 95.6465 -19.864 -92.3583 129.555 68.88 -79.8803 137.246 75.5945 -66.3974 138.926 71.3774 -83.0649 161.808 45.0538 12.4519 10.1338 100.815 
164.402 174.978 144.755 141.672 143.58 146.979 173.811 83.817 86.2814 83.8817 -87.0558 113.126 46.0233 -99.8676 95.3404 -19.731 -92.3824 129.257 69.0131 -79.8729 136.991 75.7424 -66.4063 138.673 71.5709 -83.1285 161.571 45.261 12.4506 10.1109 100.708 
162.933 174.489 144.29 140.693 142.229 147.893 173.626 83.3007 86.2844 84.1591 -87.4598 112.718 45.9922 -99.9273 95.6275 -19.856 -92.2497 128.759 68.8881 -79.6951 136.743 75.8763 -66.4001 138.638 71.6934 -83.1477 161.287 45.5042 12.4883 10.3325 101.016 
162.699 174.72 144.055 140.806 142.415 148.163 173.73 83.3331 86.2455 84.0975 -87.6432 112.572 46.1072 -100.1 95.5116 -19.9992 -92.4012 128.665 69.0693 -79.8178 136.549 76.0473 -66.4675 138.386 71.9096 -83.1923 161.132 45.7137 12.4483 10.2342 101.168 
162.9 174.99 143.815 140.823 142.67 148.135 173.916 83.4472 86.3278 84.1094 -87.9487 112.418 46.2526 -100.396 95.3297 -20.1697 -92.5527 128.501 69.3018 -79.9455 136.247 76.274 -66.5338 138.054 72.1765 -83.2496 160.941 45.9083 12.3659 10.1211 101.31 
163.164 175.25 143.562 140.812 142.823 148.057 174.051 83.5676 86.4091 84.1345 -88.2829 112.246 46.3597 -100.727 95.2074 -20.4403 -92.7224 128.372 69.512 -80.0877 135.962 76.4724 -66.6317 137.685 72.3978 -83.2857 160.749 46.0787 12.3273 10.0184 101.519 
162.185 174.98 143.157 139.775 141.557 148.748 174.054 83.1332 86.5068 84.3202 -88.7756 111.708 46.4109 -101.024 95.4587 -20.6762 -92.532 128.026 69.5918 -79.8365 135.649 76.6848 -66.535 137.515 72.509 -83.2758 160.367 46.2929 12.3729 10.1094 102.25 
162.324 175.36 143.022 140.044 141.982 149.013 174.365 83.3703 86.6662 84.3181 -88.9757 111.399 46.3935 -101.377 95.1434 -20.8725 -92.529 127.846 69.9034 -79.8352 135.276 76.9115 -66.4567 137.038 72.6839 -83.2649 160.041 46.4166 12.3118 9.98131 102.556 
162.856 175.706 142.929 140.147 142.395 148.995 174.696 83.6167 86.8541 84.3525 -89.1676 111.045 46.4212 -101.701 94.7787 -21.1382 -92.4794 127.578 70.1991 -79.7962 134.843 77.1278 -66.3821 136.545 72.8419 -83.2373 159.682 46.5125 12.2778 9.88648 102.862 
163.423 175.982 142.857 140.272 142.8 148.865 175.014 83.8126 87.023 84.3426 -89.2601 110.608 46.4961 -101.794 94.2061 -21.2958 -92.3693 127.215 70.4998 -79.6878 134.32 77.3665 -66.2205 135.971 73.0258 -83.1341 159.203 46.5979 12.2351 9.77274 103.163 
162.591 175.744 142.667 139.308 141.641 149.385 175.22 83.475 87.0621 84.5985 -89.6984 109.89 46.6321 -102 94.4455 -21.5329 -92.0669 126.698 70.5512 -79.3732 133.901 77.4781 -66.0888 135.704 73.0927 -83.0222 158.666 46.7188 12.2831 9.93886 103.93 
161.743 175.438 142.662 138.389 140.464 149.716 175.2 83.1567 87.0536 84.8393 -90.4565 109.456 46.6989 -102.365 94.7725 -21.7613 -92.0507 126.308 70.5111 -79.2719 133.637 77.5645 -66.1425 135.455 73.1812 -82.9758 158.299 46.8267 12.3422 10.1359 104.428 
161.99 175.719 142.598 138.806 141.116 149.525 175.437 83.5208 87.1695 84.8818 -90.3401 109.275 46.752 -102.407 94.4053 -21.7679 -92.0078 126.205 70.8699 -79.2577 133.352 77.7885 -66.1313 135.041 73.3917 -82.9203 158.05 46.9117 12.3771 10.0041 104.609 
162.462 175.934 142.585 139.088 141.676 149.136 175.541 83.7777 87.216 84.8886 -90.4949 109.149 46.7307 -102.674 94.1303 -21.8324 -92.1584 126.118 71.1218 -79.4355 133.008 77.932 -66.3077 134.504 73.5454 -82.865 157.79 46.976 12.4377 9.91798 104.707 
162.977 176.074 142.539 139.247 142.09 148.735 175.566 83.9979 87.2963 84.9248 -90.5325 109.009 46.7709 -102.67 93.8109 -21.8504 -92.2339 125.979 71.312 -79.5333 132.67 78.0675 -66.4099 134.049 73.7075 -82.7738 157.577 47.0384 12.4861 9.82228 104.672 
163.377 176.115 142.564 139.365 142.437 148.333 175.486 84.1279 87.286 84.9316 -90.6488 108.897 46.8381 -102.672 93.5621 -21.8062 -92.3526 125.862 71.4621 -79.6747 132.385 78.1681 -66.5695 133.638 73.8558 -82.7115 157.398 47.1247 12.5468 9.77392 104.587 
163.726 176.156 142.489 139.355 142.646 147.99 175.377 84.2437 87.3084 84.9917 -90.8201 108.712 46.8792 -102.62 93.3586 -21.8127 -92.4513 125.648 71.5494 -79.7975 132.038 78.2529 -66.7195 133.191 73.9977 -82.618 157.19 47.2217 12.6059 9.75103 104.444 
164.06 176.235 142.336 139.259 142.933 147.472 175.382 84.326 87.319 85.0936 -90.853 108.137 47.2984 -102.152 92.6301 -21.5893 -92.351 125.005 71.8772 -79.7356 131.312 78.6166 -66.7081 132.375 74.4665 -82.3075 156.587 47.5437 12.6743 9.75044 104.311 
164.178 176.21 142.33 139.173 143.16 146.949 175.448 84.3004 87.1827 85.1349 -90.6138 107.873 47.5535 -101.642 92.2451 -21.5077 -92.3164 124.546 71.869 -79.7215 130.925 78.6307 -66.7347 131.982 74.6084 -82.1423 156.235 47.5928 12.7037 9.81596 104.197 
164.252 176.168 142.275 139.073 143.299 146.456 175.438 84.2864 87.0783 85.1999 -90.4425 107.661 47.8601 -101.265 92.0085 -21.3349 -92.2916 124.11 71.8918 -79.7064 130.564 78.6937 -66.7608 131.631 74.7844 -81.9969 155.949 47.7126 12.7262 9.88546 104.007 
164.342 176.121 142.142 138.973 143.426 146.063 175.44 84.2776 87.036 85.297 -90.3198 107.498 48.1154 -100.914 91.8256 -21.2595 -92.3011 123.741 71.9211 -79.7108 130.266 78.789 -66.802 131.37 74.9864 -81.88 155.713 47.8294 12.73 9.92286 103.901 
164.47 176.04 142.121 138.981 143.627 145.655 175.491 84.1689 86.8784 85.3257 -89.9854 107.365 48.2837 -100.671 91.777 -21.2902 -92.2408 123.39 71.8987 -79.6526 129.937 78.785 -66.7753 131.037 75.0771 -81.7334 155.41 47.9356 12.7413 9.97479 103.961 
164.537 175.987 142.058 138.952 143.833 145.31 175.597 84.1294 86.7617 85.3551 -89.7583 107.167 48.3879 -100.483 91.6942 -21.4324 -92.2184 122.959 71.882 -79.5979 129.503 78.7526 -66.7355 130.615 75.1235 -81.5891 155.042 48.0057 12.729 9.98328 104.097 
164.524 175.945 142.005 138.944 143.984 145.069 175.65 84.1845 86.7248 85.4158 -89.6674 107.059 48.4891 -100.415 91.7078 -21.5142 -92.2252 122.665 71.9472 -79.5616 129.185 78.7874 -66.7232 130.335 75.2085 -81.4893 154.818 48.1103 12.7283 9.95094 104.187 
164.535 175.906 141.985 138.996 144.189 144.789 175.672 84.1731 86.6284 85.4538 -89.3202 106.863 48.6098 -100.333 91.619 -21.5323 -92.1062 122.287 71.9924 -79.4217 128.844 78.7971 -66.6214 130.015 75.2487 -81.3701 154.474 48.2113 12.7418 9.98794 104.3 
164.489 175.879 141.925 138.968 144.326 144.557 175.647 84.1681 86.5706 85.5246 -89.202 106.711 48.7436 -100.396 91.6038 -21.5087 -92.0988 122.014 72.0567 -79.3845 128.56 78.8361 -66.6133 129.742 75.3329 -81.2944 154.215 48.3309 12.7393 9.99737 104.366 
164.455 175.857 141.872 138.987 144.522 144.376 175.669 84.144 86.4712 85.5516 -89.1517 106.638 48.8331 -100.57 91.6456 -21.4486 -92.1208 121.831 72.1442 -79.366 128.312 78.8757 -66.6049 129.484 75.4293 -81.1996 154.001 48.4743 12.72 9.98164 104.43 
164.419 175.844 141.937 139.084 144.734 144.184 175.696 84.064 86.3314 85.5315 -88.8044 106.417 48.9541 -100.565 91.4073 -21.2618 -91.9892 121.567 72.2155 -79.2099 128.034 78.8924 -66.4495 129.207 75.4817 -81.0523 153.659 48.566 12.7046 9.98029 104.486 
164.422 175.841 142.051 139.271 144.982 144.03 175.758 83.9115 86.1311 85.4317 -88.3248 106.175 49.0171 -100.442 91.1068 -21.1761 -91.796 121.324 72.2474 -79.0108 127.783 78.8802 -66.2495 128.925 75.4887 -80.8721 153.267 48.6246 12.7131 10.0009 104.654 
164.388 175.846 142.261 139.44 145.195 144.019 175.846 83.8378 85.991 85.3144 -87.9279 105.949 49.1246 -100.261 90.7655 -20.943 -91.54 121.125 72.3489 -78.7406 127.619 78.9184 -65.9671 128.786 75.5213 -80.718 152.992 48.6854 12.6999 9.99629 104.721 
164.254 175.835 142.531 139.597 145.392 143.993 175.922 83.7289 85.8123 85.2326 -87.6681 105.817 49.1757 -100.223 90.559 -20.7961 -91.396 121 72.3833 -78.584 127.514 78.8956 -65.8112 128.665 75.5255 -80.6178 152.782 48.7062 12.6903 10.0167 104.795 
164.09 175.828 142.754 139.746 145.535 143.963 175.937 83.6131 85.6787 85.1615 -87.3594 105.763 49.2269 -100.2 90.4261 -20.6573 -91.2277 120.926 72.3927 -78.4131 127.471 78.8751 -65.638 128.615 75.5055 -80.5332 152.651 48.7303 12.6866 10.0442 104.826 
163.866 175.84 142.99 139.839 145.633 144.003 175.985 83.5216 85.555 85.0878 -87.1716 105.744 49.2171 -100.155 90.3809 -20.5878 -91.0683 120.925 72.4111 -78.2487 127.477 78.8409 -65.4807 128.614 75.4668 -80.4686 152.578 48.7423 12.6905 10.0533 104.925 
163.613 175.867 143.127 139.934 145.709 144.032 176.032 83.3933 85.4093 84.9923 -87.0596 105.758 49.1589 -100.107 90.3796 -20.5993 -90.9545 120.991 72.387 -78.1189 127.532 78.7774 -65.3584 128.643 75.3973 -80.3821 152.51 48.7299 12.7106 10.0587 105.101 
163.301 175.863 143.32 140.031 145.798 144.052 176.031 83.277 85.2841 84.9086 -86.7482 105.745 49.103 -99.9306 90.2917 -20.5685 -90.7359 120.966 72.3104 -77.898 127.532 78.6769 -65.1402 128.641 75.2946 -80.2266 152.415 48.6836 12.7218 10.0792 105.151 
162.994 175.892 143.421 140.13 145.863 144.11 176.063 83.2424 85.2628 84.8894 -86.5671 105.734 48.9826 -99.7671 90.275 -20.6671 -90.5582 120.941 72.2576 -77.6919 127.523 78.6209 -64.9419 128.62 75.2022 -80.0667 152.329 48.6379 12.7477 10.0729 105.287 
162.677 175.92 143.406 140.114 145.828 144.15 176.045 83.2611 85.3078 84.9541 -86.5912 105.817 48.8354 -99.7593 90.4135 -20.8155 -90.4688 120.997 72.18 -77.5792 127.58 78.5635 -64.8507 128.654 75.1238 -79.9532 152.371 48.5695 12.7744 10.0748 105.349 
162.382 175.891 143.448 140.094 145.801 144.126 176.02 83.2484 85.3 84.9907 -86.5038 105.951 48.7498 -99.6615 90.5466 -20.9139 -90.3767 121.092 72.0931 -77.4668 127.666 78.4716 -64.7345 128.71 75.0379 -79.8285 152.424 48.4834 12.7733 10.061 105.438 
162.058 175.842 143.468 140.064 145.752 144.132 176.024 83.2764 85.2972 85.0036 -86.5934 106.143 48.582 -99.7453 90.8497 -21.1527 -90.3561 121.2 71.9931 -77.4167 127.739 78.3481 -64.6962 128.761 74.9019 -79.7539 152.512 48.3851 12.7955 10.0446 105.592 
161.689 175.752 143.467 140.025 145.756 144.073 175.989 83.2926 85.2344 85.0654 -86.7129 106.389 48.3523 -100.001 91.2506 -21.3866 -90.416 121.345 71.8345 -77.4422 127.827 78.1382 -64.7514 128.792 74.7225 -79.7151 152.607 48.2555 12.8142 10.0437 105.711 
161.178 175.706 143.56 140.004 145.728 144.113 175.952 83.3758 85.2312 85.1219 -86.8555 106.638 48.2429 -100.157 91.582 -21.4798 -90.4315 121.437 71.7568 -77.4492 127.927 78.0258 -64.7928 128.894 74.6244 -79.7202 152.775 48.1914 12.8351 10.0614 105.665 
160.645 175.655 143.595 139.983 145.681 144.132 175.872 83.3836 85.2229 85.194 -86.9845 106.939 48.0969 -100.356 91.9677 -21.6269 -90.4519 121.596 71.6279 -77.4823 128.098 77.9057 -64.8822 129.052 74.5109 -79.7467 152.985 48.1322 12.886 10.1162 105.613 
160.18 175.589 143.588 139.992 145.642 144.179 175.749 83.4782 85.2712 85.2622 -86.9264 107.189 48.0289 -100.404 92.2302 -21.7091 -90.4015 121.687 71.5705 -77.4482 128.255 77.8377 -64.9004 129.242 74.4149 -79.79 153.175 48.0942 12.9372 10.1581 105.546 
159.709 175.536 143.586 139.986 145.511 144.21 175.625 83.4647 85.2813 85.2773 -87.0517 107.449 47.8655 -100.514 92.5175 -21.8342 -90.4399 121.837 71.4287 -77.502 128.419 77.7259 -64.9764 129.393 74.282 -79.8331 153.355 48.0282 12.9814 10.1962 105.484 
159.394 175.469 143.54 139.97 145.374 144.259 175.466 83.4662 85.2945 85.3081 -87.1209 107.723 47.6856 -100.693 92.8994 -21.9681 -90.4719 122.006 71.254 -77.5552 128.64 77.5779 -65.0711 129.604 74.0918 -79.9366 153.596 47.9483 13.0417 10.2693 105.383 
159.129 175.405 143.519 140.01 145.2 144.301 175.3 83.3963 85.306 85.2325 -87.161 107.982 47.5144 -100.796 93.2199 -22.0501 -90.4847 122.266 71.0827 -77.6137 128.919 77.4569 -65.1286 129.868 73.9037 -80.0272 153.855 47.8521 13.0887 10.3269 105.317 
158.993 175.345 143.479 140.024 145.034 144.353 175.15 83.2988 85.2877 85.1381 -87.1406 108.149 47.3242 -100.753 93.3955 -22.0867 -90.4675 122.521 70.9097 -77.6294 129.161 77.3198 -65.1304 130.09 73.7229 -80.0853 154.046 47.7315 13.1161 10.3342 105.279 
158.772 175.312 143.437 140.072 144.833 144.438 175.005 83.1913 85.2953 85.0307 -87.1992 108.423 47.1902 -100.775 93.6396 -22.156 -90.5102 122.88 70.7684 -77.714 129.548 77.2415 -65.204 130.447 73.5694 -80.2187 154.353 47.631 13.1655 10.3714 105.273 
158.566 175.274 143.405 140.13 144.652 144.539 174.907 83.0542 85.245 84.8744 -87.3317 108.648 46.9948 -100.832 93.8303 -22.1726 -90.5177 123.209 70.5968 -77.7607 129.892 77.1079 -65.2381 130.761 73.3678 -80.3149 154.612 47.5014 13.2098 10.4154 105.229 
158.2 175.288 143.436 140.179 144.418 144.677 174.815 82.9894 85.2616 84.7465 -87.6537 108.911 46.9447 -100.849 93.9749 -22.0649 -90.596 123.548 70.5147 -77.8825 130.297 77.0919 -65.3384 131.154 73.2899 -80.4665 154.968 47.4346 13.2444 10.4643 105.047 
157.873 175.298 143.335 140.2 144.21 144.899 174.698 82.9975 85.3349 84.6575 -87.9758 109.207 46.8464 -100.985 94.1691 -22.014 -90.6904 123.921 70.4683 -78.0006 130.704 77.0903 -65.4553 131.572 73.213 -80.6378 155.378 47.3892 13.2859 10.4707 104.852 
157.674 175.377 143.238 140.322 143.998 145.118 174.682 82.9313 85.4074 84.4624 -88.2227 109.337 46.769 -100.887 94.124 -21.9389 -90.7077 124.219 70.4386 -78.05 131.008 77.1374 -65.441 131.897 73.1693 -80.7104 155.652 47.3472 13.2915 10.4399 104.72 
157.674 175.44 143.141 140.407 143.86 145.27 174.676 82.8804 85.4938 84.3204 -88.5173 109.481 46.6549 -100.91 94.0762 -21.8383 -90.7714 124.531 70.4338 -78.1421 131.313 77.1877 -65.4787 132.203 73.1328 -80.8229 155.893 47.2996 13.2864 10.4217 104.632 
157.772 175.494 143.03 140.402 143.627 145.416 174.644 82.8642 85.6096 84.2003 -88.9781 109.599 46.5111 -101.077 94.1917 -21.761 -90.8928 124.888 70.4539 -78.2884 131.597 77.2405 -65.5636 132.466 73.0913 -80.948 156.156 47.2803 13.2767 10.387 104.575 
157.8 175.535 143 140.423 143.46 145.527 174.645 82.8555 85.6798 84.1132 -89.3782 109.646 46.4295 -101.271 94.1709 -21.7037 -91.0262 125.115 70.4757 -78.4297 131.737 77.2683 -65.6569 132.551 73.0606 -81.0454 156.283 47.2416 13.2686 10.3408 104.548 
157.938 175.569 142.891 140.454 143.32 145.603 174.651 82.8701 85.7989 84.039 -89.6121 109.708 46.3883 -101.372 94.137 -21.6444 -91.093 125.331 70.5491 -78.5138 131.89 77.3572 -65.6956 132.702 73.073 -81.1331 156.426 47.2379 13.2553 10.2899 104.557 
158.082 175.608 142.852 140.472 143.217 145.637 174.655 82.8889 85.8894 83.9851 -89.786 109.814 46.3585 -101.542 94.1372 -21.5929 -91.1687 125.566 70.6267 -78.6179 132.059 77.4378 -65.7706 132.853 73.098 -81.2222 156.579 47.245 13.2516 10.2631 104.551 
158.335 175.65 142.772 140.419 143.082 145.672 174.661 82.9558 86.0097 83.9862 -90.0485 109.855 46.2788 -101.784 94.2011 -21.6025 -91.2881 125.739 70.6737 -78.7389 132.13 77.4749 -65.851 132.905 73.0988 -81.2893 156.692 47.2253 13.2186 10.2035 104.544 
158.499 175.693 142.693 140.361 142.91 145.778 174.651 83.0765 86.1465 83.9926 -90.2581 109.871 46.2544 -101.827 94.2316 -21.5654 -91.3592 125.841 70.7511 -78.8168 132.198 77.5452 -65.8921 132.984 73.1302 -81.3453 156.828 47.2485 13.1919 10.1609 104.45 
158.619 175.726 142.665 140.32 142.792 145.864 174.641 83.1841 86.2621 84.0072 -90.2491 109.86 46.2716 -101.766 94.1505 -21.4961 -91.3274 125.889 70.8333 -78.7966 132.246 77.6132 -65.8434 133.057 73.1686 -81.3636 156.912 47.2683 13.1619 10.1253 104.357 
158.875 175.761 142.65 140.261 142.68 145.97 174.677 83.2881 86.3827 84.0487 -90.3397 109.792 46.2375 -101.75 94.0871 -21.4771 -91.304 125.903 70.8994 -78.7803 132.214 77.6596 -65.8047 133.039 73.1933 -81.349 156.936 47.2601 13.1349 10.0772 104.329 
159.153 175.801 142.626 140.204 142.609 146.01 174.717 83.3355 86.447 84.0778 -90.4336 109.703 46.2405 -101.71 94.0144 -21.4939 -91.2631 125.877 70.934 -78.7494 132.149 77.6899 -65.7624 132.981 73.2299 -81.3108 156.918 47.2536 13.1118 10.0455 104.322 
159.611 175.818 142.598 140.129 142.524 145.978 174.779 83.3794 86.5126 84.085 -90.606 109.679 46.2108 -101.841 94.0805 -21.5334 -91.2785 125.903 70.9837 -78.7703 132.091 77.7198 -65.7665 132.911 73.2453 -81.3022 156.915 47.2537 13.0895 10.0149 104.391 
160.14 175.812 142.553 140.05 142.467 145.934 174.81 83.3744 86.5132 84.074 -90.7913 109.704 46.1399 -102.063 94.2592 -21.653 -91.3604 125.993 70.9827 -78.8609 132.067 77.697 -65.847 132.851 73.2336 -81.3092 156.938 47.2498 13.0795 9.99207 104.491 
160.514 175.832 142.551 139.996 142.442 145.891 174.912 83.3648 86.5111 84.0427 -90.802 109.686 46.1836 -102.028 94.2766 -21.7154 -91.3438 126.007 71.0326 -78.8456 132.036 77.7324 -65.8172 132.833 73.2785 -81.2755 156.928 47.2774 13.0613 9.96254 104.603 
160.99 175.884 142.567 139.921 142.421 145.816 175.034 83.3269 86.5002 84.0439 -90.9019 109.637 46.1854 -102.113 94.3294 -21.7554 -91.3078 126.038 71.074 -78.8302 132.015 77.757 -65.7947 132.794 73.3085 -81.2353 156.889 47.2949 13.0487 9.97288 104.744 
161.581 175.918 142.537 139.78 142.378 145.773 175.075 83.3383 86.5199 84.1149 -91.0732 109.585 46.1425 -102.26 94.4588 -21.8255 -91.3613 126.04 71.0748 -78.9041 131.952 77.7523 -65.8747 132.714 73.3359 -81.2206 156.885 47.3114 13.0356 9.98924 104.76 
162.142 175.917 142.581 139.7 142.357 145.717 175.147 83.3539 86.5053 84.1768 -91.1679 109.541 46.1658 -102.352 94.5763 -21.8614 -91.3654 126.019 71.1175 -78.9083 131.892 77.7626 -65.8976 132.635 73.3705 -81.194 156.863 47.3403 13.0368 9.99316 104.844 
162.776 175.91 142.674 139.64 142.401 145.682 175.195 83.4129 86.5174 84.2652 -91.1405 109.428 46.2 -102.389 94.6681 -21.8755 -91.2869 125.931 71.1848 -78.8489 131.804 77.7911 -65.8748 132.548 73.4086 -81.159 156.816 47.395 13.0488 10.0281 104.888 
163.256 175.888 142.79 139.586 142.429 145.671 175.228 83.4921 86.5351 84.3582 -91.1615 109.333 46.1938 -102.422 94.8016 -21.8873 -91.2382 125.806 71.2203 -78.8076 131.676 77.7915 -65.8692 132.425 73.4222 -81.1208 156.785 47.4494 13.0633 10.0538 104.845 
163.611 175.878 142.845 139.527 142.448 145.634 175.327 83.4991 86.4849 84.3622 -91.2008 109.194 46.2672 -102.383 94.8082 -21.8782 -91.1708 125.667 71.281 -78.7415 131.557 77.8202 -65.8217 132.307 73.4633 -81.0729 156.679 47.5155 13.0742 10.0813 104.907 
163.863 175.855 142.953 139.519 142.554 145.612 175.423 83.4903 86.4129 84.3688 -90.9362 109.021 46.4519 -102.142 94.6763 -21.7188 -91.0022 125.484 71.4002 -78.5798 131.472 77.9156 -65.6905 132.25 73.5756 -81.0124 156.556 47.6375 13.0892 10.1288 104.921 
164.001 175.817 143.1 139.552 142.709 145.575 175.501 83.446 86.2907 84.3599 -90.7068 108.892 46.641 -101.995 94.5783 -21.597 -90.9163 125.317 71.5129 -78.4914 131.363 77.9988 -65.6345 132.144 73.6982 -80.9584 156.41 47.7672 13.1094 10.1678 104.981 
163.987 175.761 143.19 139.508 142.887 145.457 175.482 83.4621 86.2177 84.4895 -90.5693 108.879 46.8203 -101.98 94.6388 -21.4966 -90.9255 125.13 71.5532 -78.4992 131.271 78.0418 -65.7005 132.066 73.8271 -80.9649 156.363 47.8798 13.1107 10.25 104.86 
164.013 175.68 143.234 139.506 143.052 145.297 175.453 83.4083 86.1113 84.5545 -90.2579 108.956 46.9534 -101.948 94.7244 -21.4744 -90.9597 125.047 71.5196 -78.5327 131.235 78.0277 -65.7696 132.035 73.8975 -80.9674 156.348 47.9447 13.1155 10.2968 104.791 
164.04 175.599 143.237 139.471 143.16 145.138 175.371 83.3547 86.0062 84.6269 -90.0692 109.081 47.0089 -102.045 94.9078 -21.4648 -91.0805 125.031 71.4569 -78.6465 131.229 77.9795 -65.9119 132.006 73.9385 -80.9988 156.366 47.9831 13.1142 10.3398 104.722 
164.16 175.504 143.292 139.464 143.283 144.979 175.305 83.2789 85.8879 84.7388 -89.8635 109.229 46.9721 -102.133 95.1896 -21.5529 -91.2174 125.051 71.2926 -78.7923 131.245 77.835 -66.107 131.985 73.8967 -81.0225 156.413 47.9431 13.1371 10.3992 104.663 
164.004 175.449 143.324 139.52 143.322 144.938 175.251 83.2128 85.7798 84.7341 -89.7707 109.383 46.997 -102.182 95.3656 -21.4817 -91.2715 125.135 71.2474 -78.8446 131.361 77.7891 -66.1897 132.096 73.8828 -81.0615 156.511 47.9568 13.1673 10.4384 104.616 
163.874 175.408 143.353 139.58 143.286 144.902 175.192 83.1838 85.7419 84.7163 -89.8267 109.516 46.9563 -102.31 95.5532 -21.4019 -91.3486 125.24 71.2212 -78.9212 131.447 77.7632 -66.256 132.16 73.8591 -81.0841 156.598 47.9681 13.1729 10.4493 104.561 
163.779 175.344 143.305 139.637 143.231 144.914 175.031 83.1603 85.6968 84.6407 -89.8555 109.688 46.9211 -102.367 95.7792 -21.3252 -91.4001 125.434 71.1864 -78.9678 131.648 77.7338 -66.2854 132.344 73.8171 -81.1132 156.776 47.9765 13.1749 10.4646 104.478 
163.722 175.308 143.302 139.718 143.208 144.893 174.98 83.1008 85.6463 84.5092 -89.7199 109.77 46.9063 -102.326 95.8191 -21.2855 -91.3784 125.519 71.1558 -78.944 131.736 77.6983 -66.2225 132.442 73.7475 -81.117 156.827 47.9603 13.1672 10.4563 104.494 
163.564 175.268 143.3 139.852 143.17 144.893 174.959 83.0265 85.5795 84.3498 -89.5518 109.924 46.8908 -102.24 95.8965 -21.1946 -91.3296 125.648 71.134 -78.9004 131.876 77.6766 -66.1502 132.596 73.6815 -81.1356 156.926 47.9629 13.1836 10.4451 104.492 
163.264 175.216 143.254 139.97 143.169 144.876 174.85 82.9439 85.4936 84.2685 -89.4734 110.128 46.8764 -102.288 96.0338 -21.1104 -91.3908 125.77 71.0712 -78.9688 132.006 77.6467 -66.208 132.702 73.6606 -81.1643 157.046 47.9823 13.2011 10.4684 104.372 
163.001 175.192 143.168 140.036 143.069 144.884 174.788 82.852 85.4204 84.1305 -89.5738 110.366 46.8061 -102.421 96.2654 -21.0268 -91.5038 126.007 71.0283 -79.0911 132.199 77.6264 -66.2994 132.878 73.6289 -81.2387 157.224 48.0054 13.2129 10.4606 104.311 
162.822 175.247 143.025 140.106 142.977 144.969 174.819 82.8538 85.453 84.0069 -89.7161 110.468 46.7655 -102.455 96.2995 -21.0127 -91.5686 126.179 71.0565 -79.1444 132.317 77.6669 -66.2916 133.001 73.6288 -81.2508 157.33 48.0052 13.1955 10.3928 104.337 
162.53 175.29 142.94 140.112 142.846 145.023 174.781 82.8643 85.4624 83.9426 -90.1349 110.666 46.7585 -102.652 96.5193 -20.8995 -91.7139 126.418 71.0972 -79.2793 132.502 77.7107 -66.4024 133.17 73.6583 -81.3375 157.541 48.0521 13.1908 10.3608 104.254 
162.363 175.257 142.929 140.105 142.723 145.018 174.678 82.8923 85.5064 83.9526 -90.4378 110.923 46.7576 -102.97 96.7673 -20.7591 -91.8912 126.703 71.1613 -79.4634 132.733 77.7718 -66.5763 133.363 73.7021 -81.4714 157.773 48.0925 13.19 10.355 104.18 
