156.966 174.631 147.215 141.998 146.963 144.434 170.501 85.6764 87.5192 89.0115 90.4055 121.934 23.95 112.253 126.787 -46.0809 87.6694 134.642 40.4321 92.1561 125.059 48.4893 100.861 116.075 50.2694 130.252 143.442 39.7529 13.8263 8.51238 99.6278 
156.901 174.516 147.305 141.974 146.885 144.443 170.466 85.7293 87.592 89.1042 90.548 122.181 23.9019 112.563 126.952 -46.1168 87.731 134.653 40.3825 92.2044 125.07 48.4579 100.905 116.08 50.2356 130.39 143.483 39.8496 13.8336 8.50678 99.5976 
156.849 174.475 147.222 141.873 146.769 144.448 170.083 85.4939 87.5912 89.1268 90.6649 122.395 23.9701 112.559 126.892 -45.8214 87.9722 134.569 40.3586 92.3495 125.021 48.5042 101.059 116.036 50.3014 130.553 143.527 39.9802 13.8167 8.54364 99.2643 
156.858 173.728 147.277 141.96 146.743 144.556 170.461 85.4947 87.6834 89.1582 90.7386 122.55 23.973 112.991 126.912 -46.1131 88.045 134.501 40.3403 92.3967 124.999 48.573 101.14 115.984 50.3706 130.687 143.476 40.0854 13.7995 8.55033 99.4832 
156.867 173.352 147.211 142.151 146.822 144.655 170.202 85.3843 87.7131 89.1925 90.9166 122.679 24.0648 113.133 126.837 -45.8965 88.2977 134.369 40.3737 92.6206 124.994 48.7196 101.416 115.962 50.5293 130.922 143.507 40.2458 13.7656 8.63229 99.2378 
156.868 172.506 147.164 142.119 146.699 144.692 169.845 85.1226 87.707 89.1823 91.0436 122.794 24.2056 113.172 126.635 -45.5967 88.5668 134.151 40.3856 92.7968 124.9 48.8383 101.623 115.851 50.6727 131.11 143.47 40.4217 13.7337 8.73977 98.9118 
156.881 171.566 147.194 141.997 146.56 144.72 169.302 85.0236 87.6922 89.192 91.2093 122.865 24.3084 113.044 126.247 -45.1449 88.728 133.916 40.3882 92.9494 124.741 48.9186 101.782 115.695 50.7878 131.284 143.373 40.5817 13.7206 8.78645 98.3737 
156.86 170.632 147.097 142.031 146.571 144.744 168.845 84.9327 87.638 89.1027 91.399 122.803 24.4612 112.78 125.801 -44.6309 88.895 133.642 40.4604 93.148 124.588 49.0761 102.026 115.535 50.9584 131.438 143.228 40.7263 13.7077 8.86721 97.8512 
156.798 169.486 146.818 141.908 146.485 144.759 168.1 84.7764 87.6062 89.1181 91.6612 122.749 24.6038 112.47 125.353 -43.9684 89.1568 133.3 40.496 93.3796 124.372 49.1857 102.27 115.326 51.1083 131.641 143.092 40.8752 13.674 8.97638 97.1323 
156.817 168.103 146.502 141.978 146.535 144.809 167.644 84.5882 87.5367 88.9906 91.8581 122.752 24.8106 112.141 124.843 -43.332 89.4283 133.025 40.5426 93.6071 124.249 49.3673 102.549 115.176 51.3416 131.862 142.964 41.0607 13.6149 9.09539 96.3786 
156.861 166.94 146.321 142.32 146.697 144.903 167.42 84.5855 87.4737 88.8684 92.1044 122.756 24.9118 112.186 124.485 -43.0256 89.6359 132.873 40.5647 93.8531 124.241 49.5091 102.845 115.106 51.4996 132.113 142.85 41.21 13.5746 9.19152 95.9841 
156.927 165.934 146.142 142.513 146.856 144.965 167.299 84.6528 87.3929 88.726 92.3511 122.555 25.1151 112.039 123.996 -42.5776 89.7994 132.701 40.7081 94.1039 124.145 49.6994 103.146 115.003 51.7018 132.323 142.669 41.3708 13.5762 9.22855 95.5646 
157.044 165.836 146.3 142.888 147.156 145.067 167.4 85.127 87.4356 88.723 92.5868 122.302 25.2485 112.284 123.613 -42.4496 89.8742 132.698 41.0496 94.3891 124.134 49.9255 103.479 115.003 51.8849 132.586 142.512 41.5068 13.6326 9.18128 95.6917 
157.079 165.945 146.366 143.35 147.472 145.134 167.781 85.6347 87.5434 88.7569 92.8236 122.035 25.2642 112.767 123.372 -42.5873 89.9126 132.702 41.3624 94.5913 124.112 50.1183 103.715 114.936 52.0173 132.809 142.26 41.5883 13.6538 9.13586 96.1608 
157.195 167.147 146.693 144.135 148.081 145.269 168.644 86.3129 87.7897 88.8078 93.0906 121.503 25.2947 113.743 123.34 -43.248 89.9611 132.833 41.8695 94.8093 124.188 50.4431 104.014 114.973 52.2116 133.058 141.925 41.6668 13.7266 9.07013 97.4052 
157.405 168.227 147.053 145.649 149.283 145.506 169.42 87.3443 88.2989 88.8668 93.558 120.331 25.3648 115.237 122.722 -44.378 89.8914 133.217 42.5638 94.8482 124.368 51.0011 104.104 114.895 52.5678 133.391 140.903 41.7748 13.7651 8.86508 99.4227 
157.415 169.474 147.065 146.469 149.926 145.587 170.764 87.8298 88.5352 88.8779 93.4599 119.892 25.413 116.344 122.921 -45.3794 89.65 133.758 42.7581 94.6118 124.689 51.2406 103.798 114.968 52.6576 133.382 140.378 41.7812 13.8074 8.63762 100.959 
157.298 170.555 146.97 147.032 150.393 145.611 171.716 88.2982 88.7904 88.9542 93.5006 119.409 25.4092 117.607 122.981 -46.4325 89.4254 134.064 42.8906 94.3763 124.762 51.4487 103.46 114.809 52.7327 133.405 139.693 41.8278 13.8452 8.39569 102.44 
157.114 171.509 147.004 147.5 150.812 145.557 172.769 88.6303 88.9446 88.9342 93.615 119.032 25.3506 118.821 123.215 -47.3501 89.2385 134.382 42.9472 94.1259 124.862 51.5409 103.109 114.679 52.7275 133.377 139.13 41.8578 13.8595 8.20633 103.756 
157.051 172.431 147.16 147.873 151.141 145.514 173.734 88.7921 89.0291 88.949 93.8891 118.728 25.3795 120.034 123.639 -47.9747 89.3185 134.753 43.0477 94.1352 125.056 51.6675 103.037 114.71 52.7696 133.519 138.835 41.9615 13.9007 8.05704 104.827 
157.018 173.101 147.268 148.088 151.33 145.476 174.438 88.7741 89.0356 88.9481 94.2521 118.432 25.4807 120.918 123.986 -48.3276 89.5043 135.04 43.1195 94.2269 125.183 51.7434 103.051 114.701 52.7858 133.689 138.671 42.0434 13.9168 7.93359 105.56 
156.953 173.47 147.43 148.28 151.464 145.364 174.724 88.8214 89.0822 88.9411 94.6011 118.254 25.6458 121.778 124.228 -48.6937 89.6814 135.337 43.1866 94.3491 125.368 51.8276 103.133 114.784 52.7951 133.886 138.583 42.1425 13.9707 7.83943 106.168 
156.904 173.586 147.566 148.274 151.424 145.244 174.641 88.8423 89.1419 88.9931 94.9774 118.147 25.8348 122.55 124.35 -48.9491 89.8674 135.574 43.1819 94.4543 125.503 51.8215 103.191 114.845 52.7411 134.114 138.544 42.2718 14.0292 7.76412 106.498 
156.835 173.569 147.721 148.14 151.346 145.145 174.538 88.8615 89.2279 89.1085 95.3729 118.101 26.0328 123.268 124.564 -49.1874 90.0648 135.77 43.1737 94.5601 125.622 51.7703 103.268 114.944 52.678 134.357 138.623 42.3827 14.0678 7.71785 106.751 
156.633 173.457 147.739 147.866 151.109 145.012 174.367 88.7969 89.2712 89.227 95.7455 118.313 26.2428 123.915 124.804 -49.3322 90.2946 135.956 43.1461 94.6782 125.744 51.7007 103.337 115.053 52.613 134.612 138.757 42.5327 14.1056 7.69073 106.886 
156.479 173.299 147.625 147.463 150.755 144.881 174.188 88.7652 89.3172 89.3773 96.0189 118.629 26.4355 124.413 124.939 -49.4455 90.4345 136.125 43.0686 94.7391 125.862 51.5894 103.352 115.18 52.5227 134.817 138.93 42.6767 14.1491 7.66665 106.877 
156.355 173.156 147.455 147.13 150.448 144.775 174.242 88.7127 89.3327 89.4618 96.2547 118.872 26.6157 124.677 125.005 -49.4461 90.5271 136.258 42.993 94.7589 125.951 51.4862 103.338 115.268 52.4465 134.959 139.072 42.8084 14.1768 7.6485 106.741 
156.282 172.975 147.289 146.867 150.186 144.735 174.111 88.7013 89.3682 89.5293 96.3797 119.141 26.7686 124.853 124.978 -49.4493 90.5763 136.348 42.9723 94.7642 126.038 51.4649 103.326 115.344 52.453 135.067 139.184 42.9421 14.183 7.64895 106.62 
156.315 172.824 147.169 146.71 150.076 144.698 173.981 88.7451 89.4196 89.5672 96.5069 119.291 26.934 125.088 125.142 -49.4086 90.6624 136.464 43.0078 94.8455 126.179 51.4958 103.433 115.518 52.4883 135.198 139.358 43.0788 14.2086 7.6749 106.543 
156.408 172.69 147.094 146.619 149.986 144.711 173.974 88.74 89.4384 89.536 96.57 119.353 27.1417 125.168 125.214 -49.2865 90.7453 136.547 43.0997 94.9196 126.307 51.5834 103.54 115.656 52.5838 135.293 139.519 43.2193 14.2089 7.72005 106.445 
156.686 172.745 147.172 146.53 149.971 144.798 173.953 88.8223 89.4976 89.5314 96.5802 119.267 27.3507 125.153 125.309 -49.1516 90.7802 136.602 43.2278 94.972 126.436 51.6767 103.634 115.805 52.6923 135.36 139.683 43.3305 14.1972 7.79549 106.324 
156.967 172.811 147.204 146.469 149.958 144.908 174.011 88.8712 89.5191 89.5083 96.543 119.111 27.5617 125.046 125.337 -48.9599 90.8073 136.574 43.37 95.0418 126.493 51.7917 103.76 115.904 52.8194 135.398 139.846 43.431 14.1905 7.87409 106.175 
157.148 172.84 147.283 146.453 149.934 144.938 174.03 88.8528 89.4711 89.3842 96.4062 119.068 27.7066 124.89 125.321 -48.8406 90.7439 136.635 43.4544 94.9746 126.589 51.8424 103.711 115.986 52.903 135.318 139.952 43.4823 14.1472 7.92525 106.121 
157.302 172.907 147.457 146.582 150.018 144.976 174.144 88.7494 89.3354 89.163 96.2262 119.043 27.7759 124.548 125.263 -48.6163 90.6823 136.732 43.5301 94.892 126.692 51.8936 103.632 116.039 52.9937 135.184 140.017 43.4861 14.0805 7.95458 106.039 
157.394 172.835 147.786 146.806 150.27 144.942 174.053 88.6322 89.1519 88.8903 96.0952 119.085 27.8351 124.15 125.231 -48.326 90.7026 136.885 43.6918 94.9136 126.852 52.0089 103.662 116.165 53.1344 135.078 140.125 43.495 14.0197 7.99663 105.966 
157.424 172.886 148.02 147.203 150.605 144.906 174.081 88.586 89.0469 88.6019 95.9446 119.196 27.8194 123.86 125.321 -48.1593 90.6873 137.134 43.8671 94.8743 127.102 52.1629 103.639 116.306 53.2815 134.945 140.211 43.4596 13.9292 8.02299 106.084 
157.333 172.877 148.415 147.701 150.996 144.833 174.025 88.527 88.9192 88.2889 95.8836 119.246 27.7003 123.58 125.311 -48.0462 90.6495 137.389 44.0309 94.8175 127.332 52.2923 103.595 116.428 53.3886 134.759 140.235 43.3891 13.8602 8.02982 106.291 
157.103 172.732 148.771 148.187 151.368 144.697 173.905 88.418 88.759 88.0081 95.8072 119.449 27.5699 123.262 125.349 -47.9184 90.613 137.647 44.2112 94.7611 127.537 52.433 103.533 116.539 53.496 134.55 140.266 43.3304 13.8027 8.01777 106.533 
156.747 172.637 149.228 148.753 151.821 144.544 173.774 88.313 88.6408 87.7791 95.8749 119.725 27.3783 123.171 125.576 -47.8585 90.6465 138.064 44.3905 94.7538 127.89 52.571 103.515 116.792 53.5819 134.394 140.369 43.273 13.7555 8.00213 106.924 
156.212 172.658 149.611 149.264 152.205 144.38 173.863 88.1373 88.4733 87.5557 95.9701 120.177 27.102 123.056 125.822 -47.8359 90.6808 138.497 44.4994 94.7249 128.217 52.6607 103.431 116.999 53.6353 134.222 140.455 43.1883 13.6969 7.94301 107.314 
155.683 172.855 149.859 149.69 152.559 144.27 174.074 87.9466 88.3359 87.3896 96.1373 120.664 26.891 122.856 126.116 -47.7238 90.7436 138.765 44.6719 94.745 128.4 52.8242 103.434 117.12 53.7705 134.086 140.59 43.1677 13.637 7.88815 107.596 
155.173 173.22 150.16 150.141 152.896 144.133 174.338 87.7398 88.192 87.1963 96.3035 121.125 26.7052 122.669 126.369 -47.6172 90.8214 139.021 44.858 94.7964 128.594 53.008 103.491 117.259 53.9257 133.951 140.733 43.1486 13.5766 7.84692 107.912 
154.672 173.338 150.606 150.589 153.239 144.158 173.921 87.4393 87.9312 86.9327 96.5054 121.421 26.5058 122.286 126.372 -47.4947 90.9171 139.033 45.118 94.9138 128.609 53.254 103.594 117.243 54.113 133.783 140.794 43.1323 13.6018 7.85626 108.208 
154.196 173.402 151.054 150.958 153.545 144.146 173.322 87.1819 87.6916 86.7294 96.6942 121.809 26.32 122.094 126.539 -47.495 91.0249 139.12 45.3153 95.0413 128.705 53.4353 103.691 117.325 54.238 133.675 140.898 43.1237 13.6539 7.87819 108.524 
153.824 173.298 151.384 151.156 153.643 144.148 172.759 86.9156 87.4717 86.5494 96.8846 122.054 26.1742 121.947 126.595 -47.4628 91.1086 139.116 45.4592 95.1515 128.72 53.5595 103.792 117.342 54.3259 133.565 141.006 43.132 13.696 7.90616 108.761 
153.63 173.332 151.594 151.317 153.751 144.18 172.467 86.6707 87.2706 86.3904 97.0212 122.21 26.0758 121.697 126.585 -47.3634 91.1789 139.02 45.5979 95.2749 128.666 53.6991 103.937 117.323 54.4434 133.471 141.114 43.1393 13.7269 7.93822 108.87 
153.518 173.266 151.768 151.493 153.913 144.207 172.088 86.5496 87.1414 86.2796 97.0837 122.439 25.987 121.443 126.577 -47.2857 91.211 138.998 45.7405 95.3802 128.683 53.8517 104.07 117.382 54.5614 133.402 141.228 43.143 13.7727 7.95614 108.939 
153.422 173.25 151.867 151.612 153.991 144.225 171.908 86.3535 86.9918 86.1538 97.086 122.695 25.9538 121.157 126.598 -47.1661 91.2456 138.997 45.8593 95.452 128.7 53.9851 104.158 117.427 54.6772 133.32 141.341 43.1658 13.7968 7.96369 108.98 
153.448 173.217 151.979 151.697 154.037 144.311 171.649 86.2116 86.9059 86.0859 97.0889 122.778 25.909 120.873 126.501 -47.0427 91.2608 138.909 45.9586 95.5346 128.676 54.1069 104.293 117.463 54.787 133.254 141.44 43.1794 13.8248 7.99733 108.944 
153.429 173.271 151.984 151.646 153.949 144.38 171.474 86.153 86.8987 86.1372 97.1396 122.985 25.8353 120.729 126.529 -46.9553 91.2352 138.855 45.966 95.5472 128.672 54.1308 104.331 117.518 54.7984 133.221 141.571 43.2018 13.8691 8.02375 108.825 
153.481 173.183 151.94 151.585 153.848 144.563 171.488 86.0077 86.8528 86.194 97.2279 122.995 25.8124 120.357 126.324 -46.6976 91.2059 138.672 45.985 95.5491 128.515 54.1744 104.363 117.438 54.8594 133.156 141.676 43.2296 13.8891 8.01721 108.548 
153.472 173.205 151.845 151.368 153.581 144.664 171.692 85.8255 86.7523 86.2399 97.2199 123.127 25.8435 119.93 126.245 -46.3855 91.1328 138.498 45.9765 95.4871 128.347 54.1555 104.292 117.343 54.8626 133.05 141.791 43.2772 13.9196 8.01978 108.217 
153.537 173.211 151.616 151.065 153.239 144.679 171.82 85.7671 86.7517 86.3698 97.2141 123.173 25.9003 119.674 126.329 -46.2649 91.0004 138.348 45.8781 95.3623 128.22 54.0399 104.16 117.288 54.7487 132.955 141.923 43.293 13.9833 8.03714 107.904 
153.738 173.068 151.4 150.643 152.801 144.709 171.633 85.8501 86.8477 86.6028 97.0895 123.272 26.0009 119.425 126.326 -46.1916 90.7911 138.224 45.7981 95.1862 128.136 53.9389 103.979 117.298 54.6477 132.877 142.085 43.3376 14.0696 8.05937 107.53 
154.052 172.646 151.259 150.311 152.46 144.781 171.104 85.9734 86.9758 86.7841 96.9356 123.24 26.1614 119.074 126.251 -46.0671 90.5681 138.102 45.7659 95.0266 128.097 53.9119 103.864 117.353 54.6261 132.799 142.26 43.4009 14.127 8.10163 107.071 
154.387 172.356 151.063 149.726 151.942 144.817 170.998 85.9915 87.0258 86.9512 96.6431 123.299 26.3509 118.668 126.324 -45.9273 90.3767 137.973 45.6793 94.8517 128.035 53.7771 103.695 117.397 54.535 132.7 142.482 43.4366 14.169 8.17028 106.58 
154.906 172.196 150.545 149.091 151.497 144.856 171.394 86.2486 87.3199 87.2603 96.2354 123.26 26.4954 118.381 126.544 -45.7932 90.1377 137.882 45.5679 94.6591 128.043 53.6629 103.599 117.534 54.4967 132.634 142.747 43.4677 14.0921 8.23494 106.003 
155.766 171.443 150.054 147.718 150.631 145.027 171.109 86.354 87.6369 87.7829 95.3878 123.495 26.7274 117.21 126.822 -44.9055 89.9105 137.639 45.4299 94.4365 127.958 53.4536 103.506 117.803 54.478 132.531 143.462 43.562 13.9998 8.38243 104.348 
156.353 170.66 150.303 146.902 149.652 145.397 170.496 85.8137 87.4208 87.7492 94.7469 123.462 27.0835 116.236 126.734 -44.1957 90.04 136.815 45.3887 94.635 127.276 53.4227 103.808 117.399 54.5823 132.462 143.799 43.6991 13.9386 8.48807 103.273 
156.987 170.066 149.589 145.409 148.829 145.482 169.793 85.7297 87.6115 88.1118 93.9613 123.304 27.4054 114.913 126.406 -43.1423 89.9626 136.199 45.1906 94.5362 126.829 53.2735 103.757 117.332 54.6261 132.406 144.109 43.774 13.8954 8.61741 101.395 
157.372 169.6 148.901 144.442 148.361 145.45 169.201 85.8396 87.7901 88.3224 93.2803 123.194 27.7445 113.669 126.1 -42.2793 89.6711 135.86 45.0701 94.2684 126.625 53.222 103.514 117.345 54.6872 132.215 144.324 43.8258 13.8639 8.69965 99.8842 
157.789 169.401 148.397 143.7 148.036 145.455 168.824 85.9902 87.9 88.4335 92.5422 123.048 28.0383 112.597 125.908 -41.5992 89.3153 135.591 44.9312 93.9834 126.469 53.172 103.239 117.344 54.7339 131.993 144.442 43.8509 13.8324 8.74853 98.6477 
158.142 169.461 148.137 143.319 147.893 145.375 168.885 86.2223 87.9898 88.4768 91.7992 122.927 28.322 111.911 125.916 -41.3418 88.8369 135.475 44.8456 93.5871 126.436 53.1678 102.836 117.378 54.7734 131.69 144.474 43.882 13.8223 8.77412 98.0152 
158.369 169.599 147.833 142.989 147.773 145.332 168.898 86.4096 88.052 88.5286 91.1219 122.661 28.551 111.182 125.726 -41.1058 88.3168 135.183 44.7701 93.1642 126.216 53.1726 102.414 117.235 54.8259 131.312 144.367 43.8993 13.8131 8.78222 97.4653 
158.47 169.641 147.748 142.985 147.812 145.232 168.919 86.6027 88.1446 88.5321 90.6615 122.221 28.6751 110.849 125.633 -41.199 87.7955 134.94 44.6385 92.6751 126.062 53.0993 101.956 117.105 54.7747 130.903 144.196 43.905 13.8116 8.83436 97.2604 
158.492 169.249 147.707 143.183 147.876 145.135 168.624 86.6488 88.1947 88.4999 90.3533 121.667 28.7364 110.409 125.329 -41.0835 87.3731 134.672 44.4996 92.2196 125.901 53.0087 101.542 116.926 54.6991 130.48 144.02 43.8948 13.7827 8.93133 96.9065 
158.55 169.104 147.837 143.755 148.177 145.089 168.429 86.8572 88.3546 88.4693 90.1139 120.784 28.7448 110.286 125.17 -41.2539 86.9518 134.471 44.4876 91.8201 125.841 53.0048 101.262 116.833 54.6152 130.033 143.85 43.8507 13.7966 9.04538 97.0478 
158.493 168.798 147.983 144.261 148.463 145.004 168.168 86.822 88.5067 88.4511 89.9859 119.925 28.6896 110.28 125.023 -41.5481 86.6792 134.292 44.3988 91.4287 125.786 52.9312 100.978 116.739 54.4795 129.596 143.677 43.7724 13.7983 9.18204 97.2938 
158.335 168.608 148.129 144.77 148.728 144.958 167.885 86.8778 88.6798 88.4976 89.7741 119.205 28.535 110.336 125.014 -41.9049 86.3439 134.177 44.3451 91.0243 125.751 52.8602 100.675 116.676 54.3338 129.122 143.551 43.6778 13.805 9.27276 97.6935 
158.174 168.605 148.299 145.126 148.797 144.873 167.505 86.748 88.8382 88.5525 89.539 118.576 28.4177 110.525 125.122 -42.4202 86.068 134.078 44.2245 90.581 125.72 52.7165 100.305 116.576 54.1185 128.633 143.437 43.5702 13.7951 9.38489 98.2594 
157.889 168.916 148.395 145.553 148.984 144.729 167.137 86.5001 88.972 88.5405 89.3046 118.229 28.2485 110.829 125.479 -43.1303 85.8217 134.181 44.1047 90.1139 125.865 52.5934 99.9157 116.639 53.9179 128.128 143.396 43.4532 13.7816 9.49221 99.0948 
157.589 169.361 148.549 145.762 148.966 144.599 167.328 86.6773 89.1203 88.6278 89.012 118.191 28.1587 111.311 126.134 -44.0003 85.2905 134.362 44.0298 89.5764 126.048 52.4635 99.3925 116.722 53.6986 127.648 143.409 43.3852 13.7914 9.51857 100.065 
157.367 169.635 148.945 145.466 148.653 144.511 167.725 86.5648 88.9857 88.6068 88.6246 118.453 28.2477 111.403 126.832 -44.6191 84.7962 134.5 44.0914 89.0604 126.106 52.3396 98.7909 116.778 53.4999 127.132 143.525 43.3825 13.919 9.52603 100.942 
156.656 169.514 149.093 144.005 147.363 144.123 168.92 86.2985 88.9139 88.9744 87.6873 119.863 28.1008 111.474 128.928 -45.4553 83.6684 135.167 43.6445 87.7027 126.164 51.5924 97.1263 116.869 52.7727 126.147 143.895 43.4053 14.0441 9.16787 101.799 
155.907 169.462 148.923 143.606 146.972 143.995 169.617 86.4433 88.8807 89.0648 87.7352 121.087 27.6671 111.527 130.128 -45.8815 83.0507 135.67 43.4555 87.1258 126.399 51.2689 96.429 116.965 52.4541 125.775 144.044 43.4009 14.0006 8.97826 102.264 
155.215 170.143 148.757 143.667 146.821 144.141 170.585 86.6829 88.8777 89.1291 87.9151 122.205 26.9513 111.697 131.333 -46.5424 82.4152 136.184 43.4037 86.6006 126.704 51.0775 95.8514 117.108 52.1928 125.336 144.193 43.3408 13.9766 8.81911 103.126 
154.613 170.035 148.399 143.6 146.519 144.32 170.485 86.7308 88.893 89.2356 88.3551 122.658 26.4941 111.524 132.07 -46.4582 82.1018 136.198 43.3767 86.3848 126.655 50.9695 95.6832 117.026 52.0158 125.012 144.365 43.3574 13.9819 8.76729 103.278 
154.311 169.072 148.292 143.976 146.532 144.744 169.534 86.6111 88.7685 89.1278 88.6042 122.38 26.165 110.993 132.265 -46.0027 82.0873 135.743 43.6419 86.5418 126.429 51.1859 96.0015 116.889 52.0738 124.713 144.523 43.355 14.1092 8.94435 103.339 
154.214 167.893 148.103 144.424 146.715 145.301 168.552 86.6372 88.8072 89.0906 88.8724 121.354 25.7732 110.826 132.235 -45.6935 82.1686 134.77 43.8663 86.8828 125.857 51.4315 96.6538 116.557 52.1435 124.429 144.568 43.2866 14.2526 9.19462 103.534 
154.122 166.108 147.663 144.689 146.939 145.78 167.229 86.6082 88.8582 89.0672 89.092 120.028 25.5424 110.462 131.922 -45.1304 82.4021 133.568 44.0384 87.3528 125.193 51.6377 97.4966 116.243 52.2069 124.156 144.675 43.1857 14.3662 9.57199 103.325 
154.071 164.722 147.251 144.73 146.99 146.013 166.2 86.6878 88.9829 89.1181 89.1662 118.855 25.4222 110.497 131.799 -44.8123 82.5343 132.603 44.0449 87.6614 124.706 51.6938 98.1165 116.111 52.1503 123.873 144.836 43.0905 14.4983 9.90606 103.228 
154.143 165.472 146.772 144.858 147.185 146.33 166.539 87.0722 89.2786 89.2731 89.0797 117.97 25.2106 111.132 132.225 -45.4157 82.4202 132.092 44.0588 87.7441 124.567 51.7683 98.4632 116.278 52.0873 123.568 145.069 42.9825 14.6379 10.1175 103.908 
154.314 166.624 146.234 144.747 147.141 146.601 167.157 87.5575 89.6646 89.518 88.8172 117.293 25.0727 111.719 132.857 -46.2935 82.0557 131.798 43.9898 87.5519 124.592 51.7732 98.4696 116.573 51.9613 123.169 145.36 42.9007 14.7835 10.2857 104.569 
154.49 168.07 145.642 144.45 146.802 146.82 167.877 88.0243 89.9692 89.7636 88.2407 117.207 25.0745 111.952 133.635 -47.3522 81.2741 132.004 43.7119 86.8651 124.916 51.5709 97.7928 116.936 51.6831 122.661 145.677 42.801 14.8576 10.3277 104.987 
154.571 169.277 145.199 143.923 146.059 146.965 168.768 87.9517 89.8908 89.786 87.5824 117.785 25.1315 112.116 134.865 -48.2357 80.5414 132.62 43.2013 86.0734 125.376 51.0891 96.8679 117.292 51.1856 122.173 146.096 42.7725 14.9158 10.2458 105.242 
154.706 169.863 144.696 143.313 145.343 147.212 169.526 87.7585 89.6759 89.7188 86.9347 118.7 25.1081 111.94 136.102 -48.759 79.9341 133.274 42.6952 85.4333 125.826 50.6061 96.092 117.642 50.7451 121.797 146.604 42.7245 14.9202 10.1173 105.224 
154.776 169.865 144.163 142.546 144.578 147.428 169.893 87.5232 89.4869 89.7621 86.3732 119.701 24.9628 111.577 137.227 -48.9114 79.3938 133.803 42.1098 84.8543 126.117 50.04 95.3765 117.887 50.2967 121.453 147.092 42.6857 14.8687 9.95177 104.86 
154.78 169.98 143.567 141.932 144.122 147.668 170.278 87.432 89.4863 89.9329 86.0999 120.479 24.5369 111.707 138.441 -49.1381 79.1199 133.949 41.5234 84.5938 126.192 49.548 95.1025 118.028 49.9085 121.245 147.575 42.6071 14.7806 9.88032 104.71 
154.646 170.591 142.913 141.393 143.825 147.853 170.889 87.5934 89.7015 90.2828 86.0727 120.802 24.012 112.274 139.432 -49.652 79.0041 133.571 41.0098 84.593 125.923 49.1695 95.1943 117.966 49.5838 121.083 147.98 42.4625 14.7174 9.89317 104.876 
154.401 170.875 142.096 140.95 143.782 147.996 171.227 87.9471 90.099 90.775 86.3678 120.579 23.5476 112.924 140.071 -49.9819 79.1629 132.644 40.6141 84.941 125.331 48.9822 95.7549 117.754 49.4371 121.006 148.363 42.2991 14.6578 10.0359 104.983 
