162.726 179.361 149.297 157.452 149.598 161.662 161.41 66.9303 60.0947 55.1045 142.824 176.603 97.9479 127.057 168.916 42.0378 122.682 177.765 130.789 132.627 189.192 141.447 140.81 196.455 140.924 118.553 205.428 126.397 24.0308 7.36439 96.9982 
162.564 179.149 149.483 157.503 149.338 161.62 161.44 66.9588 60.2018 55.3338 142.946 176.832 98.1595 127.31 169.261 42.3821 122.59 177.977 131.019 132.604 189.296 141.715 140.866 196.424 141.175 118.773 205.652 126.647 24.0489 7.3348 96.9767 
162.275 178.628 149.499 157.473 149.682 161.37 162.077 67.0241 60.2264 55.2933 143.172 177.107 98.472 127.758 169.614 42.6765 122.871 178.183 131.34 132.852 189.459 141.976 141.105 196.625 141.484 118.977 205.834 126.876 23.9919 7.30334 97.1119 
162.001 178.682 149.628 157.337 149.472 161.307 162.374 67.1931 60.3872 55.5968 143.443 177.516 98.7967 128.41 170.286 43.3241 123.025 178.389 131.821 133.046 189.525 142.497 141.281 196.563 142.01 119.402 206.124 127.388 24.1145 7.26401 97.028 
161.734 178.659 149.676 157.316 149.886 161.208 162.546 67.3094 60.4111 55.673 143.354 177.733 98.8012 128.701 170.602 43.6186 122.999 178.433 131.97 133.048 189.492 142.667 141.248 196.504 142.177 119.601 206.266 127.601 24.3243 7.29116 96.8394 
161.555 178.966 149.49 157.202 150.491 161.107 162.845 67.4861 60.5344 55.8179 143.412 177.91 99.0325 129.076 171.028 43.9933 123.256 178.547 132.341 133.244 189.568 143.017 141.405 196.666 142.561 119.841 206.49 127.939 24.3447 7.34342 96.8439 
161.288 178.673 149.504 157.242 151.488 160.827 163.48 67.6133 60.5885 55.8041 143.708 178.026 99.6205 129.447 171.324 44.2216 123.785 178.65 132.819 133.724 189.807 143.451 141.716 197.151 143 120.063 206.688 128.321 24.4138 7.30114 97.1175 
161.04 178.157 149.516 157.268 152.39 160.502 164.029 67.5627 60.5392 55.7427 144.126 178.216 100.169 129.878 171.599 44.4658 124.338 178.845 133.19 134.249 190.12 143.782 142.028 197.711 143.348 120.275 206.886 128.642 24.5274 7.20128 97.3933 
160.741 177.661 149.705 157.301 153.021 160.199 164.443 67.5073 60.4587 55.8332 144.357 178.454 100.571 130.261 171.726 44.7264 124.606 178.968 133.532 134.559 190.301 144.088 142.129 197.957 143.628 120.511 206.998 128.948 24.8183 7.13948 97.6168 
160.494 177.438 149.85 157.18 153.461 160.096 164.977 67.6552 60.5697 56.1874 144.315 178.681 100.754 130.62 171.966 44.9767 124.755 178.971 133.842 134.764 190.322 144.394 142.214 197.975 143.91 120.785 207.146 129.267 25.0017 7.1222 97.6875 
160.385 177.469 149.847 157.109 154.183 159.967 165.077 67.7129 60.5463 56.3105 144.567 178.9 100.911 131.268 172.231 45.3421 125.046 179.058 134.107 135.031 190.402 144.669 142.322 198.129 144.223 121.109 207.285 129.554 25.2412 7.15391 97.5994 
160.403 177.724 149.836 157 154.627 159.958 165.027 67.7643 60.5895 56.5649 144.788 179.194 101.046 131.923 172.609 45.6929 125.3 179.147 134.365 135.251 190.395 144.968 142.464 198.121 144.566 121.498 207.436 129.897 25.4048 7.26072 97.4898 
160.258 177.337 149.791 156.899 155.175 159.815 165.293 67.9072 60.6561 56.7388 145.038 179.272 101.299 132.613 172.653 46.0985 125.669 179.169 134.704 135.595 190.445 145.31 142.671 198.235 144.949 121.856 207.534 130.183 25.5161 7.28306 97.3816 
160.183 176.876 149.497 156.906 155.498 159.534 165.662 68.1359 60.8049 56.8635 145.574 179.083 101.992 133.26 172.652 46.2968 126.258 179.079 135.12 136.145 190.582 145.693 143.084 198.545 145.308 122.096 207.582 130.454 25.4934 7.16273 97.6223 
160.157 176.872 149.201 156.999 155.772 159.233 165.884 68.1109 60.8491 56.682 146.284 178.966 102.735 133.905 172.821 46.4811 127.013 179.168 135.501 136.791 190.836 146.071 143.594 199.04 145.681 122.338 207.651 130.743 25.4158 7.09615 97.9804 
160.11 177.195 148.924 157.122 155.923 158.878 166.171 68.1355 60.8888 56.4932 146.999 178.886 103.577 134.436 172.998 46.704 127.74 179.308 135.982 137.44 191.197 146.501 144.089 199.618 146.096 122.499 207.746 131.055 25.3033 6.9402 98.4439 
159.868 177.535 148.883 157.379 155.782 158.572 166.595 68.0617 60.823 56.0739 147.491 178.708 104.182 134.525 173.105 46.7165 128.198 179.413 136.258 137.913 191.409 146.736 144.417 200.009 146.262 122.627 207.779 131.27 25.3993 6.81784 98.8215 
159.743 177.91 148.912 157.588 155.77 158.421 166.756 67.9708 60.7791 55.5879 147.91 178.683 104.584 134.613 173.401 46.7281 128.656 179.636 136.504 138.374 191.677 146.937 144.792 200.489 146.414 122.786 207.92 131.482 25.4088 6.72406 99.1728 
159.675 178.085 148.883 157.761 155.692 158.345 166.872 67.8442 60.7412 55.1238 148.37 178.643 105.129 134.783 173.575 46.9313 129.147 179.902 136.823 138.85 191.992 147.206 145.26 200.989 146.661 122.971 208.067 131.748 25.2433 6.64112 99.4419 
159.593 179.571 149.28 157.867 154.393 158.441 165.982 67.4826 60.6606 55.0454 148.837 178.9 105.221 135.08 174.175 47.2984 129.141 180.308 136.989 139.019 192.064 147.498 145.535 200.963 147 123.528 208.31 132.134 25.3118 6.60275 99.4971 
159.63 179.742 149.406 157.693 153.217 158.669 166.18 67.3755 60.7416 54.9973 148.891 178.704 105.283 134.941 174.432 47.2883 129.019 180.43 137.049 138.954 191.937 147.592 145.748 200.729 147.09 123.739 208.393 132.301 25.0843 6.6469 99.5741 
159.685 179.993 149.59 157.475 151.982 158.873 166.202 67.3315 60.8124 54.9675 149.139 178.629 105.374 134.996 174.655 47.3079 129.165 180.586 137.177 139.08 192.001 147.76 146.096 200.677 147.255 123.995 208.527 132.488 24.8081 6.70417 99.6194 
159.813 179.934 149.663 157.406 151.362 158.958 166.214 67.3163 60.8403 54.8358 149.525 178.874 105.597 135.205 174.975 47.404 129.576 180.9 137.471 139.405 192.321 148.048 146.56 200.922 147.571 124.248 208.739 132.716 24.47 6.7332 99.8242 
160.159 179.43 149.699 157.189 150.059 159.222 165.962 67.2763 60.9994 54.9948 149.742 179.146 105.575 135.48 175.254 47.4829 129.686 181.079 137.646 139.527 192.442 148.283 146.922 200.925 147.821 124.494 208.886 132.92 24.0796 6.65998 100.019 
160.531 178.954 149.83 156.81 148.504 159.635 165.663 67.3818 61.267 55.4152 149.738 179.565 105.309 135.864 175.645 47.6223 129.578 181.197 137.793 139.497 192.474 148.514 147.223 200.778 148.083 124.8 209.105 133.149 23.6594 6.57933 100.074 
160.621 179.38 149.852 156.64 147.739 159.787 165.859 67.3813 61.3024 55.4002 149.973 179.859 105.361 136.262 175.996 47.7364 129.825 181.418 137.972 139.72 192.711 148.696 147.714 200.964 148.348 125.044 209.309 133.332 23.2025 6.5027 100.237 
160.438 179.874 149.959 156.545 146.982 159.823 166.002 67.4731 61.4116 55.4536 150.151 180.027 105.537 136.529 176.186 47.883 129.97 181.584 138.122 139.895 192.928 148.88 148.109 201.102 148.543 125.282 209.543 133.505 22.8917 6.43982 100.185 
160.274 179.62 150.107 156.273 146.064 159.864 166.262 67.5781 61.5541 55.6151 150.216 180.25 105.532 136.779 176.373 47.9572 129.996 181.678 138.227 139.995 192.998 148.993 148.41 201.077 148.669 125.503 209.707 133.649 22.6487 6.32695 100.155 
160.214 179.443 150.271 155.999 145.222 160.019 166.052 67.5805 61.5735 55.7317 150.237 180.649 105.363 137.015 176.632 48.1128 129.915 181.832 138.205 139.991 193.127 149.028 148.594 201.064 148.71 125.713 209.928 133.764 22.5656 6.25993 99.9676 
160.124 178.922 150.394 155.749 144.684 160.042 166.184 67.6663 61.6171 55.8745 150.268 181.023 105.281 137.311 176.888 48.1377 129.935 181.976 138.208 140.029 193.259 149.048 148.794 201.056 148.751 125.917 210.154 133.846 22.456 6.27677 99.8228 
160.017 178.352 150.664 155.512 144.167 160.089 166.401 67.8864 61.8309 56.2417 150.145 181.243 105.228 137.448 177.078 48.0916 129.782 182.042 138.289 139.92 193.277 149.13 148.847 200.923 148.858 126.031 210.328 133.924 22.2781 6.27101 99.7913 
159.883 177.872 150.884 155.42 143.884 160.167 166.823 67.9806 61.9064 56.4038 150.02 181.324 105.188 137.572 177.125 48.1078 129.691 182.095 138.373 139.882 193.318 149.221 148.955 200.843 148.956 126.159 210.433 134.016 22.1695 6.25454 99.765 
159.649 177.248 151.101 155.231 143.481 160.256 167.317 68.0041 61.9043 56.5608 149.795 181.459 104.985 137.545 177.158 48.0885 129.453 182.118 138.286 139.761 193.291 149.153 148.996 200.669 148.917 126.267 210.508 134.034 22.0975 6.20367 99.6192 
159.482 176.957 151.215 155.113 143.009 160.353 167.533 68.0815 61.9669 56.75 149.63 181.524 104.805 137.539 177.212 47.9984 129.254 182.122 138.156 139.656 193.265 149.046 149.044 200.548 148.834 126.352 210.599 133.987 21.9952 6.16213 99.5025 
159.362 176.757 151.483 155.048 142.612 160.547 167.75 68.1285 62.0617 57.1187 149.272 181.747 104.533 137.489 177.305 48.047 128.807 182.249 138.07 139.335 193.21 149.014 148.912 200.285 148.826 126.463 210.749 134 21.9685 6.19483 99.2848 
159.123 175.79 151.648 155.218 143.114 160.502 168.467 68.1557 61.9951 57.0573 149.266 181.813 104.583 137.498 177.321 48.016 128.814 182.394 138.122 139.352 193.272 149.011 148.998 200.338 148.886 126.574 210.837 133.985 21.9034 6.25594 99.2593 
158.898 174.478 151.693 155.511 144.006 160.326 169.364 68.1187 61.8694 56.7495 149.481 181.797 104.97 137.641 177.279 48.0024 129.192 182.55 138.368 139.693 193.51 149.163 149.307 200.745 149.081 126.675 210.914 134.051 21.7789 6.26027 99.5427 
158.817 173.987 151.655 155.711 144.287 160.356 169.872 68.0401 61.7566 56.6184 149.623 181.788 105.061 137.703 177.307 47.9529 129.323 182.705 138.44 139.87 193.692 149.211 149.521 200.991 149.181 126.775 210.996 134.068 21.6633 6.19908 99.7236 
158.698 173.851 151.675 155.888 144.672 160.475 169.992 68.0314 61.7494 56.7022 149.584 181.882 105.03 137.564 177.328 47.9635 129.122 182.797 138.471 139.831 193.704 149.251 149.569 201.003 149.282 126.885 211.057 134.11 21.5647 6.08257 99.7821 
158.651 174.146 151.633 155.943 145.313 160.644 169.92 68.1093 61.8503 56.8764 149.501 182.07 104.885 137.544 177.515 47.9823 128.984 182.955 138.527 139.78 193.708 149.296 149.66 201.029 149.434 127.066 211.211 134.142 21.3533 6.06388 99.8402 
158.481 174.038 151.769 156.217 146.367 160.806 170.019 68.1051 61.8344 56.9814 149.366 182.188 104.684 137.389 177.591 48.02 128.695 183.153 138.488 139.611 193.746 149.273 149.61 201.041 149.512 127.22 211.355 134.111 21.2644 6.06281 99.7855 
158.514 173.715 151.917 156.416 147.666 160.983 170.284 68.1284 61.801 56.9822 149.217 182.445 104.542 137.276 177.67 48.1495 128.581 183.369 138.567 139.563 193.831 149.334 149.62 201.137 149.664 127.378 211.525 134.164 21.2076 6.10737 99.6659 
158.521 173.963 152.075 156.622 148.918 161.157 170.129 68.1482 61.7968 57.0809 149.126 182.755 104.328 137.248 177.832 48.2909 128.407 183.65 138.582 139.454 193.92 149.377 149.561 201.168 149.789 127.602 211.752 134.217 21.2432 6.18285 99.413 
158.655 174.333 152.314 156.571 149.904 161.387 169.999 68.1941 61.9227 57.3792 149.099 183.211 104.082 137.437 178.314 48.4189 128.248 183.99 138.604 139.324 193.984 149.449 149.519 201.121 149.932 127.915 212.083 134.344 21.2721 6.30856 99.1961 
158.655 174.41 152.457 156.339 151.215 161.54 169.948 68.4189 62.0858 57.7209 149.274 183.736 103.897 137.897 178.834 48.6915 128.285 184.307 138.654 139.352 194.066 149.535 149.559 201.118 150.116 128.387 212.508 134.527 21.3665 6.47356 98.6683 
158.619 174.239 152.363 156.156 152.038 161.335 170.246 68.6446 62.2327 57.821 149.638 183.683 104.214 138.317 179.093 48.6165 128.846 184.301 138.818 139.721 194.042 149.624 149.744 201.19 150.193 128.672 212.643 134.631 21.5217 6.69754 98.6209 
158.497 173.812 152.338 156.208 152.874 161.115 170.407 68.7046 62.2461 57.767 150.101 183.692 104.528 138.736 179.226 48.577 129.401 184.403 138.964 140.132 194.199 149.755 149.902 201.439 150.255 128.948 212.791 134.723 21.8283 6.85899 98.6147 
158.419 173.546 152.217 156.23 153.59 160.926 170.682 68.8196 62.2908 57.6774 150.534 183.653 104.9 139.076 179.272 48.5589 129.983 184.464 139.207 140.64 194.359 149.936 150.19 201.737 150.382 129.208 212.909 134.841 21.9837 6.87918 98.7331 
158.5 173.406 152.008 156.206 154.271 160.717 170.78 69.0589 62.4426 57.4986 151.074 183.691 105.41 139.675 179.548 48.6229 130.853 184.573 139.651 141.318 194.612 150.281 150.644 202.234 150.69 129.493 213.115 135.063 22.0006 6.95544 98.9832 
158.73 173.302 151.815 156.167 154.945 160.618 170.741 69.1761 62.4895 57.1708 151.641 183.948 105.758 140.366 179.844 48.8244 131.766 184.815 140.055 142.062 194.978 150.593 151.119 202.82 150.938 129.835 213.376 135.278 22.1329 6.99822 99.147 
158.97 173.606 151.707 156.095 155.499 160.641 170.426 69.2438 62.4733 56.8943 151.949 184.477 105.716 140.943 180.301 49.0438 132.253 185.061 140.246 142.487 195.208 150.767 151.272 203.083 151.027 130.209 213.629 135.462 22.5336 7.03407 99.0886 
159.218 173.525 151.72 156.226 156.222 160.721 170.353 69.2423 62.3576 56.5943 152.081 185.084 105.52 141.444 180.927 49.1943 132.57 185.386 140.316 142.799 195.456 150.855 151.391 203.28 151.052 130.612 213.932 135.617 22.9661 7.10098 98.9898 
159.412 173.58 151.639 156.433 156.909 160.674 170.281 69.1981 62.2557 56.1964 152.493 185.273 105.628 142.051 181.369 49.3596 133.09 185.664 140.454 143.263 195.698 151.005 151.683 203.58 151.156 131.032 214.161 135.771 23.281 7.1547 98.9755 
159.574 173.635 151.494 156.832 157.836 160.525 170.141 69.0606 62.0528 55.6428 153.21 185.206 105.981 142.628 181.619 49.5022 133.823 185.885 140.633 143.919 196.015 151.179 152.113 204.073 151.307 131.399 214.295 135.899 23.535 7.13291 99.1277 
159.877 173.865 151.361 156.977 158.428 160.55 169.855 68.8773 61.9628 55.2762 153.827 185.238 106.185 143.132 181.827 49.6523 134.431 186.138 140.774 144.464 196.259 151.33 152.534 204.445 151.464 131.779 214.437 136.023 23.6089 7.13282 99.2521 
160.429 174.489 151.017 156.842 158.153 160.853 169.354 68.7389 62.025 55.3062 154.104 185.438 105.973 143.396 182.045 49.8107 134.579 186.305 140.76 144.693 196.283 151.378 152.841 204.444 151.515 132.156 214.563 136.13 23.5471 7.04824 99.2457 
160.954 175.179 150.958 156.529 157.374 161.171 168.741 68.6234 62.0758 55.4812 154.333 185.66 105.744 143.751 182.214 49.9675 134.737 186.427 140.721 144.927 196.269 151.424 153.162 204.342 151.584 132.59 214.691 136.258 23.4999 6.99584 99.1079 
161.656 176.426 151.156 156.268 156.332 161.688 167.781 68.4884 62.0547 55.861 154.381 186.222 105.114 144.179 182.637 50.2067 134.549 186.584 140.57 144.933 196.176 151.422 153.36 203.985 151.643 133.15 214.827 136.403 23.5245 6.90515 98.9078 
161.98 177.406 151.118 155.826 155.052 162.107 167.033 68.6866 62.2531 56.5811 154.061 186.498 104.272 144.462 182.795 50.369 133.963 186.439 140.173 144.639 195.751 151.214 153.326 203.208 151.496 133.652 214.852 136.403 23.5117 6.7812 98.2557 
162.377 178.262 151.564 155.05 153.5 162.664 166.685 69.113 62.6928 57.9078 153.375 187.065 103.057 144.893 183.135 50.5637 133.119 186.268 139.733 144.027 195.132 150.946 153.057 202.008 151.294 134.276 214.89 136.409 23.4733 6.85023 97.4879 
162.422 179.308 151.954 154.183 151.95 163.423 165.907 69.4278 63.2211 59.376 153.276 187.544 102.148 145.813 183.123 51.1405 132.92 186.262 139.581 143.714 194.432 150.889 153.009 200.59 151.22 135.38 214.853 136.569 23.6515 7.31692 96.4882 
162.234 179.287 152.374 153.641 150.984 163.893 165.735 69.7866 63.818 60.7827 152.739 187.97 101.196 146.265 183.289 51.4108 132.477 186.271 139.342 143.092 193.814 150.658 152.557 199.357 150.927 135.998 214.826 136.531 23.7908 7.81307 95.8057 
161.821 178.536 152.665 153.612 151.211 164.017 165.881 69.9915 64.1128 61.4377 152.716 188.062 101.115 146.82 183.18 51.8791 132.885 186.309 139.629 143.151 193.553 150.86 152.549 198.945 151.096 136.675 214.808 136.675 24.0628 8.38259 95.4694 
161.502 178.291 152.992 153.784 151.261 164.057 166.016 69.9305 64.1054 61.8149 152.958 188.076 101.122 147.248 183.025 52.2752 133.395 186.429 139.908 143.418 193.492 151.098 152.698 198.703 151.297 137.366 214.75 136.825 24.3849 8.79796 95.3268 
161.202 178.352 153.26 153.824 150.817 164.016 166.086 69.9404 64.0476 62.2447 153.008 188.078 100.864 147.484 182.807 52.5937 133.586 186.359 139.948 143.533 193.273 151.144 152.707 198.207 151.325 137.942 214.559 136.886 24.6659 9.02673 95.0125 
160.901 179.859 153.311 153.923 150.339 164.019 166.508 69.8181 63.9188 62.4288 152.959 187.89 100.342 147.949 182.607 52.9606 133.731 186.256 139.799 143.697 192.99 151.06 152.942 197.633 151.244 138.571 214.302 136.865 24.7694 9.1473 94.7357 
160.525 179.041 153.558 154.179 150.143 164.051 166.545 69.7953 63.9503 62.7295 152.973 187.572 100.015 148.286 182.344 53.1628 133.828 186.174 139.762 143.76 192.743 151.078 153.053 197.195 151.253 139.143 214.05 136.857 24.869 9.31607 94.5886 
160.257 179.626 153.851 154.319 150.214 164.173 166.825 69.8735 63.9765 62.9415 153.006 187.445 99.6971 148.791 181.966 53.2807 134.123 186.018 139.803 143.99 192.486 151.125 153.291 196.794 151.296 139.761 213.8 136.885 24.9745 9.52152 94.3822 
159.996 178.758 154.167 154.652 150.342 164.228 166.176 69.9227 63.9885 63.2695 152.983 187.264 99.1577 149.343 181.518 53.5151 134.229 185.786 139.614 144.119 192.122 151.04 153.376 196.259 151.221 140.387 213.462 136.838 25.1334 9.59425 93.9636 
160.138 178.027 154.237 155.124 151.067 164.407 165.423 69.8834 63.7476 63.0265 153.356 187.182 98.6516 150.226 181.343 53.737 134.757 185.643 139.525 144.62 191.978 151.033 153.806 196.114 151.301 141.058 213.223 136.79 25.3205 9.65206 93.7489 
160.035 176.116 154.523 155.953 152.099 164.631 164.537 69.6517 63.569 62.876 153.716 187.156 98.3138 151.087 181.239 53.9825 135.213 185.627 139.576 145.052 191.813 151.152 154.24 195.922 151.475 141.805 212.966 136.875 25.4638 9.72785 93.9435 
160.061 175.147 154.599 156.384 153.24 164.938 164.322 69.5315 63.4729 62.7012 153.913 187.334 97.9421 151.885 181.24 54.4488 135.689 185.618 139.645 145.502 191.657 151.32 154.748 195.73 151.733 142.541 212.802 137.033 25.4767 9.79926 93.7978 
157.605 176.67 154.573 157.016 154.599 164.058 165.555 68.8263 62.8304 62.2973 155.995 187.308 99.3392 154.53 180.843 54.932 136.523 185.611 140.192 146.49 191.862 152.185 155.499 196.021 152.845 143.017 212.391 137.396 25.528 9.44551 95.2472 
155.902 178.993 154.827 158.548 156.254 163.201 165.804 67.4966 61.2938 61.0153 159.035 187.038 101.639 156.658 180.103 55.7 137.823 185.632 140.8 148.124 192.435 153.088 156.543 196.611 153.811 143.32 211.887 137.804 26.1964 8.87598 96.5876 
155.831 179.042 156.179 161.918 158.475 163.158 164.624 65.9055 59.4146 58.995 162.384 186.705 103.946 158.265 179.392 56.6789 139.334 185.693 141.361 149.897 193.258 153.853 157.683 197.414 154.368 143.538 211.427 138.216 27.3328 8.354 97.6195 
155.867 177.721 158.106 165.248 160.425 162.743 163.232 64.3525 57.6134 56.7822 165.999 186.573 106.486 159.854 179.064 57.8108 140.946 185.856 141.949 151.705 194.205 154.506 159.042 198.375 154.874 143.738 211.117 138.69 28.2522 7.8047 98.5364 
155.917 176.201 160.319 154.16 162.429 161.675 160.955 62.8615 55.6631 54.0079 169.917 186.574 108.909 161.266 179.375 58.9093 142.548 186 142.255 153.63 195.114 154.668 160.818 199.598 155.31 144.104 210.992 139.236 28.6601 6.9053 99.1353 
159.308 173.035 162.829 149.562 158.505 160.732 159.238 61.3406 54.03 51.4119 173.803 186.139 111.467 162.311 179.813 59.9342 144.265 186.343 142.789 155.741 196.173 154.707 162.941 201.246 155.781 144.357 210.938 139.783 28.5724 5.391 100.374 
163.764 171.042 164.648 147.319 155.714 160.774 157.347 60.5756 53.3616 50.2328 176.408 185.262 113.563 162.739 179.689 61.0132 145.619 186.457 143.647 157.349 196.91 155.14 164.673 202.534 156.373 144.454 210.863 140.406 28.1276 4.03512 101.319 
165.377 171.209 166.606 144.573 152.737 161.89 153.322 59.2401 52.3146 49.1749 179.01 185.094 115.342 163.29 179.904 62.1031 147.056 187.191 144.346 159.13 198.006 155.239 166.422 204.099 156.848 144.679 210.97 141.005 27.515 2.60027 102.705 
165.971 171.389 168.21 142.473 150.759 162.711 149.721 58.1466 51.386 48.6399 181.055 184.688 116.579 163.945 180.293 63.0183 148.056 187.822 144.855 160.555 199.051 155.275 167.937 205.333 157.298 144.928 211.088 141.558 26.6749 1.83724 104.031 
166.067 171.194 169.029 141.502 150.892 162.996 147.441 57.5749 51.2497 49.2007 182.775 184.028 118.639 164.461 180.473 63.723 149.398 188.313 145.842 162.14 199.936 155.643 169.217 206.55 158.136 145.098 211.146 142.219 25.3347 2.67068 105.739 
165.501 172.273 169.243 142.115 154.052 162.606 147.281 57.8311 51.6712 50.6772 183.561 182.673 120.184 165.072 180.953 63.9816 150.395 188.358 146.87 163.231 200.778 156.295 170.12 207.403 159.061 145.164 211.255 142.85 24.036 3.28189 107.446 
165.311 176.215 169.312 143.043 150.978 162.77 148.673 58.0068 52.4251 52.3956 184.768 181.305 121.939 165.636 181.225 63.6713 151.48 188.658 147.993 164.409 201.552 156.914 170.88 208.24 159.718 145.157 211.291 143.376 23.0467 4.52893 109.566 
164.767 175.804 169.599 144.303 147.904 162.745 153.064 58.029 53.2751 53.9583 185.898 180.158 123.803 166.008 181.744 62.0473 152.353 189.133 149.101 165.342 202.227 157.439 171.238 208.977 160.306 145.115 211.236 143.829 22.1498 5.83569 112.767 
164.148 179.081 169.756 147.281 145.758 162.404 157.286 58.1685 54.5902 55.6145 186.973 179.649 125.927 165.985 181.978 60.4076 153.111 189.672 150.078 165.945 202.519 157.933 171.572 209.651 160.842 145.017 211.275 144.217 20.9632 6.83161 115.288 
163.435 178.105 170.099 150.475 144.425 162.014 159.504 58.0844 55.4967 56.89 187.859 180.129 127.806 165.503 182.133 59.1799 153.48 190.161 150.798 166.09 202.666 158.381 171.699 210.182 161.315 144.962 211.354 144.618 19.9357 7.34599 117.329 
162.817 177.291 170.345 166.539 143.783 161.459 160.35 58.2146 56.3327 57.9877 188.386 180.613 129.422 164.778 182.023 58.4368 153.73 190.511 151.449 166.13 202.803 158.751 171.749 210.626 161.618 144.887 211.437 144.942 19.1989 7.70712 118.819 
162.174 176.602 170.185 165.403 142.956 160.632 160.782 58.8639 57.475 59.2617 188.426 180.804 130.465 164.615 181.969 58.2816 154.343 190.674 152.231 166.387 202.954 159.162 171.835 211.036 161.92 144.857 211.581 145.292 18.7034 7.89285 119.51 
161.546 176.13 169.594 163.9 142.47 159.749 162.599 60.0499 58.9819 60.7982 188.082 181.361 131.056 164.596 181.988 58.2208 155.207 190.621 153.02 166.645 202.821 159.746 171.815 211.092 162.165 144.772 211.767 145.584 18.6743 7.63804 119.238 
