161.547 173.062 142.982 133.426 142.913 158.99 169.398 87.0936 85.5862 83.2507 -17.7103 190.98 93.175 4.96805 169.735 29.7198 -15.5903 211.984 113.7 -31.0525 223.198 115.083 -44.2786 229.442 109.392 -20.9483 246.184 85.9855 10.5556 6.62197 97.8171 
161.399 173.043 143.021 133.551 142.965 158.918 169.338 87.0053 85.4172 83.0759 -17.8824 191.253 93.2635 4.59679 170.103 29.6812 -15.8627 212.349 113.57 -31.3341 223.616 114.935 -44.547 229.855 109.233 -21.1979 246.533 85.8853 10.5787 6.6689 97.818 
161.187 173.222 143.278 133.783 143.026 158.771 169.517 87.0209 85.2344 82.9052 -17.8939 191.372 93.3741 4.31486 170.203 29.5613 -15.9422 212.631 113.555 -31.4623 223.872 114.873 -44.6965 230.007 109.195 -21.4495 246.668 85.7668 10.6134 6.68952 97.9597 
160.942 173.33 143.712 134.082 143.087 158.575 169.664 87.0165 84.9839 82.6491 -18.2979 191.369 93.4714 3.78143 170.223 29.2664 -16.3644 212.804 113.479 -31.8556 224.184 114.676 -45.0603 230.288 108.955 -21.7016 246.736 85.6171 10.6475 6.76806 98.2425 
160.812 173.529 144.059 134.367 143.29 158.475 170.016 86.878 84.8539 82.4855 -18.6276 191.379 93.3812 3.13984 170.262 28.7466 -16.939 213.068 113.442 -32.3308 224.508 114.589 -45.4971 230.556 108.803 -21.9259 246.703 85.4822 10.6539 6.83997 98.9774 
160.678 173.715 144.621 134.752 143.497 158.267 170.255 86.8805 84.7556 82.278 -19.0019 191.356 93.3363 2.76166 170.437 28.1624 -17.2173 213.188 113.472 -32.5726 224.652 114.568 -45.733 230.667 108.722 -22.1185 246.665 85.4601 10.6882 6.8698 99.5552 
160.601 173.852 145.057 135.141 143.782 158.114 170.538 86.7646 84.6264 82.0537 -19.6544 191.389 93.3272 2.18502 170.651 27.6525 -17.6619 213.435 113.512 -32.958 224.944 114.546 -46.089 230.942 108.603 -22.3523 246.706 85.4895 10.7297 6.88873 100.208 
160.755 173.952 144.823 135.141 143.811 158.148 170.923 86.8009 84.5783 81.9761 -20.0111 191.49 93.4641 1.74494 170.758 27.3876 -18.0716 213.743 113.761 -33.311 225.384 114.728 -46.4448 231.359 108.734 -22.5837 246.844 85.6267 10.7127 6.9362 100.787 
160.842 174.064 145.315 135.377 143.945 158.13 171.108 86.9424 84.7278 82.0387 -20.045 191.559 93.4597 1.47392 170.625 27.2975 -18.1819 213.801 113.983 -33.4366 225.449 115.024 -46.6079 231.337 109.031 -22.835 246.814 85.7068 10.6972 6.99848 100.926 
160.857 174.111 145.648 135.727 144.109 158.045 171.189 86.8696 84.7694 82.0292 -20.0593 191.462 93.3898 1.35822 170.495 27.2467 -18.1657 213.892 113.999 -33.4381 225.351 115.108 -46.6405 231.148 109.13 -23.0531 246.661 85.6561 10.7254 6.96 101.074 
160.834 174.182 145.911 135.881 144.301 157.951 171.302 86.6193 84.732 81.967 -20.2588 191.549 93.4189 1.29994 170.413 27.3409 -18.3806 214.122 114.022 -33.631 225.445 115.264 -46.8487 231.142 109.323 -23.3507 246.63 85.714 10.7378 7.00634 101.16 
160.771 174.146 145.914 135.82 144.447 157.835 171.31 86.4837 84.907 82.1253 -20.375 191.72 93.4808 1.30179 170.51 27.5484 -18.5183 214.434 114.083 -33.681 225.558 115.519 -46.9518 231.17 109.656 -23.6639 246.696 85.7968 10.7012 7.08355 101.133 
160.834 174.192 145.613 135.606 144.426 157.822 171.446 86.4694 85.1031 82.3326 -20.3006 191.96 93.493 1.44444 170.648 27.7735 -18.5729 214.731 114.201 -33.7003 225.661 115.782 -47.0364 231.205 110.012 -23.9911 246.825 85.8935 10.6537 7.10472 101.054 
160.856 174.182 145.26 135.53 144.417 157.881 171.424 86.2633 85.2114 82.4336 -20.2394 191.864 93.2633 1.37471 170.327 27.9958 -18.7359 215.014 114.083 -33.7985 225.696 115.778 -47.1594 231.199 110.043 -24.2903 246.739 85.7873 10.6624 7.03319 100.982 
160.778 174.189 144.96 135.356 144.298 157.846 171.478 86.125 85.2164 82.4488 -20.0701 191.848 93.2559 1.3046 170.192 28.0428 -18.7997 215.238 113.981 -33.8712 225.762 115.731 -47.3042 231.204 110.048 -24.6098 246.73 85.6787 10.6162 7.01889 100.976 
160.79 174.091 144.782 135.284 144.212 157.919 171.345 86.018 85.1565 82.4024 -19.878 191.636 93.325 1.05211 169.938 28.3115 -18.985 215.27 113.895 -34.0633 225.716 115.643 -47.5347 231.137 109.983 -24.9056 246.627 85.5817 10.5807 7.01938 100.811 
160.826 174.106 144.706 135.131 144.141 157.962 171.319 85.9611 85.1263 82.3934 -19.6562 191.457 93.4373 0.875524 169.907 28.2688 -19.1609 215.354 113.8 -34.1848 225.779 115.565 -47.7281 231.19 109.951 -25.1366 246.631 85.5073 10.49 7.10009 100.791 
160.77 174.05 144.827 135.124 144.154 157.955 171.295 85.8515 85.0025 82.2203 -19.802 191.217 93.4033 0.539677 169.837 27.8951 -19.5281 215.402 113.642 -34.446 225.892 115.336 -48.0101 231.354 109.669 -25.3013 246.554 85.3624 10.4524 7.17203 101.124 
160.739 174.053 145.076 135.133 144.187 157.933 171.389 85.7449 84.9434 82.1609 -19.925 190.99 93.4279 0.11719 169.801 27.5463 -19.7704 215.408 113.479 -34.6007 225.938 115.143 -48.1885 231.458 109.454 -25.4408 246.488 85.1955 10.4127 7.22412 101.418 
160.741 174.207 145.425 135.162 144.119 157.867 171.572 85.757 84.9054 82.1644 -19.9844 190.804 93.4778 -0.143841 169.883 27.1072 -19.8676 215.256 113.342 -34.6662 225.835 114.979 -48.2961 231.369 109.31 -25.5605 246.408 85.0561 10.3654 7.28015 101.633 
160.88 174.38 145.492 135.08 144.102 157.912 171.732 85.8687 85.0039 82.2862 -19.9772 190.645 93.458 -0.192441 169.817 26.6249 -19.8003 215.095 113.282 -34.6392 225.725 114.903 -48.3312 231.248 109.232 -25.6505 246.278 84.9202 10.3072 7.27475 101.925 
161.025 174.581 145.543 135.034 144.143 157.932 171.934 86.0813 85.1255 82.4232 -19.8863 190.743 93.4007 -0.0254598 170.036 26.1627 -19.5656 215.006 113.261 -34.4585 225.683 114.917 -48.271 231.14 109.312 -25.7026 246.3 84.8285 10.1761 7.36007 102.077 
161.048 174.625 145.48 135.01 144.023 157.825 171.959 86.2323 85.2688 82.5508 -19.7808 190.784 93.362 0.0988284 170.164 25.9555 -19.3404 214.863 113.235 -34.2712 225.502 114.924 -48.144 230.943 109.339 -25.7234 246.254 84.7549 10.1227 7.38839 102.099 
161.096 174.663 145.322 134.883 143.873 157.805 172.067 86.3228 85.3352 82.605 -19.6301 191.134 93.3397 0.287948 170.682 25.7886 -19.207 214.982 113.242 -34.1594 225.61 114.979 -48.0454 231.051 109.425 -25.7206 246.51 84.776 10.1048 7.44583 102.13 
161.174 174.708 145.207 134.863 143.715 157.796 172.196 86.6023 85.5745 82.7848 -19.4261 191.364 93.2016 0.523893 171.086 25.483 -18.9354 214.901 113.244 -33.9819 225.487 115.039 -47.8653 230.915 109.489 -25.7072 246.643 84.7113 10.1329 7.41327 102.126 
161.265 174.762 144.982 134.821 143.653 157.775 172.302 86.7185 85.7374 82.8919 -19.4008 191.671 92.9811 0.726768 171.533 25.1581 -18.7915 214.98 113.188 -33.8706 225.487 115.047 -47.7223 230.917 109.487 -25.6966 246.848 84.6622 10.195 7.38699 102.201 
161.354 174.807 144.635 134.895 143.726 157.838 172.347 86.7231 85.8246 82.9146 -19.421 191.835 92.7397 1.02925 171.808 24.9302 -18.7603 215.157 113.125 -33.8596 225.601 115.011 -47.6726 231.029 109.391 -25.6579 246.994 84.6198 10.2593 7.32566 102.349 
161.429 174.79 144.426 134.835 143.573 157.876 172.293 86.8955 86.0256 83.0366 -19.1789 191.91 92.4788 1.42604 171.979 24.7943 -18.3631 215.139 113.031 -33.5873 225.422 114.957 -47.413 230.831 109.331 -25.5965 247.042 84.5065 10.3095 7.16666 102.202 
161.573 174.781 144.284 134.806 143.502 157.997 172.356 86.9999 86.1396 83.1175 -19.0509 191.865 92.235 1.51345 172.052 24.5074 -18.2937 215.074 112.983 -33.545 225.288 114.903 -47.324 230.716 109.254 -25.553 247.021 84.4132 10.3783 7.06977 102.338 
161.657 174.701 144.167 134.855 143.424 158.061 172.328 87.0235 86.1731 83.2004 -19.0554 191.779 92.0839 1.63524 172.105 24.4361 -18.325 214.992 112.965 -33.5671 225.135 114.831 -47.3069 230.601 109.166 -25.5045 246.986 84.3866 10.413 6.98149 102.39 
161.736 174.604 143.884 134.777 143.431 158.137 172.21 87.0026 86.2258 83.2707 -19.0258 191.752 91.7405 1.65642 172.134 24.3837 -18.2969 214.935 112.837 -33.5233 225.024 114.757 -47.2056 230.503 109.106 -25.4575 246.965 84.343 10.486 6.95055 102.26 
161.769 174.414 143.5 134.667 143.328 158.23 172.031 86.9906 86.2811 83.3627 -18.8104 191.745 91.6195 1.80062 171.997 24.6475 -18.1565 214.998 112.831 -33.3664 225.017 114.789 -47.041 230.484 109.164 -25.4243 246.978 84.3405 10.5207 6.93364 102.025 
161.77 174.252 143.113 134.555 143.323 158.306 171.947 86.8542 86.2541 83.382 -18.8157 191.753 91.5865 1.80357 172.011 24.7349 -18.3126 215.137 112.786 -33.4603 225.146 114.771 -47.0876 230.628 109.146 -25.4365 247.048 84.3462 10.5499 6.96775 102.026 
161.77 174.073 142.848 134.512 143.189 158.358 171.721 86.7712 86.1934 83.303 -18.8169 191.702 91.5424 1.80254 171.896 24.9899 -18.3967 215.161 112.728 -33.59 225.159 114.686 -47.1756 230.685 109.016 -25.4383 247.083 84.3402 10.5926 6.88069 101.8 
161.75 173.912 142.592 134.351 143.165 158.424 171.57 86.7459 86.1331 83.3069 -18.8127 191.744 91.6 1.87222 171.783 25.4228 -18.4522 215.187 112.769 -33.6487 225.218 114.695 -47.1942 230.74 109.024 -25.4553 247.123 84.3966 10.6403 6.89348 101.527 
161.722 173.848 142.592 134.284 143.079 158.426 171.585 86.6712 86.0907 83.2676 -18.8428 191.775 91.6001 1.81957 171.817 25.448 -18.5316 215.3 112.778 -33.6886 225.289 114.658 -47.2174 230.83 108.963 -25.4686 247.176 84.4007 10.6647 6.87948 101.624 
161.769 173.785 142.469 134.259 143.091 158.462 171.549 86.6032 85.9972 83.1808 -19.0552 191.734 91.5878 1.78573 171.946 25.4479 -18.6369 215.292 112.738 -33.8179 225.303 114.566 -47.3307 230.891 108.851 -25.48 247.208 84.424 10.6714 6.81689 101.65 
161.673 173.734 142.769 134.407 143.167 158.423 171.458 86.4656 85.8795 83.1046 -19.3601 191.637 91.5074 1.54974 172.112 25.3226 -18.9584 215.188 112.589 -34.1373 225.215 114.386 -47.6065 230.843 108.656 -25.5335 247.162 84.3881 10.6696 6.76996 101.722 
161.596 173.696 142.981 134.454 143.119 158.369 171.452 86.5422 85.8692 83.0611 -19.5702 191.638 91.5861 1.32681 172.222 25.1216 -19.076 215.122 112.602 -34.2833 225.188 114.327 -47.7432 230.855 108.562 -25.5844 247.199 84.3647 10.6721 6.71694 101.85 
161.515 173.736 143.286 134.579 143.189 158.31 171.519 86.4998 85.7283 82.9164 -19.9064 191.641 91.5841 1.10938 172.22 24.8886 -19.3111 215.042 112.522 -34.5324 225.196 114.166 -47.9642 230.893 108.366 -25.6156 247.182 84.299 10.6758 6.694 101.997 
161.516 173.838 143.591 134.775 143.417 158.317 171.643 86.6128 85.7363 82.9251 -19.9828 191.672 91.4731 1.08363 172.267 24.6391 -19.2757 214.977 112.488 -34.5238 225.139 114.113 -47.978 230.812 108.334 -25.6599 247.146 84.2179 10.6644 6.68174 102.083 
161.547 173.936 143.478 134.796 143.51 158.367 171.79 86.6887 85.7582 82.9341 -19.7965 192.049 91.4083 1.31146 172.569 24.557 -19.085 215.138 112.496 -34.4188 225.299 114.159 -47.9039 230.914 108.404 -25.6623 247.345 84.1984 10.6497 6.683 102.099 
161.475 173.996 143.587 134.884 143.558 158.313 171.851 86.8014 85.7676 82.9488 -19.8342 192.126 91.4008 1.33986 172.723 24.4576 -19.0022 215.126 112.443 -34.3932 225.282 114.066 -47.8964 230.877 108.315 -25.6914 247.385 84.1133 10.6441 6.65245 102.086 
161.472 174.076 143.642 134.925 143.643 158.311 171.923 86.8397 85.7302 82.9025 -19.9485 192.199 91.442 1.35122 172.848 24.3352 -19.0231 215.141 112.392 -34.4763 225.34 113.984 -47.975 230.943 108.224 -25.7223 247.463 84.054 10.641 6.61925 102.117 
161.492 174.154 143.568 134.896 143.663 158.319 171.961 86.7489 85.7215 82.8825 -19.9271 192.235 91.329 1.23765 172.792 24.3748 -18.9834 215.227 112.261 -34.4379 225.379 113.894 -47.9425 230.982 108.146 -25.7358 247.464 83.9445 10.645 6.59825 102.081 
161.477 174.208 143.533 134.848 143.673 158.274 171.957 86.7366 85.6859 82.8372 -19.9035 192.248 91.2451 1.21213 172.754 24.1523 -18.8996 215.244 112.16 -34.3636 225.382 113.802 -47.8709 230.971 108.069 -25.7384 247.443 83.8514 10.663 6.6091 102.156 
161.524 174.248 143.438 134.746 143.749 158.28 171.935 86.8411 85.7713 82.9235 -19.6992 192.461 91.1543 1.40475 172.856 24.1553 -18.6157 215.343 112.143 -34.104 225.448 113.856 -47.6298 230.977 108.176 -25.714 247.553 83.8239 10.6848 6.65922 101.986 
161.636 174.311 143.481 134.716 143.755 158.299 171.948 87.1299 85.8974 83.065 -19.3896 192.568 90.9691 1.74446 172.974 24.043 -18.2542 215.101 112.113 -33.8504 225.17 113.857 -47.3899 230.657 108.263 -25.642 247.514 83.7273 10.6851 6.63218 101.746 
161.613 174.31 143.44 134.794 143.726 158.265 171.867 87.2011 85.9041 83.0695 -19.3169 192.483 90.8474 1.95363 172.897 24.0564 -18.1687 214.973 112.038 -33.7725 225.011 113.773 -47.3144 230.493 108.194 -25.5903 247.409 83.6299 10.6803 6.62492 101.619 
161.638 174.318 143.511 134.794 143.734 158.233 171.859 87.2148 85.8919 83.0578 -19.4031 192.562 90.7927 2.0352 172.898 24.0541 -18.0418 214.819 111.983 -33.6614 224.843 113.746 -47.1936 230.324 108.192 -25.5905 247.358 83.6083 10.7163 6.66127 101.47 
161.575 174.267 143.518 134.711 143.671 158.151 171.678 87.3908 86.012 83.1978 -19.31 192.49 90.6982 2.11979 172.89 24.0715 -17.8033 214.532 111.849 -33.4488 224.487 113.649 -47.0083 229.978 108.163 -25.6428 247.274 83.5117 10.7191 6.67266 101.054 
161.428 174.196 143.728 134.768 143.655 158.008 171.478 87.4189 85.9479 83.1449 -19.6482 192.325 90.7653 1.83369 172.794 24.1383 -17.9712 214.165 111.733 -33.6352 224.177 113.509 -47.1648 229.749 108.033 -25.7746 247.146 83.4874 10.734 6.68294 100.737 
161.376 174.158 143.705 134.638 143.652 157.903 171.407 87.4565 85.9904 83.2297 -19.8797 192.374 90.9334 1.66321 172.879 24.273 -18.0564 214.099 111.741 -33.6827 224.147 113.568 -47.2273 229.719 108.141 -25.9504 247.192 83.5599 10.7208 6.78641 100.508 
161.323 174.242 144.089 134.75 143.789 157.773 171.474 87.5097 86.0329 83.2525 -20.4344 192.336 90.9998 1.22833 172.877 24.0985 -18.4052 213.98 111.747 -33.9647 224.091 113.583 -47.5003 229.696 108.161 -26.1533 247.141 83.5644 10.6948 6.84968 100.594 
161.239 174.317 144.724 135.025 144.022 157.662 171.589 87.5601 86.1247 83.378 -20.8726 192.278 91.0367 0.880349 172.838 24.0936 -18.6203 213.772 111.751 -34.1009 223.876 113.674 -47.6301 229.454 108.306 -26.3663 246.971 83.5765 10.6979 6.93355 100.544 
161.081 174.323 145.184 135.209 144.184 157.514 171.607 87.5145 86.1136 83.4367 -21.3933 192.206 91.2304 0.482446 172.616 24.2044 -19.1341 213.607 111.764 -34.5016 223.831 113.748 -48.0011 229.4 108.41 -26.6186 246.835 83.6008 10.6718 7.08404 100.475 
161 174.433 145.652 135.356 144.261 157.375 171.931 87.4618 86.1861 83.5751 -22.0654 192.045 91.4159 -0.2783 172.221 24.452 -19.9728 213.328 111.874 -35.1768 223.661 113.994 -48.6511 229.179 108.716 -27.127 246.533 83.7166 10.6183 7.28019 100.405 
161.216 174.55 145.327 135.383 144.377 157.522 172.267 87.301 86.3298 83.7375 -22.1622 192.099 91.4367 -0.555286 172.178 24.541 -20.5165 213.638 112.037 -35.5803 223.952 114.301 -49.065 229.377 109.031 -27.4103 246.519 83.8001 10.5458 7.37891 100.822 
161.276 174.601 145.583 135.558 144.461 157.508 172.451 87.2092 86.3474 83.8345 -22.1265 192.018 91.3827 -0.835482 172.065 24.6154 -20.7868 213.715 111.983 -35.7611 223.961 114.362 -49.2713 229.245 109.165 -27.7332 246.415 83.7525 10.5458 7.48517 100.783 
161.214 174.629 145.719 135.706 144.565 157.414 172.466 87.0997 86.373 83.9295 -22.1523 191.664 91.2363 -1.22133 171.576 24.8264 -20.9507 213.587 111.81 -35.8762 223.699 114.311 -49.4542 228.855 109.211 -28.0949 246.058 83.6131 10.5126 7.50974 100.516 
161.208 174.544 145.763 135.919 144.589 157.406 172.303 86.8582 86.3622 83.9665 -22.2257 191.25 90.969 -1.62968 171.2 25.0796 -21.1712 213.525 111.513 -36.0817 223.454 114.137 -49.7158 228.551 109.098 -28.4686 245.747 83.4303 10.4846 7.43361 100.219 
161.374 174.276 145.493 135.833 144.564 157.682 172.131 86.6882 86.3275 83.9877 -22.367 190.557 91.0087 -2.34253 170.464 25.6123 -21.802 213.448 111.436 -36.6417 223.417 114.042 -50.269 228.534 108.974 -28.8706 245.393 83.2995 10.4663 7.3967 100.08 
161.331 174.053 145.802 136.048 144.518 157.726 172.009 86.3047 86.0562 83.8057 -22.7295 189.802 91.0433 -3.15137 169.921 25.6757 -22.5923 213.217 111.2 -37.2961 223.242 113.72 -50.936 228.434 108.6 -29.177 244.928 83.1459 10.3983 7.39296 100.309 
161.551 173.761 143.568 134.428 144.249 157.989 171.985 85.8116 85.449 83.1082 -22.8349 189.076 90.8614 -3.15047 170.051 24.5576 -22.8638 212.391 110.237 -37.4713 222.543 112.811 -51.2342 228.006 107.93 -29.4396 244.537 82.825 10.2093 7.55053 100.235 
161.613 174.165 143.897 134.349 144.089 157.938 172.628 85.782 85.279 83.0741 -23.214 188.853 91.3829 -3.49867 169.826 24.4599 -23.3847 212.27 110.416 -37.9385 222.638 112.851 -51.7255 228.064 107.949 -29.7071 244.315 82.81 10.1323 7.67441 100.833 
161.718 174.493 144.12 134.33 143.909 158.036 172.934 85.7198 85.2065 83.0683 -23.5903 188.89 91.8654 -4.01731 169.836 24.5972 -24.0198 212.461 110.725 -38.4917 223.022 113.062 -52.2713 228.426 108.077 -29.9666 244.339 82.9411 10.0781 7.79808 101.427 
161.811 174.624 144.792 134.494 143.82 158.033 173.047 85.862 85.2626 83.1749 -23.6333 188.983 92.166 -4.43048 169.823 24.5564 -24.4014 212.505 110.982 -38.8639 223.228 113.246 -52.6321 228.547 108.198 -30.1616 244.343 82.9635 10.0547 7.91025 101.843 
161.774 174.743 145.662 134.819 143.822 157.885 173.215 86.0079 85.424 83.3215 -23.6668 189.061 92.2312 -4.86155 169.847 24.2671 -24.6434 212.495 111.068 -39.1171 223.267 113.362 -52.8962 228.485 108.278 -30.4166 244.288 82.9036 10.042 7.98738 102.152 
161.611 174.861 146.245 135.106 143.798 157.67 173.397 86.0843 85.491 83.345 -23.8001 189.348 92.1544 -5.23385 170.167 23.8553 -24.9762 212.603 111.111 -39.4414 223.396 113.41 -53.1859 228.532 108.268 -30.653 244.364 82.8579 10.0798 8.06897 102.587 
161.653 173.888 143.774 133.274 143.429 157.831 172.515 86.011 85.2951 83.0923 -23.0184 189.279 91.5928 -5.16448 171.037 23.017 -24.8726 211.877 110.205 -39.4233 222.69 112.726 -53.1281 228.005 107.839 -30.9094 244.515 82.6673 10.155 8.13183 101.692 
161.624 173.235 141.401 131.499 143.407 157.86 171.668 85.9242 85.0419 82.8468 -22.3229 189.43 90.96 -4.8504 171.81 22.3853 -24.7141 211.172 109.235 -39.2331 222.137 112.07 -52.9517 227.609 107.511 -31.1483 244.725 82.4925 10.1701 8.46669 100.449 
161.704 173.615 141.482 131.702 143.286 157.742 172.362 85.9598 85.1543 83.0805 -22.7418 189.628 90.7845 -4.88642 171.523 22.3995 -24.8291 211.349 109.355 -39.4164 222.198 112.17 -53.158 227.527 107.611 -31.4159 244.644 82.428 10.1643 8.3692 100.683 
161.745 173.982 141.782 132.015 143.271 157.592 172.717 86.0649 85.2979 83.3359 -23.1223 189.668 90.4633 -4.97962 170.896 22.6175 -24.7265 211.55 109.502 -39.4157 222.216 112.257 -53.2266 227.358 107.714 -31.6527 244.442 82.3437 10.1412 8.19867 100.7 
161.625 174.168 141.83 132.195 143.106 157.393 173.051 86.0313 85.3679 83.5523 -23.6386 189.772 90.2322 -5.10538 170.692 22.9439 -24.8302 211.79 109.541 -39.6174 222.277 112.267 -53.4756 227.313 107.747 -31.9425 244.374 82.2994 10.099 8.0135 100.661 
161.746 173.563 139.583 130.584 142.782 157.499 171.924 85.578 84.8531 83.2266 -23.7951 189.411 89.8518 -5.21161 170.754 23.1672 -25.0024 211.197 108.641 -39.6775 221.716 111.445 -53.5809 226.927 107.191 -32.2415 244.289 82.1705 10.0818 8.14421 99.351 
161.618 173.74 139.753 130.632 142.499 157.313 172.365 85.4745 84.7761 83.3784 -24.3506 189.281 89.8572 -5.49071 170.262 23.407 -25.2853 211.215 108.642 -39.9945 221.639 111.333 -53.9344 226.773 107.113 -32.5428 244.059 82.0832 10.0356 8.01407 99.4048 
161.631 173.314 138.119 129.612 142.554 157.34 171.447 85.0769 84.2136 82.9049 -24.5612 188.918 89.7265 -5.58127 170.053 23.2501 -25.5682 210.585 107.888 -40.2305 221.175 110.638 -54.1717 226.519 106.639 -32.8507 243.889 81.9215 9.99662 8.18426 98.5055 
161.709 173.121 136.907 129.072 142.95 157.509 170.921 84.5803 83.6288 82.3863 -24.8844 188.515 89.7434 -5.74617 169.942 22.9644 -26.108 210.091 107.176 -40.6533 220.903 110.054 -54.5583 226.443 106.207 -33.1963 243.727 81.7386 9.99364 8.45863 97.9758 
161.771 173.506 137.387 129.212 142.842 157.515 171.602 84.4446 83.7433 82.5926 -25.691 188.526 90.0004 -6.30056 169.523 22.9761 -26.7292 210.56 107.533 -41.1678 221.343 110.309 -55.0848 226.778 106.351 -33.4888 243.639 81.755 9.93509 8.4414 98.919 
161.896 173.453 136.421 128.891 143.169 157.654 171.213 84.1148 83.3104 82.1597 -25.9735 188.479 89.904 -6.48499 169.65 22.4874 -27.085 210.425 107.091 -41.483 221.341 109.944 -55.4014 226.885 106.077 -33.7808 243.727 81.6966 9.93841 8.57096 98.7313 
162.012 174.052 138.288 129.812 143.284 157.643 172.403 84.2217 83.5226 82.3219 -26.3514 188.526 89.9813 -6.80322 169.387 22.1484 -27.1653 210.758 107.556 -41.5343 221.53 110.347 -55.5181 226.858 106.378 -33.9983 243.556 81.7015 9.94827 8.52995 99.7089 
162.165 175.372 140.135 130.848 143.402 157.703 173.677 84.4493 83.8723 82.5497 -26.7112 188.583 90.1968 -7.16667 169.192 21.8039 -27.403 211.185 108.216 -41.7316 221.886 110.903 -55.7418 227.073 106.736 -34.1648 243.493 81.7673 9.95894 8.4628 100.936 
162.304 174.79 139.036 130.283 143.633 157.918 172.955 84.1428 83.4207 82.0696 -26.831 188.434 89.9701 -7.45098 169.349 21.3457 -27.9175 210.912 107.785 -42.119 221.849 110.471 -56.0684 227.215 106.337 -34.3223 243.553 81.7243 10.0022 8.65796 100.767 
162.158 174.42 138.116 129.602 143.971 157.866 172.18 83.9425 83.0546 81.7759 -26.6307 188.716 89.7307 -7.5749 169.874 21.1261 -27.8267 210.645 107.231 -41.9882 221.744 110.144 -55.9466 227.169 106.258 -34.4965 243.797 81.7096 10.0344 8.94801 99.9086 
161.915 174.164 137.43 129.261 144.378 157.646 171.681 83.8681 82.8538 81.5896 -26.558 189.065 89.5978 -7.78263 170.475 20.658 -27.817 210.327 106.83 -41.9218 221.642 110.008 -55.8514 227.129 106.288 -34.6834 243.99 81.741 10.0985 9.30172 99.4228 
161.474 173.75 137.407 129.27 144.786 157.276 170.884 83.7791 82.5573 81.3352 -26.8156 189.37 89.3485 -7.88886 171.1 20.3319 -27.8517 210.064 106.28 -41.8668 221.508 109.662 -55.7849 226.997 106.12 -34.8918 244.156 81.6242 10.1638 9.6575 98.7235 
161.237 173.432 137.386 129.288 145.144 157.099 170.287 83.7315 82.3561 81.2032 -27.2395 189.268 89.1097 -8.03834 171.185 20.1094 -28.03 209.564 105.839 -41.9317 221.12 109.343 -55.7985 226.681 105.93 -35.068 244.026 81.5005 10.2392 9.89126 98.1275 
161.112 173.329 137.316 129.437 145.545 157.105 170.056 83.2816 81.9006 80.9279 -28.2689 189.119 88.8218 -8.39712 171.414 19.8329 -28.8148 209.366 105.411 -42.5294 221.08 108.932 -56.2939 226.754 105.541 -35.3093 243.947 81.4522 10.3291 10.0607 98.1471 
161.019 173.253 136.884 129.276 145.696 157.087 169.751 82.9731 81.607 80.8111 -28.9725 189.094 88.5708 -8.71916 171.679 19.7582 -29.4312 209.356 105.19 -42.9838 221.135 108.677 -56.6671 226.88 105.295 -35.5309 243.974 81.4928 10.4067 10.1849 98.1956 
160.697 173.042 136.903 129.395 145.862 156.812 169.212 82.8215 81.4789 80.7876 -29.226 189.082 88.3845 -8.71135 171.961 19.903 -29.6212 209.059 104.883 -43.1279 220.833 108.455 -56.7704 226.605 105.113 -35.6972 243.898 81.4751 10.4744 10.308 97.7267 
