156.965 177.723 130.741 133.882 139.246 153.81 177.284 66.886 66.0219 69.0873 -90.0124 204.637 93.2479 -57.2175 195.242 20.5006 -85.5334 237.161 108.541 -94.4062 249.886 106.515 -104.129 258.396 99.6531 -72.1485 259.914 94.0854 13.746 8.3053 118.888 
156.826 177.755 131.325 134.232 139.378 153.765 177.12 67.1958 66.1765 69.4169 -90.1237 204.537 93.4653 -57.6881 195.14 20.6066 -85.7611 237.278 108.816 -94.6699 250.12 106.612 -104.335 258.444 99.6901 -72.2609 259.875 94.1202 13.9213 8.07119 119.036 
156.553 177.788 132.328 134.613 139.527 153.519 176.914 67.4981 66.3182 69.7492 -90.3179 204.59 93.5323 -58.0439 194.99 20.7341 -85.8104 237.363 109.056 -94.804 250.298 106.633 -104.464 258.427 99.6353 -72.3092 259.829 94.0786 14.0877 7.80276 119.113 
156.314 177.818 132.715 134.745 139.471 153.343 176.805 67.7338 66.528 69.967 -90.6715 204.836 93.4327 -58.3637 195.294 20.7748 -86.1494 237.698 109.167 -95.1735 250.742 106.628 -104.679 258.817 99.5237 -72.4369 260.003 94.1261 14.2427 7.55705 119.225 
156.536 177.69 133.393 135.021 139.541 153.341 176.397 68.042 66.83 70.2246 -90.5478 204.707 93.7454 -58.717 194.944 21.3136 -86.0805 237.655 109.528 -95.3104 250.696 106.893 -104.922 258.66 99.6633 -72.5691 260.083 94.1092 14.2722 7.32379 118.912 
156.64 177.463 133.86 135.204 139.456 153.314 176.148 68.1405 66.8637 70.2339 -90.9809 204.803 93.6751 -59.1173 195.177 21.0118 -86.321 237.883 109.581 -95.5734 250.967 106.806 -105.119 258.97 99.4832 -72.6855 260.174 94.0689 14.3209 7.14881 119.195 
156.621 177.253 134.881 135.547 139.468 153.269 176.037 68.2278 66.9227 70.4024 -90.9964 204.602 93.6693 -59.2094 195.098 20.8684 -86.3011 237.693 109.581 -95.7009 250.754 106.69 -105.364 258.723 99.306 -72.8024 260.085 93.9058 14.3158 6.97005 119.211 
156.447 177.046 135.748 136.038 139.521 153.176 175.938 68.0432 66.7741 70.2046 -91.23 204.761 93.6769 -59.1472 195.392 20.7226 -86.3974 237.851 109.522 -95.9006 250.897 106.543 -105.614 258.978 99.0268 -72.9475 260.17 93.865 14.2731 6.82342 119.58 
156.271 176.982 136.788 136.482 139.46 153.092 175.936 67.7655 66.4156 69.6409 -91.7598 204.994 93.7548 -59.1586 195.766 20.6524 -86.5159 238.024 109.414 -96.0482 251.154 106.336 -105.845 259.521 98.6827 -73.1301 260.379 93.8681 14.0756 6.71385 119.722 
156.321 176.97 137.874 136.709 139.633 152.942 175.905 67.8464 66.4145 69.4718 -91.814 205.208 93.8844 -59.1881 195.896 20.708 -86.4352 238.01 109.707 -96.1919 251.104 106.468 -106.106 259.601 98.7036 -73.368 260.524 93.918 13.9237 6.48956 119.854 
156.406 177.058 138.456 136.72 139.79 152.877 175.99 68.2347 66.755 69.7683 -91.4406 205.083 94.1413 -58.9671 195.689 21.0183 -86.3134 237.58 110.164 -96.2981 250.641 106.87 -106.318 259.091 99.0662 -73.5545 260.428 94.0055 13.8438 6.32051 119.778 
156.58 177.05 139.208 136.894 140.08 152.771 175.828 68.7322 67.0977 69.8186 -90.875 204.982 94.638 -58.8068 195.333 21.5088 -86.0313 237.1 110.785 -96.2378 250.15 107.499 -106.408 258.532 99.6594 -73.7785 260.42 94.129 13.7193 6.2466 119.401 
156.659 176.952 140.098 137.032 140.055 152.706 175.645 68.8926 67.2378 69.4173 -90.2509 204.885 94.9047 -58.5249 194.844 22.1695 -85.5826 236.641 111.158 -96.1079 249.577 107.874 -106.505 258.05 99.9144 -74.033 260.39 94.1701 13.4475 6.1532 118.815 
156.874 176.735 140.843 137.098 140.108 152.651 175.187 69.0717 67.3784 68.8475 -89.5583 204.688 95.1605 -58.4144 194.351 22.8392 -85.1241 236.173 111.376 -95.9574 248.999 108.149 -106.605 257.668 100.092 -74.2594 260.392 94.0957 13.0582 6.07851 117.959 
157.311 176.306 141.524 136.801 140.103 152.757 174.748 69.3458 67.5791 68.5003 -89.0707 204.901 95.5145 -58.5114 194.161 23.6718 -84.7975 236.013 111.875 -96.0081 248.646 108.654 -106.991 257.444 100.615 -74.869 260.724 94.1144 12.5888 5.9974 117.27 
157.566 175.972 141.52 136.41 140.22 152.884 174.537 69.1058 67.4716 68.2243 -89.4441 205.127 95.5337 -59.0783 194.577 23.5774 -84.9497 236.156 111.766 -96.148 248.711 108.626 -107.179 257.755 100.738 -75.219 260.972 94.1102 12.2561 6.10598 117.207 
157.957 175.611 141.215 135.833 140.176 153.179 174.2 69.2113 67.6696 67.9045 -89.702 205.34 95.5307 -59.5311 195.069 23.5203 -85.0856 236.336 111.858 -96.3777 248.757 108.767 -107.454 258.038 100.912 -75.5765 261.323 94.1422 11.908 6.10881 117.063 
157.801 174.862 141.233 135.642 140.332 153.372 173.748 69.1318 67.6167 67.582 -90.7568 205.788 95.2439 -60.2687 195.56 23.5254 -85.7173 236.806 111.648 -96.8808 249.241 108.461 -107.798 258.797 100.594 -75.8879 261.61 94.0763 11.689 6.12327 117.112 
157.716 174.168 140.903 135.512 140.499 153.619 173.597 68.9208 67.3991 67.1878 -91.7271 206.163 95.0812 -60.9787 195.981 23.6285 -86.4176 237.358 111.477 -97.3676 249.887 108.21 -108.113 259.671 100.332 -76.1933 261.872 94.0966 11.5556 6.1889 117.356 
157.732 173.73 140.568 135.291 140.615 154.077 173.842 68.8872 67.367 67.0381 -92.4754 206.3 94.9193 -61.4963 196.456 23.7353 -87.1923 237.813 111.349 -97.9793 250.424 107.984 -108.533 260.343 100.071 -76.5265 262.041 94.0856 11.5306 6.17281 117.784 
157.959 173.73 139.978 134.939 140.605 154.493 174.209 68.9062 67.3635 67.1307 -93.1152 206.184 94.8539 -62.046 196.961 23.4896 -87.9997 238.062 111.2 -98.5985 250.778 107.813 -109.031 260.728 99.9586 -76.8836 262.059 94.0391 11.5328 6.20572 118.378 
158.101 173.8 139.702 134.825 140.723 154.745 174.357 68.9496 67.3601 67.0236 -93.4993 205.992 94.8644 -62.4531 197.193 23.3285 -88.4987 238.169 111.126 -99.0368 250.98 107.706 -109.46 260.949 99.8141 -77.1477 261.961 93.9542 11.4705 6.14238 118.88 
158.269 174.029 139.52 134.923 141.022 155.005 174.553 69.0931 67.3742 67.1989 -93.2936 205.754 95.1893 -62.7824 197.051 23.5621 -88.8142 238.219 111.338 -99.2869 251.073 107.973 -109.799 260.765 100.144 -77.4948 261.905 93.9793 11.6009 6.25934 119.035 
158.336 174.306 139.46 135.028 141.223 155.24 174.731 69.0329 67.2266 67.0592 -93.4894 205.581 95.3631 -63.1412 197.174 23.4742 -89.2485 238.356 111.309 -99.603 251.335 107.99 -110.085 260.984 100.184 -77.7682 261.888 94.0083 11.642 6.32143 119.292 
158.638 174.617 139.11 135.094 141.537 155.473 174.887 69.2106 67.2958 67.3771 -93.2985 205.102 95.7795 -63.6097 196.918 23.4355 -89.5432 238.206 111.581 -99.8457 251.255 108.319 -110.351 260.621 100.618 -78.0229 261.681 94.1023 11.8664 6.37412 119.52 
158.795 174.914 138.878 135.045 141.676 155.583 175.018 69.3686 67.3866 67.6138 -93.3246 204.809 95.9025 -63.8823 196.774 23.2544 -89.8202 238.104 111.705 -100.065 251.185 108.445 -110.489 260.356 100.802 -78.1726 261.456 94.1309 12.085 6.39429 119.826 
159.115 175.042 138.912 134.89 141.552 155.727 174.889 69.9134 67.7073 67.5413 -92.3674 204.417 96.3998 -63.7687 195.936 23.7191 -89.5737 237.471 112.28 -100.015 250.493 109.062 -110.743 259.449 101.35 -78.4131 261.21 94.1627 11.9922 6.44436 119.393 
159.46 175.112 139.064 135.038 141.641 155.902 174.808 70.0613 67.9016 67.237 -91.4492 204.073 96.7178 -63.7811 195.237 24.0684 -89.2722 237.095 112.591 -99.85 250 109.552 -110.83 258.886 101.747 -78.6439 261.037 94.1684 11.821 6.61598 118.981 
159.686 174.947 139.12 135.049 141.76 156.086 174.498 70.1671 68.0273 66.9056 -90.817 203.82 96.9324 -63.6768 194.548 24.7358 -89.063 236.83 112.869 -99.745 249.652 109.972 -110.931 258.524 102.108 -78.9002 260.857 94.1856 11.5956 6.77638 118.589 
159.565 174.044 139.073 135.183 141.817 156.178 173.837 70.2267 68.0154 66.5561 -90.4239 203.594 97.32 -63.8899 194.07 25.5541 -89.0176 236.57 112.991 -99.704 249.446 110.237 -111.057 258.359 102.339 -79.1674 260.806 94.2241 11.3863 6.99215 117.774 
159.097 171.89 138.795 135.332 142.013 156.108 172.639 70.2041 67.7919 65.9867 -91.1202 203.687 97.7273 -64.772 193.995 26.4187 -89.6351 236.502 113.014 -100.198 249.56 110.34 -111.631 258.734 102.439 -79.8166 260.982 94.4198 11.0587 7.20014 116.741 
158.903 170.217 138.755 135.36 142.235 156.017 171.41 70.1486 67.638 66.096 -91.6879 203.791 97.9726 -65.3792 193.696 27.133 -89.8517 236.556 113.106 -100.307 249.627 110.44 -111.845 258.685 102.674 -80.1673 261.054 94.4905 11.0275 7.43678 116.122 
158.824 168.936 138.543 135.412 142.538 156.041 170.58 70.1664 67.6209 66.3512 -92.5941 203.584 98.021 -66.3172 193.379 27.5715 -90.4681 236.571 113.077 -100.703 249.727 110.432 -112.112 258.744 102.774 -80.5065 260.922 94.5151 11.1412 7.5962 115.75 
158.767 168.719 138.505 135.469 142.664 156.137 170.051 70.2701 67.6602 66.6373 -93.4827 203.263 98.0058 -66.9363 192.977 27.8191 -91.0018 236.427 112.984 -101.074 249.654 110.329 -112.39 258.627 102.771 -80.7927 260.733 94.4409 11.2502 7.66601 115.406 
158.534 169.251 138.889 135.766 142.89 156.045 169.512 70.4542 67.8234 67.0065 -94.3099 202.739 98.0009 -67.6769 192.568 27.7132 -91.5614 236.192 112.743 -101.446 249.449 110.08 -112.564 258.385 102.579 -80.9296 260.373 94.2513 11.4413 7.69545 115.119 
158.544 170.133 139.041 135.888 143.02 156.096 169.533 70.6615 67.8857 67.3851 -94.9337 202.229 98.1582 -68.1222 192.366 27.5842 -92.1185 235.981 112.713 -101.805 249.317 109.996 -112.779 258.162 102.595 -81.113 260.048 94.2117 11.6282 7.75459 115.255 
158.534 171.762 139.119 136.019 143.164 156.179 169.516 70.94 67.9956 67.6648 -95.1832 201.712 98.483 -68.2484 192.239 27.5352 -92.5675 235.788 112.707 -102.125 249.208 109.943 -112.992 257.961 102.592 -81.2402 259.786 94.1618 11.7517 7.78204 115.377 
158.529 174.198 139.065 136.278 143.428 156.188 169.981 70.8582 67.7788 67.5892 -95.9902 201.431 98.323 -68.5768 192.513 26.7928 -93.2618 235.927 112.421 -102.551 249.465 109.562 -113.155 258.282 102.226 -81.2817 259.523 94.1095 11.8825 7.79003 116.157 
158.69 176.315 138.89 136.298 143.556 156.252 170.339 70.7997 67.5511 67.6437 -96.3574 201.037 98.3748 -69.0035 192.443 26.3972 -93.6029 235.979 112.346 -102.781 249.615 109.356 -113.307 258.324 102.099 -81.3561 259.271 94.0354 12.0261 7.73495 116.722 
158.84 178.22 138.727 136.238 143.635 156.348 170.642 71.15 67.5721 67.7647 -96.1844 200.711 98.8213 -68.7933 192.163 26.5872 -93.6275 235.676 112.654 -102.761 249.475 109.538 -113.36 257.966 102.29 -81.4091 259.008 93.9874 12.1164 7.80489 117.1 
158.995 179.901 138.408 136.046 143.518 156.495 170.968 71.2242 67.4627 67.6362 -96.1278 200.553 99.0576 -68.693 192.447 26.3383 -93.7992 235.617 112.74 -102.869 249.516 109.573 -113.456 258.05 102.357 -81.5361 259.024 94.0783 12.0698 7.84834 117.419 
159.086 179.132 138.231 135.863 143.42 156.5 171.201 71.2034 67.3534 67.4647 -96.0725 200.47 99.1168 -68.6254 192.581 26.0721 -93.8886 235.533 112.729 -102.901 249.449 109.57 -113.475 258.01 102.38 -81.6075 258.986 94.1347 12.0655 7.93564 117.57 
159.254 178.921 138.267 135.832 143.413 156.523 171.028 71.2451 67.3697 67.4972 -95.6836 200.316 99.1933 -68.7969 192.327 26.207 -93.7428 235.438 112.9 -102.854 249.261 109.735 -113.487 257.722 102.595 -81.6723 258.976 94.2149 12.1158 7.9204 117.269 
159.388 178.635 138.343 135.985 143.541 156.475 170.963 71.2671 67.5348 67.4967 -95.3176 200.199 99.3152 -68.7875 192.185 26.3388 -93.6092 235.322 113.066 -102.81 249.034 110.009 -113.484 257.452 102.835 -81.7227 258.961 94.3269 12.1195 7.95998 117.055 
159.548 178.648 138.308 135.973 143.64 156.43 171.273 71.131 67.592 67.5373 -94.9445 200.019 99.1377 -68.4692 192.208 25.9943 -93.5816 235.169 112.992 -102.83 248.817 110.066 -113.494 257.188 102.911 -81.7393 258.835 94.364 12.1475 8.00084 117.227 
159.567 178.825 137.997 135.881 143.571 156.366 171.396 71.2116 67.7691 67.6392 -94.6258 199.87 99.2382 -68.3527 192.377 25.8047 -93.6959 234.916 113 -102.963 248.577 110.245 -113.602 256.958 103.118 -81.8722 258.899 94.4942 12.1717 8.0729 116.917 
159.771 179.194 137.63 135.871 143.482 156.407 171.706 71.012 67.7454 67.4799 -94.6133 199.675 99.0791 -68.5082 192.705 25.2195 -93.9217 234.814 112.733 -103.138 248.472 110.155 -113.722 257.018 103.02 -81.968 258.952 94.5446 12.1134 8.14379 116.805 
160.307 179.566 137.349 135.824 143.496 156.551 171.82 70.7522 67.6221 67.3409 -94.3421 199.468 99.0243 -68.6944 192.586 25.007 -93.9501 234.764 112.649 -103.179 248.33 110.225 -113.877 256.89 103.157 -82.1379 258.956 94.5756 12.025 8.28457 116.673 
160.564 179.966 137.41 135.919 143.569 156.543 171.828 70.8167 67.7297 67.2902 -93.9282 199.279 98.9559 -68.7824 192.281 24.8427 -93.8379 234.549 112.727 -103.164 248.016 110.368 -113.972 256.551 103.292 -82.2608 258.891 94.5381 11.9586 8.31054 116.455 
160.748 179.681 137.347 135.974 143.7 156.547 171.873 70.6099 67.5804 67.1463 -94.1187 199.11 98.6874 -69.1015 192.109 24.5116 -93.8647 234.47 112.594 -103.161 247.913 110.273 -113.936 256.446 103.235 -82.3905 258.721 94.4488 12.0422 8.36864 116.605 
160.675 179.256 136.985 135.837 143.689 156.516 171.984 70.0675 67.0845 66.9332 -94.6568 199.044 98.403 -69.4109 192.155 24.2992 -94.0797 234.66 112.205 -103.272 248.136 109.873 -113.959 256.758 102.959 -82.515 258.647 94.4128 12.0901 8.39501 116.802 
160.745 178.473 136.744 135.72 143.551 156.502 171.865 69.7391 66.7888 66.8612 -94.7973 198.859 98.2343 -69.8004 191.942 24.264 -94.1947 234.676 111.935 -103.366 248.13 109.591 -114.079 256.796 102.78 -82.6551 258.551 94.3488 12.0716 8.37849 116.647 
160.754 178.231 136.557 135.493 143.393 156.662 171.745 69.5894 66.5387 66.7214 -95.0774 198.872 98.2342 -70.2899 191.584 24.5948 -94.3305 234.803 111.988 -103.473 248.301 109.51 -114.216 257.008 102.748 -82.8959 258.574 94.3538 12.0242 8.34731 116.562 
160.545 178.439 136.598 135.491 143.31 156.748 171.427 69.4546 66.308 66.6034 -95.5917 198.882 98.242 -70.6529 191.288 24.9724 -94.5001 234.82 111.932 -103.598 248.385 109.331 -114.337 257.145 102.577 -83.0357 258.496 94.3281 12.0217 8.2878 116.425 
160.214 178.894 136.794 135.539 143.223 156.764 170.762 69.5369 66.2464 66.573 -96.1906 199.174 98.2517 -70.8527 190.718 26.0014 -94.6559 234.919 112.042 -103.77 248.53 109.28 -114.504 257.259 102.468 -83.2126 258.565 94.3185 12.0866 8.1932 115.84 
159.749 179.272 137.025 135.788 143.209 156.679 170.553 69.5007 66.2083 66.6172 -96.7465 199.469 98.1819 -70.8619 190.159 26.8808 -94.9201 235.118 112.014 -103.97 248.778 109.188 -114.63 257.513 102.32 -83.3476 258.672 94.3318 12.1853 8.16005 115.275 
159.511 179.478 137.078 135.957 143.157 156.79 170.249 69.5903 66.3941 66.7828 -97.119 199.549 98.1884 -70.956 189.416 27.8545 -95.1397 235.179 112.077 -104.189 248.85 109.228 -114.827 257.565 102.239 -83.4727 258.675 94.3254 12.2398 8.08798 114.641 
159.331 179.318 137.125 135.948 142.957 156.736 169.803 69.6207 66.4859 66.873 -97.5621 199.657 98.1291 -71.0489 188.876 28.5861 -95.4393 235.286 112.05 -104.455 248.939 109.159 -115.012 257.675 102.098 -83.5609 258.71 94.3439 12.3049 8.0162 114.068 
159.171 179.683 137.233 136.107 142.838 156.701 169.417 69.7274 66.5391 66.9008 -98.1662 199.747 98.0868 -71.2648 188.537 29.2644 -95.904 235.463 111.932 -104.801 249.17 108.965 -115.246 257.985 101.816 -83.6583 258.809 94.3071 12.3322 7.96606 113.466 
158.863 179.635 137.606 136.27 142.713 156.6 168.883 69.6691 66.4623 66.8371 -98.6516 199.864 98.1917 -71.4127 188.149 29.9434 -96.1374 235.558 111.836 -105.043 249.272 108.791 -115.458 258.129 101.588 -83.7579 258.871 94.288 12.3673 7.85289 112.899 
158.644 179.169 137.797 136.363 142.573 156.556 168.876 69.6786 66.5352 66.8769 -98.8463 199.836 98.2204 -71.4715 187.671 30.5945 -96.2017 235.515 111.763 -105.176 249.204 108.688 -115.593 258.049 101.422 -83.8301 258.824 94.2013 12.4032 7.74228 112.364 
158.532 178.255 138.099 136.417 142.392 156.534 168.731 69.5723 66.4781 66.8154 -99.0216 200.065 98.1565 -71.387 187.366 31.1235 -96.1725 235.691 111.756 -105.242 249.316 108.623 -115.697 258.133 101.311 -83.8656 258.919 94.2097 12.4207 7.63093 112.036 
158.481 177.007 138.403 136.34 142.149 156.397 168.805 69.5872 66.4664 66.8232 -99.3682 200.285 98.0756 -71.2736 187.217 31.2129 -96.1661 235.709 111.7 -105.307 249.253 108.516 -115.791 258.061 101.227 -83.8834 258.982 94.1715 12.4395 7.54378 111.782 
158.481 176.009 138.818 136.177 141.964 156.255 169.521 69.6171 66.2938 66.6813 -99.5742 200.345 98.0447 -71.0651 187.52 30.3768 -96.0491 235.65 111.707 -105.28 249.147 108.332 -115.798 257.959 101.081 -83.8537 258.921 94.1082 12.4447 7.38958 112.478 
158.408 174.705 139.141 136.221 141.884 156.23 169.413 69.6641 66.2613 66.6556 -99.7469 200.367 98.138 -71.1056 187.493 30.3976 -96.0603 235.638 111.708 -105.325 249.155 108.236 -115.837 257.959 100.964 -83.8044 258.863 94.0615 12.4697 7.27001 112.578 
158.622 173.173 139.334 136.098 141.716 156.188 169.301 69.6701 66.2808 66.6298 -99.6749 200.514 98.1799 -71.3514 187.51 30.2103 -95.9835 235.744 111.804 -105.355 249.154 108.314 -115.937 257.929 101.064 -83.865 259.005 94.065 12.4593 7.21635 112.554 
158.916 174.283 139.362 135.806 141.541 156.217 170.689 69.8212 66.3919 66.6045 -99.7428 200.567 98.0325 -71.2275 188.255 28.7211 -96.0479 235.766 111.852 -105.475 249.09 108.263 -116.019 257.889 100.973 -83.8968 258.981 93.9993 12.4377 7.13352 113.822 
159.247 174.052 139.04 135.514 141.459 156.293 171.406 69.9553 66.4143 66.5511 -99.9935 200.638 97.8468 -71.3873 189.169 27.592 -96.3707 235.951 111.873 -105.73 249.262 108.183 -116.168 258.133 100.883 -83.9497 259.027 94.0363 12.4128 7.09134 114.879 
159.404 172.331 138.468 135.14 141.17 156.404 171.267 69.9725 66.4894 66.5665 -100.217 200.844 97.7679 -71.471 189.757 27.5059 -96.6878 236.222 111.82 -106.043 249.557 108.118 -116.391 258.502 100.778 -84.0642 259.297 94.132 12.3947 7.00363 114.999 
159.5 170.562 138.103 134.774 140.837 156.499 171.103 69.927 66.5069 66.635 -100.564 201.087 97.5701 -71.7093 190.173 27.3456 -96.8872 236.563 111.761 -106.273 249.86 107.995 -116.567 258.793 100.637 -84.1556 259.539 94.1548 12.4428 6.9073 115.144 
159.816 169.39 137.945 134.409 140.544 156.662 171.047 70.1458 66.6305 66.7048 -100.568 201.156 97.6631 -71.7736 190.375 27.28 -97.0747 236.676 111.942 -106.478 249.96 108.114 -116.797 258.837 100.744 -84.3161 259.735 94.209 12.4484 6.88586 115.211 
160.073 168.505 138.04 134.207 140.395 156.823 171.199 70.4931 66.8579 66.8165 -100.276 201.177 97.8234 -71.6596 190.077 27.5528 -97.031 236.669 112.298 -106.503 249.919 108.421 -116.876 258.655 101.022 -84.4288 259.864 94.2601 12.5268 6.8773 115.021 
160.29 167.905 138.06 133.899 140.331 156.922 171.23 70.7229 66.9914 66.7854 -100.079 201.381 97.7244 -71.3784 190.062 27.4564 -96.989 236.945 112.601 -106.539 250.109 108.585 -116.861 258.706 101.127 -84.452 259.983 94.3003 12.6418 6.80644 115.464 
160.304 167.741 138.196 133.852 140.363 156.856 170.993 70.6017 66.9138 66.6628 -100.302 201.55 97.741 -71.3223 189.919 27.5282 -96.9611 237.007 112.575 -106.48 250.161 108.589 -116.826 258.744 101.136 -84.5546 260.069 94.245 12.6529 6.90628 115.418 
160.245 167.851 137.757 133.795 140.46 156.889 170.973 70.4718 66.8268 66.5248 -100.882 201.579 97.6047 -71.3482 190.283 27.2651 -97.3072 237.131 112.33 -106.685 250.391 108.341 -116.85 259.107 100.838 -84.5263 260.036 94.2253 12.6674 6.89007 115.801 
160.21 166.886 137.434 133.844 140.531 156.93 170.651 70.3953 66.8251 66.5511 -101.057 201.465 97.5329 -71.4007 190.244 27.3532 -97.4892 237.146 112.116 -106.8 250.442 108.166 -116.884 259.181 100.622 -84.5017 259.98 94.1533 12.7588 6.88948 115.724 
160.165 166.44 137.3 133.922 140.632 156.848 170.539 70.3527 66.8105 66.5445 -101.381 201.479 97.5012 -71.389 190.303 27.4246 -97.7095 237.197 111.944 -106.92 250.51 108.006 -116.912 259.35 100.447 -84.4944 259.987 94.136 12.7474 6.92872 115.643 
160.257 167.684 136.803 133.927 140.701 156.823 171.119 70.2143 66.6386 66.3649 -101.797 201.601 97.4339 -71.5715 190.963 26.6745 -98.0491 237.381 111.8 -107.125 250.744 107.841 -117.022 259.744 100.272 -84.5623 260.083 94.2061 12.6955 6.95912 116.248 
160.244 167.054 136.666 133.94 140.706 156.831 170.929 70.2922 66.7092 66.3298 -101.711 201.522 97.4589 -71.6164 190.947 26.8943 -98.1626 237.423 111.824 -107.192 250.772 107.879 -117.073 259.82 100.282 -84.6018 260.114 94.2303 12.6475 7.00784 116.106 
160.306 166.621 136.487 134.062 140.842 156.906 170.6 70.2853 66.7781 66.5213 -101.661 201.411 97.5561 -71.8065 190.846 27.2029 -98.2229 237.399 111.834 -107.249 250.775 107.958 -117.184 259.81 100.384 -84.669 260.132 94.2672 12.6053 7.01697 115.817 
160.211 166.584 136.413 134.276 140.979 156.825 171.059 70.2473 66.883 66.6736 -101.558 201.375 97.7064 -71.7084 190.977 27.2441 -98.3164 237.493 111.795 -107.358 250.882 108.077 -117.307 259.892 100.528 -84.8108 260.319 94.3168 12.6357 7.05657 115.626 
160.225 167.283 136.302 134.426 141.166 156.77 171.305 70.2576 66.8221 66.7137 -101.76 201.41 97.7545 -71.7614 191.267 27.0159 -98.5851 237.693 111.788 -107.503 251.142 108.106 -117.402 260.164 100.617 -84.9344 260.436 94.3756 12.6591 7.13653 115.878 
160.23 167.716 136.549 134.611 141.368 156.695 171.202 70.2298 66.7539 66.7453 -101.736 201.354 97.8695 -71.8662 191.155 27.0692 -98.6435 237.712 111.855 -107.563 251.15 108.216 -117.536 260.091 100.795 -85.0841 260.414 94.3871 12.6843 7.19318 115.897 
160.274 167.664 136.636 134.707 141.444 156.679 171.255 70.4812 67.0113 66.9446 -101.497 201.285 97.982 -71.9522 191.021 27.2806 -98.6908 237.618 112.099 -107.679 251.031 108.514 -117.683 259.861 101.076 -85.2084 260.399 94.4338 12.7452 7.1826 115.779 
160.411 168.106 136.946 134.872 141.655 156.719 171.197 70.9809 67.4947 67.2328 -100.991 200.896 98.2682 -72.126 190.428 27.3203 -98.5648 237.13 112.545 -107.679 250.448 109.013 -117.814 259.137 101.519 -85.3662 260.15 94.3994 12.7557 7.20901 115.608 
160.297 167.994 137.119 135.252 141.983 156.651 170.972 71.1831 67.661 67.3347 -101.047 200.732 98.2984 -72.5389 190.216 27.3597 -98.7639 236.986 112.644 -107.845 250.326 109.124 -117.937 259.011 101.588 -85.5022 259.975 94.3571 12.7998 7.20702 115.595 
160.22 168.045 137.233 135.59 142.26 156.555 170.637 71.1825 67.6635 67.2889 -101.306 200.551 98.3477 -73.1337 190.095 27.2698 -99.0318 236.779 112.573 -108.049 250.163 109.099 -118.107 258.901 101.535 -85.6502 259.728 94.3163 12.79 7.23689 115.563 
160.108 169.795 137.509 135.983 142.526 156.544 170.806 70.8775 67.3282 67.0715 -101.496 200.321 98.4512 -73.5682 190.224 26.8451 -99.1936 236.726 112.411 -108.161 250.169 108.928 -118.268 258.904 101.376 -85.8136 259.461 94.2624 12.7782 7.26201 116.098 
160.228 171.637 137.334 136.153 142.72 156.712 171.202 70.6961 67.1181 67.0746 -101.421 200.03 98.6609 -73.9824 190.568 26.4372 -99.3831 236.64 112.348 -108.295 250.224 108.911 -118.443 258.928 101.433 -85.9948 259.327 94.2782 12.7641 7.28929 116.571 
160.443 173.188 137.237 136.198 142.822 156.909 171.402 70.4065 66.8622 66.9406 -101.305 199.668 98.7518 -74.4057 190.658 26.1512 -99.4329 236.413 112.261 -108.32 250.069 108.871 -118.539 258.812 101.458 -86.1562 259.106 94.3029 12.6493 7.35419 116.795 
