148.674 173.497 127.417 141.706 139.509 142.858 169.814 61.8627 79.4651 75.7821 97.1086 181.119 -112.915 163.371 158.255 -149.683 98.7812 186.157 -91.9459 82.6812 199.182 -79.9579 86.3882 212.172 -83.3757 118.968 199.944 -68.9189 13.4632 17.8318 93.1942 
148.541 173.403 129.095 141.672 139.486 142.617 169.658 61.6112 79.5422 75.8497 97.4693 180.993 -112.643 164.035 158.3 -149.168 99.7099 185.557 -92.1214 83.1666 199.021 -79.9438 86.8819 212.048 -83.2647 119.457 199.934 -68.659 13.4452 18.0549 92.2736 
148.77 173.296 127.725 141.618 139.371 142.875 169.491 61.1688 79.3246 75.6712 98.3405 180.646 -112.655 165.136 158.412 -148.685 100.866 185.36 -92.5079 83.8651 198.752 -79.9917 87.5314 211.8 -83.212 119.982 199.786 -68.4219 13.5066 18.675 91.4425 
148.96 173.301 128.789 141.553 139.304 143.269 169.333 62.6106 78.7844 75.3036 99.2709 180.572 -112.714 165.786 158.373 -148.412 100.195 185.533 -91.4521 84.6849 198.785 -80.0494 88.2998 211.79 -83.1436 120.483 199.573 -68.2016 13.5978 17.1035 93.2078 
149.335 173.302 126.217 141.453 139.389 143.758 169.168 63.5982 78.6955 75.2923 100.133 180.712 -112.612 166.063 158.437 -148.15 100.248 185.744 -91.7544 85.2125 199.219 -80.0151 88.9647 212.184 -82.867 120.939 199.528 -67.8209 13.6049 17.435 92.6475 
149.57 173.369 127.955 141.264 139.303 144.096 169.01 65.7902 78.4687 75.2116 100.922 180.922 -112.488 166.213 158.429 -147.963 98.9801 186.026 -90.6428 85.8396 199.615 -79.9022 89.6508 212.536 -82.5885 121.401 199.488 -67.4952 13.6051 15.8982 94.3367 
149.234 173.41 125.46 141.138 139.135 143.878 168.78 65.7656 78.4582 75.1439 101.422 181.072 -112.281 166.551 158.367 -147.667 99.8714 185.625 -90.99 86.3903 199.746 -79.9554 90.2896 212.589 -82.5867 121.941 199.455 -67.3406 13.703 16.1456 93.3496 
149.406 173.468 129.427 141.085 139.134 144.206 168.636 68.4831 77.9264 74.8497 102.336 181.046 -112.221 167.104 158.322 -147.331 98.1363 185.892 -88.9538 87.2522 199.8 -79.847 90.9786 212.614 -82.4468 122.484 199.524 -67.2189 13.7252 13.7821 96.3932 
149.269 173.478 128.382 141.013 139.09 144.165 168.594 67.8938 77.6817 74.7592 102.874 180.923 -112.124 167.979 158.377 -146.872 99.0053 185.694 -88.5843 87.7897 199.556 -79.7752 91.3809 212.324 -82.3583 122.855 199.425 -67.0676 13.7872 13.5555 96.6627 
149.024 173.455 125.75 140.989 139.002 143.909 168.605 66.5168 77.5382 74.6768 103.305 180.537 -111.975 168.902 158.419 -146.405 100.655 185.094 -89.0896 88.2366 199.205 -79.7795 91.7454 211.931 -82.3692 123.2 199.284 -66.9648 13.8794 14.1807 95.623 
149.128 173.423 124.325 140.924 138.936 143.946 168.464 66.7048 77.2652 74.5475 103.772 180.2 -111.968 169.498 158.417 -146.155 101.015 184.798 -89.1915 88.6818 198.775 -79.7906 92.0649 211.471 -82.3247 123.445 199.052 -66.8639 13.9588 14.3913 95.4145 
149.389 173.398 124.952 141.008 139.024 144.194 168.407 67.4804 77.0175 74.4019 104.34 180.116 -112.058 169.774 158.364 -146.179 100.687 184.938 -88.9196 89.1079 198.722 -79.8423 92.4521 211.4 -82.3256 123.715 198.933 -66.8276 14.0001 14.0698 95.9553 
149.77 173.348 126.092 140.986 139.099 144.626 168.327 68.6897 76.92 74.3468 104.705 180.174 -112.144 169.635 158.352 -146.262 99.8791 185.149 -88.5167 89.3373 199.066 -79.7965 92.7822 211.725 -82.161 123.877 198.845 -66.6994 13.9845 13.5161 96.6756 
149.999 173.234 124.787 140.972 139.095 144.851 168.141 69.7158 77.1103 74.4667 104.851 180.22 -112.189 169.47 158.299 -146.321 99.5561 184.951 -88.7265 89.4413 199.339 -79.779 93.048 211.96 -82.0694 124.069 198.813 -66.6039 13.9902 13.4613 96.3432 
150.174 173.12 123.052 141.015 139.146 144.889 168.041 69.8043 77.4174 74.7257 104.983 180.37 -112.313 169.48 158.271 -146.422 99.9294 184.85 -89.3736 89.502 199.579 -79.8119 93.2611 212.157 -82.0223 124.274 198.796 -66.573 13.9795 13.9692 95.456 
150.417 173.037 121.708 140.898 139.094 145.053 167.901 70.2453 77.6285 74.9335 105.269 180.178 -112.414 169.589 158.181 -146.441 100.04 184.665 -89.8177 89.5899 199.564 -79.8468 93.4007 212.14 -81.9654 124.438 198.701 -66.5295 13.9268 14.3221 94.8656 
150.392 172.969 120.402 140.97 139.098 144.919 167.862 70.1484 77.9843 75.1741 105.436 179.906 -112.348 169.916 157.964 -146.287 100.565 184.149 -90.2617 89.5627 199.318 -79.7488 93.4396 211.859 -81.9274 124.59 198.551 -66.479 13.9374 14.9101 94.0849 
150.407 172.872 119.922 141.132 139.165 144.815 167.813 70.5268 78.3042 75.3394 105.451 179.643 -112.268 170.284 157.787 -146.069 100.628 183.825 -90.5173 89.5002 199.093 -79.6315 93.4601 211.589 -81.8724 124.714 198.429 -66.4303 14.0062 15.2869 93.7799 
150.466 172.861 120.696 141.204 139.237 144.943 167.786 71.1938 78.4789 75.368 105.562 179.475 -112.282 170.426 157.644 -146.04 100.299 183.707 -90.3697 89.5273 199.102 -79.5521 93.5418 211.596 -81.8495 124.854 198.447 -66.4673 13.9964 15.0928 94.0804 
150.582 172.847 121.97 141.217 139.257 145.092 167.766 71.8344 78.5688 75.3926 105.655 179.195 -112.305 170.639 157.532 -145.984 99.8866 183.535 -90.0503 89.5327 198.948 -79.4382 93.5148 211.44 -81.8017 124.934 198.463 -66.4998 14.0004 14.7785 94.5754 
150.643 172.831 122.338 141.262 139.346 145.126 167.852 71.5807 78.6554 75.4397 105.536 178.862 -112.258 170.775 157.387 -145.951 100.054 183.268 -90.0281 89.4431 198.71 -79.2952 93.3828 211.202 -81.717 124.928 198.414 -66.5147 14.002 14.9371 94.5136 
150.735 172.859 122.476 141.319 139.487 145.225 167.938 71.3013 78.6484 75.417 105.507 178.587 -112.241 170.844 157.342 -145.948 100.205 183.164 -90.0038 89.3867 198.583 -79.1842 93.2773 211.089 -81.6407 124.907 198.41 -66.5377 13.9936 15.0651 94.4993 
150.895 172.873 123.032 141.266 139.491 145.353 167.985 71.4866 78.7247 75.4717 105.495 178.198 -112.203 170.995 157.427 -145.901 100.006 183.07 -89.8484 89.2656 198.387 -79.0146 93.1013 210.909 -81.5107 124.842 198.413 -66.5082 13.9904 15.0621 94.7383 
150.939 172.961 124.043 141.365 139.449 145.324 167.996 71.3799 78.8569 75.4507 105.303 177.781 -112.182 170.935 157.237 -145.89 99.8213 182.828 -89.1871 89.0481 198.061 -78.8696 92.8621 210.571 -81.5439 124.745 198.353 -66.5588 14.0615 14.4486 95.3534 
150.855 173.073 125.617 141.491 139.504 145.322 167.972 71.0574 78.7252 75.2795 105.098 177.782 -112.204 170.633 156.987 -145.932 99.723 182.764 -88.649 88.9842 197.935 -78.8638 92.7454 210.465 -81.6255 124.644 198.305 -66.594 14.069 13.8715 95.7273 
150.761 173.14 126.068 141.64 139.525 145.198 168.031 70.6865 78.7559 75.2723 104.867 177.664 -112.215 170.389 156.754 -146.049 99.8078 182.647 -88.5786 88.8283 197.807 -78.9377 92.5896 210.305 -81.7896 124.537 198.248 -66.6876 14.1208 13.759 95.6316 
150.682 173.161 125.916 141.739 139.522 145.088 168.067 70.1531 78.7773 75.3042 104.611 177.396 -112.191 170.28 156.486 -146.014 100.053 182.333 -88.7731 88.6111 197.454 -78.9349 92.3304 209.925 -81.8504 124.333 198.065 -66.7269 14.1755 14.0659 95.1838 
150.74 173.686 131.603 141.537 139.222 144.902 168.602 70.6054 78.1242 74.7782 104.789 176.465 -111.965 170.967 156.621 -145.818 99.0081 182.143 -86.373 88.9019 196.587 -78.5347 92.2528 209.063 -81.9171 124.21 197.889 -66.8695 14.2433 12.2857 98.576 
150.756 174.18 134.661 141.375 139.076 144.72 169.164 71.4371 77.7657 74.2941 104.784 175.752 -111.681 171.249 156.698 -145.716 98.1644 181.53 -84.335 89.0267 195.836 -78.0963 92.139 208.4 -81.9212 124.079 197.822 -67.0345 14.2154 10.9319 101.057 
150.755 174.489 138.445 141.271 138.894 144.527 169.601 72.6907 77.5017 73.909 104.737 175.076 -111.494 171.3 156.673 -145.694 97.2034 180.453 -82.51 89.0195 195.207 -77.8203 91.9513 207.849 -81.9786 123.865 197.731 -67.2392 14.192 9.40074 103.034 
150.639 174.77 144.124 141.125 138.756 144.246 169.999 74.6714 77.3374 73.6423 104.427 174.618 -111.335 171.032 156.449 -145.74 95.777 179.053 -80.6727 88.8865 194.59 -77.5984 91.6829 207.314 -81.9984 123.572 197.54 -67.4212 14.1334 7.79544 104.769 
150.524 174.94 151.533 140.909 138.561 143.983 170.241 77.2747 77.1852 73.4963 104.296 174.105 -111.244 170.893 156.399 -145.772 94.0635 177.277 -78.8473 88.7095 193.706 -77.5433 91.2757 206.531 -82.093 123.189 197.256 -67.5699 14.044 6.22631 106.281 
150.443 175.058 154.206 140.882 138.471 143.621 170.534 79.2377 77.3945 73.5426 103.795 173.627 -111.113 170.671 156.381 -145.789 92.7564 175.882 -77.5557 88.2244 192.927 -77.4385 90.7555 205.806 -82.1334 122.741 196.915 -67.637 14.0332 5.22685 107.337 
150.242 175.185 154.938 140.873 138.348 143.23 170.755 80.561 77.4509 73.4988 103.281 173.379 -110.97 170.357 156.384 -145.864 91.861 174.96 -76.5644 87.8661 192.356 -77.3662 90.3472 205.267 -82.2064 122.349 196.692 -67.7205 14.0618 4.61205 108.129 
150.03 175.288 155.001 140.814 138.273 142.943 170.939 81.7296 77.3726 73.3935 102.842 173.33 -110.97 170.085 156.439 -146.031 91.0346 174.265 -75.9374 87.6214 191.887 -77.3553 90.0062 204.829 -82.2923 122.013 196.46 -67.8577 14.057 4.36264 108.763 
149.893 175.315 154.639 140.736 138.231 142.724 171.022 82.5229 77.3435 73.3473 102.546 173.25 -110.997 169.943 156.586 -146.108 90.4282 173.677 -75.5888 87.3391 191.469 -77.3502 89.6324 204.44 -82.3333 121.665 196.259 -67.9457 14.0403 4.22676 109.167 
149.344 175.083 155.774 141.021 138.673 142.594 170.717 80.9507 77.1872 73.5789 101.888 173.95 -111.443 169.291 156.212 -146.572 90.4336 174.859 -76.6974 86.9468 191.874 -78.1025 89.2751 204.711 -82.7561 121.388 196.102 -68.1047 14.1316 4.75436 108.649 
148.836 174.785 160.042 141.108 138.833 142.462 170.386 78.5617 77.2151 73.8777 101.238 174.72 -111.889 168.597 155.888 -147.056 90.9181 175.978 -78.4332 86.5136 192.48 -78.8347 88.9706 205.231 -83.1366 121.138 196.028 -68.2708 14.162 5.15603 107.444 
148.536 174.53 162.833 141.072 138.764 142.441 170.053 76.2423 77.2911 74.1053 100.983 175.176 -112.29 168.38 155.753 -147.302 91.8657 176.764 -80.2111 86.2898 193.011 -79.4846 88.8243 205.722 -83.543 121.041 196.14 -68.4561 14.1417 5.52558 106.01 
148.39 174.203 164.498 141.118 138.804 142.4 169.806 73.9057 77.6651 74.5437 100.655 175.141 -112.564 168.237 155.499 -147.359 92.9711 176.799 -82.2157 85.8347 193.098 -79.9709 88.5048 205.756 -83.7771 120.833 195.981 -68.5183 14.155 6.14038 103.967 
148.704 174.243 165.265 140.867 138.77 142.509 169.992 74.039 77.242 74.2399 100.818 174.57 -112.566 168.815 155.59 -147.252 92.9655 176.307 -82.4161 85.9946 192.534 -79.8319 88.3842 205.201 -83.7897 120.691 195.832 -68.6146 14.1191 6.68967 104.03 
149.09 174.385 164.011 140.568 138.758 142.677 170.228 74.2117 77.1202 74.0466 100.89 174.113 -112.523 169.069 155.676 -147.236 92.8097 176.05 -82.505 85.9566 191.985 -79.54 88.1904 204.753 -83.6159 120.492 195.673 -68.6456 13.9919 7.35825 104.157 
149.467 174.545 161.068 140.208 138.563 142.833 170.459 73.9738 77.0616 73.8812 100.901 173.477 -112.435 169.192 155.553 -147.18 92.8464 175.78 -82.759 85.8248 191.344 -79.2771 87.9339 204.223 -83.4477 120.237 195.407 -68.6624 13.8638 8.10693 104.068 
149.605 174.643 156.577 140.075 138.363 142.664 170.611 73.7942 77.1277 73.752 100.733 172.859 -112.315 169.102 155.369 -147.205 92.9662 175.256 -82.9324 85.622 190.668 -79.0783 87.7054 203.601 -83.3756 120.009 195.07 -68.737 13.855 8.54601 103.877 
149.674 174.693 156.043 140.256 138.264 142.252 170.861 76.1387 77.4685 73.7464 100.212 172.175 -112.028 169.011 155.092 -147.094 91.7049 173.596 -81.2722 85.2123 190.005 -78.8445 87.4331 202.972 -83.3063 119.772 194.692 -68.7252 13.9187 6.89665 105.334 
149.817 174.757 155.834 140.363 138.141 142.145 171.02 77.8444 77.4863 73.6036 99.9456 171.596 -111.881 168.823 154.75 -147.153 90.801 172.473 -80.0547 85.0312 189.574 -78.6968 87.2866 202.506 -83.3267 119.615 194.409 -68.8018 14.0121 5.82533 106.356 
149.981 174.804 154.411 140.363 138.003 142.172 171.113 79.1016 77.4857 73.494 99.8025 170.931 -111.802 168.575 154.344 -147.237 90.1909 171.54 -79.1376 84.8773 189.214 -78.6161 87.1628 202.12 -83.3542 119.477 194.104 -68.8906 14.0642 4.97213 107.095 
150.218 174.904 152.988 140.384 137.899 142.36 171.175 80.3395 77.5193 73.4285 99.6548 170.337 -111.812 168.233 153.778 -147.312 89.4944 170.888 -78.5194 84.7201 188.949 -78.6241 87.0625 201.83 -83.4577 119.373 193.826 -68.9969 14.104 4.44046 107.561 
150.333 174.969 150.725 140.415 137.806 142.434 171.154 81.3018 77.5819 73.386 99.4714 169.736 -111.77 167.833 153.118 -147.331 88.9622 170.31 -77.8302 84.5385 188.619 -78.6071 86.9489 201.483 -83.5263 119.247 193.48 -69.0634 14.1444 3.90638 108.032 
150.576 175.08 148.008 140.455 137.792 142.651 171.117 82.3384 77.7641 73.4119 99.3038 169.091 -111.806 167.327 152.439 -147.439 88.321 169.777 -77.3217 84.256 188.248 -78.6074 86.7751 201.126 -83.5808 119.081 193.082 -69.122 14.1522 3.56212 108.335 
150.681 175.149 146.05 140.482 137.752 142.848 171.058 82.7222 77.6685 73.2884 99.2955 168.61 -111.851 166.891 151.78 -147.526 88.0676 169.582 -77.0005 84.2096 188.062 -78.6892 86.7579 200.937 -83.7105 119.014 192.802 -69.2375 14.1793 3.38057 108.543 
150.674 175.147 144.678 140.503 137.757 142.955 170.99 83.0918 77.6251 73.2415 99.3631 168.317 -111.968 166.681 151.323 -147.615 87.9007 169.368 -76.8354 84.2342 187.83 -78.8675 86.7923 200.726 -83.8982 119.011 192.561 -69.3921 14.1754 3.28945 108.719 
150.692 175.102 143.894 140.468 137.804 143.129 170.903 83.1929 77.5158 73.2062 99.6252 168.082 -112.094 166.686 151.027 -147.613 87.8896 169.153 -76.7351 84.3084 187.626 -79.0189 86.8283 200.565 -83.9958 119.004 192.31 -69.4648 14.1171 3.19301 108.903 
150.168 174.87 144.993 141.089 138.475 142.9 170.62 81.1911 77.7605 73.7014 99.2207 168.365 -112.458 166.464 150.301 -147.808 88.3987 170.263 -77.8338 83.9905 187.868 -79.7137 86.6972 200.652 -84.4195 119.002 192.029 -69.5455 14.2528 3.63248 108.337 
149.901 174.605 147.167 141.364 138.686 142.983 170.196 79.5482 78.0141 74.2085 99.1301 168.486 -112.879 166.323 149.888 -147.984 89.0044 170.696 -78.9385 83.7952 187.979 -80.3645 86.6224 200.657 -84.7407 119.032 191.74 -69.5923 14.3122 3.6736 107.489 
149.627 174.29 149.149 141.513 138.721 142.934 169.851 77.9572 78.2455 74.6239 99.1644 168.672 -113.346 166.437 149.633 -148.191 89.7767 171.039 -79.9811 83.7255 187.991 -80.924 86.6288 200.566 -85.0366 119.13 191.449 -69.6709 14.3706 3.76778 106.718 
149.411 173.987 151.762 141.542 138.735 142.947 169.577 76.9952 78.3408 74.8689 99.4122 168.755 -113.739 166.766 149.427 -148.287 90.2747 171.168 -80.6643 83.7905 187.88 -81.3389 86.7038 200.403 -85.2365 119.253 191.106 -69.7212 14.3767 3.88472 106.321 
149.041 173.794 153.539 141.61 138.7 142.573 169.36 75.8645 78.5402 74.9901 99.3911 169.209 -114.054 167.269 149.265 -148.35 90.9433 171.421 -81.3047 83.8711 187.761 -81.7015 86.9069 200.261 -85.4822 119.444 190.762 -69.7781 14.4337 4.08385 106.085 
148.93 173.655 153.715 141.563 138.789 142.793 169.1 75.2265 78.4519 74.9942 99.9208 169.526 -114.376 167.533 149.168 -148.556 91.3751 172.13 -82.2419 84.2434 187.944 -81.9717 87.2913 200.438 -85.574 119.774 190.562 -69.8263 14.3676 4.86911 105.547 
148.931 173.528 152.612 141.533 138.908 143.105 168.89 74.3152 78.22 74.9338 100.574 169.837 -114.694 167.577 149.014 -148.797 92.0219 173.075 -83.4018 84.7548 188.414 -82.2152 87.8445 200.873 -85.6141 120.168 190.446 -69.9112 14.3173 5.79543 104.775 
149.056 173.415 149.925 141.378 138.889 143.506 168.717 73.6684 78.0949 74.8862 101.113 170.068 -114.97 167.367 148.8 -149.098 92.5153 174.192 -84.9023 85.2041 189.15 -82.4367 88.4546 201.579 -85.63 120.589 190.377 -69.994 14.2617 6.98365 103.697 
149.286 173.375 146.4 141.101 138.775 143.912 168.538 73.4518 77.8433 74.8769 101.829 170.034 -115.194 167.453 148.418 -149.095 93.0462 174.606 -86.1774 85.7894 189.323 -82.6671 89.0343 201.746 -85.6184 121.002 190.084 -69.9816 14.1658 8.00579 102.574 
149.371 173.316 142.716 141.035 138.632 143.933 168.468 72.7032 77.9352 75.0018 102.389 169.728 -115.202 168.174 148.135 -148.701 94.0117 174.647 -87.0642 86.1772 189.076 -82.8028 89.4993 201.489 -85.6758 121.374 189.684 -69.8362 14.1745 8.74428 101.825 
149.217 173.314 139.886 141.22 138.649 143.849 168.312 71.4486 77.6228 74.7748 103.261 169.598 -115.103 169.367 148.275 -148.335 95.4816 174.648 -87.898 86.8488 188.767 -82.8941 90.1376 201.128 -85.7582 121.852 189.545 -69.7044 14.3332 9.62542 101.073 
149.331 173.326 136.62 141.177 138.736 144.011 168.222 71.244 77.3389 74.6392 104.106 169.536 -115.104 170.095 148.123 -148.053 96.5505 174.205 -88.5408 87.607 188.486 -82.9001 90.765 200.895 -85.7177 122.38 189.34 -69.5927 14.2431 10.1824 100.065 
149.446 173.359 135.141 141.124 138.719 144.123 168.058 72.0733 77.2898 74.6364 104.793 169.344 -115.086 170.591 147.828 -147.839 96.9011 173.498 -88.8693 88.2384 188.129 -82.8947 91.3431 200.572 -85.6955 122.915 189.066 -69.4853 14.1829 10.3507 99.3359 
149.785 173.355 134.028 141.153 138.879 144.594 167.85 73.8164 77.2482 74.6368 105.462 169.176 -115.105 170.576 147.258 -147.687 96.3342 173.233 -88.7494 88.7609 188.077 -82.882 91.9163 200.537 -85.5876 123.36 188.8 -69.3643 14.1159 10.2048 99.2951 
150.164 173.304 131.639 141.078 138.888 144.887 167.74 74.3354 77.4472 74.7628 105.81 168.701 -115.062 170.635 146.515 -147.461 96.3514 173.015 -88.9196 88.9713 187.856 -82.8145 92.3165 200.293 -85.415 123.63 188.294 -69.1755 14.1514 10.4049 99.0224 
150.196 173.289 130.642 141.067 138.821 144.731 167.781 73.7768 77.6146 74.8194 106.018 168.45 -114.941 171.151 146.174 -147.159 97.0037 172.825 -89.0427 89.1847 187.598 -82.8266 92.6634 200.026 -85.4122 123.901 187.941 -69.0355 14.2084 10.5009 98.9073 
150.145 173.314 129.583 141.038 138.703 144.603 167.801 73.4732 77.6033 74.7517 106.392 168.178 -114.888 171.872 146.037 -146.906 97.7445 172.408 -89.0841 89.6097 187.277 -82.797 93.0768 199.704 -85.4279 124.294 187.747 -68.9987 14.2496 10.5113 98.7976 
149.995 173.308 128.929 141.067 138.792 144.466 167.852 71.9619 77.5094 74.7052 106.794 168.16 -114.949 172.534 146.061 -146.835 99.0811 172.369 -89.1861 90.0711 187.087 -82.8237 93.4967 199.551 -85.4573 124.651 187.564 -69.0076 14.2016 10.6752 98.6867 
150.015 173.305 127.774 141.076 138.928 144.539 167.793 71.4839 77.4184 74.7139 107.166 168.304 -114.978 172.849 146.188 -146.76 99.8645 172.292 -89.4275 90.4887 187.061 -82.7792 93.8633 199.559 -85.3967 124.958 187.564 -68.9712 14.146 10.9778 98.2239 
150.186 173.247 126.917 141.128 139.03 144.678 167.743 71.2563 77.3572 74.7162 107.447 168.175 -115.057 173.21 146.188 -146.667 100.431 172.114 -89.6411 90.8248 186.93 -82.6919 94.1647 199.439 -85.3236 125.22 187.497 -68.9446 14.1382 11.3093 97.8653 
150.469 173.176 126.293 141.078 139.049 144.972 167.705 71.4496 77.437 74.794 107.838 167.664 -115.16 173.68 146.24 -146.602 100.674 171.715 -89.6704 90.9926 186.563 -82.5219 94.2796 199.103 -85.1779 125.379 187.299 -68.8773 14.0919 11.503 97.767 
150.829 173.108 126.598 141.122 139.109 145.248 167.796 72.1716 77.6019 74.9082 108.162 167.031 -115.159 174.114 146.24 -146.503 100.342 171.523 -89.4847 91.0286 186.233 -82.284 94.303 198.778 -84.9877 125.479 187.142 -68.7955 14.1001 11.5805 98.122 
150.855 173.136 126.386 141.287 139.099 145.137 168.007 70.4159 77.7448 74.9434 108.235 166.305 -115.082 174.434 146.031 -146.495 101.536 171.434 -89.412 91.0516 185.943 -82.085 94.3534 198.427 -84.9791 125.617 186.987 -68.8188 14.2041 11.8581 97.94 
151.036 173.057 125.596 141.387 139.089 145.195 168.116 69.6314 77.8607 74.9891 108.398 165.549 -115.067 174.793 145.962 -146.48 102.357 171.024 -89.8602 91.0763 185.72 -81.9355 94.4031 198.172 -84.888 125.724 186.859 -68.8399 14.2772 12.4482 97.2359 
151.108 173.014 124.688 141.499 139.109 145.21 168.254 68.8032 77.8781 74.986 108.55 164.984 -115.082 175.062 145.97 -146.542 103.308 170.704 -90.4558 91.2263 185.655 -81.91 94.538 198.092 -84.9253 125.915 186.898 -68.9538 14.3086 13.1442 96.342 
151.426 173.026 123.053 141.446 139.141 145.564 168.272 68.828 77.818 75.0163 108.78 164.449 -115.178 175.105 145.879 -146.701 103.467 170.737 -90.5906 91.3715 185.508 -81.8589 94.6138 197.965 -84.851 126.024 186.831 -69.0485 14.2664 13.4325 96.2853 
151.466 172.978 122.233 141.513 139.159 145.651 168.312 68.3434 77.6836 74.9376 109.017 164.105 -115.24 175.267 145.878 -146.803 104.066 170.712 -91.0755 91.5854 185.557 -81.9556 94.8007 198.001 -84.939 126.191 186.838 -69.1627 14.2853 13.9407 95.7102 
151.563 172.963 122.407 141.468 139.069 145.736 168.332 68.4747 77.6378 74.9413 109.226 163.675 -115.295 175.539 145.74 -146.756 104.165 170.554 -91.2849 91.7166 185.277 -81.9767 94.8509 197.711 -84.9968 126.292 186.728 -69.2317 14.2995 14.2295 95.5332 
151.588 172.923 122.784 141.428 139.088 145.775 168.389 68.7985 77.5866 74.9086 109.316 163.542 -115.364 175.726 145.617 -146.788 103.985 170.63 -91.4755 91.8011 185.204 -82.0275 94.9197 197.616 -85.0209 126.371 186.639 -69.3143 14.3206 14.4308 95.6357 
151.54 172.885 123.466 141.399 139.087 145.677 168.46 69.1235 77.5583 74.9102 109.291 163.454 -115.38 175.882 145.522 -146.782 103.782 170.532 -91.6314 91.8426 185.089 -82.1128 94.9622 197.488 -85.0541 126.409 186.54 -69.385 14.3585 14.4841 95.7351 
151.462 172.858 123.992 141.36 139.11 145.578 168.486 69.3534 77.5936 74.9528 109.249 163.535 -115.415 176.029 145.551 -146.817 103.659 170.51 -91.7532 91.8705 184.964 -82.1889 94.9889 197.364 -85.082 126.456 186.481 -69.4361 14.3708 14.5454 95.8116 
151.482 172.922 123 141.248 139.075 145.648 168.45 69.1718 77.3776 74.8239 109.488 163.491 -115.501 176.187 145.556 -146.891 103.884 170.486 -91.5931 92.0705 184.706 -82.2233 95.0539 197.131 -85.0946 126.525 186.391 -69.5016 14.3465 14.4339 96.0059 
151.709 172.997 125.013 141.126 139.135 145.945 168.38 69.6912 77.0587 74.6026 109.874 163.499 -115.736 176.227 145.343 -147.061 103.279 170.694 -90.769 92.3603 184.475 -82.2985 95.1779 196.954 -85.151 126.623 186.293 -69.6597 14.2631 13.5908 97.3378 
151.824 173.107 125.776 140.966 139.157 146.161 168.29 70.2864 76.7326 74.3523 110.179 163.615 -115.941 176.201 145.167 -147.212 102.852 170.755 -90.2994 92.6666 184.398 -82.4564 95.3608 196.92 -85.2742 126.753 186.254 -69.8411 14.2024 13.0067 98.1474 
152.113 173.161 127.341 140.808 139.22 146.503 168.204 71.0557 76.534 74.2305 110.445 163.649 -116.129 176.201 144.997 -147.295 102.184 170.84 -89.7726 92.835 184.248 -82.5336 95.4221 196.83 -85.3051 126.794 186.164 -69.9271 14.114 12.5322 99.0457 
152.214 173.201 127.506 140.683 139.197 146.611 168.178 71.075 76.4201 74.1729 110.558 163.654 -116.233 176.221 144.779 -147.391 102.119 170.834 -89.7177 92.9163 184.028 -82.615 95.415 196.649 -85.3507 126.804 186.028 -69.9841 14.0509 12.5343 99.1844 
152.233 173.231 127.369 140.56 139.162 146.652 168.166 71.0592 76.3574 74.1001 110.504 163.825 -116.248 176.145 144.656 -147.438 102.076 170.861 -89.6707 92.9412 183.929 -82.6346 95.4023 196.611 -85.3448 126.788 185.961 -69.9823 13.9803 12.5447 99.2305 
