155.31 175.955 141.148 141.76 139.438 149.622 173.15 77.7397 75.3738 71.2783 40.9457 188.888 -87.1862 104.242 186.297 -129.638 31.0474 196.856 -50.7104 24.6831 209.773 -50.3864 22.9 223.002 -56.6525 57.4811 221.064 -47.8424 13.4692 8.52354 113.836 
155.7 175.995 141.055 141.547 139.251 150.053 173.264 77.8254 75.3847 71.3316 40.9812 188.603 -86.6098 104.149 186.335 -128.985 30.6557 196.879 -50.2138 24.3345 209.876 -49.8389 22.5611 223.095 -56.052 57.2365 221.086 -47.2181 13.4221 8.4933 113.887 
156.04 176.066 140.924 141.385 139.278 150.51 173.364 78.0848 75.612 71.5 40.9524 188.417 -86.148 103.97 186.414 -128.404 30.2394 196.821 -49.7148 23.9736 209.887 -49.2722 22.2497 223.181 -55.4292 57.0134 221.105 -46.6138 13.3094 8.46871 113.85 
156.314 176.132 140.944 141.345 139.302 150.835 173.466 78.2405 75.7073 71.5519 40.8679 188.298 -85.6527 103.815 186.388 -127.687 29.8738 196.866 -49.1838 23.6924 210.004 -48.7663 22.0556 223.365 -54.9024 56.8219 221.123 -46.0162 13.2598 8.42905 113.895 
156.364 176.174 141.003 141.294 139.207 150.961 173.478 78.2803 75.7027 71.5311 40.876 188.147 -85.1933 103.714 186.477 -127.081 29.7113 196.836 -48.743 23.56 210.012 -48.3713 21.9606 223.413 -54.5023 56.6756 221.122 -45.5238 13.2737 8.39104 113.898 
156.386 176.198 140.983 141.205 139.144 150.98 173.496 78.3737 75.7482 71.5663 40.7736 187.948 -84.6227 103.546 186.573 -126.446 29.4848 196.715 -48.2552 23.351 209.932 -47.8857 21.7794 223.363 -53.9894 56.482 221.073 -44.9466 13.2774 8.35969 113.832 
156.441 176.194 140.956 141.098 139.064 151.096 173.469 78.417 75.7928 71.6055 40.7653 187.636 -84.0959 103.353 186.678 -125.86 29.2771 196.587 -47.8294 23.133 209.826 -47.4566 21.5773 223.289 -53.5258 56.271 221.019 -44.4134 13.273 8.3285 113.744 
156.176 175.946 140.964 141.611 139.57 151.057 173.421 77.8061 75.3448 71.4106 40.652 188.109 -83.5674 103.232 186.663 -125.303 29.3436 197.079 -47.2605 23.0363 210.239 -46.9178 21.3929 223.597 -52.9347 56.0728 221.116 -43.9222 13.3076 8.31515 114.04 
156.256 176.028 141.024 141.45 139.357 151.215 173.492 77.7439 75.2166 71.352 40.6308 187.818 -83.0234 103.055 186.856 -124.665 29.0905 197.08 -46.7941 22.8339 210.272 -46.4628 21.1911 223.626 -52.4541 55.8259 221.076 -43.3634 13.3441 8.31396 114.127 
156.334 176.119 141.226 141.484 139.462 151.402 173.564 77.7086 75.027 71.1266 40.6419 187.313 -82.4438 102.979 186.974 -123.99 28.9813 196.797 -46.1866 22.7265 209.98 -45.9437 21.0297 223.36 -51.9406 55.5641 220.885 -42.817 13.3824 8.32171 114.221 
155.999 175.932 141.312 141.938 139.817 151.256 173.494 77.064 74.6861 71.0474 40.2236 187.73 -81.7961 102.623 186.625 -123.352 28.8548 197.557 -45.5175 22.5194 210.702 -45.3108 20.82 223.998 -51.3233 55.332 221.078 -42.2963 13.3701 8.30116 114.673 
155.815 175.718 141.286 142.206 140.011 151.253 173.388 76.5402 74.4532 71.0555 39.9742 188.272 -81.3148 102.361 186.463 -122.776 28.6359 198.391 -45.0663 22.2619 211.531 -44.8376 20.6055 224.784 -50.8002 55.1171 221.37 -41.7927 13.3229 8.27454 114.999 
155.584 175.52 141.209 142.399 140.184 151.045 173.442 76.1852 74.365 71.1403 39.5446 188.582 -80.7103 102.105 186.221 -122.243 28.3222 198.969 -44.5994 21.9254 212.118 -44.3475 20.3314 225.349 -50.2877 54.8665 221.532 -41.2735 13.2645 8.24487 115.319 
155.328 175.395 141.14 142.636 140.396 150.796 173.614 75.9479 74.3819 71.2405 39.1512 188.87 -80.0647 101.896 186.129 -121.817 28.0277 199.448 -43.9874 21.5787 212.547 -43.7687 20.0049 225.761 -49.7467 54.5996 221.717 -40.8292 13.1935 8.23403 115.868 
155.093 175.256 141.061 142.93 140.727 150.605 173.728 75.8358 74.5721 71.4679 38.472 189.34 -78.797 101.457 185.825 -120.845 27.6045 199.882 -42.7345 21.0055 212.937 -42.6102 19.3994 226.108 -48.7119 54.1448 222.087 -40.0196 13.0693 8.16725 116.441 
155.007 175.153 141.078 143.063 140.849 150.625 173.625 75.815 74.6909 71.5642 38.3353 189.621 -78.3268 101.175 185.72 -120.52 27.6011 199.962 -42.1605 20.8611 212.954 -42.1021 19.1726 226.093 -48.2951 54.0058 222.301 -39.7723 13.0262 8.13338 116.531 
154.765 175.061 141.035 143.13 140.891 150.56 173.514 75.7007 74.664 71.5293 38.1062 189.701 -77.7266 100.976 185.445 -119.928 27.6405 199.732 -41.6116 20.7353 212.698 -41.5862 18.9392 225.796 -47.8505 53.7895 222.29 -39.413 13.0297 8.08804 116.445 
154.551 175.023 140.991 143.188 140.917 150.458 173.453 75.6734 74.6791 71.5273 37.8616 189.738 -77.1471 100.867 185.372 -119.356 27.6783 199.435 -41.0299 20.6123 212.358 -41.0521 18.7043 225.409 -47.3871 53.5682 222.275 -39.0162 13.0565 8.04785 116.373 
154.448 175.004 140.996 143.224 140.962 150.522 173.386 75.6371 74.6587 71.4957 37.773 189.637 -76.585 100.676 185.304 -118.756 27.6501 199.233 -40.4323 20.4686 212.127 -40.5014 18.4673 225.147 -46.8928 53.3332 222.254 -38.5682 13.0585 8.01704 116.294 
154.422 175.016 140.987 143.243 140.933 150.564 173.311 75.6168 74.6346 71.4578 37.545 189.707 -76.1721 100.334 185.247 -118.295 27.5244 199.208 -39.9852 20.2922 212.086 -40.0829 18.2645 225.084 -46.5116 53.1099 222.316 -38.1699 13.1007 8.00259 116.094 
154.354 175.019 140.899 143.211 140.869 150.534 173.313 75.5597 74.5561 71.3942 37.2397 189.589 -75.7808 100.026 185.154 -117.828 27.2616 199.119 -39.6664 20.0402 212.014 -39.7514 18.0341 225.015 -46.1677 52.8406 222.196 -37.7309 13.1427 8.00092 115.962 
154.4 175.048 140.756 143.103 140.759 150.589 173.287 75.5444 74.5098 71.3634 37.0863 189.41 -75.4484 99.7693 185.143 -117.384 27.0158 199.028 -39.396 19.8121 211.95 -39.4409 17.8246 224.951 -45.8308 52.6016 222.107 -37.2907 13.1731 8.0055 115.752 
154.498 175.083 140.652 143.028 140.71 150.618 173.36 75.6 74.5487 71.3891 36.8315 189.254 -75.0348 99.5289 185.12 -116.891 26.7137 198.945 -38.9934 19.5211 211.881 -39.0497 17.5592 224.88 -45.4483 52.3355 222.046 -36.8196 13.186 7.99482 115.673 
154.625 175.129 140.636 142.965 140.619 150.646 173.384 75.6708 74.5831 71.4302 36.6605 189.075 -74.6809 99.3791 185.158 -116.444 26.4596 198.783 -38.6343 19.2766 211.717 -38.7049 17.3303 224.712 -45.0992 52.0924 221.945 -36.3666 13.2221 7.9913 115.57 
155.359 175.31 140.973 143.235 140.897 151.232 173.163 76.143 74.8652 71.4846 36.6068 188.687 -74.5587 98.8729 185.149 -115.994 26.1956 198.379 -37.9688 19.0204 211.326 -38.0577 17.1007 224.319 -44.5374 51.8831 221.911 -35.9324 13.305 7.97802 115.199 
155.478 175.236 140.923 143.155 140.899 151.347 173.161 76.2399 74.9531 71.6059 36.4656 188.568 -74.1022 98.5392 185.172 -115.585 25.829 198.276 -37.5469 18.6731 211.234 -37.6131 16.7589 224.244 -44.055 51.5858 221.842 -35.4249 13.2719 7.97441 115.103 
156.165 175.423 140.308 142.998 140.88 151.919 173.102 76.268 75.1138 71.7543 36.387 188.051 -73.6597 97.8491 184.727 -114.644 25.4624 198.141 -36.7423 18.2568 211.005 -36.8516 16.3992 224.005 -43.3092 51.2046 221.612 -34.7897 13.2625 8.01409 115.086 
156.711 175.57 139.739 142.865 140.868 152.289 172.911 76.343 75.3147 71.8237 35.8979 187.979 -73.2388 97.0872 184.288 -113.83 25.1397 198.142 -36.0004 17.9014 210.955 -36.0919 16.1173 223.988 -42.5964 50.9114 221.567 -34.2017 13.2104 8.05811 114.881 
157.115 175.63 139.274 142.822 140.884 152.527 172.774 76.3522 75.4439 71.8467 35.3726 187.975 -72.757 96.3471 183.826 -113.087 24.8116 198.321 -35.283 17.5753 211.085 -35.3568 15.8668 224.146 -41.9162 50.6536 221.596 -33.6663 13.1613 8.11974 114.806 
157.43 175.671 138.884 142.701 140.821 152.836 172.592 76.4447 75.6269 71.9129 35.126 187.704 -72.1394 95.8207 183.245 -112.307 24.6421 198.207 -34.5998 17.3406 210.924 -34.6819 15.6266 223.992 -41.323 50.4539 221.614 -33.1981 13.1071 8.14509 114.576 
157.752 175.687 138.666 142.651 140.789 153.21 172.416 76.4213 75.6867 71.904 35.049 187.475 -71.5616 95.2136 182.713 -111.581 24.4671 198.21 -33.9334 17.1166 210.854 -34.0423 15.3896 223.938 -40.7181 50.2537 221.593 -32.6954 13.0595 8.17233 114.361 
157.973 175.665 138.465 142.599 140.766 153.491 172.267 76.4285 75.7629 71.9048 34.7721 187.116 -70.9279 94.7496 182.073 -110.779 24.3188 198.001 -33.1761 16.9219 210.591 -33.3135 15.1826 223.675 -40.0425 50.0696 221.385 -32.1447 13.031 8.18604 114.273 
158.09 175.658 138.364 142.619 140.776 153.716 172.146 76.3629 75.7635 71.8448 34.5995 186.869 -70.2861 94.436 181.435 -109.92 24.2776 197.851 -32.4116 16.8371 210.371 -32.6308 15.0946 223.452 -39.4212 49.973 221.176 -31.5826 13.0237 8.19422 114.248 
157.973 175.687 138.305 142.704 140.811 153.684 171.958 76.2134 75.6624 71.7017 34.4659 186.652 -69.5546 94.2398 180.706 -108.999 24.4409 197.621 -31.6118 16.9298 210.06 -31.9134 15.1516 223.105 -38.7922 49.963 220.924 -31.0223 13.0757 8.21475 114.158 
158.035 175.638 138.298 142.743 140.865 153.872 171.693 76.126 75.5808 71.587 34.5877 186.372 -68.8054 93.9368 180.043 -108.061 24.5084 197.51 -30.8449 16.9768 209.92 -31.1798 15.1824 222.955 -38.0985 49.9778 220.737 -30.3555 13.071 8.23024 113.889 
157.847 175.583 138.257 142.726 140.855 153.804 171.474 76.0759 75.5414 71.5461 34.7281 185.9 -67.9595 93.7721 179.305 -107.15 24.7182 197.132 -30.0376 17.1321 209.495 -30.4355 15.2816 222.476 -37.4336 50.0625 220.374 -29.7106 13.0862 8.23889 113.634 
157.846 175.449 138.274 142.702 140.933 153.849 171.234 76.2882 75.7028 71.6353 34.9729 185.381 -67.1649 93.8772 178.581 -106.276 24.8857 196.569 -29.1558 17.2528 208.891 -29.6549 15.3443 221.833 -36.7545 50.1793 219.983 -29.0622 13.0402 8.22666 113.454 
157.855 175.307 138.399 142.759 141.078 153.974 171.054 76.453 75.8326 71.7035 35.3783 184.658 -66.256 94.2069 177.844 -105.296 25.1985 195.852 -28.1624 17.4519 208.1 -28.8112 15.4222 220.98 -36.0458 50.3041 219.551 -28.4106 12.9971 8.19568 113.396 
157.926 175.149 138.53 142.859 141.216 154.152 170.973 76.6632 76.0023 71.85 36.0775 184.031 -65.5014 94.9821 177.436 -104.338 25.607 195.086 -27.2671 17.7285 207.236 -28.0558 15.5711 220.041 -35.4024 50.4842 219.149 -27.7854 12.9889 8.16847 113.461 
158.065 175.051 138.743 142.949 141.323 154.327 170.58 77.1723 76.4234 72.2065 37.0366 183.06 -63.9487 96.1232 176.673 -102.579 26.6898 193.66 -25.4079 18.5481 205.666 -26.3411 16.13 218.3 -33.9278 51.0422 218.634 -26.5037 13.0533 8.12564 113.01 
158.017 175.021 138.83 142.918 141.324 154.427 170.438 77.4878 76.6603 72.4363 37.1068 182.342 -63.3479 96.3831 176.093 -102.007 27.0584 192.765 -24.6772 18.8156 204.767 -25.6339 16.2816 217.294 -33.3443 51.168 218.214 -26.1134 13.1262 8.0896 112.773 
157.996 174.98 138.92 142.964 141.384 154.509 170.482 77.7764 76.9116 72.6197 37.4076 181.754 -62.7053 97.1193 175.823 -101.322 27.5978 191.953 -23.7629 19.2059 203.874 -24.8222 16.5599 216.295 -32.6854 51.4024 217.816 -25.604 13.1934 8.03849 112.892 
158.133 174.891 138.934 142.958 141.449 154.743 170.518 77.9001 77.0243 72.6793 37.4403 180.956 -61.9306 97.2142 175.26 -100.562 27.6663 191.362 -22.8427 19.2553 203.302 -23.9403 16.6192 215.708 -31.8663 51.4476 217.262 -24.8874 13.2002 7.99974 113.071 
158.17 174.813 139.012 143.014 141.519 154.921 170.617 77.8651 77.0246 72.6723 37.5952 180.499 -61.1549 97.5597 175.081 -99.8434 27.8027 191.129 -22.1181 19.3683 203.075 -23.2591 16.754 215.47 -31.2312 51.5493 217.026 -24.2456 13.2332 7.96662 113.384 
158.078 174.781 139.021 143.04 141.525 154.889 170.836 77.7911 76.9883 72.6949 37.51 180.159 -60.3426 97.7945 175.02 -99.2289 27.6667 190.928 -21.5533 19.2893 202.94 -22.6652 16.764 215.358 -30.6157 51.548 216.727 -23.5262 13.2769 7.95597 113.793 
158.138 174.773 139.078 143.034 141.507 155.018 170.867 77.8189 77.0142 72.7645 37.7569 179.833 -59.7278 98.0941 174.985 -98.6545 27.6193 190.705 -21.0717 19.2875 202.745 -22.1837 16.8206 215.187 -30.1077 51.6062 216.507 -22.9042 13.3107 7.94635 113.994 
158.136 174.781 139.136 143.048 141.507 155.082 170.977 77.8808 77.0603 72.85 37.912 179.553 -59.0866 98.4536 175.101 -98.1082 27.5397 190.49 -20.6471 19.2361 202.575 -21.7568 16.8184 215.028 -29.6688 51.595 216.391 -22.339 13.3522 7.92667 114.198 
158.166 174.798 139.147 143.071 141.508 155.189 171.169 77.8068 76.9768 72.8034 37.9689 179.473 -58.4892 98.8458 175.309 -97.5474 27.3753 190.584 -20.3884 19.1609 202.773 -21.463 16.8537 215.288 -29.3203 51.638 216.401 -21.7496 13.356 7.91009 114.471 
158.164 174.845 139.116 143.021 141.474 155.218 171.371 77.8421 77.032 72.8745 38.039 179.188 -57.9074 99.3457 175.542 -96.9784 27.2675 190.406 -20.007 19.0951 202.645 -21.0845 16.8682 215.195 -28.9229 51.635 216.255 -21.1849 13.3642 7.89231 114.85 
158.107 174.913 139.102 143.041 141.448 155.187 171.464 77.8085 77.0072 72.892 37.9632 179.133 -57.4864 99.761 175.722 -96.5252 27.2078 190.286 -19.8036 19.0663 202.572 -20.8462 16.8929 215.147 -28.6552 51.639 216.172 -20.7402 13.3952 7.88731 115.03 
158.131 174.973 139.08 143.04 141.434 155.163 171.439 77.8446 77.0405 72.9291 37.8913 179.197 -57.0799 100.042 175.78 -96.0283 27.1822 190.275 -19.5228 19.0531 202.611 -20.5329 16.9049 215.197 -28.3454 51.6553 216.24 -20.3191 13.3827 7.88147 115.001 
158.019 175.067 139.14 143.123 141.486 155.052 171.422 77.7697 76.9989 72.9094 37.806 179.344 -56.6974 100.197 175.676 -95.5531 27.2691 190.378 -19.172 19.1143 202.691 -20.2147 16.9532 215.253 -28.0681 51.6842 216.335 -19.9981 13.3901 7.88447 114.983 
157.963 175.089 139.075 143.077 141.442 155.01 171.445 77.7748 77.0066 72.9248 37.8277 179.267 -56.2669 100.402 175.761 -95.1097 27.2805 190.229 -18.8514 19.0865 202.537 -19.8982 16.9013 215.095 -27.7497 51.6237 216.311 -19.6175 13.3961 7.87005 114.977 
157.906 175.116 139.047 143.011 141.403 155.039 171.426 77.8231 77.0641 73.0028 37.7835 179.101 -55.8086 100.332 175.726 -94.6965 27.173 190.054 -18.4878 18.9609 202.361 -19.5365 16.7654 214.916 -27.3742 51.4917 216.241 -19.2498 13.401 7.85794 114.953 
157.803 175.134 139.043 142.963 141.368 155.048 171.358 77.8934 77.126 73.0433 37.623 178.953 -55.3652 100.279 175.6 -94.2866 27.1927 189.818 -18.0569 18.9216 202.108 -19.1343 16.6786 214.634 -27.0092 51.3959 216.184 -18.9505 13.4198 7.83488 114.88 
157.902 175.238 139.124 142.936 141.406 155.19 171.186 78.1602 77.374 73.1982 37.5293 178.732 -54.4642 100.101 175.606 -93.4431 27.2084 189.384 -16.9342 18.791 201.571 -18.0881 16.4101 214.053 -26.0639 51.1246 216.186 -18.1774 13.414 7.80667 114.651 
158.029 175.233 139.138 142.885 141.375 155.314 171.065 78.4541 77.6523 73.3751 37.361 178.526 -54.1549 100.006 175.449 -93.1276 27.2846 188.893 -16.2875 18.7636 200.977 -17.4993 16.2901 213.421 -25.5607 50.9899 216.034 -17.8854 13.4266 7.79766 114.508 
158.115 175.238 139.13 142.818 141.379 155.351 170.921 78.7143 77.8987 73.5397 37.0308 178.413 -53.7997 99.6253 175.181 -92.8038 27.1337 188.436 -15.7036 18.5621 200.478 -16.9033 16.0378 212.922 -24.9938 50.7447 215.834 -17.4967 13.4058 7.80412 114.248 
158.163 175.207 139.062 142.68 141.327 155.338 170.776 78.9532 78.1275 73.7458 36.7135 178.119 -53.3749 99.1515 174.927 -92.5592 26.9285 187.946 -15.2393 18.3415 199.985 -16.3899 15.7899 212.439 -24.4818 50.509 215.59 -17.1101 13.3968 7.81723 113.963 
158.108 175.199 138.982 142.585 141.306 155.273 170.743 79.1328 78.2835 73.8781 36.448 178.045 -52.9789 98.9093 174.765 -92.1971 26.7227 187.618 -14.7681 18.1275 199.645 -15.8953 15.5539 212.104 -23.9863 50.2814 215.415 -16.6931 13.3848 7.83014 113.829 
158.151 175.229 138.91 142.499 141.272 155.301 170.717 79.2208 78.3552 73.9319 36.117 177.931 -52.6578 98.4268 174.42 -91.8693 26.3142 187.404 -14.3767 17.7737 199.461 -15.4593 15.2301 211.95 -23.5239 49.9951 215.16 -16.2656 13.3548 7.84966 113.731 
158.25 175.192 138.808 142.353 141.232 155.446 170.596 79.2842 78.3861 73.9687 35.8317 177.639 -52.2364 97.7882 173.915 -91.399 25.8554 187.211 -13.9439 17.3803 199.326 -14.9979 14.86 211.845 -23.0267 49.6838 214.9 -15.7885 13.2969 7.85234 113.542 
158.312 175.101 138.738 142.25 141.197 155.525 170.488 79.3441 78.4297 74.0029 35.6585 177.313 -51.8507 97.337 173.356 -90.9688 25.5216 187.018 -13.5228 17.0934 199.143 -14.5935 14.5761 211.661 -22.6308 49.452 214.651 -15.4415 13.2474 7.86472 113.464 
158.341 175.066 138.708 142.219 141.2 155.502 170.445 79.3536 78.4377 73.9988 35.5273 177.151 -51.5438 96.9678 173.014 -90.6573 25.2624 186.943 -13.1802 16.8572 199.046 -14.2636 14.3141 211.568 -22.3101 49.2382 214.522 -15.1734 13.1933 7.88538 113.427 
158.35 174.997 138.638 142.154 141.205 155.556 170.411 79.2667 78.3509 73.9219 35.4681 176.866 -51.0956 96.5108 172.716 -90.2577 24.9895 186.916 -12.8413 16.598 199.036 -13.9013 14.0193 211.569 -21.9254 48.9916 214.406 -14.8435 13.1305 7.8929 113.372 
158.255 174.897 138.558 142.112 141.163 155.442 170.39 79.1688 78.2669 73.8455 35.2594 176.801 -50.7163 96.2278 172.624 -89.8915 24.7824 186.863 -12.6034 16.3782 198.999 -13.6161 13.7772 211.542 -21.6076 48.762 214.343 -14.5145 13.1077 7.89982 113.268 
158.292 174.808 138.508 142.07 141.107 155.489 170.394 79.1342 78.2429 73.8237 35.1283 176.596 -50.3746 96.0367 172.458 -89.4694 24.5154 186.697 -12.3199 16.1127 198.832 -13.3052 13.5126 211.391 -21.2577 48.5069 214.169 -14.1481 13.0954 7.90724 113.237 
158.182 174.785 138.486 142.12 141.079 155.295 170.534 78.9891 78.1372 73.7001 34.7577 176.602 -50.0156 95.9094 172.577 -89.1535 24.2813 186.707 -12.0366 15.8818 198.825 -13.0047 13.3077 211.404 -20.9369 48.263 214.084 -13.7947 13.1272 7.92097 113.452 
158.004 174.805 138.515 142.19 141.084 155.021 170.713 78.9291 78.0965 73.6713 34.344 176.787 -49.6046 96.0267 172.887 -88.7584 24.0958 186.658 -11.7335 15.6827 198.774 -12.6759 13.1252 211.356 -20.5995 48.0334 214.081 -13.3925 13.1727 7.93112 113.67 
157.919 174.832 138.538 142.225 141.092 154.847 170.87 78.9279 78.1111 73.6737 33.947 176.821 -49.1635 96.019 173.136 -88.4044 23.8742 186.578 -11.3706 15.4499 198.703 -12.289 12.9021 211.296 -20.2104 47.7848 214.075 -12.9839 13.1879 7.93501 113.849 
157.885 174.943 138.645 142.344 141.178 154.727 171.011 78.9371 78.1191 73.6766 33.5526 176.906 -48.7496 96.1526 173.362 -87.964 23.7139 186.446 -10.9856 15.2501 198.569 -11.9044 12.6921 211.16 -19.8431 47.5324 214.084 -12.5602 13.2119 7.92853 113.956 
157.693 175.012 138.722 142.268 140.817 154.172 170.785 78.9827 78.2858 73.7494 32.4073 176.934 -47.969 95.5219 173.233 -87.0699 22.9656 186.04 -10.1464 14.5397 198.122 -11.0957 12.182 210.708 -19.0471 46.7921 213.753 -11.5047 13.4141 7.94194 113.782 
157.61 175.063 138.7 142.243 140.822 154.026 170.834 79.1513 78.4457 73.8928 31.8081 176.712 -47.6226 95.0167 172.594 -86.8484 22.6085 185.594 -9.74422 14.2092 197.679 -10.7125 11.8784 210.27 -18.6962 46.533 213.365 -11.2019 13.3968 7.94696 113.645 
157.537 175.052 138.694 142.218 140.899 153.889 170.764 79.3828 78.6441 74.0832 31.2225 176.481 -47.1129 94.4284 171.897 -86.4829 22.2787 185.121 -9.24406 13.883 197.222 -10.215 11.5362 209.806 -18.2414 46.2489 213.074 -10.8663 13.3582 7.95571 113.352 
157.57 175.005 138.686 142.201 140.994 153.876 170.678 79.5162 78.7288 74.1659 30.601 176.253 -46.6412 93.642 171.12 -86.1534 21.8094 184.877 -8.79797 13.4721 197.041 -9.7566 11.1274 209.639 -17.8085 45.9304 212.842 -10.5425 13.284 7.96741 113.11 
157.511 174.951 138.647 142.143 141.018 153.757 170.584 79.6574 78.8437 74.2807 30.0487 175.981 -46.0963 92.9869 170.568 -85.8082 21.5219 184.515 -8.26574 13.178 196.697 -9.20591 10.7813 209.27 -17.301 45.6282 212.615 -10.2189 13.2506 7.98153 112.911 
157.431 174.912 138.595 142.084 141.019 153.645 170.459 79.7052 78.8808 74.3219 29.7234 175.709 -45.6465 92.45 170.2 -85.4767 21.3907 184.181 -7.83158 13.0043 196.35 -8.75376 10.5425 208.894 -16.8723 45.3821 212.411 -9.93934 13.2542 7.99424 112.674 
157.347 174.896 138.603 142.1 141.03 153.602 170.319 79.5704 78.7531 74.2037 29.4232 175.401 -45.186 91.9499 169.819 -85.0294 21.3291 183.906 -7.40793 12.8572 196.036 -8.32974 10.3069 208.543 -16.4569 45.0949 212.198 -9.64333 13.2811 7.99278 112.432 
157.366 174.879 138.622 142.131 141.057 153.606 170.125 79.4007 78.5757 74.0461 29.3045 175.174 -44.8515 91.4533 169.46 -84.5957 21.3044 183.734 -7.08487 12.7424 195.828 -8.00185 10.0974 208.298 -16.1172 44.8299 212.072 -9.37808 13.3001 7.99062 112.022 
157.345 174.836 138.703 142.245 141.138 153.596 169.966 79.1803 78.3851 73.881 29.2922 174.989 -44.4654 91.0945 169.211 -84.1076 21.2914 183.607 -6.71515 12.6272 195.621 -7.65517 9.88947 208.064 -15.7538 44.5624 211.959 -9.06817 13.3264 7.98434 111.766 
157.299 174.795 138.891 142.483 141.338 153.494 169.873 79.036 78.259 73.7231 28.9042 175.196 -44.1435 90.7707 169.037 -83.6151 21.1372 183.604 -6.29337 12.4253 195.571 -7.25129 9.66789 208.013 -15.353 44.2891 211.906 -8.70427 13.3533 7.98355 111.669 
157.213 174.764 139.056 142.688 141.52 153.453 169.804 78.8125 78.0379 73.5205 28.74 175.416 -43.7761 90.4361 169.025 -83.0821 20.9008 183.848 -5.95529 12.1741 195.803 -6.92234 9.39992 208.256 -14.9992 44.0067 211.999 -8.30239 13.3491 7.98082 111.591 
157.071 174.649 139.123 142.757 141.617 153.39 169.707 78.6933 77.9231 73.4443 28.5821 175.435 -43.2953 90.1186 169.056 -82.5463 20.578 183.931 -5.6593 11.8438 195.9 -6.61818 9.06149 208.374 -14.6515 43.6952 212.034 -7.8624 13.3243 7.96651 111.498 
156.952 174.519 139.11 142.764 141.644 153.301 169.569 78.6056 77.837 73.3818 28.396 175.336 -42.765 89.751 168.881 -81.9482 20.1708 183.91 -5.30911 11.468 195.928 -6.25306 8.72245 208.433 -14.2493 43.385 211.923 -7.33632 13.2944 7.95733 111.409 
156.846 174.376 139.058 142.713 141.616 153.129 169.467 78.5698 77.7944 73.3547 27.9983 175.163 -42.1205 89.4262 168.637 -81.3432 19.7523 183.765 -4.88626 11.0807 195.845 -5.8026 8.36218 208.368 -13.789 43.0509 211.772 -6.77689 13.273 7.95721 111.353 
156.799 174.299 139.041 142.671 141.577 153.096 169.22 78.5147 77.7219 73.3422 27.8246 174.807 -41.5473 89.0591 168.189 -80.7392 19.5161 183.439 -4.45775 10.8377 195.551 -5.34725 8.08225 208.053 -13.3376 42.7546 211.51 -6.27808 13.2686 7.97122 111.069 
156.915 174.279 139.167 142.723 141.63 153.188 169.064 78.5624 77.7535 73.4057 27.6168 174.54 -41.074 88.7788 167.759 -80.2224 19.3394 183.199 -3.86346 10.6424 195.278 -4.80166 7.82898 207.733 -12.8494 42.4945 211.341 -5.85764 13.2629 7.97956 110.965 
157.152 174.241 139.249 142.713 141.65 153.409 168.996 78.7313 77.8895 73.5234 27.3317 174.115 -40.6424 88.4902 167.106 -79.7147 19.0693 182.849 -3.189 10.3811 194.896 -4.19051 7.53075 207.311 -12.3028 42.223 211.043 -5.4585 13.23 7.98835 110.96 
157.228 174.218 139.37 142.713 141.688 153.488 168.917 78.9132 78.0565 73.6822 27.0111 173.581 -40.1901 88.1741 166.325 -79.2785 18.9423 182.304 -2.48293 10.2121 194.275 -3.57322 7.28106 206.614 -11.7742 41.9637 210.636 -5.16399 13.222 7.99367 110.909 
157.273 174.197 139.576 142.823 141.851 153.525 168.846 79.0249 78.1526 73.7524 26.7514 173.354 -39.7 87.8887 165.782 -78.7177 18.9055 182.017 -1.73189 10.1087 193.901 -2.93394 7.10233 206.174 -11.2166 41.7468 210.456 -4.80667 13.2203 7.98405 110.802 
