159.991 169.01 139.835 144.064 146.59 152.25 167.552 92.1724 90.1829 87.621 -55.9582 103.818 46.0048 -61.8963 108.617 -24.455 -56.4824 106.068 59.1383 -44.3186 120.257 73.5453 -31.1144 127.672 70.5523 -53.0222 156.855 52.0518 10.7626 16.0475 87.2009 
160.206 169.149 140.876 143.937 146.214 152.159 167.833 92.0197 90.1695 87.5776 -56.321 103.953 46.0907 -62.3311 108.848 -24.719 -56.605 105.999 59.2359 -44.2313 119.677 73.3114 -30.9726 127.034 70.4568 -52.8189 156.724 52.0595 10.7024 15.461 87.5806 
159.951 168.1 142.374 144.497 146.79 152.489 167.769 91.0561 89.5783 87.727 -55.5998 104.144 46.0651 -61.8443 109.13 -25.0369 -56.7113 106.45 59.92 -43.8955 120.218 73.8063 -30.7136 127.219 71.0802 -52.4958 156.36 52.1016 10.7382 15.1718 89.6329 
159.805 167.311 143.634 144.998 147.365 152.812 167.285 89.8734 88.8526 87.7078 -54.9257 104.346 46.0369 -61.4222 109.466 -25.1657 -56.7299 107.066 60.4823 -43.6285 120.855 74.2194 -30.4814 127.501 71.5829 -52.2062 156.05 52.1709 10.7805 15.0283 91.5081 
159.861 166.873 144.598 145.339 147.794 153.114 166.851 88.7754 88.2072 87.5606 -54.2545 104.458 45.9582 -61.0421 109.682 -25.3014 -56.5948 107.724 61.0403 -43.2977 121.454 74.565 -30.1782 127.847 71.9808 -51.9362 155.792 52.2329 10.8108 14.8156 93.2204 
159.902 166.642 145.515 145.484 148.09 153.402 166.489 87.9302 87.7253 87.4525 -53.679 104.528 45.844 -60.7932 109.935 -25.5051 -56.4153 108.356 61.6852 -43.0175 121.928 74.8638 -29.9316 128.12 72.3255 -51.6913 155.562 52.3018 10.8403 14.4818 94.9251 
159.401 166.831 145.249 145.51 148.553 153.403 167.298 88.4053 87.7426 87.0925 -53.9102 104.516 45.9109 -60.7621 110.312 -25.5916 -56.3742 108.618 62.2887 -42.9769 122.314 75.1096 -29.943 128.569 72.405 -51.5429 155.747 52.4272 10.9609 14.4153 95.5332 
159.196 167.103 144.766 145.305 148.878 153.407 167.897 88.9017 87.8426 86.875 -53.9555 104.403 45.963 -60.5535 110.356 -25.4574 -56.0296 108.688 62.6715 -42.8028 122.523 75.2395 -29.8532 128.944 72.4023 -51.3856 155.914 52.5359 11.0658 14.4656 95.5096 
159.155 167.485 144.154 145.161 149.104 153.402 168.265 89.1547 87.9074 86.6491 -53.8708 104.211 46.0021 -60.267 110.245 -25.2659 -55.5658 108.695 62.8008 -42.5263 122.651 75.2907 -29.6446 129.266 72.331 -51.2072 156.022 52.6173 11.1388 14.612 95.2074 
159.122 167.822 143.574 145.053 149.273 153.383 168.397 89.3305 87.9927 86.453 -53.8299 104.067 46.0444 -60.0311 110.117 -25.0343 -55.1578 108.788 62.8977 -42.2867 122.792 75.322 -29.454 129.596 72.247 -51.048 156.168 52.6832 11.1936 14.7058 94.853 
159.099 168.083 143.012 145.037 149.421 153.336 168.483 89.3939 88.0308 86.2673 -53.7587 103.961 46.106 -59.8233 110.075 -24.8304 -54.7364 108.836 62.7916 -42.1105 122.87 75.2866 -29.2996 129.823 72.1319 -50.9017 156.32 52.7283 11.2318 14.9363 94.334 
159.112 168.289 142.242 145.037 149.497 153.252 168.444 89.1403 88.0136 86.0609 -53.6823 103.816 46.2038 -59.6208 109.941 -24.5305 -54.2937 108.928 62.4478 -41.9365 122.973 75.2256 -29.1257 130.055 71.9961 -50.7637 156.462 52.7548 11.2538 15.3178 93.5816 
159.086 168.407 141.453 145.026 149.485 153.101 168.335 88.82 87.9779 85.8723 -53.4803 103.693 46.3765 -59.4251 109.802 -24.1896 -53.759 108.972 61.9919 -41.7424 123.049 75.1356 -28.9386 130.263 71.8463 -50.6656 156.59 52.7762 11.2689 15.7985 92.708 
159.118 168.5 140.687 144.94 149.407 153.001 168.271 88.5473 87.953 85.7283 -53.2189 103.529 46.5287 -59.2459 109.58 -23.9028 -53.2757 108.948 61.5715 -41.5273 123.097 75.0521 -28.7383 130.432 71.7074 -50.5808 156.651 52.7755 11.2776 16.2277 91.9323 
159.118 168.543 139.74 144.923 149.324 152.876 168.203 88.1777 87.9414 85.6128 -53.0353 103.388 46.7535 -59.1181 109.456 -23.6668 -52.9178 108.911 61.0253 -41.3604 123.118 75.0167 -28.5805 130.55 71.6358 -50.5056 156.717 52.8129 11.283 16.7309 91.1032 
159.105 168.648 138.661 144.954 149.259 152.679 168.149 87.6369 87.8925 85.4915 -52.844 103.327 46.9755 -59.1241 109.385 -23.381 -52.6804 108.934 60.2947 -41.3081 123.205 74.9788 -28.5233 130.687 71.5533 -50.5041 156.812 52.8487 11.2908 17.4182 90.0899 
159.008 168.704 137.221 144.952 149.155 152.457 168.017 87.1895 87.8407 85.3073 -52.6874 103.301 47.202 -59.179 109.414 -23.1388 -52.518 108.91 59.403 -41.2867 123.297 74.9027 -28.4987 130.884 71.4469 -50.5317 156.966 52.925 11.2997 18.197 88.8589 
158.963 168.576 136.55 144.886 148.958 152.365 167.834 87.1209 87.8139 85.2627 -52.5595 103.249 47.296 -59.2204 109.343 -23.0401 -52.5422 108.698 58.8903 -41.2687 123.188 74.7882 -28.475 130.811 71.3483 -50.5407 156.957 52.9442 11.2986 18.5264 88.156 
158.942 168.55 136.167 144.822 148.848 152.304 167.808 87.039 87.7865 85.2506 -52.4504 103.258 47.3849 -59.3343 109.389 -23.0334 -52.5934 108.596 58.5599 -41.2917 123.149 74.7303 -28.4852 130.767 71.3095 -50.5537 156.969 52.9619 11.2896 18.7656 87.7901 
158.882 168.461 135.921 144.769 148.746 152.223 167.708 86.9554 87.7649 85.2557 -52.5061 103.323 47.4217 -59.4923 109.5 -23.0161 -52.7095 108.602 58.3298 -41.3344 123.167 74.669 -28.5221 130.764 71.2492 -50.6007 157.017 52.9656 11.2948 18.883 87.5775 
158.832 168.415 135.991 144.675 148.652 152.186 167.668 86.9651 87.8047 85.3051 -52.556 103.4 47.3772 -59.7217 109.732 -23.1335 -52.8521 108.672 58.2708 -41.4038 123.19 74.6103 -28.591 130.769 71.1897 -50.6562 157.077 52.9649 11.3014 18.8262 87.6611 
158.82 168.33 136.139 144.537 148.506 152.159 167.579 87.0337 87.8605 85.3917 -52.5123 103.446 47.3675 -59.8182 109.816 -23.1541 -52.7854 108.686 58.2552 -41.411 123.17 74.5444 -28.6161 130.753 71.1358 -50.695 157.121 52.9594 11.311 18.7901 87.6332 
158.833 168.267 136.73 144.428 148.412 152.217 167.564 87.2516 87.9294 85.4508 -52.5435 103.588 47.2838 -59.9214 109.959 -23.2913 -52.9354 108.838 58.5822 -41.5071 123.249 74.5383 -28.7079 130.815 71.1426 -50.7458 157.229 52.9407 11.312 18.427 88.0409 
158.879 168.22 137.274 144.392 148.336 152.31 167.547 87.5141 87.9752 85.4585 -52.6323 103.743 47.1291 -60.0545 110.131 -23.4913 -53.1127 108.971 58.847 -41.6125 123.328 74.5073 -28.7928 130.877 71.1314 -50.7686 157.354 52.9084 11.3053 18.1026 88.3894 
158.911 168.181 137.734 144.394 148.319 152.395 167.589 87.7711 88.0069 85.4608 -52.7618 103.9 47.0163 -60.195 110.36 -23.7012 -53.2472 109.1 59.1072 -41.6885 123.416 74.4847 -28.857 130.949 71.1237 -50.7913 157.477 52.8775 11.3006 17.8135 88.7847 
158.924 168.156 138.048 144.394 148.275 152.466 167.621 88.09 88.029 85.4798 -52.9019 104.105 46.8647 -60.3719 110.672 -23.9585 -53.3536 109.177 59.2761 -41.762 123.479 74.4156 -28.9221 130.992 71.0733 -50.8271 157.619 52.8475 11.3013 17.5963 89.1001 
158.903 168.124 138.363 144.404 148.227 152.501 167.642 88.327 88.0301 85.4895 -52.9988 104.306 46.7162 -60.49 110.958 -24.1613 -53.405 109.253 59.3943 -41.8554 123.503 74.3196 -28.9961 130.995 71.0121 -50.856 157.744 52.819 11.2951 17.4196 89.3297 
158.808 168.08 138.832 144.43 148.169 152.424 167.608 88.4432 87.9686 85.4781 -53.0803 104.492 46.6333 -60.6201 111.2 -24.2603 -53.3082 109.296 59.4504 -41.9085 123.478 74.1712 -29.044 130.946 70.8926 -50.8983 157.822 52.7881 11.3045 17.3295 89.4597 
158.784 168.027 139.234 144.374 148.122 152.452 167.576 88.6989 88.0287 85.5816 -53.176 104.622 46.5729 -60.6272 111.359 -24.3433 -53.3018 109.344 59.7038 -41.9425 123.435 74.1278 -29.0777 130.898 70.8911 -50.9136 157.897 52.7953 11.2964 17.049 89.7294 
158.795 167.988 139.538 144.362 148.076 152.502 167.562 88.963 88.0674 85.6583 -53.1671 104.718 46.4933 -60.5865 111.406 -24.3894 -53.1765 109.334 59.9328 -41.9162 123.375 74.084 -29.0607 130.848 70.88 -50.9239 157.937 52.8065 11.2917 16.836 89.8923 
158.822 167.991 139.931 144.331 148.054 152.567 167.533 89.1201 88.1066 85.7424 -53.1836 104.745 46.4493 -60.519 111.369 -24.3885 -53.0737 109.365 60.1983 -41.9015 123.323 74.0659 -29.0514 130.795 70.8834 -50.9243 157.943 52.8054 11.2884 16.6083 90.1023 
158.83 167.974 140.095 144.322 148.023 152.603 167.507 89.2375 88.1319 85.8109 -53.2063 104.744 46.4368 -60.4049 111.305 -24.3711 -52.9732 109.353 60.3474 -41.8744 123.254 74.0435 -29.0206 130.728 70.8867 -50.902 157.943 52.8103 11.2804 16.4654 90.1717 
158.824 167.913 140.279 144.302 148.001 152.642 167.407 89.3349 88.1608 85.8576 -53.213 104.669 46.3672 -60.2725 111.171 -24.362 -52.8918 109.341 60.5057 -41.8352 123.156 73.9877 -28.9835 130.637 70.8462 -50.8677 157.882 52.7721 11.2786 16.267 90.2843 
158.782 167.888 140.581 144.299 148.022 152.618 167.34 89.2814 88.155 85.8548 -53.1803 104.595 46.3047 -60.202 111.087 -24.3542 -52.7732 109.404 60.6177 -41.8067 123.128 73.9487 -28.9453 130.596 70.8021 -50.809 157.823 52.7279 11.2787 16.1791 90.4123 
158.822 167.938 140.604 144.269 148.024 152.624 167.319 89.1431 88.1613 85.8565 -52.9297 104.457 46.2585 -59.992 110.854 -24.2962 -52.5692 109.44 60.6378 -41.6756 123.145 73.9647 -28.8201 130.607 70.7907 -50.6983 157.74 52.6785 11.2886 16.2022 90.3964 
158.844 167.981 140.61 144.289 148.056 152.593 167.289 88.9497 88.1413 85.8478 -52.7157 104.322 46.264 -59.7982 110.681 -24.2506 -52.4683 109.465 60.5274 -41.6222 123.131 73.9362 -28.7442 130.562 70.7651 -50.5504 157.676 52.6139 11.2838 16.2885 90.2662 
158.873 168.078 140.397 144.376 148.136 152.579 167.347 88.7684 88.122 85.8384 -52.5938 104.254 46.2426 -59.651 110.673 -24.3086 -52.4212 109.47 60.3208 -41.5648 123.13 73.9151 -28.6506 130.517 70.7436 -50.376 157.65 52.5636 11.2702 16.4425 90.1494 
158.92 168.193 139.907 144.396 148.166 152.54 167.404 88.5829 88.132 85.868 -52.2337 104.191 46.2266 -59.3736 110.656 -24.3397 -52.171 109.404 59.9311 -41.3677 123.13 73.8667 -28.4516 130.512 70.6975 -50.1579 157.641 52.5101 11.2658 16.7556 89.79 
159.025 168.326 138.879 144.493 148.161 152.458 167.445 88.2398 88.1567 85.9043 -51.7272 104.143 46.2437 -59.1062 110.634 -24.3589 -51.8841 109.262 59.1834 -41.1167 123.088 73.7888 -28.2081 130.49 70.6115 -49.94 157.654 52.4662 11.269 17.3045 89.0352 
159.257 168.381 139.068 144.207 146.781 152.03 167.123 89.061 89.0154 86.9415 -51.7227 104.288 46.2021 -59.4847 110.968 -24.7706 -52.617 107.963 57.6665 -41.2621 121.926 73.3609 -28.1318 129.11 70.335 -49.707 157.584 52.3922 11.0819 17.6288 87.3829 
159.261 168.446 138.136 144.412 146.976 151.949 167.152 89.454 89.3749 87.2053 -51.3932 104.276 46.2171 -59.2437 111.002 -24.8232 -52.7978 107.427 56.8846 -41.1487 121.683 73.3714 -28.0082 129.004 70.3762 -49.5016 157.595 52.4041 11.0139 18.173 86.4461 
159.287 168.545 136.513 144.459 147.2 151.852 167.286 89.9039 89.6573 87.4928 -50.5785 104.189 46.4008 -58.5578 110.716 -24.7987 -52.4778 106.782 56.2497 -40.6485 121.474 73.5679 -27.5599 128.903 70.6082 -49.0564 157.49 52.4822 10.9694 18.8937 85.5273 
159.264 168.569 135.425 144.462 147.458 151.865 167.442 90.1243 89.6585 87.4873 -50.3094 104.285 46.509 -58.3053 110.686 -24.8114 -52.444 106.676 56.1694 -40.4325 121.654 73.7867 -27.4033 129.126 70.8244 -48.9238 157.538 52.5458 10.9733 19.2083 85.4093 
159.25 168.554 134.688 144.369 147.69 151.898 167.601 90.3788 89.6625 87.4767 -50.0098 104.418 46.613 -57.9723 110.62 -24.8312 -52.2734 106.651 56.3801 -40.1584 121.897 74.0921 -27.1972 129.385 71.1246 -48.7161 157.591 52.6284 10.9899 19.3843 85.5533 
159.279 168.491 134.577 144.311 147.904 152.012 167.619 90.5859 89.6217 87.4042 -49.787 104.509 46.6439 -57.6402 110.436 -24.8095 -52.1448 106.748 56.8883 -39.9066 122.161 74.3782 -26.994 129.656 71.3967 -48.5009 157.623 52.6873 11.0063 19.2448 85.9686 
159.413 168.46 134.822 144.295 148.102 152.265 167.653 90.6596 89.5141 87.2717 -49.5411 104.541 46.6723 -57.1857 110.055 -24.6825 -51.8521 106.943 57.6843 -39.5379 122.459 74.7237 -26.6713 129.962 71.7185 -48.2403 157.607 52.7532 11.0141 18.8959 86.6157 
159.547 168.397 134.914 144.237 148.24 152.501 167.665 90.7471 89.4594 87.2075 -49.3357 104.527 46.7165 -56.7615 109.666 -24.5366 -51.4709 107.054 58.3528 -39.1717 122.662 75.0501 -26.3559 130.178 72.0299 -47.9792 157.561 52.8293 11.0255 18.6583 87.0956 
159.576 168.277 135.242 144.157 148.345 152.652 167.64 90.7977 89.3843 87.1309 -49.2998 104.492 46.7011 -56.4299 109.418 -24.465 -51.2429 107.181 59.013 -38.9721 122.732 75.286 -26.1719 130.208 72.2796 -47.7299 157.462 52.8984 11.041 18.315 87.6782 
159.577 168.136 135.324 144.214 148.493 152.738 167.6 90.7103 89.2044 86.9813 -49.3458 104.455 46.6969 -56.1972 109.186 -24.3532 -51.088 107.162 59.3031 -38.83 122.693 75.4148 -26.0199 130.11 72.4336 -47.5267 157.305 52.9501 11.0435 18.2395 87.9073 
159.558 167.997 135.543 144.219 148.646 152.8 167.545 90.567 89.0325 86.833 -49.4242 104.359 46.7596 -55.9651 108.879 -24.1524 -50.9453 107.188 59.7216 -38.6493 122.673 75.5834 -25.8397 130.041 72.605 -47.3292 157.12 53.0185 11.0526 18.058 88.2511 
159.527 167.871 135.923 144.167 148.732 152.858 167.486 90.4636 88.9036 86.7334 -49.4154 104.289 46.7927 -55.8238 108.733 -24.0273 -50.7391 107.275 60.2028 -38.4129 122.656 75.7045 -25.6274 130.003 72.719 -47.1633 156.967 53.0937 11.0707 17.7466 88.7666 
159.506 167.76 136.073 144.21 148.821 152.909 167.437 90.2191 88.7204 86.5895 -49.4289 104.15 46.8405 -55.6442 108.483 -23.8283 -50.5246 107.291 60.4442 -38.1782 122.605 75.7841 -25.4042 129.916 72.7851 -46.9934 156.777 53.144 11.0886 17.629 88.9941 
159.421 167.654 136.11 144.224 148.893 152.872 167.363 89.983 88.5561 86.4676 -49.4814 104.065 46.8855 -55.5629 108.416 -23.69 -50.3773 107.308 60.5213 -37.9973 122.561 75.816 -25.2297 129.825 72.8091 -46.836 156.637 53.1931 11.1082 17.6205 89.1148 
159.247 167.532 136.444 144.185 148.929 152.766 167.272 89.8642 88.3841 86.3315 -49.5171 104.057 46.9325 -55.5509 108.531 -23.6264 -50.2306 107.372 60.6824 -37.8359 122.508 75.7693 -25.0757 129.734 72.7742 -46.669 156.554 53.2488 11.1351 17.4683 89.3666 
159.065 167.417 136.901 144.096 148.917 152.653 167.189 89.8729 88.3111 86.2483 -49.5106 104.114 46.9874 -55.5028 108.779 -23.6483 -49.9939 107.483 60.9325 -37.6148 122.488 75.7427 -24.8697 129.722 72.7547 -46.4655 156.557 53.3228 11.1565 17.2329 89.7318 
159.009 167.307 137.236 144.081 148.874 152.651 167.114 89.9644 88.2529 86.1905 -49.3484 104.136 46.97 -55.3845 109.081 -23.7289 -49.5843 107.486 61.002 -37.3068 122.397 75.6292 -24.5971 129.687 72.6788 -46.2137 156.581 53.3813 11.1836 17.0899 89.8895 
159.008 167.264 137.837 144.074 148.888 152.698 167.089 90.0899 88.2053 86.1706 -49.2511 104.153 47.0009 -55.2141 109.373 -23.8146 -49.2651 107.56 61.2234 -37.076 122.293 75.5196 -24.3855 129.638 72.6434 -45.948 156.639 53.4448 11.2002 16.7704 90.1801 
158.96 167.324 138.458 144.108 148.967 152.632 167.048 90.1222 88.1944 86.1239 -48.4894 104.155 47.0999 -54.613 109.882 -23.9686 -48.4493 107.82 61.4963 -36.3416 122.301 75.428 -23.7258 129.787 72.5956 -45.2832 156.764 53.5669 11.2654 16.345 90.6656 
159.045 167.392 138.607 144.116 148.953 152.606 167.027 90.1738 88.287 86.1922 -48.0653 104.061 47.1182 -54.3607 110.217 -24.1118 -48.0197 107.893 61.4392 -36.0476 122.23 75.2853 -23.476 129.826 72.4834 -45.0243 156.84 53.5903 11.2969 16.2118 90.7351 
159.165 167.562 138.588 144.135 148.985 152.597 167.115 90.2666 88.4445 86.2952 -47.4499 104.001 47.2334 -54.0504 110.567 -24.3205 -47.489 107.954 61.4377 -35.5864 122.232 75.2837 -23.0738 129.939 72.4842 -44.6522 156.941 53.6507 11.3249 16.14 90.8956 
159.347 167.725 138.195 144.104 148.99 152.599 167.204 90.2741 88.6441 86.4933 -46.8243 103.972 47.3858 -53.6502 110.779 -24.3524 -46.8443 108.027 61.3242 -35.0479 122.325 75.3494 -22.6159 130.138 72.5269 -44.2932 157.09 53.7142 11.3552 16.2524 90.7982 
159.541 167.806 137.595 143.988 148.915 152.622 167.273 90.3682 88.8652 86.7488 -46.1565 104.004 47.4324 -53.239 111.01 -24.4313 -46.0951 107.986 61.0806 -34.4685 122.36 75.3681 -22.119 130.252 72.5388 -43.904 157.223 53.7451 11.3777 16.4927 90.5668 
159.725 167.924 137.085 143.776 148.845 152.678 167.454 90.606 89.1807 87.0971 -45.4386 104.036 47.3589 -52.8375 111.228 -24.6409 -45.2911 107.929 61.0529 -33.8192 122.35 75.4289 -21.5718 130.299 72.5718 -43.4732 157.282 53.7489 11.4078 16.5762 90.6825 
159.904 168.007 136.626 143.541 148.754 152.76 167.596 90.9025 89.5353 87.4705 -44.8781 104.09 47.3207 -52.4952 111.399 -24.7905 -44.5396 107.894 61.1174 -33.2654 122.344 75.5667 -21.086 130.319 72.6944 -43.0406 157.364 53.78 11.4104 16.6794 90.7637 
160.146 168.089 136.326 143.448 148.725 152.96 167.694 91.1371 89.743 87.7044 -44.3934 104.126 47.3468 -52.0407 111.374 -24.7935 -43.7216 107.915 61.3835 -32.6678 122.429 75.7868 -20.5528 130.451 72.9123 -42.5978 157.44 53.8654 11.4056 16.7185 90.8998 
160.35 168.117 136.402 143.311 148.654 153.163 167.697 91.3093 89.8496 87.8412 -44.0244 104.223 47.4858 -51.6002 111.21 -24.5752 -42.9111 108.092 61.9509 -32.0643 122.618 76.0917 -20.002 130.682 73.2178 -42.131 157.558 54.0318 11.3967 16.604 91.1331 
160.473 168.076 136.672 143.132 148.518 153.317 167.622 91.3895 89.8497 87.8574 -43.5987 104.282 47.6434 -51.0497 110.921 -24.2735 -42.1149 108.322 62.6177 -31.4558 122.804 76.3739 -19.4486 130.912 73.5029 -41.677 157.628 54.2124 11.4059 16.3683 91.4096 
160.666 168.069 136.867 143.101 148.491 153.518 167.459 91.2668 89.7954 87.8443 -43.1029 104.32 47.6712 -50.4671 110.666 -23.9453 -41.46 108.59 63.0295 -30.9281 123.003 76.6008 -18.948 131.138 73.7481 -41.2303 157.695 54.3872 11.4044 16.2438 91.4462 
160.816 168.059 137.19 143.041 148.412 153.629 167.259 91.2871 89.7141 87.7845 -42.576 104.262 47.5996 -49.9611 110.511 -23.8055 -40.8113 108.723 63.3775 -30.3926 123.038 76.6176 -18.4621 131.24 73.7974 -40.7906 157.683 54.4906 11.4313 15.9925 91.5947 
160.86 168.095 137.255 143.187 148.49 153.572 167.067 91.0476 89.6019 87.7121 -42.1016 104.297 47.6134 -49.6143 110.539 -23.6559 -40.4632 108.901 63.3637 -30.0317 123.105 76.6135 -18.106 131.318 73.8146 -40.4111 157.73 54.5986 11.4486 15.9537 91.4628 
160.822 168.087 137.114 143.31 148.56 153.429 166.85 90.7195 89.5077 87.6761 -41.6969 104.23 47.7696 -49.251 110.514 -23.4066 -40.2317 108.975 63.152 -29.7155 123.059 76.571 -17.781 131.258 73.8003 -40.0125 157.737 54.6867 11.4643 16.0021 91.0905 
160.804 168.124 137.054 143.301 148.628 153.307 166.787 90.5782 89.5123 87.7297 -41.3707 104.187 48.0174 -48.9707 110.475 -23.1754 -39.9767 109.039 63.1154 -29.3527 123.078 76.6103 -17.4211 131.273 73.8499 -39.6205 157.778 54.7595 11.4606 16.0053 90.9034 
160.808 168.202 136.94 143.265 148.677 153.197 166.772 90.5057 89.6523 87.8962 -41.0546 104.254 48.2266 -48.75 110.654 -23.0546 -39.6494 109.199 63.0727 -28.923 123.213 76.7034 -17.0175 131.417 73.9087 -39.2326 157.944 54.8537 11.4696 16.0424 90.7976 
160.833 168.3 136.757 143.167 148.668 153.1 166.822 90.6008 89.845 88.07 -40.7104 104.4 48.5164 -48.5074 110.833 -22.9665 -39.3055 109.343 63.1376 -28.5107 123.392 76.8817 -16.6186 131.619 74.0591 -38.8344 158.18 54.9745 11.4586 16.0979 90.7166 
161.01 168.39 136.634 142.924 148.567 153.217 166.941 90.9139 90.1 88.2657 -40.1393 104.484 48.7358 -48.0715 110.894 -22.924 -38.6301 109.429 63.4626 -27.9501 123.575 77.1264 -16.1181 131.905 74.287 -38.406 158.379 55.0984 11.4507 16.0773 90.8609 
161.23 168.447 136.389 142.7 148.384 153.432 166.965 91.2308 90.3312 88.4455 -39.4385 104.585 48.9778 -47.4923 110.785 -22.6826 -37.7873 109.472 63.7923 -27.2925 123.782 77.4257 -15.5362 132.253 74.568 -37.9764 158.586 55.2807 11.4402 16.1288 90.78 
161.468 168.542 135.9 142.613 148.248 153.688 166.915 91.3122 90.4776 88.5655 -38.806 104.71 49.2667 -46.6985 110.381 -22.1471 -37.0028 109.553 64.0031 -26.6625 124.042 77.8168 -14.9506 132.641 74.9622 -37.5376 158.816 55.5277 11.4019 16.3087 90.2416 
161.672 168.578 135.428 142.629 148.105 153.952 166.816 91.2597 90.5383 88.6285 -38.2416 104.845 49.4582 -45.963 109.987 -21.5532 -36.2287 109.651 64.154 -26.024 124.287 78.1675 -14.3582 132.993 75.2941 -37.1267 159.006 55.8018 11.383 16.4965 89.6523 
161.89 168.52 134.98 142.565 147.873 154.249 166.647 91.3282 90.4855 88.6364 -37.6924 104.897 49.5091 -45.1826 109.615 -21.0196 -35.325 109.559 64.223 -25.3425 124.352 78.3435 -13.7463 133.189 75.5171 -36.7036 159.088 56.0627 11.379 16.6653 89.0094 
161.992 168.399 134.388 142.642 147.744 154.387 166.35 91.1177 90.3637 88.5744 -37.3216 105.003 49.522 -44.6097 109.518 -20.5474 -34.7726 109.546 63.9821 -24.8977 124.359 78.4123 -13.3205 133.261 75.6434 -36.3582 159.176 56.3065 11.3819 16.9055 88.2551 
161.941 168.258 133.793 142.862 147.7 154.226 165.983 90.5168 90.1414 88.3856 -37.0408 105.061 49.681 -44.1622 109.374 -19.9867 -34.6187 109.492 63.3845 -24.6684 124.185 78.352 -13.0471 133.097 75.6526 -36.0643 159.187 56.4794 11.3721 17.2312 87.1838 
161.868 168.153 133.238 143.139 147.707 153.969 165.649 89.8624 89.9844 88.1939 -36.7198 105.026 49.9067 -43.7684 109.282 -19.4829 -34.5615 109.352 62.6595 -24.4328 123.869 78.2678 -12.767 132.805 75.6179 -35.7498 159.114 56.6211 11.3689 17.5741 86.1104 
161.803 168.111 132.684 143.454 147.779 153.647 165.405 89.2385 89.8726 88.0087 -36.4572 104.996 50.2087 -43.5095 109.204 -18.9754 -34.5968 109.215 61.9458 -24.2185 123.621 78.259 -12.5216 132.578 75.6037 -35.5049 159.051 56.7474 11.3782 17.9927 85.0844 
161.737 168.144 132.005 143.748 147.809 153.338 165.204 88.7269 89.8946 87.8881 -36.0242 104.939 50.3586 -43.1782 109.225 -18.6402 -34.4927 109.065 61.1589 -23.8247 123.394 78.2375 -12.1427 132.409 75.5051 -35.2076 158.983 56.8475 11.4279 18.4365 84.1263 
161.656 168.145 131.139 143.793 147.706 153.06 165.083 88.3901 90.0379 87.8914 -35.4582 104.873 50.5129 -42.9787 109.47 -18.472 -34.3048 108.915 60.4042 -23.324 123.223 78.2137 -11.7189 132.318 75.3726 -34.9344 158.935 56.9541 11.5113 18.8725 83.4178 
161.609 168.264 130.217 143.81 147.614 152.802 165.133 88.1189 90.279 87.9876 -34.9625 104.823 50.7444 -42.7482 109.648 -18.3533 -34.174 108.79 59.8093 -22.9341 123.082 78.3376 -11.3949 132.237 75.3859 -34.669 158.898 57.0729 11.5918 19.3236 82.8685 
161.541 168.369 129.179 143.724 147.484 152.607 165.242 88.1778 90.5783 88.1384 -34.5726 104.839 50.8615 -42.6253 110.005 -18.4832 -34.1084 108.617 59.3344 -22.6079 122.946 78.4583 -11.1229 132.151 75.4157 -34.4251 158.893 57.1996 11.6547 19.6945 82.5882 
161.477 168.476 128.026 143.558 147.364 152.433 165.443 88.4972 90.8433 88.2885 -34.3437 104.911 51.0144 -42.6161 110.396 -18.6875 -34.0847 108.424 59.036 -22.366 122.875 78.6017 -10.9093 132.128 75.5049 -34.2114 158.942 57.3487 11.6774 20.0192 82.4688 
161.44 168.554 127.085 143.342 147.157 152.295 165.69 88.7491 91.12 88.4027 -33.9622 105.004 51.2323 -42.6055 110.709 -18.8221 -33.8782 108.327 58.8996 -22.0009 122.91 78.8077 -10.6035 132.239 75.6043 -34.0114 159.016 57.5062 11.7109 20.2906 82.4775 
161.412 168.626 126.441 143.051 146.882 152.173 165.931 88.9903 91.3953 88.5059 -33.6118 105.102 51.5214 -42.6059 111.02 -18.9458 -33.6575 108.295 58.9524 -21.6437 122.983 79.0504 -10.298 132.384 75.7494 -33.8061 159.117 57.6741 11.7267 20.4357 82.6755 
