159.511 152.16 153.99 152.022 151.104 154.508 153.827 69.9499 70.4978 65.2665 -247.269 318.57 89.2204 -269.331 298.486 51.6214 -212.926 325.839 112.126 -204.685 317.254 125.035 -198.224 304.956 126.355 -191.092 306.849 97.4122 19.2585 5.08857 93.067 
158.935 152.474 153.865 153.037 152.366 154.328 150.279 69.8225 70.4742 64.7613 -247.693 318.216 90.1644 -269.79 299.317 52.9715 -213.052 325.505 112.911 -204.717 316.669 125.72 -197.963 304.292 126.596 -191.417 307.056 97.5685 19.2735 4.75089 92.9202 
159.347 154.318 153.761 153.646 153.139 154.083 146.479 70.1001 70.5025 64.4985 -248.167 318.173 90.1963 -269.945 300.335 53.9455 -213.458 325.505 113.366 -205.101 316.508 126.085 -198.259 304.071 126.836 -191.705 307.23 97.743 19.2249 4.59039 91.8598 
159.471 154.192 153.878 154.025 153.874 154.359 146.47 70.3042 70.5625 64.5275 -248.48 317.997 90.5991 -270.362 300.057 53.937 -213.683 325.086 114.102 -205.163 315.983 126.511 -198.182 303.571 127.119 -191.863 307.28 97.8351 18.9528 4.6398 92.4716 
161.315 163.36 154.814 155.565 157.165 154.448 141.637 71.1334 70.8651 63.9714 -248.413 315.958 91.9123 -270.254 297.674 53.6814 -214.17 324.275 116.683 -204.895 314.557 128.087 -196.567 302.101 127.881 -192.304 307.993 98.1577 17.9583 4.39387 96.9247 
162.339 170.054 154.906 156.991 160.171 155.428 141.308 71.6683 71.2755 63.9591 -248.259 313.76 94.0494 -270.381 294.912 52.4569 -213.852 322.406 119.373 -203.985 312.176 129.627 -194.587 299.699 128.549 -192.44 308.407 98.3512 16.4251 4.14968 102.458 
161.766 164.669 154.754 157.53 161.566 156.696 141.621 72.5737 71.8629 64.4391 -248.183 312.869 95.4421 -270.678 294.546 51.6006 -213.547 321.065 121.393 -203.349 310.436 130.708 -193.465 297.835 129.152 -192.473 308.774 98.39 14.9141 4.00403 105.342 
159.133 179.698 154.209 157.796 160.751 156.436 139.298 73.4298 72.0975 65.9822 -248.815 314.868 96.193 -271.841 296.703 53.5809 -213.418 321.836 121.147 -203.687 311.266 130.229 -194.953 298.268 129.667 -192.417 308.356 98.1003 14.4472 4.5498 102.208 
157.798 179.458 153.442 157.342 158.887 156.651 138.896 73.9343 72.2071 67.3079 -249.308 316.607 96.0618 -272.48 298.879 55.0577 -213.383 322.501 120.39 -204.067 312.181 129.414 -196.39 298.923 129.953 -192.261 307.822 97.7776 14.1446 5.1497 98.7041 
157.373 177.845 153.096 156.901 157.245 157.088 137.742 74.1439 72.0388 68.037 -249.832 318.348 94.8491 -272.63 301.677 56.4232 -213.755 323.622 119.277 -204.773 313.66 128.499 -198.005 300.391 130.099 -192.253 307.695 97.6608 14.2674 5.6579 94.3483 
157.12 173.253 153.272 156.692 156.17 156.819 140.044 74.0654 71.8404 68.3676 -249.883 318.985 94.2001 -272.777 302.845 56.7064 -213.919 324.261 118.554 -205.054 314.662 127.871 -198.772 301.612 129.936 -192.208 307.768 97.6181 14.6343 6.10063 92.2453 
157.201 165.686 153.543 156.396 155.427 156.332 143.034 73.9149 71.7164 68.4579 -249.796 319.295 93.8315 -272.761 303.269 56.7191 -214.084 324.67 118.016 -205.292 315.285 127.433 -199.228 302.489 129.533 -192.229 307.775 97.5753 15.2092 6.35526 91.2792 
157.226 154.315 153.941 156.206 155.056 156.044 145.955 73.5256 71.5731 68.2405 -249.69 319.126 93.9562 -272.562 302.86 56.6643 -214.15 324.656 117.777 -205.318 315.435 127.273 -199.197 302.88 129.068 -192.285 307.773 97.5535 15.8483 6.47702 91.4901 
156.609 149.126 154.306 155.946 154.698 155.784 147.879 73.2983 71.4558 68.0316 -249.802 319.33 93.5825 -272.425 302.882 56.6725 -214.514 325.015 117.388 -205.693 315.932 127.088 -199.563 303.623 128.697 -192.461 307.937 97.6282 16.5317 6.51467 90.9339 
156.166 145.262 154.441 155.557 154.499 155.605 150.066 73.3111 71.5414 67.9048 -250.031 319.631 93.2362 -272.318 302.53 56.3723 -214.885 325.387 117.127 -206.062 316.442 126.987 -199.879 304.29 128.391 -192.628 308.102 97.69 17.1159 6.54755 90.8114 
155.523 144.483 154.173 155.111 154.302 155.427 149.758 73.5472 71.6748 67.8527 -250.183 319.753 92.6347 -272.142 302.859 56.7066 -215.371 325.794 116.936 -206.54 316.972 126.918 -200.338 304.977 128.156 -192.754 308.275 97.8225 17.7196 6.59569 89.5892 
154.492 144.552 154.287 154.887 154.237 155.367 149.332 73.6421 71.6782 67.7255 -250.404 320.031 91.9431 -272.098 303.26 56.9808 -215.876 326.284 116.622 -207.076 317.576 126.738 -200.887 305.7 127.859 -193.006 308.498 97.9338 18.3157 6.64501 88.482 
155.469 149.912 155.381 156.127 158.04 154.971 140.585 73.6383 71.9138 66.9384 -250.238 317.884 92.6142 -271.569 301.119 57.5417 -216.219 325.893 118.429 -206.906 317.16 128.064 -199.249 305.557 128.096 -193.653 309.372 98.3642 18.5834 6.65973 92.2259 
156.84 160.511 155.436 157.338 162.069 155.287 139.321 73.4366 71.9487 66.1187 -250.16 316.004 94.2076 -271.835 298.262 56.2848 -215.937 324.692 120.427 -206.298 315.858 129.412 -197.26 304.413 128.396 -194.075 310.022 98.6899 18.3915 6.62422 97.8369 
158.404 152.62 155.448 158.281 165.115 156.828 140.467 73.2392 72.0352 65.7086 -250.092 314.077 95.872 -271.768 295.925 55.4407 -215.268 322.957 122.42 -205.446 314.025 130.648 -195.434 302.688 128.642 -194.365 310.495 98.9229 17.7369 6.6328 102.948 
159.817 140.888 155.74 158.87 166.699 158.965 142.217 73.4074 72.2545 65.7389 -250.114 312.879 96.7591 -271.828 295.02 54.5911 -214.713 321.556 124.08 -204.718 312.512 131.598 -194.201 301.256 128.899 -194.674 311.043 99.062 16.8078 6.61845 106.631 
161.286 132.856 156.039 159.154 166.954 161.386 145.742 73.6715 72.6126 66.3697 -250.18 312.354 97.1672 -271.931 294.006 53.2912 -214.096 320.427 125.352 -204.018 311.254 132.236 -193.399 299.888 129.226 -194.939 311.499 99.0833 15.4498 6.63031 110.32 
162.178 130.403 156.646 159.766 167.204 164.226 149.236 73.8654 72.842 66.9586 -250.351 312.569 97.6994 -272.52 293.888 51.4914 -213.219 319.157 126.636 -203.108 309.8 132.802 -192.42 298.169 129.529 -195.197 311.915 99.144 13.8403 6.67722 114.273 
161.885 132.479 157.132 160.134 166.037 165.573 150.028 73.9502 72.7798 67.4854 -250.661 313.021 98.2567 -273.451 294.483 51.6179 -212.705 318.485 127.135 -202.538 308.991 132.864 -192.301 297.12 129.696 -195.273 312.049 99.0723 13.1255 6.68831 114.962 
161.555 134.229 157.422 160.376 164.8 166.316 150.836 74.1719 72.8287 68.1648 -250.884 313.514 98.6143 -274.211 294.971 51.8904 -212.39 318.241 127.522 -202.207 308.64 132.959 -192.54 296.48 130.069 -195.357 312.139 99.0614 12.6733 6.69455 115.224 
161.382 134.944 157.752 160.819 163.668 167.047 151.33 74.1336 72.6221 68.5646 -251.178 314.125 98.5714 -274.744 295.938 52.1523 -212.137 318.293 127.562 -202.039 308.628 132.868 -192.992 296.185 130.392 -195.446 312.134 99.0351 12.5639 6.75702 115.248 
161.563 138.11 158.319 161.46 162.667 168.402 152.56 73.8518 72.1848 68.6798 -251.506 314.871 98.012 -275.059 296.771 52.1196 -211.922 318.381 127.469 -201.869 308.737 132.676 -193.409 296.087 130.615 -195.542 312.123 99.0704 12.7119 6.8643 115.546 
162.506 140.605 158.942 161.87 161.559 169.774 155.069 73.709 71.9579 68.8511 -251.912 315.464 97.6098 -275.036 296.451 51.7437 -211.723 318.261 127.571 -201.699 308.631 132.673 -193.623 295.8 130.905 -195.588 312.087 99.1614 12.7037 6.93985 116.414 
163.813 146.985 159.411 162.223 160.599 170.754 157.361 73.3953 71.5017 68.8237 -252.235 315.698 97.3303 -275.066 295.835 51.0405 -211.598 318.088 127.616 -201.482 308.552 132.554 -193.723 295.693 131.034 -195.697 312.274 99.2566 12.8566 7.04172 117.473 
164.356 153.74 159.656 162.241 159.681 170.775 159.476 73.3596 71.3705 69.1572 -252.443 315.874 97.8612 -275.313 294.997 50.6142 -211.525 317.986 127.867 -201.254 308.567 132.582 -193.779 295.681 131.23 -195.856 312.533 99.3703 12.9465 7.14011 118.403 
164.883 157.898 160.006 162.319 158.825 170.353 160.31 73.4357 71.2924 69.4459 -252.483 315.83 97.9594 -275.411 294.33 50.6195 -211.501 318.053 127.993 -201.222 308.669 132.597 -194.069 295.714 131.489 -195.951 312.645 99.4305 13.0568 7.21969 118.642 
164.492 160.488 160.259 162.502 158.271 170.036 161.089 73.4106 71.1554 69.6861 -252.477 316.022 98.0355 -275.62 294.132 50.6602 -211.574 318.296 128.064 -201.251 308.97 132.584 -194.412 295.952 131.73 -196.111 312.904 99.5056 13.1637 7.30666 118.749 
163.67 161.666 160.544 162.293 157.471 169.476 161.58 73.4706 71.2282 69.9688 -252.557 315.952 98.4371 -275.899 293.368 51.0546 -211.499 318.211 128.311 -201.096 308.986 132.651 -194.412 295.956 131.799 -196.273 313.112 99.5896 13.2352 7.4023 118.978 
162.772 162.366 160.701 162.147 156.704 169.346 160.595 73.6944 71.3818 70.2657 -252.801 316.466 98.3736 -276.289 293.682 51.8242 -211.673 318.526 128.384 -201.331 309.355 132.712 -194.861 296.227 132.054 -196.379 313.118 99.6381 13.2954 7.51456 118.151 
162.546 161.319 160.821 161.928 156.101 169.899 160.191 73.7093 71.4718 70.5107 -253.277 317.417 98.0206 -276.588 293.911 52.4106 -211.744 318.839 128.294 -201.486 309.709 132.687 -195.195 296.509 132.206 -196.469 313.044 99.664 13.3509 7.60834 117.649 
161.51 159.582 161.096 162.052 155.852 170.582 159.514 73.4966 71.2588 70.3928 -253.572 318.263 97.4951 -276.676 294.126 52.744 -211.802 319.087 128.112 -201.587 309.991 132.565 -195.416 296.767 132.262 -196.572 313.016 99.7297 13.413 7.69225 117.393 
161.053 158.555 160.842 161.803 155.781 170.6 160.235 73.5547 71.3031 70.5484 -253.616 318.461 97.5177 -276.908 293.854 52.8258 -211.845 319.131 128.092 -201.536 310.034 132.522 -195.398 296.837 132.285 -196.583 312.84 99.7245 13.3552 7.68106 117.32 
160.876 157.298 160.64 161.428 155.447 170.57 160.112 73.6222 71.4517 70.7814 -253.737 318.591 97.5622 -277.057 293.82 53.3012 -211.825 319.028 128.121 -201.507 309.983 132.534 -195.378 296.787 132.334 -196.552 312.55 99.7463 13.2921 7.75054 116.999 
160.521 155.933 160.3 160.966 154.994 170.24 158.751 73.7597 71.6242 71.1924 -253.799 318.722 97.677 -277.579 293.85 54.497 -211.842 318.814 128.151 -201.521 309.735 132.552 -195.56 296.506 132.498 -196.547 311.968 99.7761 13.2367 7.77088 115.988 
160.782 150.485 159.745 160.622 155.12 170.057 156.486 73.9426 71.7828 71.3636 -253.803 318.484 97.5301 -277.722 294.779 56.1216 -211.883 319.097 128.129 -201.624 310.038 132.645 -195.753 296.894 132.709 -196.582 311.684 99.8527 13.2764 7.80672 114.474 
161.675 145.822 159.168 160.399 155.341 170.033 153.85 74.0292 71.7587 71.2856 -253.829 318.408 97.2133 -277.849 295.487 57.6379 -212.157 319.387 128.125 -201.891 310.29 132.772 -196.068 297.23 132.929 -196.678 311.567 100.005 13.3449 7.75301 112.83 
162.806 142.878 158.487 159.993 155.531 169.962 151.511 74.1231 71.8403 71.2792 -253.805 318.147 97.5589 -278.07 295.637 59.1095 -212.167 319.205 128.324 -201.803 310.134 132.886 -195.889 297.187 132.871 -196.697 311.447 100.1 13.3441 7.78215 111.792 
164.233 140.41 157.974 159.661 155.662 169.876 149.072 74.222 71.8907 71.2799 -253.948 317.989 98.133 -278.451 296.058 60.6091 -212.244 319.003 128.62 -201.808 309.922 133.029 -195.808 297.069 132.823 -196.886 311.435 100.22 13.3238 7.80115 110.915 
165.048 139.466 157.364 159.406 155.747 169.996 148.079 74.1558 71.7569 71.0759 -254.137 318.133 98.4124 -278.739 296.257 61.4239 -212.459 318.933 128.82 -201.917 309.826 133.15 -195.832 297.051 132.829 -197.053 311.549 100.38 13.3327 7.77062 110.373 
164.741 171.952 156.564 158.044 155.329 167.522 144.444 73.8816 71.5957 71.1245 -254.127 319.172 97.2213 -280.119 297.383 62.6603 -213.611 321.008 127.468 -203.524 311.896 132.8 -197.786 299.048 133.576 -197.027 310.97 100.463 13.3012 7.95373 106.008 
164.156 176.247 155.974 156.73 154.396 165.297 146.935 73.4464 71.3223 70.9507 -253.747 320.163 96.3528 -280.669 298.738 61.5934 -214.691 322.764 125.869 -204.931 313.644 132.132 -199.576 300.82 133.84 -197.037 310.28 100.483 13.3331 8.07567 103.729 
162.825 176.915 155.395 155.575 153.518 163.319 149.436 73.09 71.1924 70.6515 -253.373 320.336 96.3671 -281.024 299.587 60.6343 -215.461 323.908 124.621 -205.899 314.798 131.644 -200.733 302.069 133.85 -197.046 309.691 100.566 13.4704 8.07424 102.126 
161.456 176.805 154.985 154.613 152.924 161.747 151.755 72.8652 71.1674 70.3986 -253.123 320.643 96.7409 -281.337 300.239 60.0209 -216.115 324.81 123.71 -206.652 315.691 131.346 -201.614 303.025 133.851 -197.141 309.339 100.692 13.6073 8.01191 100.892 
160.215 175.899 154.602 153.749 152.469 160.504 153.859 72.9171 71.3587 70.3788 -253 321.05 97.3721 -281.635 300.788 59.612 -216.656 325.542 123.138 -207.279 316.355 131.23 -202.373 303.67 133.922 -197.292 309.071 100.814 13.6608 7.90994 100.02 
159.442 173.771 154.401 153.231 152.335 159.803 156.144 72.943 71.6068 70.4588 -252.916 321.17 98.0968 -281.729 300.752 59.1699 -216.917 325.899 122.936 -207.59 316.65 131.326 -202.747 303.9 134.063 -197.411 308.909 100.95 13.6279 7.78473 100.104 
159.011 172.062 154.177 152.845 152.291 159.502 157.49 72.9265 71.7722 70.4978 -252.96 321.095 98.8147 -281.842 300.846 59.1587 -217.083 325.902 123.099 -207.77 316.625 131.595 -202.886 303.857 134.259 -197.559 308.899 101.134 13.5897 7.70669 100.2 
158.891 169.574 154.112 152.83 152.478 159.477 158.673 72.7106 71.7648 70.3891 -253.011 320.771 99.4402 -281.833 300.589 59.1078 -217.119 325.67 123.323 -207.816 316.368 131.868 -202.87 303.581 134.387 -197.682 308.902 101.316 13.6116 7.63098 100.722 
159.01 167.313 154.198 152.864 152.683 159.545 160.194 72.8057 72.0244 70.4934 -253.147 320.653 100.116 -281.966 300.033 58.9028 -217.234 325.648 123.589 -207.893 316.242 132.18 -202.907 303.339 134.566 -197.873 308.84 101.451 13.5238 7.48267 101.56 
159.285 164.88 154.448 153.051 152.91 159.642 160.839 72.6962 72.0539 70.4549 -253.107 320.332 100.424 -281.808 299.464 58.8405 -217.138 325.603 123.634 -207.849 316.119 132.35 -202.889 303.141 134.721 -197.924 308.688 101.588 13.4872 7.339 102.203 
159.717 163.448 154.643 153.348 153.255 159.902 160.556 72.6757 72.2199 70.5875 -253.268 320.191 100.752 -281.839 299.592 59.0097 -217.164 325.629 123.709 -207.906 316.095 132.563 -202.954 302.981 134.984 -198.026 308.587 101.71 13.3005 7.18221 102.276 
159.876 162.639 154.975 153.562 153.358 160.049 159.956 72.5244 72.1224 70.4559 -253.434 320.371 101.121 -281.98 300.304 59.189 -217.373 325.975 123.708 -208.17 316.37 132.734 -203.259 303.173 135.29 -198.273 308.646 101.949 13.1975 7.04922 102.103 
160.109 162.031 155.683 154.016 153.638 160.159 159.005 72.0216 71.7647 70.0354 -253.669 320.236 101.57 -282.105 301.042 59.5993 -217.56 326.125 123.652 -208.365 316.484 132.835 -203.436 303.239 135.416 -198.525 308.845 102.18 13.2453 6.91847 101.796 
160.599 161.907 156.321 154.954 154.331 160.558 158.85 71.0912 71.1626 69.4201 -254.044 319.478 102.676 -282.374 301.189 60.3735 -217.41 325.513 124.112 -208.22 315.837 133.208 -203.101 302.533 135.521 -198.769 309.118 102.511 13.3128 6.77464 102.468 
160.933 162.125 157.027 155.555 154.908 160.709 158.853 70.4894 70.8068 68.9945 -254.342 319.02 103.37 -282.538 301.124 60.7165 -217.41 325.323 124.404 -208.256 315.582 133.525 -202.995 302.212 135.67 -199.01 309.497 102.796 13.3272 6.57851 103.093 
161.049 162.718 157.677 155.992 155.413 160.641 158.288 70.2153 70.5771 68.7457 -254.378 319.077 103.597 -282.59 301.484 60.9989 -217.437 325.519 124.45 -208.357 315.66 133.703 -203.129 302.204 135.924 -199.187 309.621 103.026 13.2543 6.40297 103.201 
161.309 163.835 158.182 156.457 155.794 160.669 157.74 69.7596 70.2115 68.3493 -254.509 319.033 103.947 -282.754 301.765 61.5524 -217.282 325.369 124.659 -208.274 315.414 133.923 -203.032 301.917 136.067 -199.329 309.747 103.28 13.3096 6.26411 103.464 
161.765 164.233 158.308 156.64 155.722 160.785 157.16 69.3941 69.9892 68.1352 -254.644 318.894 104.127 -282.783 301.649 62.0803 -217.156 325.064 124.824 -208.187 315.092 134.093 -202.901 301.59 136.171 -199.405 309.663 103.471 13.3426 6.1877 103.729 
161.985 164.335 158.188 156.499 155.149 160.778 156.117 69.0056 69.7757 67.9651 -254.646 318.539 104.183 -282.69 301.473 62.6182 -216.992 324.538 124.8 -208.072 314.598 134.114 -202.775 301.134 136.175 -199.348 309.289 103.577 13.4084 6.15997 103.599 
162.096 165.365 158.21 156.543 154.891 160.73 155.197 68.5367 69.4767 67.5758 -254.715 318.243 104.375 -282.781 301.526 63.1888 -216.959 324.105 124.857 -208.014 314.195 134.225 -202.618 300.758 136.209 -199.363 309.111 103.762 13.4824 6.10493 103.366 
162.188 165.468 157.881 156.469 154.624 160.723 152.951 68.2617 69.3244 67.2256 -254.924 318.092 104.488 -282.783 302.091 64.0069 -217.128 323.698 124.946 -208.102 313.906 134.374 -202.603 300.496 136.273 -199.389 308.906 103.963 13.615 6.11278 102.312 
162.322 168.174 157.276 157.232 156.215 161.197 150.684 68.8416 69.497 66.9673 -255.375 316.661 106.271 -283.082 300.683 65.0739 -217.373 322.567 126.899 -207.652 312.621 135.414 -201.281 299.26 136.369 -199.734 309.482 104.412 13.4054 6.09039 103.896 
162.014 170.924 156.752 157.798 157.261 161.454 148.72 69.5588 69.8437 67.2498 -255.605 314.641 108.178 -283.363 298.842 65.8764 -217.376 320.75 129.067 -207.139 310.661 136.445 -200.025 297.397 136.409 -200.078 310.017 104.799 13.0008 6.06659 106.071 
161.384 170.512 156.499 158.352 157.702 161.571 147.671 70.3827 70.327 67.5893 -255.558 313.019 109.119 -283.336 297.055 65.9127 -217.033 318.93 130.591 -206.54 308.823 137.089 -198.948 295.653 136.303 -200.115 310.068 104.933 12.6438 6.12739 107.802 
160.887 169.86 156.489 158.859 157.823 161.891 146.404 71.0613 70.7135 67.9751 -255.503 311.845 109.533 -283.134 295.628 65.8821 -216.531 317.269 131.679 -205.96 307.172 137.459 -198.104 294.07 136.145 -200.079 309.926 104.966 12.346 6.25171 109.248 
160.554 165.747 156.737 159.383 157.572 162.394 144.249 71.8343 70.908 68.1787 -255.775 311.923 108.95 -282.722 295.721 65.7797 -216.536 316.894 132.304 -206.088 306.817 137.83 -198.344 293.733 136.577 -200.125 309.752 105.133 12.4508 6.36566 109.389 
159.748 159.532 156.951 159.655 157.282 162.575 140.495 72.546 71.0523 68.396 -256.349 312.843 108.138 -282.419 297.079 66.5863 -216.814 317.24 132.47 -206.63 307.202 138.051 -199.238 293.989 137.224 -200.188 309.438 105.247 12.684 6.50814 107.725 
159.391 159.321 157.029 160.085 157.327 163.292 138.599 72.867 71.0388 68.4571 -256.565 312.957 107.345 -282.191 297.028 66.6213 -216.871 316.993 132.675 -206.735 307.113 138.143 -199.488 293.911 137.432 -200.222 309.143 105.361 12.899 6.71645 107.506 
159.99 156.959 157.166 160.505 157.613 165.1 138.422 73.0504 71.0264 68.659 -256.914 313.471 106.587 -282.044 296.429 66.5646 -216.748 316.549 133.074 -206.528 306.905 138.232 -199.313 293.856 137.417 -200.267 309.072 105.512 13.1074 7.00155 108.162 
160.982 154.744 157.39 160.823 157.844 166.592 138.871 73.2811 71.064 68.9183 -257.286 313.723 106.769 -282.356 295.868 66.9426 -216.585 315.801 133.778 -206.155 306.293 138.379 -198.843 293.429 137.207 -200.454 309.264 105.659 13.1404 7.18602 109.009 
162.363 151.783 157.641 160.956 157.856 167.888 140.312 73.4972 71.1577 69.178 -257.776 314.236 106.461 -282.552 295.174 66.7442 -216.396 315.294 134.238 -206.02 305.885 138.493 -198.77 293.014 137.179 -200.663 309.146 105.793 13.197 7.40965 110.18 
163.435 150.646 157.525 160.887 157.577 168.318 141.415 73.5833 71.1669 69.3682 -257.869 314.106 106.454 -282.778 294.591 66.8528 -216.183 314.678 134.592 -205.741 305.44 138.56 -198.55 292.607 137.168 -200.691 308.95 105.881 13.2267 7.62232 110.68 
163.372 150.636 157.494 160.623 157.233 168.853 143.54 73.5885 71.1164 69.4123 -257.847 313.681 107.021 -283.179 293.397 66.811 -215.739 313.567 135.019 -205.098 304.518 138.519 -197.893 291.802 136.814 -200.715 308.741 105.896 13.2434 7.81007 111.753 
163.797 150.557 157.333 160.37 157.004 168.826 145.296 73.5599 71.0597 69.5805 -257.856 313.373 107.618 -283.739 293.005 66.8913 -215.568 312.859 135.352 -204.812 303.923 138.472 -197.648 291.281 136.58 -200.917 308.666 105.938 13.2167 7.96503 112.532 
163.753 178.708 156.519 159.07 156.209 167.598 150.067 73.0634 70.8493 70.1268 -258.243 315.477 106.267 -285.498 293.864 67.6645 -216.828 315.236 134.093 -206.572 306.219 138.297 -199.973 293.308 137.849 -201.05 307.985 105.965 13.1633 8.20425 108.972 
163.398 174.27 156.307 158.138 155.466 166.462 150.667 72.5143 70.5063 70.1336 -258.394 317.12 104.276 -286.155 296.104 68.4641 -218.124 317.62 132.199 -208.288 308.6 137.651 -202.269 295.677 138.59 -201.199 307.232 105.893 13.2796 8.29759 104.485 
162.636 174.27 155.748 157.03 154.279 165.701 150.595 72.192 70.5108 70.1774 -258.532 318.583 102.607 -286.379 298.415 69.3447 -219.107 319.481 130.544 -209.637 310.585 137.074 -204.094 297.731 138.991 -201.396 306.624 105.916 13.39 8.33042 100.451 
162.088 174.27 155.344 156.138 153.251 165.379 151.367 71.9806 70.7654 70.356 -258.649 319.219 101.926 -286.496 300.089 69.9371 -219.597 320.356 129.538 -210.326 311.632 136.789 -205.014 298.836 139.185 -201.519 306.148 105.969 13.3882 8.30042 97.857 
161.658 174.27 155.14 155.733 153.068 165.082 151.822 71.8453 71.0452 70.6766 -258.834 319.442 101.892 -286.575 301.519 70.6428 -219.874 320.853 129.003 -210.703 312.195 136.708 -205.526 299.392 139.376 -201.687 305.901 106.007 13.2573 8.18395 96.1522 
161.211 179.225 155.15 155.212 153.001 164.698 151.608 72.0465 71.4737 71.1359 -259.004 319.767 101.608 -286.688 302.761 71.1777 -220.43 321.631 128.499 -211.359 312.97 136.703 -206.431 300.146 139.753 -202.078 305.686 106.11 13.086 7.99703 94.4835 
160.891 173.208 155.084 154.654 152.904 164.385 150.794 72.212 71.8107 71.52 -259.306 320.038 101.761 -286.781 303.859 72.2187 -220.823 322.116 128.334 -211.855 313.408 136.807 -207.084 300.579 140.035 -202.533 305.654 106.193 12.9605 7.84113 93.2089 
160.811 161.805 154.856 154.323 153.071 164.299 149.313 72.3657 72.2349 71.9937 -259.594 319.735 102.37 -286.49 303.905 73.2437 -220.887 322.02 128.584 -212.009 313.277 137.147 -207.269 300.415 140.338 -202.837 305.502 106.331 12.8311 7.70254 93.0314 
160.348 155.081 153.946 153.259 152.574 163.806 148.247 73.1197 73.0651 73.02 -259.829 320.046 102.564 -286.289 304.174 73.6054 -221.423 322.75 128.471 -212.748 313.989 137.316 -208.263 301.116 140.827 -203.233 305.275 106.523 12.6691 7.55209 92.1824 
160.172 149.48 153.519 152.515 152.005 163.589 149.188 73.4558 73.4952 73.3434 -259.855 319.722 103.16 -286.244 303.008 73.3477 -221.517 322.849 128.684 -212.935 313.989 137.58 -208.518 301.061 141.047 -203.499 305.101 106.676 12.6047 7.43718 93.3913 
160.156 147.253 153.135 152.035 151.725 163.535 149.413 73.7601 73.9481 73.737 -260.154 319.29 104.047 -286.451 301.849 73.5944 -221.607 322.498 129.353 -213.017 313.579 138.117 -208.525 300.596 141.373 -203.793 304.992 106.879 12.5006 7.37823 94.5739 
159.991 148.988 152.748 151.495 151.536 163.349 150.081 74.2429 74.3842 74.1268 -260.303 319.155 104.404 -286.823 301.154 73.4469 -221.85 322.527 129.673 -213.287 313.499 138.434 -208.857 300.461 141.67 -204.044 304.746 107.027 12.4319 7.2688 95.1479 
