150.279 172.005 139.993 137.219 139.402 141.778 174.732 81.5606 80.6226 76.7785 -142.198 153.092 -22.2797 -193.271 143.912 -88.8776 -146.474 167.673 -1.54918 -133.843 179.026 -2.37883 -124.064 185.342 -12.0276 -153.588 201.974 -25.2337 11.6163 10.1224 112.714 
150.319 171.606 140.024 137.287 139.39 141.778 174.623 81.6743 80.7307 76.8861 -140.841 152.896 -22.8269 -191.868 143.695 -89.5012 -145.193 167.363 -2.1024 -132.646 178.838 -2.85036 -122.888 185.15 -12.5297 -152.48 201.757 -25.7571 11.6271 10.2255 112.692 
150.362 171.48 140.188 137.549 139.56 141.838 174.357 81.6965 80.8126 76.8711 -139.996 153.137 -23.5383 -190.897 144.024 -90.2104 -144.07 167.504 -2.76261 -131.56 179.192 -3.41569 -121.887 185.611 -13.1848 -151.678 202.009 -26.2499 11.6241 10.2999 112.807 
150.338 171.439 140.385 137.835 139.728 141.896 174.141 81.6922 80.9195 76.7904 -139.241 153.441 -24.1971 -190.194 144.395 -90.8126 -143.195 167.856 -3.34358 -130.689 179.672 -3.95441 -121.11 186.161 -13.8684 -151.073 202.357 -26.7358 11.6228 10.3252 112.945 
150.416 171.356 140.46 137.981 139.818 141.955 174.196 81.846 81.0772 76.8876 -138.256 153.719 -24.8243 -189.694 144.999 -91.5256 -142.502 168.014 -3.87706 -130.016 179.9 -4.43564 -120.466 186.399 -14.399 -150.422 202.637 -27.2363 11.6374 10.3842 113.087 
150.367 171.075 140.516 138.34 140.025 141.749 173.801 82.0276 81.2091 76.9023 -136.857 154.452 -26.141 -188.296 145.894 -92.8242 -141.312 168.382 -5.11662 -128.764 180.495 -5.49227 -119.197 187.024 -15.4851 -149.078 203.334 -28.3248 11.624 10.578 112.669 
150.455 170.886 140.634 138.721 140.351 141.884 173.486 82.2043 81.378 76.9884 -136.458 154.773 -26.3189 -187.651 145.848 -93.1033 -140.896 168.47 -5.48964 -128.321 180.903 -5.7074 -118.783 187.471 -15.7522 -148.697 203.727 -28.7072 11.6219 10.7798 112.147 
150.537 170.812 140.316 138.871 140.55 141.982 173.575 82.1723 81.353 77.0535 -135.575 155.096 -26.5571 -186.704 145.836 -93.4305 -140.064 168.657 -5.99749 -127.506 181.28 -6.11032 -117.973 187.816 -16.1464 -147.951 204.07 -29.1563 11.6276 10.9259 111.847 
150.44 170.561 140.33 138.993 140.604 141.883 173.63 82.2548 81.35 77.2062 -134.562 155.314 -27.0091 -185.816 146.131 -94.0823 -139.344 168.461 -6.65889 -126.778 181.158 -6.68584 -117.199 187.653 -16.6668 -147.099 204.193 -29.7276 11.6599 11.0088 111.614 
150.4 170.186 140.642 139.437 140.933 141.783 173.524 82.4287 81.5686 77.4671 -133.371 155.815 -27.6913 -185.135 146.811 -94.9304 -138.654 168.273 -7.46637 -126.052 181.096 -7.3184 -116.495 187.722 -17.2943 -146.351 204.495 -30.3663 11.6801 11.0842 111.454 
150.668 170.034 140.81 139.726 141.238 141.87 173.477 82.7103 81.8145 77.7519 -132.341 156.451 -28.2246 -184.469 147.463 -95.7303 -138.036 168.469 -8.06614 -125.393 181.42 -7.82679 -115.849 188.171 -17.7633 -145.659 205.089 -30.9816 11.6765 11.0987 111.294 
150.953 169.917 140.977 139.972 141.536 142.052 173.6 82.975 82.0065 77.9997 -131.248 156.857 -28.5914 -183.694 147.895 -96.4155 -137.519 168.576 -8.56133 -124.824 181.569 -8.25571 -115.245 188.357 -18.1351 -144.91 205.527 -31.5909 11.6934 11.0932 111.077 
150.923 169.743 141.307 140.31 141.845 141.91 173.693 82.9513 82.0768 78.1389 -130.159 157.458 -29.3448 -183.127 148.687 -97.2812 -137.08 168.824 -9.41758 -124.348 181.789 -8.98991 -114.731 188.588 -18.8503 -144.248 205.951 -32.3641 11.7133 11.1489 111.074 
150.866 169.282 141.619 140.722 142.072 141.695 173.497 83.1184 82.355 78.3507 -129.093 158.104 -30.1138 -182.342 149.327 -98.1366 -136.309 168.851 -10.436 -123.578 182.174 -9.75919 -113.993 189.123 -19.7022 -143.661 206.432 -33.1369 11.6102 11.4508 110.747 
151.112 168.794 141.975 141.113 142.313 141.718 173.319 83.4681 82.8058 78.6873 -127.89 158.551 -30.4785 -181.26 149.588 -99.0464 -135.428 168.523 -11.2238 -122.664 182.142 -10.2715 -113.128 189.305 -20.2219 -142.914 206.779 -33.8276 11.5524 11.6217 110.319 
151.331 168.432 142.078 141.571 142.602 141.82 173.108 83.6782 83.2072 78.9489 -126.867 158.867 -31.1528 -180.197 149.851 -99.9761 -134.414 168.175 -12.3151 -121.622 182.26 -10.9403 -112.179 189.664 -20.9524 -142.184 207.113 -34.5343 11.4696 12.0082 109.672 
151.416 168.071 142.116 141.874 142.689 141.842 173.046 83.8625 83.5952 79.2108 -125.677 159.115 -31.7751 -179.001 150.019 -100.985 -133.372 167.7 -13.4327 -120.588 182.161 -11.6364 -111.2 189.764 -21.6969 -141.387 207.279 -35.3016 11.3859 12.3835 109.126 
151.453 167.906 141.981 142.241 142.826 141.73 172.989 83.7694 83.8768 79.3462 -124.745 159.362 -32.6034 -178.154 150.503 -102.177 -132.384 167.4 -14.8012 -119.611 182.132 -12.4853 -110.28 189.918 -22.6186 -140.669 207.489 -36.0977 11.2967 12.8318 108.733 
151.639 167.952 142.07 142.453 142.869 141.899 173.168 84.0303 84.2373 79.593 -123.563 159.56 -33.4676 -177.018 150.641 -103.226 -131.393 167.199 -15.7333 -118.634 182.22 -13.2047 -109.381 190.155 -23.4137 -139.959 207.619 -36.9027 11.2349 13.0207 108.587 
151.792 167.907 141.987 142.611 142.926 142.053 173.207 84.3667 84.4832 79.8774 -122.82 159.719 -34.0054 -176.191 150.949 -104.067 -130.788 166.994 -16.6463 -118.019 182.336 -13.8691 -108.778 190.317 -24.0815 -139.336 207.926 -37.6581 11.2287 13.3558 108.049 
151.817 167.999 141.91 142.842 143.082 142.165 173.367 84.6056 84.6582 80.1084 -122.304 159.92 -34.7968 -175.759 151.681 -104.97 -130.521 166.933 -17.7349 -117.772 182.432 -14.6779 -108.492 190.452 -24.8867 -138.857 208.329 -38.4521 11.2454 13.6824 107.506 
151.894 168.111 141.335 143.16 143.194 142.307 173.282 85.0271 85.3102 80.5493 -120.731 160.641 -36.5983 -174.24 152.487 -107.113 -128.93 166.775 -20.388 -116.443 182.668 -16.56 -107.277 190.992 -26.8381 -137.824 209.139 -40.2787 11.1797 14.404 106.254 
151.82 168.522 141.004 143.174 143.193 142.271 173.316 84.9303 85.375 80.5777 -120.314 160.911 -37.703 -173.915 153.038 -108.105 -128.556 166.918 -21.5786 -116.045 182.644 -17.592 -106.932 191.065 -27.8595 -137.558 209.422 -40.9933 11.1855 14.3461 105.933 
151.79 168.777 140.811 143.252 143.273 142.139 173.254 84.7113 85.379 80.6701 -120.246 161.264 -38.5004 -173.624 153.762 -109.038 -128.592 167.353 -22.3669 -115.917 182.648 -18.3835 -106.727 191.062 -28.5753 -137.178 209.813 -41.6787 11.19 14.0554 105.944 
151.763 168.968 140.527 143.323 143.291 142.113 173.174 84.6633 85.3317 80.6179 -120.076 161.483 -39.2787 -173.197 154.083 -109.789 -128.358 167.538 -23.1864 -115.593 182.908 -19.083 -106.421 191.293 -29.2858 -136.831 210.09 -42.3039 11.2344 14.1586 105.668 
151.606 169.43 140.676 143.391 143.264 142.118 173.335 84.1082 85.1301 80.4149 -119.897 161.67 -40.4862 -172.834 154.457 -110.578 -128.133 168.449 -23.8172 -115.292 183.269 -19.9796 -106.149 191.586 -30.2295 -136.535 210.275 -42.997 11.2939 13.6311 106.268 
151.511 169.783 140.334 143.517 143.299 141.991 173.352 84.0071 85.1747 80.3518 -119.6 161.719 -41.2821 -172.503 154.595 -111.176 -127.87 168.501 -24.6812 -115.027 183.354 -20.6297 -105.918 191.651 -30.9327 -136.267 210.333 -43.6065 11.3308 13.8349 105.968 
151.466 169.96 140.197 143.472 143.142 141.888 173.271 83.9474 85.5347 80.5282 -118.939 161.654 -41.9909 -171.638 154.172 -111.657 -127.113 168.161 -25.6503 -114.164 183.36 -21.2762 -105.257 191.822 -31.6922 -135.961 210.217 -44.1478 11.3048 14.0547 105.401 
151.409 169.923 139.915 143.393 142.986 141.77 173.141 83.5728 85.7701 80.64 -118.609 161.358 -42.3375 -170.91 153.694 -111.953 -126.686 167.724 -26.6124 -113.588 183.216 -21.6805 -104.782 191.723 -32.139 -135.671 209.995 -44.5747 11.3036 14.479 104.635 
151.458 169.953 139.587 143.416 142.998 141.719 173.037 83.6847 85.8294 80.6659 -118.52 161.156 -42.6238 -170.472 153.265 -112.197 -126.613 167.281 -27.1345 -113.547 183.067 -21.897 -104.71 191.519 -32.3568 -135.525 209.789 -44.9525 11.3308 14.88 104.029 
151.59 170.044 139.424 143.455 143.077 141.712 172.986 83.6275 85.648 80.5545 -118.79 160.745 -42.8956 -170.49 153.087 -112.492 -126.96 166.936 -27.4475 -113.957 182.57 -22.0811 -104.957 190.862 -32.4541 -135.445 209.449 -45.2533 11.3864 15.0128 103.794 
151.703 170.289 139.448 143.408 143.088 141.681 173.138 83.2584 85.4064 80.3894 -118.964 160.355 -43.1442 -170.514 152.9 -112.768 -127.1 167.006 -27.55 -114.198 182.213 -22.2659 -105.085 190.354 -32.5945 -135.375 209.077 -45.501 11.4312 14.8311 104.212 
151.833 170.625 139.63 143.458 143.138 141.656 173.316 82.8557 85.1213 80.1854 -119.156 160.092 -43.304 -170.594 152.741 -112.889 -127.092 167.294 -27.4706 -114.386 182.116 -22.361 -105.199 190.117 -32.6978 -135.388 208.774 -45.6492 11.4638 14.6522 104.922 
152.028 170.659 140.257 143.507 143.158 141.545 173.26 82.5873 85.0563 80.1309 -119.214 159.737 -43.1055 -170.513 152.031 -112.849 -127.121 167.156 -27.2956 -114.483 181.88 -22.2186 -105.25 189.769 -32.5702 -135.376 208.369 -45.7515 11.4874 14.6329 105.151 
152.19 170.871 140.435 143.53 143.229 141.588 173.371 82.5283 84.9742 80.1153 -119.214 159.32 -42.8415 -170.197 151.19 -112.762 -127.087 166.706 -27.1515 -114.48 181.545 -22.0601 -105.23 189.367 -32.3793 -135.351 207.884 -45.8022 11.5156 14.7183 105.143 
152.296 171.149 140.466 143.513 143.313 141.741 173.555 82.5996 84.9027 80.0534 -119.114 158.867 -42.9102 -170.005 150.368 -112.681 -126.881 166.262 -27.0697 -114.334 181.256 -22.0845 -105.147 189.089 -32.4326 -135.413 207.339 -45.879 11.5332 14.7202 105.293 
152.27 171.372 140.25 143.509 143.359 141.761 173.623 82.6498 84.8391 79.9816 -119.426 158.402 -43.2622 -170.3 149.807 -112.667 -126.673 165.69 -27.3815 -114.254 180.927 -22.3614 -105.186 188.825 -32.7742 -135.685 206.85 -45.9521 11.5281 14.9532 105.163 
152.109 171.631 140 143.377 143.216 141.886 174.077 82.3599 84.324 79.5251 -120.215 156.854 -43.5298 -170.991 148.405 -112.496 -127.007 164.469 -27.5418 -114.76 179.793 -22.6148 -105.704 187.578 -33.0456 -136.258 205.343 -45.9623 11.5681 15.1438 105.363 
151.952 172.013 141.146 143.376 143.215 141.937 174.598 81.5237 83.6021 78.9548 -120.673 156.168 -43.6838 -171.58 147.868 -112.313 -127.807 165.328 -26.4539 -115.432 179.554 -22.5282 -106.218 187.057 -32.9233 -136.476 204.539 -45.8619 11.6305 13.8904 107.461 
151.665 172.354 140.981 143.434 143.328 141.732 174.992 81.1566 83.1204 78.5553 -120.844 155.541 -43.5277 -172.031 146.988 -111.886 -128.241 165.199 -26.0289 -115.935 179.321 -22.3568 -106.657 186.625 -32.789 -136.792 203.716 -45.7396 11.6665 13.8553 108.134 
151.585 172.812 140.957 143.533 143.448 141.711 175.298 80.8126 82.6805 78.2098 -121.244 154.884 -43.517 -172.468 146.203 -111.429 -128.772 165.19 -25.5949 -116.468 179.073 -22.2786 -107.137 186.226 -32.7291 -137.13 202.987 -45.6496 11.7041 13.6079 108.807 
151.484 172.901 141.158 143.655 143.559 141.52 175.275 80.5329 82.2594 77.9089 -121.587 154.251 -43.3571 -173.022 145.532 -111.056 -129.094 164.953 -25.4618 -117.064 178.538 -22.3922 -107.656 185.594 -32.8274 -137.492 202.304 -45.6592 11.7218 13.5824 109.164 
151.448 172.794 141.412 143.716 143.575 141.331 175.11 80.2783 81.8717 77.602 -121.927 153.59 -43.2154 -173.591 144.814 -110.765 -129.441 164.49 -25.4897 -117.543 178.02 -22.527 -108.059 184.976 -32.9512 -137.809 201.646 -45.6798 11.7266 13.6886 109.175 
151.295 172.277 142.299 143.857 143.686 140.887 174.637 80.0243 81.6639 77.5295 -122.127 152.945 -42.7012 -174.261 144.029 -110.443 -130.044 163.851 -25.3642 -118.18 177.227 -22.4258 -108.538 184.027 -32.7583 -138.038 200.951 -45.6645 11.7083 13.7659 109.008 
151.197 172.069 142.53 143.883 143.772 140.649 174.352 80.0686 81.5408 77.5894 -122.357 152.588 -42.3298 -174.544 143.355 -110.27 -130.422 163.256 -25.2897 -118.709 176.737 -22.3232 -108.972 183.45 -32.5695 -138.32 200.471 -45.687 11.7069 14.007 108.787 
151.144 172.336 142.223 143.873 143.75 140.699 174.413 80.0221 81.3089 77.4691 -122.655 152.286 -42.6988 -174.837 142.983 -110.292 -130.468 162.963 -25.4923 -118.849 176.647 -22.5606 -109.161 183.312 -32.8253 -138.595 200.088 -45.7734 11.7421 14.1803 108.887 
151.183 172.586 142.227 143.938 143.778 140.753 174.498 80.316 81.4117 77.5893 -122.8 151.908 -42.877 -174.717 142.398 -110.378 -130.193 162.548 -25.5229 -118.83 176.395 -22.6284 -109.249 183.075 -32.9353 -138.778 199.667 -45.8871 11.7994 14.3336 108.965 
151.2 172.839 142.004 144.082 143.833 140.789 174.581 80.7033 81.6678 77.7573 -122.796 151.634 -43.0422 -174.595 141.926 -110.463 -129.805 162.238 -25.5872 -118.714 176.248 -22.6917 -109.292 182.984 -33.1164 -138.957 199.365 -46.0355 11.8742 14.49 109.047 
151.203 173.243 141.968 144.216 143.901 140.874 174.818 81.1319 81.8119 77.8034 -122.808 151.458 -43.2353 -174.514 141.646 -110.576 -129.415 162.033 -25.6657 -118.64 176.19 -22.88 -109.36 183.025 -33.4174 -139.177 199.174 -46.2071 11.9202 14.6037 109.192 
151.144 173.496 141.491 144.327 143.939 140.954 174.959 81.5227 81.9275 77.8382 -123.073 151.288 -43.5446 -174.752 141.707 -110.858 -129.253 161.864 -25.9533 -118.683 176.131 -23.2187 -109.525 183.039 -33.8494 -139.478 199.099 -46.4463 11.967 14.691 109.274 
151.068 173.649 141.482 144.268 143.859 141.098 174.976 81.8911 82.0643 77.8748 -123.403 151.168 -43.9283 -174.748 141.757 -111.253 -128.912 161.817 -26.2788 -118.532 176.161 -23.6707 -109.511 183.201 -34.3782 -139.72 199.108 -46.7258 11.9536 14.6514 109.386 
151.251 173.582 141.399 144.319 143.882 141.248 174.82 82.1759 82.3012 77.9955 -123.758 151.059 -44.2054 -174.892 141.584 -111.592 -128.881 161.667 -26.5201 -118.564 176.126 -23.8933 -109.613 183.233 -34.6431 -139.936 199.106 -47.0105 11.93 14.6885 109.285 
151.409 173.583 141.615 144.359 143.965 141.502 174.819 82.2789 82.4509 78.0851 -124.094 150.89 -44.4995 -174.947 141.335 -111.931 -128.992 161.49 -26.8202 -118.657 176.077 -24.1262 -109.726 183.227 -34.8787 -140.132 199.053 -47.3251 11.8844 14.7357 109.108 
151.585 173.452 142.026 144.375 144.064 141.654 174.813 82.4014 82.7118 78.2432 -124.286 150.848 -44.6585 -174.916 141.002 -112.187 -129.051 161.494 -26.9289 -118.705 176.026 -24.2815 -109.82 183.279 -35.0647 -140.335 199.055 -47.6087 11.8333 14.5801 109.095 
151.69 173.328 142.238 144.417 144.181 141.709 174.714 82.39 82.9211 78.4399 -124.614 150.819 -44.7911 -175.019 140.826 -112.512 -129.358 161.41 -27.1262 -118.935 175.873 -24.4006 -110.039 183.191 -35.1456 -140.545 199.06 -47.8765 11.7852 14.5098 108.982 
151.665 173.341 142.624 144.558 144.282 141.7 174.758 82.1059 82.9985 78.473 -124.967 150.912 -45.3078 -175.568 141.156 -113.024 -129.782 161.83 -27.3589 -119.253 175.883 -24.7132 -110.351 183.222 -35.4824 -140.823 199.132 -48.1894 11.7637 14.1881 109.554 
151.718 173.349 143.003 144.566 144.266 141.641 174.811 81.8921 83.0856 78.5914 -125.259 150.994 -45.6369 -176.079 141.481 -113.515 -130.366 162.135 -27.4318 -119.702 175.702 -24.8965 -110.725 183.019 -35.6178 -141.05 199.169 -48.4486 11.737 13.8238 110.085 
151.77 173.392 142.793 144.61 144.257 141.623 174.888 81.7778 83.0928 78.6106 -125.592 150.922 -46.0322 -176.621 141.729 -114.063 -130.866 162.237 -27.6292 -120.123 175.477 -25.1247 -111.08 182.715 -35.8238 -141.264 199.105 -48.7331 11.7531 13.6531 110.462 
151.803 173.537 142.916 144.536 144.16 141.62 174.985 81.4456 83.0381 78.6895 -126.085 150.808 -46.3004 -177.032 141.839 -114.493 -131.622 162.562 -27.7024 -120.736 175.388 -25.2406 -111.537 182.465 -35.8535 -141.449 199.061 -49.0356 11.7511 13.4075 110.908 
151.747 173.736 143.167 144.499 144.099 141.739 175.072 81.2414 83.0344 78.7218 -126.384 150.784 -46.725 -177.135 141.867 -114.847 -131.867 162.809 -27.9642 -120.906 175.502 -25.5208 -111.692 182.545 -36.1441 -141.62 199.073 -49.3332 11.7432 13.2611 111.152 
151.763 173.849 143.274 144.431 143.981 141.867 175.071 81.2027 83.1551 78.8214 -126.575 150.728 -47.107 -176.986 141.56 -115.072 -131.96 162.852 -28.2615 -120.931 175.697 -25.7501 -111.756 182.731 -36.4185 -141.783 199.058 -49.6494 11.7312 13.2606 111.036 
151.73 173.914 143.447 144.46 143.967 142.063 174.977 81.2015 83.2777 78.8361 -126.887 150.725 -47.5226 -176.829 141.295 -115.194 -132.048 162.998 -28.5458 -120.907 176.038 -25.9882 -111.802 183.107 -36.7278 -141.963 199.135 -49.9472 11.7215 13.2262 110.84 
151.806 174.039 143.449 144.403 143.946 142.336 175.037 81.2216 83.4694 78.9648 -127.133 150.672 -47.8799 -176.656 141.186 -115.364 -132.163 163.057 -28.7545 -120.888 176.144 -26.1649 -111.837 183.257 -36.9249 -142.086 199.165 -50.1934 11.7086 13.0947 110.775 
151.848 174.05 143.536 144.305 143.92 142.558 175.054 81.3567 83.6694 79.1225 -127.349 150.643 -48.0667 -176.463 141.012 -115.508 -132.252 163.065 -28.886 -120.938 176.112 -26.3247 -111.915 183.284 -37.0851 -142.233 199.186 -50.4522 11.6915 12.9468 110.696 
151.912 174.02 143.404 144.201 143.936 142.746 175.108 81.5036 83.831 79.2268 -127.328 150.549 -48.1628 -176.149 140.641 -115.486 -132.273 162.889 -28.9112 -120.858 175.988 -26.3648 -111.889 183.211 -37.1215 -142.277 199.062 -50.5849 11.6988 12.8232 110.515 
152.01 174.027 143.116 144.164 143.973 142.945 175.204 81.5248 83.8927 79.2526 -127.338 150.48 -48.4399 -175.84 140.286 -115.541 -132.38 162.829 -28.9743 -120.815 176.018 -26.4284 -111.881 183.255 -37.1893 -142.317 198.94 -50.7397 11.7082 12.7078 110.44 
152.002 174.025 142.844 144.201 144.051 143.065 175.177 81.4885 83.8892 79.2135 -127.502 150.453 -48.626 -175.831 140.096 -115.523 -132.549 162.864 -29.0977 -120.864 176.117 -26.5742 -111.962 183.379 -37.364 -142.451 198.921 -50.8917 11.7078 12.6223 110.373 
152.131 174.134 142.675 144.185 144.141 143.218 175.288 81.5242 83.9715 79.2714 -127.45 150.441 -48.766 -175.785 139.782 -115.48 -132.668 162.926 -29.0406 -120.905 176.115 -26.6292 -112.057 183.427 -37.4327 -142.556 198.849 -50.9965 11.7223 12.4127 110.458 
152.243 174.234 142.66 144.307 144.318 143.304 175.28 81.773 84.1731 79.3681 -127.366 150.451 -48.8102 -175.691 139.469 -115.422 -132.616 162.817 -28.9877 -120.924 176.039 -26.6051 -112.136 183.426 -37.4566 -142.657 198.799 -51.0842 11.7316 12.4035 110.321 
152.435 174.278 142.775 144.451 144.457 143.398 175.182 81.8227 84.1526 79.2843 -127.556 150.46 -48.9571 -175.897 139.265 -115.44 -132.841 162.883 -28.9602 -121.197 176.051 -26.6443 -112.39 183.434 -37.5248 -142.826 198.8 -51.206 11.7491 12.3822 110.291 
152.695 174.327 143.26 144.402 144.495 143.513 175.245 81.9998 84.2431 79.3383 -127.486 150.368 -48.9429 -175.856 138.974 -115.444 -132.731 162.786 -28.8276 -121.233 175.728 -26.6687 -112.43 183.157 -37.5361 -142.873 198.671 -51.2775 11.7512 12.2373 110.351 
152.952 174.452 143.773 144.59 144.693 143.617 175.284 81.9741 84.2289 79.2653 -127.51 150.385 -49.1694 -175.927 138.76 -115.504 -132.642 162.908 -28.8255 -121.316 175.686 -26.7565 -112.552 183.159 -37.656 -142.994 198.618 -51.3804 11.7841 12.1943 110.511 
153.108 174.555 144.037 144.673 144.76 143.63 175.193 81.8168 84.0825 79.1324 -127.628 150.498 -49.3999 -176.152 138.716 -115.617 -132.806 163.03 -28.9693 -121.551 175.659 -26.947 -112.77 183.149 -37.8289 -143.155 198.662 -51.5143 11.8113 12.1539 110.523 
153.266 174.588 144.069 144.91 144.992 143.512 175.221 82.0435 84.1287 79.1076 -127.465 150.539 -49.3106 -176.331 138.577 -115.672 -132.796 162.916 -28.9443 -121.718 175.389 -26.9979 -112.962 182.947 -37.8733 -143.295 198.618 -51.5862 11.8508 12.1554 110.448 
153.349 174.593 144.162 145.081 145.099 143.404 175.244 82.0881 84.0251 79.0361 -127.415 150.647 -49.3734 -176.615 138.661 -115.794 -132.876 163.07 -28.9588 -121.985 175.335 -27.136 -113.213 182.921 -37.9914 -143.471 198.653 -51.6844 11.8725 12.1413 110.652 
153.366 174.53 144.267 145.211 145.221 143.291 175.141 82.0538 83.8383 78.9532 -127.53 150.8 -49.4168 -176.957 138.797 -115.887 -133.166 163.228 -29.0017 -122.388 175.32 -27.2716 -113.534 182.901 -38.0503 -143.641 198.754 -51.7827 11.8741 12.149 110.698 
153.35 174.346 144.194 145.286 145.323 143.21 174.948 82.2454 83.7379 78.9369 -127.65 150.863 -49.3139 -177.161 138.832 -115.977 -133.378 163.048 -29.1033 -122.724 175.181 -27.3741 -113.809 182.784 -38.0472 -143.796 198.819 -51.8718 11.882 12.2861 110.361 
153.306 174.161 144.229 145.314 145.345 143.153 174.764 82.3603 83.6637 78.9272 -127.726 150.916 -49.2687 -177.231 138.812 -116.102 -133.509 162.873 -29.2815 -122.927 175.151 -27.5133 -113.968 182.783 -38.1124 -143.915 198.883 -51.9895 11.8615 12.4235 110.023 
153.207 173.826 143.814 145.481 145.419 142.991 174.52 82.6106 83.6654 78.918 -127.901 150.996 -49.2241 -177.414 138.844 -116.248 -133.666 162.608 -29.5501 -123.123 175.205 -27.6351 -114.145 182.845 -38.2071 -144.04 199.003 -52.1521 11.8724 12.6861 109.496 
153.225 173.571 143.579 145.629 145.454 142.957 174.375 82.7331 83.6829 78.9051 -128.117 151.11 -49.3397 -177.636 138.976 -116.394 -133.818 162.714 -29.7161 -123.327 175.381 -27.7672 -114.341 183.006 -38.3599 -144.183 199.179 -52.33 11.8906 12.7875 109.361 
153.203 173.35 143.378 145.743 145.536 142.964 174.213 82.9284 83.758 78.9269 -128.325 151.211 -49.5419 -177.914 139.177 -116.65 -133.924 162.781 -29.9017 -123.488 175.449 -27.9458 -114.527 183.087 -38.5377 -144.342 199.324 -52.5283 11.9198 12.8297 109.304 
153.14 173.123 143.208 145.801 145.493 142.93 174.09 83.1425 83.859 78.9918 -128.575 151.317 -49.8032 -178.23 139.425 -116.954 -134.154 162.816 -30.0965 -123.733 175.564 -28.0952 -114.758 183.168 -38.6942 -144.508 199.474 -52.7464 11.9254 12.9287 109.204 
153.152 172.789 143.147 145.734 145.331 142.919 173.925 83.5594 84.1529 79.1808 -128.696 151.263 -49.9612 -178.226 139.423 -117.227 -134.142 162.614 -30.2388 -123.726 175.542 -28.1812 -114.773 183.138 -38.8138 -144.558 199.517 -52.9591 11.9066 13.0201 108.935 
153.165 172.476 143.231 145.706 145.253 142.997 173.812 84.0729 84.573 79.4621 -128.629 151.159 -50.0492 -177.866 139.296 -117.383 -133.8 162.244 -30.4167 -123.427 175.483 -28.2407 -114.581 183.153 -38.9412 -144.523 199.537 -53.1195 11.9029 13.162 108.469 
153.143 172.284 143.238 145.741 145.257 143.079 173.69 84.4163 84.7978 79.5944 -128.488 151.133 -50.2243 -177.526 139.231 -117.477 -133.434 162.061 -30.6557 -123.148 175.572 -28.4009 -114.407 183.29 -39.1769 -144.516 199.59 -53.2736 11.9154 13.3062 108.115 
153.196 172.154 143.449 145.634 145.221 143.21 173.534 84.5895 85.0548 79.8112 -128.414 151.25 -50.4956 -177.237 139.205 -117.604 -133.194 162.197 -30.7531 -122.961 175.676 -28.524 -114.301 183.459 -39.3236 -144.518 199.722 -53.4222 11.9131 13.2125 108.056 
153.27 172.057 143.578 145.566 145.206 143.376 173.452 84.857 85.3414 80.0733 -128.478 151.354 -50.8661 -177.015 139.273 -117.842 -133.079 162.282 -30.8923 -122.903 175.849 -28.629 -114.31 183.68 -39.4439 -144.578 199.908 -53.5881 11.9109 13.2246 107.887 
153.34 172.038 143.71 145.458 145.13 143.587 173.325 84.7092 85.4614 80.1667 -128.706 151.536 -51.3888 -176.952 139.473 -118.117 -133.188 162.722 -31.1015 -122.936 176.165 -28.8455 -114.377 184.02 -39.681 -144.689 200.155 -53.7978 11.8965 13.055 108.005 
153.385 172.13 143.647 145.225 144.956 143.754 173.29 84.7474 85.703 80.4063 -128.879 151.765 -51.8965 -176.783 139.736 -118.419 -133.253 162.98 -31.334 -122.872 176.384 -29.0536 -114.36 184.298 -39.8762 -144.752 200.417 -53.985 11.8629 12.874 107.954 
153.468 172.207 143.669 145.032 144.8 143.917 173.325 84.8186 85.9494 80.6275 -129.045 151.863 -52.2396 -176.63 139.907 -118.647 -133.381 163.155 -31.495 -122.851 176.521 -29.2136 -114.352 184.474 -40.0391 -144.797 200.622 -54.179 11.8155 12.6869 107.877 
