157.656 174.643 137.027 137.862 140.607 150.747 170.864 95.7863 90.0266 85.1167 -13.9959 159.64 -79.7491 -43.3326 150.335 -148.291 -11.4266 170.137 -55.2894 -2.96683 188.266 -52.8761 4.00837 196.811 -63.0518 -25.9884 213.359 -77.7646 13.3809 13.4926 99.4793 
157.587 174.573 137.238 137.985 140.638 150.634 170.618 95.4031 89.9473 84.9809 -13.3625 160.347 -79.612 -42.4768 151 -148.022 -10.9136 171.101 -55.0849 -2.35797 188.784 -52.7885 4.65515 197.386 -62.9375 -25.2603 214.056 -77.5792 13.3825 13.1786 99.4904 
157.835 174.374 137.486 138.059 140.659 150.835 170.429 95.217 89.8707 84.8387 -12.899 161.072 -79.6718 -41.8758 151.543 -147.923 -10.0791 172.198 -54.9368 -1.51719 189.581 -52.8577 5.5027 198.248 -63.0111 -24.5039 214.899 -77.5146 13.327 12.9032 99.5806 
158.093 174.284 137.775 138.184 140.802 151.1 170.37 94.9314 89.8151 84.7759 -12.3824 161.878 -79.8944 -41.068 152.426 -147.993 -9.48246 173.46 -54.7088 -0.808741 190.453 -52.8079 6.26142 199.108 -62.9317 -23.6722 215.795 -77.4638 13.3169 12.5787 99.9117 
158.16 174.225 138.027 138.164 140.793 151.22 170.237 94.5709 89.7094 84.6928 -11.5368 162.64 -79.724 -39.737 152.797 -147.413 -8.60492 174.8 -54.2617 0.0800457 191.312 -52.65 7.16506 199.975 -62.7373 -22.7461 216.575 -77.305 13.3177 12.1916 100.014 
158.171 174.176 138.401 138.142 140.838 151.261 170.161 94.8388 89.8946 84.9533 -10.4912 163.322 -79.029 -38.3423 153.174 -146.648 -7.76951 175.513 -53.5422 0.901827 191.854 -52.1535 8.02027 200.514 -62.2054 -21.7653 217.282 -76.9966 13.3285 11.9992 99.8607 
158.284 173.935 138.411 138.311 141.006 151.289 170.086 94.9499 89.8774 84.8684 -9.80286 164.494 -78.9498 -37.774 154.574 -146.94 -6.95273 176.349 -53.6573 1.77329 192.94 -52.0903 8.95262 201.668 -62.1207 -20.8247 218.492 -76.9359 13.2537 12.1899 99.7982 
158.176 174.113 138.463 138.35 140.996 151.159 170.232 94.3502 89.5476 84.4819 -8.59458 165.444 -79.1182 -36.8061 155.144 -146.752 -6.02452 177.757 -53.4701 2.77102 193.882 -52.1604 9.96543 202.618 -62.1735 -19.8398 219.256 -76.8543 13.2529 11.8233 100.161 
157.976 174.241 138.544 138.166 140.862 150.912 170.229 94.7536 89.6802 84.5979 -7.25061 166.311 -78.7925 -35.5692 155.374 -146.155 -5.15628 178.141 -53.2437 3.65112 194.277 -52.0268 10.8837 203.014 -61.9825 -18.805 219.933 -76.8056 13.2623 11.8069 99.4937 
157.962 174.069 138.735 138.323 141.003 150.714 169.931 94.6303 89.5461 84.4413 -6.13451 167.543 -79.0553 -34.2543 156.336 -146.336 -4.34676 179.129 -53.3862 4.51014 195.115 -52.1778 11.7996 203.891 -62.0666 -17.7122 220.95 -76.9506 13.2972 11.7374 99.3183 
157.745 174.127 138.775 138.207 140.872 150.478 169.798 94.6634 89.5451 84.399 -4.5184 168.418 -78.7023 -32.6727 156.519 -145.806 -3.46628 179.882 -52.9365 5.38386 195.695 -51.8486 12.7422 204.438 -61.7126 -16.5256 221.574 -76.8305 13.344 11.6533 99.0927 
157.373 174.165 138.945 138.244 140.97 150.091 169.631 94.5265 89.4081 84.281 -3.23584 169.599 -78.4788 -31.1152 157.553 -145.682 -2.55617 180.835 -52.9066 6.35104 196.536 -51.8288 13.7679 205.308 -61.6247 -15.3293 222.55 -76.7921 13.3691 11.6109 98.9228 
157.141 174.152 139.111 138.511 141.228 149.744 169.742 94.299 89.3531 84.2026 -1.81801 170.982 -78.4179 -30.007 158.862 -146.006 -1.44466 182.023 -52.9055 7.5188 197.492 -51.8716 14.9278 206.326 -61.6418 -14.1354 223.618 -76.8362 13.391 11.4545 99.3751 
157.019 174.199 139.189 138.466 141.184 149.587 169.747 94.1988 89.2864 84.1301 -0.503145 171.961 -78.3885 -28.5704 159.453 -145.867 -0.566225 182.899 -52.701 8.49784 198.162 -51.7658 15.9952 206.984 -61.4674 -12.8819 224.413 -76.8139 13.3959 11.2936 99.3152 
156.89 174.168 139.337 138.535 141.26 149.249 169.893 94.2159 89.5356 84.3444 0.855243 172.913 -78.3793 -27.2302 160.368 -146.152 0.401619 183.671 -52.3199 9.53025 198.58 -51.4336 17.0793 207.4 -61.1024 -11.5659 225.077 -76.6983 13.4233 11.1053 99.8264 
156.913 174.185 139.667 138.884 141.622 149.255 169.973 94.2868 89.6376 84.4341 2.34956 174.261 -78.586 -26.0327 162.147 -146.675 1.96902 184.662 -52.3394 11.0853 199.553 -51.4268 18.5618 208.551 -61.0508 -10.2368 226.208 -76.5532 13.3781 11.0081 100.307 
156.563 174.627 140.111 139.21 141.96 148.944 170.265 94.0408 89.7381 84.5708 5.45121 176.283 -78.1143 -22.8946 164.184 -146.783 4.65531 186.681 -51.7815 13.7816 201.268 -50.9329 21.2799 210.262 -60.5785 -7.36682 227.922 -76.2968 13.4049 10.8591 101.154 
156.461 174.668 140.192 139.277 142.019 148.769 170.233 94.0412 89.7835 84.6348 6.33245 177.131 -77.9621 -21.4564 164.98 -146.803 5.46237 187.393 -51.7209 14.7257 201.866 -50.8253 22.362 210.813 -60.4208 -5.99967 228.822 -76.3386 13.4097 10.8274 100.96 
156.531 174.619 140.365 139.54 142.291 148.761 170.507 94.0744 89.9814 84.7929 7.4431 178.209 -78.004 -20.338 166.193 -147.176 6.65623 188.35 -51.4346 15.9998 202.605 -50.558 23.7008 211.581 -60.1412 -4.58163 229.77 -76.2684 13.3609 10.6922 101.553 
156.417 174.69 140.483 139.55 142.28 148.781 170.418 94.0254 90.0225 84.8613 8.84278 179.012 -77.7414 -18.8535 166.844 -146.878 7.49405 189.128 -51.1382 16.8895 203.199 -50.2341 24.7069 212.106 -59.7735 -3.2125 230.547 -76.168 13.4241 10.6708 101.446 
156.066 174.812 140.356 139.553 142.329 148.383 170.551 93.6516 89.8685 84.7733 10.3163 179.989 -77.7394 -17.5529 167.965 -147.065 8.44938 189.953 -51.2217 17.9006 203.701 -50.2748 25.8039 212.602 -59.7363 -1.86193 231.277 -76.0933 13.4868 10.5841 101.627 
156.037 174.837 140.448 139.517 142.323 148.415 170.551 93.8666 89.9379 84.8712 11.7406 180.819 -77.6184 -16.0952 168.971 -146.868 9.69728 190.585 -51.0328 19.1326 204.395 -50.0765 27.0947 213.318 -59.4874 -0.508692 232.081 -75.9127 13.4436 10.6202 101.502 
155.827 174.806 140.356 139.629 142.395 148.206 170.473 93.4794 89.7068 84.6566 13.3667 181.757 -77.6359 -14.7388 169.816 -146.765 10.4461 191.54 -50.9393 19.9652 205.104 -49.9092 28.0569 213.93 -59.2604 0.773775 232.79 -75.7843 13.5088 10.5903 101.536 
155.876 174.842 140.368 139.652 142.453 148.283 170.388 93.2845 89.5529 84.5557 14.7032 182.722 -77.7888 -13.3825 170.486 -146.321 11.5769 192.647 -50.7625 21.1148 206.134 -49.7307 29.2639 214.907 -59.0423 2.06603 233.655 -75.6173 13.4985 10.5873 101.355 
156.057 174.87 140.414 139.767 142.563 148.491 170.377 93.2266 89.4291 84.4433 15.8318 183.659 -77.7339 -11.7478 171.616 -146.089 13.0999 193.888 -50.5739 22.6 207.457 -49.5499 30.752 216.261 -58.8403 3.41351 234.752 -75.4171 13.4328 10.5978 101.395 
156.016 174.911 140.168 139.654 142.464 148.552 170.436 92.7107 89.0712 84.0986 17.3978 183.968 -77.7307 -10.1719 171.432 -145.425 14.6703 194.783 -50.3329 24.0908 208.279 -49.3686 32.1896 217.046 -58.6684 4.66528 235.029 -75.0816 13.4323 10.5569 101.311 
156.109 174.956 140.153 139.594 142.372 148.643 170.475 92.5731 88.9099 83.9701 18.5802 184.472 -77.3352 -8.78877 171.519 -144.679 15.921 195.659 -49.8889 25.3589 209.225 -48.9757 33.5454 217.907 -58.2793 6.03681 235.633 -74.8232 13.3576 10.5847 101.194 
156.025 175 140.172 139.773 142.531 148.587 170.463 92.1993 88.6644 83.7603 20.3303 184.885 -76.9193 -7.27093 171.495 -143.792 17.5584 196.569 -49.3829 26.9605 210.087 -48.5729 35.0632 218.672 -57.9795 7.36675 235.978 -74.3748 13.3928 10.5505 101.274 
156.112 174.937 140.089 139.706 142.489 148.611 170.318 91.7057 88.1374 83.2629 22.4474 185.12 -76.5762 -5.74351 170.756 -142.628 18.9163 197.168 -48.9761 28.219 210.714 -48.2535 36.3189 219.225 -57.6582 8.53798 235.995 -73.9679 13.4061 10.6086 100.903 
156.222 174.885 140.099 139.646 142.465 148.728 170.228 91.527 87.9571 83.0973 23.8427 185.37 -76.3882 -4.27143 170.538 -141.961 20.0756 197.734 -48.6419 29.3576 211.285 -47.9538 37.5418 219.73 -57.3317 9.83939 236.247 -73.8191 13.3597 10.6506 100.757 
156.458 174.934 140.103 139.765 142.642 148.831 170.372 91.4503 87.9353 83.001 25.2598 185.767 -76.6341 -2.89034 170.786 -141.916 21.6731 198.323 -48.475 30.8728 211.866 -47.8518 38.9807 220.387 -57.2728 11.022 236.523 -73.6884 13.2984 10.5859 101.061 
156.758 175.116 140.201 139.95 142.863 148.967 170.512 90.9975 87.6168 82.6436 26.8249 186.159 -76.9426 -1.68192 170.673 -141.642 22.8336 199.158 -48.3006 31.9844 212.579 -47.7454 40.0694 221.056 -57.2003 12.0609 236.716 -73.5646 13.3159 10.5449 101.304 
157.005 175.155 140.132 139.862 142.813 149.062 170.682 90.8984 87.7293 82.7352 28.7268 186.54 -76.9019 0.144823 171.111 -141.417 24.256 199.807 -47.8202 33.5583 212.886 -47.2439 41.8569 221.234 -56.6208 14.1895 237.117 -73.3502 13.2692 10.4277 101.568 
157.077 175.251 140.089 140.001 142.992 149.12 170.711 90.5234 87.5434 82.5286 29.3218 186.815 -77.0045 0.599236 171.318 -141.198 24.9697 200.48 -47.8483 34.3388 213.34 -47.3192 42.6403 221.713 -56.6905 14.8695 237.434 -73.3302 13.2355 10.2901 101.706 
157.028 175.286 139.95 139.851 142.869 149.028 170.58 90.2396 87.2463 82.288 30.247 186.822 -76.6223 1.44631 170.929 -140.374 25.9098 200.781 -47.7561 35.3219 213.662 -47.2954 43.6351 222.02 -56.6356 15.7554 237.556 -73.1562 13.1969 10.2493 101.283 
156.999 175.182 139.871 139.883 142.912 148.737 170.343 89.8809 86.9245 81.9831 31.1136 187.166 -76.6116 2.1159 171.237 -140.273 26.6062 201.064 -47.8782 36.0562 213.851 -47.3665 44.3938 222.237 -56.6311 16.5898 237.783 -72.9896 13.2368 10.2443 101.115 
157.116 174.914 139.784 139.82 142.88 148.815 170.239 89.8068 86.9016 81.9771 31.7799 187.282 -76.6603 2.7861 171.703 -140.344 27.4472 201.16 -47.8183 36.9381 213.835 -47.2539 45.3221 222.24 -56.4451 17.5373 237.937 -72.7672 13.2111 10.2058 101.184 
157.327 174.868 139.677 139.711 142.778 149.049 170.289 89.936 87.013 82.0657 32.401 187.161 -76.4093 3.5945 171.638 -140.031 28.512 201.15 -47.5433 38.0445 213.837 -47.0151 46.4347 222.279 -56.1975 18.5096 238.014 -72.5233 13.1306 10.1271 101.119 
157.375 174.904 139.671 139.666 142.722 149.094 170.22 89.8622 86.962 82.0049 33.4004 186.845 -75.9926 4.64898 170.963 -139.372 29.6756 201.132 -47.1681 39.1889 213.835 -46.7226 47.5398 222.238 -55.9733 19.5182 237.789 -72.239 13.1337 10.1067 101.018 
157.443 174.75 139.717 139.598 142.598 149.016 170.064 89.8974 87.0363 82.0449 34.6013 186.568 -75.7455 5.86785 170.615 -139.242 30.6307 200.791 -46.8799 40.103 213.459 -46.4074 48.4755 221.829 -55.6627 20.5573 237.434 -72.0188 13.1695 10.1308 101.075 
157.381 174.534 139.643 139.626 142.633 148.925 169.917 89.8976 87.1356 82.1302 35.6625 186.515 -75.4939 6.95072 170.727 -139.231 31.6415 200.545 -46.7436 41.1345 213.109 -46.215 49.5167 221.521 -55.4545 21.6469 237.304 -71.8232 13.1872 10.095 101.152 
157.265 174.614 139.531 139.579 142.616 148.813 169.912 89.9258 87.0515 82.0314 36.8382 186.268 -74.9744 7.99402 170.139 -138.712 32.6139 200.23 -46.4896 42.1014 212.92 -45.9824 50.4743 221.294 -55.2675 22.5998 237.033 -71.6028 13.2227 10.1399 100.899 
157.129 174.576 139.602 139.716 142.715 148.743 169.616 89.7514 86.865 81.8407 37.9298 186.186 -74.5707 9.16106 170.031 -138.388 33.5553 200.141 -46.4202 43.0706 212.882 -45.8714 51.4511 221.269 -55.164 23.5936 236.972 -71.4175 13.2567 10.1562 100.703 
157.028 174.376 139.769 139.909 142.85 148.747 169.279 89.4538 86.6676 81.6207 38.8759 186.156 -74.5038 10.1244 170.231 -138.446 34.3242 200.179 -46.4363 43.8593 212.773 -45.8271 52.277 221.169 -55.0937 24.4758 236.913 -71.2717 13.302 10.1235 100.799 
157.004 174.228 139.976 140.124 143.034 148.816 168.987 89.1677 86.5279 81.481 39.7485 186.308 -74.7294 11.0008 170.495 -138.518 34.9754 200.531 -46.4483 44.5302 212.908 -45.8276 52.9928 221.271 -55.0824 25.2767 236.992 -71.2526 13.3334 10.0688 101.002 
156.894 174.235 139.976 140.162 143.081 148.788 168.915 89.0783 86.4653 81.4205 40.5947 186.248 -74.3853 11.6721 170.197 -138.161 35.5334 200.672 -46.2981 45.1285 212.989 -45.7104 53.6513 221.264 -54.9983 25.9944 236.964 -71.2512 13.3417 10.0466 100.97 
156.796 174.273 139.937 140.151 143.094 148.801 168.783 88.9625 86.3062 81.3109 41.4451 186.17 -73.9514 12.4098 169.815 -137.581 36.1488 200.693 -46.173 45.7575 213.064 -45.6043 54.2898 221.312 -54.8933 26.6487 236.943 -71.1331 13.3689 10.0541 100.648 
156.632 174.073 139.94 140.157 143.062 148.695 168.388 88.8103 86.166 81.1956 42.0551 186.141 -73.6517 13.0529 169.699 -137.283 36.5541 200.568 -46.223 46.1991 212.874 -45.6036 54.7744 221.127 -54.8472 27.2775 236.943 -71.0541 13.4324 10.0587 100.247 
156.63 174.01 140.132 140.395 143.262 148.786 168.199 88.7614 86.1169 81.1113 42.5479 186.337 -73.7657 13.6601 170.17 -137.441 37.0783 200.706 -46.2903 46.7369 212.939 -45.6238 55.3318 221.234 -54.8457 27.8806 237.148 -71.0076 13.4573 10.0406 100.243 
156.577 174.077 140.151 140.425 143.29 148.752 168.296 88.8881 86.2886 81.2287 43.0469 186.399 -73.721 14.3041 170.584 -137.647 37.5663 200.659 -46.1889 47.228 212.785 -45.4839 55.835 221.109 -54.7014 28.4618 237.224 -70.9136 13.4815 10.0167 100.379 
156.552 174.154 140.162 140.439 143.338 148.766 168.426 88.8613 86.3263 81.2539 43.6713 186.432 -73.7918 14.7765 170.641 -137.664 38.0836 200.735 -46.1028 47.7195 212.745 -45.4187 56.3146 221.048 -54.6491 28.9599 237.161 -70.8865 13.5091 10.0037 100.578 
156.647 174.23 140.275 140.471 143.406 148.895 168.467 88.9024 86.3527 81.2972 44.3115 186.582 -73.7616 15.3408 170.425 -137.324 38.6096 201.037 -45.9561 48.246 213.059 -45.3425 56.854 221.319 -54.6063 29.4766 237.299 -70.9449 13.4701 9.99864 100.519 
156.761 174.364 140.327 140.447 143.408 149.11 168.531 88.8346 86.2362 81.2215 44.9035 186.607 -73.66 15.7986 169.962 -136.798 39.0999 201.319 -45.8651 48.7481 213.406 -45.3253 57.3762 221.609 -54.6099 29.9497 237.399 -70.9844 13.431 9.99835 100.265 
156.782 174.414 140.387 140.487 143.457 149.219 168.478 88.7639 86.1496 81.1805 45.3882 186.779 -73.6254 16.0962 169.98 -136.531 39.5982 201.634 -45.8655 49.2668 213.754 -45.3686 57.9091 221.914 -54.6745 30.4122 237.6 -71.0238 13.3976 9.99478 100.206 
156.827 174.322 140.438 140.544 143.491 149.253 168.389 88.7105 86.0796 81.1514 45.5812 187.025 -73.659 16.3039 170.294 -136.587 39.8022 201.843 -45.9113 49.5317 213.95 -45.3728 58.26 222.047 -54.6386 30.9266 237.882 -71.0935 13.4003 10.0298 100.199 
156.9 174.218 140.382 140.568 143.475 149.327 168.399 88.6718 86.0204 81.1071 45.7718 187.131 -73.7911 16.6722 170.778 -136.883 40.2174 201.887 -46.0806 50.0006 213.99 -45.4722 58.7761 222.121 -54.6666 31.4916 238.108 -71.1291 13.3866 10.0177 100.208 
156.935 174.245 140.304 140.489 143.393 149.269 168.581 88.8927 86.2323 81.2932 46.2261 187.103 -73.8899 17.3284 171.085 -137.354 40.5596 201.55 -46.0496 50.334 213.593 -45.3741 59.13 221.743 -54.529 32.061 238.046 -71.1027 13.4524 10.0267 100.327 
156.947 174.344 140.23 140.495 143.409 149.202 168.723 88.9179 86.2327 81.2475 46.9237 187.149 -73.959 17.994 171.278 -137.588 41.2882 201.471 -46.1078 51.0039 213.579 -45.4085 59.739 221.819 -54.5713 32.5658 238.026 -71.0449 13.4551 10.0433 100.444 
157.008 174.512 140.148 140.375 143.29 149.226 168.852 89.0494 86.2596 81.272 47.6365 187.125 -73.8035 18.5953 170.858 -137.25 41.9982 201.371 -46.0301 51.7019 213.66 -45.3638 60.4085 221.896 -54.5476 33.1473 238.011 -71.0473 13.4216 10.0789 100.173 
157.032 174.583 140.105 140.302 143.176 149.207 168.903 88.9719 86.131 81.1244 48.4974 187.147 -73.7536 19.1571 170.331 -136.942 42.718 201.404 -46.0791 52.398 213.813 -45.4648 61.0666 222.043 -54.6788 33.6955 237.958 -71.1402 13.4128 10.101 99.9707 
157.171 174.657 140.181 140.35 143.203 149.362 168.866 89.032 86.1228 81.1316 49.1195 187.315 -73.9235 19.6651 170.511 -136.994 43.3891 201.416 -46.2341 53.0879 213.927 -45.5882 61.752 222.215 -54.7613 34.3174 238.137 -71.1892 13.3706 10.0994 99.7757 
157.258 174.531 140.21 140.377 143.201 149.42 168.779 89.1319 86.1445 81.1471 49.6415 187.583 -74.179 20.2316 170.924 -137.368 43.8836 201.4 -46.4293 53.592 213.957 -45.7159 62.3001 222.26 -54.8414 34.9883 238.36 -71.3248 13.3875 10.1394 99.7256 
157.423 174.476 140.252 140.451 143.305 149.486 168.827 89.2432 86.2278 81.2137 50.4893 187.892 -74.6049 20.839 171.431 -137.947 44.3445 201.431 -46.6136 54.0357 213.958 -45.8147 62.7756 222.253 -54.9035 35.6785 238.523 -71.4884 13.4544 10.1887 99.8681 
157.474 174.658 140.19 140.428 143.32 149.567 169.127 89.1798 86.1513 81.0962 51.5758 187.959 -74.7577 21.5561 171.404 -138.056 45.2867 201.541 -46.6999 54.9037 214.128 -45.9377 63.5691 222.475 -55.0555 36.3119 238.486 -71.5437 13.453 10.1883 100.052 
157.582 174.934 140.299 140.477 143.39 149.727 169.303 89.0145 85.9696 80.935 52.4816 188.085 -74.9167 22.1812 171.274 -137.87 46.1587 201.899 -46.7452 55.7447 214.542 -46.0647 64.3631 222.893 -55.2083 36.926 238.578 -71.5926 13.4142 10.1768 100.104 
157.725 175.243 140.352 140.416 143.366 149.928 169.562 89.0073 85.9536 80.9382 53.1513 188.117 -74.9501 22.6673 171.003 -137.548 46.9113 202.18 -46.6379 56.4968 214.869 -46.053 65.1264 223.163 -55.2371 37.585 238.664 -71.6594 13.3401 10.1756 100.138 
157.783 175.27 140.435 140.449 143.384 149.961 169.518 88.9318 85.883 80.9059 53.7989 188.422 -74.9401 23.2385 171.251 -137.542 47.686 202.501 -46.7265 57.3017 215.22 -46.1792 65.9367 223.522 -55.3683 38.3407 238.988 -71.776 13.3018 10.1698 100.206 
157.863 175.238 140.534 140.594 143.519 150.004 169.567 88.6109 85.6705 80.7027 54.4929 188.954 -75.4536 23.8627 171.76 -137.942 48.3717 203.185 -46.9772 57.9855 215.736 -46.4502 66.6548 224.004 -55.6301 39.1232 239.386 -72.0344 13.3263 10.1557 100.603 
157.891 175.228 140.598 140.776 143.677 149.927 169.536 88.2222 85.39 80.4343 55.7828 189.446 -75.808 24.6579 171.971 -138.05 49.4251 203.798 -47.2266 58.9918 216.284 -46.7502 67.5785 224.584 -55.96 39.8966 239.635 -72.1768 13.3609 10.1227 100.871 
157.89 175.397 140.574 140.718 143.669 149.948 169.741 87.823 85.0581 80.1082 56.8856 189.487 -75.9363 25.4659 171.801 -137.921 50.496 204.27 -47.3039 59.9962 216.736 -46.9236 68.5334 225.032 -56.1584 40.6187 239.61 -72.1944 13.3229 10.0984 101.173 
157.897 175.606 140.425 140.468 143.438 150.063 169.945 87.6769 84.9551 80.0247 57.7883 189.151 -75.8987 26.0969 171.505 -137.816 51.372 204.175 -47.3322 60.8547 216.606 -47.0114 69.3858 224.883 -56.24 41.3539 239.331 -72.1925 13.2841 10.0679 101.314 
157.986 175.642 140.415 140.354 143.327 150.118 169.987 87.6367 85.0046 80.1297 58.3311 188.964 -75.8703 26.8956 171.505 -137.925 52.0168 204.103 -47.3049 61.5626 216.435 -46.9927 70.1646 224.68 -56.1772 42.205 239.238 -72.2552 13.2358 10.0183 101.513 
158.038 175.668 140.499 140.483 143.434 150.078 169.927 87.3133 84.8491 80.025 58.8717 189.154 -76.1325 27.711 171.752 -138.116 52.5565 204.531 -47.4237 62.2007 216.604 -47.1116 70.9006 224.784 -56.2472 43.1186 239.423 -72.421 13.2509 9.94285 101.773 
158.178 175.618 140.655 140.692 143.63 150.104 169.852 86.9926 84.6493 79.8172 60.0191 189.47 -76.3875 28.5245 171.72 -138.102 53.4654 205.079 -47.5063 63.1041 216.994 -47.2416 71.7944 225.17 -56.3855 43.9774 239.588 -72.5131 13.2645 9.88748 101.98 
158.174 175.572 140.623 140.644 143.545 149.978 170.099 86.8401 84.5986 79.7082 61.0155 189.314 -76.4655 29.1853 171.432 -138.263 54.463 205.128 -47.462 64.0546 216.929 -47.2697 72.7015 225.1 -56.4462 44.7903 239.331 -72.5274 13.2562 9.85452 102.441 
158.238 175.723 140.643 140.583 143.462 150.022 170.354 86.8501 84.6561 79.7695 61.6535 189.06 -76.6914 29.617 171.308 -138.541 54.9744 204.91 -47.528 64.6655 216.574 -47.3405 73.3969 224.67 -56.4765 45.6478 239.109 -72.6714 13.2444 9.80745 102.595 
158.268 175.867 140.717 140.604 143.467 150.028 170.352 86.8372 84.68 79.8606 62.0988 189.096 -76.7437 30.4152 171.406 -138.549 55.3006 205.025 -47.5567 65.1465 216.497 -47.3414 74.0367 224.472 -56.405 46.6339 239.285 -72.8248 13.2671 9.76096 102.403 
158.374 175.91 140.762 140.73 143.604 150.058 170.299 86.7692 84.638 79.8258 62.9651 189.412 -76.8557 31.3862 171.22 -138.296 56.2775 205.466 -47.651 66.1739 216.848 -47.4976 75.0863 224.803 -56.5753 47.6649 239.607 -73.0213 13.2473 9.69523 102.167 
158.336 175.853 140.762 140.781 143.583 149.906 170.115 86.7285 84.6385 79.8161 64.0776 189.608 -76.9293 32.3634 171.111 -138.27 57.4529 205.537 -47.8701 67.3313 216.9 -47.766 76.1777 224.921 -56.882 48.6353 239.726 -73.1842 13.2621 9.64562 102.001 
158.32 175.751 140.829 140.854 143.594 149.905 169.946 86.5819 84.5756 79.771 65.001 189.746 -76.9887 32.9857 171.373 -138.442 58.187 205.656 -48.028 68.1333 216.9 -47.8862 77.0299 224.915 -56.9565 49.5775 239.863 -73.261 13.2683 9.60563 102.037 
158.347 175.675 140.74 140.698 143.426 150.046 169.693 86.6348 84.6068 79.8703 65.7391 189.56 -76.8378 33.9938 171.293 -138.159 58.8427 205.431 -47.9556 68.8355 216.671 -47.7394 77.7986 224.667 -56.7111 50.512 239.829 -73.1359 13.2801 9.60449 101.601 
158.479 175.499 140.644 140.628 143.389 150.271 169.338 86.6962 84.5903 79.8786 66.271 189.441 -76.5447 34.9426 170.941 -137.495 59.7375 205.448 -47.7354 69.7504 216.758 -47.5407 78.7435 224.723 -56.5079 51.4297 239.906 -72.9995 13.2499 9.6071 101.185 
158.521 175.303 140.629 140.587 143.322 150.334 169.111 86.9321 84.792 80.0588 67.1657 189.387 -76.3785 35.9855 170.887 -137.364 60.7467 205.229 -47.6317 70.7357 216.619 -47.4332 79.7114 224.634 -56.4205 52.3524 239.915 -72.951 13.2314 9.59895 101.009 
158.474 175.226 140.585 140.473 143.135 150.28 168.99 87.0969 84.9355 80.2043 68.0612 189.244 -76.2334 37.0656 170.869 -137.341 61.6174 204.886 -47.61 71.6095 216.329 -47.3808 80.5828 224.379 -56.3527 53.2968 239.842 -72.92 13.2563 9.59484 100.801 
158.581 175.123 140.666 140.559 143.173 150.396 168.682 87.1064 84.9187 80.2346 68.7503 189.49 -76.5672 38.001 171.404 -137.636 62.2071 204.944 -47.8953 72.2785 216.354 -47.5522 81.3448 224.389 -56.4308 54.2897 240.148 -73.0804 13.2792 9.607 100.512 
158.685 175.014 140.532 140.485 143.102 150.541 168.605 87.1346 84.9713 80.2974 69.3774 189.457 -76.7699 38.9758 171.486 -137.601 63.1861 204.998 -47.9752 73.27 216.387 -47.6181 82.3385 224.438 -56.4735 55.2371 240.235 -73.1238 13.2539 9.57408 100.382 
158.647 174.894 140.483 140.501 143.076 150.528 168.336 87.1509 85.0126 80.3426 70.4725 189.656 -76.7641 40.1727 171.954 -137.747 64.3957 205.043 -48.213 74.5052 216.53 -47.8044 83.5343 224.687 -56.6582 56.2943 240.503 -73.1671 13.2207 9.5317 100.245 
158.484 174.787 140.441 140.458 142.938 150.36 168.06 87.0523 84.9567 80.3255 71.6339 189.815 -76.4951 41.2145 172.181 -137.676 65.418 204.989 -48.4532 75.5981 216.539 -47.9878 84.6219 224.759 -56.8126 57.3779 240.722 -73.2141 13.2307 9.49522 99.9226 
158.502 174.717 140.504 140.444 142.891 150.481 167.759 87.0052 84.898 80.3151 72.8872 189.942 -76.5521 42.2932 172.413 -137.698 66.3638 204.995 -48.7038 76.5799 216.606 -48.174 85.6242 224.841 -56.9486 58.4753 240.913 -73.3319 13.2558 9.50479 99.6119 
158.568 174.456 140.466 140.487 142.891 150.633 167.408 86.9249 84.9183 80.3173 73.7644 190.141 -76.9251 43.4204 172.967 -138.088 67.4209 205.212 -49.0527 77.6992 216.744 -48.4621 86.7781 225.002 -57.2084 59.622 241.193 -73.5766 13.2327 9.44119 99.6648 
