154.497 176.992 155.773 162.986 162.191 152.228 177.415 63.9429 62.2228 60.8378 238.412 182.473 -57.5669 225.205 170.235 -123.921 226.652 209.101 -34.2195 238.007 214.768 -29.1406 249.854 219.827 -32.57 232.277 229.941 -51.654 20.8197 10.671 115.903 
154.68 176.888 155.762 163.163 161.907 152.495 177.605 63.7019 61.9395 60.6052 239.083 182.708 -57.4143 225.97 170.632 -123.619 227.591 209.239 -33.852 238.897 215.105 -28.8125 250.696 220.196 -32.2051 232.663 230.131 -51.2019 20.7436 10.6706 116.167 
154.905 176.79 155.941 163.442 161.57 152.766 177.571 63.3799 61.5683 60.3501 239.806 182.913 -57.2791 226.918 171.032 -123.442 228.653 209.368 -33.5547 239.868 215.449 -28.5719 251.582 220.571 -31.9115 233.092 230.34 -50.767 20.7052 10.7285 116.45 
155.03 176.695 156.096 163.734 161.159 152.856 178.008 63.0634 61.1498 60.0797 240.344 183.084 -57.066 227.657 171.424 -123.175 229.659 209.534 -33.1671 240.797 215.807 -28.2862 252.353 220.914 -31.5947 233.466 230.468 -50.2923 20.841 10.7751 116.947 
155.08 176.874 156.309 163.905 160.783 153.078 178.004 62.8799 60.8379 59.7988 241.155 183.199 -56.6021 228.293 171.617 -122.762 230.751 209.754 -32.6514 241.803 216.273 -27.9413 253.341 221.359 -31.2654 233.883 230.668 -49.805 20.7066 10.8283 117.349 
155.22 177.01 156.853 164.487 160.624 153.256 178.027 62.493 60.3339 59.452 241.72 183.318 -56.4575 228.809 171.789 -122.654 231.556 209.924 -32.3334 242.56 216.572 -27.7249 254.065 221.571 -30.9721 234.248 230.72 -49.3319 20.7317 10.8878 117.808 
155.683 177.039 157.287 164.692 160.196 153.395 178.078 62.2948 60.0628 59.4173 241.823 183.287 -56.198 228.987 171.811 -122.371 231.965 210.116 -31.8914 242.977 216.753 -27.3885 254.528 221.51 -30.5062 234.562 230.743 -48.8632 20.5818 10.9156 118.239 
156.032 177.239 157.365 164.487 159.507 153.332 177.972 62.5276 60.2748 59.6907 241.746 183.224 -55.8982 229.033 171.62 -122.029 232.098 210.087 -31.2606 243.163 216.64 -26.8287 254.872 221.117 -29.8528 234.841 230.656 -48.395 20.1575 10.8468 118.426 
156.213 177.5 157.35 164.177 158.708 153.272 178.15 62.5771 60.3532 59.8878 241.638 183.096 -55.4241 229.126 171.596 -121.414 232.178 210.026 -30.7023 243.278 216.507 -26.2722 255.12 220.714 -29.1544 235.101 230.58 -47.8557 19.8233 10.8226 118.407 
156.286 177.64 157.273 163.861 157.975 153.074 177.997 62.7054 60.5405 60.1837 241.436 182.901 -54.9316 229.057 171.229 -120.566 231.997 209.887 -30.1379 243.165 216.237 -25.6694 255.17 220.135 -28.3954 235.275 230.384 -47.3238 19.4821 10.7567 118.063 
156.204 177.792 157.089 163.582 157.505 153.232 178.401 62.7396 60.5155 60.324 241.479 182.384 -54.0685 229.017 170.928 -119.636 232.202 209.687 -29.3994 243.369 216.126 -25.0031 255.418 219.899 -27.6352 235.375 230.168 -46.6453 19.3046 10.7464 117.987 
156.268 177.691 157.417 163.546 156.884 153.341 178.861 62.3503 60.12 60.1962 241.537 181.781 -53.4233 229.186 170.509 -118.954 232.284 209.281 -28.8275 243.467 215.681 -24.4572 255.537 219.29 -26.9174 235.399 229.632 -45.8923 19.2967 10.7476 118.268 
156.078 177.789 157.767 163.705 156.554 153.392 178.91 61.9607 59.8248 60.1469 241.674 181.62 -53.0207 229.31 170.055 -118.167 232.326 208.958 -28.3254 243.521 215.316 -23.9042 255.65 218.771 -26.2191 235.416 229.167 -45.1735 19.2684 10.7364 118.314 
155.867 178.001 158.118 163.876 156.113 153.319 178.69 61.519 59.4982 59.9794 241.631 181.333 -52.4998 229.266 169.469 -117.385 232.265 208.488 -27.8026 243.527 214.758 -23.2665 255.766 218.04 -25.4101 235.474 228.616 -44.341 19.1826 10.666 118.173 
155.302 177.783 158.202 164.034 155.935 153.096 179.221 61.247 59.2565 59.819 241.605 181.061 -51.825 229.245 169.167 -116.591 232.296 208.009 -27.1719 243.629 214.25 -22.5479 255.895 217.441 -24.5938 235.458 228.099 -43.4957 19.2032 10.5512 118.123 
154.79 178.439 158.27 164.165 155.718 153.019 179.451 60.9754 58.9309 59.5903 242.032 180.678 -50.8745 229.544 168.791 -115.744 232.827 207.492 -26.3268 244.166 213.822 -21.7465 256.31 217.065 -23.7987 235.613 227.567 -42.5579 19.417 10.4967 118.436 
154.314 174.27 158.144 164.123 155.404 153.02 177.987 60.783 58.5346 59.2107 242.232 180.018 -49.8316 229.58 168.331 -114.743 233.36 206.696 -25.3936 244.703 213.303 -20.9903 256.634 216.734 -23.1387 235.502 226.885 -41.605 19.7263 10.4228 118.758 
154.094 174.27 158.759 164.506 154.904 153.073 177.987 59.975 57.643 58.6453 242.229 179.2 -49.0252 229.379 167.068 -113.585 233.426 205.954 -24.8449 244.755 212.578 -20.5853 256.721 215.922 -22.5638 235.329 225.933 -40.6936 19.8425 10.5428 118.861 
154.068 174.27 159.071 164.851 154.943 153.308 177.987 59.5725 57.069 58.5584 241.322 178.288 -48.6976 228.787 165.965 -112.519 232.797 204.95 -24.4921 244.227 211.312 -20.1108 256.221 214.291 -21.6858 235.328 225.052 -40.0108 20.0091 10.6106 117.819 
153.88 174.27 159.291 164.904 154.642 153.313 177.988 59.0688 56.6821 58.4519 240.822 177.396 -48.107 228.172 164.951 -111.51 232.209 204.009 -24.0587 243.736 210.153 -19.5507 255.903 212.871 -20.8827 235.079 223.992 -39.2248 19.9348 10.5736 117.53 
153.32 174.27 159.181 164.448 153.561 153.419 177.988 58.7322 56.6168 58.5551 240.491 175.837 -46.1047 227.468 163.177 -109.258 231.917 202.513 -22.4702 243.716 208.432 -17.7857 256.188 210.759 -18.9216 235.219 222.452 -37.4394 19.5516 10.2232 117.182 
153.241 174.27 159.294 164.29 153.166 153.638 177.988 58.5379 56.6053 58.7967 239.687 174.969 -45.4951 226.282 162.331 -108.496 230.728 201.919 -22.1297 242.657 207.469 -17.3016 255.377 209.301 -18.2107 235.012 221.706 -36.8816 19.3315 10.2361 116.755 
153.277 174.27 158.907 163.988 153.155 153.59 177.988 58.6494 56.812 58.95 239.828 173.805 -44.0934 226.004 161.365 -107.682 230.269 200.904 -21.3302 242.264 206.468 -16.3993 255.078 208.295 -17.2534 234.912 220.876 -36.0654 19.0878 10.138 116.407 
153.406 174.27 158.699 163.746 152.992 153.626 177.988 58.5498 56.7326 58.8254 240.09 172.735 -42.8957 225.913 160.252 -106.734 230.025 199.919 -20.5137 242.073 205.548 -15.5856 254.948 207.444 -16.4359 234.641 219.981 -35.1984 19.0376 10.0327 116.292 
153.248 174.27 158.794 163.697 153.006 153.691 177.988 58.3556 56.5606 58.7934 241.077 171.804 -41.5577 226.586 159.247 -105.649 230.646 199.11 -19.5932 242.675 205.077 -14.8005 255.568 207.16 -15.7453 234.571 219.252 -34.3401 19.0526 9.92725 116.63 
153.307 174.27 158.728 163.36 151.945 153.372 177.989 58.2073 56.3422 58.8455 241.691 170.922 -40.0582 226.506 158.436 -104.577 230.808 198.468 -18.8799 242.965 204.49 -14.2667 255.867 206.389 -15.2289 234.501 218.636 -33.6411 19.1278 9.76638 116.728 
153.355 174.408 158.343 162.837 150.917 152.894 178.037 58.6213 56.6622 59.3184 242.335 170.254 -38.2999 226.097 157.757 -103.545 231.052 198.096 -17.8307 243.248 204.191 -13.4139 256.195 205.876 -14.4836 234.627 218.351 -32.9161 19.0843 9.70459 116.593 
153.227 176.154 157.914 162.426 150.399 152.453 179.536 59.0601 57.0196 59.5755 243.09 169.623 -36.6464 226.359 156.716 -102.14 231.488 197.608 -16.7867 243.69 203.963 -12.5508 256.697 205.729 -13.8099 234.688 218.1 -32.1705 18.935 9.59141 115.874 
153.397 176.058 157.865 162.293 149.8 152.201 179.04 59.2073 57.1241 59.826 243.276 169.145 -35.6619 225.979 155.879 -101.123 231.345 197.282 -16.0826 243.665 203.588 -11.9153 256.764 205.172 -13.1378 234.781 217.815 -31.4993 18.8304 9.47619 115.222 
153.479 176.403 157.885 162.149 149.375 151.943 177.165 59.5688 57.4804 60.3042 242.581 168.901 -35.1602 225.157 155.564 -100.449 230.541 197.027 -15.5612 243.033 202.972 -11.2333 256.192 204.064 -12.3149 234.957 217.672 -30.9212 18.8018 9.38015 114.143 
153.476 177.049 157.773 162.328 149.674 151.759 176.66 60.1551 57.8291 60.4438 241.749 168.658 -34.5328 224.061 155.217 -99.7804 229.786 196.797 -14.8248 242.343 202.467 -10.4399 255.457 203.178 -11.5438 234.972 217.462 -30.3528 18.9657 9.42609 113.287 
153.378 177.999 157.68 162.412 150.462 151.427 175.994 60.8342 58.3524 60.6833 240.571 168.184 -33.8506 222.809 154.813 -99.3695 228.513 196.365 -14.2037 241.178 201.609 -9.66105 254.214 201.881 -10.8037 234.925 216.984 -29.8786 19.1507 9.44737 112.551 
153.18 178.624 157.509 162.373 151.286 151.183 175.549 61.4681 58.8711 60.8086 239.078 167.908 -33.4842 221.534 154.307 -98.6817 226.888 195.987 -13.7261 239.619 200.738 -8.93938 252.589 200.555 -10.0983 234.777 216.447 -29.4572 19.3903 9.51436 111.507 
152.79 179.063 157.198 161.945 152.358 150.841 174.735 62.4491 59.9057 61.5486 236.773 167.861 -33.9822 220.384 154.287 -98.3975 224.514 195.64 -13.7177 237.243 199.664 -8.40959 250.127 198.794 -9.4796 234.725 215.856 -29.3299 19.6545 9.58125 110.082 
152.65 179.641 156.823 161.745 153.8 150.392 174.468 63.3342 60.7271 62.072 235.318 167.876 -34.4716 219.84 154.342 -98.2921 222.624 195.303 -13.7824 235.3 198.775 -7.95894 247.842 197.553 -9.13397 234.704 215.291 -29.1617 20.4418 9.58437 108.752 
152.475 179.623 156.371 161.571 155.131 149.957 174.27 63.879 61.3349 62.4035 234.553 168.146 -35.2416 220.011 154.252 -98.0374 221.307 194.961 -14.038 233.892 198.005 -7.62345 246.053 196.76 -8.99649 234.839 214.764 -28.9856 21.4455 9.5046 107.374 
152.27 178.665 156.058 161.407 156.223 149.624 174.105 64.1954 61.842 62.8982 234.187 168.782 -36.3383 220.49 154.474 -97.9325 220.288 194.963 -14.5078 232.675 197.589 -7.48886 244.513 196.234 -8.95451 235.193 214.468 -28.8388 22.3377 9.5095 106.17 
152.102 178.239 155.765 161.904 157.456 149.289 174.965 64.1092 61.9158 62.8668 235.131 169.3 -36.7637 221.473 154.566 -97.9203 220.327 194.858 -14.7577 232.563 197.505 -7.30862 244.258 196.353 -8.74431 235.582 214.375 -28.6268 22.6378 9.55379 105.496 
152.047 178.112 155.727 162.579 158.767 149.02 175.711 63.738 61.7677 62.6946 236.5 169.799 -36.8635 222.703 154.783 -97.9975 220.732 195.08 -15.034 232.785 197.821 -7.23496 244.335 196.8 -8.61639 236.108 214.537 -28.4227 22.8957 9.71069 105.176 
152.155 178.359 155.611 163.308 159.9 148.805 176.619 63.2384 61.3908 62.253 238.097 170.022 -36.5986 224.022 154.854 -97.9259 221.553 195.19 -15.156 233.489 198.188 -7.13966 244.898 197.514 -8.51481 236.611 214.749 -28.1965 23.1985 9.85034 104.959 
152.193 178.527 155.785 164.297 161.229 148.746 177.474 62.6323 60.7352 61.3863 239.805 170.167 -36.2107 225.236 154.827 -97.8246 222.741 195.253 -15.1052 234.643 198.6 -7.043 245.929 198.428 -8.5004 237.113 214.967 -27.9746 23.6404 9.96062 105.007 
152.265 178.351 156.058 165.227 162.939 148.783 178.196 62.0743 60.1295 60.3289 241.622 170.359 -35.6722 226.732 154.964 -97.8525 224.102 195.364 -14.8789 235.985 199.1 -6.831 247.268 199.603 -8.43588 237.667 215.273 -27.7075 24.0568 10.0479 105.516 
152.361 178.081 156.392 165.885 163.984 148.635 178.527 61.6789 59.661 59.4069 243.045 170.782 -35.2698 228.281 155.471 -98.15 225.162 195.577 -14.6747 237.034 199.496 -6.62916 248.416 200.543 -8.28618 238.18 215.652 -27.4103 24.2546 10.0635 106.17 
152.356 177.838 156.886 166.371 164.52 148.295 178.439 61.3546 59.1739 58.6974 243.899 171.221 -35.1646 229.265 156.059 -98.3499 225.784 195.802 -14.6233 237.672 199.692 -6.59147 249.116 201.039 -8.2214 238.567 215.909 -27.1726 24.512 10.0406 106.498 
152.36 177.651 157.319 166.725 165.1 148.218 177.86 61.0125 58.8217 58.2905 244.717 171.68 -35.1769 230.25 156.952 -98.5509 226.384 196.13 -14.6805 238.218 199.922 -6.56632 249.757 201.507 -8.10285 239.107 216.259 -26.9333 24.6786 10.0919 106.667 
152.366 177.852 157.535 167.159 166.09 148.075 177.922 60.7603 58.4599 57.9137 245.385 172.054 -34.9892 230.857 157.741 -98.6788 226.877 196.364 -14.6043 238.771 200.132 -6.43902 250.373 202.106 -7.90529 239.51 216.545 -26.6669 24.9612 10.0329 106.883 
152.548 177.991 157.739 167.416 166.5 147.984 178.348 60.5477 58.1393 57.7748 245.685 172.271 -34.6144 231.261 158.532 -98.699 227.284 196.661 -14.3443 239.233 200.316 -6.20118 250.842 202.38 -7.56877 239.937 216.737 -26.3235 25.1801 10.0041 107.474 
152.606 177.909 158.115 167.484 166.64 147.793 177.568 60.7157 58.3024 58.2667 245.578 172.462 -34.3093 231.318 159.224 -98.4007 227.242 197.111 -14.157 239.197 200.456 -5.96122 250.891 202.195 -7.17925 240.507 216.935 -26.0256 25.0572 9.98555 107.422 
152.503 177.565 158.387 167.885 167.552 147.652 177.671 60.6595 58.18 58.5521 245.738 172.464 -33.9442 231.646 159.692 -98.2226 227.518 197.31 -13.9739 239.519 200.505 -5.70743 251.192 202.331 -6.76017 241.06 216.968 -25.7164 25.3163 9.92336 107.553 
152.497 177.626 158.635 168.104 167.857 147.566 177.144 60.7671 58.192 58.7675 245.925 172.507 -33.7934 232.171 160.034 -98.0426 227.771 197.531 -13.8143 239.792 200.552 -5.48977 251.522 202.258 -6.39372 241.654 217.038 -25.4251 25.3067 9.86666 107.426 
152.215 177.73 158.699 168.33 168.307 147.492 176.994 60.8723 58.1395 58.6742 246.361 172.515 -33.0782 232.611 160.268 -97.5476 228.451 197.666 -13.3579 240.535 200.75 -5.05075 252.362 202.55 -5.93144 242.365 217.2 -25.0688 25.4242 9.82354 107.402 
152.039 177.646 158.869 167.877 167.443 147.443 175.947 61.3381 58.4663 59.1873 246.014 172.551 -33.0552 232.552 160.42 -97.0174 228.379 197.856 -13.1891 240.408 200.702 -4.90284 252.241 202.025 -5.73579 242.951 217.302 -24.8036 25.2423 9.90585 106.466 
151.752 177.622 158.725 167.708 166.944 147.326 175.394 61.6682 58.6763 59.4834 246.13 172.59 -32.9044 232.904 160.417 -96.6712 228.693 197.944 -12.9954 240.711 200.7 -4.69032 252.538 201.812 -5.47896 243.572 217.408 -24.5653 25.0541 9.91397 105.779 
151.663 178.108 158.426 167.534 166.346 147.175 175.366 61.9639 58.8034 59.623 246.358 172.422 -32.5434 233.048 160.056 -96.1266 229.108 197.881 -12.6093 241.162 200.693 -4.37505 252.941 201.716 -5.16108 244.01 217.434 -24.2765 24.8505 9.9197 105.105 
151.625 178.467 158.475 167.831 166.445 147.16 175.808 62.0474 58.8928 59.753 247.006 172.265 -32 233.625 159.859 -95.9682 229.8 197.907 -12.1734 241.841 200.847 -3.97456 253.573 201.966 -4.79824 244.526 217.528 -23.9497 24.8235 9.95938 105.116 
152.396 178.967 158.664 167.703 166.043 147.129 176.509 63.0806 59.6778 60.6198 247.181 172.154 -31.5349 234.072 159.598 -95.6349 230.165 197.797 -11.4123 242.178 200.859 -3.37212 253.741 201.922 -4.29783 245.273 217.804 -23.6493 24.7161 10.0439 104.546 
152.374 178.59 158.776 167.652 165.568 147.247 176.376 63.1331 59.6989 60.6967 247.776 172.119 -31.2291 234.719 159.644 -95.4224 230.778 197.802 -11.0454 242.722 200.893 -3.08624 254.205 201.896 -4.03192 245.72 217.88 -23.3175 24.6918 10.1341 104.514 
152.196 178.428 158.732 167.619 165.173 147.288 176.406 63.1009 59.7701 60.9478 248.28 172.188 -30.973 235.305 159.952 -95.0322 231.295 197.87 -10.7202 243.173 200.953 -2.76375 254.55 201.862 -3.67722 246.142 217.956 -22.974 24.5807 10.1847 104.529 
151.95 178.715 158.674 167.444 164.29 147.141 176.87 63.246 59.9022 61.3359 248.295 172.444 -31.0726 235.814 160.348 -94.7151 231.403 197.958 -10.4799 243.218 200.95 -2.55024 254.457 201.414 -3.39684 246.461 217.959 -22.6627 24.3832 10.2858 104.496 
151.752 178.719 158.459 167.205 163.787 146.95 177.245 63.4392 60.1188 61.7177 248.039 172.507 -30.9024 236.102 160.618 -94.2782 231.344 197.875 -10.1355 243.102 200.79 -2.1969 254.253 200.891 -3.01605 246.696 217.826 -22.2855 24.2599 10.3739 104.494 
151.389 178.8 158.298 166.986 163.88 146.83 177.463 63.4679 60.2477 61.8785 247.912 172.638 -30.6183 236.332 160.723 -93.7507 231.443 197.867 -9.73846 243.161 200.727 -1.77169 254.296 200.726 -2.62621 246.967 217.719 -21.9005 24.3298 10.4112 104.655 
151.11 178.414 158.512 167.119 164.641 146.977 177.634 63.0701 60.0864 61.6736 248.282 172.682 -30.1322 236.943 160.944 -93.564 231.897 197.853 -9.3589 243.568 200.745 -1.28751 254.767 200.952 -2.19573 247.188 217.674 -21.4404 24.5783 10.4181 105.34 
150.775 177.922 158.585 167.112 165.125 147.169 177.798 62.4686 59.6686 61.0398 248.965 172.922 -29.6132 237.78 161.33 -93.4181 232.727 197.852 -8.95 244.381 200.844 -0.813242 255.704 201.369 -1.77277 247.488 217.795 -20.9335 24.7754 10.4049 106.136 
150.399 177.284 158.66 167.08 165.254 147.261 177.566 61.9294 59.269 60.4957 249.543 173.182 -29.2445 238.527 161.712 -93.2975 233.539 197.886 -8.63467 245.166 200.901 -0.464604 256.582 201.588 -1.45294 247.866 217.902 -20.493 24.9145 10.3962 106.772 
150.168 177.111 158.796 167.158 165.795 147.351 177.832 61.3349 58.8221 59.8133 250.305 173.134 -28.5314 239.283 161.883 -93.1004 234.477 197.774 -8.13625 246.127 200.936 0.0591817 257.646 202.073 -0.985745 248.136 217.931 -19.9455 25.1987 10.3188 107.546 
150.192 177.713 158.71 167.108 165.991 147.489 177.781 60.9537 58.5133 59.1852 250.878 173.143 -27.7169 239.703 161.905 -92.6217 235.317 197.821 -7.49682 247.055 201.097 0.645695 258.728 202.58 -0.477668 248.413 218.1 -19.3827 25.2178 10.1908 108.065 
150.248 178.097 158.648 167.047 166.086 147.761 177.276 60.558 58.1908 58.4749 251.684 173.318 -27.1237 239.984 161.923 -92.1331 236.389 197.873 -6.87161 248.191 201.314 1.21744 260.007 203.146 -0.0294523 248.836 218.335 -18.8489 25.3038 10.0903 108.4 
150.619 178.224 159.02 167.188 165.907 148.058 177.446 60.3248 57.7994 58.1688 252.325 173.547 -26.8746 240.336 161.911 -91.6233 237.592 197.937 -6.32419 249.399 201.557 1.64814 261.101 203.551 0.414226 249.642 218.66 -18.4114 25.5935 10.1606 108.301 
150.725 178.507 159.12 167.036 165.024 148.047 176.629 60.152 57.537 58.0292 252.437 173.836 -26.8037 240.176 162.162 -91.1679 238.045 198.142 -5.96206 249.878 201.625 1.93439 261.549 203.38 0.762196 249.99 218.8 -17.9353 25.5449 10.1122 108.091 
150.695 178.93 159.05 166.902 164.573 147.924 176.301 60.1581 57.3636 57.7793 252.502 173.862 -26.4291 239.835 162.088 -90.4227 238.435 198.107 -5.37222 250.354 201.583 2.4044 262.046 203.276 1.21545 250.202 218.782 -17.4012 25.5763 10.0128 107.783 
150.623 179.003 159.103 166.741 164.477 148.112 176.137 60.0831 57.084 57.2416 252.771 173.602 -25.63 239.371 161.666 -89.6058 238.92 197.941 -4.60315 250.963 201.584 2.9721 262.758 203.384 1.65972 250.27 218.694 -16.8123 25.706 9.93188 107.749 
150.675 178.847 159.15 166.503 164.082 148.389 175.412 60.0558 56.9079 56.8637 253.091 173.242 -24.7309 239.212 161.281 -88.8737 239.397 197.855 -3.81332 251.536 201.636 3.55312 263.449 203.468 2.16078 250.335 218.654 -16.217 25.4919 9.85779 107.888 
150.655 178.536 159.201 166.349 163.644 148.779 174.652 60.2144 56.8701 56.6994 253.314 172.817 -23.6942 238.914 160.667 -87.982 239.839 197.801 -2.88161 252.083 201.806 4.18787 264.14 203.625 2.73068 250.351 218.665 -15.653 25.0022 9.80927 108.001 
150.795 178.581 159.256 166.125 162.469 148.878 173.582 60.3666 56.8476 56.8311 253.445 172.522 -23.1545 238.683 160.2 -87.2357 240.062 197.799 -2.2956 252.377 201.834 4.56711 264.5 203.277 3.20413 250.494 218.616 -15.2127 24.412 9.79364 107.711 
150.615 178.905 159.207 165.842 161.2 148.757 171.91 60.729 57.1407 57.3505 253.499 172.614 -22.9849 238.386 160.031 -86.3664 240.044 197.867 -1.86651 252.346 201.859 4.94646 264.503 202.829 3.73858 250.731 218.709 -14.7999 23.8286 9.85194 106.699 
150.617 179.018 159.265 165.93 160.506 148.972 171.759 60.8044 57.1349 57.4241 253.972 172.635 -22.6606 238.854 160.003 -85.9782 240.623 197.891 -1.35911 252.892 201.987 5.37927 265.117 202.768 4.24502 251.13 218.815 -14.3389 23.5657 9.91163 106.59 
150.608 178.952 159.477 166.014 159.781 149.043 171.756 60.6911 56.9718 57.4724 254.394 172.677 -22.5024 239.424 160.051 -85.9249 241.084 197.959 -1.04814 253.296 202.063 5.64277 265.547 202.626 4.64875 251.48 218.865 -13.9001 23.405 10.0074 106.626 
150.619 178.927 159.538 165.948 159.048 149.128 171.856 60.6671 56.9136 57.5592 254.829 172.746 -22.355 239.925 160.251 -85.7757 241.537 198.034 -0.705152 253.729 202.127 5.93714 266.054 202.465 5.07434 251.894 218.919 -13.5041 23.1631 10.0385 106.739 
150.689 178.699 159.447 165.746 158.553 149.3 172.275 60.9385 57.0606 57.7033 255.208 172.54 -21.7119 240.28 159.997 -85.3679 241.986 197.861 0.0415988 254.228 202.173 6.51484 266.678 202.528 5.67624 252.124 218.896 -13.0333 22.8186 9.98166 107.039 
150.927 178.605 159.515 165.387 156.983 149.331 171.805 61.3927 57.4124 58.2364 255.154 172.382 -20.8407 240.369 159.904 -84.5158 242.063 197.916 1.0536 254.389 202.113 7.38586 267.036 201.862 6.75447 252.669 218.855 -12.1621 22.0828 9.97011 106.996 
151.256 178.295 159.11 165.181 156.424 149.357 172.63 61.7832 57.8173 58.6389 255.038 172.494 -20.3025 240.695 160.312 -84.4518 242.108 198.095 1.5421 254.416 202.334 7.86703 267.106 201.899 7.26695 252.89 219.13 -11.8498 21.7201 10.0286 107.25 
151.442 178.241 158.923 165.003 155.751 149.298 172.864 62.0384 57.9749 58.8767 255.215 172.662 -19.8839 241.051 160.598 -84.1754 242.32 198.283 2.00347 254.596 202.512 8.27407 267.247 201.892 7.70601 253.241 219.359 -11.4416 21.634 10.1269 107.168 
151.617 178.167 158.958 165.107 155.265 149.4 173.158 61.9807 57.9733 59.0055 255.838 173.01 -19.5448 241.884 161.011 -84.1176 243.032 198.517 2.39882 255.212 202.814 8.69182 267.81 202.109 8.127 253.779 219.689 -10.9904 21.682 10.2434 107.336 
151.91 178.213 159.068 165.133 154.643 149.442 172.946 62.0688 57.998 59.1396 256.1 173.481 -19.6499 242.456 161.355 -84.1681 243.369 198.893 2.64008 255.507 203.077 8.92959 268.053 202.096 8.36889 254.348 220.005 -10.6532 21.85 10.3493 107.285 
152.007 178.39 159.006 165.12 154.406 149.356 172.841 62.4123 58.3795 59.7104 255.973 173.981 -19.7775 242.654 161.697 -83.9825 243.296 199.278 2.87086 255.394 203.224 9.26716 267.838 201.872 8.71135 254.94 220.259 -10.3361 21.9939 10.4148 106.844 
152.251 178.375 158.792 165.051 154.544 149.298 173.165 62.7698 58.8443 60.2599 255.863 174.469 -20.0701 243.236 162.083 -84.0181 243.151 199.527 3.03427 255.187 203.218 9.64716 267.478 201.67 9.06444 255.534 220.403 -10.0032 22.2231 10.438 106.5 
152.512 178.505 158.396 164.926 154.871 149.426 173.752 62.8823 59.0376 60.5301 255.713 174.985 -20.7072 243.921 162.487 -83.9568 242.997 199.616 3.09304 254.997 203.06 9.98755 267.021 201.526 9.35694 255.988 220.401 -9.60173 22.6984 10.3958 106.09 
152.596 178.628 157.968 164.469 155.835 149.158 174.13 63.4568 59.7993 61.5367 254.773 175.268 -21.453 244 162.942 -83.6585 241.915 199.702 3.05403 253.792 202.645 10.2851 265.504 200.915 9.55912 256.305 220.138 -9.25687 23.2522 10.4263 105.302 
152.696 178.284 157.608 163.955 156.894 148.82 174.24 64.3264 60.8934 62.9172 253.329 175.517 -22.474 243.913 163.228 -83.5649 240.292 199.649 2.79056 251.984 202.022 10.4359 263.382 200.014 9.58062 256.438 219.677 -9.03597 23.7873 10.4542 104.269 
152.656 177.836 157.101 163.228 157.762 148.337 174.574 65.6903 62.4989 64.6905 251.792 175.59 -23.1028 243.664 163.226 -83.2175 238.335 199.338 2.81432 249.803 201.257 10.8522 260.991 199.066 9.91058 256.339 219.018 -8.72045 23.8909 10.4459 103.243 
