172.011 121.26 114.572 112.339 103.098 163.644 71.1338 69.5048 104.509 89.5953 21.4899 193.192 268.95 -15.3507 179.586 259.21 -36.99 179.505 256.348 -64.3935 174.268 246.363 -75.5238 165.028 268.674 -39.6177 179.097 309.421 7.07242 13.8286 5.4076 
157.3 119.896 164.103 153.682 164.45 153.025 137.429 162.064 156.012 158.531 -78.5403 200.191 296.486 -64.1149 221.764 249.819 -26.9172 223.985 222.368 6.36345 227.791 240.421 36.5523 215.775 265.79 -20.9822 175.569 313.509 16.0662 12.5325 20.6919 
154.298 165.704 155.839 162.817 167.167 153.592 162.011 164.075 160.296 158.226 -74.4024 212.509 285.351 -54.6352 226.336 222.406 -20.3742 229.422 209.978 9.51131 228.942 227.808 34.9345 219.09 255.077 -18.3701 186.288 304.35 12.8638 8.77183 12.0412 
154.486 171.319 166.217 165.608 152.421 155.151 168.761 170.951 157.397 149.478 -69.3771 220.178 276.901 -50.0661 224.651 209.794 -19.8182 228.234 199.847 8.80602 234.891 220.883 31.7847 227.329 249.463 -17.3638 193.184 298.442 9.56047 10.6828 8.13922 
154.732 175.355 172.15 157.418 148.292 152.625 174.785 172.199 159.296 154.878 -67.1207 227.903 260.587 -51.2454 225.59 191.756 -20.5556 234.043 184.488 11.2488 242.456 203.689 34.8522 236.321 231.986 -15.851 204.746 284.822 9.9536 12.2285 9.0561 
155.701 173.461 179.864 162.149 154.268 152.022 173.639 172.059 164.735 159.617 -67.6837 232.096 253.177 -52.231 225.791 183.352 -20.8944 236.913 176.995 11.5233 241.603 193.099 36.5701 236.614 222.488 -15.3293 209.105 277.793 11.1981 10.5162 10.4589 
157.517 175.906 179.916 168.807 158.426 152.566 173.848 177.061 172.862 166.061 -67.575 237.789 248.468 -52.2306 225.977 176.331 -21.896 237.39 169.156 8.25775 238.512 184.494 37.5234 235.944 215.049 -15.0016 213.151 271.789 14.5607 7.84338 10.1451 
158.028 177.121 179.832 176.514 172.173 152.958 175.094 175.768 176.458 170.621 -66.1212 246.878 244.398 -50.9153 228.747 169.62 -22.6457 241.952 162.954 5.42118 239.873 176.243 35.695 236.589 206.57 -14.6174 217.033 265.734 14.6116 6.14142 9.87258 
157.389 178.05 180 179.121 174.986 155.166 174.755 179.999 176.532 174.646 -65.4284 255.849 230.848 -50.2228 233.491 155.775 -22.452 249.11 149.083 3.35185 243.359 160.063 34.2225 240.346 189.498 -13.6168 222.736 251.667 14.007 6.1919 10.9363 
158.726 177.904 179.999 179.592 179.978 156.103 174.914 180 175.981 172.495 -65.3403 256.213 221.129 -50.667 235.88 147.622 -21.8534 248.256 139.995 3.71649 245.787 151.593 34.8065 243.124 180.453 -13.1471 224.511 243.003 13.9865 4.52438 9.63948 
159.374 176.644 180 176.752 177.294 156.54 174.801 180 174.183 169.978 -65.3568 254.246 210.805 -51.3619 237.366 139.664 -21.8574 247.738 131.496 5.87661 248.786 143.542 36.1771 246.613 171.962 -12.4338 226.204 234.318 13.3925 5.50194 9.25932 
160.601 177.751 173.121 173.451 175.551 156.394 175.422 171.195 169.994 168.245 -64.9665 251.427 201.319 -51.0786 238.602 132.391 -20.4257 247.74 122.96 8.09418 252.372 135.991 36.268 248.685 163.478 -11.5295 227.628 225.949 11.8352 6.8034 9.66294 
161.285 176.929 171.325 170.831 173.053 155.928 173.116 169.547 168.445 167.367 -64.1804 251.378 193.037 -50.9636 239.478 125.383 -19.6997 246.721 114.259 11.2908 253.934 127.675 37.8238 251.362 155.842 -10.5396 229.093 217.968 10.6421 9.20407 9.66305 
160.568 173.963 170.7 169.981 169.966 155.301 172.344 167.674 167.922 164.704 -63.2796 251.63 184.12 -50.1661 236.089 116.469 -19.8502 246.98 106.406 11.9118 252.824 119.184 39.1119 252.046 148.183 -9.62991 229.607 209.733 11.2832 9.16764 10.316 
164.259 175.067 179.826 169.06 169.535 157.53 172.622 172.987 166.271 163.576 -62.5973 251.484 176.48 -47.3396 235.703 109.801 -17.2763 244.821 99.0897 11.1472 253.783 113.605 38.0676 253.483 141.096 -8.61613 231.066 203.164 10.4936 8.33389 9.52275 
171.582 177.781 179.938 173.227 172.102 161.867 174.395 177.604 168.764 160.608 -57.1703 251.161 165.766 -42.5642 234.203 101.422 -15.865 245.896 92.3727 1.5759 250.745 107.605 29.3356 247.643 133.859 -7.7431 231.694 196.616 9.93599 3.62426 8.77199 
169.302 179.41 179.87 172.408 174.828 161.083 175.911 174.95 170.789 162.131 -57.3312 248.408 156.849 -42.2851 232.506 92.9812 -15.7086 240.534 83.1122 2.91524 246.043 97.9594 30.8226 244.379 124.928 -6.93526 231.047 187.844 10.4521 2.89568 6.77296 
168.249 179.916 177.811 173.848 173.737 160.126 174.746 175.301 172.924 166.483 -58.467 244.676 149.271 -43.0825 230.907 86.273 -14.9781 237.645 75.5727 3.23616 243.304 89.1954 35.3352 243.047 114.407 -5.91715 231.009 180.402 13.5103 2.81897 7.42155 
166.225 178.338 179.409 174.227 176.178 161.412 174.5 177.077 173.247 165.136 -57.2596 242.697 143.177 -43.0267 229.141 79.5598 -14.176 235.134 69.1899 3.85195 241.96 81.5682 37.7228 246.767 107.615 -5.14962 232.09 173.685 14.6247 3.15217 7.75834 
166.377 178.554 179.851 175.102 176.626 163.369 173.946 176.524 171.6 165.386 -57.5006 240.532 135.9 -42.5716 226.695 72.4705 -13.4878 231.44 61.7084 6.90585 241.047 74.1272 38.5721 246.863 100.507 -4.49739 231.424 166.529 13.0448 4.56626 7.66312 
166.462 178.089 180 175.499 173.32 166.752 174.385 180 175.523 167.953 -57.6842 237.399 124.465 -40.1348 224.057 59.5315 -13.1195 225.758 49.3429 5.31414 234.203 60.8982 42.3752 247.475 88.4007 -2.91844 231.368 154.239 19.0048 3.4883 5.68393 
169.973 179.64 179.972 177.613 178.584 166.483 174.737 178.538 175.099 166.495 -58.4263 233.978 118.252 -42.4539 222.197 53.9787 -12.5659 224.084 43.4857 5.51506 232.883 55.09 45.6596 247.018 81.8615 -2.16277 230.107 148.115 21.8887 3.71746 7.90231 
171.392 178.965 179.966 178.506 179.263 165.7 174.817 177.445 174.052 165.408 -57.882 231.577 112.079 -43.3553 220.543 48.4614 -11.5473 223.141 37.7961 7.72614 232.608 49.63 46.7338 245.864 75.4567 -1.33794 228.611 142.17 20.7834 3.87706 9.39202 
171.599 177.244 179.996 177.457 178.856 165.715 174.98 178.213 173.884 165.283 -56.196 231.636 107.017 -41.6656 218.449 43.3325 -10.9655 221.12 33.0804 8.50953 230.148 44.6576 47.5956 243.596 70.5197 -0.483509 228.1 137.186 20.8515 3.4697 8.52675 
171.296 178.479 179.916 177.584 174.55 164.219 175.231 178.124 172.993 160.66 -51.6902 230.362 97.4711 -40.4976 213.904 35.3044 -8.64622 216.857 25.0494 11.3097 227.193 37.2683 47.5352 240.793 62.3272 1.26538 225.633 128.551 18.623 4.22704 9.49594 
170.073 178.928 179.314 176.314 174.27 162.397 174.151 177.175 172.819 157.852 -51.6969 229.352 93.2829 -40.1622 211.301 31.7818 -7.77387 213.926 21.149 13.7179 224.435 33.2293 49.2716 239.203 58.9319 1.98455 224.363 124.669 18.7347 4.36149 9.93578 
169.942 179.267 179.148 175.768 174.27 162.161 173.98 177.021 172.717 158.404 -51.6307 227.409 89.4195 -39.5859 209.597 28.7247 -6.97179 211.222 17.9966 14.658 221.716 29.7258 49.7654 236.197 55.3952 2.56605 223.119 121.354 18.1267 4.3938 10.0643 
168.88 177.742 177.526 173.88 179.476 162.772 172.466 175.313 170.496 161.184 -53.2717 225.476 86.5766 -39.0199 206.999 25.7682 -6.3053 208.72 14.6143 20.8765 220.656 25.7862 50.639 232.095 51.6654 2.91504 221.283 117.948 13.3495 7.48687 10.2362 
167.97 177.328 177.192 172.779 174.312 162.183 172.124 175.293 169.332 162.521 -53.8169 224.053 84.0127 -38.6996 205.141 23.0919 -5.92382 207.136 11.9141 22.2334 219.946 22.9823 51.7654 229.43 48.9629 3.12784 219.79 115.034 12.9918 8.53337 10.3536 
168.532 178.194 178.01 172.621 174.002 162.182 172.679 176.37 169.544 163.572 -53.1962 222.771 81.7897 -37.9166 203.854 20.6367 -5.77307 205.144 9.75849 21.6402 218.154 20.6439 51.3112 227.83 46.7793 3.24814 218.745 112.773 12.999 8.24528 9.7933 
168.013 179.794 179.083 173.882 172.947 163.063 172.264 177.442 171.064 167.027 -52.8077 219.329 80.2256 -36.3201 202.902 18.4127 -5.64137 202.683 7.98907 18.6473 215.286 18.7618 53.1627 227.917 44.6165 3.29411 217.505 110.761 17.5359 6.40233 8.63707 
173.881 179.338 179.778 178.66 174.27 170.48 177.572 178.384 179.767 177.709 -70.4193 242.705 87.6391 -41.4864 301.645 43.9383 -6.01055 319.662 50.3809 32.5853 312.857 54.5333 62.0177 288.883 68.2748 2.76554 224.187 100.526 11.9084 12.4718 13.8467 
173.569 174.27 177.828 175.726 176.184 165.101 115.149 153.253 174.994 176.154 -54.2386 212.408 64.741 -22.4981 223.748 27.6868 12.1426 238.033 8.24485 33.9719 225.742 14.2503 47.3469 211.258 37.587 4.11449 213.518 106.89 2.92944 4.2788 16.9005 
172.951 169.271 168.106 169.498 166.465 163.722 159.216 160.61 162.544 156.506 -51.0358 190.458 66.5035 -21.4227 188.541 10.8158 5.2434 192.909 1.31358 32.4818 195.93 12.4571 51.4629 196.073 40.1057 3.88513 212.672 104.37 3.94185 6.11549 5.76517 
170.168 168.457 165.985 167.23 165.3 162.63 161.238 160.014 159.885 154.438 -50.432 187.706 66.0611 -21.7426 184.527 9.35407 5.14566 186.575 0.982904 32.1658 190.097 12.4392 50.3782 192.098 40.0251 3.48165 212.223 102.998 3.51734 6.08614 5.02755 
169.597 167.644 165.68 166.39 165.096 162.524 161.721 159.857 158.711 153.279 -50.8018 185.833 64.8767 -22.1543 183.769 7.57716 4.98935 183.867 -0.235809 31.3381 186.415 11.3849 49.3062 189.009 38.8649 2.78563 211.188 101.48 3.33361 5.35269 4.72172 
170.637 166.372 165.048 165.376 164.453 162.907 160.148 158.401 157.204 152.046 -53.1792 181.916 62.2371 -24.1424 180.427 5.49023 3.73412 181.01 -2.95192 29.8016 182.354 8.61472 48.0081 184.192 35.9415 0.954484 207.593 98.3103 3.41858 4.92307 5.36858 
171.104 165.933 164.163 164.68 163.925 162.657 158.444 156.798 156.043 151.078 -54.3452 180.722 60.8201 -24.7716 177.9 5.23363 2.61047 179.014 -3.3943 28.5515 180.19 8.02839 46.6586 181.948 34.848 0.0307997 205.778 96.8677 3.21486 4.82758 5.25293 
170.873 166.07 163.654 164.474 163.604 161.499 156.788 155.319 155.879 151.361 -56.7827 179.183 59.1084 -26.5209 174.393 4.31399 -0.0749934 176.035 -4.54317 25.9347 177.747 6.13332 44.2392 179.869 32.2428 -2.00302 202.614 94.8088 3.20364 4.94254 4.87139 
170.549 166.139 163.095 163.963 163.029 161.291 155.365 153.717 154.326 149.621 -58.9465 178.436 58.2919 -28.77 172.538 4.85147 -2.91328 173.898 -3.63857 23.07 175.516 6.91703 41.3369 178.615 32.2787 -3.98517 201.197 94.2328 3.14425 4.846 4.41323 
168.364 164.941 161.698 162.454 161.922 158.146 153.739 152.777 153.378 148.205 -65.4981 174.77 58.9277 -36.0449 169.333 4.03412 -10.2712 172.445 -5.93335 15.0112 172.514 3.9677 33.1455 174.126 29.1765 -9.15225 196.727 92.3894 1.93094 3.88172 5.22282 
166.291 165.592 162.288 163.072 161.739 155.491 154.506 153.196 154.731 149.608 -65.146 173.195 58.6028 -38.054 168.261 3.57559 -13.7385 170.092 -6.47562 11.4496 171.295 2.2432 30.4638 173.254 27.0919 -9.99985 195.237 91.5592 2.24243 3.96442 4.03034 
165.466 166.244 163.1 163.658 161.802 153.668 155.785 154.235 156.04 150.883 -65.499 172.377 58.9656 -39.9941 167.662 3.19727 -16.3507 168.675 -7.00414 8.67327 170.25 1.15026 28.2339 172.475 25.6412 -10.8373 193.991 91.0623 2.42091 3.92301 3.41789 
164.621 166.749 163.495 163.256 161.496 152.12 156.986 154.617 156.07 150.977 -65.9604 171.706 59.9833 -42.5272 168.081 2.96146 -18.8409 167.768 -7.15343 6.17721 169.051 0.825864 26.0757 171.592 24.7923 -11.6997 193.057 90.8084 2.39514 3.68402 3.03439 
158.085 162.002 158.723 158.461 156.634 146.085 156.868 150.988 150.458 145.955 -60.8818 173.309 72.8486 -49.5264 170.369 10.1707 -24.8214 168.266 -2.8531 2.39225 169.21 1.2323 25.93 175.114 19.9869 -3.93025 190.802 90.617 4.09776 4.33879 5.55522 
159.185 162.537 159.516 159.517 157.618 146.466 156.299 151.021 150.669 146.29 -56.4847 174.465 72.8881 -46.0654 170.49 11.2012 -22.2186 168.842 -2.17684 4.85671 169.88 1.46258 28.8224 176.534 19.5718 0.543272 191.938 90.6396 4.70102 4.17023 4.92058 
160.781 163.472 160.433 160.511 158.776 147.66 156.177 151.486 151.42 147.111 -51.0854 174.396 72.3599 -41.3976 170.126 11.7665 -18.5173 169.081 -1.98098 8.56883 170.466 1.18913 32.9744 177.669 18.9108 6.07926 192.607 90.4991 5.17991 4.12842 4.20625 
162.155 164.571 161.276 161.459 159.932 148.735 156.327 151.93 152.045 147.725 -44.0136 173.202 71.6742 -35.5061 170.323 11.9381 -13.3269 169.055 -1.95237 13.7764 170.507 0.905944 38.4819 178.163 18.3111 12.9773 193.376 90.2121 5.44171 4.07456 3.82954 
163.337 165.068 162.055 162.433 161.161 149.769 156.378 152.654 152.735 148.332 -35.7555 172.238 69.8496 -28.1144 169.674 11.3533 -6.60467 168.354 -2.66563 20.294 169.805 0.0433979 44.9809 177.991 17.1883 21.019 193.851 89.1261 5.63061 3.85697 3.39793 
165.175 166.073 163.356 163.584 162.76 151.872 156.435 154.128 154.112 149.457 -26.3807 170.117 67.7144 -19.5051 169.081 10.6573 1.30628 168.705 -4.01877 28.0905 170.04 -1.28037 52.781 177.788 16.0944 30.1077 193.99 88.0943 5.21259 3.69328 2.92742 
166.344 167.012 165.049 164.867 164.532 153.793 156.737 156.699 156.846 152.034 -15.5941 168.104 65.5008 -9.1698 167.907 9.62894 11.0394 169.723 -6.3144 37.7991 171.532 -3.70127 62.3641 178.484 14.2023 40.5114 194.053 86.7729 4.651 3.73217 3.33447 
167.299 165.104 165.261 165.202 165.379 156.148 154.854 157.761 158.645 153.481 -3.39761 164.573 64.3882 1.98924 167.753 9.8361 22.1667 172.692 -7.77534 49.2819 175.922 -5.37902 74.4856 181.265 13.043 51.8908 194.268 86.1178 4.13413 4.38872 5.37044 
169.093 162.7 164.607 165.053 165.416 159.379 152.461 157.152 158.195 152.955 10.4438 162.495 62.0863 15.4538 169.451 9.15314 36.1529 175.498 -8.72744 64.1873 179.393 -5.8805 89.5279 183.432 12.9581 64.2665 195.038 85.6368 4.01146 5.28147 6.29982 
171.247 162.279 163.87 165.556 165.853 162.981 151.438 156.63 157.141 151.505 24.1621 162.26 59.2596 30.3396 174.295 6.11262 52.4685 179.372 -10.779 80.9206 181.664 -6.34385 105.757 184.306 13.6282 77.7546 195.925 85.1208 3.66388 5.19619 5.93004 
172.394 161.579 162.366 163.977 164.182 165.482 153.38 156.022 155.682 148.951 37.9082 162.268 55.7568 46.9417 178.191 1.64964 70.3892 181.08 -13.0742 99.1213 182.411 -6.95657 122.697 184.207 14.0703 91.6313 195.674 83.6214 3.2206 5.41776 4.93513 
173.807 162.79 162.381 164.308 164.044 167.684 154.072 154.548 154.02 147.974 52.3002 162.001 54.2897 63.8045 180.938 -0.00324392 88.2446 180.611 -12.5024 117.724 181.639 -5.21984 140.741 184.716 15.7717 105.919 195.53 83.6725 4.44823 6.21844 4.70255 
174.364 163.848 160.834 160.413 162.474 168.332 153.688 154.237 153.998 145.69 67.8356 159.946 54.6333 82.8404 179.232 0.958524 107.745 180.762 -11.1604 137.744 182.734 -3.00093 160.239 184.649 19.601 120.755 194.087 85.127 4.77936 7.14005 4.84388 
174.064 161.785 163.034 159.33 160.528 167.882 151.843 156.61 156.242 144.625 84.5728 158.433 56.4541 102.099 178.414 3.19841 128.404 183.482 -9.78248 158.949 185.957 -0.172802 180.646 185.738 24.1329 136.265 193.284 87.5918 5.11714 8.01937 6.77465 
173.178 159.339 162.99 157.121 158.99 166.789 146.719 155.606 155.741 143.668 102.336 157.694 57.4812 122.052 178.671 5.36344 148.454 186.815 -8.16972 179.397 189.035 2.76368 200.45 187.887 28.1546 152.076 194.294 89.1624 5.90439 8.76254 8.50123 
172.932 149.627 163.203 157.507 160.055 166.197 142.246 153.64 154.564 143.225 120.518 157.963 59.0297 141.646 177.598 10.6254 168.097 189.316 -4.81083 198.909 191.916 7.2347 219.62 190.832 33.6041 167.823 195.74 91.9871 7.07992 9.27362 12.0992 
172.879 138.56 164.231 156.608 160.616 166.446 139.805 152.468 153.778 143.355 137.712 157.405 60.2681 158.98 176.038 16.7695 185.925 191.931 -1.48051 216.457 194.789 11.8468 236.839 193.23 39.139 182.332 196.759 94.7765 8.11369 9.7518 17.7641 
171.482 161.063 167.936 162.327 171.183 167.552 103.775 152.038 155.311 148.842 153.842 158.762 60.8051 174.698 166.886 32.9737 204.713 196.213 2.01886 235.455 199.963 16.6776 256.209 199.31 45.585 196.252 197.341 97.7171 11.1645 10.8667 37.6659 
170.188 148.428 170.57 165.622 174.125 168.826 91.8984 151.777 156.451 150.77 170.586 160.933 61.1336 191.888 166.825 42.959 224.863 200.91 6.60821 255.288 204.197 23.4882 274.243 202.729 54.277 209.876 198.179 101.568 11.8854 11.4201 47.6548 
169.424 143.659 171.79 168.615 174.039 168.721 87.3786 153.68 159.044 154.559 185.442 166.065 64.6629 206.63 170.85 47.2811 245.904 204.088 14.0669 274.647 207.96 32.4786 292.195 206.137 64.9071 224.049 199.514 107.508 12.5121 11.1096 47.7796 
168.055 135.741 174.237 170.776 173.901 168.486 102.435 158.073 162.467 158.704 199.119 172.344 70.7197 226.402 181.197 41.9852 266.297 208.636 21.6478 293.47 213.147 41.4078 309.403 211.036 75.1701 238.787 202.283 114.395 12.4894 10.7228 33.6825 
168.436 174.27 173.113 169.654 173.917 169.067 130.238 159.762 164.93 162.057 211.678 177.584 76.6723 248.984 191.922 37.6529 286.047 211.376 30.3146 311.87 217.803 51.0396 325.948 216.615 86.4158 252.951 205.934 122.217 12.7981 10.7342 20.2226 
169.8 159.896 165.226 174.27 164.6 167.824 163.766 161.197 178.596 163.694 256.808 189.402 82.654 310.415 204.215 47.5101 337.619 212.047 52.3459 334.248 210.991 62.4755 361.799 216.014 109.564 288.783 213.7 137.658 28.1869 13.6405 7.51333 
150.011 174.27 180 144.765 167.701 142.695 177.979 166.535 151.258 163.542 331.131 236.886 137.483 372.969 229.633 86.3992 361.694 226.691 71.6034 327.432 213.196 60.6658 318.411 198.614 72.0909 298.654 219.618 146.335 13.1998 15.7291 10.7126 
151.329 175.569 164.786 158.198 163.721 161.38 109.614 158.318 162.57 156.846 361.893 258.06 181.429 387.355 231.658 126.881 384.087 214.196 94.4896 357.033 207.549 80.6726 333.966 222.423 93.4212 313.022 214.212 162.751 14.9986 8.48015 16.032 
165.488 169.061 161.581 165.814 159.043 166.609 119.121 157.922 163.798 158.015 374.161 260.856 206.13 395.892 234.84 141.356 391.818 215.147 105.124 366.629 209.336 89.6718 331.752 217.623 92.0713 316.394 213.218 170.555 7.60306 7.77888 19.8275 
167.91 159.247 163.809 169.983 162.761 165.994 130.246 161.142 165.383 161.951 379.574 261.411 214.995 402.055 237.999 150.926 397.837 215.173 113.09 372.424 211.822 98.1229 331.332 215.467 96.3432 320.293 214.125 180 12.7898 6.46727 21.9369 
167.143 161.741 164.379 167.74 163.386 167.148 141.174 160.152 162.9 162.828 383.95 257.075 224.632 408.431 237.96 160.811 401.558 216.592 123.768 374.684 214.742 107.89 332.489 213.775 102.874 323.693 214.739 189.507 15.5228 7.291 20.1371 
167.202 155.314 165.392 170.066 167.412 167.41 147.336 161.885 166.312 166.052 384.706 259.285 232.898 413.484 237.174 171.376 406.236 218.315 131.695 381.647 214.743 116.391 338.604 210.896 108.964 327.263 215.427 197.318 16.9624 5.85032 19.4955 
157.803 155.684 165.455 169.239 169.832 166.045 155.694 162.952 166.451 168.648 385.467 259.365 243.22 417.636 232.262 178.972 409.024 217.564 141.447 384.686 214.605 125.233 341.906 209.756 115.871 329.666 216.088 205.918 17.5263 5.9532 15.6752 
161.402 147.194 165.832 170.775 169.613 167.384 163.449 163.873 169.321 169.481 386.109 257.173 245.963 416.399 228.153 181.115 408.572 216.168 147.968 385.437 211.522 131.753 342.89 207.742 122.579 330.09 215.72 212.759 17.0652 5.7413 10.9395 
163.996 159.963 167.537 172.347 170.515 165.769 163.938 165.524 171.798 170.652 384.801 255.745 248.123 416.061 225.304 181.063 410.74 214.383 153.5 388.315 209.171 137.717 347.359 206.643 129.116 330.316 214.99 217.853 14.95 5.22446 6.45991 
163.532 162.759 168.283 173.379 171.966 164.793 165.624 166.899 172.47 172.062 387.471 251.613 251.085 419.547 221.277 183.749 414.247 212.436 158.067 391.711 207.396 142.85 352.406 204.17 134.938 332.091 215.1 222.4 13.2262 4.8087 4.03084 
169.16 162.204 170.287 174.551 171.513 169.622 162.808 168.217 172.322 171.57 393.907 247.98 262.653 425.764 221.049 189.44 420.152 212.328 164.497 397.119 208.068 148.61 358.38 204.724 139.377 336.037 216.109 227.129 13.0863 4.99435 3.82431 
172.474 164.646 173.078 174.589 171.303 170.241 162.874 169.696 171.836 171.563 397.379 246.007 266.607 429.995 222.803 195.709 425.187 213.257 170.832 401.139 209.294 153.041 363.149 205.6 143.297 339.057 216.739 230.879 12.6453 6.20302 4.19508 
174.721 163.06 173.595 173.69 171.504 169.214 164.363 169.891 171.526 172.097 398.947 247.171 268.801 433.357 222.004 200.94 429.37 212.928 176.382 404.475 208.565 157.566 367.018 204.433 147.963 341.527 217.788 235.214 12.1608 7.07147 3.40115 
172.903 162.387 173.817 173.545 171.867 164.57 164.491 168.965 170.556 172.928 398.835 248.014 265.984 434.518 221.519 204.535 431.395 212.767 179.736 406.026 207.861 160.006 369.329 202.627 150.267 343.133 218.085 237.496 12.0231 7.82325 2.91225 
170.135 169.444 173.43 171.64 170.349 164.299 168.044 166.163 168.876 171.838 400.835 252.225 275.674 437.686 217.731 212.552 434.288 212.774 187.938 408.088 206.593 166.053 371.528 202.104 155.047 345.474 218.625 242.808 12.2616 9.56871 2.2354 
174.627 173.583 172.03 171.794 171.117 164.566 168.403 165.576 169.571 172.15 401.4 251.305 275.783 437.145 216.845 213.799 434.72 211 188.214 408.549 204.266 165.315 371.831 200.444 153.928 345.245 217.521 242.293 12.1707 10.1187 2.34119 
175.441 169.708 171.155 172.015 171.021 163.847 166.834 164.848 168.383 171.564 403.197 249.021 276.382 439.665 217.746 217.19 435.158 211.263 188.91 409.709 205.802 166.289 373.448 200.83 154.86 346.456 217.308 243.077 12.2384 9.46145 4.96835 
166.957 167.905 171.64 171.305 170.009 168.06 168.553 166.839 168.058 170.364 400.433 242.205 278.481 435.631 211.597 214.301 431.054 207.47 185.054 404.797 203.08 163.832 368.724 199.02 155.071 342.738 214.244 242.201 10.9138 8.94273 5.58224 
159.375 168.124 167.975 171.888 169.008 167.848 168.011 164.66 168.633 169.206 399.153 245.18 275.829 433.708 214.346 209.671 428.771 209.049 181.353 402.353 203.167 161.191 367.139 199.97 155.521 342.38 214.681 242.198 8.97067 8.7959 4.59282 
157.206 168.707 165.126 172.833 169.869 164.542 168.583 164.312 170.75 169.882 397.014 246.037 268.949 428.962 214.433 203.324 424.622 209.946 178.074 397.625 202.8 158.95 362.219 200.821 154.754 340.833 215.671 242.605 8.63806 9.00869 2.28952 
154.957 172.807 163.923 172.023 170.004 162.262 169.654 162.738 169.046 169.459 395.47 247.913 263.484 428.191 216.158 200.616 422.901 213.639 176.919 396.412 206.554 159.235 362.048 202.74 154.707 340.981 216.347 242.189 8.70213 8.1779 3.10134 
162.615 175.484 165.189 173.559 171.384 165.486 172.091 164.699 171.3 169.149 395.812 252.719 263.08 427.471 219.304 196.653 419.907 215.647 174.792 394.616 209.131 158.462 361.747 206.948 155.959 339.612 217.845 242.033 6.41285 6.90529 2.07293 
165.05 175.905 167.747 173.1 172.078 163.304 172.61 165.936 171.724 170.107 394.721 252.501 260.138 426.68 222.677 193.908 418.833 217.659 173.543 394.789 211.733 158.869 361.7 209.305 155.813 339.122 218.385 240.992 6.84326 5.50424 0.547799 
