168.398 167.622 173.267 171.544 171.312 169.026 175.682 167.652 165.596 161.163 -425.267 228.105 -30.153 -439.701 236.388 -75.7448 -429.029 242.31 -105.491 -402.681 237.805 -112.337 -372.891 237.778 -105.458 -374.724 260.83 -32.894 5.33815 6.20987 12.6883 
168.809 173.756 173.01 171.272 171.492 168.861 177.816 167.824 165.892 162.036 -425.486 228.364 -30.2226 -441.691 238.699 -77.0639 -430.068 243.342 -105.51 -403.673 238.747 -112.585 -373.442 238.756 -106.134 -374.922 260.878 -32.9599 5.64185 6.24702 10.7332 
172.369 174.27 172.401 172.065 170.658 162.771 177.985 168.289 165.725 158.242 -424.133 229.473 -32.4215 -445.424 239.655 -78.2669 -433.124 247.856 -105.989 -405.88 241.405 -112.406 -375.385 238.269 -104.634 -378.184 263.708 -33.3625 7.22214 7.24761 13.6433 
176.776 174.27 171.5 171.901 170.959 162.964 177.984 168.571 165.215 157.58 -424.163 229.502 -32.2458 -445.016 237.141 -77.2376 -433.533 247.385 -105.289 -405.986 240.283 -111.496 -375.574 236.912 -103.855 -378.493 264.033 -33.6093 7.50639 7.71713 15.9555 
178.639 174.27 171.212 172.28 171.083 162.718 177.983 168.725 165.306 157.241 -424.231 230.109 -32.0909 -444.791 235.51 -76.6397 -433.657 247.132 -104.734 -405.889 239.641 -111.046 -375.473 236.026 -103.493 -378.518 264.174 -33.8941 7.73311 8.03643 17.5059 
176.653 174.27 171.211 172.499 171.35 161.879 177.983 168.636 165.918 157.52 -423.039 230.516 -32.5336 -443.592 233.662 -75.9743 -432.966 246.067 -104.256 -405.277 238.769 -110.771 -375.175 234.914 -103.014 -378.021 264.129 -34.0776 7.60906 7.85449 18.7924 
170.255 174.27 172.874 172.63 172.672 158.453 177.983 168.138 165.331 154.656 -420.363 232.516 -34.1547 -441.241 232.318 -76.8936 -430.813 244.778 -104.043 -403.927 236.715 -110.413 -374.818 231.784 -101.177 -376.396 263.764 -35.034 8.0373 7.64513 18.9156 
167.845 174.27 172.952 172.248 172.593 159.453 177.982 168.609 164.894 153.332 -420.043 234.228 -33.7938 -439.673 231.466 -77.3606 -428.875 244.091 -104.386 -402.174 235.046 -110.158 -373.18 229.86 -100.608 -374.484 263.177 -35.6102 8.62401 8.03551 18.8965 
177.283 174.27 172.581 172.039 172.889 164.243 177.983 168.83 164.772 152.167 -419.961 235.557 -32.301 -436.817 230.683 -77.0609 -427.093 243.244 -104.635 -399.668 233.578 -109.926 -370.79 227.933 -99.8463 -371.69 262.589 -35.991 9.71177 8.86936 18.9976 
174.091 174.27 173.721 171.553 174.941 167.927 177.984 169.383 163.211 151.296 -419.363 236.402 -30.4728 -433.078 229.31 -76.9349 -424.605 242.574 -104.759 -395.98 231.356 -109.76 -368.02 226.31 -99.8723 -368.274 261.663 -36.9375 9.54891 10.6972 19.7836 
165.435 174.27 174.212 171.83 175.449 171.358 177.981 170.296 162.678 151.88 -416.951 237.647 -27.7273 -429.368 229.314 -77.0001 -421.161 242.346 -104.951 -392.551 230.6 -110.015 -364.246 226.268 -101.247 -363.746 260.881 -37.5461 9.02675 11.2328 19.1839 
168.204 174.27 173.857 173.715 175.786 170.851 177.977 171.191 164.536 151.44 -412.476 238.577 -26.8802 -423.548 228.138 -78.7515 -416.193 241.62 -106.604 -388.347 229.834 -111.184 -360.184 224.943 -101.752 -357.891 259.193 -38.7113 9.68526 10.8246 19.1355 
169.751 174.27 173.208 174.173 174.261 171.478 177.976 170.619 162.176 149.925 -407.379 238.58 -26.57 -417.634 227.436 -79.7488 -410.607 239.473 -106.827 -382.644 226.586 -110.926 -354.945 222.736 -102.33 -351.177 257.565 -40.5043 8.89712 11.8358 17.7726 
175.413 174.27 173.123 173.629 174.813 171.502 177.975 170.366 161.519 148.993 -402.689 240.521 -25.9959 -410.234 226.226 -81.8598 -403.927 238.23 -108.639 -375.976 225.333 -112.549 -348.557 221.852 -103.817 -344.437 256.596 -42.5532 9.2255 12.186 17.4741 
176.455 174.27 173.033 173.384 174.536 172.516 177.977 170.2 162.332 149.01 -396.204 241.139 -25.0738 -402.472 226.915 -84.4741 -395.886 237.059 -110.824 -368.255 224.162 -114.861 -340.163 219.642 -105.513 -335.917 255.115 -44.6271 10.6094 11.971 15.4659 
178.451 174.27 173.02 172.292 174.028 170.763 177.979 169.518 162.723 148.289 -386.85 240.645 -27.1781 -393.007 227.193 -88.9261 -385.878 235.151 -113.948 -359.103 223.248 -117.83 -331.372 218.596 -107.332 -326.327 253.448 -47.0932 11.2537 10.9753 12.5362 
177.06 174.27 173.117 172.135 174.624 166.94 177.98 168.966 163.627 150.641 -373.892 237.124 -31.5569 -382.389 228.377 -93.2642 -374.851 233.892 -116.92 -349.366 223.402 -121.379 -321.756 219.008 -111.536 -314.881 251.028 -49.6552 10.015 9.38495 9.16453 
173.575 174.27 172.307 171.275 173.83 164.467 177.983 168.495 164.264 150.314 -361.641 234.324 -34.796 -371.048 229.144 -97.6587 -362.992 232.327 -120.58 -338.317 223.339 -125.594 -310.555 218.413 -115.235 -302.923 248.093 -52.588 10.085 7.8889 6.16815 
170.593 166.657 170.378 169.062 171.2 162.512 175.312 166.752 163.413 149.431 -349.268 230.952 -38.2633 -360.195 228.993 -100.995 -350.46 230.966 -124.185 -326.286 223.333 -129.636 -298.229 218.134 -119.179 -290.79 245.673 -55.6633 9.64176 6.65203 4.48735 
168.893 168.127 169.788 167.593 169.211 160.559 170.426 164.903 162.127 149.637 -335.245 227.759 -41.1608 -346.992 227.218 -103.706 -336.313 228.747 -126.795 -312.336 222.884 -132.759 -284.077 218.804 -123.263 -277.62 243.377 -57.8651 7.88297 5.62878 3.5773 
164.745 165.148 167.041 165.311 167.326 157.553 162.775 160.555 159.153 148.049 -319.413 224.675 -46.8796 -331.215 224.668 -107.561 -319.845 225.632 -129.932 -296.505 221.682 -135.814 -268.653 219.445 -126.797 -263.488 241.748 -60.4646 5.85669 4.37411 2.58799 
160.702 160.553 164.12 163.105 165.748 154.226 156.411 157.164 156.842 147.714 -302.486 221.945 -53.1399 -314.339 221.832 -111.774 -302.739 222.317 -133.285 -279.608 219.499 -139.126 -251.932 218.948 -130.763 -248.45 239.77 -63.2245 3.71664 3.60986 1.84476 
158.432 159.033 162.988 163 165.243 152.011 153.292 156.215 156.847 148.296 -284.918 219.645 -59.9616 -296.976 219.289 -116.342 -285.192 219.902 -137.141 -262.086 218.026 -142.886 -234.42 218.148 -134.28 -232.87 237.876 -65.7643 2.81442 3.033 1.60398 
159.459 159.074 162.823 163.771 165.706 151.113 152.69 155.95 157.198 149.632 -266.408 216.568 -66.4161 -278.843 216.216 -120.46 -266.615 216.752 -140.789 -243.308 215.153 -146.373 -215.632 215.546 -137.538 -216.156 235.501 -68.3555 2.66909 2.95038 1.80396 
159.976 160.036 163.307 165.3 166.523 151.14 153.993 156.702 158.365 150.901 -247.586 214.8 -71.8712 -259.794 214.02 -124.795 -246.74 214.489 -144.583 -223.182 213.328 -149.72 -195.782 213.821 -139.944 -198.773 233.57 -70.2713 2.59916 2.93905 1.86644 
162.046 163.725 164.588 168.222 168.034 151.64 157.554 158.251 160.282 152.75 -210.734 211.857 -82.8399 -223.201 210.831 -133.23 -207.966 210.563 -151.947 -182.944 209.512 -155.96 -155.506 209.713 -144.181 -167.551 232.883 -74.3146 5.06235 4.09496 1.5412 
164.52 166.825 166.627 170.363 169.168 153.177 163.092 162.19 164.169 156.959 -188.567 209.319 -85.081 -198.766 206.793 -136.469 -182.021 206.829 -154.728 -156.38 205.465 -157.592 -129.191 205.277 -144.418 -145.831 229.92 -74.2115 5.78694 4.46704 2.32717 
166.036 168.38 167.941 171.037 169.284 154.294 166.084 164.79 166.227 158.905 -166.391 205.25 -86.9685 -175.635 204.034 -139.547 -157.234 203.259 -156.908 -131.396 202.101 -158.402 -104.954 202.033 -143.721 -124.094 226.609 -73.8335 5.3267 4.38684 2.70375 
167.322 168.771 169.092 171.602 170.928 155.256 166.199 165.902 167.105 156.923 -145.409 202.409 -88.3655 -151.854 202.961 -142.092 -132.386 202.007 -158.556 -106.665 201.407 -158.189 -82.3817 200.38 -140.141 -103.739 226.023 -72.8552 5.72664 4.10703 2.90116 
169 169.742 170.349 171.571 170.008 156.587 166.551 166.188 166.516 156.151 -124.538 200.031 -90.6982 -128.058 201.14 -144.319 -107.962 200.708 -159.793 -82.4461 200.096 -157.645 -59.9728 199.286 -138.183 -83.687 225.499 -72.2733 5.50234 3.9753 2.88106 
169.839 168.522 170.961 171.224 169.29 156.406 166.376 166.594 166.095 155.804 -101.018 197.554 -92.9955 -104.789 199.323 -144.752 -83.4498 199.339 -159.664 -57.5873 199.464 -156.141 -36.5311 198.782 -135.71 -63.4585 224.383 -70.7821 5.32866 4.23318 3.51229 
168.646 167.896 173.332 171.682 168.655 155.783 165.37 165.892 163.927 154.31 -77.1087 194.129 -94.2117 -80.0953 197.034 -144.953 -57.5924 196.701 -158.6 -32.9605 197.421 -153.108 -13.697 198.348 -132.183 -43.4941 223.142 -68.8047 4.21898 3.49188 3.72156 
166.591 170.486 172.459 168.244 166.024 154.95 164.666 162.906 159.572 151.175 -52.252 188.374 -94.6401 -56.3908 196.205 -144.617 -32.5598 193.728 -156.025 -9.02912 195.009 -148.97 8.99221 198.353 -128.437 -23.7159 221.75 -66.7619 2.16688 2.97196 4.75315 
172.029 169.305 169.861 166.693 166.864 160.112 161.375 158.59 155.92 149.487 -31.4249 187.664 -95.9933 -29.8146 192.998 -142.246 -5.15491 190.003 -150.442 17.1065 192.222 -142.461 32.9994 198.874 -122.718 -3.65017 222.101 -64.0106 1.08736 2.31422 5.19513 
174.77 168.85 168.465 165.938 166.894 164.178 159.061 154.636 152.661 147.694 -10.4939 184.502 -95.0983 -5.48673 191.734 -139.955 20.9878 185.327 -143.952 41.9292 188.775 -134.95 56.5174 198.674 -115.995 16.2082 222.316 -60.9143 3.26838 1.65815 8.37907 
176.814 168.166 166.452 165.629 167.036 167.431 158.574 152.503 151.87 147.332 9.57312 179.056 -91.8697 19.7686 188.279 -136.654 46.3873 179.273 -136.355 66.5185 184.259 -126.856 80.0256 196.447 -108.029 36.164 221.367 -56.9362 4.86684 1.7725 10.4316 
177.419 170.078 165.743 165.703 166.383 169.136 160.865 152.104 152.386 146.552 28.9984 175.622 -87.6994 45.1336 185.628 -132.456 71.6689 175.6 -128.45 90.8894 181.773 -118.169 103.008 194.91 -98.5625 55.3276 219.976 -51.7414 5.45927 2.39391 11.5928 
176.667 172.564 163.933 164.439 165.555 169.755 162.571 153.78 153.579 146.075 47.2581 172.665 -81.8328 69.7101 182.635 -126.115 95.8265 175.169 -121.481 114.493 182.161 -109.616 125.478 194.928 -88.0787 73.1326 218.616 -45.3689 5.12188 3.08239 9.38468 
175.987 175.488 160.471 162.422 163.287 169.93 161.89 153.852 154.396 144.354 64.0954 172.723 -76.0852 92.7258 181.867 -118.51 118.253 176.305 -112.966 136.183 183.99 -99.7351 145.681 196.009 -75.9719 89.0815 218.11 -38.0177 4.69083 3.8038 7.75644 
175.922 173.243 158.352 163.318 165.011 169.377 160.498 154.422 157.573 146.72 79.5192 174.24 -70.7857 113.642 182.868 -111.456 137.67 179.839 -106.2 155.624 188.31 -91.6326 164.36 199.296 -65.4857 103.424 218.181 -30.6714 5.43099 5.11469 5.08837 
174.678 172.89 159.845 164.514 166.472 168.332 159.884 156.431 160.707 150.1 93.2162 175.07 -65.0748 131.759 183.162 -104.154 155.561 182.873 -99.8999 173.598 191.861 -83.2894 181.445 201.874 -54.7255 116.234 218.022 -23.4085 6.63503 6.22567 3.01335 
173.752 166.072 156.564 160.336 163.088 166.683 154.965 155 159.422 149.4 114.828 178.371 -57.8465 160.041 184.249 -91.1986 184.35 186.825 -86.1851 201.324 194.577 -66.4594 205.772 201.831 -36.3057 135.158 217.156 -12.9921 6.76575 6.87371 3.95105 
172.261 163.29 158.773 162.417 164.2 164.562 152.78 154.73 159.576 150.235 127.092 182.424 -52.8864 173.115 189.584 -85.0853 198.277 191.773 -78.2973 215.38 198.691 -56.0065 217.025 203.195 -24.5591 144.179 218.264 -6.12355 6.41915 8.1002 4.8005 
171.343 158.904 161.486 165.255 165.051 162.671 149.391 154.658 159.203 150.204 138.04 187.076 -48.8175 184.733 193.796 -78.2914 210.49 195.744 -71.1401 226.268 201.332 -48.0399 225.347 203.272 -15.3713 152.82 220.092 -0.255982 6.1489 7.91474 5.63477 
171.197 155.332 163.154 166.133 166.463 161.89 147.242 153.824 158.366 148.31 146.86 190.545 -45.0708 194.627 196.686 -71.4855 219.936 197.446 -63.4638 235.155 202.071 -39.6551 230.965 202.326 -7.32918 160.3 221.77 5.17572 4.71886 8.16499 5.46825 
170.694 156.136 164.389 166.597 168.351 160.566 148.271 152.962 156.569 147.678 155.348 192.463 -41.6583 204.681 199.437 -66.557 228.6 198.001 -56.9756 242.601 201.28 -32.821 236.686 200.549 -0.89577 166.984 222.128 9.52598 4.32724 7.75793 4.31821 
170.176 158.302 165.356 166.754 171.758 159.949 150.296 152.01 154.876 147.096 161.828 193.556 -38.2761 213.794 201.218 -61.3542 235.343 197.789 -50.3662 248.289 200.563 -26.0939 241.085 199.412 5.47351 172.184 222.273 13.7735 4.17765 7.4752 2.83331 
169.216 160.806 167.108 167.954 174.368 159.359 152.697 152.912 155.622 147.336 168.651 194.01 -34.9009 222.628 201.968 -56.4851 242.89 199.158 -45.4866 255.036 202.036 -21.0811 246.527 199.763 11.2167 177.26 222.292 17.1727 5.11873 7.39716 1.89198 
168.031 162.439 166.393 167.596 176.727 158.529 153.63 152.615 155.714 148.801 174.416 193.845 -31.6606 229.189 202.449 -52.1352 248.474 199.597 -41.2479 260.34 202.648 -16.702 251.061 199.905 15.8614 181.472 222.301 20.1262 5.59662 7.62735 1.14226 
167.576 162.811 165.101 166.815 176.522 158.293 153.236 150.98 154.568 148.64 178.567 192.984 -29.5463 233.311 201.632 -48.2327 251.617 198.121 -37.6537 263.78 201.401 -12.9783 254.288 198.743 19.4341 184.713 221.615 22.5688 5.66673 8.18551 0.272039 
166.968 163.603 164.273 166.024 177.221 157.699 153.716 150.763 154.467 149.728 181.335 192.239 -27.0886 236.856 201.253 -45.4266 254.899 197.968 -34.8461 266.957 201.044 -10.1576 257.652 198.259 22.3372 187.748 221.371 24.7652 6.03181 8.16762 0.388142 
166.721 164.22 163.255 165.114 176.133 157.513 153.271 149.189 152.981 148.3 183.078 190.887 -25.0852 238.32 199.492 -42.5292 255.825 195.753 -32.1477 268.233 199.145 -7.40455 259.264 196.822 24.9314 189.75 220.662 26.8743 6.05032 8.58315 0.41151 
166.657 163.787 161.781 164.209 174.921 157.374 152.719 147.979 152.376 148.183 184.038 189.05 -23.4201 239.171 197.228 -40.5952 256.385 193.451 -30.3339 269.265 197.089 -5.78907 260.797 195.132 26.4602 191.457 219.72 28.3405 6.12336 8.89973 0.651924 
166.978 164.191 161.675 163.11 172.492 157.811 152.17 145.666 149.371 144.791 184.237 187.666 -22.0772 239.038 195.531 -39.863 254.557 189.817 -28.558 267.609 193.311 -4.68687 260.185 191.948 26.6556 192.99 219.118 29.6008 5.50225 8.69329 1.8884 
167.228 165.008 161.987 163.111 172.926 158.068 152.285 144.856 147.889 144.162 183.438 185.916 -20.743 238.647 193.598 -39.0956 253.207 186.433 -27.0453 266.338 189.783 -3.57863 259.994 189.41 27.1249 193.858 218.263 30.6746 5.06079 8.40304 3.33106 
167.437 165.742 162.978 163.822 174.743 158.222 152.707 146.037 148.264 144.835 182.882 184.491 -19.4798 238.399 191.939 -38.6287 253.122 184.184 -26.3347 265.974 187.413 -3.10979 260.21 187.549 27.4018 194.449 217.313 31.5101 4.9205 7.8948 3.79468 
167.492 165.641 164.055 163.975 179.55 158.442 153.132 147.728 149.22 146.268 183.344 183.211 -19.1056 238.817 190.932 -38.49 254.75 184.664 -26.6207 266.814 187.408 -3.66631 261.267 186.725 27.4312 194.906 216.039 31.9304 5.53332 7.16215 2.19398 
167.502 165.551 163.336 162.985 177.217 158.409 153.375 148.401 150.533 146.375 183.608 181.589 -18.2986 238.344 189.155 -37.8468 254.929 183.833 -27.1511 267.317 186.524 -4.31604 261.85 185.103 27.6647 195.189 214.092 32.7716 6.20593 7.38924 0.930763 
167.29 163.398 163.641 165.402 167.092 157.924 151.652 151.065 155.938 148.727 183.552 183.094 -22.4638 234.12 189.042 -41.6649 253.229 185.964 -34.0098 266.372 188.202 -10.283 258.375 185.268 20.9382 191.574 211.535 29.1802 4.15856 8.17719 2.53834 
167.589 163.539 164.219 165.415 167.159 157.729 151.32 150.439 154.552 146.975 182.185 183.174 -22.8063 232.217 189.504 -42.962 250.556 185.112 -34.5012 263.369 186.983 -11.3009 255.774 184.275 19.2178 190.627 211.696 28.6251 3.61267 7.65278 1.2464 
167.672 163.79 164.324 165.371 168.156 157.399 151.504 149.83 153.248 146.499 180.966 182.978 -23.2488 230.768 190.131 -44.5681 248.135 184.005 -35.332 260.588 185.374 -12.6308 253.726 183.186 17.334 189.671 211.687 27.8726 3.07961 7.01417 0.801638 
167.668 163.748 163.808 164.931 169.426 157.165 151.142 148.577 151.495 145.867 179.887 182.834 -23.8753 229.286 190.54 -45.8109 245.435 182.791 -36.0056 257.747 183.712 -13.6358 251.712 182.252 15.8753 188.654 211.689 27.2053 2.52611 6.59497 2.40211 
167.668 163.554 163.422 164.698 171.505 157.119 150.818 147.89 150.453 145.887 178.686 182.757 -24.5139 227.856 190.754 -46.8758 243.275 181.826 -36.5824 255.517 182.536 -14.4321 250.276 181.682 14.8918 187.651 211.767 26.6028 2.31143 6.33394 3.5723 
167.786 163.377 163.235 164.824 172.871 157.177 150.565 147.744 150.377 145.722 177.535 182.704 -24.9929 226.453 190.66 -47.7128 241.679 181.142 -37.0845 254.116 181.999 -14.9923 249.178 181.423 14.365 186.742 211.907 26.0781 2.38446 6.39098 4.1746 
168.23 163.569 163.139 165.196 177.952 157.641 150.768 147.657 151.055 148.397 175.686 183.123 -25.8686 224.298 191.005 -49.0693 239.15 180.883 -37.9365 251.873 182.118 -16.3032 247.667 182.025 13.0565 185.057 212.325 25.4146 2.34361 6.49866 4.94213 
168.411 163.629 163.658 165.875 177.832 157.628 151.196 149.173 152.698 151.315 175.07 183.319 -26.6353 223.538 191.523 -50.1885 239.093 181.662 -39.2307 251.612 182.763 -17.7114 247.513 182.413 11.7173 184.227 212.239 24.7459 2.38327 6.36023 4.42878 
168.523 162.701 164.197 166.17 174.45 157.411 150.064 151.175 154.885 149.448 171.581 184.498 -28.9794 219.076 193.141 -52.8861 237.209 185.064 -43.0935 249.507 185.523 -21.6607 244.596 183.861 8.5017 181.103 213.071 22.7428 2.5649 5.97368 2.17345 
168.764 162.909 165.238 166.963 168.159 157.703 150.498 152.895 156.631 151.577 169.341 184.694 -29.5386 216.665 192.869 -53.5406 236.444 186.203 -44.1126 249.187 186.915 -22.2198 244.854 185.451 7.98251 179.413 213.349 22.218 2.95208 6.41602 1.55296 
169.014 162.846 165.75 167.475 166.237 157.991 150.004 153.082 156.994 151.602 168.313 185.452 -29.8699 215.204 193.295 -53.5749 235.799 187.256 -44.4414 248.895 188.007 -22.2463 244.763 186.643 7.91157 178.609 213.755 22.1589 3.14122 6.76239 1.82915 
169.334 162.192 166.136 167.81 165.199 158.392 148.556 153.064 156.996 151.468 166.947 185.725 -30.0026 213.144 192.753 -53.0918 234.768 187.785 -44.3404 248.224 188.921 -21.8299 244.427 188.05 8.27214 177.639 214.273 22.1115 3.44324 7.14583 2.62132 
169.725 161.492 166.431 168.345 164.441 158.98 147.393 153.306 157.295 152.007 164.514 186.602 -30.3562 210.073 192.878 -53.169 233.194 189.184 -44.7679 247.433 190.962 -21.6595 244.32 190.654 8.62449 175.981 215.433 21.7967 4.3123 7.87129 3.97253 
169.821 160.947 166.288 168.238 164.275 159.253 146.543 152.777 156.999 152.192 163.22 187.142 -30.6762 208.475 193.087 -53.1905 231.905 189.786 -44.9543 246.62 191.813 -21.6621 243.928 191.759 8.72156 175.037 215.994 21.6355 4.76844 8.26112 4.32983 
169.831 160.474 165.836 167.935 163.525 159.405 145.979 151.994 156.182 150.833 162.118 187.871 -31.0852 207.337 193.418 -53.2996 230.518 189.957 -45.0278 245.412 192.126 -21.7411 242.724 192.212 8.67703 174.13 216.547 21.4314 4.71986 8.36011 4.07101 
169.71 160.664 165.331 167.448 162.909 159.313 146.154 151.597 155.567 149.567 161.008 188.633 -31.2961 206.338 194.012 -53.7685 229.329 190.399 -45.3169 244.252 192.465 -22.0487 241.427 192.524 8.48234 173.177 217.152 21.1857 4.58134 8.25779 3.86212 
169.643 160.89 164.394 166.813 162.572 159.312 146.795 150.843 154.903 148.441 158.491 190.053 -31.7433 204.556 195.42 -54.4874 226.982 191.404 -45.5783 242.084 193.479 -22.3357 239.161 193.537 8.24855 171.071 217.988 21.0378 4.43212 8.26072 3.31094 
169.556 160.914 163.465 166.096 162.735 159.267 146.944 149.839 153.642 146.871 157.627 191.166 -31.8272 203.969 196.549 -54.8759 225.638 191.821 -45.6214 240.55 193.625 -22.5771 237.606 193.701 8.07584 170.311 218.804 21.0622 4.20947 7.88949 2.70657 
168.762 160.445 161.825 164.487 161.848 158.744 146.628 148.255 151.717 144.205 154.613 195.18 -31.9133 201.478 200.889 -55.2329 222.047 194.86 -45.8815 236.246 195.699 -23.2791 232.919 195.087 7.53644 167.379 221.681 21.4269 3.63399 6.87546 2.17364 
168.574 160.561 161.868 164.702 162.71 158.413 147.284 148.72 152.038 143.994 153.766 196.352 -31.9018 200.93 202.522 -55.4091 221.532 196.481 -45.8362 235.342 196.98 -23.1283 231.316 195.704 7.79487 166.097 222.528 21.4664 3.5399 6.64607 2.28738 
167.965 160.794 161.189 163.873 163.624 157.802 146.25 147.371 150.089 141.158 151.716 199.51 -31.4313 198.33 204.61 -54.2653 218.278 198.427 -44.8003 231.495 198.801 -22.1475 226.74 197.877 8.61379 163.081 225.961 21.5768 3.21008 6.13923 1.87897 
167.826 160.881 160.974 163.768 163.584 157.601 146.196 147.132 149.82 140.581 150.582 200.52 -31.335 197.074 205.203 -54.0823 216.861 198.946 -44.5737 230.02 199.404 -21.9505 225.147 198.62 8.7433 161.791 226.993 21.463 3.17286 6.10113 1.84736 
167.719 161.017 160.865 163.678 164.19 157.509 146.432 146.845 149.425 140.21 149.344 202.028 -31.5996 195.646 206.241 -54.319 215.129 199.853 -44.7111 228.236 200.268 -22.0933 223.401 199.602 8.48516 160.317 228.263 21.1564 3.09423 6.06851 1.83439 
167.554 160.997 160.622 163.49 164.596 157.301 145.715 146.088 148.409 139.198 147.662 203.665 -31.693 193.444 207.14 -54.1476 212.564 200.464 -44.7041 225.432 200.665 -22.2177 220.881 200.455 8.22145 158.588 229.837 20.9245 2.9288 5.75631 1.75837 
167.689 160.852 160.411 163.225 163.637 157.399 145.279 145.66 147.901 138.723 145.624 205.715 -32.2821 190.935 208.254 -54.2093 209.844 201.408 -44.9554 222.5 201.275 -22.5895 218.096 201.281 7.64551 156.491 231.556 20.6087 2.72772 5.46652 1.62351 
167.747 160.681 160.19 162.959 162.677 157.464 145.06 145.278 147.508 138.672 143.383 207.873 -32.9893 188.157 209.095 -54.3003 206.823 202.225 -45.1926 219.327 201.941 -22.9788 215.238 202.411 6.9996 154.093 233.314 20.1581 2.43368 5.23476 1.45519 
167.79 160.276 159.813 162.564 161.458 157.486 144.812 144.718 146.97 139.086 140.605 209.79 -34.0075 184.705 209.933 -54.7708 203 202.755 -45.79 215.361 202.298 -23.8676 212.031 203.5 5.67549 151.259 234.987 19.3537 2.04099 4.94105 1.5121 
167.84 159.579 159.383 162.189 160.536 157.508 144.241 144.378 146.722 139.854 137.092 210.978 -35.0804 180.31 210.454 -55.4528 198.608 203.246 -46.8316 210.964 202.712 -25.2009 208.622 204.522 4.06692 147.852 236.414 18.3116 2.18173 4.72996 1.31191 
167.801 158.977 159.226 161.951 160.166 157.526 143.636 144.122 146.384 140.276 132.811 212.013 -35.9801 175.012 211.005 -56.1236 193.217 203.834 -47.9809 205.425 203.083 -26.672 204.039 205.445 2.34162 143.68 237.775 17.3877 2.38168 4.3281 1.10162 
167.923 158.306 159.291 161.415 159.42 157.855 142.087 143.608 145.727 139.935 128.014 212.735 -36.9116 168.477 211.329 -56.4729 186.674 204.24 -49.1704 198.685 203.141 -28.207 198.122 205.88 0.4759 139.008 239.321 16.5188 2.30996 3.82133 0.722422 
167.6 157.661 159.284 160.718 158.655 157.788 141.118 142.862 144.861 139.454 123.227 212.828 -37.6317 161.82 212.225 -57.5534 179.358 204.357 -50.5859 191.056 202.992 -30.2103 191.49 206.233 -1.99886 133.947 240.852 15.3408 2.33746 3.17289 1.43179 
167.462 157.178 159.098 160.058 158.101 157.726 141.479 142.606 144.288 138.915 117.904 212.735 -38.3805 155.276 213.3 -59.477 172.083 204.449 -52.1228 183.341 203.032 -32.2258 184.459 206.802 -4.36722 128.341 242.139 14.0041 2.28887 2.48469 2.57265 
