164.512 155.353 160.354 158.823 161.87 157.904 133.726 146.221 148.249 147.181 -312.567 224.642 -122.505 -311.781 221.73 -161.568 -296.597 225.944 -184.94 -272.536 226.252 -183.72 -247.825 229.201 -170.409 -268.607 255.583 -106.015 3.62543 3.00584 12.1834 
163.511 155.223 160.288 158.669 161.788 157.076 134.065 146.196 148.042 146.909 -311.616 223.497 -121.746 -312.22 221.599 -161.276 -297.446 225.41 -184.241 -273.363 225.483 -183.104 -248.559 228.53 -170.052 -268.614 254.979 -105.6 3.54796 2.89647 11.4714 
162.488 159.166 161.157 158.982 162.158 157.252 135.603 147.09 148.484 146.927 -311.753 222.543 -117.324 -313.83 219.717 -157.192 -300.166 224.089 -180.669 -275.795 223.324 -180.441 -250.197 225.561 -168.306 -266.934 252.293 -103.263 3.45275 2.969 11.8243 
162.178 159.151 161.114 158.939 162.163 157.06 135.096 146.966 148.44 146.84 -310.902 222.419 -116.449 -313.434 219.256 -155.93 -300.102 223.822 -179.74 -275.719 223.001 -179.76 -250.041 225.249 -167.894 -266.137 251.842 -102.715 3.42924 2.98795 12.1487 
161.718 159.028 160.981 158.936 162.248 156.62 134.457 146.806 148.393 147.008 -309.692 222.096 -115.766 -312.972 218.874 -154.796 -300.138 223.579 -178.872 -275.718 222.521 -179.148 -249.789 224.77 -167.691 -265.21 251.529 -102.344 3.58917 3.0253 12.4531 
161.269 158.923 161.004 159.19 162.357 155.957 134.648 146.827 148.353 146.915 -307.662 221.449 -115.046 -312.072 218.71 -153.8 -299.604 223.279 -177.798 -275.192 221.735 -178.232 -249.065 223.862 -167.081 -263.755 251.206 -101.808 3.61907 3.03073 12.347 
161.337 158.843 161.375 159.744 162.669 155.42 135.927 147.119 148.549 146.773 -305.064 220.698 -114.098 -310.027 218.41 -153.371 -297.663 222.53 -176.726 -273.263 220.698 -177.2 -247.192 222.959 -166.145 -261.545 250.643 -101.083 3.4376 3.06343 11.5541 
161.704 158.933 161.413 159.935 162.782 155.304 137.077 147.15 148.499 146.313 -302.51 220.503 -112.982 -307.539 218.286 -152.837 -294.945 221.829 -175.533 -270.539 219.716 -176.02 -244.667 222.029 -164.96 -258.777 250.132 -100.268 3.13982 3.15059 10.6503 
162.086 158.932 161.324 160.174 163.031 155.168 139.699 147.838 149.269 146.55 -299.348 220.167 -111.693 -304.929 218.599 -152.932 -291.76 221.346 -174.609 -267.392 218.841 -175.137 -241.6 220.975 -163.983 -255.155 249.397 -99.4157 2.90227 3.2309 9.20957 
162.346 160.105 161.852 160.856 163.476 155.15 142.32 148.703 150.119 147.121 -295.449 219.867 -110.472 -301.529 219.07 -153.102 -288.082 220.923 -173.823 -263.844 217.903 -174.387 -238.169 219.825 -163.273 -250.528 248.44 -98.7053 2.55608 3.27031 7.78066 
162.94 161.478 162.78 161.898 164.206 155.418 143.709 149.223 150.697 147.822 -291.034 219.89 -109.339 -297.285 219.401 -152.389 -283.969 220.464 -172.688 -259.855 217.069 -173.511 -234.266 218.99 -162.724 -245.21 247.84 -97.9927 2.24209 3.28528 6.8791 
163.848 162.619 163.98 163.257 164.506 155.786 145.92 150.364 151.825 148.107 -285.428 219.722 -108.147 -292.027 219.917 -151.851 -278.695 220.288 -171.722 -254.612 216.542 -172.78 -229.126 218.036 -161.682 -238.802 247.278 -97.2159 1.91024 3.37722 5.96932 
164.85 163.661 165.133 164.318 164.455 156.208 148.633 151.712 153.059 147.755 -278.982 219.452 -106.922 -285.994 220.37 -151.473 -272.424 220.156 -170.992 -248.272 216.065 -172.179 -222.892 216.71 -160.095 -231.522 246.694 -96.4867 2.35629 3.54636 5.15491 
166.42 165.912 166.389 165.62 165.155 157.652 152.698 153.222 154.242 147.128 -272.16 219.789 -105.138 -279.25 221.005 -151.146 -265.797 219.844 -169.905 -241.501 215.281 -171.432 -216.629 214.629 -158.169 -222.681 245.466 -95.9465 3.88947 3.75865 3.88531 
167.018 165.79 166.933 165.984 164.906 158.475 153.74 153.35 154.238 146.018 -263.745 219.805 -104.215 -271.209 221.56 -150.599 -258.212 219.924 -168.865 -234.059 215.275 -170.719 -209.395 213.994 -156.918 -213.334 244.714 -95.5831 5.00741 3.68997 3.02174 
166.995 164.624 167.083 165.715 165.202 159.041 152.744 152.653 153.226 144.872 -253.881 219.406 -103.821 -261.506 221.207 -149.645 -248.838 219.231 -167.986 -224.662 214.219 -169.879 -200.374 212.722 -155.611 -203.037 244.058 -95.4885 5.91134 3.8675 2.85815 
167.058 162.982 166.741 165.535 164.449 159.561 152.293 152.29 153.095 144.705 -243.035 219.059 -103.593 -250.639 220.784 -149.4 -238.232 218.449 -167.56 -214.168 213.368 -169.708 -189.68 211.518 -155.402 -191.659 243.182 -95.4857 6.14729 3.75505 2.55256 
166.855 162.401 166.549 165.419 165.322 159.674 153.065 152.765 153.745 146.027 -230.423 218.387 -103.846 -238.071 220.272 -150.295 -225.912 217.74 -167.99 -201.914 212.895 -170.303 -177.417 210.972 -156.07 -178.949 242.022 -95.6537 6.00398 3.56853 2.10029 
167.02 162.579 166.983 165.953 165.243 160.03 154.322 153.726 155.048 148.766 -216.281 217.967 -103.686 -223.789 219.481 -150.577 -211.555 216.659 -168.075 -187.517 212.019 -170.65 -162.63 210.316 -157.178 -164.613 240.794 -95.112 4.8252 3.47237 1.71087 
166.819 163.625 167.173 166.445 166.925 159.942 157.036 155.373 157.159 152.679 -200.494 216.428 -102.628 -207.262 217.667 -151.139 -195.111 214.527 -168.182 -171.261 210.601 -170.925 -145.998 209.339 -158.258 -148.364 238.477 -94.1224 3.28471 3.00851 1.39632 
166.898 164.39 167.944 167.268 168.039 160.099 159.065 157.434 159.458 156.045 -182.775 214.977 -102.023 -189.301 215.913 -151.639 -176.742 213.1 -168.823 -152.784 209.808 -171.66 -126.88 208.487 -159.326 -130.565 236.173 -92.9658 2.50042 2.88242 1.38104 
166.519 164.786 168.824 168.512 169.332 161.335 160.049 158.835 160.565 155.724 -145.696 213.821 -104.21 -150.459 212.508 -154.553 -136.626 209.713 -171.196 -111.913 207.2 -173.206 -85.7639 205.623 -158.906 -95.5757 234.944 -92.4317 4.52595 3.36479 0.727257 
168.166 164.994 168.627 165.895 164.866 159.775 158.754 157.187 157.097 147.298 -89.9196 195.521 -111.662 -98.6252 204.672 -158.939 -78.567 199.9 -173.503 -52.9535 198.844 -171.662 -30.0635 198.79 -152.482 -49.7383 230.219 -91.5911 6.56621 3.98841 4.03627 
170.141 164.533 165.468 164.323 164.378 162.09 156.426 153.984 154.44 146.462 -62.9055 190.482 -113.462 -69.9499 200.803 -159.414 -46.9795 194.675 -170.927 -21.7808 195.37 -168.083 -0.81582 197.504 -148.906 -25.3992 229.597 -90.0928 4.97576 3.66352 6.27306 
172.798 164.291 165.347 163.103 163.825 165.447 154.615 152.295 151.565 146.082 -35.8152 184.646 -115.049 -38.6249 195.038 -159.416 -14.4756 188.327 -167.781 9.82934 189.788 -162.794 28.8104 194.99 -144.303 -0.740363 227.57 -88.2334 2.25179 3.22936 6.96936 
175.213 163.944 165.57 162.89 164.095 168.731 150.995 150.683 149.848 145.482 -7.84755 180.439 -114.624 -4.93802 189.354 -156.663 19.7853 183.225 -162.462 43.254 185.987 -155.595 60.5165 193.656 -136.963 25.0471 226.503 -84.888 0.166849 3.02437 6.47391 
177.521 162.006 163.58 161.266 161.995 172.733 148.915 149.352 148.956 144.617 45.8615 172.077 -106.953 59.97 182.047 -148.111 86.2339 176.212 -148.584 107.795 181.294 -138.259 122.37 192.672 -118.645 74.4582 223.835 -75.0852 3.56613 3.31003 6.73077 
176.649 162.189 158.878 161.551 165.107 172.524 148.134 149.752 151.553 147.339 72.4425 172.523 -101.334 93.2903 181.204 -140.654 119.276 177.218 -139.776 140.487 183.256 -128.077 154.6 194.768 -106.198 98.8463 223.499 -67.126 5.70767 4.59981 5.14506 
175.56 161.656 156.418 166.954 167.713 171.54 148.267 151.537 155.861 148.799 97.1555 173.061 -94.2544 125.282 180.421 -130.926 150.569 179.386 -129.981 171.219 186.204 -116.287 183.606 195.69 -90.1272 120.458 222.112 -57.204 6.75793 5.92583 3.6547 
173.501 162.994 159.053 171.119 169.059 169.325 148.912 156.422 161.613 151.406 120.177 175.414 -85.8163 155.833 181.736 -120.16 183.04 184.852 -119.376 202.401 192.226 -101.307 211.215 199.065 -71.1124 140.317 222.299 -46.5275 8.05184 7.0012 6.7706 
172.659 161.835 158.721 168.636 170.372 169.044 147.574 155.843 162.659 155.979 140.621 179.067 -78.7437 183.639 186.218 -109.201 213.259 190.328 -103.603 230.804 197.233 -81.5457 234.503 201.41 -48.5818 158.052 222.617 -35.0254 9.07788 7.94594 8.69327 
172.896 160.981 160.573 166.5 165.256 169.588 149.546 155.8 160.982 153.146 157.194 183.181 -71.4937 210.868 190.994 -96.2371 239.738 195.517 -85.9255 254.039 200.83 -60.173 252.165 203.259 -25.8314 173.249 223.253 -23.5888 9.66011 7.97483 8.68996 
174.094 160.076 161.411 162.179 162.664 170.468 151.031 155.126 156.405 153.062 175.181 189.046 -65.1253 235.031 196.85 -83.7515 262.041 201.419 -70.2074 272.75 204.008 -41.2065 267.834 206.705 -6.11328 188.1 225.578 -13.1638 10.6084 8.16566 8.19395 
173.625 161.158 162.17 154.717 160.736 170.709 152.171 152.791 148.456 151.584 189.823 193.903 -59.3461 253.64 200.206 -71.6526 277.921 203.241 -55.8955 283.977 203.217 -25.9068 279.083 207.68 9.76087 200.113 227.806 -4.14606 12.1587 7.56737 6.88563 
172.26 163.106 163.544 152.582 159.817 169.815 152.928 151.087 143.957 150.461 201.961 197.206 -53.3529 266.967 202.031 -61.3858 289.001 203.193 -44.0602 291.897 201.541 -14.1009 286.681 206.807 21.6546 209.278 229.296 3.63503 12.8986 7.20613 5.92795 
167.598 162.103 163.327 155.146 156.361 165.433 150.252 148.367 139.267 144.211 220.399 198.693 -41.7621 283.944 204.06 -44.8669 304.112 202.396 -25.1935 302.969 199.412 3.44141 295.004 204.175 38.3965 221.203 230.803 13.6664 12.7241 6.38808 5.58351 
167.295 164.862 165.02 158.188 157.11 163.139 151.618 149.471 142.428 143.149 229.179 201.127 -35.874 290.064 207.52 -41.733 309.515 204.674 -22.2749 309.319 200.726 5.94512 299.081 203.312 39.7832 226.932 232.649 17.7014 10.9286 6.08787 5.21095 
167.042 166.907 165.739 161.253 157.674 162.194 152.502 149.47 144.331 143.459 235.542 202.696 -31.4707 295.56 209.794 -38.7522 314.216 205.999 -19.4324 315.084 202.224 8.51932 304.114 203.827 41.4405 232.715 234.734 21.302 9.79269 5.8002 4.89105 
167.269 167.679 165.944 163.023 157.972 161.959 152.347 149.496 145.571 143.539 239.145 203.023 -28.752 298.764 210.385 -36.4489 317.208 206.457 -17.7391 319.154 203.331 10.1359 307.966 204.338 42.2877 237.463 236.241 24.1534 8.97603 5.76137 4.57598 
166.875 168.233 165.094 163.378 157.662 161.827 151.212 147.577 145.13 143.453 240.125 203.518 -26.7597 300.423 210.983 -34.3336 318.29 206.554 -16.3811 321.754 204.57 11.6664 311.663 206.265 43.6795 241.625 238.363 26.852 8.96409 6.19926 3.99735 
167.651 168.257 163.436 161.651 157.141 162.853 149.52 145.57 144.315 143.962 241.316 202.987 -24.9614 300.132 208.995 -32.752 317.772 204.24 -16.1538 323.147 203.773 11.3891 315.275 206.27 43.0604 246.797 239.276 29.8771 8.93697 6.54901 3.45818 
167.724 167.657 162.803 160.649 156.785 163.253 148.848 145.6 143.776 143.683 240.526 203.073 -23.893 299.248 208.124 -32.1821 318.038 204.413 -16.2767 323.813 204.212 11.0919 316.975 207.296 43.1901 248.675 240.117 30.9267 9.51202 6.45694 4.06035 
169.013 164.109 161.439 158.668 156.5 163.375 151.266 148.029 144.192 142.367 242.221 203.975 -22.5371 298.855 206.671 -31.9458 318.867 203.828 -17.3214 324.706 202.631 10.0793 318.431 205.389 42.3981 251.178 238.639 33.3052 9.3127 6.05956 4.59305 
168.676 164.007 161.349 158.214 156.402 162.962 152.18 149.045 144.085 142.983 242.753 203.825 -22.0129 299.885 207.626 -32.2141 320.109 205.011 -17.5608 325.217 203.006 9.97778 319.248 205.448 42.4185 251.346 238.052 33.4463 9.58753 5.84816 4.68308 
166.991 166.062 161.793 156.061 155.481 161.101 152.581 148.25 141.547 140.911 242.999 203.789 -18.3044 300.574 208.209 -32.3012 320.213 203.569 -17.7654 323.928 200.232 9.7914 318.892 202.388 42.3207 252.491 237.286 34.6833 9.68288 5.48046 3.59739 
166.99 166.243 161.882 155.871 155.631 160.993 151.686 147.251 141.267 140.057 242.685 203.476 -18.0949 299.219 207.061 -31.979 318.394 201.843 -17.65 322.506 198.779 9.70587 317.281 200.897 42.0112 251.919 236.763 34.8857 9.27398 5.37748 3.24831 
167.262 166.118 161.803 156.269 155.844 161.116 151.087 146.245 141.419 139.334 242.808 203.074 -18.0578 298.379 206.061 -31.7052 316.853 200.366 -17.3342 321.535 197.673 9.83684 315.853 199.793 41.9129 251.294 236.205 35.0705 8.78832 5.38723 2.86801 
167.411 165.566 161.725 156.732 155.736 161.133 150.665 145.957 142.141 138.524 243.233 202.422 -17.9865 297.684 205.386 -31.5748 315.696 199.366 -17.2072 320.607 196.568 9.80755 313.953 198.35 41.4911 250.438 235.405 35.153 7.93942 5.39163 2.62897 
167.666 165.171 161.8 157.539 156.257 161.323 150.567 146.235 143.272 138.425 243.443 201.458 -18.1164 296.812 204.752 -31.5414 314.568 198.51 -17.1945 319.59 195.449 9.74702 311.971 196.854 41.0323 249.19 234.367 35.1982 7.15091 5.43008 2.50352 
167.824 164.706 161.711 158.028 155.821 161.328 150.699 146.571 144.349 138.184 243.7 200.346 -18.1183 296.063 204.012 -31.7418 313.554 197.554 -17.3531 318.637 194.259 9.54886 310.04 195.354 40.3972 248.002 233.245 35.0794 6.37674 5.46801 2.40504 
168.007 164.635 161.659 158.459 155.609 161.399 151.039 146.838 145.254 138.418 243.596 199.354 -18.1228 295.338 203.369 -31.8977 312.581 196.787 -17.4387 317.76 193.292 9.48927 308.545 194.136 40.0532 246.814 232.241 34.9509 5.95865 5.57443 2.33297 
168.151 164.599 161.543 158.834 155.583 161.545 151.275 146.941 145.934 138.893 242.985 198.423 -18.2243 294.398 202.611 -31.9905 311.46 196.041 -17.509 316.86 192.612 9.38572 307.417 193.37 39.8531 245.604 231.437 34.7711 5.82381 5.65723 2.25183 
167.927 164.908 160.698 158.818 154.645 161.706 151.587 146.102 146.13 138.504 241.047 196.897 -18.1837 292.178 201.219 -32.3943 308.745 194.449 -17.7132 314.742 191.454 9.11326 305.171 192.148 39.6675 243.595 230.475 34.375 5.93168 5.85398 2.15558 
167.707 165.068 160.614 159.017 154.513 161.614 151.849 146.164 146.35 138.535 239.644 195.988 -18.122 290.773 200.134 -32.7409 307.44 193.492 -18.1049 313.658 190.749 8.72184 304.104 191.543 39.4193 242.529 230.001 34.0493 6.05002 5.90654 2.15398 
167.579 165.049 160.687 159.143 154.487 161.491 152.088 146.663 146.72 139.306 238.178 195.157 -18.1825 289.454 199.125 -33.043 306.545 192.993 -18.5936 312.817 190.418 8.21395 303.515 191.256 39.1492 241.311 229.361 33.6639 6.30774 5.87751 2.21273 
167.538 164.735 161.17 159.792 155.49 161.24 152.435 148.241 147.807 140.898 236.908 194.678 -18.4096 288.54 198.635 -33.4855 306.616 193.395 -19.4088 312.703 190.687 7.56368 303.581 191.357 38.8667 240.198 228.811 33.2554 6.7038 5.85721 2.67581 
167.097 164.413 162.492 161.881 157.777 160.392 152.661 150.452 150.31 143.459 233.835 194.409 -18.7024 285.327 197.266 -34.3428 305.296 193.562 -20.7919 312.154 191.486 6.57725 303.02 192.134 38.4614 237.427 228.278 32.4374 7.24531 6.33882 4.00989 
166.826 164.345 162.45 162.009 157.376 160.138 152.42 150.059 149.999 142.452 232.872 194.364 -18.6369 284.239 197.185 -34.4268 304.031 193.283 -20.9139 311.055 191.263 6.46281 301.78 192.071 38.2712 236.588 228.441 32.3193 7.09622 6.387 3.77442 
166.65 164.201 161.929 161.668 157.037 159.882 152.14 149.176 149.2 141.451 231.57 194.266 -18.6207 282.849 197.034 -34.4024 302.294 192.797 -20.797 309.491 190.867 6.55884 300.316 191.93 38.2416 235.516 228.62 32.2074 7.00354 6.44161 3.44928 
166.627 164.114 161.906 161.6 156.399 159.751 151.781 148.635 148.815 140.445 230.381 194.572 -18.4868 281.229 196.744 -34.3601 300.494 192.408 -20.8194 307.973 190.7 6.53342 298.667 191.986 38.0597 234.562 229.104 32.1565 6.7729 6.55931 3.33107 
166.59 164.102 161.509 161.26 155.263 159.623 151.699 147.645 147.927 138.461 229.272 194.632 -18.57 279.685 196.507 -34.635 298.269 191.773 -20.8869 305.89 190.117 6.48101 296.188 191.652 37.6615 233.439 229.494 31.863 6.36142 6.62827 2.8653 
166.455 163.981 161.41 161.127 154.606 159.434 151.058 146.156 146.308 135.681 228.266 195.282 -18.5635 278.072 196.937 -34.6682 295.502 191.377 -20.8224 302.926 189.395 6.33846 293.005 191.431 37.0093 232.406 230.414 31.678 5.73106 6.39167 2.05286 
166.517 163.494 160.58 160.24 153.777 159.293 150.237 144.294 144.196 133.035 226.833 195.774 -18.7359 276.036 196.763 -34.4761 292.361 190.585 -20.5692 299.62 188.597 6.20055 289.929 191.212 36.3417 231.361 231.342 31.4281 5.16211 6.0547 1.47067 
166.681 163.491 160.185 159.17 152.997 159.129 149.811 142.484 141.884 131.051 225.064 196.393 -19.2825 273.886 196.545 -34.8069 288.839 189.61 -20.8058 295.976 187.695 5.54647 287.143 190.944 35.3392 230.472 232.329 30.9386 4.76785 5.67894 1.35462 
166.475 164.114 160.457 157.872 152.053 159.08 149.162 139.081 137.42 128.299 222.427 197.82 -20.8103 270.398 196.829 -35.9979 281.399 187.7 -21.6293 287.418 185.346 3.62765 280.912 190.26 32.5 228.835 234.287 29.6754 3.52477 4.35191 4.06848 
166.4 163.75 160.116 157.744 152.265 158.957 147.959 137.26 135.787 127.998 220.587 197.638 -22.112 267.718 196.351 -36.4663 277.127 186.427 -22.119 282.908 183.826 2.46028 277.558 189.324 30.9328 227.052 234.335 28.6813 3.17835 3.80304 5.23853 
166.146 162.9 160.058 158.195 152.935 158.565 147.132 136.504 135.283 127.704 218.945 197.549 -22.5798 265.231 196.328 -37.1601 273.978 185.93 -22.8317 279.269 182.904 1.2003 274.462 188.835 29.4376 225.509 234.906 27.7686 2.83535 3.28001 5.83713 
166.256 161.794 160.905 158.109 153.06 158.167 145.887 136.105 134.227 126.823 216.793 196.771 -22.3931 262.045 196.089 -37.4781 270.929 185.903 -23.7069 275.481 182.47 0.162131 271.171 188.568 28.3778 223.409 235.223 26.8636 2.80091 3.13083 5.60036 
166.152 160.298 161.374 160.139 154.593 157.675 144.498 137.285 136.24 127.16 214.859 195.99 -21.3989 258.798 196.107 -37.5439 269.471 186.962 -25.0172 274.221 183.191 -1.39174 268.865 189.022 27.3154 221.32 235.993 26.1194 3.00272 3.14057 3.93181 
166.475 159.763 160.535 160.225 154.767 157.516 144.115 137.879 136.832 126.297 212.628 195.122 -20.9157 256.331 196.361 -37.9001 268.003 188.016 -26.0756 272.483 183.833 -2.47664 266.048 189.439 26.6262 218.895 236.287 25.4216 3.61646 3.34428 3.10115 
166.878 158.644 159.255 160.4 155.388 157.736 143.254 138.786 137.53 123.27 207.738 194.86 -20.6816 250.829 197.841 -39.2114 264.857 191.028 -28.6047 269.772 187.118 -4.67069 260.885 191.964 25.3805 213.934 237.665 23.8802 5.8534 3.59945 1.7418 
167.034 158.201 158.58 160.3 155.972 157.815 142.754 139.33 138.098 122.647 204.683 195.73 -20.6796 247.505 199.221 -40.134 262.847 193.263 -30.3125 268.297 189.682 -6.25114 258.831 194.03 24.326 211.447 239.111 23.1942 6.64997 3.61038 1.76911 
167.349 157.994 158.834 161.499 156.797 158.119 142.786 140.985 140.017 124.219 200.845 196.712 -21.0709 243.916 200.288 -41.1229 260.92 195.362 -32.3572 267.48 192.614 -8.2104 258.245 196.659 23.1578 208.728 240.651 22.388 6.79219 3.60008 2.69916 
167.509 159.295 160.398 163.159 158.097 158.63 144.799 142.038 142.199 127.802 197.6 198.024 -22.0136 240.798 201.338 -43.8707 256.883 195.071 -34.1547 264.739 193.75 -10.1952 256.386 198.126 20.9522 206.02 242.004 21.195 6.1611 3.6199 1.11317 
167.672 160.351 161.406 164.954 158.9 159.146 146.265 142.947 144.192 130.976 194.046 199.269 -23.9424 237.077 202.638 -46.7258 252.074 195.17 -36.4513 260.825 194.358 -12.7573 253.064 198.742 18.2402 202.818 243.153 19.765 5.84596 3.7973 1.46711 
167.727 160.756 161.689 165.237 159.378 159.492 146.713 143.771 145.524 133.079 190.22 200.946 -25.757 232.431 203.765 -49.5996 247.369 195.692 -38.9718 256.72 194.961 -15.1366 249.359 199.183 15.8285 199.664 244.568 18.0783 6.01688 4.10837 1.69467 
167.574 160.617 161.834 165.464 159.168 159.715 146.512 144.425 146.744 135.084 185.758 202.453 -27.6225 226.89 204.757 -51.9431 242.032 196.415 -41.4881 252.269 195.869 -17.6001 245.583 200.106 13.1868 196.042 246.011 16.3498 5.74564 4.56103 1.61503 
167.441 160.577 161.788 164.87 159.652 159.933 146.341 144.88 147.592 138.522 180.921 204.02 -29.7318 220.851 205.619 -54.3835 236.495 197.161 -44.1329 247.652 196.723 -20.2469 242.672 200.993 10.3593 192.104 247.339 14.4427 4.98371 5.03734 1.2621 
167.302 161.058 161.777 164.499 160.148 159.972 146.248 145.047 148.656 141.794 176.043 205.448 -31.6356 214.415 206.209 -56.8919 230.16 197.565 -46.8359 242.62 197.54 -23.3836 239.505 202.08 7.00128 187.871 248.679 12.429 4.28081 5.5968 1.2321 
166.845 160.316 161.313 163.366 159.606 159.509 145.088 144.375 148.045 142.118 171.26 207.765 -33.3622 208.17 207.85 -59.2322 223.801 198.544 -49.0939 236.162 197.894 -26.2299 234.17 202.642 3.67882 183.627 250.377 10.4715 3.72326 5.09129 1.58193 
166.49 159.929 161.532 162.401 159.389 159.287 144.196 143.738 147.488 142.991 165.663 209.673 -35.2216 201.373 208.922 -60.811 216.697 199.225 -50.8191 229.605 198.806 -28.7705 229.552 204.105 0.72117 178.712 251.964 8.56842 3.56212 5.05274 1.85835 
166.398 159.559 161.247 161.843 159.195 159.134 143.015 143.225 147.167 142.985 160.3 211.985 -37.1294 194.797 210.735 -62.5803 210.165 200.715 -52.8986 223.172 200.146 -31.5992 223.874 205.422 -2.45699 173.714 253.669 6.80235 3.28901 4.75911 1.86816 
166.367 159.264 160.619 161.635 159.143 158.829 142.138 143.347 147.289 142.855 155.512 214.451 -38.8539 188.59 212.822 -64.4935 204.329 202.717 -55.3433 216.992 201.942 -34.7489 217.888 207.056 -5.94401 168.651 255.46 5.03727 2.71228 4.20105 1.55073 
166.329 159.105 160.267 161.7 159.111 158.654 141.155 143.929 147.619 142.69 150.366 216.681 -40.3846 182.138 214.455 -65.8483 198.489 204.28 -57.5974 210.487 203.132 -37.4854 211.348 208.236 -9.04083 163.46 257.204 3.34498 2.01487 3.38496 0.943423 
166.418 159.186 160.276 161.654 159.457 158.571 140.788 144.276 148.148 142.937 145.405 218.329 -42.1294 175.893 216.155 -67.8122 192.313 205.619 -59.9197 204.374 204.513 -40.429 205.331 209.341 -12.2109 158.155 258.69 1.50438 1.6501 3.24023 1.0224 
166.51 158.82 159.846 161.07 159.272 158.282 141.58 144.699 148.163 142.433 140.632 219.835 -44.1653 170.764 218.246 -71.069 186.802 207.147 -62.906 198.293 205.809 -43.7435 199.232 210.563 -15.7549 152.946 259.854 -0.633057 1.13625 2.61863 1.85435 
166.561 159.381 159.739 161.153 159.349 158.069 141.735 144.61 148.122 142.734 135.638 221.813 -46.3397 165.117 220.78 -73.8976 180.782 209.073 -65.929 192.393 207.715 -47.3543 194.07 212.453 -19.6856 147.823 261.417 -2.73319 0.917643 2.56098 2.48562 
166.61 159.52 159.37 160.611 159.124 157.925 141.048 143.236 147.081 142.258 129.998 222.105 -48.013 157.861 222.91 -77.0253 172.725 210.401 -68.7319 185.018 208.992 -51.0093 188.431 214.012 -23.6628 142.888 263.117 -5.15758 1.64871 2.806 3.55051 
166.52 159.867 159.677 160.935 159.549 157.931 140.584 142.793 146.74 142.113 124.601 222.79 -49.9626 150.946 225.373 -79.8188 165.486 212.192 -71.5831 178.08 210.508 -54.5096 182.727 215.49 -27.4468 137.796 264.696 -7.3522 2.22609 2.83063 4.13089 
166.491 160.462 160.192 161.397 160.195 157.995 140.464 143.312 147.107 142.561 118.802 223.041 -51.4128 143.471 226.336 -81.9389 158.566 213.268 -74.2686 171.521 211.525 -57.6922 177.244 216.653 -30.8821 132.506 265.819 -9.39188 2.70808 2.84034 3.74296 
