156.425 173.017 171.658 171.495 168.856 137.727 168.516 166.462 165.909 160.358 -131.358 236.895 13.4615 -124.539 236.087 -50.3329 -111.409 229.529 -63.7962 -94.2556 225.445 -59.3206 -73.1354 227.031 -42.0233 -86.6208 248.391 27.4496 2.63357 3.2125 4.48308 
156.185 172.739 170.378 170.637 168.27 138.21 166.575 164.074 163.156 156.765 -123.801 233.918 13.5669 -118.54 233.141 -49.182 -105.264 227.037 -62.773 -87.7859 222.399 -58.4088 -66.7657 223.942 -41.3811 -79.2156 246.993 26.8512 2.22399 3.64807 4.31372 
156.507 172.574 169.848 169.939 167.242 138.741 165.882 163.014 161.636 154.148 -114.935 231.421 14.0554 -110.533 229.56 -47.5625 -97.3186 224.101 -61.3414 -79.3565 219.455 -57.0787 -58.3137 221.133 -40.1139 -70.3213 245.579 26.8793 2.18495 3.79854 4.09522 
157.087 171.932 169.918 169.811 167.483 139.136 165.869 162.898 161.172 153.337 -104.558 228.812 14.5963 -101.151 225.787 -46.1091 -87.7299 220.287 -59.9378 -69.3104 215.885 -55.8292 -48.2536 218.005 -38.9314 -60.155 244.155 27.1328 2.27204 3.67559 3.87534 
157.792 171.607 170.139 169.888 167.799 139.72 165.744 162.694 160.832 152.408 -93.0002 225.989 14.2623 -90.5868 222.346 -45.3195 -76.8001 216.813 -59.2003 -57.9571 212.804 -55.3145 -37.0915 215.089 -38.1632 -48.9525 242.591 26.9208 2.65579 3.38586 3.55121 
159.038 171.938 171.099 170.844 169.526 140.572 166.605 163.407 161.574 153.237 -79.4458 221.928 13.4444 -78.3669 219.259 -44.9991 -64.0864 213.682 -58.8551 -44.92 210.088 -55.1251 -24.2409 212.755 -37.8857 -36.3754 240.929 26.7458 2.85809 3.10745 3.24487 
160.85 173.231 172.2 172.04 171.797 141.857 168.691 164.607 163.058 155.512 -64.3831 217.205 12.292 -64.2412 215.41 -45.2411 -49.5175 209.1 -58.4735 -30.1571 206.26 -54.7785 -9.78662 209.991 -37.5632 -22.6008 239.091 26.612 2.9449 2.75623 3.58891 
161.834 174.011 172.027 171.933 172.535 143.304 169.346 164.207 163.286 156.46 -47.7266 212.375 11.1846 -48.0106 210.101 -44.8762 -32.9711 203.851 -57.5267 -13.5026 202.327 -53.8725 6.11842 207.21 -36.6781 -7.55274 237.439 26.616 3.40766 2.24976 3.59473 
163.718 173.337 170.704 171.238 172.429 146.283 166.686 162.192 161.651 154.999 -30.1981 206.543 9.79207 -29.5193 202.085 -43.6426 -14.5891 197.089 -55.9519 4.99385 196.966 -52.076 23.7205 203.372 -34.6808 8.6117 235.766 26.3374 4.03507 2.06791 3.06917 
166.076 174.168 171.876 171.788 172.67 149.748 167.312 163.853 163.101 156.632 -12.1611 201.004 9.71113 -10.1709 196.837 -43.5301 5.13439 192.486 -55.7463 24.9487 193.669 -51.3796 43.015 201.677 -33.7132 26.2333 233.576 27.1409 4.06068 1.7858 2.80111 
167.598 174.046 172.601 171.986 172.396 152.907 166.691 165.152 164.232 157.636 6.66022 196.922 9.31651 11.3226 191.988 -43.6324 26.7084 189.114 -55.8653 46.6499 191.387 -50.6503 63.7049 200.778 -32.3396 45.0452 231.648 28.2836 4.30457 1.53642 2.21402 
168.707 172.69 172.101 171.656 171.09 154.897 165.554 165.292 163.688 157.092 26.2281 194.211 7.78996 34.6628 189.397 -45.4761 50.368 187.215 -57.0377 70.0563 189.012 -50.02 85.9296 199.138 -31.2591 64.6162 229.181 28.8996 4.49367 2.31761 2.21041 
168.079 171.587 173.226 167.936 169.574 155.443 165.906 168.171 160.652 154.98 47.0647 192.318 7.12462 59.2608 186.585 -46.5558 75.4049 186.384 -58.3423 93.4734 185.715 -47.6737 108.719 197.357 -28.8537 84.9635 226.93 29.7745 4.68344 5.24828 1.75755 
168.595 165.923 173.012 167.479 173.92 155.749 160.984 165.36 159.812 156.79 69.9135 189.676 6.63435 86.8593 183.009 -44.2412 103.115 184.175 -56.0773 121.641 185.262 -45.1098 136.697 197.929 -26.7786 106.993 224.694 31.6637 4.92146 3.67454 2.81002 
167.559 160.608 167.557 162.574 179.424 155.195 156.958 163.998 160.187 159.061 93.7347 186.747 10.1236 114.856 180.405 -38.0695 131.379 183.958 -51.1631 151.179 187.952 -40.7725 166.235 200.556 -21.9016 130.153 223.004 36.2718 5.80085 0.950609 5.61827 
167.604 157.681 160.476 153.633 174.626 156.117 156.333 164.437 160.686 156.535 118.593 184.547 13.8804 143.607 179.571 -30.0914 160.466 185.542 -45.3718 180.65 191.16 -34.5016 195.255 202.464 -13.7473 153.226 222.287 41.783 5.59197 2.03999 9.67555 
167.973 125.977 157.868 161.604 179.022 157.981 136.513 167.488 162.628 155.199 143.702 183.238 17.4544 169.131 175.484 -12.3835 189.793 185.466 -36.7642 208.199 192.161 -26.3152 222.63 204.739 -2.66449 174.23 220.605 48.7133 7.84921 2.98121 19.5662 
169.255 139.519 161.887 170.296 174.744 159.137 134.533 169.412 171.426 161.524 171.818 185.282 25.6168 197.477 178.233 -2.54056 223.845 190.209 -24.5213 243.627 201.192 -12.8159 254.61 211.265 14.8865 199.814 222.623 60.864 7.33451 7.50219 20.9417 
170.518 142.273 168.919 178.007 174.27 160.879 125.406 172.04 176.688 172.461 198.671 189.373 32.1461 228.568 181.624 11.5654 257.325 194.939 -13.7678 276.055 207.516 -0.13316 279.512 215.341 30.5534 223.203 225.002 71.3604 5.10524 8.66291 25.459 
171.668 174.27 178.209 178.962 174.27 164.683 139.464 175.503 177.527 176.087 227.557 190.972 39.3937 260.963 187.404 16.5588 289.305 197.658 -1.15847 303.908 208.422 15.8664 301.681 215.52 46.8252 244.7 226.269 81.9681 6.24644 6.78419 18.9767 
174.115 174.27 180 174.355 174.27 167.23 142.101 180 178.068 177.662 257.938 199.812 48.0384 286.376 205.294 20.6351 318.334 213.717 12.0002 322.909 207.86 29.512 306.187 203.34 54.8506 257.756 226.379 90.465 17.2742 3.55775 16.1162 
157.152 147.949 158.913 155.411 118.47 151.792 155.182 157.394 146.168 123.167 317.095 237.925 109.412 359.887 217.184 86.4794 351.294 204.802 57.8913 322.779 202.839 39.9426 282.36 219.336 38.2499 275.089 228.753 111.914 18.4727 10.3737 9.07705 
154.212 159.24 178.124 100.597 168.607 117.485 171.627 169.614 142.706 134.446 290.941 203.903 106.216 357.266 203.196 94.2442 357.639 197.812 70.8934 325.608 207.176 67.2909 299.263 203.092 57.7328 278.716 225.102 123.866 9.6635 8.50943 5.48253 
174.809 114.238 165.954 150.069 163.76 115.533 129.398 164.915 151.104 149.363 320.938 219.277 131.59 358.391 215.171 110.639 368.673 205.653 90.4002 345.546 215.592 76.9908 314.946 216.837 66.8858 285.717 221.876 135.155 10.7514 5.90334 10.6228 
151.031 90.0001 172.431 118.435 174.064 163.141 133.398 151.543 160.101 149.846 352.237 251.266 180.765 355.296 216.516 131.937 386.801 212.262 130.975 363.068 214.358 111.267 337.299 221.848 91.0324 299.202 222.297 157.839 12.7815 6.68132 36.9509 
175.901 174.27 172.589 165.704 156.28 164.187 84.317 143.434 128.742 147.984 351.153 249.994 207.9 357.447 221.033 149.901 392.304 217.663 149.873 373.866 224.881 132.936 351.824 222.759 107.165 306.707 221.914 166.41 15.5752 5.7672 40.9247 
134.766 174.27 163.124 174.27 136.473 172.521 79.5091 134.653 113.613 136.654 350.149 249.18 216.497 361.673 222.383 164.818 396.337 223.924 165.633 378.453 235.083 151.279 362.509 231.504 127.746 313.737 221.315 174.991 11.1511 11.4664 43.3484 
148.3 174.27 180 175.457 135.098 171.194 157.677 117.82 122.191 124.223 346.583 237.804 220.864 376.801 195.736 175.274 398.042 220.638 176.395 386.583 232.988 171.249 366.007 232.197 148.402 317.468 220.882 180.726 6.14924 19.2359 47.6976 
150.517 174.27 180 150.611 136.591 166.323 113.349 118.29 129.03 118.763 347.212 233.747 232.121 389.192 206.948 189.084 400.996 216.784 184.715 389.64 234.047 181.754 366.558 232.389 158.686 319.691 219.169 185.6 4.3942 23.2359 27.0285 
138.291 174.27 162.949 130.47 99.5652 151.458 142.601 153.542 126.579 101.752 346.558 222.896 233.528 396.14 199.4 207.907 394.862 188.316 176.652 390.3 211.688 185.864 360.766 212.456 162.737 320.491 219.591 189.248 10.1067 39.6327 13.4941 
157.865 174.27 146.238 126.526 117.629 148.292 177.399 158.773 140.314 103.403 346.549 224.397 231.389 399.008 196.104 215.962 404.858 181.705 196.985 394.273 204.913 195.972 363.055 210.15 170.667 319.596 216.82 192.361 11.6319 29.2169 1.20515 
168.863 174.27 161.362 128.327 118.198 157.475 178.387 163.867 136.623 109.185 371.813 205.03 225.7 399.908 196.132 221.728 409.023 175.052 204.03 393.094 204.882 202.568 363.223 204.849 175.709 320.461 214.695 194.788 7.28331 33.0989 3.18871 
171.773 174.27 147.538 149.341 145.683 162.039 178.421 165.561 148.873 143.896 389.235 187.241 222.721 399.384 196.862 230.398 401.941 173.5 213.978 392.329 188.597 207.039 364.992 185.729 180.855 315.834 209.811 194.869 3.85676 20.8052 6.33217 
170.133 174.27 143.574 153.671 160.834 158.787 178.257 153.205 152.507 150.843 366.341 174.691 247.335 392.636 185.9 242.471 396.807 174.73 225.625 390.455 186.338 207.102 367.739 192.036 183.159 312.864 206.691 197.728 0.474506 9.93387 2.42879 
171.501 174.27 134.767 152.034 160.451 161.031 179.796 144.903 149.174 154.578 371.798 163.552 236.281 387.998 187.878 240.181 392.91 183.53 228.073 387.005 187.838 207.835 365.346 183.689 181.852 310.928 206.635 198.467 8.48453 5.7018 5.62431 
171.493 174.27 144.306 152.716 156.231 160.938 176.918 145.25 150.552 156.721 370.929 157.167 210.817 384.023 186.363 238.039 392.985 181.947 232.595 386.253 186.659 207.953 364.502 182.205 181.509 310.149 207.123 199.913 11.1846 5.72124 9.60264 
170.539 161.214 158.693 161.465 157.4 158.87 173.533 150.644 151.485 155.793 368.468 177.175 209.92 382.377 192.826 232.196 397.655 180.564 225.704 386.815 184.023 196.175 365.148 178.484 172.488 308.885 208.258 201.895 11.0064 8.64705 6.90933 
168.049 174.27 174.244 163.739 164.274 154.648 172.233 172.537 162.28 163.484 363.011 213.853 196.297 388.252 206.217 219.083 398.06 177.248 208.452 381.869 163.258 182.317 358.869 159.385 175.398 307.462 210.256 200.743 4.27028 11.6499 5.7684 
132.47 174.27 179.999 174.328 174.27 166.907 178.311 179.946 178.041 177.638 338.729 217.607 191.052 391.986 206.748 193.179 396.879 177.284 191.205 369.041 139.342 180.402 342.078 141.959 184.897 306.375 210.281 202.371 2.6503 22.5008 5.46953 
170.134 174.27 180 174.27 174.27 153.567 177.802 179.855 178.084 77.9006 336.141 202.339 184.667 389.901 205.565 194.554 388.53 168.143 187.44 355.474 136.877 175.773 317.334 157.513 178.66 305.82 209.748 202.451 25.5753 23.6029 14.7694 
179.395 174.27 180 174.666 129.813 156.666 176.924 153.861 178.153 113.271 330.667 198.984 168.056 381.566 195.972 177.478 368.738 167.882 178.192 346.194 131.598 179.866 322.261 154.42 195.486 303.86 209.546 202.495 15.7847 20.7184 19.4728 
171.349 174.27 180 175.849 111.781 163.148 177.562 113.307 178.568 114.916 328.173 194.121 158.388 375.305 188.941 171.138 350.871 166.607 171.78 345.402 132.381 178.818 318.727 157.016 200.143 303.031 209.015 201.827 14.7768 8.20987 28.8909 
171.261 174.27 180 174.823 105.669 167.842 161.188 92.4895 178.19 101.246 327.506 188.958 152.717 363.965 180.188 166.3 344.118 169.171 172.419 344.776 126.13 178.717 315.576 164.054 200.607 302.138 208.161 200.641 22.755 8.4538 23.3153 
172.071 174.27 90.269 174.862 120.515 171.51 176.234 82.6098 178.202 103.41 323.375 180.481 150.993 358.619 176.17 163.272 336.187 171.644 175.093 344.692 124.078 177.868 310.863 164.078 198.308 300.633 206.72 199.036 27.8052 5.09842 22.8409 
169.5 174.27 90.7615 174.834 107.818 170.137 155.551 74.6596 178.181 94.6697 320.629 174.632 152.532 347.5 167.301 160.841 332.197 170.196 175.69 344.205 120.401 175.865 306.723 164.369 202.613 298.161 204.545 196.295 26.6918 1.96651 15.5306 
167.425 90 90.0456 174.796 134.544 168.363 155.135 112.474 178.164 72.148 314.67 168.676 149.809 338.365 164.725 163.153 342.237 162.138 175.825 348.246 122.818 174.789 296.849 168.667 211.049 295.988 203.902 194.11 40.4833 8.92372 11.1564 
165.96 174.27 180 174.27 174.27 160.428 175.503 180 177.986 177.651 304.687 174.69 149.551 348.12 163.016 139.963 345.336 136.03 144.544 341.061 131.164 167.795 335.143 148.359 200.993 299.834 207.85 191.266 4.75806 4.04886 12.0929 
147.813 174.294 99.9215 115.625 109.442 148.793 161.518 75.0168 66.7324 112.1 304.174 160.179 166.275 380.339 167.304 189.374 314.3 158.854 171.257 301.738 167.51 162.935 319.939 173.123 138.245 298.105 199.738 184.949 46.6279 14.3366 74.4907 
140.479 174.27 106.961 110.926 90.1314 137.38 174.113 140.083 78.3947 93.5713 306.217 160.72 167.355 374.201 164.4 186.583 352.761 149.495 169.608 322.15 159.583 159.352 318.985 173.403 139.207 296.826 196.801 179.517 19.3058 21.7157 27.6155 
141.273 162.401 113.06 103.714 91.6319 132.259 161.043 140.36 109.747 40.9292 300.549 158.243 166.485 369.873 165.599 179.247 364.515 156.837 159.572 337.36 157.813 143.278 301.819 180.244 136.932 289.86 191.263 171.907 20.5723 15.4738 16.4233 
140.237 163.337 127.263 90.0456 91.8439 127.692 159.883 151.31 152.219 42.0376 296.774 162.095 160.355 369.851 170.487 183.086 370.156 159.3 155.243 345.553 162.695 129.898 301.871 181.503 132.573 287.172 190.43 169.648 23.1089 14.3736 19.8661 
162.464 89.9999 180 175.418 90.0456 168.74 145.536 179.95 178.43 146.857 313.803 193.207 129.361 335.921 168.904 118.305 369.936 165.398 141.87 373.065 180.046 144.182 339.016 209.767 162.789 285.261 188.396 169.041 17.735 7.36306 24.4925 
163.949 153.431 179.443 174.894 174.27 164.869 168.699 166.983 178.381 177.639 315.221 197.643 129.655 347.85 178.918 114.128 375.033 175.291 134.73 372.751 174.623 141.298 347.039 227.004 165.96 286.896 191.96 167.173 40.5562 13.4959 16.2474 
160.31 174.27 180 174.423 174.27 166.473 178.481 157.406 178.097 178.132 308.021 190.589 126.254 344.586 163.722 116.137 369.199 168.493 133.003 371.497 174.192 141.288 358.086 213.533 160.223 283.761 192.004 164.19 17.6519 9.50812 14.0718 
160.933 143 147.373 148.548 149.903 157.122 124.429 144.488 118.071 146.056 334.973 217.678 152.543 356.685 214.502 142.034 370.443 192.338 136.896 355.935 171.706 140.035 347.052 167.627 165.501 287.077 196.299 150.499 10.6942 13.0599 17.2601 
119.662 108.841 179.999 174.633 90.6982 156.203 140.196 179.921 178.102 76.9808 308.991 173.126 140.913 364.786 168.435 147.763 351.472 142.323 126.896 329.619 149.256 75.3562 303.78 191.053 115.379 289.487 198.322 155.753 24.174 25.7663 36.7448 
139.026 164.109 111.28 92.9263 127.44 141.366 163.293 92.913 79.6175 122.457 298.594 163.84 143.055 362.945 170.888 140.899 315.582 153.616 132.824 304.141 169.79 125.216 317.643 190.237 100.608 287.159 201.876 153.209 45.2056 6.51097 57.6264 
129.708 174.27 140.379 128.745 141.275 140.621 177.571 98.6017 82.8159 137.059 291.537 161.56 138.642 358.999 167.155 132.463 309.536 151.439 125.095 293.155 168.491 120.941 317.667 195.184 94.503 286.351 204.761 150.328 58.9743 11.0238 54.373 
143.531 174.27 115.951 122.474 168.688 143.627 177.996 97.5511 72.9191 136.398 288.992 164.196 130.887 356.754 167.928 128.328 316.391 157.35 126.172 293.932 176.081 121.095 316.49 195.361 87.8667 286.429 209.866 145.404 58.7616 15.986 43.7249 
144.429 174.27 129.385 142.152 151.505 145.1 177.983 98.8647 69.1748 153.109 287.188 163.066 127.448 353.465 165.86 122.889 315.44 160.4 115.265 285.887 179.506 118.256 316.892 202.471 82.5466 284.037 211.384 141.523 72.8514 28.8572 35.9253 
146.59 174.27 123.305 147.993 163.414 146.657 177.986 107.517 71.0313 151.776 288.428 164.897 126.938 353.181 170.431 124.066 324.17 163.554 114.956 285.433 179.524 117.093 316.835 203.846 80.8134 282.562 214.141 138.937 74.3908 35.5363 26.9596 
145.111 174.27 126.358 142.13 174.9 141.508 161.107 115.811 76.2463 143.631 290.33 172.773 125.096 352.157 176.976 119.58 327.101 165.39 111.896 288.387 178.461 111.756 311.967 201.418 77.7703 280.79 216.712 135.576 62.8175 30.882 26.9159 
148.51 174.27 124.87 129.069 174.27 142.673 129.376 106.693 79.843 136.868 288.456 175.194 118.793 337.815 171.998 115.529 319.396 167.199 111.848 292.244 180.789 106.93 308.538 203.311 75.3275 279.439 219.139 131.49 53.6833 17.3439 22.0153 
148.881 174.27 118.518 105.897 174.27 144.322 127.722 116.333 73.0936 115.66 287.792 178.032 114.321 334.656 172.949 110.65 320.896 169.8 102.243 289.688 187.57 104.968 296.903 198.872 78.7239 276.689 220.925 126.817 37.2759 24.9178 15.5659 
150.238 174.27 130.449 111.691 174.27 145.635 126.722 128.339 86.4628 119.785 288.628 181.182 114.973 329.836 174.175 108.206 322.232 171.645 93.7704 288.245 184.417 97.4566 292.38 200.678 71.5033 272.885 223.459 123.399 34.1852 24.691 7.5944 
145.994 140.171 126.335 100.856 174.27 141.591 128.437 136.765 98.2515 122.066 288.976 188.023 117.759 329.332 178.609 108.807 324.93 177.61 87.265 291.183 185.948 86.1684 288.37 202.442 65.6523 267.883 225.461 119.876 25.6409 18.5838 1.85391 
146.299 144.147 135.222 102.431 174.27 144.462 133.374 142.876 105 125.267 290.836 193.972 119.521 327.843 182.413 105.149 326.475 182.802 81.9467 291.893 187.447 82.966 285.4 205.78 60.7032 263.448 228.301 116.525 26.5621 19.0484 2.97263 
146.311 146.529 147.572 113.558 168.844 146.803 138.822 152.393 129.593 143.041 289.437 198.586 119.103 324.994 185.424 101.109 328.191 189.382 75.8418 298.832 189.89 72.1263 283.247 209.365 53.4719 258.822 231.28 113.358 20.2376 12.3236 8.23086 
152.519 156.192 170.1 142.869 165.08 153.703 148.478 155.732 143.278 149.135 287.585 207.578 110.605 320.94 194.773 91.0381 324.242 198.126 68.1316 301.262 196.024 59.0504 277.013 209.944 46.2747 250.717 236.937 104.72 10.8154 6.34825 8.31784 
156.112 163.846 174.755 145.564 168.036 156.405 156.395 161.742 146.677 155.615 285.777 213.147 106.862 319.878 200.53 84.2982 322.354 204.967 61.542 298.812 200.322 52.7852 274.289 213.989 40.3608 245.981 239.377 99.9903 11.588 7.3255 8.48789 
159.604 167.703 174.222 142.24 169.796 157.452 160.544 162.986 149.351 156.86 281.93 218.996 101.704 316.753 205.599 76.8469 317.673 209.263 54.9457 293.6 205.218 46.278 269.271 217.153 35.0098 240.871 241.733 95.4167 10.6045 6.55287 7.04327 
163.949 168.334 171.826 139.929 170.209 158.079 161.615 161.481 148.342 156.039 277.485 224.097 96.4823 312.384 209.988 69.0334 311.519 211.711 48.4303 286.341 207.756 40.6671 262.673 218.632 29.8392 235.768 244.048 90.5926 10.1852 6.74677 5.02702 
168.972 169.232 170.16 144.827 169.558 157.892 162.115 158.917 146.032 152.36 272.971 227.907 90.1228 307.295 212.877 62.8258 305.418 213.252 43.3107 279.877 209.222 36.0859 255.933 219.864 25.1873 230.574 246.197 85.5042 10.1937 6.87363 3.93144 
179.611 167.505 167.205 146.076 162.354 160.392 157.548 155.739 141.731 144.201 268.533 236.164 81.513 300.06 214.356 55.8478 298.938 214.79 37.2858 272.01 210.441 30.9994 247.888 221.436 20.7998 225.631 248.341 80.2005 10.1384 7.92288 4.9553 
150.48 164.699 167.537 155.607 157.029 172.07 152.21 147.394 140.866 133.166 259.648 239.86 71.5381 284.257 217.546 41.2832 280.985 215.628 26.4612 256.903 213.146 17.8277 230.574 220.386 14.5455 214.267 252.235 69.6825 2.22129 4.8168 5.39177 
145.623 162.433 154.313 151.545 154.466 171.002 147.942 137.301 134.898 128.477 253.252 240.363 66.0276 275.907 219.073 33.9515 266.518 213.059 21.2218 244.352 211.773 12.4328 220.261 221.061 9.74273 208.186 253.895 64.897 3.90074 3.31275 5.51389 
175.408 159.698 148.167 150.196 153.651 159.126 143.865 132.552 133.18 133.413 241.255 243.786 54.4117 261.716 224.414 21.2065 250.374 215.579 12.4021 228.469 214.57 2.22247 206.632 227.409 -2.71603 195.273 256.758 55.5517 10.9749 3.0949 9.14341 
165.094 158.95 147.907 151.346 152.314 153.717 143.58 134.012 133.751 135.1 232.387 244.463 49.7041 253.562 226.683 15.7373 242.874 217.505 7.48045 220.366 216.213 -2.44715 197.68 228.886 -7.58707 187.331 257.444 51.8408 11.9493 3.46722 9.34531 
154.925 158.315 146.355 154.059 151.415 150.181 143.654 137.046 136.826 136.887 224.218 245.993 45.8893 246.516 229.354 10.5873 236.876 221.739 1.03527 213.761 219.851 -8.96211 189.191 231.253 -12.6839 180.119 258.582 48.3888 11.0359 4.09053 7.59998 
151.37 160.155 151.573 156.203 153.901 147.994 145.805 141.187 139.452 138.096 216.321 247.189 40.8134 239.002 230.986 4.84757 230.319 224.037 -5.65264 206.639 221.367 -14.1364 181.536 232.092 -16.2289 172.922 259.671 44.8567 9.99385 3.94563 6.67049 
152.043 162.396 157.052 153.254 156.778 147.452 148.781 143.774 138.681 139.432 202.826 250.622 30.8868 224.079 233.621 -6.73609 214.729 225.961 -17.1467 190.166 221.623 -21.4309 165.629 233.074 -23.1483 158.996 262.04 37.7157 10.9223 4.47367 6.39473 
150.749 160.734 156.189 149.399 153.789 146.72 146.001 140.841 135.885 138.368 196.172 255.441 27.2562 214.908 233.148 -11.2064 204.485 224.518 -20.7472 179.256 220.561 -24.3626 156.058 234.701 -27.3124 152.218 263.31 34.6545 14.5049 4.72969 6.84502 
151.365 158.756 151.177 145.895 153.396 147.672 144.232 138.463 134.142 136.866 189.644 258.011 23.6871 206.546 233.456 -15.2067 195.069 224.928 -24.3236 169.949 221.459 -27.4334 147.281 235.435 -30.2371 145.439 264.323 31.8204 14.8189 4.42114 6.67651 
151.61 157.266 147.336 143.385 152.431 148.986 143.398 137.368 132.663 135.762 182.168 259.336 20.541 198.408 234.108 -18.7296 185.777 225.906 -27.7877 160.177 222.167 -30.0144 137.575 235.945 -32.6557 138.465 264.99 29.6656 15.1491 4.93779 6.159 
155.254 155.897 145.124 145.357 153.045 147.682 142.235 136.67 133.075 132.188 166.35 260.617 13.1057 183.379 235.455 -25.2076 169.944 228.585 -34.8781 144.974 225.241 -36.4962 121.676 236.944 -35.8174 125.954 266.875 25.3745 12.2695 4.13726 4.47488 
157.423 154.473 145.445 145.215 152.59 146.911 140.022 134.706 132.506 129.755 153.667 259.833 5.69305 170.91 237.18 -30.7622 156.884 231.285 -41.018 132.862 228.407 -42.5825 108.724 238.109 -39.8467 115.201 268.828 20.4302 10.1551 3.08173 3.03686 
157.323 152.309 145.109 143.166 152.694 145.595 137.863 132.949 131.265 127.868 147.772 258.573 2.65996 163.942 236.38 -32.3941 150.626 231.48 -42.8688 127.134 229.575 -44.7162 102.465 238.117 -41.1983 109.797 269.105 18.0976 9.24161 2.40113 2.66212 
157.67 150.946 145.555 141.481 152.464 145.38 136.005 130.908 129.057 126.327 142.691 257.447 -0.491786 157.686 236.523 -34.5774 144.621 231.275 -44.4321 121.095 229.77 -46.0607 96.3543 238.15 -42.6636 104.726 269.772 15.7448 9.51191 2.41694 3.10822 
158.015 149.526 144.811 140.566 152.105 145.799 134.145 128.676 127.97 125.387 138.646 257.681 -2.71477 151.002 235.476 -35.7533 138.041 229.552 -44.7448 114.973 228.989 -46.9793 90.5612 237.318 -43.338 99.6891 270.057 13.9181 9.42905 2.78066 3.64434 
159.947 148.143 142.942 140.022 150.305 147.462 133.351 128.786 129.211 125.667 135.335 258.643 -4.68232 144.218 235.461 -37.6735 132.148 229.133 -46.0862 108.887 229.606 -49.2248 84.4703 237.011 -43.998 94.6881 270.558 12.692 8.25581 4.30247 4.53468 
