166.436 167.414 172.622 172.251 170.753 161.182 160.913 167.548 168.297 162.24 -363.833 273.25 -6.03883 -378.02 281.386 -56.3594 -366.008 291.835 -81.0348 -340.043 287.952 -88.4439 -310.082 280.3 -79.9609 -309.339 295.03 -3.79981 6.65922 5.27054 10.5807 
167.573 168.708 173.667 173.919 172.568 161.565 163.884 169.528 170.536 164.416 -362.409 272.424 -4.97681 -378.605 282.161 -55.278 -367.24 292.729 -79.6219 -341.823 288.912 -87.5443 -311.725 281.15 -79.785 -307.935 294.229 -3.77342 6.25625 4.91677 10.191 
168.876 170.919 174.521 175.164 174.345 162.062 166.915 171.02 172.196 166.302 -360.741 271.448 -3.86113 -378.616 282.818 -54.3062 -367.711 293.208 -78.2462 -342.669 289.352 -86.6995 -312.45 281.573 -79.7253 -306.088 293.36 -3.9252 5.97285 4.75111 9.60077 
170.04 172.436 175.099 176.069 175.93 162.593 168.999 172.095 173.415 167.741 -359.147 270.951 -2.88748 -378.148 283.308 -53.6511 -367.575 293.359 -77.2765 -342.755 289.378 -86.3077 -312.409 281.541 -80.0971 -303.992 292.432 -4.5812 5.86154 4.76067 9.00887 
173.129 174.063 175.063 176.599 177.81 164.844 170.005 172.469 174.067 167.593 -357.596 270.385 -2.0586 -376.819 282.323 -52.582 -365.99 293.236 -76.8885 -341.136 289.075 -86.5115 -310.82 280.02 -80.0998 -301.264 291.575 -5.53774 6.71303 5.02575 9.87205 
172.671 173.154 174.6 175.974 177.225 165.116 170.431 173.482 174.612 167.006 -353.252 268.542 -2.52657 -373.298 278.899 -51.7816 -362.68 292.099 -77.3143 -337.581 287.745 -87.2762 -307.009 277.868 -81.1467 -297.472 290.213 -6.99549 7.78468 5.37639 12.2149 
172.615 171.014 174.444 175.515 176.527 165.471 171.051 174.606 175.259 166.71 -348.3 268.066 -2.58682 -367.269 274.281 -51.6256 -357.685 290.429 -78.286 -332.622 286.012 -88.3948 -301.881 275.842 -82.5838 -292.346 288.531 -8.67493 8.40164 5.47398 15.1206 
172.09 170.108 174.325 175.171 175.695 165.043 171.248 175.371 175.514 166.297 -340.366 265.98 -4.11051 -357.839 267.674 -52.4177 -349.865 286.952 -80.2644 -324.986 282.662 -90.2794 -294.299 272.753 -84.5613 -284.662 285.723 -10.8657 8.47633 5.35365 18.3712 
171.362 167.341 173.477 174.138 174.694 164.737 169.28 174.979 174.615 165.285 -330.471 263.01 -6.73248 -346.875 261.57 -53.3931 -340.796 282.775 -82.3809 -315.916 278.17 -92.5731 -285.027 268.516 -87.1328 -275.242 282.682 -13.723 8.75714 5.57449 20.9031 
171.855 168.165 172.749 175.88 175.727 164.353 171.151 173.745 174.775 165.525 -308.229 256.036 -14.2397 -323.742 251.987 -59.6221 -318.137 271.965 -88.8112 -292.981 267.796 -99.5824 -262.021 259.553 -94.0665 -254.671 277.169 -20.6705 9.26647 6.12225 21.0894 
171.217 170.179 171.109 174.924 175.392 163.392 167.651 171.859 172.308 164.541 -290.404 247.826 -20.0625 -306.217 244.408 -63.9772 -300.322 263.419 -93.147 -275.481 259.607 -103.398 -244.524 252.996 -97.949 -238.346 271.995 -24.9075 8.68425 5.75515 20.5795 
170.11 169.009 169.878 172.818 173.22 163.157 164.883 170.65 170.586 163.448 -274.042 241.295 -25.8513 -290.474 239.081 -69.0254 -283.981 257.244 -97.9729 -259.008 253.769 -107.955 -227.844 247.801 -102.534 -222.74 267.158 -29.4942 8.6038 5.70956 19.7061 
170.134 168.658 169.138 171.465 171.56 163.359 164.398 169.863 169.032 162.185 -257.364 235.503 -31.5439 -274.265 235.497 -75.3756 -266.127 251.563 -103.576 -240.889 247.548 -112.82 -209.917 241.832 -106.742 -206.34 262.74 -34.031 8.7115 5.91308 17.4575 
170.177 167.352 168.087 170.092 170.838 162.877 162.895 168.701 167.357 160.905 -239.262 229.21 -37.7422 -256.214 231.29 -82.2843 -246.737 245.548 -109.494 -220.988 241.619 -117.884 -190.672 236.875 -110.827 -189.052 258.929 -38.6525 8.2254 6.14113 15.3777 
168.836 166.605 167.923 169.621 170.098 161.953 162.335 168.475 167.135 161.058 -219.514 222.923 -43.4991 -236.879 226.978 -88.8441 -225.91 239.644 -115.249 -199.598 236.192 -122.809 -169.525 232.277 -114.837 -170.527 255.006 -42.6497 7.84171 6.19495 13.7484 
167.874 165.562 167.328 168.792 168.824 161.438 161.263 167.558 166.202 160.147 -199.631 217.605 -49.8173 -217.54 223.967 -95.9017 -204.401 234.744 -121.726 -177.261 231.523 -128.318 -147.417 228.028 -119.076 -151.773 251.806 -47.1274 7.79348 6.50211 12.2838 
166.989 165.415 167.246 168.51 167.873 160.551 161.711 167.489 165.824 159.461 -177.082 211.258 -56.1969 -197.105 221.706 -102.917 -181.4 230.316 -127.927 -153.13 226.891 -133.261 -123.403 223.376 -122.351 -131.917 248.719 -51.007 8.307 7.15702 10.8925 
166.578 164.499 166.485 167.799 166.981 160.337 160.878 166.344 164.739 158.642 -153.72 205.481 -62.4261 -174.942 218.698 -109.15 -157.109 225.805 -133.22 -128.166 222.919 -137.27 -98.7671 220.026 -125.139 -111.363 245.785 -54.428 8.26731 7.37584 10.1779 
167.728 164.16 166.232 166.812 165.166 161.365 160.041 164.918 162.73 155.67 -129.766 200.599 -68.8517 -150.78 216.622 -115.546 -130.923 222.774 -138.603 -101.05 219.519 -140.623 -72.6046 216.346 -125.83 -89.7671 243.649 -57.2524 8.98619 8.04096 9.83051 
168.735 161.961 163.772 164.5 162.412 162.619 157.205 161.652 159.933 152.141 -104.484 194.105 -74.0383 -123.788 212.838 -121.207 -102.301 218.115 -142.778 -72.2913 216.081 -142.799 -45.2059 213.508 -125.533 -67.4873 241.161 -59.6274 9.28244 7.93787 9.37041 
170.555 162.15 163.203 163.625 162.531 164.77 155.312 159.248 157.353 150.505 -79.3709 189.578 -77.3952 -95.5114 209.636 -125.886 -72.3299 214.088 -145.352 -42.6296 212.821 -142.861 -16.774 211.972 -124.327 -44.4141 239.376 -60.3172 8.3588 7.68318 8.81515 
171.317 160.262 163.039 162.041 161.35 166.215 150.839 155.233 154.149 147.344 -54.7172 186.623 -79.5074 -65.3496 205.671 -129.215 -41.0719 209.148 -146.496 -12.2646 210.139 -141.92 11.3727 211.323 -121.567 -21.3989 238.931 -61.0001 7.30496 6.89321 8.09594 
172.207 160.615 162.838 161.626 161.051 168.237 148.532 152.789 152.099 146.282 -30.062 182.719 -80.9449 -34.5829 201.319 -130.228 -9.38661 203.683 -145.741 18.5121 206.06 -139.201 40.4384 209.024 -117.686 2.78692 236.988 -60.1969 6.03954 6.35335 7.71497 
174.106 157.912 159.43 160.333 161.246 171.091 145.182 147.539 148.993 145.284 -6.61618 181.885 -82.9119 -1.82314 197.266 -130.21 23.4847 197.583 -141.187 49.9592 202.126 -134.027 70.2253 208.065 -112.643 27.5145 235.92 -58.8375 4.61021 5.92901 5.9145 
175.671 157.386 160.355 161.802 163.479 173.265 145.943 147.075 149.633 147.258 16.6321 180.028 -83.1277 28.1815 194.548 -130.115 54.503 191.941 -136.66 80.4513 198.511 -128.478 99.7978 206.865 -106.506 51.1277 233.848 -55.9595 5.61247 6.67187 5.70458 
175.602 160.626 163.677 165.776 167.173 171.14 149.241 152.514 152.994 149.037 59.9357 180.368 -78.8187 86.2471 194.252 -123.011 115.928 193.594 -125.155 137.542 198.909 -112.732 153.152 206.601 -86.3712 89.7042 230.263 -44.459 7.71186 4.86759 6.83206 
175.108 163.255 166.059 172.376 170.669 171.045 148.568 157.301 157.247 152.807 83.8804 185.053 -74.1634 117.798 195.756 -114.497 147.319 199.384 -116.697 168.443 204.561 -100.113 182.862 209.434 -69.0591 111.916 230.109 -34.8196 10.6422 6.20372 7.86014 
174.037 163.763 167.627 175.529 171.28 170.035 147.249 159.569 160.591 155.032 106.055 189.083 -68.9539 146.718 198.376 -105.271 177.953 205.505 -105.339 199.027 209.853 -83.8497 209.034 211.33 -49.866 132.154 230.282 -24.8554 11.2622 8.45242 11.1228 
173.711 162.511 166.967 174.854 170.365 169.102 145.977 160.042 161.888 157.025 124.968 191.636 -63.2043 171.722 201.351 -95.6116 205.625 208.958 -90.9941 224.981 211.132 -65.3736 230.535 209.477 -29.5424 149.566 229.54 -14.5918 11.8166 9.65236 13.6931 
173.546 159.951 166.537 171.939 167.988 168.854 145.642 158.868 161.119 156.164 140.736 194.94 -56.0035 193.517 205.7 -83.8941 227.888 212.224 -74.6933 245.286 211.88 -45.7826 245.907 207.211 -8.93492 163.843 229.283 -2.98822 12.1523 10.6954 14.5386 
173.326 158.066 165.082 168.876 165.766 169.744 145.585 157.115 159.512 155.382 154.269 199.891 -49.6904 213.212 210.384 -71.5957 247.022 214.246 -57.8162 261.458 210.783 -26.5267 257.484 204.068 10.1512 175.884 229.758 8.22348 12.1319 11.0804 14.387 
173.871 157.297 164.393 165.776 163.61 170.522 147.625 156.178 157.993 155.364 166.431 204.611 -44.187 231.635 215.254 -59.8347 263.527 214.985 -41.9367 274.406 208.238 -9.12326 266.729 200.379 26.7312 186.253 230.118 18.2291 11.8776 11.2582 13.4197 
175.205 158.675 164.399 164.847 163.5 170.825 149.825 155.492 157.543 156.717 177.476 208.845 -38.2763 246.83 219.015 -48.073 276.461 214.669 -27.1422 284.435 205.59 6.24324 273.872 196.809 41.1931 194.731 230.391 27.604 11.699 11.3705 12.845 
177.597 163.446 164.699 165.639 164.126 172.026 152.298 154.301 157.722 158.3 190.857 213.686 -32.0133 260.632 221.157 -36.4233 286.68 213.383 -13.9153 292.629 202.385 18.8353 279.775 192.847 52.5289 202.276 230.356 35.9387 11.2631 11.0652 11.6676 
175.843 166.372 165.551 166.708 164.451 170.869 153.835 153.963 157.791 159.05 203.378 216 -24.8539 272.223 221.592 -25.2533 295.415 211.149 -2.05045 298.84 198.581 29.8403 284.091 188.867 62.1115 208.464 230.055 42.4697 10.7878 10.5919 10.7504 
172.618 168.839 166.82 167.663 164.097 169.28 155.477 153.851 157.283 158.762 210.8 215.496 -18.2028 278.805 221.434 -18.1367 300.058 209.948 3.72496 302.783 196.396 34.3744 288.516 186.808 66.5011 213.17 228.895 47.4283 10.6516 10.0285 9.21505 
169.403 171.027 167.743 168.191 163.731 167.493 156.691 154.365 156.79 157.374 217.769 214.375 -11.0191 284.589 219.666 -10.4628 304.435 208.263 9.9373 306.24 193.957 38.8979 291.767 184.171 70.5462 217.23 227.071 52.243 10.4629 9.09299 7.6215 
166.328 171.868 167.933 167.762 162.849 165.491 157.085 154.162 155.415 155.247 223.546 212.709 -3.60961 288.33 218.196 -3.58399 307.21 207.569 15.7203 308.343 192.755 43.4507 293.923 182.899 74.7413 220.352 226.187 56.9936 10.3894 8.48096 6.47778 
164.858 172.115 168.195 167.523 162.222 164.476 157.967 154.26 154.184 153.311 227.791 210.653 2.40015 291.335 217.211 2.00331 309.558 207.137 20.7466 310.149 192.427 48.0394 295.868 182.836 79.2077 222.94 225.652 61.2892 10.4252 8.16771 5.78216 
164.081 172.196 168.263 166.98 162.008 163.374 158.927 154.485 153.162 151.263 231.521 208.577 7.4471 294.146 215.861 6.59341 311.726 206.09 24.8319 311.753 192.002 51.8278 297.368 182.947 82.5944 225.324 225.016 64.9204 10.1664 7.72296 5.1111 
164.074 172.61 168.416 167.011 162.012 162.193 160.691 155.297 152.84 149.748 235.091 205.648 12.0226 297.152 215.321 10.2915 314.17 205.141 29.0548 313.477 191.337 55.9364 298.627 182.725 85.8558 227.42 224.146 67.9834 9.5976 7.51627 5.08938 
164.053 172.224 168.528 166.52 162.189 161.799 160.894 155.347 152.039 148.438 237.108 203.501 15.7572 298.628 214.435 13.4556 315.375 204.602 31.995 314.333 191.064 58.7014 299.477 182.828 88.5065 229.148 223.793 71.3804 9.41205 7.28018 4.79529 
164.839 172.295 168.38 166.102 162.5 161.221 161.809 156.135 152.25 148.531 239.043 200.723 18.6983 300.743 213.789 15.9692 316.935 203.656 34.4652 315.354 190.301 60.8098 300.262 182.339 90.1209 230.574 222.891 74.1174 8.80321 6.90285 4.49845 
165.178 172.327 168.458 165.999 162.782 160.754 161.986 156.118 151.847 148.253 240.722 198.91 21.4165 301.98 213.009 17.7807 317.767 202.435 36.3968 315.869 189.271 62.6338 300.966 181.864 91.7949 231.998 222.336 76.6485 8.50169 6.73868 4.53532 
165.537 172.303 168.455 166.055 163.028 160.541 162.143 156.571 152.109 148.172 241.739 196.499 23.3102 302.915 211.77 19.2995 318.675 201.024 38.2461 316.451 187.926 64.4875 301.188 180.587 93.2652 232.931 221.15 78.6197 8.15574 6.6902 4.79562 
165.928 172.085 168.273 165.249 163.063 160.346 161.707 156.478 151.741 148.342 243.151 194.384 25.0994 303.756 210.804 20.6399 319.232 199.887 39.6698 316.699 186.647 65.8839 301.449 179.372 94.4832 233.679 220.121 80.1965 7.98705 6.72491 4.81521 
166.124 171.776 168.121 164.875 162.505 160.025 160.503 155.736 151.127 147.877 244.307 193.073 26.9788 304.342 210.081 22.0387 319.558 198.952 41.2893 316.747 185.424 67.5903 301.36 178.139 95.7467 234.328 219.333 81.7442 7.67029 6.94216 4.95999 
166.073 171.305 168.448 164.922 161.65 159.87 159.084 155.336 150.625 147.075 245.1 191.827 28.9242 303.939 208.738 23.1753 319.222 197.866 42.1204 316.177 184.248 68.3037 300.728 176.929 96.5345 234.63 218.649 83.1243 7.70532 6.93009 4.75259 
166.269 171.209 168.444 164.934 161.408 160.165 158.668 155.431 151.167 147.259 245.705 191.307 30.232 303.712 208.166 24.0849 319.011 197.265 42.9154 316.132 183.712 69.14 300.352 176.104 97.3214 234.649 218.187 84.3908 7.69747 6.89982 4.71299 
166.216 171.269 168.645 165.099 161.761 160.322 158.547 155.663 151.897 147.807 246.239 191.044 31.6029 303.544 207.809 24.8212 318.965 196.823 43.8944 316.431 183.406 70.2683 300.445 175.607 98.34 234.663 217.772 85.5601 7.64127 6.91795 4.95757 
163.842 173.231 167.869 166.538 158.464 159.939 159.51 154.484 150.764 145.774 239.511 191.566 32.4461 294.799 206.107 22.6937 311.678 195.947 41.9771 309.938 182.698 68.6897 294.379 174.299 97.3702 229.499 217.079 86.19 8.20372 7.08443 5.78355 
163.434 173.233 167.915 166.81 159.165 159.324 160.163 154.781 151.445 146.688 238.642 192.103 32.2954 294.602 206.858 21.9603 311.833 197.078 41.2267 310.722 184.375 67.9706 295.395 175.976 96.9216 229.523 217.832 85.7354 8.27237 6.89844 5.87893 
163.092 172.846 167.716 167.433 159.726 158.641 160.344 154.276 151.525 146.606 236.686 192.335 31.4155 293.373 207.32 20.4201 311.013 198.428 39.3015 310.825 186.4 66.4441 295.887 178.407 95.685 229.15 218.971 84.4296 8.2703 7.00596 5.72055 
163.313 172.477 167.471 167.294 159.855 158.476 160.331 153.996 151.35 146.572 234.995 192.331 30.5161 292.558 207.492 19.8465 310.352 199.035 38.5468 310.501 187.323 65.8156 295.848 179.587 95.2947 228.642 219.474 83.7909 8.36903 7.03113 5.62195 
163.793 172.008 167.474 167.074 160.542 158.151 160.387 153.857 151.342 146.76 232.342 193.182 28.4286 291.642 208.457 18.838 309.516 200.137 37.2994 310.07 188.817 64.5587 295.758 181.452 94.3226 227.761 220.433 82.4249 8.50621 6.95762 5.45869 
164.132 171.929 167.579 167.072 161.084 157.788 160.539 154.006 151.612 147.327 231.76 194.135 27.5886 291.783 209.57 18.4756 309.707 201.227 37.1364 310.413 190.049 64.4652 296.099 182.687 94.2101 227.469 221.081 81.7665 8.5346 6.99795 5.56225 
164.673 171.791 167.638 166.761 161.408 157.867 160.602 154.544 151.742 147.623 230.962 196.842 25.9961 292.02 212.838 17.115 310.302 204.504 36.3467 310.819 193.079 64.0135 296.399 185.742 93.9706 226.818 223.281 80.0458 8.84204 7.27166 5.89877 
164.897 171.439 167.362 166.568 161.368 157.91 160.141 154.477 151.646 147.349 230.462 197.76 24.8501 291.853 213.628 16.3923 310.324 205.277 35.6908 310.824 193.81 63.3099 296.391 186.455 93.2397 226.734 223.941 79.1956 8.85902 7.25713 6.02755 
165.138 170.05 166.481 165.652 160.335 157.842 158.62 153.369 150.267 145.3 228.95 199.056 23.164 290.996 214.549 15.3405 309.345 206.06 34.152 309.794 194.518 61.6802 295.556 187.544 91.8052 226.537 225.434 77.838 9.01896 7.24612 5.66914 
165.189 169.371 166.11 165.303 159.968 157.852 157.749 152.796 149.604 144.1 228.47 199.824 22.5132 290.596 215.443 15.0834 308.64 206.885 33.3124 309.035 195.262 60.681 294.796 188.261 90.802 226.259 226.297 77.2694 9.01615 7.16129 5.16879 
165.188 168.9 166.022 165.273 159.873 158.001 157.023 152.616 149.481 143.333 228.121 200.609 21.8813 290.184 216.369 14.8595 308.224 207.861 32.7403 308.637 196.21 60.1324 294.187 189.039 90.1603 225.921 227.131 76.8016 8.98689 7.1821 4.9333 
165.39 168.557 166.254 165.318 159.744 158.149 156.723 153.075 149.808 143.38 227.426 201.272 20.9843 289.541 217.342 14.4762 308.073 209.241 32.3651 308.444 197.476 59.7313 293.873 190.011 89.6612 225.408 227.868 76.3024 8.97877 7.18257 5.15978 
166.196 166.827 165.541 165.233 159.714 159.418 155.157 152.021 149.028 142.423 225.081 203.636 18.3687 287.128 220.067 12.9205 305.657 212.155 30.3058 306.153 200.286 57.5352 292.133 193.39 87.6619 224.122 231.156 75.1128 8.84656 7.18232 4.73626 
166.035 166.572 165.645 165.314 159.713 159.418 154.642 151.852 148.994 142.117 224.688 205.246 18.015 285.908 221.724 11.8444 304.52 213.786 28.9776 305.043 201.817 56.0466 291.061 194.822 86.3142 223.392 232.909 74.5609 8.8448 7.08441 4.66958 
165.55 167.119 165.944 165.547 160.043 159.206 154.997 152.16 149.711 143.335 225.085 206.641 19.0961 284.425 222.72 10.4586 302.989 214.366 27.6736 303.541 202.34 54.4852 289.802 195.37 84.919 222.474 234.655 74.284 8.76397 6.88827 4.77239 
164.965 167.087 165.89 165.713 160.098 158.655 154.926 151.928 149.964 143.734 225.376 207.257 19.7347 283.191 222.85 9.38821 301.492 213.98 26.4105 302.045 201.612 52.8497 288.455 194.588 83.2836 221.893 235.278 73.8421 8.65509 6.75906 4.66555 
164.703 167.211 165.848 165.806 160.147 158.361 155.14 151.735 149.902 143.825 225.375 207.68 20.2021 282.152 222.686 8.56208 300.102 213.544 25.5261 300.506 201.079 51.7599 287.205 194.392 82.2758 221.3 235.963 73.4834 8.56061 6.65841 4.54952 
164.506 167.407 166.017 165.679 159.897 158.165 155.405 151.963 149.897 144.404 225.244 207.737 20.7138 281.116 222.092 7.7459 299.144 213.07 24.8037 299.271 200.604 50.9424 286.403 194.336 81.7105 220.819 236.499 73.1143 8.62773 6.59709 4.69321 
164.362 167.734 166.489 165.93 159.934 158.059 155.748 152.374 150.129 144.471 225.355 207.695 21.2081 280.206 221.493 7.26809 298.17 212.643 24.294 298.029 200.465 50.2406 285.242 194.602 81.0195 220.19 237.006 72.7618 8.44369 6.35024 4.6443 
164.207 167.967 166.802 166.163 159.71 158.035 155.976 152.439 150.095 144.286 225.159 207.561 21.689 279.265 220.729 6.93412 296.979 212.107 23.8461 296.715 200.344 49.7154 284.145 195.068 80.5893 219.577 237.544 72.5096 8.30133 6.15015 4.43904 
164.074 167.77 166.893 166.142 159.364 158.088 155.655 151.979 149.799 143.558 224.679 207.695 21.9007 277.786 219.732 6.51957 295.086 211.225 23.16 294.827 199.881 48.9229 282.395 195.206 79.8958 218.956 238.275 72.283 8.13653 5.9585 4.10829 
164.157 167.732 166.746 165.703 159.11 158.204 155.536 151.6 149.237 143.578 223.435 207.748 21.3584 276.1 219.202 5.81026 293.119 210.689 22.3301 292.663 199.395 48.0619 280.796 195.327 79.2459 218.02 238.88 71.9097 8.15318 5.9813 3.93046 
164.241 167.75 166.644 165.235 158.796 158.468 155.375 151.513 148.78 143.725 222.313 207.993 20.6423 274.671 219.001 5.0939 291.697 210.746 21.5661 291.101 199.684 47.4259 279.711 196.095 78.6558 217.089 239.5 71.406 8.08759 6.01318 3.88602 
164.213 167.83 166.82 165.12 158.604 158.664 155.255 151.664 148.616 143.798 221.131 208.401 19.8092 272.991 218.999 4.10764 290.215 210.995 20.4759 289.483 199.919 46.426 278.36 196.538 77.6535 215.988 240.019 70.7031 8.01694 6.10234 3.94748 
164.211 167.631 166.887 165.177 158.544 158.82 155.088 151.566 148.57 143.806 219.583 208.936 18.8883 270.765 218.676 2.88607 288.07 210.716 19.2038 287.4 199.605 45.2381 276.548 196.567 76.5353 214.71 240.626 69.9598 7.95732 6.20198 4.01623 
164.609 167.845 167.019 165.111 158.441 158.82 155.626 152.299 149.527 145.167 217.121 209.096 17.8679 268.876 219.522 1.30515 286.295 210.85 18.0885 285.577 199.695 44.1678 275.041 196.703 75.3947 212.968 240.987 69.1422 7.87538 6.24598 4.32944 
164.774 167.837 167.107 165.472 158.298 158.928 155.401 152.499 149.744 145.929 213.695 211.11 15.739 265.471 220.818 -0.108939 283.206 212.707 15.9969 282.999 201.855 42.1327 272.891 198.842 73.778 210.058 242.354 67.8933 8.12211 6.11576 4.06206 
165.352 167.724 166.666 165.446 158.441 158.937 155.159 151.933 149.858 146.423 211.007 212.522 14.8385 263.245 222.252 -1.24501 280.548 213.413 14.7911 280.511 202.408 40.8624 270.999 199.574 72.2559 208.399 243.378 67.36 7.82378 6.19914 3.85712 
165.575 167.461 166.364 165.224 158.672 159.029 155.112 151.803 150.056 147.23 208.324 213.509 13.9261 261.006 223.472 -2.35526 278.264 214.258 13.8105 278.436 203.298 39.9376 269.482 200.477 71.1448 206.503 244.155 66.7652 7.68649 6.23741 3.97996 
165.874 167.35 166.283 164.998 158.993 159.226 155.023 151.931 150.868 148.317 206.114 214.508 12.9739 258.893 224.625 -3.41136 276.168 215.185 12.7829 276.832 204.556 38.8645 268.181 201.67 69.926 204.513 244.843 66.0446 7.54839 6.0163 4.06274 
166.016 167.383 166.153 165.125 159.372 159.3 155.044 151.835 151.168 148.825 203.662 215.237 12.3988 256.624 225.582 -4.57773 273.807 215.963 11.633 274.857 205.552 37.7902 266.579 202.817 68.8446 202.568 245.799 65.374 7.48658 5.98363 4.0981 
166.155 167.327 165.983 165.419 159.684 159.377 155.054 151.674 151.454 148.907 201.381 216.077 11.5861 254.548 226.396 -5.73693 271.291 216.429 10.3111 272.518 206.234 36.373 264.332 203.727 67.129 200.638 246.749 64.4727 7.04779 5.84427 3.94014 
166.534 166.877 165.688 165.382 160.192 159.407 154.508 151.559 152.016 149.757 196.344 217.775 9.84555 249.174 227.089 -8.40793 266.035 217.529 7.37654 268.219 208.354 33.4362 260.525 206.169 64.1382 196.426 248.689 62.3642 6.82008 5.49432 3.75194 
166.717 166.283 164.982 164.752 160.009 159.237 153.88 150.553 151.048 149.382 193.853 219.124 8.58029 246.24 227.754 -10.0453 262.399 217.897 5.12599 264.939 208.777 31.0504 258.042 206.984 61.7821 194.358 249.786 61.08 6.80755 5.41254 3.28271 
167.02 166.004 164.761 164.527 160.19 159.12 153.55 150.053 150.741 149.14 191.524 220.664 7.18093 243.55 228.299 -11.4381 259.323 218.381 3.45379 262.246 209.55 29.3488 255.54 207.981 60.0323 192.232 250.862 59.8023 6.66393 5.34065 3.07415 
167.311 165.493 164.254 164.234 160.057 159.096 153.084 149.334 150.267 148.661 189.272 222.299 5.49816 240.648 228.747 -13.1107 255.813 218.604 1.33842 259.162 210.01 27.1014 252.677 208.665 57.6925 190.11 251.952 58.3228 6.42035 5.2155 2.84116 
167.678 164.643 163.261 163.443 159.297 158.957 152.01 147.735 148.653 146.724 185.163 226.143 2.34423 235.423 230.655 -16.0944 249.196 219.668 -2.27477 252.628 211.063 23.1972 246.333 210.267 53.4138 186.221 254.957 55.6261 5.64399 5.04597 3.11162 
167.512 164.363 162.825 162.766 158.957 158.948 151.78 147.109 147.599 145.854 182.846 227.321 0.682245 232.602 231.027 -17.8031 245.659 219.637 -4.10164 248.803 211.06 21.0913 242.944 210.645 51.223 183.998 255.978 54.0085 5.47372 4.84473 3.5192 
167.63 163.68 162.108 162.187 158.615 159.016 150.672 145.893 146.674 145.098 180.406 228.81 -1.08334 229.057 231.174 -19.276 241.449 219.604 -5.94509 244.992 211.427 18.909 239.712 211.348 48.9613 181.836 257.271 52.4724 5.33691 4.53273 3.74295 
167.525 163.184 161.467 161.834 158.25 159.076 149.827 144.824 145.857 144.161 177.849 230.355 -2.95229 225.516 231.187 -20.7871 237.171 219.364 -7.54734 240.99 211.7 16.9588 236.277 212.185 46.9821 179.58 258.671 50.8873 5.25548 4.16317 4.18274 
