178.397 177.154 176.082 174.572 179.796 167.192 177.778 173.402 171.998 161.656 -431.81 226.931 -22.0603 -435.83 239.725 -99.4079 -421.308 233.31 -119.926 -396.364 223.661 -124.222 -367.209 212.284 -110.299 -367.563 236.135 -40.8209 9.97314 6.3152 5.27414 
177.988 177.589 175.141 173.345 171.745 167.161 176.51 172.114 169.886 159.28 -428.168 225.831 -22.2093 -432.142 239.425 -99.9471 -417.689 232.35 -120.137 -392.895 222.05 -124.15 -364.083 211.706 -111.27 -363.944 235.498 -41.7289 9.02886 6.7915 5.80686 
177.163 178.02 174.35 171.201 166.373 167.655 175.878 170.803 167.565 156.685 -424.544 225.984 -22.4809 -428.921 239.732 -100.434 -414.638 232.414 -120.6 -389.711 221.447 -124.588 -360.45 211.605 -112.753 -360.075 234.993 -43.092 8.8442 7.45574 6.25548 
176.826 176.505 174.2 170.159 170.601 169.082 174.495 170.451 166.761 152.616 -419.071 223.52 -22.3905 -423.399 239.212 -101.729 -409.318 231.405 -121.724 -384.238 220.255 -125.385 -355.828 210.247 -111.761 -354.847 234.501 -43.7858 9.58856 7.81779 6.76724 
179.157 176.534 173.51 172.021 170.144 167.958 174.152 170.544 168.224 155.818 -411.782 224.822 -26.7849 -414.902 236.826 -105.635 -401.643 229.244 -124.348 -377.314 219.339 -126.992 -349.866 211.413 -113.732 -348.643 233.725 -45.0518 7.06973 6.73792 6.11104 
178.685 176.05 173.441 172.618 168.389 167.257 173.35 170.004 167.993 155.254 -403.831 224.093 -29.3982 -405.759 234.197 -108.454 -392.927 226.203 -126.447 -368.957 216.58 -128.49 -342.06 209.584 -115.22 -340.964 232.078 -46.7207 6.29373 6.53004 6.34498 
174.617 174.827 172.526 171.861 168.996 168.53 172.399 169.613 167.1 152.654 -396.67 224.135 -31.1829 -396.59 232.207 -111.802 -383.649 224.115 -129.562 -359.839 214.456 -130.89 -333.577 207.546 -116.036 -333.249 230.861 -48.6336 7.43505 6.89243 6.73851 
178.787 174.366 173.164 172.865 169.16 166.54 172.405 170.252 167.481 152.426 -386.61 223.279 -35.2531 -385.752 229.317 -115.072 -372.902 221.526 -132.428 -349.658 212.553 -133.242 -323.61 206.347 -117.935 -324.311 229.209 -50.4171 7.31655 6.60691 6.78262 
172.843 173.89 173.629 174.197 170.441 164.136 172.488 170.722 168.204 154.034 -376.139 221.854 -39.2851 -374.928 226.976 -118.185 -361.955 219.414 -135.153 -339.051 211.228 -135.715 -312.934 205.929 -120.541 -315.114 227.845 -52.2098 6.45949 6.21558 6.86001 
167.494 173.692 174.656 175.623 171.589 162.262 173.839 171.947 169.395 155.88 -364.362 219.03 -43.1613 -362.048 223.819 -121.519 -349.125 216.345 -138.194 -326.623 208.841 -138.521 -300.786 204.37 -123.275 -304.524 225.363 -54.0688 5.83352 5.92396 7.12648 
164.494 173.689 175.631 177.115 174.1 159.883 175.1 173.315 170.874 158.143 -351.173 215.842 -47.316 -347.813 220.47 -124.571 -334.539 213.261 -141.089 -312.396 206.445 -141.106 -287.086 202.613 -125.572 -292.788 222.66 -55.4834 5.3 5.57466 7.13925 
162.499 174.512 176.635 178.685 177.005 154.669 177.104 175.115 173.339 163.077 -337.003 212.483 -51.8579 -333.2 217.445 -127.741 -319.898 210.819 -144.094 -298.172 204.937 -144.094 -273.34 202.273 -129.156 -280.686 220.056 -57.044 3.55247 4.85658 6.78568 
160.665 174.27 177.498 179.795 177.86 151.191 178.367 176.928 176.155 167.992 -323.144 208.926 -55.2713 -318.511 215.875 -131.058 -305.69 208.816 -147.2 -284.512 204.307 -147.416 -259.803 202.753 -133.093 -268.029 217.191 -58.9139 1.77084 3.71924 7.36678 
159.308 174.27 177.654 179.643 177.347 148.441 178.255 177.77 177.153 169.795 -308.887 205.102 -58.0602 -303.546 212.979 -133.5 -290.796 206.727 -149.571 -270.034 203.008 -149.616 -245.465 202.412 -135.435 -254.844 214.45 -60.2177 0.773784 3.09265 6.82702 
159.533 174.27 179.999 174.27 178.485 146.813 178.219 179.996 178.249 171.733 -294.039 202.88 -61.1603 -287.024 209.521 -135.344 -273.81 204.606 -151.181 -253.39 203.068 -151.076 -229.591 201.252 -136.03 -241.188 212.233 -60.7119 1.01017 1.23335 5.67292 
159.814 174.27 180 174.27 178.881 145.711 178.231 179.996 178.269 171.846 -279.213 200.326 -64.4206 -270.06 206.004 -137.541 -256.331 201.066 -152.98 -236.105 199.894 -152.321 -212.739 198.371 -136.684 -226.953 209.869 -61.7535 0.769859 0.849821 5.42684 
161.068 174.27 180 174.27 178.445 144.987 178.208 179.998 178.248 170.641 -247.958 195.235 -70.2434 -235.173 200.373 -141.487 -221.057 195.781 -156.13 -201.497 195.531 -154.386 -179.705 194.176 -137.418 -197.163 205.962 -63.3835 0.539188 0.851193 5.22639 
162.651 174.27 180 174.27 178.526 145.664 178.159 179.997 178.19 170.793 -231.014 192.621 -71.6024 -216.982 197.686 -142.175 -202.988 193.256 -156.604 -183.722 193.233 -154.521 -162.283 191.748 -137.2 -180.442 203.589 -63.2321 0.704731 1.05876 5.1616 
164.365 174.27 176.681 178.553 177.899 146.822 178.148 178.883 177.988 169.843 -213.681 191.126 -72.824 -199.299 196.061 -142.063 -185.429 191.113 -156.222 -166.442 189.699 -153.612 -144.772 189.828 -136.478 -163.297 201.788 -62.612 0.746949 1.59152 5.51472 
167.243 174.27 176.768 178.317 177.913 148.874 178.093 178.827 177.81 170.157 -197.265 190.933 -73.1008 -181.962 195.173 -141.443 -168.009 190.469 -155.573 -148.917 189.153 -152.717 -127.152 189.203 -135.37 -146.126 200.662 -61.3839 0.869149 1.41176 5.22509 
168.397 174.27 177.498 178.096 177.881 149.062 177.999 178.777 177.401 170.694 -178.824 190.818 -74.3966 -164.156 193.973 -141.689 -150.038 189.449 -155.82 -131.334 188.241 -152.449 -109.634 188.543 -135.106 -128.585 199.817 -60.9234 1.11549 1.65536 4.8713 
167.812 174.27 178.112 177.886 177.824 148.158 177.98 179.015 177.065 171.176 -159.033 188.456 -75.1541 -144.346 190.609 -141.696 -129.845 186.603 -155.6 -111.929 185.572 -151.381 -90.6188 186.537 -133.755 -110.536 198.089 -59.9486 1.27648 2.26618 4.45094 
166.558 174.338 179.029 178.083 177.99 147.143 178.003 179.66 177.371 172.303 -139.074 186.175 -75.1175 -123.934 187.514 -141.008 -108.868 184.154 -154.599 -91.5706 183.344 -149.492 -70.8143 185.125 -131.368 -92.3762 196.708 -58.0248 1.66667 2.65991 3.92863 
166.222 174.443 180 178.628 178.951 146.695 178.039 179.999 178.704 174.135 -119.097 183.06 -74.7317 -102.165 183.505 -139.778 -86.8893 180.698 -152.943 -69.6836 181.12 -147.126 -50.0624 183.731 -128.228 -73.7751 194.482 -55.5329 2.18432 2.44432 3.76902 
165.857 174.583 180 178.883 179.686 146.025 178.088 179.998 178.949 174.671 -97.1271 180.562 -75.0481 -78.6652 181.186 -138.583 -63.2797 178.774 -150.927 -46.4833 180.485 -144.044 -28.6581 184.341 -123.924 -54.922 193.949 -52.7368 2.85175 2.49017 4.11963 
165.189 174.789 180 178.859 179.861 145.371 178.16 179.997 178.098 174.035 -73.7723 177.567 -75.1097 -53.3636 177.36 -136.321 -38.0486 175.673 -148.086 -22.513 178.57 -140.061 -6.56097 184.125 -118.834 -35.3456 192.832 -49.7353 3.77183 3.08395 4.43927 
164.76 176.026 179.069 177.601 177.903 145.132 179.356 177.575 175.148 170.588 -49.2888 171.894 -72.808 -28.4765 174.007 -131.07 -12.8989 173.51 -142.68 1.95245 178.079 -133.874 16.2302 185.703 -112.29 -15.7962 193.491 -45.4997 4.45455 3.16097 4.39819 
166.234 177.496 178.133 176.214 176.14 147.715 176.948 175.958 173.519 168.582 -25.8915 165.776 -69.3374 -0.306477 167.865 -124.245 14.4891 169.464 -135.416 28.1445 175.815 -126.343 40.1391 185.466 -103.953 4.85394 193.095 -40.0542 5.19853 3.54806 4.82603 
167.49 179.71 178.352 176.654 176.416 149.983 176.921 176.596 174.3 170.182 -3.71318 160.299 -63.8562 24.7889 163.484 -117.986 40.8247 166.131 -127.426 54.0386 174.374 -118.156 64.2879 186.504 -95.5828 24.9082 193.052 -33.8325 6.04968 3.48049 3.87354 
169.478 177.736 178.378 179.389 178.9 152.2 179.487 176.696 176.41 173.242 36.9575 153.908 -52.3167 75.2918 162.548 -104.012 91.6132 165.921 -111.193 102.857 177.359 -102.065 109.666 192.712 -78.1451 61.3912 191.554 -21.0557 9.21199 5.32162 4.44287 
169.698 176.659 176.613 178.268 178.617 154.549 178.949 175.918 176.043 172.35 55.9348 153.476 -46.8753 99.6057 166.498 -98.0363 116.913 169.228 -102.731 129.015 180.921 -92.0361 135.028 195.927 -66.7834 80.6483 192.319 -13.8905 9.26069 4.84562 3.99457 
170.385 179.438 175.914 177.33 178.111 156.431 178.822 174.012 174.754 170.478 74.1392 153.318 -41.2831 123.304 168.786 -89.3631 140.411 171.774 -92.5259 153.05 183.775 -80.4862 157.991 197.936 -53.9014 98.3584 192.73 -6.06075 9.38965 5.15275 4.12533 
170.832 178.962 176.791 176.819 178.416 157.838 177.243 172.607 173.07 168.148 91.1886 154.772 -36.1969 145.535 171.693 -79.6996 163.417 174.959 -81.1706 175.745 186.598 -67.6802 179.337 199.616 -39.9718 114.923 193.538 1.6757 9.76479 5.46323 3.62164 
173.154 177.868 178.949 177.526 179.603 160.358 178.234 172.856 172.403 166.517 107.731 157.431 -31.3187 166.922 174.691 -66.8013 186.096 178.589 -68.4221 196.82 189.77 -53.6567 198.635 201.741 -24.826 130.042 194.156 9.59694 10.816 5.95563 4.10062 
171.93 178.571 180 177.711 179.52 159.97 177.061 172.565 172.884 167.403 125.59 162.246 -23.5325 185.636 176.76 -53.9754 205.203 180.572 -55.4286 215.841 192.463 -39.1935 216.127 203.706 -9.11963 144.625 196.636 19.1457 10.9004 6.73757 4.97566 
173.135 177.24 180 178.901 179.229 161.942 174.238 169.416 172.52 169.408 139.757 166.943 -17.6003 199.873 178.124 -44.1309 219.757 180.395 -42.8514 230.879 193.555 -25.4948 231.461 203.691 6.34485 157.512 200 28.0517 11.6617 8.82385 4.09787 
173.389 158.605 180 177.972 176.368 162.964 167.287 167.978 169.25 165.807 151.894 169.013 -10.0671 207.929 175.171 -32.1099 231.324 179.947 -30.3857 242.19 192.34 -11.983 242.189 201.852 20.1942 167.852 202.375 37.1253 11.9168 9.07277 6.32681 
173.012 151.288 180 178.325 175.684 163.664 154.881 168.037 167.147 164.741 162.963 171.261 -4.9007 216.834 173.488 -20.4441 243.073 181.394 -21.0848 253.126 191.675 -1.24681 252.852 200.44 30.9436 178.038 205.11 44.3237 11.8265 8.19628 12.0721 
172.658 155.679 180 178.68 172.52 163.809 140.883 167.363 165.392 161.797 171.898 173.818 -0.919117 222.889 173.024 -10.1903 252.518 182.954 -13.3552 262.013 191.575 7.80576 261.135 198.591 40.3692 186.283 207.656 50.3986 11.1426 7.74541 17.4732 
172.669 158.162 180 179.149 171.102 164.068 127.097 167.411 164.72 161.46 178.673 176.03 1.98719 225.412 172.731 -1.83857 260.502 184.535 -7.59262 269.319 191.95 14.4797 268.41 197.868 47.4402 193.48 209.849 55.3151 11.2014 7.44463 23.7368 
172.398 148.386 180 178.43 168.31 164.297 117.605 167.644 164.274 161.026 184.32 178.068 4.48489 226.076 173.576 5.13217 266.42 186.117 -2.8578 274.394 192.954 19.5232 273.553 197.957 52.3508 199.294 211.674 59.4755 11.1708 7.46638 29.7274 
172.819 122.851 180 174.334 166.281 165.427 114.937 170.814 164.899 160.185 189.215 179.894 8.63963 228.474 176.203 10.8854 270.207 186.205 1.87032 276.807 192.894 23.8238 276.494 197.66 56.8189 203.28 212.753 63.5126 11.4961 7.10962 30.5452 
173.73 98.1199 180 174.27 166.676 166.227 118.935 174.524 165.621 161.262 192.654 181.207 12.5606 232.093 180.13 13.7122 273.44 187.546 5.40015 278.498 193.017 26.7796 279.003 198.567 60.0051 206.292 213.791 66.9844 12.3795 5.81983 28.3992 
173.346 123.1 180 174.27 167.58 166.337 117.387 173.013 164.878 162.095 195.279 183.777 14.8307 234.533 180.05 16.2103 275.425 189.414 8.00354 281.643 195.396 30.5504 282.68 200.778 63.4954 209.6 216.227 70.0358 12.7971 6.78662 29.991 
173.295 121.579 177.073 174.871 178.482 167.064 107.671 174.141 173.449 158.817 194.941 190.645 15.1399 229.452 181.57 19.5959 273.822 191.54 3.94181 280.473 192.2 27.8528 281.338 197.623 63.8256 211.315 216.177 72.3314 14.6726 4.19506 36.5161 
173.043 133.657 173.713 174.203 178.416 166.263 106.678 174.955 174.67 159.468 193.799 191.369 14.1845 226.392 180.057 19.4222 271.995 191.621 1.98748 278.796 191.839 25.9345 279.792 196.873 61.8274 210.184 215.984 71.2374 14.4868 4.11267 39.4066 
172.163 146.475 168.044 174.27 169.694 164.078 103.646 175.633 176.729 159.995 192.432 193.177 11.4353 220.059 178.058 19.0603 270.103 190.275 0.0696073 276.543 189.806 23.2264 275.398 193.937 58.2487 207.492 215.098 68.4472 12.3997 3.7333 44.3127 
171.705 149.9 165.533 174.27 162.453 162.803 104.359 174.782 175.978 161.857 191.207 194.074 9.98185 217.306 177.038 18.2047 267.958 189.333 -0.297583 274.847 188.736 22.462 273.134 192.692 57.1366 205.479 214.428 67.2354 12.0831 4.12638 45.0789 
171.505 148.589 166.5 174.27 159.767 161.823 105.427 172.31 173.869 163.248 189.367 194.775 8.43723 215.927 176.838 16.5336 265.677 188.576 -1.01681 273.623 188.979 21.8221 271.274 192.05 56.0658 203.278 213.936 65.9194 11.3166 5.42778 43.7386 
171.389 143.751 167.6 175.131 159.154 160.914 106.093 168.941 172.033 163.837 187.304 195.894 6.8222 214.962 177.81 14.1258 263.498 187.665 -0.802661 272.074 189.47 21.1888 269.114 191.471 54.8081 200.932 213.621 64.7024 10.3505 6.6691 40.7594 
171.249 140.02 167.756 179.347 161.403 160.088 107.809 165.916 169.052 164.213 184.828 196.546 5.45929 214.85 178.627 11.6566 261.231 187.166 -0.486251 270.214 189.515 21.0627 266.973 191.513 53.8735 198.331 213.398 63.5372 9.96037 7.21929 37.1709 
171.336 134.471 170.192 176.225 165.133 159.734 112.789 164.408 166.999 164.707 181.705 196.728 4.01305 215.758 179.257 9.08125 258.05 186.703 -1.04637 267.464 189.596 20.3445 264.661 191.635 52.6651 195.354 213.12 62.4453 10.1135 7.78927 32.4933 
171.057 136.769 174.11 173.017 170.141 159.188 122.671 162.892 165.365 165.369 175.524 197.222 0.836236 214.698 180.236 2.82014 252.298 186.862 -3.78205 262.503 190.968 17.179 260.429 192.836 49.0264 190.136 213.486 59.7736 10.1047 8.80268 26.6683 
171.086 137.817 175.961 173.78 171.947 158.539 134.391 163.343 166.95 167.576 169.225 197.347 -1.78957 213.606 182.934 -4.91172 246.359 188.165 -7.45974 257.194 193.104 13.2276 255.016 194.28 45.2909 184.191 213.313 57.1624 9.65262 9.47203 20.1834 
171.068 142.139 176.669 174.067 173.57 158.234 144.916 164.003 167.625 167.828 166.4 197.001 -2.85204 215.259 186.368 -10.1879 243.759 189.726 -10.0559 254.48 194.864 10.1186 252.208 195.957 41.8934 181.384 213.793 55.4949 8.98017 9.24411 14.7817 
170.875 152.694 177.512 174.347 174.079 157.738 151.271 164.695 167.582 167.045 163.256 196.441 -4.19717 214.736 187.662 -13.9134 239.791 189.566 -12.3195 250.183 194.634 7.22427 248.105 196.004 38.803 178.176 213.869 53.7602 8.5176 8.81043 11.3592 
170.499 160.185 177.758 174.993 174.424 157.031 154.943 164.937 167.538 165.867 159.649 195.837 -5.27175 212.816 188.356 -16.6363 235.409 189.162 -14.1125 245.466 194.194 4.67315 243.366 195.918 35.955 174.871 213.982 52.2306 8.0193 8.52663 9.23612 
170.407 161.034 178.485 174.089 173.926 156.71 152.969 163.535 166.196 163.96 155.339 195.144 -6.01247 206.739 186.373 -17.7282 228.824 186.641 -16.2885 239.427 192.246 2.0151 238.032 195.103 32.8098 171.126 214.305 50.9317 7.90959 8.76028 9.22671 
170.097 166.462 179.561 174.751 172.972 155.616 153.879 166.513 167.847 163.45 146.533 194.802 -8.4102 198.313 187.103 -21.8889 220.568 188.054 -21.3322 230.358 192.66 -3.56822 228.1 195.273 26.3755 163.442 214.559 47.7929 6.51435 7.65454 9.61292 
170.12 166.539 179.707 174.33 172.405 155.342 152.475 166.679 167.668 162.827 141.924 194.42 -9.87104 192.711 186.757 -23.5682 215.549 188.017 -23.7248 225.311 192.422 -6.16874 223.128 195.276 23.4495 159.301 214.734 45.9692 6.31311 7.34591 10.1624 
170.137 166.731 178.875 173.591 171.415 154.768 153.325 166.391 166.9 161.266 133.791 195.567 -13.3284 184.625 189.558 -28.8224 207.224 190.341 -28.4187 216.747 193.934 -10.9898 214.268 196.883 17.8715 151.422 215.762 42.0384 6.02512 6.47984 8.91329 
170.445 166.284 177.687 173.255 171.62 154.564 156.137 166.473 166.746 161.5 129.6 196.181 -14.6622 181.735 192.423 -31.9684 203.485 192.672 -30.7498 212.916 196.004 -13.189 210.421 198.912 15.5551 147.352 216.568 40.3341 6.07665 6.10382 7.45177 
170.993 166.22 177.309 173.077 171.737 154.51 157.769 166.825 166.991 162.22 125.296 196.711 -15.8248 177.912 194.403 -34.4955 199.181 194.645 -33.1686 208.615 197.896 -15.5826 206.337 200.82 13.1439 143.121 217.294 38.79 6.13359 5.8507 6.81751 
171.664 165.559 177.025 172.842 171.381 154.612 158.894 167.155 167.059 162.245 120.444 197.375 -16.7875 173.405 196.377 -36.9023 194.229 196.212 -35.6467 203.469 199.107 -18.111 201.477 202.037 10.5613 138.802 218.197 37.3726 6.08176 5.40598 6.11965 
172.386 162.601 175.411 172.348 170.53 154.756 157.807 166.089 165.759 159.898 110.765 197.978 -18.5897 163.031 197.181 -40.3435 183.311 196.799 -39.4346 192.253 199.569 -22.2164 190.727 203.027 6.26027 129.632 219.96 34.5239 5.78611 4.84096 5.59485 
172.416 161.111 174.992 171.709 169.94 154.792 156.373 165.445 164.549 157.541 105.942 198.681 -19.5144 157.043 197.234 -41.7026 177.168 196.615 -40.9183 185.599 198.744 -23.8503 184.17 202.452 4.44581 124.658 220.976 33.1859 5.58108 4.29995 5.47338 
172.467 160.917 173.6 170.408 169.136 154.927 156.086 163.78 162.483 154.745 100.962 199.647 -20.7219 151.18 197.89 -43.4518 170.574 196.059 -42.1917 178.626 197.523 -25.3146 177.646 201.646 2.77157 119.671 222.005 31.7316 5.46968 3.85664 4.58845 
172.07 159.546 171.852 167.914 168.232 154.787 155.877 161.964 159.543 151.868 96.5966 201.066 -21.9749 145.456 199.35 -45.2115 164.255 196.385 -43.6932 171.473 196.697 -26.9222 170.671 200.811 0.74894 114.675 223.409 30.2239 5.17378 3.41802 3.98361 
171.374 160.995 169.466 166.137 166.107 153.509 159.024 160.462 156.235 148.169 92.2232 202.341 -22.7938 140.145 200.783 -47.7509 157.176 195.71 -45.2459 163.094 194.826 -28.6281 162.567 199.99 -1.68684 109.356 224.422 28.6418 5.89302 3.65594 3.57179 
170.556 163.257 167.405 165.514 166.183 152.306 161.639 158.706 154.536 146.234 87.4355 203.459 -23.4507 134.212 203.204 -50.1081 149.783 196.157 -46.7243 155.2 194.579 -30.4889 154.856 199.958 -4.02068 103.624 225.495 27.2758 6.24337 4.1388 4.37318 
170.098 165.766 166.694 165.573 166.521 151.34 164.296 158.08 154.059 145.755 82.1567 204.674 -24.0243 128.145 205.47 -52.3866 142.459 196.548 -48.3387 147.587 194.491 -32.4676 147.596 200.361 -6.34592 97.6883 226.535 25.9945 6.62219 4.56792 5.81546 
169.646 167.729 166.305 165.698 166.963 150.673 165.573 157.189 153.382 144.97 76.5451 205.453 -24.8827 121.344 206.966 -54.558 134.593 196.523 -50.0779 139.294 193.777 -34.447 139.54 199.809 -8.54305 91.6435 227.59 24.5986 6.62635 5.09093 7.15949 
169.552 169.838 166.629 166.74 167.503 150.322 167.048 157.477 154.333 145.742 70.7092 206.196 -25.8531 114.589 208.085 -56.5248 127.347 196.721 -51.8642 132.093 193.827 -36.5681 132.313 199.997 -10.8205 85.3656 228.322 23.1962 6.74135 5.29577 8.04537 
169.441 171.696 167.115 167.226 167.799 150.215 167.756 158.296 155.639 147.214 64.1966 206.393 -27.1598 107.627 208.765 -58.7593 120.458 197.061 -54.2332 125.356 194.034 -39.1597 125.637 200.194 -13.506 79.0846 228.745 21.4955 6.70819 5.40319 8.39562 
169.354 173.372 167.751 167.856 167.718 150.187 167.794 159.226 156.911 148.394 57.5363 206.803 -28.3527 100.294 210.067 -61.0983 113.37 197.923 -56.971 118.631 194.609 -41.9739 119.114 200.79 -16.3114 72.9309 229.653 19.7815 6.63097 5.3439 8.66258 
169.573 174.84 168.958 168.535 167.803 150.15 167.407 159.785 157.927 150.213 44.2181 209.486 -31.323 85.0624 210.969 -65.0392 98.1323 197.899 -61.245 103.692 193.985 -46.3679 104.984 200.387 -21.0203 60.3828 230.636 16.7707 6.67478 5.35977 8.98201 
169.467 177.038 168.617 167.309 166.804 150.583 165.529 159.008 156.606 149.929 29.0434 215.624 -34.7859 68.8062 213.18 -68.5847 81.7309 199.045 -65.2281 88.0431 194.217 -49.9212 90.4913 201.092 -25.6256 46.6082 232.767 13.3951 6.86909 5.19734 9.67427 
169.602 178.104 168.193 166.807 166.346 150.815 164.624 158.813 156.448 150.198 21.1411 218.509 -35.7866 60.191 213.154 -69.6116 73.5068 199.333 -66.7233 80.3708 194.45 -51.4186 83.267 201.054 -27.4481 39.38 233.428 12.0884 6.67681 4.94485 9.18918 
169.897 177.588 168.265 166.887 166.319 150.993 163.327 159.221 157.136 151.338 12.8929 221.111 -36.774 51.6435 212.388 -70.5372 65.4475 199.495 -68.3661 72.8565 194.792 -53.288 76.0535 201.064 -29.4654 31.9743 233.891 10.8096 6.4632 4.62753 8.26991 
170.158 174.646 168.014 166.225 165.71 151.062 160.886 158.994 156.942 151.709 4.36822 222.983 -37.7962 42.5909 211.024 -71.1515 57.01 199.297 -69.7703 64.772 194.619 -54.8709 68.4202 200.606 -31.2671 24.4449 234.096 9.44936 6.24165 4.49259 7.11715 
170.22 171.16 167.526 165.505 165.142 151.194 158.857 158.6 156.617 151.813 -4.57317 225.154 -39.0783 33.51 210.633 -72.1348 48.4484 199.924 -71.5281 56.5058 195.261 -56.8722 60.6206 200.636 -33.2891 16.9301 234.527 8.00969 5.92262 4.33987 6.07633 
169.858 170.005 166.879 165.017 164.728 150.913 159.018 158.209 156.624 153.019 -13.5647 225.762 -40.2475 24.6715 208.456 -73.3764 39.3452 197.898 -72.7783 48.3308 193.456 -57.9608 53.5215 199.15 -34.709 9.13784 233.923 6.50396 5.64053 3.71526 6.07159 
169.329 168.773 165.687 164.185 163.808 150.71 158.899 157.729 156.43 153.519 -23.1115 227.377 -41.408 15.7177 207.267 -74.5482 30.0802 197.089 -74.2842 39.8513 192.994 -59.4639 45.7966 198.847 -36.4556 1.22511 233.742 5.13445 5.7215 3.16493 6.02221 
169.246 167.672 165.142 164.048 163.728 151.123 159.579 157.974 156.739 153.893 -33.8457 229.51 -42.6571 6.62643 207.628 -76.5711 20.8844 197.396 -76.5611 31.3205 193.119 -61.5298 37.7328 198.713 -38.3246 -6.75292 233.991 3.85137 5.48325 2.7156 5.96853 
169.557 167.225 165.464 164.174 163.984 151.853 160.267 158.009 156.62 153.806 -45.143 232.255 -43.7751 -2.86263 208.408 -78.755 11.2636 197.887 -78.8991 22.3078 193.325 -63.7419 29.4616 198.82 -40.444 -14.9662 233.898 2.661 5.47452 2.38894 6.05591 
169.522 168.601 166.921 165.039 165.355 152.058 162.045 158.942 156.957 153.35 -56.13 235.595 -44.3771 -12.0299 211.974 -81.6645 2.32799 200.729 -82.2067 13.1213 195.448 -67.2641 20.1552 199.6 -43.4283 -22.9936 233.76 1.42268 5.06599 2.6997 6.0903 
169.605 169.784 167.49 165.634 166.298 152.176 163.331 159.45 156.538 152.622 -66.6444 238.327 -44.8818 -21.2254 214.585 -84.0397 -6.82107 202.696 -84.8265 3.51659 196.58 -69.6644 10.6336 200.229 -45.7274 -31.1754 233.922 0.315248 5.10349 3.26677 6.28899 
170.222 171.499 168.401 166.774 167.873 152.052 165.807 160.972 158.115 154.93 -76.4947 239.226 -44.7307 -31.0825 216.673 -86.6119 -16.4266 203.439 -87.2238 -5.57386 196.815 -72.3642 2.13916 200.299 -47.9959 -40.1624 233.454 -0.195111 4.89566 3.09287 6.86552 
170.629 171.301 168.233 167.064 167.748 151.768 165.896 160.401 157.895 154.802 -85.5787 239.345 -44.2709 -41.4914 217.52 -87.9987 -26.6073 203.39 -88.318 -15.0789 196.706 -73.7482 -6.41038 199.947 -49.1896 -48.5921 232.779 -0.515246 4.67745 2.75179 7.28338 
171.029 171.381 168.448 167.417 167.936 151.914 166.035 160.552 158.252 155.46 -94.2789 239.802 -44.5128 -51.9996 218.516 -89.9233 -36.5675 203.791 -90.2541 -24.2101 196.934 -75.9398 -14.7072 200.011 -51.154 -57.2401 232.58 -1.31486 4.52608 2.3576 7.42023 
