172.223 94.9041 129.446 141.53 130.337 162.134 96.6121 67.3394 74.4972 82.2371 -411.884 159.642 8.35185 -436.529 175.271 -9.15468 -385.428 168.887 10.4199 -371.533 166.455 3.89209 -366.216 165.379 -15.1918 -375.482 201.715 4.89557 22.5329 6.34544 76.8904 
170.979 91.8113 132.463 141.648 132.858 160.375 104.111 70.9844 74.5087 81.7917 -409.339 159.639 7.89777 -434.621 178.715 -15.2048 -382.047 167.182 8.16754 -368.283 166.825 0.126268 -366.391 166.654 -21.5262 -372.438 201.942 3.77171 27.7586 5.8654 82.0552 
166.485 97.7958 134.356 140.786 122.91 159.281 119.046 66.0639 68.3869 82.7252 -405.256 160.798 7.69654 -436.015 180.907 -17.2986 -378.065 169.798 5.02667 -364.833 169.865 -3.05513 -368.073 168.624 -28.2123 -367.86 201.795 2.40462 39.4701 7.08323 85.3202 
165.128 113.912 122.738 138.723 119.771 159.024 135.255 63.2833 65.1053 87.1414 -401.234 164.88 4.6359 -438.904 185.276 -20.4516 -385.118 171.585 0.581693 -363.747 172.263 -4.00638 -365.211 167.113 -32.3648 -363.688 202.156 0.345344 42.1939 13.8491 74.5631 
166.686 170.422 90.7535 137.507 127.109 158.43 151.109 70.8252 62.4187 105.837 -395.764 165.223 3.16257 -441.513 191.745 -23.054 -392.515 173.985 -5.27334 -358.877 174.265 -6.7219 -365.43 165.406 -40.3384 -358.189 202.847 -1.15333 51.2617 31.5124 60.0325 
161.037 174.27 116.818 102.39 150.335 156.71 156.189 82.0908 64.8811 118.742 -390.436 165.927 2.3443 -434.917 193.352 -25.8994 -393.579 171.299 -9.44437 -360.856 172.162 -18.6865 -363.998 164.702 -47.5777 -351.453 202.642 -3.04807 37.1029 21.1547 52.2084 
156.988 174.27 125.878 90.2547 160.547 156.783 160.333 93.2701 83.1114 123.584 -385.122 167.539 0.552421 -427.171 193.948 -29.3589 -398.747 174.616 -19.4655 -366.523 170.405 -29.0658 -360.468 166.692 -52.0768 -344.683 202.515 -4.75656 20.1582 17.6465 36.0437 
155.477 168.963 106.333 95.7511 162.237 158.177 166.834 110.89 101.999 125.807 -379.363 168.824 -0.228795 -418.04 191.941 -32.399 -398.103 178.862 -31.782 -362.857 166.325 -39.2393 -351.989 165.882 -56.2653 -336.349 201.812 -6.6216 12.3863 23.3152 20.5296 
150.82 174.27 109.515 105.066 157.582 158.953 165.836 132.499 132.532 124.49 -369.597 166.704 -1.24276 -408.73 190.934 -32.7517 -394.891 182.692 -45.2132 -364.169 166.824 -52.6241 -341.586 164.913 -58.2654 -325.972 200.102 -8.55106 2.66073 18.564 7.95041 
156.643 179.456 139.378 138.628 159.973 157.23 175.646 146.639 148.605 127.157 -357.152 163.996 -6.32196 -397.812 187.778 -36.2268 -388.119 184.801 -58.336 -358.977 167.671 -66.614 -329.462 162.367 -62.0232 -315.338 198.625 -10.8968 11.8919 16.024 4.05756 
160.859 178.933 172.567 168.781 168.836 155.661 179.625 157.25 155.449 141.164 -332.05 161.76 -14.0294 -370.507 178.429 -43.066 -362.753 179.083 -71.428 -337.241 167.19 -80.0363 -306.457 160.646 -72.1333 -291.45 194.543 -14.5991 12.4883 9.7946 8.35663 
163.012 178.753 174.185 172.163 171.99 156.679 179.562 159.527 155.432 146.389 -319.815 159.931 -16.0236 -355.027 174.295 -47.9441 -347.403 175.652 -75.0664 -322.947 166.052 -83.4772 -293.143 160.131 -76.4542 -277.763 191.899 -16.4337 10.5532 7.71933 7.6046 
161.723 173.827 172.47 170.89 171.881 155.625 176.874 158.586 153.011 149.714 -306.244 157.935 -17.3728 -339.192 170.154 -51.9167 -331.431 171.507 -77.0009 -307.345 163.346 -85.0766 -278.344 159.122 -80.1327 -263.585 189.429 -18.1275 7.60997 6.58367 6.58377 
162.297 169.537 170.54 169.98 168.653 154.833 170.164 157.232 150.441 149.803 -290.389 153.554 -21.254 -320.279 163.913 -57.0497 -313.039 165.399 -80.115 -289.226 157.475 -87.1214 -260.598 154.837 -83.1889 -248.07 185.992 -20.7216 6.01723 6.3614 6.13464 
161.704 170.322 170.295 171.937 167.871 153.644 164.382 160.582 155.547 151.709 -256.044 143.229 -27.5467 -282.057 150.486 -66.7528 -275.011 152.625 -88.4774 -252.162 147.509 -95.0079 -223.585 145.875 -89.7777 -213.53 176.635 -26.829 5.58397 4.1967 6.22829 
163.69 172.065 171.689 173.422 169.968 155.272 165.246 164.294 160.242 155.656 -237.957 137.63 -29.711 -262.267 143.014 -70.4675 -254.284 144.906 -93.0216 -231.137 140.48 -99.3918 -202.427 139.799 -93.8706 -194.919 171.751 -29.6992 5.22645 4.01011 6.41577 
165.644 176.405 172.399 173.892 170.004 155.759 167.117 165.075 162.232 157.044 -217.029 130.597 -32.489 -239.707 134.735 -75.2047 -229.79 134.826 -96.8619 -206.612 131.853 -102.737 -178.556 132.885 -96.1558 -175.188 167.057 -31.9123 4.77035 3.49167 4.7744 
167.182 173.992 172.444 173.767 171.09 156.156 167.764 166.994 165.016 159.522 -193.97 124.367 -34.4981 -212.911 123.96 -78.4087 -201.243 123.838 -100.098 -177.723 122.4 -105.307 -150.963 125.396 -97.4597 -153.509 162.069 -33.3597 4.1544 3.21364 5.19776 
168.286 170.173 172.614 173.586 171.357 156.139 166.391 168.385 167.047 161.353 -168.396 116.681 -36.2548 -182.59 110.934 -79.8049 -170.065 111.26 -101.665 -146.178 111.335 -105.72 -120.55 116.435 -96.5534 -129.409 156.145 -33.9865 3.44968 3.02439 6.47567 
167.737 172.083 168.065 169.766 169.085 156.365 166.498 166.262 166.627 160.099 -139.816 108.005 -35.8641 -150.238 99.3899 -81.2224 -134.794 99.1709 -100.703 -110.134 101.744 -103.122 -84.9802 108.767 -90.5444 -102.956 150.863 -32.1165 4.50589 3.41295 5.39539 
170.041 170.243 164.982 166.809 167.374 159.102 163.328 161.433 162.723 156.799 -108.019 97.9234 -34.9333 -114.562 86.9074 -79.4742 -95.743 86.6773 -96.1976 -71.2447 92.0964 -96.0448 -48.6182 103.221 -81.1876 -77.5424 147.475 -29.5009 4.31693 3.48745 4.62369 
171.206 162.146 167.266 167.067 168.061 163.085 154.319 161.718 161.953 156.686 -75.4901 87.5001 -32.3627 -72.8076 74.323 -71.5894 -56.6065 75.9953 -92.8026 -33.3845 84.5325 -90.3462 -14.277 99.0513 -73.4511 -51.5294 143.585 -26.8138 3.39111 3.082 9.19891 
171.963 159.387 167.159 165.528 169.257 165.418 152.313 162.634 162.775 159.94 -44.935 81.9337 -28.4894 -36.3371 66.3055 -64.9537 -19.7016 69.765 -87.8586 3.3139 81.9837 -84.6726 20.3888 100.846 -67.2792 -25.381 141.224 -22.1154 2.89751 4.27808 11.283 
177.802 166.208 168.384 144.471 171.404 160.043 162.513 163.786 151.417 134.683 -1.49689 80.9785 -21.5663 20.3801 71.093 -67.6062 52.2281 76.4691 -72.5904 68.3246 87.3359 -61.2241 62.1375 95.5189 -43.3156 7.54822 138.681 -12.284 14.144 1.88994 7.97877 
172.275 177.343 179.442 177.13 161.737 174.681 157.717 163.082 168.984 110.586 52.026 79.6656 -15.6959 80.7021 85.4718 -63.6433 108.015 92.1568 -65.0079 119.545 88.8418 -49.2637 104.302 90.3877 -15.2303 53.5991 128.451 7.62887 14.8346 1.94345 10.8156 
166.642 174.578 179.759 174.27 152.598 172.85 169.398 169.926 178.894 135.883 72.2649 81.9774 -3.59092 114.147 94.1502 -51.5045 136.916 97.604 -46.9707 134.169 95.0578 -27.104 124.286 92.3794 -1.01946 69.6456 130.85 17.4517 13.3545 8.80381 4.37625 
167.821 179.041 174.878 174.27 169.968 169.721 173.718 170.686 178.943 174.517 95.0159 91.4323 9.28975 143.005 109.615 -40.2981 161.815 109.485 -27.9563 144.733 98.6235 -11.3369 129.341 97.9747 6.23184 84.5617 137.576 27.1613 15.913 20.2382 0.96962 
163.866 162.217 171.346 174.27 177.975 164.894 166.137 168.167 178.293 176.475 109.873 102.064 19.858 160.912 117.716 -22.1474 176.725 113.49 -9.37586 160.601 100.714 5.49271 132.247 93.4862 15.6267 96.6865 146.223 37.4319 23.097 19.6617 2.73916 
161.583 156.262 164.282 175.01 179.041 159.692 164.202 171.848 178.362 174.029 118.414 106.155 29.2391 173.717 123.281 -9.83798 190.054 115.361 7.35396 166.994 94.6881 13.7087 125.09 88.0804 21.0939 107.189 151.884 45.426 27.2147 27.1374 3.7729 
156.106 157.664 170.085 175.786 179.033 156.095 163.188 170.45 178.569 173.409 124.279 111.904 35.215 182.507 127.613 2.09541 196.122 115.826 22.3075 168.14 94.0804 19.6229 122.486 94.3026 22.2861 113.526 156.767 52.943 28.6306 32.1344 6.41721 
152.564 154.077 175.702 175.948 179.36 149.854 162.628 163.568 178.618 172.703 126.726 117.389 42.8037 188.638 132.569 10.2746 200.256 118.937 28.1759 180.089 99.2354 24.0529 137.938 90.9376 31.5768 118.697 161.067 59.8293 21.9386 26.2839 7.35827 
153.75 158.048 171.477 175.766 174.071 146.792 164.38 166.253 178.552 158.143 129.997 122.079 48.8966 190.084 131.131 15.3249 206.151 121.296 35.2128 197.708 106.933 30.0088 155.996 108.332 61.1789 124.425 165.779 67.4625 22.7926 19.1974 5.4371 
154.615 160.474 171.674 176.003 156.587 146.629 164.026 164.972 178.631 126.622 131.805 125.675 51.6324 190.971 131.011 19.3769 209.396 121.786 40.1474 210.75 110.956 48.9565 175.202 119.292 94.1754 128.115 168.541 72.3354 20.2568 7.7969 5.59083 
157.161 164.512 172.224 177.161 141.271 147.96 164.889 163.574 175.033 136.557 133.491 127.95 52.9483 192.126 130.969 22.1047 210.852 121.343 43.4335 211.94 116.93 69.7619 190.17 126.765 108.955 131.016 170.429 75.6095 15.0254 5.14402 5.96832 
159.451 166.537 171.073 170.583 148.299 149.116 163.802 161.585 162.992 151.471 132.576 128.541 53.6647 191.499 129.851 24.5363 211.386 121.217 46.4009 211.716 120.813 78.772 198.592 131.965 115.085 133.22 172.163 78.0514 14.6201 8.99869 6.52058 
160.791 166.093 170.187 164.95 152.088 150.323 168.411 160.758 155.675 160.774 132.363 129.962 55.278 194.576 130.92 26.9458 211.2 121.44 47.8234 212.551 125.152 82.9722 202.932 135.148 119.133 135.294 173.915 80.2512 15.719 11.4985 5.33995 
160.626 167.418 169.51 150.671 158.54 153.156 169.289 158.494 159.125 164.667 132.229 130.922 57.0933 198.302 132.341 31.58 209.839 122.826 49.3804 216.1 133.219 86.3896 204.248 140.176 117.776 138.153 177.177 84.0934 11.8839 15.6297 4.50888 
165.32 164.205 154.121 148.68 158.435 155.45 170.227 150.89 157.463 156.276 134.383 132.714 57.6259 202.008 136.541 34.2943 206.698 125.877 51.9064 217.759 136.748 86.1618 205.462 142.972 120.235 140.045 180.026 86.5344 14.1223 16.4488 8.47694 
164.283 163.979 147.746 152.362 161.006 154.439 169.521 148.601 158.695 154.103 137.252 135.058 59.6399 204.171 142.215 33.9574 206.347 129.857 52.6578 219.186 140.279 84.6162 206.467 146.686 119.356 140.769 182.849 87.3989 14.3315 15.992 11.0902 
163.427 159.124 149.422 148.803 166.738 153.614 167.471 150.377 157.779 150.599 136.58 137.778 60.1531 202.961 146.444 33.7639 206.648 132.684 53.7677 217.435 144.296 83.9906 205.526 150.121 118.93 140.725 185.07 88.4903 14.7751 14.5826 12.1347 
164.066 162.211 150.392 148.934 164.105 154.513 163.399 146.453 156.025 144.64 137.905 139.672 61.2545 202.833 149.17 33.9458 206.652 136.217 54.63 218.249 148.239 85.1329 205.878 154.637 118.542 140.962 187.613 89.6206 13.1735 14.9888 12.3364 
164.887 165.798 140.616 151.391 154.816 155.484 160.61 142.187 154.65 140.739 138.385 141.068 60.9934 203.434 151.719 34.0729 205.825 139.505 55.0686 219.076 150.837 86.0322 205.103 156.526 118.147 140.831 189.433 90.2267 11.6061 15.6957 12.8221 
169.327 169.002 178.531 174.672 163.478 159.8 157.421 157.06 155.648 142.354 128.268 144.216 53.1198 193.04 161.419 30.5186 210.817 156.385 52.1986 212.815 157.432 80.1948 196.492 156.109 109.201 129.985 189.859 88.923 8.10575 6.31283 6.13095 
170.143 167.994 177.804 174.27 164.188 159.826 158.123 156.696 155.753 142.36 127.037 143.651 53.1524 191.075 160.201 29.9994 208.578 155.064 51.3467 210.918 156.257 79.4883 194.7 155.127 108.609 128.368 189.153 88.595 8.05087 6.55615 5.84289 
175.369 165.586 172.168 179.366 170.302 160.145 158.694 154.979 158.447 143.067 121.217 143.493 51.459 180.846 156.306 29.2943 199.699 153.372 49.3335 204.352 155.744 79.7355 188.135 155.766 108.261 120.818 187.673 87.2109 7.31837 9.44581 5.93368 
176.288 164.531 171.318 174.348 172.325 160.412 155.876 155.371 158.468 143.159 118.589 145.117 50.5033 176.429 155.815 30.1344 196.992 153.915 49.1213 201.378 155.826 80.0289 185.556 156.332 108.538 118.313 188.243 87.4277 7.37485 9.61744 6.74531 
174.665 170.28 171.838 154.587 175.175 159.578 149.38 151.784 164.546 154.479 112.08 148.153 49.2656 163.044 156.177 29.2007 185.062 154.102 44.465 190.244 153.11 75.6242 176.897 152.291 105.985 110.883 190.563 87.2214 9.10603 9.58835 7.39807 
170.506 166.715 167.112 152.728 179.36 157.94 146.464 148.908 165.743 155.221 108.905 147.626 49.2892 157.239 153.631 28.2668 179.16 150.765 42.1107 185.754 149.366 73.9355 172.007 147.8 104.482 108.869 190.327 86.9062 9.7031 10.4405 7.24349 
166.983 160.793 162.448 151.182 172.217 157.084 144.599 147.029 166.658 155.596 105.76 147.301 49.1031 152.203 152.089 27.0962 173.662 148.091 39.9567 181.893 146.297 72.8216 167.523 144.336 103.462 106.887 190.225 86.6421 10.4595 11.659 6.58242 
164.663 155.792 158.949 151.094 168.56 157.098 144.164 146.155 167.459 155.813 102.964 146.692 48.1687 148.305 150.505 25.9195 169.192 145.441 38.3159 178.485 143.192 72.2028 163.231 141.199 102.762 104.916 189.642 86.183 11.2224 12.6616 5.75414 
163.464 151.786 157.491 151.198 166.414 157.693 144.825 146.824 167.467 155.458 100.488 146.034 46.9123 145.442 149.309 24.499 166.116 143.401 36.9337 174.84 140.165 71.496 158.42 138.439 101.792 102.87 188.937 85.5896 12.0454 12.8214 5.1503 
163.354 149.294 156.452 151.827 169.839 158.533 146.393 147.792 166.107 153.949 97.8515 145.282 45.6949 143.46 148.44 23.1489 164 141.947 36.3903 171.065 137.312 71.0117 154.182 136.237 100.946 100.544 188.095 85.0231 12.2715 12.3801 4.72259 
163.787 148.632 156.538 155.586 175.538 159.445 148.032 149.023 164.018 150.39 94.9559 144.966 45.1134 141.39 147.751 22.4709 161.84 140.696 36.5189 167.141 134.986 70.9248 150.16 135.058 100.284 97.8212 187.647 84.6741 11.8474 11.9436 4.43727 
165.321 144.937 155.564 160.146 167.615 161.214 147.62 150.799 164.789 147.684 91.9981 143.698 43.866 138.361 147.833 21.6677 158.963 139.629 36.1807 162.143 131.38 70.6552 141.246 132 98.5058 94.5574 186.937 84.3056 14.3903 12.3156 4.42097 
165.767 146.686 154.782 161.046 153.137 161.241 149.809 151.805 163.291 147.865 89.0588 143.543 43.9884 135.882 148.803 20.5305 155.358 139.121 35.8515 156.262 129.351 68.9915 134.749 131.336 95.8643 91.0345 186.974 84.1379 14.4127 11.8292 4.09887 
165.881 150.076 155.455 159.47 149.821 161.049 152.264 152.709 161.997 148.118 85.304 144.847 44.0623 132.449 149.964 19.2867 150.713 138.616 35.0664 149.781 128.364 65.411 129.673 131.439 92.9612 87.5481 187.949 84.1348 13.2484 10.3897 4.24124 
166.124 155.144 157.535 161.417 154.504 161.545 155.259 153.821 162.48 147.824 81.1636 147.307 43.0037 128.747 150.178 18.1064 145.465 137.437 33.9041 143.758 127.599 60.8363 124.421 131.086 90.434 84.095 189.045 84.1333 13.1469 8.44517 4.49475 
166.317 158.798 159.832 165.584 162.471 162.196 157.238 155.558 162.011 145.839 76.9019 150.167 41.4823 124.3 149.788 16.9083 140.325 136.361 32.5358 137.796 126.89 57.4616 118.545 130.644 88.8565 80.4131 189.916 83.9803 13.8388 7.68869 4.65963 
166.274 160.083 160.736 168.698 167.542 162.249 158.644 157.091 161.44 145.462 72.6625 151.952 40.6039 119.161 148.674 15.6996 134.525 134.821 30.7145 130.799 125.343 54.4463 111.72 130.001 86.7992 76.4586 190.11 83.3442 14.4796 8.05406 4.57931 
165.859 160.988 161.47 170.757 168.959 161.592 160.168 158.666 161.521 144.229 68.3562 152.692 40.6898 112.824 146.58 14.0163 127.618 132.205 28.5072 123.784 123.726 51.2533 105.462 129.722 84.8931 72.4412 189.9 82.3156 15.0572 7.92199 4.87915 
165.293 162.563 161.726 172.288 170.853 160.623 162.353 159.48 160.733 141.289 63.9678 154.916 39.4065 108.374 145.688 11.9676 122.014 130.646 26.4814 118.44 123.447 48.9463 102.616 131.555 83.3161 69.3698 190.418 81.1967 13.724 7.72871 5.90023 
165.209 164.066 161.669 171.526 170.076 159.726 163.65 159.409 158.348 139.481 59.4373 157.56 37.4183 103.57 145.003 9.44215 115.784 129.116 24.1243 112.337 123.292 46.3255 100.45 133.316 80.0303 66.6246 191.16 79.767 10.9146 7.79531 7.32503 
165.141 163.934 159.923 170.201 167.209 157.391 162.625 155.63 153.779 135.24 52.0494 161.655 32.141 94.0131 144.482 4.90495 103.008 127.294 18.8366 102.071 123.728 40.225 94.425 134.784 73.5689 61.7447 192.171 75.8222 9.26145 6.47894 9.74951 
164.575 161.705 158.433 168.817 165.191 155.698 158.222 153.034 151.341 133.51 47.4066 163.691 30.3035 86.6167 144.069 3.04972 96.5781 127.673 16.5109 97.2026 124.661 37.2947 92.3855 135.451 70.7533 59.2791 193.107 73.9405 8.07988 5.69405 8.74714 
164.38 158.981 157.305 165.632 159.363 153.605 151.629 149.312 149.44 135.289 39.8022 164.662 26.2768 74.1655 143.07 -0.142861 85.2178 127.583 11.9276 89.984 125.809 31.4286 90.0833 136.064 64.3612 53.9631 193.565 69.7017 5.78527 3.06023 7.44403 
164.27 157.954 157.078 163.817 155.717 152.473 148.221 147.062 147.763 135.12 35.7979 164.928 24.3199 68.0709 141.695 -0.802594 79.1002 126.558 10.7492 85.4451 125.636 29.358 87.594 135.999 61.3681 51.1495 193.393 67.4107 4.93705 2.1279 7.10889 
164.617 158.535 158.1 163.443 155.489 151.957 145.81 145.794 146.961 136.245 32.376 166.556 22.2688 62.6945 141.972 -0.967483 74.0401 127.351 9.51474 81.5607 126.75 27.8109 84.5958 137.029 59.0038 48.1655 194.548 65.467 4.64688 1.57534 6.44546 
164.82 158.468 158.629 162.479 156.574 151.706 142.527 144.091 145.573 138.5 29.1628 167.413 20.6889 56.5977 142.199 -0.21788 68.2104 128.214 8.95036 77.2566 128.044 26.8839 82.2572 138.088 56.0732 45.4199 195.922 63.5672 3.38376 0.865507 5.38608 
165.19 158.694 160.015 163.081 158.881 152.114 140.306 144.036 146.247 141.337 25.9664 168.109 19.2693 50.4796 142.276 0.749493 62.7547 129.113 7.91866 72.9682 129.259 25.3222 78.7912 139.094 53.5274 42.6664 197.629 61.6012 2.91297 1.13751 3.97767 
165.621 159.27 161.477 164.023 162.003 153.262 138.259 144.144 145.973 140.142 22.4511 168.305 17.2381 44.3941 143.333 1.49272 57.6339 130.468 6.39892 68.0758 130.565 23.4427 73.2627 140.014 50.6571 39.5633 198.987 59.8344 1.66274 1.61854 3.13244 
166.077 161.501 163.2 165.235 164.998 153.988 138.689 145.211 146.766 140.487 19.8605 168.803 14.9142 39.489 144.303 0.738017 53.0871 131.805 4.11308 63.4781 132.027 20.6665 67.8883 141.564 46.7528 36.9039 200.429 57.6544 1.34866 1.92067 3.59114 
166.775 163.355 164.247 165.468 166.228 154.898 137.624 144.88 145.615 139.61 17.8889 169.485 12.0275 34.9969 146.464 0.449355 49.0919 134.329 2.16853 58.4113 134.396 18.37 62.6702 143.696 43.3457 34.2643 202.016 55.564 2.20844 2.2514 4.57202 
168.656 166.015 166.268 166.676 167.873 158.364 140.762 146.512 145.143 138.641 13.3149 170.562 6.03877 28.3145 149.51 -2.17788 42.2292 137.989 -1.25959 48.3162 138.017 14.8649 52.3441 147.377 38.5201 29.0467 204.854 51.6962 4.31889 4.04877 5.16729 
169.313 166.485 166.785 167.328 168.487 159.822 143.612 148.138 145.757 138.598 9.7706 170.469 4.10367 25.5197 150.692 -5.48074 38.9948 139.114 -3.75552 44.245 139.103 13.4132 48.1361 148.603 37.1031 25.9585 206.027 49.7617 5.02976 4.59098 4.45896 
170.28 166.26 166.587 167.518 167.881 161.216 145.603 148.463 146.47 138.993 5.50273 170.295 2.3979 22.0773 151.614 -8.38587 34.7567 139.938 -4.99524 40.1359 139.697 12.344 44.4422 149.559 35.4769 22.2363 206.943 47.9583 5.24525 4.82455 3.98254 
170.987 165.722 166.091 166.851 166.929 162.263 148.547 148.531 147.026 138.708 1.10512 171.136 0.461032 19.9731 154.78 -13.5679 31.0077 141.899 -7.28159 36.8061 140.942 10.27 41.0812 150.766 33.3571 18.319 208.07 46.3752 5.40082 4.68032 5.18447 
171.364 165.638 165.667 165.544 164.812 162.695 148.959 146.013 145.631 137.069 -3.11772 172.916 -1.43009 17.0319 158.969 -18.4821 25.1764 144.476 -8.40202 32.2624 143.041 8.22229 37.4456 152.839 30.6227 14.4303 209.513 44.8669 5.03963 3.98074 8.77795 
171.572 164.309 164.92 164.951 163.437 162.892 149.563 143.66 144.189 135.081 -7.87872 176.129 -3.38819 14.1474 165.2 -24.7206 19.6478 147.88 -9.86568 27.4962 145.815 6.17072 33.0326 155.538 28.129 10.5136 211.385 43.6094 5.35585 3.66231 13.6447 
171.039 161.727 163.901 164.114 162.731 162.279 148.368 142.785 142.76 133.771 -12.9985 178.362 -5.03572 9.73763 171.659 -30.1109 15.4131 151.236 -13.4381 22.5934 148.091 3.48205 28.0387 156.956 25.4988 6.1654 212.429 42.4764 5.67495 4.30716 15.9967 
170.796 160.058 164.072 163.475 163.55 162.098 147.292 146.336 144.251 134.586 -18.0919 180.777 -6.20235 4.25233 176.843 -34.2707 12.0622 155.025 -19.8057 18.8638 150.818 -1.25318 22.6736 158.454 22.5174 1.74934 213.649 41.4377 6.70561 4.72251 14.6333 
170.377 159.002 164.089 164.525 164.464 161.668 146.658 147.737 145.15 134.403 -23.0487 182.85 -7.63287 -1.24367 180.681 -38.0189 7.35856 157.494 -24.2187 14.3399 152.67 -4.88041 16.8025 160.051 20.0218 -2.80539 214.706 39.9564 8.10838 4.85124 14.8461 
170.09 159.432 164.782 166.09 166.373 161.351 146.314 149.84 147.963 136.36 -28.3834 184.911 -9.14911 -7.71392 181.508 -40.5708 2.58572 158.567 -28.1694 10.1814 153.511 -9.08155 11.3315 160.334 17.4993 -7.79691 215.311 38.4067 9.15613 4.24982 13.3626 
169.812 159.674 165.042 166.917 167.156 161.022 146.214 149.846 148.501 136.812 -34.4033 187.244 -10.6688 -14.1602 183.324 -42.8336 -3.5367 160.129 -30.8188 4.85197 154.739 -11.835 5.64837 161.242 15.4456 -12.9971 216.292 37.0586 9.63488 3.78576 13.2632 
169.77 161.904 166.294 169.384 168.776 160.219 147.853 152.125 152.405 139.506 -41.5791 189.392 -12.0354 -20.2415 186.453 -45.5981 -9.25274 162.844 -35.3828 0.100876 156.119 -17.0504 -0.490926 161.943 12.4146 -18.5873 217.557 35.9061 10.64 3.04352 12.4458 
169.368 168.226 167.329 170.01 170.613 158.542 153.558 155.451 156.916 145.367 -56.0741 190.995 -14.13 -32.1317 187.734 -51.158 -21.5276 164.343 -42.4743 -10.9253 156.134 -24.807 -11.2662 160.772 6.38065 -30.4693 218.475 32.7435 9.73546 2.54138 11.7678 
168.087 171.658 167.159 169.628 170.274 156.476 155.947 155.823 157.542 147.001 -62.4452 190.286 -14.5307 -38.7508 188.774 -54.6273 -28.6088 165.023 -46.5753 -17.5558 155.686 -29.0508 -17.0428 159.483 2.36071 -36.2668 218.206 30.4524 8.85602 2.76222 11.849 
167.161 172.635 166.49 168.388 168.972 154.834 155.442 154.584 156.203 146.927 -68.7842 189.367 -14.685 -45.6774 189.619 -56.8965 -35.9804 165.467 -48.9294 -24.8317 155.403 -31.1178 -22.8989 158.678 -0.509759 -42.156 218.162 28.2604 7.67487 3.25307 12.1581 
166.11 171.154 165.544 167.056 167.593 153.236 155.15 152.673 154.283 146.648 -74.8189 189.013 -14.8571 -52.7338 190.452 -58.6118 -43.1714 166.326 -50.8698 -31.9874 155.385 -32.792 -28.6595 157.448 -3.36321 -47.9112 217.664 26.4025 6.28122 3.61991 11.8052 
165.345 173.034 164.807 166.961 165.354 152.596 153.03 150.02 151.582 144.922 -81.3712 189.392 -16.0383 -59.5662 189.847 -59.0925 -50.4319 166.465 -51.4859 -39.5899 155.066 -32.9746 -34.748 156.767 -4.94177 -53.7042 217.224 24.7565 4.79866 3.9919 11.1108 
165.515 171.301 166.903 166.526 164.174 152.977 148.943 147.479 148.754 143.677 -88.5868 190.965 -17.9036 -66.6798 188.555 -57.8655 -57.6797 166.343 -50.6658 -46.6915 155.055 -32.1879 -40.1267 156.635 -5.84725 -59.9445 217.152 23.5497 2.80001 3.79199 9.8755 
