164.796 174.27 152.613 148.313 163.997 161.686 130.556 128.776 73.0767 157.077 -393.765 169.587 30.9312 -443.618 192.396 -9.0163 -422.24 168.736 -11.822 -404.222 183.813 27.7075 -369.83 161.965 -14.4846 -387.114 221.269 37.7706 57.8935 44.4348 17.1192 
162.536 176.205 154.977 138.677 164.256 158.981 132.889 129.872 73.1558 155.968 -392.187 167.494 31.7855 -445.371 191.465 -8.59254 -423.565 168.384 -12.2408 -401.311 181.032 24.4192 -371.421 162.788 -14.817 -387.212 220.828 37.4424 50.9812 39.2457 16.8148 
161.508 178.108 157.181 135.107 163.421 157.008 135.483 130.705 74.0041 154.713 -390.137 165.773 32.467 -446.497 190.34 -7.95692 -424.541 168.306 -13.003 -399.116 178.671 21.9963 -372.363 163.114 -14.6285 -386.919 220.271 37.1574 45.9108 36.2434 15.6316 
160.9 176.06 149.549 134.112 161.413 155.455 137.049 126.942 76.1694 153.015 -388.811 164.275 32.6414 -447.252 188.672 -7.0608 -423.729 166.856 -10.6895 -397.32 175.822 19.921 -372.607 162.451 -14.1506 -386.424 219.441 36.6982 41.5965 31.5806 16.8499 
159.967 174.27 140.038 103.278 158.344 154.201 152.885 127.066 83.9053 147.635 -392.291 167.393 31.3811 -451.929 191.092 -9.77731 -423.593 166.941 -12.0106 -395.103 171.442 11.9329 -372.67 158.675 -10.3568 -384.789 217.467 36.5337 27.3589 22.2477 20.6795 
158.888 176.145 136.739 96.126 158.209 151.9 161.09 128.929 92.5252 145.923 -391.65 167.596 32.7975 -452.068 192.106 -11.6769 -422.981 167.397 -13.6452 -394.736 168.763 7.65444 -372.692 157.08 -9.273 -382.82 216.551 36.2836 21.3081 18.6311 20.8854 
157.749 172.949 133.2 95.5901 157.134 150.478 162.32 129.087 100.791 144.636 -391.535 167.736 34.459 -451.602 192.162 -11.8751 -421.794 167.803 -14.2275 -394.69 166.279 4.78347 -372.103 155.972 -8.27951 -381.19 215.877 36.1508 17.7678 16.3571 20.6869 
158.553 167.31 130.738 102.771 156.363 149.719 163.249 130.247 113.202 143.374 -390.498 167.014 35.7626 -450.777 192.818 -11.6747 -420.749 168.734 -15.0559 -395.288 163.143 -0.319966 -371.645 155.139 -7.76226 -379.062 215.028 35.8648 13.027 12.9931 20.2837 
159.01 167.791 131.65 135.864 155.832 149.391 162.862 131.566 129.243 142.717 -388.477 166.037 36.2219 -449.171 192.933 -12.1474 -419.317 168.913 -16.1157 -397.007 158.865 -7.20236 -370.216 154.24 -7.72376 -376.59 214.171 35.3515 9.64744 9.08679 19.8816 
160.365 169.683 134.08 153.309 155.539 149.876 161.394 133.19 152.38 142.667 -386.162 165.231 36.086 -446.942 192.644 -12.5246 -417.629 169.026 -17.4934 -398.236 157.563 -17.1973 -367.903 153.283 -8.06902 -373.695 213.266 34.8946 9.23056 3.29849 18.9722 
166.228 165.445 139.546 148.035 155.751 153.393 161.724 137.911 162.906 143.134 -381.763 164.654 34.363 -440.682 194.052 -13.4752 -410.906 168.587 -20.9786 -393.769 158.09 -22.6383 -362.09 151.667 -8.65187 -366.505 211.711 34.3582 11.3261 0.625383 19.9796 
167.777 158.242 143.541 143.015 160.643 153.746 158.862 142.967 163.787 146.926 -377.265 164.339 33.8142 -435.964 191.952 -13.5034 -408.159 169.462 -24.9178 -389.654 156.903 -24.2955 -358.673 150.622 -10.5261 -362.718 210.541 33.7075 10.5239 3.40325 17.0267 
172.428 155.267 140.695 153.402 129.335 153.523 153.021 145.168 171.047 159.876 -375.905 165.914 33.7967 -429.019 189.385 -13.5374 -405.044 170.138 -26.3846 -387.745 158.463 -26.3939 -355.158 150.828 -13.1758 -357.622 208.827 32.8514 11.4686 1.53033 12.7465 
164.202 150.273 146.292 134.805 132.748 151.802 151.421 147.155 160.431 156.151 -367.954 161.697 34.6495 -422.49 186.605 -14.558 -399.512 169.231 -29.4431 -377.885 153.801 -27.0303 -347.557 148.875 -15.0973 -351.426 206.416 31.7089 8.86931 6.93852 11.8766 
157.357 150.629 144.462 140.812 142.767 150.36 149.459 143.903 155.099 150.833 -358.746 155.986 35.5188 -413.563 180.725 -15.7896 -391.36 164.831 -29.0428 -366.836 149.573 -27.7353 -337.191 147.207 -17.8462 -344.407 203.884 30.517 7.90103 8.70917 10.1866 
157.689 151.855 146.06 150.397 148.857 150.108 147.133 141.462 150.52 149.704 -348.952 150.673 34.8292 -403.546 174.755 -17.1409 -383.015 160.424 -29.1923 -356.815 145.333 -29.1503 -326.484 144.933 -21.7631 -336.042 200.619 28.8173 8.54241 9.8021 8.14878 
153.984 153.208 146.148 155.896 156.026 149.089 145.567 138.734 148.317 148.38 -336.939 145.378 32.9723 -390.698 167.672 -18.9014 -372.866 154.887 -29.4443 -344.571 140.499 -31.7466 -314.428 141.909 -25.7442 -325.481 196.015 26.9032 8.21079 11.0649 6.16337 
151.461 154.888 154.37 160.191 160.113 148.514 143.869 137.926 147.213 147.347 -325.367 140.344 30.8742 -376.849 159.592 -20.9946 -359.209 146.779 -31.125 -330.759 135.615 -34.8962 -301.707 139.572 -29.5809 -314.458 191.324 24.9571 7.13006 9.92867 7.19149 
157.279 162.71 162.537 163.557 166.268 151.319 147.13 144.955 148.069 149.224 -304.918 130.141 24.5642 -348.69 145.886 -25.1068 -331.57 133.926 -37.8504 -304.339 128.341 -42.7837 -275.519 133.636 -38.1391 -287.704 180.535 20.8388 6.64393 7.16319 6.8177 
156.684 166.99 165.294 165.291 168.281 150.572 150.101 149.293 148.726 148.916 -293.228 125.806 20.8028 -333.881 139.479 -28.2379 -316.935 128.573 -42.7042 -289.926 124.557 -46.329 -261.94 130.774 -40.9156 -274.284 175.801 18.585 5.60809 6.51448 5.8166 
155.795 167.925 166.543 166.991 169.907 150.791 149.608 152.482 150.121 149.647 -285.844 123.216 17.5533 -320.088 132.701 -30.6679 -304.095 123.883 -47.467 -277.548 121.251 -50.1794 -250.085 128.097 -44.1208 -262.89 171.845 15.8017 5.01945 5.78111 3.31905 
156.624 169.553 167.211 167.885 170.882 151.285 150.538 155.335 152.156 151.384 -278.652 121.214 14.8702 -307.098 127.713 -33.7501 -292.127 120.459 -51.9968 -266.065 118.454 -53.8252 -238.539 125.368 -47.1432 -251.721 168.681 13.051 4.97277 5.15045 1.66897 
157.669 170.342 168.116 168.673 171.012 152.222 153.571 158.28 153.976 152.838 -271.971 120.135 12.1383 -295.455 124.05 -37.957 -280.817 117.953 -57.0091 -254.772 115.355 -57.6035 -226.978 122.027 -50.5176 -240.09 165.332 9.92666 5.08351 5.34794 1.99451 
158.774 170.168 168.735 168.653 170.951 152.337 155.702 160.498 155.711 154.472 -262.816 119.244 9.19543 -282.677 120.487 -41.7434 -268.099 115.379 -61.2696 -242.211 112.401 -60.9032 -214.188 119.197 -53.4189 -227.696 162.521 7.22882 5.22794 5.42668 2.76943 
159.858 169.933 169.269 170.069 171.475 151.818 157.892 161.582 158.158 156.43 -250.888 117.674 6.78015 -268.68 117.426 -44.8516 -254.108 112.951 -63.9168 -228.802 110.87 -63.8068 -200.601 117.681 -55.3981 -214.783 160.474 5.60451 5.24596 4.54027 2.75229 
161.713 169.635 168.841 170.5 171.364 150.432 160.106 162.228 160.927 158.3 -238.343 116.945 5.45111 -252.72 114.519 -47.978 -238.996 110.785 -66.0828 -214.697 110.055 -66.8683 -186.508 117.276 -57.1171 -201.511 159.103 4.74727 5.05449 3.22311 2.52512 
163.553 168.441 167.8 169.152 170.75 151.536 160.182 161.596 161.241 158.336 -225.963 115.563 4.44544 -234.693 110.765 -51.0146 -221.224 107.531 -68.271 -197.114 107.634 -69.1764 -169.351 114.449 -57.9433 -186.116 156.775 3.26772 4.926 2.81539 2.83539 
166.617 167.389 166.726 168.089 170.174 153.696 160.013 161.333 161.859 158.616 -212.699 113.192 3.05449 -216.89 107.071 -53.9708 -202.784 104.441 -70.9654 -178.294 105.143 -71.8712 -150.55 111.302 -58.9534 -169.749 153.943 1.69694 5.44376 3.04531 3.25093 
167.655 166.106 165.669 167.09 169.435 154.978 159.052 160.773 161.624 158.457 -197.731 110.971 1.10444 -199.211 104.111 -56.4671 -184.429 102.107 -73.3974 -159.742 102.898 -73.9493 -132.104 108.702 -59.8105 -153.09 151.521 0.52418 5.71661 3.21888 3.71645 
167.827 165.207 165.19 166.48 169.087 155.782 157.805 160.488 161.739 158.774 -182.6 110.227 -0.0507412 -181.001 102.135 -57.4813 -165.678 101.098 -74.8945 -140.654 102.114 -75.146 -113.069 107.576 -59.9625 -136.027 150.208 0.272207 6.05284 3.54707 4.83947 
168.447 165.166 166.18 165.908 168.348 157.109 157.507 159.623 160.543 158.498 -166.567 109.848 -2.40954 -160.429 100.054 -59.1663 -143.9 98.471 -75.6655 -119.061 99.4261 -74.3446 -92.1889 105.141 -58.316 -117.698 149.097 0.234368 5.87251 3.3506 4.67622 
168.403 165.505 166.544 165.768 168.126 157.294 158.469 161.036 161.536 159.38 -148.533 109.435 -5.01667 -138.364 97.1857 -60.5995 -120.161 95.6281 -76.7547 -95.1209 96.0016 -73.6379 -69.9798 102.301 -56.0497 -98.2536 146.692 1.40773 4.94046 3.53784 5.0633 
168.721 165.434 166.917 165.237 167.676 157.373 158.871 162.002 161.515 159.607 -128.08 107.687 -7.67043 -113.66 93.715 -61.7295 -94.3758 93.1642 -77.5958 -69.2728 93.7468 -72.2515 -46.2129 101.17 -53.6141 -78.3548 144.998 2.48798 4.02299 3.78565 5.77767 
168.437 166.043 167.882 165.831 167.572 155.324 159.592 162.153 161.975 159.759 -103.066 104 -9.6177 -86.5712 88.6678 -61.97 -67.3886 88.288 -76.3533 -43.0244 91.3814 -70.6839 -21.9118 100.655 -51.2318 -57.5435 142.843 3.94721 3.18645 3.44675 4.94747 
167.299 167.432 169.542 166.7 168.798 153.246 161.598 163.237 162.811 160.62 -76.1863 98.6586 -8.52092 -60.1013 82.7349 -60.2552 -39.5347 83.0176 -73.1624 -15.7352 88.2689 -66.7106 2.87591 99.5218 -46.7228 -36.0775 140.46 6.78876 2.1559 3.47456 4.45848 
168.272 168.692 168.797 166.653 168.925 153.958 161.687 161.925 161.149 159.609 -51.5424 96.3812 -7.03811 -31.6531 78.3098 -56.8393 -10.6225 79.3955 -67.9223 11.9142 86.428 -60.5131 28.6585 100.165 -41.0295 -13.4181 139.719 9.81944 2.38724 3.13599 4.0411 
170.947 169.258 168.008 166.349 168.895 157.445 163.071 162.604 162.536 161.015 -28.3994 96.1738 -5.57849 -6.86657 77.6837 -53.9915 15.6442 79.4734 -63.7082 38.8214 87.9182 -55.5176 54.4208 102.72 -34.7899 8.24934 140.026 14.6716 2.90629 4.20051 4.14198 
174.819 166.685 163.865 165.653 168.322 163.512 162.485 160.396 162.909 161.092 -6.81678 95.0973 -8.65244 15.6972 78.3706 -55.2248 39.8542 79.7365 -61.6553 64.138 89.0462 -52.6482 79.5217 103.803 -29.2877 28.0198 139.685 16.7926 4.13169 5.83235 3.93473 
175.191 160.097 161.548 166.731 167.97 165.542 155.615 160.709 165.555 159.515 35.3707 89.7184 -0.204554 59.8843 82.0258 -42.5716 89.665 87.1722 -48.4524 113.297 97.9766 -36.2568 124.424 108.311 -5.6438 60.5012 138.446 30.501 6.15025 8.32824 10.0724 
175.301 147.658 159.29 169.635 168.813 167.448 147.216 156.711 166.935 159.056 52.1314 90.7664 7.51194 81.8029 85.4224 -29.1804 114.97 92.6253 -34.6853 140.55 106.161 -19.8115 148.165 114.85 13.896 76.4341 140.025 40.1125 8.33521 12.0211 14.3434 
171.524 138.015 157.094 168.953 168.186 165.4 142.307 155.958 166.827 159.803 70.5214 96.8659 14.0953 104.792 92.1414 -16.37 139.777 99.2128 -18.1511 162.89 112.796 -0.109409 166.853 121.06 34.4272 90.7234 143.58 50.1144 9.41305 12.1633 15.6033 
170.628 121.625 155.509 164.763 162.284 162.997 131.172 152.098 158.031 150.173 90.692 102.696 20.816 126.971 100.446 -3.93713 164.104 104.97 -1.72931 182.983 115.092 21.0527 181.223 121.171 54.7336 108.927 148.669 59.5071 8.09069 10.9676 17.9168 
169.421 174.27 180 177.979 150.399 161.911 123.235 137.892 135.373 136.738 126.887 111.891 30.8822 175.575 114.263 12.6879 198.794 109.374 27.5171 185.755 102.238 38.9155 198.72 117.116 81.5972 133.333 151.879 74.0049 26.2985 16.6184 6.02395 
166.271 174.27 180 174.27 146.276 152.504 130.755 133.747 130.235 130.662 151.131 115.19 50.9779 208.885 126.585 36.6889 221.99 116.671 53.6055 205.373 112.602 61.0635 210.623 116.638 106.016 149.565 155.744 87.9004 26.0244 18.1043 4.09727 
161.84 174.27 180 174.27 154.515 151.282 137.235 137.395 132.629 136.521 159.364 115.961 62.5621 218.245 129.867 46.7128 230.25 119.923 64.4828 218.15 114.201 80.8041 215.436 116.267 117.283 155.102 158.055 95.463 17.7811 8.43688 2.68652 
163.883 174.27 180 160.632 155.663 152.109 149.173 145.123 155.541 138.395 164.327 116.992 68.4442 229.518 133.926 53.4488 240.483 122.726 73.1828 233.825 116.424 96.9234 221.028 116.423 125.457 161.282 160.515 101.684 8.59117 3.85601 3.79131 
164.88 177.521 180 160.961 157.6 152.516 154.137 149.53 166.523 139.745 168.139 118.583 73.1646 237.092 137.487 59.243 248.236 125.721 79.4072 244.947 119.341 106.771 226.327 117.594 131.491 166.594 162.942 106.737 5.66196 6.46641 3.84324 
164.87 177.943 180 161.514 160.034 154.408 156.386 152.451 168.927 141.857 170.272 120.672 76.4337 241.376 139.43 62.5264 253.349 127.368 83.0118 250.974 120.386 112.249 230.079 117.763 136.591 170.683 164.973 110.922 6.2543 8.12489 4.14314 
162.851 173.102 179.271 161.552 165.239 158.41 158.439 154.942 160.087 146.948 173.32 123.178 79.7158 243.514 139.13 64.3029 256.912 125.829 84.9957 253.414 117.904 113.89 235.357 117.668 142.279 175.435 167.101 115.916 8.58016 7.65276 5.02727 
158.551 173.225 179.407 144.702 164.225 156.465 157.009 155.113 155.051 150.018 172.804 125.228 80.863 241.184 137.727 63.3449 255.596 125.039 82.552 249.807 116.921 112.225 236.794 117.136 143.265 176.102 167.256 116.672 11.2281 8.1505 4.29041 
155.939 168.518 177.188 136.972 159.264 152.713 156.724 158.444 151.791 152.935 168.684 128.842 80.0707 234.214 134.725 59.2421 251.251 122.866 76.6829 246.894 118.406 107.766 237.452 118.676 141.517 175.997 168.234 116.491 13.8031 8.10827 4.50547 
155.072 166.49 174.652 136.436 156.585 150.646 157.392 158.504 154.455 154.754 165.664 129.239 79.7266 231.214 133.763 56.2896 247.222 121.837 72.6253 245.005 118.349 104.525 235.395 117.58 139.399 174.501 167.883 115.223 14.8707 8.90455 3.67858 
157.007 168.645 175.611 155.79 155.713 152.372 158.414 160.6 154.268 151.788 165.24 128.163 78.0416 228.749 133.255 53.5182 245.185 121.513 70.0281 243.276 117.001 100.355 232.689 117.603 134.592 173.138 167.713 114.041 13.5512 7.5807 3.98796 
159.674 169.62 177.415 168.667 155.488 153.945 158.79 163.326 155.016 149.467 165.724 127.071 76.3279 227.582 133.576 51.7791 244.673 122.35 68.1656 242.118 116.801 97.3108 230.641 118.288 129.694 171.668 167.37 112.447 11.1457 6.62244 4.07484 
161.869 169.71 176.679 169.821 155.45 153.885 157.187 164.022 157.512 148.881 165.526 126.1 76.0539 224.596 134.228 49.201 242.885 122.776 66.764 241.844 117.715 96.6367 229.253 118.485 127.19 170.093 167.064 111.054 9.3205 7.40096 5.4694 
163.772 170.011 173.425 164.693 155.855 154.59 157.006 163.059 159.047 149.903 165.314 126.937 74.7615 223.417 134.928 46.2608 240.416 122.636 64.5317 241.421 118.715 94.836 228.98 118.554 125.406 169.006 167.046 109.948 9.26639 8.09128 5.38523 
164.329 172.24 170.658 160.289 155.414 154.671 158.06 161.655 159.085 149.889 164.777 127.679 72.8733 223.143 136.51 42.9209 238.234 122.787 61.9152 240.566 119.59 92.2305 228.449 118.246 123.322 168.103 166.747 108.722 9.79628 8.5483 5.78087 
164.855 172.797 168.26 158.909 155.246 154.802 158.33 160.278 159.201 149.851 165.344 129.072 70.6571 224.005 139.059 40.3399 236.797 123.75 59.4824 240.258 120.87 88.5822 228.156 118.229 120.374 167.535 166.542 107.447 10.3322 8.32306 6.33397 
164.724 171.064 169.533 165.869 157.636 156.178 157.833 160.672 158.616 149.664 166.252 129.312 67.9957 224.605 139.86 39.2336 238.381 125.137 58.4787 241.009 121.071 86.2332 228.576 119.171 116.736 167.799 166.609 106.223 8.57301 6.99976 6.15613 
164.698 170.951 173.08 171.556 161.413 157.507 158.739 161.432 158.09 149.355 167.431 130.458 64.6088 226.686 141.454 38.6486 240.671 127.027 57.7596 242.093 121.44 83.1507 229.04 119.992 112.85 168.098 166.814 105.149 7.13976 4.94778 5.84612 
165.464 171.737 174.599 174.073 163.658 158.886 159.466 162.423 157.617 148.908 166.973 131.482 61.7265 227.179 142.623 37.9359 241.984 128.869 56.8716 241.843 121.699 80.8335 228.584 120.469 109.976 167.917 167.085 104.52 6.28075 3.51067 5.63083 
165.43 171.918 175.818 175.277 165.279 159.433 160.062 163.179 157.117 148.784 167.516 132.22 59.6948 228.016 143.937 37.0342 243.16 130.487 55.5345 241.633 121.614 78.9266 228.212 120.477 107.715 167.799 167.14 103.678 5.72568 3.16847 5.34575 
159.237 171.023 174.611 170.479 169.519 161.27 158.354 159.847 154.769 147.849 150.33 129.144 49.7651 211.131 143.529 31.4001 230.961 134.09 50.8291 226.598 121.244 76.8076 213.826 119.831 106.802 150.905 164.883 96.3411 7.87661 7.05922 7.07944 
160.474 170.545 174.588 172.128 168.124 159.923 158.746 158.029 152.087 144.878 147.816 128.291 51.2024 208.115 142.738 31.013 227.311 132.734 50.3931 222.597 119.605 76.4494 210.386 117.777 107.248 148.568 164.53 95.9892 8.74834 7.61296 6.71467 
162.547 170.87 175.126 177.499 167.726 156.923 157 153.556 148.915 140.83 143.84 128.32 53.2605 202.466 141.955 30.493 220.988 131.382 49.3553 216.894 118.315 75.8347 204.674 115.185 107.594 144.562 164.301 95.5059 10.0335 7.99567 6.19022 
163.689 170.097 173.654 179.254 168.227 156.062 155.484 151.092 147.515 139.666 141.875 128.267 54.1802 199.412 140.648 30.3469 217.784 130.313 48.807 214.323 117.61 75.755 202.433 114.475 108.139 142.822 164.326 95.4629 10.7139 8.10113 5.89538 
164.657 169 171.909 179.762 168.589 155.514 153.817 148.946 145.75 138.874 140.304 127.944 54.6235 196.546 139.299 29.95 214.76 129.27 47.9975 211.4 116.612 75.2138 200.246 113.763 108.194 141.12 164.109 95.1426 11.3082 8.33254 5.62854 
165.568 167.877 169.476 178.343 169.911 155.525 152.711 147.248 143.883 138.334 139.129 127.616 54.6158 194.066 137.561 29.2195 211.983 127.667 47.0145 208.173 114.556 74.6371 197.826 112.313 108.368 139.581 163.57 94.6037 12.0938 9.03837 5.39315 
165.896 166.69 167.211 173.34 168.174 155.132 150.768 145.452 141.651 137.474 138.038 127.073 55.0826 192.461 136.341 29.209 209.929 126.747 46.3489 205.93 114.13 73.8718 196.301 112.135 108.047 138.543 163.371 94.1794 12.4867 8.97732 4.68477 
166.274 165.844 164.958 166.937 165.763 155.064 149.433 144.046 139.289 136.676 137.113 126.441 55.4974 190.709 134.59 29.2916 207.943 125.596 46.0652 203.438 113.401 73.8367 194.459 111.809 108.098 137.514 163.199 93.741 12.6883 9.29244 4.26446 
166.439 165.889 163.261 160.284 162.59 155.121 149.38 143.318 137.73 136.976 136.136 125.787 55.9257 188.905 132.503 29.4495 205.816 124.05 46.3682 200.647 112.168 74.6716 192.159 111.211 108.841 136.085 163.012 93.2731 12.812 9.95362 4.071 
165.409 167.653 160.315 153.778 155.738 154.006 150.505 143.585 139.463 138.919 133.964 125.759 56.9556 184.474 129.235 29.5467 200.401 120.304 45.8549 195.97 109.278 74.9476 187.636 109.095 108.952 133.914 163.081 93.0166 12.6328 10.1239 3.14668 
163.567 169.689 157.119 148.927 149.891 152.712 152.395 143.357 141.431 141.354 131.168 125.841 58.3584 179.495 126.526 29.414 193.593 116.667 45.4258 190.726 106.83 74.8744 182.59 107.423 109.117 131.106 163.393 92.7992 12.7877 9.78384 2.32351 
162.261 170.752 155.123 147.613 146.351 151.552 154.769 143.577 143.424 143.921 127.779 126.44 60.3119 173.831 124.554 28.8333 186.548 114.122 45.2955 185.764 105.554 74.816 177.904 107.005 109.774 127.75 164.233 92.7919 13.3937 9.28404 2.9914 
161.59 170.676 154.028 148.307 144.613 150.645 156.58 144.27 144.626 145.953 124.218 127.162 61.981 168.326 123.8 27.9346 180.701 113.382 44.9904 181.839 105.972 74.2093 174.699 108.231 110.022 124.106 165.34 92.7287 14.0395 8.68771 3.8286 
161.427 170.289 154.837 150.678 144.122 150.432 157.945 145.722 146.15 147.331 120.489 127.63 63.4369 162.294 123.358 27.0908 175.115 112.988 44.7828 178.175 106.957 73.7851 171.999 110.797 110.147 120.048 166.763 92.7937 14.1741 8.25299 4.88338 
161.372 169.588 156.716 153.641 144.345 151.408 158.45 148.01 147.048 148.679 117 129.54 63.0371 157.041 123.965 26.5414 171.062 113.699 44.8878 174.938 109.024 73.5011 169.952 114.317 110.034 116.505 168.889 93.0374 13.9934 7.75849 5.77714 
161.252 166.486 154.225 157.899 148.304 152.845 158.185 150.476 151.584 152.829 112.189 130.904 62.7322 151.089 125.573 25.6185 166.446 114.723 43.8058 172.356 110.911 71.5921 167.066 116.04 108.007 113.359 171.498 93.3484 13.2192 6.84392 6.09137 
162.516 164.361 151.669 162.242 149.662 155.334 158.471 152.265 154.192 155.824 108.184 132.061 59.9542 147.131 127.11 24.1907 162.641 115.237 41.8579 169.214 111.969 68.823 163.224 116.53 104.446 110.857 173.289 92.726 11.9538 6.00449 6.18721 
164.501 164.146 151.742 166.893 152.158 158.141 159.167 153.396 155.721 156.196 105.021 132.427 56.5012 144.586 128.36 22.5166 160.089 115.722 39.5286 166.051 112.62 65.7777 158.427 117.299 100.139 108.66 174.455 91.3816 10.5564 5.23068 6.17494 
165.424 164.079 152.521 170.927 154.806 159.868 160.749 155.211 158.17 159.413 99.8583 134.29 53.2795 138.617 130.052 20.0235 154.434 117.572 35.5927 159.009 115.111 60.6944 150.206 120.709 93.86 103.572 177.108 88.9807 9.40493 4.0976 5.45053 
165.558 164.195 153.85 170.064 156.947 159.866 161.123 155.469 157.261 160.768 96.5987 136.54 51.0821 135.184 130.919 18.7643 150.589 118.507 33.6899 153.591 115.999 58.037 146.545 122.839 90.989 101.014 178.727 87.6192 8.34168 4.00556 5.18721 
165.738 164.783 158.245 170.796 162.629 160.082 161.373 156.818 158.375 159.532 94.639 139.646 48.5706 132.927 132.229 17.5023 148.654 120.607 31.9954 151.676 118.807 55.8635 143.412 125.676 89.2688 98.5584 180.744 86.2796 9.21285 3.58512 4.75384 
166.004 163.232 160.53 169.88 167.92 160.419 160.205 155.984 156.288 148.216 87.3316 147.102 42.064 126.397 138.144 13.6001 141.593 126.841 27.5051 143.814 124.517 50.9589 135.208 130.856 84.786 93.2882 185.529 83.7085 9.63096 3.66252 4.23733 
165.739 162.057 160.167 167.76 167.453 160.175 158.542 153.426 153.784 144.2 83.2255 150.878 38.4677 122.502 140.886 12.259 136.516 129.615 25.683 139.413 127.264 48.8366 132.773 133.618 81.8184 90.6744 188.192 82.0331 8.16327 3.34033 4.24278 
165.794 160.62 159.962 166.057 166.149 159.795 157.541 152.477 153.064 142.756 78.3073 152.97 35.0912 117.543 141.546 10.4596 130.864 130.071 23.3398 134.473 128.07 45.6239 129.531 134.857 78.0616 87.4644 189.559 79.8236 6.88905 2.71748 4.42859 
166.456 158.826 160.308 165.328 164.736 159.547 155.895 151.205 151.545 141.166 73.5975 155.737 31.3555 112.965 141.79 9.51543 125.122 130.282 21.6361 129.372 129.178 42.9128 126.499 136.837 74.3355 84.2366 191.052 77.6673 5.10042 1.93477 4.81294 
166.909 157.724 160.32 164.707 163.722 159.117 153.675 149.12 149.338 138.707 69.3895 160.018 27.9273 108.864 143.282 8.95213 119.153 131.545 20.4026 124.009 131.264 40.3741 122.967 139.818 70.5978 81.6758 193.67 75.7891 3.36232 1.45385 5.86623 
167.461 156.353 159.331 163.577 162.802 159.008 149.76 147.19 147.513 137.171 65.2853 162.436 24.8035 102.965 143.281 8.95298 112.793 132.238 19.1282 118.428 132.746 37.8339 119.064 141.931 67.0278 78.6371 195.46 73.534 2.19626 1.61769 5.63488 
168.164 156.239 158.511 162.736 161.44 159.212 145.986 145.158 145.718 134.845 61.8436 163.864 21.8538 96.7128 143.302 8.3315 106.212 132.634 17.3582 112.543 133.477 34.8551 114.121 143.105 63.4327 75.7088 196.903 70.718 1.55395 2.28853 5.6091 
