157.205 176.527 175.737 179.04 178.41 137.379 176.95 176.28 176.046 167.054 -127.511 200.404 15.5343 -105.512 227.261 -52.2672 -88.3096 223.432 -65.7367 -73.2831 216.376 -59.9231 -53.5549 207.808 -38.9022 -77.089 203.283 32.7162 1.55969 4.74563 4.7401 
156.039 176.737 175.621 178.305 177.532 136.515 177.261 176.471 176.012 167.453 -125.222 197.909 15.1204 -105.039 225.711 -52.8566 -87.9363 221.713 -66.6898 -72.8566 214.656 -61.1474 -52.6145 206.282 -40.3337 -75.5474 202.034 32.0026 1.36017 4.73445 4.7582 
155.399 176.818 175.339 177.792 177.316 135.892 177.126 176.29 175.62 167.169 -123.392 196.166 14.5493 -103.973 224.503 -53.5355 -86.9674 220.358 -67.5333 -71.9351 213.128 -62.0648 -51.4922 204.865 -41.2817 -74.0688 201.257 31.2358 1.31151 4.83495 4.78998 
154.965 176.861 175.084 177.494 177.3 135.323 177.05 176.196 175.377 166.814 -121.148 194.718 13.8441 -102.645 223.35 -54.2114 -85.7337 219.049 -68.2681 -70.716 211.656 -62.8476 -50.1971 203.437 -42.0059 -72.4154 200.571 30.5247 1.25165 4.927 4.8635 
154.321 176.603 174.475 177.198 178.185 134.85 176.735 175.72 174.738 166.625 -118.961 193.657 13.4566 -101.272 222.359 -54.6478 -84.4897 217.959 -68.6946 -69.3937 210.508 -63.2934 -48.5545 202.464 -42.5259 -70.4487 200.048 29.8679 1.1644 5.01362 5.0293 
153.729 176.406 174.037 177.08 179.115 134.301 176.366 175.06 174.052 166.517 -116.215 192.324 12.9999 -99.1935 220.862 -55.2976 -82.6038 216.178 -69.2116 -67.4131 208.894 -63.778 -46.3092 201.308 -43.0088 -68.108 199.614 29.2592 1.0893 5.07537 5.37997 
153.053 176.243 173.49 176.681 179.919 133.77 175.999 174.603 173.678 165.954 -113.059 191.254 12.3762 -97.1172 220.02 -55.9793 -80.6867 215.208 -69.8312 -65.3225 208.134 -64.4985 -43.97 200.536 -43.7313 -65.4117 199.287 28.3988 0.913061 5.00355 5.56501 
152.719 176.095 173.116 176.952 178.647 133.713 175.615 174.073 173.33 166.363 -109.902 191.005 11.4061 -94.6057 219.505 -56.8614 -78.2358 214.65 -70.5781 -62.7216 207.822 -65.3016 -41.0375 200.311 -44.6698 -62.3985 199.211 27.3385 0.713295 4.95089 5.7259 
152.66 175.916 172.913 177.656 178.175 133.864 175.31 173.564 173.099 167.599 -106.451 190.923 10.474 -91.29 218.848 -57.8625 -74.9447 213.848 -71.3629 -59.2685 207.362 -66.0629 -37.2104 200.251 -45.5414 -58.9441 199.447 26.3769 0.566252 4.87222 5.95577 
152.453 175.982 172.771 177.942 178.486 134.001 175.257 173.287 173.017 168.62 -102.477 190.964 9.47916 -87.8542 218.484 -58.9225 -71.3923 213.223 -72.3056 -55.4497 206.921 -67.0521 -33.0552 199.936 -46.5996 -55.0387 199.575 25.3214 0.403405 4.70891 6.11975 
152.439 175.984 172.646 178.214 179.355 134.198 175.21 173.099 173.02 169.546 -98.0108 191.252 8.39595 -83.834 218.696 -59.8806 -67.3028 213.169 -73.1789 -51.1172 206.848 -67.9255 -28.6651 199.598 -47.314 -50.7108 199.814 24.3483 0.195484 4.52614 6.19273 
153.268 176.365 173.001 178.875 177.771 134.481 175.189 172.714 173.297 172.631 -94.0015 191.925 7.29673 -79.4366 218.907 -60.9683 -63.343 213.058 -74.1513 -46.7714 207.111 -69.1468 -23.9169 200.451 -48.789 -46.0784 200.351 23.1072 0.823662 4.13235 6.50177 
153.422 176.862 173.425 178.817 176.339 134.25 175.305 172.892 173.781 175.541 -88.833 191.801 6.14923 -74.8035 218.771 -62.1311 -59.0078 212.667 -75.363 -42.0651 207.035 -70.6356 -18.8013 200.803 -50.5008 -40.9419 200.475 21.771 1.41679 3.72529 6.63089 
153.577 177.167 174.049 178.947 174.27 134.065 175.338 173.02 174.147 178.152 -82.8169 191.725 4.85584 -69.4397 218.519 -63.2421 -53.9882 212.187 -76.4584 -36.7279 206.715 -71.9646 -12.4653 202.14 -52.045 -35.2801 200.489 20.563 3.27272 3.44087 6.83129 
153.617 177.385 174.6 178.988 174.27 133.93 175.426 173.223 174.398 178.047 -76.0289 191.869 3.61442 -63.3713 218.672 -64.3012 -48.2335 212.164 -77.5063 -30.6637 206.603 -73.1778 -6.70919 201.642 -53.3443 -28.8817 200.639 19.3684 2.73211 3.2316 6.98105 
153.8 177.585 175.36 178.853 174.27 133.93 175.369 173.398 174.499 177.956 -68.6087 192.319 2.26771 -56.4763 218.417 -65.4557 -41.5793 211.579 -78.6121 -23.8084 205.852 -74.3434 -0.126184 200.665 -54.5306 -21.885 200.707 18.2304 2.43079 3.06183 7.08792 
154.015 177.711 176.221 179.089 174.27 133.707 175.38 173.739 174.778 177.848 -59.562 192.437 0.677073 -48.5702 218.046 -66.6806 -34.0134 211.029 -79.7877 -16.1471 205.215 -75.5161 7.22064 200.102 -55.6389 -13.9979 200.988 17.176 2.19619 3.00423 7.19534 
154.12 177.327 177.192 178.906 174.27 133.817 175.055 174.192 174.751 177.719 -49.6111 192.383 -1.23886 -39.7198 217.514 -68.0712 -25.3124 210.744 -81.0757 -7.37079 204.767 -76.6097 15.5661 199.614 -56.4948 -5.37537 201.222 16.0456 1.712 3.09644 7.12623 
154.483 177.18 177.884 178.955 174.27 133.647 174.835 174.202 174.441 177.466 -37.1231 190.714 -4.37591 -29.427 216.413 -69.4329 -15.2779 210.169 -82.3196 2.55611 204.893 -77.4131 25.1073 199.534 -57.1446 4.33905 201.965 14.8302 0.721613 3.2252 7.30894 
154.863 175.112 178.638 179.168 174.27 133.858 173.811 173.834 173.886 177.278 -23.7478 188.078 -6.82077 -17.8079 214.489 -70.2904 -3.85282 208.661 -82.9406 13.7825 204.299 -77.4711 35.9769 199.384 -56.6666 15.0836 202.81 14.2427 1.04084 3.32195 7.47089 
154.058 177.656 179.161 178.297 174.27 134.732 171.314 172.831 172.411 176.492 -10.4519 183.179 -7.6503 -5.82314 207.651 -70.3969 7.85384 205.35 -82.8123 25.7414 203.077 -77.0223 47.0723 199.38 -55.4731 26.6156 203.721 14.0903 2.25525 2.94993 5.89996 
154.23 179.361 179.192 177.184 178.679 136.139 170.554 172.242 171.524 174.652 2.86238 177.716 -8.89793 6.98473 202.138 -71.1293 20.7451 202.187 -83.4437 38.7691 202.034 -77.4759 59.7648 200.083 -56.1497 38.5872 203.52 13.2967 2.25388 2.68909 5.05392 
155.231 178.956 178.28 176.404 179.454 138.667 168.359 171.327 170.89 172.691 16.0067 174.47 -10.958 21.4471 198.473 -71.9488 35.1449 200.838 -84.2384 53.2873 202.826 -78.124 73.5514 202.512 -57.1529 51.1412 203.732 12.4583 2.97958 2.89521 4.91399 
156.984 176.881 177.753 176.548 178.88 141.147 167.112 171.37 171.496 171.727 28.9748 173.73 -13.9933 37.6449 197.099 -73.5068 51.5931 200.785 -85.6966 69.401 204.771 -79.3474 88.7999 205.577 -58.1771 64.2185 203.738 11.4945 4.25847 4.0517 5.17263 
158.679 175.915 177.389 176.584 178.488 143.603 167.225 171.615 171.872 170.592 42.2557 174.33 -16.8256 54.3903 195.853 -74.9043 68.8591 200.347 -86.8502 86.3576 205.998 -80.1355 104.81 207.895 -58.5663 77.6942 203.687 10.9884 5.5193 5.2252 5.3387 
158.851 176.194 177.071 176.262 177.245 144.575 168.807 172.05 172.309 170.075 56.294 174.365 -18.2218 70.8371 195.638 -76.3218 85.8364 199.562 -87.5895 103.31 206.335 -80.5614 121.228 209.342 -58.6543 91.5659 203.659 10.6851 6.47077 5.93665 4.96195 
159.15 174.337 177.309 176.423 176.194 145.725 170.784 173.419 173.158 169.493 70.5615 175.069 -19.4276 87.5676 196.58 -77.8668 103.898 199.995 -88.6826 121.713 207.295 -80.9269 139.038 210.858 -58.2746 106.235 203.707 10.5672 7.00709 6.10882 3.92134 
159.464 174.894 177.11 177.438 175.839 147.268 173.682 175.056 174.87 169.821 84.2889 175.264 -20.607 105.507 198.873 -79.5711 122.743 202.108 -90.0556 141.268 209.66 -81.132 158.044 213.086 -57.3603 120.947 203.526 10.3556 7.18541 6.046 3.31503 
161.158 176.961 177.828 178.469 176.723 150.297 178.487 179.103 177.733 172.439 109.693 175.484 -20.1349 141.43 202.534 -79.9338 160.875 206.896 -89.3615 179.709 213.608 -77.6282 195.414 216.674 -51.2378 149.635 202.226 13.0402 7.90219 5.45244 2.3279 
161.1 179.042 179.203 178.658 177.092 150.094 179.662 179.713 178.438 173.651 123.452 177.341 -20.687 160.246 206.067 -80.5485 180.546 210.541 -89.0166 199.156 216.68 -75.8489 213.901 219.055 -48.1398 164.213 202.506 13.8002 7.94436 5.21565 1.91821 
160.117 174.27 177.899 177.753 177.463 148.631 177.978 179.182 178.657 174.549 137.53 179.313 -21.2859 178.982 209.67 -80.2767 199.841 212.791 -87.6698 218.101 218.411 -73.2469 231.481 220.416 -44.3982 178.052 202.399 14.6957 8.13336 5.01069 1.38564 
161.101 178.887 177.898 179.11 179.34 147.31 177.997 176.755 177.832 176.204 152.84 183.022 -21.7138 197.732 211.165 -78.5661 218.262 214.479 -85.0103 236.09 219.612 -69.727 247.935 221.541 -40.2102 191.999 203.357 16.3154 8.56981 5.01574 1.89528 
158.484 178.921 177.089 178.205 179.969 144.295 176.84 175.041 177.302 176.606 168.397 185.438 -20.5907 215.61 213.568 -76.25 234.607 215.687 -82.0606 252.564 220.184 -66.251 263.7 222.065 -36.2647 205.034 204.249 17.8565 9.23894 5.17536 3.1862 
157.398 178.762 175.987 176.72 179.05 142.451 177.341 175.094 176.471 175.566 182.58 187.277 -20.1007 232.042 215.199 -74.4182 250.486 217.54 -79.4777 268.004 220.498 -63.291 277.161 221.748 -33.2132 217.442 204.756 18.8613 8.98696 4.44325 3.77073 
156.641 178.679 175.551 175.805 179.464 141.549 177.628 175.722 176.361 176.661 196.245 187.819 -20.1031 247.297 216.872 -72.5977 265.537 219.777 -76.8368 281.959 221.246 -60.5769 291.023 222.22 -29.8218 228.987 204.797 19.5469 9.3585 3.52796 4.13125 
157.799 178.051 175.175 173.134 175.909 142.095 177.728 175.333 174.626 176.103 210.038 188.921 -18.174 260.907 216.994 -70.4431 279.291 220.931 -73.7831 294.469 221.646 -58.0117 305.2 223.791 -26.012 241.029 205.783 21.4346 10.6024 2.5918 4.11911 
162.604 174.289 180 174.27 179.442 147.538 177.982 179.995 178.724 177.43 232.15 190.744 -13.7663 279.738 212.342 -68.0849 300.781 220.057 -62.4852 300.865 222.856 -53.8804 325.755 225.289 -18.1315 258.613 204.209 26.0893 18.449 13.2278 3.64106 
150.214 169.851 174.381 172.543 174.954 141.114 164.911 175.919 166.821 170.668 317.308 243.39 36.5562 332.064 233.189 -29.787 318.967 223.792 -49.1319 299.585 224.832 -51.1637 274.709 222.918 -42.1381 272.936 207.975 34.5819 0.504938 2.71228 6.59458 
154.758 167.31 162.606 167.989 162.8 144.795 163.152 161.917 160.87 155.355 326.676 242.132 34.0302 344.064 234.335 -25.8873 331.858 229.225 -43.7805 312.212 225.261 -46.7295 282.199 221.473 -36.3493 284.517 206.191 36.3698 3.40029 2.75683 4.72932 
153.2 161.101 168.655 169.406 165.408 144.419 164.052 163.294 162.243 152.599 332.467 242.499 35.5115 353.185 235.554 -23.0335 343.17 230.846 -41.9077 322.015 224.264 -44.9428 290.773 220.774 -33.939 292.526 206.747 38.1917 3.49901 4.03124 5.0025 
148.881 164.149 173.253 171.509 166.948 142.558 167.537 163.224 162.787 150.095 337.457 244.582 36.885 362.482 238.315 -18.1425 354.315 233.305 -37.8822 330.334 224.229 -41.5527 296.5 219.5 -29.9049 301.18 208.701 41.8267 6.18345 5.53639 5.63702 
157.406 158.696 172.027 170.713 173.529 139.614 166.979 164.841 166.174 154.588 347.373 242.459 39.7418 380.724 234.725 -8.9587 371.127 231.991 -27.3685 343.123 220.301 -32.7439 310.929 216.741 -24.2808 315.517 210.419 49.4008 6.82693 9.21506 2.71114 
155.392 167.272 175.845 176.248 171.178 143.956 163.062 167.337 170.289 158.409 355.982 242.839 45.6259 389.214 232.041 -5.01165 378.665 229.774 -25.0005 352.201 218.356 -28.7831 319.414 215.239 -20.4449 323.183 210.164 53.8465 7.76789 8.6311 2.37989 
156.687 171.083 176.367 177.899 170.877 145.668 156.578 166.495 170.052 160.186 364.12 244.919 48.866 399.506 231.643 0.242543 388.949 229.896 -21.16 363.73 218.716 -25.3879 329.227 215.619 -16.9255 332.436 211.108 57.6366 9.11498 8.72468 2.47629 
154.471 178.987 179.669 176.613 171.352 145.448 144.062 166.972 169.898 158.132 370.47 246.652 52.4935 405.401 231.457 6.35461 398.933 228.683 -15.7521 374.087 217.779 -21.3525 337.151 215.289 -14.2851 339.99 211.595 60.8249 11.0458 8.84938 4.42624 
152.003 176.305 176.079 172.682 169.808 145.943 138.082 161.239 166.071 156.315 377.778 252.472 58.117 411.884 234.5 12.0207 407.808 231.4 -9.13844 383.938 219.146 -18.0786 345.845 215.865 -11.0235 348.406 212.371 64.3767 11.9042 10.2905 6.4236 
152.208 174.27 173.345 171.541 171.624 148.213 135.864 159.444 164.82 157.831 384.255 255.082 62.2757 418.767 237.65 18.7815 415.666 232.841 -2.91139 392.132 219.939 -13.5791 353.283 215.981 -6.18166 355.588 213.509 68.9753 12.4695 11.0748 7.97459 
151.146 174.27 170.333 171.334 168.543 147.694 141.412 157.09 165.411 158.983 390.326 256.801 67.9361 424.237 239.703 24.4173 421.716 233.946 3.14626 398.352 219 -10.854 359.843 215.181 -3.26261 361.178 213.569 72.8555 11.8663 13.1779 9.13313 
151.853 174.27 168.454 171.214 174.414 147.483 147.201 156.843 165.01 160.054 396.324 256.728 71.9305 431.302 241.404 30.0843 427.635 234.519 7.85927 403.651 219.194 -7.46322 365.432 215.583 0.732189 366.254 213.724 76.7373 10.9183 13.7703 9.45082 
153.877 174.27 167.734 171.633 174.643 149.238 142.822 157.595 165.16 162.226 401.294 256.307 74.8052 435.764 243.838 36.9829 433.07 233.351 11.7508 409.227 218.454 -4.06025 369.75 215.398 3.32131 370.435 213.309 79.7792 11.804 13.7026 13.4374 
154.588 174.27 166.798 171.588 176.54 150.147 140.443 157.086 164.428 161.687 405.158 255.147 77.4243 440.348 243.603 43.167 437.177 232.291 15.4539 413.159 218.125 -0.10209 372.902 215.562 7.1248 373.918 213.24 83.5612 12.3992 13.4095 15.0135 
151.917 174.27 167.307 172.278 170.55 150.129 164.354 158.298 166.217 164.523 407.118 254.282 81.5882 445.378 236.418 42.2201 438.706 230.219 19.5937 416.872 216.214 3.22552 376.251 213.091 8.80836 374.733 212.263 85.7525 13.0236 12.9474 7.78907 
151.054 174.27 168.78 172.624 170.918 152.204 169.808 161.186 166.128 162.785 408.379 254.354 87.6069 446.891 234.264 45.1164 439.825 228.224 22.3161 418.276 215.573 6.81621 378.141 212.398 12.0517 374.137 210.507 88.658 12.1416 11.4902 7.13387 
151.818 174.27 172.018 171.816 175.693 148.679 168.357 162.928 164.768 163.364 414.767 252.786 91.495 451.137 232.99 45.1692 441.54 229.265 21.7799 420.009 218.372 9.9932 383.951 216.378 15.7858 377.43 210.905 91.3275 7.88443 9.43132 4.8903 
149.453 174.27 171.651 170.871 172.555 145.801 163.05 162.234 162.823 161.991 416.072 248.311 94.2574 450.417 233.762 46.9644 442.389 229.623 24.3113 420.897 219.795 13.634 385.937 216.843 17.7753 377.887 209.784 93.5514 7.91223 8.37987 5.13238 
153.12 174.27 170.923 170.048 171.008 147.293 159.327 162.795 162.089 161.718 419.72 244.979 97.1686 448.674 232.634 47.9169 442.62 228.215 25.9265 421.246 220.219 16.8029 387.275 216.862 19.5462 377.57 208.299 95.4777 7.53392 6.45346 5.39951 
152.68 174.936 166.187 169.504 168.176 147.317 162.074 165.286 163.015 162.386 421.452 242.206 101.056 449.869 230.645 50.8489 442.691 225.593 27.9686 421.885 217.494 18.536 387.929 214.485 20.258 377.478 206.899 97.181 7.78749 6.43478 5.35909 
153.139 179.11 168.332 169.592 166.826 147.696 156.058 163.919 163.566 162.063 424.273 238.893 104.018 450.776 231.056 54.5456 443.858 225.164 31.1836 424.005 215.828 20.5815 390.066 213.466 21.9054 378.676 206.525 99.1068 7.60499 7.6035 6.14346 
156.824 151.55 165.248 166.98 164.157 150.173 147.025 160.318 161.565 159.639 426.022 234.801 107.773 447.243 231.517 59.3037 443.526 222.405 33.6649 423.666 213.057 23.0675 389.925 209.605 23.0346 377.618 203.848 100.659 8.18119 7.19644 9.72258 
156.209 151.389 162.782 165.656 161.959 151.857 149.529 157.431 160.749 158.147 425.812 232.251 109.605 445.118 228.888 58.6959 442.433 221.601 35.8523 423.022 211.076 24.1716 389.227 207.508 23.8104 376.631 202.283 101.287 8.42747 8.30504 8.34165 
156.631 143.987 164.209 165.419 165.878 152.876 147.277 154.829 159.002 156.111 426.05 231.473 109.887 444.422 225.922 59.9884 440.553 219.964 37.711 419.797 208.238 25.7172 385.967 205.661 27.3013 377.054 200.484 103.999 7.80499 9.54503 7.22241 
155.267 135.032 163.347 166.283 164.223 152.92 154.255 156.84 159.913 155.532 425.068 230.384 110.373 445.145 222.221 60.0258 439.421 217.01 36.697 418.195 205.683 25.6098 383.773 203.848 27.8994 376.285 199.736 104.788 8.11949 9.22142 5.92894 
160.707 169.096 172.317 172.194 168.227 149.527 163.319 165.384 164.261 160.104 421.552 223.017 106.595 446.667 215.111 54.3032 438.563 211.198 33.9061 419.516 203.154 27.4321 386.404 198.974 30.9028 374.889 194.155 105.998 5.75922 4.92562 2.01609 
159.934 171.626 173.004 173.108 168.277 150.739 164.97 166.371 165.245 161.489 419.568 221.683 107.12 444.781 213.486 53.6417 436.708 209.914 33.5393 417.856 201.763 27.1843 385.159 197.145 30.7066 373.147 193.406 106.022 5.79217 4.99355 1.72564 
157.752 172.678 175.075 173.265 173.555 150.478 167.063 168.815 165.82 160.734 414.239 221.505 102.575 440.229 210.968 49.9133 431.038 207.389 29.5541 411.426 200.581 25.0688 381.137 197.508 31.8363 370.17 193.186 105.94 2.0707 3.46426 0.787865 
156.889 174.942 174.617 172.869 173.377 150.063 167.276 169.08 166.04 160.004 412.306 221.332 102.002 438.587 210.402 49.7309 429.4 206.694 28.7939 409.515 200.079 24.608 378.967 198.076 32.0534 369.158 193.514 106.256 1.61283 3.29294 0.812665 
157.293 175.404 174.223 174.049 174.918 150.063 168.815 169.708 167.051 160.095 410.423 220.07 101.121 437.689 208.761 49.6126 428.129 206.155 28.3697 408.531 200.494 24.6822 377.669 199.996 32.9879 368.226 194.137 106.583 1.38818 3.17828 0.230832 
171.006 174.944 175.262 175.285 176.899 159.265 170.427 170.925 168.539 165.255 409.095 213.455 97.4062 435.383 204.942 48.0518 426.801 204.904 27.7274 407.568 200.781 25.4554 376.785 200.831 34.9262 367.426 195.374 107.64 0.434006 3.18463 2.53944 
170.032 174.988 175.312 174.95 176.916 157.44 170.841 170.037 168.65 164.679 405.762 214.483 95.6187 433.951 205.068 47.3554 424.533 206.107 27.3385 405.696 202.475 25.0616 375.098 203.37 35.6851 365.91 196.145 107.595 1.17319 3.20845 2.95645 
170.632 173.166 174.722 174.681 174.53 156.745 170.248 169.068 168.383 163.178 401.54 212.828 91.6083 431.759 203.588 46.0313 422.312 205.986 27.0286 403.595 203.776 25.0217 372.99 205.764 37.0647 364.809 197.336 107.781 2.12044 2.99098 4.1766 
162.101 171.798 174.059 169.703 174.27 150.681 168.886 169.147 164.547 160.555 391.313 215.966 86.2252 430.546 204.169 45.7911 418.859 207.379 27.0473 397.977 204.131 26.1843 368.796 210.025 38.3165 362.583 200.431 107.883 5.30509 2.7104 4.55972 
165.269 173.349 175.592 171.704 174.27 152.713 172.027 176.292 168.474 167.661 382.552 214.159 81.0447 429.154 203.699 44.4325 416.706 205.371 26.7559 396.853 203.051 25.5707 369.395 210.593 38.3919 362.746 203.727 108.755 6.49317 2.64829 4.04602 
163.008 172.976 180 170.075 174.27 152.231 174.957 179.995 168.441 163.61 377.112 213.547 78.6074 427.7 203.862 43.6335 416.052 205.476 26.8398 393.7 203.652 25.876 366.663 213.88 39.1186 361.981 206.964 108.857 9.39089 0.997642 4.96349 
145.623 178.044 180 174.27 172.304 154.94 173.06 168.609 179.973 176.859 356.283 216.361 62.4183 398.992 203.675 23.4552 414.232 204.846 22.8303 418.701 201.581 41.1696 411.81 206.221 64.2943 362.336 211.343 103.261 15.5638 5.84246 7.97119 
155.648 171.101 180 173.933 174.829 134.228 158.813 171.863 177.885 157.078 367.316 226.105 65.2298 395.646 196.523 24.7193 411.393 201.656 20.7869 424.346 203.095 36.7597 415.625 196.753 61.8623 361.763 213.288 99.9827 14.2853 0.683757 10.392 
161.524 174.27 170.284 174.27 174.27 132.594 171.618 173.429 178.485 147.387 391.313 213.891 72.8092 391.416 196.928 18.1779 411.945 207.788 17.0609 425.186 209.623 33.3781 418.514 203.861 62.3462 360.844 213.46 96.0935 10.2693 0.79571 9.43698 
145.623 174.27 156.85 174.29 177.802 160.099 134.645 169.296 169.69 166.403 371.584 207.118 59.9581 393.371 187.153 22.4279 413.418 208.237 16 422.333 211.63 30.7598 412.851 217.867 54.898 359.548 213.382 93.0204 13.6865 3.5987 14.6986 
123.518 172.816 153.113 171.88 174.27 175.612 115.518 164.898 168.123 171.732 365.054 225.076 58.3762 391.353 187.688 26.0001 412.621 208.933 16.043 421.316 214.563 30.0562 403.549 222.124 49.3574 358.138 213.97 90.8124 23.2684 3.34153 14.899 
103.352 114.43 157.611 174.27 174.27 175.984 82.9932 164.833 179.202 179.053 356.276 221.799 54.0683 385.675 192.515 34.5907 411.953 213.356 13.3095 416.535 224.6 23.0733 380.123 225.612 42.4204 356.172 216.702 87.4822 40.2261 5.82145 17.7834 
164.164 120.636 163.909 168.461 151.329 151.789 150.65 162.5 165.233 140.755 385.795 262.769 89.5163 428.173 242.386 53.1606 429.221 228.307 20.9349 406.167 219.965 5.70576 366.991 228.332 13.4713 351.513 217.359 82.1684 7.42014 8.364 15.855 
152.871 174.27 148.766 164.123 105.22 163.599 105.223 157.453 162.039 142.904 384.64 256.637 72.9042 415.27 261.427 58.0273 427.136 243.734 25.1044 405.546 230.483 7.1527 368.86 227.58 13.2237 351.007 227.312 79.0701 4.11146 10.9023 23.0231 
152.663 174.27 149.088 176.572 154.188 152.575 111.425 157.877 165.662 142.52 375.35 245.344 63.6041 412.681 269.537 61.2336 424.651 246.871 25.57 404.754 231.486 7.81357 368.833 228.601 8.18283 348.03 228.886 78.5484 5.29303 10.5127 26.5715 
150.187 174.27 161.108 174.27 150.361 164.695 174.587 173.786 179.606 131.63 359.578 249.204 51.5199 398.71 278.113 38.4945 408.288 252.304 12.2924 395.164 230.27 3.74171 360.977 219.289 6.18369 343.352 233.864 77.1861 12.8829 5.03349 13.0637 
152.205 174.27 180 155.391 90.148 160.256 178.001 178.805 162.202 87.8165 320.22 247.442 34.623 363.137 270.94 18.8062 372.233 261.532 -5.5628 362.333 239.76 -5.79106 344.267 217.591 20.072 332.239 241.507 73.8265 17.7125 9.15013 11.6844 
175.814 90.1102 180 96.6684 113.603 151.701 76.4672 112.812 155.03 52.6323 293.29 244.073 32.0731 319.717 267.056 23.1916 319.285 254.213 -4.00072 329.429 239.954 -0.55126 329.412 214.867 36.1192 324.143 243.53 71.0071 33.4149 4.89878 15.4483 
151.304 178.005 180 90.0456 100.14 152.193 65.0629 121.607 148.404 80.3428 286.301 239.072 29.8425 296.195 246.792 34.7142 306.051 241.625 -5.00964 316.294 233.733 3.09367 320.223 209.694 37.6488 317.108 244.532 71.2858 29.9198 8.46189 34.2977 
153.866 174.981 179.388 123.487 125.633 155.098 88.7593 138.783 146.461 96.8264 282.178 233.45 25.3636 286.149 227.269 31.896 307.275 225.163 -8.56664 321.628 214.876 4.81911 321.436 201.408 41.3966 311.56 243.785 72.032 24.9989 1.43124 39.4081 
152.801 170.041 164.709 114.215 117.217 159.171 102.043 148.546 153.095 120.617 279.441 230.758 22.9193 283.164 213.893 29.0042 319.337 217.81 -9.12003 336.112 211.703 9.09694 332.952 202.045 40.0588 307.077 242.709 73.1693 16.6826 3.50928 44.4675 
164.042 174.195 162.117 145.675 124.345 162.391 87.6754 157.404 159.018 139.117 273.821 229.904 20.9993 280.614 214.57 28.9819 328.106 217.94 -9.63009 344.465 213.88 8.24421 341.871 206.296 39.2796 301.657 242.077 73.6652 10.9431 3.78357 50.5571 
174.406 124.992 160.219 152.69 141.286 161.83 92.109 159.706 160.714 141.792 265.504 227.631 19.4155 287.886 213.09 22.1291 329.294 219.572 -8.70732 346.254 220.4 8.85599 344.652 213.194 40.0096 294.97 241.338 74.0678 7.33127 6.27101 39.4592 
