160.144 143.406 170.972 176.115 139.348 149.997 123.033 161.949 153.279 110.876 -342.021 210.844 -52.5522 -351.046 203.339 -67.1505 -377.361 204.06 -95.8909 -380.904 196.909 -74.4144 -374.176 199.67 -32.3718 -366 241.392 -14.7819 31.9356 9.71984 28.9957 
160.06 139.705 171.938 172.549 138.864 149.986 121.013 163.305 159.813 110.12 -341.862 211.048 -52.0748 -351.644 203.247 -65.481 -378.673 205.013 -96.5237 -385.815 199.351 -78.2524 -376.974 199.652 -33.4752 -366.359 241.269 -14.4906 33.9513 5.76541 31.3229 
159.857 139.988 172.136 171.628 151.01 149.826 120.896 163.519 160.203 117.817 -341.994 211.235 -51.6262 -352.319 202.897 -65.3453 -380.021 205.436 -96.482 -388.446 200.205 -79.1083 -380.762 199.609 -38.4105 -366.502 240.973 -14.0008 28.4653 4.50468 31.665 
159.617 141.616 171.653 170.426 174.27 149.62 122.76 162.821 158.968 130.75 -342.654 211.269 -51.444 -352.761 202.351 -65.7594 -380.546 205.053 -95.959 -389.645 200.22 -79.188 -384.453 199.951 -44.6743 -366.53 240.669 -13.6066 21.2651 3.76973 30.938 
161.61 152.009 159.731 179.517 116.593 152.344 136.553 166.981 155.945 98.5952 -336.434 203.189 -55.999 -352.055 195.51 -79.8139 -379.759 195.637 -96.8553 -380.82 188.779 -74.9899 -368.381 196.077 -28.5764 -360.154 234.863 -17.8638 40.1303 10.4942 20.8198 
161.308 152.408 158.284 179.3 117.956 152.064 138.245 166.364 156.017 94.4259 -334.816 202.551 -57.51 -352.597 194.539 -82.2348 -378.612 193.354 -97.1185 -378.469 186.709 -74.6397 -365.258 195.474 -26.4615 -358.718 234.211 -19.4892 43.6512 11.4452 18.4862 
161.252 151.679 158.069 177.015 121.611 151.434 137.522 166.385 156.9 91.9658 -333.083 201.329 -58.675 -351.313 193.555 -83.1334 -376.923 191.028 -98.262 -375.513 184.196 -75.5515 -361.373 194.264 -25.7933 -356.83 233.366 -21.4817 46.5525 12.2597 18.5283 
161.164 138.186 157.961 173.276 127.942 151.153 122.663 165.158 158.881 91.4113 -331.25 200.213 -60.3075 -345.024 193.724 -78.342 -374.504 188.594 -99.3242 -372.865 181.877 -77.6611 -357.269 192.211 -26.1261 -354.878 232.617 -23.8264 49.0546 11.7544 24.749 
158.897 131.232 162.165 155.528 130.257 148.896 112.589 165.541 167.14 88.6373 -326.452 200.015 -63.7427 -336.737 194.235 -77.5576 -370.5 186.366 -103.124 -373.084 180.653 -84.4247 -351.074 191.604 -30.1501 -350.586 231.482 -28.6638 55.7226 6.75301 31.8377 
156.788 122.53 166.26 174.27 141.136 146.701 98.4614 164.134 179.77 88.7017 -321.075 198.867 -68.3987 -328.798 196.343 -75.937 -364.858 183.58 -106.86 -373.198 178.035 -88.6 -342.307 190.73 -33.3343 -344.809 231.126 -34.9448 64.5772 1.28511 39.372 
153.087 128.242 173.28 174.27 148.081 143.808 95.2094 165.693 179.869 92.8097 -316.995 197.27 -70.2674 -323.851 195.403 -77.7217 -362.992 182.29 -109.896 -366.796 174.81 -89.7373 -334.855 188.186 -35.8716 -340.004 230.004 -38.54 63.6678 5.14956 43.2927 
151.45 141.543 180 174.271 151.789 141.496 93.7733 171.309 178.988 93.6967 -312.139 197.743 -73.0267 -318.485 195.132 -81.5182 -361.654 183.092 -114.193 -360.937 174.425 -91.1749 -328.766 186.902 -40.8444 -334.636 229.471 -41.8278 61.4069 8.66822 46.5181 
149.569 139.962 180 151.414 154.697 138.809 89.8236 173.493 170.443 95.5141 -305.958 198.821 -75.2785 -313.076 197.589 -84.6638 -358.219 184.285 -117.843 -353.226 175.941 -95.3521 -322.996 185.396 -47.07 -328.637 229.397 -44.5963 56.0873 10.8289 48.4689 
148.037 138.387 180 132.209 146.878 137.536 85.1071 175.499 164.247 96.4745 -299.551 199.527 -78.3816 -307.446 199.204 -87.7256 -353.6 183.803 -120.691 -342.945 175.703 -97.0024 -315.674 186.024 -50.982 -321.759 229.155 -47.7397 52.6794 15.2984 48.8858 
148.27 130.823 180 149.525 140.973 138.624 83.0368 175.669 167.093 92.9282 -292.621 200.155 -82.8047 -302.671 201.36 -92.9797 -348.136 184.981 -124.103 -340.481 175.804 -102.119 -309.797 186.998 -54.5052 -314.428 229.059 -50.8917 55.9141 12.0358 46.2788 
150.23 121.15 180 174.27 137.246 140.294 76.2204 175.743 179.638 91.1908 -284.331 200.716 -87.4091 -296.3 204.68 -96.6466 -343.066 187.47 -127.941 -342.42 177.032 -107.126 -302.595 186.654 -58.7474 -305.603 229.033 -54.1994 62.2617 6.11855 46.7979 
153.153 90.1674 180 178.367 136.81 141.768 75.9553 174.915 173.51 89.7961 -275.054 201.07 -91.2151 -293.803 207.442 -103.421 -335.735 189.3 -130.993 -332.807 177.499 -111.063 -294.143 186.313 -63.5105 -294.438 228.498 -56.6156 58.2448 7.75909 34.8718 
156.722 90 179.356 179.899 131.354 143.692 153.261 175.024 170.559 90.0653 -264.605 201.524 -96.1749 -297.645 205.091 -124.952 -327.61 192.421 -134.891 -324.096 180.425 -116.249 -287.027 186.429 -70.3922 -283.406 228.606 -59.9699 52.8997 7.79035 14.6182 
160.235 174.27 178.339 179.548 97.5183 145.148 178.066 175.864 170.336 106.519 -252.854 203.185 -101.05 -302.067 213.514 -139.995 -319.267 196.873 -139.208 -316.64 185.665 -121.962 -286.802 186.871 -81.7458 -272.068 228.879 -63.4215 36.4605 6.60688 1.36599 
161.301 174.27 176.592 177.699 163.082 145.366 178.245 176.066 170.277 159.248 -241.188 205.306 -106.34 -296.101 218.351 -146.463 -309.529 201.99 -144.854 -307.841 190.852 -128.483 -291.635 187.375 -100.313 -260.933 229.99 -67.7468 15.6902 5.71075 4.05322 
158.406 174.27 173.815 175.1 169.117 143.124 178.01 175.559 169.865 168.368 -228.765 206.677 -110.698 -283.267 220.765 -153.806 -295.251 205.141 -150.696 -296.326 195.582 -134.555 -288.001 191.459 -108.027 -248.144 231.696 -72.8647 7.07472 3.93449 4.72976 
157.367 174.397 173.504 173.786 172.402 141.526 178.025 175.952 170.402 170.588 -214.193 208.527 -114.891 -267.192 223.547 -160.25 -279.383 209.398 -157.222 -282.374 200.535 -141.1 -278.866 196.779 -115.35 -233.229 233.483 -77.6838 3.72075 3.07272 4.58749 
156.52 176.469 173.939 173.279 170.791 140.309 178.679 175.838 170.48 167.201 -197.252 210.503 -118.178 -246.582 224.738 -165.229 -260.187 211.775 -161.999 -264.264 203.467 -145.992 -261.653 201.086 -120.687 -215.72 235.083 -81.3982 4.88472 2.85684 3.50145 
155.855 176.865 175.41 174.084 171.088 139.566 176.697 175.646 171.137 164.191 -177.211 212.176 -119.616 -222.16 224.903 -168.074 -237.083 213.089 -165.559 -242.321 205.085 -149.574 -239.627 202.76 -124.186 -195.553 236.232 -83.3894 5.43864 2.58714 2.57197 
155.116 175.728 176.393 175.064 173.765 138.421 178.493 177.605 173.438 166.119 -154.27 213.247 -119.226 -196.954 229.002 -171.019 -211.915 216.124 -169.253 -218.384 207.783 -153.319 -216.447 204.572 -127.261 -173.119 237.212 -84.1648 4.91106 2.19148 3.47167 
155.64 174.683 180 176.043 176.215 137.754 178.13 180 176.269 168.676 -128.256 214.749 -117.16 -167.58 230.505 -172.139 -182.542 219.132 -172.098 -190.896 210.907 -156.463 -190.209 207.105 -129.156 -148.847 238.037 -83.2681 4.73326 1.55624 3.18668 
156.246 175.031 180 177.398 177.516 136.78 178.267 180 179.03 172.799 -100.266 216.156 -113.707 -135.227 231.842 -172.079 -149.643 220.708 -173.681 -159.702 213.449 -159.165 -161.944 208.75 -131.625 -122.659 238.147 -81.2053 3.56522 1.73686 3.47347 
158.172 175.526 180 174.601 178.827 136.299 178.477 180 178.152 177.487 -71.2731 220.116 -109.58 -101.548 233.687 -170.574 -114.973 223.064 -174.22 -126.907 217.402 -161.24 -133.094 212.736 -134.724 -95.4882 238.531 -78.0234 3.51311 2.95015 4.01052 
158.383 175.581 180 174.685 176.033 134.289 178.468 180 178.18 178.534 -40.7665 223.538 -103.392 -65.272 237.367 -167.32 -77.9076 226.364 -173.156 -90.6829 220.09 -161.821 -101.658 215.842 -136.462 -67.3864 238.81 -74.1459 5.12759 2.97476 4.22303 
158.626 175.294 180 174.727 176.768 133.416 178.345 180 178.195 178.763 -8.87375 228.363 -96.5499 -27.342 239.856 -160.977 -39.2287 228.566 -169.196 -52.7049 221.428 -159.808 -66.8232 215.601 -136.151 -38.933 238.359 -69.4254 5.11768 2.99058 3.96491 
158.809 174.931 180 174.654 175.584 132.793 178.218 180 178.17 178.225 23.8254 232.644 -85.2334 12.9105 239.325 -149.626 2.41542 227.98 -160.095 -12.3436 220.861 -152.565 -30.2289 214.881 -130.965 -10.5125 237.238 -61.6051 6.01638 3.26556 3.83473 
158.545 174.734 180 174.714 179.07 132.699 178.142 180 178.191 179.231 57.3119 237.84 -71.6271 52.206 240.897 -136.805 42.979 228.982 -148.799 27.2981 221.893 -143.348 7.6338 215.218 -123.579 18.3627 237.519 -52.4418 5.017 3.27665 3.78 
157.872 174.548 180 174.77 178.834 132.65 178.077 180 178.212 178.924 89.3548 240.885 -54.9748 88.6139 241.81 -121.321 81.642 229.404 -134.208 65.6631 222.264 -130.823 43.825 215.474 -113.029 46.2086 237.074 -41.3296 4.35312 3.02961 4.87714 
155.178 174.312 179.997 174.754 178.02 133.473 177.995 179.999 178.208 177.855 118.214 244.582 -35.146 122.371 242.731 -102.675 116.9 229.892 -116.387 100.755 222.778 -115.024 76.7655 215.627 -100.338 71.8402 235.69 -28.2225 3.95519 2.83816 5.61306 
152.885 174.27 180 175.716 176.995 135.039 177.981 179.999 178.537 176.263 143.084 245.324 -15.785 155.262 243.248 -82.0786 151.546 231.117 -96.8531 134.936 222.8 -97.6973 109.449 215.384 -86.5756 95.6717 233.835 -15.3939 3.05628 1.69558 6.06316 
149.296 174.27 180 178.226 176.204 135.581 177.982 180 179.377 176.893 165.455 247.61 4.56345 186.88 244.985 -59.394 185.001 233.787 -75.0616 168.489 225.241 -78.3478 141.153 219.096 -72.1812 118.56 233.8 -2.01553 4.46677 1.49821 5.95052 
146.853 177.185 177.232 177.557 174.599 135.443 179.008 178.475 178.134 174.816 182.562 245.437 24.4515 212.782 243.877 -35.4197 212.678 233.198 -51.4467 196.493 225.251 -57.5849 169.055 219.472 -54.9874 137.535 232.472 12.0728 4.14453 1.30798 6.0273 
144.899 177.566 177.387 177.876 175.798 134.205 179.062 177.841 177.929 174.646 198.929 244.138 44.1091 237.388 242.641 -11.5841 238.858 234.001 -28.3398 223.284 227.157 -37.0051 196.108 222.306 -37.7652 156.669 232.242 25.3626 4.51681 1.37392 5.19227 
144.912 177.976 176.725 177.301 177.076 134.898 178.044 176.506 176.994 173.881 212.114 242.159 63.0856 256.224 240.473 11.7914 259.413 232.997 -4.90813 244.807 227.679 -15.6152 218.164 224.429 -19.186 171.944 232.163 38.7153 5.09375 1.69076 5.25279 
147.832 179.316 177.386 177.931 177.957 136.319 178.186 176.129 176.76 173.153 224.232 238.516 79.4307 272.879 238.584 33.2042 277.518 232.061 16.7229 263.837 227.665 3.98788 237.674 224.412 -2.40863 185.54 232.233 50.5472 4.44851 1.67861 4.88526 
149.354 179.645 177.994 178.355 178.61 136.455 178.241 176.182 176.886 173.643 234.064 234.67 93.0635 286.167 236.607 51.6062 291.938 231.262 35.2101 279.234 227.848 21.0083 253.725 225.311 12.5324 197.295 231.977 61.2576 4.56175 1.81347 4.47246 
150.047 179.782 178.79 179.111 179.704 136.413 178.969 176.8 177.631 175.112 242.873 230.136 103.662 296.997 234.338 65.5868 303.848 229.874 49.5273 292.004 227.215 34.4418 267.004 225.157 24.4669 207.854 230.57 69.9088 4.70055 1.98807 4.46431 
151.009 179.677 179.605 179.997 178.662 138.376 179.639 177.662 178.411 176.256 250.332 228.962 113.123 304.723 231.647 75.4784 312.009 227.813 59.4339 300.449 225.453 44.0197 275.54 223.72 33.6189 215.848 229.765 77.0816 4.71603 1.98864 4.27445 
150.518 179.807 179.95 179.644 177.108 138.463 179.859 178.133 178.683 176.693 256.598 226.806 119.574 311.508 228.689 82.717 318.951 224.964 66.7193 307.352 222.444 51.2274 282.389 220.614 41.0492 222.825 228.829 83.0284 4.32446 1.72174 4.22025 
150.499 177.154 179.98 179.142 176.577 138.984 178.973 178.947 179.772 178.263 263.148 225.494 125.099 318.03 226.213 87.7316 325.468 222.548 72.1405 313.785 220.305 56.5756 288.838 218.743 46.1592 229.573 228.34 88.137 4.17074 1.76473 4.51664 
149.956 176.632 179.998 179.113 175.724 138.96 178.802 179.278 179.866 178.418 269.196 224.42 129.158 323.73 224.47 91.2604 330.977 220.593 75.6603 318.976 217.658 60.0876 293.819 215.834 49.6992 235.657 227.667 92.1384 3.71762 1.29266 4.52935 
149.681 175.977 180 178.14 179.619 139.639 178.576 179.997 179.411 178.932 274.244 224.571 132.935 328.418 222.637 93.8691 335.355 218.578 78.0161 323.205 215.433 62.3613 298.273 213.494 52.3316 240.391 226.956 95.4171 3.39582 1.08583 4.32555 
148.099 175.385 180 179.573 178.231 138.508 178.401 179.997 179.959 177.818 278.416 223.772 134.34 332.918 222.121 95.7987 339.501 217.099 79.7467 327.169 212.981 64.4174 302.249 210.72 55.006 244.828 226.165 97.9005 3.30974 0.750559 4.14074 
147.559 174.389 180 179.495 177.001 138.723 178.024 179.693 179.729 177.283 281.992 224.799 136.695 336.036 221.681 96.6524 342.32 215.479 81.077 329.717 211.103 65.8269 304.882 209.336 56.9048 247.994 225.987 100.546 3.59202 0.556726 4.6984 
146.822 174.397 179.997 179.083 176.685 137.954 178.026 179.625 179.484 176.651 285.163 224.606 137.589 339.232 220.856 97.2582 345.2 214.184 81.6984 332.435 209.746 66.6769 307.648 208.411 58.3093 251.101 225.502 102.353 3.8611 0.533166 4.85499 
146.248 174.363 179.992 178.274 176.002 137.919 178.014 179.105 178.678 175.707 287.267 224.131 138.522 340.887 220.307 97.0342 346.34 212.099 81.6737 333.424 207.491 67.0707 308.642 206.535 58.7364 252.751 224.661 103.684 3.92397 0.639712 5.43296 
145.685 174.315 178.732 177.961 175.858 137.519 177.997 179.219 178.335 175.263 289.751 222.212 140.297 343.344 219.337 97.5197 348.482 210.366 82.1121 335.321 205.288 67.6645 310.518 204.271 59.7362 255.164 222.816 105.428 3.98252 0.521658 5.64406 
145.299 175.446 178.637 177.516 175.747 136.984 178.396 178.655 177.431 173.365 290.675 221.272 138.714 343.834 218.159 95.7555 348.424 209.198 79.5061 334.449 204.677 64.8709 309.447 205.207 58.4042 255.897 222.469 106.008 4.74699 0.45304 5.83284 
145.099 176.951 178.507 177.688 175.973 136.75 178.926 178.941 177.725 173.675 290.075 220.074 137.416 343.01 216.852 93.9069 347.521 208.891 77.5123 333.363 204.258 62.9697 308.261 204.805 56.9981 255.19 222.107 105.044 4.89388 0.437329 5.17641 
147.265 178.137 178.585 178.508 176.208 137.522 179.344 178.599 177.906 172.99 290.439 217.853 135.425 342.146 215.495 92.0915 346.843 208.008 75.9071 332.759 203.332 61.4892 307.334 203.546 55.8178 254.587 222.046 103.863 4.46849 0.343169 5.01791 
148.293 177.53 178.57 178.958 176.552 137.903 179.129 178.48 178.082 173.009 289.41 215.565 133.542 340.269 213.905 89.8004 345.004 206.618 73.6021 331.043 201.931 59.4519 305.352 202.05 53.869 252.907 221.232 102.086 4.24446 0.33066 4.86772 
149.363 176.673 178.653 179.232 177.189 138.516 178.827 178.558 178.389 173.796 287.95 213.894 131.716 338.43 212.996 87.4663 343.013 205.857 70.9025 329.181 201.262 57.0188 303.277 201.349 51.4392 250.939 220.423 100.265 4.18745 0.397084 4.48075 
149.472 175.682 178.468 179.262 176.683 138.579 178.478 178.112 178.085 173.333 286.107 212.534 129.218 336.311 212.339 84.9132 340.816 204.547 68.5237 326.996 199.929 54.7263 300.91 199.777 48.9158 248.823 219.339 98.0508 3.79432 0.427667 4.80002 
149.477 175.17 178.304 179.286 176.646 139.197 178.297 177.989 178.138 173.481 283.519 211.659 126.778 333.371 210.95 82.1809 337.684 202.945 65.7036 323.762 198.331 51.7724 297.52 198.18 45.8711 245.771 218.14 95.5109 3.63459 0.268911 4.73798 
149.473 173.887 178.339 179.403 177.054 139.509 177.845 178.24 178.383 173.735 280.758 210.504 124.166 330.128 209.995 78.8717 334.168 201.977 62.0138 320.089 197.369 48.1955 293.674 197.286 42.8155 242.61 216.999 92.9608 3.73334 0.241081 4.53219 
148.634 174.27 178.403 179.466 177.423 140.03 177.98 178.565 178.669 174.865 278.29 211.163 122.611 327.052 209.583 75.7132 330.992 201.819 58.8309 316.734 197.611 44.9923 290.29 198.161 39.2422 239.698 216.977 90.8667 3.95626 0.212685 4.62358 
148.537 174.281 178.52 179.384 177.785 140.53 177.984 178.797 178.838 175.393 276.539 212.071 119.862 324.657 209.68 72.0461 328.198 201.997 54.8414 313.757 197.89 41.3645 287.148 198.53 35.9948 237.414 217.219 88.4613 4.01808 0.333304 4.38659 
148.925 174.283 178.515 179.225 177.959 140.554 177.984 178.937 178.991 176.23 273.351 211.744 116.666 321.402 209.547 68.43 324.813 201.899 51.0018 310.423 197.842 37.8534 283.72 198.463 32.3009 233.939 216.285 85.3946 4.23133 0.56965 4.20205 
148.708 174.29 178.784 179.425 178.182 140.238 177.986 179.34 179.314 176.982 270.031 211.639 113.699 317.935 209.234 64.7843 321.264 201.883 47.164 306.925 198.005 34.2963 280.147 198.622 28.4193 230.248 215.375 82.3469 4.45543 0.822687 3.96566 
148.468 174.338 178.577 179.132 177.398 139.771 178.003 179.027 178.812 175.936 264.335 213.456 107.521 311.118 210.296 57.9499 314.107 202.443 40.4039 299.435 198.654 27.9726 272.622 199.205 22.7687 223.783 216.771 77.525 4.29772 0.909151 4.17284 
147.292 174.32 178.676 178.946 177.294 137.861 177.997 179.142 178.653 175.786 260.161 212.382 103.599 306.294 209.547 52.9667 308.983 201.568 35.7349 294.119 198.057 23.8614 267.685 199.301 19.4207 219.697 217.075 74.9322 4.61681 1.07516 4.55656 
145.455 174.276 177.685 178.147 177.253 136.183 177.982 178.396 178.202 176.607 252.903 213.287 98.1248 298.388 210.681 45.3604 300.309 201.817 27.9557 285.358 199.1 16.6772 258.909 201.445 12.2689 212.456 218.02 70.3286 5.37587 1.49023 5.04215 
145.295 174.27 177.893 178.082 177.092 135.127 177.98 178.67 178.156 176.682 248.312 213.021 95.319 293.186 210.77 41.3021 294.97 201.851 24.0096 279.849 199.107 13.0729 253.354 201.54 8.93268 207.84 218.11 68.0727 5.35916 1.49186 5.22812 
144.92 174.27 177.817 177.811 176.55 133.958 177.98 178.513 177.628 175.986 244.474 213.754 92.5877 288.676 211.641 37.6852 290.162 202.427 20.5371 274.835 199.654 9.98068 248.368 202.475 6.46542 204.11 219.261 66.1985 5.43007 1.46991 5.60238 
144.64 174.27 177.888 177.709 176.48 132.877 177.98 178.703 177.529 176.216 240.484 214.459 90.0151 284.421 212.725 34.0963 285.734 203.372 16.9523 270.326 200.528 6.70669 243.771 203.616 3.42425 200.244 219.893 64.1267 5.65682 1.51537 5.74062 
143.984 174.27 177.987 177.645 176.449 132.2 177.98 178.96 177.503 176.433 237.499 216.635 88.3189 281.103 214.544 31.3036 282.191 205.416 13.9392 266.661 202.527 3.9215 239.968 205.908 0.910423 197.168 221.438 62.3751 5.94812 1.52372 5.54441 
143.644 174.27 177.943 177.476 176.144 131.852 177.98 178.902 177.286 176.073 233.571 217.931 85.975 276.737 215.789 28.5966 277.786 206.452 11.3502 262.208 203.387 1.45724 235.436 206.645 -1.45456 193.18 222.09 60.3279 5.9735 1.51785 5.74749 
142.97 174.27 178.166 177.599 176.355 131.919 177.98 179.346 177.632 176.423 230.399 219.865 84.2775 273.204 217.35 26.2753 274.12 208.501 8.66515 258.475 205.421 -1.17334 231.592 208.584 -3.9489 189.768 222.98 58.3737 6.07857 1.50177 5.3931 
141.627 174.27 178.818 177.515 176.215 131.988 177.981 179.593 177.825 176.452 226.844 221.504 82.9992 269.269 219.295 24.0206 270.014 210.425 6.06913 254.238 206.892 -3.72896 227.089 209.449 -6.47903 186.035 223.592 56.3008 6.00304 1.37264 5.1557 
142.18 174.27 178.713 177.467 176.207 133.064 177.981 179.554 178.012 176.263 224.314 224.575 81.3678 265.442 221.401 21.9385 266.211 212.571 3.87602 250.433 208.863 -5.85953 223.172 210.909 -8.47167 182.852 225.049 54.3739 5.77894 1.37548 5.22927 
142.136 174.399 177.963 177.239 175.764 134.15 178.115 179.307 177.792 175.484 220.922 227.925 80.0483 261.431 223.741 20.7159 262.052 214.846 2.28105 246.216 210.704 -7.58374 218.777 211.857 -10.1747 178.938 226.14 52.7197 5.445 1.20003 5.03202 
142.654 174.76 177.916 176.933 175.563 136.065 178.364 179.298 177.809 174.935 214.646 233.572 75.942 253.89 227.973 17.1912 254.138 219.107 -1.76018 238.006 214.114 -11.7563 210.267 213.824 -14.2704 171.905 228.44 49.3131 4.9573 0.811635 4.73583 
142.856 175.649 176.862 176.488 174.992 136.912 178.669 178.822 177.268 173.827 211.336 236.605 74.2 249.729 229.725 15.4006 249.637 220.513 -3.61415 233.268 215.072 -13.5153 205.446 214.347 -15.7752 168.198 229.976 47.9079 4.61883 0.767617 4.91713 
142.462 177.152 176.188 175.801 174.365 136.698 179.124 177.999 176.442 172.801 207.201 238.573 71.8619 245.207 231.675 13.2955 245.006 222.038 -5.42167 228.499 216.252 -15.1809 200.67 215.306 -17.291 164.136 231.345 46.4771 4.53192 0.849191 5.36449 
142.173 178.579 175.796 175.377 174.14 136.166 179.415 177.584 176.023 172.519 202.768 240.236 69.6527 240.748 233.84 11.5238 240.486 224.037 -7.06827 223.871 217.879 -16.7384 196.022 216.611 -18.7832 159.912 232.798 45.2743 4.51637 0.890044 5.4667 
142.419 179.866 175.232 174.717 173.378 136.242 179.216 176.92 175.23 171.333 198.967 242.349 67.7427 236.39 236.038 9.71502 235.727 225.768 -8.91366 218.884 219.083 -18.3273 190.944 217.362 -19.99 155.91 234.655 44.2462 4.22028 1.0882 5.58664 
142.622 177.676 174.485 173.816 172.526 136.367 178.681 175.866 173.934 169.802 194.297 243.277 65.9668 231.198 238.075 8.0775 230.424 227.421 -10.2185 213.428 220.254 -19.358 185.494 218.143 -20.6684 151.061 236.102 43.4363 3.98642 1.2776 5.85979 
142.641 174.948 173.253 172.1 170.82 135.525 177.408 173.591 171.346 166.568 185.431 244.05 60.8915 221.045 239.669 3.60429 219.544 227.965 -14.1602 202.119 220.487 -22.6067 174.18 218.797 -22.9712 142.39 238.449 41.3564 3.78108 1.76635 6.8559 
143.65 175.276 173.479 172.136 171.266 134.876 177.147 173.218 171.063 166.531 180.662 243.735 57.9798 215.519 240.14 0.946884 213.879 228.199 -16.4522 196.411 220.799 -24.4035 168.59 219.363 -24.1385 137.791 239.408 40.4967 3.89326 1.73726 7.05768 
145.229 175.405 173.633 172.09 171.252 134.741 176.732 172.549 170.317 165.613 176.207 243.621 55.3857 210.617 241.336 -1.04958 208.831 229.051 -18.0794 191.282 221.464 -25.6518 163.631 220.111 -24.7442 133.496 241.005 39.8075 3.62115 1.93571 7.35428 
146.507 175.417 173.591 171.896 170.92 134.724 176.238 172.029 169.684 164.315 171.389 242.865 53.2205 205.331 242.069 -2.90915 203.347 229.454 -19.5966 185.724 221.567 -26.6893 158.197 219.967 -24.9255 128.915 242.207 39.294 3.06455 2.172 7.55575 
147.539 175.375 173.4 171.509 170.225 134.388 175.784 171.277 168.684 162.19 166.31 242.194 51.2295 199.972 243.264 -4.58011 197.678 229.714 -20.7918 179.887 221.237 -27.3144 152.427 219.103 -24.4664 124.303 243.768 39.0119 2.11001 2.56419 8.08658 
148.769 175.118 173.132 172.094 172.026 134.891 174.529 171.088 168.596 163.184 160.894 240.39 48.991 194.142 243.374 -5.8045 191.411 230.118 -22.1451 173.431 220.544 -27.9399 146.35 218.334 -24.1881 119.161 244.996 38.848 1.8976 3.21599 7.3458 
149.149 174.734 172.933 173.02 174.744 134.776 172.984 170.554 168.284 164.452 155.176 238.422 47.1304 188.497 243.777 -6.8978 185.411 230.69 -23.2039 167.37 220.239 -28.2974 140.591 218.242 -24.1263 114.406 246.51 38.6075 1.93675 3.85764 6.95754 
149.97 174.188 172.403 173.839 177.753 135.061 171.487 169.668 167.765 166.002 149.439 236.133 46.2557 182.447 243.639 -8.03006 178.949 230.253 -24.107 160.752 219.232 -28.4463 134.061 217.72 -24.0381 109.36 248.031 38.5006 1.9678 4.37562 6.91393 
