170.251 163.864 165.478 165.276 164.236 162.596 151.463 154.823 155.068 151.278 51.893 197.059 30.7861 57.389 208.713 -25.0258 42.2044 205.947 -43.3267 17.4447 202.423 -44.0498 -8.20887 203.644 -30.0512 2.89317 237.914 35.6124 3.44718 4.15086 2.75621 
169.983 163.426 164.848 164.897 163.914 162.256 150.665 154.164 154.584 150.733 49.7062 197.005 26.002 52.9097 206.247 -29.05 37.8826 204.358 -47.1492 13.576 201.509 -47.4982 -11.4839 202.918 -33.1344 0.500526 237.005 31.9079 3.11752 3.63633 3.09596 
170.207 162.694 164.087 164.363 163.524 162.6 149.488 153.031 153.602 149.775 47.7149 197.192 21.051 48.7065 204.881 -33.1733 33.6259 203.308 -50.9036 9.57449 200.717 -50.7581 -15.0042 202.252 -36.0383 -1.84704 236.599 28.1335 2.94254 3.38669 3.33101 
170.276 162.156 163.281 163.928 163.111 162.659 148.608 151.833 152.794 148.908 44.9987 197.027 16.4465 44.2656 203.986 -37.3289 29.1281 202.184 -54.3691 5.2501 199.957 -53.8287 -19.0509 201.683 -38.8395 -4.54568 236.005 24.6901 2.88039 3.19933 3.00193 
169.667 159.708 160.779 162.152 161.423 162.369 144.813 148.6 150.232 145.832 39.6468 196.057 7.32606 36.4788 202.75 -45.3082 20.8874 201.065 -61.9546 -2.8465 199.143 -60.4572 -26.661 200.534 -44.2482 -9.20208 235.454 17.1765 3.27916 3.09621 3.67439 
169.144 158.968 160.011 161.467 160.758 161.931 143.885 147.923 149.548 144.75 37.0254 195.03 3.0442 33.1333 201.825 -49.6392 17.1341 200.475 -66.3024 -6.68093 198.552 -64.172 -30.1894 199.669 -47.1041 -11.22 235.007 13.3236 3.58706 3.19395 4.2937 
169.002 158.334 159.507 161.084 160.071 161.97 143.412 147.406 149.016 143.272 34.5829 194.287 -1.60775 30.6018 202.268 -54.5396 13.8142 200.606 -70.9202 -10.1864 198.24 -68.0483 -33.2819 198.572 -49.6743 -13.0056 234.722 9.36766 4.27815 3.43982 4.41234 
169.197 158.808 159.444 160.923 159.776 162.279 143.766 147.038 148.551 142.42 32.4747 193.747 -6.83967 27.9791 203.171 -60.192 10.4105 201.397 -75.8898 -13.7578 198.734 -72.2422 -36.48 198.611 -53.0095 -14.7585 234.663 5.35441 4.61665 3.66608 4.29803 
169.306 159.141 160.362 163.01 162.285 162.048 142.395 147.706 151.713 147.379 39.0494 188.055 -53.0102 24.5112 199.446 -101.421 4.15207 196.175 -113.862 -18.4783 192.851 -106.533 -37.6438 190.395 -83.5082 -5.01448 226.39 -28.7425 4.6168 3.83906 5.2909 
168.9 160.673 160.505 163.087 162.531 161.229 144.914 148.502 152.394 148.396 45.2154 187.792 -56.2444 29.3877 200.585 -106.19 8.40876 195.097 -116.857 -13.4155 190.125 -108.596 -32.0496 186.724 -84.9603 1.18576 224.581 -30.9883 5.01254 3.42957 4.02062 
167.926 160.71 160.346 162.868 162.544 159.928 145.763 148.769 152.61 149.125 53.062 187.142 -59.2291 35.8071 199.645 -109.785 14.7552 192.77 -119.354 -6.35894 186.597 -110.34 -24.6372 182.717 -86.2886 9.09929 222.332 -33.183 5.29586 3.2296 3.45911 
167.107 161.275 160.431 162.911 162.925 158.696 146.949 149.595 153.393 150.503 62.4988 186.409 -61.7135 43.9319 197.967 -112.812 22.8797 190.435 -121.68 2.14857 183.332 -112.044 -16.074 179.112 -87.6489 18.477 219.923 -34.9906 5.68323 3.30961 3.23207 
166.741 162.546 161.423 163.439 163.679 157.767 148.708 151.647 154.941 152.923 74.2182 186.704 -63.5582 54.6545 196.551 -115.022 33.2062 188.785 -123.723 12.7191 180.727 -113.432 -5.37304 175.974 -88.7202 29.9289 217.912 -36.0076 6.02304 3.55335 3.63026 
166.239 163.273 162.462 164.205 164.483 156.948 149.915 153.557 156.5 155.136 87.9326 187.185 -64.556 67.7884 194.618 -116.172 45.8107 186.815 -125.187 25.116 178.156 -114.494 6.88726 173.041 -89.4089 43.019 216.036 -36.6554 6.51318 3.96403 4.36058 
165.838 164.069 163.45 165.079 165.388 156.335 151.367 155.558 158.175 157.264 103.827 187.686 -64.4042 83.4338 192.232 -116.37 60.6076 184.311 -125.773 39.4582 175.298 -114.84 20.9178 170.102 -89.427 57.8838 214.069 -36.6517 7.01948 4.42887 5.29214 
165.247 165.35 165.237 166.574 166.583 155.854 153.681 158.485 160.642 159.758 121.853 188.007 -62.3384 100.623 188.728 -115.156 77.0121 180.67 -125.099 55.3956 171.5 -114.062 36.7038 166.248 -88.2407 73.8647 211.204 -35.2317 7.33137 4.80328 6.27494 
166.552 166.133 166.485 167.749 167.574 157.406 156.172 161.025 162.952 162.342 143.124 188.792 -59.4716 120.377 186.807 -113.939 95.9833 178.219 -124.208 73.3043 168.8 -113.204 54.0371 163.342 -87.121 91.3869 208.674 -33.3771 7.84377 5.55823 6.98651 
166.905 167.221 167.594 168.87 168.551 157.304 158.272 163.025 164.604 163.721 165.186 189.072 -54.3511 142.225 184.593 -110.662 117.699 175.689 -121.312 94.5162 166.19 -110.453 74.6332 160.822 -84.4646 110.649 206.65 -30.219 7.99437 5.82084 7.28028 
167.103 168.147 168.458 169.562 169.12 157.363 159.895 164.762 165.909 164.68 188.413 188.489 -46.8403 165.39 181.428 -104.681 140.895 172.511 -115.805 117.127 163.132 -105.194 96.48 158.146 -79.4235 131.115 204.076 -25.1131 8.15743 6.10682 7.57852 
166.871 169.185 169.728 169.631 168.852 156.785 160.66 165.302 165.501 164.399 211.338 186.709 -38.8007 190.388 178.592 -97.6477 166.97 169.332 -109.354 143.178 160.215 -99.6921 120.885 156.021 -75.1982 152.519 201.613 -19.7143 8.23178 5.81377 7.19858 
166.807 168.577 168.558 168.39 168.021 157.136 160.028 163.723 164.033 163.012 235.788 184.57 -28.4803 218.196 177.079 -88.1808 196.858 166.981 -100.127 172.591 157.808 -91.9854 148.834 153.58 -69.4545 174.944 199.228 -12.8668 8.08676 5.90935 6.23854 
167.349 168.225 166.472 167.685 167.04 159.449 158.37 160.461 160.935 159.646 262.874 183.066 -16.0591 247.599 176.843 -75.9989 227.583 165.69 -87.7353 203.555 155.923 -80.4586 178.771 151.699 -59.8789 199.89 198.8 -3.8374 7.86095 5.65305 5.5015 
167.073 165.992 164.838 166.323 166.307 160.112 156.527 158.408 158.615 158.288 288.424 181.508 -0.912527 277.26 176.513 -60.863 259.244 165.46 -73.4738 235.501 155.241 -67.3862 209.496 150.998 -49.4703 224.662 198.453 6.88902 7.67381 5.29026 4.90164 
163.313 163.418 163.484 165.443 165.826 158.179 154.644 156.085 156.845 157.18 329.331 174.138 38.7329 330.871 177.51 -22.0482 314.759 165.244 -36.4612 290.786 154.179 -33.6487 262.478 148.47 -19.5175 270.878 198.115 37.5374 8.5182 5.41304 4.64289 
159.584 161.732 163.133 164.465 164.723 152.892 154.471 155.78 156.531 155.986 338.304 167.594 62.341 352.683 175.922 3.25952 337.906 163.395 -12.4491 313.912 151.995 -11.7288 284.761 146.13 0.382173 288.933 196.568 57.7635 8.40483 5.46477 4.25174 
159.947 163.415 163.395 165.304 164.283 149.648 157.566 156.676 157.563 155.827 342.815 160.687 84.6254 369.84 174.494 28.7156 355.863 160.704 11.9183 332.258 148.495 10.5198 302.294 142.419 20.4944 301.375 193.265 77.8631 8.35324 5.69233 4.64156 
157.314 163.969 162.185 160.797 161.068 146.773 158.832 155.801 153.198 152.471 346.008 151.599 105.646 385.016 171.994 53.0658 372.382 156.72 35.6652 348.183 142.418 33.4516 317.847 136.812 38.7253 310.212 187.847 94.1965 8.13507 7.63802 5.69733 
157.325 166.923 163.674 161.693 157.486 150.549 161.678 157.31 153.645 148.98 352.078 146.83 129.465 396.307 169.206 78.3774 385.842 153.708 59.8024 360.975 138.062 54.6474 329.767 132.041 57.8425 316.12 182.984 110.539 8.71516 9.37748 6.21943 
163.351 163.55 161.704 161.891 148.454 157.957 158.504 154.34 149.688 138.722 359.449 145.65 152.529 404.284 166.858 103.602 396.623 152.072 84.4146 371.747 135.552 76.8925 339.657 129.331 78.0092 320.674 179.356 124.946 9.79084 10.7261 5.92618 
168.765 161.093 159.705 157.203 149.694 163.523 156.396 153.012 145.653 136.333 364.859 146.233 173.982 410.72 163.414 128.7 406.102 150.733 109.339 381.896 135.117 99.0504 350.16 129.453 95.0403 325.676 177.301 138.406 9.6126 10.8068 4.51236 
164.891 159.87 158.698 162.693 157.66 164.033 156.932 153.524 149.044 135.086 366.038 148.997 191.856 414.641 162.397 153.468 412.824 151.828 133.431 391.502 139.764 117.458 359.121 133.624 111.166 329.705 177.57 152.659 11.1278 8.80274 3.85713 
161.576 158.752 155.095 158.46 157.847 161.266 157.527 155.63 148.447 133.71 365.288 147.229 204.923 418.1 161.825 177.405 419.466 154.34 157.157 399.713 142.848 137.94 368.289 136.968 125.714 334.037 178.022 165.19 11.6102 9.4533 2.36802 
158.216 158.27 152.724 150.264 152.057 158.519 160.067 158.562 147.306 132.276 365.174 146.007 217.498 421.216 161.082 196.891 425.222 155.513 177.447 406.538 144.799 156.009 377.326 140.694 139.842 338.449 178.02 176.798 10.3625 10.0799 1.52459 
158.973 157.418 155.256 148.318 147.102 156.755 159.165 157.038 143.197 128.646 364.61 144.966 228.433 420.999 157.064 213.649 426.539 151.947 196.249 408.507 142.545 174.412 381.861 141.744 155.516 341.553 178.684 187.172 8.84635 10.3737 1.78553 
160.802 160.474 156.469 137.813 99.9761 156.539 160.784 159.81 143.329 124.151 364.445 142.537 247.063 424.1 156.252 238.246 432.495 151.532 220.271 414.168 141.482 194.471 386.009 143.898 176.821 347.784 178.935 203.155 11.2881 13.4637 1.90417 
162.177 159.125 153.827 135.353 98.8216 156.253 159.061 157.583 144.37 140.427 366.286 144.436 254.242 424.768 157.117 247.85 433.685 151.928 230.769 417.784 143.302 204.764 394.418 146.779 185.142 350.262 180.51 210.529 5.90027 11.7772 2.20088 
164.746 164.854 155.928 147.374 133.046 158.21 162.805 157.953 150.658 158.618 372.584 150.283 265.296 430.35 164.991 262.189 439.404 158.413 244.852 428.081 150.965 218.346 410.189 153.59 194.029 355.136 184.953 222.216 5.55314 8.999 3.25553 
165.034 167.446 155.484 157.636 133.749 158.877 164.21 156.502 151.56 155.389 373.078 154.026 272.305 431.039 170.41 271.896 439.824 162.07 254.477 430.92 154.495 226.957 412.84 155.686 200.92 356.471 188.61 229.191 7.48073 8.61647 4.16267 
165.547 162.508 158.893 155.897 159.183 163.654 158.469 155.506 150.915 148.564 367.764 160.587 272.553 426.35 177.479 261.005 433.218 167.208 240.748 420.015 155.298 213.756 396.659 150.362 186.36 347 191.967 223.581 13.7623 10.7252 4.90737 
166.252 161.733 159.481 155.882 159.98 164.639 156.684 154.187 149.766 147.564 364.392 161.001 269.263 421.896 176.787 255.302 428.071 166.117 235.045 414.278 153.787 208.651 390.035 147.77 182.129 342.146 191.001 219.132 13.9327 10.6299 4.89958 
165.4 160.217 158.311 155.622 160.409 163.818 155.433 152.637 148.694 146.501 360.685 160.228 264.553 417.473 175.239 249.159 422.849 163.925 229.356 409.057 151.953 203.923 385.064 146.115 179.123 337.514 189.272 214.513 12.2688 9.82616 4.97814 
164.895 159.555 159.28 156.448 160.712 163.462 154.549 153.426 149.467 145.611 355.841 159.984 259.796 412.056 173.627 241.627 417.41 162.804 221.72 402.953 150.657 197.403 377.736 144.149 174.614 331.477 187.533 209.194 11.5157 9.32777 4.29861 
164.519 157.624 157.157 154.319 159.038 163.328 152.612 151.64 147.588 144.223 351.898 159.3 254.971 406.975 172.024 235.161 411.588 161.116 215.577 396.628 148.577 191.991 371.2 141.851 170.1 326.314 185.818 204.245 11.195 9.2434 3.98241 
164.248 160.481 160.067 156.562 160.053 164.004 154.886 152.722 148.226 144.897 348.349 158.706 249.586 403.709 171.756 229.261 407.742 160.438 209.665 392.173 148.062 186.647 366.848 142.066 165.208 321.957 185.202 200.027 10.5374 9.12935 4.4454 
164.562 161.177 159.073 157.32 161.735 162.958 156.89 154.758 149.877 146.525 346.644 159.128 244.269 401.566 172.173 224.995 405.545 161.182 205.433 389.707 148.392 182.637 364.015 142.291 161.047 319.206 185.604 196.769 10.9404 9.34771 4.15504 
164.003 159.999 160.413 159.198 162.083 162.148 156.116 155.986 151.64 148.854 343.241 157.329 238.98 397.862 170.408 219.995 402.501 160.217 199.747 386.694 147.748 176.867 360.741 141.792 155.541 315.665 184.747 192.463 10.8141 9.0931 3.70107 
164.681 155.542 158.709 157.081 160.001 162.876 151.322 152.524 148.841 147.934 339.556 156.479 231.256 391.636 167.777 212.063 395.939 157.688 191.696 379.693 146.165 168.77 354.47 141.795 147.587 311.087 185.898 185.349 10.2286 8.85631 3.49311 
165.921 155.486 158.95 157.191 159.369 164.115 149.878 151.396 147.533 146.921 337.484 155.892 226.646 388.415 166.645 207.468 392.397 156.604 186.837 375.607 145.671 164.28 350.143 141.765 143.307 308.524 187.041 181.464 10.3313 8.61805 3.55599 
165.805 154.586 157.844 154.654 156.908 164.348 148.819 149.812 143.778 143.173 335.319 155.746 222.254 385.671 166.293 202.162 389.098 156.251 181.793 370.61 144.352 160.304 345.509 141.055 140.094 306.007 187.457 176.87 9.58175 9.46437 3.36809 
165.486 153.927 156.297 153.44 153.736 164.323 148.347 147.981 140.371 138.215 332.234 155.334 217.304 382.313 165.384 196.358 384.767 155.32 176.017 364.418 142.765 155.673 339.243 140.869 136.558 302.81 188.082 172.344 8.6431 10.7672 3.51808 
165.65 155.126 156.874 153.789 153.973 164.361 148.693 147.245 139.593 137.342 328.672 154.869 211.194 379.063 166.242 191.376 380.624 155.437 171.307 359.966 143.43 151.358 335.227 142.623 132.798 299.469 189.908 168.378 7.72627 10.7566 4.09553 
165.439 157.775 159.388 156.6 155.745 163.696 150.389 148.813 142.172 138.907 324.137 153.814 204.032 375.624 166.825 185.442 376.753 155.877 164.835 356.433 144.436 145.073 330.651 143.548 127.61 295.42 191.153 163.727 7.68197 10.1437 4.47678 
166.196 159.747 161.31 158.619 159.278 163.886 150.782 150.019 144.505 142.052 315.856 155.299 192.103 366.803 168.834 173.248 367.702 158.698 152.254 347.389 148.388 132.864 321.704 148.174 116.906 286.561 195.309 154.993 6.59893 9.26185 3.90179 
165.43 161.952 163.475 161.216 161.362 162.347 152.575 152.86 147.177 144.137 309.281 154.932 184.075 361.68 170.283 166.678 363.003 160.904 144.675 341.813 149.822 125.976 315.736 149.859 111.152 280.823 197.205 150.258 6.1758 9.85179 3.864 
165.158 161.401 163.508 161.485 161.513 162.509 152.81 153.678 147.409 144.76 304.697 156.746 179.056 357.255 172.199 160.864 358.042 162.923 137.886 335.763 151.526 120.213 309.923 152.694 105.73 276.342 200.078 146.334 5.78765 10.5668 4.49851 
164.618 160.777 164.231 160.26 161.078 162.099 153.472 154.354 145.925 144.529 299.055 158.438 172.686 351.611 172.952 153.005 350.822 163.002 129.727 326.49 152.016 114.12 302.027 155.785 99.9796 270.765 202.692 142.284 4.6889 11.631 5.21431 
163.86 161.251 164.667 159.871 161.249 161.586 154.53 154.534 145.864 143.958 293.72 160.985 167.33 345.802 174.434 146.228 343.869 163.558 123.488 319.208 153.523 108.187 295.387 158.886 95.1175 264.886 204.865 137.879 3.45008 11.57 5.89354 
163.315 160.763 165.615 160.443 160.906 161.393 154.844 155.18 145.5 142.553 288.365 164.082 162.243 338.564 175.41 138.774 336.006 164.002 116.775 310.419 153.871 102.843 287.182 160.427 90.9102 257.833 206.43 132.739 2.11782 12.2887 6.14438 
162.96 161.273 165.775 163.887 164.905 160.125 152.717 155.684 148.425 145.782 277.213 170.958 152.88 323.857 177.745 127.373 321.551 168.326 105.386 295.868 158.614 92.5045 272.446 165.928 82.2918 245.57 213.773 124.91 1.54539 11.5709 3.9477 
162.63 162.201 166.156 164.847 164.934 159.428 153.2 156.061 149.614 146.819 271.709 175.025 148.712 316.484 179.679 120.35 313.663 170.22 99.013 287.742 159.796 87.5577 264.001 166.746 78.5509 238.459 216.608 120.161 1.0463 11.5277 3.29202 
163.447 162.143 165.386 164.402 164.093 160.441 152.593 155.031 149.813 146.981 267.216 180.257 145.977 308.285 181.372 113.085 304.567 171.178 93.089 279.163 160.65 82.8578 254.949 166.95 74.7914 230.693 218.818 115.166 0.908143 10.6824 2.86434 
165.517 162.862 164.711 164.884 164.254 162.486 152.471 154.201 150.917 148.069 262.305 186.262 143.455 298.742 182.743 106.048 293.916 171.789 87.0596 269.733 161.912 77.2766 244.513 167.09 70.0977 221.722 220.889 110.295 1.48928 8.95123 2.84421 
166.714 163.385 164.709 164.925 163.772 163.096 152.609 154.02 151.384 148.175 256.585 191.595 139.622 290.567 185.838 100.611 285.505 174.669 82.4065 261.75 164.395 72.948 235.859 168.587 66.4528 213.308 223.357 105.859 1.84301 8.45943 2.57631 
165.759 163.858 164.27 164.472 163.118 161.935 152.913 152.863 150.722 147.844 249.237 196.523 134.468 280.379 188.703 93.1408 275.107 177.155 76.6547 252.181 166.835 68.2256 226.536 170.802 62.3582 203.776 225.336 101.276 1.33539 7.86259 2.66517 
164.751 163.268 162.22 162.591 161.909 159.521 151.56 149.053 148.428 147.261 233.967 204.603 124.416 262.672 196.694 81.9611 256.938 183.994 69.1472 235.386 174.206 60.583 210.372 177.719 54.3801 186.625 231.693 93.8107 1.90973 6.15793 4.72624 
164.923 162.194 161.86 162.246 161.941 159.139 150.526 147.612 147.799 147.24 225.601 208.118 119.215 251.72 198.631 75.5552 245.642 184.719 64.8179 224.973 175.639 56.2771 200.37 179.12 50.324 176.555 233.177 89.3419 2.35444 4.83318 6.18028 
166.074 161.125 162.003 162.173 161.93 159.218 148.1 146.553 147.522 147.052 209.039 213.483 109.301 232.207 203.161 66.5909 226.682 189.087 57.0869 206.693 180.342 47.9946 182.002 182.992 42.9044 158.017 237.247 81.4986 2.62283 3.54487 6.20932 
165.723 160.361 161.88 161.701 161.364 159.032 146.714 146.105 146.981 146.364 200.37 215.765 104.958 222.91 206.312 62.9632 217.844 192.682 53.1316 197.609 183.778 43.9534 172.62 186.042 39.5462 149.199 240.091 78.3958 2.44201 3.64042 5.56638 
165.258 159.642 161.653 161.235 161.378 158.956 146.091 146.249 147.077 146.908 191.804 218.551 101.551 213.457 209.069 58.9948 208.485 195.807 48.6115 187.856 187.046 39.3462 162.117 188.872 35.447 140.194 243.055 75.9152 2.96854 3.70287 4.72247 
164.842 159.68 162.015 161.122 161.197 158.116 146.107 146.678 146.667 146.329 176.939 223.294 93.9071 197.058 214.092 49.343 192.129 200.711 38.8786 170.851 191.749 31.0722 144.487 193.597 28.1091 124.834 247.515 70.0759 3.28445 3.85985 4.61924 
164.318 159.442 161.712 160.889 161.015 157.648 146.259 146.337 145.734 145.228 168.018 224.782 89.6134 188.281 218.123 43.7325 183.173 204.496 33.6316 161.395 194.742 27.1031 134.976 196.457 24.4906 115.974 249.489 67.1826 3.50276 4.39956 4.99092 
163.977 159.021 161.037 160.251 160.542 157.462 145.694 145.287 144.306 143.72 159.355 225.7 85.5936 179.379 220.994 39.1936 173.951 207.517 29.0408 151.828 197.178 23.4277 125.366 198.701 21.2561 107.244 250.897 64.5351 3.59438 4.89504 4.91149 
163.718 158.976 160.539 159.907 160.182 157.309 145.232 144.36 143.242 142.211 151.615 227.58 81.7391 171.297 223.561 35.2207 165.781 210.238 25.2613 143.585 199.672 20.0979 117.183 201.072 18.3045 99.3739 252.545 61.6635 3.42589 5.04809 5.05462 
163.221 158.761 159.474 158.957 159.31 156.864 144.599 142.664 141.393 140.124 143.688 229.233 78.1903 163.05 226.032 31.5516 156.911 212.618 22.197 134.542 202.001 17.7611 108.348 203.574 16.0523 91.6168 254.64 59.198 3.48035 5.28074 5.49781 
162.353 158.248 158.331 157.962 158.446 155.993 144.235 141.103 139.674 138.424 135.299 230.618 74.6425 155.286 229.264 28.1231 148.468 215.413 19.4 126.024 204.48 15.6814 99.9781 206.012 13.7804 83.7798 256.609 56.9436 3.7915 5.60871 6.08705 
161.437 157.5 156.593 156.49 157.214 154.957 143.196 138.626 137.219 136.076 126.64 232.206 71.2487 147.261 233.329 25.1066 139.845 219.095 17.1302 117.478 207.63 13.9452 91.5462 208.662 11.9855 75.691 258.654 54.8731 4.00621 5.89987 6.6919 
159.588 155.684 152.877 153.519 154.729 152.617 141.087 133.638 132.637 131.728 109.55 234.868 64.6475 130.818 239.204 19.4832 122.099 224.237 13.3619 100.158 212.493 10.8837 74.4558 213.061 8.64868 59.8273 262.327 50.8607 4.63476 5.90035 8.19024 
160.043 155.018 151.817 152.282 153.185 151.941 139.266 131.453 131.037 130.026 99.9176 234.502 60.9611 122.524 242.114 17.2545 113.548 227.083 11.9681 91.7253 215.266 9.42671 65.8482 215.314 7.52044 51.8357 264.511 49.3003 4.72535 5.65365 8.61368 
161.147 155.244 151.737 151.745 152.253 152.364 138.015 130.422 130.706 129.362 91.0713 235.044 58.3843 113.873 244.2 15.3674 104.664 229.296 10.5544 83.0249 217.852 7.80597 56.8636 217.578 6.77869 43.9188 267.18 48.1778 4.54354 5.0394 8.56801 
163.255 155.469 152.4 152.239 152.114 153.853 137.204 130.184 131.566 129.787 82.7028 235.206 55.6507 105.407 246.063 13.5723 96.1547 231.269 9.05469 74.7893 220.065 5.72891 48.2444 219.287 5.83339 35.9399 269.329 46.9886 4.25338 4.40282 8.36182 
164.583 155.125 152.78 152.433 152.08 154.836 135.966 129.881 132.16 129.889 74.2716 234.869 53.3199 96.863 246.42 12.3046 87.3327 231.785 7.64362 66.1947 221.251 3.84188 39.3621 220.447 5.04803 28.2016 270.967 45.7312 3.89515 3.8043 7.90626 
165.915 154.708 151.655 152.28 151.407 156.845 134.522 128.27 131.177 128.308 67.0398 235.031 51.5857 89.392 247.965 10.9441 78.6304 232.637 6.5145 57.6032 222.461 2.43364 30.8825 221.882 4.73337 20.9153 272.764 44.3236 3.13916 3.65033 8.39649 
166.143 154.057 151.311 152.677 150.379 158.885 133.03 126.983 130.862 127.047 53.1311 236.683 48.3051 75.1864 250.589 7.41624 62.3138 232.961 3.89385 41.6254 223.754 -0.503816 15.4564 223.952 3.79391 7.18337 275.702 41.4626 1.91166 3.11593 10.4783 
166.04 153.91 152.426 152.879 149.419 159.461 132.989 128.116 131.159 125.943 46.2968 237.863 47.173 67.3698 249.96 6.28626 53.8604 231.666 2.60634 32.9236 223.298 -0.960636 7.33778 224.8 4.55649 0.315182 276.8 40.8415 1.48123 2.81692 10.9616 
165.604 153.642 153.009 152.444 148.6 159.557 131.981 128.467 130.492 124.362 39.6876 239.285 45.6962 59.4945 249.81 5.65343 45.9648 231.745 1.51278 24.7707 223.977 -1.10527 -0.268241 226.358 5.22067 -6.29762 278.245 40.2069 2.01843 2.76705 10.5416 
165.081 153.696 153.669 152.319 147.644 159.08 131.986 129.634 130.692 123.533 33.0718 240.779 44.2057 51.7735 249.118 4.85929 38.4626 231.266 0.503608 16.95 224.164 -1.36911 -7.56157 227.621 5.57908 -12.7832 279.247 39.7793 2.6818 2.86704 10.2816 
165.05 153.801 154.484 152.169 147.234 159.042 132.408 131.578 131.228 123.227 27.1149 242.302 42.8756 43.9403 246.707 4.72486 31.108 230.001 -0.452969 9.05359 224.003 -1.58471 -14.9677 228.794 5.6575 -18.9323 280.161 39.3957 3.19405 3.06967 9.04739 
164.505 154.789 154.617 152.123 147.908 158.646 133.118 132.919 132.07 125.046 20.8228 242.757 41.7543 35.8736 242.791 4.75418 23.2174 227.538 -0.795529 0.951377 223.087 -2.05454 -22.2275 229.206 4.47415 -24.8756 280.15 39.1777 2.80341 2.64153 8.03661 
164.379 155.384 154.404 152.265 148.149 158.346 134.107 134.202 133.182 126.583 14.8039 243.557 41.2201 28.1537 239.856 5.00409 15.7872 225.986 -0.924483 -6.44339 222.945 -2.45124 -29.0448 230.176 3.703 -30.695 280.473 39.4831 2.86973 2.09192 7.20227 
164.264 155.411 153.904 152.019 147.976 158.018 134.469 134.875 133.805 127.625 8.96541 243.981 40.8491 20.9489 237.548 5.61488 9.13783 225.085 -0.86993 -13.0153 223.066 -2.70923 -35.2093 231.03 3.0408 -36.3012 280.554 39.8625 3.04868 1.68646 6.34422 
