168.128 167.596 167.395 167.024 165.269 156.523 157.471 159.305 159.385 153.605 -107.732 224.036 71.2235 -95.1787 217.572 21.8612 -73.7957 215.763 12.1967 -49.9216 214.822 21.9918 -33.0723 217.692 46.6481 -66.4954 254.052 100.966 1.41958 3.45064 2.59922 
167.161 167.01 166.866 166.213 164.449 155.391 156.611 158.402 158.438 152.679 -108.796 222.955 71.6324 -96.8626 216.458 22.3196 -75.741 214.617 12.3894 -51.7606 213.68 21.8175 -34.6511 216.556 46.0787 -67.2108 252.935 100.476 1.32232 3.46782 2.6461 
164.862 167.896 167.914 166.887 165.243 152.161 158.927 159.221 159.285 154.873 -108.954 221.094 75.1218 -99.4642 213.506 21.7462 -80.9 210.082 9.88993 -57.8656 208.031 15.5134 -36.8538 210.797 35.2476 -62.6435 243.142 97.5212 1.57451 2.1977 0.951939 
164.756 168.169 168.033 166.903 165.138 151.789 159.517 159.412 159.295 154.789 -106.907 221.082 76.0684 -98.2169 214.459 21.9591 -79.592 210.673 10.112 -56.3769 208.346 15.5479 -35.1522 210.903 35.1314 -60.3986 243.097 97.7187 1.51469 2.32562 0.806204 
164.431 168.322 168.079 166.858 164.968 151.418 159.798 159.398 159.054 154.181 -104.711 221.602 77.056 -96.6545 215.896 22.4962 -78.1763 212.119 10.4917 -54.921 209.577 15.6292 -33.6076 211.926 34.9989 -57.6691 243.316 98.0108 1.20637 2.34784 0.759147 
164.637 168.244 168.025 166.83 164.909 151.647 159.593 159.213 158.821 153.811 -101.873 221.756 78.1035 -94.448 216.475 23.6815 -76.0855 212.979 11.3375 -52.6573 210.353 16.0554 -31.1245 212.405 35.1597 -54.2814 243.409 98.521 1.14414 2.43508 0.826797 
165.086 168.304 168.105 166.913 164.958 152.09 159.684 159.293 158.767 153.511 -98.1058 221.378 79.3441 -91.4196 216.623 24.8561 -72.9652 213.109 12.3008 -49.3638 210.295 16.8426 -27.6464 212.145 35.8871 -50.0684 243.393 99.2895 1.14968 2.5702 1.02006 
165.275 168.498 168.205 167.02 164.959 152.223 160.087 159.511 158.807 153.16 -93.3852 220.701 80.2486 -87.5563 216.563 25.5275 -69.1404 213.125 12.8039 -45.5131 210.169 17.1455 -23.708 211.848 36.153 -45.0817 242.977 99.7121 1.0973 2.60613 1.10943 
165.372 168.5 168.245 167.003 165.029 152.275 160.041 159.395 158.512 152.622 -87.6519 219.649 80.963 -82.4238 215.893 26.3608 -64.1246 212.686 13.6145 -40.4755 209.677 17.9188 -18.7562 211.475 36.846 -39.3148 242.473 100.225 0.998764 2.67577 1.08876 
165.656 168.794 168.697 167.427 165.486 152.533 160.222 159.838 158.857 152.555 -80.8873 218.639 81.1278 -76.0349 214.827 26.7117 -58.1571 211.819 13.836 -34.6335 208.647 18.1677 -13.1255 210.465 37.2829 -32.4116 241.603 100.451 1.02283 2.64248 0.838417 
166.06 169.172 169.072 167.878 166.045 152.926 160.554 160.288 159.322 152.776 -72.7556 217.295 81.9348 -67.9271 212.716 27.84 -50.2716 210.12 14.9226 -26.8446 206.98 19.2618 -5.49301 209.099 38.4304 -24.0916 240.123 101.444 1.07551 2.62529 0.702734 
166.541 170.525 170.353 169.355 167.566 153.278 162.377 162.39 161.392 154.256 -53.7682 213.678 84.7556 -49.8106 208.106 30.1751 -32.0912 206.064 16.8366 -8.38191 203.293 21.2353 12.9383 205.95 40.9543 -4.99201 236.886 104.004 1.35118 2.72309 0.938067 
166.278 171.119 170.549 169.786 168.019 153.186 163.361 163.437 162.638 155.582 -41.2065 210.668 86.4461 -38.8982 205.041 31.3397 -20.7113 203.462 17.5462 3.7686 201.554 21.7647 25.5278 205.174 41.5366 7.21152 235.385 105.181 0.802623 2.94808 1.49343 
166.246 171.503 170.783 170.423 168.451 153.462 164.286 164.543 164.009 157.021 -27.7512 206.473 89.3652 -27.2617 201.235 33.662 -8.27876 199.986 19.2916 17.2163 199.466 23.2583 39.3701 204.31 43.13 19.9297 234.041 107.045 0.503441 3.41296 2.28498 
166.017 170.768 170.315 170.02 167.612 154.047 163.357 164.804 164.215 157.393 -13.9936 200.229 91.3373 -14.5727 195.868 35.1967 4.485 196.893 19.3662 31.0239 197.551 23.0793 53.8394 202.737 43.1358 33.4456 230.861 107.864 0.903048 4.01773 3.32114 
166.356 168.247 169.031 168.995 165.776 156.144 161.009 164.168 163.342 155.996 0.101368 193.118 94.2392 -0.317504 190.105 38.0504 19.4536 193.513 20.179 46.901 195.017 24.0826 70.6056 199.922 44.7977 47.8319 227.235 109.27 2.3322 4.68563 5.38938 
166.77 165.552 167.422 167.64 163.411 158.146 158.859 162.722 161.461 152.882 13.9646 188.176 96.7626 15.1408 187.755 39.1913 36.4234 191.764 20.5783 64.5016 193.024 25.5058 88.9219 197.158 47.218 62.9395 224.56 110.416 4.01208 5.25532 6.67509 
166.767 163.325 164.528 165.333 159.668 160.187 155.463 160.031 158.628 148.891 28.2056 183.946 97.847 32.6263 184.736 39.7295 54.614 189.102 20.7007 83.381 190.352 26.303 108.227 193.929 48.8633 79.366 222.015 110.233 5.41738 5.90611 7.58897 
166.764 160.535 161.092 161.752 156.18 162.064 153.371 156.944 154.694 144.277 43.009 179.943 98.8536 50.9218 183.157 39.7121 73.6532 186.257 22.2275 103.058 186.635 29.3495 127.262 189.662 52.6665 95.4768 219.527 110.809 6.30084 6.75586 7.14437 
167.384 158.058 158.245 159.227 155.138 163.061 145.669 152.664 151.021 141.98 59.978 177.17 100.74 72.063 180.47 44.6746 93.8095 183.61 26.8539 123.437 183.5 34.4283 147.097 186.759 57.5273 112.558 217.481 113.373 6.25525 7.35741 7.99067 
167.169 152.584 157.031 157.2 154.155 163.192 137.503 148.417 147.616 139.422 77.679 175.858 103.196 94.4179 179.209 50.2081 115.212 181.675 32.1701 145.128 181.643 40.4052 168.172 185.084 63.4437 130.303 216.093 116.768 6.52313 8.05039 8.66238 
166.089 149.888 156.481 156.651 155.423 162.501 132.188 145.492 146.799 140.336 96.2513 175.991 108.539 116.811 178.831 57.778 138.151 181.414 39.5761 168.042 182.444 47.8901 190.586 186.378 71.0717 148.774 215.899 123.244 6.99219 8.5462 10.1677 
168.762 146.15 156.889 156.213 156.958 166.05 130.512 145.394 148.161 143.698 110.077 173.998 120.298 136.996 178.351 65.7824 161.499 181.488 47.4456 192.169 184.876 56.0572 215.091 190.254 79.705 167.029 216.005 131.229 9.20643 9.95533 12.0105 
165.59 145.108 156.091 155.486 156.605 172.49 135.607 148.559 150.966 149.724 121.481 177.794 136.596 155.624 180.448 74.7441 185.227 183.562 57.5356 218.028 190.591 67.392 241.253 197.886 92.3111 185.496 218.19 143.437 11.785 12.4745 13.0364 
171.485 162.022 158.551 163.338 163.196 179.519 147.735 154.444 157.48 156.122 131.754 186.812 149.806 176.107 182.897 80.3027 211.649 187.761 66.7246 241.633 197.227 76.4107 262.788 205.919 102.69 202.885 221.382 155.007 10.8778 10.7924 15.1106 
176.485 171.682 164.681 168.884 166.556 171.946 162.846 160.04 165.95 162.099 146.843 195.721 154.907 200.241 187.12 82.2258 236.296 191.459 74.2613 263.03 202.853 84.0253 279.894 212.364 111.421 216.959 225.231 164.172 7.93934 9.13827 12.8493 
178.606 173.907 167.612 170.318 167.875 171.71 168.383 162.912 165.519 163.084 160.192 200.769 161.395 220.402 188.353 86.4108 259.79 193.79 81.4599 282.908 205.72 90.8923 297.77 217.111 119.292 232.857 229.342 171.281 7.19157 6.97301 14.8387 
173.289 171.375 169.527 170.82 166.904 175.607 167.022 163.183 163.21 158.408 172.519 202.345 165.131 241.607 186.254 91.1682 282.881 194.683 87.9464 303.011 207.203 97.4539 315.771 219.795 127.244 249.447 232.898 175.805 6.74309 5.75972 16.4268 
175.494 169.189 168.093 171.228 165.406 170.163 165.32 161.273 163.049 157.556 189.589 202.123 167.977 258.374 185.667 97.6116 299.502 192.251 95.8666 319.896 207.768 105.05 330.215 221.362 134.21 263.502 236.095 180.641 5.52481 7.85952 15.7843 
173.134 162.884 167.621 173.815 164.58 173.122 159.408 160.565 165.076 157.241 200.848 204.219 171.982 271.228 186.08 106.376 312.901 191.276 102.629 334.362 209.633 111.331 342.319 222.214 140.17 275.999 239.385 184.806 3.51052 10.2539 15.876 
170.665 157.44 170.737 178.751 176.357 177.765 157.361 165.251 171.015 177.658 238.631 211.507 154.801 295.617 199.076 109.811 337.522 204.476 113.377 345.059 212.131 118.654 332.597 223.629 140.137 291.531 245.224 190.253 18.4159 8.68766 16.8783 
140.448 163.343 177.397 176.266 174.339 170.998 162.485 166.689 179.43 179.253 275.473 211.139 152.67 315.573 209.874 108.886 349.648 211.838 122.289 328.393 205.047 125.977 335.725 227.098 148.534 295.118 247.156 192.121 15.0535 29.0126 13.0021 
140.902 170.288 179.028 174.749 174.479 165.567 167.348 165.414 178.196 179.022 294.929 212.764 156.825 334.459 216.034 115.153 357.512 214.227 130.885 321.846 203.783 126.695 334.669 230.098 152.378 297.695 248.515 193.868 18.8636 40.3625 7.39164 
157.95 177.171 179.37 174.6 178.109 164.538 174.286 167.865 178.141 177.63 309.038 211.505 160.881 351.81 220.802 125.395 363.971 219.586 135.642 328.912 205.12 129.142 325.983 229.266 144.949 299.524 249.959 194.784 22.6169 39.9575 4.25102 
166.167 178.571 179.616 174.681 178.931 165.643 176.836 168.595 178.167 175.682 314.051 209.39 159.338 360.166 225.227 132.375 368.252 225.147 138.214 338.87 208.546 131.395 322.645 229.485 141.366 300.655 250.913 195.106 26.9462 36.2495 8.60373 
168.396 176.903 179.58 174.775 178.892 166.776 176.787 171.18 178.194 174.642 313.972 208.513 154.667 362.427 230.551 135.384 371.748 230.208 138.052 348.568 215.565 134.258 320.41 229.301 141.37 301.44 251.693 195.32 29.7589 30.439 10.8158 
165.933 174.27 179.402 174.929 178.324 164.654 177.994 173.414 178.325 173.315 307.582 210.989 151.322 365.974 236.914 145.503 374.823 230.99 138.829 355.59 221.782 137.009 306.954 226.649 145.111 301.63 252.995 195.841 38.9334 25.4383 18.7266 
162.608 169.195 179.743 179.46 178.221 161.399 163.822 177.449 163.895 173.246 296.571 223.786 149.223 355.024 234.808 128.053 373.471 233.529 135.286 350.189 215.579 138.122 297.478 226.666 143.049 300.033 253.776 195.457 41.7309 26.3269 7.93754 
160.056 170.061 177.622 178.018 178.159 157.454 168.503 177.545 152.492 173.546 296.669 221.636 150.473 352.036 241.788 115.459 375.693 235.456 134.308 350.693 215.544 141.012 298.132 226.468 145.287 300.332 253.875 194.831 42.8715 26.9192 5.88459 
161.295 171.231 179.625 177.297 177.92 157.126 169.144 177.385 142.517 173.385 296.373 220.969 149.02 351.505 242.341 112.276 378.165 236.385 134.402 352.577 214.769 146.28 300.144 228.679 147.506 301.314 254.463 194.358 46.235 27.4546 9.04712 
161.786 171.149 179.01 176.671 177.711 160.412 169.151 175.914 134.456 172.654 296.831 223.65 146.362 352.298 240.475 111.265 380.008 237.474 134.654 353.523 212.635 152.522 300.969 233.406 147.141 301.608 254.854 193.637 51.815 30.3471 9.70646 
166.315 171.606 174.944 176.455 177.544 161.131 168.967 173.134 127.022 171.895 297.43 227.484 143.968 351.087 239.777 108.685 379.841 238.202 133.463 354.095 211.46 158.22 298.256 234.896 143.855 301.453 255.202 192.304 57.2264 32.5441 10.4837 
170.058 171.504 172.115 176.314 177.484 159.5 168.312 170.828 124.311 171.611 301.778 230.585 145.589 352.046 238.918 108.807 379.102 238.138 133.243 356.525 211.962 162.665 297.139 236.534 141.221 301.31 255.685 191.643 61.7882 32.2169 8.98073 
172.605 172.631 169.888 175.621 177.451 163.555 170.196 168.475 124.105 171.507 300.572 229.602 141.825 353.205 238.365 107.11 377.92 236.392 131.992 352.324 209.105 160.874 292.277 232.174 138.428 300.663 255.318 189.435 59.4593 34.3861 7.65012 
172.323 173.541 171.529 174.765 177.486 161.908 170.407 169.284 128.349 171.914 304.612 227.188 142.668 356.103 238.441 107.791 378.773 236.979 131.469 353.873 209.759 156.774 293.077 230.602 136.464 301.35 256.062 188.492 57.0124 33.3002 5.65592 
168.157 173.568 170.381 175.094 177.494 160.048 170.376 167.271 130.438 172.07 304.796 224.088 142.776 354.84 238.039 106.438 376.719 235.267 130.378 352.925 208.859 153.91 292.817 229.805 133.294 300.973 255.812 186.45 56.2859 32.3982 5.53946 
167.718 172.397 168.958 175.585 177.462 161.319 168.986 164.583 128.765 171.757 304.858 222.685 139.242 354.605 238.269 106.633 376.079 235.218 129.691 349.121 206.904 151.636 291.624 228.3 132.624 301.006 255.23 184.169 54.9256 35.2862 4.89471 
166.941 172.978 167.784 175.953 177.442 161.379 169.178 162.165 129.329 171.234 304.649 221.671 137.817 353.378 238.871 105.827 374.615 233.644 128.502 345.501 205.005 148.35 288.792 226.929 130.916 300.761 254.741 181.852 53.6711 36.787 4.89978 
167.497 168.71 169.963 179.396 178.916 161.866 166.346 159.419 123.007 174.139 300.653 221.753 133.129 350.736 240.808 105.098 372.671 233.526 124.98 346.713 212.608 144.615 308.477 227.037 129.516 302.392 254.961 180.414 44.6025 31.4421 7.29895 
169.278 166.017 169.779 174.27 174.27 163.122 160.754 157.423 125.83 155.103 297.378 223.654 128.918 348.174 240.687 104.655 370.335 233.551 122.911 358.488 222.578 143.797 353.432 221.252 165.899 303.537 255.948 181.233 5.53425 15.1177 8.33994 
169.179 164.071 170.562 175.803 174.27 163.54 159.075 157.036 147.01 128.61 293.059 225.848 124.534 344.789 241.236 102.234 367.601 233.374 120.228 369.635 227.902 146.929 362.542 224.301 176.559 302.462 255.801 179.567 5.5645 4.43906 8.56204 
170.227 164.31 172.835 173.274 178.034 164.174 157.952 162.917 162.003 144.135 289.158 228.949 119.094 340.306 239.492 98.236 363.905 232.228 114.526 364.09 226.194 139.525 363.576 220.377 176.581 301.311 255.529 176.747 14.6617 2.91097 7.93524 
170.231 160.537 180 174.27 174.27 162.478 152.274 165.127 154.693 122.236 289.409 229.401 116.73 338.674 237.575 99.0269 361.954 232.319 111.147 361.076 222.95 139.418 353.529 217.37 172.745 300.537 254.777 174.611 9.734 6.49433 6.22179 
170.195 154.93 180 168.127 174.27 161.684 145.557 161.862 146.792 112.097 289.184 230.934 114.853 336.441 236.401 100.182 361.879 233.205 109.708 359.768 221.89 139.157 350.866 217.675 170.727 300.375 254.819 173.205 7.35352 8.34338 8.40113 
170.044 151.855 180 160.746 174.27 160.905 143.596 159.846 142.801 110.229 289.066 230.497 113.95 335.651 236.541 99.8815 360.706 233.699 108.438 357.553 219.934 138.118 348.594 216.102 168.872 299.528 254.477 171.716 7.03516 10.4116 8.54724 
170.047 149.974 173.272 158.547 174.27 160.448 142.524 162.277 136.688 109.582 288.834 229.777 113.328 335.101 236.228 99.32 360.988 234.708 107.066 354.724 218.404 137.106 347.689 214.463 167.045 299.038 254.284 170.081 6.82471 13.4 9.91519 
169.997 149.184 158.517 170.711 165.018 160.457 140.628 160.956 131.943 104.842 287.724 230.62 111.565 334.398 236.183 98.873 360.562 234.605 106.893 353.143 217.64 136.159 346.44 214.188 165.726 298.371 254.208 168.397 6.20817 14.1474 10.4771 
169.86 148.956 150.809 174.27 135.437 160.443 141.224 155.378 124.954 99.9893 286.442 231.43 109.184 335.042 237.084 97.7452 358.825 233.678 107.111 350.204 216.645 135.442 343.439 215.069 164.629 297.331 253.934 166.55 4.50955 14.7759 8.30453 
169.157 153.28 150.157 174.27 122.192 159.347 140.658 149.303 122.481 102.631 285.305 231.535 107.692 334.126 237.666 96.1096 356.612 233.39 105.534 346.791 215.681 132.309 342.663 216.33 161.298 296.597 254.273 164.987 3.55189 15.6816 7.38078 
168.55 156.85 152.774 174.27 121.464 158.849 141.31 145.005 122.706 106.905 284.83 231.838 105.641 333.432 238.641 93.7605 354.344 233.616 103.156 343.846 214.753 128.879 342.463 216.586 157.887 295.284 254.262 163.055 6.53228 16.6297 6.1267 
168.038 159.851 154.408 174.27 130.282 158.933 142.171 141.65 123.377 113.106 282.615 232.488 103.015 332.247 239.612 91.4041 352.566 234.041 101.519 343.951 215.767 126.216 344.947 216.464 155.831 293.488 253.849 161.046 10.5023 14.5121 5.78068 
167.645 161.682 156.129 174.27 132.427 158.843 144.067 140.046 123.89 113.404 279.947 232.591 101.139 331.387 241.009 89.4269 351.22 234.869 100.434 343.837 216.078 125.559 343.523 215.834 154.963 291.14 253.322 159.304 9.92223 13.9248 5.32641 
166.734 161.708 158.359 174.27 139.515 158.239 145.006 140.103 125.128 113.671 277.373 232.518 99.7053 330.596 242.844 87.9989 350.615 236.511 99.7289 342.08 215.422 124.493 341.053 214.465 153.896 288.238 252.991 157.78 9.28412 15.8438 5.17359 
166.16 163.473 159.756 174.27 136.969 157.951 146.029 139.554 127.807 119.015 275.429 233.031 97.9435 328.65 244.383 85.8824 347.936 237.453 97.5807 339.366 215.608 120.945 339.058 214.33 151.251 285.699 252.967 156.284 9.95808 16.019 4.33802 
165.124 166.087 159.649 167.686 153.497 158.03 147.265 139.986 130.351 121.895 270.169 234.683 95.3186 325.133 247.79 83.7329 344.175 239.861 96.2648 336.974 218.341 117.583 333.44 213.539 147.669 280.52 254.008 154.459 6.71138 14.7298 3.70377 
165.631 169.584 160.204 162.499 156.631 159.257 149.691 140.816 130.73 124.761 265.295 234.992 93.5995 321.351 246.75 82.292 340.754 238.916 95.4632 335.533 219.359 117.76 331.768 214.015 147.62 277.554 254.844 153.901 6.71569 12.8545 4.09263 
166.166 169.342 160.003 158.372 154.812 160.133 149.819 144.295 131.743 127.382 259.655 234.409 91.3243 314.525 245.201 79.5294 334.582 238.504 93.075 331.186 221.071 116.774 327.864 216.025 146.903 271.621 256.322 152.167 7.17271 11.0819 4.74875 
165.925 169.144 160.667 159.187 153.683 159.831 149.778 146.801 132.012 128.709 257.242 233.334 90.6396 310.993 244.517 78.2414 330.765 238.31 91.4672 327.374 221.498 115.609 324.88 217.247 145.842 268.232 256.934 151.206 7.29024 10.8016 4.49753 
165.4 167.439 164.947 159.763 153.588 159.234 150.104 146.236 136.229 131.188 250.699 233.362 90.0797 303.598 243.538 76.0833 322.043 236.326 89.5251 324.474 224.759 115.779 320.917 220.944 147.215 260.952 258.858 149.243 8.50924 6.78774 3.39287 
164.967 167.131 164.561 160.072 155.417 159.116 150.174 144.659 136.697 131.757 246.094 235.079 89.7554 299.226 243.508 75.4473 316.528 235.716 88.8234 321.114 225.945 115.819 317.554 222.016 147.835 256.871 260.14 148.645 9.29221 6.64194 2.60502 
164.32 166.739 163.381 160.571 156.69 159.263 150.914 144.093 137.848 133.574 240.538 235.786 89.149 293.978 243.523 73.796 310.718 235.23 87.2194 317.372 226.913 115.072 313.771 222.597 147.47 252.595 261.432 147.799 9.74278 7.29713 2.49714 
163.918 166.154 162.599 160.764 157.086 159.503 151.353 143.125 138.016 133.974 235.893 236.626 88.2904 289.033 244.859 71.8369 304.697 235.583 85.3497 312.426 227.877 113.648 308.938 223.1 146.078 248.258 262.839 146.8 9.84687 7.80442 2.85968 
162.008 167.126 162.184 162.84 158.927 159.273 153.02 144.196 139.332 134.632 230.355 237.678 87.8149 283.966 245.966 69.0142 298.869 235.683 82.9432 305.946 226.794 111.165 302.655 221.787 144.016 243.809 264.024 145.587 10.1899 7.80229 3.83743 
161.938 167.096 164.159 163.767 153.188 159.052 154.334 148.598 141.729 131.353 225.635 237.909 87.397 278.576 246.631 65.6372 294.169 236.046 79.5331 298.374 224.812 107.092 293.66 220.326 140.395 239.135 264.757 143.884 9.70293 7.91645 4.12969 
164.533 167.845 162.198 158.674 150.316 160.157 156.127 152.786 146.505 131.084 213.976 238.734 85.5634 264.498 244.636 59.3866 281.689 234.25 73.8789 284.891 222.635 101.335 281.687 221.194 133.948 229.605 266.003 140.318 7.44306 8.54888 4.84724 
165.619 165.664 160.35 158.3 149.778 161.022 154.037 152.095 145.284 130.125 208.585 238.994 84.4284 255.969 242.545 57.7003 273.657 232.455 72.0723 276.147 221.026 99.0356 275.651 222.477 129.897 224.545 266.592 138.504 5.20686 8.78337 4.86163 
166.411 165.267 159.014 155.901 149.749 161.695 152.711 151.955 146.556 131.406 203.696 238.836 83.1344 247.135 240.355 56.3366 265.722 231.07 70.4375 268.924 221.125 96.3811 269.69 223.776 125.949 218.882 266.907 136.653 4.30736 7.41584 4.69663 
166.759 165.264 159.377 155.907 151.957 162.462 152.353 151.75 148.123 135.576 197.695 238.526 81.4724 237.816 237.58 54.4919 257.179 228.621 68.7943 261.914 220.635 93.3893 265.102 224.284 121.89 213.116 267.124 134.539 5.51059 5.47307 5.08948 
163.364 165.252 156.556 154.686 157.744 160.061 153.087 153.676 149.433 140.881 189.967 234.087 83.341 227.317 235.898 52.4198 245.269 225.512 65.4036 251.851 218.896 90.4708 258.079 222.327 118.801 206.161 267.119 132.478 6.89289 5.05867 4.65982 
164.234 165.468 155.972 156.779 160.801 159.811 153.498 153.845 148.778 142.992 181.447 231.275 82.527 217.061 233.719 49.9339 233.981 221.45 62.7292 240.764 215.463 87.5867 248.277 219.423 115.569 199.06 266.442 129.857 6.5165 5.0529 5.79163 
166.246 165.846 158.824 161.722 160.559 160.509 153.598 153.506 148.432 143.349 173.69 231.34 80.6248 207.657 232.382 47.7822 223.718 218.408 60.7242 231.134 212.958 84.8388 240.071 217.79 112.226 192.774 266.28 127.648 6.61831 4.61005 7.10099 
167.218 165.061 162.716 163.049 160.093 161.264 152.951 152.043 147.404 141.635 165.464 231.329 78.5745 198.278 230.527 46.1384 213.583 215.609 58.9034 221.77 210.707 82.1473 231.415 216.248 109.259 186.658 265.967 125.462 6.12845 4.07047 7.82353 
168.269 164.417 163.503 162.681 159.21 162.257 152.542 149.935 146.706 140.156 157.228 230.98 76.316 189.353 228.278 44.5949 203.645 212.7 57.812 213.165 208.596 79.7499 223.395 214.961 106.491 180.4 265.333 123.222 5.6397 3.13263 8.93834 
169.39 163.861 162.286 162.088 158.353 163.121 151.911 148.537 146.42 138.72 149.66 229.76 73.9714 180.736 225.542 43.0126 194.587 210.204 55.8448 205.288 206.752 76.8498 215.409 213.559 103.628 174.077 264.208 120.671 4.65971 2.47694 9.03886 
170.617 163.397 161.59 161.383 158.027 164.386 151.048 145.775 143.838 136.102 138.377 231.543 69.2873 167.568 223.473 40.2945 179.627 208.144 53.949 191.805 205.594 74.0168 202.792 213.557 98.8955 164.149 264.629 116.455 3.85881 2.06768 10.6246 
170.982 163.139 161.679 161.47 157.648 164.848 150.993 145.698 143.704 134.984 133.104 230.82 66.7826 161.107 222.376 38.3794 172.843 207.184 51.9603 185.479 204.843 71.8913 196.029 212.955 96.885 159.133 264.507 113.852 2.68496 2.11066 10.8319 
170.614 161.572 160.512 160.414 156.072 164.78 149.737 144.606 142.863 132.64 122.969 227.697 61.852 147.869 219.923 34.2072 159.401 205.148 47.9036 172.869 203.1 66.9608 182.331 211.298 91.9182 148.496 263.276 108.181 0.634856 1.76889 11.0642 
169.691 160.65 159.575 159.255 155.416 164.572 149.249 145.665 144.256 132.792 111.424 224.863 57.7212 135.286 217.459 30.4269 147.966 203.853 42.8628 162.394 202.404 61.2796 171.174 211.189 86.1637 137.672 262.283 103.433 0.448481 1.56571 9.81919 
169.55 160.009 159.273 158.801 155.437 164.594 148.202 146.009 144.647 132.566 105.038 223.442 55.8056 128.44 216.468 28.5473 142.308 203.398 39.7319 157.368 202.099 57.9428 166.122 210.959 83.1371 131.486 261.493 101.005 0.547621 1.76003 8.74135 
169.685 158.92 158.975 158.407 155.245 164.959 146.466 145.82 144.584 132.204 98.7803 222.531 53.4941 121.645 215.321 27.079 136.238 202.791 36.8022 151.71 201.671 54.6533 160.396 210.527 79.8196 125.727 260.903 98.2668 0.799945 1.76449 7.59388 
