167.933 141.1 163.469 165.035 166.144 161.767 125.9 155.69 157.657 151.635 171.237 133.236 -23.5545 196.768 132.024 -41.707 227.858 139.728 -61.0056 247.937 138.257 -42.68 253.541 132.949 -13.0681 198.918 159.624 26.4155 2.50248 7.51886 24.5764 
167.55 136.907 163.835 165.405 166.606 161.083 127.709 156.024 157.935 152.036 170.301 133.85 -24.3286 196.011 133.464 -43.6381 226.635 140.323 -61.7878 246.363 138.507 -43.3453 251.631 133.142 -13.7818 197.163 159.788 25.6849 2.30224 7.34985 23.1827 
167.422 133.292 164.166 165.555 167.248 160.881 129.611 156.774 158.49 152.253 168.439 133.772 -25.2687 194.466 134.454 -45.6523 225.268 141.127 -62.9899 244.659 138.945 -44.305 248.925 132.945 -14.6021 194.956 159.825 24.6967 1.79212 7.16143 22.5792 
167.249 133.627 164.53 165.823 164.723 160.791 132.257 157.324 159.362 152.961 166.193 133.693 -26.3909 191.818 134.811 -48.1812 222.908 141.485 -64.3372 242.503 139.258 -45.5962 246.657 133.015 -15.8055 192.301 159.642 23.6229 1.89773 7.45924 22.048 
167.084 133.954 164.907 166.213 164.339 160.774 134.517 157.698 159.737 153.679 163.414 133.675 -27.5594 189.568 135.445 -50.8015 220.457 141.643 -65.6078 239.953 139.27 -46.83 244.443 133.153 -16.9764 189.44 159.524 22.4898 2.29946 7.44427 20.916 
167.336 135.636 165.314 166.522 164.142 161.201 136.675 158.241 160.342 154.891 160.023 133.225 -29.5662 187.026 135.439 -53.6249 217.981 141.448 -67.1408 237.43 139.123 -48.1205 242.258 133.086 -18.1301 185.898 158.972 20.9432 2.9943 7.56922 20.1152 
167.811 140.833 165.252 166.505 163.951 161.794 140.118 158.465 160.524 154.852 155.498 131.623 -32.0514 184.745 135.472 -57.5942 215.259 141.286 -68.458 234.335 138.849 -48.9517 238.855 132.713 -18.666 181.096 157.788 19.152 3.30072 7.43048 18.3808 
168.216 147.466 164.797 166.067 163.372 162.247 144.262 158.319 160.44 155.171 149.844 129.678 -34.2688 181.85 135.74 -62.1032 211.619 140.63 -69.5011 230.491 138.235 -49.4722 235.349 132.408 -18.8436 175.36 156.23 17.3364 4.27988 7.44118 15.8093 
168.683 152.568 164.466 165.691 162.732 162.576 148.674 158.081 160.231 155.22 143.883 127.847 -36.8072 178.986 136.572 -67.2353 207.58 139.612 -70.9058 226.114 137.309 -50.4216 231.074 131.832 -19.4132 169.26 154.776 15.1912 5.03212 7.36485 12.4961 
168.347 155.45 163.346 164.685 161.855 162.215 150.107 157.107 159.46 155.184 137.328 125.761 -38.6004 173.93 136.504 -70.7899 202.061 138.093 -71.8629 220.613 136.373 -51.0698 226.32 131.796 -19.6467 162.354 153.515 13.2626 6.3272 7.59074 10.4862 
168.332 156.822 162.184 163.502 162.111 162.105 151.521 156.067 158.413 154.998 129.124 123.647 -40.6838 168.014 136.763 -74.5508 195.625 136.28 -73.2657 214.093 134.659 -52.0988 220.234 130.766 -20.3404 154.677 152.235 11.0186 7.26826 7.63914 8.45385 
168.346 157.501 161.229 162.819 162.427 162.015 151.773 155.213 157.722 155.131 119.794 121.317 -42.8654 160.763 136.223 -77.6545 188.261 134.619 -74.9881 206.899 133.274 -53.4205 213.312 129.76 -21.2004 146.18 151.066 8.64746 8.06046 7.90808 7.59251 
167.979 156.629 160.475 162.578 162.306 161.63 151.809 155.541 158.365 156.899 109.241 117.298 -45.2781 151.206 134.376 -81.5551 180.215 132.63 -78.009 199.396 131.926 -55.9419 206.115 128.473 -22.8046 136.607 149.49 5.20477 9.15616 8.52041 8.47398 
167.3 154.924 158.691 160.577 162.051 160.82 151.034 154.114 157.081 157.059 98.2413 113.896 -48.2076 141.296 133.871 -86.1159 170.834 130.648 -81.328 190.265 129.813 -58.902 197.234 126.592 -25.4706 126.356 148.175 1.2339 9.7913 8.73955 8.49485 
166.274 155.039 156.756 159.011 160.225 159.994 149.514 152.175 155.757 156.134 86.2178 110.308 -52.2114 129.255 131.728 -90.8527 159.086 128.224 -85.6312 179.34 128.036 -63.0413 186.666 125.144 -29.133 114.353 146.233 -3.68476 10.5506 9.42665 8.64331 
166.022 153.329 153.172 157.475 159.071 159.058 145.262 147.76 151.025 156.136 73.7893 111.583 -58.0233 118.042 133.041 -93.939 145.917 127.194 -88.0177 165.368 125.5 -66.3716 175.023 124.795 -32.8411 102.246 146.25 -8.04331 12.6418 8.45857 7.19801 
166.129 156.588 153.276 157.139 161.424 157.933 146.067 145.171 146.882 154.529 61.6203 112.883 -63.5323 105.602 132.915 -98.1411 131.071 125.461 -91.4584 148.381 122.664 -71.1193 160.219 123.999 -38.6154 88.809 146.482 -12.9521 13.9021 6.25718 5.65395 
166.414 159.166 155.612 157.475 157.322 157.008 146.867 145.799 144.653 143.728 47.1243 114.709 -68.5397 90.2952 131.848 -101.871 114.437 123.734 -95.9214 129.254 118.928 -76.0803 138.262 119.173 -45.5933 73.5101 146.111 -17.5077 9.38363 3.83219 4.4559 
166.589 161.515 158.254 158.375 157.535 156.355 147.212 148.052 143.929 136.172 29.7482 115.069 -72.1174 71.7115 129.628 -104.927 95.7474 121.724 -100.675 108.023 114.601 -81.0422 113.675 114.534 -52.6119 56.1446 144.916 -21.4998 3.906 2.63823 3.61826 
169.817 164.931 162.492 160.033 161.497 158.218 150.338 151.418 144.887 136.168 8.30151 117.294 -75.7856 51.0797 128.06 -108.39 74.7595 120.491 -105.476 85.0898 111.061 -85.8814 89.5564 110.985 -58.9818 37.2063 143.849 -24.5179 0.75295 4.45368 2.84818 
174.281 173.158 167.301 162.039 163.521 160.271 159.327 156.714 149.316 141.874 -17.1142 122.302 -79.1243 29.09 131.052 -115.005 51.7331 121.271 -112.093 61.8356 110.057 -92.8845 66.8092 108.669 -66.6136 17.603 142.787 -27.4239 0.961532 5.65537 3.67133 
169.497 177.393 171.35 165.085 168.223 153.039 161.967 160.441 154.629 149.754 -60.8667 131.658 -81.8717 -18.7607 134.142 -123.447 2.6584 122.381 -123.901 15.4944 110.953 -107.176 25.3844 107.15 -81.2251 -13.5974 140.036 -33.4363 0.738146 3.59518 3.68545 
166.966 174.021 173.237 169.659 168.457 154.129 164.439 162.891 159.854 154.003 -93.7531 132.322 -78.0035 -55.0254 132.521 -126.316 -32.5494 122.121 -128.672 -16.2444 112.411 -114.122 -1.0372 106.165 -87.4647 -37.077 137.421 -35.5709 3.49267 1.76368 4.07036 
166.428 173.115 173.225 171.632 169.16 154.795 166.686 166.688 165.344 159.864 -124.759 132.178 -73.332 -91.2146 135.83 -127.026 -68.5908 126.78 -131.772 -46.3267 116.901 -119.338 -26.8655 107.962 -93.1211 -61.4867 136.861 -36.5221 6.44646 4.95021 4.26843 
163.729 171.928 172.744 171.503 168.407 154.549 168.865 168.584 167.468 161.657 -151.547 133.99 -68.044 -126.793 140.148 -124.545 -100.735 131.077 -131.698 -75.0734 120.688 -121.586 -52.6664 110.617 -96.2487 -83.2593 137.464 -36.3516 7.7587 7.06478 7.075 
161.092 169.981 171.447 169.881 166.657 154.627 169.02 168.675 166.77 160.221 -177.742 135.181 -60.2623 -159.613 142.949 -118.017 -130.588 134 -127.515 -102.959 123.459 -119.173 -78.4926 113.278 -94.9256 -104.807 138.644 -33.9883 8.26227 8.3 9.35014 
164.32 167.102 168.658 168.586 165.899 156.2 166.883 166.869 164.401 157.276 -204.298 137.821 -51.7179 -190.536 144.959 -110.272 -158.551 135.879 -122.066 -130.105 125.105 -114.948 -104.711 115.292 -91.3326 -127.739 141.312 -30.2547 8.20503 8.65919 11.7913 
165.209 163.85 165.226 165.638 164.61 154.536 162.337 161.825 159.455 153.937 -223.153 139.469 -44.4324 -216.589 145.311 -101.158 -182.993 135.028 -114.775 -154.839 123.959 -108.508 -128.667 115.788 -86.2994 -149.338 143.991 -24.9271 8.05423 8.16165 13.4708 
166.579 162.16 164.394 164.788 163.612 154.784 159.631 159.368 157.158 152.633 -239.927 138.949 -37.8662 -237.877 143.699 -93.699 -202.793 132.694 -109.219 -175.151 121.954 -103.309 -148.51 114.752 -82.1635 -168.778 144.965 -19.9084 7.85 7.39787 14.9824 
165.9 162.818 165.415 165.69 164.274 153.449 158.996 159.073 157.108 152.884 -253.7 137.822 -32.8146 -255.784 141.91 -88.7109 -220.016 130.967 -105.647 -193.399 121.316 -99.9293 -166.819 114.952 -79.7333 -186.068 145.239 -16.0204 6.86223 6.041 15.5443 
164.983 164.015 166.48 166.35 164.818 152.7 159.084 159.514 157.532 153.457 -267.372 137.503 -26.86 -271.13 140.744 -83.7159 -235.909 130.38 -101.782 -210.259 121.439 -96.4439 -183.688 115.861 -77.2424 -202.026 145.684 -11.6432 5.96814 4.83565 15.4274 
162.258 165.917 167.581 167.338 165.844 150.096 159.073 160.259 158.628 154.845 -278.063 136.455 -21.2769 -282.734 138.246 -79.3262 -250.891 129.838 -97.3867 -226.261 122.325 -92.8544 -199.743 118.08 -74.9707 -216.553 146.038 -7.21749 5.10681 3.55859 13.147 
158.801 168.987 168.111 167.453 166.192 145.968 160.551 160.988 158.996 155.764 -290.851 129.56 -9.09823 -294.604 132.844 -69.9919 -274.022 127.471 -85.7701 -250.771 122.61 -83.0294 -224.911 121.411 -68.2055 -239.246 145.242 3.03979 3.89806 1.96162 4.30125 
156.466 170.204 169.53 168.962 166.639 143.907 162.531 162.77 160.983 157.195 -296.216 127.139 -4.33667 -302.918 131.709 -65.3565 -286.312 127.54 -81.1338 -262.994 123.982 -79.5639 -237.26 123.849 -65.7186 -249.637 145.335 7.17404 3.48027 1.78556 1.28483 
151.024 170.832 171.122 169.546 165.404 141.291 162.183 162.734 161.706 157.692 -303.705 121.397 3.12495 -318.428 128.661 -55.9461 -304.975 124.872 -72.1376 -281.787 122.397 -72.6394 -255.101 122.848 -60.7661 -264.887 144.346 13.076 4.19343 1.75287 0.956327 
151.976 168.913 170.367 167.121 164.126 142.822 160.26 160.79 159.643 156.558 -307.159 116.815 6.04405 -326.447 127.397 -49.6209 -313.027 124.184 -67.0435 -290.01 121.318 -67.9359 -262.005 120.874 -57.2321 -271.469 144.9 16.1226 5.58751 1.84155 1.59334 
150.595 168.879 170.953 168.008 164.065 144.582 156.708 159.616 160.746 158.15 -308.904 115.758 9.14378 -331.629 125.727 -43.8147 -318.316 123.381 -62.873 -296.122 120.812 -63.8241 -267.169 119.367 -54.3419 -276.538 145.542 19.4881 7.03109 1.99858 3.88876 
148.577 166.594 169.872 169.135 158.318 147.7 151.957 157.476 161.426 160.72 -311.696 116.228 11.7056 -336.474 126.117 -38.9924 -322.64 123.865 -59.4756 -301.286 120.995 -60.3685 -271.02 118.122 -51.6035 -281.618 146.46 22.5419 9.06305 2.55329 5.86272 
145.497 156.973 170.44 169.212 165.697 149.084 146.797 157.716 160.754 159.91 -314.035 116.782 14.0808 -343.252 130.049 -34.6921 -324.946 125.778 -58.6789 -304.876 121.864 -58.3911 -277.71 117.768 -47.5797 -286.252 147.202 24.7492 6.28069 2.17844 8.17803 
136.925 147.175 169.928 169.071 166.563 151.974 143.967 158.085 160.79 158.697 -317.193 117.198 16.353 -345.51 130.137 -31.8191 -327.062 125.949 -57.2583 -306.863 120.71 -56.5467 -280.245 115.492 -44.3353 -289.629 147.455 26.581 5.74721 1.54341 9.55762 
128.684 144.919 168.888 169.126 165.695 156.544 144.247 157.589 160.558 157.117 -322.211 118.097 18.8225 -346.959 131.259 -31.8411 -328.049 126.282 -56.224 -307.73 120.042 -54.7592 -281.397 113.331 -40.8684 -292.523 147.705 28.1523 5.94865 1.21686 9.18152 
124.011 136.661 168.448 168.263 172.076 157.855 144.457 158.37 159.463 156.927 -325.661 118.962 20.0112 -350.007 134.432 -31.4581 -328.566 127.045 -56.3106 -309.336 120.013 -53.9195 -285.059 112.46 -38.3967 -295.876 148.239 28.875 4.47431 0.496725 9.75438 
125.613 138.55 168.624 166.16 175.35 150.968 147.628 157.637 157.911 148.909 -324.228 116.526 20.7383 -355.124 138.238 -31.1751 -330.19 125.855 -55.5476 -311.691 118.212 -53.0725 -289.366 109.374 -34.5871 -298.586 147.726 29.4603 4.59665 0.535344 11.8999 
131.01 144.472 166.881 166.033 167.725 143.455 151.973 156.404 156.429 146.755 -318.236 114.062 20.2925 -356.622 138.731 -31.3628 -331.592 124.612 -54.3712 -311.883 116.555 -52.0289 -288.392 108.661 -34.4966 -297.71 146.748 29.4655 4.28831 0.448455 12.2894 
133.72 153.716 171.004 166.318 145.855 133.379 148.464 152.028 161.973 121.404 -328.222 119.648 23.685 -347.096 137.683 -37.6234 -327.301 126.388 -55.6728 -307.554 116.632 -51.7678 -289.958 101.503 -21.9148 -295.029 144.985 29.4491 14.6611 1.22978 6.12827 
133.439 157.069 171.458 166.225 143.958 134.812 150.128 152.1 164.5 117.778 -330.116 121.309 23.4422 -345.243 137.605 -38.9807 -325.994 126.136 -56.1579 -305.805 116.171 -52.3407 -289.964 100.89 -20.1058 -294.086 144.668 29.2511 16.8045 1.75062 5.3696 
132.688 163.846 171.646 164.328 142.505 151.109 156.263 156.069 158.738 101.483 -337.165 129.968 21.5299 -338.481 135.115 -43.479 -318.884 122.62 -60.5486 -299.87 113.477 -55.6886 -290.425 98.5043 -12.4866 -287.468 142.959 26.6445 29.3743 1.76539 6.34692 
126.605 163.439 174.075 165.322 135.511 150.812 157.376 156.127 159.104 99.5859 -335.062 130.5 19.528 -335.419 134.991 -45.0128 -318.156 123.472 -61.1544 -302.817 113.899 -53.1821 -292.891 100.662 -9.24868 -286.347 142.77 26.1406 29.7533 2.17853 5.6334 
127.111 163 174.62 164.23 122.833 151.471 158.613 157.072 159.41 101.727 -334.791 131.322 17.7546 -332.506 134.99 -46.6927 -317.361 124.813 -62.0848 -303.048 113.986 -52.5281 -294.252 101.916 -6.46421 -285.123 142.472 25.7148 31.7184 2.34853 6.24738 
127.419 163.663 173.596 162.917 117.207 155.532 160.29 158.89 158.974 112.012 -336.114 133.958 15.3982 -328.869 134.389 -48.5241 -314.167 125.39 -63.4824 -300.794 113.782 -53.3113 -295.046 101.695 -4.61202 -282.335 141.418 24.962 35.3172 2.291 7.93723 
136.134 163.027 173.237 161.614 174.27 161.439 160.836 159.544 158.113 109.285 -339.452 136.317 14.751 -328.149 134.661 -49.0241 -310.619 123.31 -64.4685 -299.873 113.799 -53.3375 -297.469 101.171 -2.12243 -280.824 140.805 24.6237 39.6795 4.78863 8.90892 
138.393 161.512 172.748 159.788 174.27 163.376 160.9 160.051 157.896 104.849 -339.563 137.373 14.7371 -327.477 135.177 -48.9803 -306.239 120.515 -65.1525 -299.102 113.987 -52.6564 -299.783 106.399 3.97294 -279.18 140.278 24.5238 48.1651 8.43061 11.3338 
134.011 161.358 169.459 151.115 174.27 166.731 162.737 160.71 157.567 107.334 -336.602 139.865 14.2299 -325.638 136.181 -48.9857 -300.565 116.742 -65.0278 -298.208 113.901 -49.9849 -304.854 106.583 17.4211 -277.25 139.926 24.7892 63.4612 13.1535 15.0342 
131.068 162.546 168.911 136.826 174.606 166.129 164.232 161.108 160.906 114.386 -334.048 141.327 14.3713 -323.951 136.636 -49.4121 -299.704 116.426 -64.6596 -298.175 115.334 -48.7931 -309.268 105.7 25.562 -276.602 139.811 25.1488 71.4802 14.6113 14.9489 
129.519 164.161 169.886 136.691 176.528 161.659 165.654 161.981 165.668 117.385 -331.402 141.283 14.6986 -321.776 136.469 -50.1829 -299.051 116.417 -64.4042 -299.348 117.155 -47.1875 -311.851 106.698 32.1958 -276.298 139.81 25.6105 76.5293 16.7346 14.1669 
131.082 165.734 171.335 167.522 113.01 156.563 166.967 163.173 175.773 70.3518 -329.996 141.178 15.0656 -319.928 136.08 -51.2549 -298.542 116.401 -64.5019 -300.005 120.794 -47.7791 -291.207 112.648 34.0035 -276.259 139.893 25.9219 88.8861 19.5398 13.203 
142.926 166.513 175.935 174.27 106.096 143.747 169.909 167.03 178.19 85.707 -329.067 141.9 15.827 -317.12 134.555 -53.0292 -297.283 116.098 -64.9917 -309.078 116.661 -46.5481 -299.593 115.161 35.538 -277.012 140.216 26.4719 80.4024 22.2425 12.1335 
146.728 163.713 178.738 174.27 105.549 139.905 170.798 169.439 178.022 89.9382 -329.132 142.584 16.5222 -316.553 134.427 -53.6623 -296.54 115.578 -65.1822 -316.69 116.142 -44.0819 -302.368 116.782 36.0775 -277.471 140.366 26.6914 74.5698 27.5396 12.3711 
149.406 160.92 178.656 174.27 103.708 137.178 170.217 171.255 178.008 91.0973 -329.268 142.638 17.0152 -316.286 134.355 -53.9119 -295.546 114.449 -65.0514 -324.742 114.625 -39.9279 -303.402 117.257 36.5198 -277.838 140.416 27.0975 68.3295 33.8118 12.7673 
152.724 159.011 177.938 174.28 129.714 136.991 167.852 171.682 178.003 102.974 -330.948 140.963 17.8895 -315.325 132.255 -53.895 -293.502 112.773 -64.8637 -329.656 110.884 -35.0424 -306.323 121.576 38.6937 -277.809 140.179 27.5834 65.0967 39.5537 12.4173 
154.24 158.562 178.832 174.297 138.828 136.561 165.989 172.094 178.004 111.002 -331.818 138.414 18.9967 -313.735 129.298 -53.6362 -290.756 111.053 -64.6129 -332.486 106.138 -28.7533 -307.577 122.227 40.1526 -277.345 139.726 28.0997 61.0958 45.3061 12.2572 
155.296 164.54 180 90.0457 142.374 137.131 167.094 170.613 150.712 112.712 -332.154 137.168 19.6451 -310.563 126.234 -53.6124 -289.4 109.942 -64.2027 -319.692 107.261 7.11482 -307.68 121.426 40.9138 -276.049 139.268 29.0573 42.6952 67.35 11.1393 
155.47 168.778 177.285 91.6562 135.089 137.347 167.942 169.021 100.799 108.694 -332.148 136.677 20.743 -308.496 124.282 -53.3981 -289.241 109.02 -63.5011 -309.754 102.638 23.1009 -305.757 119.153 40.1844 -275.347 138.799 29.8447 40.0076 80.3046 10.3488 
154.491 172.21 171.815 131.31 128.121 137.696 168.867 166.374 93.5166 99.4294 -332.586 135.592 23.3114 -307.104 120.85 -51.5193 -289.665 107.346 -61.1509 -310.98 106.298 39.4919 -302.45 114.288 40.5059 -275.21 138.406 31.8638 29.8372 96.6401 10.0138 
153.752 173.67 167.439 144.408 131.881 138.965 168.498 164.199 87.3 93.7263 -333.175 135.664 23.6881 -307.243 118.862 -49.6948 -290.362 106.986 -59.6624 -309.212 109.949 43.3947 -301.046 112.605 40.1731 -275.39 138.555 32.8595 27.6213 101.009 10.8148 
153.783 172.419 164.554 150.072 138.763 140.899 165.844 162.019 78.7907 88.3576 -333.92 136.55 24.487 -308.36 117.686 -46.5954 -291.087 106.423 -57.6522 -306.269 114.779 45.0178 -299.911 111.392 40.9684 -275.208 138.542 34.2345 25.2352 104.154 12.324 
153.584 173.01 163.297 146.841 146.735 142.395 165.45 160.304 74.3466 83.9865 -334.196 137.539 25.9854 -309.409 116.9 -44.2421 -293.321 106.163 -55.4162 -304.628 118.904 45.9352 -299.102 110.945 42.2956 -275.037 138.484 35.4646 23.0734 105.5 12.5845 
152.251 173.664 163.501 148.307 155.005 142.937 165.757 159.666 73.6329 80.7529 -334.09 138.368 28.224 -309.994 116.454 -42.5491 -294.941 105.884 -53.4195 -303.907 121.655 48.8141 -298.826 111.305 44.4197 -274.848 138.368 36.7255 23.2912 108.212 12.6225 
149.92 174.553 164.506 150.899 154.46 142.287 166.527 159.455 74.6205 76.7705 -333.275 137.956 30.3668 -309.584 116.064 -41.5108 -295.999 105.41 -51.6232 -304.157 123.711 51.7894 -298.288 111.398 46.7562 -274.796 138.27 37.9151 23.1126 110.313 12.2577 
148.9 174.477 164.684 152.239 153.711 141.643 166.535 158.762 74.9563 73.9233 -332.527 136.938 32.4885 -309.761 116.086 -40.0155 -297.252 105.582 -49.6976 -304.626 124.864 53.4835 -297.695 111.406 49.2652 -274.864 138.346 39.1795 21.1366 110.319 12.1167 
149.16 173.606 164.843 154.015 145.897 142.41 165.523 157.711 75.511 71.1571 -333.586 137.438 34.9653 -311.28 117.823 -37.7365 -299.674 107.248 -46.802 -308.481 126.874 54.3824 -299.714 112.766 51.1437 -276.248 139.175 41.4209 19.692 107.168 12.3876 
149.536 173.148 165.457 152.005 140.427 142.318 165.273 157.784 75.5576 71.622 -334.012 138.311 36.6593 -312.691 119.524 -36.7718 -301.777 108.504 -45.3893 -311.007 127.52 54.4025 -301.928 114.16 52.2223 -277.142 139.641 42.5214 18.9242 104.632 12.2708 
149.181 173.738 166.012 150.621 139.838 142.05 166.063 158.526 76.4845 73.6888 -334.086 138.681 38.6463 -312.846 120.593 -36.718 -303.319 108.894 -44.3118 -312.633 128.74 55.9373 -304.231 115.772 54.6278 -277.813 139.924 43.5321 17.8533 104.729 11.2995 
150.864 173.067 165.345 149.517 137.976 142.473 165.255 157.943 74.9651 75.5935 -334.34 138.048 39.7534 -313.985 121.717 -35.7896 -305.125 109.391 -42.7348 -313.804 128.904 55.1639 -306.061 116.641 55.428 -278.418 140.186 44.4026 16.8067 101.967 10.6896 
151.166 172.667 166.094 148.641 141.027 142.844 164.818 159.144 76.178 80.5179 -335.101 138.037 43.6608 -316.57 123.527 -33.567 -308.066 109.174 -39.9962 -315.262 128.404 57.2742 -308.211 117.037 57.9869 -278.915 140.505 46.2241 16.3555 100.254 9.16901 
152.439 172.13 165.938 148.494 146.439 144.308 164.958 159.921 75.9445 83.613 -335.613 138.717 46.1234 -317.881 123.392 -31.7858 -310.267 108.926 -38.48 -315.07 129.864 56.8933 -308.707 117.181 59.9283 -278.434 140.555 47.2521 12.666 97.8608 8.73012 
153.046 171.913 166.134 149.145 150.108 145.289 164.905 161.058 75.5629 85.2397 -335.166 139.584 48.6845 -318.913 123.659 -29.709 -311.479 109.091 -37.1103 -313.796 130.423 57.7053 -308.155 116.807 61.2668 -277.217 140.374 48.4675 11.6701 96.7678 8.80313 
152.954 171.851 165.362 146.924 153.19 146.284 164.205 160.978 71.8207 86.1221 -334.64 139.724 50.8237 -320.212 124.037 -27.3878 -312.89 109.407 -35.1341 -311.052 130.387 56.6628 -306.646 115.976 62.5933 -276.135 140.172 49.5369 8.92218 94.1358 8.57777 
152.837 172.486 164.904 148.542 153.156 147.259 164.23 161.207 67.9713 85.0805 -334.493 139.828 52.7583 -321.838 124.279 -25.0823 -315.061 109.254 -32.6995 -308.307 128.67 56.9954 -303.937 114.254 64.9069 -275.447 140.08 50.4304 6.00936 92.4333 7.61465 
151.913 173.608 166.492 151.466 152.876 148.617 163.913 161.905 67.1611 84.4452 -334.495 140.747 54.8661 -324.109 125.058 -22.3223 -317.183 109.492 -30.3039 -306.504 127.214 58.8347 -301.075 112.775 67.0676 -274.729 139.987 51.4121 4.60708 91.8653 7.00117 
151.632 173.751 168.237 150.287 152.623 150.341 162.918 161.977 66.7784 85.9731 -334.863 142.47 57.2123 -326.936 126.246 -19.0968 -319.394 109.935 -27.7116 -305.817 125.994 59.4102 -300.026 111.264 68.3523 -274.275 140.086 52.4122 3.09427 89.3702 6.72011 
152.612 174.39 172.344 159.322 147.428 153.584 162.375 161.588 63.3197 82.3065 -334.736 145.562 58.5295 -330.553 128.459 -15.3422 -322.482 111.215 -23.8401 -301.48 125.338 63.1737 -297.357 108.717 66.7371 -274.198 140.403 53.4751 11.3892 93.6106 5.63137 
153.96 174.85 175.603 164.172 136.566 153.242 161.596 158.584 60.6457 70.0766 -333.475 144.558 63.526 -339.192 134.532 -7.11217 -329.299 114.373 -16.0033 -295.564 126.193 68.5245 -292.266 109.857 62.7121 -275.283 141.351 55.4744 24.3148 101.076 4.39746 
152.472 175.219 175.66 165.043 137.081 153.506 161.045 157.512 59.0278 65.1997 -332.667 142.839 65.6031 -344.131 138.009 -2.40751 -333.188 116.337 -12.1052 -294.005 127.616 69.4505 -291.582 111.341 59.1608 -276.501 142.281 56.5871 31.8367 103.031 5.03529 
151.222 174.659 173.975 165.291 131.574 153.793 160.635 156.39 58.6669 61.9247 -331.568 140.989 66.6014 -348.352 141.17 2.0079 -336.393 118.067 -8.76613 -294.033 129.209 69.9528 -292.364 110.77 53.4677 -277.551 143.176 57.6445 43.0527 102.963 6.47771 
147.72 175.092 171.278 134.393 90.0456 155.324 159.08 157.477 54.9648 145.355 -331.563 138.946 69.2827 -352.157 142.761 6.67104 -339.385 119.716 -5.70456 -293.995 129.172 67.0045 -299.998 98.5987 23.8694 -278.445 143.954 58.3796 87.1336 99.1293 7.34802 
143.488 175.667 162.924 119.366 141.409 157.82 157.537 159.447 53.0694 164.409 -330.834 136.882 71.9307 -354.482 143.773 10.3676 -341.25 120.781 -3.14479 -294.555 128.372 64.1058 -298.156 94.701 8.80729 -278.892 144.474 58.9595 96.903 93.7708 8.09326 
135.807 169.792 158.82 120.396 155.32 160.151 156.668 154.284 51.2857 163.58 -330.12 134.336 76.2791 -357.342 145.514 15.1842 -344.994 122.127 1.15604 -293.291 126.673 63.4776 -296.318 95.4846 1.18942 -279.098 145.152 59.7861 100.954 90.0061 8.70202 
131.628 166.223 157.444 112.815 156.281 161.983 156.277 151.897 48.5353 159.889 -328.405 131.556 78.8205 -358.67 145.727 19.1969 -347.435 122.871 4.47919 -293.794 124.789 59.7007 -295.204 95.9797 -1.54768 -278.568 145.427 60.3646 93.4894 79.9828 8.53084 
128.339 163.185 156.581 112.31 159.699 163.158 155.644 150.451 48.944 157.651 -324.988 126.852 79.9447 -359.375 145.458 23.0718 -348.978 123.189 7.62636 -293.147 123.898 59.1442 -294.478 96.6393 -2.68228 -277.637 145.611 60.8026 90.7073 76.0729 8.38501 
