171.798 158.741 158.157 156.148 155.238 160.822 136.953 142.502 139.807 134.244 254.292 203.463 0.0527592 263.921 166.933 -36.801 274.203 140.643 -38.6958 269.917 120.49 -22.4821 265.083 108.417 3.7297 261.869 165.973 46.9191 3.79246 4.7958 7.19692 
171.987 159.147 158.413 156.638 155.837 160.874 136.851 142.076 139.377 133.97 254.151 203.432 -0.523117 263.73 167.423 -37.0719 273.642 141.136 -38.9132 269.319 121.086 -22.745 264.904 109.086 3.37572 261.834 166.475 46.5935 3.57724 4.76911 6.95294 
172.331 159.976 158.84 157.042 156.476 160.976 137.451 142.442 140.14 135.234 254.081 203.82 -1.02595 263.166 167.696 -37.5063 272.819 141.595 -39.3448 269.05 121.841 -23.3699 265.274 109.727 2.62614 261.629 166.976 46.278 3.36744 4.29004 6.66465 
172.561 160.517 159.256 157.065 156.776 161.025 137.853 143.2 141.415 137.051 254.084 204.672 -1.296 261.878 167.859 -37.8382 272.029 142.215 -39.9588 269.288 122.605 -24.134 266.004 110.286 1.81299 261.14 167.551 45.8853 3.41406 3.72768 6.74535 
172.897 161.015 159.527 157.486 157.449 161.205 138.458 143.951 142.624 138.635 254.238 205.701 -1.56932 261.341 168.46 -38.4352 271.621 142.974 -40.6434 269.393 123.487 -25.0305 266.33 111.055 0.839808 260.559 168.137 45.4266 3.40771 3.38417 6.73646 
172.969 160.688 159.545 157.959 157.831 161.274 138.058 143.817 142.674 138.66 253.967 206.221 -2.29307 261.23 169.627 -38.936 271.71 144.18 -41.3328 269.55 124.514 -25.8489 266.413 112.065 -0.0704789 260.026 168.86 44.7845 3.31719 3.40624 6.84362 
172.899 160.709 159.907 158.662 158.148 161.318 137.756 144.063 143.048 138.393 252.673 206.245 -3.26443 260.262 170.468 -39.2781 271.426 145.064 -41.892 269.481 125.3 -26.3821 266.124 113.15 -0.491213 259.425 169.702 44.2363 3.02796 3.4471 7.26156 
173.204 161.244 160.241 158.956 158.313 161.186 138.528 144.707 144.087 139.488 251.129 206.486 -4.06087 258.681 170.71 -40.1715 269.98 145.652 -42.7818 268.683 126.202 -27.4231 265.532 114.078 -1.53798 258.171 170.331 43.4381 2.92 3.06774 7.13953 
174.176 162.002 160.763 159.778 159.065 161.986 139.839 145.763 145.296 140.718 250.173 207.969 -4.98072 257.76 171.478 -41.5993 268.949 146.364 -44.0263 267.716 126.973 -28.7133 264.615 114.966 -2.87629 256.718 170.967 42.4382 2.72534 2.99031 6.95734 
174.402 162.641 161.434 160.467 159.542 162.071 140.876 146.554 146.145 141.17 247.69 208.419 -6.27955 255.826 171.815 -42.8542 267.141 146.89 -45.1331 265.999 127.613 -29.7377 262.725 115.902 -3.80646 254.829 171.809 41.4355 2.42703 2.95149 6.81559 
174.723 162.478 161.663 160.64 159.622 162.36 140.948 146.982 146.709 141.692 244.771 209.31 -7.74818 253.383 172.528 -43.9975 265.472 147.929 -46.4462 264.653 128.624 -31.0429 261.176 117.071 -5.15059 252.684 172.809 40.2383 2.20376 2.94231 7.13199 
175.508 163.327 162.42 161.554 160.529 162.57 142.792 148.207 147.986 143.179 241.269 209.942 -9.39999 250.306 172.574 -45.7379 262.215 148.104 -47.8695 261.62 129.072 -32.3836 258.756 117.907 -6.50533 249.648 173.722 38.9273 1.9316 2.80375 6.65906 
176.141 163.649 162.808 162.295 161.163 162.864 144.302 149.251 149.473 145.058 236.749 210.435 -11.5511 245.978 172.621 -47.6336 258.252 148.713 -49.7194 258.716 129.976 -34.2726 256.661 118.908 -8.28866 245.917 174.911 37.2944 2.10486 2.54752 6.39375 
174.899 165.302 164.334 164.398 163.25 161.453 148.959 152.597 153.382 149.829 222.97 207.995 -16.86 235.873 172.827 -52.8695 248.238 149.483 -54.4935 250.248 131.233 -39.0387 249.691 120.461 -12.7233 236.511 176.784 33.3156 2.4781 2.3204 5.51581 
175.656 167.061 166.188 166.653 165.434 161.684 153.859 156.296 157.247 153.794 202.771 206.044 -24.0645 217.803 172.106 -60.7292 230.772 150.027 -62.2598 234.906 132.501 -46.9963 236.143 122.211 -20.5339 220.416 177.588 26.5602 2.45969 2.074 4.578 
176.195 167.477 167.029 167.673 166.339 162.568 155.387 157.924 159.096 155.528 190.274 205.511 -28.1468 205.905 170.811 -64.6704 219.609 149.701 -66.5844 225.275 132.588 -51.4585 227.473 122.572 -24.9161 211.021 177.525 22.7233 2.40397 2.20182 4.45752 
176.694 167.547 167.654 168.501 167.084 163.845 155.652 158.866 160.216 156.693 176.838 205.611 -32.4935 191.604 168.963 -68.1658 205.995 149.036 -71.0707 213.075 132.156 -56.1826 216.476 122.393 -29.6967 200.17 177.097 18.6156 2.59109 2.51277 4.65583 
177.253 167.94 168.47 169.506 167.661 164.821 156.552 160.346 161.668 157.537 162.323 205.512 -36.7511 177.356 167.121 -72.1917 192.143 147.874 -75.6921 199.898 131.1 -60.9299 203.798 121.695 -34.3815 188.354 176.467 14.4076 2.17531 2.50151 4.63932 
177.257 167.963 168.954 168.834 167.309 164.881 157.272 161.387 162.101 158.354 146.439 204.792 -40.246 161.37 165.031 -75.9636 176.136 146.133 -79.6813 184.245 129.32 -65.022 189.363 120.136 -38.8003 174.581 175.381 10.5556 2.44565 2.38549 4.30405 
177.562 167.849 169.703 168.311 167 165.411 157.556 162.03 162.088 158.705 129.554 204.942 -43.4894 143.831 163.162 -79.1623 158.962 144.723 -83.3361 167.396 128.012 -68.8363 173.567 118.85 -43.012 159.302 173.985 6.95776 2.76628 2.26508 4.50378 
178.247 169.03 170.339 169.212 167.97 165.519 158.907 164.019 163.574 159.658 111.578 204.637 -46.411 124.622 160.756 -82.5481 140.775 143.247 -87.7331 149.784 127.064 -73.4155 156.13 117.978 -47.6868 142.834 172.333 3.34395 2.24191 2.05055 5.2453 
177.705 169.652 170.732 169.71 168.722 164.806 160.1 165.003 164.479 160.656 92.3271 203.809 -49.4546 103.561 158.83 -86.1053 118.994 141.981 -92.378 128.713 125.928 -78.3478 135.98 116.522 -52.6904 125.329 170.801 -0.706398 2.26678 2.11288 5.10423 
176.417 170.181 171.052 170.314 169.454 163.459 161.529 166.274 165.746 161.735 71.0102 202.342 -51.329 80.9101 156.71 -89.5019 95.3293 140.189 -96.8066 105.642 124.231 -83.5178 113.551 113.97 -57.5277 106.223 168.514 -4.35417 2.42991 2.31204 4.96478 
175.908 170.736 170.65 169.959 169.206 163.681 162.787 166.312 165.627 161.833 48.6504 202.452 -52.1113 55.0665 153.367 -91.0884 68.2634 136.403 -98.7947 79.3956 120.454 -86.2159 88.4908 109.705 -60.1242 85.2134 165.665 -7.34064 2.82433 2.71501 4.70309 
178.043 174.483 173.153 171.881 170.802 165.413 170.315 170.428 168.804 165.16 3.31788 205.301 -51.9485 4.94299 148.699 -96.7426 15.4673 129.756 -103.654 28.3737 112.596 -91.4147 40.5713 100.936 -64.9428 41.7954 160.78 -12.5813 4.39607 3.3449 2.13499 
177.574 175.608 173.218 171.475 170.794 164.601 173.052 171.635 169.381 166.365 -20.0515 202.936 -52.464 -19.7937 141.842 -98.1143 -10.8412 121.2 -103.623 2.74461 103.735 -90.3906 16.882 92.3198 -63.3681 18.9808 156.596 -14.1939 5.84369 3.75958 1.08161 
178.04 174.614 173.214 172.628 171.756 167.421 175.401 171.314 169.9 166.966 -65.4124 202.471 -48.4021 -64.6275 135.091 -96.381 -57.9598 110.398 -98.3059 -43.0611 91.1004 -83.2347 -28.5639 82.2356 -55.256 -25.4063 151.966 -12.4151 5.82941 5.72218 3.81172 
178.113 172.795 173.065 173.255 170.623 170.926 174.443 170.676 169.448 166.423 -85.6774 209.475 -41.012 -88.2004 137.946 -90.68 -82.2458 113.019 -93.03 -67.0486 94.1686 -78.4404 -50.3191 85.2265 -51.0456 -47.2981 155.19 -8.05999 6.52693 5.36906 4.02847 
179.507 173.541 173.313 172.111 168.982 168.597 174.394 169.795 167.829 165.154 -109.989 204.514 -28.594 -109.594 139.667 -82.2256 -104.75 113.699 -84.6925 -89.5804 94.7352 -70.7112 -70.4075 84.8128 -44.4641 -65.636 154.213 -0.966078 7.45112 5.10333 5.25956 
172.621 169.755 171.677 170.887 167.818 162.636 169.762 168.043 166.313 164.603 -137.041 194.94 -15.3304 -133.274 139.102 -71.5081 -127.155 113.967 -75.5414 -110.944 95.4433 -63.2159 -89.3353 85.2347 -38.7176 -84.7897 153.201 6.33412 8.11913 4.8185 4.31643 
167.244 167.8 169.893 169.705 167.212 160.843 166.397 166.752 165.571 165.504 -157.35 192.194 -8.13716 -155.526 137.071 -64.4913 -148.511 112.728 -69.4054 -130.935 94.8986 -58.8732 -106.956 84.5341 -36.121 -103.655 152.243 10.0423 9.36505 4.75078 3.61088 
160.998 168.299 168.82 169.928 167.025 159.007 161.985 164.655 165.337 166.536 -176.146 190.829 -5.73892 -179.562 136.14 -59.2789 -172.2 113.082 -66.0071 -153.285 96.147 -58.1393 -128.122 85.3729 -37.3353 -123.458 152.308 10.1341 9.91238 4.99592 2.16457 
153.658 174.27 179.834 170.131 169.241 158.786 169.191 173.647 163.878 167.587 -206.304 188.597 6.01694 -219.579 141.295 -46.2582 -210.597 121.844 -59.7534 -191.886 98.2775 -49.6611 -164.76 85.8152 -32.2772 -154.065 151.997 16.2807 11.2563 8.12542 5.90467 
174.46 174.27 180 163.385 164.895 167.839 147.192 158.537 157.378 162.511 -222.672 192.915 14.519 -241.912 148.532 -22.8497 -236.749 128.76 -43.9332 -213.076 101.243 -43.4805 -184.06 85.1682 -30.6078 -166.551 150.121 17.2572 13.5418 13.4491 12.6999 
175.463 177.945 180 162.749 164.243 169.481 143.244 152.97 155.897 161.032 -234.504 192.491 22.3514 -252.695 143.73 -13.6842 -247.974 121.732 -31.8462 -227.047 102.731 -38.3798 -197.354 85.0499 -27.5715 -177.321 149.327 20.1425 14.5596 11.8668 11.0086 
174.19 154.907 178.294 164.972 166.429 170.04 134.319 152.852 157.427 162.162 -244.969 193.882 29.7034 -263.886 146.857 0.395941 -263.085 127.022 -23.9646 -241.315 105.098 -34.2846 -211.081 85.3411 -24.8915 -187.784 149.625 23.0314 15.2911 14.51 16.0252 
173.013 133.698 162.182 165.564 167.22 170.295 126.134 147.883 157.811 162.518 -254.142 194.727 36.1459 -272.085 150.873 12.6367 -275.989 131.31 -13.3496 -253.842 106.87 -30.0068 -222.925 85.8192 -22.5684 -197.201 149.727 25.4894 16.0776 18.8127 18.2568 
169.818 126.257 148.449 164.905 166.679 168.297 119.684 141.41 157.915 162.563 -265.149 188.994 41.8419 -277.861 153.574 21.731 -284.778 135.897 -2.94547 -263.556 109.039 -25.9034 -232.289 87.3621 -19.6047 -205.375 150.747 28.6002 16.548 23.4826 19.0826 
169.832 124.287 137.06 164.366 166.993 169.07 116.2 134.569 158.353 163.159 -274.937 187.692 44.7206 -284.732 155.859 28.2104 -292.299 139.706 6.26601 -273.234 110.749 -22.8493 -242.186 89.0112 -17.4971 -214.185 152.234 30.6136 16.4838 28.3245 18.7981 
170.976 133.034 133.532 165.27 166.813 171.285 113.772 129.31 158.664 162.193 -281.178 185.216 46.2563 -288.354 151.81 34.6908 -296.298 137.951 13.2355 -279.163 110.227 -20.4195 -248.387 88.9889 -15.0983 -219.565 151.541 32.1656 15.7783 31.38 20.3049 
168.591 136.271 138.745 163.464 166.023 170.731 110.878 128.103 156.398 160.381 -287.79 181.701 46.9377 -291.286 148.968 37.7724 -300.619 134.922 15.4911 -283.305 108 -17.6987 -252.355 88.2225 -12.7778 -224.916 151.147 32.9272 15.5663 31.2551 22.5273 
167.702 142.424 144.418 163.672 165.934 171.357 113.553 137.617 156.971 159.758 -292.479 178.517 48.5758 -295.838 145.77 38.7001 -305.966 130.041 9.90434 -286.894 107.127 -16.2394 -255.938 88.2548 -10.85 -228.908 150.81 34.3462 14.8583 24.7649 27.1776 
167.877 148.278 148.819 163.898 166.436 172.048 114.938 140.687 157.697 159.669 -296.411 175.797 49.7546 -299.134 143.414 39.8906 -309.532 128.211 8.20364 -289.762 106.405 -14.9521 -258.948 88.3717 -9.08503 -232.365 150.782 35.5236 14.195 22.399 29.7709 
168.798 162.046 161.219 164.301 166.663 172.346 119.23 153.03 158.488 159.731 -298.82 173.353 50.8138 -303.991 141.353 38.2811 -313.098 125.679 0.0953743 -291.922 105.373 -13.5437 -261.212 88.0697 -7.2802 -234.757 150.483 36.6499 13.5076 15.1935 32.9823 
167.591 171.291 160.622 162.944 165.605 171.907 121.931 153.787 157.336 159.187 -301.497 173.38 50.6394 -308.927 140.172 32.8173 -314.213 122.527 -2.33047 -292.892 103.183 -12.4355 -261.794 87.017 -6.22782 -237.426 150.438 37.4451 13.4757 12.6291 28.5038 
166.415 169.929 156.972 161.395 164.275 170.916 126.77 151.681 155.737 158.153 -303.899 173.276 50.4307 -313.263 139.124 27.0787 -315.003 120.463 -2.72566 -293.665 101.232 -11.0778 -262.267 85.8885 -4.99683 -239.687 150.426 37.9907 13.6032 11.5539 22.6869 
165.349 164.039 152.843 159.393 162.539 169.412 130.587 149.031 153.886 156.752 -305.265 173.484 49.9682 -315.942 138.082 21.7599 -315.15 118.767 -2.73829 -293.814 99.6608 -9.82111 -262.196 85.0976 -3.94098 -241.29 150.331 38.4473 13.7356 10.8303 17.3437 
165.365 155.15 151.527 159.041 162.382 168.409 132.741 147.035 153.274 156.555 -306.397 174.066 48.4389 -317.187 136.681 18.9537 -315.19 117.135 -2.04866 -293.658 98.1593 -8.98816 -262.014 84.3181 -3.18451 -242.411 150.326 38.7422 13.6864 10.9173 14.113 
165.649 150.804 152.606 159.426 162.601 167.842 134.665 146.831 153.506 156.96 -307.106 174.968 47.0335 -318.178 135.987 16.4971 -315.21 116.134 -2.48994 -293.199 97.0936 -8.95689 -261.465 83.7261 -2.87754 -243.126 150.378 39.0562 13.6445 10.9269 12.0633 
165.504 146.691 152.749 159.797 163.037 167.334 134.767 145.886 153.721 157.52 -307.51 175.255 45.8469 -318.099 135.254 15.866 -315.019 115.623 -2.04684 -292.625 96.3224 -8.94907 -260.857 83.2103 -2.68367 -243.416 150.375 39.2517 13.702 11.5733 11.2902 
164.11 138.542 156.361 160.903 163.634 166.1 128.192 146.514 154.414 158.315 -306.885 176.749 43.8132 -316.301 137.384 17.2075 -314.324 117.033 -3.04648 -291.247 96.13 -9.61602 -259.613 82.4673 -2.22492 -242.592 150.454 39.4797 13.8084 12.5172 13.6426 
164.37 138.682 157.414 161.178 163.643 166.418 127.993 147.654 154.758 158.514 -306.4 177.158 44.2588 -315.935 138.214 17.203 -313.986 117.768 -3.90708 -290.92 96.4827 -9.96952 -259.23 82.4568 -2.36758 -241.917 150.424 39.5651 13.8805 12.3257 14.2197 
164.671 137.617 157.602 161.484 163.829 166.821 127.14 148.232 155.089 158.847 -305.954 178.017 44.6969 -315.56 139.504 17.7636 -314.044 118.999 -4.15525 -291.116 97.2881 -10.1899 -259.361 82.7724 -2.54926 -241.545 150.683 39.7015 14.0493 12.3599 14.8559 
164.969 137.916 157.251 161.521 163.705 167.343 126.922 148.602 155.21 158.929 -305.578 179.252 45.5545 -315.622 140.867 18.1402 -314.113 120.16 -4.29323 -291.319 98.0319 -10.2931 -259.383 82.949 -2.6086 -241.25 150.94 39.939 14.3086 12.3632 15.1665 
165.848 140.579 154.81 161.036 162.946 168.539 128.037 147.385 154.265 157.709 -305.111 179.91 47.1981 -315.2 140.905 19.014 -313.792 121.156 -2.45276 -291.522 99.051 -9.21132 -259.569 83.4369 -1.91932 -240.215 151.149 40.2621 14.3795 12.4021 14.306 
165.825 140.899 153.895 160.398 162.387 168.512 127.94 146.666 153.651 157.041 -304.62 179.379 47.0374 -314.356 140.019 19.0403 -312.865 120.397 -2.06969 -290.732 98.6569 -8.87733 -258.931 83.2863 -1.5844 -239.612 150.938 40.3012 14.1902 12.2709 14.0792 
165.765 140.075 153.233 159.675 161.801 168.422 126.223 145.77 152.885 156.265 -303.725 178.651 46.6174 -312.663 139.239 20.0866 -311.548 119.569 -1.48095 -289.615 98.2696 -8.43721 -258.08 83.2218 -1.12787 -238.658 150.741 40.354 13.9133 12.1868 14.7271 
165.695 139.223 152.91 159.325 161.621 168.288 124.967 145.229 152.548 156.004 -303.251 178.16 46.142 -311.637 138.86 20.701 -310.792 119.122 -1.21807 -288.885 98.0349 -8.36369 -257.501 83.1976 -1.02499 -238.17 150.618 40.3295 13.7847 12.2863 15.2396 
166.454 138.755 152.862 158.334 161.254 168.522 125.004 144.481 151.64 155.367 -302.025 179.603 44.6264 -310.66 138.938 20.1349 -309.474 118.624 -0.831725 -287.479 97.8999 -7.87233 -256.386 83.3321 -0.364068 -237.578 150.809 40.6349 13.6801 12.3462 14.5472 
166.694 139.139 153.59 158.137 161.268 168.636 125.314 144.844 151.562 155.322 -301.03 179.859 44.0794 -309.876 138.864 19.7971 -308.465 118.335 -1.1283 -286.415 97.6767 -7.69634 -255.476 83.1908 0.0884503 -236.916 150.694 40.9745 13.5988 12.1668 14.5178 
166.611 139.972 152.272 157.974 161.805 168.658 123.748 143.322 151.554 155.975 -301.191 178.748 44.7898 -308.58 138.476 21.7229 -307.656 118.435 0.379796 -285.037 97.3993 -7.36045 -253.914 82.87 0.648536 -236.52 150.724 41.7074 14.0038 13.471 15.5701 
165.89 140.323 152.111 157.972 161.88 168.173 122.482 142.817 151.614 156.097 -301.037 177.29 45.0122 -307.486 137.828 22.9953 -307.11 118.172 1.03099 -284.416 97.1101 -7.10874 -253.397 82.8083 0.944759 -236.06 150.55 41.8937 13.9194 13.8633 16.5356 
165.206 141.934 153.212 159 163.272 167.518 120.018 142.733 152.77 157.462 -300.798 175.84 46.9581 -306.005 138.465 28.5964 -307.438 119.341 3.67073 -284.796 97.7856 -5.96685 -253.945 83.0658 2.23803 -235.583 150.771 42.8465 13.9757 15.0945 20.4286 
165.145 142.554 153.321 159.322 163.536 167.511 119.916 142.886 152.993 157.615 -301.269 176.243 48.1579 -306.695 139.644 29.8816 -308.465 120.724 4.434 -286.089 98.7236 -5.36474 -255.264 83.583 2.69389 -235.958 151.122 43.1614 14.0452 15.1896 21.0217 
165.178 144.766 154.755 159.64 163.577 167.445 121.33 144.283 153.212 157.551 -301.792 175.98 49.4398 -307.837 140.131 29.8527 -309.295 121.315 3.96558 -287.031 99.2362 -4.98019 -256.235 83.9316 2.98641 -236.202 151.25 43.3704 13.9347 14.5034 21.0254 
165.471 145.209 154.997 159.651 163.465 167.6 121.667 144.95 153.132 157.228 -302.173 176.302 50.6104 -308.531 140.789 30.366 -310.148 122.167 4.0502 -288.146 99.9194 -4.30713 -257.385 84.3552 3.50131 -236.474 151.461 43.6143 13.8706 13.9827 21.2358 
166.373 146.602 154.239 159.535 163.135 168.171 123.751 145.362 152.814 156.563 -303.221 177.874 52.5093 -310.916 142.422 29.9272 -311.942 124.071 4.42109 -290.431 101.385 -3.21668 -259.518 85.1796 4.2878 -237.411 152.039 44.1348 14.0225 13.3177 19.9742 
166.822 148.545 153.984 159.519 162.948 168.454 126.584 145.548 152.67 156.287 -303.888 178.849 53.442 -312.874 143.399 28.4657 -312.838 124.88 4.51341 -291.503 102.037 -2.7166 -260.427 85.5447 4.69042 -238.036 152.437 44.4723 14.1677 12.9753 18.1022 
167.527 149.093 154.224 159.919 162.982 168.903 129.374 146.059 152.772 156.148 -305.124 179.751 54.99 -315.219 144.562 27.8856 -314.607 125.989 5.26946 -293.55 103.14 -1.63493 -262.351 86.3672 5.38902 -239.133 153.096 45.0512 14.2296 12.5054 16.4409 
167.493 147.819 154.371 160.164 163 168.823 129.061 146.085 152.767 156.087 -306.014 178.987 56.2102 -315.681 145.039 28.7142 -315.441 126.7 5.82238 -294.517 103.848 -1.13121 -263.352 86.9993 5.66058 -239.651 153.411 45.3327 14.1909 12.4183 16.6868 
167.449 147.205 154.661 160.341 162.905 168.819 129.119 146.187 152.646 155.87 -306.942 178.628 57.5316 -316.435 145.744 29.1924 -316.549 127.799 6.4138 -295.811 104.833 -0.365626 -264.735 87.8736 6.16326 -240.318 153.88 45.698 14.1126 12.2192 16.5388 
167.66 147.278 154.707 160.439 162.875 168.998 129.869 146.054 152.452 155.66 -307.724 179.198 58.4187 -317.514 146.566 29.2403 -317.74 128.833 7.37035 -297.265 105.714 0.6671 -266.3 88.5786 6.88957 -241.06 154.346 46.066 14.0843 12.0889 15.6875 
167.594 145.897 154.161 160.234 162.648 169.087 128.86 145.122 151.9 155.223 -308.611 179.094 59.0051 -317.78 146.72 30.6841 -318.621 129.354 8.9489 -298.31 106.203 1.87301 -267.524 89.0721 7.76573 -241.692 154.686 46.3768 14.0093 12.2797 15.8892 
167.781 144.614 154.064 160.232 162.57 169.292 127.937 144.597 151.577 154.92 -309.424 179.358 59.5463 -318.05 147.066 31.9153 -319.432 129.82 10.3605 -299.274 106.692 3.02535 -268.606 89.5667 8.70942 -242.334 155.094 46.8043 13.9429 12.3753 15.961 
168.244 144.87 153.951 160.106 162.323 169.717 129.272 144.225 151.171 154.327 -310.071 180.86 60.5759 -319.519 147.295 32.245 -320.396 129.677 12.6561 -300.439 106.865 4.96978 -269.655 89.7246 10.4228 -243.325 155.55 47.7696 13.9641 12.2816 14.0532 
168.485 143.726 153.996 160.145 162.371 170.014 128.713 144.205 151.244 154.294 -310.762 181.74 61.1378 -320.119 147.612 33.3485 -321.208 129.811 13.7056 -301.33 107.112 5.66556 -270.509 89.9022 11.1962 -244.13 155.879 48.197 13.9451 12.3889 14.1815 
168.644 142.294 155.062 160.382 162.436 170.421 127.761 144.634 151.416 154.11 -311.864 182.209 61.9881 -320.689 147.518 35.4065 -322.388 129.638 14.9029 -302.468 107.327 6.55272 -271.79 90.2689 12.4025 -245.238 156.232 48.7615 13.6033 12.4056 15.1386 
168.55 140.768 155.011 160.197 162.342 170.474 125.841 144.192 151.12 153.824 -312.466 181.668 62.4787 -320.186 147.429 37.2105 -322.665 129.561 15.7971 -302.724 107.361 7.05371 -272.161 90.3206 13.0249 -245.596 156.303 48.9461 13.493 12.6556 16.3403 
168.266 140.475 154.868 159.787 161.918 170.401 124.725 143.786 150.636 153.213 -312.809 181.224 62.9969 -319.978 147.184 38.1069 -322.737 129.294 16.2922 -302.803 107.204 7.5315 -272.328 90.2482 13.6788 -245.801 156.193 49.1326 13.3466 12.6575 16.8948 
168.209 141.538 155.006 159.584 161.64 170.375 125.465 143.799 150.393 152.811 -313 182.211 63.607 -320.915 148.001 37.7654 -323.201 129.788 16.6131 -303.419 107.654 8.11549 -273.028 90.5778 14.3943 -246.211 156.378 49.5333 13.268 12.434 16.0862 
168.103 146.353 155.58 158.689 161.031 169.689 129.868 143.4 149.83 152.043 -312.638 184.508 64.597 -323.538 149.331 35.9904 -324.661 131.203 18.0391 -305.82 108.814 10.2636 -276.069 91.6498 16.2383 -247.001 156.45 50.0554 12.6962 11.6783 12.8199 
167.805 149.835 155.88 158.024 160.614 168.973 133.472 142.715 149.364 151.676 -311.913 186.287 64.8491 -325.236 150.679 34.3666 -325.605 132.682 19.3578 -307.613 109.916 11.8487 -278.254 92.4915 17.2572 -247.318 156.439 50.1846 12.5432 11.3566 10.0734 
167.189 151.548 155.189 157.5 160.192 168.195 135.669 142.185 148.892 151.199 -311.416 187.796 65.1285 -326.673 151.98 33.3868 -326.772 134.129 20.4042 -309.444 111.028 13.3251 -280.465 93.4105 18.2425 -247.817 156.471 50.2464 12.3261 10.9674 8.20229 
166.183 152.143 154.762 156.95 159.487 167.252 136.85 142.176 148.066 150.261 -311.337 188.258 65.5255 -327.774 152.512 32.9949 -327.898 134.952 20.952 -310.795 111.848 14.7593 -282.138 94.3497 19.1767 -248.301 156.532 50.3204 12.0154 10.2889 7.30952 
163.993 150.556 154.194 155.747 157.645 165.413 136.048 141.594 146.166 147.84 -310.636 187.437 65.6457 -327.683 152.152 33.3238 -328.369 135.125 21.2507 -311.399 112.278 16.5528 -283.397 95.4064 20.696 -248.146 156.249 50.1123 11.1257 9.23557 7.49638 
163.168 150.818 154.694 155.407 156.893 164.617 136.952 142.142 145.726 146.992 -309.967 188.386 65.7275 -328.065 152.787 32.4702 -328.614 135.427 20.7244 -311.575 112.665 17.0687 -283.768 96.0439 21.3315 -248.022 156.44 50.2169 10.7064 8.59141 6.90953 
162.512 151.372 155.837 155.801 156.857 163.901 138.236 143.342 146.045 146.905 -308.697 188.963 66.065 -327.957 153.327 31.4111 -328.43 135.578 19.7089 -311.27 112.792 16.9766 -283.546 96.322 21.4523 -247.288 156.438 50.2013 10.3283 8.06309 6.441 
161.623 151.448 156.447 156.097 156.881 163.175 138.605 143.987 146.285 146.98 -307.523 188.987 66.0146 -327.179 153.458 30.7186 -327.794 135.736 18.7868 -310.47 112.894 16.57 -282.712 96.518 21.1816 -246.362 156.559 50.0465 10.2441 7.89594 6.54031 
160.925 151.728 157.194 156.667 157.052 162.574 138.75 144.783 146.721 147.11 -306.781 189.019 65.6562 -326.363 153.421 30.0331 -327.115 135.818 17.3909 -309.602 113.002 15.8125 -281.838 96.9071 20.8528 -245.581 156.967 49.8258 9.98435 7.69674 7.10647 
159.707 151.415 157.314 156.489 156.471 161.527 138.676 145.124 146.633 146.624 -305.211 189.588 65.255 -324.974 153.935 29.0237 -325.623 135.879 16.0316 -307.945 113.139 15.175 -280.2 97.3572 20.7263 -244.216 157.492 49.6948 9.71387 7.47651 7.21912 
