175.84 159.738 161.249 160.046 169.103 161.608 145.517 149.917 144.723 141.989 254.364 184.7 -3.69997 259.303 140.039 -39.2761 264.992 112.476 -37.6029 254.31 95.4666 -19.8174 247.254 87.2729 6.64098 248.888 149.971 44.5578 3.73234 7.1481 5.41506 
175.611 159.241 160.63 159.825 167.687 161.191 144.503 149.098 144.744 142.012 253.427 184.584 -3.84879 256.978 140.3 -39.2613 262.949 113.295 -37.9881 253.311 96.2981 -20.5068 246.771 87.8271 5.90102 247.975 150.287 44.182 3.42276 6.34491 5.14163 
175.245 159.453 159.948 159.377 166.605 160.512 144.692 148.687 144.622 141.969 252.055 185.005 -3.91914 255.551 140.895 -39.6443 261.234 114.215 -38.4018 252.259 97.3221 -21.0376 246.292 88.6238 5.34888 247.009 150.819 43.873 3.17929 5.90129 4.80578 
174.813 160.594 159.67 158.833 165.362 160.047 146.329 148.857 144.142 141.776 251.072 185.727 -3.9326 256.956 142.259 -40.6381 261.641 115.461 -39.0847 252.021 98.5497 -21.7626 245.826 89.5813 4.53194 246.032 151.376 43.4287 3.26073 6.3371 4.57991 
173.917 160.314 159.909 158.872 164.993 159.385 145.793 148.469 143.56 140.835 250.133 185.365 -4.65183 255.733 142.654 -41.2038 260.845 116.336 -39.8241 251.448 99.6365 -22.5758 245.544 90.6736 3.69965 245.09 151.969 42.6448 3.0487 6.23298 4.25217 
173.156 159.775 160.538 159.488 164.963 158.837 144.356 147.94 143.193 140.188 248.753 184.961 -5.57957 253.853 143.333 -41.6375 259.83 117.437 -40.6288 250.939 100.921 -23.5463 245.314 91.8561 2.7301 244.109 152.543 41.7856 2.85367 5.84752 4.20257 
172.797 160.568 160.358 159.604 164.914 158.162 144.859 147.539 142.899 140.09 247.148 185.4 -5.98831 253.445 144.844 -42.4783 258.995 119.201 -41.323 250.279 102.764 -24.4059 245.094 93.4644 1.80185 243.035 153.574 41.2007 2.62536 5.72352 3.88363 
172.32 160.278 159.663 159.384 164.587 157.595 144.18 146.392 142.181 139.128 244.734 185.367 -6.99605 251.382 145.632 -43.1555 256.787 120.485 -41.8691 248.798 104.193 -25.0559 244.389 94.8624 1.11143 241.622 154.553 40.4277 2.36322 5.35549 3.49305 
171.623 160.815 159.502 159.605 164.461 157.238 144.503 146.085 142.144 138.725 242.15 185.927 -8.05703 250.029 147.084 -44.1753 255.243 122.25 -42.7658 247.645 105.929 -26.0422 243.726 96.5444 0.172174 240.083 155.831 39.6633 2.2292 5.2081 3.22196 
172.298 161.217 159.723 160.028 163.865 157.784 145.223 146.194 142.871 138.985 239.531 186.598 -9.4946 247.773 148.155 -45.544 252.733 123.508 -43.9389 245.917 107.221 -27.2928 242.638 98.1 -1.08355 238.032 156.901 38.5999 1.85718 4.8096 3.09286 
172.384 161.638 160.008 160.096 162.429 157.747 145.369 146.401 143.617 139.01 235.977 187.119 -11.1232 244.099 148.501 -46.7039 249.617 124.572 -45.2357 243.995 108.517 -28.6541 241.324 99.749 -2.35799 235.647 158.098 37.3853 1.53815 4.14369 2.57542 
172.389 161.186 159.536 159.737 160.506 157.602 144.734 146.145 143.86 138.408 231.803 187.319 -12.8048 240.077 149.529 -48.1016 246.482 126.009 -46.9285 241.891 109.906 -30.4634 239.418 101.361 -4.14213 232.655 159.117 35.76 1.23529 3.59896 2.45748 
168.149 174.27 180 174.27 174.27 154.338 177.981 180 178.039 177.975 210.235 179.493 -11.6443 250.307 158.523 -56.2513 272.238 133.128 -53.303 279.366 120.22 -33.4406 283.817 112.941 -0.0530176 243.54 169.034 38.0257 6.06772 2.1755 11.6509 
155.867 178.973 175.969 168.913 168.257 147.519 168.134 165.327 172.255 171.837 220.952 192.147 -11.8796 227.466 157.132 -60.2819 207.874 133.101 -68.9657 234.9 106.737 -39.9049 239.191 96.735 -9.16712 222.215 160.579 32.2548 6.34966 20.4337 16.6975 
152.136 177.132 180 176.344 175.927 152.319 168.647 179.997 175.379 175.239 225.527 182.647 -1.11311 225.143 147.661 -64.913 220.409 115.981 -63.7291 250.72 114.231 -47.3237 264.565 112.093 -10.0524 217.465 163.888 31.0763 9.64393 13.472 17.659 
170.659 158.488 157.085 159.789 140.966 167.251 144.637 144.419 157.918 106.457 228.384 117.044 3.10431 226.822 110.158 -33.8208 224.67 124.295 -50.6258 219.829 161.721 -61.5124 192.256 162.515 -21.058 214.756 167.87 27.1174 38.3515 18.6756 4.69035 
173.412 160.132 158.959 162.79 148.701 170.104 143.469 147.495 152.037 105.028 231.202 115.634 5.80205 227.612 108.963 -32.6945 227.624 123.667 -52.1051 213.833 150.541 -60.4384 178.362 150.16 -8.45708 207.318 171.071 22.3365 55.8429 11.411 9.98316 
170.515 162.177 161.434 163.387 147.902 166.69 148.023 153.861 157.719 114.711 219.511 113.199 -0.247309 214.573 109.813 -40.5619 217.8 126.301 -59.5121 204.568 153.911 -66.0293 167.624 148.229 -13.8778 197.976 170.542 19.7782 54.7753 10.7363 11.2029 
174.094 160.984 159.724 162.894 149.768 169.583 145.968 149.327 152.7 110.156 211.702 113.844 -3.51364 203.716 115.354 -45.4734 201.91 129.543 -62.6583 191.193 156.208 -67.1964 157.534 152.275 -14.4612 188.836 171.34 17.2442 55.3797 9.91562 6.94008 
177.571 159.943 157.964 160.847 149.949 171.282 145.658 147.267 150.755 104.811 198.265 116.473 -10.8402 192.07 120.72 -51.3045 189.379 134.934 -66.8651 181.529 162.682 -70.5111 148.001 159.204 -20.3854 178.654 172.275 14.1616 53.0835 11.2381 5.78121 
177.259 160.297 160.139 159.902 146.128 170.829 146.204 150.95 151.325 100.041 182.937 119.317 -18.4653 177.409 122.53 -56.4243 177.894 138.095 -72.8368 167.933 164.645 -74.4501 136.975 164.994 -28.7353 166.23 172.144 10.6842 43.8806 9.14397 8.41576 
171.586 160.187 160.298 160.907 143.653 167.573 144.963 148.892 152.235 107.545 160.568 118.797 -25.1769 163.311 123.01 -59.6752 161.746 137.397 -74.7933 152.651 165.82 -77.8225 124.223 164.763 -34.6827 153.03 172.582 7.79639 39.1542 11.1263 6.82793 
171.018 159.549 159.441 161.417 140.366 168.601 143.303 147.521 151.963 114.396 141.958 115.28 -27.8067 148.334 120.664 -61.5952 144.676 134.08 -76.4029 134.507 162.308 -80.211 108.76 164.278 -41.1741 138.792 172.326 4.29043 32.4368 11.134 5.76374 
171.129 160.745 161.114 164.231 150.943 170.292 141.788 148.309 154.664 127.47 125.014 112.302 -28.2982 129.062 115.269 -59.9398 125.262 126.027 -75.7611 114.856 152.442 -81.1567 90.9413 158.981 -47.3135 123.713 172.517 0.653462 25.0483 10.4398 6.79835 
174.116 160.949 162.792 163.52 157.85 173.631 143.415 153.21 153.995 124.915 90.2281 108.123 -35.8362 94.306 113.209 -68.3194 92.5956 126.482 -88.5162 76.3941 146.844 -88.7468 52.3455 152.34 -45.5755 88.9956 173.501 -8.66439 32.7673 4.84804 11.1036 
174.789 164.288 167.491 168.922 169.597 172.257 145.82 156.976 158.535 129.488 74.3734 110.998 -44.0039 75.4815 116.102 -78.5527 68.1174 124.818 -95.3985 53.5388 144.585 -95.0346 33.6045 150.043 -50.5196 69.217 174.052 -14.5778 31.314 4.79146 5.91709 
175.593 162.653 165.44 167.396 155.068 170.856 141.35 154.653 157.437 114.631 53.4545 113.841 -55.8459 52.3805 123.12 -88.8143 43.5554 128.998 -103.844 30.5306 150.555 -103.675 12.332 150.93 -46.3584 47.8619 173.695 -20.5937 43.9946 7.4739 5.61378 
169.983 159.756 163.991 165.531 169.508 167.414 135.508 152.784 155.264 140.46 2.03526 113.722 -68.7686 -9.47047 114.775 -82.2144 -2.00484 137.155 -115.767 -11.9693 167.119 -115.221 -28.8374 176.691 -88.343 -0.118409 172.374 -30.4877 2.58972 16.7375 31.9444 
160.704 158.736 179.734 176.589 168.055 158.76 125.281 151.772 162.726 154.838 -48.3232 112.045 -66.0801 -64.4423 115.157 -78.9437 -60.6207 147.814 -117.984 -73.9527 176.733 -115.276 -94.4227 201.328 -89.834 -54.2152 171.083 -29.5403 17.1295 16.0116 42.512 
159.986 177.161 154.494 156.274 165.833 154.752 135.472 160.704 162.827 158.967 -66.0116 110.807 -54.8235 -88.4625 115.981 -84.2828 -104.142 155.488 -113.174 -118.963 183.075 -102.824 -129.119 204.335 -72.8265 -77.0001 168.275 -18.9651 13.2163 12.3289 31.4827 
169.314 167.975 178.793 170.76 160.313 168.116 162.307 172.262 167.406 158.993 -89.1138 100.722 -40.1229 -150.978 140.975 -86.9307 -165.257 171.324 -92.3508 -176.525 193.592 -71.7715 -178.106 205.814 -38.6444 -114.873 169.458 -2.19342 7.38195 8.35268 12.1455 
168.26 167.089 167.11 163.768 158.779 175.385 162.121 165.087 158.367 153.617 -111.498 99.5542 -34.2584 -177.709 136.035 -75.7102 -191.14 162.049 -81.2736 -201.891 178.974 -60.1645 -202.376 195.212 -26.536 -134.176 168.552 4.0522 9.09827 5.37107 10.1404 
168.739 166.036 161.072 162.732 157.541 173.141 161.915 157.669 158.226 154.025 -138.568 101.729 -31.1323 -203.106 131.032 -61.5847 -217.768 150.953 -62.6761 -226.912 172.049 -45.212 -223.865 190.141 -14.3783 -149.968 167.939 9.05321 8.16312 6.40211 4.99473 
167.222 168.426 160.09 160.131 155.86 170.454 164.287 157.703 158.121 153.803 -154.606 105.213 -28.3075 -219.684 128.788 -54.4351 -233.562 146.923 -53.7467 -242.27 168 -36.5476 -238.774 187.73 -7.18206 -164.981 167.128 13.836 8.63394 6.22369 3.48478 
165.223 169.708 162.398 158.925 153.861 168.014 164.731 157.489 158.091 152.885 -167.471 107.826 -26.0747 -231.902 127.731 -53.6836 -245.402 145.7 -52.4094 -255.443 167.711 -33.9041 -252.807 187.461 -3.79803 -180.522 165.964 17.5436 9.32694 7.53698 3.44047 
160.988 171.92 165.666 158.816 154.15 166.244 166.52 162.916 160.97 153.17 -179.872 111.072 -22.9632 -246.228 125.638 -50.4606 -260.488 145.138 -50.0728 -270.586 167.889 -31.0245 -266.759 187.686 -1.41846 -195.12 165.354 21.1396 8.57545 7.98513 4.39996 
155.472 175.393 169.746 161.785 157.514 165.574 170.636 168.438 165.806 156.998 -191.749 111.36 -17.1868 -259.475 120 -42.2564 -274.852 139.722 -41.8205 -284.016 164.628 -24.3789 -278.169 185.586 1.25574 -205.522 164.716 24.5771 7.01165 8.37969 4.41141 
149.844 174.565 173.821 167.799 158.351 165.76 167.664 168.177 165.657 154.241 -201.382 114.58 -9.19141 -268.358 114.51 -33.4666 -284.099 136.409 -35.2299 -294.128 164.001 -17.9026 -287.284 185.161 5.80563 -214.112 164.65 29.4035 6.14924 10.1971 6.46229 
144.697 173.314 175.283 170.546 160.714 164.445 167.51 167.468 164.291 152.788 -210.423 116.813 -2.87317 -275.283 112.168 -30.7984 -291.686 134.271 -32.5987 -302.055 162.436 -15.6231 -295.657 185.498 8.62591 -221.626 164.34 31.8547 7.68068 10.4164 6.54762 
143.62 172.593 175.573 172.271 167.026 164.149 166.837 166.315 163.559 154.476 -219.804 118.262 1.94845 -281.62 110.111 -28.9978 -298.539 132.277 -31.1631 -308.976 160.667 -14.7245 -303.945 186.655 9.34528 -229.006 164.165 33.1417 10.3031 10.3546 6.77903 
156.432 176.251 174.628 167.15 173.231 159.116 167.579 168.13 160.388 150.893 -238.105 126.184 7.72649 -284.673 104.233 -26.711 -302.762 120.548 -27.6715 -315.324 148.725 -10.7017 -314.486 176.981 13.7877 -238.904 162.999 35.693 13.0383 10.8691 4.00522 
168.318 179.555 177.734 175.628 176.749 165.136 164.6 173.1 169.771 154.533 -244.223 128.953 10.5287 -285.05 102.835 -24.3751 -302.15 115.851 -27.3076 -313.115 140.321 -12.5608 -316.66 166.491 15.4435 -240.86 160.932 36.3188 14.1215 8.205 5.1496 
175.901 170.442 180 174.27 177.511 174.728 169.708 179.988 178.223 141.632 -253.3 134.216 14.6677 -283.416 108.441 -30.7284 -301.509 112.182 -29.9205 -313.139 124.019 -11.2313 -310.467 154.855 6.31985 -242.041 158.852 34.8535 22.221 4.65158 5.26735 
175.584 174.526 180 163.749 174.484 167.52 178.13 179.998 171.121 177.761 -266.311 151.031 12.9635 -296.977 167.843 -44.9532 -311.018 145.115 -39.6925 -313.232 129.86 -16.7098 -297.777 139.056 -9.42004 -243.306 165.092 31.9555 23.7692 4.92352 5.65599 
168.154 178.337 170.42 163.883 174.27 162.154 177.122 170.553 156.738 139.286 -253.321 164.587 -3.41009 -278.152 170.855 -57.3345 -295.149 150.912 -53.8517 -306.308 140.691 -28.3854 -309.32 136.643 5.2133 -244.234 165.96 31.5199 12.3214 6.14484 7.22983 
168 170.899 171.755 161.764 174.27 160.078 176.516 162.72 146.279 131.797 -256.475 152.259 -1.12737 -275.034 147.551 -55.5525 -296.125 132.606 -47.7325 -310.731 133.161 -19.6321 -318.476 141.24 14.7364 -246.544 163.961 32.8027 14.1661 7.11625 9.01526 
176.72 166.833 170.279 166.957 177.716 161.23 169.924 156.066 144.145 131.088 -254.923 146.857 3.43572 -280.871 118.981 -44.8728 -302.449 118.584 -34.8749 -313.929 130.741 -14.3679 -320.868 152.813 14.5384 -249.435 162.832 34.5003 13.3908 2.95424 6.70683 
175.043 169.445 168.36 174.44 178.455 154.731 170.377 158.276 148.232 115.71 -256.633 133.603 13.1629 -289.466 112.168 -37.9639 -305.041 115.795 -31.8693 -312.664 129.249 -17.0633 -321.84 164.923 12.2652 -250.888 162.312 34.7246 23.1358 1.87923 4.53199 
173.576 171.155 170.447 175.243 175.479 143.983 169.992 161.001 154.714 112.965 -252.537 120.458 17.305 -293.424 109.612 -34.3258 -308.018 117.499 -31.5235 -316.408 131.045 -18.4808 -327.46 170.757 17.1681 -252.639 163.149 34.469 26.6116 1.31699 2.65403 
178.962 172.721 171.859 171.489 176.211 142.395 168.768 163.348 157.716 113.282 -248.017 111.251 19.3402 -296.935 107.617 -31.5914 -312.586 120.138 -30.7082 -321.822 134.379 -17.5015 -330.391 170.917 20.4506 -254.382 164.345 34.1944 24.6938 0.258441 1.23556 
171.059 172.335 171.673 165.127 177.856 140.87 166.259 163.918 156.774 122.854 -245.207 108.115 18.2129 -300.305 107.511 -30.1377 -317.904 124.345 -31.1244 -328.488 140.943 -15.3259 -334.936 172.539 21.9686 -256.606 166.441 33.1921 22.1875 3.30402 4.0129 
158.6 171.541 170.148 162.696 176.985 142.086 164.864 163.053 158.114 138.514 -246.305 110.238 12.8028 -303.765 109.991 -29.0148 -321.679 128.464 -31.2862 -335.172 150.096 -13.3538 -338.208 179.924 17.0176 -258.457 167.831 32.4416 17.0844 7.82006 5.3135 
158.037 170.626 169.081 164.179 176.5 148.521 162.269 162.101 159.842 160.922 -247.837 111.817 8.1965 -308.364 112.206 -25.5899 -325.8 131.872 -29.8411 -339.998 157.412 -12.1991 -338.608 188.345 9.62662 -260.264 169.37 32.0895 14.78 10.2175 6.62849 
159.695 170.166 168.276 165.628 168.21 154.204 160.426 160.898 160.976 160.905 -249.974 113.818 4.80573 -312.788 114.395 -22.2443 -329.479 134.362 -27.6478 -342.984 161.762 -11.3709 -338.538 187.051 8.85158 -262.106 171.009 31.8191 8.98979 10.7887 7.35666 
160.914 169.646 167.524 166.288 159.702 157.695 159.077 159.217 160.907 159.237 -252.417 115.432 2.98533 -316.435 116.681 -19.6143 -332.104 135.926 -25.3423 -344.477 163.87 -10.4429 -338.674 187.401 9.56238 -263.368 172.303 31.368 7.15284 10.5872 7.3278 
161.717 169.309 167.308 167.051 157.123 160.365 157.872 158 160.753 156.781 -255.057 116.497 2.0584 -319.113 118.636 -17.6353 -334.235 136.956 -23.3476 -345.796 165.159 -9.52256 -339.057 187.896 10.6316 -264.295 173.347 30.8914 6.27739 10.4647 7.19184 
167.898 174.27 180 174.27 174.27 161.11 177.977 180 178.019 177.652 -325.221 170.424 13.3551 -315.992 116.861 -22.2962 -329.481 139.884 -35.6435 -335.358 167.37 -33.3043 -324.087 191.124 -22.1635 -282.581 187.128 34.4506 5.03739 8.34802 8.88626 
170.738 156.55 159.336 162.558 162.973 171.328 143.186 150.809 153.362 155.464 -325.61 200.856 45.4193 -340.331 166.511 7.54683 -338.703 148.546 -9.9136 -319.655 125.463 -14.7648 -289.209 108.366 -9.2569 -259.07 172.849 29.5983 12.2395 9.20055 9.06391 
169.108 150.101 158.256 160.6 160.6 170.028 135.771 146.649 150.746 153.541 -315.683 198.838 36.7018 -326.915 159.818 5.08204 -325.165 140.706 -11.9526 -304.08 118.835 -18.9105 -273.996 102.701 -11.8585 -249.85 167.771 28.2378 13.1702 11.9485 10.2656 
168.065 145.769 157.646 161.341 161.787 171.216 128.384 145.964 152.679 155.579 -311.482 198.274 36.1747 -322.33 162.197 10.3473 -323.587 142.97 -11.5812 -302.864 120.185 -20.416 -273.552 102.453 -12.3428 -246.746 166.458 28.4241 13.1215 13.4997 15.1489 
167.908 141.912 157.069 161.739 163.171 170.704 125.209 146.939 154.13 157.295 -310.609 197.075 38.3232 -320.313 163.246 13.3804 -323.346 144.353 -11.911 -302.898 120.914 -20.669 -273.995 102.339 -12.2721 -245.857 166.214 28.4555 13.2354 13.6837 18.5755 
167.443 141.399 157.269 161.756 163.094 170.654 123.567 147.011 154.252 157.44 -310.229 195.025 38.2158 -318.775 163.466 14.617 -322.446 144.936 -12.6782 -301.621 121.349 -21.5766 -272.784 102.557 -12.687 -244.854 165.932 28.705 13.2437 14.052 20.5488 
168.521 143.21 157.864 161.633 162.758 171.095 128.336 148.597 153.857 156.586 -309.056 195.352 39.9645 -319.364 163.322 10.5215 -321.055 145.456 -15.3347 -300.9 121.626 -21.2569 -271.972 102.641 -12.2882 -243.809 165.874 29.1888 13.1499 11.8952 18.086 
169.387 142.865 158.348 161.996 163.27 171.351 131.475 149.735 154.398 156.828 -308.512 197.781 40.3714 -320.304 164.186 8.08699 -321.188 146.102 -16.0194 -301.572 121.995 -20.7268 -272.5 102.666 -11.7956 -243.908 166.12 29.3908 13.2999 11.0148 16.0044 
167.984 149.92 156.669 159.657 160.384 170.765 137.957 146.95 151.243 153.379 -306.621 195.726 40.4422 -320.755 164.649 1.74823 -318.742 145.333 -14.7821 -299.604 121.596 -18.2144 -270.955 102.794 -9.88513 -242.034 165.339 30.1752 12.5296 9.85529 8.74932 
168.486 149.824 155.957 158.934 160.355 170.772 138.306 146.55 150.648 152.747 -306.219 198.282 40.5722 -320.935 165.468 2.34061 -318.824 145.595 -13.7849 -300.057 121.788 -16.8857 -271.57 102.944 -8.76218 -242.151 165.527 30.3113 12.5885 9.66993 8.66781 
168.82 151.978 155.446 157.949 158.582 171.124 141.495 146.231 149.369 150.663 -305.248 199.935 42.4877 -320.918 166.376 -1.24776 -317.916 145.328 -13.989 -299.458 121.318 -14.9672 -271.254 102.872 -6.26236 -241.356 165.419 31.446 11.821 8.68261 5.60504 
170.468 153.267 156.507 158.23 158.327 170.472 141.724 145.673 148.733 149.409 -305.208 199.882 43.8113 -320.448 163.869 -0.348703 -317.922 143.765 -11.3601 -299.821 120.505 -12.3621 -271.853 102.719 -4.32496 -240.756 164.914 31.3691 11.3025 8.17754 4.30892 
171.24 155.119 157.53 158.257 157.893 166.5 141.318 144.665 147.067 147.153 -304.629 200.47 43.9196 -319.022 161.869 2.79017 -318.744 144.085 -6.64532 -301.918 121.882 -6.58089 -275.26 105.442 1.01894 -239.821 165.018 31.8533 9.51691 6.96564 4.39485 
171.365 155.239 157.226 157.69 157.017 166.055 141.004 144.01 146.101 145.824 -304.086 202.351 43.233 -318.613 162.071 3.44594 -318.545 144.284 -5.42159 -302.074 122.08 -4.44987 -275.899 106.06 3.52634 -239.61 165.427 32.4171 8.90994 6.62975 4.32614 
165.754 156.818 158.258 158.548 157.98 167.185 143.155 145.397 147.028 146.178 -299.23 209.589 41.9074 -317.7 166.167 3.51302 -317.347 146.338 -4.30344 -301.474 123.658 -1.54652 -275.966 107.524 8.39923 -238.678 167.654 35.5313 8.29052 6.32721 3.1485 
165.556 156.367 158.171 158.606 158.278 167.254 142.621 145.253 146.892 146.411 -298.65 210.441 43.0916 -317.858 168.873 4.64209 -317.913 148.851 -3.1536 -302.507 125.721 -0.34618 -277.263 108.741 9.66239 -238.752 168.508 36.2472 8.55064 6.41792 3.19959 
166.06 156.696 158.766 159.373 159.118 167.921 143.125 146.129 147.733 147.349 -295.911 212.763 45.5729 -317.764 173.485 6.78335 -318.533 152.777 -0.861611 -303.871 128.77 1.70214 -278.892 110.274 11.8091 -237.827 169.329 37.602 8.98963 6.64865 3.05738 
166.293 157.264 158.932 159.446 158.989 168.657 144.415 146.799 148.047 147.344 -293.986 215.658 47.4567 -317.572 175.683 6.38008 -318.504 154.305 -0.515888 -304.096 129.925 2.52835 -279.031 110.952 12.7437 -237.204 169.787 38.5361 9.12409 6.56658 2.34196 
166.215 157.034 158.437 158.831 158.175 168.676 144.644 146.69 147.647 146.686 -292.973 217.561 49.8633 -317.437 177.59 6.89916 -318.465 155.997 0.268661 -304.171 131.355 3.47686 -278.91 112.004 13.5328 -236.733 170.498 39.487 9.3145 6.56617 2.07915 
166.172 156.669 157.846 158.414 157.801 168.085 144.586 146.35 147.316 146.219 -292.356 217.443 52.6148 -316.81 179.529 7.42021 -317.976 157.555 1.27453 -303.92 132.655 4.52737 -278.652 112.887 14.6489 -235.985 171.239 40.3581 9.44017 6.59106 1.95068 
165.534 156.328 157.473 158.045 157.216 167.357 144.492 146.06 146.839 145.214 -290.69 218.027 54.985 -315.62 180.761 7.87487 -316.842 158.384 1.82999 -302.984 133.383 5.45703 -277.834 113.744 15.8921 -234.806 171.831 41.2252 9.11311 6.50578 2.13455 
165.21 156.697 157.792 158.454 157.427 167.425 145.422 146.526 147.318 145.195 -288.425 220.77 56.0778 -314.826 182.402 7.87408 -316.176 159.323 2.28392 -302.511 134.144 6.14863 -277.306 114.532 16.8022 -233.79 172.571 42.0254 8.95677 6.49394 2.5847 
165.919 157.198 158.626 159.188 158.152 167.791 146.559 147.293 147.968 145.302 -286.329 223.368 55.523 -314.363 183.543 8.42469 -315.826 159.902 3.1311 -302.234 134.753 7.19623 -277.054 115.506 18.1048 -232.939 173.461 42.4898 8.53335 6.39859 2.99893 
164.486 157.399 158.606 158.93 158.251 167.259 146.345 146.17 146.656 143.517 -282.872 223.99 56.4013 -311.791 185.175 9.52392 -313.598 161.51 5.55031 -300.427 136.919 9.95611 -275.65 118.331 20.7674 -230.212 174.84 43.0677 7.5228 5.84013 3.16295 
163.232 158.56 159.663 159.719 159.149 165.671 146.756 146.841 147.391 143.963 -279.606 223.456 54.6751 -308.01 186.094 10.3582 -310.223 163.171 6.60721 -297.562 139.292 11.442 -273.555 121.525 23.0074 -226.648 176.971 43.8079 6.40498 5.19192 2.32775 
162.018 159.065 159.801 159.892 159.271 164.705 147.978 147.748 148.129 144.42 -276.256 225.049 54.6033 -305.398 187.839 9.2225 -308.038 164.73 6.03074 -295.783 140.717 11.5405 -272.018 122.902 23.515 -224.317 177.957 44.3479 6.23541 5.17248 2.71646 
161.984 161.003 161.027 161.104 160.588 163.587 149.966 148.675 149.25 145.532 -272.71 223.177 54.8423 -300.759 189.984 8.20282 -304.057 167.505 6.71653 -292.375 143.592 12.3623 -269.025 125.828 24.1252 -219.554 179.576 44.0618 5.63486 4.90147 3.40054 
161.015 161.82 161.353 161.446 160.936 162.545 151.359 149.485 149.957 146.22 -269.439 224.717 54.9633 -297.942 192.283 6.53376 -301.815 169.481 6.03012 -290.57 145.268 12.2418 -267.383 126.989 24.2439 -216.977 180.421 43.9245 5.86335 5.05334 4.31722 
161.198 162.595 162 161.759 161.249 162.127 151.767 149.782 150.11 146.199 -266.925 223.694 54.182 -294.839 192.019 5.97262 -298.964 169.759 5.92204 -287.975 145.948 12.7406 -265.124 128.192 24.9214 -213.856 180.812 43.3118 5.23613 4.7815 4.24546 
160.347 162.94 162.237 161.845 161.346 161.431 151.747 149.84 149.993 145.716 -263.504 222.695 53.4599 -290.89 192.002 5.24448 -295.163 169.978 5.10531 -284.474 146.505 12.5108 -262.021 129.114 25.4482 -210.227 181.066 42.8328 4.89129 4.60895 4.00216 
160.321 162.902 161.916 161.426 160.678 160.83 151.559 149.525 149.415 144.879 -260.156 222.509 52.2067 -286.8 192.284 3.63116 -291.326 170.416 3.78999 -281.103 147.411 12.3004 -259.127 130.311 26.1411 -206.771 181.639 42.3533 4.7472 4.51983 4.00645 
160.405 163.328 162.22 161.695 160.575 160.312 152.024 149.915 149.626 144.774 -255.869 221.816 50.863 -282.072 192.426 1.46063 -287.157 170.771 2.33405 -277.367 148.015 11.7384 -255.792 131.208 26.2686 -202.723 182.022 42.0115 4.57287 4.58177 4.51432 
159.965 164.179 162.908 162.268 161.085 159.473 153.104 150.917 150.579 145.829 -250.715 221.923 49.7268 -277.012 193.398 -0.444658 -282.622 171.604 0.995327 -273.167 148.833 10.7932 -251.836 131.811 25.5747 -198.194 182.491 41.8775 4.58547 4.59225 4.93757 
159.612 164.653 163.642 162.861 161.368 159.034 153.799 152.118 151.72 146.787 -245.855 221.091 48.362 -272.018 193.357 -1.76626 -277.793 171.478 -0.670731 -268.436 148.794 9.2007 -247.309 131.792 24.4548 -193.397 182.566 41.3527 4.583 4.41295 4.57207 
