157.097 164.982 159.8 160.217 158.245 146.014 148.793 147.551 147.023 141.578 92.311 173.286 -1.5289 99.0111 187.138 -46.8254 84.4267 192.045 -61.2195 61.216 193.079 -60.5232 37.5015 194.057 -47.2781 51.5409 193.947 21.7703 1.19658 1.97452 1.23366 
156.587 164.871 159.483 159.615 157.538 145.611 148.58 147.52 146.709 141.039 93.9987 173.528 -0.564004 100.753 186.21 -46.1491 86.1781 190.943 -60.7189 62.8899 191.559 -60.1486 39.149 192.463 -47.085 52.6977 193.102 21.8531 0.983421 2.11125 1.1227 
156.746 166.833 163.425 163.838 163.393 145.195 156.597 154.405 153.242 148.743 93.5316 165.649 3.99766 107.13 180.43 -44.1429 92.0963 182.24 -60.7235 68.5109 181.605 -62.3231 42.2763 183.574 -51.917 50.2331 186.014 20.2409 3.0001 2.6446 1.63001 
156.452 166.973 163.866 164.344 164.126 144.954 157.634 155.406 154.172 149.823 91.7948 164.748 3.9203 105.914 179.711 -44.8236 90.9893 181.424 -61.6031 67.4756 180.882 -63.3861 41.0498 183.085 -53.2551 48.2039 185.346 19.1959 3.20763 2.57038 1.74993 
157.044 167.914 165.298 165.466 165.024 145.049 158.958 156.725 155.265 151.008 89.2151 164.084 3.3907 104.201 179.549 -45.5619 89.2724 181.533 -62.6868 65.6199 180.917 -64.7193 39.0122 183.17 -54.7458 45.4002 184.931 18.113 3.33881 2.69814 1.78672 
156.594 167.971 165.299 165.551 164.967 144.756 158.933 157.075 155.634 151.133 85.1686 163.723 1.94501 101.002 179.607 -46.8929 86.2343 181.807 -64.1538 62.5333 181.195 -66.3422 35.7574 183.059 -56.3918 41.704 185.262 16.5051 3.20118 2.67233 1.56092 
155.536 167.474 164.686 165.045 164.326 144.059 158.449 156.666 155.195 150.41 80.247 163.949 0.0160818 97.374 180.149 -48.4918 82.5808 182.077 -65.8702 58.7371 181.301 -68.1819 31.7655 182.861 -58.3077 37.5316 186.173 14.4736 3.17745 2.75698 1.62394 
156.059 166.641 163.664 164.358 163.133 145.09 156.861 154.211 153.316 148.311 69.117 164.933 -6.50764 87.328 183.043 -53.5855 72.1894 183.552 -70.4958 48.278 182.857 -72.9194 21.2621 184.127 -63.1592 27.0683 189.322 9.00667 3.07239 2.70198 2.27098 
156.972 162.198 160.639 161.127 160.528 146.96 151.98 149.021 148.558 144.382 53.5016 165.579 -16.0911 69.9223 183.543 -61.4916 54.8225 182.833 -76.8228 31.2559 182.93 -78.8564 4.95012 185.244 -69.1679 11.8581 192.959 1.22331 3.03565 2.28068 2.42692 
157.41 160.322 160.421 160.079 160.417 147.631 150.559 147.493 147.714 144.215 43.7602 165.146 -20.4849 59.9498 184.33 -65.5547 44.4532 183.44 -80.4634 20.9567 184.491 -82.4459 -5.30154 187.464 -72.8139 2.70211 194.905 -2.63838 3.67121 2.29717 2.54457 
157.525 159.208 159.867 159.597 160.428 148.685 149.686 146.395 147.422 144.372 33.0517 165.089 -24.7467 48.5311 185.485 -70.0319 32.4049 184.344 -84.4907 8.94146 186.515 -86.3815 -17.3333 190.202 -76.5737 -7.54911 197.003 -6.40584 4.4701 2.65806 2.86886 
157.218 157.934 158.893 159.028 160.631 149.62 148.451 146.305 148.108 145.401 21.4132 164.442 -28.6777 35.2238 185.582 -74.6106 18.866 185.12 -88.9529 -4.44796 188.368 -90.5985 -30.5964 192.536 -80.3679 -18.993 198.192 -10.1347 5.15721 3.1553 2.2784 
156.583 156.157 158.358 159.098 160.51 150.387 146.49 146.016 148.303 145.492 8.74077 164.657 -32.7672 20.6574 186.166 -79.2456 3.91932 186.418 -93.716 -19.309 190.643 -95.0871 -45.3637 195.042 -84.2572 -31.7092 199.732 -14.1078 5.79158 3.84811 1.75817 
157.029 155.034 158.833 160.059 161.082 152.041 144.644 147.569 149.819 146.821 -4.08363 164.838 -36.5945 4.70874 186.034 -83.8233 -12.3537 188.323 -99.1492 -35.6147 193.107 -99.8892 -61.6203 197.183 -88.1571 -45.4988 200.661 -17.9349 6.2618 4.40603 1.98616 
156.67 153.649 158.429 161.331 161.543 152.967 141.278 148.097 150.455 146.941 -18.0019 166.01 -40.8502 -12.1827 186.203 -87.9066 -29.5858 190.465 -104.215 -53.1252 195.55 -104.408 -79.1143 198.791 -91.6962 -60.2927 201.784 -21.7928 6.6173 5.1514 4.13215 
158.298 151.134 155.567 160.565 160.498 154.743 138.568 145.583 148.812 145.311 -32.2491 167.352 -45.8372 -30.17 186.904 -92.3921 -48.0409 190.401 -108.131 -71.9768 195.551 -108.062 -97.2981 198.354 -94.4707 -75.8368 202.203 -25.4619 6.71655 5.92084 4.04528 
160.523 153.182 154.053 158.819 158.439 156.768 139.54 143.724 147.288 143.468 -46.8768 168.296 -50.613 -49.0083 188.366 -98.4381 -67.9237 189.801 -112.178 -92.1677 195.097 -111.499 -116.802 197.586 -96.9049 -92.086 201.879 -28.9776 6.93915 6.57428 2.56331 
162.642 155.005 154.148 158.221 157.547 158.244 141.742 142.825 146.868 142.982 -63.5665 167.989 -54.8985 -68.3892 190.238 -103.815 -88.1836 188.807 -115.529 -113.094 194.318 -114.271 -137.448 196.663 -98.7584 -109.197 201.307 -31.6399 7.5327 7.38096 2.19832 
165.292 159.726 158.819 158.397 157.935 160.039 147.43 146.648 148.239 143.562 -81.1242 168.29 -59.5552 -89.1526 192.88 -110.444 -110.098 189.389 -120.828 -134.76 193.824 -117.435 -158.861 195.527 -100.569 -127.243 200.499 -34.3089 7.75552 6.54664 3.72098 
168.959 165.67 163.004 160.674 160.555 163.23 152.959 150.704 149.672 144.848 -98.987 169.708 -63.423 -112.81 196.052 -116.237 -134.873 191.044 -125.221 -158.805 194.028 -119.074 -182.812 195.188 -100.582 -146.6 199.875 -35.9745 8.39233 5.18666 5.21729 
172.696 168.226 167.979 165.549 162.369 166.188 155.545 155.277 152.213 146.196 -118.958 171.511 -67.2539 -137.397 197.174 -120.09 -160.267 193.688 -128.58 -183.589 195.403 -120.288 -207.198 195.119 -99.8386 -166.901 199.96 -36.7169 8.15798 4.19827 4.40306 
174.631 169.61 170.914 172.306 168.842 168.376 157.56 159.354 160.224 155.27 -140.428 171.855 -70.0458 -163.078 197.062 -122.296 -186.053 196.607 -130.756 -211.633 199.678 -121.84 -235.489 197.728 -98.3127 -187.385 199.212 -36.562 9.83867 6.68192 2.79505 
175.55 168.139 171.606 172.151 170.4 170.244 155.74 161.305 162.835 159.39 -162.46 172.121 -71.8153 -188.222 195.074 -122.611 -211.373 198.166 -131.813 -238.022 201.562 -121.538 -261.462 198.587 -96.0171 -208.051 198.841 -35.8307 10.5315 7.80609 3.45942 
175.589 163.508 170.909 171.931 171.755 171.769 151.586 160.656 162.704 161.828 -184.862 171.627 -73.3963 -210.867 192.769 -121.6 -234.963 199.242 -131.691 -262.62 202.034 -120.072 -285.568 198.187 -92.8307 -228.17 198.607 -34.9182 11.1439 8.55374 6.32791 
174.05 153.56 167.844 171.133 172.949 171.849 145.644 155.938 159.531 160.979 -208.807 172.456 -73.6261 -234.169 189.96 -117.439 -257.073 197.086 -128.641 -284.637 199.192 -116.697 -306.765 195.486 -88.8259 -248.286 199.077 -32.9454 11.0672 8.6827 7.63424 
173.124 151.937 167.432 170.067 170.389 172.917 147.974 155.515 159.215 160.058 -228.803 171.72 -71.5294 -257.737 187.176 -112.8 -276.956 195.345 -125.376 -304.711 197.583 -113.029 -326.628 193.569 -84.5153 -267.977 199.637 -30.0038 11.263 9.26671 9.98445 
170.646 151.107 166.26 167.001 167.783 172.388 145.826 158.114 160.515 156.801 -261.157 168.815 -66.2502 -293.355 175.878 -99.058 -312.96 189.4 -116.615 -339.922 192.473 -102.358 -356.958 187.764 -73.0262 -298.725 197.523 -23.5643 8.64798 10.1155 19.4081 
165.683 137.093 164.609 165.128 168.289 169.742 135.374 157.344 159.122 156.679 -277.604 167.274 -61.8733 -307.635 170.428 -88.714 -329.853 186.816 -110.453 -356.236 189.668 -95.1985 -371.129 185.481 -66.0085 -312.07 197.163 -19.2913 7.5322 10.0711 25.388 
162.868 98.6282 157.282 149.736 174.27 167.628 136.241 156.201 156.176 146.159 -303.587 165.03 -53.6649 -329.436 163.765 -68.6168 -354.149 180.657 -96.3928 -377.352 182.381 -78.8725 -387.076 178.503 -49.2829 -333.081 196.723 -9.94541 4.31578 8.34041 34.1247 
163.737 109.977 148.012 134.22 133.05 166.046 120.215 156.5 118.237 100.668 -325.503 164.434 -48.9169 -343.697 157.568 -50.7658 -372.265 173.233 -86.4409 -382.133 172.742 -57.1907 -386.284 169.092 -25.2881 -349.074 198.09 -4.50244 16.0208 5.01323 42.4097 
165.518 112.019 151.171 114.658 106.077 168.927 108.391 162.555 121.77 76.6948 -328.781 162.845 -45.8458 -346.334 158.019 -41.1296 -375.046 171.717 -83.1368 -383.515 171.44 -52.3357 -384.433 170.969 -11.5489 -352.845 197.832 -0.909502 27.4137 6.30984 47.9694 
167.581 121.396 154.168 112.529 122.227 170.661 99.2435 170.731 136.082 67.1444 -331.925 162.246 -44.5222 -349.102 158.293 -34.6824 -379.598 172.151 -81.0585 -390.144 171.293 -51.5989 -385.291 170.54 -4.90521 -356.856 197.512 0.749729 39.7755 5.39423 54.1735 
169.556 128.829 167.36 123.507 130.746 171.03 92.9534 173.735 137.594 60.5638 -335.351 161.021 -43.6158 -348.242 158.891 -29.9606 -381.839 172.587 -80.2331 -392.844 170.737 -50.5463 -387.507 171.562 -1.66685 -359.001 197.123 1.54054 43.2524 6.24642 60.2163 
170.32 134.87 164.87 174.27 126.871 171.955 91.0967 174.022 155.689 65.5805 -335.576 159.109 -41.6297 -347.094 158.044 -26.8137 -380.827 172.095 -79.4038 -398.521 172.387 -54.4589 -386.198 170.18 -2.6763 -358.945 196.37 3.09721 47.7038 5.67122 62.839 
170.365 139.02 157.01 120.249 120.387 170.899 97.0952 172.38 160.932 71.7272 -337.006 158.796 -40.0256 -346.767 156.366 -25.2436 -380.53 169.81 -75.9156 -394.917 169.535 -50.8124 -388.748 169.557 -2.69617 -359.794 197.245 4.35055 38.7529 3.92897 60.0686 
170.359 140.542 158.823 174.27 119.284 170.251 97.8357 172.995 177.735 69.4156 -337.093 159.108 -39.9833 -348.015 156.663 -25.7578 -381 169.35 -74.4398 -400.806 171.334 -52.2471 -390.064 170.41 -1.19043 -360.039 197.822 4.52176 43.9035 6.40656 57.6688 
170.606 141.699 163.103 174.27 122.421 169.737 98.4112 162.811 179.921 77.3134 -335.069 161.582 -38.8581 -349.36 158.942 -28.3993 -378.543 171.155 -73.3302 -399.226 173.979 -54.449 -392.291 170.274 -5.28339 -360.016 199.241 5.64172 36.9898 6.42129 52.6346 
169.39 142.615 173.642 174.27 117.271 169.064 101.613 163.892 179.525 79.1077 -334.431 163.171 -38.6102 -349.817 159.777 -30.9539 -379.306 173.899 -73.6375 -403.301 178.764 -55.3883 -395.32 172.579 -7.83688 -359.872 200.263 6.02907 34.3053 10.0474 50.756 
169.361 134.781 180 178.929 122.586 169.286 107.621 165.046 176.421 81.2835 -335.388 165.456 -37.707 -351.211 161.7 -35.6148 -378.147 175.443 -72.0242 -399.953 181.637 -54.8901 -390.307 174.295 -6.39661 -358.261 202.33 7.46405 38.482 8.95232 42.6257 
168.271 137.383 171.98 168.33 150.394 168.468 102.673 164.423 165.019 100.224 -334.554 165.612 -36.6308 -346.818 162.083 -30.9007 -377.044 179.401 -76.0942 -397.251 184.585 -59.0548 -392.284 174.129 -17.055 -356.396 202.254 7.74214 26.8641 7.59195 52.0491 
167.367 145.439 169.625 155.068 174.27 166.915 104.461 159.677 159.1 135.679 -332.016 168.682 -38.019 -344.645 163.715 -34.207 -376.367 184.279 -77.7526 -398.262 189.867 -61.4075 -404.203 183.701 -29.8981 -355.526 203.697 6.93892 6.97966 9.32564 52.418 
166.728 141.446 165.077 152.739 174.27 166.866 106.687 163.968 158.03 140.001 -331.391 170.591 -37.5719 -343.706 165.896 -36.3859 -374.994 188.818 -79.2302 -396.33 192.945 -61.34 -404.876 187.784 -30.2824 -354.523 205.855 7.27481 6.34935 7.66818 51.4425 
166.717 140.071 169.062 162.254 177.17 165.922 108.367 164.183 159.594 148.954 -330.047 171.583 -37.4522 -344.712 165.831 -36.9179 -375.56 190.077 -80.1486 -397.725 195.1 -62.4394 -408.763 191.377 -30.5222 -353.91 206.45 7.00719 6.75064 8.30752 51.482 
166.985 140.253 172.199 165.703 160.393 165.099 110.001 162.102 158.409 147.084 -328.319 173.106 -37.7676 -346.713 166.818 -39.2189 -376.409 190.633 -80.1038 -398.57 195.927 -62.6562 -409.217 192.177 -30.2949 -353.33 206.874 6.66839 7.02565 8.30004 48.6881 
165.14 147.206 169.756 162.055 147.932 162.969 112.109 154.934 154.169 143.528 -323.873 173.725 -39.5607 -344.255 166.799 -42.5721 -374.614 190.234 -79.5604 -396.72 195.612 -62.9375 -405.762 190.847 -30.9723 -350.52 206.591 5.46644 6.46722 8.69853 46.1882 
164.473 147.711 168.539 163.751 141.014 162.15 115.995 153.313 153.378 139.282 -321.936 173.787 -40.1608 -342.751 166.697 -46.5449 -373.044 189.9 -79.5768 -394.936 195.395 -63.1528 -403.087 189.459 -29.9686 -348.809 206.211 4.90705 7.87619 8.74237 42.8203 
164.501 149.205 167.017 163.848 143.841 162.438 118.277 152.841 152.561 140.84 -319.37 173.692 -40.3915 -340.88 166.221 -48.0576 -371.406 189.53 -80.08 -393 194.376 -63.675 -401.705 188.993 -30.6895 -347.562 206.057 4.67267 7.68606 8.05917 41.7754 
164.436 144.032 165.31 165.735 150.795 163.202 115.546 158.589 154.507 143.362 -317.407 172.815 -40.0108 -338.412 166.392 -47.1863 -368.376 190.619 -82.1235 -390.14 193.894 -64.6938 -398.647 188.95 -32.6576 -345.771 205.569 4.75183 6.49169 7.26332 43.7587 
164.851 137.326 163.463 167.693 157.469 163.603 114.768 162.308 157.489 144.213 -316.81 171.63 -39.1261 -338.022 167.273 -48.101 -366.349 189.614 -82.5076 -387.732 193.169 -65.4424 -395.921 188.453 -33.459 -344.027 205.132 4.88957 6.47816 6.8061 41.2337 
165.027 138.866 167.002 169.649 156.431 163.235 118.351 162.568 158.607 145.712 -317.392 171.119 -38.8222 -336.947 167.059 -49.8416 -364.786 190.09 -83.2157 -386.812 193.564 -66.3231 -395.665 189.266 -34.1454 -342.911 205.121 4.69737 6.23907 7.01506 40.3238 
165.09 142.949 166.506 167.241 168.742 162.749 119.272 165.58 163.998 153.482 -318.67 171.2 -38.8449 -336.935 166.969 -49.1588 -362.817 190.583 -84.5336 -385.915 195.169 -68.3685 -396.36 192.314 -37.2285 -342.151 205.952 3.92125 5.01 7.89724 41.7102 
165.055 143.995 169.181 167.946 163.963 162.903 111.912 164.581 163.798 157.558 -317.397 171.461 -39.5559 -336.04 166.439 -44.1005 -361.378 190.797 -85.4066 -384.807 195.772 -69.6972 -396.535 193.491 -38.9499 -341.901 206.386 3.40429 4.862 8.35484 47.4902 
164.524 143.44 170.396 168.761 162.229 162.932 108.123 163.876 164.178 158.162 -315.498 171.778 -40.3182 -334.528 166.015 -41.4544 -360.646 191.028 -86.3218 -384.57 196.789 -70.6759 -396.659 194.53 -39.8357 -341.145 206.473 2.6659 5.22265 9.05247 51.2882 
163.704 143.809 171.285 169.357 161.55 162.963 106.085 162.407 162.801 158.839 -313.806 171.873 -40.8595 -332.205 165.582 -39.2825 -359.277 190.825 -86.7311 -383.461 196.582 -71.1396 -395.811 194.644 -39.9636 -340.085 206.644 2.10111 5.58889 9.20716 54.1873 
163.224 142.307 171.509 168.354 164.585 163.117 105.547 161.54 162.059 159.511 -312.2 172.553 -41.7934 -331.025 165.784 -39.3686 -359.043 191.188 -87.0303 -383.201 196.907 -71.066 -395.185 194.764 -39.9577 -339.13 206.934 1.77991 5.41611 9.25497 54.594 
163.296 139.559 169.201 166.249 163.585 163.32 106.921 160.355 162.066 158.626 -309.969 172.951 -42.3803 -329.12 166.461 -41.7552 -358.845 192.093 -86.9363 -383.456 197.844 -70.5805 -394.774 194.898 -39.4802 -337.707 206.986 1.71296 5.50549 9.77096 52.8967 
163.849 139.03 170.529 166.975 156.83 163.5 104.686 160.368 162.48 155.375 -308.688 173.812 -42.4816 -327.74 167.43 -40.6756 -357.793 193.388 -87.2963 -383.03 199.38 -70.6739 -393.737 195.399 -39.221 -336.876 207.568 1.5818 5.63123 10.3924 54.766 
164.467 138.054 168.745 167.128 163.204 164.008 101.709 161.117 164.637 159.466 -307.012 174.367 -43.0748 -325.628 168.184 -38.5195 -356.693 195.023 -88.5607 -382.73 201.577 -72.0896 -394.112 197.462 -41.0921 -335.866 207.944 1.12493 5.75745 11.2618 58.8112 
164.565 134.714 167.05 166.102 163.784 164.258 100.937 159.849 163.061 159.804 -305.497 176.036 -44.9081 -323.536 170.597 -40.247 -355.179 197.688 -89.9215 -381.338 203.771 -73.1577 -392.185 199.959 -42.4518 -333.678 209.476 -0.325024 5.21655 11.3434 59.0588 
164.312 130.06 166.215 165.687 166.207 164.123 102.349 160.021 162.412 161.269 -303.43 176.78 -45.1486 -321.773 172.552 -44.6404 -354.55 198.493 -90.2377 -380.368 204.316 -73.3025 -392.061 201.92 -43.0106 -332.04 210.149 -0.552765 5.937 10.8799 54.3144 
165.064 133.114 164.692 165.545 167.221 163.996 102.95 159.697 161.759 161.582 -301.711 179.652 -46.2395 -319.847 175.825 -47.5337 -352.612 201.272 -91.1096 -377.867 206.198 -74.3812 -389.596 204.21 -44.5883 -329.935 212.715 -1.15249 5.57944 10.0536 51.7005 
166.342 132.218 163.923 169.4 172.289 165.378 99.3254 158.626 163.155 164.354 -298.726 181.093 -47.1846 -317.22 177.956 -46.5721 -349.213 201.939 -91.5136 -374.465 206.672 -75.2443 -386.263 203.283 -45.1244 -328.644 214.089 -1.43088 5.10606 9.93441 52.2565 
167.667 131.611 163.336 168.993 171.574 165.914 98.2883 158.216 163.804 164.434 -296.513 183.449 -48.6962 -316.197 180.31 -47.9611 -348.008 203.646 -92.0958 -373.658 208.978 -75.6857 -385.454 204.734 -45.2699 -327.476 215.741 -2.1027 5.51176 10.5857 51.1642 
168.19 128.248 163.689 169.684 169.99 165.806 101.542 160.929 164.991 165.499 -293.141 184.269 -49.575 -314.995 182.107 -52.4142 -346.144 204.283 -92.5473 -370.838 209.831 -75.561 -381.787 205.279 -44.7288 -324.597 216.593 -2.52211 5.12418 10.1067 45.9954 
168.877 132.574 161.506 169.382 170.861 167.276 110.497 160.607 162.762 163.185 -289.603 185.75 -50.48 -313.071 183.757 -58.1849 -341.956 204.063 -92.4999 -366.61 209.773 -75.7024 -377.177 204.894 -44.816 -321.716 218.255 -3.02627 4.97545 10.2315 39.1145 
169.43 132.366 160.27 168.892 169.424 167.41 116.206 163.024 163.491 159.682 -284.669 185.72 -50.3439 -309.607 185.61 -62.5449 -337.902 204.484 -92.5436 -362.182 210.212 -76.0227 -371.615 204.58 -44.5212 -317.241 218.748 -3.15044 5.11581 9.99944 34.306 
170.337 148.774 163.368 166.097 163.467 169.177 125.172 161.55 165.034 170.393 -275.341 187.41 -52.1538 -300.575 186.291 -66.5531 -328.597 207.747 -94.4376 -354.203 214.441 -77.8897 -367.057 209.645 -46.5058 -308.062 220.957 -3.62759 6.92861 11.2923 33.4529 
170.813 153.49 164.035 165.847 161.302 169.78 126.674 161.08 165.063 167.365 -269.41 188.246 -52.8202 -293.398 186.592 -67.094 -322.493 208.813 -94.5451 -348.597 215.895 -78.0705 -361.534 210.329 -46.6321 -302.583 221.87 -3.41696 7.13879 11.8354 33.7133 
170.92 156.749 164.692 167.047 162.889 169.965 129.017 160.649 164.843 167.875 -263.041 188.837 -52.3965 -286.23 187.261 -67.8049 -314.776 208.749 -94.5942 -341.225 215.743 -78.8309 -354.838 209.904 -47.3589 -296.877 223.054 -3.04089 7.36528 11.7831 32.2636 
170.498 156.214 165.496 167.95 159.82 169.338 131.271 160.838 165.146 169.035 -256.867 189.318 -51.8702 -279.11 188.723 -69.1615 -306.896 208.919 -95.0103 -332.899 215.187 -80.0638 -346.425 209.51 -48.7059 -290.922 224.125 -3.07136 6.58197 10.955 30.2884 
170.033 155.697 166.28 168.105 158.63 168.48 134.636 161.036 164.502 164.86 -250.585 190.227 -51.3577 -272.78 191.029 -71.5206 -299.044 209.462 -95.1668 -324.262 214.912 -80.5044 -337.808 209.677 -49.6016 -284.4 225.041 -2.99377 5.82517 9.91691 27.0862 
169.352 158.436 166.815 167.93 160.293 167.36 139.001 160.98 163.806 163.667 -244.019 191.671 -50.1306 -265.178 193.044 -73.8939 -290.515 209.687 -95.0014 -315.41 214.431 -80.6868 -329.991 210.502 -50.7114 -277.754 226.177 -2.67707 5.54265 9.24677 23.9313 
168.401 158.628 168.139 169.394 166.008 166.019 139.811 162.034 165.482 167.562 -236.99 193.334 -49.1342 -257.42 194.482 -74.2731 -283.123 211.942 -95.5231 -308.507 216.951 -81.3893 -324.955 214.297 -52.454 -270.643 227.228 -2.4035 6.94536 9.58226 24.1453 
168.092 158.457 167.902 168.617 166.21 166.247 137.931 161.131 164.621 166.306 -229.304 195.103 -48.0491 -249.18 195.755 -72.4758 -274.641 214.577 -95.2898 -300.482 219.381 -81.5613 -318.426 216.66 -53.135 -263.948 228.964 -1.90634 7.96707 9.70194 25.8409 
167.857 155.429 167.413 167.851 165.749 166.112 132.868 159.98 163.032 163.565 -221.484 197.368 -46.8766 -240.892 197.132 -69.2431 -265.717 216.775 -94.8324 -291.402 220.912 -81.647 -310.171 218.135 -53.8409 -257.226 230.743 -1.32123 8.07125 9.20729 27.9461 
167.991 152.377 167.31 167.584 166.572 166.661 130.86 160.057 163.112 164.055 -212.765 198.683 -45.2636 -231.615 197.544 -66.2769 -256.48 218.959 -94.3704 -282.785 223.274 -81.5828 -303.324 220.559 -54.024 -250.06 231.866 -0.253164 9.35542 9.52919 30.3933 
167.343 146.259 166.702 167.114 167.008 167.011 123.499 158.677 162.092 162.935 -195.515 201.131 -41.5795 -214.856 199.492 -59.6124 -238.887 222.593 -92.4571 -266.327 226.927 -80.3854 -288.958 224.206 -53.3289 -235.903 233.943 2.08831 10.8487 10.1943 34.5403 
168.174 143.551 167.993 168.884 166.724 167.216 127.778 158.216 161.257 160.265 -178.637 203.063 -35.1049 -198.494 202.594 -56.0787 -220.248 222.313 -86.3289 -247.096 225.778 -75.4694 -270.563 223.42 -48.8673 -221.332 235.457 7.43238 10.7939 9.50335 30.6386 
169.064 146.861 168.717 170.058 168.13 167.331 132.357 159.692 162.82 161.357 -168.682 203.404 -30.7917 -189.172 203.707 -56.1632 -211.391 221.764 -83.1398 -238.361 224.916 -72.4417 -261.445 222.689 -46.0537 -212.923 234.975 10.9217 10.3392 9.39333 27.0705 
169.156 157.911 169.6 170.833 168.682 165.973 146.279 161.336 164.132 161.495 -158.947 204.101 -25.7492 -182.31 208.607 -61.8982 -203.728 221.492 -79.9945 -230.149 223.9 -69.2743 -251.746 221.625 -43.0528 -204.308 234.051 14.6709 8.85581 8.60591 17.7503 
169.208 164.39 169.509 170.814 168.641 164.919 156.665 161.85 164.421 161.195 -149.32 205.118 -20.9535 -176.489 214.763 -65.5991 -197.405 221.661 -76.8144 -223.555 223.84 -66.0423 -244.327 221.87 -40.0015 -196.375 233.409 18.1303 8.23775 8.12504 9.63521 
170.084 165.812 169.073 170.175 168.253 164.731 160.058 161.516 163.589 159.898 -140.117 206.485 -16.1592 -169.463 219.611 -65.3935 -190.147 221.403 -73.4416 -215.648 222.674 -62.8412 -235.904 221.218 -37.4404 -189.153 233.526 21.3446 7.60057 7.21496 4.50974 
170.449 165.707 167.661 168.608 167.319 164.393 159.847 159.835 161.474 157.697 -131.739 207.936 -11.9369 -162.506 223.508 -63.7206 -182.943 221.875 -70.1639 -207.974 222.217 -59.7728 -228.065 220.978 -34.9844 -182.503 234.3 24.301 7.20149 6.4844 1.47052 
170.613 165.272 165.856 167.234 166.075 164.271 156.901 157.759 159.779 155.938 -123.456 208.509 -8.37531 -154.914 223.452 -60.4105 -174.7 221.523 -67.3898 -199.654 221.681 -57.6317 -219.791 220.143 -33.4386 -175.657 234.608 26.5655 6.8346 6.39704 1.3984 
171.048 164.811 163.979 165.377 164.77 164.099 153.377 154.941 156.919 153.104 -116.575 210.115 -5.59587 -147.87 224.298 -57.0213 -167.057 221.18 -64.1554 -191.469 220.612 -54.8805 -211.355 219.139 -31.3783 -169.308 235.353 28.8707 6.25846 5.83066 0.773004 
171.09 163.872 162.277 163.613 163.071 163.893 149.485 152.464 154.57 150.546 -110.009 210.337 -2.60167 -140.078 224.119 -53.025 -159.185 220.608 -60.9496 -183.242 219.595 -52.2812 -202.963 217.73 -29.4371 -163.079 235.578 31.0639 5.65481 5.55603 1.01624 
170.867 163.939 161.387 162.547 162.149 163.341 148.313 150.994 153.06 148.912 -104.438 211.103 0.701756 -134.005 225.622 -49.8737 -152.828 221.357 -57.8879 -176.507 220.027 -49.5926 -196.119 217.886 -27.2275 -157.61 236.246 33.6038 5.28772 5.24947 0.573876 
170.725 164.942 161.468 162.163 161.829 162.774 148.897 150.447 151.962 147.712 -99.658 212.122 3.70936 -128.63 227.481 -47.4688 -147.171 222.414 -55.329 -170.433 220.414 -47.1315 -189.92 218.117 -25.1693 -152.818 236.982 36.0342 4.8739 4.6721 0.416536 
170.701 165.316 161.65 162.048 161.896 162.552 148.569 150.325 151.651 147.471 -95.3115 212.913 6.49824 -123.268 228.186 -44.6572 -141.776 223.652 -53.1845 -165.025 221.477 -45.2737 -184.661 218.96 -23.6522 -148.55 237.683 38.1983 4.76197 4.57431 0.52411 
171.274 165.695 161.953 161.744 161.603 162.898 148.358 149.603 150.321 146.162 -91.484 214.298 8.14544 -118.62 228.687 -42.5203 -136.799 224.054 -51.2431 -159.748 221.145 -43.4428 -179.276 218.577 -22.214 -144.899 238.357 39.8422 4.29419 4.05612 0.673989 
