166.674 170.551 171.374 171.49 170.984 150.418 167.607 166.174 163.976 159.94 -6.39977 265.844 33.608 9.56479 240.665 -27.3898 7.25115 221.241 -38.5583 -5.48573 203.741 -35.494 -26.2856 192.353 -21.2686 -51.9346 232.875 37.6212 0.556757 2.66001 4.76539 
166.449 170.408 171.197 171.399 170.936 150.154 167.393 165.867 163.772 159.901 -9.08022 265.342 33.1001 7.19863 240.358 -27.7736 5.17799 220.873 -38.7173 -7.56414 203.38 -35.7614 -28.6063 192.051 -21.9059 -54.6463 232.598 36.805 0.540051 2.61082 4.94124 
166.314 170.388 171.057 171.332 170.901 149.777 167.283 165.536 163.444 159.645 -12.9447 263.655 32.2319 3.67649 239.538 -28.2652 1.88671 220.102 -38.9219 -10.7943 202.703 -36.0255 -32.0936 191.636 -22.5684 -58.6268 232.071 35.8597 0.771465 2.63529 5.12751 
165.889 170.019 170.462 170.827 170.422 149.56 166.835 164.777 162.577 158.417 -17.6097 261.869 31.0549 -0.70279 238.49 -29.1491 -2.41521 218.931 -39.4958 -15.0741 201.502 -36.5903 -36.3953 190.437 -23.0977 -63.3378 231.163 34.7224 0.732614 2.62553 5.2279 
165.195 169.737 170.069 170.407 170.19 148.648 166.378 164.363 162.086 157.775 -23.5063 260.036 28.9494 -5.97026 237.802 -30.6396 -7.73558 218.414 -41.0694 -20.2852 200.978 -38.2123 -41.5226 189.829 -24.7226 -68.8503 230.409 32.7936 0.739843 2.64611 5.05756 
162.926 169.194 169.352 169.303 169.537 145.666 165.196 163.26 161.075 156.876 -37.691 255.019 24.065 -19.9328 235.859 -35.2255 -21.9564 216.677 -46.1809 -34.4271 199.216 -43.1707 -56.0841 188.344 -29.8096 -83.215 229.348 27.5337 0.681604 2.96278 4.71073 
162.456 168.263 168.102 167.837 168.521 144.67 163.514 161.414 159.191 154.759 -48.1508 252.618 19.8426 -30.2814 234.884 -38.8512 -32.4182 215.525 -49.9113 -44.923 197.606 -46.5 -66.6928 186.761 -32.9149 -93.535 228.787 23.7216 0.399005 3.44656 4.73481 
162.225 167.682 167.438 166.826 167.525 144.212 162.373 160.219 157.989 153.181 -59.9095 250.636 15.2422 -42.1935 233.591 -42.8468 -44.7479 214.235 -54.0539 -57.5891 196.227 -50.4473 -79.4164 185.575 -36.5508 -105.192 228.215 19.9451 0.346808 3.55652 4.58213 
161.351 167.563 167.298 166.611 167.194 143.315 161.443 159.554 157.684 152.874 -73.8958 248.417 10.1872 -56.0539 232.163 -47.2054 -59.1785 213.076 -58.6513 -72.6025 195.182 -55.2167 -94.6366 184.784 -41.1899 -118.861 227.71 15.8996 0.189659 3.27742 4.15169 
160.743 167.582 167.401 166.627 167.081 142.545 160.786 159.18 157.649 152.833 -89.6887 245.973 4.36786 -71.9779 231.199 -52.4233 -75.8177 212.191 -64.1797 -89.6576 194.378 -60.783 -111.64 184.004 -46.4513 -134.071 226.806 11.4865 0.496722 3.00321 3.70904 
159.42 167.635 167.729 167.048 167.555 141.399 160.433 159.126 157.968 152.831 -107.201 243.282 -1.4059 -89.8357 229.69 -57.7573 -94.5493 210.916 -69.7488 -108.914 193.46 -66.3118 -130.731 183.073 -51.5978 -150.719 225.495 7.08419 1.00112 2.55423 3.15526 
157.973 168.127 168.234 167.854 168.714 139.947 159.964 158.975 158.154 152.422 -127.416 242.287 -6.99138 -111.176 229.595 -63.3757 -116.913 211.826 -75.7622 -131.729 194.885 -72.3124 -153.312 184.684 -57.3067 -169.599 225.509 2.90123 1.90128 2.11529 2.3874 
157.465 168.33 169.011 169.086 168.97 139.109 158.753 159.078 158.631 151.425 -148.573 240.283 -13.4363 -134.629 230.404 -70.0652 -141.634 213.794 -83.2091 -156.39 196.995 -79.4038 -177.197 185.956 -63.3056 -189.517 224.902 -1.58113 2.39503 1.77377 1.1749 
157.343 168.923 169.715 170.658 169.617 138.796 157.481 159.015 159.504 150.255 -170.985 238.952 -19.8178 -159.953 232.195 -76.7879 -168.389 216.217 -90.4221 -183.149 199.638 -86.2456 -202.551 187.551 -68.6285 -210.369 224.547 -5.5758 2.80556 1.33337 0.11335 
157.932 170.261 169.073 170.382 169.464 139.333 157.053 157.487 158.045 148.115 -194.799 238.844 -25.3976 -187.865 234.337 -83.2698 -196.678 217.963 -96.2424 -210.839 200.673 -91.362 -228.876 187.526 -72.6063 -232.453 223.861 -8.63233 3.39831 1.57711 0.499836 
157.929 171.557 169.766 171.229 169.914 139.342 156.678 157.378 157.903 147.724 -219.467 238.562 -30.1069 -218.152 236.952 -89.1047 -227.184 219.897 -101.62 -240.344 201.732 -95.9185 -256.587 187.784 -76.0034 -255.793 223.432 -11.1054 3.87464 1.83768 1.02385 
158.357 171.585 170.282 170.58 168.349 140.841 154.987 156.16 156.387 144.646 -246.205 241.009 -35.8707 -247.587 237.723 -93.0615 -257.122 219.656 -104.968 -268.997 200.66 -98.1383 -282.566 186.618 -76.7374 -278.486 222.263 -12.8502 3.90411 2.06853 1.31317 
155.666 169.473 169.35 168.461 167.473 140.071 150.925 154.581 154.669 144.538 -271.827 242.407 -38.3218 -276.457 237.046 -94.4139 -286.578 219.12 -106.178 -297.057 199.766 -98.5903 -308.526 184.446 -76.9411 -300.255 219.981 -13.2254 4.59575 1.92847 0.784621 
155.154 161.725 163.981 163.263 163.555 140.946 141.243 147.715 147.111 138.325 -296.426 243.67 -39.0211 -303.578 235.685 -92.3896 -314.374 216.942 -104.068 -322.718 196.445 -95.7238 -331.953 180.083 -74.1093 -322.47 217.872 -12.3322 4.69089 2.44498 1.30826 
154.563 156.999 160.895 160.957 162.336 141.336 136.266 144.604 143.824 136.852 -321.619 245.636 -37.6683 -330.835 234.7 -89.3711 -341.551 214.897 -100.872 -347.981 193.898 -92.1197 -355.28 176.581 -70.5242 -344.355 216.37 -9.832 5.34132 2.54407 1.74547 
154.419 154.317 160.032 160.579 163.13 140.467 130.727 141.875 141.752 134.468 -344.342 245.096 -34.2899 -353.523 232.896 -83.9678 -363.97 211.528 -95.4904 -368.468 189.469 -86.4863 -373.363 171.754 -64.5233 -364.329 214.305 -5.51457 5.10981 3.26538 2.72305 
155.123 158.294 161.201 161.799 163.842 142.537 130.479 140.652 139.529 131.705 -366.594 245.438 -30.0158 -373.987 228.752 -78.6531 -381.659 205.728 -89.2399 -383.523 183.612 -79.3575 -387.067 166.973 -57.2597 -381.701 211.96 0.139495 4.6455 3.60608 2.63903 
157.455 163.293 162.786 161.984 164.818 143.555 131.606 139.396 138.194 130.623 -386.472 244.033 -25.3799 -392.553 225.138 -73.2763 -396.836 200.434 -82.3205 -396.042 178.161 -71.8717 -398.052 162.824 -50.0602 -396.988 208.893 5.97942 3.78633 4.23878 3.80931 
160.245 164.651 166.11 165.938 169.493 142.934 140.356 146.949 144.844 135.833 -403.789 241.588 -17.8941 -408.59 221.528 -66.8892 -410.53 195.164 -75.1486 -406.455 172.696 -63.5842 -406.448 158.244 -40.833 -410.188 206.441 14.1787 2.81287 5.45534 4.77203 
156.592 169.742 164.579 165.582 175.033 141.499 144.713 149.762 145.523 138.289 -418.488 237.026 -10.0528 -422.76 218.584 -59.8972 -421.585 191.101 -67.3635 -413.496 169.302 -54.7746 -413.027 155.215 -32.0192 -421.562 203.906 21.9311 2.19738 7.41784 6.25684 
159.975 163.181 167.214 167.867 178.265 136.479 148.441 153.436 148.726 138.305 -426.106 227.407 -2.3316 -430.375 216.35 -51.6335 -428.294 190.188 -59.3881 -420.362 167.653 -46.2551 -420.205 154.876 -22.5572 -431.384 202.324 30.0942 1.12772 7.44836 5.00475 
164.378 174.072 172.768 172.324 179.001 128.882 152.975 160.271 155.82 143.94 -431.776 219.252 8.68868 -436.146 213.82 -44.2746 -433.699 187.437 -52.2107 -427.593 165.982 -39.9254 -426.749 153.777 -14.8507 -439.599 200.877 38.499 0.618177 4.93518 4.15594 
145.911 179.525 174.531 173.137 176.49 117.952 143.328 161.831 158.486 147.673 -427.453 199.019 23.8363 -434.054 212.343 -32.9904 -435.372 188.916 -44.6227 -434.064 166.361 -33.4649 -433.167 154.358 -8.20263 -448.363 200.309 45.731 0.107441 3.96143 4.81199 
164.498 177.493 173.853 172.878 170.61 119.356 146.232 165.098 159.838 142.662 -427.695 184.176 36.3922 -438.113 210.449 -23.8902 -441.52 188.391 -36.8219 -440.543 165.577 -24.9185 -437.51 156.696 2.36191 -455.639 200.28 53.8287 4.75999 4.2409 7.01581 
159.895 179.433 172.89 171.009 163.277 117.73 152.682 166.779 160.999 138.984 -429.518 173.297 51.8721 -441.992 208.206 -17.1051 -446.243 187.559 -30.3333 -444.843 163.718 -18.125 -439.592 157.231 10.7475 -460.253 199.98 60.5283 8.57889 5.05283 8.09896 
143.321 174.27 174.488 167.405 151.519 114.458 141.102 155.185 150.475 140.679 -427.06 173.726 61.8522 -444.069 207.745 -6.21658 -447.041 188.471 -20.9862 -446.346 163.595 -7.81307 -446.26 155.244 16.3193 -464.18 200.023 66.249 4.18996 6.15903 8.88412 
156.356 134.49 173.555 169.554 158.092 139.043 143.581 155.218 154.464 148.829 -443.875 174.074 54.6797 -443.268 205.589 2.76652 -450.585 191.242 -15.4622 -451.681 164.602 -3.19074 -453.695 153.848 20.1843 -467.468 200.342 72.2697 1.688 7.25428 14.6724 
153.605 102.287 180 170.912 166.573 152.93 155.374 169.133 157.071 150.75 -445.763 178.663 49.1825 -436.438 205.156 12.1556 -456.559 192.739 -13.6541 -454.942 167.442 1.06162 -459.487 154.541 25.0047 -469.233 200.697 77.4609 0.047076 7.54925 25.1701 
127.557 100.428 180 170.865 167.654 137.027 154.578 177.017 156.866 153.21 -452.107 172.759 62.6888 -429.773 199.814 19.0248 -458.549 191.506 -13.4459 -457.292 166.981 3.45519 -465.016 153.119 27.4306 -469.299 200.062 81.0038 1.81446 8.62488 32.4795 
145.03 99.3582 179.979 168.896 168.392 139.423 145.227 179.241 156.975 156.123 -442.06 165.195 64.7038 -425.21 194.054 25.736 -459.966 190.538 -13.2436 -459.667 167.18 4.41716 -470.192 152.559 28.3356 -468.616 199.145 83.9174 3.32058 9.17424 38.6572 
160.34 118.487 179.974 170.821 170.298 142.72 134.423 179.596 159.134 153.172 -442.921 156.843 62.1302 -421.617 187.086 30.3047 -456.971 184.866 -11.2762 -457.048 163.412 7.12523 -469.399 151.634 31.9476 -467.245 197.858 85.5594 1.69645 10.0012 39.3176 
154.27 125.486 179.999 171.391 169.014 132.642 120.823 179.995 165.888 157.688 -445.668 161.181 67.1849 -423.201 182.257 38.6633 -455.682 182.901 -9.97135 -463.228 164.025 5.18817 -475.535 151.996 30.903 -467.63 197.817 87.4152 2.29373 5.23278 43.8374 
146.074 120.736 180 174.106 170.231 136.617 120.209 179.996 168.208 158.021 -446.465 159.826 67.8405 -423.788 180.473 40.0733 -453.695 182.731 -10.5513 -464.383 164.42 5.25668 -479.574 152.661 32.2287 -468.118 197.884 89.2279 3.72254 5.01778 42.0492 
148.185 137.145 180 175.462 168.326 135.686 160.524 179.999 167.024 156.039 -444.455 156.269 73.3963 -427.38 180.676 18.3768 -459.315 182.274 -10.1733 -462.614 161.757 7.06889 -478.522 151.469 33.3011 -466.043 196.62 90.1438 3.30362 10.5196 25.2483 
146.099 146.844 180 175.411 175.175 135.056 139.846 171.671 169.342 159.879 -438.543 156.963 77.695 -420.119 169.783 33.5211 -456.002 180.562 -2.427 -461.776 160.26 6.7948 -476.236 149.981 33.2941 -463.987 195.494 91.2069 3.27891 8.0292 38.0282 
140.463 158.636 180 179.642 179.132 130.389 136.419 158.819 173.2 162.922 -431.984 156.204 84.4105 -415.143 163.904 38.8218 -446.821 177.979 1.17205 -461.836 156.991 5.76681 -473.267 145.836 32.625 -459.982 193.086 91.0788 4.41862 5.12808 40.9343 
137.008 178.998 180 179.504 173.716 122.275 145.652 151.026 176.014 171.551 -425.343 156.561 88.684 -412.482 168.318 26.9261 -438.855 177.346 1.43978 -459.629 155.322 4.22165 -470.255 143.519 29.5991 -454.883 190.675 90.501 3.3427 8.55629 29.5568 
138.077 176.322 180 175.252 167.783 117.768 150.164 142.144 175.228 174.922 -421.318 154.486 91.3077 -408.533 169.873 21.831 -433.422 176.42 1.05987 -458.652 152.53 3.21856 -467.093 140.776 27.3016 -449.351 188.294 89.6567 1.90966 12.9464 26.1317 
129.39 174.907 172.255 170.903 168.429 126.355 130.779 129.474 172.896 169.423 -402.547 180.417 85.0466 -409.805 181.735 17.0434 -427.894 181.275 4.22517 -455.589 150.701 2.11436 -465.061 139.598 25.6251 -444.352 186.224 89.2993 5.18287 19.1225 18.8288 
135.938 179.145 176.012 167.779 169.854 125.373 121.765 129.494 170.417 166.796 -393.944 203.605 88.4591 -411.661 189.412 14.9197 -423.242 181.338 4.24325 -448.173 149.277 0.984611 -456.855 138.136 23.1945 -439.343 183.722 88.7493 6.7707 19.7022 11.9428 
154.049 174.27 180 160.808 172.389 120.054 117.89 152.531 167.438 168.024 -394.767 224.315 88.4664 -414.015 195.605 11.8867 -431.824 187.012 -3.07589 -444.785 153.927 -0.624798 -450.171 134.662 21.2227 -433.731 181.101 87.729 7.3704 14.107 16.5538 
146.43 174.27 174.923 155.582 172.407 116.549 111.079 165.182 164.983 169.035 -409.078 235.467 86.1994 -419.788 199.273 11.512 -436.37 181.594 -5.32836 -440.581 153.858 -0.282785 -442.861 129.965 20.0151 -429.087 179.07 86.4707 9.41581 7.86973 12.2192 
105.94 178.13 146.091 129.928 169.4 111.261 132.916 136.552 154.554 156.952 -422.032 234.765 91.8727 -428.818 202.8 4.09323 -420.023 176.204 -3.57322 -423.049 148.043 2.11773 -421.56 131.363 18.5741 -423.698 176.782 84.479 3.76144 9.70353 11.4336 
142.768 174.27 131.03 135.514 170.074 107.908 119.212 142.916 143.458 156.475 -428.793 229.294 82.9538 -420.812 192.834 5.97557 -416.619 167.483 -3.99288 -412.115 145.97 4.45443 -412.158 126.348 21.7644 -421.435 175.821 83.6728 8.98893 3.22865 4.07665 
174.493 148.791 111.177 136.926 166.767 119.245 144.749 138.076 139.443 149.352 -427.576 229.104 72.2181 -428.438 190.306 -1.41254 -412.344 167.167 -2.26781 -403.366 143.544 5.64218 -398.06 124.03 24.6166 -417.412 174.152 82.7787 8.76586 6.06325 11.1214 
170.826 148.838 126.378 136.748 153.161 135.074 148.973 138.151 136.598 143.746 -430.696 230.701 63.9255 -427.528 190.647 -3.79348 -408.192 168.966 -4.89701 -396.921 145.616 6.0817 -387.536 125.162 27.2956 -414.478 173.795 82.3108 11.0965 7.18467 11.203 
168.036 152.561 133.927 137.514 143.501 143.855 148.641 134.245 132.965 135.422 -434.545 230.243 60.7246 -427.286 193.318 -3.62465 -406.677 172.414 -5.39889 -392.669 147.991 6.00039 -380.578 128.048 29.3582 -412.687 173.943 81.6572 12.4228 9.14689 11.3513 
168.467 145.65 131.57 140.159 142.433 153.699 145.567 132.894 134.889 134.711 -436.66 230.417 58.6043 -426.969 194.548 -3.55032 -406.573 174.798 -5.98498 -390.546 150.442 3.31119 -375.913 131.062 27.7002 -410.138 173.598 80.7149 12.9144 9.73327 10.0128 
169.163 145.484 133.271 139.678 139.028 158.005 144.555 131.45 133.829 133.566 -441.359 231.3 60.3473 -429.72 195.497 -3.02666 -407.173 174.259 -6.37347 -389.859 151.148 3.01438 -374.686 132.501 27.3598 -409.846 175.067 79.8593 13.238 9.40936 12.2096 
164.224 142.477 134.959 139.574 138.481 162.209 142.202 132.188 135.622 137.184 -441.784 233.092 59.2676 -431.552 196.321 -2.41648 -409.469 175.498 -6.81408 -392.394 153.039 2.40875 -376.985 134.651 26.4028 -411.409 176.824 79.7059 12.9361 8.95125 11.5828 
146.763 174.452 180 174.27 174.27 151.564 178.019 179.95 178.164 178.244 -349.478 175.286 82.0046 -360.041 166.466 11.5949 -397.115 172.17 -9.05694 -429.444 161.688 -3.16073 -460.468 156.35 19.3675 -421.726 185.589 83.8957 13.8503 11.1859 26.8692 
169.669 175.532 180 175.119 174.998 163.807 178.295 180 178.316 178.301 -422.159 183.908 49.6068 -424.623 202.984 -15.2129 -448.692 181.615 -21.1711 -432.575 156.818 -11.9482 -448.476 151.687 17.2979 -427.34 190.378 82.0292 8.41585 26.2748 8.29296 
157.544 94.9298 129.226 174.27 174.271 145.675 66.6439 128.889 178.039 171.74 -408.609 206.369 52.7621 -405.815 175.897 34.9891 -422.354 170.369 -0.854371 -454.018 182.104 -5.68481 -457.895 206.543 18.4273 -433.016 190.5 79.6805 0.710903 19.8638 36.4097 
163.684 113.865 164.118 174.27 171.803 169.144 97.4175 174.697 178.394 170.543 -384.596 192.863 55.372 -405.123 167.842 31.4945 -449.185 178.588 -11.9173 -459.52 202.425 -2.23373 -451.856 230.795 19.4815 -439.592 195.156 79.7104 8.83188 10.0089 57.6322 
154.498 153.134 174.523 174.462 174.27 171.962 119.534 178.16 178.111 175.423 -384.342 176.551 54.3968 -402.905 163.858 23.3893 -446.404 176.333 -13.9981 -454.264 205.582 -2.82444 -443.253 236.739 18.297 -443.574 199.348 78.1534 12.7281 11.8013 49.4395 
149.697 155.353 180 150.226 174.27 170.82 122.003 158.264 168.989 177.638 -393.801 174.264 52.9213 -410.852 162.465 21.4548 -440.507 178.766 -12.5688 -449.669 208.666 -3.63424 -430.197 230.847 14.5588 -448.17 203.134 76.8942 15.2564 13.111 37.8467 
147.681 146.977 176.858 157.005 174.27 173.209 119.6 155.249 165.857 177.634 -404.897 170.351 51.3998 -419.595 161.958 22.5601 -443.578 177.313 -11.4567 -455.807 208.944 -5.28314 -443.61 234.843 13.1694 -452.184 206.934 76.2288 7.53608 16.748 34.3558 
153.689 140.08 165.763 179.777 174.27 167.678 125.931 153.43 170.287 168.753 -418.486 178.149 48.542 -439.488 160.953 19.3449 -456.979 181.039 -10.8636 -464.764 215.171 -8.49066 -452.452 240.181 10.5142 -459.734 214.683 75.2052 5.74658 17.6225 28.4047 
152.059 142.278 161.852 174.381 174.27 163.532 125.578 154.57 160.743 160.411 -428.837 183.155 48.4013 -452.486 166.391 19.3829 -469.516 190.76 -12.0057 -464.519 219.569 -8.60914 -447.585 243.442 11.1855 -465.224 223.096 74.848 7.40987 9.52597 30.5676 
153.385 143.488 162.404 166.4 174.27 164.201 124.012 151.983 155.764 154.067 -432.127 188.72 43.2048 -453.181 172.06 19.8984 -469.331 195.32 -12.9498 -464.113 222.699 -10.0633 -449.519 245.693 9.81533 -467.306 227.417 72.379 5.18249 9.47726 32.2001 
159.121 145.93 169.337 169.565 176.021 168.542 129.483 160.744 166.387 162.33 -434.417 188.933 40.1085 -452.693 174.663 16.2628 -476.212 202.93 -18.3883 -471.287 232.045 -14.1405 -450.839 253.461 7.18571 -467.623 231.339 70.7199 7.7452 11.0572 38.0986 
163.008 145.256 180 171.8 174.271 166.95 127.738 162.411 167.686 163.623 -433.535 194.455 35.9924 -449.965 177.731 17.9629 -472.305 204.531 -19.6286 -468.203 234.485 -16.477 -445.849 253.094 5.85558 -467.278 234.766 68.215 9.28927 12.3707 39.4126 
162.125 153.383 169.226 168.471 171.265 163.395 135.998 153.037 155.402 139.81 -433.527 201.818 34.2726 -452.164 181.942 10.2696 -460.802 205.823 -18.3489 -454.595 233.858 -17.0237 -432.898 243.432 12.769 -467.523 239.05 65.7314 18.1427 10.7678 25.3041 
162.412 158.576 158.413 163.966 156.118 166.451 141.201 150.795 151.112 115.785 -438.939 201.781 28.561 -456.185 194.578 0.671659 -459.27 217.683 -21.8965 -446.62 240.468 -19.5486 -425.445 239.447 29.0428 -465.433 247.475 61.8965 40.8691 5.97441 19.1953 
165.167 158.068 162.424 161.091 154.478 169.872 140.194 157.342 152.194 102.044 -440.381 196.849 25.5741 -453.727 198.389 -2.66251 -462.326 225.747 -28.6043 -445.624 247.742 -22.4566 -422.495 242.948 36.8192 -461.386 250.547 59.7073 56.1028 5.80766 24.9236 
168.132 158.847 164.816 161.856 156.254 168.667 139.886 157.874 155.798 100.908 -437.562 200.335 23.8536 -451.178 202.488 -5.15768 -459.532 229.747 -30.408 -444.353 252.729 -24.2875 -417.72 246.281 34.3814 -456.503 253.29 58.6519 57.4993 5.91804 24.3386 
166.951 158.711 168.617 167.663 157.658 165.815 140.12 161.549 160.167 114.077 -435.653 204.881 20.4992 -442.281 203.528 -4.89274 -453.912 231.754 -32.3038 -441.061 255.047 -27.2518 -412.884 251.382 18.8672 -451.381 255.873 56.944 40.9 6.09147 27.4232 
172.473 157.631 165.673 167.792 154.534 171.319 139.034 155.849 161.735 112.931 -432.504 203.953 15.1942 -430.782 209.557 -7.56416 -438.035 239.118 -34.2562 -427.058 260.577 -29.8868 -397.06 250.957 26.7703 -438.242 260.65 54.5914 53.4855 5.98723 25.6905 
173.895 162.15 165.548 164.813 143.482 173.124 144.228 157.309 162.702 104.026 -427.994 204.351 14.7891 -429.64 217.314 -16.9876 -430.731 245.283 -36.8661 -417.701 265.146 -30.6509 -389.558 253.654 31.7362 -429.569 262.316 54.042 60.6349 4.25466 18.0945 
172.495 159.267 164.441 166.164 135.738 171.247 140.949 157.926 166.755 96.572 -420.862 207.658 13.0859 -419.625 219.682 -17.0412 -423.033 250.533 -38.3167 -411.011 271.548 -32.3687 -381.515 255.533 32.5598 -419.251 262.831 52.9389 67.322 5.89 22.0248 
171.871 157.225 161.35 167.931 132.151 170.031 136.998 153.44 167.717 96.167 -410.614 212.336 11.0442 -409.905 221.794 -16.5027 -413.18 252.647 -37.8483 -402.128 274.233 -32.6346 -371.765 257.225 28.3401 -409.292 263.518 51.5819 64.4333 7.35589 23.5306 
170.978 159.927 162.307 167.818 131.344 168.241 141.994 153.886 163.281 95.2078 -399.019 213.394 9.95566 -401.154 225.823 -22.8708 -400.503 254.215 -39.8109 -387.61 273.424 -32.9019 -360.019 256.654 26.8904 -397.434 262.671 50.4 62.4769 5.06894 18.0854 
171.198 159.537 162.746 162.775 136.316 167.281 143.496 154.141 157.51 97.4414 -377.843 216.806 8.30502 -382.082 229.105 -26.7908 -377.847 256.46 -41.0109 -363.624 273.981 -32.4212 -337.274 257.6 20.646 -375.123 260.951 49.6695 54.2126 3.73398 14.7905 
169.517 155.615 162.277 162.024 139.983 165.685 136.522 151.783 154.092 99.9673 -366.318 216.225 5.4498 -366.296 224.922 -25.944 -364.748 255.564 -43.3098 -350.651 271.742 -34.4219 -324.271 256.012 15.2505 -362.505 258.924 46.8703 50.144 2.90083 20.1471 
169.336 160.677 164.26 162.527 138.821 163.263 141.668 151.268 150.723 103.585 -353.576 217.701 4.2526 -357.072 226.858 -29.5642 -350.763 254.351 -44.3544 -336.398 269.43 -35.2052 -312.967 255.779 11.1559 -351.894 258.212 45.5318 43.8468 2.30219 15.4912 
171.646 163.44 165.594 163.917 134.597 165.046 147.925 153.583 154.54 105.304 -344.333 217.817 3.69646 -349.436 228.922 -32.9817 -341.468 255.624 -44.9764 -325.778 272.589 -35.9802 -302.279 254.33 11.8594 -341.788 258.138 45.8472 47.0403 4.38426 13.3585 
172.691 166.995 171.604 167.193 135.247 166.221 151.709 155.054 157.481 103.567 -336.656 217.719 3.01097 -338.373 228.201 -34.8407 -331.556 254.038 -46.047 -316.213 273.661 -37.1287 -293.209 251.868 14.6915 -332.337 258.637 45.4726 52.2033 6.80316 13.1408 
173.315 168.655 178.733 168.402 135.422 166.284 155.069 157.887 158.983 104.654 -328.266 217.57 2.93361 -328.489 228.065 -36.1478 -320.301 253.199 -46.8797 -303.817 272.3 -37.67 -282.046 249.149 16.5036 -322.022 258.155 45.2561 54.0977 6.61581 12.2282 
173.777 169.527 179.792 168.561 135.884 165.886 156.999 159.034 157.965 106.04 -322.466 218.756 2.06254 -317.144 229.275 -37.5796 -307.144 251.811 -47.4433 -290.795 269.57 -37.9269 -271.21 248.248 16.3157 -311.93 257.792 44.6453 51.6461 5.55791 9.6593 
172.671 161.479 166.875 164.541 138.895 163.637 147.868 151.954 155.886 104.763 -305.364 221.345 2.65916 -294.352 229.927 -34.3491 -283.479 251.1 -44.4723 -268.747 269.837 -35.472 -250.778 250.805 14.6919 -292.439 256.99 45.4312 45.5567 6.83611 9.59801 
171.844 160.057 163.665 163.849 140.227 163.282 145.434 150.651 155.772 103.284 -294.244 220.276 3.04223 -281.5 227.84 -32.8764 -270.731 249.685 -43.2928 -256.415 268.95 -34.1369 -239.717 249.079 16.4052 -281.82 255.525 45.9411 46.3951 7.53665 10.7168 
171.512 161.894 164.783 164.128 142.339 163.254 143.085 150.734 153.6 103.381 -272.881 218.579 3.25693 -255.141 222.303 -29.5738 -246.066 246.073 -42.0655 -231.568 264.041 -31.5931 -218.101 244.71 18.8881 -261.006 252.52 46.6934 45.3674 6.75606 14.4035 
170.432 162.231 165.31 162.921 144.854 162.04 143.181 149.728 150.531 102.224 -262.263 217.552 3.9211 -243.099 220.562 -28.8903 -232.959 243.292 -40.8037 -218.118 259.779 -29.3981 -207.175 241.974 21.5553 -250.973 251.261 47.2036 44.7707 5.63542 13.5972 
168.489 162.419 164.458 162.038 145.932 160.063 143.623 149.38 149.703 101.737 -250.015 214.37 5.17732 -231.625 218.324 -28.9918 -220.257 240.4 -40.277 -205.431 256.34 -28.1803 -195.904 239.446 23.166 -240.803 249.365 47.6063 44.1958 5.14939 12.6141 
167.273 159.957 162.743 159.926 146.255 159.558 141.078 147.129 147.093 100.123 -239.036 211.106 5.76956 -218.883 214.771 -27.6325 -207.753 236.731 -39.1322 -193.352 252.594 -26.6005 -185.605 235.919 26.5134 -230.246 247.105 47.6793 46.7326 4.89732 12.9592 
