166.793 167.187 169.098 170.127 168.865 157.449 154.783 160.659 161.173 156.223 -24.5949 265.604 34.9854 -15.1989 266.002 -13.2963 -26.6041 270.212 -34.0538 -47.6833 272.003 -36.0194 -72.4219 275.624 -24.1677 -69.6571 298.254 44.0936 1.48266 1.74961 7.04105 
166.884 166.863 168.827 169.903 168.425 157.802 154.215 160.123 160.785 155.422 -28.5013 265.503 32.5184 -18.2917 266.792 -15.4542 -29.5734 271.174 -36.2995 -50.9449 273.036 -38.6762 -75.9915 276.19 -26.893 -73.77 298.519 41.2668 1.11066 1.9563 7.10339 
167.355 166.652 168.937 170.018 168.468 158.762 153.946 160.095 160.868 155.421 -33.4926 265.352 29.806 -22.2167 267.671 -17.6998 -33.381 272.43 -38.8732 -55.2299 274.459 -41.7773 -80.8034 277.298 -30.2813 -79.1095 298.965 38.1881 1.06983 2.32297 7.34247 
167.859 166.348 168.819 170.061 168.797 159.956 153.749 159.83 160.775 155.863 -46.1999 265.529 22.5924 -33.3297 270.536 -24.9899 -44.694 274.941 -45.9272 -67.2971 276.945 -49.5367 -93.8781 279.573 -38.89 -92.3952 299.512 30.5319 2.14912 2.95072 6.84893 
168.119 165.506 168.511 169.978 168.698 161.027 153.065 159.815 160.826 155.961 -54.662 264.812 18.0371 -41.4949 271.525 -29.6864 -53.1266 276.374 -50.8886 -76.2053 278.5 -54.6436 -103.422 280.761 -44.1157 -101.133 299.533 25.803 2.81201 3.40866 7.29009 
168.8 164.675 168.029 169.636 168.417 162.957 150.953 159.064 160.35 155.576 -63.3313 264.686 13.0857 -51.0013 272.499 -34.1349 -62.8153 278.561 -56.1025 -86.4564 281.122 -60.0205 -114.234 282.849 -49.4268 -110.649 300.218 20.9262 3.4772 4.1323 8.60262 
169.347 163.052 167.814 169.451 168.289 164.485 149.016 158.457 159.932 155.289 -73.1601 265.496 7.43135 -62.0719 273.765 -39.5196 -74.1143 280.506 -61.9558 -98.2244 283.587 -65.8552 -126.28 285.126 -55.0497 -121.328 301.281 15.6137 4.03589 4.78201 9.40624 
169.547 160.567 167.297 169.132 168.114 165.783 146.251 158.121 159.897 155.404 -84.3273 265.854 1.9277 -74.4889 274.167 -44.6126 -86.6782 282.455 -68.0858 -111.478 286.397 -72.0205 -139.985 287.825 -60.9924 -132.985 302.163 10.1733 4.88794 5.69234 11.0782 
169.534 158.142 167.026 169.066 168.254 166.746 143.436 158.167 160.253 156.032 -96.488 266.094 -3.69105 -88.2545 274.326 -50.0049 -100.953 284.483 -74.7021 -126.364 289.517 -78.463 -155.286 290.902 -67.124 -145.666 302.548 4.71206 5.96277 6.67474 13.0562 
170.226 157.333 166.546 168.715 167.892 168.704 140.933 156.939 159.214 155.218 -109.82 267.408 -10.4409 -104.214 275.902 -56.2086 -117.382 287.753 -81.3861 -143.492 293.723 -84.6177 -172.926 294.646 -72.7031 -159.95 303.705 -0.601946 7.08098 7.63559 14.5968 
171.636 157.233 165.886 168.412 167.481 170.902 138.353 153.861 156.191 152.377 -123.664 268.921 -17.9536 -121.203 277.659 -62.6334 -134.86 289.441 -87.1694 -161.5 295.486 -89.7853 -190.916 295.812 -77.3239 -175.034 304.634 -6.0743 7.61333 8.19617 14.7503 
172.233 157.617 166.544 168.591 168.219 172.137 137.773 154.152 155.997 152.493 -139.61 271.907 -25.1367 -139.339 281.052 -70.0577 -154.396 293.532 -94.3097 -181.838 299.21 -95.8172 -211.466 298.737 -82.4702 -192.014 306.399 -11.5209 8.53748 8.56775 15.3783 
172.58 159.313 167.71 169.69 169.583 172.528 139.338 155.765 157.565 154.543 -155.931 274.234 -33.0624 -158.058 284.608 -79.2315 -175.088 296.977 -102.288 -202.965 302.231 -102.448 -232.412 300.972 -87.9651 -209.165 306.879 -17.196 9.22722 8.78324 14.9323 
172.945 161.427 168.12 169.729 168.772 172.323 139.413 153.407 154.912 150.425 -174.688 278.34 -41.615 -180.599 289.076 -87.4866 -198.932 299.848 -108.366 -226.836 304.198 -107.079 -254.615 301.868 -90.8203 -227.996 307.92 -21.7323 8.49329 8.67489 13.2294 
172.794 161.384 169.074 170.278 169.723 172.293 139.57 154.917 156.172 152.218 -193.83 280.734 -48.429 -203.095 290.508 -93.8397 -222.357 302.644 -114.562 -250.611 306.387 -111.862 -277.804 303.794 -94.4632 -247.193 308.844 -26.1303 8.96945 8.77513 14.5562 
172.373 162.54 170.075 171.665 171.263 171.583 138.651 156.629 157.496 153.689 -214.088 281.565 -53.2083 -226.884 290.897 -98.0829 -247.538 304.939 -118.605 -275.821 308.488 -114.283 -302.278 305.721 -95.2805 -266.666 308.602 -28.5005 9.74046 8.95926 16.3455 
171.045 162.526 171.061 172.771 171.761 170.421 139.084 159.767 161.039 157.812 -237.163 281.76 -56.3182 -252.16 292.642 -101.318 -274.21 308.376 -121.42 -302.337 311.719 -115.52 -328.107 308.394 -94.903 -288.153 309.401 -29.4088 10.1168 9.01784 17.7798 
170.766 165.173 170.826 171.922 171.573 169.743 140.957 160.287 161.272 158.672 -261.967 284.139 -58.5729 -280.858 296.89 -104.168 -303.005 311.401 -121.88 -330.199 314.378 -114.329 -354.441 310.958 -92.3805 -311.085 310.795 -28.7735 9.94498 8.66275 16.0316 
169.975 169.133 172.473 175.421 176.425 168.881 139.099 156.896 159.71 154.763 -288.235 284.571 -59.1766 -306.602 297.689 -102.146 -328.116 309.65 -118.708 -354.245 312.613 -110.495 -376.57 308.902 -87.0627 -333.56 312.203 -26.6436 8.99801 8.59468 14.9066 
163.087 149.26 166.606 159.748 175.492 164.423 131.184 159.357 164.634 150.495 -324.218 277.958 -57.2367 -341.943 289.023 -93.9814 -366.099 300.16 -112.953 -393.866 303.473 -102.203 -410.615 297.008 -76.13 -360.089 306.557 -22.1242 7.09239 10.9719 17.8026 
163.8 156.176 165.81 159.858 178.767 165.004 132.282 160.854 164.208 147.753 -346.12 274.412 -49.4176 -359.403 283.937 -85.9243 -386.28 297.18 -105.575 -411.195 298.198 -93.3208 -427.247 291.166 -66.8637 -381.345 305.632 -15.0526 5.90592 8.46643 22.3101 
166.075 172.417 164.722 148.865 164.755 164.616 122.448 159.966 163.201 144.348 -365.625 275.436 -42.135 -377.468 280.334 -74.8822 -406.04 294.292 -97.496 -424.903 289.892 -85.5738 -444.469 286.986 -57.0732 -402.707 307.908 -8.50638 7.98571 1.54367 26.3612 
167.373 171.421 165.393 156.948 144.036 164.746 122.139 155.123 156.221 136.484 -384.907 274.14 -33.6187 -394.746 279.922 -66.7435 -417.425 284.509 -87.5634 -440.868 282.511 -73.6691 -458.313 284.12 -44.6606 -420.895 308.797 -0.493397 4.87663 5.3938 18.0626 
163.969 164.661 165.929 161.713 162.853 163.291 133.564 155.941 156.608 149.517 -404.027 270.589 -23.6709 -412.43 276.606 -58.9642 -431.751 281.349 -78.8235 -455.593 279.056 -65.1592 -474.684 281.135 -38.4651 -437.642 309.821 7.30534 5.41623 5.56405 17.693 
161.954 158.384 167.252 168.238 152.836 161.283 155.676 158.137 161.112 158.051 -422.073 266.904 -12.7456 -430.492 275.658 -55.0758 -445.546 279.154 -71.2105 -470.61 277.045 -59.0461 -489.193 278.183 -31.7918 -453.349 310.708 14.6021 4.30672 6.5682 14.8942 
156.414 151.781 165.235 163.203 164.616 161.67 164.961 158.399 160.841 153.483 -432.682 263.983 -4.6782 -443.75 271.579 -49.4075 -456.572 273.715 -63.4386 -482.035 273.228 -51.9573 -498.102 273.44 -22.5844 -465.409 308.947 20.2074 4.16715 7.19909 13.736 
163.808 169.692 166.922 174.27 164.996 163.055 156.703 162.282 164.59 169.343 -437.066 265.957 5.35446 -451.31 270.116 -41.8441 -467.854 270.869 -56.8149 -495.432 273.24 -45.3197 -513.126 272.777 -18.513 -478.22 308.628 27.049 4.53728 9.0004 12.1685 
176.341 133.564 165.248 174.27 160.931 159.64 152.759 150.393 158.675 172.228 -449.508 267.338 14.2713 -461.063 266.502 -26.8935 -472.663 268.214 -41.3735 -505.336 271.38 -35.4036 -523.891 272.389 -8.29089 -488.411 308.36 35.3722 4.68641 14.5815 14.7929 
171.734 127.616 162.797 175.185 150.346 159.836 143.633 140.685 160.548 161.179 -451.955 269.278 25.5272 -467.215 263.685 -14.2375 -477.26 265.454 -28.7961 -513.748 271.984 -28.1843 -533.403 274.328 -2.08467 -496.314 307.142 44.8302 5.33024 19.8885 15.3713 
172.119 90 171.662 174.27 174.27 159.213 138.421 155.195 176.72 177.388 -454.368 266.655 41.4886 -477.857 266.508 -1.66996 -497.47 270.047 -30.225 -525.394 278.277 -24.1641 -542.559 279.507 5.2733 -503.644 306.611 54.4968 3.14117 12.7851 24.1489 
134.564 147.09 163.877 174.934 174.271 129.486 166.423 167.546 178.264 177.899 -453.941 261.775 87.0547 -484.083 265.539 -1.17233 -514.367 276.289 -16.7192 -526.251 279.655 -18.4263 -543.132 283.546 16.6843 -509.821 302.47 73.8 2.44781 7.69623 19.1816 
147.522 171.784 180 177.795 174.27 151.519 158.507 179.985 168.822 145.569 -534.791 298.63 60.9817 -562.957 289.101 9.0209 -541.762 280.633 -11.001 -527.292 284.465 -13.6631 -497.672 288.773 7.63215 -515.21 298.142 76.7384 6.62731 6.52823 6.07483 
153.434 174.27 175.003 174.27 167.14 165.26 178.226 172.529 178.173 154.081 -544.329 307.062 60.1157 -564.769 281.991 14.6684 -547.488 278.886 -3.61566 -523.823 268.252 -2.15556 -469.119 274.254 9.92676 -512.705 293.726 84.4823 31.7152 5.63468 7.73811 
164.255 173.068 170.682 176.315 164.566 154.209 177.04 171.827 172.789 157.357 -515.125 291.777 48.9115 -567.448 285.935 17.8526 -555.685 280.807 2.02136 -528.675 271.212 -0.738995 -475.749 271.148 7.9847 -513.406 291.667 85.7852 28.7263 7.05674 4.50463 
149.975 169.693 168.919 176.862 144.181 164.232 176.35 173.896 175.72 144.19 -519.805 295.16 53.3842 -573.361 285.053 21.403 -558.909 278.71 2.57878 -529.888 268.416 0.00726318 -462.823 273.999 12.897 -513.178 291.12 85.437 44.2802 8.37973 6.04591 
155.449 167.241 180 174.27 147.225 129.921 170.98 179.98 177.567 152.233 -495.475 278.621 58.0534 -572.249 281.105 20.3348 -560.793 271.055 5.09231 -533.107 263.655 2.22935 -455.703 276.351 8.72232 -514.027 290.739 86.3388 51.5428 6.48997 0.984565 
169.098 171.915 180 174.27 148.007 119.369 171.566 179.927 178.093 159.516 -493.183 272.768 60.6995 -571.983 274.456 21.4672 -562.962 268 7.18303 -539.965 264.145 5.00884 -447.326 280.105 6.25975 -514.927 290.462 86.595 63.0924 3.18135 1.5003 
169.171 174.27 173.773 168.924 178.462 156.346 177.983 167.856 168.954 172.679 -535.666 301.66 24.3781 -522.45 262.54 -2.45316 -536.459 258.401 -2.46975 -552.823 255.563 16.033 -476.585 247.254 33.6404 -504.202 283.595 84.3089 61.4473 2.78005 8.56924 
167.256 158.021 167.75 173.517 101.464 102.014 172.264 173.764 178.059 137.667 -489.68 270.326 67.114 -549.94 271.59 17.6524 -532.321 261.056 0.313139 -522.87 253.434 2.5977 -436.869 268.852 29.6691 -503.776 286.304 85.2889 68.8606 8.46566 6.13139 
148.34 167.715 180 175.889 170.931 147.817 163.094 167.013 174.867 159.167 -536.649 308.957 65.3942 -541.257 269.822 7.95317 -520.468 266.647 -5.20852 -505.306 258.748 -6.93692 -470.322 253.991 11.8291 -496.179 279.309 83.4809 14.4413 4.93898 5.60386 
145.811 160.771 166.39 173.008 169.215 143.283 162.032 169.625 170.38 162.545 -521.222 308.2 58.6068 -536.764 271.469 9.02721 -518.522 266.443 -6.19028 -495.119 256.026 -6.88726 -464.282 251.078 10.264 -488.824 276.802 81.5829 11.4888 6.50455 4.37769 
158.351 160.787 150.615 167.905 163.897 149.261 161.194 162.488 172.157 162.254 -519.975 298.152 57.3011 -530.815 268.957 7.56083 -516.184 266.237 -4.01477 -496.317 258.022 -3.18992 -464.368 253.084 11.1799 -486.6 276.502 81.2434 12.0371 3.9058 5.08919 
159.882 169.303 165.784 165.99 164.658 139.441 168.257 173.319 173.581 173.792 -517.788 296.571 58.8203 -528.157 270.985 6.28694 -516.214 259.722 -5.33489 -495.956 252.828 -3.74272 -469.932 253.716 7.07603 -482.728 279.127 78.4969 3.86497 2.30262 2.47411 
161.267 165.711 171.296 163.353 175.914 136.851 172.544 173.903 172.509 173.075 -514.189 281.901 57.5136 -527.964 269.903 3.52209 -515.305 259.272 -8.03456 -497.261 248.001 -3.30616 -479.532 247.078 11.2216 -483.519 281.403 77.2175 5.48923 4.45043 1.9991 
156.107 165.016 176.888 169.316 176.253 137.578 171.659 176.505 176.354 174.955 -516.733 280.015 58.6892 -528.409 265.339 4.78547 -515.37 256.217 -8.83939 -497.198 246.507 -5.00962 -480.034 247.723 10.7116 -484.215 282.392 76.1777 6.56429 4.22065 3.04871 
167.752 179.963 180 169.643 175.945 139.607 179.876 176.169 172.817 171.111 -521.788 287.034 59.6983 -525.089 256.701 5.34149 -515.633 254.263 -8.78944 -495.341 249.913 -7.27954 -475.198 253.977 6.02567 -484.446 283.204 75.3015 2.62076 1.73275 8.1493 
159.738 179.687 179.967 172.33 177.706 143.294 179.89 175.842 171.972 171.107 -519.538 292.63 55.9488 -526.317 260.491 1.66823 -517.22 257.238 -10.9615 -493.828 251.719 -10.848 -472.324 254.82 2.78325 -484.369 284.864 73.3752 1.12507 3.34025 7.73749 
151.094 170.814 174.009 172.399 171.69 153.174 172.229 171.25 169.536 167.286 -518.607 303.055 52.6604 -531.169 268.215 -3.98145 -511.758 263.25 -16.0856 -489.03 256.03 -15.565 -461.025 253.339 -1.37945 -481.957 285.154 71.8365 7.39555 3.28881 6.06354 
159.796 168.21 177.367 178.315 177.138 143.497 169.347 172.08 172.433 169.339 -513.527 306.062 46.4551 -530.442 274.988 -7.18861 -508.866 265.265 -20.2159 -483.536 258.32 -22.9465 -457.513 260.825 -6.87622 -479.044 285.579 67.2736 4.53245 5.37852 5.92305 
159.252 171.171 180 179.052 176.86 135.67 166.373 180 173.951 168.798 -501.481 295.424 46.5194 -529.351 273.603 -10.8956 -506.391 260.425 -22.7317 -479.15 258.039 -25.7632 -455.644 265.435 -10.4599 -476.98 284.693 65.9444 4.75825 6.34714 7.24196 
140.34 167.823 180 174.403 178.068 135.424 167.802 172.814 169.74 164.245 -488.283 304.06 40.0955 -520.818 274.495 -13.4428 -500.441 266.831 -25.8749 -476.207 260.968 -27.0055 -451.248 267.824 -11.4084 -471.229 283.261 61.9667 6.22521 4.24936 4.85601 
162.91 171.89 178.802 171.796 173.896 140.377 171.016 169.077 166.953 160.995 -483.556 305.431 30.806 -520.944 279.258 -13.7042 -498.298 271.336 -28.2071 -474.391 262.962 -28.7387 -447.586 269.373 -12.0686 -469.233 282.167 59.5736 7.356 5.08827 7.266 
165.489 162.19 169.492 172.271 176.636 154.657 165.653 164.436 167.344 168.662 -494.635 315.068 31.5842 -515.592 278.36 -15.048 -495.551 271.964 -30.6039 -472.883 261.866 -30.8101 -444.564 264.695 -15.0486 -466.026 281.409 56.861 6.76395 5.47966 5.9611 
158.179 154.5 166.447 168.477 176.296 164.491 157.968 159.692 164.112 161.954 -498.655 317.363 31.0185 -511.317 279.786 -16.66 -493.109 274.077 -32.7131 -470.484 261.756 -32.7649 -442.131 264.359 -14.9971 -462.779 280.674 54.3367 6.44161 6.72062 5.45638 
165.667 153.221 167.931 170.274 179.897 158.238 155.941 160.033 165.06 161.57 -492.134 316.805 28.739 -508.947 280.013 -18.4035 -491.279 273.426 -34.2878 -470.959 260.878 -34.0611 -441.924 262.878 -16.9811 -461.611 280.364 53.1513 6.75846 6.23167 4.56674 
166.53 157.392 175.676 171.719 178.925 147.857 160.262 166.623 168.124 159.665 -484.02 308.911 28.5106 -504.034 274.738 -20.3336 -489.807 267.932 -35.247 -470.148 259.434 -34.9697 -441.351 265.347 -18.1164 -460.244 280.335 52.0273 8.149 3.00454 3.10275 
175.894 164.173 179.59 172.687 175.493 139.239 166.499 170.669 170.291 159.743 -471.62 308.119 27.8782 -500.848 271.432 -24.9072 -487.724 266.047 -37.8149 -469.445 259.977 -36.2376 -442.295 266.103 -18.5507 -459.838 280.77 50.8665 7.49032 1.21184 4.67384 
139.566 165.252 180 173.178 174.27 136.094 172.089 173.768 172.59 136.539 -463.249 289.681 24.7373 -499.422 266.285 -28.2559 -486.382 262.624 -40.59 -468.698 258.3 -37.2895 -434.959 269.44 -14.3301 -459.7 281.327 48.6325 16.9219 1.69654 6.98266 
144.853 169.228 180 176.903 174.27 133.208 174.804 175.775 171.03 177.911 -452.877 277.995 24.6432 -496.698 264.701 -30.2382 -485.114 260.052 -42.2672 -466.492 257.336 -39.836 -434.054 255.295 -20.4215 -459.691 281.427 47.4884 11.5664 2.64224 6.89299 
151.469 178.504 179.557 177.67 177.805 133.235 179.38 177.504 172.556 178.612 -458.745 275.122 24.4028 -491.462 263.13 -33.5968 -486.701 254.131 -41.9473 -467.506 252.096 -40.9582 -421.074 273.559 -33.689 -458.065 282.014 45.7214 29.73 5.37907 8.16784 
115.535 168.359 180 178.156 174.318 147.635 167.684 179.747 169.734 177.987 -462.823 281.367 24.6023 -494.705 272.726 -34.0935 -487.639 253.659 -42.2675 -468.715 252.785 -42.0687 -408.352 257.104 -20.0275 -456.702 281.573 44.9928 39.4052 7.20345 4.77797 
99.7859 168.543 180 176.959 90.24 154.805 168.354 175.66 166.854 139.197 -457.961 273.076 25.621 -491.599 277.326 -35.3021 -485.078 254.732 -43.1651 -466.944 250.057 -42.0359 -414.199 261.357 -10.4072 -456.318 282.116 44.0848 40.4322 5.30618 5.96312 
99.7859 161.811 175.996 176.04 93.2119 151.719 168.347 173.123 167.126 148.947 -452.725 274.042 24.4555 -491.056 277.067 -34.9584 -484.669 255.792 -43.9304 -465.161 246.082 -41.7765 -416.845 250.636 -12.7675 -455.738 282.799 43.1908 33.5852 4.59263 2.66399 
174.481 155.248 180 177.392 155.17 127.497 164.784 175.994 166.343 144.39 -453.577 283.986 15.7539 -496.473 283.788 -32.5585 -486.823 261.003 -45.1625 -465.247 250.104 -44.5918 -419.141 244.892 -22.8487 -454.645 283.167 41.694 25.8454 4.57941 4.23674 
119.834 140.133 180 174.766 169.206 121.186 145.402 177.053 169.844 151.567 -459.751 296.73 19.8419 -492.68 297.658 -29.4356 -484.515 267.066 -48.8388 -459.254 253.4 -48.2926 -422.797 246.499 -31.6818 -452.242 282.854 39.7836 15.3293 6.92916 14.8382 
137.348 169.263 180 170.356 170.91 135.882 156.773 171.038 171.655 157.982 -465.487 310.754 12.4675 -496.937 291.565 -34.3991 -480.984 271.379 -49.6485 -456.4 254.834 -49.7149 -421.68 245.751 -33.2373 -450.446 281.496 38.71 14.3386 8.54056 7.95714 
171.713 157.461 180 173.962 175.604 153.188 156.008 171.643 172.157 166.467 -467.278 320.343 12.466 -493.729 285.924 -34.7874 -477.952 268.348 -51.2015 -451.636 254.951 -51.1019 -419.148 255.35 -33.444 -447.568 280.779 38.2321 11.5848 8.03452 6.3383 
164.773 137.236 174.911 174.27 172.201 139.472 137.566 174.91 162.531 174.982 -400.133 239.708 23.2419 -397.574 252.774 -24.4415 -451.603 254.797 -55.4284 -464.099 243.47 -37.5502 -468.416 237.43 -13.3655 -439.4 280.495 36.5189 3.16854 3.75989 46.6806 
178.108 121.303 163.908 176.499 174.458 141.168 121.427 168.935 159.065 177.776 -396.173 240.086 15.4992 -396.463 253.47 -25.9019 -448.656 256.492 -58.6618 -468.973 245.921 -40.8448 -467.934 237.241 -22.7678 -435.443 279.26 31.5393 4.65993 10.3407 48.5552 
161.442 177.288 170.335 174.27 175.507 133.2 143.818 167.202 161.749 175.32 -404.735 235.353 21.4107 -411.795 270.721 -46.3063 -452.164 259.202 -59.1707 -459.809 246.675 -44.4673 -446.757 234.491 -23.412 -434.586 281.376 29.6649 4.70415 9.2905 34.802 
121.068 175.218 168.451 174.27 178.901 149.555 127.714 164.584 161.434 163.947 -405.87 268.054 -2.70993 -418.672 271.096 -50.3874 -455.018 257.081 -61.8158 -467.182 244.424 -45.0752 -463.82 233.226 -20.7866 -434.177 280.831 27.7892 0.993318 6.74553 24.4419 
152.1 161.101 167.66 173.975 177.506 174.761 140.887 166.791 163.829 159.258 -388.516 263.328 -10.3935 -412.666 262.006 -54.6642 -453.148 257.415 -63.999 -474.261 252.986 -47.0889 -483.108 244.924 -18.6393 -434.737 280.74 27.0115 5.0255 6.82199 20.4283 
171.46 151.883 169.516 168.646 177.458 177.971 151.642 168.098 167.879 154.675 -381.186 245.398 -3.6679 -413.614 254.807 -56.5131 -451.023 255.081 -64.7771 -472.197 253.547 -49.1137 -489.748 252.177 -16.6029 -432.775 280.35 25.9131 11.3113 4.89623 16.3223 
173.491 155.305 171.39 168.242 172.716 176.078 150.291 167.265 166.341 148.984 -386.019 234.637 -1.52159 -415.85 243.38 -50.2427 -445.693 249.403 -63.6424 -467.252 250.57 -48.6244 -486.876 253.009 -16.4104 -430.315 280.598 25.0078 11.992 4.64497 14.5493 
171.226 150.752 173.073 164.304 165.089 175.152 127.926 168.369 165.663 152.505 -388.808 238.217 -3.86605 -411.001 235.302 -36.6584 -438.175 250.908 -68.9579 -464.526 254.809 -53.7775 -487.241 262.175 -21.8793 -425.711 281.115 21.491 14.9315 8.31425 31.0322 
175.214 123.343 170.834 164.405 165.247 173.468 95.3728 166.286 164.279 160.028 -382.401 231.245 -1.41857 -403.757 234.237 -16.0795 -429.379 247.369 -69.5235 -457.649 253.868 -55.9507 -483.039 261.654 -26.1884 -421.779 280.232 20.0243 16.0907 9.87123 51.1385 
178.666 130.656 169.25 167.088 137.142 178.313 94.3583 163.913 163.317 151.933 -373.414 234.98 -6.12907 -396.616 233.463 -16.0361 -424.603 244.028 -69.3418 -453.067 252.029 -56.7249 -475.366 258.243 -25.5094 -418.277 279.694 18.0374 13.4366 10.4642 51.3995 
179.086 126.294 168.306 168.221 132.088 176.621 89.1131 161.756 161.562 152.135 -370.632 237.357 -8.47471 -391.212 235.792 -19.2253 -421.622 242.078 -69.1045 -450.275 250.611 -56.9805 -471.538 257.83 -26.2778 -415.223 279.443 16.4662 12.5677 10.7368 47.4134 
176.512 104.554 165.839 170.177 159.008 178.568 97.5298 160.037 157.422 146.071 -372.553 237.861 -11.5719 -386.977 240.542 -32.1122 -421.597 243.11 -69.1481 -446.954 249.48 -55.5642 -464.251 256.146 -25.965 -411.755 279.509 15.5965 8.41627 7.92958 33.6443 
179.054 128.673 165.471 176.931 178.912 176.438 143.27 158.274 156.365 139.804 -369.989 239.402 -17.1869 -392.332 242.633 -58.911 -421.79 241.722 -68.2569 -442.503 244.983 -51.8634 -460.029 256.823 -24.4245 -408.908 279.577 14.006 9.48701 4.24136 9.4446 
172.911 165.938 160.155 170.17 157.037 167.847 155.741 161.538 149.769 142.384 -365.069 237.743 -19.7746 -395.855 247.301 -71.0951 -418.332 245.911 -72.5764 -437.586 246.591 -53.5155 -456.718 257.082 -27.3377 -403.056 280.419 10.7051 10.9419 5.10615 2.33116 
175.202 170.003 155.219 158.323 158.69 167.222 153.828 156.449 148.984 156.163 -363.144 234.848 -20.6857 -392.734 246.271 -71.2796 -411.729 242.41 -71.0403 -431.237 243.555 -54.2935 -453.382 256.383 -30.9249 -400.042 280.853 8.54115 13.7154 3.85948 2.7206 
171.127 176.368 162.494 162.468 167.199 165.082 144.479 155.155 153.486 155.236 -360.611 233.642 -20.6299 -379.705 237.886 -58.9329 -399.306 242.512 -73.7804 -422 244.704 -62.1759 -439.994 252.383 -38.981 -393.22 282.281 5.55932 7.24303 5.30761 14.3105 
166.877 153.883 166.148 164.62 166.74 165.185 117.008 156.906 156.746 154.411 -354.558 234.95 -22.2674 -373.129 235.285 -41.7419 -393.749 246.139 -78.2624 -419.164 249.392 -67.8406 -437.176 254.893 -43.5096 -389.088 282.168 3.83851 7.22973 7.95573 35.9188 
166.958 147.278 168.035 166.6 163.57 166.561 105.375 158.036 158.597 150.259 -347.552 238.075 -25.1746 -365.516 236.591 -33.5157 -389.442 245.742 -79.9497 -414.751 249.973 -69.5508 -429.342 252.636 -42.9702 -384.797 282.051 2.61156 3.2637 8.46991 45.6822 
165.292 160.24 167.635 165.646 152.93 165.005 138.545 156.786 157.677 156.841 -346.707 240.671 -27.0686 -362.031 236.701 -54.0212 -385.331 245.851 -79.7145 -409.445 249.03 -69.0835 -424.423 251.335 -42.3409 -381.389 282.886 1.99646 3.23117 7.27388 25.7634 
165.094 156.114 165.73 164.478 158.82 164.124 133.547 155.168 155.458 148.374 -341.109 242.628 -34.7075 -352.988 238.465 -56.0961 -376.99 248.551 -83.3787 -401.621 252.97 -71.5497 -415.252 254.011 -43.7737 -372.896 282.851 -0.478601 2.56376 8.78498 27.8782 
164.427 148.791 164.838 166.521 152.085 163.851 127.506 154.581 157.463 149.645 -336.37 243.151 -38.7071 -347.265 239.024 -56.0705 -371.889 249.054 -85.2654 -396.071 252.862 -74.1002 -407.185 252.006 -44.1913 -368.003 282.35 -2.34665 3.9945 8.57922 29.7163 
163.944 147.371 164.568 165.453 147.116 163.428 121.214 152.562 154.873 166.789 -332.468 245.491 -41.8094 -342.389 240.448 -55.2322 -367.715 249.701 -86.3875 -391.912 253.537 -75.424 -403.897 252.136 -45.8779 -363.527 282.378 -3.55685 3.62542 9.19343 31.6042 
166.11 147.537 163.225 165.626 176.891 164.277 121.78 151.871 155.801 178.735 -327.843 246.347 -45.1114 -337.463 241.188 -56.9642 -361.448 249.121 -87.0002 -385.2 251.976 -76.5451 -394.461 248.966 -47.0989 -358.446 282.472 -5.03605 7.01478 8.58894 29.8742 
