167.476 162.49 163.776 165.625 164.373 157.697 153.02 151.619 153.908 150.158 73.8752 256.671 32.4363 80.4728 246.013 -17.9882 64.9124 242.552 -35.3021 40.3005 244.055 -40.6661 13.5328 248.88 -31.8458 22.534 272.585 37.827 4.86751 4.79682 2.32549 
167.269 162.802 163.875 166.171 165.125 157.501 154.508 152.8 155.432 151.834 75.8357 255.918 33.0784 83.6865 245.866 -18.2104 68.2547 241.981 -35.6632 43.4941 243.368 -41.5446 16.2775 247.921 -33.1308 24.256 270.884 37.3682 5.21935 5.02651 2.52371 
167.259 163.247 163.966 166.438 165.622 157.497 155.6 153.291 156.045 152.634 77.6844 254.583 33.8142 86.8855 246.277 -18.2782 71.4294 241.587 -35.6861 46.5164 242.515 -41.9758 18.874 246.657 -34.0418 25.9447 269.515 36.9967 5.43915 5.1204 3.03486 
167.416 163.91 163.923 166.602 165.863 157.606 156.239 153.897 156.741 153.164 79.7589 253.53 34.2371 90.3247 246.436 -18.1499 75.0184 241.756 -35.9654 49.9224 241.963 -42.5786 21.908 245.092 -34.8833 27.8173 268.135 36.4364 5.36619 5.22205 3.15387 
168.044 164.163 164.4 166.843 166.206 158.268 156.669 154.756 157.49 153.869 82.0888 252.288 34.8127 93.3386 245.786 -18.032 78.3747 241.349 -36.3597 53.1102 241.097 -43.3522 24.7813 243.461 -35.9593 29.5408 266.346 35.7458 5.37325 5.36887 3.11699 
168.055 163.927 164.969 166.923 166.232 158.602 155.727 154.837 157.352 153.796 84.3045 251.331 34.936 96.7154 245.81 -17.5355 82.1526 241.827 -36.5766 56.7331 240.901 -44.0701 28.0801 242.388 -37.1828 31.4049 265.15 34.8201 5.44514 5.55507 3.14478 
166.159 167.755 171.009 168.319 165.059 157.651 156.245 160.483 159.539 154.703 87.651 234.83 34.4019 107.428 234.978 -14.8433 96.8916 236.376 -36.6356 71.5861 232.141 -45.3225 41.5081 230.268 -41.2738 34.743 252.862 29.6358 5.5138 5.44765 5.25571 
165.842 167.506 171.601 168.776 165.161 157.2 155.986 161.048 160.118 155.082 85.8106 232.062 33.4095 105.496 231.063 -15.8496 95.5801 233.356 -37.8242 70.4218 229.543 -46.5032 40.3724 228.077 -42.527 33.0914 250.578 28.0686 5.32719 5.24942 5.87939 
165.706 167.226 171.943 169.116 165.24 156.825 155.63 161.082 160.277 155.266 83.5483 229.781 31.7971 102.818 227.655 -17.677 93.3323 230.303 -39.6281 68.2954 226.948 -48.307 38.3742 225.973 -44.3776 30.7828 248.292 26.0145 5.12656 5.09306 6.08884 
165.886 166.895 172.161 169.384 165.488 156.67 155.442 160.973 160.21 155.216 80.1314 227.18 29.7181 98.7264 224.232 -20.0856 89.406 227.033 -41.9224 64.4418 224.3 -50.4898 34.7849 223.991 -46.374 27.3264 246.077 23.7682 4.77717 4.94415 6.03453 
166.358 166.615 171.915 169.196 165.389 156.364 155.759 160.76 160.01 155.171 75.7748 224.855 26.8079 93.9454 221.35 -23.3486 84.4075 223.821 -44.9989 59.4811 221.547 -53.3504 30.0875 221.991 -49.0268 23.0622 243.838 20.9885 4.52644 4.81764 5.57946 
166.792 166.529 171.368 168.773 165.062 156.273 156.459 160.676 159.836 155 70.3225 221.804 23.2382 88.437 218.736 -27.1927 78.5047 220.752 -48.6624 53.445 218.783 -56.7336 24.1965 219.849 -52.0931 17.95 241.824 17.7737 4.3735 4.80582 5.05414 
166.85 166.477 171.016 168.239 164.507 156.302 157.099 160.406 159.337 154.516 63.6793 218.471 18.9056 81.7429 216.463 -31.7143 71.2277 217.829 -52.8405 46.0292 216.296 -60.555 16.9595 218.104 -55.5119 11.8921 240.179 14.1443 4.24515 4.79628 4.34708 
167.142 165.735 170.489 167.594 163.75 157.08 156.28 159.501 158.037 153.365 55.8798 214.872 13.7685 73.2778 213.917 -36.4986 62.3242 214.961 -57.3367 36.9689 214.085 -64.693 8.05668 216.911 -59.3459 4.62459 239.002 10.0529 4.31089 4.819 3.93498 
167.572 164.694 167.77 165.166 162.108 158.252 154.328 155.212 154.864 150.763 47.0268 211.099 8.07193 62.7812 210.591 -41.7196 50.6764 210.438 -61.5168 25.703 211.457 -68.8855 -2.55899 215.867 -63.2103 -3.86449 238.031 5.49833 4.27139 4.75513 2.94473 
166.946 163.911 166.477 164.532 162.748 159.372 151.075 153.258 153.756 150.861 36.0132 206.284 2.23992 50.4837 207.267 -46.253 39.0498 208.096 -65.8708 14.2625 210.834 -73.4533 -14.0576 216.415 -67.919 -13.8301 237.648 0.989671 5.11573 5.14992 3.42712 
167.116 162.87 165.419 164.59 164.141 161.432 148.204 152.405 153.849 152.114 23.9738 200.628 -3.65293 37.1131 203.79 -51.2105 26.349 205.978 -71.1604 1.75326 210.444 -78.9324 -26.9156 216.997 -73.4232 -25.0124 236.851 -3.91986 6.20357 5.83134 4.73907 
168.666 161.097 164.179 164.406 165.783 164.678 145.914 153.102 155.147 154.534 11.6387 195.469 -9.08294 22.6597 200.37 -56.5245 12.349 205.082 -77.7484 -12.4406 211.176 -85.4421 -41.8542 218.375 -79.6093 -37.4854 235.603 -8.9359 7.53144 6.73545 7.25951 
170.775 159.094 164.015 165.349 167.275 168.459 143.25 153.388 156.045 155.828 -1.41111 192.773 -15.5889 7.00576 199.746 -62.8796 -3.40842 206.849 -85.403 -28.8506 214.17 -92.8032 -59.1473 221.072 -86.1695 -51.7083 235.641 -14.5177 8.59925 7.79873 9.68414 
172.372 157.943 165.115 167.157 169.334 171.807 141.667 155.41 158.402 158.288 -15.655 191.404 -22.4209 -10.4654 198.724 -69.5855 -20.8157 208.971 -93.7732 -47.0823 217.338 -100.485 -78.2586 223.579 -92.6929 -67.5857 235.288 -20.0819 9.58124 8.78115 12.8498 
174.133 157.823 166.521 168.534 170.361 174.806 141.719 157.247 159.885 159.481 -31.2762 192.126 -29.8119 -29.7142 199.402 -77.8794 -41.3943 211.629 -102.656 -68.3844 220.28 -107.994 -99.8344 225.828 -98.6903 -85.3933 235.181 -25.7076 10.1785 9.15054 14.46 
175.654 155.959 165.611 168.087 169.904 177.477 139.08 156.509 159.149 158.398 -48.2891 193.865 -38.1833 -51.908 199.546 -85.1378 -64.452 213.688 -110.618 -92.1477 222.632 -114.646 -123.545 227.347 -103.627 -104.783 235.065 -31.1566 10.6638 9.77497 16.5565 
176.822 154.741 164.303 167.291 169.176 179.24 136.461 154.973 157.691 156.154 -67.2474 196.308 -47.0706 -75.9699 201.035 -92.9217 -90.0348 216.287 -118.465 -118.092 225.156 -120.951 -149.098 228.518 -107.953 -125.553 235.257 -36.646 10.8909 10.1561 17.9587 
177.223 155.35 165.132 167.704 169.757 179.844 136.143 155.317 157.845 155.892 -88.9944 198.936 -55.5544 -101.848 202.657 -100.582 -117.452 218.377 -125.624 -145.866 227.152 -126.326 -176.713 229.249 -111.234 -147.8 234.891 -41.1003 11.6994 10.576 18.6139 
177.567 153.344 167.125 170.567 171.758 179.733 132.204 156.733 159.345 157.361 -112.807 203.443 -64.1044 -130.295 205.972 -107.062 -148.727 222.916 -132.987 -177.189 231.487 -131.325 -207.718 232.037 -113.631 -171.73 235.455 -45.1409 12.7935 10.8034 20.6333 
176.468 153.454 167.775 169.817 170.855 178.045 131.216 157.762 159.496 156.894 -139.437 208.43 -71.7576 -160.777 208.688 -113.173 -182.241 226.212 -138.094 -210.45 234.503 -133.938 -239.851 233.949 -113.688 -196.654 235.589 -47.8584 13.5184 10.8226 21.1849 
175.967 161.586 168.272 170.211 171.57 177.818 137.016 158.244 159.761 157.17 -168.356 210.871 -77.1471 -194.389 213.092 -120.343 -216.556 228.948 -140.408 -244.673 235.811 -133.718 -271.907 233.674 -111.096 -221.901 235.041 -48.5212 13.2347 10.2829 17.4354 
175.551 155.193 167.399 169.431 169.967 177.83 132.429 156.886 157.914 155.506 -198.159 211.251 -79.9667 -226.627 215.034 -119.731 -250.907 231.124 -139.165 -279.513 236.378 -129.83 -304.702 232.349 -104.95 -247.104 234.083 -46.7584 13.3936 10.3272 17.5721 
175.045 155.961 167.353 169.293 167.463 177.882 123.3 150.115 152.661 151.582 -228.377 211.22 -79.0128 -256.385 214.578 -113.958 -282.168 229.898 -133.962 -311.636 233.979 -122.845 -335.062 229.414 -96.4384 -272.591 233.752 -42.6775 13.341 11.1025 18.5247 
174.183 147.525 165.35 167.357 166.249 174.24 113.089 147.243 149.064 149.987 -258.394 210.715 -74.9337 -284.499 213.009 -102.85 -311.187 227.928 -125.636 -340.1 230.514 -113.289 -362.618 227.336 -86.1569 -299.205 234.287 -35.7816 13.3537 10.8026 21.914 
173.997 137.682 165.099 167.812 166.234 170.794 107.455 148.874 152.087 152.241 -285.199 206.279 -66.5932 -306.901 210.737 -89.9393 -337.75 227.859 -116.197 -367.491 229.867 -101.655 -388.132 225.107 -72.9545 -322.577 234.148 -26.4529 13.2034 12.1298 29.1755 
171.278 141.96 167.17 164.546 152.344 166.507 108.326 148.653 147.542 157.603 -333.097 201.956 -51.0802 -355.702 205.989 -70.523 -386.442 221.249 -96.5652 -411.951 219.327 -78.8365 -429.541 221.362 -48.2742 -365.67 234.85 -9.96795 14.242 9.54799 31.6746 
172.435 138.36 157.059 174.27 90.0456 166.66 102.385 147.736 107.722 135.767 -354.373 198.627 -40.972 -374.358 201.096 -53.2351 -403.785 210.88 -78.7166 -413.022 204.694 -48.5542 -433.686 209.311 -23.6253 -384.841 234.841 1.49679 14.0052 11.4921 31.4055 
174.609 122.978 142.59 174.27 90.0456 169.47 105.343 150.407 104.924 102.015 -372.62 196.72 -32.8783 -396.341 199.499 -43.5582 -426.133 206.608 -63.1575 -434.185 200.403 -32.2081 -445.138 207.93 -4.77527 -402.117 234.367 10.8543 4.72706 13.9421 27.2598 
175.709 175.566 179.999 174.27 174.27 165.901 156.115 179.989 179.755 121.812 -412.872 189.246 1.04185 -434.863 203.318 -41.5611 -455.071 197.253 -42.8501 -458.626 195.332 -26.5294 -452.393 193.828 10.2058 -423.086 228.845 34.2402 20.2069 7.26664 2.04839 
169.359 174.27 180 175.739 166.068 166.006 172.724 140.517 170.821 156.842 -411.163 187.201 6.52107 -460.034 210.377 -23.7847 -442.702 203.295 -43.4634 -432.299 178.905 -41.1996 -420.151 176.629 -22.4925 -423.338 223.317 38.8505 5.48731 5.31113 24.3736 
172.639 174.27 179.343 173.363 174.27 175.442 177.98 142.91 162.621 156.216 -402.53 181.589 28.2356 -449.75 205.32 -17.2968 -439.208 199.526 -27.6001 -439.018 182.486 -20.0379 -427.05 176.59 -0.174481 -424.446 220.841 56.416 3.67044 7.70952 15.0628 
152.247 145.244 167.207 158.811 174.27 139.468 154.339 143.453 163.925 153.698 -421.913 224.921 40.9099 -457.597 221.389 -7.95945 -444.501 212.483 -16.5774 -441.655 196.375 -12.6989 -419.878 181.8 0.886037 -421.753 217.044 67.3856 5.91475 9.43482 8.92019 
131.304 144.806 174.335 163.627 165.516 125.612 153.412 150.641 168.282 161.521 -455.569 241.057 70.381 -475.712 214.299 7.89437 -459.62 206.618 -6.07323 -447.739 190.503 -6.03699 -419.081 186.627 1.2271 -422.586 212.122 74.5357 6.05959 9.32781 4.62864 
132.459 150.888 173.155 160.204 161.386 139.329 156.059 160.062 166.964 160.057 -472.172 237.149 82.6067 -478.404 208.405 12.8034 -459.777 194.749 -2.3657 -443.447 185.464 -3.72588 -416.094 183.93 3.96143 -420.988 206.579 78.1697 4.52106 4.37062 6.40671 
156.5 164.593 172.493 166.484 162.607 149.025 156.907 167.358 169.48 163.151 -479.604 230.326 84.3982 -480.65 205.99 15.7986 -460.907 188.26 -0.498009 -445.942 182.744 -1.43358 -419.054 180.118 6.17976 -420.988 202.876 80.1315 4.6162 4.13869 10.0949 
169.941 171.121 140.119 160.564 172.889 122.355 162.894 161.162 166.518 168.451 -465.438 230.895 84.0294 -470.312 194.97 13.0698 -450.571 180.305 1.71187 -433.883 175.555 -0.203357 -409.83 174.589 7.35872 -418.503 199.034 82.9424 3.23439 2.38896 6.87912 
149.191 166.546 154.655 154.637 172.411 133.363 165.208 164.914 165.038 165.928 -473.32 228.971 94.0546 -468.941 187.869 12.5227 -446.518 171.793 1.98699 -430.148 170.171 3.51043 -408.222 171.301 9.82535 -417.28 196.518 84.2386 1.18508 3.25108 8.9496 
175.57 165.753 168.143 144.455 170.128 146.218 166.117 171.603 159.535 162.254 -475.063 219.571 91.499 -467.101 185.353 14.0638 -447.251 167.698 3.22332 -428.734 172.058 5.26252 -403.895 169.423 12.6166 -415.6 193.699 85.2504 6.11066 5.27534 9.17875 
145.474 157.54 161.869 156.808 167.226 146.663 166.381 167.821 164.868 161.079 -471.095 212.364 87.6883 -464.023 182.268 13.9556 -440.916 165.449 2.10996 -424.956 166.238 4.7025 -401.171 167.369 15.791 -413.869 191.94 85.3371 3.48989 4.1437 10.0493 
145.728 158.052 161.341 165.036 164.681 147.237 167.815 166.514 168.641 160.065 -468.628 202.851 87.3542 -459.871 177.732 13.2828 -435.18 162.098 1.37763 -421.456 160.843 4.57803 -398.72 164.65 17.5504 -411.842 191.014 85.0056 1.61269 5.43138 9.84034 
143.675 170.954 151.613 166.167 162.955 140.293 161.913 156.541 154.115 160.456 -456.29 214.222 71.4311 -449.546 183.664 4.98295 -427.775 165.889 -3.1859 -410.223 166.505 -0.240815 -387.082 166.699 14.5418 -408.54 195.563 81.5204 3.67237 3.74818 7.96841 
147.534 174.514 159.031 164.678 165.442 142.309 165.209 156.385 160.281 165.1 -457.692 220.334 73.2153 -452.727 185.206 6.92419 -431.287 170.423 -3.69732 -411.22 166.564 -1.17594 -388.611 166.937 12.862 -408.736 197.132 81.7617 3.04047 0.455194 6.12163 
146.794 165.601 154.063 165.232 162.344 138.915 165.849 154.11 162.166 163.65 -457.736 219.621 72.2996 -454.198 187.321 7.65504 -434.274 175.396 -3.5509 -412.496 168.752 -1.93066 -390.417 170.216 13.0188 -409.456 198.744 81.9337 1.93453 2.95792 4.1521 
146.212 163.169 157.093 161.948 162.578 141.337 164.058 156.672 165.06 165.18 -458.27 224.866 72.7716 -456.674 191.629 8.30575 -437.524 178.714 -3.72283 -416.263 171.113 -1.55994 -392.773 172.167 12.5343 -410.141 200.689 82.0267 2.58276 3.26627 4.33855 
153.867 165.376 167.58 169.37 167.506 140.716 167.983 166.363 170.312 172.458 -456.643 229.696 73.9628 -461.608 197.872 7.30108 -437.539 180.114 -6.3096 -422.014 173.955 -2.43435 -399.141 176.237 8.99369 -408.546 203.775 80.0472 1.04476 4.05743 10.4575 
155.532 167.15 167.628 172.271 168.311 143.163 165.477 164.405 169.057 174.205 -455.378 229.537 70.5924 -459.173 200.832 6.14787 -438.499 184.649 -7.44938 -422.402 177.422 -4.02819 -399.328 177.991 8.43077 -408.778 205.092 79.5703 0.950469 3.8615 7.50243 
154.331 166.08 156.342 172.747 169.173 143.992 166.889 166.457 171.628 167.069 -448.939 231.256 64.2928 -451.436 202.482 2.36257 -434.417 191.874 -10.0088 -417.882 183.846 -6.28475 -391.88 183.495 9.22417 -405.802 212.412 76.1076 4.55716 4.17118 2.03164 
152.828 164.882 159.651 171.308 169.117 142.073 166.705 164.17 169.292 165.556 -445.789 235.397 60.9903 -451.203 204.116 1.38525 -434.709 195.639 -11.1031 -416.973 186.857 -7.53085 -391.042 185.096 8.3013 -405.364 213.436 74.7424 5.80392 4.2969 2.24193 
160.052 164.909 162.101 171.239 167.447 149.014 167.693 166.441 169.955 164.302 -448.595 234.547 61.2073 -451.087 205.388 0.630515 -434.011 195.619 -12.7701 -416.268 187.775 -8.29375 -390.591 185.8 7.44708 -404.692 214.819 73.3962 5.89803 3.64076 2.61098 
163.108 169.654 163.973 175.269 166.508 154.376 169.573 172.221 173.033 161.391 -447.742 239.005 59.242 -450.614 209.174 -1.79492 -432.793 196.595 -15.6574 -414.874 190.411 -10.124 -390.016 189.092 6.64585 -404.45 218.245 71.4216 5.80034 2.81016 3.26349 
161.065 170.257 172.807 176.685 161.649 149.767 170.759 174.159 176.339 163.231 -442.548 235.077 56.6135 -453.001 209.285 -3.19995 -433.639 195.738 -16.6304 -417.573 192.896 -11.6522 -391.083 193.486 3.00194 -404.139 219.517 69.3613 4.44198 3.82316 4.90595 
139.976 178.172 178.233 177.429 174.27 172.062 176.413 176.215 179.124 177.391 -446.411 218.078 59.9892 -445.273 205.265 -7.11006 -431.164 194.636 -18.4098 -415.228 188.963 -12.6028 -390.522 186.98 3.81394 -402.529 222.067 67.1709 5.68915 3.43567 1.75996 
143.742 174.27 174.245 174.27 174.27 166.211 178.447 171.868 178.809 177.786 -444.342 201.324 61.8217 -442.184 202.253 -9.02376 -429.939 194.508 -19.8164 -414.762 185.161 -13.2542 -389.751 185.284 2.93415 -402.769 223.867 64.8571 4.94796 5.40442 4.79163 
167.904 166.941 180 172.773 174.27 128.435 168.151 176.57 177.535 177.629 -438.579 245.995 56.3656 -411.219 197.628 -20.2097 -435.297 206.408 -22.7363 -455.108 211.593 -6.84676 -462.289 212.057 21.3112 -403.405 222.539 62.9277 2.49356 5.03372 6.55288 
173.695 166.884 171.705 171.299 174.27 136.517 165.846 168.359 165.148 168.565 -447.056 217.321 52.2061 -409.949 192.141 -20.1447 -432.206 200.133 -22.9145 -454.773 207.592 -5.31412 -464.092 213.9 22.6262 -403.273 224.932 61.7126 4.07992 7.57916 4.83549 
154.99 161.52 165.552 163.113 179.001 109.067 160.055 164.903 167.257 170.083 -411.281 208.479 47.9102 -406.611 190.855 -20.9426 -434.453 204.084 -24.9293 -456.371 213.877 -6.90637 -468.627 220.753 23.5349 -402.325 226.937 60.6584 8.99096 8.12419 11.1035 
143.775 158.598 166.634 158.868 173.852 143.743 159.101 162.368 166.273 163.126 -383.319 190.145 32.3467 -406.285 190.835 -23.4686 -430.804 205.226 -26.7546 -453.717 216.069 -8.94535 -465.109 222.495 20.9623 -401.212 227.603 59.5084 7.32505 8.79855 9.4309 
162.345 152.83 171.603 171.463 166.287 157.613 163.926 164.655 161.702 151.257 -374.644 187.477 20.9999 -399.162 194.863 -28.1853 -426.513 207.278 -29.8333 -447.655 212.16 -10.57 -456.172 213.107 22.2604 -399.068 228.925 58.0413 9.63065 6.83165 9.3676 
162.235 153.789 168.519 168.228 160.509 155.239 169.478 164.27 157.291 150.751 -378.971 186.47 21.8633 -398.842 194.634 -29.9311 -423.815 206.313 -31.0052 -447.019 213.409 -11.4264 -454.441 215.691 20.3313 -395.542 228.606 56.3243 8.59436 8.70444 6.99958 
163.782 164.409 170.912 164.219 154.743 150.927 173.61 161.888 146.279 144.047 -383.436 191.167 21.3401 -398.932 194.835 -31.627 -420.288 205.292 -31.0813 -447.165 212.618 -6.84979 -450.662 216.145 21.1843 -392.154 228.766 55.2848 6.80155 13.6794 3.89297 
168.352 168.014 173.254 164.367 151.309 144.598 174.169 160.596 144.349 148.301 -387.52 191.749 24.3985 -394.522 194.584 -31.708 -415.027 205.278 -31.902 -442.676 211.87 -7.32226 -445.165 215.525 18.9051 -387.721 228.817 54.3314 6.57846 14.4033 3.7599 
175.601 177.379 168.114 170.278 152.497 144.108 166.907 164.422 146.964 145.961 -387.097 190.071 27.2854 -386.5 190.407 -28.984 -408.585 204.926 -33.4671 -433.732 209.812 -11.6699 -438.776 213.023 17.1135 -381.943 230.131 51.7378 6.16508 10.8628 9.80788 
174.82 175.298 168.72 171.641 150.326 143.741 159.056 165.329 150.586 147.172 -381.739 191.441 23.7169 -379.125 189.948 -29.7475 -404.514 204.959 -35.9426 -425.814 210.914 -17.3994 -436.009 216.572 12.5065 -377.229 230.643 48.6457 5.84936 6.6005 12.3698 
175.007 163.296 170.846 169.811 156.037 142.029 153.42 164.305 151.13 146.891 -380.752 195.944 20.6467 -373.574 188.977 -29.5828 -399.321 202.968 -36.9623 -419.462 210.282 -19.6341 -432.159 217.545 10.2443 -372.828 231.458 46.4435 7.5588 5.53873 12.6163 
179.287 154.558 170.424 170.763 156.824 147.445 148.8 164.464 152.775 149.492 -374.013 197.934 15.1965 -368.496 189.141 -29.2954 -393.358 201.285 -39.1084 -412.951 208.512 -22.193 -423.492 216.168 6.07274 -367.764 232.209 43.8523 3.80733 4.9496 12.6568 
157.343 143.015 172.276 172.581 163.422 149.043 149.128 170.264 161.048 160.093 -363.335 205.696 13.2696 -356.635 194.853 -29.7027 -377.862 204.139 -45.2289 -398.313 210.624 -29.6161 -411.505 215.56 0.121713 -358.547 234.483 41.5713 5.0317 4.87053 13.6499 
177.549 154.822 171.232 171.148 172.848 145.307 150.846 168.251 162.945 157.309 -359.421 203.292 13.4431 -352.003 194.033 -31.4923 -372.151 204.732 -46.8022 -393.405 213.493 -31.6444 -407.113 218.116 -1.02752 -352.401 234.803 40.2413 6.11566 6.31459 14.1062 
174.443 144.606 169.297 171.609 173.858 141.185 147.32 167.101 167.144 163.215 -349.84 206.925 6.23106 -342.663 193.723 -30.0315 -366.572 206.582 -49.3548 -389.96 216.228 -34.2436 -405.753 220.738 -3.8747 -345.99 234.958 38.4186 8.6272 8.32968 18.5354 
172.443 148.378 168.725 171.763 177.968 138.814 144.434 167.095 168.148 168.229 -342.952 210.655 4.11613 -336.567 193.775 -31.0733 -361.913 208.009 -51.8799 -386.512 217.899 -36.5281 -402.33 224.055 -6.57892 -341.29 235.668 36.4052 9.04392 9.29273 20.6269 
142.615 160.558 166.749 170.749 178.798 138.01 135.496 166.754 170.39 173.041 -326.23 210.006 0.0725851 -323.044 189.913 -28.1569 -355.396 209.002 -54.7805 -382.605 219.035 -38.7855 -400.341 225.079 -8.33902 -335.252 235.53 34.2104 11.7702 11.5176 30.1852 
132.608 152.766 166.739 168.557 177.169 143.239 130.557 166.284 169.535 173.165 -312.785 207.001 -2.78264 -315.256 190.412 -28.0449 -348.934 209.005 -57.1666 -377.112 217.904 -40.6244 -394.686 223.583 -10.6528 -329.969 235.74 31.935 11.6307 12.094 32.8521 
130.656 148.599 165.514 166.778 174.092 152.261 129.948 164.693 169.132 171.633 -299.692 205.497 -7.74167 -309.539 190.228 -30.3243 -343.913 208.447 -59.0311 -373.252 217.989 -42.1537 -390.031 222.301 -11.8223 -324.564 235.562 29.3042 11.433 13.6318 33.3559 
151.853 149.758 163.387 164.517 168.123 165.897 125.799 161.622 167.155 167.2 -284.278 202.913 -14.3031 -306.342 193.326 -33.933 -341.626 209.547 -59.9669 -370.815 218.176 -42.5617 -385.706 220.615 -12.3356 -320.126 236.096 26.9672 10.0765 13.7356 31.6656 
175.315 144.552 163.358 163.156 163.58 170.826 127.097 160.171 165.756 165.63 -273.24 201.71 -18.1076 -302.164 192.774 -33.608 -336.371 208.834 -61.6462 -365.104 217.433 -44.348 -378.77 218.442 -14.6011 -314.963 236.046 24.5334 8.77952 13.8995 33.6349 
178.957 145.161 163.009 161.072 159.162 169.853 130.906 158.378 162.838 161 -267.227 202.179 -20.531 -299.228 193.857 -37.6564 -331.324 208.444 -62.4168 -359.084 216.496 -45.2836 -371.541 216.177 -15.77 -309.665 236.106 22.6816 7.65523 13.4079 30.2415 
179.891 149.888 162.296 160.053 155.626 167.69 132.457 155.827 159.136 156.982 -265.599 202.244 -21.6119 -293.644 194.853 -38.9722 -324.277 208.13 -62.4015 -351.186 214.882 -45.8082 -362.503 213.322 -16.7805 -304.296 236.448 21.6939 6.21884 12.6681 28.9723 
176.264 155.232 162.418 160.245 154.482 167.183 133.65 154.364 156.921 154.146 -260.644 203.82 -23.2121 -287.152 194.869 -39.5112 -316.593 207.396 -62.8425 -343.151 213.7 -46.8849 -353.913 211.209 -18.0569 -298.827 236.761 20.8855 5.44113 12.4422 28.4086 
172.587 158.043 163.072 161.322 155.599 166.555 132.526 153.327 155.323 151.821 -255.528 206.336 -25.101 -280.265 195.554 -40.0961 -309.224 206.932 -63.5345 -335.329 212.862 -48.0942 -345.646 209.751 -19.4428 -292.702 236.741 20.108 4.86452 12.2087 27.8277 
169.679 157.579 163.485 162.416 158.127 165.481 138.252 151.803 152.459 147.305 -245.205 210.546 -26.5909 -267.743 199.58 -47.8251 -293.895 206.692 -64.6232 -319.243 211.079 -49.9085 -329.804 207.891 -21.9289 -280.722 236.581 19.1244 3.93386 11.2799 19.8749 
169.653 156.99 164.4 163.963 160.342 165.943 137.699 153.01 153.499 149.186 -237.813 209.551 -26.7276 -258.205 198.731 -47.0453 -283.608 205.363 -65.6471 -309.505 209.772 -51.8895 -322.101 206.327 -23.7399 -273.99 236.164 18.7266 5.17081 11.5137 20.2667 
169.789 155.583 165.674 165.479 162.469 167.05 137.605 154.8 155.033 150.361 -228.24 208.935 -26.6023 -249.865 198.215 -47.1946 -274.665 204.564 -66.7951 -300.342 208.361 -53.4244 -313.989 204.669 -25.1064 -266.865 234.871 18.7382 5.6847 10.9887 20.1929 
171.979 153.23 166.646 167.007 164.058 169.394 135.084 155.895 155.977 150.576 -219.038 208.601 -26.6545 -240.706 197.193 -44.5529 -265.107 203.491 -67.376 -290.622 206.673 -54.5787 -304.026 201.922 -26.1527 -259.921 234.043 19.0057 5.24912 10.5191 22.0086 
173.028 150.762 168.205 168.977 166.706 170.298 133.95 158.379 158.465 154.127 -210.47 208.291 -26.1374 -231.499 195.1 -41.3698 -255.644 201.263 -67.6855 -281.201 204.669 -55.3589 -295.894 200.16 -27.0488 -252.467 232.622 19.7877 5.58968 10.5044 23.8684 
174.036 158.384 169.581 170.077 167.967 172.007 144.486 160.818 161.462 156.192 -197.77 207.825 -24.8489 -224.4 195.006 -48.4978 -248.137 200.133 -68.6805 -273.207 202.649 -56.0506 -287.942 198.042 -27.49 -243.901 230.05 20.2202 5.66214 9.60791 18.2354 
