173.788 166.866 164.268 162.403 155.463 165.165 161.471 157.99 155.506 153.005 85.5171 147.159 -50.3278 146.43 182.352 -74.9337 175.39 171.168 -62.8443 186.268 158.036 -37.8869 182.714 146.083 -4.47425 109.839 170.824 9.47265 9.33575 7.46854 10.4094 
173.566 166.558 163.807 161.594 156.463 164.68 160.263 157.792 154.701 152.446 74.1218 146.421 -55.3019 134.538 181.471 -80.407 163.907 171.264 -68.5042 174.446 157.656 -43.899 171.474 146.66 -10.956 99.1312 170.725 4.27048 8.53949 7.45282 10.2314 
172.615 165.39 163.114 160.466 157.772 163.322 158.483 156.946 153.18 148.911 61.9634 145.028 -59.2416 121.534 178.982 -85.2035 150.459 169.339 -73.8714 160.354 155.482 -49.9473 157.288 145.61 -18.1756 87.3005 170.36 -0.578294 6.93759 7.21967 9.57096 
172.652 164.362 162.555 159.752 158.361 162.764 157.524 156.272 151.568 144.495 48.562 144.177 -63.6356 107.917 176.639 -90.7468 136.347 166.811 -79.7722 144.9 152.278 -56.6311 141.149 143.34 -26.0904 74.6288 170.468 -6.08688 5.57253 7.34033 9.17137 
172.816 165.163 161.944 157.712 157.924 161.702 157.806 154.33 147.758 135.999 33.8715 143.678 -67.9685 93.3265 174 -95.9001 119.82 161.532 -85.1501 125.272 145.78 -63.2571 119.531 138.023 -34.4164 60.2454 169.643 -11.5731 5.53901 8.26989 9.1442 
172.491 167.615 163.053 157.067 161.104 160.156 159.024 154.056 144.579 133.269 17.6407 145.536 -72.9354 76.8128 172.585 -101.284 101.547 157.556 -91.2045 103.36 138.873 -70.2663 97.5294 132.052 -42.4356 44.3865 168.312 -16.9651 6.46288 11.1817 9.38483 
174.593 170.546 165.223 158.081 163.089 160.296 161.332 156.089 145.496 137.159 -3.86667 150.762 -78.8445 56.7361 171.452 -107.49 80.2197 154.997 -98.833 80.5297 134.457 -78.2774 76.1261 127.727 -51.3683 26.862 166.692 -22.0176 5.99255 12.5351 8.97274 
175.286 172.898 166.522 158.882 164.043 159.998 163.784 158.107 147.28 141.517 -30.5005 155.843 -82.9294 32.8061 169.215 -113.86 55.2115 151.481 -106.34 56.1476 130.8 -85.8493 54.0819 123.763 -59.2351 7.23774 164.779 -26.4774 4.65035 11.992 8.73392 
170.814 172 164.745 158.215 163.622 158.993 164.652 157.754 147.585 143.18 -56.9718 160.776 -85.3692 6.02215 165.641 -120.232 26.3299 145.92 -114.175 28.7286 125.701 -93.5913 29.5287 118.442 -66.0219 -12.9814 162.449 -30.8175 3.63946 10.8929 8.79561 
171.984 170.198 163.819 165.163 169.406 158.994 167.45 158.73 153.634 149.863 -87.0961 166.054 -85.864 -25.0709 163.382 -125.643 -5.27326 141.269 -120.299 0.559126 122.59 -101.293 3.63165 113.399 -72.7352 -37.3873 160.529 -34.3755 4.534 7.88764 9.76183 
172.283 167.626 162.305 174.17 175.067 159.982 167.736 158.378 159.771 157.229 -122.004 168.195 -82.9315 -58.0105 160.72 -128.567 -39.8913 136.796 -124.362 -29.6743 121.012 -106.874 -23.1261 110.324 -77.7363 -64.8618 158.184 -36.7419 6.27648 4.73172 10.6734 
170.673 167.514 164.953 171.134 174.232 163.326 166.273 160.775 163.206 162.329 -161.25 168.308 -76.0765 -95.931 156.887 -128.647 -77.823 133.094 -126.113 -64.4268 117.012 -108.438 -55.4737 106.439 -78.8971 -99.0837 158.486 -36.9785 8.1942 6.1229 10.6962 
171.849 165.25 163.1 168.979 172.335 162.407 162.719 160.379 161.414 162.157 -190.946 165.531 -65.7548 -127.47 152.348 -125.14 -110.631 131.494 -124.629 -95.9177 114.938 -107.952 -82.3501 105.522 -79.0222 -122.984 157.19 -34.2916 8.64449 6.78785 8.6392 
173.777 168.554 166.049 169.327 171.921 160.939 165.999 164.318 164.7 165.404 -223.249 168.211 -55.9353 -170.891 156.275 -118.891 -153.027 135.872 -120.458 -135.734 120.471 -105.435 -118.683 111.37 -77.302 -157.924 162.951 -28.4976 9.37054 6.33909 8.24959 
172.812 171.994 169.53 171.251 171.815 158.891 167.158 167.786 168.236 167.812 -248.829 163.579 -45.4512 -207.815 152.748 -110.954 -188.565 134.373 -115.643 -168.803 121.377 -103.114 -148.345 113.478 -76.6522 -183.585 162.51 -22.8426 8.98623 5.02742 6.60719 
171.29 171.1 171.12 171.167 170.206 158.062 165.998 169.873 169.69 167.027 -272.989 159.044 -30.9678 -241.784 149.851 -98.0146 -222.307 134.893 -106.264 -200.838 122.816 -96.0233 -179.516 115.835 -71.251 -210.109 162.989 -13.2702 7.50072 4.80398 4.0265 
166.821 171.029 169.899 168.774 166.618 153.986 166.047 169.755 168.717 164.027 -292.772 155.013 -17.6346 -271.856 148.383 -86.0014 -252.096 134.722 -96.9202 -228.468 123.384 -88.7687 -205.31 116.251 -65.0049 -233.258 163.143 -5.27794 8.20058 5.2934 3.72094 
157.661 172.359 170.341 168.348 166.065 144.606 167.652 171.572 170.677 166.077 -305.883 149.102 -5.27609 -301.264 150.376 -74.3754 -283.933 138.058 -88.2734 -260.278 127.991 -83.2167 -235.683 122.072 -63.535 -255.031 162.844 1.80245 5.89302 4.16507 2.55579 
146.903 174.762 168.103 163.708 160.954 133.287 167.375 169.061 166.187 159.983 -322.742 138.058 20.723 -351.217 155.996 -40.0889 -340.219 145.701 -57.9457 -316.18 134.405 -58.8703 -287.379 127.882 -48.3138 -286.864 162.253 19.8677 5.79161 4.49577 1.08069 
141.825 178.247 162.411 157.884 155.016 131.916 158.204 162.974 160.236 153.071 -335.731 137.161 33.4942 -375.874 160.398 -17.2329 -364.901 150.935 -38.6567 -342.638 140.022 -41.6582 -312.155 131.522 -36.6132 -302.981 164.088 29.679 7.15634 3.55716 3.1765 
137.488 175.626 158.681 150.479 146.057 126.604 154.035 162.035 156.762 141.339 -341.012 135.43 43.0451 -393.017 161.321 2.94226 -386.108 156.521 -20.0893 -362.522 143.723 -25.4423 -328.939 132.611 -23.0135 -316.542 165.162 39.9945 10.7384 6.42126 2.16062 
132.256 167.972 157.076 132.376 134.409 128.574 147.877 161.034 143.518 122.592 -351.409 132.37 55.3842 -406.581 159.272 19.3814 -400.181 154.431 -6.05687 -377.06 138.983 -5.40956 -339.362 129.144 -8.51227 -327.544 165.315 48.0865 15.9708 11.4063 3.99057 
139.332 158.085 146.925 115.841 142.652 140.838 151.601 150.106 134.309 102.356 -372.215 136.401 66.324 -421.188 159.552 29.5718 -412.742 151.413 7.71876 -390.377 138.85 10.6916 -346.068 125.674 6.06234 -340.065 165.507 54.398 28.3522 14.041 5.50848 
167.049 157.149 136.637 113.434 125.406 162.768 148.926 140.973 135.568 90.857 -393.401 138.698 87.3436 -432.695 157.087 40.7087 -421.701 147.302 19.007 -401.501 137.574 21.1144 -355.038 127.064 18.71 -349.529 165.626 59.7474 30.0335 13.3911 8.09323 
169.697 160.493 137.578 137.013 127.278 166.661 152.961 141.976 138.741 86.5683 -404.701 140.248 99.0384 -443.17 155.33 50.9707 -432.221 145.697 27.9702 -410.949 135.069 20.2801 -361.473 125.992 27.7709 -357.99 165.406 64.9091 37.1348 8.84694 8.88101 
166.595 160.869 147.724 148.523 119.698 166.734 153.507 146.924 143.954 86.6117 -416.095 142.362 110.457 -456.108 157.908 62.9486 -449.23 150.613 39.4753 -426.958 139.533 25.5571 -375.607 130.619 34.3534 -369.47 168.451 71.9055 38.5369 9.08317 6.37201 
163.26 157.54 153.706 154.975 90.0456 164.202 153.998 152.451 150.041 106.373 -421.321 143.768 117.605 -462.407 159.497 70.1508 -458.583 153.569 45.859 -436.511 142.686 28.8829 -391.752 134.691 37.2228 -375.074 169.164 76.154 27.1574 8.96403 5.0223 
159.511 156.946 157.276 156.212 90.0457 160.924 154.323 153.95 151.206 106.707 -425.172 143.8 121.736 -466.861 157.725 75.0741 -465.424 151.809 51.7108 -444.23 141.84 35.0933 -399.256 135.635 43.5876 -380.274 168.942 78.7837 27.5596 7.71833 3.61783 
153.915 163.324 162.26 163.812 152.879 156.048 156.821 158.312 157.088 141.729 -425.883 142.782 122.931 -468.552 155.184 75.8293 -469.156 150.745 53.6927 -449.022 142.463 36.6333 -415.646 135.465 39.9258 -382.753 167.545 80.7619 15.4018 6.10631 1.25666 
158.705 158.254 164.262 166.147 174.27 156.451 152.237 156.685 155.207 147.935 -430.176 141.271 128.27 -472.987 153.098 85.4215 -476.518 148.16 67.9394 -457.871 140.202 49.4385 -426.014 134.779 46.4225 -388.277 167.725 84.2642 10.6264 5.4653 2.39947 
161.98 154.284 163.418 166.145 169.246 159.024 150.293 155.972 155.117 142.172 -430.885 139.926 127.747 -473.241 152.939 89.7855 -477.337 147.809 71.7167 -459.483 139.652 51.9712 -426.396 132.935 49.6367 -388.998 167.484 85.1586 12.5134 5.7041 1.82001 
165.752 153.459 160.59 163.077 155.98 162.332 151.141 155.781 154.904 139.459 -433.072 141.882 129.918 -474.991 154.066 91.9558 -478.804 148.884 73.6725 -461.369 140.387 53.3756 -427.433 132.121 49.9249 -389.96 167.245 86.1285 12.6044 5.86537 1.50938 
167.38 155.886 151.339 156.256 156.107 166.036 156.391 155.628 156.923 143.749 -433.193 142.699 131.068 -474.944 155.265 90.7085 -476.544 148.98 70.7413 -460.69 141.795 51.7637 -427.788 131.404 42.8534 -387.523 164.513 86.6202 9.34057 4.00446 0.524366 
166.644 157.023 152.122 156.108 155.886 165.269 156.495 155.631 157.149 143.124 -432.716 141.182 129.177 -474.258 154.471 89.4635 -475.664 148.292 69.2162 -459.712 141.159 50.6098 -426.806 130.946 42.4457 -386.934 164.174 86.3076 9.10097 3.82542 0.713154 
165.332 157.896 153.275 156.358 157.216 164.307 157.209 156.13 157.488 144.172 -430.932 139.529 127.698 -472.6 154.204 87.3577 -473.687 147.863 67.0035 -457.594 140.525 49.122 -425.614 130.976 41.7817 -385.3 163.453 85.7457 7.77769 3.48764 0.768353 
164.364 160.723 162.094 161.631 156.642 162.438 160.798 161.671 161.208 147.451 -430.848 140.915 126.403 -473.076 155.489 84.557 -475.059 149.978 64.0534 -458.26 142.069 46.6261 -427.357 133.431 40.6941 -385.304 163.214 85.792 5.90975 3.5386 0.692069 
162.933 161.69 164.299 162.624 153.287 161.46 160.445 161.813 160.199 141.58 -430.266 140.59 125.013 -472.538 155.389 83.401 -474.613 149.802 63.2473 -457.083 140.853 46.1288 -425.292 132.031 43.3616 -384.858 163.117 85.5019 7.9332 4.09822 0.666523 
162.125 161.885 165.296 163.385 149.166 160.739 159.577 160.474 158.773 135.726 -428.888 139.937 123.491 -470.714 154.069 81.7592 -472.507 147.608 62.5838 -454.696 138.124 45.8899 -421.673 129.602 45.6508 -383.359 162.341 84.7595 10.3436 4.3247 0.675197 
162.215 161.607 165.524 163.786 143.396 160.963 158.178 158.806 157.065 130.765 -428.182 138.989 123.091 -469.424 153.035 81.0391 -470.936 146.109 62.5228 -452.919 136.389 46.1306 -418.533 127.849 46.7405 -382.535 161.869 84.2009 11.9699 4.43748 1.1119 
162.055 160.826 163.994 163.14 141.089 160.994 157.433 157.413 155.333 127.675 -427.084 137.265 122.561 -468.26 152.263 80.1901 -469.279 145.112 61.5946 -450.818 134.889 45.5982 -415.778 126.057 46.8759 -381.566 161.171 83.5968 13.3957 4.81438 1.03059 
162.241 158.551 160.469 160.066 136.788 161.398 156.292 155.198 152.226 122.621 -427.475 137.238 122.377 -467.972 151.924 79.2016 -468.179 144.407 60.9087 -448.954 133.668 45.3877 -412.913 124.797 47.4614 -381.586 161.044 83.3483 15.1194 5.39398 1.34783 
164.112 158.927 158.307 157.192 142.368 162.915 156.288 153.703 149.216 121.598 -426.374 137.307 123.03 -466.305 151.042 77.3593 -465.619 142.646 59.1836 -445.192 130.813 44.1219 -409.49 121.892 46.8171 -379.593 159.833 82.3649 16.171 6.56867 2.04521 
166.59 156.904 154.035 154.692 150.402 165.063 155.558 151.74 147.962 124.523 -428.135 136.81 123.397 -468.224 151.019 77.0451 -466.366 142.462 57.3644 -445.04 130.221 41.3609 -409.375 120.742 44.6871 -380.466 159.683 81.4811 17.3143 7.753 2.61145 
166.085 158.41 155.012 155.143 156.035 164.753 156.049 150.971 146.828 127.143 -426.237 135.337 122.046 -466.438 149.863 75.4861 -463.916 139.999 56.364 -442.252 127.728 41.0768 -407.839 119.414 43.7282 -378.504 158.71 80.5934 15.7175 7.78943 3.74669 
165.911 158.912 155.034 154.051 155.964 164.884 155.725 149.83 145.008 127.405 -424.391 134.39 121.593 -464.448 148.571 74.2682 -461.327 137.562 55.8287 -439.153 125.206 41.0918 -405.366 117.841 43.0057 -376.462 157.622 79.7549 14.6169 8.00299 4.76211 
166.888 155.426 153.028 148.493 145.012 165.401 154.677 148.225 139.456 117.072 -420.107 131.155 120.215 -460.359 145.616 72.5259 -456.363 134.165 54.0717 -432.559 121.413 42.0946 -394.859 113.223 43.5741 -372.856 155.659 78.242 19.0931 8.99911 5.29323 
162.498 156.028 152.534 144.655 143.227 161.872 155.384 148.969 137.792 116.205 -417.444 130.39 116.653 -457.349 143.802 69.1009 -453.336 132.227 51.3836 -428.46 119.34 40.7839 -390.928 111.434 40.9512 -370.41 154.349 77.1559 18.2631 9.59551 5.32323 
163.663 156.159 151.742 143.507 145.828 162.855 154.612 148.386 136.637 121.599 -418.637 131.767 117.148 -456.853 142.63 67.4693 -452.435 130.964 50.2784 -427.269 118.407 39.7554 -392.084 111.467 37.636 -370.317 154.124 76.7922 14.224 9.48971 5.42017 
162.006 154.934 148.027 140.966 143.696 161.715 152.698 146.366 135.165 126.739 -418.584 132.646 116.596 -455.039 141.553 63.6317 -449.263 128.818 47.0363 -423.488 116.39 36.2698 -392.641 111.789 34.8188 -369.071 153.374 75.7415 8.97175 9.58967 6.39557 
158.847 153.972 148.173 139.99 136.353 159.87 151.785 145.789 133.896 119.57 -416.637 131.402 116.154 -454.28 141.805 62.5889 -448.323 128.736 45.7708 -421.893 115.977 35.3539 -389.659 111.5 36.4771 -368.22 153.049 75.3377 11.6132 10.1487 6.7273 
165.54 155.325 152.39 148.661 150.96 163.526 150.646 145.194 136.464 123.833 -414.349 132.825 115.032 -451.347 143.106 62.3315 -444.264 128.225 45.5803 -417.958 114.598 34.8494 -385.57 109.686 36.509 -364.392 154.365 74.669 11.5495 10.3387 7.82499 
164.716 156.314 154.428 150.981 152.786 162.958 151.187 146.422 138.199 127.089 -412.082 131.081 113.97 -449.874 142.91 61.9743 -443.187 128.306 44.9956 -417.076 114.637 34.2712 -385.063 109.621 34.9202 -363.022 154.212 74.4974 10.4132 10.1856 7.42976 
166.723 156.766 156.354 156.227 156.943 165.11 151.582 147.83 143.294 138.452 -408.751 130.28 111.305 -446.094 142.785 62.8219 -439.866 128.547 45.9219 -415.682 115.637 34.0924 -383.808 109.389 29.6542 -359.424 154.731 73.9115 8.25622 8.26339 6.15334 
166.358 156.439 156.65 156.618 156.174 164.841 152.328 149.048 144.954 138.373 -406.966 129.648 110.28 -444.885 143.094 63.265 -439.099 129.218 46.0747 -415.12 116.024 33.8396 -382.688 109.238 29.9639 -357.961 154.751 73.7741 8.77407 8.29389 5.63829 
167.196 155.755 156.455 157.067 154.476 165.755 152.901 149.574 145.824 136.455 -406.323 129.145 109.656 -444.721 144.693 64.0242 -439.146 130.946 46.3454 -415.492 117.266 33.8805 -382.321 109.888 31.3707 -357.59 155.585 73.999 9.80434 8.44241 5.52221 
167.101 155.226 155.97 157 152.663 165.458 153.345 150.25 146.948 135.996 -405.58 129.072 108.787 -444.872 146.623 64.764 -439.536 133.192 46.4558 -416.214 119.379 33.6165 -382.599 111.367 31.7542 -357.539 156.624 74.5938 10.5041 8.39995 5.34601 
166.75 155.127 156.538 157.987 152.823 165.102 154.244 151.288 148.261 136.965 -404.698 128.318 108.042 -445.364 148.327 65.768 -440.306 135.111 46.6212 -417.3 121.169 33.3544 -383.455 112.6 31.4944 -357.718 157.387 75.0007 10.8463 8.36677 5.30426 
166.173 155.481 157.004 158.902 153.25 164.639 155.441 152.075 149.043 136.966 -404.022 127.244 107.197 -446.34 150.042 66.938 -441.366 136.95 47.0246 -418.562 122.742 33.4821 -384.445 113.768 31.8666 -358.341 158.141 75.3761 11.4255 8.54118 5.55857 
165.558 156.296 157.779 160.158 155.21 164.001 156.85 153.131 150.08 137.877 -402.474 126.023 106.172 -446.572 151.731 67.8308 -441.737 138.523 47.4044 -419.164 123.827 33.7631 -385.038 114.487 32.3165 -358.124 158.654 75.6212 11.6759 8.73588 5.84938 
164.722 157.125 158.372 161.276 155.543 163.131 157.721 154.376 151.324 137.489 -400.599 125.268 105.428 -446.211 153.137 68.94 -441.727 140.252 47.8039 -419.391 125.076 33.9743 -384.913 115.089 33.3411 -357.485 159.034 75.9772 12.5103 8.92074 5.81312 
164.683 159.912 159.982 162.732 158.482 163.598 159.276 155.745 152.701 140.327 -399.328 128.454 107.009 -445.93 157.87 71.3267 -441.698 144.626 49.4115 -419.561 128.162 35.2842 -385.024 116.897 34.3961 -356.362 161.613 77.4985 12.8875 9.46863 6.20303 
164.908 160.128 160.161 162.758 158.299 164.056 158.998 155.378 152.359 140.049 -400.53 130.1 107.677 -446.749 159.336 71.8505 -442.47 146.057 50.0527 -420.266 129.503 35.8721 -385.617 118.093 34.9456 -357.153 162.954 77.9975 13.0741 9.56629 6.21177 
164.177 160.264 160.135 162.27 158.137 163.765 158.49 154.75 151.457 138.666 -399.154 130.927 107.944 -445.34 160.932 71.5643 -440.855 147.218 49.9323 -418.418 130.126 36.3497 -383.688 118.559 36.5799 -355.653 163.96 78.3154 13.4231 9.76661 6.37256 
162.935 161.276 159.884 161.806 154.893 162.522 158.999 154.977 151.248 134.186 -397.391 130.487 106.956 -444.724 162.067 71.9909 -440.141 148.339 49.7476 -417.521 130.824 36.1328 -381.495 118.641 38.4479 -354.689 164.247 78.3759 15.8289 10.169 6.78303 
162.435 162.079 159.674 161.47 152.096 161.923 159.045 154.862 150.884 131.212 -396.523 130.514 106.411 -444.486 163.189 72.7859 -439.972 149.55 50.2881 -417.301 131.694 36.4869 -380.513 119.188 39.9845 -354.247 164.719 78.6068 17.3582 10.4799 6.92515 
162.357 162.897 159.937 161.365 150.756 161.63 159.69 155.21 150.672 129.244 -394.596 130.35 106.152 -443.057 163.51 72.5205 -438.4 149.76 50.0504 -415.321 131.35 36.6021 -378.149 119.208 41.3789 -352.545 164.746 78.5565 18.3161 10.9968 7.05761 
163.025 162.518 159.659 160.956 151.884 161.908 159.51 153.822 148.764 129.6 -392.141 131.007 105.812 -440.134 163.899 71.3888 -434.988 149.238 50.3863 -411.335 130.503 37.7841 -374.759 119.181 41.642 -349.58 165.229 78.3386 17.0868 11.314 7.16325 
163.012 163.022 159.395 160.616 151.445 161.3 160 153.638 148.331 127.755 -390.035 130.783 105.016 -438.524 164.734 71.4103 -433.324 149.901 50.5887 -409.678 131.178 37.9644 -372.746 119.735 42.21 -347.839 165.399 78.2409 17.9927 11.3886 7.39978 
162.549 163.624 158.574 160.046 150.995 160.59 159.957 153.485 148.186 126.925 -387.247 132.39 105.318 -435.612 166.979 71.9301 -430.627 152.312 50.8751 -407.496 133.661 38.0265 -370.783 121.627 42.3022 -344.84 166.065 78.3868 18.422 11.1647 7.4471 
163.181 163.384 158.005 159.294 148.289 161.401 160.411 153.416 147.804 124.763 -386.063 133.23 105.579 -434.16 167.955 72.1243 -429.125 153.514 50.6689 -405.967 134.999 37.5735 -368.754 122.921 42.3611 -343.155 166.536 78.2588 19.5064 11.2832 7.68154 
163.804 162.79 157.214 158.598 147.236 162.003 160.148 152.613 146.957 124.849 -384.964 134.746 106.589 -432.149 169.218 71.6709 -427.021 154.438 50.3847 -403.945 136.14 37.3313 -366.989 124.038 41.0551 -341.16 167.076 77.9295 18.8245 11.1628 8.04375 
165.346 162.705 159.631 158.673 148.669 162.873 160.117 153.71 149.069 126.596 -385.619 138.572 107.871 -430.557 170.973 71.2402 -426.495 156.419 50.4706 -404.605 139.319 37.4013 -367.688 126.349 39.5216 -339.968 168.277 78.0775 17.9084 9.81597 7.68636 
166.369 163.657 160.059 159.157 149.093 164.083 159.827 153.459 149.174 131.396 -385.057 140.475 109.164 -428.869 172.168 70.6421 -425.027 157.836 50.3168 -403.501 141.236 37.2507 -368.115 128.703 36.8033 -338.512 169.537 78.0065 14.6954 9.15977 7.23308 
166.841 164.039 159.534 159.004 150.05 165.047 159.084 152.539 148.441 133.517 -384.407 142.198 109.397 -427.079 172.592 69.4255 -422.993 158.592 49.3895 -401.574 142.448 36.4526 -367.269 130.567 34.8048 -337.008 170.57 77.5001 12.9316 8.832 6.97848 
167.083 163.267 158.629 158.307 149.353 165.498 157.381 150.924 146.841 132.615 -383.872 144.224 109.564 -425.179 173.008 68.0088 -420.817 159.082 48.4173 -399.232 143.062 35.7213 -365.323 131.699 33.9179 -335.605 171.78 76.8848 12.3908 8.8605 6.89187 
167.057 162.078 157.608 157.735 149.405 165.629 155.759 149.962 146.034 132.561 -383.152 146.293 109.021 -423.439 173.167 66.4742 -418.728 159.891 46.8034 -396.806 144.064 34.2464 -363.158 133.197 32.4085 -334.544 173.419 76.5653 11.9742 8.97315 6.42681 
166.468 161.034 157.364 158.35 148.687 165.39 155.034 149.888 146.314 132.403 -381.027 147.439 107.234 -420.843 173.217 64.8778 -415.986 160.631 44.821 -393.997 144.997 32.1316 -360.072 134.238 30.5455 -332.495 174.38 75.8995 12.3705 9.10865 6.15752 
166.25 160.383 158.787 159.829 148.143 165.088 155.207 151.313 147.56 133.534 -377.893 147.946 105.248 -417.504 173.321 63.0161 -412.737 161.491 42.1701 -390.613 145.753 29.5141 -355.943 134.534 27.6284 -329.525 174.944 74.7978 13.009 9.24146 5.69648 
166.28 158.554 158.285 159.862 147.601 165.357 152.022 150.322 147.197 135.073 -373.958 148.073 103.425 -412.156 170.936 60.9527 -407.214 160.714 39.0684 -384.992 145.246 26.8396 -350.423 134.159 24.4328 -325.747 175.166 73.239 12.9826 9.19144 4.80642 
163.076 161.871 158.45 155.12 143.95 162.494 155.002 151.923 142.926 132.989 -364.579 146.528 98.7392 -404.2 169.91 53.9267 -397.916 160.814 32.1824 -373.511 144.769 22.0895 -338.607 135.266 17.931 -318.364 175.686 70.06 13.3057 10.9807 4.63815 
163.05 161.459 158.23 154.639 145.697 160.7 158.069 151.583 144.059 132.025 -358.419 145.817 95.5562 -396.997 167.317 47.9926 -388.505 157.765 27.1482 -363.066 142.298 16.4088 -326.771 133.49 14.7123 -312.354 175.257 68.5733 14.9725 11.697 5.57742 
158.353 162.149 159.07 156.476 150.641 156.912 160.602 152.005 145.99 135.067 -348.995 144.591 90.7864 -387.959 165.127 42.059 -378.153 154.651 22.5135 -352.254 139.915 11.4386 -316.263 132.291 10.8694 -304.611 174.065 66.8749 14.3755 11.813 6.66957 
154.966 164.473 159.785 156.122 151.993 155.135 162.227 154.299 144.701 134.818 -340.186 142.772 87.2427 -379.369 163.336 37.5632 -369.469 152.945 17.2346 -343.117 138.379 7.25836 -307.949 131.678 6.57765 -296.561 171.987 64.014 13.2214 11.8552 6.77418 
151.935 165.699 161.316 152.789 153.383 153.566 162.978 156.171 144.8 136.112 -331.557 141.172 83.3742 -370.278 160.97 32.9995 -360.352 150.888 12.094 -333.622 136.996 2.88773 -299.483 131.168 2.22946 -288.348 170.016 61.0674 11.7991 11.4891 6.50843 
145.806 167.103 162.462 152.518 157.502 150.175 163.708 157.193 148.746 141.484 -313.536 139.202 75.0101 -350.705 156.775 24.1454 -341.279 146.933 2.89131 -315.718 135.477 -6.36704 -283.502 130.959 -6.91012 -270.673 165.935 55.0005 8.74714 9.08459 5.95418 
145.886 166.127 163.559 158.862 163.874 149.295 163.032 158.035 152.254 147.981 -304.442 137.975 70.626 -339.718 153.908 18.9727 -330.068 143.98 -2.29265 -305.303 133.608 -11.3393 -274.068 129.719 -11.3678 -260.645 164.159 52.1792 7.10235 7.42098 5.19005 
147.9 166.361 166.659 164.181 167.493 147.283 162.806 160.329 157.538 154.494 -290.13 139.15 60.2991 -321.01 150.239 6.51274 -312.661 140.869 -13.3099 -289.043 132.732 -21.9808 -259.176 130.394 -20.9932 -244.299 161.32 45.2354 4.79105 5.00039 3.55153 
151.279 167.59 167.438 166.114 168.409 149.928 161.843 160.911 159.373 156.892 -284.635 141.14 57.7099 -309.256 147.03 0.258514 -300.637 138.266 -19.0022 -277.046 130.774 -26.9547 -247.758 129.169 -24.7055 -234.915 160.175 42.3149 4.4129 4.39539 2.39835 
153.399 168.982 168.357 167.817 169.319 150.964 162.062 161.998 161.581 159.475 -278.714 143.131 54.1328 -298.823 145.194 -5.39656 -290.202 137.429 -24.2736 -266.681 130.826 -31.815 -237.624 130.015 -28.7267 -226.324 159.796 39.4988 4.61289 3.84565 1.29464 
154.288 167.76 167.947 167.86 168.252 150.38 160.243 161.386 161.152 158.986 -270.047 143.882 49.3196 -286.604 142.178 -10.9379 -277.811 135.291 -29.7248 -254.182 129.467 -36.6252 -225.222 129.749 -32.7732 -216.201 158.579 36.1804 5.03149 3.56972 0.773146 
