159.364 162.659 155.751 154.967 139.168 155.469 131.354 143.246 139.391 120.644 291.302 172.985 -40.365 294.669 166.657 -66.7214 316.739 163.429 -76.0644 333.833 158.647 -62.2783 340.807 156.6 -32.6742 308.287 189.416 3.53981 8.08963 1.12707 8.61724 
164.236 159.744 155.244 154.622 141.553 156.077 130.029 142.143 138.567 121.851 288.943 173.897 -40.9646 293.856 166.506 -65.6757 316.006 163.604 -75.7453 333.559 159.137 -62.1281 341.1 156.884 -33.2957 307.861 189.568 3.6441 7.00294 1.62063 9.56091 
169.323 157.62 154.394 153.916 142.725 156.377 128.146 140.64 137.368 121.702 286.754 175.187 -41.7293 293.31 166.549 -64.9004 315.728 163.765 -75.2457 333.534 159.447 -61.627 341.166 157.104 -33.1922 307.57 189.788 3.71981 6.55919 1.99391 10.1697 
173.569 156.192 153.867 153.134 143.361 156.567 127.313 140.385 137.13 122.329 284.052 176.034 -42.0634 292.739 166.334 -64.0705 315.44 164.27 -75.2165 333.652 160.186 -61.5541 341.496 157.448 -33.3121 307.017 189.918 3.84386 6.1273 2.46527 11.3569 
174.154 158.221 152.418 153.839 143.811 153.324 128.425 134.703 134.053 120.531 282.763 180.6 -43.5932 290.314 169.588 -65.6339 311.289 164.908 -72.1176 330.539 161.699 -59.225 338.884 160.128 -32.684 303.99 192.429 3.94974 3.61019 4.4345 7.56957 
175.886 159.156 152.721 155.619 143.537 152.587 128.331 135.208 135.748 120.355 281.12 180.197 -42.6287 288.363 168.467 -64.0292 309.487 164.97 -72.0046 329.524 161.832 -59.6556 337.175 159.992 -32.1433 302.616 192.698 4.2797 4.58688 5.10945 9.46271 
174.802 156.951 151.438 154.576 142.462 151.354 127.105 135.091 135.334 119.591 280.355 180.415 -42.6865 287.457 168.517 -63.7274 309.018 165.353 -72.1423 328.855 162.488 -59.6104 335.903 160.452 -31.9357 301.137 192.981 4.0611 5.04515 5.1679 10.1741 
174.372 157.09 151.323 153.95 142.184 150.938 125.86 135.205 135.281 119.549 278.161 180.09 -42.7921 286.133 168.574 -63.6256 308.028 165.611 -72.3251 327.647 162.839 -59.5034 334.499 160.726 -31.7917 299.402 193.268 3.90024 5.12696 5.05478 10.5949 
172.595 155.769 151.245 153.228 144.199 150.77 124.149 135.263 135.197 122.222 275.074 181.306 -43.7561 284.365 170.287 -64.0501 306.134 166.84 -72.9196 325.719 164.395 -59.6378 333.342 162.806 -33.028 295.529 194.204 3.45173 2.70636 5.43733 10.4278 
172.458 156.45 151.195 152.114 145.314 150.548 125.625 135.622 135.18 124.807 272.591 181.797 -43.8368 282.822 171.537 -65.6548 304.352 167.282 -73.2281 323.899 164.723 -59.5658 332.095 163.609 -33.6055 292.935 194.542 3.22764 1.73972 5.39176 8.90796 
170.262 153.063 150.007 150.945 147.922 150.111 125.281 134.081 133.731 125.132 269.019 182.505 -44.6209 282.183 172.932 -66.7315 302.554 167.529 -73.0099 321.811 164.799 -58.9937 330.849 164.658 -33.5391 290.512 195.094 2.9944 1.72608 5.13231 6.93257 
169.702 152.369 149.862 150.265 147.152 149.453 124.815 134.069 133.879 127.224 265.51 181.475 -44.2996 279.887 173.675 -67.4335 300.153 167.896 -73.3049 319.711 165.422 -59.1927 329.713 165.753 -34.1263 287.723 195.594 2.69769 2.5161 5.39988 6.22522 
167.33 153.991 149.795 149.542 152.757 148.207 128.123 134.551 134.337 131.347 262.853 180.403 -44.0889 278.931 175.82 -70.4185 298.531 168.429 -73.9021 318.132 166.382 -59.4585 328.897 167.384 -35.0375 284.32 196.055 2.27209 4.1483 5.5996 3.09245 
166.639 153.064 149.886 149.891 154.756 148.26 129.493 135.152 136.255 134.876 259.03 179.224 -44.1197 275.666 176.356 -71.5991 295.656 168.936 -74.6215 316.338 167.833 -60.4796 327.487 168.782 -35.9826 280.799 196.691 1.74425 4.80587 6.85527 2.75266 
166.423 152.855 150.747 150.701 152.318 148.665 131.309 136.543 138.352 136.566 254.242 178.208 -44.6635 273.211 177.982 -73.8373 293.528 170.114 -75.9024 314.805 169.593 -61.433 325.795 170.496 -36.3119 276.587 197.223 1.19037 5.28348 7.54129 1.56811 
166.714 152.49 151.992 151.489 153.074 150.775 132.474 137.481 139.986 139.065 248.47 178.907 -46.4352 269.875 179.017 -75.5744 290.503 171.131 -77.2809 312.334 171.244 -62.6062 323.049 171.964 -37.1944 272.283 198.064 0.257633 5.43994 8.31109 1.47692 
166.363 151.312 153.645 153.739 153.268 153.452 134.084 140.097 144.153 143.333 240.971 178.663 -48.4843 265.857 179.03 -77.2278 287.591 172.109 -79.3182 310.655 173.832 -64.3313 321.249 174.153 -37.7657 266.926 198.444 -0.787426 6.03185 9.86771 2.4451 
165.849 153.156 155.45 155.381 155.711 155.778 138.232 142.765 146.697 145.604 232.992 178.109 -50.2053 262.413 180.803 -80.8214 284.514 173.614 -81.6211 307.454 175.699 -65.6544 317.687 175.893 -38.4114 260.826 198.8 -1.9524 6.33534 9.84623 1.81208 
166.117 155.26 155.726 156.023 154.541 158.077 141.853 144.034 147.638 144.946 224.595 178.173 -52.7872 258.256 182.908 -85.3038 280.576 174.79 -84.262 302.914 176.796 -67.7056 312.524 176.859 -39.9621 254.621 199.243 -4.10709 6.18013 9.4021 2.4828 
166.971 156.875 156.23 157.034 155.304 160.414 144.645 145.141 148.06 144.005 215.833 178.128 -55.5799 252.628 185.087 -89.368 275.235 175.999 -86.9164 296.704 177.584 -69.841 305.496 177.433 -41.923 247.498 199.711 -6.42081 5.63465 8.70599 3.76971 
168.564 158.32 156.596 158.049 155.789 162.696 146.664 145.862 148.14 141.744 205.765 178.5 -58.771 245.3 186.94 -93.4206 268.321 177.071 -89.9858 289.002 177.967 -72.5663 296.702 177.359 -44.5082 239.606 200.263 -9.14485 4.38011 7.85129 4.95083 
170.196 159.752 157.097 158.709 155.999 164.601 147.693 146.164 148.668 142.351 195.116 178.988 -61.4676 235.653 187.92 -96.9662 259.573 177.463 -92.6919 280.366 178.494 -75.0603 288.555 178.116 -46.7159 230.718 200.727 -11.6746 5.0331 7.93782 6.20396 
170.189 161.093 157.923 159.533 157.54 165.278 150.148 148.389 150.052 142.763 183.698 178.368 -64.4348 226.265 189.823 -101.346 251.097 179.3 -96.5002 271.183 179.412 -78.1143 278.806 178.716 -49.3138 220.351 200.735 -14.6957 4.6813 7.08057 7.12885 
170.142 162.828 159.587 160.353 159.076 165.696 152.355 150.613 151.224 144.242 171.28 177.973 -67.1787 215.182 191.185 -105.217 241.215 180.821 -99.96 260.44 180.27 -80.8793 268.254 179.875 -51.6505 208.578 200.656 -17.3988 5.10711 6.17143 8.08881 
169.815 164.421 160.889 161.108 160.404 165.899 153.868 152.343 152.568 146.586 157.998 176.962 -70.3726 202.818 192.069 -109.273 229.989 182.38 -103.747 248.834 181.565 -84.1386 257.138 181.564 -54.4518 195.795 200.543 -20.5108 5.94637 5.81275 8.69984 
170.638 166.661 162.913 162.413 164.583 166.428 155.991 154.356 153.56 150.22 143.906 175.793 -74.4689 190.24 193.196 -113.94 218.073 184.41 -108.422 236.324 182.766 -88.0667 244.922 183.138 -58.3084 182.202 200.532 -24.2328 6.36778 5.35573 8.78171 
171.042 167.521 163.841 162.857 167.297 166.257 156.415 154.909 153.752 153.245 129.918 174.785 -78.8576 176.498 194.252 -118.305 204.91 186.609 -112.721 222.77 184.618 -91.8938 231.464 185.44 -62.2886 167.627 201.08 -28.092 6.59552 5.17507 8.75095 
170.226 168.362 162.474 161.844 166.275 164.759 154.72 151.34 151.414 151.478 115.847 175.183 -83.0799 159.22 194.45 -122.132 186.984 185.681 -116.047 205.227 184.269 -96.2322 215.076 186.528 -66.9984 151.916 202.235 -32.1157 7.79869 5.09979 9.01871 
170.019 169.359 160.937 161.961 165.21 163.538 153.347 147.718 149.924 150.182 100.156 176.313 -88.0594 139.662 193.499 -125.727 166.042 184.415 -119.939 185.503 183.83 -101.468 196.272 186.663 -72.8257 134.366 202.769 -36.6551 8.57885 5.86945 8.1029 
170.262 172.44 166.914 168.978 167.248 162.924 147.891 149.55 151.189 147.175 66.0464 180.602 -95.8895 98.8858 192.9 -130.375 123.065 186.636 -128.848 143.637 183.769 -111.253 155.402 185.171 -83.2478 101.528 204.351 -42.4338 7.70543 6.19623 4.42769 
171.999 169.542 166.147 165.659 165.19 163.564 152.555 151.655 150.847 147.931 41.1802 183.357 -99.2008 71.6292 193.416 -132.884 93.9856 185.778 -131.719 113.754 181.818 -115.28 126.496 183.033 -89.5169 77.6343 203.894 -45.3884 6.97523 4.80759 3.42643 
172.1 168.51 166.582 165.361 164.969 163.156 153.141 154.586 153.095 149.495 16.2222 188 -101.035 44.6192 193.946 -134.996 66.9142 188.59 -136.439 86.3888 183.7 -121.08 99.4802 183.691 -96.0528 52.5941 203.308 -48.2309 5.79551 3.7064 2.38635 
173.956 168.606 169.476 167.316 166.992 163.813 153.849 159.32 157.507 153.549 -12.0073 192.309 -100.696 16.765 196.176 -135.877 39.6873 194.712 -140.918 59.4602 188.892 -126.798 73.6592 186.564 -102.035 26.9019 203.284 -49.7307 4.67498 3.07585 3.48099 
174.68 168.513 170.657 169.106 168.379 163.901 155.737 164.057 162.35 157.756 -40.4009 195.905 -98.2616 -12.3602 200.532 -136.356 10.7357 202.638 -144.601 31.5274 196.12 -131.86 47.5022 190.921 -107.304 1.24 204.117 -50.1909 4.29604 3.10153 5.14605 
174.549 167.765 170.311 169.069 168.446 163.075 158.128 166.095 164.643 160.048 -68.2136 198.782 -95.1244 -43.3114 204.845 -136.409 -20.4469 207.924 -146.759 1.54542 201.274 -135.582 19.7832 194.765 -111.874 -24.3794 205.403 -50.3865 4.8231 3.27495 5.20053 
173.173 167.978 169.676 169.171 168.722 160.999 161.269 166.775 165.714 161.333 -95.8071 198.951 -90.569 -76.4331 209.699 -135.129 -54.2712 211.722 -146.629 -31.0055 204.458 -137.561 -10.0556 196.804 -115.326 -50.2113 206.389 -49.2606 5.59432 3.60682 3.98716 
168.649 167.094 168.921 168.766 168.755 157.948 161.215 166.061 165.143 161.426 -123.783 198.685 -84.2388 -111.348 211.837 -130.916 -90.5129 213.103 -143.818 -65.7411 205.256 -137.184 -41.78 197.1 -117.029 -76.3587 207.321 -47.1401 6.67266 4.26071 3.54612 
166.98 165.917 168.547 168.34 168.173 158.643 161.706 165.638 164.835 161.24 -155.028 198.755 -77.4607 -146.225 212.667 -126.049 -126.722 213.444 -140.053 -101.128 205.633 -135.72 -74.9951 197.266 -117.842 -102.813 207.895 -45.2008 7.00416 4.5043 3.1258 
168.446 167.186 169.44 169.381 168.228 159.339 162.831 166.122 165.938 161.395 -185.359 199.143 -68.5501 -178.042 212.826 -119.845 -160.447 213.68 -134.613 -135.107 207.222 -132.214 -107.591 198.579 -115.94 -128.148 208.317 -41.951 6.7111 3.999 2.73905 
167.67 166.292 168.977 168.938 167.708 158.898 161.067 164.687 165.014 160.609 -213.789 199.656 -57.7827 -208.115 211.783 -111.176 -192.64 212.601 -126.498 -167.901 206.963 -125.757 -139.451 199 -111.19 -152.922 208.94 -36.9686 6.23511 3.56035 2.6566 
165.758 164.859 167.202 167.423 166.551 157.825 159.013 161.384 161.688 158.208 -240.343 202.211 -47.2473 -235.808 211.301 -102.122 -221.486 210.285 -117.105 -197.812 204.809 -117.254 -169.591 198.834 -104.318 -177.663 209.962 -30.8756 5.48328 2.78142 1.49009 
164.023 163.17 165.755 165.911 165.287 156.312 155.676 157.956 158.297 155.536 -265.669 205.341 -37.1842 -262.776 211.159 -92.0786 -249.774 209.595 -107.008 -227.047 204.201 -107.804 -199.195 199.783 -96.2553 -202.546 212.18 -24.2223 4.90489 2.03686 1.56082 
162.45 164.206 167.013 167.201 166.102 154.708 155.004 158.09 158.874 156.545 -288.351 207.705 -25.7502 -288.552 210.837 -81.556 -276.846 209.784 -97.1528 -254.459 205.366 -98.9703 -226.277 201.996 -88.4784 -225.591 213.756 -16.4378 4.94152 2.04026 2.14186 
161.085 164.572 166.817 167.008 165.938 153.058 154.098 156.724 157.508 155.512 -308.181 209.418 -15.1932 -310.595 209.084 -71.2129 -299.681 207.897 -86.8781 -277.643 204.247 -89.4519 -249.63 202.487 -79.9959 -246.323 214.794 -8.53304 5.18228 2.02278 2.29138 
160.021 165.516 166.437 166.509 165.259 152.008 154.342 155.533 156.244 154.328 -326.487 209.379 -4.98639 -331.598 209.177 -61.4182 -321.729 207.39 -76.8057 -300.016 204.045 -80.1588 -272.173 203.498 -71.7995 -265.805 215.355 -0.731989 5.13389 1.59923 2.26857 
157.197 166.218 167.32 167.687 166.353 148.966 155.182 155.345 155.153 153.495 -350.825 205.516 13.0708 -363.691 204.949 -39.7668 -355.986 201.837 -54.8366 -334.666 199.163 -59.8191 -307.27 200.771 -53.6835 -292.488 212.738 13.9514 5.79996 1.4782 3.02067 
158.283 163.921 164.581 164.953 163.424 149.814 154.239 151.946 151.397 149.42 -365.638 204.861 22.7902 -380.534 206.793 -28.3988 -372.061 201.035 -43.3394 -349.892 197.309 -49.4204 -323.107 198.854 -44.4828 -309.331 213.84 22.912 4.90167 1.74087 3.88473 
154.892 163.085 163.996 164.673 164.538 147.433 153.977 151.463 150.997 148.955 -375.521 203.593 30.2214 -392.811 205.741 -18.9808 -384.987 199.805 -34.704 -363.074 195.964 -41.3339 -337.284 197.378 -36.9887 -323.547 213.777 30.279 4.49573 1.75768 3.93343 
152.99 164.412 165.768 165.737 166.378 147.202 153.743 153.298 152.395 149.639 -380.879 199.797 37.2554 -400.709 201.793 -9.72697 -393.585 197.659 -27.0852 -371.557 192.781 -34.3391 -346.183 193.355 -30.5117 -332.218 211.643 36.8784 3.69492 2.29742 2.72996 
150.949 163.668 164.495 163.666 166.021 145.042 154.302 154.24 151.539 147.42 -387.109 197.776 43.0045 -410.226 200.691 -2.90302 -402.918 197.79 -21.4405 -380.249 190.995 -28.0855 -355.324 190.213 -23.3974 -341.972 211.15 42.9466 2.02699 3.5015 2.42806 
144.432 160.857 159.912 158.664 162.409 140.437 153.535 153.095 148.216 142.406 -393.18 196.07 48.4718 -419.996 201.949 2.91644 -412.508 199.102 -16.0747 -389.233 190.264 -21.8037 -363.936 188.237 -16.6367 -351.656 211.069 48.5998 0.65911 5.18695 2.17729 
141.048 157.616 157.191 155.084 159.247 136.701 151.111 151.064 145.299 137.544 -397.163 193.814 52.9952 -427.978 201.823 8.83976 -419.87 199.021 -10.5954 -395.79 188.593 -16.0113 -369.794 185.303 -10.4856 -359.49 210.538 53.8844 2.17001 6.91542 1.60826 
135.924 155.326 156.077 149.112 153.332 131.194 155.437 154.551 143.301 133.262 -395.479 191.003 55.337 -433.457 201.722 12.2993 -425.347 199.465 -6.66406 -399.109 185.807 -11.9656 -373.242 182.789 -6.02539 -363.037 207.621 57.3163 2.89848 10.605 1.54436 
130.839 152.289 156.757 148.203 151.522 128.369 154.709 153.4 143.053 133.341 -397.465 188.547 58.4214 -440.146 201.038 16.5315 -431.479 198.908 -3.22047 -404.809 184.96 -9.15577 -377.303 181.522 -4.33258 -368.977 206.547 60.6033 3.86605 11.2421 0.640824 
137.733 155.319 158.196 146.972 150.779 125.127 154.983 153.676 140.538 131.101 -398.119 181.689 59.5148 -445.793 200.846 19.6786 -436.846 198.127 0.280895 -409.228 182.226 -4.89171 -379.019 177.892 -1.38693 -373.116 205.295 62.8656 7.32273 13.3847 1.064 
140.007 156.743 154.401 146.388 146.061 130.641 156.161 151.858 139.048 130.813 -407.775 185.091 65.6008 -450.171 199.605 24.7027 -439.751 195.395 4.70659 -410.539 179.309 -2.10817 -379.834 176.04 -0.281327 -374.803 203.031 64.9201 7.87888 14.5819 2.97403 
135.855 153.214 148.894 140.319 137.384 130.882 152.324 149.273 136.433 126.092 -409.735 184.669 68.7392 -452.384 198.192 27.3691 -442.066 193.231 7.63476 -411.807 177.065 -0.0300524 -380.728 173.835 2.37086 -376.228 200.709 65.9394 8.1481 15.4305 3.97724 
158.92 154.068 148.632 137.658 138.972 146.404 151.302 150.947 135.396 129.068 -420.606 183.729 76.1807 -455.251 197.71 29.9256 -444.714 192.716 9.17956 -413.238 174.711 2.55157 -381.878 171.868 2.72731 -377.566 199.734 67.1619 9.0195 17.1147 4.38457 
178.442 151.393 144.008 133.084 140.143 153.155 148.515 149.661 133.396 131.852 -425.543 182.981 83.0057 -456.157 196.909 31.0252 -444.578 190.888 9.63982 -412.797 172.842 3.76358 -381.417 170.644 1.77054 -377.853 197.844 68.0701 10.2146 17.2626 5.99379 
165.689 152.864 143.207 138.604 143.861 158.953 147.813 149.794 136.589 135.226 -426.827 181.008 88.0085 -454.617 194.513 30.8212 -442.183 187.622 9.03347 -411.454 171.126 2.15772 -379.42 168.445 0.725459 -376.161 195.566 68.1778 10.6153 15.4058 6.96171 
156.448 155.68 145.158 142.185 146.368 167.721 148.013 151.263 140.058 138.713 -428.463 179.312 92.2214 -452.775 191.661 29.7561 -439.887 184.895 7.75674 -409.8 169.318 0.467049 -377.168 166.713 -0.455109 -374.532 193.714 67.8743 11.0005 14.1728 6.83989 
152.006 158.525 146.29 145.858 144.703 171.88 145.818 149.967 139.609 136.539 -428.622 176.933 93.414 -450.982 188.366 29.5887 -438.555 181.854 8.37224 -408.78 167.19 0.522903 -376.423 165.247 0.326875 -373.561 192.599 67.3576 10.2695 13.5174 5.94479 
148.541 158.484 145.32 144.316 141.194 174.165 141.663 145.021 136.255 131.736 -428.921 175.314 93.2157 -449.697 184.889 29.4911 -437.319 178.543 9.77014 -408.053 165.103 1.56898 -376.305 163.667 2.15179 -373.731 192.375 66.8291 9.26445 12.7883 5.01313 
145.623 158.746 148.413 146.17 143.369 176.898 141.462 143.137 136.159 130.759 -429.261 173.822 91.9101 -449.211 183.704 27.7182 -436.828 177.121 9.11981 -408.089 164.019 1.05881 -376.118 162.511 2.20138 -374.188 192.461 66.2676 9.24162 12.2068 4.53241 
145.623 155.344 147.581 145.522 141.486 173.913 141.02 141.307 137.031 129.861 -427.221 175.274 85.7393 -449.628 183.871 26.3706 -436.976 176.839 7.67982 -409.1 164.715 -0.802917 -377.851 163.287 1.64565 -375.27 193.24 65.7022 7.85321 10.9998 4.70749 
145.623 154.184 147.875 144.433 139.454 170.05 142.19 142.157 138.572 129.112 -421.977 173.613 80.9543 -448.374 183.636 25.3067 -435.702 175.803 6.53304 -408.919 164.777 -1.66112 -377.642 163.01 1.66167 -374.176 193.157 65.2115 7.29525 9.4545 5.0674 
145.623 153.027 146.82 143.024 137.316 164.527 142.295 141.78 138.081 128.858 -417.614 173.203 75.7745 -447.192 184.382 24.405 -434.529 175.916 5.81185 -408.593 165.179 -1.92271 -377.492 163.298 0.975384 -372.828 193.053 64.2621 7.04646 8.5063 5.29674 
145.623 152.554 146.866 142.069 135.555 159.527 142.475 142.213 138.513 129.471 -412.597 172.484 71.2907 -445.26 184.509 23.1201 -432.889 175.432 4.62502 -407.61 165.033 -2.73295 -376.654 163.161 -0.0402614 -370.81 192.546 63.2142 6.77485 7.59954 5.33633 
145.623 153.51 149.156 142.619 139.229 152.014 144.261 144.489 138.195 131.779 -406.767 171.072 66.8871 -443.776 184.846 21.5978 -432.101 175.581 3.07142 -405.941 164.009 -3.69965 -374.671 162.675 -2.76334 -368.71 191.949 62.002 7.89884 8.77193 5.41516 
145.623 152.798 145.44 143.161 144.724 150.42 142.729 146.91 138.872 137.891 -403.585 170.108 65.5791 -440.148 183.612 20.542 -429.5 176.539 1.41443 -402.305 163.8 -5.45059 -370.805 163.161 -7.18459 -365.945 192.357 60.7792 10.3072 9.90254 2.86893 
154.522 152.247 144.172 143.941 146.484 149.969 142.18 148.953 138.722 139.393 -403.139 170.088 64.3303 -438.782 181.823 19.5287 -428.576 176.382 0.140662 -399.401 162.403 -7.11201 -368.119 162.651 -9.66282 -365.145 192.229 59.3682 11.1769 12.0559 1.64042 
154.832 154.779 148.321 148.853 151.536 138.235 142.115 148.289 141.362 140.641 -397.292 167.202 58.9883 -438.542 182.477 18.3552 -428.742 177.833 -0.906533 -399.992 164.417 -9.73449 -368.585 163.409 -10.84 -365.4 193.387 58.1761 10.2421 11.4838 1.17272 
147.884 156.318 152.055 151.716 153.785 136.513 141.682 147.979 142.258 139.95 -396.832 167.191 56.5748 -438.53 182.836 17.5012 -429.458 179.59 -2.31506 -401.396 166.115 -11.125 -370.034 163.672 -11.0403 -365.544 194.257 56.9058 9.1956 10.8226 2.47439 
142.199 157.507 153.919 151.82 153.475 134.449 143.816 146.567 143.124 140.942 -393.77 167.255 54.5091 -436.201 182.932 14.7283 -426.959 178.582 -3.31262 -398.992 165.137 -12.2835 -366.929 162.485 -11.7393 -364.085 194.343 56.0734 9.98597 10.6746 1.49769 
140.994 155.938 154.906 150.684 152.162 134.626 142.72 145.229 142.137 139.429 -394.488 168.435 53.6903 -435 183.769 13.6664 -425.833 179.396 -4.52158 -398.075 165.844 -13.3036 -366.461 162.407 -12.0403 -363.263 194.499 55.1843 9.37873 10.4388 1.80395 
140.363 155.299 156.693 149.474 151.356 133.91 142.804 145.659 142.463 138.969 -394.282 169.278 52.8143 -434.204 184.358 12.5291 -425.005 180.477 -6.25367 -397.544 167.197 -14.5567 -366.257 163.027 -12.588 -362.736 194.557 54.4292 8.85953 9.89371 2.49641 
140.423 156.419 158.635 150.678 152.356 133.475 142.703 145.758 143.638 139.755 -393.488 169.322 51.7573 -433.251 184.121 11.7052 -424.245 180.903 -7.30318 -397.218 167.991 -15.5697 -365.868 163.102 -13.1973 -362.055 194.578 53.721 8.80488 9.29795 3.47327 
140.918 158.241 160.342 152.348 153.198 133.333 143.657 147.169 145.135 140.393 -392.25 169.114 50.5891 -432.188 183.135 10.9946 -423.439 181.067 -8.78474 -396.911 168.601 -16.638 -365.71 163.249 -13.6529 -361.255 194.49 53.1969 8.35497 8.50607 4.94765 
134.446 160.262 165.828 156.875 155.297 129.545 152.862 154.296 153.507 147.048 -385.974 170.262 53.0734 -430.41 184.61 8.46675 -420.471 178.922 -8.83078 -396.698 167.56 -15.8331 -362.841 162.366 -13.1025 -359.969 195.994 54.4286 10.9583 6.02605 1.61214 
133.551 160.169 169.163 157.717 154.444 130.452 152.715 157.584 153.082 146.291 -386.181 171.026 54.0979 -430.496 185.44 9.16534 -421.201 180.6 -9.35426 -396.63 167.812 -15.2934 -362.84 162.647 -12.4771 -359.528 196.255 54.6631 10.7273 7.10432 2.35756 
135.165 161.815 169.481 160.1 153.507 132.967 153.604 160.823 153.248 144.796 -385.464 170.944 55.3402 -429.382 187.01 9.00238 -419.918 182.225 -10.5127 -394.512 167.527 -15.1511 -360.605 162.028 -11.4326 -357.394 196.716 54.5891 10.4371 8.71737 2.26695 
136.222 161.413 169.662 160.263 153.339 133.263 153.36 162.22 153.708 145.333 -382.957 170.413 55.695 -428.21 188.582 9.78101 -418.967 184.561 -10.8973 -393.12 169.193 -15.5134 -359.522 163.178 -11.6782 -355.224 197.686 54.447 10.0095 9.29362 3.13094 
139.027 162.887 172.958 159.315 153.015 133.425 153.466 161.707 152.885 145.743 -378.506 167.872 55.2356 -425.867 190.501 9.89571 -416.79 185.911 -10.844 -390.933 170.043 -14.751 -357.467 163.573 -11.5598 -351.975 198.644 53.8259 10.0718 9.44873 2.92791 
139.933 162.457 170.993 160.331 154.695 130.957 153.101 160.453 153.493 144.54 -373.402 166.737 52.4163 -425.461 192.131 10.5479 -416.19 187.614 -11.1886 -390.453 171.464 -15.3919 -357.501 164.337 -11.4521 -350.721 199.515 53.2427 9.27778 9.63533 3.41324 
139.787 161.509 165.054 160.218 155.639 126.174 154.537 161.835 154.936 143.074 -365.463 166.572 49.565 -424.265 194.065 10.8035 -415.863 189.922 -11.177 -389.436 173.212 -16.1625 -355.939 164.535 -12.0973 -349.239 200.165 53.194 10.4438 10.5054 2.83636 
146.808 161.911 165.283 160.737 156.876 121.947 153.775 160.77 155.046 142.131 -355.963 165.546 44.6347 -422.53 195.758 10.8417 -413.905 190.436 -11.4722 -388.147 173.823 -16.4116 -354.727 165.078 -12.4485 -347.167 200.995 52.4929 10.2749 10.1113 2.67888 
149.677 161.977 164.602 161.933 159.306 125.243 153.127 158.277 154.897 142.593 -351.834 164.967 43.175 -418.691 198.94 11.5651 -409.292 191.848 -11.6751 -384.557 175.741 -16.8774 -351.614 166.468 -12.8314 -342.289 202.873 51.7939 9.85457 9.16152 3.79855 
150.131 159.461 164.659 163.051 161.032 128 152.216 156.425 153.113 142.255 -349.987 164.405 41.5113 -416.411 201.014 11.7288 -406.428 192.059 -11.7091 -381.891 175.88 -17.3261 -349.577 167.551 -13.7761 -339.317 203.197 50.6849 8.95105 9.46289 5.02877 
152.32 160.536 163.349 162.417 160.358 130.853 152.348 156.069 152.712 141.415 -349.165 164.768 41.14 -413.948 201.815 12.4333 -403.951 193.202 -11.6164 -379.084 176.736 -17.594 -346.738 167.899 -13.8106 -336.202 204.122 50.6884 9.30548 9.7785 5.24011 
153.159 159.19 162.37 162.301 160.074 132.695 151.418 155.53 152.411 140.544 -348.399 165.433 41.287 -411.222 203.347 12.9563 -401.349 194.42 -11.5909 -376.991 178.057 -17.4296 -344.392 168.271 -13.8246 -333.121 205.023 50.2715 9.93241 9.32881 5.6086 
