171.667 168.054 159.874 151.577 154.929 158.294 163.521 155.983 148.016 139.928 38.1388 197.657 6.39187 113.306 203.422 -3.43862 131.346 184.563 7.72759 130.451 171.98 25.6546 125.037 168.581 52.6526 60.9569 200.221 68.4921 2.40091 6.0802 9.50652 
171.948 169.171 160.162 150.71 154.946 158.563 164.294 156.813 147.607 139.962 34.9022 197.31 3.85376 110.718 203.977 -4.98014 128.739 184.928 6.44992 127.291 171.711 24.3328 121.925 168.167 51.2365 57.5629 199.865 66.4446 2.62024 6.54902 9.65491 
172.207 169.473 159.636 150.322 155.499 159.043 165.005 157.827 147.665 140.291 30.6825 196.974 1.1638 107.119 203.621 -6.69408 125.075 184.735 4.91137 123.296 171.158 22.8669 118.033 167.673 49.7453 53.4226 199.5 64.323 2.87134 6.82655 9.52959 
172.531 168.599 159.509 149.934 156.339 159.291 165.221 158.466 147.821 141.082 25.768 195.529 -1.69471 101.989 202.267 -9.12927 120.216 183.993 2.66727 118.297 170.202 20.8281 113.185 166.835 47.6552 48.3055 198.726 61.8195 2.99376 7.01972 9.10657 
172.806 168.847 159.389 149.386 157.01 159.475 165.705 158.539 147.673 141.621 20.1337 193.824 -4.9406 96.1239 201.248 -12.1935 114.225 183.109 -0.205469 112.265 169.151 18.0803 107.428 165.96 44.872 42.362 197.733 58.8336 3.21083 7.17875 9.11433 
173.041 168.794 159.805 149.599 157.76 159.574 166.299 158.64 147.513 142.376 13.173 191.592 -8.18385 88.7723 199.796 -15.6788 106.868 181.87 -3.55031 105.006 167.762 15.0028 100.59 165.005 41.7884 35.3033 196.547 55.6909 3.47921 7.38956 9.15242 
173.204 168.276 160.755 150.155 158.374 159.784 167.426 158.96 147.654 143.563 4.76861 189.189 -11.5457 79.9656 198.033 -19.7674 98.1652 180.308 -7.70602 96.565 166.009 11.1692 92.6369 163.735 37.8825 27.1641 194.93 52.2519 3.67655 7.61562 9.20159 
173.33 166.918 162.208 151.847 159.148 160.099 167.731 158.812 148.264 145.211 -4.66693 187.515 -14.9414 69.8759 195.283 -24.2898 87.8721 177.732 -12.5782 86.8636 163.661 6.63827 83.4879 162.057 33.3795 18.171 193.493 48.6431 3.82306 7.52633 9.15246 
172.913 166.502 161.079 151.639 159.17 160.182 167.157 156.994 146.415 145.001 -14.3811 186.948 -17.9365 58.3328 191.657 -28.7907 75.5902 173.448 -16.9389 74.4555 159.899 2.2856 72.2493 160.106 28.7698 8.13845 192.471 45.1976 4.53145 7.91236 9.90458 
173.809 164.802 160.221 154.584 160.497 160.705 166.497 156.586 147.879 145.766 -26.3682 186.384 -21.0098 44.9545 186.701 -32.9865 61.7987 168.333 -21.514 61.8561 155.795 -2.11815 59.7518 156.235 24.4974 -3.26472 190.398 41.9637 3.74912 7.15801 10.0495 
174.46 165.56 160.173 157.546 162.068 161.288 165.654 157.531 149.913 146.859 -41.3916 187.25 -23.9627 30.0094 181.622 -37.2583 47.0924 163.791 -26.2765 48.5424 152.713 -6.82044 46.7764 153.732 19.8896 -15.8792 188.314 38.6902 3.30002 6.22173 9.77302 
173.641 169.459 164.929 162.406 163.212 160.337 167.536 160.702 154.47 149.847 -56.9945 187.499 -26.855 14.9219 180.344 -43.3407 32.5246 162.583 -33.2543 35.9016 152.87 -13.6632 34.085 153.386 13.8175 -29.4342 186.993 34.6033 2.50412 4.86096 9.83131 
172.658 169.813 168.14 165.133 164.518 160.193 168.823 162.716 156.903 151.051 -74.891 186.518 -28.5619 -2.17627 179.758 -48.3822 16.3027 161.079 -38.9261 21.2978 152.075 -19.074 19.6892 152.401 8.81764 -44.0859 185.394 31.4617 1.73754 4.32316 10.8746 
169.271 158.859 165.767 166.939 168.345 157.846 159.437 153.142 151.179 145.786 -108.505 185.646 -33.3165 -32.3557 180.846 -57.9348 -17.8403 157.681 -50.1297 -11.2843 149.467 -30.6045 -11.3453 147.673 -2.1221 -67.8887 182.712 24.5581 0.40621 3.3022 14.8247 
166.854 166.119 169.443 166.956 168.839 158.066 162.936 158.19 155.185 150.702 -137.547 183.252 -27.3954 -65.366 182.975 -60.7807 -44.6522 160.54 -54.2935 -36.2211 150.346 -34.457 -34.7765 147.456 -5.34575 -93.6128 182.322 25.0223 2.77605 5.3999 14.451 
166.712 170.742 168.319 165.034 169.354 157.664 165.063 163.151 159.313 156.601 -163.165 182.912 -22.6306 -97.5111 186.906 -66.0538 -73.1425 167.685 -63.2047 -60.4657 155.439 -43.8611 -55.3925 150.727 -14.0708 -114.321 183.128 23.7641 3.88137 6.39556 12.2854 
168.074 173.305 171.174 167.769 170.05 157.494 167.955 167.848 163.59 161.373 -187.068 183.617 -16.1964 -128.365 189.456 -67.7285 -102.232 172.711 -68.8656 -86.4752 159.16 -50.9912 -77.6038 153.262 -20.9226 -134.788 183.383 24.6126 4.72634 6.90604 10.4242 
167.341 174.368 173.465 171.175 171.529 156.243 170.265 170.982 167.832 165.93 -210.18 182.228 -7.37932 -158.246 190.195 -65.5557 -131.577 176.053 -69.814 -113.647 163.204 -54.021 -101.092 156.011 -23.884 -156.681 184.431 28.2919 6.05312 6.04538 8.27078 
166.138 174.019 173.479 171.896 171.631 153.881 169.846 171.722 169.237 167.873 -229.011 180.599 0.144062 -186.408 188.811 -62.9715 -160.396 177.373 -70.4563 -139.909 165.272 -56.8292 -123.313 158.046 -27.8754 -174.594 183.619 30.5314 6.58134 5.63908 6.50109 
164.758 174.299 173.453 172.204 171.981 151.915 170.311 172.256 169.931 169.184 -246.114 179.666 6.78782 -212.373 186.82 -59.1745 -187.699 177.494 -69.1467 -166.041 166.511 -57.9874 -146.002 159.795 -31.1877 -191.301 182.85 32.818 6.60224 4.88056 5.14119 
162.157 173.809 172.297 171.836 171.346 149.661 169.501 171.563 170.041 169.063 -263.078 178.921 14.9059 -238.17 185.266 -52.5369 -215.3 177.874 -64.6271 -192.861 168.396 -56.3052 -170.142 161.788 -32.2176 -207.914 182.744 36.2563 6.35335 3.87428 3.89727 
160.804 173.232 170.426 169.874 169.689 146.595 167.678 169.053 168.588 168.248 -277.88 177.025 23.4018 -263.53 183.089 -44.2826 -243.363 177.112 -57.8084 -220.101 170.235 -52.4223 -194.682 165.322 -32.356 -224.355 182.257 39.8001 6.21244 2.87069 2.60731 
148.511 172.201 169.723 167.961 166.203 138.229 167.01 167.779 168.085 166.898 -304.21 172.438 43.5875 -306.031 180.291 -24.795 -292.332 176.002 -40.7687 -270.298 172.538 -40.2192 -243.415 171.457 -27.2253 -252.869 180.031 47.4967 5.6518 0.948908 1.84825 
145.042 172.517 172.037 169.097 166.574 136.914 168.607 169.746 169.751 167.732 -316.941 170.447 55.3196 -324.875 181.079 -13.3005 -313.685 177.747 -30.6621 -292.331 174.982 -31.9977 -265.52 174.784 -21.7353 -266.173 179.442 52.9299 6.08521 0.764647 2.39724 
141.434 170.969 171.747 167.728 165.305 134.106 168.147 170.468 169.824 167.054 -325.11 167.159 66.9574 -340.327 181.366 0.0144701 -330.997 178.357 -18.6074 -310.013 175.323 -21.5187 -283.002 175.57 -13.6328 -276.941 178.443 60.0589 6.69259 0.429229 2.80495 
138.172 169.465 172.545 168.208 164.863 131.726 168.982 172.442 171.042 166.296 -330.425 163.799 76.2213 -352.481 180.492 11.7804 -344.598 178.008 -7.98226 -323.852 174.292 -12.2685 -296.339 173.839 -6.12192 -285.393 176.685 66.4815 6.25578 0.399276 2.77569 
133.092 161.051 169.748 166.993 161.143 130.146 164.549 166.144 162.498 155.024 -338.023 154.729 89.8152 -374.61 174.026 38.4366 -368.352 172.464 14.9883 -347.634 166.603 6.15987 -318.26 163.447 6.42291 -299.5 175.913 77.0404 4.11324 2.3946 0.362963 
132.711 160 168.851 174.254 164.846 135.04 153.092 161.178 159.433 149.396 -348.218 152.222 100.962 -388.341 167.157 60.739 -385.133 169.251 35.8694 -364.097 162.687 22.7089 -333.354 156.591 18.6181 -310.676 175.666 85.7764 6.40331 4.22536 5.38538 
128.394 157.135 178.988 173.417 171.42 138.758 151.333 164.601 162.506 152.941 -355 152.056 105.485 -395.391 162.509 74.2531 -394.508 168.468 44.7267 -372.446 160.026 30.8528 -340.176 152.71 24.2719 -318.696 176.008 91.5688 9.89762 6.15519 12.2947 
129.277 150.282 176.814 175.229 174.963 146.239 150.596 166.032 169.784 153.705 -361.961 153.696 110.582 -398.479 160.863 78.8136 -398.595 167.761 47.2873 -376.311 160.125 32.488 -342.866 151.188 27.4068 -322.506 176.527 93.6733 10.9086 6.15787 15.385 
127.183 159.866 163.639 162.072 159.176 148.845 170.293 163.215 163.946 148.879 -359.401 149.442 107.094 -405.95 162.714 74.4623 -397.672 158.417 48.5202 -373.005 148.018 37.1748 -336.123 140.114 31.1339 -324.272 172.651 97.3909 15.3955 8.18763 6.43883 
124.405 155.487 161.145 160.722 157.108 147.413 166.084 160.809 161.995 147.052 -355.068 147.073 104.841 -404.959 162.551 73.8204 -395.953 157.241 47.511 -370.992 146.703 36.5521 -333.356 137.979 31.9553 -322.934 172.112 97.2192 15.9444 8.21815 7.22652 
131.899 167.684 168.768 163.338 149.376 140.157 154.63 161.316 159.087 148.782 -345.574 144.258 98.0829 -397.918 159.461 67.921 -388.071 155.824 40.6129 -366.86 148.404 30.9571 -328.244 137.504 32.1312 -316.857 172.611 94.7426 14.5321 3.0376 8.72276 
133.863 173.643 171.328 161.683 154.895 138.726 152.349 162.016 160.966 152.136 -343.876 144.702 97.4046 -393.952 157.083 67.8597 -385.622 156.596 39.6162 -364.563 149.729 29.7634 -326.57 139.561 30.3585 -314.554 172.968 93.9157 13.4815 2.80871 10.7096 
135.453 172.997 173.416 160.936 160.024 137.225 151.572 163.24 164.983 154.136 -342.352 145.377 96.5132 -390.792 157.288 66.5956 -383.085 157.669 37.7 -362.125 151.002 28.2968 -324.842 141.203 29.2562 -312.425 173.251 93.0881 12.3812 2.46576 11.5033 
137.158 171.502 174.619 157.873 165.219 136.85 151.534 162.164 168.145 154.884 -340.603 145.609 95.0165 -387.826 157.815 64.7787 -380.289 158.016 36.603 -359.755 151.817 27.1071 -323.317 141.919 28.6131 -309.991 173.605 91.8057 11.2748 2.26053 11.2175 
139.269 168.952 174.402 158.054 165 136.412 153.002 162.014 170.522 155.197 -338.916 146.107 93.5902 -385.493 158.728 62.9381 -378.027 158.88 35.7748 -357.014 152.862 25.5579 -322.158 143.405 27.5255 -307.658 173.784 90.6275 9.47568 2.9405 10.3524 
138.953 167.458 173.682 162.907 166.485 136.444 155.716 163.162 169.618 157.415 -338.55 147.973 93.4465 -382.61 160.208 59.1702 -375.151 160.097 33.5999 -353.875 153.445 23.0452 -320.245 144.988 25.1377 -305.319 173.848 89.4694 7.98776 3.37112 8.733 
141.051 167.488 173.182 168.171 171.592 138.522 158.626 164.019 169.778 161.049 -335.11 147.257 93.021 -375.134 160.661 54.3853 -366.753 159.376 29.6852 -346.058 153.702 19.9562 -313.467 145.911 21.7154 -298.051 173.283 86.5661 6.85039 2.69222 7.65079 
143.117 167.337 172.791 171.259 171.772 139.574 160.502 165.836 169.494 162.134 -331.198 145.242 92.1223 -370.444 159.854 52.1299 -361.859 158.779 27.5047 -340.861 153.294 17.2257 -309.217 145.931 19.5574 -292.987 172.14 84.7654 5.57424 3.15614 7.49105 
147.265 168.878 172.502 173.439 172.225 143.064 164.826 170.007 169.118 164.055 -327.869 144.559 90.5723 -364.196 160.66 47.1542 -356.628 161.174 23.2601 -335.516 155.109 12.6075 -305.538 148.922 14.5337 -286.183 171.318 81.0928 3.48824 2.9518 6.6412 
147.545 165.792 168.759 171.064 168.942 144.265 163.144 169.152 165.941 161.588 -324.74 146.5 89.9366 -359.451 162.548 45.6455 -351.999 163.877 20.9435 -329.905 156.643 9.94523 -299.926 150.749 11.0482 -281.527 172.793 79.445 4.29924 3.95886 6.86382 
146.344 165.43 168.611 169.392 168.264 143.927 163.715 167.781 164.114 159.809 -319.056 147.479 88.118 -355.662 166.878 44.0355 -347.981 166.264 19.0428 -325.738 158.087 8.00054 -295.744 152.167 8.17349 -276.478 174.354 77.3542 4.75733 4.44912 5.11039 
147.357 166.27 168.222 168.734 168.04 144.795 164.454 167.453 163.454 159.596 -317.05 149.278 87.1449 -351.931 167.64 40.9098 -343.723 166.255 16.6813 -321.094 158.081 5.98948 -291.075 152.755 6.38807 -273.204 174.496 76.2372 4.83317 4.62543 4.09177 
148.363 166.299 167.877 168.261 168.165 145.821 164.194 166.644 162.664 159.073 -314.114 149.212 85.8127 -347.5 167.821 38.013 -338.778 165.719 14.3714 -315.883 157.336 4.20434 -286.012 152.099 5.12791 -269.423 174.594 75.0437 4.77955 4.72478 3.56213 
149.538 167.829 168.762 168.622 168.711 144.308 165.024 166.827 163.005 159.146 -309.446 150.449 82.8649 -343.099 168.542 34.5131 -334.222 165.32 12.1458 -311.282 156.866 3.06488 -281.725 152.551 4.99151 -266.226 175.461 74.7494 4.10046 4.53123 2.15652 
150.643 167.987 168.62 168.077 168.253 144.107 164.576 165.924 162.227 158.029 -308.54 153.012 81.3211 -340.105 169.093 31.3127 -331.244 165.344 9.84519 -308.165 156.999 1.42348 -278.95 153.459 3.97979 -264.188 176.288 73.4339 3.50931 4.51354 1.19609 
150.59 169.05 169.541 168.785 168.996 143.029 165.176 166.325 162.998 158.718 -304.702 154.067 79.4818 -335.729 169.152 28.251 -326.895 164.884 7.55675 -303.866 156.759 -0.271151 -274.981 153.99 2.9269 -260.618 176.534 72.4048 3.01311 4.2754 0.577425 
151.705 170.069 170.453 169.567 169.979 143.968 165.837 166.721 163.837 159.912 -304.329 156.741 79.3034 -332.281 169.507 25.4098 -323.683 164.866 5.51055 -300.784 157.199 -1.78157 -272.31 155.287 1.84495 -258.094 177.337 71.4387 2.7495 3.87144 0.641679 
152.609 170.802 171.189 170.276 170.772 145.296 166.531 167.31 164.592 160.756 -302.805 158.764 79.3954 -327.918 169.813 23.0653 -319.043 164.638 3.53355 -296.047 157.118 -3.24346 -267.746 155.624 0.921523 -254.526 177.686 70.6949 2.75679 3.77306 1.13467 
152.801 171.502 171.269 170.663 171.205 146.57 167.193 167.284 165.24 161.815 -298.873 162.349 79.0765 -320.199 170.76 19.6559 -310.753 164.328 1.04051 -287.63 157.435 -5.10053 -259.716 157.048 0.0480785 -248.431 179.608 70.0351 3.00975 3.44998 2.17865 
153.681 172.24 171.512 170.961 171.428 147.33 167.972 167.328 165.542 162.159 -295.123 162.685 78.2598 -315.779 171.35 18.0726 -306.216 163.771 0.106182 -283.105 157.23 -5.8424 -255.173 157.303 -0.481255 -244.618 180.113 69.7363 3.15972 3.30137 3.32796 
151.107 172.999 171.911 171.281 171.759 144.817 169.015 167.838 166.045 162.564 -291.844 164.259 77.2284 -312.105 172.874 16.0425 -303.092 164.821 -1.47446 -280.09 158.488 -7.19794 -252.348 158.975 -1.57929 -241.681 180.583 68.7117 3.24805 3.16562 4.22406 
149.873 172.741 171.586 171.19 171.573 143.893 168.549 167.471 165.967 162.54 -287.912 164.35 76.7933 -307.669 173.232 15.0979 -298.676 164.881 -2.21927 -275.596 158.779 -7.78975 -247.752 159.55 -1.99065 -237.8 181.004 68.4204 3.38807 3.12627 4.62953 
148.351 172.386 171.356 171.082 171.314 142.873 167.99 167.107 165.688 162.131 -285.071 165.008 76.2527 -304.251 173.908 14.0171 -295.363 165.685 -3.21785 -272.245 159.683 -8.67819 -244.417 160.654 -2.80778 -234.928 181.693 67.6316 3.44017 3.16942 4.78887 
148.167 172.314 171.38 171.222 171.31 142.596 167.753 167.026 165.821 162.38 -281.99 165.939 75.9603 -300.196 174.545 13.2545 -291.395 166.399 -3.84989 -268.319 160.554 -9.17667 -240.451 161.728 -3.23959 -231.478 182.512 67.4819 3.61231 3.08391 4.87657 
148.579 172.285 170.328 170.353 170.15 142.676 166.083 165.784 164.683 161.556 -275.714 167.162 75.7852 -291.98 175.132 12.2523 -283.133 167.61 -4.7689 -260.213 161.984 -9.80258 -232.062 163.661 -4.04424 -224.678 184.06 67.2507 4.14484 3.0349 4.7499 
149.454 171.667 169.482 169.912 169.625 143.204 164.574 164.779 163.693 160.57 -271.473 166.692 74.9783 -287.165 174.852 11.6686 -278.234 167.794 -5.41187 -255.445 162.03 -10.274 -227.099 163.757 -4.64127 -220.601 184.294 66.8399 4.24693 3.17905 4.59022 
151.291 170.65 168.756 169.483 169.188 145.031 162.998 163.789 162.814 159.731 -267.886 166.404 74.4952 -282.931 174.784 11.5998 -273.587 168.157 -5.81826 -250.677 162.083 -10.7064 -221.988 163.523 -5.24051 -216.58 184.766 66.5611 4.33738 3.51074 4.09964 
151.914 169.857 168.098 168.984 168.642 145.956 161.788 162.916 162.028 159.026 -263.84 166.692 73.8109 -278.897 175.132 11.5502 -269.325 168.96 -6.02358 -246.359 162.792 -10.9446 -217.479 164.173 -5.60271 -212.726 185.66 66.4947 4.46283 3.68564 3.73116 
153.432 169.621 167.357 168.103 167.962 149.165 161.793 161.674 160.638 158.268 -260.804 166.85 73.3583 -275.974 176.25 11.7528 -265.397 169.572 -6.05045 -241.445 162.86 -11.2216 -212.523 164.516 -5.95807 -209.017 186.922 66.396 4.77513 4.54604 3.71247 
153.791 168.5 167.024 167.72 167.359 148.909 161.24 160.548 159.628 157.295 -256.565 167.389 71.7927 -273.222 178.199 11.5276 -262.865 171.537 -6.16013 -238.668 164.594 -11.5875 -209.576 166.085 -6.58657 -205.808 188.371 65.895 4.78642 4.87061 3.89933 
155.339 168.342 166.578 167.471 167.066 148.676 160.706 159.768 158.742 156.597 -251.405 166.699 70.0108 -269.712 179.599 11.3744 -259.287 172.861 -6.27012 -234.997 165.598 -11.6815 -205.742 167.05 -6.91042 -202.187 189.678 65.7157 4.88271 5.18449 4.07673 
155.582 168.381 166.574 167.428 167.121 148.058 160.336 159.395 158.4 156.456 -246.226 166.351 68.1954 -265.587 180.414 10.978 -255.263 173.895 -6.53033 -231.113 166.596 -11.8823 -202 168.224 -7.18543 -198.38 190.84 65.5322 4.76468 5.22141 4.0643 
155.789 168.482 166.93 167.685 167.349 147.905 160.357 159.557 158.616 156.853 -241.924 166.944 67.1719 -261.552 181.491 10.5999 -251.405 175.184 -6.85609 -227.412 167.872 -12.2133 -198.368 169.601 -7.57279 -194.539 192.029 65.3852 4.72743 5.16982 3.98159 
155.857 168.326 167.04 167.777 167.423 147.397 160.058 159.532 158.678 157.025 -237.079 167.564 65.751 -257.42 182.675 10.2189 -247.495 176.567 -7.19615 -223.674 169.068 -12.5438 -194.698 170.608 -7.90711 -190.472 193.125 65.0986 4.60934 5.12872 3.8058 
156.136 167.675 166.725 167.473 167.132 147.792 159.031 158.815 158.112 156.554 -229.631 170.011 63.9984 -249.369 184.922 9.39244 -239.429 179.145 -8.02107 -215.753 171.318 -13.3692 -186.907 172.457 -8.69004 -182.526 195.17 64.3098 4.45485 5.14075 3.42571 
155.52 166.957 166.062 167.025 166.801 147.358 158.242 157.991 157.431 156.049 -225.521 171.131 63.5498 -245.07 186.017 9.08687 -234.961 180.003 -8.22273 -211.258 172.087 -13.5234 -182.409 173.127 -8.79039 -178.426 196.123 64.1251 4.53521 5.13645 3.49827 
155.148 166.213 165.342 166.241 166.166 148.275 156.953 157.139 156.558 155.313 -218.825 174.093 63.4343 -236.332 187.015 8.59263 -225.793 181.417 -8.83467 -201.901 173.377 -14.0593 -173.215 174.079 -8.95517 -170.144 197.581 63.873 4.3889 5.22975 2.9216 
156.206 165.933 165.299 166.001 165.988 149.82 156.156 157.045 156.694 155.503 -212.094 176.567 63.4955 -227.787 188.046 8.54478 -217.186 183.328 -8.99403 -193.27 175.622 -14.3401 -164.74 176.136 -8.85126 -162.029 199.262 64.2233 4.23326 4.9886 2.1542 
157.094 165.688 165.331 166.174 166.116 150.351 155.331 156.604 156.462 155.205 -208.795 176.831 62.8504 -223.767 188.117 8.13938 -213.172 183.909 -9.44761 -189.3 176.273 -14.8003 -160.919 176.545 -9.11593 -158.231 199.986 63.6162 4.02404 4.86482 1.64946 
157.77 165.878 165.81 166.615 166.614 150.948 155.199 156.788 156.725 155.509 -205.392 177.198 62.7117 -219.538 187.794 8.04448 -208.887 184.047 -9.66446 -185 176.5 -15.0161 -156.764 176.692 -9.16245 -154.298 200.751 63.3615 3.86765 4.79184 1.19397 
158.348 166.245 166.353 167.033 167.028 151.379 155.357 157.117 157.076 155.843 -201.992 177.531 62.3551 -215.335 187.488 7.57696 -204.762 184.212 -10.1015 -180.961 176.876 -15.385 -152.925 177.135 -9.34682 -150.486 201.464 62.9804 3.65311 4.61959 1.10272 
158.69 166.368 166.645 167.228 167.272 151.613 155.349 157.219 157.246 156.016 -198.633 177.886 62.2491 -211.186 187.379 7.30395 -200.691 184.399 -10.2814 -176.972 177.161 -15.4792 -149.126 177.468 -9.2584 -146.706 202.118 62.8444 3.46047 4.50055 1.2175 
159.159 166.558 166.855 167.292 167.317 151.832 155.442 157.379 157.409 156.082 -195.163 178.533 62.2685 -207.042 187.535 7.2305 -196.715 184.927 -10.2229 -173.129 177.731 -15.294 -145.446 177.965 -8.87325 -142.772 202.823 62.9898 3.24192 4.3425 1.4854 
158.981 166.888 166.6 166.668 166.93 150.998 156.003 157.677 157.43 155.805 -190.477 178.532 61.3017 -202.823 187.848 6.95143 -192.723 185.623 -10.3122 -169.309 178.247 -14.9951 -141.853 178.207 -8.1251 -138.798 203.333 63.1733 2.81067 4.23224 1.89461 
160.867 166.864 165.955 165.524 165.938 152.183 156.306 157.439 156.878 154.797 -182.84 178.641 59.5773 -195.277 188.766 6.67683 -184.776 186.89 -10.6138 -161.402 178.825 -14.5497 -134.168 177.953 -6.8837 -131.123 204.535 63.2274 2.27369 4.32523 2.0576 
162.668 166.299 165.864 164.106 164.493 153.623 154.388 155.5 154.784 152.588 -179.174 177.814 59.031 -191.401 188.922 7.0424 -180.24 186.781 -10.2669 -156.239 178.305 -13.9683 -129.152 177.055 -5.73399 -127.335 205.538 63.3739 2.14654 4.81999 1.81785 
163.632 165.738 165.616 162.95 163.321 154.706 152.525 153.433 152.606 150.322 -175.419 177.151 58.3286 -187.546 188.921 7.34887 -175.726 186.481 -10.0314 -151.29 177.616 -13.4146 -124.369 176.117 -4.74822 -123.467 206.32 63.1854 2.11026 5.2295 1.6632 
164.252 164.987 165.052 161.854 162.223 155.544 150.476 151.164 150.201 147.897 -171.612 176.306 57.3735 -183.905 188.82 7.7205 -171.486 186.231 -9.82225 -146.736 176.945 -12.8743 -119.976 175.359 -3.99945 -119.672 206.859 62.6504 2.10818 5.67537 1.70545 
164.571 164.125 164.157 160.706 160.998 156.289 148.588 148.837 147.667 145.323 -167.788 175.81 56.3964 -180.277 188.762 8.19556 -167.223 186.026 -9.49827 -142.196 176.273 -12.1705 -115.54 174.708 -3.19362 -115.849 207.365 62.1258 2.18968 6.16981 1.9002 
164.508 163.813 163.485 159.74 160.025 156.574 147.122 146.853 145.699 143.374 -163.545 175.686 55.3315 -176.544 188.779 8.68027 -162.947 185.775 -9.10148 -137.77 175.686 -11.5196 -111.09 173.953 -2.53678 -111.891 207.738 61.5975 2.41317 6.42643 2.23876 
164.343 163.396 162.473 158.758 159.019 156.711 145.564 144.751 143.754 141.367 -159.081 175.729 53.8558 -172.581 189.199 8.79757 -158.49 185.745 -8.80271 -133.297 175.285 -10.8629 -106.576 173.387 -1.80602 -107.915 208.153 61.0975 2.63966 6.63163 2.35686 
164.241 163.285 161.948 158.418 158.463 156.685 144.828 143.636 142.805 140.131 -154.246 175.545 52.7115 -168.21 189.645 8.78294 -153.841 185.936 -8.60434 -128.708 175.256 -10.3969 -101.905 173.168 -1.13471 -103.695 208.441 60.9281 2.88428 6.72346 2.36545 
163.991 163.193 161.542 158.356 158.36 156.508 144.048 142.798 142.375 139.639 -149.296 175.508 51.7716 -163.464 189.704 8.86586 -149.17 186.168 -8.37367 -124.23 175.558 -10.0915 -97.2369 173.251 -0.737227 -99.3551 208.732 60.8716 3.15709 6.52568 2.45189 
163.448 162.798 161.084 157.951 157.996 155.972 143.422 142.128 141.844 138.939 -144.036 175.376 50.9024 -158.496 189.93 8.70684 -144.321 186.416 -8.295 -119.604 175.725 -9.79963 -92.5146 173.122 -0.307526 -94.7836 208.7 60.7914 3.33096 6.35982 2.47509 
163.194 162.586 161.143 157.865 158.023 155.653 143.237 142.153 141.898 138.79 -138.757 175.165 50.132 -153.398 189.924 8.39208 -139.214 186.608 -8.54906 -114.76 175.537 -9.56369 -87.5709 172.567 0.250421 -90.1705 208.669 60.8791 3.58118 6.35878 2.80484 
163.164 162.196 161.879 158.165 158.372 155.636 142.984 142.668 142.268 139.007 -133.605 175.006 49.575 -148.242 190.144 8.17105 -134.073 187.243 -9.00467 -109.831 175.434 -9.38531 -82.5658 172.137 0.783991 -85.4638 208.734 61.1425 3.76263 6.63164 3.4356 
163.427 160.936 169.29 159.306 158.555 156 142.113 146.33 143.228 139.276 -123.475 174.354 47.8809 -138.082 190.432 7.4519 -124.459 189.441 -11.2286 -100.486 173.562 -8.79893 -72.9987 170.417 1.62762 -75.9872 208.414 61.2591 3.73252 9.5151 5.7775 
163.822 160.724 169.683 159.706 158.695 156.408 142.2 147.788 143.821 139.697 -118.413 173.748 47.1122 -132.447 189.906 6.76367 -119.036 189.346 -12.0145 -95.3354 171.796 -8.34975 -67.6924 168.946 2.07164 -71.0201 207.769 61.4397 3.78395 10.693 6.30973 
