164.151 174.714 173.661 173.601 173.231 154.04 170.282 169.024 168.593 168.563 151.942 193.806 -44.2375 192.138 199.586 -95.1283 212.529 198.482 -99.2186 231.806 201.813 -85.5443 245.058 205.392 -59.4176 193.865 207.66 -4.62928 7.37238 4.49048 0.92707 
163.968 174.865 174.134 173.948 173.245 153.656 170.614 169.508 169.072 168.623 151.012 193.001 -43.9526 191.353 199.067 -94.9406 212.041 197.962 -99.0284 231.141 201.497 -85.3265 244.32 205.368 -59.2187 193.02 207.225 -4.592 7.51046 4.45091 0.901702 
163.868 175.131 174.464 174.108 173.165 153.383 171.016 169.774 169.309 168.469 149.815 192.044 -43.6306 190.255 198.45 -94.7161 211.013 197.063 -98.8291 229.897 200.679 -85.1657 242.983 204.84 -59.1841 191.949 206.685 -4.53225 7.53091 4.29955 1.16732 
163.695 175.319 174.641 174.164 173.014 153.072 171.2 169.865 169.333 168.092 148.592 191.06 -43.2604 189.074 197.93 -94.3457 209.75 196.241 -98.5055 228.385 199.753 -84.8924 241.299 204.042 -59.0707 190.709 206.19 -4.35927 7.45325 4.08965 1.41598 
163.732 175.417 174.871 174.322 172.989 153.003 171.37 170.052 169.553 167.987 147.37 190.249 -43.2122 187.879 197.355 -94.1304 208.352 195.425 -98.4077 226.765 198.804 -84.8447 239.532 203.038 -59.0959 189.289 205.608 -4.26805 7.30687 3.94397 1.59744 
164.052 175.28 174.535 174.517 173.278 153.294 171.139 169.726 169.612 168.35 146.147 189.756 -43.5783 186.535 196.829 -94.2913 206.6 194.698 -98.5399 225.117 198.008 -84.9944 237.872 202.114 -59.2303 187.709 205.145 -4.31131 7.25294 4.03077 1.78147 
164.215 175.39 174.697 174.563 173.148 153.325 171.299 169.861 169.741 168.143 144.697 189.134 -43.631 184.807 195.864 -94.1463 204.958 193.806 -98.4786 223.357 197.37 -84.9785 236.105 201.607 -59.2785 186.059 204.697 -4.37962 7.28812 4.12782 1.68799 
164.03 175.371 174.461 174.331 173.281 153.198 171.368 169.868 169.798 168.656 143.014 188.564 -43.8937 183.046 195.418 -94.5733 203.08 193.659 -98.9583 221.599 197.378 -85.534 234.463 201.557 -59.7526 184.238 204.336 -4.69411 7.32986 4.29068 1.55937 
164.151 175.238 174.262 174.331 173.498 153.419 171.224 169.82 169.871 169.1 140.96 187.898 -44.4605 181.093 194.983 -95.1371 201.041 193.427 -99.531 219.688 197.116 -86.0895 232.574 201.134 -60.2392 182.198 203.813 -5.1086 7.27889 4.35726 1.47689 
164.503 174.883 173.348 173.666 172.673 153.718 170.309 168.562 168.969 167.599 138.838 187.601 -44.6712 178.329 193.532 -94.6704 197.999 191.539 -98.9667 216.629 195.764 -85.9664 229.614 200.047 -60.4365 180.106 203.524 -5.26711 7.28836 4.69805 1.76371 
164.726 174.78 174.004 174.041 172.794 153.795 170.249 169.25 169.689 168.143 133.781 185.425 -44.4546 172.516 191.214 -94.5767 192.61 189.741 -99.2175 211.269 194.425 -86.4586 224.545 199.035 -61.0382 175.165 202.272 -5.58609 7.37834 4.83186 1.27792 
164.844 174.717 174.007 174.033 172.735 153.843 169.922 169.049 169.573 167.914 131.18 184.581 -44.4096 169.135 189.96 -94.5703 189.318 188.365 -99.2551 208.038 193.18 -86.7433 221.515 198.019 -61.525 172.555 201.751 -5.84272 7.40806 4.86792 1.23954 
165.088 174.503 173.922 173.994 172.688 154.11 169.499 168.706 169.395 167.696 128.471 184.077 -44.4344 165.757 189.051 -94.5132 185.97 187.357 -99.3244 204.871 192.556 -87.085 218.588 197.646 -62.0494 169.905 201.573 -6.13157 7.49402 5.09966 1.25061 
165.742 174.431 173.974 174.149 172.815 154.624 169.269 168.558 169.581 167.78 125.876 183.962 -45.1023 162.518 188.118 -94.8017 182.644 186.301 -99.6114 201.609 191.97 -87.6117 215.44 197.242 -62.6767 167.03 201.283 -6.67558 7.61518 5.45315 1.30426 
166.093 174.272 173.781 174.071 172.738 155.055 168.847 168.18 169.368 167.564 122.942 183.557 -45.4023 158.803 187.25 -94.99 178.884 185.422 -99.8768 198.064 191.369 -88.1718 212.172 196.855 -63.4102 164.096 201.232 -7.16122 7.65422 5.62788 1.28644 
166.463 173.901 173.29 174.014 172.661 155.401 168.148 167.357 169.195 167.436 119.798 183.221 -45.8064 154.629 185.907 -95.1058 174.612 183.869 -100.034 194.148 190.644 -88.8531 208.639 196.518 -64.3133 160.899 201.12 -7.78639 7.84733 6.23504 1.39597 
167.001 174.471 174.258 174.648 173.327 155.841 169.039 168.744 170.473 168.718 112.801 181.976 -46.7983 147.282 184.392 -96.6544 167.187 183.023 -102.17 186.59 189.973 -91.247 201.242 196.035 -66.7217 153.828 200.482 -9.30758 7.70258 6.10158 1.13503 
167.119 174.76 174.718 174.889 173.625 156.109 169.325 169.348 170.986 169.313 108.76 181.15 -47.1437 143.052 183.675 -97.4448 162.955 182.738 -103.377 182.386 189.767 -92.6087 197.212 195.947 -68.1191 150.071 200.399 -10.1555 7.60282 6.01002 0.969172 
167.554 175.093 175.184 175.13 173.906 156.58 169.727 170.008 171.481 169.826 104.616 180.537 -47.7298 138.948 183.362 -98.4118 158.808 182.856 -104.652 178.137 189.836 -93.9083 193.008 195.984 -69.3805 146.059 200.285 -10.9803 7.42422 5.8272 0.93056 
168.09 175.442 175.392 175.236 174.049 157.04 170.139 170.303 171.682 170.024 100.536 180.266 -48.7507 134.862 183.449 -99.6684 154.407 182.829 -105.962 173.525 189.638 -95.2549 188.33 195.781 -70.7775 141.838 200.221 -12.0047 7.21864 5.56514 1.21558 
168.734 175.685 175.507 175.405 174.23 157.736 170.28 170.516 172.013 170.332 96.3483 180.222 -50.4143 130.416 183.81 -101.265 149.698 183.273 -107.729 168.761 190.047 -97.1115 183.669 196.024 -72.6043 137.431 200.318 -13.5093 7.12367 5.55505 1.39675 
169.085 175.93 175.652 175.528 174.475 158.113 170.318 170.882 172.438 170.847 91.8897 179.939 -51.459 125.232 183.798 -102.21 144.484 183.702 -109.041 163.593 190.446 -98.536 178.723 196.227 -73.9603 132.522 200.246 -14.6221 7.14294 5.62424 1.41677 
169.416 175.927 175.564 175.58 174.597 158.357 170.144 170.793 172.594 171.045 87.1573 179.877 -53.1118 119.866 183.739 -103.668 138.838 183.726 -110.648 157.892 190.592 -100.331 173.047 196.216 -75.7648 127.301 200.169 -16.1667 7.12403 5.81241 1.65494 
169.758 176.029 175.696 175.745 174.83 158.595 170.239 171.061 172.977 171.471 82.2465 180.091 -54.82 114.172 184.001 -105.197 133.081 184.335 -112.358 152.086 191.25 -102.093 167.221 196.645 -77.4628 121.704 199.973 -17.6528 7.14647 5.94583 1.78732 
169.537 176.186 175.883 175.858 175.005 158.113 170.639 171.529 173.333 171.899 77.1746 179.952 -56.4479 108.195 184.124 -107.221 126.949 184.584 -114.437 145.722 191.435 -104.286 160.758 196.827 -79.7405 115.827 199.727 -19.4858 7.13106 5.85557 1.88352 
169.617 176.144 175.781 175.861 174.935 157.798 170.707 171.328 173.173 171.693 71.7196 180.45 -58.4392 101.64 184.146 -109.255 120.084 184.02 -116.336 138.651 190.665 -106.438 153.558 196.13 -82.1405 109.621 199.539 -21.5265 7.13091 5.75773 1.99399 
169.644 176.118 175.895 175.907 174.958 157.459 171.024 171.526 173.17 171.751 65.9744 181.334 -60.4641 94.7864 184.44 -111.566 112.905 183.846 -118.574 131.319 190.227 -108.84 146.094 195.947 -84.7895 103.205 199.719 -23.6179 7.22308 5.53998 2.18837 
169.971 175.761 175.332 175.714 174.719 157.54 170.668 170.549 172.337 170.915 59.619 182.375 -62.6862 87.2871 184.968 -113.526 104.812 183.12 -120.182 123.1 189.054 -110.762 137.706 195.072 -87.122 96.2367 200.057 -25.5658 7.32333 5.28155 2.82238 
170.253 175.077 175.04 175.418 174.433 157.621 169.698 169.882 171.591 170.026 52.763 183.626 -65.4735 79.2975 184.797 -115.643 96.4395 182.727 -122.37 114.402 188.195 -113.202 128.668 194.313 -89.9704 88.6397 200.356 -27.9866 7.25998 4.96077 3.11385 
170.292 174.755 174.957 175.258 174.068 157.375 169.195 169.471 171.119 169.27 45.5126 184.189 -68.264 70.7164 183.785 -117.888 87.4915 181.354 -124.599 105.194 186.598 -115.697 119.16 193.064 -92.8612 80.4523 200.137 -30.5383 7.33432 4.74585 3.46505 
170.001 175.061 175.114 175.001 173.72 157.081 169.047 169.948 170.956 169.224 37.8352 184.69 -71.2134 61.2819 182.95 -120.267 77.7266 181.268 -127.642 95.1962 186.071 -118.818 109.28 192.38 -96.5148 71.6717 199.499 -33.2399 7.23095 4.38809 3.44827 
169.699 175.619 175.309 174.736 173.664 156.814 169.133 170.489 170.537 168.965 20.0542 185.912 -76.0452 40.758 182.593 -124.732 56.9091 181.211 -132.678 73.9981 184.437 -123.687 88.0377 190.331 -101.949 52.62 197.68 -37.6952 7.25194 3.44851 3.50086 
168.305 175.823 176.568 174.994 173.839 155.092 169.817 171.985 170.544 168.31 8.41333 186.826 -77.3957 26.322 183.251 -126.929 42.8662 182.58 -136.254 60.3485 183.97 -126.805 74.5378 188.558 -105.132 40.7274 196.585 -40.3115 6.38162 2.17778 2.97457 
166.71 176.309 177.188 175.684 174.142 153.007 171.167 173.482 171.394 168.156 -3.09111 187.276 -78.6623 12.0188 183.276 -129.589 28.9299 183.103 -139.77 46.8772 183.463 -130.183 61.0112 186.796 -108.228 28.5486 195.094 -42.9172 5.51041 1.41452 2.53068 
166.51 177.884 177.803 176.778 175.004 152.2 173.113 175.042 173.07 169.681 -17.4726 189.552 -80.1134 -2.67269 184.712 -133.402 14.0456 184.68 -144.005 32.112 184.475 -134.619 46.7748 186.954 -112.726 15.4565 193.873 -45.726 5.19461 1.24938 2.48148 
167.35 178.748 178.217 177.552 175.719 152.432 175.067 176.179 174.462 170.984 -34.6927 191.577 -80.6683 -18.8665 185.378 -136.527 -1.90911 185.047 -147.458 16.3841 184.535 -138.397 31.72 186.412 -116.607 1.33835 192.087 -48.1688 4.87535 1.13042 2.17995 
169.343 179.622 178.428 178.026 176.399 153.716 177.41 176.805 175.333 172.033 -54.4858 194.835 -80.9567 -37.051 189.033 -139.839 -19.5614 187.292 -151.123 -0.938462 185.805 -142.707 15.451 186.523 -121.233 -13.8029 191.621 -50.976 4.2749 0.854355 2.30718 
169.965 179.898 178.713 178.371 177.062 153.76 177.982 176.905 175.657 172.884 -73.9694 196.106 -80.06 -56.4699 191.373 -141.22 -39.2657 189.528 -153.092 -20.5162 186.853 -145.722 -2.53695 185.986 -124.958 -29.9887 190.039 -52.8987 3.65914 0.812821 2.29121 
170.518 176.979 178.651 178.376 177.375 154.137 178.958 177.209 176.024 173.331 -94.2054 197.457 -79.4879 -76.3279 194.072 -142.337 -59.4392 190.366 -154.553 -40.2537 187.151 -147.939 -20.9023 185.388 -127.825 -47.2342 189.966 -54.5071 3.28479 0.587561 3.43842 
170.607 177.809 177.94 178.124 177.481 153.758 179.144 177.098 176.199 173.364 -114.714 197.885 -77.9089 -98.2677 193.933 -142.636 -81.506 189.69 -155.357 -62.0169 186.047 -149.723 -41.3467 183.349 -130.408 -65.482 189.044 -55.9518 3.05722 0.477191 3.3965 
168.64 178.921 177.577 177.729 177.058 153.538 176.917 176.67 176.061 172.891 -136.193 196.592 -74.9695 -122.422 193.396 -140.296 -106.027 190.044 -154.259 -86.1206 185.99 -149.823 -63.6743 181.617 -131.465 -84.7783 188.149 -55.7604 3.02235 0.501659 2.07177 
167.719 176.503 179.042 178.475 177.603 156.08 178.919 177.977 176.56 173.373 -162.891 198.504 -69.5594 -149.591 198.089 -137.273 -133.779 192.92 -151.967 -112.713 187.252 -148.55 -88.7334 181.656 -131.005 -106.223 188.222 -54.2341 3.18266 0.630396 3.32643 
167.902 176.746 178.468 178.425 177.387 157.351 178.782 177.404 176.461 173.501 -188.361 196.78 -63.5495 -174.912 197.764 -133.067 -159.815 191.998 -148.207 -138.374 186.42 -146.058 -113.224 180.883 -129.692 -127.046 186.804 -52.3086 3.56199 0.774123 3.66212 
165.329 176.33 178.662 178.857 177.448 156.684 178.559 177.691 176.94 173.704 -212.819 195.037 -54.1424 -200.575 197.601 -125.812 -186.331 191.596 -141.371 -165.064 186.086 -140.364 -138.908 180.583 -125.006 -147.78 185.894 -47.6769 3.38877 0.567375 3.85151 
163.998 177.573 177.787 178.685 176.859 155.42 177.676 176.302 176.286 172.804 -236.721 194.787 -44.773 -227.523 196.128 -117.823 -213.674 191.143 -133.731 -192.777 186.261 -133.546 -165.991 181.194 -119.119 -169.031 186.235 -42.6372 2.84705 0.120039 2.99199 
162.259 176.057 176.529 177.847 175.542 153.771 175.214 174.59 175.073 171.439 -260.186 194.803 -34.3846 -255.151 196.964 -108.415 -242.199 192.5 -124.773 -221.37 187.887 -125.585 -193.718 182.728 -112.299 -191.239 188.113 -36.8306 2.4531 0.229501 2.31799 
159.785 174.111 174.528 176.049 173.504 151.485 173.07 172.213 172.979 169.298 -280.053 194.504 -25.93 -279.758 197.198 -99.8206 -267.652 192.199 -116.453 -246.821 187.784 -118.322 -218.645 182.966 -106.341 -212.832 189.694 -31.7423 2.29198 0.27119 2.4828 
156.408 173.484 173.319 174.472 172.01 149.179 171.635 170.306 171.004 167.274 -297.77 194.2 -19.0652 -302.305 197.144 -91.9324 -291.46 192.253 -108.65 -271.187 188.131 -111.151 -242.736 183.352 -100.223 -233.252 190.862 -27.0649 1.63717 0.454566 2.57516 
155.452 172.654 172.16 173.166 170.623 147.323 170.572 168.636 169.057 165.003 -312.222 195.173 -12.5467 -321.837 195.41 -83.2244 -311.985 190.332 -100.087 -291.76 186.471 -103.323 -263.593 182.879 -93.6815 -251.36 190.903 -21.5496 1.49179 0.488667 3.17586 
155.509 173.247 171.807 171.732 169.253 145.855 170.312 167.679 167.412 163.197 -324.359 196.076 -6.29788 -338.421 194.168 -74.5702 -329.534 188.847 -91.5637 -309.467 185.131 -95.3798 -281.767 182.999 -86.8114 -267.227 191.233 -15.4279 1.81633 0.890159 4.00309 
155.618 174.392 170.996 169.906 167.453 145.496 169.234 166.183 165.362 160.986 -335.845 195.66 -0.0734348 -352.79 192.556 -66.2925 -344.547 187.061 -83.2997 -323.965 182.778 -87.746 -297.343 181.376 -80.2188 -281.523 191.622 -10.0924 2.02068 1.57977 4.60442 
154.325 175.257 170.675 167.884 165.196 143.938 169.377 165.266 163.211 158.227 -344.017 194.013 4.60164 -364.589 191.688 -58.2699 -356.96 185.432 -75.3878 -335.677 180.408 -80.409 -310.055 179.701 -73.7011 -293.361 191.63 -4.81794 2.54259 2.69514 5.6753 
151.293 174.968 171.36 167.224 163.674 141.925 170.094 165.947 162.866 156.158 -351.766 191.572 7.46761 -375.308 190.036 -52.4968 -367.993 183.94 -69.958 -346.295 178.643 -75.3306 -321.469 178.16 -68.6813 -304.292 191.198 -0.981523 3.25286 3.47026 5.9325 
149.523 173.881 171.38 165.542 161.628 140.614 171.271 166.561 161.891 153.061 -358.963 189.115 9.9833 -385.524 189.151 -46.9455 -378.188 183.06 -64.9012 -355.578 177.081 -70.7238 -330.763 176.514 -64.2608 -314.628 191.284 2.86026 3.08479 4.61773 6.17202 
146.488 172.723 171.978 164.151 160.257 140.912 170.476 166.069 160.834 151.121 -363.032 185.36 12.4672 -390.497 186.248 -42.6097 -382.735 179.891 -60.7918 -359.553 173.372 -66.6745 -334.517 172.985 -60.3489 -320.664 190.2 6.71255 2.41045 5.31575 6.14384 
145.661 171.875 172.512 164.705 160.668 140.09 170.79 166.479 160.037 148.402 -365.165 182.522 12.8368 -395.066 184.177 -39.1511 -386.949 177.676 -58.2632 -363.525 169.682 -63.5988 -339.09 169.412 -56.6987 -324.879 188.32 8.92781 3.66609 6.83652 6.19271 
142.156 172.17 173.867 162.997 156.772 140.725 169.243 167.495 159.845 145.322 -368.098 180.308 14.3309 -399.604 183.074 -36.2323 -391.375 177.123 -55.6561 -366.884 168.323 -61.1499 -342.376 167.843 -53.4721 -329.452 187.844 11.0437 4.11323 7.80668 5.61431 
140.067 170.7 173.643 162.449 152.516 137.702 167.378 166.403 158.59 140.26 -368.336 176.997 13.0378 -403.97 181.963 -34.5378 -395.524 176.575 -54.1764 -370.071 166.928 -59.3533 -345.035 165.702 -50.3475 -333.849 188.092 12.1714 5.37949 8.91577 4.95769 
145.649 166.458 178.1 165.071 148.009 131.35 166.383 168.013 160.041 136.694 -369.24 176.584 12.3385 -406.842 182.407 -33.0251 -399.198 176.831 -52.7883 -373.659 166.648 -58.5591 -348.329 164.038 -47.9113 -336.466 186.959 12.9171 7.65115 9.24405 5.47597 
141.853 168.614 177.557 169.711 146.06 132.6 165.253 167.451 162.916 134.886 -371.606 176.264 13.8597 -409.27 182.462 -32.0487 -401.769 177.002 -51.5813 -376.571 167.645 -57.5157 -350.899 164.351 -45.1297 -339.085 187.501 14.1508 8.96927 8.19784 5.14948 
138.46 170.861 174.136 169.105 155.843 135.526 165.823 165.976 162.468 139.684 -378.755 176.593 18.4428 -412.481 182.324 -31.1977 -404.899 176.187 -50.0754 -379.81 167 -55.8705 -353.821 164.412 -45.8254 -341.341 187.622 14.7633 6.21162 7.69407 5.22851 
135.094 171.808 172.959 170.004 158.653 136.57 166.631 164.388 160.417 141.334 -381.328 176.956 20.5993 -412.737 181.817 -31.7295 -404.837 174.533 -49.8222 -380.279 165.535 -55.2591 -354.353 163.38 -46.3146 -341.16 187.047 14.3493 5.45835 7.31342 6.0816 
136.676 173.187 172.908 172.654 159.643 140.804 167.293 164.988 161.476 142.526 -384.811 176.302 22.9209 -413.21 182.45 -32.1067 -405.014 175.223 -50.3033 -380.5 166.21 -55.221 -354.396 163.799 -46.403 -341.317 187.233 14.2311 4.95501 6.95868 5.57808 
140.993 173.361 172.155 169.787 162.997 142.934 168.4 165.839 162.641 146.934 -387.03 177.215 24.5519 -413.247 182.809 -32.4944 -404.861 175.732 -51.053 -380.856 167.137 -56.2641 -354.606 164.887 -48.6102 -341.175 187.095 13.9793 3.43095 6.3518 5.33022 
144.568 171.444 171.122 164.847 160.555 145.891 167.275 165.583 161.892 148.111 -388.737 177.201 24.841 -412.344 182.421 -33.2217 -403.476 175.97 -52.2072 -379.231 167.385 -57.4041 -352.627 165.289 -50.0952 -341.165 187.572 13.9519 2.24206 6.41719 4.58553 
145.53 170.825 170.557 162.685 156.491 148.233 166.973 166.119 162.017 149.092 -389.106 176.837 24.7954 -410.988 182.486 -34.4581 -401.917 176.598 -53.6532 -377.607 168.128 -58.6058 -350.65 166.155 -51.3048 -340.607 187.877 13.7127 1.38974 6.28019 4.02362 
145.632 167.643 173.351 162.213 153.661 150.226 167.222 167.673 163.961 147.807 -385.715 178.418 21.7948 -408.903 183.423 -35.6306 -400.154 177.775 -54.861 -374.962 169.205 -60.881 -347.767 166.352 -52.2689 -339.576 187.915 13.7559 2.16003 6.7677 4.11137 
146.827 168.844 175.478 164.745 154.178 152.155 168.971 168.893 163.856 145.197 -382.215 178.785 19.006 -405.372 183.384 -37.6741 -397.05 177.525 -56.2664 -372.076 169.409 -62.4688 -344.508 165.654 -52.6385 -337.355 187.356 13.4707 2.98109 6.26824 4.56665 
145.141 167.13 175.906 165.871 156.29 159.351 169.804 169.218 162.368 142.849 -380.047 179.534 17.5563 -402.317 183.451 -38.5867 -394.55 177.221 -56.8962 -369.606 169.2 -63.1793 -341.433 165.06 -53.1943 -335.394 187.349 13.3336 3.30868 6.08861 5.00983 
156.219 171.521 173.272 164.811 161.628 154.558 168.092 166.455 161.918 142.364 -376.742 176.724 16.682 -401.746 184.136 -37.4409 -392.754 176.447 -56.1478 -367.851 167.093 -62.617 -340.486 162.448 -52.752 -332.71 187.065 12.6313 4.2965 6.86097 5.36797 
155.146 169.842 174.307 165.322 162.176 153.943 165.478 166.267 163.944 141.486 -374.219 174.378 15.8764 -400.13 183.474 -36.9662 -391.145 176.556 -56.5123 -366.242 167.421 -63.1425 -338.401 162.135 -52.3216 -330.767 187.475 12.147 5.1908 6.57664 4.17134 
145.092 167.084 175.598 166.487 160.804 160.166 163.239 166.612 165.323 144.131 -373.245 176.197 16.8415 -396.842 184.092 -37.199 -387.58 177.349 -57.2547 -362.942 168.548 -63.9378 -335.207 163.6 -52.935 -327.745 188.514 11.7105 4.51755 6.13919 3.71053 
151.85 165.796 171.618 165.801 161.448 152.748 164.014 165.047 162.894 145.213 -373.513 178.718 17.4524 -395.852 184.142 -37.7959 -386.144 176.807 -57.846 -361.134 167.548 -64.2094 -334.251 162.63 -54.1646 -325.969 188.409 10.5608 4.60184 6.58761 4.10608 
148.691 165.955 171.539 166.135 160.24 153.062 163.821 165.867 163.514 148.17 -373.053 179.627 17.578 -394.014 183.518 -38.8248 -384.24 177.198 -59.0568 -359.802 168.482 -64.7738 -333.148 164.124 -55.2602 -324.634 188.845 10.1612 3.46139 5.79804 2.98074 
148.022 166.369 171.896 166.978 160.546 154.175 164.359 166.699 164.174 151.196 -372.177 179.262 17.8917 -391.949 183.092 -39.533 -382.045 177.383 -59.984 -357.906 169.073 -65.5071 -330.882 165.128 -56.8311 -322.643 189.007 9.86422 2.35731 5.25917 2.22451 
150.531 166.673 172.808 168.462 162.93 152.237 165.92 168.177 165.625 154.555 -369.913 180.196 18.3344 -390.156 183.552 -39.1907 -379.934 177.635 -60.0029 -355.617 169.304 -65.9429 -328.667 165.56 -57.9296 -320.193 188.608 9.85438 2.02856 5.47839 2.73506 
150.722 167.23 173.286 169.978 164.42 150.206 166.334 168.888 166.657 156.571 -367.404 181.08 18.3159 -388.734 184.085 -38.8158 -378.464 178.05 -59.9423 -354.425 169.863 -65.9732 -327.606 166.521 -58.4591 -318.268 188.356 9.82223 1.48699 5.33869 3.18532 
148.003 166.215 173.031 170.089 164.151 149.898 165.719 168.897 166.848 157.309 -366.068 180.259 17.7055 -387.536 183.802 -38.5721 -377.303 178.493 -60.0093 -353.54 170.7 -65.8838 -326.348 167.516 -58.7891 -317.384 188.856 9.99344 1.31778 4.84425 2.38731 
148.754 165.935 172.21 169.519 164.509 147.21 166.485 168.96 166.443 157.645 -364.502 181.277 17.1052 -386.858 184.742 -38.7686 -376.955 179.175 -60.1163 -353.535 171.352 -65.8748 -326.413 168.452 -59.3261 -316.382 188.884 9.80481 0.97288 4.54518 2.47731 
149.057 167.417 172.26 169.921 165.429 144.982 168.065 169.466 166.877 158.608 -363.438 182.749 16.6097 -386.503 186.284 -39.5638 -376.917 180.396 -60.6159 -353.96 172.858 -66.1557 -327.17 170.443 -59.7529 -316.078 189.388 9.75418 0.65602 4.18136 2.95893 
149.281 168.153 172.332 170.145 166.103 143.763 169.229 169.907 167.344 159.095 -362.855 183.848 16.6616 -386.091 187.061 -40.1832 -376.6 181.091 -61.1963 -353.859 173.817 -66.701 -327.318 171.687 -60.2746 -315.568 189.385 9.54202 0.857545 3.92434 3.21437 
149.759 168.791 172.023 170.1 166.615 143.728 169.711 169.806 167.389 159.504 -363.093 185.09 17.4443 -385.357 187.523 -40.7084 -375.903 181.182 -61.4726 -353.31 174.184 -66.8919 -327.001 172.484 -60.4362 -315.156 189.511 9.64605 1.18275 3.77093 3.72362 
146.693 171.13 174.277 170.61 166.493 151.885 170.689 170.477 167.598 157.93 -364.551 186.035 20.1437 -381.473 186.784 -40.5946 -372.716 182.638 -60.0818 -349.795 176.297 -65.2778 -323.225 173.52 -57.6717 -313.729 192.218 11.4827 0.0916761 3.35742 1.90826 
148.508 171.208 173.946 170.442 166.74 150.043 171.322 170.446 167.259 157.521 -364.273 186.922 20.7664 -382.034 187.852 -40.0296 -373.225 183.455 -59.7148 -350.268 176.827 -65.0382 -323.837 173.756 -57.5438 -313.507 192.308 11.5094 0.335806 3.59383 2.05062 
149.563 171.226 173.878 170.639 167.291 148.31 171.633 170.788 167.738 158.587 -362.161 187.108 20.7849 -381.515 188.989 -39.291 -372.921 184.755 -59.3157 -350.119 178.054 -64.84 -323.729 174.743 -57.6533 -312.135 192.607 11.7213 0.353172 3.48149 1.83915 
150.188 171.729 173.533 170.599 167.559 146.595 172.09 170.667 167.679 158.921 -360.935 188.145 20.6237 -381.132 190.523 -39.4422 -372.774 185.79 -59.2758 -350.21 179.07 -64.7949 -323.98 175.818 -57.7818 -311.428 193.1 11.6961 0.494736 3.31546 2.3436 
151.049 172.092 172.826 169.866 166.897 146.018 172.239 169.748 166.476 157.614 -360.182 189.542 20.5423 -380.637 192.032 -39.3366 -372.374 186.64 -58.9162 -349.815 179.715 -64.3472 -323.803 176.466 -57.351 -310.745 193.961 11.7349 0.824215 3.49552 3.02939 
153.12 172.026 172.208 169.125 166.063 147.009 172.199 169.05 165.459 156.345 -360.405 191.268 21.0814 -380.673 193.573 -38.8975 -372.193 187.902 -58.7269 -349.388 180.612 -64.3215 -323.353 177.004 -57.3493 -310.123 194.922 11.4884 1.08992 3.90772 3.24601 
153.943 171.518 171.384 168.219 165.484 147.41 171.873 168.16 164.369 155.039 -359.824 193.014 20.85 -380.308 195.139 -38.707 -371.63 188.973 -58.7192 -348.603 181.206 -64.411 -322.524 177.047 -57.3994 -309.248 195.863 11.0766 1.59005 4.30401 3.58082 
154.225 172.069 171.882 169.371 167.068 146.869 172.14 168.791 165.608 157.262 -357.5 193.872 20.8064 -378.417 196.152 -38.6938 -370.077 190.066 -58.7476 -347.424 182.522 -64.6517 -321.345 178.541 -58.0787 -306.982 196.372 10.9148 0.934499 3.80014 3.33097 
