165.766 176.069 176.225 177.778 177.446 153.813 174.029 172.967 174.084 176.719 160.78 178.715 -55.6942 209.842 191.305 -99.5672 231.85 192.202 -100.331 247.507 197.451 -82.784 254.967 201.529 -52.9298 193.255 200.176 -10.1854 8.63575 5.60774 1.04583 
165.486 176.621 176.662 178.222 175.416 153.195 175.262 173.905 174.967 178.775 159.771 179.12 -56.1162 210.377 193.169 -100.47 232.369 193.955 -101.105 247.211 198.964 -83.5637 254.859 203.45 -53.1834 192.637 200.198 -10.6913 9.30993 5.1951 0.637703 
165.227 176.667 176.9 178.783 174.923 152.534 175.772 174.213 175.44 179.607 158.907 180.365 -56.5277 210.49 194.945 -101.202 232.38 195.264 -101.759 246.432 200.111 -84.3552 254.3 204.781 -53.6639 192.062 200.42 -11.2072 9.68804 4.92284 0.158884 
165.043 175.987 176.971 179.288 175.397 152.273 175.01 173.896 175.7 179.534 158.687 182.108 -57.4324 210.454 196.045 -101.806 232.33 196.039 -102.272 245.856 201.034 -84.9514 253.633 205.628 -54.2031 191.526 200.807 -11.8509 9.74612 5.03323 0.270313 
164.819 174.907 176.934 179.428 176.943 152.074 173.402 173.42 175.837 179.529 158.315 183.521 -58.3092 209.682 196.213 -102.121 231.608 196.265 -102.552 244.969 201.528 -85.309 252.546 205.983 -54.7026 190.742 201.254 -12.4479 9.67696 5.31415 0.151761 
164.468 174.166 176.89 179.949 176.845 151.699 172.21 172.731 175.612 179.499 157.864 185.133 -59.2772 209.372 196.895 -102.69 231.145 197.008 -102.928 244.517 202.404 -85.6836 251.872 206.82 -55.1491 190.1 202.07 -13.0959 9.68632 5.48411 0.195275 
164.541 174.106 176.942 179.763 175.799 151.797 172.147 172.838 175.861 179.249 156.891 185.801 -60.1818 208.815 197.848 -103.35 230.607 197.969 -103.486 243.764 203.39 -86.2721 251.275 207.879 -55.5027 189.207 202.715 -13.8186 9.92062 5.50441 0.177988 
164.078 173.868 177.12 179.602 176.482 151.372 171.897 172.703 175.842 179.359 156.361 186.747 -61.2692 207.91 198.459 -104.138 229.376 198.234 -104.372 242.354 203.53 -87.2917 249.598 208.019 -56.7051 187.903 203.301 -14.7951 9.78085 5.46751 0.511918 
163.694 174.003 177.385 179.145 177.208 150.946 172.046 172.771 176.159 179.405 155.317 187.412 -62.4322 206.854 199.115 -105.008 227.903 198.642 -105.217 240.693 203.926 -88.2434 247.751 208.213 -57.7808 186.271 203.78 -15.8016 9.62464 5.56952 0.850368 
163.375 174.319 177.498 178.964 177.273 150.695 172.358 172.951 176.15 179.467 153.653 187.632 -63.3763 204.958 199.512 -106.069 225.816 198.976 -106.268 238.512 204.066 -89.3359 245.42 208.367 -58.9361 184.176 204.214 -16.7759 9.46786 5.4014 1.00009 
163.651 174.57 177.783 178.871 178.124 151.101 172.522 173.108 176.17 179.583 151.517 188.228 -64.7876 202.368 199.79 -107.308 223.13 199.274 -107.389 235.845 204.146 -90.4836 242.47 208.3 -60.376 181.7 204.652 -17.8986 9.15981 5.26496 0.994419 
163.797 174.867 177.876 178.302 178.204 151.424 172.804 173.253 176.36 179.59 148.614 188.512 -66.2616 199.612 200.068 -108.412 220.255 199.731 -108.397 232.943 204.532 -91.4525 239.41 208.417 -61.4029 178.643 204.962 -19.0435 8.90478 5.24995 1.01452 
164.148 175.082 177.974 178.125 178.794 151.983 172.818 173.216 176.3 179.401 144.848 188.114 -67.66 195.505 199.823 -109.685 216.072 199.595 -109.655 228.979 204.293 -92.6928 235.288 208.187 -62.9149 175.053 205.288 -20.2486 8.63668 5.10904 1.00549 
164.501 175.467 177.961 177.901 179.545 152.498 173.045 173.257 176.289 179.055 140.571 187.709 -69.0498 190.922 199.117 -110.974 211.331 199.092 -111.07 224.342 203.936 -94.1865 230.532 207.939 -64.6854 170.907 205.594 -21.5842 8.37095 5.09064 1.10474 
164.971 175.959 177.928 177.821 178.718 153.039 173.663 173.412 176.355 178.894 135.291 186.448 -70.3328 184.916 198.463 -112.657 205.082 198.286 -112.956 218.249 203.085 -96.1944 224.619 207.254 -66.9437 165.877 205.601 -23.0796 8.12943 4.91271 1.28264 
165.601 176.128 177.692 177.852 178.194 153.798 173.698 173.127 175.976 178.413 129.305 184.834 -71.6758 177.679 197.207 -114.435 197.676 196.831 -114.912 211.489 201.719 -98.2682 217.983 206.156 -69.4645 160.243 205.663 -24.7091 7.89269 4.84147 1.36954 
166.333 176.083 177.388 178.466 177.235 154.738 173.274 172.492 175.522 177.681 122.629 183.224 -73.5191 169.636 195.65 -116.309 189.356 195.045 -116.974 203.735 200.057 -100.526 210.568 204.515 -72.0837 153.711 205.427 -26.5957 7.52892 4.89545 1.53129 
166.787 176.64 177.156 178.607 177.474 155.253 173.527 172.597 175.557 177.483 115.202 180.756 -75.5084 161.086 193.638 -118.616 180.53 193.113 -119.559 195.239 198.235 -103.232 202.302 202.774 -74.9445 146.116 204.286 -28.7961 7.27497 4.87112 1.70414 
166.941 177.078 176.725 178.926 179.114 155.458 173.97 172.835 175.374 176.974 107.388 178.667 -77.5809 152.07 192.418 -121.17 171.46 192.312 -122.479 186.512 197.394 -106.243 193.819 202.008 -78.1163 137.995 203.275 -31.2153 7.10535 4.69602 1.72078 
167.259 177.271 176.235 179.306 179.991 155.776 174.189 172.689 174.98 176.312 98.9917 177.46 -79.7052 142.603 192.893 -123.512 161.795 192.635 -125.054 177.121 197.319 -108.869 184.685 201.786 -80.9086 129.227 202.877 -33.3603 6.91273 4.37973 1.92547 
167.417 177.038 175.366 179.885 179.413 155.955 173.664 171.634 174.197 175.123 89.5342 177.054 -82.116 131.814 193.511 -125.653 150.511 192.73 -127.279 166.152 197.165 -111.215 173.705 201.267 -83.5287 119.221 202.437 -35.5695 6.68772 4.32798 2.39863 
167.91 177.006 174.102 179.35 179.361 156.343 173.165 170.252 172.879 173.177 78.8018 176.026 -84.428 119.421 193.795 -127.66 137.521 191.94 -129.389 153.414 195.691 -113.487 160.893 199.272 -86.1124 107.747 201.251 -37.5953 6.30318 3.99587 3.16776 
168.347 176.374 172.227 177.334 178.233 156.65 171.506 167.732 169.827 169.753 67.0835 175.821 -87.3702 105.792 193.92 -129.992 122.961 190.376 -131.796 138.97 193.221 -116.289 146.65 196.934 -89.5828 95.4346 200.404 -40.1734 6.37503 3.43559 4.44023 
169.114 176.018 170.836 173.912 174.038 157.328 169.079 164.969 165.831 164.161 54.9537 176.835 -91.2361 91.1061 193.768 -132.176 106.966 188.664 -134.364 122.91 190.15 -119.423 130.515 193.618 -93.4938 82.1554 199.918 -43.1382 6.24352 2.6401 5.7679 
170.03 175.335 170.866 172.437 171.097 158.044 167.194 164.146 164.615 161.312 41.1633 176.519 -94.69 73.9677 190.884 -134.18 89.7079 186.087 -137.237 105.866 187.265 -122.992 113.466 190.001 -97.5776 67.251 197.8 -46.1303 5.93069 2.62052 5.509 
170.292 174.557 172.119 171.716 168.896 157.229 166.352 165.132 164.587 159.175 8.0906 177.079 -96.4805 35.2244 189.823 -136.762 50.5046 183.741 -140.536 67.0637 183.119 -127.171 75.9402 184.132 -102.567 35.8778 194.952 -48.4422 5.71404 2.32085 5.34986 
169.482 175.769 177.331 176.271 172.94 155.472 168.963 170.944 170.651 165.845 -14.9265 177.907 -94.4993 9.22859 188.642 -137.534 25.7944 184.813 -143.502 43.0946 184.301 -131.185 54.5395 184.047 -106.768 14.3962 191.825 -48.7968 4.88434 2.62326 3.66905 
168.012 176.772 179.055 176.944 176.046 152.873 171.135 174.324 172.32 169.632 -39.4186 179.382 -91.3387 -18.532 190.287 -138.786 -1.36725 188.197 -146.734 16.6099 185.9 -134.938 30.7515 185.062 -111.364 -7.65522 189.899 -49.1636 5.13637 1.52855 2.66612 
167.612 178.11 179.599 178.183 179.051 151.141 174.934 177.683 174.811 173.714 -66.002 181.206 -87.7369 -47.665 192.264 -138.981 -29.9163 190.865 -148.289 -11.4652 187.578 -137.43 5.68179 186.101 -114.574 -30.5668 188.428 -49.0519 5.53889 1.02946 1.77679 
166.009 175.737 180 179.315 179.679 148.374 179.246 180 177.703 175.722 -93.8952 181.988 -81.5647 -78.0467 194.446 -136.568 -59.5779 191.544 -147.137 -40.592 188.147 -137.518 -20.6829 184.563 -115.745 -54.189 186.284 -47.4124 5.24917 1.42691 1.72141 
161.631 175.876 180 174.785 179.651 146.055 179.105 180 178.218 177.984 -123.898 183.154 -73.6223 -111.319 194.993 -132.004 -92.8733 192.119 -144.175 -71.922 190.784 -136.676 -49.8975 184.603 -116.126 -79.1399 185.646 -44.5947 4.54836 3.37631 1.4369 
158.097 175.96 180 174.802 179.683 145.409 178.92 180 178.223 177.96 -153.721 183.809 -63.4121 -143.127 193.924 -125.304 -125.431 191.087 -138.649 -104.027 189.282 -133.067 -80.1114 182.564 -113.944 -103.969 184.533 -40.0683 4.54867 3.11173 1.23447 
158.364 175.694 179.999 176.127 178.263 147.087 178.679 180 178.677 175.784 -182.984 182.399 -53.5632 -172.729 191.262 -118.179 -156.642 188.201 -132.112 -134.967 185.6 -128.636 -109.941 178.251 -111.135 -127.382 182.343 -36.1979 3.79517 2.49472 1.19328 
157.804 176.158 175.169 177.676 176.015 146.613 177.535 176.172 176.279 172.599 -209.064 180.733 -43.1073 -201.257 188.285 -109.32 -186.56 184.359 -123.389 -165.614 180.479 -121.351 -139.49 175.053 -105.454 -150.156 181.369 -30.7953 3.57284 1.04134 1.80201 
158.326 174.716 173.545 175.725 173.658 146.896 174.078 172.193 172.94 168.934 -233.255 179.606 -32.1844 -226.359 185.08 -99.996 -212.003 180.342 -114.227 -191.419 176.753 -113.064 -165.806 172.481 -97.8578 -171.78 181.209 -24.3496 2.30478 0.760829 2.35177 
158.065 173.855 173.644 175.308 173.179 146.111 171.2 170.546 171.822 168.361 -254.473 178.988 -22.4572 -250.076 183.336 -91.2135 -237.348 179.11 -105.812 -217.263 175.961 -105.334 -191.176 172.73 -91.242 -191.841 181.387 -18.3281 2.43579 1.07235 2.237 
157.356 174.236 173.856 174.619 172.443 145.011 170.143 169.531 170.514 167.73 -272.541 178.474 -13.5891 -271.369 182.128 -82.6689 -259.641 178.125 -97.5614 -239.66 175.323 -97.6738 -213.212 173.287 -84.9305 -210.903 181.916 -12.1909 3.0291 1.18549 2.39253 
155.263 174.391 174.006 174.036 171.526 143.174 169.132 168.491 169.175 166.657 -286.978 178.662 -6.7009 -289.829 181.779 -75.2237 -279.038 177.762 -90.3487 -259.205 175.27 -90.7679 -232.765 174.122 -78.8327 -228.109 183.159 -6.23939 3.13015 1.27289 2.82767 
154.048 175.28 174.944 174.181 170.783 142.391 169.719 168.397 168.12 165.058 -298.738 178.434 -0.713359 -304.53 180.637 -68.7971 -294.176 175.955 -83.9862 -274.512 173.295 -84.444 -248.609 173.044 -72.9175 -242.848 183.574 -0.485657 2.86388 1.34273 3.66778 
152.247 176.432 176.126 175.165 172.188 139.577 169.711 169.051 168.846 166.39 -306.366 175.997 3.03692 -317.378 179.717 -62.1774 -307.736 175.697 -78.1366 -288.278 173.558 -78.9471 -262.268 173.928 -68.3028 -255.281 184.025 4.56822 3.10189 1.56546 3.55198 
148.471 177.071 176.802 175.575 171.861 132.788 171.406 169.953 169.17 164.844 -312.423 171.224 7.49734 -335.599 177.945 -51.8208 -327.186 172.957 -68.1487 -307.548 170.982 -69.9581 -282.814 172.264 -59.417 -273.561 183.478 12.9447 3.63841 1.46074 4.83676 
145.481 177.264 177.033 175.612 172.165 130.006 172.471 170.975 169.975 165.005 -317.174 170.939 10.343 -345.221 179.447 -46.9042 -336.915 174.479 -63.8386 -316.821 172.318 -66.5235 -291.657 173.167 -56.6885 -282.215 184.302 16.1863 3.04903 1.08019 4.7702 
143.432 177.282 176.689 175.319 172.051 128.05 173.109 171.242 170.591 164.88 -320.011 168.476 12.5274 -351.841 179.919 -43.3582 -343.746 174.433 -60.3217 -322.546 172.237 -63.6882 -297.338 172.448 -53.9342 -288.672 184.58 18.8208 2.60415 0.564087 5.0676 
141.794 177.018 176.038 174.652 171.811 126.149 173.487 171.105 170.779 164.37 -321.844 167.866 14.5067 -357.488 181.099 -39.6826 -349.327 175.112 -56.6609 -327.378 172.933 -60.4935 -302.256 172.818 -50.659 -294.348 185.679 21.9947 2.31102 0.952799 5.35753 
140.436 176.639 175.549 174.074 171.219 123.86 173.912 171.384 171.291 163.977 -322.699 165.885 16.4393 -361.148 180.507 -37.3803 -352.494 174.613 -54.6103 -330.059 172.033 -58.5435 -304.786 171.603 -48.58 -298.052 185.627 24.0074 1.83462 1.43372 4.91538 
139.439 176.352 175.664 173.975 170.789 123.05 174.055 171.484 171.244 162.52 -324.745 164.901 17.5096 -364.771 180.243 -35.9437 -356.052 174.525 -53.34 -333.703 171.507 -56.9078 -308.716 170.49 -46.1562 -301.542 185.974 25.1774 2.0174 1.51675 4.63373 
139.666 176.207 175.868 174.205 170.784 122.295 174.121 172.137 171.946 162.508 -325.943 164.434 18.3854 -367.25 179.808 -34.9381 -358.278 174.496 -52.7319 -336.139 171.391 -55.9235 -311.169 169.888 -44.8037 -303.99 186.031 26.2297 2.1113 1.36434 4.0324 
143.55 175.442 176.099 174.43 171.883 120.857 174.851 172.864 172.12 161.168 -322.341 162.484 17.1371 -368.312 180.065 -34.4868 -358.66 174.568 -52.5467 -336.438 170.657 -54.9345 -311.911 168.902 -43.0549 -305.423 185.727 27.1973 2.87045 2.1359 4.13849 
146.4 175.067 176.13 174.463 171.803 119.438 175.315 173.38 172.193 159.716 -317.705 160.76 15.8658 -369.216 180.438 -34.1209 -358.945 174.798 -52.529 -336.482 170.017 -54.3343 -312.201 168.008 -41.8473 -306.589 185.324 27.8267 3.53059 3.12756 4.40213 
147.725 175.121 176.481 175.404 171.321 116.191 174.976 173.927 173.57 160.543 -314.386 159.825 16.3468 -369.73 180.069 -34.199 -358.791 174.618 -52.858 -336.67 170.255 -54.6163 -312.223 167.754 -41.8096 -307.69 185.079 28.2739 3.27279 2.57527 3.96379 
149.782 174.984 176.256 175.491 171.693 112.538 174.552 173.805 174.391 162.8 -315.996 160.22 17.6207 -370.448 179.962 -34.6236 -359.775 174.553 -52.8099 -338.161 170.818 -54.8331 -313.512 168.267 -42.5168 -309.133 184.783 28.4048 2.25035 1.52261 3.68302 
146.852 175.038 176.318 175.592 171.66 110.656 174.73 174.116 174.964 163.767 -317.641 160.662 18.8793 -371.158 180.57 -34.7323 -360.495 175.188 -52.8776 -338.969 171.611 -55.02 -314.254 168.89 -42.7427 -309.933 184.817 28.5048 2.03861 1.24346 3.64467 
136.047 174.943 175.924 174.813 171.049 110.038 174.15 173.679 174.591 164.754 -321.424 162.175 21.4505 -371.024 181.1 -34.5352 -359.751 175.305 -52.4496 -337.939 171.654 -54.678 -313.115 169.176 -42.5674 -310.369 184.785 29.4686 1.23899 1.19243 3.72377 
133.56 175.146 176.182 175.116 171.413 110.305 174.479 174.06 175.081 165.817 -323.186 163.121 22.5346 -370.186 181.191 -34.4601 -359.035 175.353 -52.1575 -337.563 172.033 -54.3191 -312.757 169.845 -42.4558 -310.062 184.676 29.9011 1.27492 0.782585 3.82761 
130.685 175.259 176.373 175.283 171.527 109.333 174.679 174.38 175.446 166.63 -323.72 164.394 23.7861 -369.79 181.807 -34.0911 -358.893 175.89 -51.5914 -337.77 172.819 -53.7479 -312.898 170.919 -42.2144 -310.026 184.829 30.3804 1.52491 0.459927 4.0677 
128.404 175.512 176.735 175.679 171.711 108.586 175.095 175.113 176.271 167.743 -324.864 165.689 25.1879 -369.671 182.772 -33.76 -358.942 176.926 -51.2348 -338.091 174.141 -53.3178 -313.174 172.306 -41.9623 -310.29 185.271 30.935 1.73375 0.21968 4.15682 
125.134 175.736 177.231 176.11 171.769 107.756 175.73 176.143 177.237 168.697 -325.907 167.001 26.9416 -369.023 183.542 -33.4438 -358.482 177.929 -51.0235 -337.85 175.405 -53.0783 -312.935 173.803 -41.8527 -309.864 185.428 31.4346 2.29427 0.301608 4.03581 
121.107 175.896 177.49 176.312 171.743 109.786 176.006 176.902 177.057 169.125 -329.085 168.253 28.2464 -368.717 184.136 -32.5419 -357.879 178.92 -50.6938 -337.08 175.952 -52.8547 -312.381 174.621 -41.4052 -310.019 186.302 32.1673 2.59297 0.14661 3.48326 
115.053 175.454 177.175 175.686 170.652 114.316 175.805 176.954 175.981 168.452 -334.459 170.382 30.1692 -368.923 184.875 -31.6753 -357.565 179.943 -50.2925 -336.777 176.384 -52.3326 -311.929 174.964 -40.7272 -310.638 187.314 32.9088 2.40447 0.529038 2.96049 
109.429 175.266 176.719 175.045 169.922 123.281 175.685 176.553 174.739 167.682 -342.482 173.638 32.1965 -370.037 185.661 -30.859 -358.248 180.976 -49.7695 -337.295 177.128 -51.7653 -312.224 175.795 -40.1718 -311.849 188.765 33.6972 2.20868 0.822942 2.57193 
106.854 175.958 176.526 175.547 170.87 135.558 175.501 176.2 175.598 168.036 -348.609 180.269 33.0279 -370.836 187.386 -30.5587 -359.323 182.694 -49.1151 -337.895 179.482 -51.0847 -312.957 177.967 -39.1657 -312.412 190.394 34.8818 2.13129 0.536756 2.64621 
110.01 176.284 176.435 175.666 171.556 136.709 175.731 175.971 175.842 168.478 -350.377 176.655 34.8044 -370.797 188.236 -30.5465 -359.574 183.156 -48.8113 -338.149 180.163 -50.7455 -313.305 178.684 -38.9036 -312.281 190.727 35.2807 2.32479 0.412133 3.00952 
153.988 176.253 176.237 175.244 172.229 134.346 176.323 174.745 175.475 167.736 -350.414 175.909 33.9018 -370.427 192.041 -28.7664 -360.152 184.729 -45.765 -339.462 181.435 -47.4309 -315.111 179.834 -35.8569 -311.542 191.729 37.5043 3.01646 0.255763 4.88876 
158.436 175.86 176.259 175.069 171.831 132.345 176.095 174.454 175.109 166.679 -348.711 175.158 33.1353 -371.202 192.715 -28.2198 -360.712 185.232 -45.2589 -340.059 181.781 -46.7953 -315.899 179.972 -34.9017 -312.185 192.161 37.9246 2.94113 0.344584 4.99572 
158.948 175.718 176.325 175.064 171.497 129.563 175.847 174.408 175.018 166.178 -346.335 174.572 32.4718 -372.236 193.147 -27.4776 -361.78 185.914 -44.5948 -341.235 182.54 -46.0119 -317.132 180.749 -34.0131 -313.085 192.706 38.5144 3.01648 0.498782 4.90645 
158.579 175.928 176.458 175.015 171.37 126.374 175.87 174.391 174.853 165.59 -344.884 173.869 32.4926 -373.697 193.802 -26.7053 -363.604 186.543 -43.6179 -343.224 183.11 -44.829 -319.31 181.252 -32.678 -314.729 193.083 39.3216 3.20903 0.747514 5.17726 
144.684 175.361 175.962 174.399 170.162 122.657 174.381 173.904 173.796 164.679 -345.06 175.013 34.2138 -378.988 193.343 -23.9757 -368.505 187.456 -41.8437 -346.93 183.873 -43.5765 -322.619 182.812 -31.7034 -319.416 194.42 41.0949 2.74528 1.05633 4.37672 
144.207 175.198 175.837 174.431 170.271 122.447 174.144 173.854 173.799 164.883 -345.132 175.054 34.0135 -380.519 193.377 -23.3302 -369.962 187.767 -41.4325 -348.207 184.301 -43.3511 -323.661 183.46 -31.712 -320.701 194.883 41.4553 2.60698 1.14222 4.20269 
143.075 175.021 175.905 174.568 170.106 121.494 174.095 174.124 174.127 164.951 -344.622 174.696 34.1749 -382.006 193.417 -22.5994 -371.22 188.249 -41.0815 -349.329 184.884 -43.2037 -324.431 183.959 -31.727 -321.781 195.093 41.7652 2.27238 1.22562 3.88177 
142.526 174.726 175.836 174.515 169.813 120.434 173.767 174.1 174.009 164.606 -343.461 174.295 33.9729 -383.719 193.661 -21.7509 -372.621 188.696 -40.6386 -350.51 185.305 -42.9822 -325.429 184.273 -31.6059 -322.831 195.343 42.0958 1.9238 1.46277 3.7534 
127.857 172.476 175.257 172.548 165.891 115.66 172.802 174.415 173.873 162.174 -346.646 175.348 38.8039 -387.841 193.593 -17.6887 -377.034 189.327 -37.6351 -356.28 185.353 -40.2127 -330.937 182.669 -29.135 -324.717 192.572 42.4897 2.32143 0.968481 2.88484 
128.037 172.27 174.976 172.267 165.914 117.263 172.622 174.279 173.687 162.2 -348.949 175.795 39.2833 -388.287 194.192 -17.5352 -377.601 189.978 -37.4351 -356.8 185.839 -40.0703 -331.504 183.158 -29.1006 -325.336 192.85 42.653 2.38292 1.03812 2.90133 
129.444 174.519 175.984 173.7 167.888 124.401 174.052 175.503 175.302 165.894 -355.502 178.848 42.778 -387.074 195.979 -16.8553 -376.599 191.101 -36.7752 -356.354 187.48 -39.7439 -330.901 185.384 -29.6986 -323.755 193.651 43.1543 3.31603 0.537314 3.14499 
129.855 175.029 176.348 174.281 168.807 126.156 174.641 175.988 175.895 167.045 -356.136 180.051 43.5718 -385.979 196.09 -16.7406 -375.692 191.408 -36.6666 -355.441 188.055 -40.0196 -329.871 186.095 -30.3681 -322.304 193.568 43.0158 3.47236 0.368761 3.05573 
130.576 175.287 176.208 174.334 169.44 128.574 174.747 175.836 175.759 167.547 -357.39 181.534 44.1466 -384.966 196.133 -17.0422 -374.777 191.463 -36.8078 -354.289 188.183 -40.32 -328.632 186.531 -30.9254 -321.405 193.919 42.9544 3.6057 0.141563 3.09222 
131.91 175.158 176.078 174.316 169.595 129.717 174.66 175.726 175.549 167.546 -356.844 182.133 43.9999 -383.898 196.758 -17.1257 -373.703 191.918 -36.9509 -353.089 188.398 -40.5142 -327.418 186.726 -31.2314 -320.313 194.344 43.0048 3.53442 0.179049 3.16196 
132.799 175.172 176.074 174.568 170.089 130.301 174.628 175.717 175.747 167.794 -355.462 182.105 43.663 -382.325 197.216 -17.593 -372.458 191.936 -37.2278 -351.907 188.189 -40.789 -326.106 186.223 -31.6355 -318.682 194.309 42.699 3.51389 0.0958665 3.30505 
131.977 175.004 176.03 174.506 169.945 130.771 174.545 175.468 175.606 167.609 -354.271 182.377 44.0268 -380.248 197.113 -18.2802 -370.423 191.31 -37.7945 -349.958 187.411 -41.3596 -324.095 185.335 -32.2671 -316.574 193.882 42.026 3.59935 0.0625393 3.52347 
130.956 175.103 176.081 174.549 169.974 131.619 174.817 175.698 175.874 168.116 -353.56 183.32 44.6082 -378.514 197.156 -18.6316 -368.891 191.426 -38.1123 -348.476 187.733 -41.8375 -322.502 185.865 -32.9784 -314.798 193.558 41.5543 4.0066 0.194709 3.54226 
127.901 174.808 176.018 174.259 169.427 133.422 174.648 175.614 175.667 167.969 -353.182 184.432 45.4955 -376.755 196.62 -19.1774 -366.854 190.754 -38.6262 -346.216 187.397 -42.462 -320.187 185.913 -33.5734 -313.15 193.265 41.0805 4.31189 0.378474 3.70282 
129.062 175.182 176.165 174.629 169.934 135.42 175.162 176.056 176.281 169 -353.812 185.648 46.3832 -375.096 196.495 -19.6766 -365.196 190.867 -39.0327 -344.505 187.902 -43.0097 -318.449 186.669 -34.1953 -311.659 193.217 40.7888 4.53543 0.617508 3.65997 
133.846 175.779 176.247 174.876 170.852 137.217 175.68 176.174 176.443 169.933 -354.751 187.07 46.3059 -373.868 196.79 -20.1371 -364.44 191.401 -39.2873 -343.606 188.588 -43.466 -317.524 187.487 -34.93 -310.443 193.412 40.4401 4.54224 0.68945 3.76033 
136.581 175.762 176.167 174.896 171.089 140.137 175.777 176.206 176.531 170.267 -355.855 188.294 47.1451 -372.992 197.149 -20.1789 -363.712 191.908 -39.3906 -342.748 189.032 -43.7434 -316.535 187.875 -35.371 -309.269 193.657 40.1574 4.53735 0.753866 3.65961 
137.704 175.466 175.991 174.677 170.878 142.381 175.796 176.137 176.378 169.94 -355.62 188.758 48.2783 -371.577 197.416 -20.062 -362.297 192.173 -39.4947 -341.177 189.032 -43.9962 -314.827 187.574 -35.7363 -307.489 193.489 39.8504 4.34474 0.760284 3.62516 
137.694 175.235 175.871 174.494 170.749 144.065 175.764 176.115 176.375 169.702 -354.767 188.951 49.2281 -369.835 197.391 -20.2201 -360.499 192.103 -39.7743 -339.271 188.793 -44.303 -312.847 187.077 -36.0327 -305.653 193.18 39.5537 4.1801 0.797728 3.63162 
137.998 175.004 175.569 174.185 170.665 145.4 175.563 175.899 176.221 169.55 -353.83 188.708 49.8664 -367.847 197.176 -20.6937 -358.409 191.931 -40.2308 -336.973 188.605 -44.8077 -310.5 186.744 -36.4513 -303.685 192.891 39.1229 3.97466 0.925938 3.69895 
141.18 175.506 175.038 173.913 171.169 143.418 175.672 175.443 175.706 169.966 -351.906 190.088 50.2941 -365.841 198.159 -20.6992 -356.389 192.588 -40.3669 -335.374 189.435 -45.3437 -308.535 187.244 -37.5501 -300.933 193.02 38.309 3.79697 0.783613 4.00035 
144.329 175.721 175.05 174.088 171.65 143.498 175.832 175.318 175.765 170.394 -348.786 190.59 49.3723 -361.506 198.468 -21.8829 -352.171 192.319 -41.2752 -330.937 189.086 -46.2046 -304.061 186.875 -38.3693 -296.906 193.283 37.6663 3.81126 0.940002 4.37306 
145.863 175.813 175.055 174.106 171.983 142.776 175.911 175.703 176.124 171.187 -347.155 190.953 49.1729 -359.753 198.975 -22.0979 -350.628 193.154 -41.5637 -329.221 189.825 -46.5569 -302.133 187.442 -38.9455 -294.918 193.359 37.2838 3.92425 1.05443 4.15976 
147.098 176.057 175.256 174.508 172.374 142.792 176.393 175.944 176.223 171.479 -346.678 192.645 49.3327 -359.514 200.72 -21.8541 -350.088 194.999 -41.7998 -328.652 191.819 -47.1151 -301.217 188.905 -39.7508 -293.919 194.134 36.9478 3.70275 1.17568 4.12026 
