168.508 154.288 164.464 160.829 141.388 158.587 134.856 145.349 148.289 121.888 264.772 163.681 8.61792 293.82 165.256 -15.6819 311.493 155.89 -13.5599 326.537 152.194 5.32685 315.488 146.888 40.0979 280.544 193.207 55.881 18.3583 5.22194 2.98213 
169.098 157.613 161.515 159.992 139.926 159.866 138.649 145.983 148.794 121.2 262.575 163.968 7.40634 294.885 165.507 -17.2874 312.022 156.185 -14.0489 326.57 153.288 5.19969 314.769 147.678 40.4175 279.16 193.337 55.4771 19.1553 5.08332 2.11915 
168.673 162.723 160.614 161.141 149.94 160.105 140.694 146.762 148.561 125.453 261.024 165.303 6.28273 294.554 166.557 -19.0225 311.91 157.181 -15.3041 325.722 154.654 4.6847 315.379 149.317 38.2014 277.405 194.336 54.8897 16.4438 4.73735 1.59031 
168.459 163.906 161.421 162.69 152.01 159.95 141.579 148.785 150.012 125.028 261.2 166.441 5.98668 294.624 167.667 -19.806 313.439 158.813 -16.3844 326.477 156.182 3.94699 314.699 150.759 37.2921 276.731 194.959 54.56 17.0841 4.31052 2.06522 
168.514 163.341 162.203 164.144 155.046 160.136 141.21 150.323 151.708 126.447 260.379 167.169 5.05793 293.906 168.079 -20.2666 314.391 160.128 -17.5093 327.451 157.604 3.13764 315.091 151.732 36.2524 275.828 195.352 53.9514 17.0109 4.53991 3.47701 
168.762 163.266 162.269 163.497 154.233 160.653 142.177 150.717 151.526 126.952 258.657 168.069 3.62881 293.62 168.699 -21.1315 313.525 160.391 -18.1461 326.045 157.854 2.70669 313.951 152.727 35.5462 274.472 195.628 53.4627 15.9906 4.30714 2.92329 
168.888 164.026 162.577 163.92 156.439 160.986 143.153 151.096 152.065 129.304 256.642 168.394 3.05294 292.488 169.147 -21.6401 312.105 160.583 -18.3826 324.669 158.235 2.63283 313.266 153.371 35.1034 272.705 195.838 53.2836 14.9046 4.47187 2.48696 
168.858 164.476 162.782 164.343 157.567 160.996 143.879 151.228 151.928 130.618 255.077 168.699 2.62624 290.893 169.305 -22.2968 310.135 160.348 -18.7278 322.567 158.074 2.46418 311.979 154.037 34.5592 270.941 196.038 53.0191 13.7016 4.38465 1.90544 
168.724 165.308 162.637 164.41 159.228 160.869 145.709 151.364 152.305 129.825 253.687 169.043 2.25047 290.388 170.37 -23.5452 309.391 161.189 -19.22 321.618 158.758 2.15814 310.349 155.051 34.4291 269.159 196.256 52.6439 13.9868 4.26667 1.14768 
169.067 166.149 162.927 164.591 160.986 161.206 147.581 152.165 153.727 129.207 251.562 169.116 1.52252 290.392 171.601 -24.6262 309.72 162.888 -19.7155 321.943 160.406 1.89769 309.249 156.021 34.6615 267.242 196.256 52.2596 15.1819 4.3739 1.01184 
169.463 166.674 162.844 164.29 170.658 161.88 149.106 152.493 154.114 131.902 249.04 169.251 0.814155 289.956 172.547 -25.387 309.081 163.941 -19.9988 321.585 161.68 1.79537 309.982 156.966 34.4073 265.35 196.491 51.9793 13.7117 4.67441 0.535745 
169.515 165.571 162.839 164.436 175.811 162.323 148.461 153.063 154.726 136.785 247.221 169.31 0.292594 287.889 172.414 -25.7758 307.13 163.881 -20.762 320.236 162.18 1.07481 310.659 157.932 33.117 263.473 196.748 51.3886 11.1755 5.19946 0.610662 
169.017 165.11 164.12 165.534 174.27 162.13 149.739 155.236 157.151 136.77 246.1 169.3 -0.151807 288.188 173.831 -26.7753 308.823 166.647 -21.8434 321.69 164.773 0.154351 310.907 159.671 32.6997 261.965 197.098 50.8494 11.4236 5.1267 1.78714 
168.781 164.791 163.816 165.61 174.27 161.848 151.184 155.595 157.726 138.969 244.183 169.898 -0.98125 288.857 176.003 -27.9281 309.664 169.242 -22.4954 322.256 166.987 -0.328979 311.664 162.286 31.7763 260.478 197.632 50.3046 9.89142 4.90609 1.60351 
168.742 164.701 164.739 165.055 174.27 161.987 150.696 155.473 156.909 143.584 242.47 170.98 -1.92827 286.928 177.125 -28.8951 307.65 169.669 -23.2207 320.244 167.286 -1.03417 311.52 163.828 29.9952 258.824 198.31 49.5873 7.17534 4.93197 1.36414 
168.79 163.216 163.242 164.043 174.27 162.063 149.611 154.199 155.926 146.976 239.599 171.791 -2.88737 283.901 177.481 -29.4007 304.068 169.349 -23.6986 317.385 167.221 -1.66513 310.536 164.776 28.6 256.722 198.938 48.9515 4.98433 5.45604 0.95196 
168.843 162.903 162.12 163.583 174.27 161.863 149.611 152.964 155.227 149.574 237.598 173.061 -4.12361 282.186 179.176 -30.5294 301.627 170.303 -24.4737 315.222 168.056 -2.58959 309.326 165.864 27.1799 254.519 199.535 47.9527 3.76682 5.67073 0.771018 
169.378 162.994 161.022 163.298 174.27 162.223 150.855 152.441 155.22 152.665 234.299 174.014 -5.64124 280.827 180.967 -31.5832 299.342 171.384 -24.9444 313.186 169.061 -3.06478 307.956 167.112 26.4297 251.611 199.762 47.179 2.4973 5.95208 1.5202 
169.271 162.008 160.699 162.38 174.27 161.903 149.43 151.576 154.049 150.801 233.186 174.665 -6.98989 278.831 181.498 -32.046 296.744 171.344 -25.8818 310.318 168.985 -4.23442 305.265 167.027 24.6323 249.968 200.498 46.0082 2.56398 5.80755 1.67953 
169.037 160.785 160.392 161.67 174.27 161.538 148.548 150.5 152.213 148.488 230.468 175.479 -8.74288 275.524 182.832 -32.9427 292.525 171.659 -27.1463 305.432 168.751 -5.80866 300.337 167.098 22.2208 246.718 201.381 44.5053 2.93472 5.23041 2.44127 
169.188 160.672 159.835 161.709 176.86 161.425 148.493 149.658 151.535 146.483 226.797 176.111 -10.6187 272.17 183.846 -34.5364 288.73 172.42 -28.526 301.901 169.482 -7.32894 296.603 167.226 20.6357 243.316 202.183 42.8886 3.40751 5.37039 2.85779 
169.103 160.141 159.559 161.801 169.388 161.219 147.644 147.948 149.777 142.349 222.232 176.514 -12.0231 266.829 183.517 -35.6511 282.115 171.26 -29.6176 295.388 168.395 -8.84241 289.773 166.331 18.9362 239.042 202.877 41.4657 4.54604 5.24656 3.87846 
169.53 160.891 161.332 162.912 160.315 161.287 148.305 150.038 151.141 144.158 211.415 176.741 -15.6857 254.874 183.874 -39.8569 271.633 172.204 -34.0895 284.708 168.961 -13.5085 280.665 167.127 13.9183 228.615 203.44 38.0341 2.8486 4.85828 2.57982 
169.519 159.884 160.728 162.494 158.485 161.538 147.968 149.743 150.68 143.668 204.45 176.15 -17.6375 247.873 183.243 -41.8444 264.753 171.338 -35.8431 278.081 168.322 -15.3173 274.996 166.942 12.0982 222.379 203.257 36.1626 2.0281 4.90967 2.8367 
169.707 160.021 160.009 161.803 157.453 161.672 148.747 149.261 150.432 143.598 197.108 176.046 -19.8275 240.838 183.537 -45.0365 257.688 170.965 -38.1453 271.421 168.138 -17.765 269.337 167.206 9.63129 215.909 203.126 34.0274 1.11664 5.07566 3.73148 
169.827 160.431 159.623 161.435 156.967 161.785 150.402 150.076 150.896 143.98 189.13 175.634 -22.6715 234.052 184.288 -49.164 251.181 171.451 -41.5701 264.578 168.384 -21.1974 262.884 167.741 6.24261 208.814 202.576 31.4076 0.996081 4.59644 4.46406 
169.88 161.255 159.304 161.433 157.064 162.198 151.63 150.648 152.11 145.782 179.948 174.35 -25.6718 225.381 183.478 -53.1229 242.978 171.041 -45.2109 257.258 168.608 -24.8869 256.455 168.282 2.95927 200.673 201.582 28.5074 0.912188 5.16576 4.57816 
170.191 161.578 158.869 161.295 156.841 162.813 152.901 150.621 152.759 147.803 169.25 172.867 -28.4364 215.384 182.059 -56.9583 233.748 169.974 -48.4726 249.536 168.86 -28.0531 250.319 169.217 0.661724 191.538 200.3 25.6403 2.5929 6.35955 4.93306 
170.321 162.908 159.457 162.586 159.723 162.909 155.07 151.674 154.126 151.266 158.105 170.975 -31.5621 205.337 180.307 -61.7747 224.672 169.104 -52.9911 241.197 168.77 -32.6243 243.451 170.105 -3.39794 181.811 198.602 22.1264 4.44272 6.72337 4.97304 
170.339 162.521 159.563 162.548 159.874 162.968 153.638 152.308 155.168 153.316 145.716 168.105 -34.5573 191.115 176.595 -66.2522 213.544 167.566 -57.9017 231.293 168.554 -37.7773 235.309 170.476 -8.01063 171.384 196.509 18.3909 6.10445 7.57255 4.73005 
170.868 162.744 159.812 162.18 159.227 163.404 153.503 152.596 155.214 153.801 132.922 165.82 -37.8186 177.937 174.108 -70.8891 202.496 166.83 -62.7591 220.877 168.803 -42.9 226.335 171.318 -12.5531 160.912 195.263 14.6349 7.31225 7.89395 5.48903 
171.677 163.452 160.303 161.819 158.715 163.928 153.228 152.255 154.532 153.024 119.758 164.52 -41.5478 163.682 171.429 -75.3332 189.442 165.125 -67.614 208.157 167.866 -48.4048 215.027 171.28 -17.9268 149.837 194.201 10.7319 8.16372 7.94163 6.10289 
171.794 163.659 160.596 161.921 160.164 163.902 153.354 152.106 154.551 153.479 106.17 162.929 -45.2792 149.11 169.571 -79.8628 174.803 163.661 -72.9263 193.885 166.612 -54.5405 202.405 171.001 -24.2985 137.592 193.177 6.51867 8.97169 7.7362 5.80139 
172.246 163.944 161.711 163.061 162.498 164.038 153.42 152.497 154.338 153.53 91.4268 161.269 -48.7663 133.007 167.099 -84.1092 158.538 161.809 -78.5131 177.55 164.423 -60.8571 187.641 169.563 -31.1239 124.238 192.073 2.11971 9.15234 6.88659 5.2656 
173.156 164.607 162.922 165.027 163.71 164.609 153.831 152.5 154.472 153.627 75.7802 159.083 -53.1269 115.488 163.012 -88.4407 140.51 158.573 -84.5038 159.271 161.275 -67.8825 170.499 167.439 -39.2692 109.592 190.133 -3.33093 8.95854 6.10965 4.47712 
173.806 166.717 164.001 166.075 165.009 164.703 154.337 151.753 153.579 153.157 58.7424 156.975 -57.1254 97.0462 158.887 -91.9992 121.304 155.041 -89.4226 139.468 158.173 -73.9412 151.571 166.362 -46.9991 93.1621 187.862 -8.52597 9.35709 5.24514 3.58887 
174.43 167.153 165.072 164.366 167.407 164.415 151.632 150.192 149.229 148.362 40.5253 157.727 -60.853 77.0687 157.18 -94.553 100.319 152.987 -93.4212 116.821 154.612 -78.1005 128.82 163.655 -53.4019 75.6522 187.299 -13.149 8.29799 2.77391 2.54426 
175.576 165.83 166.328 165.039 170.713 164.609 149.12 149.693 147.763 144.878 19.8015 157.796 -63.1945 54.86 154.702 -96.0632 77.7799 150.808 -96.6666 93.4382 151.269 -81.861 104.367 159.706 -58.6299 56.4807 185.622 -16.6517 6.21439 1.01943 2.05856 
175.66 163.569 165.048 163.681 166.496 163.931 147.836 149.057 146.803 141.887 -1.9305 156.702 -63.4834 30.1424 153.25 -97.369 52.8547 149.101 -99.3111 68.5558 148.105 -85.1445 79.2544 155.038 -62.7411 35.9528 183.905 -19.1207 4.08625 0.596239 1.81137 
174.027 162.242 163.069 162.68 165.306 162.468 146.88 148.676 146.833 141.857 -24.8058 156.301 -62.1277 3.8174 152.943 -97.7451 26.426 149.094 -101.787 42.9687 146.908 -88.7316 54.6054 152.185 -67.1162 14.6894 182.305 -20.6272 2.97564 1.41936 1.78108 
173.01 163.651 165.98 162.375 165.211 161.56 148.114 155.796 153.236 148.63 -50.0821 157.716 -58.5156 -24.5635 152.335 -96.8219 -1.45935 151.411 -105.927 16.3086 147.374 -93.5936 29.1309 149.75 -72.072 -7.30639 179.412 -20.0767 2.16367 2.1559 4.59092 
172.619 171.489 170.972 169.19 168.752 157.635 158.938 165.343 164.407 158.574 -78.7389 161.589 -51.9902 -56.7372 156.822 -97.8321 -33.7927 156.747 -108.892 -13.2043 152.784 -98.8279 2.74189 151.246 -76.685 -32.4349 179.142 -18.2627 1.41439 1.90961 4.90976 
168.186 170.053 166.775 169.539 170.723 153.789 166.487 169.426 170.515 166.352 -104.257 161.235 -44.5312 -88.6783 157.588 -96.4525 -65.7629 156.29 -109.062 -42.7465 152.888 -102.226 -22.0407 149.699 -81.1554 -55.663 175.474 -16.7327 3.68206 2.74615 4.55008 
168.34 169.71 167.455 169.065 171.235 155.128 168.473 170.934 170.104 165.9 -132.35 162.37 -37.8396 -121.754 161.589 -93.4404 -98.9122 159.208 -108.093 -74.0404 153.026 -103.127 -50.4674 146.904 -83.5341 -79.3475 174.57 -15.9853 5.94801 4.24845 5.07239 
163.804 166.92 165.293 166.683 167.917 153.876 166.371 168.503 168.666 165.453 -157.07 161.546 -28.283 -151.249 160.772 -85.955 -130.64 158.251 -102.397 -105.363 152.416 -100.568 -79.246 145.938 -83.5354 -101.41 171.553 -12.8877 6.31133 4.19065 4.49275 
161.027 165.204 166.302 166.652 166.99 154.258 163.12 167.472 168.425 166.634 -182.735 161.909 -16.5212 -180.84 160.002 -76.1757 -163.661 159.945 -94.7493 -139.1 155.471 -95.814 -110.173 149.563 -82.1908 -124.31 170.359 -8.46599 6.52611 3.45033 4.5223 
161.48 164.908 168.653 168.894 167.97 155.573 160.661 166.638 168.322 167.068 -204.799 161.071 -2.78851 -209.056 157.449 -62.7124 -195.228 159.851 -83.388 -170.883 156.811 -87.506 -140.754 152.306 -77.5871 -144.78 168.616 -2.12407 5.76198 3.56046 5.60393 
161.82 166.287 170.607 171.113 170.262 156.025 159.947 166.408 168.609 168.738 -225.121 159.744 10.6697 -235.852 156.196 -48.4763 -225.526 160.716 -70.4351 -201.407 158.886 -77.4649 -170.107 156.11 -71.5787 -164.745 168.045 5.01538 6.10185 3.94178 6.43855 
161.098 167.256 171.873 172.228 171 154.929 158.617 165.909 168.17 168.962 -241.031 156.436 23.8593 -257.632 153.391 -33.3591 -250.66 160.386 -55.9616 -227.349 159.982 -65.2906 -196.026 159.122 -62.9159 -182.318 167.248 12.9531 6.29847 4.02751 7.68721 
158.283 165.048 171.429 169.607 167.617 154.057 151.342 161.424 161.675 163.938 -262.442 147.209 43.6274 -287.516 144.881 -4.42942 -286.346 154.245 -27.6365 -264.659 153.945 -40.5888 -233.909 156.15 -44.8627 -207.215 163.107 25.2513 7.71909 3.89353 10.1961 
155.795 166.118 171.975 170.427 168.379 152.092 151.893 163.54 163.296 164.429 -271.361 143.205 52.7989 -299.814 142.092 6.12474 -300.686 153.224 -17.8188 -279.734 153.373 -32.118 -249.785 155.859 -37.0363 -219.139 161.343 31.6394 7.18181 3.94208 11.524 
154.971 169.84 174.518 171.825 169.239 151.377 154.571 165.614 164.711 164.336 -277.088 140.586 58.8287 -306.92 139.562 14.2363 -308.42 151.319 -10.5778 -288.733 151.563 -24.6445 -260.032 153.624 -29.6428 -227.036 159.737 36.9584 6.46721 3.3349 12.8102 
152.714 171.861 176.8 173.033 170.149 150.633 154.926 166.323 164.848 163.305 -280.099 136.826 63.1136 -310.974 137.503 20.8571 -312.785 148.036 -4.68753 -293.684 147.315 -18.4297 -266.336 148.471 -23.1054 -232.282 157.464 41.1604 5.55133 2.7606 13.1733 
149.002 170.63 177.254 173.965 169.434 146.669 157.204 167.682 164.949 161.703 -284.387 134.102 64.7422 -319.167 138.159 25.2014 -320.239 146.688 -1.29376 -300.932 144.228 -14.7655 -274.188 144.421 -18.7633 -240.052 157.111 44.0449 4.2797 2.16092 12.1219 
149.621 169.884 177.105 173.404 167.262 146.587 157.39 167.353 162.618 157.038 -286.786 130.285 66.0318 -323.137 136.811 29.6077 -323.92 143.983 2.06636 -304.619 139.354 -10.8993 -278.16 137.847 -14.5643 -244.182 155.747 46.2422 1.89262 2.11966 12.0202 
148.836 168.858 174.569 172.809 166.846 146.603 154.87 165.605 159.318 152.171 -287.638 125.971 66.6252 -325.526 134.949 35.4677 -325.92 141.222 5.48851 -306.256 134.719 -7.08284 -279.832 132.128 -10.3368 -247.426 155.06 48.0486 0.448748 3.28637 13.582 
148.329 159.981 168.89 169.931 164.363 146.934 147.825 161.485 154.839 145.506 -288.532 121.562 66.0652 -327.083 132.784 39.7914 -328.146 138.382 8.51212 -307.815 130.672 -4.43896 -280.096 126.486 -7.71164 -250.77 154.672 48.9353 3.41121 4.55262 15.1816 
148.935 154.028 164.045 169.216 164.538 147.423 143.561 158.84 152.966 140.668 -289.837 118.733 65.5805 -329.059 131.928 42.5326 -330.591 137.268 10.6151 -309.665 128.569 -3.036 -280.359 122.503 -6.0122 -253.674 154.188 49.3766 6.80695 5.6796 16.3061 
150.037 155.795 160.384 167.04 165.636 148.177 140.873 156.662 152.041 138.562 -291.987 117.798 65.0351 -331.764 131.907 45.6077 -333.318 137.259 12.3303 -311.648 127.669 -2.08722 -280.562 120.514 -5.34841 -256.778 154.734 50.1 9.59338 6.96344 17.9521 
149.256 153.653 159.674 166.665 167.616 148.186 139.734 155.79 153.168 138.413 -292.187 116.907 64.0552 -332.998 131.759 46.4143 -334.583 136.893 12.7409 -312.487 127.172 -2.62532 -279.879 119.001 -5.78502 -258.19 154.55 50.2743 11.806 7.64613 18.4064 
148.53 158.282 160.25 170.174 168.763 147.9 148.025 155.284 154.851 139.98 -290.368 115.197 63.367 -336.559 132.765 44.5568 -334.419 135.663 12.5248 -313.032 126.189 -2.29017 -278.436 117.286 -6.48591 -258.245 153.853 50.2568 13.7245 6.89365 15.2457 
147.125 158.798 161.225 175.346 168.698 145.91 152.279 154.632 157.582 141.322 -287.574 114.115 61.4502 -337.983 133.358 41.889 -333.482 134.039 11.6201 -313.027 125.389 -2.93124 -276.922 115.578 -7.07798 -257.451 152.712 49.7219 15.1257 5.75415 12.5239 
143.617 157.179 161.829 164.654 168.157 140.666 154.93 152.019 164.079 139.949 -283.693 114.473 57.1446 -339.729 136.051 36.4823 -332.635 132.811 10.0664 -313.393 125.886 -4.79857 -276.262 113.966 -5.77938 -256.523 151.215 48.4591 16.0874 4.38978 8.10034 
144.414 154.108 161.274 160.773 164.579 138.357 153.881 150.872 166.115 139.087 -281.769 112.773 55.2093 -338.715 138.261 33.3912 -331.322 132.729 8.64049 -312.708 125.007 -5.71237 -276.428 113.241 -4.07202 -255.745 150.725 47.8947 13.7739 4.14511 6.90276 
144.384 150.302 163.253 165.608 164.914 138.426 147.88 152.125 162.462 142.158 -284.392 112.907 54.6057 -338.497 141.883 31.1183 -330.699 134.395 4.97859 -310.494 124.146 -8.39751 -277.941 114.299 -4.53188 -256.361 151.054 47.1493 8.65157 5.38683 8.57414 
148.802 155.579 162.706 166.613 162.299 135.963 146.457 151.493 161.85 148.746 -285.815 115.576 52.7367 -338.392 140.017 30.9709 -330.846 134.593 4.0828 -309.969 125.495 -10.4167 -277.119 116.417 -9.55341 -256.969 151.358 46.7719 8.41677 6.10681 9.33526 
145.771 151.729 161.723 166.293 162.576 135.331 145.6 150.37 161.504 152.276 -287.669 118.157 52.8035 -337.4 138.592 30.2172 -330.728 133.938 3.94922 -309.843 127.391 -11.9294 -276.654 118.587 -13.1458 -257.414 151.624 46.5085 9.32629 6.61965 8.44067 
138.375 155.804 163.79 165.893 162.614 132.95 147.222 151.443 162.998 153.822 -286.338 119.362 52.6037 -336.44 137.354 28.344 -329.618 132.683 2.77057 -309.203 128.016 -13.0259 -274.998 118.9 -15.4831 -256.724 151.379 46.2187 10.8538 6.33799 7.48568 
134.186 155.58 163.663 164.854 162.631 133.123 147.124 151.776 162.055 153.886 -287.343 121.334 53.5044 -335.389 136.069 28.1651 -328.758 131.876 1.98706 -307.964 127.719 -13.6603 -273.583 119.29 -16.9957 -256.354 151.324 45.9649 11.3454 6.34524 7.96815 
136.418 161.382 164.317 161.365 162.53 133.538 147.199 152.849 161.721 154.916 -286.518 120.44 52.9117 -333.853 135.985 26.2879 -326.468 131.148 0.487205 -305.731 125.806 -14.2138 -271.25 117.584 -17.1585 -255.095 151.102 45.6227 11.4329 5.79908 7.92846 
136.729 161.817 165.537 161.59 162.307 135.272 145.348 155.431 162.888 153.521 -286.786 119.826 53.4671 -332.388 134.897 27.1657 -324.96 131.136 -1.21942 -304.168 125.112 -15.2304 -269.544 116.05 -16.6882 -254.054 151.04 45.177 11.4681 5.43997 10.9121 
139.117 163.42 166.365 161.878 161.571 137.331 143.733 157.388 163.53 152.153 -287.855 119.493 54.5734 -330.877 134.273 27.665 -323.834 131.501 -2.48951 -302.953 124.773 -15.9907 -268.737 115.091 -15.8021 -253.314 151.342 44.873 10.9896 5.29786 13.2644 
139.808 163.747 166.905 162.724 160.545 139.382 143.477 159.153 162.185 150.289 -289.072 119.749 55.0857 -330.038 133.43 28.3646 -323.492 132.276 -4.02197 -301.898 124.834 -16.6773 -268.335 114.979 -15.3235 -253.194 152.007 44.5965 10.5588 5.20936 16.0446 
140.407 164.571 167.565 163.812 160.218 141.147 142.424 160.579 161.156 149.835 -288.905 119.368 55.3317 -327.815 132.419 29.378 -322.04 132.679 -5.33842 -299.825 124.516 -17.238 -266.925 114.513 -15.1316 -252.009 152.329 44.3623 10.1643 5.30435 19.1226 
139.358 167.77 167.135 163.369 159.532 144.123 142.749 160.661 159.65 148.749 -290.32 120.493 56.1391 -326.809 132.025 31.5436 -321.731 133.626 -5.65199 -298.609 125.194 -17.8269 -266.52 115.275 -15.3076 -251.536 152.985 44.0136 9.68544 6.05123 22.2156 
139.634 168.637 165.997 162.46 158.818 146.55 141.524 160.449 157.983 148.166 -291.446 121.718 57.0229 -325.31 131.557 32.39 -321.767 134.725 -5.96305 -297.814 126.104 -18.3897 -266.23 116.225 -15.9949 -251.099 153.534 43.8121 9.39343 6.6818 24.0241 
140.556 168.061 165.561 162.777 158.077 147.367 142.014 160.912 157.866 148.242 -291.498 122.905 57.5605 -324.318 132.088 31.9256 -321.507 136.186 -6.34195 -297.278 127.615 -18.8697 -266.153 117.379 -16.4133 -250.302 154.063 43.6445 9.10401 6.84138 24.337 
143.772 174.764 165.411 164.311 160.784 147.365 145.874 161.046 158.428 149.982 -292.629 124.617 58.1186 -326.503 134.272 30.6043 -322.898 137.87 -6.64885 -299.088 130.122 -19.4582 -268.338 119.964 -17.6972 -251.015 155.323 43.6457 8.72227 6.38437 22.0499 
150.79 174.27 164.712 163.772 162.559 149.616 148.019 160.35 157.921 152.52 -294.325 129.665 56.9197 -325.807 134.357 28.8621 -322.512 138.314 -7.02845 -298.713 131.568 -20.0476 -267.408 123.543 -20.4238 -250.434 155.576 43.3318 8.21112 6.14835 20.2777 
153.351 174.27 163.478 162.692 162.987 152.147 145.564 159.765 157.383 152.698 -295.405 132.736 58.3507 -323.64 133.861 27.5518 -321.722 138.803 -7.44408 -297.862 132.532 -20.5523 -266.531 125.666 -21.8324 -249.429 155.401 42.9617 7.92324 6.04804 19.5771 
155.892 174.27 163.138 162.133 164.813 156.499 150.411 158.063 157.069 153.478 -297.297 136.449 62.5798 -323.332 134.964 26.2092 -321.394 139.556 -6.92502 -298.226 134.508 -20.7155 -267.214 129.702 -23.616 -248.465 155.898 42.3924 7.23279 5.67383 17.1493 
156.691 174.27 162.942 162.364 165.334 158.029 149.492 157.548 157.263 153.71 -299.298 138.556 64.7238 -324.363 135.525 26.2513 -323.071 140.958 -6.5508 -300.205 136.368 -20.7837 -269.383 132.149 -24.2352 -249.552 156.888 42.3056 6.9807 5.59765 16.9941 
152.053 142.242 166.882 166.209 167.049 152.023 161.287 161.109 161.58 156.026 -298.598 141.422 62.7439 -329.654 141.371 22.93 -323.73 143.466 -7.60145 -300.782 138.591 -21.5755 -269.614 133.874 -23.611 -250.505 160.555 44.1801 6.84819 5.5923 12.3017 
153.355 143.189 166.103 164.588 165.928 154.493 167.353 160.415 160.203 154.947 -298.792 141.174 63.8317 -329.365 141.929 22.3724 -322.218 142.638 -7.2298 -299.053 137.288 -20.6341 -267.705 132.983 -22.8165 -249.685 160.165 44.4625 7.17158 5.49843 11.2306 
155.524 168.607 164.684 163.16 164.982 157.203 176.022 159.303 158.625 153.168 -299.022 139.912 66.4502 -330.38 143.462 22.6987 -321.491 142.418 -5.46825 -298.271 136.571 -18.342 -266.743 132.148 -20.477 -249.303 159.991 45.7397 7.364 5.3656 9.78692 
153.875 163.275 165.52 164.464 165.784 155.451 174.174 159.922 159.35 153.683 -299.107 139.712 66.3929 -331.135 143.711 23.3025 -322.749 143.16 -4.92346 -299.821 137.263 -17.7452 -268.652 132.435 -19.5337 -250.197 160.445 46.3075 6.80897 5.11634 9.83639 
154.579 164.45 168.162 167.25 167.837 150.637 161.724 161.826 160.166 153.726 -296.108 137.598 63.1884 -329.138 142.668 20.7448 -323.019 140.192 -2.93323 -300.356 132.884 -14.184 -269.313 128.357 -14.381 -250.352 160.008 48.7303 6.05809 4.74444 4.38418 
153.416 166.013 168.787 167.766 168.294 149 161.855 162.664 160.803 153.947 -294.414 136.705 62.3169 -328.004 142.078 19.5861 -321.88 139.039 -3.2085 -299.125 131.583 -13.9488 -268.104 127.181 -13.4304 -249.788 159.677 49.1708 6.00088 4.74482 3.44547 
153.687 169.413 167.38 167.885 167.489 149.518 160.715 161.924 159.214 153.326 -294.734 139.091 67.6294 -325.085 144.19 20.0919 -318.734 139.186 -0.120107 -296.397 130.576 -9.57936 -267.626 127.099 -7.34401 -248.157 161.469 53.4756 3.07632 4.44514 1.79254 
152.629 169.485 167.501 168.145 167.642 148.594 161.044 162.119 159.566 153.821 -293.137 139.001 67.7792 -324.679 145.201 21.1599 -318.622 140.269 0.923457 -296.551 131.678 -8.81375 -267.842 128.029 -6.8897 -247.285 161.735 54.1037 2.87008 4.2684 1.85413 
