163.414 174.27 176.896 174.87 174.681 177.819 177.983 175.272 178.246 177.078 254.443 179.769 0.898795 272.091 165.225 -45.2126 288.092 171.332 -53.3081 305.652 187.937 -39.5603 329.704 195.28 3.60046 245.201 189.275 33.921 22.6784 8.99874 7.68628 
145.623 174.27 176.625 176.633 171.218 159.486 177.989 174.912 178.849 174.916 251.903 179.869 -0.653767 269.545 165.521 -43.4769 288.481 171.108 -53.7527 308.72 184.459 -37.8544 325.847 184.022 2.79588 244.963 190.81 32.1934 17.4119 10.0831 10.3753 
146.379 174.27 177.262 174.62 165.418 142.545 177.988 175.555 178.161 170.593 254.943 181.738 1.36947 269.723 164.636 -43.3664 287.144 170.482 -54.8026 306.348 181.972 -39.2967 314.587 182.481 -1.83315 244.596 191.287 30.9703 9.47866 9.14784 12.7173 
146.562 174.27 177.453 174.645 168.689 140.668 177.987 176.023 178.169 175.396 247.932 179.524 -2.8042 266.934 165.868 -46.0426 286.284 171.111 -55.6537 306.553 181.344 -40.017 307.184 182.007 -4.22744 243.89 191.831 29.8148 2.03034 9.5427 11.4398 
171.562 174.27 176.101 174.559 173.093 140.985 176.938 174.91 178.141 177.164 237.31 177.653 -10.568 261.454 168.424 -47.6173 287.013 172.061 -56.1426 306.723 181.319 -39.7492 301.383 180.988 -4.83437 243.919 193.118 28.4704 4.83472 9.57182 10.3024 
171.021 174.27 174.094 174.492 159.282 155.297 141.797 173.449 178.12 171.528 225.636 173.685 -19.1985 256.139 161.834 -41.2518 287.096 172.836 -56.9529 306.605 182.857 -40.2123 300.079 179.385 -5.07223 243.996 194.288 27.0015 6.79029 10.5295 21.7385 
173.973 174.27 172.659 177.321 156.958 165.282 121.023 171.985 179.14 170.562 217.018 168.835 -25.8407 253.333 160.31 -36.4976 288.052 175.068 -57.607 307.186 184.802 -39.5562 301.241 180.786 -5.47221 243.237 194.92 24.9134 5.18235 11.0219 30.0476 
175.869 124.219 171.278 178.677 157.421 166.602 113.678 170.011 179.548 170.718 214.591 165.886 -28.9063 248.736 160.213 -32.224 287.521 175.8 -58.085 305.897 186.126 -40.1883 301.816 182.735 -6.71514 242.004 195.376 22.8939 2.41533 11.8431 37.3572 
174.324 115.155 172.64 175.235 170.653 163.236 117.827 168.165 178.374 168.382 214.432 164.995 -31.0451 247.521 162.206 -36.289 286.14 176.801 -59.1906 303.221 187.687 -41.3813 300.124 185.217 -9.04948 238.481 195.776 19.6336 3.14183 12.537 35.6834 
172.935 117.529 173.727 174.511 172.802 161.721 125.42 167.623 178.109 166.603 213.263 165.391 -31.6373 248.093 163.471 -41.1158 284.154 177.045 -59.8884 300.758 187.892 -42.0293 297.598 185.29 -10.2344 235.922 195.83 18.3286 3.27307 12.4996 30.8859 
171.237 126.998 174.008 174.538 170.669 160.869 140.491 168.707 178.137 168.503 210.678 166.147 -32.6629 251.331 166.145 -48.541 283.217 178.469 -60.8529 299.838 189.197 -42.0212 297.906 187.3 -10.7196 232.825 195.51 17.0134 4.23118 12.3147 23.4276 
170.201 165.803 175.632 174.56 171.584 159.661 156.445 169.305 178.145 169.106 208.333 166.552 -33.8219 253.138 169.511 -56.994 281.208 178.967 -61.8612 297.421 189.61 -42.767 295.558 187.831 -11.8382 229.65 195.164 15.5571 4.44165 12.0986 15.9152 
170.306 165.468 176.215 175.39 175.059 158.715 160.941 169.853 178.427 173.101 205.902 167.303 -35.4462 249.935 172.466 -63.6632 277.395 180.095 -64.7049 294.32 190.339 -44.4216 294.493 188.708 -13.2596 226.605 195.027 14.0247 5.62193 12.2726 12.4727 
169.723 173.286 175.924 175.697 173.949 158.972 167.722 172.036 178.531 173.702 202.391 167.545 -37.6961 248.748 175.406 -69.3098 275.94 182.787 -67.0527 292.453 192.407 -46.2704 292.642 191.325 -15.2649 223.102 194.414 12 6.77215 11.7867 10.8182 
169.173 174.85 175.401 173.839 173.804 158.659 168.572 171.851 177.896 175.593 197.046 166.817 -39.8345 244.492 174.2 -71.8505 271.316 181.865 -69.2518 287.323 190.64 -48.7864 287.486 189.978 -17.7735 218.751 193.673 10.171 6.57456 10.8616 10.7381 
170.051 177.432 174.864 173.731 173.526 159.042 167.65 171.896 177.701 177.205 190.903 165.515 -41.86 239.149 173.09 -73.7912 265.74 181.129 -72.0599 281.239 188.882 -52.0253 281.51 188.044 -20.8393 213.888 192.905 8.23577 5.98914 9.88268 11.0456 
170.626 178.174 174.936 174.003 175.301 158.949 170.51 172.736 177.691 177.77 185.163 164.641 -43.8196 234.875 173.299 -76.8353 260.187 180.168 -75.2977 275.043 187.187 -55.5302 275.805 187.501 -24.5398 208.612 191.825 5.91411 6.70806 8.97278 9.44194 
170.133 178.944 175.299 174.569 179.785 158.286 171.858 173.963 177.835 179.013 179.246 163.304 -46.1358 229.476 173.633 -80.1013 254.293 180.3 -79.4233 268.632 186.549 -59.7446 270.831 187.156 -28.0502 203.021 190.674 3.24868 7.43183 8.17747 8.9675 
169.175 178.237 177.074 175.846 174.27 156.063 172.871 175.342 178.607 178.051 172.401 161.836 -48.1793 222.235 171.65 -84.0414 247.207 177.976 -83.2823 261.349 186.424 -63.6076 265.288 187.016 -31.0425 197.057 189.441 0.600374 8.26261 9.48056 8.46719 
168.324 178.055 178.258 174.27 174.27 154.75 174.375 175.832 178.055 177.899 164.848 160.508 -51.0243 215.506 169.65 -88.9481 239.318 174.425 -87.3969 253.633 183.536 -67.6721 258.083 185.464 -35.2036 190.546 187.858 -2.44502 8.70592 9.59834 6.46569 
167.693 177.364 179.061 174.27 174.27 154.172 174.542 175.559 178.062 177.85 156.473 158.886 -54.5386 207.454 167.392 -93.4378 230.412 170.965 -91.4621 245.341 180.739 -71.6981 250.032 183.788 -39.3634 183.325 186.243 -5.88474 8.92128 9.8173 4.98025 
166.89 176.581 179.395 174.27 174.27 153.601 174.063 175.118 178.079 177.828 147.131 155.845 -57.6596 197.733 164.187 -96.8601 220.287 167.345 -95.1553 235.917 178.14 -75.6612 241.376 182.192 -43.3611 174.936 184.243 -9.29973 9.40182 10.3103 4.3686 
165.823 176.757 177.961 174.27 174.27 152.792 174.211 174.633 178.098 177.904 137.542 153.506 -60.5024 188.144 161.697 -100.367 210.44 164.684 -99.0353 226.292 176.457 -80.0167 232.318 181.239 -47.8142 166.142 182.289 -12.7481 9.5504 10.5402 3.76685 
163.627 175.676 178.104 177.186 174.4 151.383 172.967 173.426 179.319 178.162 127.368 150.272 -62.9649 177.001 159.876 -103.924 198.35 161.755 -102.974 213.954 172.645 -84.9986 220.375 178.321 -53.7767 156.442 180.312 -16.4522 9.32795 9.59335 2.75271 
162.011 175.284 176.981 178.527 178.199 150.018 172.256 172.459 177.933 179.153 117.152 148.406 -65.8191 166.07 158.758 -107.471 186.545 160.095 -107.104 201.385 169.155 -89.9722 208.275 175.482 -59.5458 146.092 178.405 -20.0961 9.12241 7.89965 2.323 
162.858 175.515 175.509 179.459 176.774 150.233 171.849 170.764 175.97 178.691 105.579 146.332 -68.7083 153.2 157.628 -110.745 172.474 157.452 -110.919 187.406 165.064 -94.4973 193.867 171.384 -65.4267 134.586 176.511 -23.2837 8.13879 6.77967 2.04539 
164.302 176.61 175.281 178.837 175.904 150.713 172.748 170.559 175.627 178.341 93.3882 144.747 -71.7422 139.883 157.225 -114.381 158.155 155.956 -114.712 172.745 162.513 -98.7268 179.052 168.684 -70.3041 121.768 174.584 -26.2155 7.62665 5.88483 2.48779 
166.026 176.96 173.904 179.36 178.611 152.046 172.658 169.767 174.399 176.659 79.6034 142.496 -74.492 124.418 157.244 -116.986 142.126 155.28 -118.051 156.903 161.27 -102.301 163.525 167.477 -74.1664 107.382 172.485 -28.6453 7.67274 5.41264 3.16492 
166.103 177.041 172.403 178.365 179.782 152.113 171.829 168.408 171.228 173.036 65.1324 140.388 -76.4334 106.576 157.351 -119.895 123.116 154.46 -121.647 137.947 158.639 -106.298 145.182 165.045 -79.0574 91.7853 170.958 -31.2119 7.58456 3.97795 4.30875 
166.488 177.875 172.038 174.658 179.69 152.338 171.476 167.417 168.179 169.425 48.8395 138.795 -78.8013 86.053 158.596 -123.749 102.241 154.641 -125.771 116.935 156.915 -110.829 125.172 163.429 -84.3345 74.5086 169.378 -34.0957 7.602 2.47795 5.0489 
167.103 177.168 171.787 172.177 174.124 152.326 170.497 166.591 166.021 163.566 29.8667 137.518 -78.7795 61.8492 160.201 -125.51 77.8689 154.39 -128.211 93.019 154.478 -113.993 101.563 159.018 -88.2544 55.5805 167.603 -35.1173 6.18008 1.22871 6.01339 
166.669 176.523 173.432 171.985 172.136 151.59 170.54 168.385 166.481 162.393 8.04001 138.672 -78.5508 34.7401 161.524 -126.869 50.9614 155.081 -131.144 66.7686 152.941 -117.861 76.7551 155.3 -92.6795 34.8668 165.114 -35.825 5.18914 0.676236 5.95215 
164.826 176.085 175.761 173.479 171.777 149.15 170.482 171.156 168.464 163.097 -15.7162 140.818 -76.901 5.17362 161.668 -127.099 21.8573 156.491 -133.708 38.2867 152.078 -121.737 50.1877 151.388 -97.1293 12.7759 162.94 -36.029 3.65009 1.04397 4.32601 
166.666 175.181 175.858 175.707 172.5 150.069 169.419 172.869 171.832 165.514 -45.1995 145.213 -75.4019 -26.1574 163.548 -127.204 -9.68409 160.584 -136.247 7.86297 156.502 -126.756 22.8495 152.171 -102.763 -10.068 162.198 -36.3628 2.31009 1.16975 2.64929 
167.459 174.725 175.565 175.752 174.148 150.745 169.092 173.917 173.109 167.703 -75.822 146.382 -68.6 -57.716 161.462 -122.815 -41.5463 160.069 -134.205 -23.2943 156.191 -126.594 -5.12681 150.509 -104.064 -33.1834 159.723 -33.9107 3.07853 2.29075 2.63217 
165.461 173.518 174.62 176.323 175.581 151.261 167.424 172.775 173.213 170.094 -108.504 148.582 -57.9926 -88.3861 159.631 -116.694 -72.08 158.282 -129.321 -54.1124 155.008 -123.926 -34.0236 149.079 -103.344 -56.4341 158.877 -30.0569 3.98707 3.49241 2.8888 
163.729 174.453 174.56 176.426 175.413 151.859 168.973 173.118 173.244 169.607 -137.961 152.133 -46.5198 -118.76 159.364 -109.998 -103.84 156.356 -123.682 -84.9593 152.143 -119.255 -63.3532 145.643 -99.8949 -79.2037 157.962 -25.5312 3.51455 2.97693 2.15406 
163.352 174.314 174.23 176.044 175.025 151.083 168.906 172.405 172.445 168.838 -161.909 153.026 -36.4513 -145.576 157.894 -102.954 -131.984 153.649 -117.212 -112.772 148.508 -113.647 -90.3151 142.158 -95.6023 -99.953 157.023 -21.1507 3.13759 2.37146 1.84885 
162.386 174.345 174.288 176.19 174.817 149.029 169.178 172.181 172.319 168.384 -181.568 152.287 -27.1339 -168.896 155.686 -95.7068 -156.182 150.872 -110.225 -136.899 145.508 -107.362 -113.686 139.608 -90.2912 -118.859 155.541 -16.4944 2.98372 2.09621 1.78628 
160.8 174.607 174.749 175.999 174.236 147.235 169.786 172.064 172.036 167.808 -198.491 151.079 -18.5344 -189.542 153.988 -88.6021 -176.987 148.56 -103.249 -157.391 143.195 -101.106 -133.174 137.645 -84.8642 -135.876 154.255 -11.6496 2.87669 1.84852 1.35652 
160.047 174.863 175.29 175.952 173.981 145.639 170.16 172.207 172.008 167.728 -213.38 149.898 -11.4091 -207.671 152.663 -82.4441 -195.503 147.562 -97.2309 -175.654 142.499 -95.6863 -150.615 137.39 -80.1116 -151.481 153.68 -7.11051 2.79458 1.69303 1.45193 
159.496 175.248 175.567 175.75 173.524 144.027 170.831 172.092 171.663 166.955 -225.345 147.657 -6.18899 -221.864 150.253 -78.0483 -210.154 144.941 -92.5458 -190.492 140.12 -91.1612 -165.028 135.987 -76.036 -164.983 152.739 -3.6847 2.63336 1.37894 1.807 
159.22 176.083 176.615 176.344 173.885 143.347 171.88 172.772 172.278 167.629 -237.142 146.672 -2.14965 -235.622 149.307 -74.4616 -223.98 144.242 -89.0425 -204.272 139.658 -87.9409 -178.482 136.313 -73.3179 -177.739 152.892 -0.865004 2.42448 1.10783 1.9104 
159.532 176.67 177.175 176.641 174.119 143.534 172.865 173.331 172.745 168.133 -247.422 145.535 1.55846 -247.038 148.693 -71.4177 -235.446 143.664 -86.2587 -215.694 139.081 -85.4562 -189.71 136.387 -71.3099 -188.587 152.93 1.4144 2.14698 0.949827 2.06276 
159.706 177.474 177.996 177.604 174.765 143.205 173.923 174.332 174.106 170.024 -256.075 145.668 5.00483 -257.535 148.532 -67.5504 -246.385 143.895 -82.7616 -226.709 139.975 -82.5293 -200.432 138.265 -69.3506 -198.411 153.297 4.2733 2.54677 1.07537 2.33482 
159.93 178.063 178.109 177.564 175.118 143.562 174.596 174.405 174.329 170.919 -263.208 145.898 7.41059 -265.293 148.073 -65.0704 -254.534 143.117 -80.4596 -235.133 139.553 -80.5053 -208.844 138.884 -67.9553 -206.282 153.698 6.29748 2.83921 1.31398 2.83718 
160.498 178.522 178.234 177.755 175.77 143.965 175.298 174.904 175.09 172.518 -269.282 145.656 9.45389 -272.048 147.474 -62.8561 -261.413 142.305 -78.6079 -242.126 139.028 -78.911 -215.618 139.149 -66.9917 -212.866 153.875 7.96005 3.19588 1.40369 3.0076 
160.717 178.659 178.183 177.993 176.312 144.08 175.823 175.44 175.958 173.845 -273.936 145.423 11.0236 -277.483 147.41 -61.067 -267.134 142.444 -77.1726 -248.046 139.666 -77.7765 -221.483 140.324 -66.2869 -218.196 154.089 9.27986 3.47253 1.53115 3.10434 
158.076 177.539 177.937 177.643 176.528 142.75 174.447 175.412 176.329 174.765 -276.939 145.102 11.7327 -282.355 146.54 -57.8691 -272.849 142.786 -74.8727 -253.31 140.724 -75.8069 -227.134 141.678 -64.7517 -223.27 155.34 10.9826 3.80478 1.33064 2.75434 
156.631 177.507 178.091 177.676 176.884 141.631 174.771 176.09 177.161 175.611 -279.062 144.332 11.7251 -286.575 146.785 -56.1341 -277.348 143.791 -73.7414 -257.425 142.085 -74.9422 -231.637 142.998 -64.0428 -227.405 156.44 11.919 3.85351 1.23903 2.59949 
155.401 177.594 178.06 177.545 176.901 140.569 175.253 176.447 177.543 175.725 -280.657 143.897 11.3958 -289.906 147.726 -55.0592 -280.838 144.887 -72.8601 -260.628 143.266 -74.193 -235.157 143.916 -63.3289 -230.861 157.401 12.6066 3.80338 1.21441 2.64885 
154.662 177.618 177.888 177.189 176.587 140.325 175.768 176.619 177.604 175.392 -281.944 143.444 11.212 -292.247 148.365 -54.3957 -282.958 145.374 -72.2763 -262.281 143.541 -73.7853 -236.942 143.674 -62.7864 -233.207 157.773 13.0527 3.49989 1.03405 2.47676 
153.946 177.63 177.883 177.159 176.517 139.853 176.17 176.902 177.857 175.337 -282.759 143.213 11.1077 -294.323 149.385 -53.8254 -284.896 146.516 -71.8392 -264.02 144.626 -73.5241 -238.853 144.333 -62.4478 -235.052 158.115 13.4226 3.40548 1.12093 2.32606 
153.383 177.656 177.735 176.978 176.308 139.676 176.588 176.896 177.832 175.245 -285.212 143.703 11.1756 -298.296 151.007 -52.7433 -288.968 148.075 -70.8472 -267.835 146.149 -72.7549 -242.96 145.571 -61.5683 -238.6 159.108 14.2038 3.36309 1.23152 2.29944 
153.629 177.685 177.777 177.066 176.26 140.104 176.692 177.004 177.796 175.121 -286.458 144.326 11.2833 -299.702 151.553 -52.5384 -290.296 148.651 -70.6915 -269.13 146.703 -72.6476 -244.193 145.97 -61.4119 -239.806 159.534 14.4482 3.26653 1.26966 2.20533 
153.801 177.626 177.739 176.944 176.013 140.714 176.831 177.123 177.653 174.858 -288.039 144.963 11.849 -300.754 151.917 -52.3256 -291.073 148.863 -70.4814 -269.783 146.818 -72.4174 -244.682 146.034 -61.1543 -240.874 159.746 14.8264 3.1795 1.20531 2.01392 
156.429 177.769 177.945 177.077 175.859 144.236 177.186 177.853 177.582 174.562 -293.803 147.006 15.4306 -300.551 149.906 -51.9016 -289.516 146.387 -69.9335 -267.874 144.031 -71.2682 -242.051 143.636 -59.7593 -241.926 159.512 16.1001 3.1484 0.858934 1.34304 
156.765 177.754 178.02 177.154 176.065 144.21 177.073 177.941 177.679 174.701 -292.789 146.546 15.3357 -299.307 149.07 -52.0976 -288.383 145.68 -70.1598 -266.816 143.367 -71.4674 -241.021 143.054 -59.9638 -240.738 159.02 15.8379 3.21493 0.868752 1.40933 
156.782 177.714 178.087 177.26 176.295 143.931 176.933 177.993 177.782 174.869 -291.585 146.196 15.1066 -298.137 148.641 -52.307 -287.479 145.5 -70.3779 -266.096 143.297 -71.7023 -240.355 143.016 -60.2611 -239.551 158.695 15.4916 3.28384 0.911243 1.60369 
156.633 177.59 177.964 177.177 176.323 143.42 176.672 177.808 177.662 174.689 -289.719 145.519 14.5483 -296.543 147.971 -52.6269 -286.182 145.085 -70.6133 -265.024 143.114 -71.9203 -239.373 142.94 -60.4813 -238.093 158.406 15.0904 3.29469 0.994803 1.87745 
156.393 177.681 178.038 177.366 176.482 142.495 176.699 177.937 177.947 174.914 -287.335 144.873 13.6459 -295.039 147.643 -53.1549 -285.047 145.074 -71.0901 -264.16 143.462 -72.4458 -238.592 143.353 -61.0302 -236.617 158.18 14.5965 3.39354 1.26163 2.18443 
156.054 177.457 177.793 177.108 176.171 141.678 176.412 177.635 177.651 174.341 -284.985 144.276 12.449 -293.199 147.675 -53.8983 -283.188 145.096 -71.6375 -262.4 143.422 -72.8321 -236.968 143.219 -61.2438 -235.173 158.127 14.1302 3.40524 1.29826 2.29502 
155.21 177.097 177.397 176.7 175.729 140.804 175.655 176.908 176.804 173.216 -282.425 144.516 10.2921 -291.025 149.967 -55.3934 -281.252 147.418 -72.8357 -260.866 145.273 -73.5712 -235.792 144.594 -61.8159 -233.656 159.099 13.0646 3.24235 1.19192 2.61555 
155.001 177.129 177.376 176.856 175.906 140.516 175.528 176.766 176.775 173.224 -281.481 145.286 9.32886 -290.076 151.34 -56.224 -280.521 148.9 -73.5696 -260.39 146.887 -74.1853 -235.417 146.17 -62.3553 -233.173 159.904 12.7683 3.24933 1.35647 2.81918 
154.105 177.596 177.686 177.289 176.122 139.776 176.089 177.139 177.273 173.544 -279.517 145.55 8.4834 -288.576 152.456 -57.2699 -279.13 150.087 -74.4028 -259.134 148.025 -74.8303 -234.254 147.115 -62.8777 -232.111 160.073 12.4543 3.19519 1.39967 2.97792 
153.25 177.512 177.456 177.12 175.588 139.631 176.094 176.833 176.904 172.779 -277.343 145.247 7.79355 -286.256 152.493 -58.1634 -276.604 149.871 -75.0623 -256.508 147.43 -75.2873 -231.632 146.12 -63.1218 -230.275 159.656 12.1218 2.81287 1.16273 2.9358 
153.273 177.066 176.921 176.329 175.174 140.066 175.412 176.023 175.92 171.891 -276.171 145.221 7.35124 -284.045 152.109 -58.594 -274.173 149.137 -75.3441 -253.963 146.332 -75.306 -229.069 144.963 -62.9779 -228.588 159.411 11.8731 2.78084 0.980048 2.8849 
153.114 176.698 176.64 176.066 174.978 140.204 174.824 175.554 175.529 171.578 -275.555 145.437 6.92803 -282.766 152.124 -59.0105 -272.826 149.092 -75.6799 -252.644 146.235 -75.5023 -227.827 144.831 -63.0583 -227.649 159.506 11.5523 2.83364 1.01957 2.91197 
152.636 176.885 176.743 176.226 175.001 139.938 175.052 175.734 175.773 171.837 -274.924 145.636 6.43118 -281.943 152.697 -59.8407 -271.785 149.75 -76.3356 -251.673 146.941 -75.8764 -226.926 145.575 -63.1894 -227.332 159.923 11.4056 2.82552 1.06698 2.8764 
152.425 177.04 176.876 176.396 175.062 139.988 175.196 175.888 175.945 172.074 -274.742 146.14 6.03427 -281.592 153.434 -60.4773 -271.233 150.662 -76.9406 -251.18 147.829 -76.2915 -226.502 146.387 -63.4052 -227.214 160.468 11.2747 2.71633 1.08487 2.77643 
152.213 177.196 177.048 176.735 175.282 140.252 175.381 176.066 176.23 172.54 -274.445 147.177 5.72219 -281.146 153.939 -61.1594 -270.616 151.431 -77.6438 -250.498 148.524 -76.916 -225.732 147.105 -63.9755 -226.57 161.059 10.9419 2.73095 1.01806 2.63876 
152.203 177.212 177.059 176.806 175.26 140.607 175.493 176.134 176.265 172.588 -274.229 147.395 5.83424 -280.39 153.601 -61.4118 -269.728 150.964 -77.8861 -249.502 147.95 -77.1681 -224.614 146.574 -64.2382 -225.818 160.896 10.8016 2.74678 0.896655 2.53866 
152.344 177.417 177.261 177.12 175.535 140.889 175.796 176.461 176.681 173.158 -274.01 147.659 5.9802 -280.011 153.519 -61.5118 -269.329 150.913 -78.0497 -249.036 147.929 -77.4456 -224.021 146.633 -64.6334 -225.173 160.804 10.673 2.88175 0.859733 2.47775 
153.476 177.202 177.078 176.728 175.491 141.914 175.375 176.145 176.311 172.957 -274.403 148.056 6.46162 -279.417 152.82 -61.1011 -268.741 150.16 -77.8064 -248.322 147.211 -77.387 -223.136 145.944 -64.7102 -224.335 160.585 10.5776 2.97737 0.820644 2.42842 
154.511 176.945 176.991 176.492 175.568 140.917 174.881 175.894 175.921 172.487 -272.952 147.463 8.32218 -280.827 153.104 -58.0724 -271.091 151.029 -75.2434 -250.784 148.526 -75.3553 -225.844 147.422 -62.9606 -223.899 161.826 11.893 2.76518 1.03787 2.78888 
154.739 176.683 176.847 176.29 175.478 141.339 174.448 175.67 175.634 172.303 -273.934 147.712 8.93805 -281.526 152.791 -57.2644 -271.873 150.785 -74.5566 -251.533 148.298 -74.8257 -226.482 147.308 -62.6171 -224.356 161.978 12.2279 2.82236 1.02212 2.82389 
155.025 176.442 176.66 176.049 175.305 141.919 174.091 175.417 175.253 171.961 -274.872 147.701 9.58532 -282.003 152.138 -56.5393 -272.295 150.014 -73.9024 -251.839 147.446 -74.2786 -226.623 146.572 -62.244 -224.649 161.921 12.5268 2.83273 0.910585 2.76048 
155.225 176.272 176.507 175.885 175.212 142.475 173.743 175.106 174.869 171.805 -276.614 147.643 10.7323 -283.131 151.125 -55.4079 -273.408 148.588 -72.7141 -252.814 145.938 -73.2181 -227.388 145.403 -61.4073 -225.59 161.708 13.3111 3.05008 0.812648 2.69397 
155.484 176.25 176.532 175.937 175.263 142.894 173.635 175.101 174.862 171.997 -277.919 147.844 11.5329 -284.172 150.708 -54.7101 -274.451 148.034 -72.0501 -253.749 145.369 -72.6797 -228.156 145.034 -61.0432 -226.323 161.682 13.762 3.24936 0.793261 2.64582 
155.616 176.388 176.719 176.178 175.471 142.941 173.815 175.405 175.192 172.479 -278.983 148.194 12.4042 -285.545 150.817 -53.8864 -275.96 148.279 -71.3917 -255.272 145.717 -72.2257 -229.629 145.486 -60.7867 -227.198 161.697 14.3001 3.37982 0.862049 2.64841 
156.017 176.18 176.579 175.954 175.174 143.513 173.419 175.231 174.859 172.028 -280.846 148.516 14.0705 -287.22 149.629 -51.996 -277.528 147.335 -69.6415 -256.59 144.867 -70.6404 -230.842 144.925 -59.3395 -228.569 161.606 15.5577 3.44208 0.78815 2.62095 
156.012 175.862 176.244 175.593 174.743 143.597 172.915 174.718 174.236 171.217 -281.642 148.444 14.6977 -287.823 148.757 -51.1366 -278.056 146.395 -68.6877 -256.952 143.9 -69.641 -231.23 144.166 -58.3009 -229.324 161.582 16.1323 3.48307 0.724542 2.65642 
155.752 175.603 175.914 175.23 174.322 143.33 172.46 174.143 173.56 170.295 -281.949 148.183 15.1663 -288.091 147.845 -50.4543 -278.395 145.21 -67.8072 -257.245 142.614 -68.6791 -231.636 143.009 -57.2801 -229.788 161.336 16.5419 3.49938 0.681001 2.7571 
155.696 175.502 175.733 175.019 174.074 143.338 172.212 173.784 173.14 169.662 -282.43 147.949 15.6358 -288.522 147.271 -49.8258 -278.757 144.336 -67.0476 -257.513 141.467 -67.8232 -231.952 141.757 -56.3305 -230.252 161.157 16.9315 3.35352 0.557342 2.73419 
155.715 175.514 175.734 174.967 174.031 143.396 172.264 173.757 173.072 169.469 -282.81 147.734 16.2904 -288.412 146.742 -49.2963 -278.468 143.521 -66.4008 -257.16 140.477 -67.0352 -231.589 140.662 -55.4074 -230.393 160.799 17.4672 3.30842 0.528287 2.66106 
155.901 175.487 175.661 174.898 174.007 143.805 172.177 173.627 172.979 169.38 -283.408 147.597 17.0679 -288.257 146.398 -48.754 -278.074 142.805 -65.7304 -256.657 139.468 -66.209 -230.952 139.479 -54.4736 -230.447 160.478 18.0796 3.31509 0.508945 2.53642 
155.654 174.527 174.73 174.003 173.306 144.968 171.345 172.31 171.566 167.907 -285.787 149.04 21.6921 -289.189 149.703 -45.921 -278.111 144.749 -62.6754 -256.579 140.078 -62.6832 -230.382 139.102 -50.8645 -231.114 161.368 21.2529 3.21027 0.449017 1.68054 
155.596 174.589 174.886 174.165 173.464 144.923 171.514 172.487 171.774 168.116 -285.091 149.634 21.6138 -288.222 150.179 -46.0406 -277.066 145.189 -62.8028 -255.55 140.469 -62.7662 -229.432 139.435 -50.8741 -230.381 161.759 21.2798 3.18217 0.46031 1.65771 
155.769 174.783 175.133 174.481 173.795 145.061 171.81 172.717 172.071 168.578 -284.512 150.51 21.4539 -287.478 150.849 -46.1847 -276.392 145.862 -62.9814 -254.943 141.146 -62.9592 -228.858 140.123 -51.1448 -229.659 162.242 21.1541 3.23032 0.409072 1.69606 
156.235 175.175 175.585 175.042 174.445 145.245 172.418 173.353 172.889 169.791 -283.647 151.321 21.4551 -286.764 151.623 -46.183 -275.802 146.686 -63.1367 -254.384 142.155 -63.3111 -228.211 141.163 -51.6469 -228.682 162.708 21.151 3.36953 0.345507 1.68331 
