178.533 168.799 163.374 156.131 90.1604 170.707 155.79 158.584 84.8691 75.6992 131.751 213.913 16.689 173.378 248.76 -21.8211 199.614 263.307 -17.2076 175.054 231.141 76.4489 195.725 259.608 64.4006 149.782 267.605 70.6605 46.5446 89.1524 6.76376 
178.387 168.804 163.536 156.175 90.1447 170.6 155.831 158.727 84.8615 76.2415 132.442 213.967 16.6394 173.759 248.475 -21.9681 199.948 263.095 -17.3678 175.404 231.104 76.2867 196.01 259.17 64.6559 150.06 267.554 70.5 45.5372 89.0351 6.76924 
178.266 168.976 163.848 156.408 90.1365 170.434 156.017 159.029 84.8732 76.0092 133.099 214.047 16.5115 174.206 248.351 -22.2101 200.428 263.116 -17.5843 175.631 231.089 76.2538 196.094 258.899 65.0254 150.329 267.526 70.2906 44.6359 89.2581 6.84615 
178.389 168.899 163.831 156.347 90.1371 170.468 156.256 159.322 85.1528 76.607 133.517 213.905 16.3989 174.464 248.373 -22.5464 200.853 263.2 -17.7313 176.145 230.882 76.0053 196.478 258.886 64.7225 150.515 267.413 70.1347 44.6882 89.0942 6.97388 
178.523 168.789 163.831 156.099 90.1349 170.543 156.385 159.502 85.5239 77.2617 133.86 213.867 16.1376 174.642 248.502 -22.894 201.22 263.229 -17.9119 176.611 230.551 75.5616 196.867 258.693 64.551 150.69 267.305 69.9594 44.3193 88.7063 7.0513 
178.662 168.74 163.805 155.972 90.1267 170.693 156.497 159.646 85.7911 78.9913 134.234 213.941 15.7884 174.994 248.607 -23.1882 201.537 263.32 -18.0946 176.97 230.372 75.2727 197.396 258.549 63.7818 150.902 267.258 69.7622 44.9975 88.5452 7.04195 
178.857 168.653 163.606 156.464 90.1297 170.853 156.443 159.71 85.6773 80.1971 134.439 213.913 15.4839 175.132 248.638 -23.4878 201.796 263.576 -18.3635 177.372 230.204 74.7313 197.925 258.564 62.8191 151.086 267.073 69.5591 45.8972 88.4075 7.20132 
178.827 168.692 163.644 156.39 90.1216 170.768 156.678 159.985 85.7502 83.2106 134.801 213.967 15.3087 175.287 248.826 -23.8883 202.044 264.007 -18.7582 177.875 230.156 74.0603 198.934 258.465 61.6067 151.319 267.12 69.3033 46.7088 88.1849 7.34956 
178.821 168.785 163.556 156.411 90.1108 170.687 157.033 160.195 85.7843 85.8717 135.015 213.864 15.1479 175.446 249.174 -24.2652 202.184 264.427 -19.0559 178.286 230.12 73.4812 199.789 258.41 60.5488 151.487 267.114 69.0852 47.4458 88.0008 7.371 
178.847 168.88 163.521 156.368 90.0984 170.651 157.401 160.425 85.7219 88.5107 135.208 213.697 14.9773 175.601 249.599 -24.6883 202.32 264.988 -19.4301 178.745 230.075 72.7572 200.723 258.375 59.4875 151.676 267.101 68.8625 48.1146 87.7996 7.41674 
178.957 169.046 163.308 156.41 90.0917 170.639 157.947 160.77 85.2277 89.8765 135.093 213.598 14.6817 175.755 250.122 -25.1368 202.306 265.489 -19.8782 179.105 230.277 72.0815 201.185 258.425 58.861 151.924 267.141 68.7396 48.4212 87.469 7.33548 
179.125 168.974 163.204 156.855 90.0916 170.826 157.803 160.719 84.7192 90.4982 135.009 213.431 14.3442 175.903 250.491 -25.4031 202.557 265.958 -20.1541 179.465 230.253 71.4134 201.753 258.543 58.1314 152.102 266.933 68.5588 49.0637 87.3706 7.40983 
179.229 168.84 163.047 157.354 90.0865 170.989 157.623 160.733 84.1345 91.5308 134.806 213.04 14.1024 175.93 250.37 -25.5799 202.628 266.184 -20.4671 179.777 230.166 70.7393 202.351 258.419 57.3705 152.193 266.587 68.3641 49.565 87.2332 7.55387 
179.291 168.975 163.173 157.418 90.0764 170.988 157.812 160.773 83.7542 92.8899 134.868 212.887 14.0203 176.13 250.584 -25.747 202.884 266.349 -20.5289 179.952 230.163 70.5461 202.854 258.136 57.0658 152.345 266.421 68.2571 49.7141 87.3754 7.56178 
179.345 169.165 163.437 157.15 90.0769 170.998 158.142 160.842 83.3874 92.8358 134.886 212.748 14.0534 176.347 250.7 -25.8748 203.126 266.312 -20.5599 180.228 230.259 70.3586 202.994 257.845 57.3183 152.499 266.316 68.1897 48.9732 87.2832 7.49874 
179.389 169.267 163.509 156.894 174.27 171.03 158.377 160.909 83.0972 92.6116 134.85 212.358 14.1737 176.498 250.381 -25.9277 203.228 266.086 -20.6811 180.663 230.288 70.1033 205.614 254.648 54.8895 152.615 266.1 68.0984 48.835 87.0039 7.48771 
179.248 169.525 163.518 156.844 174.27 170.927 158.574 160.803 82.7092 92.387 134.855 212.116 14.2607 176.644 250.192 -25.9526 203.269 265.765 -20.7976 180.898 230.472 70.2174 205.715 254.286 55.2549 152.777 265.998 68.0325 48.1717 87.0848 7.33851 
178.999 169.797 163.67 156.826 90.0884 170.756 158.677 160.68 82.4742 90.7015 135.209 212.163 14.3961 176.952 249.929 -25.8434 203.414 265.387 -20.8772 180.886 230.653 70.6371 202.821 257.155 58.2939 153.048 266.081 68.0306 47.0616 87.4889 7.15957 
178.766 170.038 163.846 156.349 90.0965 170.614 158.665 160.532 82.4527 89.068 135.701 212.313 14.4732 177.259 249.762 -25.782 203.634 264.992 -20.9027 180.912 230.799 71.0265 202.519 257.186 58.5374 153.336 266.196 68.0074 46.9881 87.7702 6.99566 
178.666 170.271 163.907 155.865 90.1039 170.516 158.715 160.362 82.4503 87.016 136.089 212.382 14.4855 177.614 249.587 -25.6972 203.869 264.481 -20.8833 180.848 230.867 71.3924 202.023 257.049 58.9844 153.615 266.26 67.9484 46.5315 88.0359 6.7723 
178.385 170.246 163.686 155.828 90.1119 170.359 158.485 160.057 82.6263 84.5607 136.501 212.379 14.4718 177.982 249.129 -25.521 203.971 263.769 -20.7814 180.684 230.815 71.8401 201.438 257.08 59.2734 153.839 266.259 67.8425 46.5238 88.318 6.52134 
178.245 170.104 163.557 155.536 90.1169 170.273 158.166 159.754 83.0259 82.2669 136.82 212.364 14.4075 178.248 248.778 -25.4807 204.215 263.188 -20.7185 180.813 230.646 71.9454 201.043 257.103 59.7155 154.067 266.259 67.7027 45.8562 88.1853 6.42596 
177.875 170.015 163.51 155.315 90.1193 169.98 157.958 159.763 83.3615 80.1745 137.335 212.434 14.5164 178.482 248.445 -25.4135 204.399 262.992 -20.8312 180.977 230.542 71.9167 200.726 257.185 60.0518 154.312 266.34 67.5716 45.1732 88.1983 6.43893 
177.667 169.846 163.478 155.064 90.1183 169.775 157.719 159.76 83.6402 79.0702 137.906 212.786 14.4632 178.787 248.403 -25.3771 204.649 262.953 -20.8906 181.108 230.487 71.7896 200.527 257.242 60.193 154.537 266.467 67.4615 44.6793 88.0931 6.40252 
177.438 169.666 163.456 154.709 90.1181 169.567 157.587 159.801 84.0766 78.4604 138.329 213.026 14.4118 178.976 248.4 -25.4171 204.828 263.023 -21.0527 181.243 230.327 71.5698 200.503 257.373 60.0516 154.726 266.598 67.3538 44.5917 87.9657 6.41876 
177.352 169.523 163.009 154.882 90.1162 169.496 157.456 159.712 84.4532 78.6176 138.858 213.296 14.2851 179.201 248.384 -25.4542 204.92 262.868 -20.9707 181.129 230.172 71.6 200.589 257.426 59.6957 154.912 266.684 67.2481 45.1433 88.0307 6.33001 
177.314 169.497 162.57 154.99 90.1156 169.498 157.393 159.658 84.5573 78.5346 139.106 213.473 14.1392 179.336 248.319 -25.5521 204.912 262.611 -21.0284 181.097 230.116 71.2983 200.666 257.42 59.402 155.081 266.78 67.0445 45.1796 87.8209 6.20194 
177.328 169.337 162.191 155.275 90.1142 169.527 157.236 159.732 84.6399 79.0791 139.193 213.345 14.1112 179.404 248.138 -25.6151 204.94 262.614 -21.1334 181.272 230.087 71.0225 200.988 257.444 58.9888 155.212 266.822 66.9046 45.4216 87.6659 6.27972 
177.497 169.169 162.054 155.731 90.1127 169.683 157.067 159.894 84.6259 79.816 139.104 213.073 14.0246 179.411 247.843 -25.7203 204.963 262.619 -21.3632 181.529 230.057 70.6838 201.381 257.43 58.559 155.306 266.791 66.7308 45.6065 87.4848 6.42617 
177.769 168.964 161.913 156.283 90.1089 169.966 156.919 160.066 84.5242 80.7008 139.019 212.761 13.9041 179.41 247.622 -25.8489 204.992 262.637 -21.4987 181.911 230.011 70.0996 201.762 257.288 58.2912 155.348 266.694 66.573 45.1951 86.9711 6.56365 
177.845 168.778 161.927 156.354 90.1042 170.089 156.683 160.15 84.5484 81.4755 139.209 212.705 13.8803 179.425 247.461 -25.9108 205.096 262.716 -21.6339 182.354 230.037 69.7054 202.072 257.183 58.1526 155.469 266.715 66.5078 44.6774 86.5416 6.71862 
177.915 168.567 161.889 156.205 90.0998 170.193 156.482 160.287 84.4454 82.5512 139.524 212.921 13.6353 179.646 247.602 -26.05 205.365 263.046 -21.8114 182.708 230.093 69.1545 202.493 257.054 57.8688 155.669 266.772 66.3782 44.3309 86.2129 6.83337 
178.084 168.51 161.994 156.156 90.0981 170.294 156.51 160.489 84.2259 82.9089 139.768 212.9 13.4525 179.916 247.788 -26.2724 205.687 263.476 -22.0288 183.052 230.157 68.731 202.773 256.924 57.8648 155.872 266.744 66.2487 43.7863 86.1535 6.97109 
178.16 168.305 162.036 155.85 90.0962 170.368 156.489 160.606 84.1385 83.2107 140.087 212.964 13.1857 180.237 248.144 -26.5096 206.076 263.978 -22.2007 183.464 230.096 68.0733 203.019 256.746 57.8268 156.068 266.706 66.1026 43.0494 85.8502 7.07674 
178.179 168.012 161.963 155.302 90.0926 170.46 156.459 160.816 83.9519 83.9185 140.581 213.045 12.8087 180.697 248.564 -26.7824 206.512 264.693 -22.3635 183.837 229.999 67.2299 203.309 256.445 57.6374 156.269 266.609 65.9139 42.3494 85.5682 7.22939 
178.294 167.924 162.093 154.772 90.0906 170.573 156.625 160.935 84.0079 84.3617 141.047 213.269 12.2865 181.265 249.374 -27.2334 207.101 265.407 -22.5459 184.285 229.901 66.4476 203.664 256.306 57.4964 156.505 266.599 65.6793 41.7274 85.2559 7.19994 
178.364 167.961 162.328 154.594 90.09 170.64 156.959 161.089 84.001 84.5655 141.46 213.489 11.8899 181.708 250.132 -27.659 207.581 265.918 -22.697 184.588 229.885 66.1335 203.952 256.313 57.3269 156.721 266.585 65.5323 41.7495 85.2677 7.09986 
178.417 168.002 162.524 154.442 90.0931 170.679 157.168 161.126 83.9194 83.7124 141.749 213.701 11.5877 182.006 250.908 -27.9777 207.959 266.353 -22.7805 184.781 229.971 66.0341 203.993 256.44 57.462 156.951 266.648 65.4306 41.6383 85.4313 6.99177 
178.366 168.116 162.726 154.323 90.0958 170.651 157.565 161.237 83.7286 82.9089 142.168 213.927 11.3486 182.423 251.703 -28.3159 208.461 266.808 -22.8268 184.954 230.108 65.9922 204.108 256.612 57.549 157.202 266.717 65.3474 41.7585 85.6648 6.90304 
178.253 168.258 162.94 154.148 90.0977 170.633 157.928 161.359 83.5031 82.0723 142.51 214.208 11.1488 182.836 252.573 -28.5725 208.935 267.417 -22.8487 185.05 230.257 65.9074 204.157 256.731 57.7533 157.427 266.824 65.3308 41.684 85.909 6.84051 
178.238 168.396 163.292 154.253 90.0987 170.683 158.307 161.476 83.215 81.3932 142.661 214.399 10.9345 183.304 253.351 -28.7616 209.468 268.134 -22.83 185.244 230.505 65.8733 204.207 256.883 57.9411 157.619 266.923 65.2886 41.5712 86.2002 6.85995 
178.157 168.685 163.609 154.291 90.1007 170.629 158.734 161.633 82.8522 80.376 142.965 214.601 10.9025 183.724 254.014 -28.9482 210.012 268.787 -22.865 185.465 230.816 65.8246 204.258 257.066 58.2695 157.879 267.076 65.2534 41.183 86.5199 6.92239 
178.027 168.88 163.756 154.385 90.1021 170.492 158.981 161.614 82.6147 78.3669 143.278 214.884 10.8936 183.994 254.58 -29.0593 210.352 269.212 -22.9251 185.59 231.133 65.84 203.941 257.326 58.8363 158.142 267.292 65.2125 40.3922 86.7817 6.89423 
177.846 169.038 163.756 154.537 90.1031 170.388 159.031 161.453 82.399 76.4501 143.531 215.101 10.8693 184.43 254.859 -28.9957 210.686 269.432 -22.8835 185.708 231.476 66.061 203.635 257.67 59.3497 158.418 267.507 65.1818 39.9219 87.0792 6.80185 
177.804 169.133 163.84 154.383 90.1026 170.373 159.146 161.469 82.2447 75.3344 143.572 215.225 10.9071 184.769 255.087 -28.9123 211.004 269.625 -22.7788 185.862 231.706 66.2311 203.45 257.851 59.7589 158.595 267.644 65.2367 39.5107 87.2139 6.76921 
177.712 169.214 163.79 154.589 90.1022 170.268 159.182 161.412 82.1172 74.2602 143.896 215.353 10.9331 185.083 255.155 -28.8793 211.282 269.695 -22.7932 185.974 231.944 66.4687 203.381 258.055 60.0755 158.848 267.82 65.2094 39.3065 87.4829 6.74174 
177.598 169.245 163.758 154.611 90.1013 170.208 159.019 161.33 82.0551 73.5201 144.227 215.547 10.9002 185.322 254.935 -28.7522 211.376 269.649 -22.9237 185.999 232.111 66.4656 203.316 258.18 60.1635 159.104 268.018 65.1502 39.1124 87.5549 6.71109 
177.529 169.211 163.599 154.534 90.1011 170.149 158.771 161.321 82.2339 72.763 144.489 215.631 10.8872 185.443 254.639 -28.6303 211.446 269.543 -23.0535 186.177 232.173 66.4482 203.339 258.375 60.2412 159.348 268.177 65.0677 38.8771 87.5225 6.74572 
177.463 169.286 163.251 154.714 90.1036 169.988 158.922 161.325 81.9036 71.5559 144.619 215.697 10.7858 185.418 254.354 -28.639 211.283 269.22 -23.2985 186.206 232.516 66.6424 203.096 258.629 60.401 159.603 268.348 65.0016 38.9553 87.5141 6.68467 
177.416 169.312 163.078 154.988 90.1025 169.993 158.642 161.006 82.0431 70.5479 144.838 215.708 10.7891 185.631 253.954 -28.502 211.383 268.931 -23.3365 186.279 232.643 66.9952 203.006 258.878 60.636 159.892 268.508 64.9411 38.8829 87.7646 6.6806 
177.308 169.198 162.893 154.802 90.0987 169.886 158.218 160.942 82.2865 70.0419 145.299 215.856 10.784 185.84 253.497 -28.3565 211.545 268.693 -23.4096 186.457 232.678 66.9773 202.99 258.947 60.6979 160.177 268.664 64.8058 38.4111 87.7387 6.75619 
177.098 168.99 162.789 154.487 90.0942 169.701 157.669 160.917 82.2845 69.3962 145.766 216.028 10.7325 186.058 252.948 -28.1766 211.77 268.476 -23.5301 186.709 232.745 66.7193 202.923 258.877 60.8276 160.475 268.768 64.6145 37.4969 87.5692 6.92336 
176.943 168.738 162.58 154.432 90.0931 169.537 157.149 160.843 82.4053 68.7562 146.112 216.059 10.5649 186.268 252.461 -28.1216 211.999 268.282 -23.668 186.845 232.704 66.5831 202.897 258.866 60.8835 160.745 268.79 64.3832 36.9744 87.6172 7.09341 
176.783 168.432 162.487 154.397 90.0891 169.337 156.695 160.784 82.5408 67.9651 146.323 215.843 10.4116 186.32 251.849 -28.1623 212.042 267.96 -24.0054 187.097 232.524 66.2452 202.741 258.679 60.9548 160.95 268.682 64.1118 36.0259 87.4491 7.24107 
176.828 167.942 162.537 154.456 90.0864 169.396 156.205 161.239 82.4293 68.2421 146.431 215.485 10.1581 186.376 251.18 -28.2094 212.145 267.874 -24.3589 187.444 232.394 65.6976 202.921 258.345 60.6974 161.103 268.472 63.8288 35.459 87.1946 7.5823 
176.863 167.61 162.743 154.091 90.0839 169.477 155.885 161.789 82.3042 68.9032 146.712 215.248 9.85036 186.569 250.809 -28.3893 212.381 267.948 -24.6693 187.82 232.163 64.9625 203.191 257.84 60.4497 161.253 268.201 63.5553 34.7151 86.8464 7.85334 
176.981 167.49 163.358 153.913 90.0825 169.625 155.871 162.716 82.299 70.0784 146.922 214.89 9.60964 186.831 250.691 -28.6714 212.749 268.198 -24.9281 188.189 231.882 64.474 203.741 257.387 60.0212 161.385 267.872 63.3305 34.7017 86.8103 8.07343 
177.025 167.489 164.378 153.723 90.0822 169.721 155.908 163.614 82.2012 71.1801 147.112 214.655 9.39094 187.028 250.733 -28.981 213.075 268.559 -25.2654 188.508 231.641 63.8394 204.297 256.987 59.4706 161.536 267.612 63.1093 34.8107 86.7336 8.28757 
177.015 167.58 165.149 153.845 90.0836 169.766 156.116 164.555 82.354 72.5844 147.361 214.437 9.09609 187.309 250.921 -29.3772 213.429 268.879 -25.5914 188.669 231.253 63.6042 205.147 256.7 58.7146 161.729 267.322 62.9121 35.9716 87.0813 8.36518 
176.712 168.039 166.701 153.986 90.0871 169.58 156.607 165.713 82.5504 73.7982 148.008 214.173 8.85045 187.994 251.359 -29.8878 214.222 269.309 -26.0198 188.992 230.813 63.3919 206.377 256.628 57.7693 162.165 267.03 62.6473 37.7498 87.6246 8.34709 
176.501 168.645 167.768 154.313 90.0908 169.458 157.142 166.207 82.6957 74.7613 148.34 214.478 8.6637 188.431 251.856 -30.2046 214.721 269.595 -26.2992 188.915 230.641 63.5947 207.184 256.684 57.0834 162.529 267.056 62.5478 39.4569 88.3632 8.22875 
176.436 169.077 169.001 154.144 90.0931 169.481 157.536 166.603 82.7226 75.6923 148.688 214.755 8.62751 188.878 252.209 -30.3553 215.387 269.988 -26.2457 188.995 230.627 63.696 207.907 256.691 56.7806 162.939 267.18 62.5826 40.334 88.8276 8.36097 
176.436 169.449 169.789 154.061 90.0957 169.484 157.868 167.025 82.555 76.6247 148.848 214.704 8.59283 189.177 252.412 -30.4849 215.884 270.362 -26.3012 189.276 230.652 63.5212 208.547 256.627 56.4726 163.212 267.185 62.5533 40.7703 88.9532 8.53837 
176.425 169.594 169.4 153.872 90.0961 169.493 157.854 167.274 82.2505 77.5457 149.105 214.759 8.44762 189.396 252.288 -30.4462 216.107 270.498 -26.4499 189.585 230.695 63.0792 208.997 256.397 56.2232 163.443 267.14 62.4764 40.6282 88.6897 8.69913 
176.411 169.383 168.276 153.616 90.0972 169.496 157.412 167.117 82.0118 77.7839 149.313 214.687 8.36774 189.497 251.82 -30.2289 216.065 270.338 -26.6301 190.002 230.795 62.5321 209.331 256.352 56.1094 163.66 267.14 62.3927 40.153 88.0511 8.85039 
176.337 169.227 166.905 153.643 90.0976 169.446 157.096 166.662 81.9289 77.8947 149.503 214.404 8.32769 189.504 251.151 -30.1429 215.85 269.745 -26.7714 190.256 230.745 62.2574 209.5 256.279 55.849 163.827 267.027 62.2864 40.1191 87.5635 8.85113 
176.459 168.918 165.451 153.859 90.0963 169.581 156.663 166.137 82.0029 78.1068 149.643 214.125 8.11646 189.606 250.506 -30.0611 215.646 268.968 -26.8104 190.472 230.61 62.2207 209.544 256.153 55.557 163.914 266.858 62.1467 40.3064 87.1378 8.69991 
176.605 168.581 163.737 153.883 90.095 169.746 156.346 165.938 81.9452 78.5795 149.79 213.889 8.00049 189.835 249.794 -29.8607 215.607 268.287 -26.8113 190.743 230.539 62.1171 209.711 255.991 55.3386 164.034 266.698 62.0526 40.3283 86.675 8.65063 
176.821 168.277 162.359 154.08 90.0954 169.959 156.091 165.878 81.6465 78.2493 149.698 213.343 7.94372 189.957 248.991 -29.8038 215.579 267.696 -26.9249 191.108 230.501 61.8652 209.724 255.772 55.3526 164.159 266.443 61.8844 39.7546 86.2886 8.74236 
176.939 168.051 161.21 154.216 90.095 170.039 155.944 165.933 81.4831 77.5783 149.631 212.834 7.8175 190.059 248.452 -29.9891 215.597 267.314 -27.1926 191.506 230.407 61.5162 209.665 255.58 55.4124 164.271 266.197 61.641 38.9536 85.9932 8.79283 
176.903 167.667 160.501 154.077 90.0928 170.001 155.67 166.06 81.2901 77.6274 149.713 212.335 7.88195 190.099 247.749 -30.0136 215.643 267.026 -27.3853 191.914 230.291 61.0817 209.746 255.242 55.3622 164.385 265.94 61.4855 38.1589 85.6261 9.04875 
177.003 167.128 159.341 153.981 90.0901 170.126 155.545 166.51 80.9736 77.9587 149.815 211.889 7.77967 190.342 247.414 -30.205 215.822 266.955 -27.4601 192.381 230.176 60.4898 209.89 254.816 55.3241 164.499 265.635 61.3016 37.1995 85.1964 9.17344 
176.982 167.058 157.783 153.736 90.0884 170.144 155.77 167.311 80.51 78.1838 150.03 211.604 7.76878 190.637 247.364 -30.5518 216.049 267.176 -27.6979 192.793 230.135 59.9157 210.244 254.469 55.3591 164.693 265.391 61.1428 36.3506 85.0604 9.28016 
176.867 167.053 157.191 153.764 90.0902 170.062 156.099 168.114 79.432 77.5602 150.26 211.353 7.81013 190.95 247.387 -30.9889 216.433 267.507 -28.0833 192.739 230.329 59.9978 210.528 254.295 55.5137 164.973 265.173 60.9269 36.3768 86.036 9.44741 
176.895 167.131 156.432 153.621 90.0908 170.035 156.501 168.616 78.6208 77.8376 150.642 211.119 7.75315 191.503 247.516 -31.3727 217.003 267.657 -28.1478 192.906 230.465 59.8589 211.097 254.197 55.3031 165.248 264.949 60.7149 36.7523 86.422 9.41493 
176.945 167.339 156.184 154.578 90.0945 170.024 156.892 169.219 77.7755 76.7486 150.958 210.982 7.54419 191.99 247.816 -31.7416 217.576 267.961 -28.2344 192.857 230.433 59.6981 211.127 254.024 55.5171 165.503 264.666 60.5023 36.5611 86.9882 9.43553 
176.903 167.614 156.153 156.192 90.0978 169.962 157.34 169.511 77.1518 75.4333 151.222 210.886 7.33455 192.437 247.963 -32.0899 218.067 267.924 -28.4195 192.936 230.306 59.5547 211.216 253.911 55.7715 165.812 264.414 60.2987 36.2738 87.3092 9.32144 
176.78 167.772 156.127 157.977 90.0993 169.888 157.588 169.694 76.4409 74.1634 151.562 210.929 6.99736 192.812 248.039 -32.3991 218.408 267.832 -28.7569 193.298 230.278 59.0385 211.317 253.703 55.9757 166.178 264.217 60.0246 35.3869 87.128 9.22609 
176.714 167.66 156.266 159.349 90.0997 169.877 157.278 169.5 75.6938 73.2695 152.011 210.869 6.85424 193.072 247.516 -32.3821 218.633 267.624 -29.0723 193.982 230.395 58.242 211.527 253.512 56.1634 166.605 264.12 59.8654 33.99 86.3118 9.47305 
176.611 167.457 156.617 158.966 90.0969 169.792 156.649 169.081 75.2721 72.5791 152.607 211.029 6.4268 193.29 246.789 -32.3562 219.039 266.992 -29.3644 194.568 230.395 57.2656 211.397 253.156 56.0081 167.061 264.075 59.5918 32.5608 85.1342 9.69996 
176.583 167.431 156.822 158.635 90.0945 169.793 156.379 168.89 74.7872 72.093 153.096 210.888 6.06337 193.58 246.131 -32.6054 219.426 266.426 -29.5985 195.218 230.407 56.3501 211.495 252.802 55.8472 167.529 263.93 59.2784 31.2718 84.1341 9.87381 
176.695 167.363 157.21 157.923 90.0911 169.909 156.079 168.818 74.1739 72.5036 153.38 210.557 5.674 193.883 245.372 -32.7444 219.742 265.809 -29.6253 195.602 230.505 55.7076 211.781 252.39 55.403 167.9 263.693 58.9914 30.8656 83.4507 10.0425 
176.885 167.277 157.274 157.461 90.091 170.07 156.049 168.887 74.3322 73.1655 153.658 210.364 5.26193 194.378 244.972 -32.9356 220.118 265.148 -29.5078 195.973 230.3 55.3799 212.294 252.215 54.8312 168.232 263.502 58.7104 31.2641 82.9709 9.87137 
176.959 167.265 157.035 157.204 90.091 170.081 156.248 168.975 74.2445 74.1465 154.099 210.03 4.97617 194.864 244.476 -33.169 220.424 264.451 -29.3571 195.97 230.036 55.4438 212.673 251.856 54.1765 168.408 263.146 58.4221 32.3278 83.1135 9.71192 
177.024 167.556 156.496 157.362 90.0926 170.046 156.791 169.169 74.455 75.1135 154.523 209.78 4.64834 195.478 244.541 -33.741 220.845 263.94 -29.5004 196.122 229.614 55.4497 213.295 251.579 53.5576 168.641 262.817 58.0524 33.3651 83.3632 9.24944 
176.963 167.667 155.559 158.092 90.0946 169.98 157.069 169.529 74.1132 76.6915 154.701 209.378 4.45128 195.854 244.487 -34.1456 221.046 263.725 -29.557 196.438 229.39 55.019 214.123 251.167 52.9728 168.727 262.41 57.7819 33.8853 83.1303 9.08685 
176.848 167.827 155.15 158.685 90.098 169.909 157.188 169.671 73.4325 77.1589 154.828 209.061 4.27532 195.938 244.21 -34.5134 220.975 263.373 -29.9693 196.991 229.409 54.2327 214.674 250.832 52.6147 168.883 262.087 57.4689 33.4026 82.4222 8.99916 
176.781 168.012 154.721 158.977 90.1015 169.915 157.188 169.495 72.6817 77.3633 154.779 208.781 4.13444 195.924 244.004 -34.8327 220.824 262.988 -30.1811 197.59 229.58 53.293 215.117 250.63 52.4222 169.008 261.854 57.2419 32.4474 81.3319 8.85832 
176.806 168.111 154.222 158.717 90.1042 170.024 157.23 169.597 71.8485 76.9764 154.715 208.491 3.94098 195.884 243.752 -35.2667 220.663 262.666 -30.6004 198.44 229.983 52.2183 215.357 250.547 52.3096 169.18 261.722 56.9415 30.9051 80.0422 8.77038 
176.892 168.078 154.052 157.537 90.1065 170.189 157.148 169.413 71.1062 76.8714 154.567 208.248 3.58786 195.808 243.509 -35.6427 220.504 262.343 -31.141 199.508 230.445 50.9393 215.679 250.411 52.1446 169.296 261.575 56.6266 29.1405 78.2824 8.69553 
