176.215 178.056 179.19 139.095 139.683 167.245 174.857 174.351 85.3046 79.4047 49.1123 176.948 -11.5755 15.3183 171.842 -72.3051 -27.876 166.622 -78.9755 -23.1924 171.578 32.1415 -31.9879 159.763 33.2647 -5.22516 135.082 20.5459 13.0744 95.4325 15.8044 
176.052 178.162 179.142 138.689 139.494 167.42 174.745 174.15 85.0343 79.3662 48.2777 176.952 -11.9086 13.8662 171.795 -72.4134 -28.8721 166.531 -79.0118 -24.425 171.46 31.6166 -33.2099 159.744 32.8792 -6.35664 135.055 20.333 13.053 94.9856 15.5162 
176.328 178.292 179.116 139.035 139.308 167.811 174.718 174.011 85.3969 79.4822 47.2601 177.055 -12.5624 12.3501 171.834 -72.7927 -30.4098 166.862 -78.9802 -25.4682 171.991 31.4547 -34.2933 160.186 32.6729 -7.60184 135.265 20.1291 13.0553 94.6673 15.5093 
176.349 178.325 179.252 139.632 139.252 168.038 174.769 173.947 85.7032 79.3638 46.2872 177.413 -12.8498 11.2334 171.827 -73.2028 -31.363 167.237 -79.1434 -26.6396 172.26 31.3068 -35.4919 160.277 32.3248 -8.70553 135.395 19.8509 13.0245 94.4815 15.4053 
175.793 178.355 179.244 139.586 139.004 167.79 174.882 173.813 85.6139 79.1493 45.3827 177.993 -12.7796 10.2236 172.031 -73.5269 -31.7018 167.72 -79.552 -27.944 172.36 30.8831 -36.7918 160.322 31.7994 -9.70029 135.66 19.5018 12.9579 94.3086 14.9756 
175.308 178.454 179.21 139.191 138.737 167.676 174.884 173.723 85.394 79.1235 44.5998 178.244 -12.9376 8.79078 172.501 -73.7816 -32.5102 168.328 -79.8692 -29.1528 172.501 30.433 -37.9946 160.578 31.3839 -10.7975 135.943 19.1266 12.9323 94.1091 14.5403 
175.629 178.521 179.128 139.837 138.803 168.145 174.697 173.398 85.6083 79.0182 43.6406 178.475 -13.5171 7.27221 172.491 -74.224 -34.0335 168.628 -79.8794 -30.4459 172.801 30.1429 -39.2422 160.694 31.0326 -11.9441 136.112 18.8625 12.9431 93.6542 14.5517 
175.799 178.518 179.08 141.031 138.789 168.327 174.728 173.259 85.8785 78.6831 42.1939 179.164 -13.9283 5.94681 172.793 -74.7252 -35.4291 168.929 -80.1666 -31.8812 172.938 30.3278 -40.7164 160.604 30.7413 -13.0753 136.43 18.5722 12.855 93.9655 14.639 
175.541 178.48 179.002 141.958 138.573 168.13 174.929 173.194 85.9864 78.4255 41.0872 179.49 -14.121 5.08434 172.631 -75.2791 -36.1846 169.133 -80.6585 -33.0892 173.162 30.3851 -41.9706 160.747 30.3968 -14.1153 136.771 18.3068 12.8342 94.4338 14.6128 
175.136 178.454 179.159 142.195 138.144 167.987 175.135 173.306 86.0286 78.2954 40.5784 179.599 -14.1286 4.08575 172.649 -75.656 -36.7239 169.667 -81.0043 -34.121 173.694 30.3853 -43.0618 161.321 30.1427 -15.202 137.276 18.1197 12.8733 94.7732 14.3303 
175.391 178.419 179.152 142.5 138.136 168.44 175.173 173.265 86.0205 78.0999 40.2717 179.697 -14.375 2.98734 172.546 -76.2155 -37.7436 170.258 -81.1043 -35.2184 174.018 30.2028 -44.1315 161.604 29.8386 -16.2749 137.515 17.8545 12.967 94.6151 14.3481 
175.845 178.432 179.108 142.971 138.442 168.95 175.148 173.039 86.0504 77.8596 39.2642 180.034 -14.9359 1.8108 172.448 -76.9187 -39.3925 170.42 -81.2196 -36.6716 173.809 29.8284 -45.4111 161.168 29.4492 -17.2639 137.425 17.4215 12.9984 94.2173 14.7823 
176.04 178.414 179.11 143.527 138.312 169.009 175.347 173.103 86.1954 77.701 37.9707 180.531 -15.2904 0.983009 172.379 -77.4442 -40.4153 170.171 -81.7592 -38.0909 173.954 29.7171 -46.7763 161.164 29.0851 -18.2555 137.716 17.1794 12.9671 94.5529 14.9852 
175.984 178.378 179.147 143.558 137.872 168.922 175.595 173.252 86.0831 77.6593 37.1934 180.714 -15.4935 0.333216 172.284 -77.9036 -40.9369 170.278 -82.2831 -39.1758 174.232 29.5173 -47.8737 161.546 28.7422 -19.2494 138.088 16.8885 12.994 94.99 14.9705 
176.097 178.365 179.177 143.247 137.431 169.197 175.86 173.325 85.9404 77.8248 37.0361 180.634 -15.6868 -0.418165 172.211 -78.5145 -41.5295 171.356 -82.3896 -39.9097 174.773 29.3537 -48.7413 162.39 28.5081 -20.3507 138.46 16.5542 13.0455 95.0163 15.0134 
176.212 178.44 179.176 142.759 137.258 169.549 176.088 173.332 85.9078 78.08 36.5809 180.613 -16.2351 -1.80825 172.483 -79.2744 -42.718 172.658 -82.4333 -40.8346 175.013 29.0658 -49.7058 162.814 28.2957 -21.4499 138.667 15.9933 13.019 94.6801 15.0558 
176.272 178.482 179.137 142.942 137.095 169.652 175.98 173.201 86.0741 78.1432 35.1751 181.138 -16.8394 -3.25199 172.955 -79.8206 -44.0522 172.912 -82.7461 -42.1813 174.841 28.8377 -50.9728 162.535 27.9269 -22.4063 138.756 15.5288 12.9753 94.5805 15.0309 
176.289 178.412 179.139 143.229 136.832 169.623 175.753 173.137 86.1238 78.1608 33.8276 181.714 -17.427 -4.24305 173.135 -80.2152 -44.9145 172.451 -83.3336 -43.3966 174.86 28.4208 -52.1378 162.504 27.3791 -23.3159 139.018 15.1161 12.9663 94.8171 14.9227 
176.382 178.298 179.197 143.309 136.416 169.694 175.7 173.317 86.0026 78.1763 32.9159 182.072 -17.7411 -5.00032 172.813 -80.6551 -45.0756 172.893 -83.5343 -44.1713 175.133 28.1909 -53.0228 162.94 27.0311 -24.2964 139.315 14.8049 12.9944 94.9374 14.7074 
176.448 178.326 179.23 143.007 136.106 169.881 175.918 173.251 85.9415 78.3952 32.1436 182.414 -17.9023 -6.0203 173.001 -81.1334 -45.4695 174.45 -83.2393 -44.8245 175.503 28.1472 -53.8308 163.559 26.9179 -25.3596 139.587 14.4518 13.0037 94.6685 14.6312 
176.374 178.381 179.204 142.855 135.907 169.971 176.117 172.765 86.2949 78.7884 30.9926 183.033 -18.1176 -7.69465 173.764 -81.4734 -46.6967 176.449 -82.5315 -45.7402 176.151 28.2375 -54.8294 164.214 26.9448 -26.4732 140.07 14.1611 12.9341 93.9652 14.7632 
176.51 178.297 179.182 142.584 135.825 170.051 175.919 172.488 86.3 79.0777 29.855 183.358 -18.538 -8.92189 173.906 -81.7472 -47.4971 176.939 -82.4602 -46.7021 176.502 27.7813 -55.7326 164.583 26.6793 -27.3898 140.29 13.9562 12.9272 93.3571 14.6445 
176.463 178.212 179.414 142.283 135.81 170.09 175.673 174.497 86.1323 79.1923 28.8549 183.277 -19.2521 -9.5837 173.434 -82.0875 -46.6633 174.603 -84.2402 -47.8614 176.543 26.8102 -56.6882 164.564 26.0383 -28.1816 140.213 13.6842 12.9863 94.1703 13.0976 
176.468 178.181 179.516 142.344 135.657 170.186 175.735 175.34 86.2064 79.2645 27.8796 183.276 -19.9215 -10.1086 172.917 -82.633 -49.2778 174.23 -84.2751 -48.7756 176.833 26.2582 -57.5626 164.827 25.5467 -29.0851 140.301 13.3442 13.0403 93.9273 14.5531 
176.394 178.265 179.491 142.224 135.54 170.321 175.993 174.751 86.345 79.5266 27.0838 183.143 -20.4592 -11.1251 172.699 -83.2017 -51.7048 175.773 -83.3289 -49.5555 177.3 25.982 -58.4123 165.37 25.3032 -30.1461 140.499 12.9772 13.0453 92.847 16.06 
176.258 178.383 179.48 141.814 135.35 170.346 176.362 174.23 86.6023 79.8889 26.2219 183.213 -20.8757 -12.6833 173.211 -83.524 -53.0504 177.425 -82.6692 -50.443 177.865 25.8906 -59.301 165.91 25.3087 -31.184 140.889 12.6677 12.9982 92.079 16.3856 
176.185 178.407 179.488 141.125 135.004 170.428 176.443 174.029 86.5409 80.1358 25.5973 182.949 -21.4422 -14.1934 173.302 -83.7775 -53.8006 178.374 -82.4306 -51.286 178.352 25.3792 -60.1096 166.452 25.0999 -32.1281 141.248 12.3957 12.959 91.2868 16.2338 
176.139 178.31 179.467 140.549 134.882 170.396 176.375 173.506 86.2557 80.361 24.9455 182.125 -22.3231 -15.1061 172.957 -84.2553 -54.9091 178.986 -82.2877 -51.8606 178.697 24.5542 -60.6719 167.015 24.6495 -33.062 141.358 11.9683 13.0109 90.4571 16.6761 
175.973 178.286 179.456 140.554 135.101 170.268 176.367 173.093 86.1887 80.438 24.0792 181.17 -23.3989 -15.8951 172.38 -84.8247 -56.2034 178.845 -82.4625 -52.5819 178.782 23.7907 -61.2793 167.094 24.2211 -33.9517 141.218 11.4772 13.0951 89.9642 17.1431 
175.86 178.357 179.454 140.62 135.276 170.207 176.563 172.511 86.2757 80.5425 23.1145 180.823 -24.0866 -16.8981 172.148 -85.3284 -57.7745 179.245 -82.2108 -53.4845 178.987 23.4087 -62.0968 167.238 24.0192 -34.9408 141.273 11.1007 13.1378 89.4951 17.8483 
175.874 178.398 179.477 140.128 135.252 170.267 176.736 172.053 86.2356 80.7409 22.1459 181.046 -24.4855 -18.5473 172.689 -85.6093 -59.187 180.324 -81.7164 -54.4954 179.338 23.0709 -63.0651 167.586 23.896 -35.9274 141.639 10.8164 13.0767 88.7726 18.0744 
175.975 178.23 179.507 139.185 134.95 170.423 176.666 171.985 85.7452 80.8869 21.3694 181.331 -24.9052 -20.3822 173.077 -85.932 -60.3647 181.349 -81.4796 -55.2615 179.56 22.6141 -63.8998 168.095 23.6908 -36.8463 142.067 10.5303 12.9857 88.2428 18.0079 
176.074 177.965 179.487 138.664 134.633 170.533 176.554 170.819 84.9207 80.9699 20.8251 181.178 -25.4677 -21.8654 173.178 -86.3831 -62.291 182.041 -81.0194 -55.7186 179.385 22.2835 -64.5139 168.51 23.3858 -37.6611 142.267 10.1216 12.9849 88.1468 18.6147 
176.069 177.797 179.481 138.299 134.585 170.501 176.47 169.877 84.2951 81.1189 20.1906 180.769 -26.1458 -22.7523 172.991 -86.8946 -61.3863 182.911 -81.3017 -56.1418 179.273 21.782 -64.9915 168.865 23.0362 -38.402 142.308 9.66158 13.0217 87.8382 18.0659 
175.963 177.803 179.488 138.336 134.787 170.31 176.446 169.935 84.2365 81.2158 19.2703 180.491 -26.8033 -23.3573 172.771 -87.3581 -61.7173 182.606 -82.102 -56.8788 179.366 21.1869 -65.5971 168.964 22.6681 -39.1218 142.285 9.21847 13.0831 87.9318 17.7849 
175.844 177.933 179.483 138.407 134.972 170.102 176.475 170.14 84.3732 81.2827 18.2843 180.483 -27.3337 -24.0585 172.932 -87.7217 -62.3289 182.002 -83.0303 -57.7898 179.428 20.6379 -66.335 168.868 22.2794 -39.7903 142.28 8.77547 13.1329 88.1898 17.3173 
175.798 178.079 179.47 138.435 135.167 170.001 176.492 170.144 84.5731 81.4505 17.4634 180.836 -27.6591 -24.9861 173.509 -88.0185 -63.2487 181.747 -83.6223 -58.6841 179.599 20.1806 -67.0823 168.869 21.9414 -40.4064 142.398 8.39313 13.143 88.2502 16.9498 
175.909 177.837 179.53 138.372 135.093 170.094 176.333 170.012 84.5651 81.8659 16.2639 181.259 -28.5239 -27.2833 174.015 -88.7752 -64.8335 182.235 -84.0625 -59.8863 180.081 19.5217 -68.2574 169.509 21.3384 -41.7274 142.792 7.71519 13.1755 88.1094 16.5951 
175.905 177.612 179.594 139.494 135.094 170.054 176.244 169.893 84.4991 82.192 15.8588 181.44 -28.9536 -28.199 174.102 -89.1756 -65.5427 182.342 -84.1536 -60.1549 180.163 19.6679 -68.6343 169.908 21.0749 -42.1986 142.925 7.40798 13.2806 88.6013 16.5504 
175.934 177.418 179.67 140.914 135.083 170.112 176.152 169.848 84.2551 82.3748 15.432 181.332 -29.4688 -29.0504 173.919 -89.6123 -66.1177 182.393 -84.2887 -60.5553 179.989 19.8282 -69.1884 170.13 20.7227 -42.7874 142.953 7.05301 13.4373 89.1827 16.5824 
176.031 177.301 179.733 141.974 135.08 170.276 176.062 169.86 83.9499 82.4909 15.0668 181.036 -30.0261 -29.6647 173.501 -90.0715 -66.5905 182.326 -84.4086 -60.9113 179.706 19.836 -69.7084 170.21 20.3773 -43.3133 142.869 6.73984 13.5446 89.5383 16.7549 
176.074 177.326 179.67 142.04 135.344 170.333 176.023 169.8 83.7216 82.4574 14.6242 180.619 -30.5867 -29.9962 172.99 -90.5161 -66.9268 181.744 -84.8367 -61.4133 179.339 19.3248 -70.1866 169.897 20.0152 -43.7253 142.615 6.37512 13.4878 89.539 16.7736 
176.08 177.41 178.89 141.706 135.604 170.315 175.948 169.439 83.7562 82.3299 14.136 180.281 -31.0572 -30.2756 172.608 -90.9152 -67.3397 181.154 -85.2393 -62.0192 179.106 18.6148 -70.6558 169.447 19.6266 -44.1101 142.356 5.97697 13.3878 89.2302 16.8115 
176.109 177.526 178.313 141.452 135.743 170.332 175.941 169.011 83.9093 82.2685 13.7389 180.156 -31.3743 -30.7268 172.57 -91.2358 -67.9413 180.943 -85.4091 -62.6186 179.135 18.0451 -71.1277 169.232 19.3282 -44.5435 142.283 5.62265 13.3145 88.8751 16.9031 
176.152 177.591 177.863 141.573 135.76 170.36 175.996 168.598 83.9976 82.2576 13.3649 180.309 -31.5635 -31.2722 172.901 -91.5222 -68.6121 181.147 -85.5094 -63.2433 179.356 17.669 -71.6755 169.334 18.9914 -45.0577 142.442 5.27787 13.3389 88.7004 16.9998 
176.105 177.617 177.25 142.45 135.795 170.255 176.037 168.289 83.9795 82.2474 12.7978 180.688 -31.6959 -31.877 173.379 -91.7031 -69.2939 181.27 -85.7247 -63.8032 179.451 17.7071 -72.2237 169.477 18.7282 -45.5416 142.656 5.00167 13.4793 89.1161 16.9165 
175.93 177.659 177.124 143.681 135.574 169.935 175.793 167.881 83.9024 82.1579 12.2881 181.178 -31.8046 -32.6777 173.751 -91.863 -70.2137 181.446 -85.7173 -64.4799 179.287 18.0461 -73.0307 169.549 18.3063 -45.8963 142.821 4.6543 13.6712 89.915 17.0737 
175.784 177.528 177.07 144.901 135.484 169.856 175.757 167.573 84.0183 82.309 11.6721 181.436 -32.1421 -33.4152 173.715 -92.167 -70.8459 181.46 -85.7647 -64.7767 179.144 18.4766 -73.538 169.71 18.0172 -46.3927 142.87 4.38503 13.9516 90.6667 17.122 
175.636 177.32 177.201 145.788 135.328 169.795 175.712 167.494 84.1715 82.501 11.0893 181.627 -32.5286 -34.1324 173.625 -92.5156 -71.4873 181.313 -85.955 -65.0316 179.01 18.7762 -74.0187 169.861 17.715 -46.8886 142.827 4.11701 14.2201 91.3362 17.085 
175.669 177.165 177.442 146.571 135.193 169.886 175.703 167.635 84.3766 82.7755 10.5369 181.595 -33.0036 -34.8616 173.312 -92.9612 -72.1904 181.137 -86.2073 -65.3319 178.967 18.921 -74.5711 170.043 17.418 -47.4424 142.698 3.86371 14.4041 91.7535 17.139 
174.982 177.649 176.099 145.736 134.609 169.879 175.364 167.389 84.1108 80.9469 9.88911 181.509 -33.1813 -35.8706 172.46 -93.252 -71.9041 180.905 -86.348 -65.8016 177.926 19.2206 -75.9027 168.715 17.1014 -47.8963 142.475 3.74456 14.0122 92.3471 16.9682 
175.257 177.637 175.902 146.133 134.096 170.152 175.389 166.921 83.9656 80.8461 9.23553 180.97 -33.8092 -36.3751 171.431 -93.7304 -72.529 180.555 -86.1876 -66.1369 177.4 19.1159 -76.4432 168.309 16.809 -48.4175 142.061 3.57738 14.117 92.1675 17.5286 
175.517 177.602 176.085 145.909 134.116 170.352 175.506 166.77 83.9482 81.0183 8.54912 180.525 -34.3159 -36.8711 170.905 -94.1252 -73.1482 180.373 -86.2285 -66.5271 177.146 18.6591 -76.8249 168.038 16.6309 -48.9603 141.688 3.31301 13.9429 91.6842 17.807 
175.803 177.6 176.902 145.592 134.132 170.509 175.642 167.055 84.104 81.2248 7.88635 180.318 -34.6695 -37.5629 170.891 -94.4345 -73.8821 180.095 -86.668 -67.1195 177.284 18.0785 -77.2779 167.99 16.4263 -49.5947 141.517 3.04284 13.7608 91.3162 17.5998 
176.089 177.515 178.041 145.778 133.932 170.692 175.733 167.659 84.3026 81.3921 7.42466 180.359 -34.8787 -38.4268 171.244 -94.6959 -74.6454 180.047 -87.2161 -67.7456 177.645 17.7104 -77.8145 168.234 16.147 -50.2829 141.571 2.78887 13.8002 91.2479 17.1962 
175.579 177.958 178.223 145.348 134.433 170.71 175.594 168.272 84.4992 80.2338 7.11043 180.328 -35.108 -40.0217 171.259 -94.8999 -74.628 180.426 -87.8413 -68.2063 177.447 17.9243 -78.7072 167.602 16.0764 -51.0444 141.664 2.63926 13.5755 91.5923 16.435 
175.261 178.109 179.948 145.703 135.117 171.011 175.423 169.453 84.372 79.3559 6.89928 180.288 -35.3101 -41.5138 170.808 -95.1353 -74.5352 180.768 -88.6357 -68.5155 176.877 18.3266 -79.4986 167.004 16.0102 -51.7884 141.634 2.49296 13.5997 92.2723 15.9179 
175.185 178.142 180 146.115 135.686 171.425 175.327 170.199 83.9452 78.4846 6.83196 179.962 -35.579 -42.8398 169.85 -95.3623 -74.2129 181.122 -88.611 -68.775 175.917 18.7012 -80.1727 166.162 15.9925 -52.4267 141.354 2.37171 13.6963 92.5329 16.0674 
175.189 178.144 180 146.454 136.123 171.786 175.392 171.736 83.3473 77.6394 6.7846 179.359 -35.7738 -44.0288 168.563 -95.6149 -73.4011 181.371 -88.4694 -68.9118 174.67 19.1038 -80.6891 165.194 16.0158 -52.9885 140.918 2.26486 13.8623 92.8348 16.4298 
175.157 178.139 180 146.871 136.588 171.956 175.631 173.794 82.9722 76.9899 6.58051 178.8 -35.9059 -45.2098 167.585 -95.8627 -73.3483 182.158 -87.7916 -69.0277 173.713 19.5444 -81.0976 164.47 16.1386 -53.5792 140.596 2.15993 14.0099 92.7563 17.4362 
175.076 178.151 180 147.292 137.154 171.974 175.904 177.229 82.7698 76.5234 6.27668 178.458 -35.9215 -46.3755 167.106 -96.0256 -73.857 182.154 -88.0921 -69.2397 173.249 19.9049 -81.4883 164.17 16.2681 -54.2437 140.563 2.08032 14.1397 93.5465 17.4844 
175.068 178.153 180 147.635 137.795 172.093 176.015 177.231 82.7015 76.3368 6.07811 178.413 -35.89 -47.4881 167.129 -96.168 -75.519 184.447 -86.8744 -69.559 173.299 19.9911 -81.8415 164.309 16.2512 -54.9564 140.754 1.94181 14.2753 92.3132 19.2855 
175.145 178.083 180 147.941 138.312 172.392 175.972 176.81 82.9169 76.51 5.83301 178.55 -36.0168 -48.5522 167.016 -96.3988 -76.7219 186.705 -85.4545 -70.0128 173.641 19.8783 -82.3176 164.671 16.0549 -55.7012 140.92 1.73682 14.409 90.6157 21.212 
175.357 177.941 180 148.163 138.606 172.737 175.915 175.877 83.0798 76.6735 5.50641 178.621 -36.2231 -49.4332 166.557 -96.6212 -77.4914 188.88 -83.4954 -70.5412 173.731 19.7358 -82.8633 164.773 15.8349 -56.3429 140.88 1.5476 14.5245 88.5056 23.5529 
175.636 177.821 180 148.182 138.764 173.124 175.892 174.168 83.131 76.8002 5.21136 178.392 -36.5155 -50.2672 165.713 -96.8882 -78.1603 191.435 -80.7149 -71.0357 173.626 19.5565 -83.3425 164.685 15.7109 -56.9249 140.659 1.40829 14.5474 85.6413 26.7084 
175.868 177.72 180 147.978 138.708 173.377 175.937 169.275 82.9964 76.7586 4.72207 178.062 -36.779 -50.7915 164.893 -97.167 -78.2224 195.299 -76.4249 -71.4388 173.33 19.3973 -83.7451 164.485 15.6199 -57.4442 140.402 1.28657 14.5479 81.4557 31.2202 
175.947 177.689 180 147.62 138.541 173.433 176.099 159.45 82.8447 76.6693 4.11398 177.674 -37.0095 -51.3934 164.338 -97.3737 -77.5974 200.765 -69.555 -71.8029 173.075 19.3317 -84.0929 164.346 15.6347 -57.9641 140.246 1.20166 14.5336 75.2867 37.6243 
175.851 177.692 180 147.367 138.429 173.204 176.277 147.006 82.7436 76.5155 3.44881 177.347 -37.212 -51.8132 164.138 -97.566 -76.8356 205.501 -61.017 -72.1051 172.876 19.2922 -84.3683 164.21 15.6372 -58.4256 140.172 1.0824 14.5214 68.4925 44.6349 
175.752 177.76 179.812 147.156 138.375 172.942 176.445 139.069 82.7443 76.4098 2.84408 177.238 -37.36 -52.2925 164.194 -97.7301 -76.902 207.736 -54.6314 -72.6365 172.95 19.1025 -84.8093 164.19 15.5178 -58.9062 140.213 0.960435 14.5016 63.5931 49.499 
175.696 177.772 179.46 147.022 138.362 172.709 176.477 133.219 82.7415 76.3273 2.31825 177.36 -37.4532 -52.6943 164.289 -97.8561 -77.4555 208.934 -49.5669 -73.3601 173.344 18.6761 -85.3849 164.375 15.2084 -59.4123 140.384 0.863147 14.5063 59.4723 53.3277 
175.762 177.814 179.16 146.785 138.146 172.713 176.379 129.139 82.8377 76.5104 1.99193 177.449 -37.6329 -53.3996 164.38 -97.9049 -77.1876 210.069 -44.9312 -74.1596 174.024 18.0289 -85.9967 164.833 14.7634 -59.9271 140.59 0.767755 14.5154 55.071 56.8756 
175.862 177.771 178.947 146.527 137.953 172.832 176.257 125.689 83.2454 76.9424 1.7487 177.504 -37.8619 -54.1221 164.44 -97.937 -76.6894 210.918 -40.3436 -75.0164 174.932 17.2681 -86.6431 165.411 14.2377 -60.4593 140.776 0.634123 14.4684 50.4153 60.4423 
175.996 177.641 178.864 146.295 137.868 172.997 176.104 122.431 83.5633 77.2543 1.44912 177.53 -38.0494 -54.6938 164.373 -97.9834 -76.1026 211.165 -36.2266 -75.9876 175.744 16.445 -87.3573 165.862 13.7187 -61.006 140.924 0.514317 14.3878 46.0451 63.7367 
176.156 177.483 178.909 145.923 137.69 173.14 176.018 119.512 83.7821 77.4524 1.07641 177.474 -38.2254 -55.0299 164.288 -98.093 -75.5513 210.807 -33.3654 -76.879 176.38 15.6151 -88.0025 166.172 13.2345 -61.4939 140.982 0.381696 14.2741 42.684 66.0855 
176.292 177.327 179.001 145.417 137.411 173.245 175.966 117.315 84.0297 77.5562 0.574187 177.406 -38.4035 -55.2329 164.237 -98.3074 -75.2797 210.247 -31.8221 -77.6416 176.893 14.891 -88.5775 166.343 12.8964 -61.9627 140.96 0.228143 14.06 40.5017 67.438 
176.303 177.275 179.121 144.706 136.912 173.178 176.01 116.568 84.3696 77.5962 -0.173077 177.444 -38.4991 -55.5322 164.538 -98.5502 -76.384 209.64 -32.8984 -78.2609 177.354 14.4255 -89.1429 166.482 12.7579 -62.4531 140.965 0.0911663 13.7638 40.8928 66.4968 
176.155 177.301 179.375 143.891 136.24 172.842 176.165 123.958 84.8169 77.5873 -1.10426 177.424 -38.5455 -55.7803 165.16 -98.757 -80.7458 208.398 -45.2854 -78.7269 177.836 14.1474 -89.6696 166.646 12.716 -62.9374 140.97 0.00812429 13.4523 50.4054 56.5923 
175.937 177.49 179.854 143.232 135.69 172.431 176.356 132.104 85.433 77.6417 -2.02195 177.469 -38.5727 -56.0821 165.927 -98.9121 -83.3074 205.235 -56.9222 -79.2776 178.382 13.8976 -90.2563 166.804 12.6754 -63.4026 140.979 -0.0669693 13.1235 59.0345 47.1878 
175.848 177.623 179.982 142.772 135.208 172.224 176.358 136.088 86.007 77.7188 -2.68639 177.632 -38.5961 -56.6481 166.421 -99.0169 -85.2166 203.208 -61.7395 -79.9513 178.955 13.5506 -90.9178 166.979 12.5432 -63.8756 141.011 -0.120437 12.8559 62.409 43.1257 
175.957 177.588 180 142.37 134.629 172.32 175.987 141.338 86.7329 77.9913 -3.48795 177.607 -38.8651 -57.8712 166.153 -99.2307 -87.093 201.252 -66.4383 -81.5744 179.99 12.2585 -92.2682 167.392 11.756 -64.8947 141.042 -0.274318 12.6526 64.2554 39.7556 
176.149 177.509 180 142.426 134.52 172.58 175.554 143.468 86.9273 78.1789 -3.51837 177.572 -39.089 -58.5264 165.596 -99.1829 -87.4209 200.707 -67.683 -82.6045 180.45 11.2858 -92.9755 167.545 11.143 -65.278 141.017 -0.289212 12.6698 63.7213 39.094 
176.358 177.397 180 142.586 134.615 172.901 175.161 144.741 87.1844 78.446 -3.68856 177.432 -39.3354 -59.245 164.938 -99.1465 -87.884 200.488 -67.9448 -83.8084 180.838 10.2727 -93.8447 167.63 10.5105 -65.8126 140.924 -0.327197 12.6675 62.4179 39.2517 
176.546 177.235 180 142.511 134.598 173.222 174.895 146.226 87.3867 78.6929 -3.89586 177.275 -39.5071 -59.8311 164.507 -99.1423 -88.4431 200.43 -68.0661 -84.8301 181.169 9.46805 -94.5495 167.752 10.0622 -66.319 140.856 -0.354802 12.7022 61.3334 39.4347 
176.719 177.1 180 142.206 134.331 173.473 174.749 148.915 87.4858 78.9306 -4.25162 177.096 -39.6298 -60.3998 164.467 -99.13 -88.8869 200.043 -69.1 -85.5424 181.447 9.01066 -95.1444 167.992 9.81046 -66.8483 140.876 -0.387283 12.7096 61.5086 38.6789 
176.795 176.962 180 141.815 133.782 173.572 174.677 154.679 87.7368 79.1608 -4.7077 176.969 -39.6742 -60.9694 164.831 -99.1143 -89.6502 198.202 -72.2956 -86.0608 181.839 8.75538 -95.658 168.299 9.68591 -67.327 140.914 -0.400218 12.6577 63.8301 35.8035 
176.53 176.869 180 141.317 132.912 173.191 174.879 154.59 88.2492 79.3756 -5.50291 176.875 -39.5635 -61.4408 165.739 -99.0265 -91.1964 195.964 -74.2341 -86.4296 182.347 8.7325 -96.1179 168.608 9.71257 -67.7442 140.932 -0.362844 12.53 65.9986 33.1633 
176.294 176.824 180 141.005 132.064 172.783 175.068 154.105 88.8511 79.6625 -6.30791 176.918 -39.4024 -62.0504 166.674 -98.9374 -92.9537 194.093 -75.5632 -86.811 182.933 8.80023 -96.68 168.998 9.75698 -68.1637 141.005 -0.31863 12.3359 67.8141 31.0563 
176.162 176.811 180 140.76 131.309 172.461 175.113 152.995 89.4525 80.0513 -6.98388 177.065 -39.2053 -62.6077 167.448 -98.8279 -94.1483 192.925 -75.995 -87.1631 183.444 8.79897 -97.2652 169.355 9.71962 -68.5256 141.033 -0.265544 12.1002 68.6599 29.814 
176.08 176.834 180 140.601 130.649 172.181 175.147 151.974 90.0118 80.4457 -7.52846 177.136 -39.0169 -62.9341 167.973 -98.7576 -94.4781 191.935 -76.4381 -87.5313 183.898 8.67234 -97.8711 169.677 9.56607 -68.8427 141.028 -0.219649 11.8617 69.162 28.7296 
176.101 176.822 180 140.576 130.068 172.067 175.044 150.805 90.5108 80.8464 -7.88201 177.106 -38.9455 -63.2229 168.108 -98.7259 -94.7129 191.496 -76.2708 -87.9225 184.257 8.41452 -98.4959 169.924 9.29255 -69.1352 140.956 -0.179988 11.6576 68.847 28.4644 
