176.218 176.744 180 140.451 129.696 172.174 174.749 151.309 90.6546 81.0916 -8.02715 177.014 -38.972 -63.5606 167.759 -98.7258 -94.5302 191.033 -76.5931 -88.2346 184.427 8.03198 -98.9306 170.089 9.01766 -69.3917 140.887 -0.122698 11.5381 68.6502 28.1306 
176.388 176.659 176.571 140.325 129.482 172.397 174.466 151.506 90.6994 81.2756 -8.04001 176.847 -39.0837 -63.8316 167.195 -98.7604 -94.1223 190.894 -76.5353 -88.5038 184.482 7.61235 -99.2555 170.153 8.74969 -69.5804 140.782 -0.089649 11.4429 68.0239 28.2845 
176.547 176.593 165.626 140.289 129.589 172.579 174.208 149.46 90.5887 81.2833 -8.02947 176.656 -39.1608 -64.1612 166.541 -98.7203 -93.783 191.426 -74.8567 -88.8228 184.334 7.28104 -99.4631 169.992 8.62246 -69.7301 140.626 -0.0167817 11.4176 66.2726 29.6922 
176.714 176.498 162.297 140.322 129.774 172.794 173.952 148.461 90.48 81.246 -7.90803 176.423 -39.2401 -64.2957 165.786 -98.6995 -93.449 191.807 -73.7703 -89.04 184.195 6.94111 -99.5537 169.833 8.4879 -69.8029 140.469 0.05584 11.4135 64.8844 30.8269 
176.877 176.457 159.032 140.297 129.995 173.038 173.737 148.238 90.3133 81.1321 -7.74439 176.205 -39.3261 -64.4528 165.063 -98.6672 -93.1662 192.04 -73.0516 -89.2261 183.973 6.66862 -99.5787 169.6 8.40851 -69.8583 140.31 0.109091 11.4423 63.8557 31.6917 
177.066 176.394 144.7 140.113 130.125 173.292 173.477 147.622 90.2469 81.0576 -7.48791 175.915 -39.4119 -64.505 164.147 -98.5813 -92.8641 192.115 -71.2139 -89.6225 183.598 6.17667 -99.6517 169.107 8.25987 -69.8289 139.971 0.174521 11.4551 61.8587 33.2677 
177.126 176.403 138.988 140.117 130.504 173.423 173.457 148.958 89.9933 80.8237 -7.38438 175.861 -39.4285 -64.5433 163.782 -98.4714 -92.8656 192.043 -70.7085 -89.6631 183.207 6.34745 -99.4994 168.735 8.51091 -69.8054 139.837 0.248878 11.552 61.6691 33.7184 
177.127 176.424 133.474 140.108 130.738 173.444 173.52 150.748 89.7648 80.6239 -7.31671 175.745 -39.3556 -64.4743 163.547 -98.2987 -92.7359 191.703 -70.4042 -89.5366 182.785 6.65818 -99.2824 168.355 8.80615 -69.7096 139.661 0.362786 11.6342 61.8846 33.8011 
177.103 176.464 131.474 140.162 130.922 173.437 173.611 152.27 89.6064 80.4737 -7.21276 175.577 -39.2521 -64.2744 163.378 -98.1086 -92.6385 191.401 -70.2025 -89.2767 182.34 7.05916 -98.9913 167.955 9.1414 -69.5191 139.419 0.511961 11.6956 62.2048 33.7759 
177.024 176.546 134.173 140.304 131.107 173.326 173.813 153.314 89.3276 80.3117 -7.1483 175.438 -39.1177 -63.9391 163.308 -97.9146 -92.4374 191.213 -70.0546 -88.6713 181.745 7.83978 -98.5539 167.554 9.64122 -69.2508 139.188 0.675745 11.7383 63.0344 33.6954 
176.947 176.637 143.994 140.484 131.335 173.205 174.008 153.433 88.9921 80.0851 -7.10168 175.4 -38.8893 -63.4912 163.33 -97.7257 -92.1337 191.191 -70.0737 -87.9506 181.12 8.68759 -98.0239 167.148 10.1805 -68.9157 138.973 0.866022 11.7911 63.9945 33.5249 
176.759 176.884 164.261 140.724 131.784 172.87 174.396 150.656 88.5938 79.8022 -7.27129 175.461 -38.6012 -62.8392 163.693 -97.5237 -91.9049 190.966 -70.0786 -86.9744 180.236 9.87763 -97.3104 166.563 10.9456 -68.4485 138.718 1.03789 11.818 65.5261 33.088 
176.526 177.071 180 141.193 132.372 172.501 174.723 145.726 88.073 79.4444 -7.48921 175.589 -38.2543 -62.0057 164.001 -97.318 -91.3495 190.856 -68.752 -85.9133 179.206 11.188 -96.5426 165.919 11.7006 -67.9238 138.489 1.19948 11.9239 66.4493 33.5508 
176.395 177.082 180 141.763 133.204 172.343 174.825 136.74 87.2747 79.04 -7.47268 175.795 -37.9477 -61.1726 163.915 -97.1305 -89.9547 192.325 -63.9033 -84.8213 178.085 12.3888 -95.7059 165.313 12.4177 -67.3982 138.357 1.36707 12.0787 64.4529 37.103 
176.457 177.068 163.658 142.555 134.318 172.571 174.817 126.478 86.2874 78.7549 -7.21253 175.893 -37.8063 -60.4119 163.32 -96.9831 -87.5699 194.749 -56.4492 -83.6929 176.798 13.5771 -94.7834 164.742 13.1307 -66.8725 138.202 1.53775 12.3555 60.0052 43.2389 
176.607 177.078 158.265 143.241 135.226 172.716 174.91 120.717 85.5175 78.7523 -6.74716 175.96 -37.5869 -59.6413 162.765 -96.8331 -85.8373 195.887 -50.8444 -82.7458 175.774 14.5365 -93.9365 164.353 13.7306 -66.3147 138.043 1.7005 12.6107 56.8935 47.913 
176.683 177.132 158.165 143.993 135.904 172.677 175.03 116.844 84.994 78.7795 -6.27074 176.16 -37.4368 -58.9092 162.403 -96.6515 -84.4626 196.024 -47.1451 -82.149 175.038 15.1507 -93.3346 164.035 14.0063 -65.746 137.905 1.80389 12.9176 54.8655 50.9084 
176.705 177.269 154.316 144.53 136.306 172.585 175.245 111.502 84.6618 78.9058 -5.77019 176.376 -37.2798 -58.4165 162.344 -96.3872 -82.9443 195.206 -43.1336 -81.6676 174.523 15.6664 -92.8097 163.817 14.2721 -65.1782 137.824 1.92906 13.1704 52.5724 53.7527 
176.706 177.388 144.095 144.882 136.497 172.395 175.394 104.788 84.3904 78.9054 -5.2479 176.559 -37.1208 -57.834 162.354 -96.0903 -81.3716 192.946 -39.2829 -81.3164 174.109 15.9581 -92.3542 163.504 14.4481 -64.542 137.724 2.07353 13.3234 50.2845 56.2183 
176.624 177.488 130.048 144.977 136.576 172.076 175.496 99.7291 84.1029 78.6491 -4.76598 176.68 -36.8266 -56.9847 162.433 -95.8272 -80.6242 189.816 -37.6287 -80.8677 173.575 16.2052 -91.8094 162.935 14.693 -63.8191 137.542 2.20814 13.3034 50.1046 56.69 
176.363 177.62 118.654 144.91 136.67 171.61 175.712 99.7101 83.8869 78.3347 -4.4563 176.782 -36.5572 -56.0551 162.733 -95.6634 -80.9501 187.757 -38.9976 -80.1891 172.871 16.673 -91.1349 162.2 15.1239 -63.0586 137.341 2.2598 13.1655 52.8662 54.6748 
175.948 177.703 116.884 145.106 137.311 171.446 175.484 101.337 83.3923 78.2567 -3.52073 177.099 -36.212 -54.5851 162.288 -95.3119 -78.8635 188.641 -37.8569 -78.2481 171.599 17.8294 -89.3528 161.428 16.0543 -61.688 137.098 2.4839 13.1581 53.1223 56.0143 
175.705 177.812 123.288 145.328 137.431 171.512 175.444 101.903 83.4448 78.4082 -3.11983 177.602 -36.0293 -54.2324 162.149 -95.0875 -77.3053 190.375 -36.1722 -77.4313 171.19 18.4772 -88.6073 161.251 16.4221 -61.1474 137.073 2.60866 13.2963 51.6985 57.9543 
175.571 177.946 125.943 145.447 137.415 171.524 175.536 99.7765 83.4972 78.5505 -2.54419 178.073 -35.8601 -53.998 162.364 -94.7625 -75.7414 190.749 -33.5204 -76.7196 171.046 19.0521 -87.9471 161.307 16.7393 -60.5839 137.241 2.77455 13.4635 49.7376 60.2064 
175.553 177.994 125.449 145.625 137.399 171.503 175.675 95.9734 83.5646 78.5885 -1.97858 178.435 -35.7034 -53.7852 162.851 -94.5291 -74.3808 189.899 -30.8304 -76.1349 170.973 19.5343 -87.408 161.312 17.0304 -60.0433 137.367 2.89017 13.5774 47.8567 62.2046 
175.507 178.018 119.974 145.82 137.427 171.231 175.839 93.115 83.4254 78.3554 -1.39433 178.522 -35.4919 -53.2019 163.381 -94.3195 -74.2558 187.942 -30.6822 -75.6204 170.722 19.8802 -86.8981 161.064 17.2512 -59.4145 137.387 2.99568 13.6557 48.7203 61.5268 
175.286 178.052 111.592 145.927 137.492 170.822 176.063 93.955 83.119 77.9912 -0.919743 178.336 -35.2149 -52.2182 163.667 -94.171 -75.176 186.222 -33.5294 -75.0996 170.306 20.1667 -86.3861 160.684 17.4746 -58.7657 137.329 3.12385 13.667 52.7102 58.0306 
175.074 178.066 106.164 146.023 137.647 170.555 176.095 94.9671 82.5506 77.499 -0.443609 178.006 -34.9318 -50.9984 163.44 -94.0454 -75.1003 184.879 -35.5857 -74.5441 169.647 20.286 -85.8153 160.121 17.614 -58.0716 137.12 3.27517 13.6573 55.4907 55.6725 
174.978 178.018 104.683 145.888 137.648 170.524 176.071 96.4745 81.9638 77.1244 -0.00847101 177.9 -34.6388 -49.8407 163.093 -93.9681 -74.2078 184.641 -36.7606 -73.9107 168.94 20.3913 -85.1905 159.609 17.755 -57.4032 136.885 3.41205 13.6578 56.885 54.5641 
174.965 178.016 108.228 145.722 137.578 170.62 176.044 97.9658 81.6357 76.962 0.36869 178.062 -34.2831 -48.891 163.002 -93.8515 -73.1159 185.542 -37.0956 -73.1696 168.473 20.5878 -84.5007 159.347 17.9319 -56.8047 136.758 3.54024 13.655 57.163 54.4427 
174.964 178.038 112.08 145.621 137.517 170.733 176.055 98.4423 81.5421 76.903 0.680763 178.416 -33.9577 -48.111 163.069 -93.7183 -72.0888 186.29 -36.9471 -72.5121 168.239 20.8436 -83.8808 159.233 18.1109 -56.2587 136.759 3.67807 13.6735 57.0423 54.6466 
174.94 178.078 116.014 145.39 137.332 170.67 176.2 98.8373 81.619 76.8676 0.797263 178.878 -33.5773 -47.5747 163.615 -93.5152 -71.9109 186.896 -36.8945 -71.9564 168.094 21.3061 -83.3894 159.144 18.4429 -55.7813 136.862 3.8384 13.6614 57.4648 54.4411 
174.802 178.268 119.356 145.111 137.14 170.437 176.525 104.622 81.86 76.854 0.733761 179.364 -33.1612 -47.0246 164.638 -93.2135 -72.7848 187.866 -40.922 -71.5364 167.982 21.9343 -83.0522 159.019 18.8808 -55.3205 137.015 4.01817 13.5972 61.6392 50.3985 
174.558 178.486 126.107 144.916 137.02 170.094 176.897 111.609 82.1174 76.891 0.67065 179.715 -32.7354 -46.3641 165.798 -92.942 -73.9206 188.464 -46.1471 -71.047 167.886 22.6199 -82.6697 158.957 19.3658 -54.8461 137.15 4.18975 13.5424 66.7812 45.4876 
174.148 178.746 146.962 144.952 137.121 169.621 177.244 123.358 82.2386 76.8398 0.574286 179.898 -32.3345 -45.6076 166.869 -92.6221 -75.8072 188.681 -54.574 -70.7018 167.743 23.2218 -82.3882 158.825 19.8081 -54.384 137.251 4.38529 13.5047 73.8692 38.6793 
174.547 178.308 180 145.209 135.203 169.731 176.944 137.376 82.4321 76.9014 0.526595 180.125 -32.3982 -44.6835 168.076 -92.4468 -76.0763 187.698 -65.1053 -70.3688 168.031 23.5725 -81.9102 159.279 19.695 -53.9918 137.406 4.47152 14.1868 81.3086 30.7137 
174.913 177.966 180 145.499 133.64 169.793 176.667 145.727 82.2831 77.3375 0.672604 180.151 -32.4225 -43.4046 168.568 -92.2395 -75.9023 185.725 -71.1084 -70.077 168.16 23.639 -81.4491 159.771 19.5614 -53.5402 137.421 4.60572 14.7682 85.5476 26.239 
175.219 177.646 142.633 145.764 132.714 169.827 176.437 146.278 82.0209 77.9684 0.83964 180.261 -32.4281 -42.1002 168.72 -92.0859 -75.3684 184.764 -71.2962 -69.7866 168.246 23.491 -80.9293 160.217 19.466 -53.0392 137.367 4.72603 15.1387 85.7867 25.7526 
175.438 177.335 123.269 146.057 132.344 169.791 176.137 147.662 81.7814 78.6508 1.0064 180.526 -32.3414 -40.9587 169.016 -91.8369 -74.7972 183.009 -72.2065 -69.5032 168.323 23.218 -80.3701 160.56 19.3869 -52.4979 137.302 4.80676 15.3261 86.6702 24.4194 
175.57 177.148 121.689 146.185 132.342 169.603 175.87 151.597 81.6948 79.406 1.09848 180.944 -32.1357 -39.9151 169.593 -91.5141 -74.716 181.029 -75.6451 -69.3195 168.56 22.7741 -79.819 160.846 19.3099 -51.9078 137.287 4.87736 15.2903 88.6809 21.779 
175.727 177.17 122.113 145.514 132.501 169.507 175.65 154.468 81.8849 80.1029 1.22324 181.319 -31.8785 -39.1321 170.221 -91.1405 -74.8902 179.121 -78.4246 -69.214 168.946 22.1633 -79.2907 160.912 19.3768 -51.2657 137.212 5.01682 14.8819 89.8136 19.7006 
175.817 177.318 128.7 144.23 132.549 169.349 175.667 158.675 82.4257 80.6922 1.31039 181.687 -31.4811 -38.4119 170.993 -90.7387 -75.5279 177.077 -81.8612 -69.1473 169.568 21.611 -78.7718 160.968 19.5819 -50.6291 137.18 5.23325 14.3715 91.2261 17.7111 
175.899 177.478 140.002 143.021 132.583 169.324 175.863 163.586 83.0907 81.1622 1.8013 181.893 -31.0128 -37.7126 171.599 -90.441 -76.8453 174.952 -84.876 -68.9211 170.29 21.2896 -78.1845 161.127 19.9281 -49.989 137.215 5.48703 13.9176 92.7944 16.754 
175.935 177.655 153.887 142.047 132.668 169.406 176.095 167.791 83.4594 81.4503 2.66686 181.881 -30.5669 -36.9548 171.587 -90.2485 -77.2977 172.921 -86.9935 -68.6256 170.721 21.0661 -77.6055 161.18 20.2456 -49.3019 137.194 5.7724 13.6206 94.0895 16.3051 
175.892 177.74 166.152 141.35 132.844 169.585 176.344 171.549 83.4894 81.5442 3.81057 181.716 -30.2326 -35.9631 171.004 -90.2288 -75.8715 171.557 -88.2138 -68.1909 170.828 20.911 -76.9582 161.13 20.5205 -48.5763 137.1 6.00739 13.4519 94.8908 15.6051 
175.84 177.715 177.518 140.462 133.24 169.639 176.382 174.348 83.6366 81.6285 4.76955 181.51 -30.058 -34.8683 170.435 -90.1681 -73.7654 170.247 -89.0906 -67.7852 170.917 20.3665 -76.2878 160.888 20.5632 -47.7767 136.893 6.16158 13.2171 94.918 14.6894 
175.796 177.858 179.628 139.719 133.528 169.586 176.325 174.71 84.3546 81.597 5.2933 181.523 -29.8995 -33.8779 170.475 -89.9158 -71.8794 169.689 -89.6496 -67.4928 171.192 19.939 -75.7081 160.495 20.5578 -46.9862 136.735 6.31462 13.0045 94.3062 13.9038 
175.737 178.109 179.563 139.801 133.72 169.503 176.279 174.627 85.4343 81.5212 5.64475 181.568 -29.6288 -33.0539 171.031 -89.5849 -70.6321 169.248 -90.286 -67.0564 171.406 20.0944 -75.0799 159.977 20.7224 -46.2084 136.545 6.47744 12.8927 94.2561 13.298 
175.637 178.324 179.509 140.097 133.994 169.341 176.299 174.502 86.3828 81.5672 5.91764 181.582 -29.2502 -32.0572 171.529 -89.2237 -69.9025 168.775 -90.6162 -66.5675 171.628 20.2597 -74.4161 159.55 20.9502 -45.4326 136.343 6.69475 12.7817 94.1888 13.2521 
175.57 178.412 179.684 139.858 134.016 169.307 176.531 176.311 86.889 81.5007 6.52918 181.628 -28.6881 -30.9998 171.63 -88.9334 -68.0091 167.757 -91.1755 -65.9459 171.891 20.4999 -73.7524 159.423 21.3105 -44.7257 136.279 6.97934 12.6393 95.0325 12.5184 
175.523 178.434 179.736 138.874 134.014 169.471 176.739 176.526 86.6779 81.4623 7.80928 181.343 -28.2 -30.0573 171.041 -88.8585 -67.2213 168.363 -90.3127 -65.0106 171.818 20.5665 -72.9127 159.449 21.6325 -44.0426 136.123 7.18517 12.5294 94.5398 12.856 
175.609 178.341 179.804 137.986 134.107 169.824 176.767 176.775 86.4687 81.3203 9.24931 181.175 -27.8962 -29.0757 169.946 -88.9506 -67.1256 168.833 -89.022 -64.2611 171.74 20.323 -72.1866 159.378 21.7111 -43.3636 135.998 7.34544 12.4419 93.4572 13.9456 
175.687 178.259 179.786 138.105 134.106 170.025 176.785 176.031 86.6375 81.052 10.1905 181.368 -27.6209 -27.9545 168.957 -89.0264 -66.3506 169.177 -88.2306 -63.744 171.771 20.2376 -71.6281 159.195 21.6141 -42.7017 135.94 7.48335 12.4478 92.6125 14.6863 
175.744 178.218 179.751 139.062 134.152 170.052 176.741 175.716 87.0531 80.8408 10.6896 181.553 -27.424 -26.9292 168.395 -88.9956 -65.0712 168.691 -88.4447 -63.1479 171.742 20.6125 -71.0677 158.963 21.5843 -42.0567 135.847 7.64007 12.4946 93.0086 14.5488 
175.856 178.233 179.688 140.287 134.371 170.011 176.643 175.366 87.4393 80.6221 10.7987 181.808 -27.2586 -26.1193 168.26 -88.8802 -63.5818 168.057 -89.0355 -62.5478 171.486 21.2583 -70.5537 158.557 21.6534 -41.4414 135.705 7.79792 12.5421 93.9155 13.9115 
175.928 178.278 179.477 141.278 134.694 169.881 176.669 173.54 87.6667 80.4697 10.6722 182.183 -27.0163 -25.3233 168.541 -88.7433 -64.5718 168.821 -88.3842 -62.0838 171.151 21.9091 -70.1099 158.114 21.8603 -40.8109 135.576 7.9824 12.5711 93.5435 15.2585 
175.884 178.313 179.449 141.485 134.973 169.738 176.782 173.867 87.7686 80.4932 10.7321 182.504 -26.6438 -24.4253 168.866 -88.5866 -64.7153 168.141 -88.7153 -61.6315 170.911 22.2362 -69.617 157.803 22.1006 -40.1641 135.399 8.1494 12.5375 94.1484 15.6626 
175.743 178.292 179.407 140.663 135.164 169.681 176.8 173.575 87.242 80.4678 11.4081 182.744 -26.1915 -23.4466 169.053 -88.4244 -64.5372 167.951 -88.5947 -61.0604 170.491 22.0691 -69.0326 157.604 22.1237 -39.4651 135.239 8.22109 12.502 94.1026 16.138 
175.665 178.272 179.435 140.262 135.024 169.446 176.681 173.278 87.0353 80.3912 12.1446 183.181 -25.6637 -22.7443 168.938 -88.3172 -64.4068 167.566 -88.3177 -60.8988 170.224 21.7964 -68.7794 157.366 21.9329 -38.7135 135.168 8.18867 12.3808 93.9926 16.6508 
175.709 178.21 179.402 140.654 135.117 169.361 176.606 173.07 87.0906 80.3003 12.7944 183.484 -25.2198 -21.7386 168.72 -88.1684 -63.4815 167.383 -88.5127 -60.2051 170.403 21.8139 -68.1388 157.522 21.8223 -38.0966 135.241 8.27795 12.4065 94.2251 16.6461 
175.836 178.167 179.341 141.566 135.367 169.252 176.456 172.758 87.0912 80.041 13.0627 183.806 -24.9267 -20.8235 168.448 -88.0124 -62.5149 167.115 -88.7587 -59.4143 170.374 22.1645 -67.5038 157.528 21.7692 -37.4964 135.288 8.42953 12.4738 94.7841 16.5204 
176.04 178.157 179.284 142.473 135.649 169.129 176.371 172.834 87.0167 79.7894 13.131 184.096 -24.8026 -20.0782 168.488 -87.9799 -61.6042 166.896 -89.3517 -58.5071 170.223 22.7474 -66.8348 157.535 21.867 -36.9474 135.382 8.5076 12.5308 95.8596 16.2009 
176.22 178.164 179.243 143.341 136.023 168.936 176.34 173.119 86.948 79.6308 12.9757 184.482 -24.6789 -19.5277 169.081 -87.9509 -61 166.851 -90.0529 -57.6547 170.041 23.4291 -66.2063 157.534 22.1014 -36.4555 135.511 8.52191 12.5711 97.1127 15.885 
176.406 178.21 178.716 144.123 136.491 168.624 176.225 173.331 86.8896 79.3856 12.9283 185.097 -24.4178 -18.7568 170.334 -87.6919 -60.3159 166.559 -90.8983 -56.4767 169.638 24.1573 -65.1228 157.185 22.4647 -35.4231 135.516 8.58291 12.6236 98.4194 15.5407 
176.344 178.249 178.42 144.146 136.622 168.463 176.19 173.101 86.6711 79.241 12.8851 185.322 -24.3061 -18.7226 171.04 -87.4632 -60.1478 166.653 -90.8839 -56.1758 169.399 24.3554 -64.8049 157.014 22.6344 -35.1239 135.57 8.60473 12.6479 98.7013 15.3709 
176.195 178.283 178.398 143.955 136.727 168.374 176.155 172.872 86.4279 79.1388 13.324 185.394 -24.2116 -18.6426 171.381 -87.285 -59.8241 166.769 -90.6762 -55.7804 169.294 24.3691 -64.3665 156.97 22.7458 -34.7152 135.63 8.64593 12.6616 98.6686 15.1881 
176.018 178.279 178.585 143.667 136.619 168.317 176.132 172.801 86.2617 79.0781 14.0336 185.299 -24.0956 -18.42 171.48 -87.1177 -59.1617 166.926 -90.4769 -55.329 169.424 24.2859 -63.9143 157.166 22.7616 -34.3663 135.739 8.69613 12.6841 98.5657 14.8863 
175.818 178.276 178.846 143.396 136.498 168.272 176.115 172.538 86.1653 79.0518 14.7838 185.254 -23.9267 -18.2126 171.485 -86.974 -58.5517 167.392 -90.0425 -54.9137 169.652 24.1907 -63.504 157.431 22.742 -34.0211 135.88 8.77223 12.7012 98.164 14.6678 
175.692 178.225 179.15 143.425 136.412 168.259 176.071 172.31 86.1775 79.0055 15.4809 185.408 -23.6647 -17.9147 171.384 -86.8086 -57.8275 167.802 -89.6294 -54.558 169.959 24.1614 -63.1582 157.714 22.6806 -33.6654 136.071 8.90248 12.7286 97.7941 14.4593 
175.708 178.158 179.132 143.556 136.364 168.197 175.995 172.028 86.1881 78.9255 15.9412 185.695 -23.4066 -17.5693 171.25 -86.6803 -57.0755 168.167 -89.4173 -54.1693 170.21 24.1738 -62.8284 157.963 22.5801 -33.3213 136.274 9.00441 12.7448 97.6015 14.2444 
175.781 178.085 179.108 143.759 136.359 168.153 175.899 171.931 86.1939 78.8321 16.2597 185.961 -23.243 -17.1529 171.225 -86.5709 -56.3984 168.365 -89.4324 -53.7805 170.45 24.2373 -62.5199 158.226 22.4953 -33.0301 136.497 9.09346 12.7695 97.6542 14.065 
175.901 178.039 178.715 143.986 136.448 168.092 175.798 171.891 86.2243 78.7546 16.2336 186.366 -23.1455 -16.831 171.477 -86.4745 -56.0604 168.374 -89.6381 -53.598 170.631 24.2843 -62.361 158.387 22.4123 -32.8012 136.723 9.15084 12.784 97.8128 13.9851 
176.04 178.013 178.25 144.215 136.571 168.026 175.696 171.907 86.2266 78.6638 16.0215 186.78 -23.0926 -16.6919 171.814 -86.3737 -55.9195 168.229 -89.9326 -53.5772 170.729 24.33 -62.3329 158.454 22.3444 -32.6441 136.929 9.20174 12.7929 98.052 13.8899 
176.164 177.986 177.924 144.471 136.752 167.977 175.571 171.854 86.208 78.5843 15.7258 187.146 -23.1374 -16.6585 172.157 -86.3156 -55.9808 168.163 -90.1029 -53.5775 170.788 24.3619 -62.3295 158.489 22.2831 -32.5501 137.106 9.21224 12.8043 98.2056 13.8945 
176.215 177.971 177.682 144.696 136.929 167.939 175.453 171.737 86.1924 78.494 15.377 187.496 -23.1669 -16.7443 172.476 -86.2301 -56.2053 168.123 -90.113 -53.6914 170.826 24.4097 -62.4078 158.469 22.2744 -32.5004 137.264 9.27085 12.8089 98.2171 13.9624 
176.246 177.968 177.494 144.836 137.055 167.884 175.39 171.732 86.191 78.4603 15.0758 187.758 -23.1953 -16.844 172.783 -86.1484 -56.4665 168.039 -90.1739 -53.8183 170.909 24.4494 -62.4903 158.51 22.2944 -32.4904 137.421 9.32816 12.8183 98.2749 14.0363 
176.249 177.978 177.386 144.921 137.16 167.832 175.353 171.753 86.1924 78.4339 14.8574 187.911 -23.2111 -16.9401 173.024 -86.0729 -56.7293 167.927 -90.2187 -53.9435 170.955 24.4691 -62.5596 158.503 22.3285 -32.4827 137.521 9.37504 12.8205 98.3067 14.1234 
176.232 177.991 177.342 144.989 137.227 167.807 175.295 171.767 86.1614 78.3792 14.6706 187.986 -23.3179 -17.1195 173.213 -86.0315 -57.0043 167.789 -90.2582 -54.0741 170.972 24.461 -62.6339 158.474 22.3479 -32.5038 137.614 9.39462 12.8295 98.3343 14.1697 
176.179 178.005 177.378 145.008 137.236 167.812 175.226 171.797 86.1475 78.3326 14.5375 188.078 -23.4057 -17.3223 173.415 -85.976 -57.201 167.716 -90.2589 -54.2388 171.06 24.4035 -62.7449 158.506 22.3253 -32.5674 137.729 9.40774 12.8403 98.2831 14.1602 
176.2 178.035 177.387 144.966 137.214 167.832 175.203 171.901 86.1211 78.273 14.3752 188.193 -23.5113 -17.4895 173.693 -85.9292 -57.3539 167.576 -90.3565 -54.414 171.137 24.352 -62.8653 158.531 22.3025 -32.619 137.869 9.40801 12.8459 98.3412 14.1412 
176.24 178.052 177.454 144.906 137.195 167.869 175.216 172.002 86.0608 78.2144 14.1091 188.464 -23.5853 -17.6438 173.889 -85.9607 -57.4728 167.498 -90.4694 -54.6884 171.271 24.2319 -63.093 158.629 22.2168 -32.7389 138.062 9.38765 12.8409 98.3609 14.1316 
176.175 178.075 177.684 144.762 137.135 167.879 175.3 172.165 86.0348 78.2037 13.8346 188.721 -23.6013 -17.7813 174.021 -86.0062 -57.5488 167.515 -90.5137 -55.062 171.503 24.0924 -63.4245 158.825 22.1281 -32.9379 138.286 9.37859 12.8184 98.324 14.1295 
176.066 178.103 178.039 144.605 137.012 167.884 175.454 172.433 85.9986 78.2237 13.7015 188.815 -23.6617 -17.9103 174.068 -86.1209 -57.572 167.686 -90.593 -55.3954 171.86 23.9497 -63.7511 159.198 22.0398 -33.2198 138.538 9.3385 12.8191 98.3305 14.0888 
175.893 178.139 178.393 144.388 136.799 167.947 175.652 172.611 85.9948 78.3256 13.7055 188.758 -23.7098 -18.0214 173.97 -86.3002 -57.6954 168.1 -90.4831 -55.774 172.307 23.78 -64.1448 159.691 21.9236 -33.5987 138.762 9.30058 12.839 98.1195 14.1609 
175.763 178.141 178.655 144.163 136.558 168.127 175.869 172.584 86.0593 78.5313 13.874 188.683 -23.7549 -18.1829 173.802 -86.6123 -57.9852 168.916 -90.1679 -56.1113 172.884 23.5859 -64.5497 160.355 21.7629 -34.0784 138.971 9.20343 12.8747 97.6689 14.361 
175.64 178.137 178.535 143.898 136.355 168.273 176.129 172.427 86.2597 78.8243 14.0341 188.608 -23.7158 -18.4666 174.041 -86.8989 -58.514 170.095 -89.8884 -56.3924 173.526 23.4639 -64.9067 161.054 21.6791 -34.6306 139.186 9.0211 12.8853 97.2241 14.6238 
175.549 178.191 178.241 143.603 136.195 168.43 176.396 172.034 86.5532 79.1301 13.8262 188.787 -23.6351 -18.995 174.472 -87.1329 -59.3901 171.335 -89.4788 -56.9751 174.082 23.3484 -65.4905 161.566 21.6114 -35.2561 139.418 8.85727 12.8543 96.5606 15.0045 
175.476 178.319 177.931 143.379 136.031 168.591 176.522 171.552 86.872 79.3575 13.4378 189.079 -23.6821 -19.8263 175.125 -87.186 -60.3648 172.325 -89.116 -57.7793 174.503 23.1584 -66.2017 161.827 21.4772 -35.8583 139.666 8.70504 12.8125 95.7912 15.2095 
175.477 178.422 177.886 143.102 135.92 168.758 176.478 171.27 87.0369 79.5585 12.966 189.323 -23.9072 -20.687 175.467 -87.2021 -61.3216 172.622 -88.9176 -58.7188 174.805 22.7229 -66.9641 161.976 21.2466 -36.4379 139.844 8.60175 12.7789 95.0025 15.3358 
175.584 178.48 177.692 142.815 135.857 168.857 176.491 171.328 87.0989 79.7239 12.3954 189.294 -24.318 -21.2354 175.393 -87.3987 -62.1796 172.123 -89.1884 -59.6183 174.934 22.1997 -67.6705 162.004 20.9913 -36.9935 139.862 8.47321 12.7663 94.66 15.5184 
