164.567 166.555 141.803 121.84 131.703 173.494 158.758 146.262 79.2238 91.1584 -114.12 181.316 40.5108 -61.0776 164.319 -34.4099 -20.5041 139.085 -33.5496 -20.2307 128.751 49.7455 -5.70266 125.803 53.1049 -21.827 174.543 53.9833 7.26077 78.1051 23.5703 
164.9 166.313 141.078 121.72 131.76 173.646 158.325 145.908 79.0838 91.1471 -114.135 181.214 39.9741 -61.0859 164.584 -34.5041 -20.6054 139.543 -33.6651 -20.4524 128.983 49.3168 -5.91715 125.974 52.889 -21.9819 174.742 53.8579 7.08126 77.8723 23.4153 
165.189 166.045 139.965 121.474 131.805 173.72 157.905 145.558 78.9369 91.1235 -114.218 181.156 39.5058 -61.0539 164.715 -34.5786 -20.7586 139.808 -33.6472 -20.6897 129.185 48.9049 -6.16636 126.112 52.7361 -22.1524 174.928 53.7506 6.87887 77.485 23.2472 
165.441 165.751 138.728 121.367 132.241 173.798 157.422 145.173 78.8589 91.0139 -114.284 181.032 39.0491 -61.0822 164.875 -34.6626 -20.9301 140.202 -33.6767 -20.8744 129.44 48.5032 -6.39339 126.408 52.6123 -22.3239 175.148 53.59 6.68637 77.2016 23.0739 
165.632 165.329 137.332 121.522 132.69 173.907 156.979 144.889 78.8605 90.984 -114.299 180.861 38.6112 -61.0843 164.983 -34.7545 -21.1123 140.537 -33.6918 -21.0297 129.688 48.2718 -6.57481 126.718 52.5178 -22.4866 175.396 53.4292 6.60751 77.0617 22.892 
165.759 164.941 135.891 121.071 133.157 173.9 156.576 144.586 78.8771 91.0706 -114.364 180.732 38.215 -61.0449 164.984 -34.909 -21.3038 140.78 -33.7029 -21.1038 129.888 47.797 -6.75517 126.957 52.3737 -22.6468 175.617 53.2318 6.43631 76.5979 22.674 
165.821 164.595 134.585 120.549 133.937 173.899 156.211 144.353 79.0321 91.0022 -114.407 180.498 37.8336 -61.0189 164.919 -35.1042 -21.5143 141.014 -33.8163 -21.1193 129.984 47.2784 -6.92219 127.252 52.2695 -22.795 175.767 52.9725 6.29938 76.172 22.4228 
165.855 164.324 133.585 120.115 134.994 173.956 155.861 144.183 79.4688 90.9024 -114.395 180.225 37.4246 -61.0306 164.831 -35.3288 -21.7291 141.265 -34.0126 -21.0985 130.025 46.7346 -7.06889 127.703 52.2149 -22.9536 175.971 52.674 6.24946 75.7018 22.1713 
165.86 164.012 132.417 120.32 136.061 174.033 155.528 144.029 79.9233 90.6405 -114.385 179.861 37.0541 -61.0212 164.666 -35.558 -22.0286 141.456 -34.1867 -21.1354 130.145 46.4655 -7.19444 128.307 52.2439 -23.1103 176.213 52.3448 6.33418 75.5245 21.8604 
165.877 163.838 131.357 120.97 137.107 174.129 155.257 143.875 80.3388 90.2688 -114.38 179.452 36.687 -61.0861 164.538 -35.8179 -22.4447 141.66 -34.4141 -21.2731 130.322 46.3532 -7.3813 128.977 52.2733 -23.2776 176.422 51.9781 6.50701 75.611 21.5351 
165.864 163.68 130.808 122.23 138.164 174.261 155.109 144.014 80.6324 89.7266 -114.347 179.098 36.3389 -61.1631 164.345 -36.0335 -22.8396 141.778 -34.6743 -21.3689 130.644 46.653 -7.54022 129.856 52.4847 -23.4606 176.697 51.6418 6.82668 76.1167 21.2285 
165.856 163.584 130.644 123.434 138.982 174.412 155.082 144.211 80.7929 89.255 -114.33 178.801 36.0214 -61.2948 164.162 -36.231 -23.2548 141.824 -34.9184 -21.4784 131.079 47.0704 -7.66151 130.717 52.6885 -23.6605 177.009 51.3394 7.07541 76.7036 20.978 
165.811 163.437 130.645 124.205 139.592 174.485 155.059 144.304 80.9099 88.8327 -114.455 178.705 35.7139 -61.4363 164.038 -36.4784 -23.6401 141.943 -35.1989 -21.5412 131.542 47.2691 -7.79373 131.585 52.7327 -23.9169 177.333 50.9932 7.35828 77.1157 20.7602 
165.779 163.399 130.794 125.194 140.01 174.597 155.134 144.368 81.0341 88.4163 -114.593 178.595 35.4433 -61.7928 164.001 -36.7333 -24.1132 142.098 -35.516 -21.6564 131.998 47.5553 -7.93695 132.406 52.6961 -24.2138 177.621 50.6443 7.62448 77.687 20.6456 
165.757 163.232 130.929 125.853 140.159 174.651 155.248 144.347 81.2359 88.2954 -114.851 178.647 35.1921 -62.1667 163.929 -37.0755 -24.5499 142.221 -35.8838 -21.7188 132.267 47.5948 -8.08082 132.959 52.4104 -24.5401 177.813 50.2394 7.9008 78.0511 20.5717 
165.806 163.05 131.114 126.448 140.08 174.707 155.391 144.239 81.4522 88.1811 -115.192 178.751 34.9718 -62.7566 163.977 -37.4403 -25.0905 142.319 -36.2685 -21.8134 132.419 47.5324 -8.24559 133.37 51.9577 -24.9189 177.887 49.7986 8.17656 78.3764 20.6672 
165.956 162.689 131.209 126.851 139.966 174.73 155.543 144.041 81.4466 87.9529 -115.649 179.095 34.7391 -63.6042 164.275 -37.8514 -25.8055 142.476 -36.6975 -22.0526 132.59 47.2759 -8.54131 133.684 51.3827 -25.3736 177.864 49.2922 8.39566 78.6779 20.9245 
166.178 162.304 131.42 126.367 139.11 174.619 155.724 143.982 80.8439 88.2357 -116.483 179.982 34.6731 -64.6626 165.003 -38.2486 -26.5965 142.985 -37.2691 -22.5793 132.953 46.4811 -9.11427 133.587 50.4249 -25.9086 177.871 48.8211 8.40402 78.706 21.2118 
166.272 161.81 131.588 125.652 137.831 174.341 156.087 144.452 79.9963 88.3898 -117.612 181.128 34.8522 -65.9636 165.962 -38.7003 -27.4004 143.725 -38.1446 -23.2977 133.223 45.5117 -9.84592 133.261 49.3482 -26.4854 177.762 48.319 8.35107 78.984 21.5424 
166.204 161.763 131.867 124.749 137.146 173.999 156.638 145.286 79.0773 88.4093 -118.692 182.176 35.0685 -67.4107 166.984 -39.2718 -28.2157 144.61 -39.3189 -24.1894 133.362 44.3813 -10.7975 132.831 48.4822 -27.0821 177.561 47.7828 8.1982 79.4184 21.8285 
166.003 162.116 132.551 123.994 137.047 173.898 157.255 146.207 78.326 88.2469 -119.391 182.665 35.0209 -68.7486 168.043 -39.7938 -29.0426 145.426 -40.4812 -25.2159 133.503 43.4808 -11.8136 132.556 47.9637 -27.6771 177.432 47.3472 7.96269 79.929 22.0895 
165.89 162.578 133.696 124.662 137.815 174.063 157.696 147.008 78.2324 87.6809 -119.683 182.49 34.4306 -69.7899 169.286 -40.3297 -29.7516 146.441 -41.6236 -26.2587 133.754 43.2932 -12.7654 132.874 47.8193 -28.2137 177.537 46.9627 7.93115 81.0173 22.2634 
165.874 163.102 135.765 127.878 138.868 174.187 157.974 147.726 78.1951 86.7249 -119.974 181.867 33.6306 -70.4685 170.092 -41.0108 -30.2997 147.179 -42.7296 -27.1513 134.316 44.1138 -13.5436 133.737 47.956 -28.7419 177.743 46.4691 8.2476 83.1301 22.2819 
165.837 163.733 138.715 130.212 139.517 174.317 158.26 148.4 78.2162 86.2282 -120.416 180.905 32.8513 -70.9189 170.15 -41.7391 -30.7736 147.262 -43.6651 -27.7903 134.749 44.8282 -14.0757 134.304 47.9447 -29.32 177.881 45.9457 8.53671 84.7508 22.1893 
165.791 164.069 141.768 131.092 140.107 174.301 158.189 148.602 78.1815 86.001 -121.152 180.245 32.1765 -71.2057 169.831 -42.4908 -31.327 147.152 -44.4933 -28.3113 135.016 44.8244 -14.6019 134.642 47.6539 -29.9472 177.921 45.3552 8.71682 85.4027 21.8701 
165.774 164.287 144.622 131.555 140.706 174.2 158.008 148.664 78.0543 85.7391 -122.117 179.73 31.7681 -71.7309 169.325 -43.1211 -32.0369 146.902 -45.2375 -28.7671 135.161 44.584 -15.1415 134.881 47.2838 -30.6267 177.822 44.7325 8.88837 85.7801 21.5985 
165.921 164.306 146.898 131.542 140.89 174.097 157.966 148.883 77.7484 85.6675 -123.217 179.328 31.5232 -72.7416 169.061 -43.6907 -32.9401 146.838 -46.1511 -29.2141 135.099 43.9777 -15.7005 134.728 46.6091 -31.3234 177.494 44.0561 8.99769 86.0986 21.5354 
166.145 164.499 148.581 130.961 140.301 173.864 158.169 149.485 77.223 85.9234 -124.492 179.197 31.3471 -74.1354 168.964 -44.3083 -33.9099 146.998 -47.3274 -29.9094 134.799 42.8612 -16.4668 134.038 45.5685 -32.0508 176.973 43.3327 8.93577 86.2491 21.5807 
166.07 165.775 153.457 130.589 136.152 173.61 159.127 151.458 77.0855 86.7351 -125.679 180.015 31.6012 -75.5153 169.508 -45.5463 -34.553 146.922 -49.3015 -31.5592 133.984 41.1024 -18.1504 133.181 44.8593 -32.8324 176.504 42.7546 8.50036 85.64 21.9508 
165.839 166.449 156.054 132.119 134.074 173.349 159.668 152.689 76.7485 87.4989 -126.574 180.389 31.3862 -76.2649 169.634 -46.6507 -34.9768 146.413 -50.5856 -32.6298 133.411 40.5011 -19.6162 132.385 44.5772 -33.5212 176.048 42.1682 8.75113 85.9642 22.2239 
165.673 166.856 157.883 134.516 132.803 173.232 159.916 153.522 76.8276 88.4585 -127.312 180.216 30.8044 -76.4027 169.237 -47.7042 -35.059 145.718 -51.5285 -33.3944 132.768 40.2466 -20.7494 131.673 44.3752 -34.1221 175.688 41.6229 9.07737 86.2329 22.2294 
165.711 166.909 158.996 136.518 131.793 173.221 159.874 153.873 77.1665 89.5249 -128.009 179.483 30.0432 -76.265 168.178 -48.725 -35.1446 144.626 -52.2288 -33.8493 131.932 39.8377 -21.4692 130.857 43.9963 -34.67 175.277 41.0028 9.28017 85.9831 22.0096 
166.037 166.7 159.065 137.057 131.133 173.312 159.59 153.671 77.6697 90.3553 -128.802 178.402 29.2809 -76.0789 166.918 -49.8126 -35.3472 143.546 -52.9143 -34.0281 130.849 38.7033 -21.9251 130.05 43.3172 -35.1942 174.754 40.2285 9.43656 84.9528 21.6525 
166.656 166.5 158.46 136.291 130.603 173.643 159.312 153.266 78.4737 90.9665 -129.499 177.244 28.4011 -75.9851 165.567 -50.8979 -35.72 142.419 -53.6051 -34.0637 129.552 36.9899 -22.3003 129.372 42.5503 -35.7232 174.243 39.3883 9.75319 83.1506 21.2395 
167.097 166.544 157.725 134.965 129.954 173.936 159.216 153.085 78.9966 91.4443 -130.161 176.477 27.6151 -76.3992 164.391 -51.9277 -36.3338 141.554 -54.5194 -34.3156 128.299 34.953 -22.8643 128.549 41.5376 -36.2877 173.575 38.4652 10.1812 81.4618 20.9143 
167.33 166.777 157.204 134.968 129.251 174.056 159.285 153.099 79.2748 91.9529 -130.821 175.949 26.766 -76.8642 163.212 -52.9741 -36.7976 140.58 -55.4404 -34.6272 127.1 33.4851 -23.4017 127.473 40.4365 -36.8006 172.764 37.4993 10.4489 80.6191 20.7651 
167.372 167.215 156.944 136.278 129.307 174.268 159.549 153.206 79.3307 92.1913 -131.214 175.13 25.5024 -77.1755 162.307 -54.1958 -37.2556 139.723 -56.4633 -35.0731 126.144 32.7069 -24.0798 126.497 39.3599 -37.2903 171.909 36.4694 10.6624 80.7877 20.6172 
167.143 167.675 157 138.665 129.893 174.127 159.983 153.512 79.3636 92.1657 -131.788 174.597 24.5399 -77.5276 161.568 -55.3692 -37.6715 139.058 -57.5118 -35.6163 125.397 32.6403 -24.789 125.707 38.4283 -37.7724 171.018 35.4152 10.8727 82.0123 20.5533 
166.734 167.744 157.295 139.981 130.416 173.746 160.234 153.815 79.0121 91.7378 -132.611 174.018 24.0694 -77.8223 160.683 -56.4544 -38.1572 138.469 -58.6175 -36.1123 124.966 32.5083 -25.3539 125.179 37.6664 -38.2416 170.083 34.3521 11.0543 83.4082 20.3292 
166.52 167.435 157.212 139.434 130.232 173.511 160.32 154.28 78.838 91.5078 -133.558 173.396 24.0813 -78.3633 159.805 -57.0515 -38.6788 137.992 -59.5397 -36.7808 124.161 31.7927 -25.9731 124.432 37.297 -38.8004 169.188 33.6926 11.0097 83.861 20.1162 
166.099 167.314 157.083 137.716 129.832 173.677 160.508 154.978 78.9962 91.1342 -134.121 172.447 23.9697 -79.2113 159.141 -57.5284 -39.4568 137.737 -60.5272 -37.5528 123.05 30.5748 -26.864 123.79 37.1257 -39.4668 168.446 33.2071 11.3591 83.5356 19.8492 
164.872 167.802 157.776 136.605 129.91 173.77 160.999 155.969 78.6292 89.9793 -134.551 171.095 23.6023 -80.258 158.926 -58.3399 -40.5606 138.092 -62.0591 -38.5605 122.798 29.8045 -27.8752 123.843 36.7631 -40.2547 167.941 32.5625 11.7233 84.2473 19.3812 
163.692 168.787 159.136 137.604 130.85 173.693 161.748 157.107 78.1493 88.4313 -134.992 170.518 22.8695 -81.3987 158.917 -59.2406 -41.7862 138.801 -63.6355 -39.6186 123.358 30.1441 -28.8664 124.626 36.3852 -41.085 167.687 31.7878 11.9754 86.3889 18.9084 
163.074 169.511 160.319 140.273 132.127 173.748 162.242 157.844 78.3635 87.305 -135.69 169.916 22.3196 -82.8872 159.052 -59.953 -43.2167 139.946 -65.0764 -40.4845 123.917 30.67 -29.6716 125.737 35.9023 -42.005 167.574 30.9207 12.379 88.7273 18.5513 
163.005 169.659 161.183 140.517 131.943 173.638 162.311 158.208 78.2894 86.5825 -136.754 169.119 22.1122 -84.3781 158.473 -60.4273 -44.6442 140.301 -66.1982 -41.2796 123.987 30.358 -30.3837 126.102 35.2665 -42.9669 167.176 30.1312 12.572 89.7725 18.2303 
163.144 169.48 161.804 138.7 130.978 173.557 162.187 158.284 78.6867 86.5764 -137.791 168.239 22.1058 -85.6258 157.474 -60.476 -46.018 139.785 -66.6514 -42.1343 122.94 29.1036 -31.3368 125.618 34.9808 -43.9681 166.647 29.8438 13.0179 88.5114 17.9174 
162.769 169.662 162.299 137.56 130.197 173.332 162.402 158.828 78.3703 86.5603 -138.752 167.682 22.1576 -87.1105 157.054 -60.6255 -47.733 139.672 -67.4189 -43.5512 122.46 28.3108 -32.6977 124.991 34.6474 -45.0265 166.142 29.6421 13.0423 88.1841 17.5504 
162.2 169.982 163.141 137.903 129.97 173.208 162.83 159.578 78.2331 85.8996 -139.642 166.876 22.1748 -88.785 156.598 -60.8611 -49.3951 139.787 -68.3255 -44.551 122.301 28.4549 -33.7314 124.95 34.2939 -46.0091 165.664 29.224 13.2422 89.2717 17.3315 
161.982 170.174 163.789 139.534 129.923 173.301 162.939 159.904 78.0609 85.2066 -140.563 165.932 21.9602 -90.4476 156.362 -61.2066 -51.0733 140.342 -69.2962 -45.5393 122.664 28.7696 -34.6012 125.417 33.7742 -46.9977 165.411 28.6054 13.2694 90.8679 17.0898 
162.145 170.071 164.207 138.771 129.999 173.426 162.855 160.029 78.4148 84.9483 -141.483 165.116 21.549 -91.424 155.6 -61.5526 -52.1061 140.314 -69.925 -46.1744 122.374 28.1319 -35.34 125.725 33.626 -47.9481 165.292 28.1604 13.7548 90.5998 16.8003 
162.295 169.907 164.637 137.024 129.771 173.496 162.914 160.29 78.1876 84.7855 -142.314 164.448 21.4191 -92.379 155.02 -61.5872 -53.1611 140.18 -70.2485 -46.8467 122.308 27.5171 -36.0863 125.8 33.6493 -48.8298 165.175 28.0032 14.0401 90.1252 16.5797 
161.937 169.882 165.169 136.304 129.111 173.503 163.163 160.745 77.879 84.6833 -142.937 163.85 21.5899 -93.6699 154.992 -61.4261 -54.6 140.329 -70.542 -47.8153 122.546 27.6119 -36.9974 125.767 33.5226 -49.6648 165.149 27.9754 13.8722 90.501 16.427 
161.463 169.952 165.776 136.19 128.624 173.431 163.478 161.261 77.6655 84.4772 -143.51 163.275 21.6912 -94.9745 155.323 -61.4681 -56.0495 140.863 -71.1026 -48.7393 122.853 27.8379 -37.833 125.769 33.1617 -50.4243 165.125 27.8122 13.6222 91.3833 16.2877 
161.121 170.116 166.438 137.296 128.513 173.492 163.767 161.737 77.4515 84.201 -144.081 162.912 21.5647 -96.1398 155.616 -61.7153 -57.3261 141.42 -71.8009 -49.502 123.208 28.1936 -38.5195 125.853 32.6428 -51.1383 165.055 27.4608 13.4069 92.6755 16.1713 
160.545 170.356 167.097 138.855 129.408 173.663 163.916 162.021 77.388 83.734 -144.486 162.79 21.2776 -97.265 156.122 -61.951 -58.5592 142.281 -72.4704 -50.1509 123.943 28.6338 -39.1332 126.572 32.2541 -51.8496 165.259 27.0187 13.4489 94.1104 16.0636 
160.134 170.615 167.666 139.778 130.269 173.796 163.866 162.143 77.1367 83.2791 -144.893 163.028 20.872 -98.136 156.609 -62.1807 -59.6287 143.204 -73.0512 -50.6482 124.815 28.6161 -39.684 127.49 31.8704 -52.5533 165.608 26.5859 13.631 94.9302 15.8574 
159.828 170.725 168.06 140.276 131.16 173.986 163.676 162.131 76.9858 82.8087 -145.247 163.504 20.2898 -98.8443 156.959 -62.3786 -60.6046 144.048 -73.4842 -51.0579 125.692 28.3704 -40.1406 128.585 31.5444 -53.2412 166.076 26.1488 13.8608 95.2719 15.5836 
159.979 170.8 168.359 140.853 131.982 174.107 163.467 162.036 77.2015 82.3588 -145.672 164.404 19.7825 -99.4659 157.242 -62.5516 -61.6782 144.68 -73.8248 -51.4348 126.037 27.6748 -40.6223 129.534 31.2285 -53.8741 166.533 25.761 14.3522 94.6756 15.1934 
160.373 170.833 168.62 140.819 132.475 174.109 163.29 161.894 77.3505 82.0706 -146.092 165.393 19.2529 -99.8357 157.198 -62.8106 -62.5364 144.763 -74.0618 -51.7394 126.051 26.7251 -41.0771 130.026 30.8074 -54.3895 166.77 25.3629 14.8684 93.599 14.8046 
160.78 170.837 168.781 139.969 132.602 174.038 163.214 161.77 77.3469 82.0818 -146.568 166.252 18.926 -100.144 156.97 -63.0764 -63.3007 144.438 -74.2478 -52.1563 125.933 25.7403 -41.626 130.054 30.3766 -54.852 166.855 25.0216 15.2068 92.381 14.4741 
161.077 170.818 168.792 138.054 132.525 173.912 163.301 161.791 77.1501 82.1281 -146.949 166.831 18.6236 -100.456 156.745 -63.4248 -63.9539 143.977 -74.5616 -52.6484 125.842 24.804 -42.1923 129.828 29.9465 -55.2283 166.837 24.6648 15.3574 91.3909 14.251 
161.257 170.754 168.66 135.821 132.403 173.747 163.459 161.825 76.9545 82.1917 -147.302 167.099 18.4241 -100.858 156.704 -63.7016 -64.5685 143.646 -74.8566 -53.2421 125.78 24.0188 -42.754 129.513 29.5423 -55.5681 166.8 24.3691 15.307 90.6651 14.152 
161.469 170.825 168.525 134.134 132.208 173.561 163.693 161.899 76.8315 82.3212 -147.685 167.202 18.2162 -101.212 156.822 -64.0287 -65.1068 143.491 -75.1952 -53.873 125.757 23.3914 -43.3186 129.198 29.0895 -55.8903 166.815 24.0953 15.1263 90.1692 14.0671 
161.526 170.916 168.474 134.193 131.909 173.359 163.933 162.061 76.9384 82.3901 -148.067 167.047 17.9651 -101.525 156.91 -64.4214 -65.6061 143.443 -75.635 -54.5208 125.769 23.3052 -43.8193 128.977 28.5922 -56.1743 166.855 23.7649 14.7517 90.3827 13.9489 
161.48 170.959 168.308 134.655 131.817 173.238 164.187 162.257 77.0128 82.5063 -148.418 167.001 17.7537 -101.819 157.191 -64.7674 -66.0601 143.599 -76.0983 -55.2284 125.868 23.3825 -44.4085 128.821 28.1956 -56.4802 166.953 23.4817 14.4081 90.8753 13.8551 
161.311 171.001 168.11 135.426 132.119 173.115 164.542 162.545 77.107 82.656 -148.777 167.014 17.5916 -102.178 157.777 -65.1482 -66.5828 144.09 -76.6627 -55.9953 126.091 23.5512 -45.1063 128.831 27.8977 -56.8674 167.152 23.2263 14.1799 91.6287 13.7591 
160.966 171.206 167.92 136.499 132.693 173.046 164.835 162.817 77.0883 82.8414 -149.156 167.177 17.3355 -102.483 158.545 -65.6021 -67.0399 144.872 -77.2905 -56.6667 126.484 23.6677 -45.8365 129.028 27.6293 -57.3118 167.468 22.9581 14.1261 92.4567 13.6389 
160.165 168.817 166.856 141.312 133.895 172.9 161.84 162.803 76.767 82.1407 -149.431 167.755 15.9305 -102.019 159.179 -65.8122 -67.4986 145.606 -77.9394 -58.4863 127.988 24.5061 -46.973 129.92 26.8911 -57.8367 168.088 22.2896 13.3611 94.1828 12.9771 
158.822 166.405 165.094 145.188 136.176 172.903 158.093 162.878 76.6019 81.3649 -150.06 167.765 14.2222 -102.086 160.154 -65.7141 -68.9552 146.978 -78.4902 -60.3483 130.155 25.0532 -48.374 131.61 26.0073 -58.9132 169.27 21.4512 13.1232 95.553 11.9822 
161.269 168.618 166.209 144.723 140.414 173.586 157.814 164.415 77.9086 81.7725 -150.016 167.322 14.113 -102.609 161.253 -65.4915 -70.4806 148.746 -78.5121 -60.4585 130.662 25.3317 -48.4515 132.199 25.5914 -59.2809 169.826 21.2829 13.0866 96.1393 11.2196 
162.992 170.168 167.536 143.725 143.01 174.171 157.501 165.467 79.0199 81.931 -150.203 167.073 13.8602 -103.206 161.728 -65.3256 -72.0301 149.737 -78.4052 -60.6263 131.168 25.4679 -48.6087 132.956 25.2065 -59.7408 170.318 20.9967 13.1611 96.241 10.5037 
164.332 171.133 169.334 142.466 144.817 174.553 157.2 165.933 79.9908 82.2362 -150.465 166.918 13.5833 -103.594 161.754 -65.1802 -73.2448 150.001 -78.1482 -60.7809 131.373 25.3622 -48.8343 133.425 24.9568 -60.0922 170.677 20.7549 13.2406 95.6655 9.90058 
165.312 171.798 170.645 141.3 146.155 174.764 156.9 166.278 80.7174 82.4266 -150.786 166.997 13.217 -103.841 161.587 -65.1 -74.2989 149.973 -77.8792 -61.0539 131.617 25.2299 -49.1599 133.872 24.7678 -60.401 170.98 20.4991 13.324 94.9902 9.31258 
166.288 172.178 171.835 140.179 147.125 174.887 156.7 166.42 81.3392 82.7255 -151.115 167.136 12.8923 -103.987 161.282 -65.1017 -75.053 149.616 -77.6293 -61.2701 131.576 24.9317 -49.4974 134.039 24.6396 -60.6211 171.137 20.269 13.4454 94.0809 8.89408 
167.032 172.443 172.722 139.29 147.866 174.951 156.626 166.437 81.8239 82.9017 -151.491 167.385 12.6126 -104.163 161.091 -65.1791 -75.7839 149.328 -77.46 -61.55 131.653 24.6064 -49.8625 134.34 24.5276 -60.8468 171.338 19.9892 13.5742 93.2887 8.52914 
167.76 172.687 173.301 138.562 148.368 174.89 156.709 166.733 82.0132 83.0777 -151.89 167.593 12.4614 -104.263 160.849 -65.3407 -76.3463 149.036 -77.3768 -61.7277 131.673 24.1341 -50.1389 134.476 24.3685 -60.9707 171.416 19.6967 13.6853 92.5384 8.21678 
168.431 172.861 174.242 138.079 148.695 174.788 156.977 166.946 82.1614 83.3846 -152.252 167.708 12.3689 -104.376 160.71 -65.5346 -76.6958 148.81 -77.3698 -61.829 131.538 23.5811 -50.3831 134.455 24.2141 -61.0618 171.452 19.4416 13.8265 91.8265 8.07672 
168.923 173.051 175.299 137.839 148.815 174.593 157.52 167.749 82.2124 83.5881 -152.574 167.768 12.3776 -104.497 160.673 -65.8548 -77.0129 148.885 -77.6323 -61.8657 131.309 23.0365 -50.5398 134.315 24.0135 -61.1041 171.396 19.1692 13.9578 91.5091 7.91184 
169.07 173.187 176.48 137.83 148.709 174.344 158.178 168.983 82.171 83.5994 -152.801 167.788 12.4502 -104.614 160.767 -66.2305 -77.3393 149.289 -78.16 -61.8701 131.115 22.6024 -50.5819 134.168 23.7548 -61.0726 171.269 18.8755 14.0287 91.6684 7.69431 
167.033 171.17 176.32 141.142 149.287 172.18 156.656 168.753 82.4022 83.1029 -153.332 168.114 13.4402 -104.921 160.782 -66.2751 -77.6948 149.323 -78.5233 -62.5884 130.968 22.6381 -50.5756 133.879 23.0902 -61.1139 171.085 18.4298 13.2858 92.186 7.69673 
164.235 169.628 175.67 146.655 149.46 169.957 155.503 168.339 83.0397 82.7063 -153.729 168.293 14.4871 -105.008 160.718 -66.394 -77.713 149.249 -78.8141 -63.1142 130.582 23.032 -50.4414 133.625 22.5083 -61.1252 170.932 17.9859 12.7608 92.9513 7.77198 
161.819 168.492 172.245 152.194 149.346 168.042 154.637 168.397 83.8962 82.49 -153.818 168.223 15.1128 -104.835 160.437 -66.6243 -77.3843 149.231 -79.3064 -63.3583 130 23.4851 -50.171 133.274 21.9391 -61.0416 170.732 17.5273 12.4609 93.8861 7.82354 
159.899 167.764 168.238 154.751 149.141 166.58 154.122 168.676 84.2751 82.4456 -153.742 168.007 15.5346 -104.566 160.215 -66.9701 -76.9158 149.376 -79.8912 -63.232 129.731 23.6918 -49.8213 132.973 21.3947 -60.9101 170.529 17.0956 12.3503 94.864 7.88518 
158.619 167.244 166.133 155.372 149.006 165.563 153.736 168.345 84.8761 82.6596 -153.593 167.834 15.734 -104.262 159.937 -67.3174 -76.5404 149.443 -80.342 -62.8842 129.467 23.9337 -49.4609 132.703 20.9494 -60.7335 170.394 16.7128 12.4569 95.6331 7.86004 
156.985 166.815 165.656 156.208 148.768 164.361 153.611 166.022 85.7024 83.3529 -152.892 167.351 15.7067 -103.789 159.914 -67.9172 -76.2244 149.103 -80.6246 -62.1132 128.835 23.8737 -48.8404 132.064 20.1955 -60.2105 170.233 16.225 12.7118 95.6704 7.81921 
156.226 166.926 166.408 156.418 148.488 164.259 153.725 163.821 85.7699 83.8434 -152.482 167.133 15.4513 -103.711 160.164 -68.1905 -76.2399 148.749 -80.451 -61.6332 128.628 23.7717 -48.6806 131.757 19.9051 -60.0581 170.272 16.1568 13.0208 95.2519 7.91265 
155.528 167.067 167.055 156.753 148.266 164.195 153.822 162.003 85.6531 84.2569 -152.02 166.971 15.2298 -103.498 160.491 -68.5199 -76.2184 148.379 -80.3003 -61.181 128.428 23.4845 -48.486 131.427 19.6016 -59.807 170.295 16.0725 13.2288 94.6746 8.00994 
155.044 167.199 167.48 157.035 148.08 164.169 153.959 160.52 85.5411 84.6613 -151.684 166.887 15.1709 -103.346 161.023 -68.8341 -76.294 148.247 -80.2686 -60.8277 128.16 23.13 -48.3648 131.036 19.3053 -59.564 170.307 16.0473 13.3919 94.1242 8.12222 
154.716 167.335 167.738 157.124 147.752 164.279 154.126 159.449 85.3792 84.9374 -151.376 166.848 15.1425 -103.181 161.578 -69.1663 -76.3903 148.231 -80.2241 -60.5423 127.969 22.6683 -48.2023 130.733 18.9264 -59.3333 170.326 15.9967 13.4479 93.5638 8.21941 
154.411 167.575 167.841 157.021 147.364 164.322 154.423 158.689 85.2947 85.1913 -151.146 166.955 15.1941 -102.982 162.113 -69.555 -76.2947 148.207 -80.2064 -60.1819 127.788 22.2912 -47.9564 130.465 18.5786 -59.0803 170.334 15.9596 13.5212 93.1062 8.44323 
