168.292 164.819 130.019 138.502 139.712 178.399 152.266 141.994 89.3008 91.9997 -43.4262 153.917 -28.9212 6.32271 152.529 -84.4909 40.5681 126.481 -76.3299 23.6126 116.869 12.6571 37.2836 118.21 14.6805 31.7187 163.009 7.32345 11.521 84.9065 20.8419 
168.113 164.959 130.665 138.306 139.763 178.327 152.466 142.44 89.5679 92.2706 -43.6404 154.349 -28.5826 6.33198 152.608 -84.1679 40.7209 126.703 -76.1571 23.6793 116.698 12.8388 37.2939 118.198 14.9633 31.5751 163.127 7.67815 11.4835 84.8242 20.8049 
167.962 165.055 131.021 138.069 139.747 178.258 152.64 142.918 89.8636 92.545 -43.7218 154.68 -28.2857 6.34046 152.641 -83.8177 40.9203 126.885 -75.9786 23.7676 116.442 13.0076 37.3342 118.094 15.231 31.5065 163.154 8.01787 11.4471 84.7707 20.792 
167.84 165.162 131.436 137.885 139.74 178.127 152.761 143.311 90.1413 92.8219 -43.6836 154.794 -27.9914 6.46163 152.661 -83.5308 41.2086 127.041 -75.8873 23.9472 116.121 13.0962 37.4598 117.909 15.4407 31.5617 163.123 8.33206 11.404 84.6894 20.7549 
167.718 165.387 131.93 137.833 139.681 177.905 152.917 143.725 90.1679 92.8629 -43.5195 154.855 -27.7221 6.67591 152.709 -83.2763 41.5535 127.091 -75.7793 24.118 116.019 13.3621 37.6011 117.801 15.749 31.7536 163.074 8.65777 11.3946 84.8095 20.7497 
167.714 165.555 132.427 138.032 139.745 177.757 152.822 144.07 89.9028 92.661 -42.9805 154.556 -27.4447 7.0051 152.811 -83.0084 42.0597 127.302 -75.7867 24.4102 116.236 13.7206 37.9066 117.889 16.0799 32.1777 163.09 8.95339 11.4044 85.2254 20.6587 
167.756 165.388 133.084 138.399 139.899 177.678 152.385 144.476 89.4475 92.2991 -42.0179 154.022 -27.2241 7.44968 152.751 -82.6189 42.7716 127.561 -75.8623 24.9247 116.695 14.0998 38.4468 118.174 16.4272 32.8499 163.204 9.2053 11.4172 85.7249 20.4426 
167.613 164.773 133.713 138.666 139.969 177.585 151.679 144.624 89.007 91.7889 -40.8059 153.589 -27.2329 8.22519 152.279 -82.1064 43.6713 127.457 -75.7038 25.7429 117.074 14.445 39.2978 118.456 16.7685 33.7314 163.207 9.37681 11.427 85.9282 20.1901 
167.402 164.38 134.223 138.195 139.867 177.444 151.414 144.707 89.2188 91.8575 -39.7373 153.225 -27.0667 9.23207 151.902 -81.648 44.9693 127.173 -75.3319 26.9412 116.627 14.5953 40.4012 118.244 17.078 34.6833 162.963 9.66686 11.4295 85.6512 20.3263 
167.044 164.113 132.959 137.74 139.655 177.327 151.355 144.515 89.6516 92.1703 -38.5047 152.835 -26.7634 10.5536 151.794 -81.2909 46.5366 127.056 -74.7467 28.21 115.946 14.8087 41.6148 117.804 17.388 35.7509 162.617 10.0449 11.4467 85.5165 20.6336 
167.124 164.211 132.22 137.795 139.646 177.342 151.476 144.303 89.7699 92.2955 -37.1405 152.507 -26.3511 11.8584 152.183 -81.1506 47.8304 127.207 -74.4541 29.2508 115.685 15.1141 42.6242 117.604 17.711 36.8694 162.514 10.443 11.4972 85.6781 20.8192 
167.1 163.914 131.763 138.033 139.828 177.405 151.119 144.414 89.5624 92.1316 -35.6538 152.357 -25.9575 13.046 152.409 -80.7912 49.0366 127.516 -74.3036 30.1629 115.766 15.4174 43.5215 117.625 18.0876 37.9974 162.517 10.8189 11.4927 86.0305 20.7099 
166.765 163.176 132.323 137.82 139.818 177.397 150.483 144.747 89.6 92.1337 -34.3048 152.166 -25.7364 14.199 151.828 -80.1692 50.1975 127.242 -74.0498 31.0971 115.236 15.6119 44.4026 117.147 18.4541 39.0117 162.069 11.2134 11.4517 86.0034 20.4495 
166.267 162.647 132.275 137.433 139.845 177.297 150.061 144.897 89.8892 92.3106 -33.1619 151.875 -25.4139 15.3163 151.179 -79.5414 51.3793 126.688 -73.4575 32.1073 114.44 15.9732 45.3501 116.556 18.9541 39.9058 161.486 11.6556 11.443 85.8976 20.5039 
165.678 162.317 130.681 137.233 139.877 177.123 149.847 144.926 90.1111 92.4568 -32.1492 151.557 -25.0676 16.515 150.828 -79.0497 52.6299 126.392 -72.7553 32.9795 113.813 16.571 46.1971 116.044 19.5363 40.7079 160.922 12.1228 11.4924 86.2346 20.6637 
165.308 162.085 129.295 137.237 139.952 176.948 149.518 144.774 90.2294 92.6342 -31.2216 151.159 -24.6577 17.5144 150.736 -78.5845 53.6207 126.259 -72.1276 33.5221 113.288 17.0771 46.7217 115.518 20.0851 41.3883 160.457 12.6493 11.4956 86.5137 20.7755 
165.313 161.806 128.973 137.344 140.015 176.862 149.226 144.68 90.1539 92.6109 -30.2939 150.393 -24.0683 18.2759 150.527 -78.0397 54.2347 125.845 -71.4757 33.9355 113.003 17.7534 47.1347 115.187 20.781 41.9846 160.116 13.2434 11.5022 86.6577 20.8395 
165.421 161.265 129.269 137.584 140.117 176.639 148.575 144.284 90.0321 92.4788 -29.5065 149.519 -23.4444 18.8877 150.019 -77.2552 54.558 125.346 -70.7044 34.2548 112.794 18.4224 47.4746 114.939 21.5374 42.4983 159.825 13.9088 11.4547 86.5005 20.6524 
165.373 160.45 130 137.573 140.101 176.313 147.668 143.772 89.8978 92.2859 -28.9005 148.648 -22.8379 19.3769 148.863 -76.1891 54.6355 124.451 -69.7153 34.505 112.481 19.1479 47.7558 114.58 22.3437 42.9227 159.378 14.6063 11.4032 86.0887 20.2327 
165.434 160.119 130.468 137.158 139.903 176.075 147.233 143.482 89.7721 92.3316 -28.4897 147.928 -22.0679 19.6096 147.666 -75.1112 54.5041 123.277 -68.5618 34.5525 111.996 19.9367 47.7958 113.942 23.1904 43.2193 158.82 15.4011 11.3616 85.5876 19.9907 
165.013 159.294 129.997 136.306 139.57 175.613 146.111 143.337 89.6266 92.3391 -28.1037 146.629 -20.6741 19.9918 145.459 -73.1289 54.5068 121.301 -66.5499 34.6607 110.918 21.5259 47.8565 112.698 24.854 43.5578 157.563 16.77 11.3156 85.2688 19.6731 
164.774 158.931 128.967 136.217 139.731 175.388 145.375 142.483 89.2707 92.1192 -28.0765 146.45 -20.3738 20.2471 144.695 -72.2977 54.3226 120.514 -65.2935 34.5101 110.841 22.2211 47.7538 112.42 25.5365 43.5613 157.151 17.339 11.2812 84.9903 19.5848 
164.607 158.49 127.69 136.077 139.846 175.116 144.645 141.399 88.8931 92.0547 -28.1401 146.36 -19.9533 20.4205 144.055 -71.3621 54.0668 119.841 -63.9582 34.353 110.701 22.795 47.6303 111.988 26.1411 43.56 156.74 18.0089 11.1968 84.4923 19.4971 
164.58 158.058 126.846 135.937 139.886 174.94 144.229 140.357 88.5865 92.0849 -28.2354 146.204 -19.3822 20.4352 143.378 -70.4772 53.5704 118.982 -62.6248 34.1175 110.441 23.3065 47.4191 111.475 26.7074 43.4769 156.362 18.7052 11.106 83.7432 19.4481 
164.536 157.712 125.966 135.818 139.85 174.758 143.982 139.398 88.3229 92.0587 -28.377 146.149 -18.7967 20.4225 142.6 -69.6253 53.01 117.961 -61.2629 33.8664 110.189 23.854 47.1725 111.015 27.3 43.4032 156.016 19.3645 11.048 82.9365 19.4263 
164.445 157.437 124.515 135.679 139.763 174.663 143.947 138.544 88.1794 91.9723 -28.496 145.867 -18.2349 20.3837 141.843 -68.9689 52.5724 116.933 -59.9595 33.7953 109.823 24.4431 47.1112 110.588 27.8723 43.3215 155.617 19.9229 11.0399 82.2803 19.6142 
164.316 157.392 122.996 135.458 139.591 174.578 144.1 137.941 88.0352 91.8418 -28.6246 145.563 -17.6706 20.4039 141.178 -68.4847 52.2343 115.948 -58.8497 33.7331 109.401 25.0217 47.0392 110.107 28.4202 43.2701 155.141 20.4198 11.0578 81.8374 19.8546 
164.184 157.346 121.32 135.279 139.447 174.468 144.146 137.234 87.8535 91.6813 -28.6842 145.307 -17.2207 20.5611 140.585 -68.0793 52.0553 115.089 -57.7831 33.7353 109.073 25.5791 47.037 109.702 28.9333 43.2948 154.709 20.841 11.0877 81.5196 20.1115 
163.994 157.11 119.297 135.057 139.287 174.301 144.015 136.434 87.6817 91.6604 -28.692 145.067 -16.8817 20.8304 140.074 -67.7094 52.1092 114.451 -56.8393 33.7903 108.686 25.9536 47.0789 109.181 29.2734 43.3767 154.253 21.2006 11.1086 81.2642 20.3269 
163.823 156.814 117.111 134.85 139.078 174.147 143.861 135.695 87.493 91.6569 -28.6888 144.841 -16.6203 21.1136 139.557 -67.3763 52.2124 113.91 -56.0346 33.8397 108.256 26.2302 47.1287 108.559 29.4921 43.5039 153.728 21.4972 11.1303 81.1045 20.4513 
163.674 156.632 114.721 134.748 138.978 174.032 143.654 135.152 87.2523 91.6718 -28.6379 144.558 -16.3622 21.2864 139.092 -67.0626 52.4147 113.577 -55.4134 33.9431 107.892 26.4638 47.2155 107.993 29.6765 43.6671 153.246 21.7401 11.1538 81.1503 20.5215 
163.605 156.596 112.585 134.672 138.895 173.966 143.479 134.891 86.989 91.7294 -28.5979 144.164 -16.1199 21.3782 138.687 -66.8408 52.6661 113.372 -55.0599 34.0667 107.503 26.6188 47.3075 107.398 29.7985 43.8056 152.756 21.9366 11.1661 81.3485 20.5367 
163.897 156.204 115.979 134.078 139.697 174.232 143.791 133.43 86.8124 92.7101 -28.7434 143.57 -15.809 21.8767 137.719 -66.5638 53.4979 112.986 -55.0237 34.6298 107.188 26.8243 47.7078 106.741 30.2687 43.8937 152.587 22.1589 10.898 81.493 20.1803 
163.827 155.798 118.497 133.244 140.095 174.267 144.194 132.579 86.7284 93.5241 -28.9024 142.934 -15.4866 22.2177 136.699 -66.3443 54.3457 112.595 -55.1296 35.1654 106.646 27.0179 48.0757 105.959 30.6207 43.9013 152.246 22.3388 10.7551 81.8095 19.8871 
163.692 155.365 120.43 132.416 140.31 174.264 144.47 132.111 86.623 94.218 -29.0741 142.444 -15.2157 22.4529 135.735 -66.1298 55.058 112.161 -55.2678 35.5459 106.017 27.1532 48.3044 105.096 30.8832 43.8704 151.799 22.5055 10.6597 82.1277 19.649 
163.6 154.981 122.11 131.778 140.536 174.297 144.682 131.919 86.4657 94.715 -29.257 142.083 -15.0556 22.5619 135.051 -65.9874 55.5637 111.918 -55.5178 35.7712 105.508 27.2136 48.4158 104.382 31.0306 43.7556 151.38 22.6473 10.6021 82.4815 19.4355 
163.332 154.36 123.729 130.805 140.899 174.21 144.957 131.759 86.2718 95.2507 -29.6132 141.226 -14.8043 22.6514 134.225 -65.7517 56.22 111.663 -55.7258 35.8525 104.751 27.4228 48.3549 103.394 31.3169 43.3694 150.632 22.9497 10.5759 83.1535 19.2644 
163.104 153.953 124.26 130.44 141.066 174.124 144.803 132.174 86.065 95.3294 -29.9573 140.667 -14.5808 22.338 133.826 -65.5017 56.5083 111.793 -55.9421 35.6837 104.586 27.6558 48.1239 103.185 31.5263 42.9469 150.318 23.0817 10.6432 83.9676 19.2017 
163.094 153.696 124.812 130.171 141.159 174.042 144.525 132.689 85.7483 95.4124 -30.3358 139.91 -14.044 21.7122 133.228 -65.0363 56.5317 111.705 -55.9387 35.354 104.459 28.0396 47.7256 102.983 31.9051 42.4011 150.068 23.3413 10.6987 84.673 19.1927 
163.445 153.795 125.575 129.996 141.227 174.022 144.475 133.21 85.4515 95.3552 -30.7308 139.005 -13.3559 20.8913 132.818 -64.7157 56.1991 111.55 -55.9444 34.9015 104.329 28.3853 47.233 102.866 32.2936 41.7376 149.902 23.6207 10.6998 85.17 19.2727 
163.956 153.827 126.347 129.64 141.094 174.079 144.582 133.735 85.3395 95.3336 -31.3003 138.034 -12.7386 19.9403 132.185 -64.4836 55.3861 110.888 -55.891 34.2651 103.803 28.4864 46.5553 102.435 32.5228 40.9176 149.567 23.8419 10.6264 85.0159 19.3006 
164.33 153.549 127.063 129.403 140.839 174.456 144.794 133.703 85.2148 95.4219 -32.184 138.143 -12.4737 19.1908 131.746 -64.2841 54.2079 109.937 -55.4052 33.5051 103.247 28.4399 45.7558 101.884 32.6205 40.0304 149.35 24.1328 10.5466 84.0368 19.3472 
164.728 153.245 126.859 129.221 140.694 174.868 144.966 133.419 84.9115 95.5269 -33.3368 138.688 -12.6639 18.4362 131.636 -64.3274 52.7696 109.206 -55.025 32.5432 102.878 28.1607 44.7267 101.269 32.4365 39.0883 149.108 24.238 10.4911 83.0385 19.3624 
165.249 152.957 126.298 129.04 140.69 175.186 144.853 133.474 84.5324 95.534 -34.341 138.517 -12.8742 17.5302 131.52 -64.4033 51.5728 109.03 -55.0736 31.6238 102.735 27.8916 43.7074 100.921 32.2306 38.1021 148.838 24.1834 10.4813 82.7853 19.2382 
165.899 153.326 125.772 128.921 140.768 175.281 145.066 133.973 84.2563 95.3663 -35.1818 137.674 -12.6855 16.3323 131.461 -64.4686 50.6733 109.348 -55.3586 30.7782 102.765 27.921 42.8253 100.93 32.2865 37.0704 148.685 24.1968 10.4763 83.2864 19.1619 
166.5 153.763 125.814 128.587 140.413 175.454 145.479 134.545 84.1234 95.3912 -36.4134 137.731 -12.3956 15.1379 131.446 -64.3457 49.4248 109.374 -55.3194 29.6425 102.692 27.9808 41.6905 100.743 32.3965 35.9513 148.635 24.424 10.41 83.2551 19.0288 
166.281 152.95 125.408 128.282 139.915 175.71 145.087 133.752 83.9757 95.636 -38.1745 138.419 -12.365 14.2438 131.135 -64.0415 47.7331 108.74 -54.6709 28.511 102.261 27.7058 40.5104 100.062 32.1586 34.8233 148.382 24.5769 10.3762 82.122 18.8497 
166.675 152.135 124.476 128.012 139.442 175.888 144.521 132.593 83.8759 96.0069 -39.6273 138.024 -12.4076 13.1206 130.497 -63.8951 45.8871 107.751 -54.0467 27.4946 101.534 27.3224 39.3713 99.1393 31.7941 33.65 147.857 24.5213 10.3949 80.8593 18.8648 
166.818 152.007 123.899 127.762 139.094 176.228 144.402 132.303 83.6749 96.1806 -41.1021 137.699 -12.1746 11.7892 129.823 -63.6477 44.4695 107.248 -53.7033 26.7105 101.054 27.2294 38.4938 98.598 31.7283 32.4965 147.509 24.6027 10.4089 80.3056 18.8071 
166.812 152.638 124.198 127.476 138.906 176.582 144.897 132.706 83.4648 96.0499 -42.735 138.449 -11.7883 10.5543 129.899 -63.4989 43.1895 107.397 -53.6188 25.8594 101.16 27.2612 37.6007 98.7098 31.8896 31.425 147.701 24.8589 10.3083 80.0401 18.6885 
167.011 153.054 124.51 127.125 138.846 176.923 145.064 132.583 83.5008 96.0385 -44.1296 139.045 -11.5824 9.53496 130.283 -63.4743 41.9688 107.611 -53.4964 25.0692 101.154 27.0093 36.7659 98.795 31.8507 30.4071 147.951 25.0514 10.1419 79.3418 18.7009 
167.248 152.742 124.319 126.648 138.594 177.101 144.763 131.702 83.8113 96.3094 -45.2228 138.592 -11.4324 8.56392 130.102 -63.4378 40.6884 107.115 -53.0578 24.5563 100.56 26.6013 36.2118 98.3624 31.5928 29.449 147.822 25.0606 10.0276 78.0793 18.9542 
167.23 152.634 124.257 126.377 138.455 177.61 144.6 131.12 84.0777 96.4587 -46.1511 137.74 -11.2371 7.31488 129.532 -63.3628 39.3998 106.441 -52.6783 24.0102 99.9633 26.464 35.626 98.0208 31.5208 28.3841 147.563 25.0438 10.0134 77.2163 19.2247 
166.881 152.8 124.278 125.33 137.863 178.396 144.971 131.902 84.4252 97.1463 -47.6031 138.173 -10.8848 6.16194 128.677 -62.9099 38.4007 105.804 -52.1998 23.6366 99.2939 26.4645 35.1102 97.4686 31.6169 27.3183 147.541 25.4563 10.0343 76.0941 19.2011 
166.849 153.556 124.703 124.76 137.768 178.586 145.129 132.093 84.8199 97.0896 -49.0311 139.06 -10.6853 5.05142 128.549 -62.6804 37.4218 105.794 -51.9626 22.9391 99.0087 26.2782 34.3868 97.4967 31.7595 26.3372 147.661 25.706 9.81124 75.3664 19.188 
166.91 153.898 124.8 124.585 137.846 178.647 144.937 131.785 85.3607 97.1775 -50.1373 139.339 -10.5877 4.11298 128.531 -62.5667 36.4646 105.749 -51.7477 22.2607 98.5537 25.9543 33.7104 97.3453 31.7376 25.4391 147.645 25.8113 9.58605 74.5835 19.2574 
166.91 153.836 124.742 124.959 138.154 178.584 144.455 131.072 85.8093 96.9909 -50.799 138.517 -10.5735 3.29588 128.295 -62.5358 35.5805 105.466 -51.5289 21.7392 98.0506 25.7092 33.2496 97.2458 31.6936 24.6089 147.393 25.7629 9.44079 73.9481 19.4299 
167.232 153.987 124.817 124.561 137.877 179.151 144.442 131.192 86.3084 97.2992 -51.4339 137.71 -10.4694 2.36764 127.503 -62.3278 34.6182 104.756 -51.2417 21.3001 97.3364 25.4775 32.7907 96.7759 31.6576 23.7393 147.133 25.9175 9.33192 72.8722 19.4234 
167.211 154.419 125.098 123.467 137.38 178.976 144.585 131.851 87.1327 98.2966 -52.7417 137.844 -10.2425 1.41594 126.094 -61.7214 33.8828 103.723 -50.6186 21.0525 96.3273 25.3406 32.427 95.94 31.6817 22.8663 146.876 26.2623 9.27771 71.4666 19.31 
166.919 155.167 125.413 122.277 136.876 178.457 144.938 132.948 88.0516 98.9751 -54.0766 138.186 -10.1152 0.568374 124.744 -61.2887 33.3875 102.729 -50.2694 20.7829 95.2173 25.174 32.0542 95.1197 31.7717 22.0872 146.45 26.5308 9.18251 70.4175 19.2197 
166.843 155.691 125.346 121.813 136.506 178.174 145.086 133.527 88.767 99.2064 -54.8197 137.654 -10.0898 -0.147315 123.809 -61.2335 32.9079 102.034 -50.303 20.3795 94.1501 24.8615 31.6346 94.3518 31.7193 21.431 145.847 26.5968 9.05378 69.8414 19.1616 
166.697 156.154 125.399 122.004 136.472 178.013 145.063 133.361 88.9544 98.7716 -55.1463 136.368 -9.99687 -0.792694 122.962 -61.3578 32.391 101.208 -50.3118 19.961 93.2545 24.744 31.2229 93.7896 31.8356 20.8854 145.049 26.4951 8.97655 69.7326 19.2944 
166.759 156.276 125.357 121.532 136.04 178.074 145.268 133.6 89.0392 98.7033 -55.3733 135.207 -10.0383 -1.14512 122.071 -61.4605 32.0413 100.269 -50.3162 19.7115 92.2996 24.5498 30.889 92.9393 31.8149 20.4411 144.215 26.5149 8.96277 69.3858 19.3493 
166.783 156.249 125.345 120.682 135.5 178.279 145.555 133.952 89.0889 98.855 -55.6303 134.306 -10.0261 -1.38655 120.929 -61.4133 31.8247 99.0905 -50.1486 19.6428 91.2839 24.4774 30.6872 91.9477 31.8402 20.0798 143.34 26.6064 9.0079 68.9747 19.425 
166.756 156.331 125.336 119.908 135.023 178.442 145.646 134.319 89.0809 99.1126 -55.8345 133.344 -9.89372 -1.57178 119.569 -61.2059 31.7509 97.8888 -49.917 19.6064 90.3862 24.5699 30.5394 91.0029 31.9525 19.8324 142.541 26.6995 9.06089 68.7477 19.394 
166.799 156.42 125.253 119.358 134.732 178.626 145.528 134.499 88.9674 99.312 -55.7966 132.181 -9.81047 -1.72746 118.287 -61.0194 31.7551 96.843 -49.7712 19.5786 89.6104 24.6294 30.4113 90.1475 32.0328 19.6918 141.791 26.7217 9.10461 68.6567 19.3191 
166.869 156.414 125.107 118.974 134.513 178.776 145.331 134.537 88.781 99.4788 -55.6471 130.962 -9.7852 -1.80933 117.19 -60.923 31.7737 95.9601 -49.7453 19.4957 88.9245 24.6261 30.257 89.324 32.0325 19.5977 141.081 26.683 9.1268 68.6729 19.2052 
166.974 156.227 124.834 118.739 134.379 178.824 145.054 134.333 88.5816 99.6163 -55.4636 129.862 -9.7315 -1.75993 116.357 -60.8149 31.8401 95.2752 -49.6433 19.4913 88.4095 24.6561 30.2243 88.6605 32.0308 19.5945 140.523 26.6599 9.13399 68.687 19.1283 
166.99 155.994 124.442 118.632 134.22 178.624 144.769 134.091 88.3138 99.6356 -55.3087 128.827 -9.77985 -1.63878 115.651 -60.8047 31.9468 94.7013 -49.6189 19.477 87.9911 24.6537 30.2167 88.0706 31.9716 19.6338 139.974 26.5615 9.13065 68.8063 19.052 
166.954 156.057 125.104 119.498 133.875 179.1 145.126 133.688 87.8301 100.331 -55.4509 128.478 -9.94374 -1.00958 114.197 -60.3182 32.0836 93.414 -48.8425 19.728 87.4391 25.0052 30.0077 87.5658 32.4039 19.7086 139.606 26.6335 9.47788 68.2633 18.7708 
167.337 155.951 125.609 119.637 134.077 179.604 145.366 133.406 88.1237 100.785 -55.537 128.357 -10.1728 -0.533413 113.191 -59.8634 32.0487 92.5837 -48.2786 19.9788 86.6398 24.8291 29.7668 87.2193 32.6763 19.6915 139.328 26.7021 9.7266 67.2604 18.4328 
167.772 155.798 126.03 119.468 134.324 179.978 145.565 133.244 88.9423 101.075 -55.6067 128.349 -10.3984 -0.154317 112.549 -59.4926 31.9818 92.1131 -47.9156 20.2739 85.7265 24.3494 29.5845 87.0214 32.8151 19.6275 139.15 26.7681 10.0163 66.0559 18.1001 
167.419 155.5 125.58 120.079 133.631 179.812 144.982 133.089 88.8297 100.258 -55.442 127.876 -10.3213 -0.426886 113.184 -59.7089 31.9038 92.7781 -48.3761 19.8933 86.0223 24.2387 29.6888 87.2599 32.4506 19.5313 139.075 26.6707 9.76427 66.7518 18.1315 
167.166 155.279 124.9 120.171 133.393 179.468 144.572 133.085 88.1102 99.676 -55.5124 127.553 -10.2506 -0.695908 113.701 -59.8476 31.8413 93.3997 -48.7105 19.5718 86.6569 24.457 29.7247 87.4526 32.2655 19.4082 139.011 26.6393 9.58804 67.7499 18.1491 
167.03 155.112 124.439 119.891 133.405 179.072 144.291 133.136 87.4068 99.4251 -55.8196 127.354 -10.1514 -1.07313 114.166 -59.9469 31.6205 93.9432 -48.9863 19.1935 87.2967 24.7018 29.5994 87.5383 32.1285 19.1893 139.006 26.6612 9.47351 68.6017 18.1393 
167.011 154.859 124.418 119.698 133.568 178.661 144.074 133.108 86.9644 99.2716 -56.4179 127.447 -10.0132 -1.51598 114.645 -59.9666 31.2364 94.4806 -49.176 18.7519 87.8538 24.8905 29.3547 87.6806 32.0608 18.8672 139.111 26.767 9.38301 69.1371 18.071 
167.015 154.564 124.441 119.806 133.783 178.194 143.821 132.952 86.8448 99.1038 -57.2491 127.816 -9.84493 -1.97809 115.195 -59.9163 30.7538 95.0774 -49.249 18.1817 88.3367 25.0872 28.9995 87.9267 32.0858 18.4656 139.327 26.9209 9.27203 69.5015 17.9766 
167.11 154.476 124.473 119.953 134.061 177.822 143.783 132.817 87.0148 98.7613 -58.0794 128.146 -9.62038 -2.60822 115.79 -59.9267 30.1938 95.6559 -49.3022 17.6038 88.7055 25.3238 28.6 88.3388 32.2928 17.9831 139.587 27.0792 9.14874 69.8024 18.0113 
167.25 154.653 124.514 119.631 134.033 177.72 144.311 133.203 87.0304 97.8705 -59.5895 128.435 -9.1524 -4.10208 116.372 -59.9341 28.7818 96.0843 -49.228 16.469 89.2617 26.0076 27.7382 89.0452 32.9181 16.7861 139.805 27.386 8.99507 70.3589 18.2164 
167.28 155.268 125.033 118.469 133.699 177.836 144.913 134.083 87.159 98.1352 -60.2934 128.382 -8.82927 -5.04002 115.849 -59.6432 28.1419 95.7133 -48.9598 16.3462 89.1573 26.4486 27.4329 89.0144 33.3382 16.0781 139.8 27.6807 9.12901 70.171 18.3041 
167.307 155.835 125.638 117.351 133.093 177.957 145.176 134.826 87.0325 98.6471 -61.0913 128.1 -8.54501 -6.12804 114.844 -59.1121 27.3293 94.9728 -48.5041 16.078 88.8647 26.7703 26.9647 88.5676 33.5966 15.271 139.563 27.992 9.26919 69.7226 18.283 
167.627 155.873 126.378 116.737 132.836 178.033 145.077 135.067 86.9344 98.9878 -62.1341 128.231 -8.14396 -7.06264 114.097 -58.4051 26.3891 94.532 -47.975 15.6478 88.7786 26.992 26.4557 88.3528 33.8361 14.5361 139.552 28.3628 9.27213 69.1431 18.04 
167.723 155.573 126.726 116.303 132.83 177.925 144.776 134.87 86.9655 99.0035 -63.4162 128.809 -7.73207 -7.76461 113.649 -57.7286 25.5397 94.3136 -47.3963 15.1319 88.7721 27.1319 25.9053 88.3816 34.1096 13.8755 139.627 28.6707 9.20133 68.6108 17.8112 
167.735 155.287 126.939 116.08 132.851 177.782 144.578 134.585 87.1429 98.9208 -64.5551 129.561 -7.49082 -8.26921 113.723 -57.3858 24.8738 94.4097 -47.0444 14.6357 88.7957 27.0988 25.4275 88.4981 34.2159 13.3241 139.78 28.866 9.10275 68.1756 17.7246 
167.795 155.258 127.188 115.809 132.824 177.654 144.73 134.482 87.4481 98.8869 -65.4213 130.228 -7.41709 -8.67319 114.103 -57.402 24.3838 94.6455 -46.9667 14.2966 88.7915 26.9037 25.1006 88.6221 34.1795 12.8775 139.961 28.9529 8.99823 67.7772 17.7932 
167.507 155.484 128.502 117.502 132.35 177.83 145.607 134.321 86.8327 99.182 -66.1545 130.89 -7.83554 -8.24086 113.59 -57.2295 24.3072 94.1127 -46.3735 14.0984 88.9482 27.2759 24.5185 88.9216 34.7166 12.563 140.227 29.0362 9.26959 67.3579 17.5853 
167.628 155.555 129.801 118.806 132.227 177.999 146.471 134.373 86.1698 99.6041 -66.6673 131.46 -8.43365 -7.78 112.931 -57.1493 24.2189 93.445 -45.9928 13.9931 88.9827 27.4508 24.0229 88.9121 35.0182 12.3761 140.332 28.9798 9.51039 66.9184 17.2875 
167.933 155.404 131.01 119.726 132.275 178.172 147.248 134.336 85.7508 100.18 -67.0144 131.869 -8.98321 -7.36779 112.336 -57.1218 24.1063 92.7787 -45.6993 14.0034 88.8523 27.4164 23.6656 88.7359 35.0983 12.2432 140.364 28.8696 9.72303 66.3211 17.064 
168.308 155.145 132.186 120.31 132.406 178.36 147.937 134.301 85.4793 100.856 -67.227 132.161 -9.46484 -6.98771 111.904 -57.1628 23.9665 92.2242 -45.5466 14.0586 88.6602 27.2206 23.4007 88.4484 35.0042 12.148 140.369 28.7552 9.88116 65.6677 16.8679 
168.697 154.925 133.224 120.535 132.592 178.555 148.603 134.346 85.3599 101.499 -67.295 132.352 -9.92821 -6.65721 111.643 -57.3207 23.8109 91.8097 -45.5695 14.0926 88.446 26.9031 23.1741 88.1263 34.7916 12.0707 140.36 28.6174 9.97902 65.06 16.6998 
