169.089 154.774 134.078 120.436 132.842 178.79 149.204 134.455 85.2888 101.991 -67.2789 132.359 -10.3908 -6.42128 111.406 -57.5634 23.6243 91.4305 -45.7038 14.0867 88.2622 26.5607 22.9624 87.8426 34.5531 11.9785 140.324 28.4291 10.0363 64.558 16.5626 
169.45 154.628 134.705 120.16 132.993 179.04 149.642 134.433 85.2827 102.449 -67.2233 132.218 -10.8144 -6.2852 111.19 -57.8026 23.3961 91.0336 -45.7863 14.0013 88.0272 26.2017 22.7307 87.4952 34.2766 11.8335 140.229 28.2457 10.0529 64.0538 16.5165 
169.69 154.462 135.156 119.689 133.075 179.235 149.897 134.388 85.2899 102.941 -67.2148 131.851 -11.1233 -6.32704 110.809 -57.9568 23.1418 90.5704 -45.8008 13.9716 87.7397 25.8431 22.5461 87.0984 33.9928 11.5977 140.08 28.0587 10.0784 63.518 16.5138 
169.34 154.778 134.203 116.707 131.764 179.24 149.587 134.489 86.9558 102.652 -67.1275 130.914 -10.7137 -7.39038 111.38 -58.6614 22.7326 90.6065 -46.2926 13.8638 87.0192 25.074 22.9314 86.7207 33.1187 11.2157 139.766 27.8236 9.80324 63.1392 17.3661 
169.399 155.29 133.578 113.407 130.299 178.838 148.76 134.837 88.9747 103.168 -68.3623 130.171 -10.6398 -9.22346 110.432 -58.7791 21.8113 89.6995 -46.3944 13.4449 85.4893 24.0002 22.9402 85.41 32.0181 10.2377 138.851 27.4773 9.42623 62.0378 17.9282 
169.047 156.151 133.282 113.937 131.507 178.295 150.282 135.736 88.5404 102.778 -70.041 131.055 -10.8334 -9.90978 110.128 -58.6348 21.0035 89.7663 -46.3403 12.3819 85.3398 23.7579 21.8032 85.0907 32.1942 9.49636 138.859 27.5856 9.19089 61.6457 17.2287 
169.211 156.219 134.113 114.867 132.235 178.277 150.155 135.299 88.0903 102.505 -71.1216 130.652 -11.0618 -10.5786 109.211 -58.3929 20.3636 89.2138 -46.1547 11.507 85.166 23.8438 20.728 85.0918 32.6454 8.72423 138.614 27.5533 9.21974 61.5679 16.9705 
169.668 155.913 134.338 115.362 132.156 178.559 150.07 134.996 87.5548 102.87 -71.9629 129.947 -11.3705 -11.2497 108.5 -58.2872 19.4816 88.6765 -45.9254 10.6585 85.0797 23.9449 19.835 84.8334 32.7052 7.7696 138.36 27.5208 9.2161 61.4345 16.8461 
170.025 155.598 134.687 115.548 131.891 178.406 149.862 134.832 87.5131 103.43 -73.4534 129.693 -11.5476 -12.1004 107.279 -57.8136 18.5652 87.7559 -45.2521 9.99268 84.5816 24.1097 19.0019 84.3439 32.9039 6.63405 138.012 27.5917 9.29239 60.8215 16.7825 
170.083 155.784 135.264 115.534 132.43 177.926 150.044 134.914 87.658 103.899 -75.5066 129.866 -11.5215 -13.2773 106.262 -57.5917 17.5377 87.1218 -45.0723 9.09806 83.995 24.1082 17.9609 83.8019 33.1443 5.48077 137.603 27.5959 9.24478 60.5709 16.6444 
170.484 155.735 135.572 115.614 132.444 178.078 150.07 134.759 87.8919 104.546 -77.0491 129.388 -11.4509 -15.0033 106.094 -57.7627 16.0601 87.0207 -45.3701 7.87863 83.4973 23.755 16.7423 83.2598 32.8557 4.20173 137.315 27.5475 9.16869 60.3824 16.7108 
170.814 155.268 135.682 115.27 131.622 177.934 150.346 135.062 88.4064 105.629 -79.0922 129.474 -11.2403 -16.7801 106.172 -57.9724 14.4365 86.9066 -45.5768 6.86113 82.7709 23.3554 15.7441 82.4498 32.2687 2.75158 136.974 27.5943 9.18652 59.9446 16.9953 
170.932 155.915 135.981 115.255 131.859 177.541 151.085 135.665 88.6746 105.946 -81.3482 129.435 -10.8024 -18.6124 106.166 -58.3697 12.9922 87.0268 -46.2181 5.72855 82.4297 23.1864 14.7019 82.1102 32.2062 1.47972 136.757 27.5604 9.01424 60.224 17.0636 
171.191 156.188 136.266 115.25 131.605 177.672 151.158 135.906 88.6138 106.879 -82.9329 129.111 -10.799 -20.3076 106.24 -58.4769 11.5162 87.2375 -46.4463 4.49091 82.5396 22.9923 13.8931 81.8058 31.5995 0.121561 136.811 27.5622 8.74058 60.1366 17.0872 
171.529 156.084 137.239 115.014 131.855 177.781 151.536 136.323 89.2893 108.849 -84.6247 128.872 -10.5849 -21.9453 106.298 -58.6442 9.86971 87.1173 -46.5711 3.55673 82.0716 22.5546 13.4489 80.8982 30.6556 -1.37085 136.727 27.6526 8.48816 59.3939 17.2966 
171.387 156.473 137.413 115.751 132.104 177.437 152.13 137.007 88.8629 108.891 -86.4951 128.52 -10.198 -23.3783 106.217 -59.0979 8.6387 87.2668 -47.2984 2.51111 82.1855 22.5817 12.7938 80.7987 30.4782 -2.51859 136.517 27.5244 8.27721 60.0782 17.2414 
171.289 155.06 134.043 116.139 133.318 177.022 152.263 137.669 86.2447 108.944 -87.9521 128.319 -10.398 -24.2259 106.106 -59.5609 7.68706 87.4173 -48.2989 2.09794 83.1362 23.2166 12.0264 80.3219 29.9746 -3.39606 136.028 26.7891 9.22735 62.2328 16.9217 
171.1 154.305 130.607 116.595 134.958 176.71 152.774 138.047 84.7135 109.517 -89.654 128.848 -10.6166 -25.4229 106.588 -60.2572 6.50069 87.695 -49.1944 0.733055 83.6727 22.8821 10.7284 79.6052 29.2156 -4.58647 135.715 26.1397 9.34165 63.369 16.9883 
170.74 154.367 129.258 116.543 136.144 176.357 153.822 139.218 83.435 109.935 -91.4934 129.215 -10.2443 -27.0655 107.107 -61.1307 5.10793 87.9649 -50.6111 -0.699121 84.0355 22.5104 9.44408 78.9089 28.5962 -5.73838 135.337 25.6312 9.31439 64.7222 17.0623 
170.792 155.892 129.258 117.752 135.396 176.366 154.285 139.244 83.3515 107.063 -92.8302 129.936 -9.46151 -29.1234 108.813 -62.5595 3.47395 88.0138 -52.3374 -2.36967 83.6883 21.5928 8.04076 79.1776 28.2452 -6.6019 134.872 25.2318 8.57779 65.115 17.9651 
170.711 157.574 128.39 119.063 136.767 176.703 154.257 139.321 83.6023 104.134 -93.9671 129.907 -8.50105 -30.9871 110.488 -63.6538 1.9929 88.778 -53.7419 -3.67817 83.7638 21.1214 6.89527 80.088 28.2743 -7.42143 134.849 24.9687 8.09934 65.7489 18.528 
170.373 158.94 128.487 117.398 140.191 177.038 154.182 139.604 84.1642 102.508 -95.1624 129.569 -7.41778 -32.7037 111.389 -64.3108 0.86831 88.9747 -54.523 -4.52213 83.7317 20.3565 5.89298 80.6593 28.5683 -8.42991 134.92 24.8625 7.54729 65.3094 19.1958 
169.91 159.911 128.711 115.688 143.321 177.249 153.919 139.513 85.0598 101.657 -96.2378 129.064 -6.64082 -34.0851 111.621 -64.909 -0.0403754 88.6249 -54.9275 -5.19078 83.4261 19.4981 5.07025 80.9507 28.6908 -9.4363 134.946 24.6464 7.28874 64.3628 19.8619 
169.151 160.896 128.129 119.732 144.858 177.345 154.163 139.802 85.4952 100.093 -97.0448 128.824 -6.36885 -35.4264 112.205 -65.9929 -1.03021 88.9033 -56.0915 -6.46066 83.1777 19.7596 4.08068 81.4904 28.4775 -10.268 134.948 24.2115 7.51496 65.5514 20.1076 
168.362 162.06 127.811 124.608 145.943 177.506 154.519 140.568 86.1482 98.3888 -97.9104 128.611 -6.12035 -36.7935 113.095 -67.015 -2.1012 89.8021 -57.5721 -7.6579 83.147 19.978 3.14548 82.4677 28.247 -11.0326 135.21 23.7465 7.82847 66.9052 20.0165 
167.413 162.937 129.025 130.038 146.784 177.522 154.543 141.199 87.5473 97.0471 -98.9122 128.193 -5.89827 -37.8928 113.539 -67.4879 -2.79834 90.4555 -58.3749 -8.42899 82.9035 19.8938 2.43843 83.7792 28.3636 -11.9015 135.758 23.3897 8.15002 67.1101 19.9975 
166.924 162.609 130.752 131.152 146.582 177.127 153.766 141.385 88.4709 97.2262 -100.446 127.92 -5.52084 -38.9364 113.335 -67.3722 -3.54807 90.3752 -58.2719 -8.98579 82.751 19.0396 1.72162 84.4487 28.1939 -13.2123 136.303 23.2 8.27953 65.7754 20.1777 
166.526 162.363 132.304 129.461 145.177 176.585 153.227 141.435 89.9336 97.5549 -102.154 128.053 -5.26554 -39.8634 112.83 -67.4579 -4.11598 89.6714 -58.0627 -9.42131 81.7899 17.5986 0.936105 84.2965 27.8015 -14.5226 136.324 22.977 8.58553 63.7441 20.6109 
165.624 162.788 133.663 135.939 144.107 176.073 153.258 141.465 90.4595 97.3062 -103.458 128.399 -5.51049 -40.6297 112.528 -67.905 -4.78716 89.6224 -58.4183 -10.5429 81.2716 17.7615 0.20624 84.3482 27.2857 -15.513 136.242 22.5387 8.43195 64.2837 20.5438 
164.799 163.35 135.214 143.459 142.817 175.471 153.243 141.167 90.0272 96.668 -104.874 128.75 -5.72719 -41.9696 112.693 -68.343 -6.07601 89.9448 -58.8514 -12.102 81.6282 18.0791 -0.801925 84.9198 26.6982 -16.6464 136.376 22.0952 8.23658 65.1457 20.488 
164.405 163.773 136.367 145.292 141.679 174.911 153.321 140.733 89.639 96.7913 -106.829 128.737 -5.20747 -43.8569 112.977 -68.745 -7.52672 89.8922 -59.0567 -13.5616 81.8126 17.7349 -2.03382 85.0023 26.2954 -18.1357 136.356 21.8675 8.006 65.104 21.0219 
163.587 164.613 136.54 146.675 140.097 174.578 153.717 140.622 89.3971 96.5562 -108.557 128.879 -4.89483 -45.1536 112.906 -68.9729 -8.29472 89.9575 -59.0151 -14.8021 82.2163 18.2959 -3.00528 85.4366 26.3947 -19.4716 136.438 21.7066 7.8801 65.9308 21.3719 
162.805 165.718 137.036 146.143 138.469 174.14 154.476 140.287 88.2902 96.0521 -110.17 129.075 -4.41182 -47.0338 113.179 -69.1619 -9.72356 90.4561 -59.073 -16.4796 83.6037 19.3805 -4.21457 86.2463 26.3159 -20.8767 136.672 21.5964 7.88525 67.6307 21.5867 
162.518 166.31 137.736 143.814 137.43 173.956 155.147 139.823 87.3208 95.8836 -112.204 129.215 -3.60904 -49.2993 113.88 -69.4519 -11.3592 91.0632 -59.2814 -18.2106 84.7906 19.8686 -5.64548 86.8278 26.226 -22.5104 136.881 21.545 7.84237 68.8262 22.0833 
162.272 166.716 137.798 143.126 136.5 173.711 155.716 139.565 86.6759 95.6324 -114.465 129.742 -2.673 -51.2407 114.161 -69.2003 -12.7857 91.4576 -58.7363 -19.7499 85.9984 20.9161 -7.03008 87.7685 26.6482 -24.2006 137.343 21.6758 8.04045 69.8806 22.5161 
161.522 167.468 138.112 141.897 135.246 173.459 156.635 139.38 86.0904 95.3802 -116.443 130.268 -1.87557 -53.0556 114.129 -68.9556 -14.1208 91.6216 -58.0577 -21.1421 87.2251 22.1964 -8.20122 88.5967 26.9959 -25.7802 137.737 21.8122 8.46121 71.03 22.906 
161.496 167.939 139.133 138.838 134.74 173.456 157.32 138.961 85.2391 94.6138 -118.667 131.29 -0.611131 -55.7074 115.465 -68.9235 -16.2993 92.9056 -58.2194 -22.9114 88.7545 22.3787 -9.86341 89.8268 27.05 -27.4671 138.321 21.9648 8.41949 71.866 23.2042 
161.366 168.338 139.5 139.238 134.13 173.364 158.094 138.977 84.7436 93.766 -120.793 132.497 0.287244 -58.039 116.834 -68.9832 -18.4944 94.224 -58.346 -24.9041 90.3448 23.2524 -11.6342 91.2526 27.1049 -29.0836 139.165 22.0212 8.8678 73.2685 23.2868 
160.577 168.452 139.372 138.208 133.215 173.088 158.661 138.913 84.1244 92.9123 -122.661 132.832 1.13577 -59.7195 116.656 -68.9477 -20.0737 94.3315 -58.0296 -26.0835 91.5598 24.0075 -12.6844 92.4145 27.323 -30.482 139.5 21.904 9.15007 74.1233 23.3934 
160.425 168.901 139.824 137.561 132.81 172.946 159.381 139.12 83.7832 92.4156 -124.715 133.439 2.42999 -62.0239 117.158 -68.8218 -21.8821 95.0803 -58.1757 -27.425 92.5571 24.3503 -13.9969 93.4409 27.346 -31.8862 139.925 21.8672 9.29359 74.9809 23.5398 
160.69 169.338 140.255 138.613 132.58 172.864 160.174 140.087 83.52 91.4252 -126.804 134.524 3.70129 -64.7338 118.809 -68.9371 -24.0464 96.9589 -59.2672 -29.1657 93.9687 24.9326 -15.6577 94.9581 27.2452 -33.2094 140.719 21.754 9.71574 76.9556 23.4252 
160.493 169.718 139.814 139.458 132.201 172.784 160.729 141.159 82.8583 89.7722 -128.467 134.967 4.63978 -67.1949 120.246 -69.302 -26.1531 98.7604 -60.6145 -30.7487 95.4981 25.356 -17.2634 96.7258 27.1746 -34.3831 141.329 21.444 10.1052 79.0773 23.147 
159.883 169.983 139.352 139.202 131.702 172.399 161.217 142.237 82.4942 88.4748 -129.768 135.188 5.15238 -69.1816 121.217 -69.8769 -27.8208 100.136 -61.9494 -32.0586 96.4907 25.3598 -18.6903 98.0608 27.0167 -35.4412 141.654 20.9935 10.3336 80.698 22.9144 
159.169 170.132 139.658 138.194 132.068 171.899 161.797 143.578 82.385 87.5202 -130.824 135.51 5.98261 -71.1381 122.484 -70.2896 -29.3933 101.808 -63.3317 -33.1017 97.4595 25.2331 -19.9861 99.5225 27.1448 -36.4557 142.192 20.7445 10.3675 82.0414 22.7081 
158.604 170.162 139.998 137.383 132.81 171.505 162.139 145.053 82.2907 87.0084 -131.927 136.437 7.08678 -72.8688 124.001 -70.3223 -30.9746 103.674 -64.415 -34.2757 98.6179 25.2291 -21.4474 101.086 27.6133 -37.4256 143.055 20.7771 10.4071 83.1374 22.3682 
158.482 170.111 141.21 136.358 133.335 171.099 162.227 146.49 82.2666 86.7943 -133.093 137.64 8.1018 -74.3327 125.571 -70.3257 -32.4676 105.629 -65.5363 -35.2971 99.6435 24.9009 -22.8558 102.529 27.9631 -38.2972 143.992 20.8202 10.601 83.7651 21.8875 
158.591 170.14 144.399 134.683 133.22 170.421 162.033 148.295 81.9968 87.0535 -134.718 139.475 7.89987 -75.2052 126.779 -70.8976 -33.4653 107.593 -67.1311 -36.4856 101.215 24.0748 -24.5231 104.194 27.9203 -39.3411 145.298 20.3296 10.9209 84.197 21.1375 
158.484 170.146 147.28 134.939 133.284 170.166 161.879 149.59 81.5166 86.7339 -135.04 139.798 7.87197 -75.5654 127.514 -71.1853 -34.0752 108.727 -68.3714 -36.7891 102.289 23.9198 -25.1157 105.221 27.7455 -39.6082 146.012 19.9871 11.3246 85.0328 20.5498 
157.935 170.066 149.905 135.394 132.944 169.98 161.856 150.857 81.0814 86.1474 -135.306 140.133 7.84078 -75.9193 128.096 -71.4913 -34.5898 109.735 -69.5133 -37.1167 103.444 23.9802 -25.5657 106.451 27.6883 -39.9205 146.767 19.633 11.616 86.0665 20.0589 
157.437 169.924 152.423 136.03 132.378 170.022 161.835 152.03 80.6949 85.5893 -135.425 140.744 7.76441 -76.3138 128.993 -71.7849 -35.2015 111.079 -70.702 -37.4179 104.704 24.0238 -25.9174 107.758 27.4814 -40.1902 147.592 19.2889 11.8714 87.1999 19.5517 
157.218 169.729 154.846 136.101 131.377 170.288 161.757 153.08 80.4739 85.3584 -135.454 141.444 7.57301 -76.6062 130.06 -72.063 -35.7937 112.548 -71.8357 -37.6793 105.762 23.7317 -26.1994 108.865 27.1299 -40.4513 148.43 18.989 11.999 87.8745 19.0439 
157.259 169.406 156.891 136.102 130.078 170.621 161.641 153.938 80.3218 85.2603 -135.528 142.287 7.39342 -76.9425 131.333 -72.3353 -36.4174 114.303 -72.9722 -37.7912 106.785 23.2498 -26.3291 109.959 26.597 -40.6861 149.32 18.6848 12.1033 88.3819 18.5571 
157.192 169.213 158.849 136.244 128.763 170.841 161.585 154.685 80.2544 85.1929 -135.66 143.356 7.12786 -77.1986 132.674 -72.7113 -36.9956 116.15 -74.1204 -37.8129 107.809 22.7188 -26.3625 111.054 25.8955 -40.865 150.213 18.3124 12.2301 88.8434 18.0741 
156.705 169.1 160.622 136.547 127.711 170.92 161.544 155.387 80.2269 85.1607 -135.632 144.569 6.77497 -77.3194 133.879 -73.0811 -37.5117 117.799 -75.1262 -37.8544 108.783 22.2437 -26.4011 112.064 25.2108 -40.9756 151.067 17.9381 12.3429 89.2083 17.5842 
155.778 168.998 162.042 136.698 127.082 170.671 161.543 155.921 80.337 85.2016 -135.573 145.943 6.49326 -77.3187 135.076 -73.466 -37.8944 119.327 -75.9885 -37.8243 109.624 21.7464 -26.3961 112.984 24.5709 -41.0337 151.875 17.5771 12.4601 89.3999 17.1717 
156.879 169.401 164.292 137.748 131.459 170.577 161.29 156.419 81.3925 84.3479 -135.358 146.93 5.75931 -77.3938 136.628 -73.9235 -38.9656 121.413 -76.7835 -38.2623 110.76 21.6955 -26.3387 114.165 23.3953 -41.0004 152.824 16.9981 12.3803 90.0862 16.3511 
158.24 169.789 166.333 139.27 134.524 170.58 161.127 156.564 82.0636 83.4715 -135.038 147.468 5.0437 -77.4927 137.542 -74.2414 -39.8684 122.553 -77.0917 -38.5226 111.938 21.8633 -26.1354 115.434 22.5373 -40.8772 153.58 16.4158 12.3964 90.5892 15.8213 
159.311 170.128 168.181 140.78 137.247 170.765 160.842 156.608 82.5107 82.6232 -134.492 147.93 4.26398 -77.6222 138.311 -74.3859 -40.7801 123.458 -77.2211 -38.8772 113.294 22.1925 -26.1244 116.892 22.0373 -40.748 154.392 15.9097 12.5018 91.0967 15.3194 
160.321 170.309 169.335 142.337 139.516 171.178 160.452 156.514 82.96 81.9981 -133.755 148.241 3.36277 -77.7156 138.927 -74.398 -41.6249 124.219 -77.2199 -39.3126 114.669 22.6122 -26.1924 118.315 21.7201 -40.6148 155.266 15.492 12.566 91.5079 14.8083 
161.34 170.39 169.812 143.962 141.125 171.746 160.251 156.513 83.5403 81.5444 -132.924 148.546 2.35432 -77.7613 139.468 -74.4261 -42.2718 124.802 -77.17 -39.8792 115.889 23.1743 -26.3118 119.507 21.5166 -40.4727 156.13 15.1607 12.5803 91.9376 14.3991 
162.214 170.512 169.598 144.321 142.382 172.078 160.104 156.292 83.8185 81.5485 -132.38 149.197 1.50608 -77.826 140.276 -74.5063 -42.7522 125.657 -77.1892 -40.3304 117.048 23.1179 -26.499 120.529 21.2907 -40.3855 157.1 14.9106 12.4209 91.7788 14.0929 
162.799 170.561 169.113 144.485 143.052 172.13 160.235 156.27 84.1145 81.8126 -132.04 150.162 0.847729 -77.7156 141.287 -74.7684 -42.7722 126.723 -77.3844 -40.5786 118.013 22.9014 -26.5861 121.336 20.982 -40.2294 158.078 14.6778 12.3152 91.6312 13.9528 
163.21 170.458 168.827 144.717 143.22 171.978 160.516 156.267 84.3579 82.2198 -132.015 151.14 0.481527 -77.4571 142.324 -75.0692 -42.4937 127.778 -77.5105 -40.646 118.818 22.6569 -26.5171 121.94 20.5989 -40.0707 158.974 14.4934 12.2477 91.4941 13.9551 
163.4 170.25 168.646 145.29 143 171.749 160.942 156.286 84.7971 82.6287 -132.066 151.95 0.315341 -77.1382 143.343 -75.4487 -42.1275 128.678 -77.5686 -40.5129 119.437 22.6613 -26.2774 122.437 20.1683 -39.9045 159.741 14.2967 12.3879 91.5836 14.0816 
163.467 170.067 168.435 145.577 142.781 171.417 161.244 156.056 85.1805 83.1175 -132.188 152.536 0.242786 -76.4994 144.029 -75.7891 -41.5822 129.089 -77.3842 -40.2496 119.872 22.6525 -25.9755 122.779 19.8857 -39.6791 160.349 14.137 12.5006 91.4174 14.2149 
163.589 169.815 167.837 145.481 142.521 171.262 161.32 155.675 85.4897 83.4106 -132.183 153.032 0.0447855 -75.8953 144.577 -76.1114 -41.2022 129.42 -77.2682 -39.8631 120.306 22.5188 -25.6151 123.26 19.6408 -39.4534 160.925 13.9094 12.5532 91.1375 14.2553 
163.659 169.575 167.432 145.737 142.255 171.256 161.327 155.533 85.891 83.394 -131.991 153.597 -0.220483 -75.3258 145.22 -76.4329 -41.0028 129.959 -77.3392 -39.4775 120.886 22.6233 -25.2308 124.001 19.3733 -39.2088 161.49 13.6235 12.7585 91.2786 14.1606 
163.608 169.247 166.48 146.044 142.03 171.379 161.402 155.62 86.3048 83.2672 -131.596 154.095 -0.420115 -74.9391 145.988 -76.6508 -40.9085 130.653 -77.4931 -39.2253 121.596 22.9425 -24.9247 124.863 19.2452 -38.9815 162.117 13.399 12.9642 91.7747 14.0767 
163.516 169.128 165.138 146.089 141.965 171.537 161.309 155.683 86.507 83.2963 -131.13 154.908 -0.799998 -74.7853 147.01 -76.8988 -40.9297 131.747 -77.9147 -39.0777 122.43 22.9407 -24.8223 125.728 19.0535 -38.7728 162.903 13.1753 13.0949 92.1337 13.9189 
163.411 169.28 164.284 145.572 141.97 171.576 161.318 155.755 86.4028 83.4738 -130.767 155.994 -1.08052 -74.8591 148.29 -77.196 -40.9557 133.03 -78.5179 -38.9243 123.145 22.3401 -24.8025 126.398 18.7244 -38.5445 163.686 12.9368 13.0038 92.0756 13.8782 
163.4 169.507 163.638 144.819 142.102 171.541 161.406 155.794 86.1521 83.6722 -130.551 157.048 -1.26585 -74.9541 149.852 -77.5585 -40.7697 134.63 -79.2707 -38.6927 123.756 21.2813 -24.7399 127.029 18.2887 -38.2871 164.496 12.6817 12.7494 91.7845 13.9519 
163.468 169.651 163.531 144.437 142.133 171.463 161.362 155.623 85.9088 83.7946 -130.373 157.663 -1.40282 -74.7188 151.215 -77.9211 -40.4739 136.019 -79.8191 -38.2786 124.411 20.4315 -24.4754 127.674 17.8095 -37.9467 165.244 12.4069 12.6526 91.5662 13.9535 
163.697 169.614 163.861 144.57 142.162 171.576 161.15 155.197 85.8005 83.7615 -129.92 157.85 -2.0493 -73.9946 152.291 -78.4116 -39.9789 136.844 -80.0246 -37.8215 125.099 19.9531 -24.0909 128.354 17.3923 -37.5221 165.922 12.0565 12.7057 91.393 13.9682 
163.608 169.431 164.148 145.101 142.265 171.474 160.876 154.586 86.0887 83.6995 -129.518 158.295 -2.64727 -72.7504 153.079 -78.9266 -39.2992 137.271 -79.8106 -37.334 125.742 19.8795 -23.6024 129.178 17.1379 -37.0623 166.599 11.7074 12.8638 91.2139 13.9415 
163.275 169.271 163.422 145.353 142.422 171.371 160.811 153.903 86.4553 83.5496 -129.062 159.325 -3.25361 -71.374 153.895 -79.5498 -38.5777 137.639 -79.4355 -36.8658 126.57 19.9699 -23.1155 130.218 16.9225 -36.5633 167.343 11.2769 13.0901 91.1706 14.0097 
163.082 169.264 162.079 145.55 142.606 171.307 160.801 153.198 86.8628 83.4963 -128.586 160.449 -3.97021 -70.2835 154.88 -80.2275 -38.0458 138.196 -79.3139 -36.4639 127.393 19.9125 -22.7004 131.207 16.5424 -36.0783 168.061 10.7413 13.2991 91.1719 14.1349 
163.164 169.288 161.476 145.836 142.644 171.565 160.91 153.31 87.1874 83.6132 -127.949 161.463 -4.52832 -69.9167 156.228 -80.7 -37.7752 139.335 -79.9378 -36.1702 128.25 19.7663 -22.3569 132.067 16.0663 -35.645 168.838 10.304 13.4223 91.609 14.1939 
163.49 169.395 161.914 145.817 142.463 171.958 160.925 153.32 87.2464 83.9276 -127.231 162.191 -5.22989 -69.7167 157.097 -81.0257 -37.3288 139.843 -80.4521 -35.8655 128.912 19.3647 -22.0038 132.578 15.6349 -35.2498 169.512 9.95406 13.3566 91.5486 14.4683 
163.971 169.501 162.091 145.597 142.152 172.412 160.829 152.933 87.1134 84.3151 -126.535 162.856 -5.93642 -69.6128 157.986 -81.2987 -36.9405 140.351 -80.8271 -35.5108 129.485 18.6076 -21.5932 132.968 15.08 -34.8908 170.189 9.62735 13.1448 91.084 14.8046 
164.472 169.603 161.631 145.293 141.73 172.731 160.848 152.453 86.9689 84.7757 -125.961 163.292 -6.51984 -69.4906 158.763 -81.6172 -36.3563 140.835 -81.1473 -34.9543 129.822 17.7618 -21.0309 133.172 14.4673 -34.5287 170.74 9.31244 12.9564 90.5859 15.2378 
164.779 169.722 161.205 145.156 141.381 172.914 160.827 152.151 86.9864 85.1374 -125.404 163.793 -7.11235 -69.1924 159.523 -82.0059 -35.6727 141.493 -81.6025 -34.3798 130.001 16.9672 -20.4327 133.307 13.7823 -34.091 171.16 8.96014 12.8652 90.2873 15.5116 
164.825 169.821 161.104 145.054 141.256 172.846 160.6 151.984 86.9603 85.3965 -124.933 164.379 -7.63963 -68.6374 160.148 -82.3743 -34.8475 142.17 -82.1275 -33.8289 130.024 16.1078 -19.8899 133.314 13.1103 -33.5719 171.385 8.56388 12.79 90.0921 15.6048 
164.745 169.885 161.642 145.275 141.276 172.873 160.316 152.143 86.9596 85.257 -124.292 165.148 -8.38097 -67.8954 161.079 -82.7768 -34.1547 143.262 -82.7442 -33.4616 130.385 15.512 -19.4799 133.721 12.4953 -33.0034 171.74 8.12661 12.8703 90.3152 15.44 
164.735 169.974 162.416 145.415 141.341 173.022 160.084 152.478 86.9073 84.8921 -123.622 165.828 -9.2174 -67.2432 162.253 -83.3173 -33.8543 144.672 -83.5297 -33.1847 131.096 15.003 -19.1816 134.471 11.8007 -32.4631 172.226 7.54195 13.0715 90.8287 15.0772 
165.119 169.935 163.385 145.618 141.494 173.458 159.747 152.906 86.9637 84.4713 -122.79 166.161 -10.3378 -66.7982 163.437 -83.8479 -33.8986 146.13 -84.4836 -32.9468 132.081 14.5774 -18.9154 135.527 11.1024 -31.9499 172.888 6.84443 13.2703 91.3724 14.5961 
165.728 169.959 164.405 145.769 141.623 173.992 159.594 153.254 87.2353 84.3695 -121.913 165.943 -11.51 -66.5057 164.118 -84.3816 -33.8988 146.927 -85.3318 -32.6176 132.905 14.283 -18.5504 136.419 10.5548 -31.4693 173.505 6.13119 13.361 91.7275 14.3359 
166.26 169.987 165.142 145.824 141.731 174.507 159.525 153.353 87.5353 84.4984 -121.063 165.709 -12.6173 -66.1682 164.166 -84.9152 -33.6723 146.917 -85.9577 -32.183 133.386 13.9905 -18.0954 136.942 10.1511 -31.0124 173.904 5.48274 13.3282 91.7227 14.2952 
166.651 170.13 165.163 145.489 141.816 174.822 159.558 153.131 87.7011 84.9012 -120.475 165.701 -13.4573 -65.7876 163.918 -85.5169 -33.2387 146.377 -86.4365 -31.7491 133.551 13.3427 -17.7011 137.097 9.76632 -30.5923 174.169 4.8887 13.1017 91.1637 14.4741 
167.008 170.284 164.579 145.084 141.802 175.085 159.632 152.831 87.8647 85.3801 -119.964 165.889 -14.1734 -65.3781 163.641 -86.0917 -32.7596 145.868 -86.8719 -31.351 133.51 12.6262 -17.371 137.052 9.37288 -30.1912 174.357 4.38198 12.8987 90.5378 14.6168 
167.097 170.62 164.022 144.75 141.696 175.161 159.959 152.763 88.0419 85.8037 -119.605 166.367 -14.6469 -65.0411 163.546 -86.7183 -32.2239 145.526 -87.3984 -30.9473 133.407 11.9839 -17.0368 136.943 8.95376 -29.7805 174.507 3.87859 12.7744 90.1879 14.8266 
