145.623 164.843 153.289 152.491 146.869 166.148 155.252 159.349 94.8976 97.2986 141.603 202.675 52.8167 110.308 209.944 -25.9065 55.2077 199.531 -36.0655 53.6429 176.228 48.665 41.6981 187.396 62.1641 64.8693 232.106 56.6072 13.328 78.2082 30.0383 
145.623 165.075 153.545 161.005 147.042 165.989 155.374 159.387 95.8212 97.324 142.76 203.293 53.0506 110.721 209.686 -25.8606 55.7715 199.257 -35.9 54.2356 175.47 48.2215 42.2181 187.492 62.395 65.411 232.149 56.6096 13.9809 77.3939 29.9099 
145.623 165.439 153.977 162.469 147.449 166.052 155.542 159.289 95.6818 97.019 143.777 203.979 53.3481 111.253 209.492 -25.7404 56.5374 198.919 -35.6408 54.8087 175.281 47.9549 42.7877 187.504 62.6908 65.928 232.131 56.7516 14.6281 76.7829 29.6441 
145.623 165.542 154.306 167.863 147.614 166.128 155.545 158.915 96.3867 96.7429 144.682 204.36 53.4966 111.6 209.291 -25.8498 57.1193 198.57 -35.4785 55.1376 174.557 47.0057 43.219 187.467 62.7514 66.4227 232.097 56.8081 15.6966 75.4375 29.3721 
145.623 165.762 154.533 165.505 147.742 166.464 155.462 158.895 96.5053 96.6759 145.071 204.209 53.6151 111.999 208.925 -25.7733 57.5276 198.366 -35.4111 55.2458 174.381 46.5412 43.5404 187.383 62.8309 66.9412 232.046 56.92 16.2974 74.7619 29.2431 
145.57 166.1 154.81 151.418 147.83 166.608 155.398 159.128 94.6681 96.6361 145.19 205.368 52.5238 112.369 208.21 -25.6948 57.7586 197.813 -35.332 55.5853 175.389 47.9166 43.8226 187.049 62.8669 67.3793 231.79 56.9503 14.944 76.2053 29.2517 
146.833 166.368 154.913 141.093 147.992 166.991 155.419 159.51 92.6441 96.389 145.327 204.506 52.3963 112.635 207.765 -25.6738 57.9817 197.64 -35.317 56.0613 176.837 49.3483 44.1838 187.067 62.9546 67.7616 231.71 56.9432 13.569 77.9672 29.1739 
147.696 166.384 155.466 135.632 148.115 167.171 155.542 160.232 91.7428 96.3295 145.876 204.324 52.4847 112.996 207.619 -25.5915 58.3631 197.774 -35.4 56.5515 177.569 50.0946 44.6786 186.944 63.1772 68.2396 231.759 57.0697 12.9778 78.9176 28.9918 
148.439 166.386 155.43 132.883 148.212 167.416 155.524 160.42 91.5533 96.3854 146.264 204.084 52.4014 113.06 207.262 -25.5699 58.5524 197.598 -35.2138 57.013 177.892 50.4155 45.0619 186.879 63.2979 68.6678 231.868 57.1581 12.6065 79.0172 28.7649 
147.31 166.248 155.268 132.812 147.987 167.025 155.347 160.484 92.3316 96.639 146.839 204.269 52.65 113.071 206.923 -25.4814 58.7535 197.628 -35.1485 57.4749 177.787 50.213 45.2718 187.035 63.3075 69.0384 231.999 57.17 12.5035 78.6461 28.5825 
147.559 166.381 155.38 130.763 148.049 167.131 155.227 160.442 91.6806 96.3627 147.129 204.43 52.5139 113.14 206.497 -25.4191 58.9349 197.088 -34.95 57.9016 178.088 50.6649 45.5977 186.93 63.4696 69.2337 231.884 57.1826 12.1401 78.914 28.4725 
147.714 166.362 155.486 130.511 148.086 167.182 155.32 160.514 91.9216 96.3111 147.485 204.746 52.2816 113.259 206.358 -25.5279 59.1087 196.931 -35.0169 58.2424 177.816 50.3496 45.8994 186.745 63.4992 69.4437 231.808 57.1755 12.3786 78.5116 28.3593 
147.838 166.306 155.757 129.186 148.174 167.156 155.483 160.784 91.5178 96.1955 147.829 205.165 52.1263 113.364 206.357 -25.586 59.248 197.049 -35.1855 58.5846 178.254 50.7012 46.1239 186.863 63.5275 69.613 231.923 57.1656 11.969 79.0193 28.2431 
148.126 166.21 156.062 129.12 148.229 167.262 155.711 161.133 91.2981 96.1551 147.981 205.378 51.9236 113.486 206.45 -25.6711 59.3415 197.381 -35.4563 58.835 178.655 51.154 46.3006 187.095 63.4872 69.8182 232.131 57.1567 11.4872 79.6974 28.1547 
148.181 166.133 156.149 129.602 148.361 167.148 155.838 161.343 90.7985 96.0523 148.22 205.714 51.804 113.628 206.492 -25.6794 59.4383 197.539 -35.5874 59.0647 179.124 51.8843 46.45 187.304 63.461 69.9771 232.254 57.1352 10.8284 80.6271 28.1521 
147.942 165.742 156.18 130.311 148.434 167.173 156.02 161.518 90.2526 95.8947 148.359 206.029 51.6895 113.777 206.664 -25.7489 59.5111 197.678 -35.7296 59.2294 179.56 52.6995 46.6085 187.49 63.4383 70.1353 232.336 57.1059 10.2331 81.6888 28.2069 
146.3 165.337 156.059 132.203 148.422 166.535 156.245 161.811 89.6496 95.7625 148.686 206.665 51.7996 113.807 206.801 -25.7585 59.4182 197.805 -35.7476 59.7565 180.579 54.7941 46.8968 188.102 63.684 70.4007 232.637 57.1006 8.87033 84.0131 28.3507 
145.623 165.163 155.799 133.757 148.485 166.263 156.429 161.904 88.9846 95.5761 148.936 205.209 52.8824 113.771 206.991 -25.7528 59.3337 197.714 -35.5136 60.1429 181.45 56.3741 47.2035 188.569 64.0611 70.5575 232.747 57.1134 8.26273 85.6742 28.5253 
145.623 164.953 155.727 134.009 148.291 166.138 156.623 161.826 88.4633 95.5845 149.368 205.616 52.8447 113.861 207.21 -25.7669 59.3233 197.368 -35.2902 60.2944 181.917 57.3895 47.4881 188.552 64.309 70.7092 232.74 57.1575 8.11351 86.5504 28.7433 
145.623 164.768 155.742 133.756 148.389 165.755 156.724 161.622 87.62 95.6533 150.155 206.29 52.9734 114.074 207.442 -25.7671 59.4336 197.091 -34.9861 60.2213 182.255 57.9142 47.6924 188.259 64.4327 70.9365 232.767 57.2813 8.22783 86.8383 28.8675 
145.623 164.614 155.711 133.645 148.336 165.466 156.776 161.586 87.3695 95.8174 150.484 206.375 53.1959 114.103 207.443 -25.6483 59.4006 196.997 -34.7069 60.2995 182.727 58.5845 47.8411 188.446 64.6603 71.148 232.915 57.3952 8.20807 87.322 28.9702 
145.623 164.488 155.436 134.252 148.44 165.257 156.857 161.579 86.9239 95.7609 150.56 206.255 53.4203 114.125 207.499 -25.4897 59.3898 196.905 -34.3426 60.5294 183.486 59.6802 48.0141 188.842 64.9965 71.3026 233.083 57.5054 8.16172 88.3467 29.0962 
145.623 164.515 155.322 135.045 148.542 165.141 156.968 161.507 86.5938 95.6731 150.492 206.165 53.4974 114.063 207.593 -25.4128 59.2972 196.709 -33.9754 60.7055 184.104 60.7341 48.1574 189.147 65.3138 71.3849 233.192 57.6144 8.25588 89.2526 29.2347 
145.623 164.619 155.074 135.744 148.593 165.038 157.074 161.496 86.2035 95.5579 150.493 206.263 53.4395 113.903 207.664 -25.3941 59.177 196.447 -33.619 60.8753 184.682 61.6241 48.2736 189.357 65.5312 71.4099 233.259 57.6555 8.41111 90.0411 29.3324 
145.623 164.636 154.796 136.459 148.652 165.131 157.109 161.545 86.0105 95.5152 150.249 206.169 53.4279 113.938 207.839 -25.2863 59.1822 196.577 -33.469 60.9584 185.273 62.3866 48.3541 189.71 65.691 71.4603 233.453 57.7091 8.65935 90.8545 29.4185 
145.623 164.941 154.71 137.065 148.613 165.274 157.202 161.647 86.0645 95.5403 149.975 205.899 53.438 114.063 207.929 -25.1313 59.2503 196.877 -33.433 61.0645 185.744 62.9501 48.4016 190.115 65.8039 71.5365 233.666 57.7875 8.80902 91.4745 29.4482 
145.623 165.163 154.7 137.742 148.544 165.43 157.318 161.801 86.0066 95.4 149.791 205.858 53.3422 114.142 208.079 -25.0622 59.3605 197.089 -33.4062 61.2802 186.257 63.5323 48.5272 190.506 65.9451 71.5979 233.884 57.815 8.96523 92.1389 29.4263 
145.623 165.367 154.704 138.093 148.543 165.669 157.455 161.943 86.1142 95.3931 149.608 205.793 53.3301 114.119 208.151 -25.0096 59.4057 197.29 -33.3781 61.3161 186.506 63.8984 48.5935 190.763 66.1076 71.644 234.036 57.9 9.10002 92.4631 29.3366 
145.623 165.54 155.038 138.399 148.493 165.986 157.542 162.185 86.0815 95.2327 149.334 205.674 53.2735 114.122 208.302 -24.9771 59.4435 197.513 -33.444 61.4814 186.836 64.3064 48.7496 191.073 66.3237 71.7004 234.189 57.9776 9.2109 92.9682 29.2617 
145.623 165.604 155.052 138.994 148.527 166.201 157.627 162.314 85.8562 94.9532 149.145 205.607 53.2368 114.152 208.528 -24.9362 59.5185 197.594 -33.3545 61.7028 187.272 64.8512 48.9455 191.359 66.5261 71.7451 234.303 58.0463 9.42267 93.5952 29.2614 
145.623 165.677 155.112 139.198 148.526 166.507 157.78 162.427 85.7108 94.8081 148.903 205.545 53.1305 114.215 208.792 -24.9443 59.5671 197.71 -33.3215 61.8333 187.528 65.149 49.094 191.513 66.6427 71.8041 234.405 58.1261 9.57897 93.9264 29.2925 
145.623 165.54 155.267 138.991 148.56 166.825 157.802 162.326 85.7135 94.7882 148.618 205.398 53.0672 114.211 208.998 -24.9643 59.4903 197.82 -33.2902 61.6671 187.607 65.1209 49.0342 191.673 66.6712 71.8296 234.493 58.1764 9.62809 93.839 29.3851 
145.623 165.59 155.522 139.527 148.641 167.22 157.841 162.527 85.7266 94.5785 148.116 205.043 52.9355 114.262 209.377 -24.9938 59.4628 198.392 -33.4909 61.7991 188.108 65.5072 49.1568 192.242 66.8318 71.9296 234.768 58.2246 9.74963 94.5175 29.3894 
145.623 165.667 155.861 139.463 148.627 167.56 157.951 162.747 85.8842 94.6231 147.733 204.729 52.7988 114.286 209.562 -25.0945 59.407 198.865 -33.8024 61.7286 188.098 65.391 49.1142 192.375 66.8106 71.9608 234.881 58.2458 9.69237 94.6162 29.3381 
145.623 165.861 155.91 139.747 148.52 167.644 158.085 162.915 85.9021 94.5127 147.616 204.623 52.6874 114.374 209.787 -25.1289 59.4777 199.244 -33.9532 61.8716 188.265 65.5149 49.1517 192.538 66.7852 72.0265 235.02 58.279 9.69653 94.9106 29.2925 
145.623 166.181 156.04 140.052 148.396 167.87 158.29 163.287 85.855 94.3068 147.445 204.653 52.5308 114.6 210.018 -25.158 59.6286 199.801 -34.3127 62.0337 188.563 65.6841 49.2364 192.829 66.7742 72.1014 235.211 58.2675 9.74791 95.4726 29.2371 
145.623 166.318 156.312 140.184 148.351 167.909 158.426 163.478 85.8976 94.2334 147.377 204.61 52.5238 114.804 210.306 -25.1347 59.742 200.319 -34.5102 62.0853 188.831 65.7816 49.2547 193.151 66.7785 72.2038 235.429 58.299 9.7627 95.7787 29.256 
145.623 166.455 156.6 140.516 148.413 167.927 158.502 163.737 86.0391 94.213 147.197 204.355 52.5911 115.169 210.706 -25.053 59.9812 201.135 -34.8203 62.1731 189.275 65.9659 49.3387 193.705 66.8527 72.3769 235.796 58.3366 9.78516 96.2699 29.2746 
145.623 166.52 156.868 140.609 148.459 167.906 158.523 163.853 86.1917 94.2828 147.274 204.311 52.6838 115.579 211.051 -24.9446 60.2779 201.716 -34.9998 62.2906 189.531 66.0465 49.4803 194.044 66.9655 72.5817 236.064 58.401 9.74166 96.4713 29.323 
145.623 166.39 157.182 140.572 148.525 167.91 158.576 163.898 86.3205 94.357 147.509 204.45 52.7076 115.956 211.494 -24.9308 60.5291 202.193 -35.1571 62.4006 189.68 66.0144 49.6509 194.276 67.0348 72.8079 236.247 58.4365 9.69071 96.5499 29.4277 
145.623 166.31 157.412 140.401 148.693 167.786 158.539 163.872 86.4888 94.5773 147.904 204.739 52.7501 116.455 211.917 -24.8828 60.871 202.641 -35.2716 62.5985 189.68 65.8435 49.9507 194.349 67.0901 73.1053 236.411 58.4957 9.6133 96.4093 29.5467 
145.623 166.353 157.4 140.367 148.832 167.662 158.559 163.764 86.4423 94.6429 148.502 205.3 52.734 116.894 212.346 -24.8261 61.2095 202.882 -35.1947 62.981 189.714 65.8174 50.3286 194.298 67.1777 73.4072 236.482 58.6087 9.55205 96.3442 29.6619 
145.623 166.202 157.232 140.471 149.206 167.732 158.492 163.774 86.3048 94.7158 149.052 205.778 52.8614 117.478 212.892 -24.6762 61.8359 203.36 -35.1762 63.5708 189.859 65.7707 50.905 194.346 67.3329 73.8045 236.623 58.7497 9.43184 96.4247 29.6487 
145.623 166.277 157.222 140.597 149.518 167.965 158.543 163.759 86.1942 94.7266 149.206 205.62 52.9109 118.137 213.415 -24.5701 62.5627 204.009 -35.2974 64.0523 190.088 65.7311 51.4285 194.562 67.46 74.2387 236.809 58.8977 9.37336 96.5791 29.5627 
145.623 166.391 157.205 140.452 149.706 168.239 158.728 163.683 86.1352 94.8404 149.633 205.709 53.1649 118.825 213.886 -24.4368 63.2963 204.283 -35.2596 64.5579 190.026 65.6667 51.9784 194.418 67.5543 74.6484 236.845 59.1038 9.33968 96.4696 29.5472 
145.623 166.447 157.409 140.453 149.678 168.479 158.794 163.668 85.8773 94.5964 150.038 205.59 53.4165 119.464 214.145 -24.3124 63.8619 204.436 -35.2637 65.0264 190.114 65.819 52.4343 194.431 67.687 75.0775 236.802 59.2671 9.35271 96.7196 29.6105 
145.623 166.673 157.495 140.807 149.832 168.434 158.774 163.656 85.5803 94.2331 150.488 205.323 53.8233 120.113 214.333 -24.0192 64.4276 204.78 -35.1589 65.4474 190.488 66.2317 52.8628 194.808 68.0055 75.4903 236.805 59.4779 9.41508 97.2971 29.7038 
145.623 167.111 157.795 141.436 149.806 168.184 158.843 163.685 85.3681 93.8152 151.081 204.935 54.2137 120.624 214.136 -23.7508 65.0268 204.896 -35.0317 65.9262 191.114 66.9497 53.3172 195.467 68.5001 75.9676 236.887 59.6245 9.49312 98.0487 29.6071 
145.623 167.517 158.186 141.26 150.071 167.969 158.729 163.685 85.3121 93.8802 151.136 203.939 54.6288 121.225 213.932 -23.3259 65.5246 205.066 -34.817 66.2302 191.486 67.218 53.7518 195.962 69.0375 76.4999 237.028 59.84 9.43294 98.1258 29.6621 
145.623 167.867 158.638 140.669 150.268 167.846 158.823 163.572 85.1018 93.8885 151.537 203.578 54.9295 121.597 213.601 -23.0869 65.7924 204.742 -34.4647 66.3929 191.671 67.3036 54.0671 196.207 69.5133 76.9736 237.038 60.032 9.36971 97.7775 29.7421 
145.623 168.17 158.894 139.548 150.341 167.848 158.95 163.529 84.7657 94.0501 152.245 203.631 55.4102 122.047 213.281 -22.7656 66.2737 204.176 -33.9767 66.8354 191.741 67.2541 54.6526 196.196 70.0517 77.5364 237.097 60.295 9.26646 97.0959 29.7102 
145.623 168.232 158.987 138.133 150.561 167.81 158.983 163.53 84.488 94.4276 152.915 203.552 55.9683 122.762 213.134 -22.395 67.1777 204.014 -33.6996 67.2947 191.631 66.8364 55.3215 195.978 70.3584 78.157 237.178 60.5807 9.2267 96.1994 29.5135 
145.623 168.552 159.31 137.191 150.63 168.036 159.226 163.904 84.2423 94.341 153.116 202.863 56.3297 123.609 212.941 -22.1542 68.1069 203.929 -33.7843 67.907 191.577 66.6461 55.9875 195.946 70.6335 78.7302 237.142 60.7284 9.17987 95.9632 29.3727 
145.623 168.65 159.825 136.88 150.711 168.207 159.424 164.437 84.0525 94.2428 153.679 202.772 56.7337 124.153 212.581 -21.9524 68.7989 203.816 -33.8197 68.4283 191.504 66.6918 56.5502 195.873 70.9117 79.229 237.001 60.8508 9.18911 96.0401 29.1737 
145.623 168.733 160.099 136.606 150.794 168.149 159.393 164.581 83.9726 94.1675 154.431 202.777 57.1249 124.544 212.133 -21.8794 69.3107 203.441 -33.8239 68.9566 191.217 66.7335 57.0882 195.597 71.1674 79.6629 236.77 60.9242 9.16972 95.9942 29.0038 
146.369 168.731 160.445 136.618 150.889 168.284 159.459 164.924 83.8516 93.9844 155.33 203.557 57.0658 124.954 211.982 -21.7587 69.8234 203.55 -33.8009 69.553 191.434 66.9506 57.6502 195.883 71.5059 80.2204 236.881 61.0415 9.12889 96.2134 28.8368 
146.689 168.8 160.853 136.853 150.745 168.357 159.58 165.069 83.7495 93.6784 155.845 203.401 57.4487 125.366 211.893 -21.5816 70.3928 203.849 -33.6946 69.9222 192.104 67.2538 57.9244 196.731 71.7019 80.8073 237.223 61.1469 9.05159 96.4686 28.6753 
149.894 168.323 161.497 135.515 150.759 169.007 160.099 165.616 83.0617 93.4695 157.846 204.17 57.9717 126.979 212.672 -21.1817 72.2628 204.306 -33.4264 71.2772 192.379 67.0795 59.4127 196.708 72.0424 82.2647 237.733 61.7345 9.15088 95.7811 28.3308 
151.32 168.645 161.666 136.047 150.55 169.272 160.438 166.065 83.0356 93.1458 158.545 204.846 58.1241 127.816 213.249 -20.9642 73.2542 204.923 -33.5674 72.3428 192.834 67.4697 60.1473 197.064 72.1623 82.8125 238.152 61.9439 8.85863 96.2728 28.1576 
151.967 169.003 161.835 135.652 150.451 169.446 160.747 166.401 82.985 93.1787 159.385 205.102 58.3521 128.709 213.329 -20.8738 74.1214 205.023 -33.6909 72.999 192.864 67.5389 60.821 196.991 72.2703 83.4616 238.162 62.022 8.85675 96.3849 28.169 
153.586 169.158 162.049 135.111 150.429 169.601 160.86 166.382 82.7512 93.1009 160.52 205.502 58.4608 129.428 213.379 -20.7855 74.7029 204.902 -33.5444 73.4223 192.587 67.4825 61.3098 196.604 72.3564 84.0319 238.06 62.2875 8.89256 96.0108 28.2271 
154.489 168.924 162.325 133.896 150.182 169.553 160.68 166.38 82.6253 93.501 161.268 205.426 58.7093 129.859 213.194 -20.684 75.1277 204.735 -33.391 73.8439 192.259 67.0931 61.8135 196.094 72.3673 84.6553 238.046 62.4927 8.84734 95.197 28.1794 
155.854 168.567 162.899 132.57 150.35 169.703 160.671 166.477 82.3712 93.5871 162.471 206.099 58.8132 130.255 213.285 -20.5975 75.6189 204.654 -33.0861 74.4649 192.121 66.6142 62.5374 195.901 72.6238 85.3685 238.282 62.836 8.87722 94.0138 27.9818 
156.889 168.639 162.933 132.093 150.58 169.919 160.715 166.433 82.3995 93.2339 163.459 206.586 59.0293 131.151 213.672 -20.3018 76.6862 205.001 -32.8357 75.4511 192.299 66.2114 63.431 196.41 72.887 86.2202 238.763 63.1827 8.90641 92.9913 27.7771 
157.999 168.718 163.01 131.656 150.808 170.048 160.757 166.481 82.6276 93.1278 164.74 207.51 59.2681 132.097 214.2 -20.0841 77.919 205.392 -32.7359 76.5493 192.196 65.7109 64.4651 196.559 73.1198 87.0207 239.15 63.4697 9.05725 91.9995 27.5029 
158.342 168.79 163.186 131.277 151.154 169.994 160.815 166.682 82.9091 93.3524 165.938 208.562 59.5707 132.994 214.649 -19.7954 78.9238 205.927 -32.6096 77.3998 191.983 65.3223 65.4779 196.534 73.5057 87.8096 239.511 63.8656 9.47889 91.0961 27.3385 
158.417 168.743 163.274 130.256 151.276 169.943 160.725 166.556 82.9551 93.7784 166.701 208.818 59.7124 133.898 215.007 -19.6644 79.8668 206.305 -32.5278 77.8972 191.827 64.5915 66.2493 196.35 73.4525 88.597 239.745 64.0867 9.93848 89.9716 27.2819 
158.162 168.597 163.406 129.496 151.496 169.962 160.691 166.465 83.1651 93.9792 167.055 208.615 59.8978 134.85 215.356 -19.3961 80.7849 206.982 -32.4275 78.3291 192.002 64.182 66.885 196.744 73.541 89.4011 240.112 64.3695 10.3964 89.2749 27.2775 
157.731 168.157 163.55 127.646 151.445 170.159 160.452 166.341 82.9184 94.2747 167.565 208.695 60.2149 135.769 215.694 -19.0315 81.8976 207.4 -32.0595 78.7137 192.26 63.4394 67.6717 196.937 73.5538 90.2974 240.458 64.6868 11.1196 88.0501 27.1465 
157.702 168.006 163.382 127.897 151.509 170.233 160.43 166.172 82.8346 94.1058 168.498 209.147 60.5741 136.895 216.417 -18.6057 83.2245 207.983 -31.6274 79.8327 192.9 63.6643 68.7304 197.68 73.9275 91.2717 240.985 65.0382 11.2604 87.9151 27.0555 
157.585 168.513 163.222 128.394 151.402 170.13 160.41 165.855 82.4769 93.7336 169.312 209.324 60.6463 137.775 216.81 -18.2772 84.2613 208.102 -31.2087 81.1422 193.55 64.4166 69.8297 198.225 74.4887 92.0925 241.295 65.3235 10.9941 88.3582 26.9831 
156.546 169.147 162.973 128.12 151.609 169.833 160.498 165.7 82.0373 93.5774 170.165 209.44 60.9579 138.814 217.342 -17.9352 85.313 208.48 -30.8543 82.1206 194.163 64.6787 70.8384 198.744 74.9757 92.9429 241.563 65.5888 11.1729 88.4662 27.055 
155.915 169.849 163.035 126.8 151.737 170.014 160.794 165.637 82.0774 93.8307 170.811 209.566 61.3976 139.734 217.598 -17.6153 86.2626 208.694 -30.4313 82.5142 194.443 64.3419 71.6055 199.199 75.3499 93.8564 241.939 65.9488 11.9516 87.4618 27.0479 
156.216 171.368 162.753 125.939 151.668 170.323 161.462 165.368 82.4056 94.2952 172.55 209.794 62.2338 142.003 217.982 -16.8764 88.2987 208.525 -29.4454 83.9143 194.287 64.3263 73.3782 199.182 75.8967 95.7342 242.172 66.6925 12.6297 86.1183 27.3443 
156.755 172.808 162.571 124.201 151.746 170.399 161.886 165.465 81.6245 94.6397 173.076 209.559 62.4557 142.976 218.064 -16.6243 88.8462 208.378 -29.1188 84.0233 194.43 64.0448 74.1044 198.859 76.0599 96.3978 242.048 66.9141 13.2902 85.5739 27.7471 
157.107 173.587 162.673 123.255 151.994 170.508 162.283 165.545 81.7058 94.916 173.46 208.908 62.9997 143.891 218.175 -16.208 89.6667 208.717 -28.7091 84.2671 194.677 63.7951 74.7386 199.323 76.5198 97.3144 242.272 67.3538 14.1485 84.771 27.8197 
157.443 174.48 162.72 125.261 152.25 170.922 162.741 165.545 82.3334 95.0759 173.645 208.293 63.5274 144.91 218.412 -15.7576 90.7493 209.216 -28.3126 85.0755 195.162 64.6548 75.3771 200.256 76.8822 98.32 242.78 67.7567 13.8138 85.2035 27.7847 
158.684 174.63 163.002 124.637 150.944 170.898 162.574 165.308 80.4155 95.3557 174.834 208.54 64.0798 145.697 218.176 -15.1977 91.8476 208.819 -27.4749 85.2041 196.035 64.6941 75.8953 200.083 76.8427 99.2214 242.873 68.2702 13.7814 84.4605 27.6057 
159.718 174.782 162.755 122.583 151.001 170.856 162.615 165.347 79.874 95.5569 176.178 208.894 64.3745 146.652 218.322 -14.8561 93.0007 209.069 -27.1092 85.6794 196.475 63.8417 76.779 200.342 77.0984 100.148 243.062 68.5216 14.8361 83.1324 27.4857 
160.672 174.532 162.635 121.731 150.856 170.883 162.526 165.371 79.9402 95.9004 177.547 209.22 64.6192 147.349 218.076 -14.5409 93.7095 208.763 -26.5685 86.1726 196.094 63.4495 77.533 199.831 77.0868 101 242.916 68.783 15.2088 82.0764 27.5122 
160.744 173.989 162.322 120.942 150.868 170.799 162.398 165.534 80.1792 96.0264 178.348 208.946 64.983 148.125 217.94 -14.2699 94.4011 208.674 -26.3076 86.7726 195.649 63.2318 78.2702 199.406 77.0707 101.765 242.667 68.9839 15.456 81.6193 27.6121 
160.592 173.433 162.229 119.515 150.953 170.8 162.36 165.842 79.8123 96.2339 178.932 208.629 65.7748 149.215 217.914 -13.6581 95.6259 209.131 -25.9634 87.2921 196.079 62.738 79.0383 199.685 77.1979 102.722 242.893 69.4188 16.1312 80.7522 27.4915 
160.729 173.031 162.433 118.372 151.166 171.009 162.422 166.413 79.1589 96.1917 179.91 209.021 66.2235 150.473 218.064 -13.1908 97.0926 209.569 -25.8556 88.355 196.58 62.4429 80.2306 199.912 77.4618 103.706 243.116 69.7714 16.6588 80.2684 27.2879 
160.833 172.468 162.482 118.896 151.263 171.067 162.464 166.678 79.5754 96.2071 181.107 209.462 66.4714 151.393 217.802 -12.9164 97.9823 209.32 -25.7124 89.379 196.138 63.0266 81.1822 199.598 77.7639 104.482 242.917 69.9938 16.3921 80.645 27.2878 
161.421 172.01 162.355 118.092 151.15 171.344 162.455 166.89 79.359 96.0993 181.68 209.051 66.5966 152.336 217.482 -12.5729 98.85 209.136 -25.566 90.1268 195.915 63.0489 81.9524 199.224 77.8891 105.188 242.596 70.2197 16.4802 80.5397 27.3443 
161.959 171.709 162.495 119.245 151.19 171.462 162.693 167.258 79.6206 95.9598 182.586 209.12 66.808 153.162 217.241 -12.284 99.7527 208.984 -25.4488 91.2265 195.733 64.1203 82.8599 199.168 78.3524 105.927 242.463 70.4671 15.9084 81.5526 27.249 
162.272 171.519 162.804 119.55 150.929 171.602 162.839 167.633 78.5465 96.0302 183.233 208.91 67.2244 154.144 216.891 -11.8651 100.995 208.948 -25.3127 91.9912 196.072 64.3066 83.6692 198.994 78.4788 106.685 242.339 70.793 15.8306 81.666 27.0056 
162.747 171.363 163.139 118.554 150.616 171.78 162.874 167.796 77.3754 96.072 183.646 208.449 67.6452 155.436 216.683 -11.3455 102.632 209.238 -25.2238 92.7337 196.536 63.7259 84.5466 198.897 78.3199 107.521 242.326 71.1436 16.2312 80.9491 26.7037 
162.583 171.328 163.013 122.87 150.386 171.827 163.125 167.727 77.6708 95.3209 184.343 208.032 67.8217 156.647 216.747 -11.1529 103.873 209.568 -25.3787 94.0477 196.636 65.7673 85.2261 199.364 78.4736 108.293 242.133 71.1952 14.6192 83.7928 26.7256 
163.477 171.232 163.209 123.638 150.629 172.346 163.49 168.03 77.74 94.8566 183.959 206.31 67.8854 157.729 216.532 -10.8699 104.884 209.794 -25.4267 94.7683 196.924 66.6625 85.9393 199.99 79.067 109.111 242.076 71.357 14.624 84.9595 26.7755 
