168.59 157.713 148.284 145.076 147.979 177.943 150.643 144.895 81.2805 83.0667 -6.49863 137.184 4.26475 -30.4069 140.45 -66.576 -63.0749 131.904 -73.8939 -82.3342 148.207 22.0729 -93.8338 153.028 16.973 -74.9898 182.577 5.44884 14.358 95.0734 12.1185 
168.793 157.703 148.618 144.963 147.827 178.362 151.08 145.182 81.2466 83.0073 -6.38818 137.011 4.41124 -29.6976 140.237 -66.4502 -62.5269 131.308 -73.615 -81.9861 148.17 22.3269 -93.503 152.947 17.1949 -74.5684 182.373 5.5263 14.2895 95.1961 12.3983 
169.293 157.512 148.637 144.652 147.774 178.941 151.271 145.333 81.2385 82.9457 -6.1654 137.031 4.57578 -28.7376 140.308 -66.264 -61.7936 130.89 -73.3821 -81.3034 147.912 22.4833 -92.9405 152.7 17.4669 -74.1028 182.208 5.67001 14.0895 95.1376 12.7126 
169.938 157.27 148.315 144.288 147.624 179.613 151.455 145.17 81.3484 82.9013 -5.88505 137.108 4.64929 -27.6287 140.579 -66.22 -61.0586 130.397 -73.0487 -80.5577 147.448 22.5676 -92.3301 152.305 17.6594 -73.6383 182 5.78734 13.8853 94.8271 13.268 
169.885 156.726 147.204 142.858 147.584 179.297 151.367 144.72 80.7658 83.0209 -5.15736 137.082 5.30317 -26.4833 140.718 -65.9629 -60.7084 130.039 -72.6865 -79.9139 146.792 21.8932 -91.6187 151.841 17.8121 -73.0997 181.742 5.86513 13.6776 94.0474 14.0579 
169.442 156.194 145.867 142.041 147.548 178.688 151.144 144.123 80.3428 83.2996 -3.84482 137.721 5.84813 -25.0714 141.639 -65.877 -60.3069 130.606 -72.5607 -78.8288 146.446 21.1995 -90.462 151.612 17.7208 -72.1896 181.976 6.0237 13.6381 93.3239 14.9715 
168.773 156.048 144.883 141.948 147.543 177.981 150.767 143.587 80.1926 83.5377 -3.10776 138.119 6.20724 -24.7816 142.022 -65.81 -60.2887 131.033 -72.4502 -78.4592 146.274 20.8376 -89.9923 151.436 17.5166 -71.8925 182.16 6.0905 13.7687 92.8758 15.1841 
168.926 156.483 144.66 142.259 147.443 178.147 150.866 143.537 80.6955 83.4107 -2.75966 138.156 5.79868 -24.5801 142.535 -66.2865 -59.7739 131.841 -72.9218 -78.2458 146.067 20.6286 -89.8354 151.575 17.1378 -71.4695 182.388 6.14141 13.7317 92.5943 14.8841 
169.283 157.034 144.812 142.563 147.307 178.247 151.035 143.556 81.1875 83.421 -2.20808 138.074 5.44839 -24.2988 142.6 -66.6997 -58.9503 132.199 -73.3407 -77.734 145.743 20.5257 -89.4142 151.432 16.8608 -70.9333 182.407 6.12878 13.664 92.3821 14.3505 
169.716 157.181 144.821 142.683 147.273 178.234 150.785 143.241 81.4815 83.3845 -1.43772 138.159 5.16973 -23.9808 142.585 -66.8148 -58.0045 132.534 -73.4934 -77.0059 145.389 20.2644 -88.8316 151.262 16.6454 -70.3526 182.463 6.18606 13.5143 91.7698 13.7077 
170.129 156.978 144.61 142.559 147.319 178.329 150.087 142.654 81.539 83.2983 -0.66861 138.245 5.13077 -23.6764 142.267 -66.4323 -57.0304 132.578 -73.1869 -76.2282 145.031 19.9781 -88.1865 151.072 16.5584 -69.763 182.466 6.3461 13.3548 90.8598 13.0364 
170.56 156.435 144.134 141.973 147.375 178.503 149.313 141.728 81.6286 83.3339 0.0704336 138.243 5.35349 -23.1218 141.727 -65.7918 -55.9641 132.069 -72.3761 -75.4422 144.45 19.6511 -87.5448 150.765 16.6522 -69.1243 182.357 6.54802 13.0709 89.482 12.6513 
170.41 156.131 143.367 140.296 147.46 177.975 149.3 141.744 81.7598 83.5543 1.09211 138.732 6.5177 -22.0253 141.848 -65.1311 -55.403 132.115 -72.0896 -74.4408 143.032 18.6772 -86.6914 150.176 16.997 -68.4785 182.338 6.94697 12.7153 87.7911 12.9893 
170.252 155.844 142.633 139.315 147.698 177.595 149.54 141.708 81.928 83.7287 1.98521 139.046 7.43548 -20.7575 142.164 -64.784 -54.8777 132.055 -71.9127 -73.396 141.941 18.1492 -85.8644 149.584 17.3233 -67.8204 182.252 7.30002 12.4579 86.7688 13.6213 
170.183 155.8 142.078 139.016 148.101 177.31 149.846 141.437 82.0929 83.8354 2.82956 139.235 7.93861 -19.5058 142.399 -64.6781 -54.2688 131.831 -71.7278 -72.4735 141.243 17.9138 -85.0912 149.191 17.5835 -67.1658 182.151 7.48669 12.3284 86.1193 14.2357 
170.009 155.976 141.653 138.93 148.424 177.041 150.07 141.096 82.0769 83.8637 3.51453 139.386 8.27004 -18.5846 142.467 -64.532 -53.8631 131.657 -71.4251 -71.866 141.01 17.8697 -84.5128 149.114 17.7947 -66.5774 182.177 7.63234 12.3039 85.7393 14.7134 
169.738 156.331 141.383 138.783 148.59 176.655 150.242 140.808 82.0419 83.9983 4.24803 139.714 8.50552 -17.9536 142.651 -64.3882 -53.6008 131.774 -71.1513 -71.3735 140.986 17.824 -83.9926 149.148 17.9331 -66.0559 182.352 7.83675 12.3109 85.3712 15.0195 
169.543 156.46 141.183 138.03 148.645 176.322 150.028 140.295 82.282 84.3502 5.09853 140.202 8.70206 -17.467 142.799 -64.075 -53.134 132.028 -70.7849 -70.6403 140.487 17.2214 -83.3332 148.917 17.9275 -65.5151 182.551 8.1134 12.2695 84.0426 14.9815 
169.271 156.523 140.932 136.801 148.356 175.938 149.806 139.937 83.0286 84.9645 6.17863 140.799 8.88093 -16.9014 142.854 -63.8113 -52.577 132.166 -70.5526 -69.5693 139.183 16.1794 -82.3807 148.127 17.8278 -64.8943 182.553 8.41335 12.3285 82.0288 14.8844 
168.809 156.094 140.429 135.639 148.105 175.508 149.176 139.356 83.8403 85.6678 7.16905 141.134 9.19777 -16.4765 142.632 -63.2794 -52.1484 132.078 -70.0643 -68.5917 137.664 15.068 -81.5238 147.168 17.8146 -64.2593 182.379 8.77785 12.4492 79.8151 14.8123 
168.207 155.62 139.861 135.067 148.009 175.127 148.789 138.833 84.6989 86.3376 8.09336 141.322 9.61226 -16.0169 142.226 -62.7547 -51.7698 131.607 -69.3684 -67.7442 136.318 14.632 -80.7458 146.211 18.0147 -63.6093 182.061 9.15528 12.5188 78.3136 14.9092 
167.593 154.991 139.139 135.021 147.99 174.793 148.613 137.969 85.0912 86.801 8.88797 141.036 9.95509 -15.5147 141.736 -62.4443 -51.2682 130.729 -68.36 -67.1319 135.411 14.9138 -80.0403 145.339 18.361 -62.9058 181.543 9.47926 12.5044 77.6066 15.1445 
167.443 154.215 138.54 135.254 148.07 174.824 148.327 136.845 84.9509 86.8162 9.47983 140.594 10.349 -14.7133 141.507 -62.158 -50.4142 129.915 -67.2626 -66.546 135.093 15.4771 -79.4386 144.897 18.7662 -62.1922 181.104 9.73565 12.4087 77.4014 15.4835 
167.699 153.688 138.234 135.933 148.074 175.11 148.255 135.975 84.4153 86.5058 9.8209 139.601 10.6153 -13.71 141.238 -62.059 -49.5033 129.115 -66.474 -66.1182 135.217 16.4253 -78.9809 144.695 19.1613 -61.439 180.556 9.90344 12.2044 78.0865 15.9528 
167.954 153.302 138.226 137.126 148.062 175.387 148.075 135.41 83.5039 85.9703 10.0718 138.658 10.6819 -13.0471 140.909 -61.9907 -48.8965 128.598 -66.0043 -66.0889 135.995 17.6493 -78.7371 144.901 19.4452 -60.7765 180.169 9.97172 12.1058 79.5705 16.2435 
167.999 153.153 138.29 137.627 148.086 175.504 147.978 135.405 82.9209 85.6607 10.4388 138.123 10.7828 -12.5657 140.748 -61.9171 -48.5807 128.573 -65.9897 -65.9312 136.647 18.3203 -78.4826 145.237 19.6678 -60.1767 180.026 10.0549 12.0445 80.7102 16.3914 
168.084 153.427 138.84 137.53 148.175 175.593 148.121 136.067 82.3755 85.3828 10.8862 138.142 10.87 -12.1712 140.969 -61.8936 -48.312 129.191 -66.4277 -65.769 137.409 18.438 -78.2811 145.926 19.8481 -59.6562 180.295 10.2032 12.0289 81.4421 16.2958 
168.224 154.02 139.667 136.603 148.282 175.61 148.469 136.987 81.8783 85.1698 11.4997 138.512 10.9741 -11.7401 141.193 -61.8363 -47.9416 129.88 -66.9193 -65.5812 138.033 18.1527 -78.0149 146.647 20.0462 -59.1713 180.713 10.4069 12.1541 81.5379 16.0622 
168.492 154.606 140.396 135.401 148.268 175.629 148.876 137.831 81.7715 85.2466 12.3762 139.09 11.1986 -11.1531 141.167 -61.5933 -47.283 130.063 -67.0322 -65.1138 138.088 17.9094 -77.4251 146.857 20.3878 -58.633 180.999 10.7203 12.4159 80.9913 15.7765 
168.796 154.954 141.032 134.704 148.216 175.737 148.99 138.382 81.8795 85.3743 13.3843 139.693 11.6381 -10.3469 141.078 -61.0807 -46.3142 129.994 -66.8253 -64.1926 137.921 17.9458 -76.5588 146.719 20.7006 -58.0145 181.129 11.0861 12.4838 80.4852 15.4978 
169.257 154.943 141.441 134.716 148.146 176.019 148.685 138.307 82.3027 85.5521 14.2397 139.895 12.2322 -9.39313 140.76 -60.25 -45.0778 129.35 -66.0228 -63.0124 137.383 18.3032 -75.524 146.182 20.988 -57.3331 181.014 11.4947 12.4201 79.7538 15.3095 
169.838 154.486 141.229 134.773 148.118 176.447 148.063 137.423 83.1745 85.7459 14.9381 139.528 13.0529 -8.1719 140.125 -59.1467 -43.5469 128.057 -64.5361 -61.5815 136.106 18.6785 -74.3893 145.169 21.353 -56.5221 180.512 11.9812 12.2957 78.3614 15.3304 
170.439 153.851 140.873 135.086 148.265 176.83 147.476 136.29 83.9524 85.9788 15.5588 138.891 13.774 -6.86274 139.551 -58.2303 -42.0407 126.712 -63.0015 -60.1869 134.802 19.1634 -73.2522 144.06 21.8006 -55.6711 179.852 12.4482 12.1656 77.1526 15.5561 
170.74 153.409 140.582 135.583 148.347 177.022 147.05 135.669 84.0273 86.06 16.1791 138.076 14.1534 -5.90061 138.847 -57.6416 -41.0076 125.717 -62.144 -59.1394 134.072 19.8184 -72.2793 143.156 22.1654 -54.8278 179.09 12.7685 12.0047 77.1277 15.6717 
170.907 153.394 140.375 135.426 148.32 176.904 146.997 135.735 84.1421 86.2777 16.9835 137.53 14.1585 -5.29911 138.648 -57.5929 -40.546 125.728 -62.301 -58.3956 133.361 19.7515 -71.512 142.456 22.2855 -54.0762 178.548 13.0695 12.0125 77.1118 15.6623 
171.014 153.686 140.252 134.529 148.16 176.608 147.332 136.361 84.3302 86.6429 17.9264 137.264 14.1103 -4.74955 138.933 -57.8396 -40.3846 126.505 -63.1169 -57.8842 132.558 18.9933 -70.895 141.899 22.3199 -53.3856 178.276 13.4576 12.2429 76.7309 15.6612 
171.196 153.982 140.471 133.669 147.96 176.399 147.714 136.974 84.4773 87.0372 18.8417 137.016 14.3275 -4.17753 138.998 -57.8606 -40.0247 127.05 -63.63 -57.5392 131.666 18.0476 -70.4 141.374 22.4711 -52.698 178.085 13.9625 12.6669 75.7218 15.5564 
171.527 153.964 140.552 132.924 147.839 176.25 147.701 137.093 84.427 87.3454 19.696 136.926 14.8699 -3.4767 138.958 -57.3554 -39.3583 127.35 -63.3922 -57.1405 131.019 17.3539 -69.8482 140.983 22.8217 -52.0198 178.012 14.6434 13.1729 74.4035 15.4214 
173.038 154.417 140.482 130.474 147.382 176.807 148.156 137.792 85.6446 88.2696 19.6005 136.993 15.9484 -2.09272 138.566 -55.7625 -38.506 126.922 -62.4849 -56.3445 130.087 17.3584 -68.764 140.592 23.9209 -51.3108 178.297 15.5342 14.1656 72.7867 15.6403 
177.626 155.607 141.114 129.863 147.219 176.687 148.959 138.899 87.6912 89.2561 19.2332 136.964 16.831 -0.379937 137.928 -54.3177 -37.2202 125.782 -61.5404 -54.9997 128.888 18.4187 -67.5241 139.862 24.999 -50.5288 178.344 16.321 14.345 72.0755 15.9167 
178.002 156.777 141.97 130.805 147.098 176.052 149.604 139.887 89.0373 89.9956 19.0248 136.534 17.678 1.19583 136.823 -53.029 -35.9864 124.235 -60.6569 -53.7964 127.981 20.2137 -66.396 138.997 25.9414 -49.6732 177.997 16.975 13.9402 72.4867 16.1642 
177.721 157.736 141.822 130.725 146.692 175.295 150.157 140.437 89.5574 90.6454 19.024 135.419 18.3375 2.48139 135.52 -52.1166 -35.1586 122.852 -60.0618 -52.9439 127.213 21.7293 -65.3722 137.854 26.6007 -48.7746 177.221 17.447 13.542 73.3572 16.463 
177.605 158.375 141.115 129.811 146.33 174.977 150.308 140.8 89.48 91.1919 19.326 134.268 18.5391 3.29964 134.525 -51.5906 -34.7372 122.354 -60.056 -52.3641 126.683 22.3308 -64.554 136.866 26.8726 -47.9185 176.431 17.7909 13.3464 74.1298 16.6076 
177.601 158.862 140.57 128.561 145.97 174.809 150.174 141.33 89.168 91.629 19.8941 133.522 18.6583 4.01841 134.154 -51.2524 -34.2404 122.741 -60.5684 -51.6936 126.284 22.1191 -63.7195 136.127 26.9538 -47.1179 175.926 18.1659 13.3759 74.4672 16.5583 
177.788 159.186 140.637 127.319 145.662 174.676 149.952 141.736 88.912 91.9882 20.4809 132.907 18.9517 4.85375 133.892 -50.8324 -33.4033 123.075 -60.8869 -51.1202 125.755 21.3509 -63.0012 135.528 26.9538 -46.3503 175.602 18.6067 13.6781 73.8107 16.4086 
178.228 159.127 140.916 126.321 145.622 174.458 149.473 141.757 89.2634 92.21 21.0066 132.348 19.4186 5.89114 133.578 -50.0831 -32.2313 123.088 -60.6522 -50.3656 124.971 20.4905 -62.2627 135.096 27.0243 -45.5908 175.367 19.0734 14.1715 72.4052 16.262 
178.834 159.013 141.565 126.048 145.83 174.086 149.009 141.597 89.921 92.1433 21.3636 131.877 20.1686 6.97091 133.069 -49.0956 -30.8469 122.597 -59.8336 -49.4274 124.373 20.219 -61.6265 135 27.2996 -44.8617 175.263 19.5366 14.4527 71.0854 16.0469 
179.265 158.705 141.838 126.422 145.883 173.65 148.621 141.616 90.263 92.2699 21.6695 130.478 21.5445 8.14569 131.474 -47.2674 -29.6215 121.388 -58.2736 -48.5727 123.917 21.4199 -60.7404 134.851 28.3496 -43.4477 174.88 20.4113 14.4924 70.8995 15.9796 
179.162 158.425 141.794 126.824 145.917 173.785 148.434 141.608 89.9799 92.2731 21.9212 130.029 22.1687 8.44788 130.582 -46.4033 -29.3555 120.543 -57.4106 -48.4247 124.04 22.7447 -60.4375 134.816 29.1026 -42.9059 174.608 20.7189 14.285 71.7411 16.0299 
178.988 158.347 141.89 127.243 146.028 174.013 148.258 141.959 89.5371 92.2305 22.4047 129.825 22.6211 8.8201 130.253 -45.7502 -29.0714 120.579 -57.1839 -48.3213 124.583 23.8484 -60.1415 135.092 29.6432 -42.3219 174.605 21.0158 14.0593 72.9549 16.0806 
178.908 158.498 142.024 127.551 146.046 174.186 148.062 142.516 89.1265 92.1434 22.8817 129.762 22.9464 9.28404 130.424 -45.3025 -28.7701 121.353 -57.5065 -48.1505 125.211 24.472 -59.8884 135.5 29.9659 -41.8247 174.776 21.3211 13.8795 74.0992 16.1789 
179.035 158.688 142.17 127.237 145.986 174.167 147.755 143.028 88.7607 92.0408 23.2905 129.696 23.2818 9.79526 130.611 -44.8111 -28.3672 122.2 -57.8391 -47.8735 125.661 24.5849 -59.6041 135.875 30.215 -41.3428 174.955 21.6473 13.8838 74.6525 16.2635 
179.536 158.839 142.171 126.119 145.839 173.898 147.13 143.36 88.5107 91.9906 23.7825 129.668 23.6129 10.5239 130.625 -44.1359 -27.5324 122.921 -58.1387 -47.223 125.506 23.7723 -59.042 135.863 30.3107 -40.8323 174.97 21.9477 14.3099 74.0628 16.2336 
179.652 158.966 142.231 124.666 145.676 173.406 146.523 143.563 88.9874 91.9629 24.2595 129.588 23.9998 11.4086 130.433 -43.3847 -26.3967 123.32 -58.2987 -46.2346 124.673 22.4782 -58.3523 135.538 30.3039 -40.3022 174.824 22.2604 15.0135 72.5773 16.1362 
178.689 158.887 142.233 124.058 145.744 172.785 145.673 143.376 89.3629 91.8156 24.711 129.496 24.389 12.3337 130.209 -42.5021 -25.0777 123.631 -58.2249 -45.11 123.964 21.2333 -57.6786 135.288 30.1987 -39.7979 174.667 22.5345 15.6658 71.0328 15.9879 
177.747 158.684 142.419 123.771 145.926 172.141 144.812 143.027 89.5997 91.5148 25.0774 129.33 24.9101 13.1324 129.563 -41.3293 -23.851 123.418 -57.6781 -44.0738 123.394 20.423 -57.0936 135.148 30.2673 -39.3148 174.448 22.8535 16.2815 69.5681 15.8215 
177.012 158.176 142.76 123.919 146.205 171.583 143.918 142.347 89.4522 91.0235 25.4319 129.262 25.4215 13.655 128.989 -40.2068 -22.9257 122.896 -56.6514 -43.4166 123.249 20.3403 -56.6506 135.222 30.3488 -38.86 174.28 23.1838 16.5423 68.6219 15.59 
176.471 157.595 143.061 123.624 146.348 171.144 143.178 141.481 88.8255 90.5325 25.7865 129.118 26.078 14.0549 128.204 -39.0446 -22.1737 121.794 -55.1571 -42.9247 123.278 20.7803 -56.2351 135.209 30.6494 -38.4035 173.983 23.5452 16.5927 67.9497 15.3152 
176.071 157.125 143.35 122.431 146.443 170.818 142.642 140.75 87.5756 90.085 26.1398 128.934 26.7233 14.3229 127.256 -37.958 -21.6503 120.36 -53.5599 -42.6405 123.59 21.6238 -55.8292 135.076 31.1074 -37.9641 173.573 23.8774 16.4248 67.7828 15.0783 
175.927 156.806 143.579 121.488 146.565 170.689 142.213 140.253 86.0559 89.7276 26.6482 128.904 27.2853 14.5165 126.549 -37.0626 -21.2391 119.251 -52.2572 -42.4309 124.106 22.4753 -55.4202 134.979 31.5546 -37.5588 173.223 24.1774 16.2056 67.9924 14.8859 
176.127 156.672 143.912 121.467 146.764 170.801 142.219 140.129 84.5941 89.4199 27.2084 129.07 27.8093 14.606 126.21 -36.5285 -21.0119 118.429 -51.2148 -42.4496 124.737 23.5716 -55.1374 135.028 32.1503 -37.2548 173.005 24.5389 15.9784 68.633 14.7261 
176.425 156.649 144.091 122.386 146.971 170.944 142.423 140.181 83.3489 89.1869 27.6901 129.212 28.264 14.6702 126.045 -36.1843 -20.9221 117.848 -50.4303 -42.6389 125.442 25.0606 -54.9246 135.129 32.8076 -36.9901 172.863 24.9033 15.5636 69.9125 14.669 
176.709 156.791 144.347 123.609 147.202 171.059 142.904 140.512 82.4553 88.9961 28.0697 129.342 28.6497 14.7539 126.011 -36.0571 -20.8549 117.395 -49.8916 -42.847 126.027 26.4447 -54.7912 135.27 33.4894 -36.7737 172.765 25.2486 15.2814 71.1745 14.6518 
176.877 157.405 144.516 125.008 147.375 171.04 143.601 141.191 81.6485 88.8173 28.6482 129.201 29.4048 15.1469 126.069 -35.76 -20.5714 117.11 -49.387 -42.7915 126.427 28.3228 -54.4107 135.174 34.6605 -36.3488 172.459 26.0781 14.9849 72.8472 14.7246 
177.106 158.014 144.516 125.99 147.539 171.123 144.354 141.634 81.4122 88.8279 28.7525 129.131 29.6485 15.3495 126.297 -36.0166 -20.521 117.035 -49.4235 -42.9679 126.671 29.3227 -54.3852 135.089 35.1353 -36.3334 172.336 26.3199 14.75 73.992 14.8482 
177.233 158.477 144.636 126.175 147.683 171.151 144.862 141.928 81.2896 88.8515 29.0184 129.094 30.014 15.6461 126.52 -36.1031 -20.2676 116.999 -49.3485 -42.9491 126.607 29.801 -54.1904 134.941 35.6165 -36.2304 172.166 26.6792 14.8987 74.3405 14.8962 
177.467 158.853 144.833 126.249 147.662 171.328 145.481 142.522 80.7974 88.6105 29.1806 129.035 30.257 15.9633 126.593 -36.2276 -20.1397 116.952 -49.4122 -43.0492 126.868 30.4426 -54.1444 134.924 36.0715 -36.2537 172.037 27.0709 14.8426 74.9846 15.033 
177.62 159.106 145.177 126.534 147.877 171.412 145.961 142.837 80.4631 88.2947 29.271 128.942 30.4324 16.1201 126.67 -36.3584 -20.1704 116.83 -49.3115 -43.2494 127.227 31.3263 -54.1833 134.998 36.4994 -36.3128 171.9 27.4152 14.715 75.8324 15.1716 
177.618 159.351 145.608 127.24 148.19 171.373 146.488 143.085 79.9834 87.8672 29.3009 128.732 30.6812 16.1733 126.401 -36.4066 -20.3211 116.275 -48.9912 -43.5269 127.58 32.5189 -54.2447 134.996 37.0431 -36.3911 171.597 27.7426 14.6058 76.936 15.3184 
177.699 159.524 145.994 127.977 148.554 171.387 146.902 143.147 79.7493 87.5133 29.3141 128.505 30.9056 16.1585 126.061 -36.3697 -20.5276 115.631 -48.5505 -43.8476 127.725 33.5914 -54.3672 134.897 37.5042 -36.5018 171.229 28.0424 14.5799 77.7955 15.4771 
177.762 159.737 146.106 128.562 148.89 171.448 147.327 143.166 79.7326 87.2878 29.365 128.249 31.1277 16.2421 125.764 -36.3191 -20.675 115.214 -48.2987 -44.1222 127.558 34.232 -54.5086 134.696 37.8066 -36.6201 170.833 28.3506 14.6519 78.2404 15.6604 
177.838 159.877 146.203 128.269 149.175 171.551 147.725 143.174 79.9598 87.1936 29.4995 128.031 31.4568 16.3856 125.437 -36.1902 -20.6581 114.597 -47.9009 -44.2549 126.897 34.4697 -54.5716 134.221 38.1132 -36.7356 170.326 28.6897 14.8483 77.9466 15.7991 
177.876 160.024 146.145 127.807 149.456 171.586 148.141 143.128 80.2172 87.1749 29.5228 127.726 31.8882 16.5007 125.041 -35.993 -20.6727 113.843 -47.3869 -44.3593 126.088 34.7244 -54.6433 133.621 38.5206 -36.8706 169.743 29.0543 15.0261 77.5857 15.969 
178.027 160.148 146.03 126.869 149.54 171.674 148.534 143.055 80.6342 87.3127 29.5681 127.48 32.5027 16.6624 124.67 -35.6876 -20.571 112.948 -46.7527 -44.3546 124.94 34.8037 -54.6664 132.732 38.9463 -37.0174 169.092 29.4766 15.2098 76.8219 16.1387 
178.157 160.15 145.975 125.663 149.571 171.691 148.752 142.962 80.9385 87.4997 29.5544 127.217 33.1174 16.7636 124.316 -35.3546 -20.4994 111.997 -46.1032 -44.4704 123.757 34.798 -54.7383 131.739 39.3724 -37.1726 168.384 29.8808 15.4678 76.0284 16.3356 
178.191 160.18 145.865 123.981 149.624 171.603 149.008 142.914 81.2695 87.6784 29.4967 127.021 33.7809 16.7535 123.912 -34.9755 -20.452 111.002 -45.3581 -44.5872 122.649 34.8482 -54.8683 130.81 39.8948 -37.372 167.696 30.2756 15.7068 75.2768 16.477 
178.244 160.198 145.774 123.696 149.785 171.509 149.282 142.855 81.7441 87.8873 29.3192 126.727 34.2612 16.5046 123.426 -34.7683 -20.5882 109.909 -44.5613 -44.7234 121.652 35.2741 -55.11 129.979 40.4673 -37.629 167.029 30.5881 15.7097 74.8654 16.5871 
178.456 160.239 145.763 123.743 150.145 171.562 149.594 142.837 82.273 88.0624 29.1628 126.346 34.5025 16.0936 122.879 -34.7791 -20.897 108.799 -43.8742 -44.9794 120.702 35.683 -55.4506 129.282 41.0379 -37.9234 166.341 30.8016 15.7751 74.5119 16.7122 
178.65 160.558 145.893 125.464 150.596 171.593 150.16 143.039 82.9069 88.0855 28.8671 125.808 34.5174 15.6656 122.373 -35.0146 -21.3357 107.917 -43.5392 -45.2766 120.046 36.517 -55.9465 128.866 41.5606 -38.2642 165.737 30.9246 15.526 74.9044 16.8595 
178.759 161.136 146.316 128.858 151.103 171.562 151.023 143.522 83.0831 87.8212 28.498 125.256 34.3277 15.2873 121.997 -35.4848 -21.8282 107.379 -43.6455 -45.8332 120.057 37.7453 -56.6226 128.877 41.9968 -38.6192 165.306 30.9848 15.0758 76.227 16.9878 
178.765 161.863 146.676 129.698 151.56 171.521 152.066 144.228 83.0188 87.5165 28.103 124.772 34.1673 14.9573 121.708 -36.0128 -22.2827 107.164 -44.0484 -46.3657 120.209 38.3631 -57.2555 129.118 42.5112 -39.004 164.999 31.1024 14.9895 77.1505 17.0036 
178.834 162.493 147.071 129.704 151.977 171.537 152.991 144.9 82.8786 87.2466 27.7307 124.262 34.0696 14.6195 121.252 -36.4121 -22.7518 106.93 -44.428 -46.8888 120.298 38.7222 -57.8387 129.351 43.0286 -39.3523 164.695 31.2191 15.064 77.7917 16.9629 
178.897 162.883 147.339 128.782 152.441 171.606 153.648 145.357 82.5914 87.0663 27.3368 123.729 34.0649 14.341 120.747 -36.6307 -23.1949 106.773 -44.7646 -47.4806 120.241 38.5494 -58.3859 129.572 43.4581 -39.6878 164.417 31.326 15.4878 77.8573 16.9272 
178.828 163.109 147.549 127.735 153.014 171.606 154.171 145.738 82.2879 86.7964 27.0018 123.29 34.1409 14.2811 120.4 -36.7436 -23.4034 106.723 -45.1077 -47.9245 120.063 38.1428 -58.8275 129.799 43.8233 -39.9925 164.166 31.4449 16.0995 77.6389 16.9021 
178.627 163.098 147.513 126.519 153.515 171.565 154.529 145.87 81.8751 86.4994 26.8041 122.967 34.3239 14.4758 120.258 -36.8 -23.3076 106.677 -45.3549 -48.097 119.605 37.4017 -59.0159 129.744 44.0289 -40.2213 163.846 31.5836 16.8981 76.9628 16.917 
178.357 162.99 147.32 125.119 153.887 171.49 154.662 145.738 81.5886 86.1818 26.6872 122.719 34.5456 14.8146 120.169 -36.6955 -22.9922 106.635 -45.4434 -48.067 118.926 36.3355 -59.0638 129.577 44.0345 -40.4098 163.507 31.6828 17.8887 75.7772 16.9169 
178.062 162.904 147.11 123.121 154.13 171.351 154.719 145.5 81.6374 85.9454 26.5974 122.484 34.7092 15.1417 120.076 -36.5845 -22.6611 106.523 -45.4598 -47.8068 118.153 35.1992 -59.1001 129.304 44.0004 -40.5823 163.155 31.7476 18.785 74.3732 16.9187 
177.799 162.695 146.84 121.321 154.182 171.232 154.636 145.161 81.9004 85.7288 26.4823 122.269 34.8725 15.3651 120.051 -36.44 -22.3513 106.572 -45.4753 -47.6091 117.356 33.8949 -59.1804 129.079 43.7843 -40.7476 162.912 31.8065 19.7732 72.7312 16.8529 
177.544 162.871 146.492 120.01 154.074 171.054 154.941 144.84 82.8597 85.476 26.1774 121.84 35.1265 15.5361 119.857 -36.3744 -22.0971 106.447 -45.5814 -47.4224 116.282 33.1406 -59.5106 128.6 43.6109 -41.1659 162.471 31.9415 20.2769 71.5674 16.7564 
177.523 162.905 146.221 119.458 153.715 171.016 154.95 144.574 83.5662 85.369 26.1789 121.734 35.2053 15.6492 119.86 -36.3012 -21.866 106.583 -45.6736 -47.2037 115.807 32.745 -59.5313 128.393 43.2765 -41.2454 162.381 31.9415 20.3265 71.03 16.6392 
