179.316 170.482 153.237 142.298 163.554 173.127 167.104 152.382 78.1074 86.3005 30.4256 106.937 57.8666 20.6789 108.107 -24.9956 -18.0235 90.8074 -34.406 -51.8361 106.412 62.7363 -63.5811 112.623 65.8377 -42.4063 144.233 50.0661 13.1114 93.2818 18.2142 
179.036 170.478 153.314 140.537 163.703 172.999 167.188 152.495 78.3648 86.6596 30.3669 106.728 58.1273 20.6617 108.205 -25.0307 -18.0143 91.0294 -34.5602 -51.7964 105.9 62.3433 -63.7785 112.489 66.156 -42.505 144.17 50.2983 13.3297 92.5836 18.1239 
178.742 170.528 153.506 139.392 163.789 172.871 167.336 152.765 78.9521 87.0016 30.2618 106.499 58.4013 20.6161 108.335 -25.0878 -18.0498 91.3462 -34.8378 -51.7941 105.4 62.2132 -64.0245 112.398 66.466 -42.617 144.139 50.5361 13.4807 92.1832 18.0169 
178.548 170.54 153.535 137.702 163.909 172.788 167.425 152.935 79.3106 87.3535 30.2056 106.275 58.6106 20.5219 108.418 -25.1177 -18.0883 91.6635 -35.0453 -51.7498 104.832 61.8156 -64.2416 112.223 66.7785 -42.7075 144.046 50.7566 13.7986 91.5598 17.8823 
178.363 170.573 153.579 136.934 163.973 172.732 167.497 153.095 79.9858 87.6885 30.2022 106.1 58.7579 20.404 108.423 -25.1677 -18.1633 91.9579 -35.2647 -51.6684 104.292 61.7652 -64.3962 112.058 67.1051 -42.784 143.996 50.9624 13.9756 91.1925 17.7131 
178.174 170.619 153.604 136.552 164.055 172.672 167.584 153.268 80.6663 88.0585 30.2062 105.925 58.9018 20.2576 108.345 -25.1798 -18.2507 92.2002 -35.4325 -51.5607 103.79 61.8667 -64.5064 111.89 67.5219 -42.855 143.933 51.1814 14.1281 90.9612 17.5158 
177.997 170.685 153.676 136.536 164.147 172.615 167.675 153.482 81.3504 88.4267 30.2315 105.75 59.0011 20.1647 108.228 -25.1726 -18.2683 92.4502 -35.6401 -51.3866 103.337 62.0958 -64.548 111.712 67.9536 -42.8951 143.858 51.3931 14.2092 90.9189 17.2809 
177.843 170.767 153.732 136.665 164.235 172.562 167.793 153.741 81.9454 88.7879 30.2025 105.521 59.1193 20.0605 107.965 -25.0601 -18.3098 92.5925 -35.7719 -51.2429 102.934 62.4398 -64.5557 111.528 68.4467 -42.9039 143.755 51.6167 14.2711 91.019 17.0488 
177.681 170.815 153.702 136.518 164.342 172.503 167.861 153.946 82.3344 89.1322 30.1884 105.255 59.1997 20.0409 107.595 -24.8564 -18.2692 92.6064 -35.8728 -50.942 102.45 62.659 -64.4278 111.2 68.9442 -42.8555 143.552 51.823 14.3867 91.0282 16.8258 
177.544 170.827 153.469 136.803 164.445 172.388 167.892 154 82.6458 89.2813 30.122 104.846 59.1845 20.0501 107.03 -24.6292 -18.2177 92.4069 -35.8662 -50.6676 101.942 62.9605 -64.3063 110.822 69.3178 -42.7484 143.219 51.9777 14.3777 91.1604 16.6475 
177.477 170.783 153.037 136.872 164.541 172.243 167.893 153.9 82.6137 89.2918 30.0209 104.323 59.2194 20.0907 106.317 -24.2811 -18.0998 91.9624 -35.602 -50.3755 101.454 63.1541 -64.1505 110.383 69.6257 -42.5599 142.773 52.1429 14.3698 91.1771 16.5168 
177.464 170.673 152.434 136.011 164.722 172.078 167.847 153.672 82.0897 89.2955 29.9097 103.654 59.2903 20.2609 105.601 -23.8396 -17.8927 91.3991 -35.2051 -50.0695 100.944 62.9143 -63.9619 109.864 69.8693 -42.2823 142.209 52.2893 14.5974 90.882 16.4941 
177.487 170.564 151.824 135.259 164.824 171.925 167.828 153.453 81.6142 89.2015 29.8534 102.922 59.5936 20.4691 104.786 -23.2048 -17.6457 90.6141 -34.5571 -49.7842 100.429 62.7957 -63.7598 109.364 70.0443 -41.9249 141.596 52.4549 14.7517 90.5964 16.5567 
177.562 170.428 151.166 134.038 164.946 171.838 167.777 153.211 80.8173 89.1201 30.1029 102.338 60.1855 20.761 104.056 -22.4664 -17.2518 89.7215 -33.7319 -49.4473 99.9362 62.4844 -63.4365 108.817 70.2106 -41.4764 140.928 52.6193 15.0805 90.1506 16.6726 
177.602 170.266 150.673 133.533 165.128 171.819 167.713 153.012 80.2527 89.2159 30.6908 101.965 60.9624 21.1749 103.528 -21.797 -16.8303 89.0023 -33.0126 -49.0829 99.6131 62.4904 -63.0948 108.408 70.5199 -40.9932 140.391 52.8437 15.2621 89.9864 16.8347 
177.554 170.053 150.425 134.343 165.373 171.774 167.534 152.818 80.3313 89.7461 31.5483 101.779 61.5565 21.9047 103.284 -21.3597 -16.214 88.761 -32.7223 -48.5842 99.2872 62.7533 -62.5555 108.187 71.082 -40.4919 140.102 53.0845 15.6115 89.9407 16.9105 
177.396 169.9 150.33 136.274 165.604 171.762 167.37 152.73 80.8077 90.5508 32.5933 101.846 62.1077 22.9118 103.549 -21.0761 -15.3409 89.0786 -32.8145 -47.9875 98.9922 63.2022 -61.8444 108.077 71.8511 -39.9955 140.076 53.424 16.1004 89.9903 16.9004 
177.121 169.831 150.452 136.949 165.812 171.742 167.293 152.963 81.131 91.4775 33.4648 101.816 62.5709 24.0581 104.099 -20.8858 -14.2086 90.0129 -33.374 -47.3435 98.8634 63.3133 -61.2471 108.073 72.7102 -39.5167 140.201 53.8296 16.7804 90.0335 16.6927 
176.966 169.874 150.616 137.212 166.12 171.7 167.391 153.43 81.8846 92.2643 33.9122 101.402 62.8777 24.9104 104.329 -20.7148 -13.3476 90.9768 -33.9984 -46.7647 98.6675 63.7137 -60.9989 108.224 73.6964 -39.0738 140.283 54.2951 17.2782 90.3716 16.4025 
176.914 169.77 150.667 136.453 166.615 171.691 167.376 153.73 81.5832 93.0307 34.1578 100.759 63.0556 25.3786 104.023 -20.4512 -12.6911 91.4908 -34.3214 -46.316 98.5885 63.6301 -60.8857 108.244 74.7928 -38.6407 140.121 54.7285 18.0558 90.4049 16.0267 
176.872 169.562 150.561 133.323 167.23 171.711 167.254 153.821 80.1563 93.7636 34.3166 99.9278 63.1818 25.6072 103.386 -20.1185 -12.2457 91.6281 -34.3587 -46.0432 98.6203 62.6454 -60.9849 108.159 75.8575 -38.1929 139.776 55.1221 19.393 89.6824 15.7112 
176.796 169.558 150.403 132.1 167.646 171.653 167.334 153.933 80.1189 93.8658 34.4176 99.1614 63.4863 25.6278 102.478 -19.6703 -12.2007 91.3536 -34.1335 -45.9172 98.0834 62.5029 -61.214 108.028 76.4488 -37.7676 139.352 55.5056 20.0218 89.3076 15.6106 
176.742 169.708 150.225 131.897 167.495 171.553 167.521 154.002 79.8835 92.9516 34.5522 98.5902 64.0963 25.6048 101.473 -19.047 -12.2837 90.5248 -33.4756 -45.7399 97.862 63.2134 -61.2614 107.768 76.4676 -37.377 138.829 55.8962 19.2724 89.7586 15.6841 
176.606 169.924 150.07 132.989 167.156 171.415 167.775 154.038 79.7626 91.9547 34.8983 98.2735 64.8552 25.7807 100.578 -18.3873 -12.1626 89.3533 -32.6147 -45.3372 97.6838 64.4733 -61.0154 107.305 76.4293 -36.9784 138.224 56.1786 17.9459 90.7181 15.8388 
176.369 170.059 149.759 134.657 167.187 171.282 167.962 153.88 79.7457 91.7929 35.5011 98.1701 65.5282 26.2568 100.3 -17.928 -11.7448 88.628 -31.8697 -44.7868 97.4273 65.4318 -60.6257 106.847 76.8362 -36.5102 137.786 56.4768 17.3022 91.2489 16.0052 
176.415 170.107 149.27 136.083 167.463 171.304 168.06 153.581 79.5268 92.0323 36.2195 98.1985 66.2036 26.9123 100.398 -17.5741 -11.1263 88.1133 -31.1898 -44.1655 97.1703 66.0503 -60.0865 106.389 77.4634 -36.0536 137.438 56.7671 17.2028 91.4394 16.1719 
176.474 170.102 148.893 136.465 167.994 171.46 168.055 153.354 78.7345 92.8142 36.9933 98.2452 66.8586 27.7646 100.838 -17.3268 -10.3292 87.9907 -30.8234 -43.5365 97.0796 66.1202 -59.3762 105.738 78.2117 -35.6189 137.174 57.0713 17.4386 91.3871 16.322 
176.573 169.997 148.656 135.845 168.696 171.72 167.958 153.227 77.6747 93.9274 37.7228 98.1423 67.4369 28.5563 101.335 -17.1755 -9.49372 88.1692 -30.6813 -42.9733 97.0719 65.6972 -58.7136 105.143 79.0356 -35.217 136.98 57.3947 18.1188 90.9823 16.3382 
176.702 169.877 148.383 134.486 169.533 172.096 167.822 153.084 76.6747 95.2523 38.3799 97.8081 67.8207 29.1644 101.719 -17.1802 -8.87914 88.3825 -30.7054 -42.4898 96.8182 64.8193 -58.1518 104.339 79.7328 -34.8521 136.72 57.6615 19.0468 90.0968 16.3502 
176.74 169.771 148.301 132.886 170.015 172.27 167.672 153.097 76.8967 96.277 38.6805 97.2202 67.9546 29.4261 101.736 -17.2102 -8.62651 88.6979 -30.8755 -42.2595 96.1274 64.0412 -58.0846 103.81 80.2163 -34.6125 136.511 57.8574 20.1327 89.0499 16.2782 
176.869 169.748 148.547 132.032 170.387 172.47 167.646 153.319 77.3725 97.0033 38.8289 96.6357 68.2363 29.4973 101.564 -17.2331 -8.58846 88.8782 -31.0794 -42.1671 95.4847 63.6734 -58.1854 103.453 80.6673 -34.477 136.334 58.0704 20.9101 88.4209 16.1951 
177.123 169.76 148.979 131.627 170.675 172.663 167.651 153.595 77.858 97.4428 38.9499 96.1477 68.6603 29.4894 101.306 -17.1364 -8.58843 88.8429 -31.0794 -42.033 94.9137 63.647 -58.2963 103.172 81.0979 -34.3772 136.114 58.301 21.3798 88.0898 16.1328 
177.404 169.856 149.492 132.48 170.71 172.797 167.748 153.88 78.3944 97.2258 38.9955 95.758 69.2019 29.4372 101.055 -17.0005 -8.69147 88.7476 -31.0307 -42.0048 94.6411 64.1867 -58.5489 103.146 81.1638 -34.3242 135.952 58.4825 21.0329 88.5073 16.1502 
177.698 169.933 150.03 133.593 170.706 172.868 167.821 154.17 78.8097 97.0097 38.9782 95.4182 69.7264 29.3471 100.795 -16.7872 -8.74784 88.5907 -30.8845 -42.0009 94.3787 64.8402 -58.7077 103.023 81.26 -34.3031 135.756 58.7043 20.5717 89.0107 16.123 
177.893 170.064 150.545 134.434 170.537 172.806 167.923 154.482 79.2025 96.6132 38.8842 95.097 70.1311 29.1674 100.448 -16.6014 -8.92658 88.3265 -30.7361 -41.9753 94.1124 65.5421 -58.8057 102.806 81.2393 -34.3204 135.511 58.8826 19.9132 89.5845 16.1174 
178.016 170.293 151.1 135.76 170.025 172.678 168.117 154.774 79.7504 95.5955 38.6787 94.87 70.5534 29.0088 100.21 -16.3981 -9.22757 88.1079 -30.5559 -42.0214 94.1359 66.745 -58.9503 102.814 80.946 -34.3928 135.385 59.1199 18.5977 90.6571 16.2124 
178.229 170.622 151.599 137.456 169.318 172.549 168.388 155.044 80.3127 94.2794 38.4048 94.6458 70.8539 28.8799 100.003 -16.268 -9.55398 87.7961 -30.4014 -42.0899 94.1945 68.0733 -59.0173 102.813 80.448 -34.4871 135.226 59.2749 17.0449 91.9251 16.3701 
178.336 170.895 152.055 139.293 168.565 172.391 168.615 155.292 80.8582 93.0525 38.0992 94.5147 71.1611 28.8023 99.9711 -16.1038 -9.79899 87.6939 -30.2844 -42.2387 94.3545 69.3437 -59.0967 102.884 79.9549 -34.6084 135.172 59.4525 15.5894 93.1613 16.5062 
178.397 171.153 152.543 141.057 167.878 172.227 168.862 155.556 81.4142 92.1805 37.7409 94.3538 71.4458 28.7072 100.013 -15.9727 -10.079 87.6539 -30.2057 -42.4468 94.5618 70.5954 -59.1769 102.97 79.6951 -34.7752 135.172 59.6557 14.3433 94.335 16.6423 
178.491 171.302 152.898 142.997 167.46 172.185 169.025 155.7 81.6735 91.7427 37.4694 94.2979 71.7222 28.6326 100.12 -15.8068 -10.2358 87.6021 -30.0759 -42.691 94.7383 71.6148 -59.2137 102.922 79.6411 -34.9529 135.138 59.8392 13.4414 95.3216 16.7338 
178.534 171.484 153.327 144.669 167.15 172.17 169.207 155.928 81.9349 91.5244 37.2202 94.2573 71.9165 28.6583 100.371 -15.7268 -10.3109 87.6658 -30.0956 -42.8934 94.9117 72.5937 -59.1991 102.874 79.799 -35.1383 135.134 60.0528 12.7888 96.2716 16.8121 
178.583 171.711 153.753 145.899 166.945 172.196 169.442 156.194 82.257 91.402 36.9537 94.2901 72.0656 28.7895 100.702 -15.6667 -10.3653 87.7542 -30.2097 -43.0416 95.0787 73.5145 -59.1468 102.83 79.9915 -35.3295 135.17 60.2403 12.2512 97.1763 16.9497 
178.593 171.955 154.182 146.845 166.686 172.169 169.698 156.489 82.6044 91.1524 36.6414 94.3537 72.2686 28.9248 101.035 -15.5904 -10.4199 87.8105 -30.2908 -43.1673 95.2764 74.4618 -59.1191 102.826 80.145 -35.5386 135.23 60.455 11.7004 98.056 17.0881 
178.558 172.166 154.536 147.333 166.504 172.142 169.912 156.723 82.7007 90.9207 36.2998 94.4258 72.4654 29.0212 101.337 -15.509 -10.513 87.807 -30.3286 -43.3 95.4596 75.1064 -59.1294 102.776 80.2308 -35.7558 135.254 60.6151 11.2952 98.7145 17.2532 
178.57 172.336 154.821 147.827 166.311 172.114 170.124 156.902 82.7434 90.6229 35.9236 94.4521 72.7221 28.9932 101.559 -15.4412 -10.6915 87.6961 -30.2952 -43.4916 95.6279 75.7047 -59.1924 102.721 80.2696 -35.9921 135.25 60.764 10.9107 99.3047 17.4036 
178.644 172.531 155.072 148.008 166.096 172.081 170.351 157.112 82.7356 90.2834 35.4649 94.4275 72.9685 28.8975 101.705 -15.3404 -10.924 87.6177 -30.2715 -43.7402 95.8357 76.2045 -59.3427 102.734 80.2585 -36.2597 135.257 60.8934 10.5716 99.8666 17.5334 
178.674 172.7 155.212 147.931 165.921 172.001 170.555 157.325 82.6016 90.0543 34.9945 94.3855 73.195 28.6885 101.776 -15.2027 -11.2123 87.5475 -30.2067 -44.021 96.0199 76.5435 -59.5368 102.721 80.2655 -36.5277 135.21 61.0013 10.3343 100.361 17.6336 
178.723 172.891 155.264 147.638 165.548 171.878 170.761 157.522 82.5741 89.6274 34.4013 94.2267 73.3419 28.446 101.651 -15.0332 -11.5977 87.3568 -30.1059 -44.353 96.1567 76.8716 -59.8113 102.767 80.1628 -36.8174 135.144 61.0697 10.0876 100.791 17.7623 
178.744 173.084 155.26 147.278 165.266 171.805 170.964 157.732 82.5076 89.2812 33.857 94.0788 73.3141 28.197 101.427 -14.9264 -12.0161 87.0874 -30.0695 -44.6532 96.1992 77.0325 -60.0558 102.729 80.0096 -37.0852 135.017 61.036 9.90945 101.127 17.9084 
178.752 173.228 155.276 147.161 165.058 171.779 171.16 157.996 82.5466 89.1408 33.3514 93.8813 73.3274 28.0037 101.367 -14.8019 -12.3672 87.1017 -30.1421 -45.0405 96.2645 77.1731 -60.3848 102.79 79.938 -37.3495 134.956 61.0297 9.84135 101.501 18.0358 
178.754 173.313 155.302 147.243 164.968 171.782 171.328 158.291 82.5945 88.9982 32.9193 93.6993 73.2808 27.8585 101.35 -14.7399 -12.6736 87.2283 -30.3274 -45.5001 96.3164 77.2239 -60.7744 102.886 79.7832 -37.6028 134.884 60.9662 9.82984 101.922 18.1572 
178.781 173.271 155.252 148.188 165.165 171.892 171.412 158.507 82.4801 89.001 32.618 93.6392 73.2975 27.6955 101.357 -14.6198 -12.929 87.3839 -30.453 -46.0792 96.4825 77.2884 -61.1933 103.004 79.6899 -37.8634 134.848 60.8841 9.85366 102.42 18.2446 
178.919 173.181 155.256 149.284 165.561 172.14 171.45 158.739 82.246 89.3068 32.426 93.7057 73.2834 27.4631 101.507 -14.5325 -13.1617 87.7035 -30.629 -46.6848 96.6908 77.2546 -61.582 103.061 79.7074 -38.1442 134.874 60.8111 9.94123 102.862 18.2684 
179.201 173.064 155.257 149.97 166.075 172.495 171.457 158.985 81.7373 89.8232 32.2804 93.8545 73.2918 27.2316 101.791 -14.4248 -13.3013 88.1535 -30.8022 -47.2789 97.0365 77.0675 -61.9271 103.107 79.8135 -38.4211 134.956 60.7616 10.0853 103.268 18.2387 
179.557 172.912 155.276 150.509 166.567 172.872 171.44 159.184 81.1739 90.3662 32.1273 94.0874 73.3568 26.9057 102.175 -14.3676 -13.4562 88.6321 -30.9223 -47.894 97.4354 76.8241 -62.3132 103.116 79.863 -38.7497 135.102 60.7223 10.145 103.562 18.1636 
179.954 172.734 155.312 151.053 167.143 173.282 171.34 159.292 80.6226 90.9318 32.0766 94.5126 73.3582 26.5589 102.657 -14.3405 -13.5577 89.1021 -31.0021 -48.3201 97.8257 76.5713 -62.5828 103.063 79.9209 -39.1005 135.274 60.6658 10.1528 103.743 18.0473 
179.64 172.616 155.498 151.444 167.672 173.651 171.266 159.462 80.0607 91.6224 32.0192 95.0287 73.3607 26.1638 103.247 -14.3863 -13.691 89.6702 -31.1513 -48.734 98.257 76.2739 -62.8396 103.036 80.0554 -39.4979 135.533 60.6224 10.2041 103.845 17.9028 
179.384 172.492 155.762 151.702 168.221 174.018 171.136 159.611 78.389 92.597 32.0228 95.6207 73.3522 25.7737 103.845 -14.4711 -13.6857 90.2859 -31.346 -49.2563 99.1373 75.5937 -63.0147 102.823 80.2631 -39.9093 135.774 60.5587 10.2213 104.11 17.6563 
179.261 172.457 156.143 150.862 168.675 174.231 171.071 159.888 76.9706 93.6748 31.9781 96.3182 73.4526 25.3484 104.464 -14.5965 -13.7556 90.855 -31.5723 -49.6418 99.7118 74.7617 -63.2226 102.634 80.6374 -40.3717 136.038 60.504 10.4671 103.967 17.4295 
179.435 172.479 156.65 148.331 168.812 174.067 170.988 160.236 76.3379 94.4918 31.7185 97.0598 73.5474 24.7909 105.03 -14.7352 -14.0277 91.4176 -31.7656 -49.8137 99.7414 73.7334 -63.6314 102.701 81.0226 -40.9235 136.408 60.4847 11.0734 102.934 17.2149 
179.818 172.499 157.056 144.816 168.811 173.732 170.893 160.475 75.988 94.6416 31.1518 97.6183 73.5963 24.0926 105.224 -14.7886 -14.5923 91.6931 -31.8402 -50.0237 99.4673 72.5124 -64.2736 102.876 81.0401 -41.5365 136.703 60.4672 11.8714 101.402 17.0975 
179.844 172.619 157.435 141.497 168.605 173.381 170.886 160.73 76.2653 94.2255 30.441 98.0406 73.4108 23.3411 105.204 -14.887 -15.3737 91.8537 -32.0107 -50.2143 99.0371 71.6056 -64.9268 103.058 80.6766 -42.1356 136.92 60.3983 12.4403 100.115 17.07 
179.516 172.735 157.691 137.909 168.398 173.138 170.905 160.97 76.7646 93.8551 29.7518 98.2408 72.903 22.6648 105.064 -15.0269 -16.2058 92.0808 -32.3761 -50.397 98.2599 70.4632 -65.4931 103.019 80.1411 -42.6366 136.977 60.2768 13.2346 98.6611 17.1153 
179.39 172.785 157.872 134.821 168.187 173.043 170.863 161.22 77.5168 93.5983 29.3178 98.5136 72.4402 22.1429 105.076 -15.1862 -16.8256 92.3662 -32.7662 -50.3712 97.3486 69.3732 -65.7923 102.847 79.6063 -43.0439 137.011 60.1208 14.0977 97.2194 17.1425 
179.423 172.798 158.02 132.743 167.805 173.043 170.789 161.477 78.5652 93.2182 28.9455 98.7936 72.0755 21.6991 105.128 -15.2596 -17.319 92.6669 -33.0849 -50.359 96.4946 68.5622 -66.0563 102.743 78.9828 -43.4365 137.1 59.9495 14.7308 96.0181 17.16 
179.503 172.724 158.099 130.922 167.314 172.977 170.662 161.689 79.6284 92.8828 28.4896 98.9447 71.7284 21.1424 104.928 -15.1706 -17.9019 92.8529 -33.2126 -50.5265 95.7712 67.8244 -66.4252 102.776 78.3792 -43.8178 137.228 59.7873 15.2901 94.8585 17.166 
179.631 172.629 158.289 130.164 166.859 172.871 170.544 161.945 80.7679 92.7961 28.0634 99.2802 71.5665 20.5408 104.823 -15.055 -18.3988 93.1336 -33.2575 -50.7743 95.4708 67.5687 -66.8284 103.176 78.121 -44.2319 137.577 59.6739 15.6892 94.1688 17.0624 
179.764 172.485 158.487 129.507 166.561 172.833 170.376 162.14 81.4334 92.8455 27.639 99.6611 71.263 19.8428 104.694 -15.007 -18.9428 93.3417 -33.288 -51.1088 95.4287 67.2732 -67.2249 103.674 78.0792 -44.6524 137.961 59.5561 16.1934 93.5521 16.912 
179.859 172.37 158.662 129.195 166.193 172.795 170.272 162.27 81.6967 92.651 27.1556 100.193 71.0881 19.0281 104.587 -14.9656 -19.5825 93.3706 -33.1042 -51.6114 95.7833 67.3192 -67.7715 104.36 78.112 -45.1252 138.403 59.5069 16.3467 93.3193 16.7516 
179.819 172.285 158.871 129.86 165.637 172.631 170.161 162.427 81.6381 92.1566 26.494 100.698 70.863 17.9798 104.435 -15.0218 -20.4274 93.3428 -32.855 -52.3963 96.5989 67.8513 -68.4079 105.199 78.0289 -45.6473 138.881 59.4595 15.8345 93.808 16.5548 
179.571 172.338 159.181 132.671 164.871 172.327 170.154 162.61 81.8247 91.4087 25.6913 101.214 70.5144 16.9803 104.557 -15.3178 -21.3438 93.573 -32.8517 -53.5027 97.6683 69.0144 -69.108 106.141 77.7131 -46.2084 139.456 59.3793 14.6638 95.1994 16.4192 
179.127 172.479 159.491 136.08 164.213 171.93 170.227 162.746 82.2921 90.6247 24.7293 101.544 69.9482 16.224 105.043 -15.833 -22.1534 94.2051 -33.2039 -54.7614 98.6408 70.0723 -69.899 107.069 77.1483 -46.7905 140.021 59.2258 13.6106 96.7385 16.3855 
178.614 172.692 159.857 137.838 163.904 171.542 170.342 162.952 82.8432 90.1924 23.9585 101.883 69.2314 15.925 106.011 -16.4697 -22.5773 95.2924 -33.954 -55.5225 99.1821 70.425 -70.3899 107.7 76.6501 -47.3074 140.482 59.0433 13.2769 97.6704 16.4207 
178.014 172.848 160.496 137.721 163.57 171.291 170.424 163.406 83.4146 90.1092 23.3941 102.201 68.5354 15.8751 107.41 -17.1753 -22.7067 96.9532 -35.1494 -56.1041 99.5114 69.995 -70.772 108.516 76.3146 -47.818 141.022 58.8168 13.9292 98.0139 16.4354 
177.409 172.959 161.326 134.912 163.493 171.185 170.435 163.955 83.2924 90.4051 22.9389 102.453 67.8459 15.88 108.69 -17.7359 -22.741 98.7011 -36.3811 -56.6646 99.7399 68.6149 -71.1686 109.166 76.1692 -48.3167 141.479 58.583 15.323 97.6218 16.4281 
176.776 172.953 162.15 129.439 163.896 171.175 170.378 164.429 82.8737 91.1314 22.5655 102.772 67.1873 15.8083 109.828 -18.1851 -22.7 100.259 -37.3775 -57.2507 99.7187 66.3359 -71.5198 109.505 76.1002 -48.8081 141.874 58.3347 17.4601 96.1701 16.3412 
176.313 172.931 162.713 125.471 164.518 171.125 170.317 164.763 83.8218 91.7088 22.2052 103.27 66.8548 15.4123 110.385 -18.3878 -22.9161 101.062 -37.8062 -57.4937 98.8412 64.4072 -72.0412 109.755 76.1594 -49.3183 142.133 58.1397 19.7416 94.0867 16.2263 
176.071 172.81 163.008 122.581 165.04 171.131 170.152 164.955 84.6396 92.1697 21.8928 104.016 66.8381 14.5409 110.353 -18.3559 -23.5511 101.069 -37.6509 -57.6799 98.1126 62.8421 -72.6623 110.125 76.4626 -49.8932 142.403 58.0387 21.8764 91.8492 16.066 
176.032 172.728 163.107 120.354 165.528 171.213 170.007 165.069 83.9904 92.5541 21.5241 104.642 66.9678 13.3873 109.823 -18.225 -24.4677 100.54 -37.232 -58.3345 98.5235 62.2977 -73.4676 110.583 76.8438 -50.491 142.536 57.9127 22.6336 91.2216 15.9086 
176.171 172.585 163.232 120.275 165.805 171.24 169.803 165.175 82.9104 92.3729 20.961 105.075 66.9171 12.2267 109.24 -18.1688 -25.4803 99.9559 -36.8598 -59.2288 99.137 62.3014 -74.3123 110.917 76.851 -51.1184 142.57 57.7836 22.4607 91.3795 15.7939 
176.356 172.528 163.506 121.99 166.017 171.3 169.699 165.367 81.8606 92.1585 20.3972 105.379 66.6435 11.1334 109.269 -18.4401 -26.4566 100 -36.8193 -60.2135 99.7134 62.3084 -75.1468 111.077 76.6161 -51.7586 142.626 57.6622 22.0046 91.815 15.6853 
176.536 172.445 163.918 120.208 166.217 171.522 169.644 165.509 80.6506 92.3653 19.8874 105.702 66.3781 10.0534 110.02 -18.8458 -27.3107 100.839 -36.9925 -61.1628 100.327 61.1333 -76.1082 111.287 76.5783 -52.504 142.886 57.716 22.7579 91.0297 15.491 
176.699 172.431 164.279 118.045 166.428 171.909 169.649 165.598 79.9037 92.9115 19.481 106.017 66.1951 9.12124 111.396 -19.3652 -28.045 102.261 -37.4257 -62.0706 100.907 59.9557 -77.0213 111.443 76.6469 -53.3073 143.27 57.8776 23.6335 90.2561 15.3261 
176.974 172.542 164.796 110.827 166.785 172.469 169.8 165.934 77.9547 93.507 19.1007 106.145 66.1118 8.1884 112.567 -19.8015 -28.7415 103.607 -37.868 -62.9325 101.748 57.5556 -77.8436 111.44 76.8653 -54.0169 143.47 58.1176 25.7563 88.4659 15.1238 
177.076 172.739 165.657 99.678 166.818 173.445 169.97 166.463 98.5259 93.3008 18.2946 105.5 66.5287 6.51837 111.826 -19.5665 -29.8614 103.67 -37.6124 -58.4019 91.0969 48.9085 -79.4903 110.881 77.0584 -55.1623 142.759 58.5048 38.7912 74.2252 14.6387 
177.346 172.841 166.154 106.857 166.87 174.157 170.127 166.726 105.286 93.5212 18.1006 104.977 67.2514 5.8275 111.183 -19.3001 -30.2717 103.609 -37.4543 -57.6979 87.0461 45.1513 -80.1277 110.319 77.2718 -55.5588 142.383 58.7498 43.5215 69.6019 14.3713 
177.593 172.836 166.809 106.618 166.835 174.547 170.152 167.215 101.36 94.122 17.5608 104.286 67.5508 4.97751 110.85 -19.4124 -31.151 103.989 -37.8225 -58.8005 88.0388 46.2444 -81.0319 109.767 77.4498 -56.1192 142.134 58.9013 41.926 71.4162 14.2902 
177.747 172.88 167.85 114.954 166.714 174.803 170.184 168.061 103.159 94.5397 16.8818 103.777 67.7382 4.05446 111.115 -19.7219 -32.2855 104.899 -38.4124 -59.1928 86.7534 47.122 -82.0556 109.597 77.5344 -56.7954 142.182 59.1273 40.9676 72.5712 14.3349 
177.646 172.779 168.924 121.842 166.451 175.114 170.059 168.63 103.648 95.206 16.2719 103.274 67.8306 3.23685 111.67 -20.0726 -33.092 106.195 -39.0923 -61.028 85.9616 46.6644 -82.9476 109.226 77.5748 -57.4829 142.274 59.4268 41.0907 72.7519 14.2199 
177.679 172.58 169.999 144.462 166.046 175.703 169.86 169.036 104.881 96.0522 15.6829 102.756 67.9631 2.63999 112.29 -20.1522 -33.5203 107.624 -39.7508 -59.1446 84.6365 41.5073 -83.5478 108.545 77.483 -58.1605 142.374 59.8097 45.49 67.8031 14.0625 
