178.355 172.972 174.207 145.238 138.674 175.037 163.774 165.406 81.5788 77.5595 176.713 164.316 112.525 204.92 201.926 57.9239 185.673 215.397 25.7608 102.887 182.805 90.348 94.8187 194.3 83.5211 118.795 217.604 101.963 11.5499 102.886 14.2164 
178.652 172.84 174.09 145.241 138.608 174.78 163.736 165.267 81.6466 77.6792 176.423 164.475 112.798 204.774 202.078 58.4 185.467 215.523 26.155 102.761 182.679 90.3361 94.5922 194.214 83.6404 118.467 217.632 102.316 11.4801 102.446 14.274 
178.974 172.778 173.982 145.165 138.556 174.487 163.789 165.2 81.6869 77.7837 175.989 164.55 112.98 204.655 202.216 58.9474 185.23 215.62 26.5115 102.562 182.622 90.3613 94.3381 194.176 83.7531 118.148 217.688 102.665 11.4321 102.122 14.4213 
179.058 172.725 173.904 145.116 138.475 174.314 163.848 165.211 81.6059 77.7616 175.554 164.673 113.43 204.342 202.235 59.4451 184.769 215.616 26.8394 102.275 182.539 90.5092 93.9726 194.078 83.9582 117.722 217.704 103.003 11.3933 101.904 14.5902 
179.227 172.697 173.831 145.103 138.442 174.127 163.88 165.167 81.4694 77.6683 175.344 165.079 113.828 203.953 202.257 59.6928 184.352 215.675 27.1165 102.036 182.605 90.7189 93.6466 194.124 84.228 117.379 217.771 103.243 11.3641 101.822 14.6141 
179.261 172.774 173.84 145.022 138.365 174.024 163.859 165.14 81.3037 77.6038 175.272 165.524 114.417 203.428 202.19 59.8681 183.885 215.631 27.3712 101.809 182.601 91.0004 93.3228 194.022 84.5245 116.994 217.771 103.402 11.3484 101.81 14.5775 
179.045 172.839 173.843 144.837 138.354 174.141 163.815 165.105 81.171 77.5413 175.121 165.872 114.95 202.94 202.284 60.0992 183.396 215.671 27.6156 101.488 182.574 91.2249 92.9675 193.897 84.7168 116.565 217.739 103.566 11.3613 101.855 14.5773 
178.952 173.622 174.222 145.892 139.039 174.29 164.361 165.427 80.7413 77.3408 175.517 166.7 116.422 202.671 202.927 60.3046 183.103 215.437 27.5721 101.061 182.804 92.7712 92.7277 193.613 85.3985 116.201 217.886 103.795 11.4382 103.009 14.4497 
179.283 174.335 174.568 146.146 139.475 174.103 164.951 165.717 80.4351 77.2074 175.673 167.441 117.752 202.338 203.427 60.584 182.78 215.081 27.5574 100.768 182.975 93.9699 92.5068 193.36 86.0473 115.836 218.058 104.117 11.5263 103.573 14.351 
178.962 174.124 174.378 146.331 139.119 174.244 164.662 165.717 80.5534 77.1659 175.124 167.235 117.768 201.72 203.276 60.7201 182.178 215.18 27.765 100.373 182.854 94.2647 92.1109 193.322 86.2232 115.399 218.073 104.38 11.5089 103.575 14.3838 
178.868 173.907 174.172 146.195 138.736 174.268 164.436 165.703 80.7015 77.2443 174.479 166.971 117.819 201.075 202.981 60.9626 181.641 215.274 28.0942 99.9119 182.727 94.3359 91.6527 193.286 86.3245 114.923 218.055 104.665 11.5011 103.402 14.4128 
178.881 173.744 174.178 145.88 138.394 174.287 164.356 165.679 80.793 77.2961 173.731 166.727 117.786 200.495 202.697 61.2852 181.061 215.244 28.4482 99.3207 182.795 94.353 91.1163 193.454 86.4159 114.427 218.085 104.968 11.5342 103.118 14.4829 
178.988 173.737 174.237 145.383 138.198 174.292 164.358 165.707 80.8556 77.3558 173.207 166.661 117.865 200.138 202.721 61.7084 180.758 215.455 28.9038 98.8262 182.924 94.4332 90.6992 193.608 86.5586 113.986 218.108 105.224 11.6065 103.084 14.5054 
178.972 173.752 174.319 144.956 137.99 174.41 164.452 165.635 81.0152 77.3773 172.834 166.791 117.985 199.787 202.834 62.0488 180.433 215.527 29.3651 98.2747 182.987 94.5378 90.2484 193.744 86.7211 113.494 218.099 105.436 11.7026 102.962 14.4218 
178.922 173.728 174.382 144.635 137.831 174.521 164.58 165.659 81.1691 77.3531 172.316 166.821 118.085 199.401 202.867 62.3337 179.991 215.609 29.7068 97.6569 182.997 94.6021 89.6747 193.891 86.8926 112.965 218.075 105.672 11.7259 102.864 14.429 
178.919 173.685 174.403 144.315 137.856 174.401 164.448 165.689 81.1772 77.3383 171.821 166.91 118.432 199.009 203.026 62.8382 179.463 215.767 30.0519 97.4537 182.803 94.8351 89.2477 193.71 87.2644 112.424 218.067 105.96 11.5772 102.689 14.6027 
178.911 173.561 174.358 144.018 137.812 174.28 164.275 165.743 81.1875 77.3868 171.38 167.043 118.793 198.39 203.072 63.1029 178.762 215.85 30.2138 97.2201 182.48 95.0206 88.7605 193.364 87.5589 111.798 217.983 106.199 11.416 102.463 14.7186 
178.719 173.371 174.214 143.747 137.693 174.264 164.026 165.586 81.2393 77.4248 171.022 167.295 119.28 197.669 203.141 63.2851 177.949 215.718 30.4026 96.9171 182.212 95.3578 88.2704 193.053 87.9043 111.155 217.978 106.539 11.3063 102.078 14.7008 
178.576 173.188 174.072 143.492 137.537 174.123 163.907 165.554 81.2927 77.3613 170.426 167.408 119.639 196.862 202.935 63.359 176.982 215.348 30.392 96.5147 181.844 95.584 87.6119 192.731 88.2368 110.447 217.907 106.805 11.1241 101.629 14.7706 
178.659 173.109 174.076 143.132 137.41 173.945 163.994 165.682 81.0937 77.2067 169.623 167.432 119.739 196.039 202.815 63.4157 175.929 215.094 30.3776 95.9711 181.857 95.8967 86.8236 192.727 88.6726 109.731 217.948 107.111 10.9535 101.361 14.8684 
178.785 173.143 174.108 143.038 137.297 173.834 163.995 165.604 80.9676 77.1318 169.155 167.579 119.89 195.246 202.65 63.3571 175.185 214.827 30.4644 95.4645 181.871 96.1032 86.1685 192.705 88.9888 109.073 217.924 107.176 10.8904 101.182 14.7451 
178.79 173.118 174.02 142.99 137.121 173.73 163.892 165.593 80.9273 77.0548 168.54 167.604 120.204 194.511 202.627 63.4959 174.43 214.789 30.5802 95.0902 181.673 96.1928 85.5707 192.535 89.2146 108.376 217.901 107.317 10.7691 100.924 14.7752 
178.482 173.047 173.995 142.951 136.917 173.844 163.803 165.609 80.9716 77.1109 167.765 167.377 120.463 193.651 202.477 63.5223 173.458 214.594 30.5961 94.5064 181.531 96.2749 84.8676 192.441 89.3907 107.658 217.91 107.519 10.6942 100.591 14.8174 
178.265 172.994 173.897 142.996 136.806 173.928 163.726 165.509 81.0762 77.2294 166.78 166.983 120.345 192.902 202.539 63.5832 172.595 214.584 30.6708 93.8466 181.576 96.2911 84.1507 192.557 89.4994 106.947 218.049 107.736 10.6438 100.219 14.825 
178.243 173.003 173.916 142.78 136.805 173.897 163.863 165.548 80.9809 77.3441 166.015 166.867 120.278 192.33 202.779 63.7216 171.872 214.752 30.7931 93.2626 181.778 96.4452 83.4738 192.684 89.766 106.291 218.186 107.995 10.5922 100.047 14.8583 
178.179 173.081 174.053 142.471 136.809 173.864 164.118 165.708 80.7222 77.3563 165.466 167.084 120.458 191.908 203.208 64.004 171.231 214.991 30.9347 92.8281 181.96 96.6993 82.9075 192.669 90.0583 105.655 218.299 108.212 10.5372 100.046 14.9806 
178.312 173.148 174.018 142.472 136.895 173.802 164.13 165.624 80.6137 77.3352 164.995 167.301 120.744 191.62 203.83 64.4693 170.897 215.462 31.3345 92.522 182.123 96.8149 82.4761 192.794 90.2788 105.11 218.45 108.457 10.4825 99.9586 14.997 
178.478 173.155 173.978 142.735 136.865 173.666 164.08 165.648 80.5586 77.2991 164.457 167.463 121.21 191.213 204.215 65.0183 170.418 215.867 31.746 92.1963 182.11 96.9842 82.032 192.792 90.5172 104.534 218.554 108.8 10.4231 99.8494 15.122 
178.414 173.023 173.752 143.007 136.807 173.645 163.731 165.243 80.7461 77.3204 163.966 167.607 121.686 190.651 204.499 65.4599 169.852 215.934 32.2588 91.8377 182.047 97.1062 81.6117 192.851 90.6801 103.968 218.714 109.19 10.3761 99.311 15.04 
178.421 172.893 173.513 143.222 136.778 173.574 163.484 164.907 80.9253 77.4208 163.495 167.791 122.114 190.127 204.8 65.8891 169.321 216.019 32.7461 91.4815 182.05 97.3809 81.2139 192.908 90.9742 103.435 218.911 109.619 10.3514 98.8746 14.9603 
178.424 172.831 173.483 143.394 136.796 173.51 163.516 164.835 81.0342 77.5559 163.054 168.098 122.476 189.609 205.116 66.2879 168.761 216.116 33.1461 90.9483 182.107 97.8453 80.7276 192.909 91.3839 102.857 219.056 110.041 10.3926 98.7627 14.9145 
178.428 172.886 173.539 143.449 136.689 173.45 163.638 164.905 80.773 77.4192 162.605 168.38 122.945 189.155 205.381 66.7786 168.267 216.175 33.6041 90.4496 182.192 98.3906 80.2476 192.839 91.8152 102.293 219.052 110.45 10.4239 98.9295 14.9058 
178.561 172.933 173.723 143.295 136.585 173.267 163.885 165.256 80.4177 77.2933 161.99 168.56 123.279 188.713 205.515 67.2226 167.638 216.3 33.856 89.9369 182.283 98.8586 79.6794 192.729 92.2354 101.707 219.057 110.787 10.4082 99.2116 15.1117 
178.582 172.845 173.704 143.183 136.252 172.977 163.679 165.341 80.0013 77.0638 160.648 168.731 124.107 187.651 205.696 68.2939 166.437 216.5 34.7337 89.2016 182.425 99.6405 78.7291 192.707 92.9921 100.588 219.254 111.634 10.2775 99.0328 15.3403 
178.498 172.788 173.649 143.351 136.176 172.855 163.617 165.294 80.0104 77.0775 160.102 168.833 124.286 187.374 205.945 68.7454 166.175 216.716 35.1494 88.9714 182.611 99.9643 78.4558 192.893 93.2949 100.241 219.507 111.966 10.243 98.9134 15.3621 
178.366 172.767 173.673 143.543 136.085 172.82 163.531 165.207 80.0982 77.0782 159.551 169.155 124.562 187.068 206.408 69.431 165.911 217.213 35.7879 88.5675 183.013 100.39 78.1401 193.333 93.6038 99.8322 219.942 112.447 10.2869 98.842 15.3992 
178.394 172.819 173.747 143.673 136.237 172.738 163.677 165.238 80.4198 77.2723 158.951 169.435 124.632 186.959 207.071 70.1686 165.789 217.844 36.3744 88.0177 183.394 100.809 77.7814 193.797 93.9283 99.4669 220.383 112.882 10.3882 99.022 15.487 
178.484 172.931 173.862 143.716 136.329 172.633 163.941 165.411 80.5056 77.3363 158.377 169.788 124.85 186.726 207.654 70.8397 165.544 218.477 36.9368 87.4177 183.714 101.24 77.3173 194.108 94.2604 98.973 220.652 113.27 10.4701 99.3665 15.5734 
178.635 172.958 173.891 143.704 136.327 172.577 164.047 165.476 80.5749 77.2979 158.09 170.409 125.182 186.28 208.094 71.1322 165.157 219.033 37.2869 86.9211 184.005 101.459 76.8601 194.468 94.4857 98.5192 220.916 113.544 10.4958 99.4933 15.5398 
178.614 172.884 173.799 143.483 136.222 172.674 163.957 165.372 80.7582 77.3677 157.885 171.006 125.683 185.773 208.501 71.4445 164.773 219.539 37.7085 86.6513 184.27 101.564 76.4886 194.84 94.7174 98.0849 221.291 113.863 10.4248 99.1789 15.4484 
178.604 172.768 173.619 143.322 135.966 172.778 163.811 165.205 80.8987 77.3492 157.686 171.63 126.118 185.174 208.887 71.5683 164.282 220.02 37.987 86.407 184.585 101.592 76.1125 195.288 94.8601 97.6357 221.722 114.154 10.3327 98.7181 15.3278 
178.689 172.589 173.548 143.273 135.883 172.751 163.583 165.077 80.9041 77.4008 157.336 172.089 126.322 184.557 209.267 71.6939 163.732 220.412 38.2257 86.0535 185.062 101.781 75.7282 195.741 95.0362 97.2026 222.23 114.432 10.3067 98.4322 15.2408 
178.919 172.46 173.513 143.212 135.849 172.714 163.469 164.961 80.8698 77.4696 156.897 172.408 126.368 184.006 209.593 71.8583 163.174 220.655 38.4394 85.6348 185.543 101.921 75.2803 196.195 95.2123 96.7555 222.688 114.719 10.2798 98.068 15.1908 
179.202 172.473 173.577 143.173 135.785 172.673 163.522 165.009 80.613 77.4371 156.616 172.966 126.513 183.513 210 71.9676 162.762 221.04 38.6239 85.2355 186.067 102.019 74.8622 196.597 95.3282 96.3161 223.033 114.837 10.2873 98.0382 15.1066 
179.279 172.4 173.532 143.1 135.856 172.772 163.457 164.974 80.6686 77.5414 156.542 173.494 127.046 183.011 210.256 72.123 162.424 221.351 38.8715 84.8279 186.179 102.081 74.4687 196.66 95.3923 95.8294 223.145 114.871 10.3172 98.097 15.0032 
179.209 172.388 173.469 142.815 135.849 172.88 163.451 164.977 80.8135 77.6255 156.625 174.043 127.609 182.668 210.604 72.2101 162.182 221.729 39.012 84.6197 186.155 102.18 74.1839 196.595 95.5351 95.4233 223.253 114.867 10.3018 98.1864 14.9415 
179.06 172.413 173.543 142.57 135.752 172.948 163.507 165.077 80.9443 77.71 156.524 174.636 128.154 182.311 211.06 72.3978 161.713 222.061 39.0915 84.3548 186.236 102.503 73.8715 196.607 95.79 94.9774 223.504 115.006 10.2855 98.2463 15.0273 
178.905 172.432 173.495 142.402 135.658 173.022 163.596 165.038 81.0411 77.7868 156.078 174.736 128.271 181.981 211.481 72.5124 161.105 222.163 39.0519 83.9993 186.181 102.585 73.4325 196.523 95.8733 94.4572 223.613 115.125 10.2213 98.0672 15.1514 
178.785 172.45 173.5 142.142 135.626 173.085 163.684 165.014 81.167 77.8531 155.561 174.69 128.145 181.536 211.742 72.4137 160.449 222.365 38.9249 83.4596 186.353 102.571 72.9054 196.754 95.8849 94.0049 223.817 115.226 10.2111 97.9724 15.23 
178.717 172.458 173.557 141.88 135.595 173.172 163.818 165.093 81.1483 77.9408 155.127 174.689 128.059 181.058 211.836 72.2753 159.836 222.435 38.7733 82.9225 186.527 102.583 72.386 196.882 95.889 93.5655 223.939 115.292 10.2018 97.9331 15.2759 
178.837 172.362 173.518 141.814 135.697 173.142 163.787 165.061 81.1934 77.9977 154.695 174.709 127.982 180.602 211.912 72.2771 159.405 222.642 38.7814 82.4873 186.662 102.506 71.9129 197.061 95.8946 93.1564 224.05 115.318 10.1659 97.8914 15.2915 
179.133 172.41 173.599 141.958 135.663 172.953 163.976 165.342 81.0745 78.0634 154.009 174.64 127.835 180.214 212.07 72.4289 158.96 222.956 38.7952 81.975 186.733 102.541 71.4212 197.056 95.9234 92.6733 224.077 115.402 10.1763 98.1296 15.4273 
179.353 172.43 173.714 141.776 135.649 172.835 164.1 165.49 80.8669 78.0919 153.338 174.474 127.699 179.682 211.888 72.4733 158.396 222.903 38.7872 81.459 186.824 102.5 70.8638 197.058 95.9321 92.1669 224.028 115.398 10.1488 98.1573 15.5154 
179.652 172.428 173.749 141.325 135.62 172.674 164.032 165.555 80.558 78.0543 152.799 174.497 127.7 179.273 211.918 72.72 157.936 223.121 38.8992 81.2663 186.983 102.323 70.4923 197.098 95.9111 91.7315 224.071 115.484 10.0503 97.9226 15.6766 
179.749 172.377 173.672 140.837 135.463 172.6 163.957 165.577 80.3072 78.1057 152.324 174.436 127.857 178.791 211.862 72.8278 157.351 223.17 38.8949 81.1222 186.914 102.091 70.082 196.889 95.8775 91.242 224.007 115.518 9.89224 97.5818 15.8306 
179.713 172.364 173.698 139.826 135.218 172.558 163.987 165.654 79.9231 78.0945 151.81 174.446 127.946 178.235 211.834 72.7988 156.545 223.055 38.716 80.8737 187.006 101.921 69.5727 196.753 95.8355 90.6816 224.001 115.561 9.71978 97.17 16.0087 
179.426 172.205 173.705 138.973 135.099 172.706 163.867 165.561 79.9024 78.3075 151.411 174.465 128.111 177.556 211.643 72.6742 155.705 222.769 38.5338 80.472 187.074 101.791 69.0762 196.689 95.7684 90.1922 224.111 115.638 9.63204 96.6539 16.0916 
179.235 171.99 173.709 138.328 134.965 172.807 163.654 165.42 79.782 78.539 150.926 174.35 128.067 176.834 211.488 72.6045 154.879 222.462 38.4237 80.0964 187.085 101.658 68.6071 196.493 95.6758 89.653 224.118 115.696 9.55943 96.1229 16.1321 
178.972 172.034 173.798 138.043 135.075 172.931 163.738 165.436 79.5835 78.6416 150.365 174.219 127.992 176.344 211.45 72.5837 154.244 222.27 38.3736 79.4809 187.173 101.601 68.0133 196.437 95.6357 89.1372 224.049 115.69 9.56657 96.1007 16.1818 
179.072 171.989 173.797 138.033 135.149 172.909 163.68 165.427 79.3372 78.6962 149.75 173.969 127.962 175.724 211.32 72.5566 153.715 222.155 38.4258 78.8674 187.067 101.385 67.3838 196.206 95.486 88.5155 223.777 115.602 9.56869 96.131 16.1041 
178.952 172.153 173.91 137.091 135.041 172.893 163.866 165.469 78.8455 78.548 149.246 174.085 128.036 175.126 211.294 72.4539 152.952 221.743 38.3305 78.3792 187.116 101.336 66.7573 196.002 95.4788 87.8719 223.57 115.531 9.49489 95.9818 16.0925 
178.897 172.193 173.765 137.078 135.009 172.911 163.883 165.302 78.9895 78.5928 148.54 173.69 128.172 174.579 211.163 72.5209 152.291 221.359 38.4002 77.8233 186.716 101.161 66.1082 195.697 95.436 87.2224 223.303 115.503 9.4437 95.7254 16.1038 
178.929 172.212 173.689 136.948 134.763 172.797 163.897 165.196 79.2111 78.6952 147.674 173.277 128.034 173.932 211.047 72.5461 151.458 221.043 38.3756 77.2617 186.341 101.022 65.486 195.405 95.34 86.5125 223.122 115.528 9.4009 95.3424 16.1822 
179.52 172.425 174.2 137.284 136.026 172.414 163.299 164.587 79.4928 78.8153 146.773 172.952 127.479 172.889 209.924 72.3444 150.313 220.522 38.2795 76.602 186.132 100.9 64.4583 195.489 95.7753 85.7907 222.995 115.664 9.23464 94.667 16.2785 
179.661 172.121 174.019 137.3 136.007 172.313 163.032 164.54 79.4432 78.7816 146.134 172.673 127.616 172.23 209.663 72.555 149.75 220.119 38.4242 76.1953 185.756 100.921 63.9544 195.037 95.7586 85.1317 222.719 115.627 9.1759 94.4877 16.272 
179.212 172.065 174.249 137.8 137.148 171.591 162.629 164.165 79.4629 78.9595 145.17 172.447 127.06 171.359 208.777 72.5923 148.77 219.74 38.3578 75.593 185.426 100.939 63.0451 194.748 96.2364 84.3785 222.49 115.781 9.14488 94.1579 16.4804 
178.353 171.9 174.063 137.954 138.328 171.029 162.167 163.569 79.476 79.1621 144.347 172.278 126.689 170.551 208.01 72.6991 147.872 219.29 38.405 75.2059 185.08 100.795 62.2239 194.413 96.6899 83.6574 222.291 115.938 9.16587 93.4637 16.6325 
177.611 171.641 173.63 137.829 139.439 170.578 161.657 162.714 79.5498 79.4576 143.442 171.982 126.471 169.768 207.534 72.838 146.902 218.717 38.5215 74.8396 184.679 100.44 61.4239 194.005 96.9831 82.8992 222.106 116.139 9.26282 92.389 16.7205 
177.29 171.498 173.389 138.633 140.464 170.361 160.73 161.789 80.2557 79.925 142.663 171.632 126.306 168.603 206.782 72.7699 146.018 218.262 38.7046 74.3719 184.005 99.7309 60.5757 193.668 97.0714 82.1137 221.903 116.234 9.58215 91.0636 16.5358 
176.567 171 172.525 140.385 141.324 169.893 159.61 160.818 81.1848 80.4001 141.851 171.377 126.248 167.373 206.051 72.7187 145.245 217.9 38.9256 74.0633 183.077 99.0092 59.855 193.195 97.0969 81.3476 221.702 116.281 9.97089 89.8014 16.2985 
176.05 170.551 171.843 142.39 141.932 169.538 158.77 160.19 82.0005 80.7614 141.061 171.176 126.247 166.237 205.373 72.6903 144.485 217.498 39.0933 73.5314 182.226 98.5923 59.0822 192.776 97.217 80.5697 221.477 116.363 10.3355 88.9569 16.1096 
175.536 170.05 171.148 144.009 142.474 169.192 158.023 159.573 82.4233 81.0372 140.325 171.203 126.35 165.146 204.953 72.7295 143.714 217.16 39.3395 72.9578 181.784 98.5395 58.3984 192.515 97.4521 79.8189 221.455 116.528 10.5675 88.3644 15.8954 
175.614 169.625 170.744 145.341 142.781 169.255 157.414 159.041 82.955 81.414 139.822 171.313 126.432 164.048 204.516 72.5521 142.764 216.702 39.3889 72.2169 181.283 98.2797 57.6591 192.188 97.3458 79.0212 221.329 116.549 10.6231 87.6983 15.7082 
176.05 169.225 170.166 146.349 143.055 169.464 156.756 158.421 83.2752 81.7075 139.348 171.274 126.564 162.805 204.025 72.2454 141.797 216.374 39.4161 71.3254 180.95 98.0909 56.7508 191.981 97.2081 78.1622 221.112 116.391 10.6149 87.4546 15.4742 
176.308 169.04 169.369 146.767 143.216 169.567 156.528 157.909 83.2488 81.7629 138.687 171.146 126.828 161.831 203.699 72.0949 140.744 216.008 39.4067 70.4914 180.573 97.8998 55.7601 191.629 97.1297 77.2634 220.777 116.26 10.6183 87.3359 15.4565 
176.339 168.919 168.891 146.927 143.045 169.575 156.429 157.691 83.1216 81.6733 137.966 171.109 126.878 160.762 203.363 71.8121 139.566 215.642 39.2209 69.6125 180.366 97.98 54.8222 191.385 97.221 76.367 220.623 116.158 10.6143 87.3307 15.4727 
176.054 169.016 168.393 147.061 142.94 169.326 156.67 157.396 83.1901 81.7674 136.889 170.881 126.75 159.938 203.378 71.6212 138.403 215.204 39.0931 68.6055 180.142 98.1267 53.8654 191.162 97.1963 75.4462 220.513 116.113 10.4207 87.3665 15.4524 
176.16 169.047 167.778 147.267 142.858 169.298 156.756 156.922 83.2605 81.7183 135.848 170.404 126.393 158.965 203.401 71.1412 137.125 214.79 38.7632 67.5509 179.884 97.9502 52.7395 191.015 97.0575 74.4678 220.29 115.874 10.3847 87.2861 15.3777 
176.503 169.067 167.203 147.082 142.653 169.477 156.821 156.582 82.8926 81.5055 134.996 170.13 126.177 157.992 203.384 70.8154 135.819 214.646 38.4711 66.4784 179.92 97.8461 51.6879 190.965 96.8298 73.5157 220.07 115.637 10.2276 87.4839 15.5017 
176.612 168.934 166.675 147.047 142.304 169.525 156.754 156.403 83.0576 81.4889 134.058 169.976 126.082 156.951 203.366 70.6159 134.654 214.751 38.2716 65.6898 179.664 97.5405 50.7293 190.822 96.6925 72.5372 219.93 115.585 10.2691 87.2495 15.5891 
176.287 168.848 166.269 146.976 142.093 169.337 156.753 156.185 83.6074 81.7318 132.864 169.718 125.815 156.061 203.492 70.4703 133.653 214.704 38.1388 65.0396 179.436 97.0668 49.8292 190.836 96.5971 71.652 220.037 115.597 10.4633 86.5493 15.5628 
176.499 168.591 165.883 147.045 141.974 169.404 156.511 155.88 83.8305 81.8935 132.021 169.61 125.534 154.997 203.264 70.0359 132.599 214.475 37.8266 64.3439 179.293 96.4434 48.9203 190.799 96.3147 70.7798 219.984 115.366 10.6472 85.8824 15.4821 
176.466 168.255 165.36 147.285 141.798 169.435 156.256 155.601 84.0271 82.1323 131.163 169.47 125.254 154.025 203.178 69.7935 131.65 214.537 37.5853 63.8614 178.991 95.6712 48.1455 190.506 95.856 69.8879 219.817 115.13 10.7746 85.2303 15.5194 
176.109 168.194 165.067 146.811 141.525 169.274 156.332 155.535 83.9787 82.0649 130.006 169.347 125.01 153.06 203.216 69.6351 130.347 214.479 37.2902 63.0431 178.949 95.3485 47.216 190.436 95.6493 68.9248 219.844 115.098 10.7295 84.8328 15.739 
175.608 167.978 164.57 146.33 141.245 168.941 156.229 155.31 84.2761 82.2146 128.749 169.015 124.723 151.999 203.092 69.3332 129.213 214.302 36.9772 62.4498 178.656 94.6297 46.3238 190.227 95.471 68.0412 219.818 115.056 11.091 84.0188 15.7452 
175.501 167.762 164.163 145.468 141.036 168.858 156.042 155.159 84.2231 82.1614 127.763 168.865 124.386 150.985 203.089 69.0124 128.162 214.332 36.686 61.8317 178.685 93.9156 45.4076 190.205 95.155 67.1412 219.792 114.893 11.3305 83.3574 15.7507 
175.706 167.615 163.952 144.452 140.904 169.042 155.979 155.148 83.9663 82.1001 126.97 168.83 124.196 150.045 203.185 68.7002 127.069 214.466 36.365 61.1684 178.905 93.2147 44.4914 190.265 94.7593 66.2622 219.784 114.711 11.4483 82.7908 15.8432 
175.246 167.618 164.016 141.718 140.5 168.802 156.072 155.358 83.4832 81.8444 125.683 168.653 123.802 148.987 203.101 68.4498 125.776 214.38 36.0201 60.4692 179.323 92.8664 43.4708 190.394 94.6254 65.3309 219.863 114.692 11.4518 82.2532 16.0133 
174.922 167.564 164.013 138.617 140.245 168.524 156.123 155.314 83.0024 81.5532 124.608 168.712 123.494 148.091 203.254 68.1497 124.642 214.267 35.736 59.8585 179.936 92.6764 42.5544 190.7 94.6466 64.5398 220.121 114.705 11.5275 81.7241 16.0358 
174.747 167.457 163.707 136.531 139.926 168.369 156.112 155.169 83.1847 81.4963 123.853 168.929 123.402 147.438 203.733 68.0464 123.789 214.459 35.5274 59.7147 179.948 91.7744 41.8651 190.558 94.3104 63.7168 220.199 114.625 11.98 80.6098 16.1106 
