168.654 167.697 169.028 148.968 149.815 179.139 156.323 156.502 79.937 80.8095 -131.026 239.346 -29.4465 -190.648 251.916 -75.5937 -228.254 240.244 -72.9231 -194.072 227.229 27.2493 -208.604 229.686 31.3355 -195.828 264.095 18.8376 10.0557 101.052 13.8919 
168.263 167.686 168.861 150.189 150.534 178.696 155.887 155.707 79.5852 80.5015 -131.64 239.33 -29.5316 -191.266 252.519 -75.7874 -228.867 241.114 -72.9296 -194.946 227.562 26.975 -209.696 229.959 31.1548 -196.654 264.249 18.6204 9.82431 101.431 13.9909 
167.976 167.487 168.349 151.568 151.069 178.379 155.272 154.555 79.4992 80.4823 -132.337 239.524 -29.8526 -192.042 252.789 -75.8935 -229.049 241.387 -72.7923 -195.833 227.666 26.6746 -210.637 230.122 30.9095 -197.49 264.374 18.4139 9.76118 101.047 13.7739 
168.083 167.53 168.071 153.015 151.222 178.403 154.706 153.583 79.3183 80.1995 -133.273 239.556 -30.1662 -192.719 252.993 -75.8646 -229.031 241.577 -72.6714 -196.552 227.88 26.5222 -211.528 230.284 30.5712 -198.287 264.447 18.2142 9.83845 100.899 13.4471 
168.085 167.911 168.008 153.497 151.389 178.448 154.382 153.176 79.204 80.3591 -134.16 239.367 -30.2224 -193.233 252.835 -75.6573 -229.271 241.644 -72.539 -197.116 228.042 26.5488 -212.04 230.251 30.5614 -198.993 264.395 18.1468 9.8954 101.028 13.2236 
167.881 168.638 167.637 153.308 151.617 178.314 154.043 153.332 78.764 80.8536 -134.628 238.723 -30.3013 -193.645 252.082 -75.3676 -230.107 242.066 -72.5527 -197.721 228.031 26.401 -212.191 229.991 30.6694 -199.514 264.103 18.0897 9.99537 101.576 13.0845 
167.639 168.92 167.529 153.108 152.131 178.146 153.591 154.253 77.6832 81.5163 -135.077 238.048 -30.1995 -193.899 251.219 -74.9725 -231.186 243.297 -72.9972 -198.674 228.007 25.8393 -212.272 229.648 30.7321 -199.98 263.804 18.0978 10.089 102.267 12.9745 
167.558 168.513 167.836 153.077 152.501 178.113 153.255 155.495 77.1755 82.099 -135.819 237.661 -30.2699 -194.22 250.681 -74.8934 -232.519 244.214 -73.5979 -199.468 227.858 25.5009 -212.409 229.342 30.7635 -200.531 263.601 18.0136 10.2714 103.093 13.31 
167.428 168.23 168.319 151.985 153.26 177.997 152.225 156.484 76.9504 83.1722 -136.476 237.556 -30.4897 -194.528 250.033 -74.5181 -233.665 245.241 -74.0696 -200.227 227.137 24.2712 -212.055 228.91 30.84 -200.938 263.393 17.9526 10.3606 102.578 13.6214 
167.812 167.59 168.581 151.09 153.75 178.12 151.407 157.221 76.7029 83.9672 -137.559 237.738 -30.8128 -194.922 250.083 -74.2995 -234.748 246.145 -74.5624 -201.087 226.617 22.7833 -211.946 228.699 30.6988 -201.499 263.421 17.811 10.699 101.623 13.995 
168.134 167.023 168.528 149.993 154.158 178.353 150.145 156.866 75.5271 84.9415 -138.788 238.206 -31.2367 -195.468 250.805 -73.9532 -235.58 246.913 -74.6396 -202.132 226.678 21.1521 -211.694 228.437 30.3085 -202.054 263.513 17.7164 11.4652 100.285 14.1799 
168.446 166.353 168.521 149.696 154.492 178.414 150.08 156.653 74.7393 85.2279 -139.698 238.351 -31.3464 -196.069 251.615 -74.0423 -236.111 247.191 -74.6901 -203.13 226.787 20.0718 -211.968 228.574 30.2913 -202.679 263.661 17.6142 12.0424 99.2028 14.1485 
168.832 165.283 168.043 150.641 154.684 178.495 150.4 155.254 74.1184 84.9403 -140.721 238.706 -31.6392 -197.176 253.298 -74.6182 -236.178 246.879 -74.5852 -204.21 227.295 19.4969 -212.816 229.123 29.8863 -203.514 264.039 17.3565 12.374 98.1008 13.6154 
168.667 164.968 167.636 147.652 154.694 178.161 150.693 155.167 71.9078 84.7779 -141.351 238.72 -31.6061 -197.786 254.453 -74.8415 -237.017 247.503 -74.7122 -206.351 227.827 17.2553 -213.564 229.459 29.4239 -204.227 264.28 17.2179 13.7391 95.7346 13.9126 
168.701 164.471 167.268 148.51 155.136 178.13 151.358 155.023 70.1227 85.2203 -142.169 238.831 -31.6483 -198.634 255.221 -74.901 -237.956 248.046 -74.6967 -208.23 228.294 15.7171 -214.241 229.607 28.9627 -205.039 264.623 17.0965 15.0575 94.0762 14.0044 
168.632 164.23 167.428 146.596 155.187 177.79 151.208 155.58 69.0547 85.3543 -142.795 239.047 -31.5475 -199.156 255.22 -74.7098 -238.805 248.941 -74.9044 -209.655 228.182 12.2829 -214.764 229.615 28.6752 -205.646 264.714 17.1613 17.0518 90.1723 14.0832 
170.041 166.791 168.404 149.554 155.787 177.405 152.74 157.914 69.3232 85.1762 -143.443 239.95 -32.0461 -199.108 255.206 -75.3935 -239.378 250.424 -76.1582 -210.729 227.638 9.99251 -215.077 230.364 28.2464 -206.259 264.862 16.9815 19.5391 88.1257 14.3851 
170.797 169.779 169.123 148.794 156.568 176.658 154.363 160.102 68.0642 85.2214 -144.102 240.667 -32.1821 -198.992 255.588 -76.1494 -240.014 251.78 -77.0512 -212.582 228.076 8.0873 -215.458 231.053 27.9393 -206.947 265.161 16.8924 22.1764 86.1828 14.9516 
170.888 172.945 169.612 143.637 156.78 175.96 155.817 162.038 64.15 85.3745 -144.677 241.185 -32.553 -199.128 256.46 -76.9641 -241.217 253.268 -77.5615 -214.764 230.072 6.88688 -215.782 231.325 27.689 -207.492 265.216 16.715 23.94 85.5179 15.8115 
170.953 174.993 169.913 135.055 156.687 175.517 157.627 164.19 60.043 85.2739 -145.162 241.247 -32.8647 -199.526 258.042 -77.9814 -242.77 254.847 -78.131 -217.21 232.105 6.02898 -216.189 231.398 27.4103 -207.842 265.056 16.5111 25.8289 85.2698 16.6395 
170.879 172.631 169.361 128.75 156.783 175.563 156.969 164.517 55.9923 84.84 -145.955 241.329 -32.9244 -200.575 259.775 -78.268 -244.984 256.702 -78.1922 -219.725 234.184 4.48615 -216.969 231.433 27.6029 -208.331 264.977 16.4628 28.6617 83.8603 17.401 
170.854 170.436 168.628 120.855 156.801 175.871 155.863 163.495 53.3286 84.4716 -146.992 241.717 -32.9138 -201.903 261.759 -78.4042 -246.554 257.77 -78.0272 -222.489 235.887 1.85976 -217.883 231.508 27.316 -209.064 265.175 16.3569 32.9278 79.4885 17.5989 
170.909 168.547 168.157 111.271 156.824 176.13 154.787 161.865 53.7003 84.4713 -148.304 242.413 -32.8305 -202.983 263.167 -78.5035 -247.416 257.886 -77.8737 -224.427 237.263 -3.37095 -218.576 231.717 26.7942 -209.993 265.624 16.2694 39.5569 70.5695 17.5874 
171.367 169.733 167.148 99.8158 158.274 175.822 155.011 160.885 50.2195 84.7432 -149.291 243.475 -33.2247 -204.094 264.231 -78.8583 -247.801 257.181 -77.6301 -227.777 239.892 -4.30177 -218.976 232.5 26.4852 -210.968 266.132 16.0952 44.2078 65.4996 17.4534 
171.444 168.523 166.645 92.6364 158.235 175.675 153.943 159.534 51.6591 84.5682 -150.619 244.181 -33.4329 -205.224 264.675 -78.8561 -248.431 257.562 -77.4785 -230.393 241.68 -8.82044 -219.815 233.238 26.1443 -211.909 266.722 15.9452 52.0431 56.423 17.1646 
171.779 170.705 166.68 91.2709 157.97 175.438 154.601 160.024 51.0291 84.11 -151.218 244.573 -33.662 -206.05 264.606 -79.0953 -248.629 257.452 -77.6301 -232.946 242.703 -9.30047 -220.812 234.173 26.0269 -212.729 267.211 15.7507 55.2944 53.2634 16.7682 
171.965 172.086 166.85 91.5534 158.385 175.309 155.242 160.638 56.3733 84.347 -151.815 244.936 -33.8849 -206.744 264.888 -79.3245 -248.906 257.856 -77.9396 -235.368 241.483 -11.2792 -221.135 234.788 25.9464 -213.388 267.559 15.6924 59.4914 49.8009 16.4335 
172.027 171.478 166.799 90.624 158.312 175.355 154.193 159.824 79.6141 84.5642 -152.78 245.245 -33.9327 -207.481 264.485 -79.0215 -249.263 258.211 -77.8375 -238.263 239.196 -21.9969 -221.42 235.205 26.0904 -213.997 267.904 15.7497 69.9449 38.2051 16.0332 
171.685 170.19 166.977 90.0456 157.757 175.29 153.266 160.216 139.941 84.8294 -153.426 245.281 -33.981 -208.061 264.392 -78.7612 -250.273 259.158 -77.8939 -249.46 238.564 -37.7941 -221.631 235.091 26.0215 -214.363 268.02 15.8012 85.3832 23.7992 16.1465 
171.35 169.111 167.197 90.0456 157.355 175.158 152.086 159.913 151.201 85.308 -154.122 245.783 -34.1611 -209.027 264.48 -78.3026 -251.264 260.154 -77.6754 -254.542 241.555 -40.7514 -221.988 235.163 25.994 -214.954 268.287 15.8592 90.618 19.1537 16.0425 
171.223 168.657 167.614 90.0456 156.945 175.347 150.664 159.479 151.537 85.8212 -154.738 246.348 -34.455 -210.111 264.637 -77.7823 -252.505 260.929 -77.3438 -257.536 241.474 -39.7537 -222.598 235.275 25.8695 -215.585 268.695 15.7839 91.3095 19.7056 16.0911 
171.175 168.319 167.875 90.0456 156.737 175.595 149.656 159.042 151.7 86.2915 -155.169 246.94 -34.7162 -211.289 264.932 -77.3964 -253.579 261.602 -77.1614 -259.549 241.253 -38.8237 -223.101 235.345 25.8279 -216.148 269.065 15.7191 91.4688 20.5734 15.9178 
170.888 168.043 168.236 174.27 156.621 175.679 148.449 158.549 173.511 87.0641 -155.587 247.673 -35.0844 -212.172 265.095 -76.9838 -254.485 261.995 -76.8826 -270.145 250.183 -43.2601 -223.187 235.294 25.7313 -216.526 269.351 15.6942 103.931 12.299 15.9002 
170.739 167.808 168.642 174.27 156.453 175.77 147.916 158.183 175.539 87.5358 -156.015 248.342 -35.402 -213.009 265.311 -76.7703 -255.192 262.245 -76.711 -269.948 250.691 -45.0879 -223.444 235.444 25.6728 -217.019 269.727 15.6692 103.346 10.8352 15.7771 
170.384 167.958 169.089 174.27 156.279 175.758 147.854 158.169 175.882 87.8161 -156.28 248.725 -35.7506 -213.81 265.559 -76.6679 -256.027 262.452 -76.5291 -269.694 249.582 -44.7039 -223.635 235.374 25.729 -217.288 269.861 15.682 101.912 11.5856 15.753 
170.19 168.494 169.093 174.27 155.839 176.019 147.951 157.284 174.423 87.8145 -156.617 249.14 -36.0137 -214.594 266.245 -76.5572 -256.379 262.053 -75.9964 -267.512 246.19 -42.3249 -224.068 235.519 25.8414 -217.606 270.19 15.7343 97.5669 14.6189 15.5172 
169.993 169.016 169.337 174.27 155.681 176.212 148.576 156.935 173.172 87.841 -156.841 249.549 -36.1318 -215.021 266.842 -76.6785 -256.552 261.731 -75.874 -264.01 243.423 -41.1367 -224.476 235.76 26.0507 -217.964 270.622 15.7554 92.9655 17.3872 15.4139 
170.677 173.195 169.657 174.27 155.811 176.092 150.933 157.182 172.941 87.1802 -157.018 250.307 -36.4264 -215.453 266.896 -77.1331 -256.436 260.202 -75.5663 -257.263 236.899 -37.3185 -224.688 237.031 26.4264 -218.41 271.168 15.8702 83.4297 25.1029 15.2933 
171.091 175.451 169.784 174.27 155.691 176.025 152.318 156.924 164.255 86.8076 -157 250.952 -36.8073 -215.839 267.025 -77.513 -255.803 259.016 -75.3956 -247.81 231.952 -30.6254 -224.672 237.753 26.3777 -218.721 271.556 15.8426 71.4083 35.3478 14.8716 
171.322 177.238 169.939 90.3551 155.715 176.103 153.16 156.608 35.6308 86.5183 -156.857 251.394 -36.8793 -215.851 266.945 -77.5741 -254.824 258.042 -75.1134 -240.222 250.538 2.65778 -224.661 238.407 26.5193 -218.789 271.465 15.6021 46.3114 67.6852 14.4464 
171.478 178.516 170.002 90.6862 155.424 176.241 154.134 156.305 45.7174 86.2212 -156.804 251.747 -37.0079 -215.906 266.894 -77.7397 -254.037 256.903 -74.7854 -235.302 246.449 6.51923 -224.928 238.796 26.6423 -219.025 271.751 15.6699 34.3271 78.7926 14.241 
171.499 179.384 170.008 106.969 155.356 176.419 154.818 156.142 58.1255 86.2038 -156.598 251.949 -36.8609 -215.452 266.604 -77.7476 -253.05 255.773 -74.4551 -228.59 242.031 12.1356 -224.92 239.097 27.0644 -219.097 272.012 15.838 24.1778 89.4781 14.1989 
171.343 179.1 169.498 135.263 155.306 176.692 155.126 154.774 73.5566 86.0391 -156.045 251.997 -36.38 -214.519 265.862 -77.3512 -250.982 253.428 -73.3413 -220.546 236.402 19.83 -224.793 239.455 27.6751 -218.962 272.294 16.2354 18.7756 96.7318 14.157 
171.471 179.037 169.532 136.731 155.121 177.651 153.535 154.249 73.3834 86.2002 -156.706 251.639 -36.0062 -213.101 265.03 -76.4762 -250.736 253.01 -73.1398 -218.45 237.109 18.7694 -224.307 239.169 27.8384 -218.628 272.232 16.4828 16.1256 96.3296 14.6438 
171.415 175.588 168.598 140.049 154.869 178.311 152.192 153.14 72.1015 85.994 -156.652 250.908 -35.3936 -211.593 264.51 -75.8402 -249.745 252.539 -72.837 -217.998 237.299 17.7183 -224.057 238.797 27.9189 -218.112 272.065 16.7031 15.3642 94.9517 14.9907 
171.17 173.335 168.11 145.394 154.373 178.441 150.999 152.587 71.2568 85.5013 -155.969 250.065 -34.8156 -210.08 263.678 -75.1787 -248.453 252.659 -72.761 -217.155 237.145 16.7003 -223.877 238.324 28.008 -217.427 271.719 16.9174 14.3921 93.925 14.846 
171.352 173.879 167.868 144.251 154.55 178.623 151.567 152.756 68.6915 84.3989 -154.891 249.367 -34.2181 -208.721 262.785 -75.1554 -246.533 251.836 -72.5203 -218.615 237.183 16.8959 -223.78 238.444 28.1213 -216.677 271.342 17.1539 16.319 92.7262 14.5645 
171.409 174.257 168.223 142.821 154.816 178.352 152.831 154.398 66.7593 83.8201 -153.825 248.797 -33.6803 -207.491 262.635 -75.3031 -245.275 252.318 -72.8962 -219.636 237.122 16.6605 -223.482 238.326 28.3746 -215.938 271.012 17.4556 17.8647 92.0634 14.3756 
171.247 174.747 167.926 143.33 155.085 178.005 154.109 155.601 65.4222 83.1872 -152.666 248.209 -33.1588 -206.364 262.474 -75.5476 -244.258 252.367 -73.0728 -220.002 237.253 17.9856 -223.296 238.072 28.7332 -215.217 270.6 17.7605 18.4741 93.4945 14.4619 
171.012 175.497 167.978 146.892 155.069 177.634 155.305 157.19 66.3775 82.7503 -151.45 247.649 -32.8749 -205.557 262.22 -75.7472 -243.755 252.926 -73.3801 -218.687 236.891 20.1588 -223.015 237.663 28.9065 -214.456 270.143 18.0286 17.7502 96.7817 14.4544 
170.661 176.572 168.109 148.956 155.06 177.189 156.45 158.136 68.2352 82.2949 -150.264 247.236 -32.6594 -205.294 262.099 -75.852 -243.46 253.244 -73.3266 -216.895 236.697 22.5777 -222.847 237.536 29.2082 -213.737 269.827 18.2578 16.9156 100.152 14.3386 
170.122 174.689 169.034 150.638 154.722 176.999 155.908 158.239 68.855 82.0788 -149.684 247.106 -32.2585 -205.123 262.433 -75.1982 -244.864 254.291 -73.2269 -215.487 236.797 23.2384 -222.646 237.276 29.4108 -213.03 269.639 18.6346 15.7347 102.211 15.1016 
169.876 172.798 168.167 152.495 154.408 176.867 155.158 157.23 69.9247 81.6543 -148.841 246.954 -31.8016 -204.757 262.509 -74.5569 -245.039 254.814 -72.9792 -213.661 236.884 23.827 -222.61 237.088 29.4777 -212.308 269.536 18.8669 14.1385 103.749 15.2926 
169.94 170.964 167.539 153.646 153.82 176.576 154.764 156.322 69.8762 80.9296 -147.756 246.808 -31.262 -204.153 262.331 -74.1338 -244.57 255.001 -72.7058 -212.819 237.244 24.0057 -222.829 237.236 29.6818 -211.584 269.618 19.105 13.0186 104.071 15.2914 
170.511 171.712 168.294 148.804 154.891 176.521 154.933 155.855 71.0254 80.7898 -146.347 246.909 -30.9231 -202.866 260.979 -73.9536 -242.23 253.768 -72.4665 -213.405 235.347 22.2602 -221.841 237.871 29.8505 -210.82 269.762 19.2045 14.5116 99.1944 14.5707 
170.919 171.919 168.15 146.824 155.962 176.409 154.413 155.068 66.3931 80.2596 -144.661 246.92 -30.3648 -200.961 259.495 -73.4929 -239.073 252.655 -72.1257 -214.422 236.737 19.3466 -221.025 238.549 30.2748 -209.977 269.96 19.406 15.405 94.149 13.7049 
170.974 172.382 167.778 145.142 155.924 176.337 154.236 154.143 65.7203 79.5175 -142.883 246.703 -29.8793 -199.413 258.57 -73.3112 -236.634 251.756 -71.7968 -213.452 237.373 19.816 -220.409 238.93 30.3094 -209.054 269.969 19.5123 15.0236 93.9224 13.1594 
171.006 171.049 166.744 151.214 154.991 176.714 153.548 152.843 69.9765 79.1617 -142.046 246.509 -29.5958 -198.458 259.065 -72.9552 -236.334 252.258 -71.4347 -210.459 236.285 22.9586 -219.903 238.647 30.3046 -208.085 269.885 19.6916 13.6703 98.0281 13.6505 
170.77 169.857 165.929 152.746 154.205 176.51 152.748 152.57 69.6922 79.134 -140.779 246.346 -29.2489 -197.466 259.203 -72.5688 -236.055 253.131 -71.33 -209.015 236.602 23.5415 -219.184 238.133 30.4531 -206.954 269.603 19.9301 12.7126 99.7464 14.0175 
170.781 169.413 165.745 150.253 154.68 176.819 152.286 152.521 68.4466 78.7092 -138.954 245.641 -28.8464 -196.042 257.844 -72.4505 -233.872 252.049 -71.2957 -208.403 236.744 23.4779 -218.201 238.071 30.6777 -205.709 269.193 19.949 12.8853 99.157 13.4356 
170.893 169.101 165.279 151.317 155.642 177.027 151.703 152.389 68.0071 78.2703 -137.215 245.368 -28.2043 -194.292 256.494 -71.8788 -231.19 250.889 -70.9542 -207.129 236.817 23.4157 -217.168 238.197 30.9759 -204.61 269.076 20.209 12.503 97.8797 12.7511 
170.975 168.16 164.88 152.268 156.364 177.051 151.063 152.088 68.7423 78.0775 -135.593 245.615 -27.9632 -192.833 255.484 -71.5786 -228.801 249.961 -70.8388 -205.974 236.286 23.5738 -216.214 238.162 30.987 -203.647 269.011 20.3392 12.6087 96.6391 12.0544 
170.815 167.092 164.886 152.369 155.377 177.152 150.188 150.844 71.7282 78.6171 -134.934 246.475 -27.9727 -191.992 255.47 -71.2522 -227.996 250.288 -70.5675 -203.982 235.686 24.7736 -215.423 237.894 30.9847 -202.941 269.285 20.4798 12.111 97.5599 12.0517 
170.257 166.644 165.097 153.536 154.442 177.037 150.044 150.84 74.4854 79.3671 -134.123 247.536 -27.5454 -191.307 256.109 -71.1304 -227.714 250.982 -70.4611 -202.144 235.485 26.4662 -214.827 237.67 31.3331 -202.383 269.704 20.7008 11.6745 99.3967 12.3385 
169.887 166.658 165.735 152.601 153.495 177.151 150.085 151.476 76.1455 80.3591 -133.235 248.342 -27.2684 -190.101 255.621 -70.834 -226.735 250.914 -70.5699 -200.634 235.336 27.0445 -213.901 237.299 31.5088 -201.716 270.082 20.8565 11.2272 99.517 12.424 
170.192 167.797 166.774 150.074 152.708 177.409 150.494 151.388 78.9231 80.6075 -131.868 249.008 -27.1176 -189.156 254.305 -70.7079 -225.478 248.976 -70.3385 -199.166 234.503 27.8831 -213.065 237.578 31.5766 -200.898 270.363 20.8366 11.479 98.3887 12.1487 
170.191 168.971 167.577 147.459 152.314 177.555 151.411 152 81.3425 80.7283 -130.521 249.285 -26.6181 -187.773 253.949 -70.6626 -224.084 247.81 -70.0817 -197.93 233.59 28.7024 -212.043 237.871 31.7931 -199.871 270.653 21.0057 11.9311 97.4398 12.1728 
170.112 170.981 167.761 145.386 150.848 177.803 152.744 152.615 83.4625 80.4297 -129.223 249.554 -25.932 -186.487 254.624 -71.0991 -222.689 247.441 -69.8789 -196.961 232.747 29.5556 -211.532 237.922 31.5792 -198.871 270.96 21.1395 12.4191 97.0618 12.2711 
170.46 172.345 167.907 144.875 149.395 178.391 153.957 153.408 84.1764 80.0692 -127.912 249.098 -24.9403 -185.2 254.973 -71.108 -220.811 247.453 -69.743 -196 233.129 31.3101 -211.068 238.156 31.7587 -197.733 271.2 21.3994 13.0564 98.2836 11.8921 
170.852 173.378 168.3 146.305 148.327 179.006 154.617 154.351 84.4461 79.756 -126.721 248.846 -23.9456 -183.24 254.722 -70.8129 -218.412 247.162 -69.8269 -194.74 233.763 33.0683 -210.312 238.39 32.0489 -196.659 271.346 21.5652 13.7307 99.8838 11.5572 
171.146 174.707 168.401 146.405 147.199 179.468 156.321 155.629 84.7966 79.1027 -125.517 248.69 -23.279 -182.058 255.571 -71.1211 -216.685 247.409 -70.0687 -193.681 233.795 34.0437 -209.542 238.532 32.1336 -195.393 271.35 21.7757 14.1953 100.798 11.2671 
171.291 174.959 168.266 146.193 146.31 179.677 157.358 156.257 84.8098 78.4808 -124.256 248.58 -22.8806 -180.971 257.241 -71.4313 -215.283 247.904 -70.2122 -192.701 233.688 33.9831 -208.67 238.682 31.8702 -194.092 271.467 21.8752 14.2738 100.761 11.3805 
171.217 174.521 167.844 146.615 145.663 179.794 157.659 156.621 84.0017 78.1961 -122.86 247.964 -22.6113 -180.035 258.164 -71.4969 -214.111 248.736 -70.3185 -191.618 233.974 33.8096 -207.638 238.636 31.7022 -192.708 271.337 21.941 14.2631 101.351 11.2819 
171.308 174.08 167.795 147.391 145.324 179.944 157.651 157.955 83.0224 77.8768 -121.235 247.281 -22.015 -178.636 258.358 -71.2126 -212.901 250.134 -70.7897 -190.284 234.455 34.0029 -206.518 238.506 31.873 -191.311 271.086 22.122 14.1225 103.069 10.9806 
171.204 173.771 167.334 147.934 145.209 179.992 157.541 158.953 82.221 77.7064 -119.533 246.523 -21.435 -177.131 259.156 -71.0667 -211.973 251.504 -71.0807 -188.815 234.5 33.9877 -205.094 238.084 31.9835 -189.764 270.657 22.2739 13.9684 104.65 11.2255 
171.367 172.572 167.203 148.403 145.106 179.832 156.665 158.33 81.4946 77.4259 -118.001 245.529 -20.7594 -175.338 258.564 -70.432 -209.695 251.165 -70.7083 -187.608 234.575 34.1598 -203.869 237.948 32.3349 -188.297 270.327 22.4753 13.7254 104.757 10.8677 
171.606 171.931 166.958 149.317 145.398 179.889 156.025 157.745 80.9089 77.315 -116.574 244.823 -20.0938 -172.925 258.03 -70.0698 -207.283 250.601 -70.5587 -186.412 234.839 34.3161 -202.721 237.959 32.5991 -187.05 270.209 22.5361 13.4748 104.856 10.9708 
171.873 172.582 166.932 150.108 145.552 179.677 156.086 158.649 80.1246 77.1386 -115.642 244.816 -19.2877 -171.358 258.506 -69.9389 -205.858 251.773 -71.1936 -185.629 235.793 34.281 -202.049 238.537 32.7404 -186.2 270.712 22.5984 13.1187 105.871 10.8644 
172.172 173.603 167.001 151.146 146.397 179.538 157.356 160.623 79.8268 76.9257 -114.649 245.15 -18.6607 -170.376 259.642 -70.3737 -205.288 253.863 -72.3302 -184.875 236.493 34.2922 -201.355 239.204 32.7098 -185.324 271.25 22.5497 12.8908 107.732 10.8205 
172.225 173.852 167.556 150.483 146.328 179.563 157.954 161.414 79.4735 76.7196 -113.919 244.946 -18.1277 -169.107 260.155 -70.5826 -204.689 254.416 -72.8033 -184.309 237.018 34.2625 -200.74 239.81 32.853 -184.473 271.637 22.6554 12.689 108.098 11.2739 
172.449 173.126 168.566 150.099 146.337 179.626 157.212 160.901 79.466 76.6386 -113.121 244.836 -17.7868 -167.139 259.153 -70.211 -202.348 253.573 -72.625 -183.761 237.783 34.8031 -200.002 240.659 33.1343 -183.658 272.157 22.7361 12.953 107.462 11.0647 
172.766 175.077 170.196 148.975 146.025 179.336 157.514 160.335 79.2873 76.9159 -113.049 245.141 -17.1338 -166.417 258.948 -69.6135 -201.48 252.589 -71.9983 -183.268 238.758 35.0819 -199.047 241.548 33.6123 -183.212 273.079 23.1675 13.0428 106.25 11.0316 
172.716 175.387 169.436 149.751 145.956 179.382 158.051 160.418 79.7689 77.1618 -112.235 245.028 -16.8188 -165.337 259.022 -69.6397 -201.039 252.532 -71.7666 -182.618 238.937 35.889 -198.338 241.909 34.0122 -182.425 273.242 23.2915 13.3786 106.939 11.6041 
172.979 177.726 171.112 148.067 145.18 179.131 159.347 161.023 79.5304 77.1271 -111.789 245.374 -16.4454 -164.465 259.548 -69.7423 -200.443 252.258 -71.885 -182.092 238.835 35.628 -197.316 241.985 34.1343 -181.683 273.487 23.6111 13.405 106.159 11.8894 
173.219 179.815 172.131 146.897 144.474 179.014 160.555 161.026 79.2548 77.0615 -111.175 245.517 -15.7861 -163.163 259.446 -69.7804 -199.045 250.878 -71.7695 -181.561 238.92 35.6985 -196.309 242.083 34.2661 -181.005 273.682 23.8394 13.7058 105.148 12.108 
173.634 179.254 172.698 146.214 143.883 178.75 161.238 160.68 78.6869 76.7796 -110.555 245.116 -15.0461 -161.467 258.556 -69.4577 -196.747 249.414 -71.5299 -181.214 239.324 36.0291 -195.553 242.385 34.4664 -180.226 273.82 24.0862 14.0896 104.235 11.856 
174.008 178.635 171.185 147.021 143.881 178.619 161.153 160.186 79.0392 77.1818 -109.335 244.59 -14.6239 -159.423 257.139 -69.3774 -194.479 247.817 -71.2776 -180.362 239.101 36.5622 -194.794 242.059 34.6672 -179.342 273.549 23.9768 14.1016 103.936 11.8692 
173.96 176.972 170.301 148.021 144.417 178.792 160.186 159.781 79.6395 77.5067 -108.188 244.316 -14.4216 -157.247 256.373 -68.9077 -192.64 246.765 -70.7783 -179.201 238.842 37.1676 -193.715 241.854 34.8587 -178.349 273.331 23.9691 14.2909 103.717 12.2835 
173.947 176.262 169.756 149.103 144.935 178.868 160.616 160.075 79.921 77.7669 -107.256 244.082 -14.2117 -156.081 256.254 -68.8247 -191.717 247.2 -70.6187 -178.142 238.868 37.6744 -192.948 241.8 35.1623 -177.568 273.222 24.118 14.2286 104.422 12.3676 
173.634 175.822 169.976 149.763 145.082 179.345 161.334 161.616 80.6052 78.1882 -106.096 244.362 -13.9269 -155.471 256.394 -68.8512 -191.599 248.638 -71.1103 -177.211 238.816 38.1536 -192.448 241.726 35.1794 -176.93 273.289 24.2904 14.3643 105.726 12.3447 
