173.265 165.371 166.438 147.78 146.767 179.353 153.074 160.453 72.1553 77.2492 39.8044 213.156 49.1145 43.4455 263.507 -0.597855 6.51457 286.597 -21.514 -32.0731 236.819 59.5957 -44.6114 245.056 58.47 -16.6988 267.127 72.9667 11.0393 103.191 21.6851 
173.661 165.046 166.468 148.15 146.577 179.818 152.991 160.528 72.4652 77.2859 39.7895 212.722 49.3199 43.7855 262.544 -0.379588 6.99259 285.538 -21.5184 -31.7845 236.269 60.2076 -44.1679 244.641 58.6259 -16.2978 266.823 73.0752 11.3785 103.518 21.6368 
173.754 164.824 166.562 148.382 146.415 179.963 152.967 160.859 72.7432 77.4238 39.8867 212.238 49.2915 44.2453 262.104 -0.295827 7.50054 285.263 -21.5945 -31.4455 235.766 60.4757 -43.7025 244.228 58.5329 -15.8775 266.48 73.044 11.6666 104.048 21.7014 
173.545 163.847 166.147 148.057 145.536 179.972 152.866 161.645 73.3085 77.5423 40.5518 212.327 49.2507 45.1642 262.666 0.0703239 8.27623 285.517 -21.3736 -30.9408 235.253 61.2677 -43.1225 243.777 58.9114 -15.4462 266.259 73.0264 11.8879 105.359 21.766 
173.407 164.058 166.395 148.05 145.652 179.926 153.349 162.244 73.3128 77.8015 40.9091 212.164 49.4064 45.8041 263.067 0.169394 8.90133 286.646 -21.1621 -30.5775 235.297 61.1692 -42.7351 243.8 58.8378 -14.9554 266.232 73.1891 11.8914 105.874 21.9707 
173.306 163.793 166.534 147.599 145.828 179.823 153.39 162.59 73.1583 78.1169 41.5348 212.002 49.4244 46.4767 263.214 0.235276 9.55318 287.615 -21.0465 -29.9492 235.148 60.5172 -42.211 243.492 58.5681 -14.4184 265.975 73.2129 11.5909 105.831 22.264 
173.062 163.755 166.543 147.438 146.172 179.544 153.25 162.569 72.76 78.1407 42.2435 211.548 49.5266 47.26 263.083 0.376376 10.2975 288 -20.8531 -29.3544 235.08 60.0376 -41.715 243.25 58.5772 -13.8327 265.595 73.2142 11.2204 105.745 22.4908 
173.253 163.358 166.145 147.328 146.713 179.591 152.758 161.911 72.5208 78.1251 42.9315 211.082 49.7831 47.9523 262.521 0.494064 11.1038 287.035 -20.7119 -28.715 234.598 59.3896 -41.0306 242.653 58.6496 -13.2239 265.039 73.1988 10.943 104.783 22.2913 
173.4 162.691 165.605 146.803 147.094 179.644 152.19 160.948 72.4284 78.315 43.507 210.521 49.9946 48.4653 262.084 0.514232 11.6111 285.776 -20.64 -27.9702 234.061 58.6501 -40.3491 241.999 58.611 -12.6118 264.524 73.1925 10.6198 103.426 21.9764 
173.701 162.28 165.384 146.176 147.393 179.827 152.086 160.492 72.4603 78.588 43.7383 209.775 50.1842 49.103 261.551 0.500803 12.2434 284.735 -20.6931 -27.3277 233.597 57.9985 -39.757 241.479 58.6293 -12.0063 264.129 73.229 10.34 102.298 21.771 
173.903 161.794 165.39 145.816 147.493 179.954 152.368 160.782 72.584 78.8431 43.9986 209.234 50.4829 49.9497 261.456 0.705641 13.105 284.82 -20.5498 -26.678 233.326 57.6794 -39.1578 241.246 58.5054 -11.398 263.915 73.4292 10.2047 101.989 21.8037 
174.003 162.008 165.647 145.953 147.528 179.949 152.846 161.123 72.7813 79.0271 44.4353 209.12 50.8049 50.8473 261.534 0.962416 13.9114 285.228 -20.3801 -26.1142 233.362 57.7649 -38.6497 241.367 58.5275 -10.8231 264.032 73.6773 10.0929 102.051 21.9698 
173.985 162.167 165.991 146.352 147.56 179.887 153.426 161.471 72.8148 79.0356 45.2431 209.39 50.8686 51.7325 261.775 1.10362 14.6411 285.81 -20.2923 -25.5702 233.526 58.1307 -38.1164 241.549 58.6143 -10.2243 264.132 73.8085 10.1153 102.575 22.1761 
173.94 162.266 166.162 146.398 147.485 179.834 153.719 161.648 72.4651 78.8515 46.0614 209.426 50.8096 52.4737 261.827 1.09944 15.4554 286.076 -20.1871 -24.9729 233.615 58.1658 -37.5718 241.521 58.6145 -9.63385 263.924 73.8384 10.0823 102.8 22.1587 
174.084 162.361 166.064 146.851 147.717 179.858 153.585 161.478 72.211 78.664 46.9027 209.155 50.7991 53.0691 261.405 0.950785 16.2782 285.536 -20.2187 -24.5563 233.235 57.7948 -36.938 241.079 58.5653 -9.04479 263.376 73.6965 10.3093 102.557 21.9418 
174.309 161.837 165.729 147.305 147.995 179.962 153.399 161.027 72.0455 78.5884 47.6909 208.957 50.8911 53.9436 261.434 1.01502 17.0744 284.703 -20.1594 -23.9117 232.717 57.4827 -36.1285 240.469 58.5391 -8.39349 262.858 73.5882 10.5201 102.186 21.6833 
174.669 161.451 165.389 147.176 148.141 179.742 153.397 160.823 72.1535 78.8389 48.0865 208.598 51.0382 54.8959 261.553 1.17321 17.9465 284.226 -20.1093 -23.325 232.273 56.8281 -35.3834 239.979 58.3172 -7.79323 262.54 73.5626 10.6829 101.487 21.5378 
174.822 161.603 165.254 146.725 148.153 179.635 153.693 160.859 72.312 79.1395 48.5404 208.596 51.3367 55.8108 262.056 1.47203 18.7809 284.596 -19.907 -22.6113 232.37 56.5954 -34.7299 240.072 58.0879 -7.20658 262.702 73.752 10.586 101.183 21.5364 
175.011 162.105 165.557 146.947 147.956 179.428 154.639 161.263 72.7994 79.2307 48.88 208.712 51.6578 56.7658 262.44 1.72744 19.5389 284.978 -19.7931 -22.2332 232.521 57.3312 -34.3426 240.505 58.2323 -6.65927 263.076 74.0449 10.5435 101.842 21.642 
175.074 162.905 165.766 146.958 147.852 179.401 155.117 161.369 73.0288 79.3656 49.4621 208.861 51.7262 57.4505 262.513 1.82301 20.1863 285.227 -19.7061 -21.584 232.599 57.6664 -33.7782 240.645 58.2811 -6.10434 263.245 74.2401 10.4581 101.961 21.6854 
175.218 163.082 165.908 146.627 147.604 179.294 155.549 161.498 73.1596 79.3851 50.0844 208.859 51.7809 58.0572 262.452 1.82086 20.8504 285.094 -19.6406 -20.9867 232.508 57.8125 -33.2649 240.585 58.3745 -5.54399 263.179 74.3956 10.347 101.804 21.5701 
175.671 163.404 165.791 146.725 147.567 178.956 155.543 161.271 73.0968 79.1379 50.5014 208.667 51.8398 58.5096 261.86 1.83399 21.5175 284.221 -19.5023 -20.5353 232.229 57.7575 -32.789 240.349 58.7369 -5.05555 262.885 74.5141 10.3201 101.206 21.3214 
175.648 161.153 165.442 146.307 147.299 179.199 152.635 161.244 73.7725 79.6415 51.1755 208.373 51.8279 58.6999 260.274 2.38467 22.2722 282.955 -19.4053 -19.2443 231 57.449 -31.674 239.098 58.916 -4.54003 262.318 74.4539 10.1744 100.209 21.3742 
175.773 160.904 165.098 145.902 147.069 179.206 151.082 161.193 74.5018 80.1651 51.3812 207.616 51.8928 59.2592 259.006 2.81645 22.9683 281.662 -19.3082 -18.2671 229.668 56.9942 -30.7637 237.85 58.9834 -4.05314 261.639 74.3859 10.1544 99.3533 21.5195 
175.768 160.629 165.007 145.837 146.717 179.174 149.911 161.43 75.1263 80.6873 51.3954 206.652 52.0143 60.1445 257.59 3.46128 23.8578 280.599 -19.1893 -17.308 228.475 56.7102 -29.951 236.734 59.0596 -3.52221 261 74.3876 10.0341 98.8314 21.9481 
175.761 161.226 165.557 145.25 146.24 179.103 149.826 162.51 75.6195 81.2851 51.44 205.803 52.1052 61.168 256.732 3.97565 24.8319 280.709 -19.1248 -16.4298 227.642 56.8954 -29.1599 235.837 59.1387 -3.01837 260.573 74.5201 9.94276 99.3296 22.532 
175.662 161.608 165.733 144.774 145.732 179.12 149.667 163.051 76.1313 81.8937 51.5056 204.814 52.1199 61.964 255.746 4.32077 25.5796 280.602 -19.1151 -15.6878 226.848 56.9763 -28.4777 235.031 58.9839 -2.51812 260.099 74.5954 9.82459 99.6102 23.0488 
175.731 161.696 165.744 144.484 145.382 179.08 149.206 163.048 76.5208 82.4386 51.7335 204.204 52.3015 62.3955 254.714 4.69901 26.3611 280.31 -18.8383 -14.8938 226.439 57.1365 -27.8328 234.57 58.9948 -2.0022 259.926 74.8777 9.612 99.3328 23.2414 
175.653 161.716 165.766 143.957 145.234 179.207 148.979 163.027 76.3623 82.9279 51.9443 203.237 52.4637 62.8311 253.503 4.90882 27.172 279.819 -18.6155 -14.3485 226.213 56.4235 -27.4557 234.049 58.9587 -1.50998 259.47 75.0649 9.43218 98.2449 23.3565 
175.548 161.564 165.719 143.344 145.107 179.283 148.556 162.682 75.9566 83.0636 52.003 201.862 52.628 63.119 251.97 5.21959 27.7161 278.569 -18.3197 -13.876 225.737 56.1994 -27.2467 233.302 59.1417 -1.10095 258.626 75.2844 9.1596 97.4001 23.4002 
175.502 161.516 165.887 143.04 144.837 179.298 148.705 162.677 76.0415 83.0988 51.7735 200.325 52.7336 63.5206 250.513 5.41429 28.0999 277.194 -18.2577 -13.8489 224.872 56.3268 -27.2113 232.532 59.2513 -0.793956 257.721 75.4063 9.07035 97.2334 23.5025 
175.527 161.452 165.898 143.127 144.537 179.248 148.643 162.342 76.173 82.9841 51.7495 198.987 52.8664 63.8777 249.062 5.65602 28.5267 275.662 -18.1362 -13.8462 223.973 56.6572 -27.1415 231.83 59.2967 -0.472352 256.825 75.5456 8.9988 97.1516 23.4887 
175.78 161.535 166.089 143 144.344 178.997 148.922 162.415 76.4231 82.9987 51.5776 197.79 53.1549 64.3846 247.584 5.94582 28.9556 274.138 -18.1561 -13.8288 222.951 56.8848 -27.049 230.996 59.373 -0.202642 255.984 75.673 8.98794 97.0645 23.6237 
175.934 161.854 166.228 142.782 144.163 178.845 149.59 162.556 76.6624 82.9835 51.5691 196.792 53.3115 65.0312 246.89 6.08381 29.2772 273.181 -18.1952 -13.7845 221.985 56.8883 -26.9454 230.205 59.2621 0.0112344 255.152 75.7143 8.98648 97.0997 23.717 
176.096 162.181 166.452 142.525 144.071 178.743 150.243 162.896 76.8878 83.0189 51.6316 195.848 53.4163 65.5392 246.21 6.08794 29.5664 272.566 -18.2892 -13.7067 220.992 56.7738 -26.858 229.348 59.1275 0.182985 254.3 75.7353 8.94958 97.2431 23.8478 
176.033 162.794 166.695 142.376 144.011 178.815 151.272 163.265 77.1147 83.0838 51.838 195.314 53.5453 65.8977 245.983 5.83571 29.8216 272.176 -18.4079 -13.7121 220.356 56.8079 -26.8004 228.844 59.0436 0.344275 253.777 75.7741 8.95488 97.4432 23.6946 
175.972 163.241 166.941 142.315 144.04 178.873 152.113 163.604 77.3642 83.2077 52.0558 194.84 53.7268 66.2093 245.747 5.61829 30.0631 271.842 -18.5426 -13.6943 219.81 56.9128 -26.6912 228.426 59.0342 0.531952 253.377 75.833 8.99934 97.6788 23.5711 
175.964 163.545 166.985 142.224 144.193 178.962 152.957 163.559 77.6864 83.3251 52.6754 193.958 53.8771 66.9873 245.391 5.44335 30.641 270.754 -18.6209 -13.4503 218.683 56.7739 -26.3739 227.4 59.023 0.935929 252.42 75.8261 9.05137 97.5391 23.2656 
175.947 163.388 166.889 142.042 144.407 179.076 153.049 163.464 77.4665 83.1928 53.0076 193.698 53.939 67.2352 245.158 5.33163 30.9499 270.291 -18.6621 -13.3792 218.572 56.6343 -26.3207 227.218 59.143 1.10569 252.143 75.7524 9.06019 97.391 23.1028 
175.987 163.266 166.758 141.991 144.647 179.139 153.089 163.375 77.3797 83.1608 53.3679 193.389 54.0153 67.4469 244.851 5.20245 31.1524 269.705 -18.769 -13.2994 218.25 56.5446 -26.1954 226.821 59.2895 1.26749 251.798 75.6716 9.17101 97.2719 22.9781 
176.078 163.27 166.829 142.308 144.681 179.095 153.225 163.427 77.3981 83.0096 53.5847 193.015 53.9705 67.6447 244.426 5.07975 31.3406 269.173 -18.8892 -13.3488 217.904 57.0152 -26.0834 226.56 59.4473 1.43429 251.482 75.6159 9.29284 97.8044 22.9288 
176.118 163.354 166.839 142.539 144.661 179.033 153.455 163.286 77.3787 82.8551 53.7361 192.726 53.8897 67.8121 244.212 4.88504 31.5356 268.578 -18.9922 -13.3748 217.692 57.2872 -26.0269 226.418 59.4914 1.58566 251.229 75.555 9.33257 97.9891 22.7045 
176.131 163.578 166.938 143.102 144.582 178.951 153.743 163.37 77.2639 82.5589 54.0135 192.398 53.7328 68.1154 244.036 4.72992 31.8147 268.216 -19.1145 -13.3609 217.425 57.8466 -25.878 226.24 59.5667 1.79246 250.859 75.4435 9.44223 98.7788 22.6116 
176.087 163.728 167.012 143.101 144.452 178.94 153.983 163.304 77.3594 82.5025 54.3401 192.069 53.6283 68.3866 243.743 4.55688 32.0762 267.465 -19.2889 -13.2688 216.946 57.9465 -25.6606 225.798 59.4972 2.00345 250.413 75.2895 9.58061 98.8822 22.4225 
175.939 164.082 167.036 143.497 144.375 178.935 154.258 163.114 77.4244 82.3677 54.6654 191.964 53.5769 68.5875 243.899 4.42677 32.1646 266.86 -19.3463 -13.2614 216.688 58.4736 -25.4782 225.583 59.5808 2.1713 250.178 75.2174 9.78714 99.3018 22.1696 
176.076 164.185 166.964 143.658 144.273 178.771 154.261 162.774 77.6255 82.3461 54.9423 191.853 53.5099 68.7247 243.891 4.31827 32.3272 266.263 -19.3958 -13.0563 216.352 58.6098 -25.2279 225.319 59.4866 2.35265 249.975 75.1446 9.85396 99.2249 21.913 
176.186 164.294 166.864 143.641 144.221 178.612 154.308 162.567 77.5948 82.3092 55.186 191.724 53.5051 68.9114 243.836 4.26071 32.5345 265.754 -19.4413 -12.8384 216.11 58.5587 -25.0479 225.038 59.386 2.50359 249.736 75.0594 9.82446 99.0675 21.7309 
176.264 164.396 166.806 143.731 144.188 178.523 154.356 162.353 77.7209 82.2827 55.3254 191.531 53.5041 69.0586 243.724 4.22152 32.6059 265.159 -19.5002 -12.7799 215.797 58.6558 -24.9245 224.781 59.3558 2.61955 249.506 74.9857 9.8989 99.0402 21.6228 
176.427 164.337 166.626 143.737 144.218 178.362 154.234 162.073 77.8562 82.2737 55.4154 191.437 53.4968 69.1366 243.608 4.18939 32.7185 264.656 -19.5367 -12.6662 215.546 58.5403 -24.769 224.579 59.2976 2.7142 249.37 74.8971 9.95243 98.7862 21.4851 
176.604 164.283 166.523 143.787 144.131 178.203 154.176 162.003 77.9594 82.2107 55.4118 191.264 53.4315 69.1382 243.3 4.12019 32.7282 264.153 -19.6485 -12.6031 215.193 58.6664 -24.6615 224.284 59.2479 2.74536 249.14 74.7974 10.0368 98.8813 21.4411 
176.818 164.158 166.437 143.779 144.144 178.029 154.051 161.895 78.1785 82.2537 55.2867 191.043 53.399 69.0902 242.816 4.03421 32.7305 263.584 -19.7742 -12.6076 214.863 58.614 -24.5976 224.052 59.1823 2.79773 248.984 74.7032 10.101 98.7393 21.4061 
176.939 164.226 166.495 143.684 143.991 177.915 154.255 162.073 78.4144 82.2914 55.1185 190.757 53.2929 69.1573 242.537 3.88287 32.7184 263.322 -19.9757 -12.6909 214.521 58.5516 -24.5803 223.833 59.0081 2.83814 248.792 74.5952 10.2003 98.8367 21.4659 
176.904 164.26 166.505 143.745 143.993 177.964 154.27 162.007 78.6066 82.3573 55.1824 190.608 53.1654 69.1513 242.376 3.67839 32.6317 262.94 -20.1787 -12.6778 214.271 58.5385 -24.5325 223.646 58.9084 2.89216 248.669 74.4453 10.2332 98.8153 21.4424 
177.005 164.266 166.392 143.697 143.863 177.916 154.371 161.91 79.0702 82.4768 55.3198 190.406 52.8756 69.3806 242.398 3.32923 32.6948 262.66 -20.5402 -12.5151 213.761 58.2519 -24.2895 223.311 58.4796 3.07737 248.49 74.1473 10.3265 98.7848 21.4409 
176.953 164.293 166.297 143.546 143.769 178.013 154.409 161.831 79.4227 82.762 55.5898 190.37 52.6994 69.5395 242.523 3.08025 32.8062 262.718 -20.7777 -12.3125 213.446 57.8278 -24.0158 223.038 58.0381 3.2261 248.419 73.9511 10.4184 98.5897 21.421 
176.881 164.222 166.234 143.256 143.774 178.144 154.42 161.905 79.6999 83.0733 55.8132 190.304 52.5377 69.8112 242.58 2.92254 32.9331 262.892 -21.0251 -12.0989 213.114 57.1008 -23.7999 222.712 57.5816 3.36135 248.284 73.7253 10.3887 98.2466 21.5671 
176.807 164.156 166.189 142.968 143.833 178.286 154.454 161.854 79.864 83.3733 55.9686 190.306 52.3507 69.9391 242.423 2.64248 32.9639 262.737 -21.3348 -11.9343 212.967 56.536 -23.7003 222.51 57.3039 3.49542 248.254 73.5168 10.262 97.7793 21.6195 
176.81 164.24 166.166 142.815 143.774 178.343 154.665 161.887 79.9721 83.502 56.1546 190.286 52.1755 70.2349 242.323 2.43283 33.1779 262.531 -21.6069 -11.7533 212.8 56.3707 -23.516 222.321 57.0886 3.65526 248.187 73.3256 10.2636 97.7427 21.6405 
176.746 164.123 166.05 142.607 143.714 178.46 154.62 161.931 80.1194 83.7398 56.3248 190.172 51.9584 70.4941 242.101 2.24925 33.4555 262.565 -21.8653 -11.4993 212.568 56.0025 -23.2657 222.041 56.7288 3.81458 248.094 73.1018 10.2707 97.679 21.7309 
176.737 163.969 165.97 142.4 143.768 178.616 154.364 161.863 80.2423 83.9782 56.7202 190.286 51.7555 70.7631 241.944 2.17801 33.7531 262.69 -22.0611 -11.147 212.496 55.611 -22.9314 221.895 56.4621 4.00241 248.128 72.9114 10.2743 97.4466 21.8547 
176.752 163.862 165.855 142.14 143.873 178.718 153.99 161.737 80.2252 84.2201 57.0934 190.264 51.571 70.8179 241.515 2.02215 33.9708 262.567 -22.2922 -10.7553 212.317 55.104 -22.6226 221.574 56.1631 4.16526 247.984 72.6786 10.2135 97.0813 21.8941 
176.856 163.702 165.72 141.967 144.081 178.79 153.507 161.516 80.3307 84.5352 57.499 190.339 51.3923 70.8362 241.156 1.86749 34.1107 262.378 -22.537 -10.2843 212.12 54.6964 -22.2324 221.229 55.9767 4.35239 247.955 72.4574 10.1733 96.6774 21.9268 
177.089 163.645 165.697 141.993 144.399 178.688 153.292 161.485 80.3995 84.7559 57.7954 190.366 51.2175 71.0005 240.902 1.67994 34.2684 262.225 -22.8121 -9.87397 211.894 54.2563 -21.877 220.907 55.9285 4.55535 247.86 72.2342 10.1677 96.3586 21.9968 
177.338 163.548 165.656 142.756 144.735 178.576 152.983 161.25 80.7485 84.8541 58.2187 190.548 51.1061 71.1789 240.796 1.50561 34.5001 261.942 -23.0114 -9.56537 211.606 53.9443 -21.5095 220.777 55.9118 4.7765 247.87 72.0175 10.2864 96.0235 21.9269 
177.556 163.522 165.67 143.12 145.058 178.453 152.792 161.102 81.0833 84.8966 58.691 190.789 51.0034 71.351 240.848 1.23492 34.6549 261.686 -23.2849 -9.20431 211.351 53.5395 -21.1745 220.679 55.8744 5.01662 247.888 71.7642 10.3305 95.6281 21.8361 
177.76 163.495 165.609 143.396 145.341 178.333 152.666 160.898 81.2093 84.9158 59.1045 190.92 50.9287 71.5663 240.881 0.980035 34.7749 261.224 -23.5491 -8.81323 211.181 53.2036 -20.8434 220.569 55.8627 5.28158 247.864 71.4929 10.3573 95.2352 21.7412 
177.802 164.109 165.789 143.462 145.476 178.215 153.213 161.1 80.8796 84.808 59.397 191.024 50.8487 71.8079 241.151 0.617527 34.7333 260.948 -23.8642 -8.70182 211.492 53.7259 -20.6936 220.74 56.091 5.54202 247.99 71.3046 10.3475 95.7864 21.6999 
177.896 164.559 165.95 143.572 145.528 178.036 153.621 161.259 80.4867 84.5969 59.7053 191.079 50.7072 72.0672 241.414 0.283342 34.8068 260.798 -24.1396 -8.50439 211.801 54.1217 -20.5146 220.913 56.2473 5.84979 248.061 71.1284 10.2929 96.288 21.6399 
177.975 165.057 166.106 143.673 145.566 177.89 154.219 161.409 80.314 84.4803 60.0086 191.217 50.7431 72.415 241.934 0.0636492 34.8759 260.586 -24.3296 -8.32596 211.994 54.3267 -20.3282 221.036 56.426 6.10641 248.179 71.0346 10.3089 96.4384 21.5546 
178.148 165.572 166.295 144.237 145.541 177.66 154.863 161.587 80.2884 84.3164 60.2425 191.244 50.7318 72.7584 242.277 -0.184566 34.9164 260.238 -24.5465 -8.33157 211.957 54.6808 -20.1417 221.061 56.5839 6.3626 248.163 70.9383 10.4896 96.8174 21.5118 
178.22 166.005 166.403 144.303 145.511 177.507 155.379 161.763 80.1739 84.2209 60.415 191.158 50.697 72.9433 242.329 -0.437763 34.8301 259.64 -24.7701 -8.26558 211.749 55.0931 -19.9851 220.777 56.7495 6.55274 247.945 70.8078 10.5751 97.2515 21.4905 
178.324 166.31 166.294 145.019 145.517 177.403 155.797 161.64 80.6912 84.2523 60.7562 191.288 50.7603 73.2443 242.605 -0.610222 34.7901 258.95 -24.9388 -8.2063 211.085 55.371 -19.6834 220.337 56.7588 6.72624 247.737 70.7085 10.8345 97.4085 21.4634 
178.49 166.555 166.208 145.472 145.565 177.281 156.147 161.607 81.3473 84.3491 60.9898 191.434 50.8569 73.4743 242.723 -0.730164 34.8268 258.389 -25.0554 -8.14658 210.407 55.7484 -19.3759 219.922 56.8277 6.88467 247.585 70.6907 11.096 97.6502 21.4087 
178.599 166.691 166.001 145.472 145.734 177.256 156.175 161.275 81.8774 84.5607 61.3091 191.598 50.8937 73.5911 242.822 -0.903842 34.8301 257.729 -25.1852 -7.97801 209.761 55.884 -19.0114 219.388 56.7744 7.03377 247.398 70.5952 11.3378 97.6175 21.2924 
178.757 166.782 165.838 145.379 145.887 177.217 156.144 160.993 82.2113 84.7433 61.6386 191.705 50.9414 73.7211 242.917 -1.0089 34.9248 257.322 -25.269 -7.77731 209.243 55.821 -18.6725 218.921 56.6428 7.17278 247.204 70.5366 11.5257 97.4878 21.191 
178.993 166.825 165.559 145.16 146.142 177.073 155.957 160.683 82.4921 85.0957 61.9327 191.887 51.0708 73.7215 242.957 -1.06872 34.9188 257.022 -25.3067 -7.48056 208.676 55.6595 -18.2644 218.298 56.4972 7.26791 246.995 70.5212 11.7174 97.2824 21.1028 
179.684 166.202 163.59 143.162 145.962 177.109 155.359 160.364 82.1268 85.3151 62.7063 192.41 51.6266 73.8999 242.551 -0.673153 34.4936 256.077 -25.3648 -7.00911 208.301 55.4691 -17.8257 217.483 57.0688 7.28553 246.744 70.5632 11.8935 96.6428 21.6256 
179.948 166.084 163.673 142.931 146.434 176.98 154.939 159.827 82.5079 86.335 63.0733 192.583 51.8773 73.8447 242.375 -0.673445 34.5509 255.406 -25.3955 -6.42371 207.422 54.9203 -17.079 216.278 56.6752 7.40609 246.434 70.5972 12.1757 95.7413 21.4217 
179.033 166.448 164.266 142.533 147.39 176.367 154.472 159.611 83.3244 88.2086 63.8967 193.016 52.5752 73.4526 241.476 -0.790079 34.1135 253.165 -25.7621 -4.99673 205.136 54.5832 -15.5317 213.32 56.7254 7.5817 245.544 70.673 12.5607 94.3581 21.1672 
178.136 164.972 162.561 140.615 147.893 176.278 153.046 158.895 84.6948 89.6282 64.8183 193.722 53.899 72.7689 239.358 -0.420849 32.9394 250.136 -25.9534 -4.09707 202.997 53.353 -14.8094 211.097 57.8731 7.42725 245.054 70.8228 13.1033 91.3505 21.5698 
177.267 162.369 160.143 139.637 148.309 176.029 151.106 158.345 87.0237 91.3949 65.4628 194.31 55.1075 71.8249 236.49 0.0217195 31.5857 246.793 -26.1317 -3.04821 200.303 51.2601 -14.2905 208.669 58.7918 7.19796 244.48 71.0071 14.0354 87.2042 22.0199 
176.541 159.99 157.812 140.639 148.7 175.777 149.427 158.025 88.8942 93.1675 65.9222 194.637 56.1831 70.7737 233.537 0.384833 30.0577 243.291 -26.2396 -2.13902 197.568 48.8987 -13.8501 206.079 59.5813 6.88118 243.672 71.173 15.6342 82.9664 22.4607 
176.063 158.481 156.313 141.142 148.861 175.595 148.519 158.175 91.6777 94.8471 66.3936 195.209 57.1605 69.8499 230.889 0.65273 28.5587 239.985 -26.3943 -1.49525 194.937 45.1943 -13.4323 203.757 60.3229 6.59561 243.064 71.383 18.7938 77.4606 22.893 
175.731 157.498 155.482 142.807 148.966 175.464 147.932 157.965 95.3889 96.2872 67.0013 195.853 57.794 69.0491 228.9 0.634839 27.4843 237.044 -26.5084 -0.996744 192.5 40.3091 -12.9383 201.685 60.6283 6.39226 242.483 71.4452 22.966 71.2533 22.9387 
175.537 156.822 155.049 143.204 148.952 175.395 147.705 157.789 99.3619 97.5706 67.4504 196.136 58.2146 68.2997 227.094 0.438561 26.4222 234.17 -26.655 -0.674825 190.612 34.9922 -12.5587 199.597 60.8922 6.23894 241.744 71.4315 27.5992 64.9779 22.9334 
175.474 156.411 154.79 143.842 149.008 175.369 147.582 157.414 104.112 98.6576 67.8667 196.472 58.4199 67.6017 225.827 0.0657091 25.368 231.632 -26.7771 -0.468302 189.183 29.4184 -12.2189 197.739 60.9501 6.09655 241.11 71.3549 32.1928 58.8171 22.8826 
175.446 155.966 154.575 144.029 149.068 175.346 147.311 156.692 108.826 99.4585 68.2467 196.722 58.6672 67.0247 224.851 -0.217823 24.5951 229.293 -26.6548 -0.202128 188.485 24.2371 -11.9144 196.13 61.0165 6.01644 240.524 71.3326 36.4713 53.047 22.7091 
175.525 155.764 154.731 142.622 148.977 175.124 147.062 155.996 113.43 100.026 68.6984 197.04 58.7741 66.5526 224.348 -0.620184 24.1391 227.626 -26.5631 0.00370514 188.632 19.7064 -11.6422 195.027 60.9718 5.98086 240.137 71.3086 40.2034 48.0927 22.3699 
175.746 155.732 154.942 144.045 148.839 175.224 147.046 155.373 117.02 100.212 69.0948 197.336 58.799 66.0981 224.156 -1.10575 23.6764 226.397 -26.5588 0.327557 188.605 16.7093 -11.4798 194.251 60.9582 5.94642 239.86 71.2158 42.5523 44.8876 22.0939 
175.974 155.649 155.131 146.028 148.72 175.324 146.956 154.767 117.919 100.016 69.4254 197.52 58.753 65.7046 223.976 -1.54045 23.3213 225.395 -26.5612 0.945491 188.351 16.0862 -11.4091 193.795 61.1003 5.92023 239.615 71.0742 43.1071 43.8232 21.8608 
