175.294 167.81 160.368 144.926 142.225 166.606 153.597 154.394 74.9991 73.8887 -131.749 280.838 7.38446 -163.21 320.477 -40.0539 -193.459 327.596 -47.1731 -196.852 279.909 45.696 -212.375 285.466 44.9457 -189.866 314.789 49.0851 12.9105 104.474 8.85516 
175.337 167.523 160.157 145.392 143.367 166.616 153.605 154.718 74.8815 73.7354 -132.309 280.88 7.30335 -163.581 321.112 -40.1805 -194.351 328.149 -47.1406 -197.215 279.965 45.9744 -212.35 285.691 44.6976 -190.204 314.751 49.1093 13.9906 105.297 9.11051 
175.555 167.587 160.21 145.828 144.495 166.681 154.034 155.356 74.966 73.8347 -132.895 281.151 7.24713 -164.155 322.037 -40.348 -195.434 328.808 -47.1512 -197.654 279.919 46.3306 -212.406 285.792 44.7148 -190.63 314.726 49.1824 14.7889 106.184 9.28398 
175.677 167.769 160.633 146.257 145.861 166.594 154.593 156.36 75.1525 73.981 -133.454 280.97 7.24354 -164.571 322.457 -40.5041 -196.365 329.584 -47.2249 -197.985 279.638 46.7766 -212.405 285.67 44.9298 -190.869 314.533 49.3097 15.3591 107.331 9.65987 
175.48 167.707 160.968 146.617 145.972 166.246 154.794 156.918 75.3978 73.6314 -134.264 281.006 7.21562 -165.191 322.559 -40.621 -196.769 330.045 -47.306 -198.363 279.666 47.2847 -212.661 286.08 44.964 -191.212 314.647 49.4111 16.0398 108.072 9.55591 
174.92 167.629 161.126 146.569 146.192 165.76 154.736 157.185 75.484 73.5419 -135.051 280.937 7.35878 -165.75 322.072 -40.7504 -196.879 330.249 -47.6055 -198.973 279.938 47.3135 -213.016 286.59 44.6465 -191.668 315.008 49.3515 16.6266 108.2 9.47082 
174.632 167.42 161.225 146.725 146.826 165.453 154.38 157.335 75.3707 73.1787 -135.652 280.937 7.51188 -166.309 321.482 -40.6416 -197.063 330.416 -47.6737 -199.61 280.341 47.7349 -213.558 287.126 44.8034 -192.098 315.275 49.3983 16.9534 108.661 9.51934 
174.285 167.551 161.347 146.917 147.302 165.063 154.408 157.539 75.2804 72.7726 -136.377 280.928 7.66354 -166.819 321.071 -40.6143 -197.218 330.4 -47.7001 -200.149 280.673 48.2137 -214.148 287.521 45.066 -192.526 315.5 49.457 17.082 109.096 9.47868 
174.016 167.294 161.02 146.509 147.216 164.833 153.753 156.873 75.3082 72.7201 -136.915 281.216 7.4825 -167.255 320.443 -40.5837 -197.286 329.745 -47.7718 -200.56 280.825 48.0075 -214.692 287.599 44.9436 -192.962 315.739 49.3785 16.8426 108.254 9.34613 
174.002 167.129 160.477 146.429 147.709 164.941 152.863 156.209 75.113 72.6453 -137.178 281.522 7.26938 -167.581 320.351 -40.3205 -197.758 329.567 -47.579 -200.654 281.01 47.7667 -214.997 287.584 44.9916 -193.326 315.852 49.3639 16.4251 107.737 9.51363 
174.183 166.877 160.126 146.404 148.444 165.243 152.017 155.728 74.9919 72.7796 -137.397 282.109 7.00314 -168.085 320.527 -40.0283 -198.475 329.658 -47.3518 -200.712 281.247 47.547 -215.235 287.562 45.047 -193.744 316.039 49.3651 16.0331 107.367 9.71174 
174.277 166.857 159.745 146.28 148.952 165.471 151.69 155.335 74.8324 72.9348 -137.376 282.198 7.06472 -168.199 320.776 -39.802 -198.82 329.354 -47.149 -200.788 281.334 47.4151 -215.566 287.297 45.3525 -194.058 316.043 49.3313 15.2491 107.099 9.68402 
174.193 166.545 159.663 146.278 149.7 165.453 151.418 155.437 74.3972 73.0803 -137.513 282.137 7.21877 -168.113 321.007 -39.5685 -199.225 329.557 -47.0565 -200.965 281.49 47.1995 -215.783 287.11 45.5632 -194.349 316 49.3553 14.7501 107.117 10.0342 
174.193 166.648 159.669 146.421 150.172 165.556 151.194 155.59 73.9737 73.0296 -137.602 282.368 7.48536 -168.249 321.494 -39.2464 -199.792 330.075 -46.7787 -201.231 281.889 47.2247 -216.195 287.243 45.9045 -194.745 316.174 49.5471 14.34 107.243 10.3645 
173.958 167.118 159.413 146.492 150.28 165.297 151.512 155.506 73.7363 72.8623 -137.85 282.611 7.78781 -168.775 322.266 -39.1265 -200.273 330.413 -46.55 -201.706 282.318 47.3755 -216.793 287.594 46.1776 -195.125 316.444 49.7075 14.1056 107.311 10.1004 
173.842 167.797 159.216 146.531 149.438 165.203 152.2 155.532 73.6044 72.4479 -138.258 282.986 7.82529 -169.517 323.601 -39.221 -200.959 331.13 -46.3825 -202.27 282.689 47.3979 -217.511 288.126 46.2466 -195.568 316.724 49.8433 14.0553 107.407 9.71301 
173.521 167.857 159.235 146.306 148.839 164.806 152.578 155.596 73.6842 72.4459 -138.824 282.989 7.86327 -170.056 324.016 -39.2236 -201.439 331.149 -46.3471 -202.633 282.75 47.4508 -217.941 288.199 46.4776 -195.84 316.809 49.9494 13.7504 107.243 9.47079 
173.272 167.713 158.965 146.332 147.822 164.612 152.715 155.501 73.6407 72.155 -139.233 283.109 8.08449 -170.499 324.423 -39.2244 -201.879 331.336 -46.2173 -203.166 282.967 47.4367 -218.419 288.681 46.362 -196.22 317.056 50.1157 14.0665 106.968 9.35225 
173.095 167.503 158.605 146.554 147.095 164.507 152.231 155.373 73.3706 72.049 -139.545 283.176 8.41791 -170.904 324.379 -39.03 -202.176 331.785 -46.0255 -203.701 283.398 47.4146 -218.784 289.206 46.2059 -196.582 317.364 50.2258 14.453 106.991 9.43051 
172.585 167.38 158.407 146.654 147.229 163.997 151.668 154.927 73.3404 72.1322 -140.27 283.228 8.68479 -171.448 323.852 -38.755 -202.213 331.751 -45.7826 -204.202 283.722 47.5302 -219.255 289.494 46.3677 -196.972 317.699 50.4357 14.372 106.567 9.30342 
172.313 166.957 157.792 146.877 147.137 163.819 150.973 154.261 73.2591 72.2788 -140.745 283.401 8.73182 -171.932 323.634 -38.5829 -202.469 331.747 -45.4991 -204.567 283.935 47.46 -219.576 289.655 46.4033 -197.308 317.914 50.5748 14.3357 106.076 9.27116 
172.026 166.861 157.634 147.056 146.952 163.476 151.215 154.06 73.4058 72.1764 -141.327 283.352 8.79965 -172.643 323.689 -38.5718 -202.71 331.934 -45.304 -205.051 283.914 47.7436 -220.07 289.792 46.6654 -197.629 317.96 50.7901 14.3488 106.112 8.96194 
171.753 166.619 157.57 147.16 146.421 163.131 151.547 153.955 73.441 71.5396 -141.792 283.226 9.20455 -173.392 323.43 -38.4226 -202.905 332.037 -45.0089 -205.745 284.035 48.2286 -220.736 290.36 46.8464 -197.999 318.095 51.1666 14.8357 106.164 8.69997 
171.749 166.576 157.936 147.306 145.55 163.074 151.878 153.92 73.4439 71.0072 -142.236 283.102 9.70474 -173.89 322.992 -38.1271 -202.903 331.792 -44.6853 -206.47 284.259 48.9889 -221.382 290.953 47.1807 -198.376 318.237 51.571 15.4041 106.287 8.43903 
171.824 166.195 159.212 147.529 143.852 163.005 152.494 155.024 73.5156 70.3685 -142.922 283.143 10.2246 -174.535 322.31 -37.8546 -203.226 332.322 -44.7073 -207.342 284.61 49.9283 -222.233 291.765 47.5487 -198.93 318.51 51.9515 16.0488 107.249 8.79826 
171.956 165.75 160.156 147.605 142.557 163.02 153.298 156.001 73.5855 69.8958 -143.537 283.146 10.8112 -175.174 321.931 -37.616 -203.553 332.709 -44.6791 -208.234 284.971 50.865 -223.058 292.505 48.0618 -199.511 318.777 52.3705 16.504 108.081 8.93884 
172.08 165.495 160.5 147.723 141.616 162.965 154.096 156.667 73.5801 68.9878 -144.283 283.507 11.1152 -176.429 322.267 -37.3347 -204.177 333.641 -44.3 -209.117 285.315 51.7054 -224.148 293.331 48.6072 -200.144 318.962 52.8747 16.7352 108.982 8.77875 
172.137 165.748 160.769 147.849 140.532 162.902 155.29 157.599 73.5303 67.153 -144.891 283.673 11.6132 -177.747 323.082 -37.129 -204.974 334.968 -43.8388 -210.123 285.563 52.4829 -225.651 294.5 49.0352 -200.794 319.05 53.4282 17.0122 110.128 8.55895 
172.51 165.763 160.403 147.702 139.16 163.304 155.265 157.761 73.2995 65.3904 -145.402 284.159 11.6325 -178.403 323.482 -36.8156 -205.613 335.551 -43.3308 -210.875 285.76 52.7313 -226.886 295.456 48.9459 -201.472 319.041 53.7586 17.5153 110.317 8.60319 
173.143 166.093 159.876 147.619 139.701 163.858 155.445 157.63 73.2447 62.4821 -145.684 284.695 11.5314 -179.025 324.175 -36.6578 -206.496 336.057 -42.8571 -211.768 285.922 52.9043 -228.38 297.157 48.5944 -202.146 319.144 54.123 18.6885 110.125 8.50696 
173.877 167.212 160.605 147.736 138.262 164.464 156.352 158.269 73.4462 59.6929 -146.226 285.513 11.3609 -179.852 325.256 -36.8897 -207.856 336.936 -42.8725 -212.847 286.24 53.3333 -230.342 298.929 48.0087 -203.077 319.482 54.3413 20.2779 110.592 8.50553 
173.949 167.727 160.918 147.888 134.991 164.34 157.066 158.929 73.2325 57.4607 -147.323 286.193 11.202 -180.928 326.216 -36.9738 -209.114 337.883 -42.8331 -213.965 286.717 53.8038 -231.857 300.469 47.7367 -203.903 319.672 54.5237 21.7063 111.35 8.41081 
173.683 167.66 160.814 148.224 136.451 163.858 156.974 158.651 72.8717 58.0044 -148.544 286.63 11.0881 -182.094 326.356 -36.9311 -209.996 337.742 -42.7147 -214.858 287.162 54.1835 -232.58 300.381 48.2848 -204.702 319.773 54.5717 21.2508 111.55 8.07006 
173.424 167.317 160.597 148.506 136.971 163.557 155.694 157.495 72.5516 57.7955 -149.619 287.307 10.9378 -183.45 326.17 -36.6412 -211.115 337.391 -42.2476 -215.702 287.58 54.2031 -233.738 300.631 48.2883 -205.688 319.994 54.631 21.3775 111.023 7.96365 
173.091 167.028 160.383 148.677 135.355 163.3 154.569 156.499 72.2386 55.6474 -150.512 288.1 10.8966 -184.896 326.373 -36.0042 -212.458 337.693 -41.4707 -216.536 287.82 54.1992 -235.308 301.699 47.9873 -206.694 320.152 54.9969 22.559 110.486 8.09015 
173.077 166.514 160.089 148.666 134.485 163.361 153.911 155.902 72.4783 53.9534 -151.464 288.917 10.9691 -186.633 326.811 -35.4414 -214.035 338.02 -40.736 -217.575 287.818 54.4476 -237.03 302.531 48.2026 -208 320.356 55.4353 23.1073 110.074 8.06538 
173.308 166.77 159.592 148.512 132.217 163.664 153.958 155.77 72.355 52.2066 -152.3 289.747 10.9641 -188.102 328.084 -35.1929 -215.891 338.809 -40.2385 -218.677 287.875 54.3237 -238.607 303.356 48.2121 -209.287 320.503 55.7862 23.7613 109.787 8.00797 
173.733 166.995 159.727 148.168 131.751 163.857 154.653 155.947 72.7112 49.5418 -153.337 289.844 11.3742 -189.428 328.668 -35.0438 -217.335 339.012 -40.0776 -220.209 287.818 54.6353 -241.045 304.702 48.231 -210.564 320.697 56.1749 24.7834 109.626 7.76525 
173.448 166.787 160.006 148.132 131.075 163.487 155.033 155.368 72.5315 48.5982 -154.346 289.526 11.3813 -191.033 328.441 -35.269 -218.886 338.44 -40.1882 -221.468 287.587 54.5975 -242.294 304.905 48.3334 -211.564 320.45 56.2108 24.9581 109.342 7.47843 
173.004 166.21 159.272 148.619 127.182 163.289 154.35 154.114 72.3745 42.6791 -155.139 289.463 11.3965 -192.566 328.505 -34.8829 -220.582 338.287 -39.6006 -222.582 287.311 54.4656 -244.791 307.547 46.8476 -212.567 320.24 56.5443 30.9355 108.603 7.50437 
172.968 165.389 157.236 149.522 123.113 163.391 152.657 152.034 72.1133 40.7393 -156.14 290.375 11.0051 -193.768 328.874 -34.2939 -222.056 338.177 -38.7102 -223.342 287.351 53.9148 -246.372 308.691 45.0951 -213.693 320.386 56.7404 36.8009 107.229 7.70094 
173.234 165.841 155.471 150.813 113.244 163.259 152.053 150.135 72.0473 40.6873 -159.116 291.915 10.72 -196.11 330.162 -33.8526 -224.776 337.884 -37.9549 -225.619 287.55 53.4698 -249.73 309.609 43.1021 -216.4 320.965 57.1844 43.2903 105.306 7.44603 
173.284 166.924 155.851 150.258 109.368 162.746 152.915 150.296 72.0497 38.6781 -160.795 292.274 10.468 -196.742 330.482 -34.0414 -225.481 337.334 -38.1406 -226.319 287.632 53.4181 -250.791 310.257 43.3349 -217.343 321.179 57.2711 43.7343 104.593 7.21949 
173.049 167.561 157.527 149.064 121.823 162.148 153.584 150.647 72.4774 42.3186 -162.643 292.187 10.4731 -197.92 330.035 -34.0567 -225.912 336.155 -38.0158 -227.104 287.31 53.7555 -249.739 307.437 45.8633 -218.313 321.132 57.5307 33.8782 103.887 6.46916 
172.806 168.104 159.444 148.073 129.817 162.053 154.31 151.547 72.9441 43.7161 -163.728 291.672 10.7059 -199.04 329.681 -34.0866 -226.501 335.034 -37.9605 -227.752 286.595 54.2061 -249.206 305.911 48.397 -219.132 320.692 57.7801 27.6074 103.733 5.79384 
172.752 167.834 161.688 147.914 135.227 162.279 153.839 151.058 73.1425 42.3935 -164.466 291.115 10.799 -199.924 329.162 -33.6021 -227.277 333.6 -37.5585 -228.334 285.858 54.579 -250.316 305.386 49.9845 -219.866 320.133 58.2166 24.9695 102.87 5.47043 
172.674 167.719 163.475 148.01 133.347 162.252 153.031 149.79 72.9434 41.8627 -165.269 290.594 10.3738 -200.384 329.636 -33.1555 -227.876 332.651 -36.7879 -228.509 285.236 54.2923 -251.269 304.663 49.9117 -220.063 319.407 58.4721 25.278 101.716 5.27213 
172.535 167.528 164.43 148.071 128.876 162.178 152.619 148.846 72.7876 40.0107 -165.955 289.585 10.2108 -200.398 329.689 -32.7227 -228.119 331.271 -36.1009 -228.585 284.221 54.0062 -251.85 304.612 48.97 -220.07 318.32 58.7566 28.6467 100.55 5.3761 
172.79 167.768 163.816 147.658 121.643 162.078 153.096 148.968 73.1287 37.6914 -167.05 289.048 9.83582 -201.147 330.459 -32.3815 -228.785 331.371 -35.641 -228.858 283.303 54.1187 -253.692 304.902 48.9257 -220.14 317.456 59.1818 31.1868 100.4 5.32572 
173.167 167.869 162.947 147.854 113.459 162.023 153.701 149.321 73.8983 35.2736 -167.835 288.338 9.56711 -201.617 330.858 -32.173 -229.158 331.693 -35.3245 -229.038 282.389 54.7023 -255.767 305.874 48.0109 -219.957 316.736 59.4123 37.9053 101.174 5.25452 
173.42 167.89 161.933 147.645 92.2218 162.026 154.279 149.763 74.8026 33.5629 -168.439 288.018 9.52013 -202.192 331.527 -31.9607 -229.459 332.332 -35.1207 -229.351 281.749 54.7954 -258.42 308.718 44.5391 -219.98 316.444 59.6424 54.4159 101.344 5.0503 
173.547 167.806 160.891 147.44 91.4282 161.966 154.675 150.1 75.3279 68.5081 -168.852 287.662 9.70712 -202.383 331.412 -31.9386 -229.556 332.501 -35.1535 -229.765 281.346 54.7652 -262.48 303.081 35.2711 -220.16 316.37 59.7858 61.6215 101.47 4.9398 
173.687 167.957 161.226 147.177 174.271 161.989 155.201 152.766 75.7703 177.608 -169.36 287.463 9.77708 -202.855 331.428 -31.9439 -229.96 333.036 -35.0417 -230.256 281.149 54.9801 -275.751 309.56 15.9785 -220.339 316.762 60.1685 82.9686 101.934 4.8174 
173.58 168.148 160.101 147.01 174.27 162.194 155.568 154.295 75.9523 177.619 -169.318 287.351 10.0196 -202.828 330.967 -32.0567 -229.639 332.968 -34.9573 -230.545 280.981 55.0655 -277.047 312.833 11.5714 -220.255 316.323 60.1222 88.9933 101.969 4.57284 
173.556 168.225 159.065 146.814 174.27 162.209 156.018 157.017 76.2017 177.622 -169.349 286.959 10.6366 -202.563 330.215 -31.9844 -229.089 332.6 -34.9166 -230.943 280.862 55.4753 -277.753 315.527 9.95185 -220.282 316.156 60.2666 92.8414 102.095 4.33812 
173.484 168.515 156.854 146.339 174.27 162.206 156.5 159.546 76.2594 177.622 -169.331 286.536 11.3693 -202.205 329.414 -31.9178 -228.439 332.583 -34.7984 -231.445 280.878 55.7502 -277.474 317.683 9.45606 -220.386 316.109 60.5688 95.0261 102.114 4.10707 
173.418 168.25 160.069 145.86 174.27 162.104 156.349 159.759 76.3286 177.622 -169.377 286.533 12.0133 -201.97 328.866 -31.5106 -227.696 332.422 -34.5921 -231.842 281.09 55.8077 -277.646 318.535 9.70622 -220.63 316.361 60.8479 95.4424 101.615 3.73842 
173.518 168.165 158.383 145.457 174.27 162.362 156.326 161.581 76.5471 177.622 -169.19 286.597 12.585 -201.943 328.543 -31.1607 -227.288 332.288 -34.3559 -232.088 281.081 55.9824 -278.57 320.048 9.82064 -220.731 316.436 61.1752 97.1321 101.219 3.46188 
173.59 168.247 155.226 145.115 174.27 162.394 156.71 164.382 76.4625 177.618 -169.043 286.566 13.0859 -201.816 327.887 -31.0763 -226.848 332.32 -34.4249 -232.264 281.168 56.0977 -278.36 317.42 11.4567 -220.819 316.589 61.4027 93.3141 101.25 3.32755 
173.801 168.372 152.389 144.9 174.271 162.874 156.67 165.363 76.5817 177.622 -168.579 286.743 13.5299 -201.773 327.274 -30.8787 -226.548 331.883 -34.0777 -232.328 281.055 56.2359 -278.492 317.656 11.158 -220.892 316.541 61.6906 93.6861 100.739 3.21532 
174.125 168.699 150.508 144.857 174.27 163.364 156.691 165.707 76.5742 177.623 -168.125 286.925 13.8011 -201.676 326.95 -30.95 -226.395 331.699 -33.8808 -232.071 280.898 56.2214 -278.422 317.788 10.733 -221.003 316.461 61.8469 94.4398 100.511 3.28154 
174.18 168.344 149.277 144.63 174.27 163.606 156.201 166.477 76.8624 177.625 -167.737 287.105 14.0627 -201.655 326.696 -30.6699 -226.155 331.784 -33.6916 -232.08 280.746 55.9481 -278.643 318.29 10.3328 -221.115 316.534 62.051 94.7488 99.8603 3.2781 
174.34 168.143 146.554 144.515 174.27 163.69 155.854 167.703 76.9393 177.628 -167.583 287.437 14.2587 -201.748 326.509 -30.3951 -225.934 331.764 -33.4504 -231.853 280.681 55.8551 -278.838 318.13 10.1633 -221.199 316.58 62.2412 94.7727 99.4479 3.19707 
174.37 168.322 146.502 144.171 166.615 163.784 155.788 166.019 76.8972 174.478 -167.702 287.871 14.3594 -201.714 326.833 -30.2548 -225.553 331.703 -33.0357 -231.741 280.724 55.7084 -274.971 316.023 10.5651 -221.304 316.712 62.5281 91.0284 98.7977 2.86873 
174.268 168.108 145.161 144.073 164.972 163.9 155.499 166.513 77.3251 173.804 -167.359 288.04 14.6717 -201.749 326.801 -29.9319 -225.424 331.723 -32.6997 -231.532 280.329 55.7668 -274.192 314.589 11.2264 -221.361 316.663 62.7929 89.0738 98.6086 2.8309 
174.181 168.418 147.791 144.257 174.27 163.934 155.752 163.666 77.2862 177.626 -166.939 287.516 14.7269 -201.59 326.577 -29.9 -225.174 331.664 -32.4572 -230.885 279.642 56.162 -275.669 312.511 12.7348 -220.942 316.025 62.979 87.853 99.3483 2.88327 
173.95 168.554 147.724 144.346 174.27 163.886 155.823 163.434 77.1639 163.212 -166.588 287.09 15.1305 -200.979 326.002 -29.6062 -224.618 331.192 -32.128 -230.41 279.291 56.8151 -271.815 306.632 14.5306 -220.614 315.645 63.2743 81.1704 99.8516 2.98908 
173.678 168.798 145.556 144.476 174.27 163.782 155.981 164.743 76.8412 127.583 -166.062 286.783 15.6408 -200.296 325.962 -29.1543 -224.138 330.641 -31.7332 -229.755 278.98 57.5491 -266.238 297.884 20.7671 -220.208 315.136 63.6306 69.4194 100.293 2.86813 
173.359 168.731 151.292 144.749 174.27 163.61 155.58 160.367 76.5703 99.8705 -165.361 286.538 15.9607 -199.158 326.101 -28.5227 -223.561 329.656 -31.3581 -228.895 278.584 58.0493 -262.223 293.841 27.9481 -219.574 314.451 63.8431 61.0506 100.263 2.92006 
172.959 168.798 150.239 144.854 174.27 163.395 155.453 160.682 76.203 89.7648 -164.522 285.889 16.2091 -197.849 325.513 -28.0858 -222.646 328.415 -31.1418 -227.464 277.795 58.61 -258.618 289.117 33.47 -218.601 313.397 64.0146 52.4885 100.573 3.13343 
172.732 169.206 151.66 145.165 90.0724 163.283 155.692 160.144 75.8091 81.0691 -163.358 285.25 16.5441 -196.727 324.518 -27.8482 -221.61 327.701 -31.0534 -225.878 277.054 59.4881 -253.991 289.697 40.932 -217.557 312.334 64.2397 45.1045 101.675 3.25028 
172.894 169.251 152.79 145.672 90.1063 163.555 154.584 156.811 75.4324 66.6297 -161.76 284.755 16.8456 -194.968 322.446 -27.26 -220.152 325.679 -30.4485 -223.729 276.207 60.0314 -250.708 290.33 45.5136 -216.323 311.167 64.4685 40.3457 101.412 3.62596 
172.716 169.129 150.266 146.156 90.1075 163.388 153.403 155.148 74.9668 59.2227 -160.25 284.059 17.5531 -192.872 320.106 -26.229 -218.13 322.976 -29.6695 -221.819 275.7 60.5038 -248.217 290.819 47.803 -215.146 310.405 64.8903 37.9456 100.164 3.76814 
172.334 169.137 149.845 146.498 94.5404 162.798 152.887 155.218 74.3861 57.0186 -158.895 282.78 18.3754 -190.614 317.688 -25.1336 -216.134 320.967 -29.2785 -219.941 275.073 60.8822 -244.854 289.755 49.6199 -213.593 309.522 65.4096 34.3956 99.405 4.21178 
171.985 168.406 159.013 147.058 102.833 162.486 152.292 154.922 73.7455 52.3037 -157.079 281.625 18.816 -188.857 315.828 -24.4834 -215.244 319.872 -29.445 -218.468 274.066 60.9947 -242.694 289.844 51.5505 -211.926 308.253 65.909 32.133 99.1748 5.09214 
171.665 167.97 167.473 147.743 102.903 162.299 151.565 154.19 72.7589 50.0759 -155.191 280.977 19.3776 -186.831 314.008 -23.6416 -213.999 319.072 -29.2794 -217.08 273.529 61.1263 -240.823 290.042 51.7968 -210.392 307.277 66.4353 33.3304 98.9341 6.11552 
171.752 167.348 172.754 148.226 99.35 162.517 150.74 153.933 72.3639 48.6274 -153.069 280.524 20.0195 -184.373 312.09 -22.817 -212.353 317.749 -28.9367 -215.493 272.646 61.3209 -239.29 290.335 50.9145 -208.862 306.305 66.9372 37.2909 98.3824 7.06369 
171.454 166.999 174.873 148.521 96.1075 162.244 150.258 153.931 72.1496 49.974 -151.077 279.763 21.1462 -181.484 309.513 -21.8974 -209.713 315.906 -28.6497 -213.588 271.905 61.8557 -237.981 289.275 49.9569 -207.362 305.516 67.4334 40.0191 97.8673 7.83584 
171.223 166.504 176.019 148.486 93.3861 161.912 150.076 153.833 72.4679 53.8114 -149.057 278.775 22.1497 -179.002 307.189 -21.1165 -207.253 313.849 -28.2273 -211.546 270.725 62.6916 -236.78 286.816 49.3144 -205.7 304.501 67.9657 41.2567 97.5622 8.18071 
171.313 166.419 177.269 148.345 90.8932 162.043 150.537 153.553 72.8338 57.9242 -147.138 278.468 23.1999 -176.815 305.584 -20.5585 -205.031 311.738 -27.9015 -209.841 270.067 63.5115 -235.685 284.657 49.1326 -204.372 304.064 68.4946 41.2718 96.8368 8.06713 
171.555 166.322 176.719 148.329 90.1711 162.478 151.139 153.841 73.1797 61.3495 -145.068 278.618 24.2941 -174.97 305.2 -20.0481 -203.151 310.216 -27.393 -208.433 269.573 64.1935 -235.249 282.893 49.2607 -203.177 303.806 69.1025 41.2022 96.0376 7.57797 
171.611 166.356 167.575 148.264 90.1662 162.66 151.65 155.147 73.34 61.6499 -142.893 277.85 25.2831 -172.53 303.412 -19.7173 -200.704 308.227 -27.1289 -206.594 268.95 65.3783 -233.767 281.717 49.8067 -201.549 303.144 69.3961 41.3887 96.4106 7.55939 
171.794 166.919 164.785 148.335 90.1147 163.001 153.104 155.67 73.4848 57.8294 -140.832 277.31 25.8984 -170.391 302.648 -19.9049 -198.374 307.697 -27.1149 -204.504 268.323 66.7064 -231.946 281.096 51.9503 -199.873 302.379 69.6158 39.4815 98.0307 7.55514 
172.009 166.65 162.366 149.46 93.1115 163.756 152.506 157.23 73.1503 54.5658 -136.853 277.511 27.6852 -166.047 301.902 -18.2857 -195.092 307.299 -26.0852 -200.95 268.102 68.0864 -227.156 281.538 53.4697 -197.169 301.985 70.7953 39.1866 98.4037 8.70167 
173.01 166.48 157.931 150.252 90.1721 165.136 152.07 158.942 73.3723 53.952 -134.571 277.426 28.044 -164.179 301.359 -17.8036 -193.945 306.99 -25.8199 -199.288 267.444 68.512 -227 281.036 53.1207 -196.106 301.37 70.9645 41.5052 98.8556 9.45811 
173.729 166.893 153.552 150.533 90.1655 166.008 152.604 161.215 73.6446 53.3515 -132.193 276.106 28.5336 -162.056 300.379 -17.6117 -192.136 306.437 -25.6497 -197.476 266.188 69.3118 -225.325 279.886 53.7018 -194.333 300.171 71.1645 41.6263 100.118 9.84582 
174.144 167.216 152.184 150.551 96.5085 166.295 152.988 162.34 74.1053 53.3868 -130.204 274.631 28.7834 -160.195 299.318 -17.4144 -190.491 305.456 -25.5242 -195.453 264.644 70.1167 -221.925 277.824 55.3932 -192.507 298.734 71.2773 38.0242 101.332 10.0507 
174.686 167.002 155.289 150.584 107.556 166.787 152.77 161.831 74.4043 53.4756 -128.438 273.518 29.0809 -158.459 298.56 -16.7934 -188.875 304.615 -25.2097 -193.559 263.528 70.9543 -218.81 275.745 58.2146 -190.885 297.569 71.533 32.2543 102.255 10.1815 
175.206 166.796 156.975 150.402 125.712 167.284 153.494 159.881 75.0163 57.5872 -127.152 273.03 29.8985 -156.852 298.713 -16.514 -187.244 304.535 -25.0915 -192.585 263.202 71.7023 -215.294 273.466 61.3496 -189.996 297.514 71.8611 25.4749 102.815 10.0427 
175.3 166.686 160.506 150.453 136.542 167.493 153.701 158.02 75.4579 61.6115 -126.253 273.148 30.383 -155.427 298.711 -16.2424 -185.782 303.744 -24.8866 -191.753 263.436 72.3115 -212.683 272.113 62.3875 -189.274 297.912 72.0887 23.8904 102.4 9.74879 
