145.893 176.722 177.303 145.647 133.292 147.018 178.477 177.812 79.9366 78.0458 -15.3539 224.599 -2.25351 -26.6662 206.398 -72.5094 11.7154 171.631 -71.5156 -6.56426 195.008 43.0195 -1.70125 181.14 45.2029 -35.5303 176.006 25.2491 9.99563 108.838 22.3717 
146.13 176.7 177.304 145.758 133.417 147.288 178.36 177.762 79.9384 78.0959 -15.534 224.919 -2.32977 -26.5893 206.569 -72.4286 11.6748 171.677 -71.4431 -6.59376 195.125 43.0521 -1.75176 181.26 45.2361 -35.5922 176.168 25.2714 10.0053 108.861 22.3738 
146.469 176.727 177.296 145.825 133.507 147.582 178.253 177.731 79.9074 78.0709 -15.6414 225.205 -2.39147 -26.5763 206.745 -72.3728 11.6429 171.718 -71.4258 -6.66319 195.207 43.0698 -1.82646 181.345 45.247 -35.6463 176.283 25.2742 10.021 108.916 22.4124 
146.682 176.748 177.299 145.916 133.596 147.851 178.156 177.718 79.9156 78.081 -15.9708 225.532 -2.49284 -26.5873 206.943 -72.3109 11.5634 171.853 -71.3838 -6.73643 195.326 43.0957 -1.9189 181.455 45.276 -35.7344 176.412 25.2861 10.0183 108.921 22.4083 
147.046 176.756 177.273 145.999 133.674 148.252 177.94 177.652 79.8635 78.0279 -16.3582 225.917 -2.60482 -26.5867 207.153 -72.1911 11.4889 171.982 -71.1849 -6.98897 195.492 43.1434 -2.18916 181.611 45.3458 -35.9698 176.598 25.3322 10.0248 108.858 22.4192 
147.507 176.788 177.251 146.063 133.697 148.734 177.715 177.539 79.8074 77.9929 -16.7525 226.169 -2.82779 -26.5828 207.237 -72.1155 11.4885 172.061 -71.015 -7.13662 195.469 43.1005 -2.37239 181.569 45.3556 -36.1404 176.601 25.3218 10.0025 108.664 22.4458 
147.773 176.877 177.266 146.29 133.824 149.058 177.51 177.467 79.7846 78.0304 -17.0514 226.404 -2.91156 -26.7033 207.429 -72.044 11.4318 172.262 -70.8444 -7.35265 195.462 43.0933 -2.61433 181.557 45.3725 -36.3762 176.639 25.3103 9.98933 108.464 22.5078 
148.066 176.949 177.282 146.525 133.909 149.283 177.318 177.394 79.7502 78.0629 -17.3188 226.549 -2.96087 -26.7754 207.581 -71.9406 11.3302 172.407 -70.7001 -7.63075 195.42 43.113 -2.92249 181.529 45.3882 -36.6442 176.655 25.3058 10.0233 108.335 22.5115 
148.269 177.039 177.305 146.741 134.019 149.574 176.995 177.266 79.6843 78.0807 -17.7837 226.707 -3.11583 -26.7761 207.764 -71.6856 11.2074 172.585 -70.516 -7.98172 195.341 43.065 -3.32046 181.454 45.3979 -36.9667 176.624 25.2884 10.0166 108.077 22.4539 
148.597 177.126 177.327 146.975 134.261 149.743 176.69 177.125 79.6123 78.1188 -17.8771 226.767 -3.12148 -26.9217 207.906 -71.4816 10.9773 172.823 -70.3221 -8.371 195.28 42.9364 -3.78835 181.373 45.4206 -37.3256 176.588 25.2668 9.93418 107.699 22.3863 
148.919 177.184 177.323 147.16 134.574 149.857 176.245 176.897 79.4981 78.1844 -17.9635 226.663 -3.25077 -26.8675 208.03 -71.1202 10.7225 172.976 -70.074 -8.75383 195.16 42.7078 -4.31785 181.206 45.4609 -37.73 176.5 25.2558 9.79429 107.136 22.2135 
149.207 177.207 177.335 147.387 134.846 149.872 175.936 176.661 79.3259 78.17 -17.8825 226.436 -3.30981 -26.8389 207.958 -70.8248 10.46 173.042 -69.8008 -9.11856 194.942 42.5431 -4.82818 180.976 45.4994 -38.1199 176.396 25.2693 9.73619 106.653 22.0064 
149.669 177.099 177.352 147.566 135.003 149.86 175.71 176.439 79.1623 78.1045 -17.7535 226.127 -3.34439 -26.8872 207.764 -70.6251 10.2118 173.052 -69.5085 -9.43614 194.703 42.412 -5.32652 180.732 45.5148 -38.5181 176.31 25.293 9.75342 106.182 21.832 
149.89 177.051 177.387 147.811 135.201 149.63 175.62 176.289 78.9954 78.0067 -17.5105 225.771 -3.18999 -26.8678 207.603 -70.4917 10.0421 173.171 -69.2976 -9.82824 194.441 42.404 -5.81071 180.502 45.5468 -38.8813 176.211 25.283 9.81157 105.944 21.6087 
149.817 176.984 177.448 148.002 135.428 149.355 175.587 176.223 78.8213 77.917 -17.5822 225.583 -2.98447 -26.8763 207.469 -70.3345 9.72445 173.248 -69.1715 -10.2078 194.217 42.4213 -6.33242 180.299 45.6309 -39.27 176.153 25.3031 9.87187 105.853 21.3389 
149.61 176.749 177.571 148.173 135.631 149.15 175.501 176.223 78.6655 77.7751 -17.9519 225.576 -2.75274 -26.9667 207.444 -70.1989 9.36116 173.389 -69.0889 -10.5722 194.028 42.5112 -6.83022 180.121 45.7071 -39.657 176.152 25.3396 9.96874 105.9 21.1105 
149.132 176.6 177.816 148.505 135.869 148.757 175.554 176.372 78.5645 77.6684 -18.2869 225.617 -2.24422 -27.2159 207.61 -70.1118 8.93244 173.677 -69.1476 -11.0439 193.838 42.8063 -7.37493 179.969 45.8275 -40.0772 176.212 25.3906 10.1305 106.274 20.9414 
148.638 176.38 178.035 148.81 136.08 148.213 175.442 176.436 78.5015 77.595 -18.3664 225.477 -1.6421 -27.4404 207.75 -69.9651 8.40232 173.788 -69.2337 -11.5694 193.634 43.1427 -7.98503 179.794 45.9351 -40.5788 176.292 25.4791 10.335 106.702 20.7629 
148.239 176.267 178.236 148.776 136.153 147.329 175.386 176.443 78.5257 77.6338 -17.6725 224.921 -0.574511 -27.6809 208.016 -69.6235 7.61644 173.91 -69.2639 -12.1956 193.426 43.6786 -8.74895 179.648 46.114 -41.2676 176.52 25.752 10.6752 107.127 20.4905 
145.136 177.005 177.995 150.019 138.047 145.789 175.788 177.293 79.8512 78.8161 -17.2825 225.019 1.09415 -26.7082 207.535 -68.4708 5.63444 173.667 -69.4877 -12.4062 193.601 44.7281 -9.80993 180.02 46.66 -42.3754 176.987 26.4561 11.5176 107.076 18.5401 
142.571 178.817 177.634 151.462 139.612 144.283 175.275 177.19 79.6901 79.7796 -17.2721 224.138 1.75866 -24.8747 206.794 -66.6083 3.65758 172.174 -68.7342 -12.4537 192.165 45.0233 -10.9789 179.185 47.013 -43.6977 177.226 27.2893 12.4196 105.803 16.949 
137.564 179.571 176.88 154.1 142.822 142.084 174.049 176.636 78.8293 79.9025 -16.5228 222.183 2.99744 -20.776 204.409 -64.1627 2.17173 170.34 -66.9019 -12.2568 189.366 45.0081 -12.2903 176.646 47.1626 -44.7355 177.058 28.0116 13.1485 103.967 14.2121 
126.511 178.092 172.508 156.512 148.099 139.348 171.186 174.642 78.0157 79.5827 -16.4175 219.233 5.96104 -15.2608 200.08 -61.3094 2.54047 166.972 -63.3179 -11.4683 185.246 44.9388 -14.1736 172.695 47.4891 -45.8005 176.4 28.9463 14.1707 100.674 11.6941 
119.214 177.841 168.132 158.488 152.035 135.743 169.563 171.795 76.928 78.4029 -14.5207 214.055 10.455 -11.9282 195.314 -59.0557 2.58596 163.458 -59.9044 -11.8775 180.593 45.2256 -16.7679 167.997 47.6825 -47.1227 175.366 30.3469 14.8437 97.5695 9.97982 
114.245 177.653 164.459 158.552 154.669 132.143 168.93 168.745 75.7253 76.8801 -13.7812 208.633 14.414 -11.029 191.3 -57.4362 1.4051 162.067 -57.5373 -13.0518 176.503 45.296 -19.2146 163.736 47.378 -48.4718 174.161 31.5901 15.1567 95.0815 8.13287 
112.272 176.216 162 158.149 154.969 129.492 168.278 165.56 74.591 75.0716 -14.2272 203.545 17.7864 -11.5787 187.868 -55.2629 -0.310931 161.021 -54.5428 -14.4337 172.545 45.6682 -21.5449 159.555 47.2103 -50.1663 172.775 33.2302 15.404 92.373 7.181 
114.232 176.765 162.452 157.458 153.953 128.919 168.762 162.86 74.2701 73.5897 -15.717 200.481 18.8365 -13.3995 185.708 -53.5162 -2.45 160.384 -51.8542 -16.1883 169.589 46.2624 -23.9389 156.27 47.0952 -52.175 171.534 34.8638 15.7039 89.7588 7.24804 
113.916 177.251 157.526 156.21 151.945 127.467 169.537 165.034 74.8864 73.7572 -15.744 196.448 21.0879 -15.9204 182.899 -50.9066 -5.12106 156.535 -49.8485 -18.8425 165.437 48.8878 -27.1445 151.875 48.657 -53.9649 170.354 36.6798 15.4367 90.3699 8.55199 
115.892 177.064 150.548 155.144 149.805 129.076 167.088 165.739 75.4747 73.2774 -17.0888 197.603 20.7989 -16.8511 183.533 -48.2403 -7.58742 159.191 -47.9082 -20.8503 164.701 49.7164 -29.8357 151.123 48.4927 -55.8982 171.588 37.5976 15.6249 89.0821 7.41802 
110.321 168.655 144.741 157.834 146.932 135.093 160.938 168.449 77.214 72.8574 -17.7488 203.119 22.3993 -16.2929 183.119 -43.5449 -10.971 159.412 -45.8048 -21.8218 164.136 51.4522 -31.5641 149.589 48.3863 -57.4031 173.079 39.2262 15.9244 89.3597 4.68888 
104.118 160.814 154.907 159.515 144.734 146.396 162.388 171.736 78.9431 73.3727 -18.3406 210.388 23.6436 -16.8339 180.878 -41.2511 -13.2359 159.365 -44.9583 -22.1831 163.15 52.9009 -32.7554 148.401 48.4433 -58.4841 174.739 40.8163 16.5361 89.3085 3.6373 
145.623 149.295 146.809 162.255 142.614 170.606 166.479 169.108 80.704 74.5282 -27.4836 233.412 18.0341 -17.5799 179.683 -40.0776 -14.1762 159.397 -43.1325 -22.1956 160.543 54.5196 -33.5067 146.488 48.1702 -58.8172 176.481 42.2561 17.8582 88.8602 5.48921 
145.623 148.289 154.249 165.011 138.971 169.474 167.728 165.599 82.1863 76.5666 -21.9096 230.476 24.1814 -16.7731 180.869 -39.2421 -14.2145 159.065 -42.7939 -22.2039 157.712 55.1499 -34.0007 144.444 47.4653 -58.9187 178.23 43.3312 17.9973 88.2411 5.78795 
145.623 156.923 162.557 166.18 135.681 159.093 169.878 164.74 82.7426 78.0801 -20.4369 232.387 29.3024 -15.832 182.116 -39.3867 -14.5651 158.623 -43.3572 -22.4287 155.205 54.9058 -34.944 143.05 47.345 -58.9108 179.409 44.3207 16.7794 87.5735 6.05094 
145.623 165.321 168.326 165.991 133.813 150.191 172.039 165.217 83.2884 79.5676 -19.9918 234.261 33.4147 -14.8464 183.502 -39.8876 -15.0643 158.963 -44.8461 -22.3762 153.189 53.6956 -35.8473 141.981 47.1922 -58.8584 180.198 44.9141 14.6712 86.5868 6.05241 
145.623 170.837 171.594 163.168 134.202 145.92 173.697 165.956 83.0314 80.8639 -17.3698 234.887 36.113 -13.5908 184.266 -40.7888 -15.3658 159.115 -46.8778 -22.379 151.773 51.7945 -36.3444 141.242 47.2675 -58.5299 180.543 44.8164 12.1028 85.9267 5.85306 
145.623 174.199 173.039 161.526 134.956 146.637 174.859 166.649 83.6354 81.5482 -13.9449 232.809 36.9899 -12.4744 184.682 -41.8979 -15.6711 158.929 -49.1425 -22.204 151.102 51.3124 -36.6875 140.897 47.5663 -58.0488 180.495 44.499 10.6516 86.9637 5.71441 
145.623 175.951 173.509 159.998 136.273 150.386 175.604 167.027 84.3125 82.1273 -10.1621 228.559 36.6059 -11.6841 184.119 -42.9772 -15.9369 157.629 -50.7336 -22.3659 150.499 51.877 -36.9779 140.537 48.2645 -57.6227 180.107 44.2096 10.1543 88.5884 5.98984 
145.623 177.098 173.575 158.832 137.86 164.723 176.184 167.202 84.9589 82.5483 -7.64727 222.75 33.2253 -11.1261 184.169 -44.182 -16.0891 156.723 -52.1029 -22.2537 150.258 52.1092 -37.0168 140.486 48.7289 -57.2657 179.748 43.7973 9.66214 89.7642 6.58619 
145.623 177.69 173.589 157.936 139.585 173.889 175.979 167.265 85.8154 83.6269 -3.29266 218.46 31.9928 -10.7403 184.767 -45.3068 -16.3729 156.495 -53.0628 -22.1357 150.449 52.1535 -36.8432 140.817 48.9361 -57.1513 179.688 43.2998 9.41728 90.4517 7.21724 
145.391 177.371 173.954 155.709 140.915 175.598 175.422 167.483 85.6853 85.1497 -7.17424 220.198 28.1964 -10.2641 185.583 -46.1589 -16.8168 156.29 -53.6359 -22.7256 149.998 51.826 -36.4707 140.851 48.7275 -57.129 179.593 42.9573 10.1139 90.7314 8.01021 
165.389 176.778 174.531 153.975 142.081 172.663 174.768 167.779 84.5039 86.8164 -4.90428 221.709 27.0061 -9.92673 186.486 -46.4682 -17.1957 156.288 -53.5991 -24.031 149.517 51.5664 -36.1267 140.704 48.3455 -57.2924 179.792 42.8366 11.3725 90.749 8.75013 
177.267 175.955 174.884 153.717 143.187 172.461 173.849 167.9 82.9138 89.208 -4.91739 225.805 26.6676 -9.59161 187.515 -46.1567 -17.5656 156.881 -53.0085 -25.452 149.211 51.4623 -35.477 140.115 47.5619 -57.4915 180.202 42.9997 12.9866 90.7528 9.20343 
168.034 175.202 175.147 155.092 145.657 172.882 172.348 167.751 83.9985 92.807 -6.97323 231.846 26.5529 -8.67696 187.983 -45.2281 -17.5221 157.583 -52.0885 -24.5119 146.914 48.82 -34.227 139.119 46.3888 -57.6251 180.644 43.1424 12.7224 86.37 9.1112 
162.764 175.218 174.055 153.967 148.409 171.073 170.914 166.732 86.844 96.4457 -7.94132 236.5 28.1395 -7.42117 187.959 -44.0323 -17.5966 157.515 -51.0132 -23.0606 144.023 46.6558 -33.2294 137.994 45.5567 -57.4738 180.76 43.1284 12.5713 82.6578 9.35956 
163.662 174.401 173.016 153.594 149.564 170.67 169.358 165.704 87.4543 98.3368 -7.13522 238.653 29.8228 -6.18518 188.303 -42.7282 -18.1178 157.795 -50.2484 -23.1293 142.604 45.14 -33.2913 137.353 45.1231 -57.4128 181.035 43.1124 12.4196 80.8319 9.70711 
163.621 173.237 171.603 152.748 149.681 172.19 168.016 164.75 87.3047 98.9042 -5.08418 239.547 31.8701 -4.96641 188.792 -41.5316 -18.7252 158.025 -49.7248 -23.825 141.916 44.2711 -34.0871 136.832 45.0498 -57.3576 181.311 43.1338 11.9749 80.1116 10.3441 
158.962 171.848 169.919 151.873 148.409 175.87 166.674 163.736 86.7128 98.814 -2.44203 239.968 34.6219 -3.65982 188.896 -40.2208 -19.259 157.955 -49.048 -25.1263 141.288 44.0608 -35.4071 136.234 45.12 -57.3042 181.502 43.27 11.71 80.0533 11.0805 
158.426 170.624 168.687 149.861 146.975 178.261 165.324 162.716 86.0924 98.597 0.783335 239.69 36.9293 -2.30872 189.127 -39.0955 -19.5698 158.057 -48.5918 -26.4222 140.784 43.2978 -36.8532 135.734 45.0182 -57.1979 181.765 43.2566 11.2553 79.585 11.8542 
160.081 169.573 167.497 146.389 145.466 178.562 163.902 161.487 85.7891 98.5383 3.76215 239.105 38.519 -1.18226 188.9 -38.0799 -19.7013 157.946 -48.0638 -27.6547 139.86 41.8514 -38.2417 135.039 44.7027 -57.0069 181.962 43.1063 10.9503 78.3094 12.3981 
161.359 168.474 166.7 141.428 143.212 177.539 162.49 160.343 85.019 98.7248 6.24478 239.324 40.3354 -0.558182 188.176 -36.9294 -20.0251 157.494 -47.127 -29.5365 138.898 40.6769 -39.7309 134.028 44.0519 -56.926 182.093 43.075 10.9576 77.1709 12.762 
163.533 167.152 165.356 136.121 140.833 176.97 161.039 159.022 84.1966 99.1848 8.06151 238.527 41.49 -0.337353 187.734 -35.6254 -20.3215 157.204 -45.8976 -31.1026 138.126 39.2514 -40.9923 132.97 43.364 -56.9323 182.144 43.4283 10.8001 75.3695 13.0578 
165.196 165.943 164.497 131.717 137.377 176.499 159.797 157.878 83.3713 99.7069 9.80263 237.313 42.5968 -0.373642 187.282 -34.455 -20.4109 156.849 -44.5574 -32.3005 137.459 37.7281 -42.1103 131.893 42.4059 -56.9625 182.167 44.0341 10.4592 72.9751 13.1851 
165.979 162.611 162.909 123.35 132.182 176.139 157.469 155.809 82.076 98.5515 12.5356 234.793 43.9537 -0.0814118 185.207 -32.6268 -20.4835 155.116 -42.5282 -34.107 136.815 36.7097 -44.1641 130.462 41.5524 -56.9247 181.612 44.4711 9.65048 70.9541 13.337 
166.636 159.574 160.46 116.425 128.879 176.051 155.31 153.497 81.5393 98.6553 14.6836 231.456 44.4759 0.146995 183.559 -31.1184 -20.7207 153.437 -40.62 -35.5107 135.976 35.8027 -45.6943 128.939 40.7521 -56.8307 181.071 44.8637 8.95497 69.0244 13.8134 
167.688 159.153 160.065 112.875 126.833 176.004 154.388 152.067 84.3203 100.493 15.7883 229.98 45.3235 -0.234746 183.504 -30.8822 -21.0202 152.353 -39.4447 -35.1729 133.693 32.8683 -46.224 127.223 39.4787 -56.6249 180.804 45.6184 8.8441 64.2074 14.7313 
168.123 157.719 157.101 107.964 127.619 176.589 153.07 149.531 87.5288 103.069 17.8296 226.032 45.9024 -0.0960269 182.388 -29.7406 -21.5547 150.604 -37.5423 -35.6914 131.73 31.2112 -47.2191 125.228 38.4294 -56.6135 180.433 46.0835 8.42262 60.9389 15.8657 
169.579 155.794 153.988 102.717 129.749 177.713 151.496 146.591 90.7514 105.174 19.1253 221.754 45.607 -0.215879 181.617 -28.7744 -22.1287 149.241 -35.7287 -36.4211 130.265 29.2403 -48.1943 123.747 37.5133 -56.6559 180.224 46.4897 8.60537 57.4488 16.9423 
171.833 157.219 156.521 105.149 131.961 177.323 152.951 145.988 97.3629 108.125 18.5261 220.367 45.4421 -0.572569 182.282 -28.7388 -22.0283 149.154 -35.0491 -35.8764 127.987 23.3099 -48.0104 123.241 35.6212 -56.7924 180.478 47.0942 11.9859 49.8741 17.495 
173.521 157.068 157.746 119.304 133.723 176.352 151.518 143.597 106.817 106.751 18.9029 216.278 45.848 -0.790779 181.718 -28.0333 -22.6117 147.81 -33.7087 -34.8233 124.325 18.743 -48.8834 123.752 35.8152 -57.0427 180.623 47.6381 16.2342 44.1138 18.4096 
174.021 157.14 157.173 142.655 135.374 175.002 150.599 141.509 111.881 105.384 18.8626 212.777 45.8217 -0.87821 180.995 -27.4679 -23.4708 146.19 -32.3341 -34.6783 121.026 16.8957 -50.0969 124.141 36.3942 -57.2081 180.668 48.0485 18.4193 41.5615 19.6496 
174.484 157.505 156.204 162.672 136.884 174.011 150.252 139.931 115.088 104.613 18.8507 209.983 45.9118 -0.823197 180.531 -27.1202 -24.4121 144.681 -31.2598 -35.1533 118.676 16.2285 -51.3659 124.243 36.8829 -57.3262 180.648 48.3544 19.402 40.3698 21.1081 
174.829 157.511 154.818 171.814 137.977 173.351 149.928 138.32 115.794 104.087 18.8813 207.304 45.9975 -0.712392 180.113 -26.8925 -25.3943 143.291 -30.3808 -36.0964 117.224 17.2159 -52.5741 124.045 37.2342 -57.3696 180.429 48.5344 19.0302 40.7883 22.5964 
176.001 155.03 147.586 163.208 139.629 173.984 149.259 133.678 111.032 104.891 20.3355 202.689 46.3414 -0.665948 179.29 -26.244 -26.4944 141.524 -27.9816 -38.6001 116.958 20.7111 -54.7673 122.646 36.787 -57.395 179.776 48.7563 15.7027 42.7067 24.9642 
177.456 152.227 142.396 151.962 141.002 174.211 148.489 131.303 105.775 105.054 20.8564 200.703 46.3134 -0.553269 179.461 -25.9075 -27.0568 141.968 -27.5216 -40.1413 118.45 24.056 -55.7941 122.314 36.4436 -57.4471 179.54 48.691 12.8808 46.2018 25.6084 
178.717 150.017 138.556 147.277 142.338 174.119 147.488 129.633 102.756 104.697 20.8753 199.092 46.1254 -0.572039 179.984 -25.5333 -27.6275 143.152 -27.4746 -41.1979 119.862 25.7472 -56.6389 122.664 36.1124 -57.6162 179.639 48.728 11.3686 48.5293 25.6521 
179.855 148.373 135.897 145.299 143.844 173.891 146.559 128.618 101.223 104 20.6469 197.575 45.8841 -0.53845 180.158 -25.1235 -28.1804 144.366 -27.7021 -42.1398 120.847 26.6766 -57.5433 123.413 35.9083 -57.8049 179.833 48.7526 10.7201 50.2809 25.303 
179.245 146.931 133.48 145.403 145.257 173.557 145.757 127.886 101.04 103.335 20.2514 196.201 45.6038 -0.390791 180.228 -24.7355 -28.698 145.617 -28.1319 -42.7758 121.198 26.7198 -58.2674 124.146 35.6893 -57.95 179.93 48.7017 10.7765 51.4096 24.8408 
178.464 145.892 131.219 144.954 146.125 173.208 145.257 127.499 100.704 102.543 19.8216 195.187 45.4081 -0.228145 180.174 -24.4183 -29.1853 146.614 -28.5786 -43.492 121.435 26.8558 -58.954 124.797 35.5983 -58.0518 179.917 48.6128 10.9769 52.6122 24.4799 
177.945 145.078 129.045 144.253 146.945 172.926 144.526 127.37 99.8106 101.423 19.4682 194.348 45.3353 0.0229931 180.105 -24.0251 -29.6603 147.873 -29.2064 -44.234 122.002 27.3961 -59.6397 125.69 35.7443 -58.1649 179.943 48.4877 11.1585 54.4293 23.9142 
177.577 144.257 126.858 144.061 147.621 172.54 143.756 127.302 99.2749 100.605 19.004 193.597 45.2842 0.292959 180.047 -23.5351 -30.0837 149.084 -29.7424 -44.7948 122.386 27.6327 -60.1768 126.391 35.8572 -58.2792 179.924 48.39 11.4287 55.8663 23.4088 
177.456 143.648 125.147 144.398 148.3 172.348 143.005 127.351 98.9722 100.001 18.6147 193.191 45.423 0.44798 180.102 -22.9926 -30.5661 150.361 -30.2587 -45.3459 122.72 27.474 -60.7413 127.007 35.9114 -58.4651 179.955 48.3669 11.8053 56.8587 22.9408 
177.447 143.408 123.914 144.518 148.768 172.124 142.314 127.523 98.5211 99.2647 18.1278 192.605 45.3728 0.525292 180.01 -22.5483 -31.0168 151.607 -30.8215 -45.9567 123.293 27.4378 -61.396 127.876 35.9418 -58.7171 180.102 48.2676 12.1106 57.9014 22.3693 
177.299 143.114 122.696 144.298 149.012 171.742 141.691 127.934 97.5621 98.3164 17.5254 191.795 45.2587 0.612504 180 -22.0868 -31.4786 153.095 -31.5192 -46.7212 124.155 27.7129 -62.176 128.921 36.078 -58.9806 180.284 48.173 12.3103 59.4602 21.775 
177.158 142.975 121.371 143.011 148.796 171.336 141.334 128.674 95.5531 97.0471 16.878 190.785 45.0077 0.691271 180.085 -21.7639 -31.8974 154.681 -32.3587 -47.6502 125.504 28.563 -62.9764 130.079 36.4556 -59.2071 180.435 48.0259 12.3566 61.7963 21.199 
177.193 142.818 119.751 141.424 148.467 170.949 140.885 129.509 93.1154 95.6881 16.1425 189.114 44.5285 0.798455 180.038 -21.374 -32.4165 156.24 -33.1662 -48.7832 127.108 30.0478 -63.8588 131.365 37.0225 -59.4407 180.608 47.8383 12.1901 64.8544 20.7355 
177.491 142.335 117.788 140.22 148.144 170.836 140.347 130.245 90.9381 94.4003 15.4923 187.416 44.0382 0.869729 179.719 -20.9452 -32.9907 157.388 -33.7283 -50.0364 128.567 31.9236 -64.7693 132.609 37.6187 -59.6359 180.732 47.6058 11.9174 68.1408 20.4945 
177.841 141.956 115.72 139.324 147.857 170.783 139.997 130.752 88.9461 93.1733 14.9198 185.772 43.4837 1.08466 179.522 -20.5882 -33.4542 158.353 -34.1741 -51.112 129.93 33.5714 -65.55 133.697 38.1891 -59.7294 180.727 47.3193 11.7437 71.2 20.5257 
178.118 141.936 113.915 138.723 147.696 170.64 139.814 131.156 86.9745 91.956 14.3241 184.163 42.9651 1.34087 179.529 -20.2314 -33.7745 159.438 -34.5357 -52.0857 131.366 34.8104 -66.3099 134.768 38.7285 -59.8407 180.737 47.0912 11.6737 73.8175 20.5581 
178.14 142.804 112.42 138.294 147.852 169.984 139.543 132.487 83.7051 89.8613 12.7549 180.296 41.812 1.66336 179.71 -19.4626 -34.2866 162.079 -35.3885 -53.7986 134.146 35.6767 -68.0398 137.049 39.5407 -60.2943 181.07 46.8807 11.7648 77.1762 20.36 
178.553 143.777 112.852 137.752 147.803 170.015 139.632 133.6 81.8425 88.7123 12.2636 177.668 40.9892 1.91746 179.504 -19.3142 -34.2911 163.591 -36.1289 -54.7557 135.993 35.619 -69.1493 138.632 39.7642 -60.3626 181.377 46.5794 11.8079 78.5644 20.0315 
178.733 144.378 114.672 137.495 147.654 169.881 139.491 135.161 80.5812 87.814 11.611 174.714 40.2189 2.11422 178.645 -18.9697 -34.1239 164.82 -36.9404 -55.6655 137.465 35.6213 -70.2662 140.109 39.9415 -60.4432 181.638 46.3324 11.8293 79.7744 19.5243 
179.12 145.024 117.548 136.977 147.344 169.864 139.636 137.173 79.0534 86.9069 10.9995 171.855 39.687 2.35195 177.825 -18.5734 -33.7993 165.995 -37.7735 -56.7051 139.052 35.9676 -71.3936 141.573 40.3624 -60.4669 181.89 46.2055 11.8321 81.3728 19.1039 
179.737 145.567 121.294 137.038 147.159 170.183 139.726 139.026 77.7516 86.2198 10.5276 169.267 39.3934 2.59726 176.904 -18.0649 -33.3337 167.002 -38.4609 -57.6142 140.459 36.1487 -72.5271 142.93 40.8168 -60.4884 182.157 46.1424 11.8533 82.5018 18.7373 
178.794 149.859 129.317 138.868 145.799 169.102 143.315 143.682 80.6652 87.4321 9.18132 166.103 38.457 3.47012 177.646 -18.9054 -32.7115 169.514 -41.0031 -58.2618 139.876 37.3592 -73.0256 143.166 39.9518 -60.5489 182.589 45.9883 10.8089 85.7906 18.7624 
177.973 153.373 137.583 138.477 144.721 168.46 146.175 147.575 82.5119 88.1972 8.02121 163.395 37.6154 4.1534 178.209 -19.5334 -32.2047 171.732 -43.1306 -58.9283 139.447 37.7085 -73.5301 143.242 39.2231 -60.6065 182.738 45.8551 10.4627 88.018 18.8582 
177.35 155.864 145.028 137.686 144.032 168.173 148.268 150.588 83.8008 88.6746 7.05674 161.135 36.9357 4.6121 178.695 -19.9656 -31.7191 173.727 -44.7265 -59.4816 139.243 37.6227 -74.0148 143.43 38.6322 -60.733 182.948 45.8043 10.3214 89.3131 18.842 
176.791 157.408 150.707 136.628 143.679 168.145 149.66 152.621 84.3962 89.0581 6.33006 159.464 36.538 4.87774 179.045 -20.2127 -31.1846 175.387 -45.7387 -59.8795 139.213 36.985 -74.3953 143.555 38.0005 -60.8744 183.112 45.8314 10.2637 89.6434 18.651 
176.403 158.359 154.851 135.935 143.486 168.336 150.367 153.971 84.7088 89.2748 5.8751 158.355 36.2191 4.93373 179.302 -20.3907 -30.7155 176.868 -46.4209 -60.1191 139.304 36.3031 -74.634 143.717 37.3399 -61.0237 183.248 45.8653 10.216 89.6822 18.358 
176.157 159.056 157.567 135.214 143.62 168.65 150.737 154.853 84.4132 89.2991 5.59296 157.581 36.1259 4.79685 179.32 -20.4918 -30.2465 178.078 -46.7897 -60.3794 139.685 35.577 -74.928 143.981 36.8598 -61.2077 183.374 45.9289 10.1918 89.493 17.9158 
