174.112 168.375 157.649 141.379 137.06 178.582 160.858 163.695 84.5261 80.9955 -145.228 127.021 -4.67491 -121.221 138.166 -74.7359 -86.7022 131.83 -87.1699 -58.7305 122.068 14.07 -46.0753 127.315 6.299 -67.3798 159.501 4.54338 13.6158 97.1075 13.091 
174.268 168.508 157.79 141.381 136.995 178.513 160.842 163.393 84.4662 80.9736 -145.394 127.107 -5.07794 -121.188 137.972 -75.128 -86.8188 131.602 -87.4948 -58.8282 122.222 13.6716 -46.196 127.413 5.88308 -67.4729 159.572 4.05658 13.6514 97.0175 12.9736 
174.308 168.683 158.121 141.399 137.011 178.387 160.878 163.074 84.4776 81.0019 -145.598 127.263 -5.41895 -121.17 137.851 -75.4796 -86.891 131.482 -87.8289 -58.9156 122.399 13.3219 -46.3034 127.573 5.55356 -67.5658 159.697 3.61286 13.6395 96.9492 12.8967 
174.457 167.821 158.119 141.633 136.987 178.804 159.761 163.178 84.3094 80.9039 -145.98 127.147 -5.36239 -121.925 138.485 -75.3542 -87.4961 131.972 -88.2053 -59.4711 122.691 12.8171 -46.8069 127.629 4.42793 -67.7547 159.685 3.06158 14.0024 97.3194 13.1545 
174.574 166.975 157.773 141.755 136.982 178.901 158.708 163.338 84.2572 80.8317 -146.253 126.91 -5.36945 -122.626 138.867 -75.1641 -88.0542 132.296 -88.4995 -59.9371 123.004 12.357 -47.2611 127.808 3.34921 -67.9606 159.715 2.54244 14.3859 97.5227 13.3952 
174.643 166.172 156.073 141.801 137.077 178.819 157.86 164.473 84.2023 80.7309 -146.515 126.633 -5.71734 -123.428 139.136 -75.4151 -88.7468 132.643 -89.1142 -60.5659 123.417 11.6006 -47.8684 128.115 1.86585 -68.3281 159.738 1.62998 14.8313 97.9217 13.5901 
174.616 165.89 154.928 141.722 137.098 178.657 157.647 165.464 84.2479 80.7347 -146.581 126.552 -5.74418 -123.719 139.168 -75.5237 -88.9702 132.673 -89.2628 -60.8019 123.536 11.3981 -48.0757 128.189 1.23248 -68.4591 159.696 1.32074 15.1005 98.1006 13.6905 
174.568 165.716 153.803 141.566 137.042 178.362 157.592 166.339 84.3243 80.6554 -146.521 126.435 -6.02807 -123.785 138.96 -75.8658 -89.1226 132.569 -89.5344 -60.955 123.576 11.1205 -48.2121 128.259 0.595833 -68.5903 159.612 0.898756 15.3424 98.2829 13.6319 
174.541 165.58 153.24 141.376 136.983 178.022 157.574 167.029 84.3824 80.5352 -146.435 126.368 -6.30875 -123.71 138.698 -76.2129 -89.2167 132.496 -89.8549 -60.9676 123.57 10.8181 -48.2428 128.352 0.0388632 -68.6826 159.514 0.507541 15.539 98.4622 13.4972 
174.428 165.502 153.112 141.284 136.849 177.711 157.589 167.554 84.4517 80.3919 -146.428 126.447 -6.55089 -123.53 138.443 -76.5833 -89.1923 132.419 -90.148 -60.907 123.553 10.5424 -48.2292 128.452 -0.51263 -68.7491 159.434 0.141258 15.8004 98.6146 13.3664 
174.284 165.495 153.319 141.225 136.659 177.426 157.668 168.135 84.5196 80.2487 -146.411 126.61 -6.80237 -123.288 138.18 -76.9948 -89.1546 132.331 -90.4914 -60.8114 123.488 10.2949 -48.1931 128.494 -0.988873 -68.7842 159.344 -0.201006 16.0436 98.802 13.1873 
174.185 165.425 154.909 141.316 136.424 177.266 157.543 168.186 84.6518 80.1318 -146.452 126.799 -7.02692 -123.112 137.945 -77.2602 -89.0125 132.376 -90.9912 -60.7212 123.452 10.1122 -48.1875 128.563 -1.41942 -68.8028 159.311 -0.521604 16.3122 99.1028 13.1237 
174.189 165.27 157.223 141.395 136.167 177.143 157.245 167.696 84.7655 80.04 -146.474 127.023 -7.35602 -122.916 137.795 -77.4769 -88.7411 132.42 -91.4847 -60.6516 123.435 9.83884 -48.2028 128.654 -1.83331 -68.8068 159.333 -0.835826 16.4954 99.1982 13.1527 
174.15 165.114 160.156 141.541 135.95 177.128 156.99 167.071 84.7841 79.9245 -146.547 127.346 -7.6768 -122.747 137.76 -77.7066 -88.5198 132.453 -91.9074 -60.6018 123.535 9.55861 -48.2232 128.792 -2.26996 -68.8056 159.409 -1.14778 16.6923 99.2282 13.1808 
174.221 164.971 163.888 141.615 135.805 177.108 156.695 166.323 84.8767 79.8734 -146.56 127.612 -8.02777 -122.659 137.766 -77.8828 -88.4271 132.581 -92.3499 -60.5474 123.634 9.24948 -48.2486 128.977 -2.63304 -68.7966 159.524 -1.44528 16.7614 99.1875 13.1735 
174.283 164.86 169.439 141.679 135.772 177.152 156.491 165.553 84.892 79.8462 -146.561 127.853 -8.36581 -122.542 137.779 -78.1064 -88.5226 132.556 -92.7333 -60.5127 123.741 8.93358 -48.2372 129.096 -2.94363 -68.7388 159.609 -1.76328 16.744 99.0699 13.0246 
174.346 164.732 176.845 141.785 135.756 177.33 156.225 164.931 84.959 79.9044 -146.623 128.11 -8.69221 -122.464 137.824 -78.2824 -88.6696 132.831 -93.1715 -60.5094 123.873 8.64955 -48.2491 129.201 -3.29098 -68.68 159.745 -2.05724 16.7916 99.0933 12.8326 
174.459 164.647 180 141.846 135.783 177.504 156.065 163.151 84.9359 79.9686 -146.604 128.333 -9.09378 -122.361 137.942 -78.5314 -88.5155 132.453 -93.1502 -60.4634 124.019 8.27712 -48.2026 129.281 -3.67664 -68.5742 159.864 -2.38728 16.7974 98.5431 12.917 
174.547 164.678 180 141.931 135.907 177.652 156.044 161.073 84.8878 80.0834 -146.523 128.492 -9.51476 -122.217 138.155 -78.8617 -88.2459 131.912 -92.9298 -60.4352 124.184 7.92939 -48.1535 129.346 -4.00983 -68.4492 159.982 -2.69262 16.7734 97.8305 13.0939 
174.571 164.735 180 142.037 136.155 177.866 156.089 159.309 84.8284 80.2423 -146.481 128.708 -9.92457 -122.008 138.418 -79.2464 -88.0272 131.625 -92.7588 -60.4069 124.397 7.59 -48.0836 129.444 -4.29214 -68.3077 160.142 -2.98737 16.709 97.2475 13.1689 
174.602 164.799 180 142.11 136.468 178.103 156.198 157.772 84.7692 80.4484 -146.411 128.842 -10.3173 -121.765 138.67 -79.6257 -87.8127 131.466 -92.6259 -60.3745 124.562 7.31419 -47.9807 129.473 -4.48427 -68.1422 160.263 -3.22735 16.6104 96.8115 13.2015 
174.603 164.871 180 142.26 136.789 178.368 156.323 156.568 84.6851 80.6543 -146.384 128.954 -10.6274 -121.564 138.967 -79.9915 -87.7117 131.462 -92.5066 -60.4164 124.71 7.07011 -47.9201 129.442 -4.65875 -67.9859 160.368 -3.44815 16.5125 96.5301 13.1654 
174.576 164.97 180 142.349 137.181 178.71 156.543 156.189 84.586 80.8606 -146.361 129.015 -10.8899 -121.396 139.334 -80.4125 -87.7867 132.106 -92.7655 -60.4266 124.813 6.79386 -47.8284 129.385 -4.83609 -67.8209 160.44 -3.65176 16.389 96.7532 12.8965 
174.685 164.969 180 142.405 137.513 178.794 156.584 156.873 84.6301 81.1173 -146.251 128.997 -11.1982 -121.291 139.614 -80.6861 -88.1738 132.984 -93.2988 -60.4443 124.849 6.56764 -47.7672 129.327 -4.93329 -67.6808 160.555 -3.81062 16.2328 97.1346 12.386 
174.826 165.037 180 142.37 137.855 178.843 156.744 158.127 84.7231 81.3681 -146.082 128.959 -11.5007 -121.242 139.884 -81.0084 -88.82 133.934 -93.9522 -60.3914 124.77 6.2648 -47.6476 129.213 -5.0581 -67.5031 160.609 -3.99683 16.0129 97.5242 11.7396 
175.017 165.127 180 142.337 138.168 178.76 156.968 159.886 84.7799 81.5456 -145.862 128.925 -11.7458 -121.161 140.135 -81.3022 -89.5807 134.984 -94.5927 -60.3189 124.704 6.01697 -47.5033 129.14 -5.11764 -67.3241 160.646 -4.12943 15.7796 98.0167 10.9899 
175.156 165.184 180 142.247 138.421 178.584 157.167 161.689 84.8254 81.707 -145.565 128.861 -11.9372 -120.992 140.251 -81.5536 -90.1947 135.798 -95.1355 -60.2219 124.56 5.79479 -47.3187 128.983 -5.12114 -67.1053 160.626 -4.24595 15.5292 98.4265 10.3174 
175.316 165.248 180 142.046 138.638 178.328 157.385 162.903 84.8702 81.8197 -145.187 128.678 -12.0888 -120.82 140.278 -81.7909 -90.6142 136.286 -95.4966 -60.041 124.387 5.5706 -47.0743 128.87 -5.06964 -66.896 160.585 -4.34222 15.2401 98.6346 9.82953 
175.501 165.337 180 141.806 138.846 178.005 157.649 162.781 84.8519 81.917 -144.744 128.44 -12.2112 -120.657 140.4 -82.0159 -90.8495 136.301 -95.4765 -59.8064 124.23 5.29729 -46.7851 128.786 -5.03329 -66.6756 160.541 -4.42865 14.9388 98.4167 9.54652 
175.64 165.398 180 141.463 138.969 177.687 157.838 162.128 84.8609 81.9911 -144.35 128.24 -12.3417 -120.485 140.472 -82.234 -90.9416 136.041 -95.3663 -59.5649 124.057 4.98009 -46.4975 128.723 -5.03294 -66.4701 160.488 -4.54549 14.6377 97.9831 9.40136 
175.689 165.445 180 141.124 139.103 177.452 158.023 160.852 84.8205 82.0498 -144.037 128.16 -12.4011 -120.219 140.621 -82.4658 -90.6606 135.611 -95.0613 -59.2956 123.958 4.6691 -46.1893 128.721 -5.03047 -66.246 160.477 -4.63778 14.3695 97.3844 9.5051 
175.717 165.527 180 140.653 139.244 177.213 158.227 159.616 84.8598 82.1275 -143.697 128.107 -12.4741 -119.94 140.761 -82.6981 -90.2543 135.29 -94.8423 -59.0031 123.868 4.33819 -45.8741 128.788 -5.02493 -66.0031 160.5 -4.74399 14.0863 96.8243 9.69717 
175.722 165.608 180 140.139 139.311 176.925 158.438 158.652 84.8975 82.1815 -143.379 128.131 -12.5248 -119.586 140.749 -82.933 -89.7487 134.672 -94.5166 -58.7022 123.772 4.06586 -45.5401 128.834 -4.99004 -65.7568 160.504 -4.84174 13.8261 96.1492 9.96203 
175.729 165.653 180 139.615 139.298 176.566 158.586 157.912 84.9152 82.1517 -142.978 128.18 -12.6673 -119.138 140.57 -83.1335 -89.2265 134.015 -94.2333 -58.4002 123.703 3.83502 -45.206 128.912 -4.94277 -65.5052 160.503 -4.95893 13.6012 95.5489 10.1596 
175.692 165.673 180 139.1 139.147 176.2 158.697 157.861 84.9591 82.1004 -142.587 128.316 -12.7764 -118.596 140.332 -83.2999 -88.6505 133.325 -93.9598 -58.0942 123.614 3.70617 -44.8719 128.952 -4.87501 -65.2395 160.494 -5.02577 13.4554 95.0139 10.3351 
175.713 165.657 180 138.603 138.909 175.792 158.733 158.414 85.0009 81.999 -142.17 128.388 -12.908 -118.086 140.001 -83.4179 -88.1367 132.729 -93.9497 -57.6977 123.601 3.61754 -44.5077 129.083 -4.85355 -65.0002 160.52 -5.11393 13.4114 94.7097 10.4506 
175.737 165.662 180 138.236 138.599 175.318 158.732 160.112 85.0218 81.849 -141.711 128.493 -13.0784 -117.472 139.673 -83.5635 -87.5606 132.31 -94.1068 -57.2883 123.61 3.55828 -44.131 129.214 -4.86274 -64.7517 160.563 -5.19285 13.424 94.5961 10.4659 
175.767 165.643 176.146 137.948 138.268 175.017 158.648 160.392 84.9816 81.6449 -141.361 128.643 -13.2755 -116.93 139.397 -83.6746 -86.9407 131.4 -93.8259 -56.8944 123.689 3.49892 -43.7913 129.354 -4.9585 -64.5025 160.611 -5.3018 13.5201 94.0305 10.7722 
175.682 165.553 171.587 137.694 137.874 174.864 158.437 159.817 84.9526 81.3917 -141.015 129.255 -13.6783 -116.176 139.316 -83.9388 -86.1265 130.411 -93.3917 -56.1672 123.976 3.20233 -43.2166 129.712 -5.41181 -64.0444 160.864 -5.61558 13.7938 93.0801 11.2466 
175.497 165.425 168.55 137.876 137.538 175.241 158.133 158.971 84.9816 81.2966 -141.221 129.633 -13.7034 -116.101 139.344 -83.858 -85.7355 129.955 -92.9558 -55.8691 124.2 3.22673 -43.101 129.875 -5.7792 -63.9442 161.029 -5.69903 14.2517 92.6313 11.6997 
175.304 165.373 165.516 138.133 137.294 175.748 157.992 158.426 85.0406 81.185 -141.437 130.073 -13.7912 -115.937 139.553 -84.0183 -85.1948 129.617 -92.5582 -55.5246 124.438 3.16372 -42.9037 130.054 -6.28087 -63.747 161.19 -5.90041 14.707 92.2313 12.2452 
175.072 165.289 163.087 138.562 137.235 176.347 157.817 157.573 85.0193 81.1146 -141.727 130.57 -13.8512 -115.826 139.859 -84.1607 -84.6266 129.366 -92.0592 -55.2885 124.768 3.14033 -42.7585 130.256 -6.68803 -63.5545 161.368 -6.10627 15.0684 91.8802 12.8516 
174.91 165.3 160.175 139.069 137.378 176.951 157.785 157.278 84.9074 81.1184 -141.999 131.145 -13.9371 -115.683 140.371 -84.4389 -83.8722 129.383 -91.5338 -55.0924 125.182 3.0572 -42.589 130.48 -7.0766 -63.3311 161.587 -6.3192 15.3302 91.6043 13.5527 
174.765 165.416 157.5 139.5 137.713 177.521 157.907 156.642 84.8162 81.1936 -142.222 131.707 -14.033 -115.602 140.934 -84.7835 -83.2271 129.292 -90.8159 -54.941 125.564 2.88545 -42.3904 130.724 -7.36235 -63.1092 161.795 -6.5501 15.3498 91.0572 14.3578 
174.633 165.495 155.48 139.914 138.033 178.116 157.987 155.014 84.6984 81.293 -142.299 132.146 -14.1373 -115.539 141.441 -85.1025 -82.6405 129.071 -90.0034 -54.8757 125.832 2.72179 -42.1981 130.79 -7.53413 -62.8007 161.913 -6.78879 15.2178 90.4627 15.1587 
174.549 165.525 154.46 140.326 138.365 178.601 158.009 152.366 84.5711 81.4076 -142.252 132.572 -14.2919 -115.439 141.931 -85.3829 -82.1763 128.931 -89.1961 -54.8657 126.011 2.51946 -42.0413 130.753 -7.6772 -62.4457 162.007 -7.01896 15.0455 89.8563 15.7912 
174.495 165.541 155.071 140.687 138.712 179.047 158.08 148.63 84.4454 81.5457 -142.097 132.87 -14.4406 -115.273 142.365 -85.6489 -81.6849 128.921 -88.4335 -54.8357 126.068 2.33679 -41.8512 130.599 -7.75488 -62.0389 161.999 -7.20867 14.8413 89.3964 16.3031 
174.553 165.552 157.568 141.063 138.976 179.219 158.193 144.121 84.4265 81.7163 -141.745 133.003 -14.5891 -115.006 142.722 -85.863 -81.1786 128.79 -87.6533 -54.7567 126.021 2.28427 -41.6558 130.389 -7.72796 -61.5897 161.968 -7.32284 14.7067 88.9391 16.7851 
174.604 165.545 161.191 141.271 139.089 179.269 158.346 140.111 84.5498 81.8996 -141.318 132.922 -14.6488 -114.608 142.82 -86.0328 -80.6398 128.547 -87.0714 -54.5098 125.803 2.29182 -41.3652 130.136 -7.66352 -61.1464 161.886 -7.38118 14.6559 88.5725 17.1319 
174.59 165.526 164.481 141.316 139.083 179.192 158.458 138.163 84.7771 82.0368 -140.821 132.824 -14.6712 -114.131 142.694 -86.0934 -80.3607 128.493 -87.03 -54.2117 125.561 2.39047 -41.0718 129.951 -7.51143 -60.71 161.836 -7.39636 14.6381 88.597 16.9432 
174.596 165.476 165.373 141.185 138.979 178.966 158.533 137.75 84.927 82.0021 -140.259 132.67 -14.7592 -113.532 142.449 -86.1568 -80.094 128.278 -87.0371 -53.847 125.433 2.50277 -40.7246 129.93 -7.33371 -60.3008 161.821 -7.4245 14.6226 88.6299 16.7293 
174.599 165.414 167.153 140.95 138.756 178.585 158.541 141.056 85.1361 81.9535 -139.693 132.565 -14.8421 -112.944 142.143 -86.1367 -80.1295 128.507 -88.1755 -53.3972 125.365 2.63805 -40.3694 130.022 -7.19982 -59.9565 161.909 -7.42179 14.7188 89.3882 15.8405 
174.604 165.369 166.762 140.609 138.443 178.148 158.537 145.637 85.3084 81.8254 -139.102 132.442 -15.0224 -112.348 141.859 -86.2275 -80.0982 128.826 -89.668 -52.8471 125.291 2.63275 -39.9545 130.153 -7.2043 -59.6473 161.98 -7.47782 14.8334 90.2563 14.9545 
174.62 165.302 164.794 140.326 138.095 177.774 158.432 149.271 85.4268 81.6747 -138.595 132.388 -15.2309 -111.844 141.685 -86.2858 -79.8878 129.026 -90.7488 -52.2678 125.324 2.54677 -39.5417 130.37 -7.34858 -59.3714 162.126 -7.55796 15.0289 90.7467 14.4567 
174.684 165.327 162.158 140.052 137.825 177.489 158.399 151.829 85.4615 81.5116 -138.216 132.378 -15.4733 -111.431 141.697 -86.4506 -79.5189 128.976 -91.3139 -51.7648 125.483 2.40455 -39.1848 130.652 -7.56073 -59.1425 162.318 -7.67559 15.2237 90.8022 14.4408 
174.787 165.391 159.821 139.772 137.643 177.36 158.416 153.747 85.5298 81.4106 -137.921 132.415 -15.7545 -111.144 141.879 -86.6883 -79.167 128.899 -91.6648 -51.3245 125.631 2.17678 -38.8643 130.908 -7.87975 -58.9445 162.502 -7.84057 15.3932 90.6567 14.6456 
174.843 165.395 157.928 139.649 137.599 177.42 158.349 154.723 85.5421 81.377 -137.719 132.539 -16.0565 -110.993 142.223 -86.8545 -78.7749 128.992 -91.8113 -50.9335 125.901 1.92132 -38.5813 131.212 -8.29265 -58.7634 162.748 -8.01415 15.6179 90.4414 14.9754 
174.919 165.41 156.262 139.616 137.718 177.513 158.27 155.598 85.5585 81.4398 -137.582 132.661 -16.3662 -110.923 142.641 -87.0217 -78.4477 129.179 -91.9369 -50.5817 126.16 1.60982 -38.3171 131.487 -8.74163 -58.6098 162.984 -8.18739 15.8047 90.1638 15.3157 
175.062 165.455 154.245 139.593 137.937 177.64 158.247 156.405 85.5282 81.5397 -137.384 132.707 -16.6846 -110.906 143.191 -87.202 -78.1352 129.445 -91.9388 -50.2371 126.414 1.22492 -38.0155 131.747 -9.18086 -58.431 163.189 -8.36055 15.8663 89.8079 15.7434 
175.202 165.477 152.742 139.616 138.213 177.752 158.185 156.992 85.4679 81.696 -137.211 132.777 -16.989 -110.92 143.656 -87.3808 -77.9465 129.633 -91.9197 -50.0043 126.557 0.806695 -37.7514 131.847 -9.55157 -58.2555 163.294 -8.54616 15.7806 89.4145 16.0905 
175.37 165.481 152.279 139.589 138.549 177.806 158.083 157.235 85.4219 81.8752 -136.935 132.841 -17.3211 -110.976 144.061 -87.4774 -77.9922 129.984 -92.0405 -49.7765 126.657 0.330985 -37.472 131.938 -9.86307 -58.0389 163.381 -8.7406 15.5628 89.1024 16.173 
175.506 165.528 152.92 139.599 138.91 177.929 158.074 157.048 85.3176 82.1123 -136.592 132.889 -17.6144 -111.069 144.406 -87.5505 -78.0494 130.402 -92.1901 -49.6384 126.645 -0.128446 -37.216 131.852 -10.0754 -57.7824 163.364 -8.9128 15.2435 88.9427 16.1593 
175.63 165.573 153.971 139.608 139.251 178.072 158.095 156.53 85.2375 82.3634 -136.209 132.937 -17.863 -111.105 144.654 -87.5863 -78.0368 130.777 -92.2928 -49.5249 126.561 -0.503848 -36.955 131.686 -10.1855 -57.4754 163.289 -9.0427 14.8935 88.8381 16.1049 
175.719 165.572 156.592 139.628 139.46 178.122 158.103 155.539 85.1194 82.601 -135.717 132.89 -18.0425 -111.15 144.746 -87.5189 -78.2147 131.254 -92.638 -49.4891 126.343 -0.783941 -36.7621 131.306 -10.2573 -57.1268 163.081 -9.14225 14.6048 89.1015 15.7156 
175.764 165.618 158.76 139.604 139.618 178.177 158.241 154.565 85.0191 82.795 -135.256 132.919 -18.1463 -111.02 144.791 -87.5411 -78.1036 131.675 -92.8615 -49.3904 126.093 -1.01066 -36.5414 130.925 -10.3253 -56.7361 162.889 -9.21035 14.4284 89.3471 15.424 
175.746 165.688 161.631 139.551 139.695 178.175 158.45 153.732 85.0083 83.0524 -134.787 132.955 -18.1107 -110.842 144.78 -87.5391 -78.0336 132.206 -93.2754 -49.294 125.782 -1.10502 -36.359 130.467 -10.3208 -56.3067 162.697 -9.23879 14.3475 89.8693 14.9489 
175.719 165.738 164.27 139.411 139.75 177.882 158.661 154.016 85.0597 83.2493 -134.177 132.822 -18.1272 -110.492 144.676 -87.6362 -77.988 132.804 -94.0965 -49.0596 125.404 -1.23335 -36.096 130.067 -10.2828 -55.8694 162.525 -9.26708 14.2775 90.5433 14.2708 
175.658 165.748 165.525 139.227 139.723 177.586 158.844 154.061 85.151 83.4708 -133.679 132.763 -18.11 -110.099 144.62 -87.7962 -77.6835 133.274 -94.6013 -48.8385 125.078 -1.32293 -35.8934 129.713 -10.2744 -55.468 162.447 -9.27492 14.3217 91.0107 13.8626 
175.584 165.674 165.217 139.017 139.607 177.119 158.846 155.378 85.2342 83.59 -133.18 132.788 -18.1196 -109.593 144.46 -87.9386 -77.4319 133.782 -95.4041 -48.6034 124.79 -1.41103 -35.6963 129.425 -10.288 -55.1021 162.417 -9.29687 14.4096 91.6125 13.2708 
175.557 165.559 163.015 138.833 139.422 176.739 158.723 156.852 85.2805 83.5481 -132.753 132.869 -18.219 -109.048 144.446 -88.1259 -77.0741 134.195 -96.0889 -48.2395 124.738 -1.56611 -35.4289 129.45 -10.4302 -54.7796 162.542 -9.37287 14.5581 91.9863 12.9055 
175.593 165.523 160.607 138.643 139.271 176.284 158.651 158.446 85.2961 83.4471 -132.317 132.962 -18.446 -108.493 144.515 -88.4182 -76.8265 134.713 -96.826 -47.9626 124.68 -1.83165 -35.1985 129.5 -10.6239 -54.5256 162.647 -9.49209 14.6136 92.3375 12.4745 
175.701 165.39 159.246 138.575 139.088 175.941 158.446 159.311 85.3908 83.3448 -132 133.023 -18.7363 -107.988 144.56 -88.7023 -76.6192 135.071 -97.5336 -47.6305 124.679 -2.11046 -34.9626 129.643 -10.9331 -54.3186 162.811 -9.66434 14.7656 92.5184 12.1316 
175.849 165.341 159.269 138.518 138.934 175.598 158.331 159.419 85.4462 83.218 -131.731 133.125 -19.0275 -107.652 144.661 -88.9673 -76.7073 135.316 -98.0785 -47.3768 124.739 -2.35176 -34.794 129.825 -11.1751 -54.1577 162.964 -9.83157 14.8609 92.5778 11.7923 
175.938 165.309 159.867 138.457 138.806 175.438 158.253 158.958 85.5577 83.1196 -131.614 133.372 -19.2674 -107.412 144.888 -89.2591 -76.6758 135.458 -98.456 -47.1221 124.873 -2.58262 -34.6522 130.096 -11.4516 -54.0312 163.205 -10.0018 15.0027 92.4594 11.7022 
176.129 165.371 160.276 138.405 138.78 175.366 158.293 158.341 85.6172 82.9996 -131.456 133.652 -19.5698 -107.263 145.329 -89.5681 -76.5575 135.534 -98.5198 -46.8396 125.14 -2.82292 -34.485 130.511 -11.7234 -53.93 163.493 -10.1467 15.1132 92.1317 11.8959 
176.275 165.397 161.621 138.389 138.777 175.323 158.266 157.556 85.7101 82.9121 -131.333 133.976 -19.8897 -107.167 145.742 -89.8229 -76.5705 135.553 -98.5298 -46.5656 125.428 -3.06051 -34.3311 130.932 -12.0338 -53.8554 163.78 -10.325 15.2369 91.752 12.0743 
176.357 165.458 162.353 138.36 138.762 175.398 158.322 156.73 85.8297 82.8611 -131.282 134.226 -20.1413 -107.117 146.03 -90.0895 -76.3709 135.316 -98.3577 -46.3159 125.718 -3.16657 -34.1998 131.306 -12.2866 -53.8074 164.036 -10.4949 15.3994 91.3624 12.4867 
176.394 165.621 162.485 138.417 138.827 175.65 158.547 155.939 85.8906 82.8056 -131.271 134.485 -20.3213 -107.129 146.373 -90.3679 -75.9948 135.04 -98.0294 -46.0731 126.013 -3.20992 -34.0557 131.636 -12.4849 -53.7303 164.236 -10.6582 15.5367 91.0282 13.1088 
176.302 165.798 163.224 138.592 138.849 175.964 158.796 154.976 86.0673 82.8222 -131.324 134.781 -20.4387 -107.156 146.661 -90.6306 -75.6833 134.62 -97.6125 -45.7688 126.243 -3.20227 -33.8882 131.923 -12.7424 -53.6541 164.425 -10.818 15.7772 90.5988 13.7794 
176.208 165.971 164.009 138.838 138.895 176.292 159.084 153.913 86.2921 82.8621 -131.39 135.015 -20.5171 -107.223 146.948 -90.9174 -75.3568 134.127 -97.12 -45.4648 126.435 -3.16854 -33.7284 132.197 -12.9412 -53.5743 164.6 -10.9919 15.9788 90.1375 14.5469 
176.056 166.32 165.369 139.435 139.111 176.959 159.64 152.269 86.6285 83.0177 -131.459 135.641 -20.8326 -107.227 147.758 -91.599 -74.6669 133.661 -96.6369 -45.0083 126.705 -3.2836 -33.421 132.521 -13.3494 -53.2838 164.878 -11.4072 16.1832 89.5327 15.8002 
175.859 166.574 165.847 139.835 139.322 177.351 160.05 151.051 86.728 83.1115 -131.626 136.045 -20.9062 -107.152 148.177 -91.9585 -74.1342 133.144 -95.862 -44.8752 126.912 -3.19442 -33.2993 132.685 -13.3973 -53.1602 165.013 -11.5595 16.2395 88.9821 16.7371 
175.648 166.788 166.316 140.199 139.622 177.799 160.379 149.779 86.7879 83.274 -131.801 136.626 -20.985 -107.003 148.665 -92.3397 -73.5778 132.897 -95.2318 -44.7586 127.112 -3.28502 -33.1542 132.815 -13.5341 -52.9546 165.169 -11.7853 16.2199 88.4575 17.522 
175.535 166.906 167.013 140.499 139.92 178.11 160.576 148.618 86.837 83.4266 -131.85 137.192 -21.127 -106.85 149.169 -92.6081 -73.2518 132.867 -94.7165 -44.6857 127.267 -3.41108 -33.0079 132.916 -13.6191 -52.7378 165.29 -11.9753 16.0909 88.0286 18.0474 
175.394 166.992 166.96 140.837 140.141 178.445 160.749 147.411 86.8759 83.6049 -131.905 137.932 -21.238 -106.611 149.702 -92.8571 -72.6586 132.973 -94.2414 -44.6744 127.408 -3.48532 -32.9055 132.948 -13.6972 -52.4667 165.446 -12.1256 16.0266 87.7221 18.5544 
175.23 167.045 165.851 141.18 140.45 178.805 160.867 146.025 86.8715 83.7936 -131.944 138.614 -21.3459 -106.273 150.205 -93.1052 -71.9036 133.173 -93.7867 -44.6948 127.508 -3.5675 -32.807 132.929 -13.7113 -52.1697 165.56 -12.2427 15.9056 87.4907 19.0095 
175.185 167.057 165.699 141.468 140.689 178.953 160.891 144.506 86.8445 83.9759 -131.825 139.246 -21.5033 -105.931 150.712 -93.2581 -71.5348 133.548 -93.3784 -44.7608 127.56 -3.67476 -32.738 132.843 -13.7132 -51.8478 165.634 -12.3274 15.7465 87.3191 19.1356 
175.172 167.013 165.754 141.599 140.789 179.049 160.881 143.04 86.8506 84.1338 -131.602 139.679 -21.6357 -105.606 150.991 -93.3105 -71.3162 133.979 -93.1919 -44.7718 127.516 -3.77304 -32.6126 132.699 -13.6883 -51.5018 165.628 -12.3967 15.5606 87.3373 18.972 
175.191 166.924 165.277 141.66 140.803 179.024 160.819 141.663 86.8196 84.215 -131.252 139.957 -21.7555 -105.228 151.118 -93.2775 -71.134 134.321 -93.0107 -44.7068 127.403 -3.86662 -32.4307 132.516 -13.6632 -51.1314 165.541 -12.4277 15.4005 87.3681 18.7267 
175.28 166.784 165.228 141.712 140.713 178.837 160.676 140.735 86.7291 84.2638 -130.76 140.117 -21.8982 -104.87 151.161 -93.1676 -71.1204 134.879 -93.1588 -44.6162 127.298 -3.97445 -32.253 132.325 -13.6561 -50.7547 165.459 -12.4498 15.2805 87.6926 18.1385 
