178.117 178.233 170.324 141.6 131.279 171.996 175.818 176.491 100.478 88.9063 49.2689 441.625 -77.1906 11.8796 426.441 -126.719 -41.0324 436.695 -116.618 -12.3881 482.258 -26.1832 -22.5007 468.4 -16.5691 0.116894 427.209 -20.0222 10.4463 83.7007 25.5393 
178.649 178.132 171.241 144.496 130.249 172.092 175.718 177.062 100.897 88.5516 49.1947 442.264 -77.1355 12.1564 426.442 -126.867 -41.2743 436.313 -117.012 -12.7313 482.815 -26.8337 -22.8842 468.406 -16.9807 0.00255734 427.359 -20.1259 10.4135 83.5541 25.7399 
178.813 178.068 172.496 148.378 130.076 171.888 175.681 177.482 102.142 88.644 48.9357 443.008 -77.0631 12.2061 426.83 -126.953 -41.3915 436.309 -117.331 -12.9844 483.834 -27.4222 -23.0064 468.65 -17.1779 -0.0744435 427.552 -20.2562 10.4093 83.2653 25.7163 
178.783 178.035 173.504 159.658 130.165 171.77 175.746 177.82 105.403 89.0656 48.952 443.334 -77.0762 12.1784 427.204 -127.041 -41.587 436.111 -117.459 -13.9847 486.026 -29.686 -23.2634 469.11 -17.5424 -0.173489 427.789 -20.3883 10.3579 81.4038 25.7309 
178.67 178.155 172.053 157.184 130.832 171.597 175.903 176.32 106.445 89.2009 48.8041 442.948 -77.2657 12.0371 427.996 -126.912 -41.9584 436.617 -117.118 -14.8201 486.462 -30.7772 -23.1306 469.287 -17.4974 -0.321661 427.909 -20.552 10.9164 80.1173 25.9305 
178.675 178.015 172.844 153.805 131.076 171.492 175.945 176.498 107.755 89.7046 48.7735 443.032 -77.2564 12.1418 428.45 -126.838 -41.9227 436.484 -117.027 -15.7325 486.863 -32.2616 -23.253 469.607 -17.843 -0.393774 427.978 -20.654 11.3316 78.813 25.9346 
178.614 177.877 171.985 148.307 131.685 171.494 175.54 175.251 107.853 89.7263 48.4968 442.951 -77.3717 12.2032 428.562 -126.656 -41.4352 436.667 -117.06 -16.1149 486.539 -32.9723 -22.9296 469.611 -17.7996 -0.486471 427.946 -20.7008 11.9973 77.9469 25.679 
178.393 177.794 171.368 143.828 132.208 171.502 175.491 174.647 109.527 90.1283 48.1936 443.093 -77.5048 11.8707 429.027 -126.395 -41.1137 436.83 -117.258 -17.2319 486.454 -34.3024 -23.096 469.389 -18.0056 -0.457238 427.699 -20.7393 12.6827 76.0592 25.0721 
178.222 177.578 171.833 141.1 132.713 171.343 175.687 175.151 110.446 90.5097 48.269 442.902 -77.5483 11.8046 429.24 -126.375 -40.9062 436.731 -117.191 -17.719 486.641 -35.4573 -22.9915 469.72 -18.2069 -0.535394 427.789 -20.8353 13.2443 75.1477 24.8803 
178.135 177.429 169.196 138.225 133.654 171.14 175.808 175.95 109.189 90.3254 48.1556 442.886 -77.5551 12.1537 429.432 -126.316 -40.3519 436.293 -117.387 -17.4315 486.244 -35.1007 -22.843 469.881 -18.2466 -0.609017 428.078 -20.9738 13.2308 76.1021 24.7032 
177.941 177.137 169.96 136.919 134.413 170.827 175.968 176.639 108.338 90.0645 47.8391 443.035 -77.5094 12.2475 429.781 -126.244 -40.3358 435.851 -117.461 -17.3911 485.715 -34.6152 -22.8776 469.614 -18.0942 -0.690796 428.003 -21.1003 13.2181 76.9178 24.69 
177.79 176.617 173.566 134.39 134.863 170.656 176.015 177.846 107.698 90.0667 47.4561 443.001 -77.5168 12.2951 430.011 -126.11 -39.9078 435.034 -117.661 -17.4315 485.09 -34.9046 -22.682 469.446 -17.9461 -0.779636 427.867 -21.1721 13.5403 77.206 24.3247 
177.625 176.302 172.838 131.996 135.267 170.689 176.128 177.602 107.375 90.1696 47.0811 443.291 -77.5447 11.9827 430.732 -125.688 -39.6248 435.378 -117.649 -17.7043 484.237 -35.0465 -22.6555 468.881 -17.6616 -0.741074 427.545 -21.1195 13.8365 76.3274 23.7926 
177.588 176.408 175.827 133.76 134.991 170.689 176.203 178.602 107.646 90.0919 47.0368 443.13 -77.3553 12.2327 430.409 -125.639 -39.4068 434.429 -117.817 -18.0897 484.246 -35.7718 -22.6346 468.671 -17.6053 -0.751652 427.42 -21.0404 14.3663 76.1003 23.7476 
177.501 176.774 176.001 135.712 135.022 170.751 176.197 178.66 106.024 89.8417 47.219 442.765 -77.3584 11.9609 430.291 -125.554 -40.0204 434.184 -117.633 -17.6412 483.852 -34.0548 -22.908 468.377 -17.3126 -0.860587 427.382 -20.944 13.4932 77.8168 24.0033 
177.208 176.551 175.84 135.933 135.07 170.488 176.247 178.607 105.964 89.9201 47.105 443.086 -77.289 11.8298 430.867 -125.594 -40.2562 434.44 -117.587 -17.688 483.863 -33.9867 -22.926 468.37 -17.1815 -0.881683 427.43 -20.993 13.5156 77.8271 24.0533 
177.149 176.512 176.797 137.335 135.119 170.46 176.276 178.927 106.504 90.2005 47.2568 443.415 -77.1594 11.768 431.336 -125.684 -40.6828 434.556 -117.525 -17.9478 484.327 -34.3497 -22.9888 468.618 -17.1019 -0.877324 427.602 -20.9956 13.6886 77.6086 24.2759 
177.172 176.445 175.558 138.366 135.017 170.49 176.309 178.512 106.532 90.4065 47.2885 443.486 -77.1338 11.6171 431.727 -125.726 -40.6356 434.888 -117.495 -18.1221 484.4 -34.3293 -23.1319 468.674 -17.0074 -0.906814 427.675 -20.9673 13.6353 77.3604 24.1442 
176.928 176.614 172.197 139.056 134.873 170.503 176.506 177.388 105.164 89.9741 46.9971 443.932 -76.9212 11.5403 432.276 -125.496 -40.6142 435.625 -117.276 -17.1512 483.912 -32.1926 -23.1536 468.252 -16.3936 -0.776485 427.685 -20.8025 12.6439 78.7675 24.0526 
177.082 176.642 172.849 143.348 134.899 170.693 176.406 177.605 105.476 90.0811 47.1203 443.818 -76.8308 11.5432 432.718 -125.281 -40.8612 435.467 -117.278 -17.4777 484.25 -32.1733 -23.2114 468.196 -16.2534 -0.747092 427.646 -20.6996 12.8755 78.6925 24.1264 
176.912 176.259 170.953 152.792 134.698 170.67 176.748 176.846 106.828 90.2905 47.5955 443.952 -76.6714 11.8593 432.703 -125.391 -40.9602 435.357 -117.2 -18.1392 485.336 -33.2847 -23.569 468.375 -16.4789 -0.720487 427.696 -20.6528 13.0568 77.6736 24.4695 
177.059 176.229 173.771 157.709 134.93 170.7 176.689 176.733 107.7 90.5636 47.7086 444.176 -76.5716 12.059 432.794 -125.3 -40.9137 435.096 -117.16 -18.5113 485.941 -34.02 -23.5014 468.601 -16.4785 -0.685555 427.759 -20.5716 13.4962 77.1268 24.5691 
177.044 176.376 177.001 154.582 134.692 170.539 176.74 177.126 106.49 90.4746 47.664 444.265 -76.4304 12.1511 432.894 -125.178 -41.0249 434.712 -117.099 -17.6843 485.52 -32.4792 -23.5566 468.647 -16.2783 -0.628945 427.789 -20.4056 12.5291 78.8404 24.6589 
177.125 177.176 174.374 153.038 134.541 170.708 176.83 178.114 105.97 90.3124 47.7383 443.966 -76.4787 12.28 432.48 -125.169 -41.4036 434.107 -117.183 -17.4474 485.226 -31.2132 -23.7205 468.446 -16.0254 -0.651084 427.647 -20.2866 12.0837 80.2256 24.9747 
177.1 177.621 177.7 151.511 134.575 170.665 176.938 179.228 105.82 90.3229 47.8224 443.777 -76.5349 12.3527 432.243 -125.242 -41.8207 433.175 -117.313 -17.3987 485.04 -30.3975 -23.8599 468.334 -15.8198 -0.637582 427.533 -20.2552 11.8369 81.4805 25.2588 
177.11 177.547 175.741 153.592 134.261 170.775 177.142 178.571 106.765 90.5166 48.1185 444.154 -76.3759 12.1954 432.103 -125.28 -42.3151 433.103 -117.099 -17.8298 485.71 -30.5284 -24.1785 468.576 -15.7638 -0.663696 427.601 -20.1398 11.7682 81.3063 25.5327 
177.175 177.564 177.574 154.926 134.076 170.917 176.977 179.185 107.747 90.8737 48.4339 444.023 -76.3179 12.2362 431.538 -125.35 -42.6137 432.424 -117.27 -18.4888 486.025 -31.5783 -24.5866 468.626 -16.1516 -0.651677 427.453 -20.0783 11.7555 80.5829 25.7193 
177.273 177.825 177.828 151.325 133.852 171.054 176.878 179.271 107.734 90.9382 48.5018 443.718 -76.4786 12.1042 430.992 -125.48 -42.8562 432.292 -117.295 -18.728 485.807 -31.5924 -24.8267 468.628 -16.3514 -0.662393 427.373 -20.0783 11.6325 80.5134 25.8029 
177.273 177.602 177.564 151.124 133.807 171.297 176.696 179.182 108.31 91.6066 48.8659 443.323 -76.4848 12.025 430.752 -125.397 -42.7902 431.945 -117.266 -18.7692 485.65 -32.9885 -25.0715 468.697 -16.6998 -0.637856 427.259 -20.0236 11.2186 79.4394 25.7056 
177.359 177.711 176.754 152.546 133.617 171.567 176.357 178.91 109.325 92.2092 49.2122 442.955 -76.6065 11.6207 430.501 -125.359 -42.8536 431.811 -117.301 -19.3618 485.743 -34.4282 -25.3154 468.74 -17.0585 -0.657723 427.064 -19.9574 11.3653 77.9461 25.4227 
177.555 177.281 174.005 155.242 133.309 171.731 176.314 177.988 110.392 92.651 49.4315 443.168 -76.625 11.4569 430.176 -125.481 -42.7641 431.896 -117.215 -19.9716 486.144 -36.1796 -25.5275 469.058 -17.6282 -0.646653 427.095 -19.9488 11.655 76.2908 25.2727 
177.594 176.953 173.611 150.162 133.254 171.604 176.468 177.832 109.517 92.6774 49.3065 443.735 -76.5656 11.5403 429.872 -125.629 -42.6195 431.786 -117.2 -19.502 485.89 -35.5172 -25.625 469.266 -17.8734 -0.613114 427.253 -19.9983 11.0336 77.175 25.2747 
177.595 177.228 175.507 147.381 132.977 171.593 176.479 178.491 110.019 92.6578 49.3338 444.157 -76.5265 11.9665 429.338 -125.77 -42.6166 431.438 -117.482 -19.7729 486.16 -35.5387 -25.8199 469.428 -18.0742 -0.567989 427.361 -20.0008 11.0019 77.4162 25.5491 
177.18 177.562 176.192 144.685 133.027 171.295 176.403 178.721 108.737 92.415 48.944 444.6 -76.506 12.1394 429.013 -125.961 -42.5745 431.642 -117.606 -19.0687 485.75 -33.9971 -25.9603 469.386 -17.9799 -0.548636 427.355 -20.061 10.2178 78.8711 25.6907 
176.985 177.576 176.109 144.686 133.374 171.242 176.348 178.693 109.179 92.6345 49.0403 444.635 -76.4545 12.136 428.808 -126.096 -42.4975 431.925 -117.666 -19.4416 485.91 -34.082 -26.0947 469.452 -18.0351 -0.545163 427.328 -20.0976 10.3531 78.5147 25.678 
176.87 177.1 171.593 151.763 133.143 171.372 176.819 177.178 110.834 93.2264 49.7201 444.335 -76.3966 12.2405 428.683 -126.447 -42.5667 432.722 -117.608 -20.0949 487.192 -35.5692 -26.422 470.092 -18.7407 -0.479157 427.58 -20.1773 10.4444 76.8902 25.889 
177.055 176.647 173.105 157.994 133.007 171.559 176.898 175.54 111.83 93.7394 50.0896 444.414 -76.4413 12.4004 428.427 -126.755 -42.6863 432.961 -117.554 -20.6837 487.877 -37.1076 -26.7784 470.52 -19.5404 -0.427667 427.718 -20.3007 10.4496 75.5566 26.1644 
176.999 175.988 173.798 170.477 133.278 171.758 177.035 174.139 112.861 94.7059 50.6776 444.199 -76.5619 12.6043 428.267 -127.026 -42.8695 432.404 -117.611 -21.0978 488.409 -39.6255 -27.1037 471.035 -20.3989 -0.318625 427.899 -20.4392 10.3316 74.1242 26.404 
177.216 175.631 174.356 178.078 134.069 171.762 176.836 172.884 114.492 95.241 50.4614 444.656 -76.5278 12.7966 428.388 -127.182 -42.7281 432.629 -117.56 -22.2085 488.819 -41.4836 -27.141 471.27 -20.817 -0.208151 427.949 -20.5441 11.3267 72.306 26.4779 
177.405 175.732 174.934 166.153 134.784 171.749 176.854 172.654 113.142 95.4165 50.3449 444.791 -76.4474 13.1344 428.131 -127.361 -42.5195 432.666 -117.712 -21.6988 488.266 -40.2501 -27.0062 471.214 -20.7776 -0.145559 427.787 -20.6599 10.911 73.3459 26.6048 
177.348 175.83 175.445 156.557 135.229 171.459 176.858 172.395 110.175 94.6574 49.9102 445.175 -76.5478 13.1895 428.531 -127.398 -42.2544 433.129 -117.654 -20.0954 487.267 -37.3974 -26.5461 470.889 -20.1269 -0.0869021 427.852 -20.8098 10.0457 75.8141 26.5469 
177.33 176.033 175.031 150.336 135.506 171.244 176.572 172.397 108.257 93.7353 49.2831 445.579 -76.5969 13.18 429.087 -127.248 -41.9322 433.833 -117.537 -19.3365 486.372 -35.3402 -26.0357 470.407 -19.3685 -0.0903274 427.909 -20.9264 10.1377 77.2311 26.4249 
177.178 176.201 175.888 148.076 135.728 171.436 176.497 171.032 108.733 93.7223 49.0945 446.072 -76.5905 13.1007 429.845 -126.861 -42.0107 435.021 -117.034 -19.7078 486.201 -35.6599 -25.7424 470.217 -19.1539 0.00685458 427.865 -20.8739 10.7911 75.7761 26.5042 
177.185 176.414 175.858 147.345 135.874 171.701 176.28 171.04 107.946 93.6269 49.1994 446.396 -76.682 13.2569 429.773 -126.839 -41.479 435.47 -116.936 -19.4675 485.847 -35.713 -25.4399 470.197 -19.1092 0.108477 427.97 -20.9648 10.9202 75.5004 26.4148 
177.472 176.896 176.088 148.888 136.049 172.015 175.989 171.741 107.776 93.2553 49.3897 446.153 -76.784 13.4811 429.415 -126.843 -41.046 435.551 -117.132 -19.6081 485.614 -35.6847 -25.3734 469.769 -19.0594 0.107055 427.777 -21.0853 11.1869 75.3439 26.3815 
177.25 177.161 177.475 149.109 135.889 171.901 176.048 171.135 107.404 92.7599 49.5466 445.64 -76.8236 13.5047 429.619 -126.909 -40.8953 436.429 -116.88 -19.3643 485.345 -35.2436 -24.8392 469.362 -18.5247 0.15121 427.687 -21.1992 11.6965 75.1766 26.5098 
177.042 177.15 177.7 148.99 135.711 171.651 176.08 170.173 106.781 92.3778 49.6172 445.485 -76.9277 13.4334 430.202 -127.011 -40.8791 437.259 -116.64 -19.0547 485.012 -34.9211 -24.4104 469.099 -18.3353 0.201323 427.621 -21.3854 12.0001 75.0656 26.5633 
176.891 176.889 177.372 149.018 135.248 171.659 176.074 169.647 105.323 92.5018 49.9264 445.441 -77.0659 13.4863 430.856 -127.038 -41.1441 437.432 -116.487 -18.0587 484.666 -34.4491 -24.003 469.389 -18.3906 0.251406 427.797 -21.4902 11.5433 75.9316 26.7198 
176.864 176.668 177.134 146.473 134.836 171.688 175.93 169.062 103.634 92.672 50.1377 445.121 -77.2927 13.2387 431.292 -127.127 -41.3107 437.903 -116.381 -17.2736 483.985 -34.1702 -23.7496 469.657 -18.657 0.263238 427.907 -21.6016 11.0636 76.3171 26.656 
176.917 176.547 177.237 144.174 134.583 171.693 175.822 168.336 102.009 92.5891 50.1627 444.839 -77.5129 12.9969 431.219 -127.214 -41.3087 438.403 -116.141 -16.7089 483.351 -33.6568 -23.783 469.77 -18.9356 0.210249 427.994 -21.6947 10.51 76.7418 26.6614 
176.944 176.574 177.051 142.17 134.108 171.597 175.742 167.819 100.501 92.2695 49.9901 444.323 -77.7373 12.7708 430.966 -127.323 -41.2351 438.835 -116.01 -16.3021 482.688 -33.1233 -23.7531 469.723 -19.1858 0.143622 427.965 -21.7843 10.2838 77.1096 26.6104 
176.963 176.563 176.989 140.872 134.089 171.493 175.796 167.828 99.6213 91.9986 49.806 444.138 -77.8781 12.5852 430.897 -127.409 -40.8527 439.46 -115.954 -16.0117 482.312 -32.6377 -23.6531 469.674 -19.1939 0.0564874 427.964 -21.9044 10.2535 77.3056 26.4114 
176.868 176.223 176.903 139.849 133.858 171.341 176.192 167.609 99.105 91.8265 49.9281 443.518 -77.9352 12.4708 431.033 -127.564 -40.7203 439.861 -116.068 -15.8105 482.329 -32.4523 -23.5381 469.943 -19.3063 8.99991e-05 428.163 -22.0308 10.2973 77.561 26.2569 
176.987 176.052 176.773 139.895 133.538 171.297 176.572 167.589 99.4761 91.7888 50.0392 443.177 -77.9605 12.6095 430.778 -127.921 -40.5039 440.477 -116.289 -15.818 482.729 -32.6318 -23.4619 470.213 -19.4457 -0.0465036 428.207 -22.1486 10.4326 77.1752 26.3147 
176.795 175.842 176.884 139.644 133.391 171.318 177.033 167.476 99.9168 92.3238 50.0465 443.324 -77.9331 12.6795 431.149 -127.907 -40.5191 440.901 -116.455 -15.7104 482.891 -32.7895 -23.6602 470.47 -19.7978 0.0032637 428.141 -22.153 10.0978 76.757 26.2267 
176.885 175.767 177.425 138.636 133.614 171.385 176.918 167.589 99.3265 92.5426 50.1068 442.984 -77.9827 12.7701 431.475 -127.816 -40.1531 440.87 -116.436 -15.383 482.434 -32.5834 -23.5841 470.444 -19.8135 0.00163664 428.096 -22.1981 9.88729 77.0351 25.9966 
177.077 175.758 177.919 137.334 133.828 171.408 176.798 167.432 98.6484 92.7963 50.097 442.935 -77.9741 13.0348 431.319 -127.786 -39.9779 440.499 -116.374 -15.2719 481.924 -32.7752 -23.6699 470.473 -19.9865 -0.0475357 428.1 -22.2132 9.62194 77.1573 26.0944 
177.256 175.8 178.305 136.158 134.062 171.341 176.559 166.922 98.1256 92.7766 49.8256 442.889 -78.1274 12.9581 431.494 -127.798 -39.7807 440.776 -116.334 -15.1342 481.463 -32.766 -23.6334 470.337 -19.8922 -0.141669 428.022 -22.3194 9.48391 77.0658 25.985 
177.466 175.839 178.23 136.351 134.432 171.224 176.536 166.892 97.6609 92.3156 49.3639 443.121 -78.1793 12.9842 431.69 -127.774 -39.9427 440.338 -116.391 -15.2199 481.121 -32.3294 -23.5824 469.939 -19.5018 -0.193885 428.007 -22.3582 9.66587 77.6923 26.0119 
177.381 175.823 178.078 136.346 134.427 170.845 176.517 167.491 97.0612 91.6955 48.6482 443.788 -78.1301 13.1195 431.847 -127.811 -40.1411 439.699 -116.676 -15.0438 480.854 -31.7213 -23.3642 469.664 -19.132 -0.241497 428.055 -22.416 9.88231 78.8946 26.0406 
177.231 175.611 177.955 135.617 134.469 170.629 176.598 167.902 96.6341 91.395 48.3677 444.54 -77.9511 13.8103 431.838 -127.942 -40.3769 438.773 -117.027 -14.7387 480.473 -31.2393 -23.2524 469.402 -18.8585 -0.245285 428.037 -22.481 9.79539 80.2422 26.4991 
177.456 175.508 177.964 135.898 134.449 170.584 176.866 167.982 96.1769 90.9124 48.0593 445.22 -77.8704 14.3748 431.507 -128.069 -40.5599 438.314 -117.153 -14.5924 480.313 -30.7387 -23.1319 469.176 -18.6271 -0.271225 428.114 -22.5582 9.93883 81.227 27.0306 
177.584 175.352 178.005 136.265 134.413 170.682 177.128 168.83 95.9213 91.0071 48.2068 445.623 -77.7526 15.1444 431.189 -128.252 -40.9434 437.098 -117.586 -14.581 480.352 -30.7515 -23.1247 469.34 -18.7006 -0.271148 428.201 -22.6128 9.9355 82.3001 27.636 
177.554 175.256 177.883 136.618 134.098 170.967 177.341 169.26 95.8491 91.2918 48.7403 445.577 -77.7698 15.6404 430.815 -128.384 -41.3236 436.281 -117.867 -14.8568 480.586 -31.1864 -23.417 469.693 -19.1705 -0.270061 428.368 -22.6257 9.84512 82.5623 28.1408 
177.761 175.351 177.455 136.461 133.696 171.331 177.207 169.122 95.7347 91.6651 49.2694 445.14 -77.9375 15.6422 430.799 -128.353 -41.5206 435.836 -118.143 -15.3562 480.598 -32.031 -23.9185 469.91 -19.9272 -0.314021 428.452 -22.6572 9.70866 81.9846 28.1469 
177.898 175.418 177.449 136.432 133.724 171.515 177.222 168.947 95.8857 92.1001 49.4949 444.796 -77.985 15.7859 430.334 -128.391 -41.3817 435.644 -118.295 -15.7149 480.498 -32.7741 -24.1668 469.987 -20.381 -0.305467 428.26 -22.6458 9.63118 81.1562 28.1405 
177.957 175.465 177.073 136.765 133.623 171.635 177.309 168.986 96.0256 92.4838 49.8381 444.473 -78.0294 15.8568 430.195 -128.507 -41.3436 435.517 -118.577 -16.0241 480.68 -33.5227 -24.3846 470.232 -20.7996 -0.276759 428.334 -22.6342 9.54012 80.4766 28.0811 
178.106 175.571 176.835 137.524 133.445 171.821 177.273 169.1 96.2471 92.6899 49.9201 444.167 -78.0092 15.8583 429.687 -128.49 -41.0768 435.247 -118.671 -16.4871 480.768 -34.0388 -24.8162 470.192 -21.1947 -0.274165 428.272 -22.5173 9.46317 79.7881 27.9011 
178.141 175.668 176.67 138.236 133.536 171.926 177.281 169.035 96.6141 93.0978 50.0473 443.81 -78.0216 15.7222 429.702 -128.451 -40.8884 435.362 -118.718 -16.9792 480.891 -34.5293 -25.2016 470.196 -21.4704 -0.278135 428.169 -22.461 9.38869 78.9186 27.6758 
178.22 175.925 176.522 138.552 133.841 171.963 176.882 169.723 97.4461 93.0127 49.7819 443.799 -78.0828 15.3963 429.792 -128.211 -40.3557 435.421 -118.806 -17.5026 481.173 -35.0063 -25.2445 470.093 -21.3924 -0.311568 428.11 -22.3866 9.72688 78.0155 27.0579 
178.35 176.037 176.552 138.907 133.726 172.147 176.724 169.909 97.8115 92.9599 49.675 443.479 -78.1333 15.1892 429.354 -128.049 -40.1343 435.143 -118.684 -17.8498 481.292 -35.6795 -25.1754 470.102 -21.4841 -0.359377 428.082 -22.2607 10.0627 77.2344 26.7781 
178.355 175.945 176.405 139.573 133.634 172.169 176.834 169.829 98.2341 93.1974 49.7112 443.343 -77.9921 15.1815 429.208 -127.995 -40.1356 435.088 -118.626 -18.1237 481.562 -36.0905 -25.274 470.269 -21.5859 -0.364344 428.089 -22.1438 10.1449 76.7304 26.7577 
178.335 175.875 176.229 139.971 133.388 172.199 176.811 169.796 98.2395 93.3963 49.641 443.256 -77.8641 15.2662 429.054 -127.977 -39.933 435.146 -118.644 -18.3963 481.58 -36.5601 -25.3714 470.372 -21.8504 -0.351491 428.101 -22.0806 10.263 76.1085 26.6682 
178.254 175.844 176.112 140.119 133.246 172.127 176.669 169.745 98.129 93.2731 49.4397 443.206 -77.7785 14.9722 429.011 -127.863 -39.9932 435.244 -118.485 -18.3211 481.613 -36.6205 -25.1819 470.406 -21.76 -0.335112 428.076 -21.9837 10.4162 75.9421 26.496 
178.079 175.804 176.219 140.939 133.302 171.879 176.559 169.86 97.9594 93.1305 49.2652 443.247 -77.6785 14.781 429.096 -127.738 -39.9251 435.308 -118.332 -17.7413 481.713 -36.0908 -24.996 470.413 -21.6151 -0.305782 428.109 -21.9195 10.1777 76.5562 26.3177 
177.978 175.854 176.26 141.329 132.908 171.904 176.562 169.583 97.9106 92.9544 49.3599 443.257 -77.7799 14.5881 428.963 -127.863 -39.98 435.751 -118.206 -17.588 481.856 -35.9398 -25.2566 470.444 -21.8485 -0.358644 428.207 -21.9721 9.83832 76.5643 26.3583 
177.712 175.766 176.442 142.075 133.196 171.774 176.522 169.059 97.9438 92.7617 49.3811 443.327 -77.7653 14.2145 429.076 -127.826 -40.123 436.191 -117.906 -17.2519 481.968 -35.3831 -25.1688 470.375 -21.6104 -0.397856 428.23 -21.9902 9.7309 76.906 26.319 
177.772 175.937 176.202 141.959 133.599 171.807 176.644 169.729 98.1355 92.7037 49.3143 443.283 -77.907 13.9047 428.847 -127.721 -39.9558 436.377 -117.93 -17.2264 482.187 -34.9111 -25.1931 470.421 -21.467 -0.441748 428.363 -21.9856 9.77275 77.1987 26.0895 
177.759 175.91 176.328 141.092 133.467 171.794 176.559 169.717 97.7141 92.5438 49.0892 443.069 -78.0664 13.5111 428.938 -127.623 -39.695 436.663 -117.778 -17.3367 481.869 -34.8095 -25.3363 470.261 -21.5035 -0.451874 428.419 -21.9822 9.75042 76.9484 25.7322 
177.613 175.788 176.13 140.059 133.03 171.67 176.625 169.232 97.1956 92.4054 49.0628 442.937 -78.0277 13.4205 429.105 -127.694 -39.5109 437.076 -117.779 -17.2957 481.593 -34.8462 -25.3006 470.236 -21.4534 -0.40465 428.479 -21.9764 9.70896 76.673 25.5727 
177.463 175.892 176.453 139.919 132.558 171.704 176.698 170.428 96.7059 92.3006 49.3676 442.532 -77.9938 13.4395 428.807 -127.737 -39.1108 436.793 -117.984 -17.3371 481.453 -34.9706 -25.3502 470.273 -21.5815 -0.353898 428.511 -21.9171 9.6823 76.6998 25.2803 
177.492 175.731 177.176 139.593 132.413 171.707 176.882 170.934 96.3588 92.3725 49.6911 442.326 -77.8818 13.4938 428.593 -127.781 -38.8913 436.578 -117.993 -17.3478 481.404 -35.1292 -25.3448 470.456 -21.5454 -0.308613 428.558 -21.8582 9.59326 76.7283 25.1765 
177.534 175.898 177.004 138.897 132.704 171.7 176.891 174.587 96.8122 92.4056 49.661 442.521 -77.7587 13.7493 428.349 -127.735 -38.6914 434.736 -118.872 -17.7222 481.571 -35.4263 -25.4502 470.479 -21.4308 -0.292235 428.622 -21.7808 9.7134 77.6007 24.7749 
177.394 175.893 177.726 138.894 132.645 171.68 176.966 175.968 97.8699 92.2216 49.8449 442.151 -77.6404 13.7587 428.263 -127.692 -38.709 433.939 -119.188 -18.5418 481.944 -36.0513 -25.7254 470.323 -21.3488 -0.266453 428.632 -21.6963 10.0718 77.2617 24.6204 
177.481 176.431 173.322 139.483 132.88 171.692 176.751 176.351 99.7933 91.9296 49.7052 441.911 -77.6724 13.8773 428.118 -127.631 -38.656 433.67 -119.472 -19.3224 482.675 -36.4221 -26.0474 470.091 -21.2224 -0.282308 428.633 -21.6507 10.4449 76.8167 24.6068 
177.393 176.649 170.789 142.676 133.085 171.684 176.247 176.312 102.554 91.9612 49.5573 441.544 -77.7796 13.7452 428.14 -127.491 -38.149 433.614 -119.98 -20.4777 483.777 -38.2554 -26.226 470.052 -21.4518 -0.315386 428.663 -21.6644 11.2991 74.9511 24.0607 
177.265 176.977 169.756 149.788 132.407 171.98 176.162 176.266 105.808 92.7272 49.3179 442.232 -77.5303 13.8718 428.185 -127.26 -38.3417 433.566 -119.844 -21.8492 484.548 -40.1049 -26.7003 469.628 -21.6961 -0.125 428.324 -21.5686 11.9566 72.6827 24.2467 
177.195 176.963 170.543 161.157 132.629 172.039 176.09 176.829 108.74 93.3037 49.7138 442.548 -77.4357 14.0107 428.116 -127.288 -38.2481 433.362 -119.884 -23.0034 485.685 -42.4556 -26.8138 469.789 -21.9174 0.000320663 428.319 -21.5621 13.012 70.6603 24.2547 
177.304 176.953 170.959 173.963 133.462 172.165 175.688 176.969 112.287 93.4802 49.8034 443.301 -77.4096 13.7042 428.308 -127.192 -38.4229 433.716 -119.679 -24.1915 486.861 -44.5899 -26.6207 469.951 -21.7587 0.0408738 428.425 -21.5173 14.6555 68.511 24.1991 
177.415 176.843 170.865 179.963 134.06 172.061 175.777 175.824 114.826 93.6457 49.8661 443.648 -77.3288 13.3287 428.943 -127.097 -38.7661 434.274 -119.191 -24.9348 487.754 -45.4877 -26.5101 470.222 -21.5341 0.0654388 428.626 -21.4677 15.6041 67.4012 24.2321 
