164.274 173.855 172.254 123.6 124.129 172.181 171.875 172.22 71.5875 109.086 74.6967 421.204 117.553 92.5189 384.764 47.5699 150.339 370.105 44.3713 146.228 427.968 135.393 163.722 414.496 132.572 134 460.142 108.801 25.3797 95.647 27.0048 
165.412 174.225 171.888 121.073 136.782 165.754 170.612 172.772 73.8172 108.204 81.6795 418.68 118.921 93.0535 384.959 48.0232 148.372 370.573 43.9471 146.693 427.529 136.378 163.073 415.44 134.093 134.085 460.818 109.042 23.328 95.0463 25.1512 
134.795 174.662 172.866 125.709 147.745 157.627 169.709 173.329 76.193 109.277 90.1811 417.624 122.345 92.5144 385.874 48.1819 147.326 372.039 43.3349 148.339 426.51 137.688 163.356 415.144 134.629 133.908 461.453 109.345 22.7618 94.2325 24.7957 
126.939 173.825 173.865 132.404 155.583 151.458 170.052 174.2 79.9654 109.174 94.9298 418.4 123.214 91.6663 387.546 47.8237 147.141 373.43 43.2257 148.382 427.1 140.42 163.162 415.977 135.017 134.156 462.281 109.583 23.7324 95.6187 25.4721 
120.662 171.231 174.195 139.91 163.517 148.374 170.448 174.536 78.475 109.582 96.6472 420.415 120.803 90.8774 388.448 47.6902 147.048 373.932 43.0614 148.847 428.396 140.535 163.27 415.469 135.217 134.43 462.676 109.576 25.0747 96.4295 25.9664 
115.165 166.448 174.64 144.095 165.071 145.911 171.067 174.965 79.5318 108.569 97.4792 422.093 120.152 91.7328 388.791 47.7664 148.915 374.945 42.4569 150.099 428.973 141.217 164.501 416.866 135.869 134.774 463.227 109.62 24.2018 96.8357 26.4221 
112.56 165.92 174.8 145.883 165.646 144.442 170.231 174.891 78.133 108.874 96.268 423.115 119.575 93.0967 389.346 47.8081 150.737 375.808 42.0335 150.388 431.661 141.584 164.979 417.681 136.512 135.096 463.619 109.883 25.7868 99.2899 26.6051 
114.205 165.654 174.518 147.378 157.919 145.52 170.257 174.563 77.9436 106.777 94.7905 423.128 119.488 93.5923 389.613 47.5628 151.567 376.058 41.3021 150.629 432.134 142.029 164.513 419.32 137.503 135.188 463.888 110.215 24.6696 99.9428 26.5661 
117.274 165.087 174.484 147.971 154.998 146.157 170.364 174.556 76.3723 102.648 95.5977 422.491 120.069 94.8313 389.199 48.7569 152.568 376.031 42.2424 151.059 434.662 142.209 164.698 422.226 137.147 135.235 464.19 110.751 25.4304 101.484 26.3315 
119.923 166.209 173.279 145.811 155.586 147.233 170.77 173.731 75.6999 97.8166 96.6217 421.858 121.334 96.1769 388.593 50.035 149.633 375.189 45.8641 151.898 436.004 142.337 164.714 425.269 136.397 135.251 464.685 111.239 25.3535 100.083 23.8952 
122.505 167.583 172.086 146.424 154.505 147.406 169.864 172.773 75.8494 95.2603 97.5273 421.428 121.246 96.0951 388.576 50.9778 149.37 375.121 47.0771 151.918 435.729 142.251 164.409 426.705 135.985 135.355 465.026 111.391 24.2933 98.5596 23.8814 
121.681 168.228 172.828 149.678 148.098 146.329 169.424 174.54 71.5623 91.0457 100.854 421.831 121.53 94.4879 388.827 52.146 147.638 375.659 46.852 152.068 438.384 140.334 163.961 428.028 133.508 135.049 465.261 111.532 27.1372 100.568 23.9407 
124.814 170.818 173.234 146.959 144.64 147.34 171.571 175.063 66.3648 88.9755 101.324 421.182 122.047 93.0406 389.406 52.0968 146.488 375.645 46.9933 152.368 439.215 136.627 165.09 428.31 131.002 134.963 465.403 111.619 27.6005 99.3169 24.506 
125.16 174.563 173.034 147.971 135.427 149.816 173.386 174.765 65.0712 89.2641 99.9951 422.199 121.135 92.2983 389.4 52.0847 146.155 375.412 47.5991 152.111 438.816 135.578 165.548 426.977 128.604 135.012 465.529 111.604 29.581 98.0795 24.8768 
128.803 177.138 173.924 148.322 130.481 152.518 174.541 174.9 65.6354 92.5249 98.8202 421.483 121.727 91.0668 389.072 52.3057 145.328 375.144 46.1358 151.533 437.122 135.465 165.831 424.494 127.633 134.888 465.206 111.639 30.2063 97.5485 24.8207 
144.785 179.762 173.33 144.82 129.517 157.84 175.308 174.274 64.5244 96.0627 93.3126 420.248 123.043 89.8775 388.688 51.8548 143.821 375.229 45.1078 150.962 434.799 133.67 166.162 421.76 127.38 134.754 464.968 111.492 28.6595 95.1313 24.3347 
150.98 179.415 172.72 144.577 130.294 158.37 174.041 173.732 62.0758 101.145 91.3821 421.239 123.962 89.5927 388.856 51.7757 142.74 375.807 44.3872 149.742 434.05 132 165.777 418.977 127.798 134.68 465.365 111.552 28.0899 93.8378 23.485 
159.188 176.681 172.798 140.828 132.509 159.009 172.978 173.596 60.5311 101.714 89.0132 422.571 124.187 89.7545 388.629 51.4728 143.329 375.686 44.0185 148.253 434.253 131.211 165.671 419.268 129.933 134.643 465.63 111.587 25.518 93.8712 23.451 
179.698 176.363 172.49 134.06 133.766 164.121 172.953 173.281 59.9017 102.51 83.0478 425.574 124.162 89.6409 388.871 51.9255 143.402 375.656 44.4679 148.554 434.082 130.639 166.049 419.102 130.628 134.58 466.114 111.72 24.3071 92.6521 23.4934 
177.626 176.744 171.229 129.15 133.232 165.484 172.517 171.858 58.7437 104.283 82.2911 426.734 123.54 90.3284 388.91 52.0986 142.909 375.632 46.6212 147.564 435.413 130.436 166.239 419.042 131.426 134.506 466.53 111.828 25.1275 92.7374 22.8844 
170.631 177.839 170.212 121.927 129.183 166.71 172.77 172.34 58.408 105.716 81.2858 428.231 123.727 90.7983 389.288 52.7712 141.439 375.938 47.4402 146.441 436.515 130.668 167.183 419.262 132.054 134.406 467.222 112.048 26.2239 93.4161 21.582 
168.586 176.834 170.214 122.432 131.4 167.314 172.414 172.911 58.4496 107.676 82.8307 427.893 125.101 90.8118 389.349 53.4563 141.297 377.33 47.4479 147.934 438.359 131.267 166.912 418.705 130.469 134.399 467.764 112.343 29.8828 95.5349 21.4449 
175.743 175.238 170.004 121.324 133.574 164.538 170.254 172.128 60.1463 108.607 85.3752 426.399 125.604 91.4729 390.388 53.3537 141.188 378.357 47.0613 148.326 438.096 132.11 166.301 418.405 131.446 134.269 468.035 112.16 29.4463 95.6141 21.0093 
178.003 174.515 170.061 119.029 136.852 162.653 169.286 172.043 61.0211 107.071 87.7728 425.21 125.029 92.583 390.664 53.147 142.583 378.577 47.1745 148.712 437.998 132.457 166.046 419.49 132.434 134.197 467.955 112.09 28.0583 95.5584 21.2538 
172.057 174.495 170.163 119.486 139.544 161.599 168.767 171.361 60.9939 108.791 90.055 424.406 124.445 92.1115 391.156 53.1971 143.098 378.949 47.22 149.442 437.454 132.012 165.929 418.408 131.568 134.183 468.064 112.231 28.3974 94.0827 22.0351 
165.499 174.159 170.971 124.722 144.459 159.11 168.975 171.753 61.5375 111.819 92.5233 424.202 123.816 90.9666 391.52 53.0745 143.051 378.939 45.7902 149.984 438.179 133.076 166.103 416.815 131.571 134.216 468.085 112.337 30.8837 96.2262 22.7035 
159.966 174.198 172.239 131.081 143.041 156.777 169.058 172.637 61.5002 110.782 95.1692 423.916 124.029 90.2901 391.635 53.1669 143.009 379.273 44.1066 150.518 438.256 133.371 166.149 417.12 130.895 134.226 468.164 112.342 31.4375 97.2908 22.9827 
152.37 174.022 171.971 133.186 142.998 154.17 168.624 171.744 62.3467 110.948 99.4084 423.521 124.143 89.5712 392.395 52.8859 142.461 379.879 43.8531 151.119 437.106 133.148 166.344 417.325 130.354 134.208 468.342 112.438 29.9586 95.4256 23.2247 
147.433 173.825 171.926 137.392 137.33 151.176 168.627 171.611 63.4436 109.094 103.185 422.966 125.516 89.1968 392.738 53.2332 142.039 380.135 43.9201 151.657 435.881 133.544 166.604 417.702 128.608 134.079 468.43 112.573 30.2191 94.0454 23.2583 
143.743 173.886 171.854 134.749 140.534 148.086 170.08 171.42 66.9866 111.758 106.848 422.296 127.236 87.9099 392.779 53.7674 141.346 379.603 44.2273 152.998 431.416 132.923 167.11 416.192 127.518 133.906 468.396 112.618 26.9429 88.1888 23.7852 
142.901 174.536 172.236 138.217 143.112 144.645 171.312 171.416 67.8078 111.671 109.628 421.363 128.727 87.4331 392.258 54.0828 142.011 378.795 44.1809 152.731 430.166 132.952 166.648 416.494 128.286 133.781 468.1 112.521 24.985 87.003 24.5744 
147.521 174.964 173.118 150.736 142.551 141.862 171.147 172.809 70.499 108.954 110.71 420.684 129.107 88.3125 391.847 54.5295 141.962 379.044 44.1764 153.669 429.87 135.07 167.21 418.33 128.698 133.8 468.156 112.411 24.7779 88.1627 23.9523 
146.225 175.348 174.429 159.578 139.427 138.897 172.786 174.457 73.2252 108.388 113.97 420.889 129.864 87.9501 392.475 53.1726 142.62 380.543 43.7779 154.574 429.689 136.744 167.835 419.192 127.742 133.928 468.606 112.23 25.8285 89.2913 24.5968 
147.842 176.728 174.896 165.578 140.457 138.3 173.446 175.57 74.4731 110.89 115.799 419.956 130.21 87.9447 392.536 53.197 143.268 381.313 43.8806 155.056 429.119 137.168 168.296 417.998 125.802 133.816 468.616 112.163 27.9549 88.9609 25.1351 
150.641 179.028 174.008 168.61 141.638 138.303 174.212 175.038 76.2007 112.337 116.133 419.997 130.766 88.8193 392.292 53.7708 143.386 381.38 44.9305 154.526 428.997 138.445 168.86 417.994 125.671 133.645 468.987 112.155 28.431 88.8881 24.5795 
149.353 177.709 173.065 167.076 145.214 135.955 175.321 174.846 72.8046 113.667 117.1 421.56 126.971 90.1804 392.991 53.242 142.841 381.746 45.6343 153.269 432.277 138.387 168.491 418.15 127.079 133.734 469.486 112.196 29.9379 91.2273 23.294 
151.491 179.256 172.666 170.282 151.385 134.662 174.918 174.36 74.1114 113.817 115.357 422.864 124.457 91.3809 393.667 52.4813 143.184 382.072 46.0179 153 433.926 140.712 168.581 418.699 129.327 133.954 470.104 112.167 30.5818 93.5182 22.5803 
153.621 179.971 172.564 169.284 151.448 134.43 176.546 173.808 74.4907 111.507 112.99 423.807 124.617 91.7243 394.296 52.2896 143.473 382.468 46.7011 152.741 435.279 141.481 168.434 420.615 130.444 134.106 470.755 112.231 30.0177 94.3103 22.5964 
157.057 179.98 171.949 167.192 146.486 135.786 175.463 172.983 74.1199 108.461 109.085 425.172 123.784 91.3649 394.678 52.7155 143.354 382.677 47.4413 152.573 435.509 141.182 168.281 422.629 131.576 134.204 471.35 112.205 27.7924 93.514 22.7962 
155.547 179.757 171.497 166.839 145.24 136.981 173.982 172.056 74.7998 107.497 107.529 426.268 124.588 91.2683 394.963 53.6454 143.918 383.2 48.0908 152.985 436.658 141.705 168.645 424.264 131.873 134.366 472.058 112.276 27.5858 93.7971 23.3157 
155.158 178.243 171.284 166.222 143.769 138.71 172.453 171.493 75.4745 105.448 104.877 427.846 124.163 91.5691 395.067 54.8438 144.687 383.513 49.3581 152.902 437.272 142.142 168.513 425.82 131.645 134.396 472.556 112.436 27.4349 93.4803 23.7616 
143.939 178.424 171.874 164.894 146.72 141.228 172.774 171.574 75.7242 104.452 99.6607 430.765 122.748 91.6949 395.389 55.0298 144.822 383.079 49.4019 152.779 437.218 141.998 167.981 426.38 131.808 134.453 472.783 112.35 26.7085 93.0335 23.8151 
134.448 178.295 172.697 162.683 146.175 144.873 171.99 172.078 75.1163 103.093 94.7061 433.336 122.56 91.7073 395.288 55.5903 145.12 382.763 48.648 152.377 437.531 141.848 167.33 427.127 132.735 134.389 473.043 112.339 25.7517 93.4709 23.7433 
134.997 177.327 172.466 160.432 147.356 148.846 171.658 171.449 75.3356 102.613 90.4457 434.286 122.012 91.9481 395.275 54.9073 145.861 382.319 48.7701 152.773 438.097 142.148 167.571 427.796 133.853 134.392 473.189 112.3 25.0241 93.5924 23.9811 
137.565 176.274 172.546 157.836 143.591 151.905 170.905 171.345 74.4474 100.593 86.7627 434.851 121.885 92.1965 395.113 54.468 146.651 381.949 47.8612 152.065 439.763 142.471 166.544 429.715 135.434 134.225 473.385 112.232 24.2964 95.6471 24.0475 
140.514 175.517 172.401 157.975 145.359 154.004 171.116 170.965 77.5766 101.438 84.4313 434.779 122.521 92.6418 394.697 53.4603 147.65 381.493 47.4091 152.106 438.651 144.065 165.971 429.908 136.683 133.826 473.443 112.191 23.0849 95.2803 24.1201 
141.534 175.096 171.822 156.067 145.396 153.968 171.238 170.679 78.0015 100.463 84.1712 434.106 124.06 93.7324 394.189 53.1183 147.87 381.486 47.5562 152.581 439.65 144.434 166.361 431.309 136.703 133.537 473.731 112.164 23.1778 95.8131 23.4156 
143.654 174.864 171.894 156.42 147.43 154.398 171.594 170.996 78.9867 100.746 83.3745 433.239 125.643 95.1728 393.64 52.9247 148.428 381.729 47.6404 153.704 440.041 144.72 167.432 431.837 136.33 133.194 473.847 112.114 23.3561 95.8716 22.7275 
144.548 174.688 172.235 156.956 149.897 153.719 172.278 170.947 79.9957 101.152 83.4165 432.785 127.048 95.6041 393.984 51.5493 149.254 382.145 46.6613 153.445 440.135 145.4 167.021 432.176 137.049 133.051 474.114 112.008 22.9363 96.666 22.7878 
145.598 174.434 172.654 159.648 149.893 155.035 172.513 171.385 80.5593 101.47 82.389 433.271 127.729 95.5244 394.948 50.7038 149.285 383.417 44.8966 154.04 440.437 145.433 167.208 432.481 136.817 133.117 474.635 111.842 22.9637 97.4986 22.6964 
143.332 174.253 172.189 161.974 149.196 157.019 172.456 171.823 81.0436 100.581 79.7962 434.42 128.182 94.2182 395.124 50.8522 148.628 384.061 43.831 153.802 440.627 145.756 166.966 432.706 136.623 133.191 474.756 111.598 23.0593 98.6107 23.0439 
151.54 174.191 172.108 163.688 151.158 160.94 171.437 172.431 80.4056 99.7922 76.4487 435.306 127.449 93.9798 395.73 50.8908 147.217 384.508 42.5639 154.025 441.732 145.408 166.999 433.519 136.3 133.373 475.165 111.441 23.407 99.7183 22.2713 
175.434 173.818 172.899 163.974 151.66 169.282 170.781 173.23 78.5994 98.3612 69.6925 437.067 126.977 93.5677 395.745 51.3615 146.205 384.511 42.3355 154.698 442.545 143.956 167.906 434.106 135.35 133.51 475.307 111.212 23.4313 99.5921 21.9501 
174.081 173.607 173.018 162.94 150.65 173.216 170.743 173.236 76.9091 96.1197 65.9199 440.035 125.496 93.7656 396.393 50.5516 146.036 384.15 42.5449 154.719 442.432 142.586 167.68 434.876 135.444 133.672 475.263 110.864 21.9998 98.7459 21.8209 
168.511 173.874 172.99 161.441 150.198 174.743 171.46 173.309 76.1748 95.408 64.9361 441.493 124.724 93.3014 397.213 49.6138 145.392 384.113 42.2113 154.381 442.356 141.77 167.273 434.98 135.507 133.762 475.171 110.511 21.3233 98.8107 21.8959 
166.957 174.047 172.667 157.417 150.225 175.021 171.675 172.7 74.6106 96.141 64.3868 441.6 124.277 93.0541 397.868 48.8875 144.98 383.668 42.8073 152.998 441.301 140.222 166.541 433.493 135.219 133.667 474.746 110.18 20.8524 97.3547 22.1223 
166.013 174.053 172.304 152.886 151.824 176.246 171.807 172.386 73.2884 97.3162 64.1151 442.549 122.857 93.3329 398.492 48.0467 145.435 383.253 42.891 151.907 442.095 139.563 165.677 432.992 135.653 133.806 474.701 109.894 21.3483 98.0239 22.3994 
164.492 173.781 171.695 152.325 148.745 177.036 171.919 172.047 72.2256 94.13 63.6821 443.031 121.745 93.5512 399.184 47.1831 146.083 382.916 43.0258 151.009 443.207 139.239 164.296 434.307 135.255 133.908 474.386 109.436 21.8734 99.4203 23.0545 
165.272 174.539 170.894 150.784 146.568 177.724 173.156 171.777 73.1912 92.4396 63.6684 442.965 120.404 93.3107 399.823 45.9062 146.03 382.427 43.5859 149.832 443.136 139.6 163.427 434.647 134.713 133.88 473.917 108.955 22.0943 99.9604 23.7716 
164.74 173.557 170.273 150.043 145.594 179.427 173.735 171.207 74.6042 92.8433 62.7598 443.229 119.17 93.654 400.821 44.0805 145.938 382.314 43.9009 148.205 442.415 140.275 162.015 434.228 135.155 133.818 473.597 108.493 21.8495 99.9905 24.0955 
164.5 172.13 169.691 149.849 144.661 177.536 175.092 170.545 73.5776 92.9298 61.5748 444.223 117.272 94.0042 401.787 41.6549 146.035 382.243 43.538 147.105 443.637 139.927 161.14 434.267 135.049 133.653 473.413 108.03 23.0014 101.644 24.5143 
159.263 173.38 167.94 146.194 143.242 169.715 174.649 168.044 71.3391 92.9648 58.5044 448.081 112.734 95.3897 402.609 38.1798 145.697 381.36 42.8912 144.851 445.44 138.62 159.078 434.779 136.071 133.559 473.28 107.1 23.1255 103.519 24.1186 
150.41 174.281 166.518 146.068 144.043 161.818 174.327 167.315 71.1885 93.9743 54.7268 451.283 109.093 95.5662 401.711 36.6142 146.247 380.467 42.2274 144.801 444.713 137.698 159.045 433.658 136.056 133.615 472.195 106.373 22.7623 103.314 24.4322 
149.367 173.96 167.52 143.943 143.436 159.415 174.387 168.974 71.9125 92.9277 53.8279 451.408 108.364 95.4244 401.276 35.8739 146.802 380.137 40.0886 144.031 444.78 137.906 158.388 434.066 136.181 133.802 471.634 106.073 22.4955 105.329 24.2883 
143.61 173.966 168.664 142.022 141.99 155.253 174.082 169.871 72.2956 92.8681 53.8997 451.948 105.95 95.7218 400.557 35.4648 147.526 379.701 39.1063 144.441 443.616 137.773 158.267 433.32 135.802 133.5 471.109 106.01 22.3645 104.828 24.108 
141.499 174.229 169.644 144.18 141.036 154.477 174.149 169.858 71.6108 92.8787 55.2111 451.088 104.259 96.2101 400.15 34.3542 146.66 378.674 38.1849 143.834 443.592 137.507 157.699 432.366 135.609 133.321 470.48 105.799 23.2134 105.692 23.2302 
145.623 173.816 171.274 146.791 139.482 158.97 173.3 172.572 70.032 93.2 54.5988 445.953 111.919 96.4964 400.517 34.0836 147.339 381.346 36.3606 144.2 444.939 136.899 158.366 432.169 135.088 133.291 470.832 105.727 24.9145 108.252 22.7592 
134.581 172.857 173.477 150.406 136.388 150.852 172.36 174.402 65.6879 92.6358 59.0925 453.562 101.312 95.1928 401.086 33.3186 144.966 383.012 34.766 144.016 446.648 134.348 158.874 431.644 134.154 133.13 470.97 105.405 26.6127 110.465 21.8562 
134.386 169.508 175.467 154.315 131.908 153.867 170.395 176.86 64.9765 89.2449 60.4825 453.3 99.3934 94.4578 401.745 31.7319 144.774 384.438 33.3902 142.83 447.423 134.058 158.287 431.858 132.964 132.968 471.06 104.884 28.1343 112.75 21.9419 
139.442 167.785 174.922 154.76 131.545 155.978 168.888 175.833 64.6711 89.2482 61.5646 453.027 98.4097 94.4381 402.657 30.4572 144.373 385.307 34.0214 142.76 445.82 133.6 157.251 431.66 133.361 132.825 471.434 104.725 26.0224 110.218 22.0254 
142.264 166.195 174.542 155.508 132.067 158.829 168.132 174.223 64.8092 89.2978 63.6431 451.834 97.2083 96.3189 402.333 29.3778 144.823 385.265 33.6284 142.224 445.286 133.785 156.143 432.099 134.195 132.621 471.909 104.544 24.7362 109.236 20.8226 
144.702 164.383 173.963 156.898 133.532 162.388 166.465 173.56 64.8486 88.9827 65.4974 449.852 95.86 97.7253 401.978 29.6587 145.323 384.459 33.0749 141.793 445.09 133.871 155.416 432.122 134.539 132.536 471.778 104.457 24.4064 109.025 20.0099 
143.03 162.298 173.622 157.791 134.96 164.944 164.137 172.526 65.7832 88.4551 67.5655 448.677 94.5144 99.9853 401.043 30.7105 145.845 383.762 33.6624 141.645 444.513 134.189 155.38 432.189 134.328 132.505 471.773 104.179 24.0902 107.856 18.7042 
147.404 162.91 172.612 159.764 137.727 166.847 163.933 171.196 67.3567 88.8622 67.3174 447.024 94.4879 99.8689 400.024 30.5962 145.746 382.615 33.5013 140.733 443.292 134.524 154.48 431.484 134.284 132.133 471.374 103.543 23.4157 106.857 18.5764 
148.637 163.246 172.095 160.251 139.448 170.104 163.719 170.139 66.6742 88.9698 68.2202 445.762 93.6042 100.384 399.997 30.1348 145.709 382.372 32.8383 139.74 442.526 133.592 153.537 430.42 134.019 131.756 471.177 103.059 23.259 106.052 18.1136 
157.199 165.283 172.378 160.642 143.093 174.382 164.297 169.654 65.2868 87.1102 69.7069 443.655 92.9087 100.486 398.627 30.3559 144.817 380.921 32.8213 138.583 440.473 131.899 151.783 429.493 133.57 131.719 470.38 102.41 21.3891 103.79 17.2915 
174.601 166.316 171.718 157.176 143.281 173.59 164.052 168.992 62.8499 85.7221 72.0299 442.256 92.3038 100.947 397.455 30.7026 145.721 380.798 33.1017 138.036 440.056 129.775 151.757 429.225 132.835 131.433 470.065 102.003 20.6309 102.937 17.347 
174.96 167.406 170.863 154.694 143.143 171.635 164.52 167.347 60.9371 83.4359 72.6163 441.853 91.0852 101.464 396.636 30.3692 143.764 379.596 33.0917 136.783 439.23 127.715 150.823 428.626 131.713 130.673 469.321 101.275 20.0514 101.358 15.8639 
162.86 169.394 170.282 153.766 139.9 170.621 165.317 166.076 59.3923 83.7134 72.052 442.59 91.1466 102.083 396.241 30.0722 143.807 379.567 33.076 136.789 439.04 126.863 150.376 427.986 131.556 130.523 469.234 101.327 20.2677 100.643 15.3968 
158.164 169.365 169.779 154.655 136.427 171.062 165.398 165.611 60.5835 83.8 71.4766 440.885 92.0496 103.631 395.956 30.13 143.762 379.744 33.5964 135.848 437.838 127.509 149.51 427.437 131.338 130.114 469.01 101.39 20.445 99.3776 14.3761 
154.337 168.027 169.541 154.59 137.054 172.643 164.174 164.801 61.5064 83.7265 69.0691 440.209 93.1387 105.789 396.107 30.4365 143.351 380.871 33.6273 134.644 436.68 127.551 148.259 427.193 131.414 129.925 469.045 101.487 19.4654 97.8106 12.4987 
179.377 166.168 168.75 156.956 136.032 168.536 162.4 164.003 61.9569 83.1906 69.7845 438.756 93.1945 106.63 395.847 31.5656 142.42 382.365 34.0477 133.802 435.77 127.494 147.278 427.41 130.952 129.587 469.62 101.636 18.8277 95.8304 10.994 
153.581 163.862 167.157 159.311 137.413 174.076 159.967 162.726 60.7361 82.7439 63.1377 442.233 91.4045 106.533 395.328 31.9841 141.645 382.836 34.1621 133.006 435.36 126.004 146.03 427.148 130.19 129.344 469.699 101.217 18.125 94.0607 10.4504 
171.496 164.438 166.524 159.926 137.303 169.994 160.285 162.012 61.3358 82.5651 63.2511 441.187 90.1061 105.882 396.215 30.7586 140.285 383.343 33.6934 130.686 435.805 126.249 143.88 427.178 130.046 128.915 469.732 101.129 18.8357 94.8845 10.2435 
177.239 163.447 165.018 158.994 137.37 168.176 159.233 160.944 60.4417 82.0682 62.2696 441.05 90.2248 105.443 397.589 29.9788 139.974 384.399 33.7338 129.327 436.047 125.439 142.363 427.715 130.19 128.486 470.109 101.354 17.9621 94.0959 10.6035 
176.394 164.425 165.152 157.522 139.025 166.808 159.236 160.937 62.0455 82.4032 61.7497 440.143 91.2086 105.273 397.724 29.8536 140.518 384.982 33.2783 127.997 435.728 125.817 141.072 429.073 130.79 128.122 470.512 101.58 16.0113 93.8386 10.9434 
177.873 167.81 166.313 156.956 141.06 166.011 159.713 161.844 63.9859 81.5223 60.933 438.939 92.2811 104.623 397.813 30.0725 140.95 385.951 32.5469 127.094 434.233 126.031 139.777 431.205 131.341 127.507 470.927 102.005 12.7145 92.2942 11.4581 
179.309 168.165 166.409 159.694 146.192 166.332 159.078 161.813 64.82 80.9774 59.3287 439.181 92.4367 104.213 398.034 29.9334 140.194 386.534 32.3653 126.557 433.413 125.915 138.922 432.456 131.974 126.953 471.054 102.307 10.4582 91.1714 11.1183 
177.301 168.554 166.61 160.539 148.206 166.795 159.916 162.171 66.0363 82.1795 57.7108 439.895 92.528 102.801 398.181 29.5107 138.514 386.432 32.116 126.818 431.873 126.108 138.562 432.088 132.172 126.196 470.878 102.479 10.0657 89.7761 10.8897 
176.684 169.67 167.627 156.753 148.115 166.637 161.032 163.426 65.9849 82.7723 57.2002 439.741 93.6129 101.396 398.534 29.5689 138.453 386.766 31.4152 126.684 432.226 126.533 138.439 432.065 132.6 125.405 470.687 103.016 10.172 91.1436 11.6795 
