159.297 168.16 174.869 155.713 147.115 159.435 161.922 168.045 73.8296 77.8959 -164.126 313.608 -48.2967 -122.367 313.028 -120.033 -86.3688 291.014 -126.801 -107.663 288.724 -10.6273 -92.1903 283.192 -10.1291 -93.6632 323.768 -23.0304 10.7191 111.333 14.5587 
157.777 167.751 174.926 155.145 145.785 158.013 161.916 168.311 73.8565 77.1949 -165.207 312.668 -47.8062 -123.84 312.672 -119.826 -88.3298 290.769 -126.843 -109.236 288.351 -10.7636 -93.463 282.754 -10.6204 -94.9584 323.36 -23.0738 10.9332 111.159 14.2354 
153.5 170.845 176.407 154.265 144.899 155.303 162.261 169.806 72.807 77.5158 -165.519 312.032 -46.678 -125.674 312.232 -118.889 -90.5439 290.154 -126.648 -110.09 288.512 -10.7049 -94.737 282.414 -10.1884 -96.2831 322.923 -23.0693 10.7084 111.655 14.1289 
144.278 170.303 176.724 155.277 145.544 148.555 161.622 170.829 73.2486 77.9434 -164.83 307.814 -45.0683 -129.163 311.879 -118.714 -94.4861 290.181 -127.871 -113.506 289.21 -10.025 -98.9533 282.98 -9.97426 -98.737 322.074 -23.6641 11.2434 113.739 13.7587 
147.342 169.583 176.727 155.379 147.253 146.237 161.822 171.332 73.5267 78.5053 -164.6 304.993 -45.2616 -130.57 311.435 -119.09 -96.1551 290.064 -128.912 -114.704 289.364 -9.97042 -100.834 283.218 -9.83281 -99.522 321.666 -24.2213 11.3955 114.417 13.5106 
151.33 169.583 176.544 155.424 148.763 145.234 162.272 171.731 73.782 79.309 -164.704 302.786 -46.0204 -132.043 310.829 -119.558 -98.0949 290.072 -129.833 -115.695 289.003 -10.0458 -102.39 282.967 -9.79712 -100.429 321.061 -24.8906 11.5168 115.11 13.1203 
154.204 174.307 177.125 156.246 150.389 144.557 164.318 173.372 73.1739 80.3694 -165.551 302.054 -45.6283 -134.352 310.473 -119.422 -100.796 289.578 -130.058 -115.967 289.281 -9.75793 -103.368 282.918 -9.33844 -101.554 320.657 -25.2686 11.5524 116.108 12.9911 
157.897 177.551 178.009 156.329 151.525 145.214 166.551 174.731 72.3064 81.3728 -167.536 302.295 -45.1285 -136.393 309.808 -119.327 -103.021 288.583 -130.259 -116.309 289.45 -9.86845 -104.284 282.81 -8.82021 -102.806 320.659 -25.5086 11.2707 116.158 12.9495 
156.685 179.614 178.412 156.577 152.529 145.821 168.904 175.501 71.9653 82.2573 -169.153 302.316 -44.9914 -138.088 309.439 -119.867 -105.062 287.48 -130.76 -117.018 289.159 -10.1163 -105.549 282.484 -8.70097 -104.099 320.393 -26.0543 11.2865 116.259 12.9429 
152.91 178.815 178.538 156.778 153.117 145.674 170.876 176.096 71.8838 82.9099 -170.292 302.108 -44.729 -139.645 309.113 -120.512 -106.808 286.523 -131.285 -118.092 288.947 -10.3948 -107.04 282.353 -8.73267 -105.403 320.181 -26.7073 11.3893 116.455 13.0444 
151.477 177.59 178.631 157.668 153.657 146.534 172.504 176.644 71.5398 83.3707 -171.56 302.454 -44.9147 -140.662 308.135 -120.901 -107.889 285.03 -131.273 -118.956 288.754 -10.4132 -108.165 281.894 -8.69283 -106.516 319.744 -27.0864 11.5534 116.861 13.1548 
152.968 178.011 178.23 157.551 153.673 148.885 172.903 176.307 70.6891 83.8227 -173.963 303.21 -45.6227 -141.535 306.565 -121.36 -108.747 282.958 -131.019 -119.546 288.079 -11.2185 -108.952 280.95 -9.04007 -107.624 319.308 -27.5171 11.4384 115.98 13.2971 
154.203 179.241 177.372 156.149 153.972 151.148 172.72 175.56 69.3145 84.4168 -176.63 304.215 -46.6213 -142.89 305.798 -121.959 -110.149 281.756 -131.189 -120.544 286.758 -13.4291 -110.187 279.68 -9.96987 -108.858 318.78 -28.1015 10.6534 113.71 13.4684 
150.651 179.49 176.548 156.004 154.21 152.209 172.202 174.968 68.0775 84.9558 -178.029 304.714 -47.0748 -144.273 305.378 -122.444 -111.439 281.135 -131.571 -121.578 286.015 -15.393 -111.187 278.421 -10.9692 -109.805 318.117 -28.6501 9.6935 112.275 13.6713 
146.354 178.04 175.82 158.41 154.486 153.77 171.866 174.523 68.1663 85.6504 -179.353 305.362 -47.4311 -145.46 304.54 -122.786 -112.152 280.353 -131.849 -122.686 285.847 -15.8542 -111.712 277.128 -12.0319 -110.764 317.463 -29.1751 9.66354 112.684 13.977 
144.081 176.278 174.775 159.216 154.441 155.965 170.971 173.688 68.3453 86.1533 -181.466 306.073 -47.5902 -146.69 303.585 -123.042 -113.045 279.42 -132.031 -123.589 284.95 -16.703 -112.111 275.898 -13.2084 -111.787 316.845 -29.7143 9.66808 112.107 14.232 
145.676 175.688 174.475 159.77 153.948 159.109 170.646 173.308 68.676 86.4918 -184.174 307.371 -47.8979 -148.06 302.681 -123.396 -113.907 278.748 -132.617 -124.371 283.97 -17.2287 -112.558 274.994 -14.0405 -112.824 316.416 -30.1608 9.79888 111.781 14.4491 
154.203 174.574 173.563 158.532 153.023 163.427 169.697 172.799 68.2227 87.0357 -187.981 309.317 -48.4865 -149.525 301.669 -123.758 -114.777 277.834 -133.056 -125.189 282.355 -18.7301 -113.426 273.328 -15.2407 -113.849 315.759 -30.623 9.6486 110.269 14.7898 
169.723 173.454 172.809 159.461 152.497 168.682 168.878 172.531 68.2334 87.4486 -191.74 312.156 -48.9864 -151.136 300.841 -124.082 -115.884 277.025 -133.513 -126.364 281.053 -19.5828 -114.414 271.733 -16.3774 -114.755 314.924 -31.0005 9.86863 109.576 15.1219 
161.014 172.475 171.811 160.518 151.553 178.928 168.02 171.748 68.9964 88.4479 -197.409 317.544 -49.4835 -153.7 299.429 -125.342 -117.995 275.176 -134.777 -128.645 278.356 -21.4074 -116.517 269.369 -18.5034 -116.605 313.476 -32.2784 9.95381 107.955 15.6126 
150.668 172.138 171.371 160.175 151.212 176.773 167.39 171.021 69.1939 88.339 -199.202 319.69 -49.1444 -154.705 298.978 -125.848 -118.991 274.572 -135.421 -129.312 277.271 -22.3674 -116.897 268.694 -19.314 -117.237 312.758 -32.9541 9.51556 107.422 15.7508 
143.666 172.112 171.23 159.741 150.297 173.716 167.014 170.853 68.7961 87.8373 -200.217 321.222 -49.1872 -155.8 297.698 -126.252 -119.92 273.373 -135.96 -129.783 276.19 -23.3466 -117.169 267.836 -19.9998 -117.88 311.69 -33.5811 9.07043 107.027 15.8469 
145.623 171.706 170.979 158.371 149.275 172.632 166.476 170.741 68.2039 87.7106 -203.232 318.389 -47.6149 -156.79 296.158 -126.48 -120.649 272.03 -136.194 -130.252 274.961 -24.4412 -117.66 266.545 -20.782 -118.472 310.761 -34.036 8.86874 106.049 15.9085 
145.623 171.618 170.663 157.662 148.556 171.843 166.008 170.547 68.4843 87.7565 -204.375 318.397 -48.1147 -158.023 295.055 -126.827 -121.616 271.041 -136.615 -131.25 273.725 -25.5155 -118.262 265.52 -21.599 -119.195 310.015 -34.63 8.31438 105.025 16.0439 
145.623 171.671 170.308 158.456 148.873 171.278 165.906 170.421 68.9523 87.5065 -205.551 318.183 -48.3807 -159.156 294.755 -127.355 -122.576 270.831 -137.271 -131.454 273.552 -24.9345 -118.838 265.209 -22.4324 -119.887 309.452 -35.4099 10.0097 106.849 16.2072 
145.623 172.105 170.33 159.446 148.865 170.97 166.162 170.558 69.4191 87.6011 -206.461 318.194 -48.4937 -160.332 294.71 -127.937 -123.718 270.617 -138.046 -132.149 273.47 -24.547 -119.908 265.161 -22.7859 -120.647 309.025 -36.0743 10.8749 108.278 16.3178 
145.623 172.998 170.498 160.496 149.5 170.744 166.849 171.04 69.8823 87.9929 -207.493 317.925 -48.8426 -161.514 294.03 -128.53 -125.085 270.089 -138.661 -133.065 273.377 -24.13 -121.208 265.076 -22.6556 -121.428 308.661 -36.7527 11.3237 109.376 16.1325 
145.623 173.366 170.766 162.334 149.776 171.286 167.173 171.501 70.7564 88.3109 -207.716 316.698 -49.4322 -162.331 293.04 -129.144 -125.82 269.126 -139.321 -133.805 273.282 -23.1286 -122.205 264.8 -22.5371 -122.157 308.058 -37.3301 12.3002 111.16 16.1212 
145.623 173.174 170.643 163.107 149.997 171.507 167.197 171.662 71.265 88.581 -208.448 316.458 -49.6878 -163.669 292.973 -129.64 -127.087 269.098 -139.975 -134.803 272.765 -23.3516 -123.413 264.48 -23.2955 -123.111 307.774 -37.8786 12.8414 111.412 16.1732 
145.623 172.617 170.305 163.301 150.698 171.477 166.887 171.299 71.5104 88.6077 -209.383 316.292 -49.8508 -165.033 293.269 -129.992 -128.478 269.392 -140.527 -135.934 272.329 -24.3354 -124.223 264.161 -24.3561 -123.992 307.535 -38.4637 12.5657 110.918 16.2454 
145.623 171.589 169.873 162.033 151.04 171.861 166.573 171.03 71.1866 88.4314 -210.066 315.471 -49.9874 -166.125 293.055 -130.261 -129.615 269.309 -140.866 -136.49 271.811 -25.5169 -124.474 263.615 -25.3011 -124.847 307.252 -38.9489 12.1446 110.185 16.2307 
145.623 170.779 169.563 158.575 151.125 172.172 166.042 170.564 70.4185 88.3605 -210.801 314.914 -50.0633 -167.1 292.038 -130.265 -130.534 268.501 -140.833 -137.032 270.477 -27.7572 -124.302 262.714 -25.757 -125.628 306.919 -39.244 9.92538 107.446 16.2038 
145.623 170.17 169.331 155.447 150.942 172.648 165.926 170.384 70.0186 88.1383 -211.482 313.718 -49.7468 -168.146 290.726 -130.221 -131.446 267.531 -140.843 -137.261 269.061 -29.304 -123.77 261.619 -26.0313 -126.3 306.298 -39.4574 8.12709 105.533 16.1806 
145.623 169.711 169.119 152.758 150.154 172.787 165.809 170.07 69.7168 87.9277 -212.331 313.01 -49.183 -169.446 290.064 -130.262 -132.951 267.059 -141.061 -137.16 267.886 -30.2568 -123.632 260.678 -26.7236 -127.058 305.692 -39.7862 7.77957 104.627 16.0523 
145.622 168.708 169.391 149.606 151.015 174.692 163.201 168.713 69.0463 85.6938 -213.025 309.912 -49.1081 -171.172 290.475 -129.975 -135.679 267.178 -141.313 -137.44 267.878 -31.0063 -124.794 262.08 -27.3382 -127.785 305.113 -40.3574 8.55691 104.482 15.7286 
145.623 165.777 172.678 146.556 146.513 176.968 159.311 167.668 68.9766 81.1671 -211.304 304.102 -48.7905 -174.314 289.949 -128.325 -140.588 266.582 -141.226 -137.319 267.12 -31.8883 -123.735 263.125 -29.1108 -128.982 304.326 -40.8432 8.80748 103.012 15.032 
145.623 167.502 172.352 145.295 139.719 176.42 160.233 167.883 67.7992 79.091 -211.403 303.194 -47.9681 -175.854 288.311 -127.749 -142.177 265.689 -140.855 -137.027 266.455 -32.627 -122.652 262.845 -29.7255 -129.488 303.933 -40.7276 8.0789 101.827 14.6869 
145.623 164.309 171.591 148.749 137.397 177.654 158.976 166.737 68.1361 77.5305 -212.812 301.717 -47.4207 -177.068 287.678 -127.449 -143.636 265.435 -140.793 -137.352 265.652 -32.3707 -122.327 262.824 -30.0242 -129.94 303.355 -40.9262 8.02283 102.001 14.4662 
145.623 164.846 171.633 154.933 132.487 176.892 159.845 167.3 69.6095 77.1532 -214.107 301.919 -45.9038 -178.242 286.227 -126.989 -144.762 264.518 -140.582 -139.868 264.916 -32.1098 -121.623 261.747 -30.201 -130.408 302.807 -40.6585 4.59651 101.251 14.2808 
145.623 163.548 173.795 160.944 136.685 176.641 158.557 166.342 69.5881 76.4178 -214.136 300.609 -45.3549 -178.616 284.99 -126.13 -147.031 263.251 -139.693 -138.904 265.085 -30.1897 -120.943 260.7 -30.3962 -130.307 301.954 -40.7019 6.36215 102.849 13.2886 
145.622 163.623 173.263 166.347 135.53 175.518 159.526 166.265 70.542 76.1335 -214.984 300.711 -44.3543 -179.17 283.135 -125.655 -148.093 261.811 -138.946 -140.595 265.371 -28.8589 -120.468 259.506 -30.3753 -130.457 301.213 -40.4907 6.86603 103.559 12.7842 
145.623 164.161 172.301 169.707 134.306 174.569 160.439 166.451 70.6769 76.3205 -215.29 300.631 -43.6608 -179.767 281.599 -125.389 -149.012 260.596 -138.55 -140.987 265.826 -27.5793 -120.262 258.398 -30.464 -130.424 300.517 -40.4689 8.99678 104.842 12.4396 
142.292 164.567 171.675 171.941 133.51 174.466 161.176 166.787 70.3397 76.7567 -213.527 304.034 -46.1101 -179.895 280.175 -125.338 -149.432 259.534 -138.531 -141.026 265.414 -27.3147 -120.157 256.865 -30.7467 -130.157 299.563 -40.4948 10.2964 105.128 12.0849 
145.324 164.769 170.952 174.117 133.852 174.701 161.641 167.07 70.0511 77.4968 -213.316 303.017 -46.372 -179.717 278.601 -125.173 -149.574 258.431 -138.479 -140.684 265.052 -26.8684 -119.949 255.22 -31.0231 -129.702 298.521 -40.5378 11.9223 105.752 11.6921 
146.513 165.502 170.534 174.91 134.597 174.525 162.26 167.752 69.6629 78.7604 -213.203 302.141 -45.8488 -179.317 277.177 -124.94 -149.008 257.381 -138.568 -139.976 264.081 -26.7622 -119.605 253.334 -31.0878 -129.093 297.496 -40.4157 12.9302 105.946 11.6417 
146.983 166.027 169.912 175.167 136.38 173.929 162.544 168.298 68.7442 80.3706 -213.161 301.458 -44.9282 -179 276.003 -124.636 -148.294 256.507 -138.666 -138.828 262.819 -27.2296 -119.213 251.401 -31.3727 -128.452 296.53 -40.3183 13.5065 105.717 11.8148 
146.975 166.333 169.357 176.003 141.554 173.339 162.686 168.559 68.6795 82.2066 -212.968 300.879 -44.092 -178.681 274.953 -124.32 -147.719 255.66 -138.621 -137.935 262.114 -26.9239 -118.933 249.641 -31.2462 -127.777 295.655 -40.3299 14.4243 106.258 11.9562 
145.623 164.177 171.702 174.781 145.603 173.659 160.129 167.168 70.1511 80.5375 -212.868 296.275 -41.0416 -177.782 273.466 -123.442 -147.427 254.213 -138.277 -136.694 261.022 -26.6925 -117.063 249.927 -30.8792 -126.781 294.749 -40.7299 12.7342 106.042 11.6551 
145.991 164.93 170.826 173.526 142.97 174.579 160.373 167.704 69.254 80.2012 -211.061 298.044 -42.8344 -177.517 272.169 -123.241 -146.98 253.326 -138.512 -135.275 259.168 -28.082 -115.607 249.19 -31.1817 -125.963 293.945 -40.8357 10.9509 104.458 11.6675 
149.36 164.047 171.667 172.07 145.281 176.654 158.552 166.132 70.1153 80.2775 -209.801 295.337 -43.0775 -176.635 270.581 -122.867 -146.932 251.82 -138.294 -133.517 257.568 -28.8076 -114.352 248.648 -32.0002 -124.91 293.144 -41.5104 10.0593 103.12 11.1704 
154.205 164.768 171.048 171.786 143.295 177.652 158.977 166.768 70.1802 80.6581 -208.884 293.649 -43.2754 -176.011 268.964 -122.985 -145.976 250.478 -138.55 -132.518 255.484 -29.9371 -113.114 247.854 -32.0194 -123.923 292.444 -41.6495 8.14962 101.24 11.2569 
158.556 165.181 171.258 169.513 144.321 179.663 158.201 165.781 70.9551 80.4129 -206.911 289.998 -43.7216 -175.099 267.622 -122.967 -145.207 248.83 -138.318 -130.349 254.034 -30.4319 -111.42 247.711 -32.448 -122.732 291.771 -42.2679 7.33357 100.337 11.3196 
161.5 166.904 171.529 163.228 141.924 178.126 159.413 167.305 71.2014 79.6077 -204.274 286.77 -43.644 -174.659 266.583 -122.701 -144.326 247.824 -138.368 -128.067 252.627 -30.5752 -109.476 247.087 -32.5874 -121.165 290.672 -42.4322 6.98747 100.599 11.703 
165.925 168.096 171.86 158.257 142.95 175.376 159.029 167.204 72.0222 79.0918 -201.577 283.188 -44.4592 -173.463 265.692 -122.718 -142.468 246.545 -138.477 -124.611 251.856 -30.1522 -107.587 247.59 -32.6376 -119.756 289.967 -43.0538 7.80996 101.768 12.3502 
167.769 170.634 173.012 150.95 141.728 174.947 160.494 168.461 71.8457 78.33 -199.361 280.368 -44.3051 -172.532 264.078 -122.548 -141.262 245.313 -138.519 -121.22 250.76 -30.4805 -105.385 247.519 -32.684 -118.164 288.973 -43.3919 8.35668 102.081 12.467 
171.139 172.149 173.169 144.233 143.586 173.231 160.632 168.762 72.3169 77.8688 -197.128 277.872 -44.6831 -171.479 263.663 -122.591 -139.097 244.545 -138.804 -118.193 250.615 -30.6914 -103.517 248.701 -32.4054 -116.646 288.633 -43.9655 9.12408 102.695 13.3993 
169.608 173.188 174.437 138.982 142.195 173.703 161.672 170.048 72.2446 77.3898 -195.704 276.525 -43.71 -170.907 262.295 -122.188 -137.881 243.258 -138.889 -115.811 249.307 -30.8993 -101.673 247.893 -32.2141 -114.923 287.498 -44.0627 9.59146 102.792 13.8881 
169.776 173.843 174.105 137.487 144.17 173.972 161.563 170.189 71.9223 77.2807 -194.568 275.557 -43.9623 -169.988 261.703 -122.334 -135.844 242.349 -139.413 -113.42 248.697 -31.5809 -99.9279 248.036 -32.1549 -113.533 286.775 -44.6042 10.1565 103.016 14.8169 
167.967 175.05 175.156 136.32 144.152 174.723 162.67 171.709 72.5594 77.1845 -192.876 273.986 -43.5657 -169.525 260.352 -122.211 -134.516 241.402 -139.936 -111.452 248.863 -30.5193 -98.2246 248.101 -31.7504 -111.879 285.984 -45.0689 10.639 105.171 15.3958 
168.406 175.929 175.626 140.484 146.382 174.182 162.714 172.463 74.1804 76.985 -191.22 272.252 -44.5294 -168.598 260.139 -122.836 -132.478 240.744 -141.063 -109.644 249.463 -29.0516 -96.7247 249.063 -31.7913 -110.568 285.516 -46.0009 11.4939 107.981 16.3682 
164.568 176.609 176.724 139.039 145.924 175.314 164.253 173.858 74.5941 77.0268 -189.515 271.279 -44.436 -167.846 258.892 -122.794 -131.176 239.985 -141.636 -107.669 248.87 -28.9471 -94.8503 248.62 -31.8532 -108.854 284.48 -46.4003 11.641 108.928 16.7474 
156.726 176.574 177.525 138.335 145.274 177.783 164.877 174.293 74.9881 77.6553 -188.334 271.512 -44.1303 -166.599 257.259 -122.636 -129.717 239.04 -141.704 -105.428 248.438 -29.1582 -92.7952 248.295 -32.1247 -107.207 283.868 -46.7627 11.7637 108.835 16.7616 
156.059 176.958 177.847 141.575 146.651 178.679 165.292 174.718 76.8781 78.1283 -187.509 271.855 -44.3665 -164.864 256.851 -123.171 -127.692 238.379 -141.973 -103.431 248.121 -28.1422 -90.9647 248.452 -32.149 -105.573 283.51 -47.1759 12.1701 109.326 16.9808 
156.505 177.027 178.274 143.846 147.927 179.029 165.42 175.1 78.7019 78.8142 -186.532 271.851 -44.5177 -162.839 255.858 -123.495 -125.474 237.111 -141.957 -101.448 247.507 -27.2735 -89.0474 248.403 -31.9452 -103.835 283.16 -47.5576 12.3288 109.218 17.1077 
157.739 176.496 178.538 145.641 148.65 179.272 165.083 174.39 79.5451 79.4625 -185.796 272.01 -44.5631 -160.598 254.919 -123.804 -123.717 235.571 -141.404 -99.6892 246.75 -27.0106 -87.4607 247.832 -31.892 -102.139 282.812 -47.7432 12.5034 108.133 16.7914 
159.279 175.949 178.764 146.856 149.28 179.153 165.252 174.31 80.434 79.7559 -184.699 271.879 -44.7448 -158.429 254.029 -123.939 -122.053 234.122 -140.717 -98.0751 246.257 -26.1929 -85.7514 247.374 -31.451 -100.368 282.4 -47.7093 12.4668 107.669 16.4985 
160.267 175.429 178.317 147.471 149.522 179.221 165.307 174.084 81.113 80.3767 -183.437 271.453 -44.6926 -156.362 252.954 -123.961 -120.393 232.686 -140.205 -96.3316 245.057 -25.8633 -83.9219 246.355 -31.1717 -98.5936 281.648 -47.6774 12.3371 107.036 16.3281 
159.3 174.478 178.45 145.322 147.958 179.926 165.87 174.131 80.1046 80.1611 -181.467 270.966 -43.7405 -155.007 251.236 -123.194 -118.295 231.284 -139.46 -94.7825 244.248 -26.0852 -82.011 245.181 -30.8761 -96.6943 280.634 -47.2907 11.8579 106.921 16.7008 
160.804 174.062 178.155 146.016 148.597 179.609 165.303 173.456 80.9625 80.4711 -180.04 270.137 -43.6993 -152.947 250.508 -123.096 -117.095 230.389 -138.745 -93.3457 243.545 -25.5762 -80.4324 244.631 -30.5563 -94.8849 280.252 -47.2178 11.7628 106.096 16.1283 
161.768 173.936 177.953 144.408 147.23 179.824 166.141 173.189 80.8361 80.7671 -177.627 268.81 -43.3262 -151.703 249.187 -122.58 -115.473 229.42 -138.148 -91.8132 243.038 -25.4333 -78.6367 243.951 -30.3041 -93.1753 279.786 -46.9277 11.4845 105.952 16.2632 
159.956 173.822 178.91 143.246 146.369 179.97 166.628 173.362 80.2916 80.464 -175.382 268.127 -42.8678 -150.366 248.479 -122.087 -114.068 228.973 -137.79 -90.3388 242.745 -25.3603 -76.9207 243.425 -30.0359 -91.4199 279.321 -46.6077 11.2289 106.088 16.2451 
158.51 173.576 179.436 142.297 145.602 179.603 167.166 173.418 80.0916 80.3523 -172.904 266.731 -42.2884 -149.272 248.147 -121.528 -113.054 229.161 -137.725 -88.6555 242.27 -25.3174 -75.08 242.792 -30.0281 -89.6166 278.8 -46.316 11.0768 106.37 16.1504 
158.383 173.245 179.964 141.634 144.952 179.111 167.392 173.398 79.8031 80.3851 -170.576 265.22 -42.0029 -148.017 247.873 -121.187 -111.632 229.161 -137.722 -86.878 241.654 -25.4455 -73.1829 242.036 -30.0717 -87.8369 278.304 -46.0891 10.9264 106.455 16.2767 
158.97 172.608 180 141.586 144.391 178.36 167.667 173.47 78.975 79.9518 -168.222 263.763 -41.4714 -146.259 247.597 -120.853 -109.887 228.581 -137.3 -84.9119 241.154 -25.3748 -71.1249 241.28 -29.8543 -85.8813 277.76 -45.5718 10.8516 106.327 16.356 
160.093 171.816 180 141.502 143.651 177.568 167.662 173.435 78.4304 79.9494 -165.82 262.327 -40.998 -145.039 247.085 -120.108 -108.36 228.055 -136.944 -83.0334 240.608 -25.2447 -69.2523 240.415 -29.7198 -84.0452 277.225 -45.1369 10.9061 106.328 16.6504 
161.466 171.44 180 141.653 142.871 176.631 167.697 173.788 77.7783 79.5436 -163.485 260.964 -40.5947 -143.457 246.044 -119.505 -106.471 226.9 -136.591 -80.9181 239.91 -25.0516 -67.101 239.403 -29.6007 -82.0543 276.422 -44.7659 11.0018 106.354 16.9215 
162.943 170.661 180 142.011 141.924 176.04 167.452 173.634 77.5155 79.4003 -161.339 259.545 -40.0624 -141.895 245.166 -118.979 -104.685 225.936 -136.105 -78.8119 239.366 -24.8757 -64.9423 238.605 -29.7598 -80.2472 275.935 -44.466 11.2103 106.133 17.1179 
164.455 170.267 180 142.017 140.015 175.508 167.452 174.381 77.4863 78.911 -156.643 257.511 -39.161 -137.927 243.824 -118.01 -100.871 224.61 -135.324 -74.5207 237.465 -24.1945 -60.4984 236.526 -29.7125 -75.9067 274.383 -43.5057 11.5973 105.785 17.0756 
165.49 169.788 180 142.211 138.693 175.367 167.506 174.467 77.2951 78.6543 -154.615 256.668 -38.2271 -136.439 243.179 -117.303 -98.9773 223.854 -135.004 -72.0424 236.249 -24.0188 -58.027 235.177 -29.8871 -73.7984 273.475 -43.0097 11.8423 105.677 17.4647 
166.591 169.586 180 142.057 138.401 175.082 167.341 174.223 77.707 78.7985 -152.33 255.874 -37.6164 -134.289 242.258 -116.763 -96.8371 222.971 -134.451 -69.5632 235.233 -23.7362 -55.5991 234.433 -29.7692 -71.5395 272.956 -42.6438 11.912 105.066 17.4372 
167.303 169.262 180 142.224 138.673 174.849 167.133 174.128 77.6096 78.6703 -150.123 255.503 -36.951 -132.206 241.323 -116.092 -94.5449 222.158 -133.963 -67.2022 234.304 -23.3289 -53.2458 233.525 -29.2915 -69.212 272.149 -42.2246 11.8338 105.132 17.5717 
167.57 168.367 180 143.494 139.858 175.656 166.085 172.854 77.5782 78.6357 -148.735 255.529 -36.568 -129.244 240.394 -115.532 -91.7221 221.493 -132.622 -64.0412 234.386 -22.5936 -49.9789 234.039 -28.3634 -66.8387 272.087 -41.741 11.5933 104.919 17.4755 
168.039 167.778 180 144.401 141.267 176.496 164.598 171.403 77.0411 78.2294 -147.53 255.78 -36.4856 -126.541 238.77 -114.775 -88.7225 219.841 -131.277 -61.2344 234.119 -21.9059 -47.0024 233.907 -27.3198 -64.4298 271.299 -41.3638 11.2884 104.952 17.776 
168.53 166.68 180 145.013 142.687 177.506 162.875 170.318 76.8015 78.1951 -146.204 256.197 -36.1156 -123.945 238.149 -114.01 -85.4964 219.612 -130.689 -58.6176 234.35 -21.5978 -44.2369 234.511 -26.6329 -62.3358 271.351 -41.1296 10.8073 105.293 18.2194 
167.686 166.174 180 145.491 143.557 178.872 160.75 168.961 76.1778 77.9834 -144.915 256.498 -35.8996 -121.659 236.58 -113.134 -82.6123 218.118 -129.967 -56.3012 233.621 -21.5048 -41.7418 233.758 -26.149 -60.1028 270.292 -41.0028 10.4098 105.427 18.7216 
166.58 164.85 179.006 145.968 144.024 179.953 159.097 167.855 75.6948 77.9795 -143.256 257.397 -35.2573 -119.461 236.496 -112.242 -79.7008 217.667 -129.433 -54.0351 233.124 -21.2792 -39.2878 233.18 -25.6045 -57.7793 269.896 -40.5683 10.0696 105.522 19.4571 
165.609 163.614 176.859 146.782 144.06 179.291 157.351 166.183 74.564 78.2544 -141.514 258.056 -34.705 -117.71 236.666 -111.415 -77.265 217.211 -129.031 -52.1173 231.976 -21.5542 -37.2612 231.476 -25.2534 -55.4366 269.019 -40.1146 9.80361 105.282 20.2801 
164.81 161.852 175.959 145.997 142.457 178.781 155.681 164.663 73.4174 78.7992 -139.614 258.87 -33.7854 -115.189 236.657 -110.453 -74.2535 216.316 -127.936 -49.454 229.897 -22.3176 -34.7524 229.616 -24.8084 -53.0378 268.571 -39.2436 9.41734 102.985 20.9529 
164.418 160.028 175.779 145.151 142.213 178.431 153.654 162.959 72.4188 79.6939 -137.443 259.07 -33.4488 -112.646 236.481 -109.786 -71.5179 215.989 -127.439 -47.215 228.209 -23.2908 -32.4981 227.745 -24.6322 -50.5294 267.925 -38.6986 8.91724 101.229 21.2341 
164.035 158.56 175.803 144.171 142.541 178.117 151.86 161.404 71.9051 80.9009 -135.056 259.138 -33.2785 -109.522 235.898 -109.299 -68.2756 214.934 -126.527 -44.7327 226.441 -24.0335 -30.201 226.113 -24.1175 -48.0206 267.532 -38.0819 8.52715 98.7619 21.3919 
