164.713 157.129 175.872 141.671 143.144 178.271 150.059 159.805 71.2061 81.9939 -132.674 258.847 -33.5872 -106.65 235.154 -108.886 -65.138 214.107 -125.983 -42.4532 224.559 -25.4099 -28.085 224.312 -23.9347 -45.5276 266.734 -37.6697 8.03012 96.2181 21.5457 
165.232 155.737 173.698 139.45 144.215 178.607 148.017 157.496 71.545 83.132 -130 258.465 -33.7722 -103.838 234.12 -108.019 -62.1285 212.958 -124.79 -40.4474 222.985 -26.3274 -26.0902 223.367 -23.5368 -43.1824 266.628 -37.2695 7.71404 93.1534 21.6379 
165.868 154.701 171.259 137.444 145.523 178.745 146.422 155.663 72.9227 84.3274 -126.967 257.522 -34.2097 -100.912 232.761 -107.198 -58.8501 211.786 -123.644 -38.2941 220.833 -27.1669 -23.8585 222.222 -23.3876 -40.7218 266.226 -36.9367 7.74332 90.0935 21.7705 
166.127 153.403 167.306 137.069 146.985 179.098 144.704 153.836 73.3994 86.0672 -123.914 256.509 -34.5351 -97.823 230.898 -106.197 -55.5546 210.181 -121.944 -35.7884 218.886 -28.049 -21.6071 220.687 -22.9262 -38.3051 265.826 -36.5505 8.08934 86.7987 21.7555 
167.454 152.141 165.113 135.063 147.09 178.552 145.949 153.608 78.2165 87.937 -119.099 254.347 -34.3266 -94.7283 229.76 -105.715 -51.7554 208.535 -120.891 -34.045 213.923 -29.7537 -19.6281 218.246 -23.1149 -35.4425 265.158 -35.9608 9.43138 81.0168 22.1568 
169.265 150.488 163.501 137.856 147.627 176.507 146.24 152.306 80.9825 89.1435 -114.787 252.693 -34.8174 -91.7406 228.989 -105.176 -48.8712 207.681 -119.921 -32.1228 211.212 -30.5481 -17.7209 216.534 -23.7979 -32.7318 264.779 -35.6311 9.87932 77.8128 21.9695 
170.669 152.933 162.121 137.995 147.964 175.49 146.404 151.483 82.9357 90.4577 -111.008 251.905 -35.1948 -88.6515 227.515 -104.402 -45.3341 206.159 -118.452 -29.021 208.562 -31.6196 -15.1209 214.938 -23.8176 -30.0252 264.393 -35.0565 10.9924 74.1713 22.1346 
172.555 155.194 160.602 137.358 147.815 174.529 146.386 150.658 84.0227 90.9849 -107.523 251.023 -35.3922 -86.1774 226.715 -103.606 -42.2396 205.257 -117.621 -26.6231 206.584 -32.374 -12.8727 213.323 -23.8914 -27.2705 263.657 -34.5938 11.5223 72.0872 22.5765 
174.354 157.344 159.298 137.178 147.757 173.654 146.376 150.028 84.0693 91.571 -104.054 249.774 -35.7555 -83.4849 225.777 -103.158 -38.9792 204.453 -116.868 -23.4159 206.05 -32.3672 -9.88652 212.462 -24.2258 -24.5852 263.396 -34.4449 11.0906 71.2831 22.913 
176.585 158.365 157.967 140.631 148.366 172.899 145.984 149.076 83.984 91.7657 -100.537 248.149 -36.0678 -81.3241 225.076 -102.463 -36.2438 204.271 -116.445 -20.0838 205.353 -32.6982 -7.18197 211.928 -24.566 -22.0524 263.197 -34.2867 11.5605 70.3819 23.2454 
178.906 159.233 156.044 142.737 148.948 172.405 145.847 148.299 83.8635 91.5307 -97.3245 247.107 -36.0609 -79.4543 224.337 -101.419 -33.682 203.879 -115.669 -16.9232 204.409 -33.4195 -4.63532 211.62 -24.1328 -19.5329 262.976 -33.9706 12.9279 68.7354 23.7509 
178.842 159.735 154.214 144.113 149.446 171.71 145.629 148 83.4728 91.4356 -93.7528 245.685 -36.0769 -77.0449 223.195 -100.561 -30.7632 203.357 -114.971 -13.6167 203.934 -33.9152 -1.88583 211.616 -23.6683 -16.9036 262.865 -33.7735 14.0623 67.4739 24.0174 
176.297 158.876 152.513 147.427 150.381 171.353 145.022 147.602 83.2391 91.3407 -90.3308 244.013 -35.9439 -74.3482 221.519 -99.3151 -27.7938 202.315 -113.907 -10.2058 203.059 -33.9721 0.904882 211.519 -22.5839 -14.234 262.545 -33.4691 15.4691 66.1794 24.1505 
174.23 158.041 150.402 147.587 150.566 170.866 144.262 147.315 82.8033 91.0644 -86.6553 242.067 -35.6222 -71.23 219.794 -98.2523 -24.393 201.038 -112.845 -7.1458 203.209 -32.2901 4.189 211.787 -21.2488 -11.387 262.06 -33.317 15.1817 67.2736 24.3294 
172.457 157.887 149.143 148.853 150.588 170.338 143.864 147.468 81.5816 90.2791 -83.1944 240.83 -35.5819 -68.2739 218.622 -97.5444 -21.3746 200.216 -112.349 -5.06819 204.454 -29.7658 6.56716 212.45 -20.0933 -8.53368 261.822 -33.4172 14.0954 69.9267 24.3844 
171.012 157.627 147.902 145.503 151.056 170.215 143.256 147.641 79.8418 90.3735 -79.8828 239.678 -34.9044 -65.1995 217.554 -96.6463 -18.4332 199.548 -111.837 -2.29194 205.517 -28.6185 9.14046 212.443 -18.9855 -5.61173 261.568 -33.1861 13.7713 71.169 24.2943 
170.009 157.902 147.166 142.259 150.364 170.141 142.563 148.353 80.4457 89.6095 -76.4956 238.133 -34.3095 -61.7836 216.261 -95.8783 -15.0774 198.574 -111.417 -0.630132 206.735 -25.7382 11.9465 213.105 -17.85 -2.52982 261.165 -33.1924 11.8081 74.3981 24.2955 
169.293 158.35 146.909 138.677 149.96 169.945 142.283 149.073 80.614 88.7055 -73.0888 236.512 -34.1162 -58.4318 215.515 -95.6469 -11.8923 198.194 -111.672 0.524895 208.211 -24.1036 14.1169 213.945 -17.275 0.48841 260.925 -33.4522 10.3801 76.9658 24.2481 
168.691 158.961 146.849 136.621 149.85 169.783 142.294 149.871 81.2771 88.0109 -69.4551 234.507 -34.2119 -54.9777 214.208 -95.2651 -8.52409 197.483 -111.882 2.24276 208.976 -22.803 16.6038 214.523 -16.8433 3.60016 260.452 -33.7274 9.49095 78.8897 24.2573 
170.09 157.685 144.879 136.403 151.51 170.531 140.689 149.779 80.3722 87.0437 -66.5902 232.82 -34.2337 -51.3796 212.359 -94.3575 -5.57767 195.75 -110.755 4.58209 210.51 -21.1765 19.357 215.804 -15.8355 6.50391 259.65 -33.955 9.12024 81.0828 23.8033 
173.308 156.791 143.729 137.79 152.699 172.028 139.491 150.08 79.5227 86.2709 -64.2571 231.494 -34.231 -47.8514 211.248 -93.8378 -2.50399 194.594 -110.013 7.33479 212.647 -19.3016 22.2807 217.402 -15.036 9.37742 259.311 -34.1886 8.68575 83.8306 23.4499 
176.262 156.657 142.745 139.968 153.071 173.452 138.655 150.552 78.5418 85.1968 -61.9333 230.817 -34.0745 -44.5796 210.265 -92.8592 0.295659 193.889 -109.477 10.1439 215.477 -17.1019 25.3021 219.003 -14.5818 12.2957 259.227 -34.3991 8.12128 87.4331 23.2014 
178.292 158.579 146.128 143.203 152.35 173.538 140.046 150.955 78.4965 85.0474 -58.3134 229.557 -33.9367 -40.418 207.369 -91.1284 4.04733 192.339 -108.139 14.8621 218.906 -14.1311 29.301 221.145 -14.2479 15.2124 260.057 -34.6817 9.25376 90.7127 22.5224 
179.295 160.83 148.587 142.763 150.96 173.275 142.161 151.822 78.7009 85.3096 -54.327 227.844 -33.2175 -36.4759 204.621 -89.6119 7.84805 190.445 -106.54 19.4089 220.473 -12.3192 33.1992 222.187 -13.7396 18.1201 260.341 -34.647 10.4316 91.9114 22.0327 
179.666 162.663 150.884 141.734 150.231 173.317 144.032 152.949 79.0301 85.4414 -50.3202 226.023 -32.6586 -32.523 201.985 -88.1637 11.5648 189.26 -105.863 23.8029 221.203 -11.4466 36.9755 223.195 -13.4921 21.0728 260.478 -34.6349 11.2716 92.3754 21.6928 
179.529 163.25 152.101 140.706 149.249 172.941 144.912 153.044 78.4067 85.6887 -45.9441 224.273 -31.8677 -28.5877 199.742 -86.491 14.5224 188.411 -104.854 28.1443 221.265 -11.8889 40.8532 223.645 -13.7576 24.0219 260.614 -34.5547 11.552 91.1313 20.9352 
179.289 163.805 152.454 137.899 147.868 172.802 145.876 152.875 78.1538 86.1879 -42.1724 223.188 -31.491 -24.8366 197.701 -85.0831 17.6602 187.307 -103.558 32.0743 220.216 -12.7049 44.352 223.271 -14.0152 26.8769 260.396 -34.4514 11.659 88.9105 20.4373 
178.916 164.285 153.012 135.455 147.237 172.824 147.066 152.915 78.5437 86.3758 -38.519 222.918 -31.2388 -21.0459 196.98 -84.5373 20.8301 187.422 -102.948 36.0403 220.078 -13.5882 48.0103 224.219 -14.4141 29.8933 261.061 -34.5855 11.6988 86.981 19.8649 
178.498 164.6 153.611 133.625 146.981 172.986 147.622 152.75 78.2762 86.5514 -35.0508 222.569 -30.9833 -17.321 196.418 -84.0381 23.8101 187.801 -102.686 39.8582 219.799 -14.8796 51.548 224.847 -14.837 32.9159 261.466 -34.5521 11.7413 85.084 19.3289 
178.696 165.367 153.9 131.844 146.16 172.827 148.224 152.921 78.3602 86.6433 -31.9562 222.454 -30.6154 -14.5065 195.977 -83.4596 26.5188 187.495 -102.154 42.7082 219.155 -15.4135 54.2557 224.727 -14.839 35.7445 261.528 -34.4472 11.8762 83.6464 19.3072 
177.63 166.304 154.9 132.223 145.401 173.518 149.05 153.019 78.5174 86.4091 -29.124 222.029 -30.3856 -11.5262 195.277 -83.0304 29.547 187.136 -101.698 46.358 219.588 -15.1071 57.7377 225.131 -15.0058 38.6272 261.512 -34.496 12.0721 83.7831 19.2949 
177.003 166.793 155.248 132.472 145.647 174.092 149.586 152.95 78.7031 86.2305 -26.2479 222.087 -30.0683 -8.49547 195.656 -83.1113 32.3193 187.816 -101.673 49.6897 220.375 -15.2158 61.033 226.207 -15.1891 41.6087 262.1 -34.5105 12.127 83.6333 19.0324 
176.737 167.634 155.569 132.699 145.597 174.499 150.093 152.92 78.2496 85.8462 -23.774 221.588 -29.9602 -6.22053 195.434 -83.1685 34.6589 187.548 -101.845 52.1643 220.286 -15.4246 63.568 226.091 -15.1906 44.322 261.752 -34.54 12.1008 83.6293 19.1597 
176.845 168.153 156.194 134.423 145.403 174.465 150.578 153.117 78.1421 85.2559 -20.6736 221.547 -29.8727 -3.67939 195.974 -83.59 36.8991 188.093 -102.239 55.283 221.599 -15.2873 66.7488 227.12 -15.7616 47.1778 262.268 -34.876 12.1489 84.5071 18.9054 
176.784 168.103 156.485 135.016 145.35 174.628 150.291 153.189 77.3582 84.612 -17.8728 221.706 -30.0651 -0.932147 196.846 -83.837 39.0204 189.417 -103.118 58.2288 222.877 -16.0026 69.7491 228.19 -16.5424 50.0008 262.948 -35.1343 12.1584 84.8577 18.7213 
176.409 168.306 157.133 136.437 145.027 175.004 150.873 153.756 77.1228 84.1131 -15.42 222.007 -30.2047 1.52682 197.139 -84.2657 41.312 189.811 -103.933 60.9743 223.972 -15.8878 72.5237 228.924 -16.982 52.7014 263.404 -35.4289 12.2904 85.8069 18.6853 
176.101 168.397 157.817 138.295 144.965 175.315 150.925 154.329 76.2804 83.4053 -12.8061 221.908 -30.6031 3.92033 197.516 -84.5145 43.3752 191.019 -105.369 64.0955 225.613 -16.0888 75.4723 229.833 -17.8579 55.3537 263.755 -35.8031 12.7505 87.6268 18.9107 
176.037 168.174 158.505 138.838 145.492 175.616 151.449 155.204 75.7908 83.1025 -10.4196 222.429 -30.8917 6.4689 197.957 -85.0048 45.9248 191.949 -106.54 66.7726 226.717 -16.4162 78.1632 230.942 -17.9442 58.0329 264.423 -36.0513 12.6829 88.3705 19.1227 
176.153 167.905 159.513 140.217 146.074 175.582 151.443 155.848 75.1022 82.4136 -7.88402 222.247 -31.3042 9.10535 197.781 -85.0872 48.0116 192.446 -107.437 69.7368 227.804 -16.6927 80.9402 231.888 -18.3687 60.5755 264.57 -36.3618 12.9775 89.4118 19.0796 
174.619 166.088 158.692 144.924 147.219 177.579 148.847 154.228 71.773 79.8535 -6.10508 222.647 -32.5398 12.2235 199.388 -86.4717 51.0757 194.811 -108.252 71.669 230.156 -18.2218 83.996 233.903 -19.2331 63.3847 265.282 -36.4212 11.8641 89.9327 18.9868 
175.006 165.441 158.846 145.872 147.736 177.45 148.72 154.386 70.4532 80.1133 -3.80278 223.252 -32.4672 14.7356 199.969 -86.6197 53.6089 195.455 -108.595 73.7946 230.651 -19.024 86.3307 234.358 -18.8922 65.8124 265.711 -36.4242 11.2109 89.7316 19.0737 
173.781 163.994 157.873 147.996 148.827 178.933 146.359 152.894 68.5627 78.2307 -1.75238 223.462 -33.4675 17.7322 201.918 -88.1117 56.6792 197.98 -109.465 76.5087 232.253 -20.2621 89.3469 236.102 -19.7347 68.497 266.388 -36.4464 10.934 90.0359 18.9912 
173.007 161.972 157.422 150.464 149.869 179.976 144.495 152.333 68.0096 77.0673 0.218469 224.085 -33.993 20.3982 203.687 -89.4246 59.9978 199.711 -110.12 78.2648 232.311 -20.9242 92.275 236.976 -19.7352 71.1346 266.793 -36.1699 9.41703 89.6181 19.1897 
172.445 160.909 156.668 152.653 151.085 179.308 142.93 151.394 67.0267 75.8696 2.36633 224.123 -34.6271 23.2318 205.379 -90.9759 62.8076 201.611 -110.835 80.7088 232.99 -21.7078 95.2197 237.988 -20.1587 73.6599 267.027 -36.2437 8.78785 90.0338 18.9457 
172.252 160.48 156.691 155.029 152.017 178.854 142.259 151.033 66.3959 75.1273 4.74025 224.811 -34.7214 25.9629 206.873 -91.731 65.5554 203.166 -111.049 83.2299 233.92 -22.0999 98.3485 239.275 -20.2426 76.2462 267.753 -36.1803 7.97718 90.1617 18.7822 
171.968 160.253 156.694 158.951 152.721 178.402 141.657 150.773 66.4472 74.5754 6.96265 225.4 -35.0523 28.9096 208.415 -92.9066 68.6877 204.872 -111.642 85.9341 235.105 -21.7188 101.408 240.59 -20.3393 78.7517 268.41 -36.3005 7.56442 91.6461 18.7203 
171.485 159.993 156.991 163.291 154.329 177.625 142.717 152.072 66.9054 74.1051 11.9592 226.901 -35.5014 34.6514 210.607 -95.1629 74.7254 207.43 -113.014 91.6779 238.288 -20.6716 106.923 243.74 -20.46 83.9253 270.179 -36.9597 8.0571 95.396 18.5139 
170.585 161.037 157.347 162.965 155.093 176.893 143.847 151.922 67.0152 73.7477 14.1399 228.167 -36.1515 37.9848 212.642 -97.0766 77.9734 208.931 -113.191 94.6877 240.075 -20.3075 109.399 245.446 -20.4935 86.4768 271.407 -37.0777 8.88829 96.3432 17.8359 
169.896 161.135 157.479 162.92 155.255 176.139 145.015 151.638 68.2999 73.9765 15.7693 228.818 -36.9986 41.0454 213.417 -98.9013 80.8473 209.441 -113.661 97.0312 240.122 -19.596 111.932 245.845 -20.2368 88.735 271.64 -37.1184 8.68816 96.8415 17.2217 
169.059 162.192 158.264 163.318 155.765 175.485 146.645 152.378 68.4679 73.7719 18.091 230.304 -37.2087 44.018 215.324 -100.412 83.869 210.848 -113.898 99.8275 241.932 -19.1747 114.357 247.429 -20.4009 91.2196 272.927 -37.1919 9.40467 97.9371 16.8834 
168.824 162.094 158.692 163.002 155.56 174.988 147.962 152.595 69.4388 73.8973 20.0972 231.043 -37.2846 46.8457 216.306 -101.833 86.1874 211.752 -114.536 102.377 242.931 -18.6029 117.09 248.422 -20.5735 93.437 273.63 -37.3777 9.31798 99.0976 16.2346 
168.619 162.756 159.17 162.799 155.57 174.609 149.454 153.098 69.9221 73.8013 22.1746 232.155 -37.244 49.2807 217.458 -102.959 88.408 212.619 -114.94 104.965 243.865 -18.441 119.696 249.422 -20.9064 95.6852 274.449 -37.5803 9.38097 99.7349 15.9041 
168.581 163.795 159.321 163.555 155.772 174.479 150.429 153.181 70.4472 73.7903 24.1224 232.405 -37.0013 51.6442 217.932 -103.617 90.5719 212.831 -114.909 107.264 244.623 -18.0717 121.915 250.168 -21.1263 97.7417 274.772 -37.8474 9.62534 100.566 15.6814 
169 164.913 159.964 164.036 155.907 174.735 151.497 153.629 70.7333 73.8083 26.1758 233.443 -36.6532 53.4866 218.497 -103.991 92.0217 213.049 -115.011 109.264 245.554 -17.9633 124.043 251.003 -21.3041 99.8871 275.47 -38.1951 9.52837 101.069 15.3285 
169.42 165.823 160.472 164.098 156.119 175.112 152.008 153.764 71.1219 73.7332 28.502 234.528 -36.348 55.6183 219.178 -103.981 94.0014 213.439 -114.654 111.474 246.701 -17.6356 126.357 252.136 -21.3323 102.142 276.309 -38.4004 9.4514 101.556 15.2025 
169.525 166.42 160.805 164.379 156.361 175.345 152.415 154.17 71.2779 73.4861 30.5871 235.351 -36.4165 57.9387 219.679 -104.233 95.9307 213.788 -114.753 113.717 248.22 -17.3999 128.38 253.297 -21.5935 104.316 276.983 -38.7983 9.99737 102.645 14.8852 
170.179 166.765 161.155 162.536 156.492 175.639 152.539 154.499 71.2939 73.428 32.8999 236.331 -36.3202 59.983 220.495 -104.046 97.6364 214.792 -114.875 115.99 249.735 -17.3563 130.847 254.563 -21.6822 106.492 277.897 -38.9132 9.75527 103.459 14.6373 
170.679 166.965 161.03 162.02 156.578 176.117 152.778 154.935 71.2622 73.1117 35.1971 237.097 -36.5349 62.3688 221.082 -104.174 99.6517 215.811 -115.324 118.084 251.098 -17.4551 133.143 255.851 -21.8679 108.682 278.763 -39.1907 9.55926 104.218 14.3213 
170.498 167.011 160.811 161.79 156.231 175.706 153.168 155.27 71.4678 73.0086 36.9808 237.89 -37.0254 64.6133 222.019 -104.834 101.918 217.07 -116.004 120.449 252.351 -17.5345 135.379 257.063 -22.1699 110.803 279.586 -39.4569 9.78638 104.901 14.31 
171.206 166.865 160.896 160.614 156.163 176.169 153.541 156.077 71.5101 72.9178 39.1948 238.469 -36.9343 66.5009 222.742 -104.911 103.762 218.067 -116.674 122.488 253.199 -17.7956 137.488 258.175 -22.3225 112.812 280.277 -39.6619 9.45986 105.485 14.299 
171.039 166.548 160.488 160.2 155.559 176.155 153.608 156.328 71.8198 73.0121 40.9523 239.6 -37.1959 68.7469 223.769 -105.356 106.08 219.407 -117.313 124.634 254.258 -17.911 139.62 259.305 -22.485 114.995 281.253 -39.9164 9.46213 105.877 14.3396 
171.217 165.948 160.235 159.084 154.985 176.185 153.857 156.856 72.0424 73.1947 42.94 241.032 -37.3873 70.9126 224.978 -105.813 108.493 220.917 -118.033 126.881 255.333 -18.1196 141.838 260.558 -22.5557 117.245 282.456 -40.1392 9.34183 106.165 14.5014 
171.883 165.739 160.982 158.304 154.2 176.21 154.383 157.371 72.2229 73.2298 46.8448 243.078 -37.8029 75.5119 226.42 -106.28 112.815 222.648 -118.534 131.482 257.607 -18.1274 146.048 262.803 -22.6424 121.436 284.394 -40.3661 9.76904 106.514 14.1831 
172.413 165.073 161.177 157.721 153.484 176.01 154.746 158.119 72.32 73.2332 49.1537 243.11 -37.7142 77.9099 226.951 -106.348 115.419 223.502 -118.823 134.021 258.339 -18.0713 148.106 263.847 -22.6089 123.265 285.093 -40.2426 10.1799 106.744 14.3249 
172.54 164.749 161.303 157.679 152.685 176.035 154.803 158.303 72.4993 73.2968 51.32 243.413 -37.8812 80.8558 227.612 -106.418 117.901 224.74 -119.028 136.299 259.316 -17.7245 149.789 264.714 -22.5494 125.07 285.812 -40.0319 11.0373 107.36 13.9349 
173.447 164.22 162.082 157.23 152.196 176.109 154.571 158.425 72.3408 73.1797 52.9525 244.748 -38.3001 83.321 228.598 -106.404 119.754 225.873 -119.051 138.091 260.366 -17.6986 151.616 265.579 -22.4711 126.936 286.753 -39.9031 11.0673 107.408 13.4319 
175.943 163.768 162.929 156.387 151.698 175.756 155.235 159.035 72.2446 73.457 55.4252 246.283 -38.1467 85.5894 230.356 -106.557 121.796 227.716 -119.235 140.333 261.642 -17.8562 153.756 266.997 -22.3837 128.969 288.381 -39.7072 10.9938 107.264 13.1977 
177.465 163.767 163.308 155.956 151.51 175.166 155.845 159.211 72.2514 73.8274 57.7454 247.254 -38.4057 88.1661 231.353 -106.81 123.772 229.12 -119.5 142.544 262.831 -17.8332 155.954 268.257 -22.1366 130.832 289.686 -39.5232 10.7958 107.217 12.6608 
178.124 164.765 164.101 155.394 150.959 174.59 157.658 159.848 71.8241 73.6371 59.7368 247.964 -38.1083 90.0724 232.448 -107.415 125.576 229.382 -119.496 144.389 263.024 -17.8361 157.7 268.667 -21.8152 132.383 290.254 -39.1245 10.7458 106.894 12.4297 
177.933 167.287 164.702 155.35 150.01 174.013 159.964 160.42 71.9137 73.4289 61.6154 247.849 -37.8544 92.4428 232.872 -108.283 127.413 229.26 -119.55 146.105 263.029 -17.3408 159.122 268.621 -21.6444 133.764 290.259 -38.7008 11.2241 107.179 11.8873 
177.786 169.523 165.165 156.523 149.246 173.493 161.715 161.122 72.4083 73.4991 64.1447 248.531 -37.1926 94.7663 233.362 -108.295 129.15 229.606 -119.216 148.082 264.596 -16.3625 160.783 269.675 -21.4888 135.513 291.385 -38.4672 11.981 107.935 11.3538 
176.978 171.066 165.771 156.762 148.811 172.968 163.491 161.956 72.7344 73.5992 66.1443 248.734 -36.4811 96.8443 233.706 -108.513 130.884 229.616 -119.136 150.004 265.338 -15.7341 162.488 270.346 -21.2055 137.004 291.904 -38.1908 12.2609 108.427 11.0765 
176.734 169.539 166.438 155.502 148.012 172.349 164.395 162.731 72.7178 73.5858 68.1179 248.897 -35.4016 98.7162 233.758 -107.876 132.117 229.385 -118.765 151.844 265.786 -15.3174 163.696 270.487 -21.1467 138.283 292.255 -37.8363 13.2196 108.698 10.5981 
176.98 168.712 166.367 155.609 147.684 171.936 164.45 162.811 72.286 73.2263 69.8588 248.955 -34.1372 99.5331 233.314 -106.462 132.704 228.714 -117.78 152.868 265.888 -14.9703 164.644 270.288 -20.9457 139.41 292.312 -37.4997 13.5468 108.69 10.4532 
177.423 168.225 166.16 155.319 147.474 171.725 164.706 162.994 72.161 73.3392 71.7001 249.666 -33.1131 100.571 233.727 -105.815 133.646 228.995 -117.255 154.419 266.621 -14.901 165.952 270.909 -20.8781 140.887 293.074 -37.412 13.8458 108.576 10.4136 
178.17 169.206 166.234 154.196 147.35 171.94 165.66 163.466 72.081 73.6073 73.2259 250.432 -31.9918 101.687 234.695 -105.711 134.888 229.724 -117.009 156.273 267.754 -14.7988 167.335 271.944 -20.6983 142.368 294.083 -37.248 14.3498 108.675 10.5502 
179.168 169.234 166.489 153.431 147.326 172.005 166.263 164.229 72.8881 73.8137 74.8917 250.944 -31.0419 102.81 235.319 -105.275 135.71 230.296 -116.848 157.714 269.112 -13.9204 168.406 272.852 -20.5525 143.731 294.896 -37.1756 15.1186 109.759 10.3456 
179.786 168.91 166.577 152.762 147.017 172.185 166.55 164.761 72.8774 73.7483 76.2692 250.978 -30.3457 104.258 235.791 -105.059 136.918 231.329 -117.084 159.259 269.874 -13.7433 169.578 273.46 -20.6369 144.843 295.378 -36.9254 15.7228 110.417 10.1488 
178.907 168.429 166.327 152.557 146.951 172.243 165.896 164.895 72.4537 73.5518 77.4385 251.643 -29.8746 105.146 236.556 -104.529 137.61 232.375 -117.008 160.335 270.661 -13.9187 170.614 274.1 -20.7052 146.023 296.057 -36.8394 15.8693 110.536 10.0375 
178.073 169.309 166.018 152.552 147.036 172.318 165.309 164.707 71.914 73.3414 78.4992 252.622 -29.6492 106.238 237.558 -104.389 138.264 233.512 -116.975 161.45 271.452 -14.3667 171.811 274.859 -20.8813 147.269 296.865 -36.846 15.7584 110.265 9.72966 
177.402 171.044 165.583 152.251 147.12 172.314 164.794 164.497 71.8058 73.3971 79.6245 253.592 -29.2356 107.397 238.517 -104.18 138.948 234.599 -116.869 162.602 272.216 -14.5982 172.955 275.723 -20.9479 148.41 297.801 -36.8469 15.6514 109.956 9.38759 
177.012 172.159 165.25 151.793 147.366 172.225 164.614 164.319 71.4841 73.4153 80.7158 254.671 -28.9685 108.958 239.605 -104.302 139.84 235.946 -116.961 163.958 272.957 -15.1297 174.285 276.824 -21.0313 149.5 298.881 -36.7916 15.343 109.324 8.84562 
176.679 171.726 165.19 151.65 147.607 172.271 164.818 164.342 71.323 73.4335 81.6796 255.44 -28.9295 110.599 240.311 -104.549 141.077 237.028 -117.26 165.243 273.679 -15.4232 175.534 277.78 -21.0675 150.496 299.732 -36.7755 15.1781 109.121 8.48672 
176.254 169.946 165.359 151.343 147.587 172.367 165.121 164.622 72.0156 73.6678 82.505 255.661 -29.1967 112.006 240.484 -104.682 142.332 237.406 -117.445 166.183 274.185 -15.0196 176.333 278.257 -21.0305 151.308 300.133 -36.8068 15.4093 109.371 8.32318 
175.818 166.859 165.314 150.943 147.507 172.611 165.286 164.75 72.3498 73.9386 83.026 255.642 -29.7119 113.282 240.793 -105.089 143.56 237.867 -117.789 166.744 274.322 -15.0039 176.82 278.426 -21.0318 151.923 300.317 -36.9371 15.5034 109.39 8.22756 
175.467 164.433 165.687 150.855 147.262 172.695 166.171 165.263 72.7766 74.0735 83.8679 256.09 -29.8309 114.047 241.436 -105.26 144.721 238.336 -117.989 167.33 274.879 -14.537 177.429 278.823 -20.8246 152.706 300.865 -36.919 15.6515 109.773 8.49864 
175.236 162.345 165.983 150.877 147.285 172.791 166.204 165.659 73.1408 74.2675 84.4806 256.504 -29.6995 114.449 241.861 -104.814 145.224 238.556 -117.899 167.573 275.343 -14.0912 177.719 279.076 -20.5903 153.263 301.279 -36.9241 15.756 110.132 8.60933 
174.968 160.495 166.101 151.003 147.25 172.884 166.474 165.861 73.6478 74.4257 85.3016 256.833 -29.6866 115.213 242.512 -104.62 146.02 239.135 -117.716 168.059 276.063 -13.5369 178.25 279.654 -20.366 153.862 301.891 -36.8216 15.8606 110.438 8.62945 
174.829 159.14 166.19 151.024 147.258 172.886 166.867 166.168 73.9393 74.4989 86.2192 257.251 -29.6765 116.119 243.275 -104.596 146.831 240.012 -117.743 168.756 276.831 -13.2899 178.916 280.367 -20.3324 154.533 302.57 -36.8098 15.9823 110.775 8.55743 
174.465 158 166.253 151.138 147.261 173.099 167.188 166.184 74.146 74.492 87.0621 257.741 -29.862 117.267 244.117 -104.737 147.86 241.032 -117.812 169.531 277.657 -13.1327 179.726 281.135 -20.3546 155.289 303.327 -36.8266 16.0599 110.995 8.4469 
