176.841 168.302 173.053 174.27 154.728 170.846 167.402 173.271 178.056 90.5476 -291.747 232.022 -25.3511 -260.579 213.247 -107.259 -230.539 206.779 -124.935 -205.189 198.625 -112.566 -195.424 220.402 -12.7418 -214.652 258.209 -30.2711 95.6189 8.57474 8.61602 
176.237 168.126 173.269 174.27 154.44 170.343 167.774 173.49 178.09 91.2627 -292.177 232.169 -24.7783 -260.499 213.274 -107.434 -230.632 206.664 -124.934 -205.189 199.592 -113.117 -195.369 219.785 -13.4188 -214.831 258.212 -30.4543 95.3252 7.92524 8.42494 
175.72 167.969 173.402 174.27 154.27 169.956 167.956 173.63 178.183 91.6374 -292.385 232.203 -24.4609 -260.419 213.353 -107.651 -230.756 206.573 -125.007 -205.531 200.116 -113.075 -195.215 219.36 -14.0893 -214.889 258.168 -30.7461 94.7801 7.69506 8.24755 
175.583 167.942 173.586 174.27 154.286 169.785 168.179 173.858 178.276 91.8017 -292.579 232.466 -24.4204 -260.096 213.249 -107.846 -230.593 206.343 -125.062 -205.674 199.989 -112.547 -194.906 219.23 -14.3784 -214.819 258.159 -30.99 94.1635 7.89095 8.09734 
175.847 167.86 173.271 174.27 154.349 169.907 168.023 173.733 178.323 91.9177 -292.795 232.82 -24.4366 -259.655 213.023 -107.935 -230.176 206.161 -125.032 -205.134 200.015 -112.209 -194.456 219.297 -14.8813 -214.633 258.268 -31.2968 93.545 8.06184 8.05367 
179.757 168.28 173.278 174.27 155.573 171.937 167.1 173.294 178.802 92.8641 -292.991 233.382 -25.7327 -258.974 212.971 -108.168 -228.957 206.358 -125.269 -203.68 199.154 -108.593 -194.689 218.867 -14.9159 -214.303 258.441 -31.5359 90.9844 10.3859 8.4108 
175.107 169.264 173.219 174.27 157.403 173.738 166.671 173.231 179.111 94.1838 -292.998 234.093 -27.1367 -258.353 213.266 -108.739 -227.591 207 -125.932 -202.059 198.646 -106.439 -194.869 218.326 -14.8195 -213.888 258.73 -31.754 89.1054 12.2786 8.92816 
169.653 170.242 172.727 174.27 159.184 175.799 166.594 173.183 179.061 95.2971 -292.994 235.107 -28.6731 -258.02 213.834 -109.528 -226.596 207.731 -126.777 -201.062 198.03 -106.171 -195.17 217.702 -14.9432 -213.515 258.939 -32.0409 87.9736 13.3386 9.39723 
165.81 170.73 172.086 174.27 160.316 177.803 166.552 173.259 178.977 96.1011 -292.946 235.753 -29.5502 -257.941 214.659 -110.277 -225.761 208.75 -127.719 -200.045 197.631 -106.521 -195.373 217.203 -15.3287 -213.088 259.135 -32.3452 87.1902 14.2284 9.98469 
163.367 171.202 172.063 174.27 161.122 178.972 166.728 173.497 179.097 96.9019 -292.371 235.642 -30.0825 -258.182 215.369 -110.963 -225.305 209.627 -128.657 -199.061 197.186 -105.7 -195.242 216.899 -15.189 -212.357 259.212 -32.7002 86.6847 15.6576 10.6293 
163.691 170.963 173.682 174.27 156.619 178.069 167.585 172.82 178.842 93.4605 -291.321 234.266 -30.3288 -257.387 216.169 -112.278 -224.081 209.11 -129.281 -198.99 194.896 -103.439 -193.4 218.292 -15.3881 -211.589 259.23 -33.2655 85.5614 17.6884 10.7642 
167.781 169.835 174.647 174.27 155.39 175.123 166.948 172.224 178.207 92.348 -289.964 232.613 -31.1061 -256.688 216.359 -113.164 -223.084 208.502 -129.796 -199.682 191.279 -102.575 -192.205 218.641 -15.708 -210.823 259.164 -33.9642 83.5221 19.557 10.9329 
175.844 168.652 174.876 174.27 154.905 172.511 165.535 171.593 178.034 92.1438 -288.476 230.734 -31.7441 -255.779 216.13 -113.567 -222.095 207.877 -129.994 -200.466 187.833 -102.301 -191.27 218.712 -16.2976 -210.09 259.139 -34.6794 81.3016 20.9293 10.9825 
176.07 167.228 175.236 174.27 154.653 171.842 163.952 170.745 178.023 92.2899 -287.111 229.619 -32.4739 -254.951 215.841 -113.65 -221.386 207.255 -130.058 -200.906 186.194 -101.828 -190.467 218.656 -16.806 -209.188 259.038 -35.2902 79.902 21.5715 10.9534 
175.524 166.757 175.454 174.27 154.267 171.491 163.08 169.86 178.019 92.5224 -285.956 228.823 -33.0826 -254.363 215.775 -113.845 -220.817 206.572 -130.105 -201.173 184.942 -102.213 -189.713 218.484 -17.3212 -208.327 258.911 -35.8004 79.1417 21.5183 10.9936 
167.809 168.082 176.452 174.27 155.369 174.159 164.003 169.993 178.023 93.5335 -285.066 229.761 -33.965 -253.619 215.733 -114.523 -219.837 206.632 -130.695 -199.545 186.991 -105.677 -189.427 217.832 -17.474 -207.45 258.562 -35.9689 81.6448 19.1123 11.1348 
164.635 167.073 175.663 174.27 154.842 175.199 163.388 169.269 178.021 93.3117 -284.2 229.647 -34.5665 -252.847 215.269 -114.691 -219.269 205.859 -130.782 -199.366 186.174 -106.381 -188.667 217.868 -18.1733 -206.641 258.375 -36.4399 81.3284 18.7646 11.011 
164.648 166.61 175.097 174.274 154.591 175.065 162.718 168.593 178.02 93.1821 -283.247 229.177 -35.2106 -252.063 214.832 -114.741 -218.679 205.102 -130.665 -198.854 185.705 -108.273 -187.912 217.572 -19.0585 -205.886 258.148 -36.8425 81.4104 17.5464 10.8955 
167.739 166.621 174.837 174.27 154.743 173.862 162.488 168.581 178.024 92.9288 -282.303 228.456 -35.5967 -250.937 213.976 -114.576 -217.665 204.11 -130.352 -197.2 188.113 -109.933 -186.585 217.05 -19.5137 -204.988 257.812 -37.0056 82.9768 14.9808 10.8034 
161.865 166.073 176.113 174.27 157.536 178.403 162.945 169.049 178.04 94.0748 -282.328 229.316 -34.603 -249.695 213.057 -114.477 -215.907 203.971 -130.359 -193.368 192.966 -113.301 -186.064 216.053 -19.3786 -204.288 257.314 -36.8689 87.3697 11.0819 11.0662 
161.985 166.229 175.717 174.27 158.194 178.365 163.097 169.004 178.065 94.3226 -281.57 228.84 -34.5181 -248.669 212.317 -114.346 -215.096 202.974 -129.938 -192.473 194.49 -114.458 -185.024 215.541 -19.3785 -203.484 256.873 -36.9122 88.832 9.07969 10.8971 
165.686 166.346 175.493 174.27 158.843 175.776 162.951 169.04 178.139 94.5658 -280.551 228.148 -35.1027 -247.811 211.541 -114.12 -214.351 202.061 -129.524 -191.739 196.002 -114.771 -183.929 215.107 -19.2161 -202.728 256.473 -36.9881 90.0241 7.50391 10.823 
174.327 166.419 174.877 174.27 159.629 173.07 162.848 169.068 178.262 94.8344 -279.505 226.785 -35.3121 -246.892 210.652 -113.885 -213.419 201.086 -129.128 -190.987 196.082 -113.516 -182.84 214.503 -19.1498 -202.003 256.05 -37.0163 89.5209 7.37769 10.8201 
176.797 166.547 174.167 174.27 160.535 172.408 162.762 169.113 178.455 95.2377 -278.85 225.879 -35.3261 -245.997 209.754 -113.79 -212.596 200.213 -128.984 -190.189 195.138 -111.1 -181.862 214.052 -19.0669 -201.317 255.722 -37.182 87.9755 8.61878 10.7499 
161.747 168.07 175.348 174.27 169.891 178.952 163.359 169.97 178.895 98.0151 -279.212 227.087 -34.4601 -245.269 209.244 -113.946 -211.584 200.582 -129.503 -188.479 195.199 -110.252 -181.716 212.055 -19.1332 -200.656 255.37 -37.0327 86.4608 9.59368 10.9122 
160.76 167.922 174.957 174.27 176.75 179.777 163.776 170.653 179.177 100.333 -278.761 227.351 -34.1971 -244.792 208.721 -113.824 -210.856 200.975 -129.879 -187.111 195.149 -110.432 -181.851 210.552 -19.0052 -200.109 254.933 -36.8852 86.3668 10.0102 11.1077 
160.858 166.997 174.243 174.27 171.975 179.817 163.16 170.301 179.627 98.4895 -278.153 226.668 -34.1197 -243.975 208.097 -113.733 -210.342 200.21 -129.673 -187.123 194.597 -108.362 -180.835 211.604 -18.856 -199.455 254.693 -37.1106 86.1179 10.9378 10.8795 
160.155 168.012 173.982 174.27 170.5 179.692 163.682 171.099 179.829 98.6243 -277.637 226.844 -34.0432 -243.454 207.82 -113.886 -209.646 200.877 -130.388 -184.933 193.735 -106.365 -180.385 211.605 -18.5731 -198.722 254.427 -37.0793 85.4469 13.4138 11.0735 
159.712 167.134 173.224 174.27 169.503 178.988 163.247 170.698 179.152 97.809 -277.276 226.335 -33.5807 -242.495 207.571 -113.992 -208.717 200.188 -130.203 -184.907 192.909 -103.488 -179.205 211.974 -18.558 -197.87 254.249 -37.3191 83.7554 14.9884 11.019 
159.72 168.269 173.388 174.27 166.607 178.763 163.926 172.047 168.25 97.2361 -276.585 226.675 -33.7746 -241.592 207.367 -114.083 -207.345 201.179 -131.035 -181.617 190.175 -97.6722 -178.426 212.654 -17.8176 -196.929 254.137 -37.2836 80.9118 20.9827 11.4732 
160.379 167.583 172.655 174.27 167.036 178.654 164.246 172.959 174.411 97.4369 -276.035 226.964 -33.9193 -240.702 207.222 -113.969 -206.052 202.044 -131.569 -180.505 190.509 -97.8372 -177.652 212.733 -17.2015 -196.023 254.079 -37.2774 81.7902 21.4248 11.9463 
161.135 165.165 171.339 174.27 168.861 178.793 163.62 173.328 178.926 98.1746 -275.305 226.792 -34.1777 -239.386 206.485 -113.729 -204.57 202.142 -131.834 -177.858 189.445 -99.5793 -176.859 212.213 -16.8524 -194.896 253.746 -37.3494 82.9704 21.189 12.2653 
161.52 161.179 170.015 174.27 172.421 178.821 162.288 172.801 179.612 99.1746 -274.55 226.548 -34.0097 -238.017 205.856 -113.351 -203.327 201.78 -131.807 -177.137 190.64 -104.627 -176.624 211.095 -17.4467 -193.801 253.291 -37.4808 85.7926 17.3123 12.3073 
161.176 158.498 168.713 174.27 176.121 178.659 161.448 172.197 179.731 100.844 -273.242 226.035 -34.1706 -236.392 205.373 -113.309 -201.815 201.457 -131.838 -175.777 191.395 -106.892 -175.772 209.993 -17.897 -192.676 253.013 -37.7032 86.6185 15.5801 12.2315 
161.339 156.827 167.708 174.27 177.259 178.705 161.089 171.877 179.63 101.747 -271.725 225.382 -34.9157 -234.847 205.376 -113.819 -200.428 201.554 -132.364 -174.712 191.386 -107.25 -174.728 209.662 -18.2423 -191.632 252.809 -38.1006 86.5344 15.7544 12.0558 
161.898 154.882 166.894 174.27 177.707 179.137 160.894 171.988 179.629 101.763 -269.918 224.663 -35.8003 -233.187 205.55 -114.204 -198.575 201.91 -133.004 -173.024 190.874 -107.37 -173.631 209.888 -17.9469 -190.398 252.568 -38.4821 87.3402 16.3951 12.2444 
163.961 152.902 165.879 174.27 176.035 179.745 160.295 171.498 179.872 100.515 -268.205 223.813 -36.181 -231.255 205.407 -114.32 -196.709 201.6 -133.181 -170.709 189.969 -108.344 -172.008 209.648 -18.2927 -188.818 251.958 -38.8041 88.2243 16.3027 12.2069 
165.325 151.551 165.371 174.27 172.283 179.969 158.666 170.27 179.855 99.1821 -266.2 222.87 -36.0775 -228.729 204.396 -113.954 -194.64 200.381 -132.657 -167.707 190.994 -111.438 -169.722 209.323 -18.7547 -186.968 251.335 -38.9294 90.8018 13.5674 11.8111 
166.414 152.017 165.172 174.27 169.642 179.719 157.006 168.786 179.838 99.4178 -264.311 221.617 -36.0227 -226.024 203.35 -113.933 -192.27 199.016 -132.402 -165.83 189.76 -111.381 -167.717 208.431 -19.1267 -184.799 250.611 -39.1196 89.8421 13.3843 11.4574 
167.765 151.738 164.544 174.27 169.87 179.365 154.166 167.165 179.198 100.491 -262.882 220.592 -36.0099 -222.821 201.795 -113.477 -189.544 197.472 -131.854 -163.814 188.39 -110.442 -165.623 206.929 -19.2469 -182.373 249.903 -39.3974 88.1873 13.3083 11.2153 
167.973 154.095 164.581 177.91 171.383 179.333 153.805 166.647 179.74 102.119 -261.039 219.807 -36.3551 -220.804 201.182 -113.866 -186.943 196.418 -131.984 -161.436 186.717 -108.861 -163.667 205.069 -19.4037 -179.963 249.184 -39.5996 85.9342 14.3328 11.5965 
168.02 157.32 165.347 178.443 169.516 179.585 154.675 167.434 179.824 102.347 -258.939 219.137 -36.8143 -218.671 200.878 -114.611 -183.881 196.23 -132.823 -158.969 185.518 -107.314 -160.988 204.775 -19.1312 -177.36 248.692 -39.8214 84.8406 15.9744 12.2599 
168.589 159.407 166.053 174.27 169.186 179.404 155.533 168.191 179.527 102.844 -256.354 218.323 -37.4073 -216.093 200.43 -115.121 -180.508 195.768 -133.277 -156.287 184.614 -105.383 -158.339 204.438 -18.5961 -174.681 248.333 -39.9533 83.7339 17.3769 12.7821 
170.106 158.725 166.189 172.623 170.355 178.911 155.356 168.369 177.507 103.51 -253.52 216.867 -37.9018 -212.426 198.424 -115.238 -176.435 193.799 -132.976 -153.199 182.315 -103.475 -155.684 203.407 -18.023 -171.728 247.59 -40.024 81.997 18.2241 12.9784 
172.472 158.553 167.637 174.27 170.245 177.683 155.961 168.879 175.32 104.298 -250.028 215.221 -38.5041 -208.634 196.805 -115.757 -172.243 192.022 -133.153 -150.202 180.63 -101.47 -153.171 202.887 -17.1591 -168.724 247.112 -40.2345 80.8636 19.1479 13.108 
173.432 156.815 168.621 174.27 171.344 177.353 155.471 168.788 170.834 105.332 -247.076 213.811 -38.7358 -204.448 195.039 -115.98 -167.974 190.177 -133.007 -146.711 178.11 -99.2136 -150.446 202.38 -16.7542 -165.727 246.744 -40.4483 78.6316 20.5833 12.9898 
173.746 155.639 169.206 174.27 173.78 177.203 156.071 168.438 174.142 105.584 -243.856 212.692 -39.4711 -200.667 194.449 -116.529 -163.855 188.818 -133.047 -143.444 176.801 -97.9856 -147.96 203.007 -15.9962 -162.656 246.691 -40.9294 78.4271 21.2012 12.9966 
175.119 155.466 168.466 174.27 173.958 176.672 157.158 167.209 177.815 104.212 -240.517 212.124 -40.2588 -197.328 193.925 -116.596 -159.806 187.253 -132.015 -139.922 175.748 -93.1482 -144.693 204.003 -15.7067 -159.441 246.905 -41.261 75.7726 23.5447 13.2871 
177.41 156.35 168.188 174.27 171.008 175.83 158.152 167.188 177.696 101.817 -237.049 211.271 -40.6325 -193.022 192.719 -116.771 -154.691 185.804 -131.284 -136.915 172.52 -85.3953 -140.288 205.036 -15.2083 -155.937 246.94 -41.3403 70.17 29.091 13.6288 
178.883 158.672 168.943 174.27 168.55 175.262 159.288 167.636 152.154 99.6169 -233.081 210.413 -40.6986 -189.158 191.471 -116.884 -150.511 184.305 -130.848 -140.126 167.28 -70.5985 -136.432 205.962 -14.843 -152.421 246.737 -41.395 57.9116 40.9373 13.7042 
179.605 160.944 169.103 174.27 165.154 174.954 160.042 167.014 108.166 96.482 -229.261 209.952 -41.3602 -185.304 190.293 -116.953 -146.609 182.435 -129.871 -147.433 178.702 -28.8833 -132.621 206.773 -15.263 -148.981 246.426 -41.5541 21.974 76.3896 13.581 
177.994 163.931 169.249 175.541 161.557 174.406 161.56 166.875 109.381 93.3267 -225.769 210.442 -42.2881 -182.538 190.917 -117.904 -143.697 182.162 -129.923 -147.028 188.104 -12.4692 -129.223 208.079 -16.015 -145.783 246.873 -41.8501 9.2999 91.5482 13.6168 
177.215 166.739 170.398 177.185 157.816 174.421 163.164 167.745 111.947 90.5158 -221.726 210.174 -43.2502 -179.779 190.871 -118.627 -140.09 182.105 -130.518 -143.665 194.009 -3.99044 -125.191 209.746 -16.6624 -142.626 247.283 -42.2257 8.71388 99.5812 14.1666 
177.287 168.697 171.08 177.642 155.267 174.716 163.895 168.03 113.785 88.4598 -218.552 210.381 -44.0887 -176.692 191.021 -119.204 -136.476 181.894 -130.934 -140.294 194.675 -2.34035 -121.505 210.612 -17.3064 -139.376 247.41 -42.5082 9.32679 100.769 14.5053 
176.867 170.321 171.487 177.469 153.855 174.938 164.64 168.27 113.604 87.1396 -215.743 210.696 -44.7421 -173.549 191.354 -119.638 -132.925 181.905 -131.126 -136.001 195.262 -2.21733 -117.707 211.372 -17.6597 -136.179 247.51 -42.6801 9.71436 101.156 14.7647 
176.859 171.122 171.951 177.444 152.305 175.283 164.809 168.369 113.371 85.7845 -212.474 210.47 -45.3816 -170.095 191.195 -119.815 -128.79 181.448 -130.773 -131.534 195.287 -2.10979 -113.746 211.842 -18.0179 -132.879 247.396 -42.8468 10.1182 101.14 15.2313 
177.611 171.935 171.9 176.501 152.655 175.747 165.238 168.542 112.067 85.33 -209.17 210.636 -46.2513 -167.2 192.151 -120.394 -125.417 182.324 -131.205 -128.327 194.895 -5.1936 -110.85 213.224 -18.232 -129.956 248.007 -43.195 9.48724 99.2232 15.5666 
177.648 171.662 172.167 175.856 152.253 176.471 164.596 168.938 110.913 84.8532 -206.765 211.542 -47.2355 -163.758 191.728 -120.077 -121.601 181.958 -130.783 -124.066 191.563 -9.24111 -107.693 213.395 -18.2251 -126.826 247.844 -43.2037 10.5985 95.0123 15.8255 
177.75 171.645 172.603 174.27 150.488 176.406 163.503 169.617 103.534 82.6965 -203.791 211.73 -47.3966 -158.795 190.693 -118.579 -117.923 181.257 -129.136 -118.497 193.272 -14.2372 -103.246 214.93 -18.1386 -123.559 248.097 -42.8926 11.7652 91.6336 14.8986 
177.774 171.964 171.422 174.27 148.341 176.759 163.574 169.082 92.3653 81.1304 -200.551 211.876 -48.6325 -155.208 190.174 -119.194 -114.066 179.891 -128.448 -115.927 199.988 -16.8762 -99.6463 215.15 -18.3448 -120.153 247.824 -43.129 8.77555 93.7501 15.0376 
177.289 172.063 170.952 90.3048 147.103 176.211 163.815 168.981 71.2905 79.6988 -197.212 211.026 -48.7439 -150.794 189.188 -119.375 -110.107 177.949 -127.543 -107.411 210.501 -27.7984 -95.8075 215.505 -18.298 -116.946 247.607 -43.1722 9.78266 92.7003 14.6448 
176.942 172.568 170.16 144.564 145.329 175.797 164.977 169.033 75.1728 79.0158 -193.759 210.409 -49.2108 -146.714 189.348 -120.479 -105.646 176.916 -127.462 -107.568 210.922 -19.9015 -91.6484 214.581 -18.5722 -113.38 247.028 -43.0869 6.93897 99.9969 15.0092 
177.021 172.897 169.314 154.278 145.027 175.653 165.669 169.235 76.0106 79.0207 -189.987 209.914 -50.0449 -143.156 189.61 -121.89 -101.307 176.308 -127.972 -104.179 211.856 -17.6533 -87.5305 213.505 -18.7845 -109.605 246.331 -43.2266 9.26057 103.355 15.7196 
177.296 172.548 168.605 155.498 145.153 175.574 165.706 169.246 75.6786 79.085 -186.467 210.115 -50.515 -140.239 190.927 -122.983 -97.509 176.636 -128.377 -100.932 212.851 -17.1236 -83.9982 212.987 -18.8295 -106.071 246.205 -43.1944 10.6517 105.156 16.6046 
177.405 172.001 167.93 153.184 145.693 175.594 165.236 169.138 74.0901 79.4826 -183.09 210.56 -51.0413 -137.216 192.217 -123.793 -93.6871 177.297 -128.726 -97.4762 213.478 -17.9317 -80.7174 212.358 -18.8723 -102.632 246.204 -43.1123 11.2583 105.694 17.3679 
177.534 170.676 168.105 151.228 146.464 175.73 164.467 168.986 73.8828 79.7427 -179.596 210.873 -51.6274 -134.062 192.914 -124.489 -89.9524 177.169 -128.904 -94.0091 213.309 -18.4104 -77.4711 211.873 -19.1418 -99.0584 245.986 -43.3124 11.4916 105.664 18.0571 
176.463 169.638 169.442 150.866 147.381 176.239 163.235 168.659 73.7994 80.1062 -176.235 211.286 -52.1861 -129.87 193.659 -124.942 -85.4275 177.249 -128.541 -90.2514 213.682 -18.3385 -74.0735 211.95 -19.0951 -95.4143 245.97 -43.3815 12.0322 106.041 18.6282 
172.49 168.919 169.886 150.846 148.307 177.188 162.513 168.772 74.0123 80.9769 -173.198 212.221 -52.7131 -125.559 194.153 -125.555 -80.7324 177.131 -128.407 -86.6306 213.459 -18.2142 -70.8693 211.429 -18.859 -91.6807 245.87 -43.4832 12.4454 106.154 19.1166 
169.534 167.776 169.408 148.473 148.241 177.438 162.058 168.61 74.024 82.6943 -170.151 213.256 -53.5025 -120.665 194.592 -126.017 -75.3138 177.357 -127.865 -82.0534 212.248 -18.9166 -67.2204 210.61 -18.7776 -87.9772 245.909 -43.605 12.1855 104.548 19.707 
167.679 166.227 169.092 148.157 148.736 177.275 161.115 168.637 74.318 83.8804 -166.855 214.158 -54.2199 -115.524 194.579 -126.058 -70.1127 177.508 -127.03 -78.0036 211.815 -19.2104 -63.6836 210.564 -18.6986 -84.3309 246.146 -43.8324 12.0145 103.588 19.8796 
166.65 163.95 168.669 145.74 149.079 177.107 159.035 168.245 73.7912 85.4915 -163.57 215.017 -55.3582 -110.041 193.835 -125.506 -64.8785 177.373 -125.981 -73.845 210.498 -20.4815 -60.3458 209.642 -18.7006 -80.631 246.048 -43.9409 11.4054 101.217 19.6084 
166.629 162.436 168.285 145.961 149.671 177.165 157 167.272 73.477 86.119 -160.257 215.702 -56.8521 -104.869 193.359 -125.497 -60.36 176.993 -125.288 -70.5947 209.677 -21.4593 -57.5437 209.065 -18.9603 -76.8552 245.699 -44.2776 11.0345 99.9243 19.2265 
166.285 161.091 167.527 141.558 150.237 177.151 155.222 165.626 71.7162 87.0258 -157.247 217.034 -57.9554 -100.206 193.006 -125.005 -56.1982 176.461 -123.907 -66.7425 209.102 -23.2863 -54.5891 208.49 -18.8832 -73.281 245.594 -44.3951 10.2677 97.4492 19.1009 
166.281 161.058 166.068 138.536 151.912 176.686 155.102 164.061 70.4948 87.5102 -154.411 218.783 -59.3058 -95.9018 193.554 -125.395 -52.6077 176.481 -122.679 -63.2161 209.129 -24.8404 -52.226 208.717 -18.864 -69.7164 245.998 -44.7896 10.0145 95.2228 19.0379 
166.526 162.031 163.226 135.451 152.894 176.794 154.346 161.727 68.8181 88.2329 -151.059 219.654 -60.3862 -92.116 193.179 -125.228 -49.3962 175.605 -120.941 -59.7307 209.017 -26.2472 -49.6655 208.486 -18.5706 -66.3662 245.978 -45.0179 9.80708 92.9854 19.215 
166.353 162.882 160.13 137.2 152.327 176.953 153.626 159.829 68.587 88.4275 -147.449 220.166 -61.1886 -87.963 192.428 -124.55 -45.9496 174.357 -118.508 -57.1006 208.522 -25.8488 -46.9641 207.809 -18.0668 -63.0471 245.673 -44.8382 9.65806 91.9282 19.4189 
166.511 163.565 154.54 141.396 151.923 177.548 151.961 157.138 69.9367 88.4738 -143.347 220.352 -62.0202 -84.5231 191.968 -123.728 -42.7884 173.968 -116.716 -55.3107 207.859 -25.3526 -44.1151 207.412 -18.1334 -59.7229 245.643 -44.8962 8.88063 91.1062 19.5873 
166.563 164.814 147.986 149.257 151.65 178.111 150.021 154.813 72.4252 87.9889 -138.783 220.002 -62.9697 -80.697 191.822 -122.897 -39.3034 174.375 -115.119 -53.5262 208.526 -23.3549 -41.0777 208.111 -18.317 -56.3875 246.049 -44.9847 9.50647 92.1815 19.5428 
166.689 164.972 143.04 150.403 151.117 178.365 147.492 153.023 73.5649 87.7633 -134.474 219.8 -63.7284 -76.8514 191.699 -121.612 -35.802 175.106 -113.822 -51.183 208.919 -22.8296 -38.0734 208.633 -18.3364 -53.1605 246.762 -44.9411 9.52018 91.6004 19.0518 
166.861 165.224 138.491 151.025 150.533 178.475 145.821 151.42 74.9004 87.6225 -130.095 219.034 -64.254 -72.8643 191.304 -120.473 -32.0773 175.586 -112.509 -48.4494 209.213 -21.902 -34.8715 209.068 -18.1956 -49.8555 247.231 -44.798 9.94531 91.3092 18.6761 
166.917 165.07 134.454 149.758 149.979 178.466 144.361 149.864 75.2334 87.637 -125.918 218.322 -64.4749 -69.0834 190.853 -119.293 -28.5701 175.86 -111.207 -45.4311 209.703 -21.3686 -31.6968 209.335 -17.9352 -46.63 247.592 -44.5919 10.344 90.9524 18.3345 
166.938 165.078 131.546 148.188 149.404 178.438 143.094 148.79 75.6664 87.7956 -121.761 217.186 -64.1926 -65.8724 190.035 -118.153 -25.2741 175.626 -110.251 -42.3109 209.565 -21.1259 -28.493 209.301 -17.765 -43.424 247.599 -44.5438 10.3832 90.3785 18.2013 
169.297 163.685 132.856 146.427 150.846 179.024 143.271 148.294 75.5873 89.3355 -117.642 215.677 -65.0283 -62.1891 189.037 -117.541 -21.1636 175.466 -109.186 -38.926 208.557 -21.658 -25.7866 208.712 -16.9434 -40.2006 247.848 -44.4055 9.56366 88.2011 18.2378 
173.001 163.027 135.958 143.809 152.169 177.201 144.014 147.671 77.1521 91.1777 -113.82 214.881 -65.5607 -58.7156 188.972 -117.518 -17.5632 175.64 -108.603 -35.2521 205.804 -22.7657 -23.0753 207.653 -16.5317 -37.0388 248.379 -44.1454 8.35691 83.8655 18.2419 
177.063 163.132 138.003 141.553 153.209 175.791 144.85 147.138 80.4321 92.9111 -109.879 213.931 -65.9219 -55.6441 188.633 -117.56 -13.9204 175.781 -108.304 -31.104 201.321 -24.3524 -20.171 206.295 -16.3491 -33.9945 248.513 -43.8987 8.05654 78.5137 18.5274 
176.778 163.295 139.313 141.503 154.108 175.074 145.362 147.014 84.2475 94.0219 -106.225 212.673 -65.58 -52.4867 188.19 -117.536 -10.2955 175.762 -108.257 -26.8649 196.917 -25.3576 -17.1793 204.989 -15.9901 -30.8903 248.118 -43.5203 9.55936 74.625 18.7387 
176.246 163.114 140.705 142.083 155.004 174.421 145.492 146.551 87.3916 94.9388 -102.573 211.751 -64.9597 -49.6537 188.209 -117.518 -7.24038 175.953 -108.417 -22.9447 193.582 -26.7194 -14.2543 204.035 -15.9946 -27.9559 247.988 -43.2454 11.3276 71.3279 18.804 
175.944 162.571 141.752 142.751 155.555 173.913 145.739 146.025 90.6011 95.8458 -99.2085 211.587 -64.2338 -47.0045 188.932 -117.641 -4.62363 176.595 -108.691 -19.1269 190.767 -28.1216 -11.3863 203.313 -16.1235 -25.1676 248.231 -42.9336 13.1928 68.348 18.765 
175.715 162.794 142.571 140.885 155.886 173.534 146.547 146.59 91.7702 96.3842 -95.611 210.464 -63.1028 -44.8231 188.991 -117.976 -1.67485 176.759 -109.431 -15.948 189.765 -28.1444 -8.46583 202.765 -16.0918 -22.369 247.955 -42.7924 13.6193 68.5855 19.1938 
175.286 163.287 142.937 140.359 156.046 173.188 147.014 147.404 93.2673 97.1915 -92.2485 209.525 -62.4305 -42.6102 188.759 -118.09 0.99134 176.837 -110.19 -12.8025 187.786 -28.9393 -6.01927 201.622 -16.0579 -19.7696 247.483 -42.568 14.6972 67.6775 19.2839 
