159.076 170.008 154.323 153.216 157.719 167.625 158.89 157.031 80.8954 87.5556 -13.9829 321.5 -8.20576 42.0113 289.138 -71.0534 83.044 274.534 -69.9541 66.0557 293.267 31.6396 79.7104 293.318 34.2893 74.3657 334.793 12.0638 10.404 94.7513 16.9718 
157.986 169.416 154.625 153.225 157.65 167.303 158.582 156.897 81.4723 88.0245 -13.0363 322.853 -8.45678 43.2978 290.23 -71.3779 84.2325 275.371 -70.1308 67.2151 293.732 31.5837 80.8846 293.937 34.1259 75.4385 335.462 11.9915 10.413 94.5682 16.9458 
156.614 168.537 154.253 153.115 157.404 167.003 157.603 156.671 81.8908 88.3503 -11.8031 324.186 -8.84495 44.6136 290.982 -71.1201 85.6737 276.106 -69.76 68.3763 294.048 31.387 82.0485 294.524 33.9237 76.4605 336.19 11.9592 10.4031 94.0084 17.0938 
155.789 167.953 154.257 152.832 156.937 166.688 156.918 156.65 81.852 88.3161 -10.6127 325.522 -9.28515 45.9326 291.762 -70.9149 87.0011 277.013 -69.4377 69.7314 294.527 31.1088 83.3617 295.247 33.7042 77.4228 336.99 11.9912 10.4117 93.4518 17.1218 
155.81 167.373 154.465 152.876 156.325 166.816 156.701 156.79 82.0241 88.328 -9.18292 326.533 -9.52346 46.9818 293.377 -71.0339 88.1053 278.309 -69.214 70.6717 295.514 31.1967 84.4459 296.23 33.6409 78.3171 338.247 12.0772 10.4646 93.3641 17.2942 
156.013 166.741 154.324 152.722 155.803 166.97 156.372 156.903 82.1518 88.3916 -7.71886 327.375 -9.74501 47.9018 295.303 -71.1737 89.5918 280.102 -69.3198 71.7279 296.311 31.0014 85.6068 297.199 33.5174 79.158 339.583 12.2084 10.35 93.2639 17.7796 
155.686 166.058 153.814 152.733 155.627 166.791 155.882 156.767 82.3501 88.4317 -5.15955 329.016 -10.6922 50.578 299.389 -72.2171 92.8933 284.485 -70.3911 74.1123 298.402 30.3066 87.9288 299.626 32.8415 81.0348 342.119 12.0965 10.4143 93.7385 18.2309 
155.132 165.96 153.192 152.809 155.674 166.801 155.382 156.374 82.2547 88.2617 -4.07925 329.951 -11.2836 52.0496 301.209 -72.5892 94.2988 286.414 -70.4572 74.9239 299.493 30.1139 88.6831 300.803 32.7333 81.7237 343.327 12.1895 10.4681 93.786 18.2218 
155.029 165.84 152.283 152.727 155.889 166.647 154.642 155.586 81.998 88.0486 -3.28259 331.302 -11.8746 53.9273 302.477 -72.6522 95.6761 288 -70.061 76.0046 300.629 29.7381 89.6234 302.066 32.5634 82.6371 344.592 12.2668 10.5055 93.1769 17.8613 
154.274 165.671 151.729 152.756 156.281 166.197 153.822 154.76 81.7121 87.7934 -2.52522 333.328 -12.7151 55.7605 303.685 -72.6979 96.9703 289.615 -69.8274 77.0431 301.853 29.2392 90.4879 303.426 32.3413 83.605 345.78 12.2536 10.5092 92.5829 17.4505 
153.451 165.692 150.981 153.224 156.53 165.941 153.089 154.308 81.8749 87.6052 -1.4914 334.771 -13.3766 57.323 304.161 -72.3625 97.9033 290.222 -68.9985 77.7992 303.266 29.3796 91.3599 304.939 32.3833 84.4901 346.959 12.1647 10.5506 92.1071 17.0334 
152.587 165.334 150.752 153.545 156.73 165.721 152.342 153.822 82.0002 87.3337 -0.405078 336.081 -13.8567 58.5954 304.688 -71.8418 98.6404 290.704 -67.9895 78.6146 304.733 29.7224 92.2654 306.561 32.5377 85.224 348.169 12.1005 10.6497 91.7338 16.7477 
152.058 164.782 150.886 153.776 156.792 165.738 151.775 153.326 82.1707 87.1659 0.693158 337.511 -14.2222 59.6435 305.81 -71.5857 99.1487 291.467 -67.1409 79.2621 306.231 29.9538 93.0566 308.182 32.5998 85.8569 349.585 12.0369 10.6876 91.313 16.5643 
151.574 164.331 151.363 153.814 156.754 165.626 151.603 153.285 82.2383 86.9653 1.70957 339.273 -14.5089 60.651 307.172 -71.4356 99.8001 292.572 -66.5645 79.8855 307.829 30.2127 93.7751 309.883 32.7439 86.4824 351.177 12.0627 10.7384 91.127 16.4515 
151.428 163.906 152.178 153.534 156.536 165.872 151.732 153.74 82.3284 86.8386 2.84516 340.564 -14.6143 61.4823 308.713 -71.4674 100.666 294.007 -66.5207 80.6209 309.257 30.4234 94.594 311.482 32.8643 87.0275 352.749 12.1271 10.7401 91.2956 16.5053 
151.528 163.665 153.01 153.294 156.37 165.969 152.16 154.233 82.6169 86.8521 3.67047 341.86 -14.9578 62.2164 310.043 -71.68 101.514 295.14 -66.5325 81.1407 310.451 30.6511 95.1932 312.858 33.0535 87.5164 354.109 12.1228 10.688 91.44 16.6472 
151.454 163.506 153.635 152.972 156.104 166.05 152.577 154.742 82.7616 86.8227 4.37081 342.925 -15.1576 62.644 311.642 -72.0722 102.428 296.656 -66.9401 81.7112 311.443 30.6768 95.775 314.054 33.0845 87.9186 355.274 12.1544 10.6558 91.7947 17.0189 
151.204 163.469 153.89 152.604 155.815 166.17 152.797 155.62 82.6572 86.73 5.20906 344.522 -15.1185 63.0116 313.903 -72.3373 103.796 299.081 -67.6187 82.4292 312.909 30.5548 96.4299 315.686 33.1205 88.4811 356.909 12.2881 10.5828 92.4302 17.62 
150.781 163.379 154.177 152.332 155.626 166.208 153.041 156.152 82.4981 86.622 6.01515 346.211 -15.2498 63.6309 316.361 -72.7514 105.415 301.76 -68.3645 83.3201 314.472 30.3609 97.2436 317.391 33.0834 89.1054 358.512 12.4481 10.53 93.0986 18.2378 
150.763 163.531 154.43 152.215 155.542 166.285 153.238 156.301 82.2477 86.37 6.59035 347.992 -15.3978 64.2161 318.545 -73.1391 106.364 304.04 -68.8917 84.1055 316.212 30.1424 97.9796 319.181 32.9787 89.7686 360.026 12.4768 10.4941 93.4952 18.4783 
150.847 163.791 154.769 152.003 155.317 166.675 153.584 156.509 81.9781 86.1319 7.33223 350.04 -15.0644 64.3931 320.538 -73.104 107.042 305.875 -68.864 84.9086 317.984 30.1685 98.7685 321.079 33.2035 90.3844 361.857 12.6766 10.3277 93.4792 18.8902 
150.887 163.82 154.524 151.883 155.137 166.827 153.664 156.084 81.787 85.9777 7.95625 352.372 -14.8673 64.4875 322.792 -73.1225 107.597 307.595 -68.6307 85.5798 319.42 29.8862 99.4208 322.691 33.2624 90.9734 363.708 12.8492 10.0844 92.8256 19.4306 
150.497 164.282 153.36 151.339 154.78 166.904 153.708 155.687 81.618 85.8881 8.76879 356.238 -14.0346 64.7098 326.624 -73.1007 108.934 310.804 -68.3275 87.0248 321.626 29.5858 100.803 325.211 33.4403 92.0207 366.801 13.1373 9.73146 92.1608 20.5367 
149.523 164.956 153.029 151.04 154.6 166.783 153.889 156.067 81.2599 85.7595 9.28016 358.254 -13.4981 65.1046 328.121 -72.7233 109.683 312.212 -67.8368 87.7507 323.171 29.6866 101.491 326.731 33.7622 92.5732 368.444 13.3679 9.59348 91.9487 20.8706 
149.19 165.557 152.84 150.871 154.476 166.697 154.335 156.397 81.1838 85.6152 9.61186 359.402 -13.191 65.7245 329.108 -72.6173 110.627 313.163 -67.3021 88.6989 324.397 29.9724 102.382 328.158 34.0984 93.0531 369.751 13.4526 9.5524 91.8147 21.2215 
149.012 167.666 152.334 152.466 155.122 167.33 155.082 157.485 80.6856 85.0444 10.32 358.453 -13.363 66.7406 329.208 -73.1245 111.784 314.274 -67.8577 89.0152 327.021 30.6292 102.981 330.309 34.4563 93.7354 370.992 13.1721 9.6147 93.4419 20.9075 
152.263 169.089 153.07 153.742 155.855 169.878 156.373 158.498 80.5758 84.4122 12.1168 356.053 -13.8363 68.3636 329.752 -73.8715 112.299 316 -68.9628 89.4696 329.695 31.0972 103.653 332.928 34.7437 94.4834 372.76 13.1815 9.67408 94.2077 19.4852 
153.589 169.633 153.881 154.732 156.241 171.235 157.018 158.633 80.6835 84.2286 13.6608 355.35 -14.5454 69.9659 330.215 -74.2292 112.412 317.043 -69.4548 89.5488 331.76 31.6286 103.835 334.786 35.0287 95.0815 374.125 13.2183 9.89691 94.6261 18.0957 
154.257 169.663 154.308 155.3 156.384 171.748 157.612 158.783 80.8744 84.0833 14.8969 355.261 -14.7789 71.2104 330.336 -73.8913 112.417 317.42 -68.9951 90.1427 333.893 32.7093 104.539 336.89 35.6498 95.562 375.458 13.3781 10.1592 94.9339 17.0871 
154.405 169.758 155.244 155.92 156.267 172.081 157.596 159.277 81.5234 84.1183 15.8833 354.84 -14.998 72.1495 330.532 -73.4788 112.371 318.39 -69.2882 89.8843 335.595 33.5797 104.646 338.414 36.0257 95.8887 376.343 13.4758 10.3369 95.9415 16.076 
155.156 169.897 155.679 156.149 156.346 172.915 158.325 160.542 82.0589 84.217 17.0943 355.415 -14.8921 72.8249 331.23 -73.1538 112.061 319.201 -68.9202 90.0327 337.725 34.6644 104.993 340.536 36.7512 96.305 377.929 13.7125 10.4227 96.3563 15.2971 
155.352 169.773 156.536 156.294 156.293 173.066 158.653 160.53 82.5245 84.3503 17.7805 355.801 -14.501 73.4363 331.412 -72.4412 111.99 319.314 -67.8882 90.4807 339.338 35.6975 105.526 342.253 37.4792 96.6535 379.206 14.0035 10.5155 96.1365 14.8466 
155.998 169.893 157.117 156.282 156.311 173.503 159.133 160.481 82.7584 84.4873 18.4264 356.713 -13.9458 73.8305 332.48 -71.9187 111.863 319.892 -66.7361 90.8165 341.112 36.4826 105.85 344.055 38.0761 97.0144 380.913 14.3233 10.6388 95.703 14.6835 
156.687 170.12 157.802 156.233 156.209 174.134 159.584 159.356 82.887 84.5756 18.9636 358 -13.7512 74.1386 334.209 -72.0946 111.935 320.964 -66.4113 91.1832 342.125 36.6876 106.196 345.116 38.3127 97.3681 382.41 14.6062 10.6616 95.0236 14.7587 
157.077 169.94 158.206 156.091 156.35 174.187 159.81 158.489 82.5091 84.3144 19.3764 359.619 -13.5007 74.3584 335.833 -72.0928 112.329 322.188 -66.0094 92.1255 343.434 36.7206 106.944 346.677 38.5258 97.7196 384.064 14.8752 10.6181 94.2654 15.063 
156.653 169.719 158.338 155.88 156.65 173.941 159.787 157.929 82.1129 84.1855 19.6583 361.905 -13.4096 74.2566 337.366 -71.8568 112.813 323.29 -65.5276 92.8182 344.633 36.5368 107.395 348.12 38.6588 97.991 385.684 15.0539 10.4945 93.4297 15.6124 
155.877 169.094 158.067 155.56 156.738 172.871 159.124 156.895 81.7214 84.2146 19.3976 364.061 -13.3175 74.1361 338.687 -71.2898 113.266 324.161 -64.646 93.6653 345.305 36.405 107.937 348.93 38.7373 98.1391 387.05 15.4054 10.5591 92.1103 16.2072 
153.929 169.38 158.98 155.647 156.799 171.464 159.568 157.15 81.5103 84.1519 19.4159 366.518 -13.6193 74.3491 339.986 -71.0422 113.844 325.658 -64.5625 94.3339 347.163 36.726 108.654 350.756 39.1048 98.3828 388.622 15.5746 10.4005 92.396 16.3529 
152.986 169.699 159.447 155.945 157.093 170.337 160.071 157.458 81.6323 84.2648 18.9983 369.21 -13.9358 74.0072 341.363 -71.0428 113.573 326.579 -64.3439 94.1556 348.738 36.9434 108.527 352.219 39.3158 98.5747 390.024 15.543 10.3293 92.4384 16.5384 
151.978 169.687 159.795 156.432 157.443 169.367 159.983 157.282 81.485 83.9812 18.7881 370.842 -14.3674 74.1169 342.372 -71.0211 113.539 327.066 -63.9637 93.9077 349.723 36.9136 108.374 353.232 39.4961 98.6608 390.931 15.6031 10.1372 92.0447 16.6441 
150.868 169.498 160.045 156.812 157.653 168.595 159.855 156.939 81.5298 83.744 19.1004 372.609 -14.7494 74.7966 343.408 -70.6184 113.694 328.065 -63.3962 94.087 350.852 37.3351 108.564 354.583 40.0159 98.8554 392.131 15.9863 10.0841 91.6688 16.3583 
149.982 169.496 159.914 157.045 157.758 168.119 159.845 156.47 81.4611 83.4895 19.2694 373.746 -15.1724 75.4515 344.396 -70.6463 114.172 329.148 -63.3819 94.2975 351.471 37.3185 108.785 355.391 40.1864 98.9624 393.024 16.1293 9.97102 91.4336 16.2325 
149.749 169.221 159.457 156.925 157.544 168.014 159.467 155.975 81.3056 83.1882 19.4486 374.8 -15.1826 75.8798 345.56 -70.3837 114.337 330.243 -63.0215 94.4956 352.12 37.1536 109.017 356.227 40.2151 99.0807 394.013 16.2923 9.82693 90.9271 16.1445 
149.457 169.107 159.29 156.717 157.327 168.064 159.431 155.723 81.2449 82.957 19.5705 375.232 -15.1443 76.2255 346.286 -70.2985 114.386 330.708 -62.7773 94.6016 352.383 37.052 109.075 356.671 40.1242 99.0875 394.616 16.3233 9.89394 90.5418 16.0854 
148.534 168.996 159.192 156.556 157.088 167.676 159.179 156.141 81.321 82.8389 19.6944 376.199 -14.9996 76.6658 347.713 -70.1807 115.514 332.483 -63.0732 94.9288 353.138 36.9392 109.456 357.638 39.9747 99.1339 395.589 16.4032 9.87735 91.0212 16.3879 
148.312 169.037 159.447 156.328 156.759 167.818 159.129 156.735 81.4265 82.7762 20.0829 377.151 -14.9255 77.1265 349.132 -70.1229 116.335 333.885 -63.1629 95.0177 353.938 36.8981 109.598 358.535 39.8658 99.206 396.583 16.5391 9.92142 91.2853 16.589 
147.813 169.21 159.486 156.258 156.321 167.828 159.258 157.381 81.6675 82.8815 20.2513 378.066 -14.4337 77.5288 350.938 -70.1223 116.944 335.436 -63.0659 94.9719 355.716 37.2531 109.757 360.087 39.8767 99.4531 397.925 16.5615 10.0552 92.1484 16.8451 
146.969 169.602 160.168 156.401 156.098 168.211 159.51 158.571 81.9398 83.0165 20.4202 379.359 -14.2867 77.9833 352.314 -70.1737 117.744 336.974 -63.4971 94.7537 357.236 37.5816 109.749 361.283 39.9232 99.7313 398.991 16.5028 10.1616 93.4505 16.9006 
147.5 169.913 160.581 156.351 155.845 168.592 159.737 159.269 81.8854 82.9468 20.4345 380.567 -14.1007 78.5675 353.346 -69.9674 118.456 338.698 -63.8526 95.1795 358.871 37.8122 110.251 362.76 40.0505 100.076 400.329 16.5261 10.163 94.2525 16.6275 
147.999 170.203 161.005 156.348 155.64 168.895 160.281 159.951 81.9934 82.8552 20.4911 381.305 -13.8886 79.3377 354.082 -69.7934 119.23 339.95 -63.9269 95.7117 360.458 38.3804 110.844 364.29 40.368 100.373 401.449 16.6069 10.2471 95.0978 16.3989 
147.65 170.632 161.122 156.535 155.691 169.345 160.572 160.14 82.0284 82.8392 20.7561 381.888 -13.7477 80.1789 354.915 -69.8141 119.913 340.906 -63.9253 95.98 361.271 38.6234 111.089 365.148 40.6853 100.548 402.258 16.7638 10.1859 95.3118 16.2227 
148.4 170.959 161.167 156.716 156.008 169.856 160.861 160.172 81.7559 82.8404 20.8537 382.493 -13.8138 80.7759 355.851 -69.9475 120.453 342.237 -64.2442 96.2276 362.479 38.4968 111.244 366.287 40.7749 100.761 403.272 16.781 10.0862 95.5601 16.0046 
149.538 171.252 161.849 156.881 156.148 170.634 161.321 160.818 81.5037 82.736 21.0639 382.658 -13.6422 80.9814 356.588 -70.1158 120.878 343.238 -64.8026 96.2312 363.766 38.5249 111.167 367.467 40.9204 100.846 404.291 16.7337 10.0389 96.1433 15.9072 
150.745 171.37 162.175 156.985 156.405 171.016 161.583 160.996 81.3682 82.824 20.9441 383.507 -13.8122 81.3404 358.062 -70.5287 121.685 344.871 -65.4179 96.4571 364.94 38.3074 111.277 368.595 40.8413 101.013 405.454 16.7194 10.0379 96.43 16.0913 
152.416 171.969 162.494 157.009 156.802 171.541 162.127 161.246 81.0734 83.0496 20.6889 384.241 -13.8454 81.4366 359.063 -70.9201 122.173 346.181 -66.0334 96.6599 366.031 38.0211 111.314 369.602 40.8296 101.075 406.451 16.669 9.91552 96.6478 16.1913 
154.345 172.348 162.354 157.077 156.902 172.295 162.381 161.314 80.8338 83.0264 20.6357 384.676 -13.4777 81.2587 359.786 -71.0528 122.185 347.037 -66.177 96.7787 367.341 37.8818 111.426 370.929 40.8504 101.169 407.651 16.5522 9.77158 96.6192 16.2625 
155.84 172.715 162.383 156.716 156.754 173.008 162.055 161.097 80.7241 83.0026 20.7425 385.076 -13.2453 81.3032 360.582 -70.6136 121.944 347.75 -65.5986 96.5959 368.861 37.8761 111.273 372.462 40.8494 101.084 408.847 16.5711 9.74478 96.3348 16.0879 
156.521 172.891 162.802 156.385 156.553 173.534 161.842 161.048 80.8607 82.9819 20.7236 385.468 -12.8708 81.3676 361.118 -70.1341 121.521 348.067 -65.006 96.2277 370.068 38.0805 111.02 373.714 40.9056 100.797 409.862 16.6392 9.77407 96.0078 15.7678 
157.589 173.26 162.538 156.644 156.65 173.488 161.48 160.393 80.3346 82.3854 20.6955 386.318 -12.843 81.185 362.915 -70.1968 121.357 349.88 -65.0501 96.0062 370.857 37.5972 110.818 374.612 40.6988 100.284 411.138 16.9439 9.63301 95.307 15.7673 
158.171 173.154 161.4 156.152 156.328 173.865 160.74 159.641 80.0648 82.3623 20.8243 388.211 -12.8797 80.1635 364.868 -70.1881 120.82 351.333 -65.0323 95.4092 371.205 37.0828 110.257 374.752 40.2814 99.6655 412.163 17.1385 9.63472 94.7276 16.2377 
158.361 172.684 160.048 155.845 156.155 173.32 160.503 159.313 79.3864 81.7983 20.8717 389.906 -12.6716 79.5474 366.677 -70.1902 121.279 353.26 -65.129 95.6831 371.787 36.7268 110.37 375.443 40.2707 99.1837 413.405 17.4462 9.48997 94.3834 16.9659 
158.022 171.895 159.158 155.174 156.358 173.112 159.297 158.529 78.6934 81.9091 20.5886 392.029 -13.0701 78.8337 368.43 -69.7979 121.038 355.197 -64.8503 95.9826 372.366 35.7938 110.264 376.099 39.9202 98.7772 414.548 17.6532 9.28665 93.1795 17.3396 
154.881 171.795 158.155 154.919 156.905 172.13 158.372 157.639 78.3126 82.1286 19.6601 395.353 -14.0288 78.42 370.484 -69.8931 120.533 357.091 -64.8052 96.0492 372.886 34.5161 109.863 376.812 39.3804 98.5121 415.5 17.6238 9.03527 91.73 17.4459 
151.926 171.754 157.879 154.889 157.316 170.801 158.036 157.444 78.4761 82.6673 18.7188 398.602 -14.3341 77.8307 371.865 -69.6523 120.11 358.685 -64.8759 96.0789 373.458 34.0462 109.617 377.595 39.3092 98.4545 416.548 17.7156 8.93522 91.0568 17.5743 
147.796 171.855 157.598 156.019 158.111 168.562 157.374 156.392 78.3523 82.7081 17.7314 403.511 -15.5202 78.4219 374.792 -69.5445 120.077 361.52 -64.2284 95.8776 375.604 33.4973 109.255 379.842 39.2979 98.4596 418.678 17.8263 8.76731 90.0883 17.4046 
147.923 171.523 157.379 156.798 158.594 167.409 157.17 155.975 78.4462 82.5824 17.058 405.611 -15.8907 78.814 376.562 -69.2668 120.579 363.584 -63.6979 95.8747 377.551 33.8461 109.227 381.942 39.6939 98.4345 420.395 18.0236 8.77482 90.2472 17.5422 
147.768 171.379 157.233 156.211 158.23 166.785 157.189 156.205 78.4364 82.3955 16.8829 407.134 -16.0019 79.2215 377.509 -69.0556 121.335 364.81 -63.3732 95.9501 378.735 34.1458 109.239 383.13 39.8572 98.1797 421.51 18.2027 8.91485 90.4515 17.7032 
146.111 172.139 157.21 156.45 158.159 166.161 158.49 157.01 78.5969 82.2408 16.5735 409.357 -15.7992 78.8871 378.586 -69.6115 121.299 365.89 -63.8279 95.3988 379.626 34.3431 108.869 383.964 40.0676 98.0841 422.529 18.1965 8.77609 91.1034 17.9125 
145.263 172.333 157.437 156.644 158.434 165.837 158.907 157.183 78.6045 82.2683 15.6927 411.07 -15.3343 78.3213 379.289 -69.8354 120.818 366.758 -64.116 94.9925 380.342 34.1236 108.408 384.75 40.0933 97.9265 423.393 18.1006 8.64829 91.0604 17.9278 
144.927 172.405 156.946 156.741 158.81 165.74 158.941 156.744 78.5693 82.5353 15.0311 411.932 -15.3142 77.8948 380.499 -70.4689 120.507 368.218 -64.8652 94.7586 380.739 33.269 108.014 385.263 39.6652 97.7177 424.094 17.899 8.51517 90.7032 17.9789 
146.618 171.97 156.093 156.194 158.916 165.662 158.49 156.232 78.0441 83.2563 14.1145 413.304 -15.2322 77.1922 381.494 -70.5759 119.841 369.431 -65.2234 95.007 380.989 32.5333 107.751 385.174 39.2008 97.4098 424.876 17.8902 8.68687 89.8888 17.9476 
148.37 170.814 155.903 155.098 158.707 165.219 157.944 155.8 77.515 84.0235 13.394 414.497 -14.8536 76.5185 382.153 -70.2919 119.334 370.113 -65.1788 95.4214 381.116 31.7227 107.629 385.169 38.9333 97.079 425.7 18.0693 8.70511 88.4025 18.0175 
147.949 169.922 156.335 154.997 158.688 164.826 158.023 155.996 77.7702 83.7438 13.2606 415.458 -14.4662 75.9457 382.655 -70.0626 118.996 369.845 -64.7137 95.1457 381.662 31.7311 107.406 386.177 39.1155 96.9039 426.738 18.0998 8.6363 87.527 18.2993 
147.338 169.615 156.575 154.959 158.886 164.766 158.055 156.049 77.8744 83.5958 13.16 417.397 -14.1859 75.496 383.764 -69.9309 118.563 370.201 -64.2946 94.7628 382.366 31.8036 107.124 387.005 39.3977 96.7365 427.839 18.3294 8.44149 86.8758 18.4737 
146.186 169.289 156.453 155.579 159.011 164.61 158.174 155.883 78.0226 83.1005 13.3026 417.947 -13.5057 75.6717 384.371 -69.6871 118.369 370.22 -63.4781 94.6835 383.271 32.382 107.289 388.205 39.82 96.696 428.886 18.4998 8.35115 86.6001 18.4204 
146.493 168.789 155.576 155.235 159.002 165.28 157.835 155.277 78.0643 82.9065 13.4697 418.583 -13.2477 75.5341 385.509 -69.4737 118.206 370.998 -62.7898 94.7342 383.663 32.0776 107.129 389.092 39.918 96.5975 430.02 18.6687 8.43701 85.5197 18.6136 
147.894 168.131 155.227 155.102 159.181 165.807 157.85 155.161 78.0581 82.7862 13.9383 419.013 -13.0959 75.7939 386.633 -69.127 118.788 372.35 -62.1839 95.4609 384.796 31.8646 107.628 390.815 40.063 96.7058 431.651 18.8066 8.56383 84.6868 18.8395 
146.865 168.158 154.741 156.245 159.575 165.492 157.541 154.762 78.2394 82.7235 13.5346 419.885 -13.127 76.1194 387.686 -69.2794 119.058 373.489 -62.1572 95.2324 385.64 31.6224 107.849 391.693 40.007 96.7554 432.545 18.7794 7.99854 84.56 18.8494 
147.827 168.253 154.657 156.637 160.268 165.353 157.526 154.539 77.9386 82.8139 13.1272 420.335 -13.3747 76.3911 388.62 -69.4393 119.037 374.741 -62.3213 95.4682 386.778 31.347 107.995 392.86 40.1399 96.771 433.561 18.7267 7.83649 84.3453 18.5853 
146.58 167.897 154.462 157.107 160.55 164.421 157.013 153.907 78.093 82.9514 12.875 422.471 -13.7287 76.8813 389.856 -69.2306 119.193 375.779 -61.7107 95.6608 387.785 31.5353 108.323 393.885 40.4295 96.8151 434.567 18.9366 7.55559 83.9541 18.5469 
146.179 167.773 154.811 157.086 160.589 163.607 157.063 153.69 78.4668 83.0703 11.7247 424.45 -13.2801 76.9797 390.796 -68.7587 119.159 376.448 -60.7629 96.086 388.837 32.2788 108.804 395.219 41.1762 96.6828 435.991 19.2929 7.37244 83.3637 18.6115 
146.653 167.705 155.85 157.999 161.152 163.036 157.534 154.337 78.2729 83.0208 11.548 424.215 -12.9352 77.1861 391.342 -68.4678 120.312 377.745 -60.8216 96.5267 391.16 34.0093 109.476 397.195 41.8873 96.6393 436.911 19.3892 7.42967 86.0237 19.032 
147.912 167.889 156.436 158.081 161.241 162.912 158.423 154.837 78.6594 83.2347 11.0951 424.284 -12.6171 76.733 392.137 -68.5875 120.695 378.586 -61.0227 96.5379 392.243 34.9622 109.656 398.281 42.3566 96.4994 437.663 19.5829 7.46039 87.1907 19.5585 
149.796 167.777 157.302 157.475 161.661 162.897 158.932 155.52 78.3877 83.6111 10.6932 424.516 -12.1704 76.4017 393.083 -68.6028 121.174 379.942 -61.3813 97.3611 393.709 35.2015 110.117 399.879 42.6557 96.4268 438.761 19.6406 7.65487 87.746 19.9452 
151.266 168.034 157.786 157.506 161.696 163.474 159.312 156.187 78.6139 83.8901 10.7138 424.533 -11.6897 75.8181 393.938 -68.4875 121.229 381.37 -61.7443 97.6282 395.352 35.8788 110.273 401.59 42.9595 96.2807 439.92 19.6781 7.90742 88.8155 20.1468 
151.548 167.781 158.071 156.3 160.952 162.999 160.068 157.008 78.7245 83.8868 11.2091 425.12 -11.2649 75.4221 395.277 -68.5641 122.092 383.121 -62.0712 98.6801 396.024 36.3472 110.962 402.558 43.1983 96.1401 440.95 20.1118 8.28763 89.1727 20.8946 
149.895 168.281 158.095 156.138 160.794 162.948 160.413 157.487 78.9065 83.9783 11.6793 426.37 -11.3847 75.366 396.566 -68.7197 122.814 384.048 -61.9122 98.5033 396.744 36.6962 110.777 403.213 43.494 96.0586 441.615 20.3253 8.30296 89.5881 21.5785 
147.013 168.596 158.109 156.634 160.742 163.04 159.958 157.508 79.0591 83.8418 11.6795 427.859 -11.354 75.1861 398.136 -69.1091 122.561 384.783 -62.0924 97.3429 397.13 36.4193 109.847 403.385 43.1729 95.908 442.125 20.3244 8.2679 89.7388 21.7167 
146.912 169.01 157.645 156.2 160.725 164.14 159.656 156.924 79.0383 84.2045 11.9418 428.512 -11.1764 74.8739 400.123 -69.2779 122.383 386.032 -62.2181 96.594 397.46 35.7823 109.049 403.495 42.9014 95.7434 442.814 20.5654 8.20373 89.3093 21.9694 
145.852 169.267 156.889 156.955 160.864 164.37 158.928 156.448 78.693 84.7506 12.4132 430.441 -11.041 74.5905 401.963 -69.0364 122.783 387.686 -61.9997 95.896 398.371 35.8255 108.473 403.589 42.9957 95.7086 443.776 21.0392 8.01744 89.6708 22.5526 
