160.813 155.159 159.161 134.053 158.905 178.674 125.235 149.13 165.129 77.8754 89.2551 498.031 -18.2985 115.799 498.787 -64.3962 178.092 493.711 -64.9065 180.084 467.368 -24.0728 153.019 487.389 35.2748 141.304 526.51 20.1301 70.8289 30.9425 35.6598 
162.868 160.722 161.725 90.0457 158.229 176.635 127.342 154.318 151.799 79.1259 86.5247 497.973 -19.7133 116.992 496.514 -65.8149 177.155 493.59 -67.4943 176.4 468.021 -23.3639 151.075 484.867 33.4608 139.672 525.115 18.9977 68.8947 32.8459 33.1818 
166.344 162.091 162.026 123.095 158.564 176.326 128.156 161.075 161.896 78.9694 83.7691 499.652 -21.1567 118.506 494.323 -66.4034 174.253 491.644 -69.4295 179.148 468.889 -29.8388 149.572 482.835 31.8886 138.199 524.145 18.2539 74.3297 25.9973 29.0042 
166.473 172.652 151.25 174.27 158.269 176.781 129.293 167.521 106.996 78.8802 77.3038 502.109 -23.8235 120.488 494.16 -68.7727 172.674 490.268 -70.6234 165.253 458.808 -13.3855 147.519 480.171 29.5495 136.873 521.727 17.2404 54.3964 46.0891 25.7073 
165.092 177.653 151.962 174.27 156.325 175.476 127.722 170.817 95.2105 79.4403 73.5413 505.178 -26.3043 120.776 492.529 -68.8494 173.647 488.712 -68.856 154.273 457.786 -4.82338 145.681 477.667 28.1968 135.605 520.508 16.5449 41.0897 57.5945 26.6374 
165.833 177.983 163.413 136.311 154.793 175.814 128.241 174.528 90.7457 79.4821 69.8082 505.743 -27.0977 119.82 490.89 -69.2075 174.484 487.528 -68.4273 144.962 459.1 1.97417 144.478 475.84 27.0782 134.207 519.433 15.8583 29.2376 68.8367 28.0558 
168.153 174.27 151.547 150.271 156.748 176.723 133.467 170.68 83.1095 82.4683 66.5548 505.282 -26.5672 114.752 490.174 -71.492 170.963 486.973 -69.1855 131.963 463.567 11.2855 143.834 472.739 26.748 132.335 518.614 15.5358 10.0152 85.1241 29.481 
172.791 178.666 180 153.362 141.979 179.459 134.836 145.794 62.9939 73.6452 67.4826 506.67 -28.2583 111.695 488.633 -71.9649 165.394 479.904 -66.2956 132.193 474.313 10.2447 144.48 475.11 26.5568 130.712 517.88 15.0853 6.7018 82.4104 28.1088 
172.069 170.005 180 150.995 143.022 178.782 143.622 144.565 70.9634 72.0246 65.269 507.044 -29.3509 108.732 489.211 -74.3883 162.969 477.888 -68.0439 136.533 465.224 4.10827 143.899 474.022 26.6538 129.073 516.833 14.8056 19.8982 69.1527 28.3957 
170.246 169.117 180 163.544 143.706 178.361 142.753 153.778 90.3497 73.662 62.014 504.903 -28.1323 106.651 487.87 -73.6 161.111 478.142 -70.1626 144.753 454.965 -6.04942 143.089 473.787 26.691 127.748 516.764 14.4987 35.8502 54.3004 27.9124 
170.12 172.581 171.069 150.197 144.517 178.55 140.157 160.351 98.0243 74.5422 60.2073 502.239 -28.3522 105.025 487.736 -73.6891 160.231 478.737 -72.3642 144.017 452.299 -8.26219 140.878 472.735 25.2855 126.492 515.705 13.8076 37.3568 54.1914 28.3004 
168.59 174.204 161.675 140.149 148.028 177.773 137.37 161.178 102.087 78.726 56.6277 499.163 -27.6922 101.658 488.367 -75.1389 160.49 479.77 -73.2691 144.653 450.613 -9.73161 139.166 469.019 24.4738 124.829 514.084 13.4166 37.5566 54.5313 31.3022 
168.439 179.754 165.789 141.385 152.166 177.38 134.839 159.156 106.865 80.644 53.7015 499.999 -29.5605 101.852 488.353 -75.7503 160.844 480.267 -73.2219 147.685 449.826 -13.2403 138.631 467.745 24.0977 123.874 513.135 13.0464 41.1056 50.9494 31.536 
168.392 178.504 161.45 129.543 156.953 177.545 134.586 164.514 112.386 80.3483 52.444 496.207 -29.8848 102.243 487.286 -76.3558 160.158 478.987 -74.0195 145.488 447.991 -11.6868 136.797 468.38 24.6423 122.622 512.358 12.5188 40.9675 53.0399 30.2445 
165.396 170.962 158.141 141.292 156.893 176.324 131.831 169.151 96.9306 78.3006 51.8087 495.552 -31.1071 102.963 488.263 -76.5421 161.405 480.546 -74.0087 137.097 451.018 0.0677767 136.861 470.394 24.9527 121.963 512.362 12.1597 28.497 67.8907 30.6776 
163.836 174.536 163.667 141.848 157.054 174.383 129.319 165.943 91.8516 77.8721 50.1978 497.483 -32.8652 102.878 488.539 -77.1331 160.875 481.6 -74.7976 132.819 453.289 2.99728 135.007 470.913 24.3681 120.958 511.981 11.3546 24.8243 73.6028 30.3558 
161.849 170.916 156.721 140.319 156.987 172.457 126.196 171.021 84.1044 79.4719 48.667 498.846 -33.9961 102.016 489.096 -77.2002 162.437 485.079 -75.135 131.885 457.846 4.82555 133.713 471.148 23.8484 120.085 512.081 10.6305 22.9336 78.8965 32.4541 
161.952 168.201 153.078 142.903 158.505 171.434 127.709 171.08 75.3559 81.0781 46.4508 499.391 -34.7698 100.494 491.185 -79.0772 161.745 485.436 -76.0572 129.461 462.577 5.59917 131.842 470.503 22.7685 118.758 512.112 9.67889 19.8693 82.4455 33.1157 
160.797 169.023 158.907 143.393 155.579 172.088 133.892 172.981 71.4071 82.8788 44.781 500.581 -35.883 99.7116 489.861 -81.304 159.625 485.592 -77.8142 125.596 461.828 4.92408 129.621 466.182 21.1788 116.548 509.443 9.6142 15.9017 85.8221 31.5809 
159.908 149.254 155.458 99.1344 157.62 172.081 136.082 167.655 99.8299 81.3785 43.4494 500.788 -37.0837 97.8332 485.143 -80.7424 157.857 483.17 -76.4425 145.886 455.328 -17.4332 126.939 465.846 21.5525 114.383 508.066 8.82233 53.8167 48.8791 32.2912 
158.43 146.041 153.223 92.8507 156.702 170.467 134.463 162.594 113.272 81.9836 40.9448 499.748 -36.8259 95.8009 484.419 -81.2208 154.22 481.654 -77.5745 149.738 454.425 -24.4711 125.713 463.491 20.4722 112.878 506.329 8.27754 60.9381 40.4978 31.1933 
153.5 174.27 161.367 90.0456 155.958 169.879 126.256 161.512 134.391 80.933 39.0804 500.119 -36.1757 91.2243 482.79 -80.1158 152.41 482.002 -78.0253 148.829 454.115 -33.3234 123.908 462.587 19.2771 111.117 505.93 8.19691 64.5984 34.0925 33.9224 
155.999 174.27 163.453 90.0456 155.361 168.657 123.191 162.799 151.436 81.9109 36.7299 497.756 -35.9529 86.8564 482.206 -79.092 150.007 484.058 -79.8731 152.094 458.731 -42.0764 121.935 460.753 16.8389 109.072 505.339 7.8317 71.6776 25.8568 36.1612 
158.702 174.732 169.861 90.0456 156.219 169.559 128.073 163.597 152.364 82.7401 35.7664 494.681 -35.4166 83.2363 482.852 -80.5263 147.049 484.544 -80.5649 152.586 461.948 -44.9428 120.807 459.866 16.2782 107.376 504.969 7.98324 74.9397 22.0423 36.465 
159.504 174.27 169.584 129.915 159.095 169.704 129.044 166.757 163.851 84.2805 34.5916 494.104 -34.8539 80.6767 481.908 -80.8599 144.459 484.31 -81.7855 156.381 464.355 -52.0273 118.242 459.406 16.7819 105.778 504.978 7.59788 82.8151 16.2984 36.4455 
159.529 174.27 177.292 128.624 158.641 167.603 125.427 164.897 163.434 84.7021 32.0935 494.363 -34.3258 78.0777 481.213 -80.8468 142.194 484.136 -83.8927 153.742 463.989 -54.0505 117.215 457.502 15.8266 104.024 503.8 6.90653 81.9948 16.1588 36.9376 
156.092 174.27 180 156.617 158.758 167.292 125.28 166.783 172.156 85.246 29.9733 496.063 -34.7625 76.2742 480.932 -81.9642 140.666 485.467 -85.8991 157.93 465.139 -55.5691 115.316 456.698 15.6418 102.271 502.636 6.47034 86.6274 16.5701 37.1024 
154.361 174.27 179.34 174.27 158.808 166.802 126.684 167.938 179.62 84.9329 26.386 494.747 -34.439 75.1943 480.254 -82.7883 139.596 486.687 -86.4847 161.498 465.461 -56.7805 114.433 456.638 15.5259 100.749 502.171 6.1305 88.807 17.823 37.2896 
154.365 174.27 180 174.27 158.714 166.869 128.211 166.39 178.797 84.9627 23.2619 494.105 -34.53 74.4334 478.8 -83.5739 137.255 485.755 -86.9617 160.07 463.042 -58.3131 113.881 455.303 15.4685 99.1294 500.608 5.86637 87.2854 18.5626 36.0052 
156.706 174.27 180 174.27 158.712 167.237 139.414 170.63 178.68 84.8746 20.5139 493.259 -37.3241 72.7589 476.631 -86.9752 132.926 484.966 -88.4113 157.446 464.384 -60.0436 110.03 455.757 16.3358 95.9854 499.744 4.86846 92.0675 17.8917 33.574 
154.019 174.27 180 164.807 158.607 166.261 144.306 172.648 174.834 83.2866 18.6054 491.297 -35.2019 70.4213 474.819 -88.1613 128.953 484.458 -89.7995 156.626 472.206 -61.9611 108.828 454.324 17.0884 93.4453 497.777 5.26234 99.7604 14.9753 32.1153 
158.241 177.208 170.545 158.507 162.032 161.806 144.022 174.197 167.643 83.0567 16.2621 493.961 -35.6845 66.4498 473.104 -87.9932 126.953 483.642 -89.8066 154.346 470.606 -61.2654 107.872 454.086 18.7614 91.0699 496.208 5.28351 100.901 15.5678 33.6807 
156.88 169.51 164.375 172.188 162.159 159.401 142.218 173.989 159.342 79.5955 14.2746 494.78 -35.1499 63.042 469.997 -87.2063 123.452 482.839 -90.7905 154.198 471.365 -62.4186 107.758 454.01 18.6891 88.4326 493.918 4.87025 103.723 16.7531 34.0963 
159.294 163.399 164.596 177.153 165.2 159.491 144.658 174.035 154.081 76.9184 11.8136 495.668 -35.2011 58.5478 467.491 -86.593 119.614 482.108 -91.4122 153.509 472.926 -62.9428 105.882 455.014 19.3432 86.0953 493.271 4.7897 107.82 17.9429 35.3736 
161.087 170.223 167.918 174.27 168.719 163.358 147.028 170.07 142.189 75.2571 8.82476 494.687 -36.0804 57.2088 466.352 -87.3348 116.984 480.577 -91.9172 148.765 471.21 -63.5973 103.274 456.038 20.0071 83.9471 491.755 4.80398 109.908 16.6493 33.7805 
164.048 147.917 180 174.27 116.144 165.261 139.764 160.519 137.722 32.7183 6.29586 483.579 -30.7679 61.1919 458.609 -84.5569 114.731 478.458 -92.6917 144.025 477.572 -65.4045 107.63 476.137 11.9942 80.5035 489.131 4.99809 114.827 13.5436 30.4411 
175.814 135.538 175.182 177.107 178.546 154.632 140.284 158.485 136.388 179.1 8.32171 480.073 -28.0719 60.1923 459.693 -84.8008 111.002 477.64 -93.512 141.948 477.706 -65.1503 159.526 479.707 -50.9479 78.2217 487.154 4.79266 6.50875 14.9192 27.9058 
176.29 143.353 171.673 175.069 102.799 129.666 142.352 154.977 136.981 25.0957 20.1427 495.644 -26.1036 56.5738 460.751 -85.882 107.674 476.731 -93.1234 140.186 478.328 -66.1969 103.421 470.397 6.93974 77.1755 488.09 4.8775 98.2807 15.4611 27.6828 
128.423 162.077 161.44 174.27 138.007 94.0947 148.741 155.096 140.79 43.0727 57.7977 504.471 -14.5983 52.5246 457.767 -86.3559 105.71 474.218 -92.2117 134.632 475.557 -67.442 101.445 471.667 17.1866 77.5326 488.558 4.21801 122.558 12.397 30.134 
148.86 174.713 154.272 174.27 143.725 86.6391 158.607 157.695 140.751 48.3983 69.5794 507.78 -9.74491 49.244 458.558 -87.0256 104.307 471.974 -91.2292 128.743 466.343 -66.2629 100.502 471.328 20.5868 77.0346 488.704 4.48327 118.798 10.1211 30.828 
115.505 169.462 164.587 179.525 148.088 137.174 163.492 156.253 148.735 58.3318 37.4455 475.618 -30.5994 47.5975 459.218 -86.9865 102.065 468.247 -91.2683 124.256 460.277 -67.6341 97.0739 467.071 22.1234 75.609 489.443 4.52689 111.502 9.14156 29.2312 
115.069 170.237 168.197 167.091 165.961 168.885 166.221 157.548 149.172 62.2749 17.9136 475.837 -32.6687 44.7699 460.416 -86.6822 98.7412 466.248 -91.296 120.33 455.554 -66.798 94.3264 461.427 21.9147 73.9862 490.162 4.42438 104.049 10.3484 28.6435 
151.847 170.554 171.07 166.103 141.523 175.7 170.547 160.083 148.108 68.7218 1.38283 471.294 -31.6851 41.3907 460.563 -86.668 95.4296 462.542 -91.2885 115.643 450.141 -64.8488 89.3783 455.818 20.1301 72.3375 489.537 4.6614 95.9507 11.5319 28.0031 
152.152 171.217 171.833 163.151 130.805 164.886 173.177 159.924 146.933 75.2311 -7.21729 476.28 -29.3624 40.8568 461.637 -87.4342 93.155 459.928 -90.8661 112.087 446.492 -63.115 86.2853 450.624 18.4266 70.6782 489.282 4.8549 87.8466 12.3761 25.9502 
145.623 172.153 173.087 154.936 127.541 164.525 170.79 159.117 150.183 82.8953 -8.69032 482.904 -30.0387 40.4314 461.48 -88.0789 90.395 457.874 -90.9815 111.447 446.5 -65.0756 83.7244 445.154 16.4495 69.0902 488.947 4.66447 84.3801 10.705 23.8277 
155.435 165.431 165.097 174.972 139.519 172.551 164.497 164.022 165.522 92.0863 -3.99463 483.567 -32.583 43.0285 458.297 -87.8106 91.2589 453.483 -90.6459 118.117 450.056 -66.3169 81.3152 439.127 17.3441 67.0179 487.875 5.60651 89.5688 10.2606 21.1105 
156.169 163.878 163.899 179.746 145.977 173.739 174.349 164.215 165.712 95.6772 -8.70858 476.685 -30.3938 38.7916 459.142 -88.562 90.0113 452.946 -91.3285 116.495 448.809 -67.7828 78.9726 435.372 16.3782 65.3759 485.789 4.6522 89.5594 9.91127 23.7696 
145.623 156.711 164.21 174.975 146.975 168.176 171.878 159.532 164.034 94.4689 -15.3142 477.004 -30.1152 38.9409 457.387 -88.4193 87.9584 451.318 -91.025 115.036 447.196 -68.4588 77.6127 435.477 15.5919 64.6055 484.771 3.36333 89.6531 10.0702 22.5662 
148.34 150.749 162.994 166.523 155.537 167.204 168.261 158.363 164.374 94.9402 -17.4202 475.427 -30.9742 39.8017 455.531 -88.359 87.3157 449.621 -90.6065 113.599 444.812 -67.8204 75.5571 434.547 15.2887 63.8201 483.995 2.92702 88.3288 9.79928 21.5316 
154.824 156.751 163.084 167.945 162.194 168.191 166.423 158.185 164.291 93.6074 -19.4796 473.596 -33.247 41.0043 453.557 -89.5639 87.0551 447.895 -90.7586 113.847 442.76 -66.5978 74.9557 433.832 14.9728 62.8588 483.056 2.28794 87.3688 10.763 20.2743 
161.1 161.569 164.294 159.107 168.508 170.597 164.18 156.837 172.935 93.3549 -20.5564 471.348 -33.9296 41.302 453.215 -89.7068 85.9156 447.332 -90.634 112.561 443.233 -66.1099 73.6855 434.267 14.1229 61.79 482.754 1.57671 87.6906 10.7424 19.1912 
167.202 168.323 168.615 161.679 169.463 173.178 157.115 157.996 173.796 90.3294 -20.4475 469.267 -35.3075 40.8122 449.512 -88.2529 85.3634 444.141 -89.6597 109.237 438.875 -63.6206 72.7129 437.355 15.2391 61.3972 482.706 0.751002 86.4798 10.1879 19.1618 
172.243 173.378 174.017 174.27 167.443 175.339 150.23 157.388 178.985 89.3784 -19.256 466.523 -36.7218 39.4112 448.667 -87.5491 85.691 444.218 -89.4804 108.536 437.206 -60.9891 70.4627 438.33 14.9389 60.8148 482.215 0.323243 86.6078 11.6466 20.799 
179.858 178.873 171.67 174.27 167.714 177.714 149.359 161.088 179.472 89.5172 -17.0596 465.919 -37.2992 39.7218 446.126 -87.9264 86.3197 441.589 -89.906 102.275 426.783 -59.6366 69.4174 436.825 15.5621 59.834 481.124 0.10162 79.1837 14.8538 20.6327 
178.418 177.455 168.084 174.27 166.043 177.637 145.679 158.328 179.234 90.5773 -17.3393 464.284 -37.5578 36.9047 444.311 -87.2029 83.4324 439.679 -89.6757 99.3791 423.806 -60.5195 67.852 435.019 14.8638 58.4944 479.787 0.0469993 77.2768 14.9786 20.6726 
173.408 176.283 159.863 174.27 164.831 175.189 140.973 152.454 179.787 90.1744 -17.4311 460.23 -37.1912 35.016 443.401 -85.8129 80.1416 438.539 -88.5142 98.2274 425.196 -61.3248 66.6082 433.583 13.5649 57.1518 478.763 0.355712 77.3554 12.7434 19.9001 
174.594 178.585 158.26 174.27 163.128 175.451 140.735 151.995 179.93 90.6214 -17.6143 458.323 -36.6489 33.4939 442.732 -86.0587 78.2043 437.364 -88.6844 97.3274 425.411 -62.4173 65.4873 431.891 13.3285 55.7276 477.854 0.858707 77.4204 11.5592 19.3791 
172.126 177.439 158.988 174.27 160.521 179.69 140.014 151.658 179.194 89.7977 -21.0679 459.175 -36.6463 32.1093 441.599 -85.9649 76.8487 436.041 -88.6014 97.0937 426.444 -62.0673 65.0863 430.71 13.4223 54.1455 476.73 1.35338 78.0166 10.7604 19.1652 
169.492 177.418 158.177 128.689 158.285 178.625 138.805 151.02 163.387 89.0431 -21.7189 458.269 -36.8827 31.1744 440.032 -85.3112 75.951 434.673 -87.7911 85.8931 424.88 -59.3349 64.8975 429.096 13.3164 52.8459 475.663 1.91648 70.3486 11.8471 19.2016 
166.304 178.409 160.933 166.336 156.528 178.205 142.555 154.102 175.38 88.6744 -20.8685 457.503 -36.8125 30.6423 437.926 -86.3213 75.8022 431.052 -87.7152 90.8349 420.146 -60.9288 64.7724 426.833 13.8792 51.1368 474.211 2.20294 71.6661 10.9021 18.9778 
173.084 179.648 162.495 164.258 155.595 178.522 145.773 156.541 170.706 88.9483 -20.4613 453.301 -34.7377 28.9069 436.506 -86.8328 74.538 428.68 -87.9412 89.6432 415.357 -58.1122 64.1129 424.716 14.9139 49.5752 472.71 2.8515 69.3145 13.832 19.113 
171.933 178.451 163.889 174.27 156.128 177.115 148.519 158.639 165.917 88.807 -20.3822 451.171 -34.0477 28.4207 433.957 -86.9161 73.9758 426.392 -88.001 88.0795 411.307 -55.9504 62.9703 422.511 16.5652 48.1361 470.468 3.42215 68.6578 15.8863 18.8501 
176.202 178.187 164.585 174.27 155.447 173.671 150.787 160.438 154.013 89.7793 -21.0485 447.584 -32.134 27.1418 433.443 -87.3661 73.3267 424.781 -88.4019 84.2238 405.328 -50.0658 61.6174 419.372 16.7571 46.9347 468.683 4.04663 62.7569 21.5765 19.2541 
163.197 176.677 163.954 174.27 158.926 176.382 149.946 159.894 148.715 90.7185 -26.7491 448.876 -32.9534 26.8592 430.535 -86.3121 72.3038 421.54 -87.2058 81.0896 401.556 -48.811 58.7201 418.037 18.7915 46.0076 466.728 4.27792 63.7727 22.2543 18.6757 
157.134 176.118 163.415 174.27 158.636 173.465 150.821 160.226 141.623 91.0564 -29.1937 448.256 -31.0124 26.9674 428.537 -85.7473 71.2441 419.443 -86.7588 76.2083 399.001 -44.8008 57.5836 416.275 18.9128 45.2656 465.947 4.46235 59.2065 25.14 17.7723 
165.504 173.126 160.179 174.27 159.459 174.365 149.183 158.644 134.921 91.5886 -28.9833 446.711 -31.6676 24.5362 427.779 -84.7295 70.0321 418.176 -85.7811 72.6496 397.468 -42.4126 55.2835 415.692 19.5531 44.6907 465.271 4.79388 57.9987 26.7571 18.9561 
167.791 171.977 157.032 174.27 158.831 174.286 147.99 157.089 129.031 90.3043 -29.8299 444.972 -31.6022 23.0955 427.481 -84.8479 68.8035 417.462 -85.5886 70.3836 396.845 -41.8582 53.7353 414.942 19.2815 44.0075 463.896 5.05386 57.7163 27.2537 19.315 
171.786 171.543 155.863 174.27 159.173 175.529 148.042 157.276 127.463 90.5433 -29.676 443.446 -31.9098 21.4616 426.828 -85.1986 67.6548 416.22 -85.9512 69.1406 395.654 -42.2614 51.6854 414.116 19.891 43.3632 462.48 5.1334 59.5452 27.2163 19.7409 
169.159 173.061 155.462 174.27 158.575 176.41 149.307 158.596 126.612 90.5932 -30.3638 443.324 -32.4187 19.9587 426.999 -86.0396 66.931 415.809 -86.5603 68.8089 393.947 -42.1529 50.8068 412.389 20.0998 42.5379 460.477 5.40271 60.3859 28.2601 20.3654 
167.649 174.838 157.068 178.959 158.32 176.253 150.862 160.354 130.526 90.4889 -30.1031 442.707 -32.148 17.9848 427.593 -86.809 66.1297 416.043 -87.2546 70.0195 392.545 -44.3236 50.1888 410.596 19.9749 41.5553 458.653 5.7735 62.6461 27.7092 21.3059 
164.25 174.44 157.574 171.824 158.994 174.049 150.101 160.927 127.51 91.2724 -31.8124 441.909 -33.292 17.4141 425.482 -87.1447 65.6594 414.169 -87.8616 68.6427 390.553 -43.3573 48.5376 408.332 20.1208 40.8124 456.112 5.42384 62.913 28.8865 21.364 
162.882 174.017 158.644 179.988 159.99 173.412 149.363 161.891 129.606 91.8066 -32.8767 440.349 -34.3108 18.0426 422.686 -87.1118 66.1172 412.216 -88.0617 69.4089 390.508 -45.0665 47.2868 406.901 20.5444 40.303 454.228 5.00488 66.0834 26.6798 21.1227 
166.865 173.629 159.615 174.27 160.864 174.969 148.291 161.939 127.302 91.8259 -32.7619 436.871 -35.1885 18.6595 420.707 -86.8332 66.2372 410.73 -88.0641 66.531 389.955 -43.9012 45.7684 405.52 20.6137 39.6228 452.778 5.01285 64.9202 27.3635 20.6817 
166.703 172.748 159.532 174.27 161.32 174.992 150.622 161.49 121.076 94.2459 -33.6544 433.023 -35.5128 19.9293 417.922 -87.038 66.2458 406.301 -86.5506 61.8677 384.874 -36.4852 43.6839 402.533 20.2794 38.7878 451.288 4.66239 57.4045 32.8982 19.86 
166.115 169.07 156.936 170.582 162.124 174.842 150.509 157.397 124.481 95.7283 -35.3351 431.892 -35.5598 20.4839 415.085 -86.1003 64.6918 400.822 -83.2861 61.5595 380.739 -35.3059 42.3692 399.708 19.9343 37.7115 449.905 4.6664 55.4862 30.8228 18.9139 
166.729 166.094 157.85 160.867 162.578 175.484 151.651 156.24 123.127 97.1963 -36.6244 431.513 -36.1763 21.5326 411.248 -85.432 63.5588 395.499 -81.288 59.3109 376.848 -31.4681 41.4805 396.6 19.9924 36.8572 447.982 4.77362 51.3844 31.8763 17.6045 
165.264 166.354 158.828 155.65 162.433 175.188 154.567 156.001 122.981 99.4672 -37.9462 430.77 -36.8152 22.3568 408.485 -85.7877 63.1981 391.532 -80.1615 57.8424 373.481 -29.0633 40.3128 393.407 20.2534 35.9164 445.867 4.80092 49.0493 32.8677 17.1065 
166.734 166.184 158.701 153.412 162.23 175.582 156.858 155.448 122.596 99.3171 -37.9647 427.996 -37.2306 23.9446 405.76 -86.432 62.4628 386.986 -78.623 55.7875 370.659 -26.9887 38.5875 391.321 20.719 35.2057 443.889 4.60207 47.8542 32.9215 16.3811 
168.133 166.908 160.471 153.741 162.103 176.019 159.11 155.556 122.479 98.9405 -38.2141 425.678 -37.5109 24.982 404.301 -87.0155 61.8882 383.143 -76.7169 53.1264 368.052 -24.3011 37.1018 389.78 21.2509 34.4987 442.181 4.6146 46.0668 33.8797 16.8346 
167.825 166.857 161.378 155.437 161.917 175.671 160.269 155.567 122.388 98.4235 -39.0733 425.544 -38.384 25.8595 402.073 -86.8747 60.2478 379.882 -75.6223 50.3173 366.258 -23.4358 35.5393 388.544 21.4047 33.762 440.809 4.69638 44.7496 33.5455 15.961 
167.117 166.534 162.384 155.411 162.712 174.941 160.672 155.385 121.272 98.7064 -39.6112 423.345 -38.403 25.8521 400.17 -86.8944 58.7868 377.309 -75.0032 46.9923 365.312 -22.9239 33.4489 387.34 20.8386 33.0234 439.387 4.47015 43.3666 33.7857 15.5655 
167.686 167.673 163.982 154.209 163.085 174.553 161.587 157.414 118.378 98.8038 -39.6044 421.212 -38.6421 25.6606 397.886 -87.0472 57.8016 375.29 -75.0382 43.0044 365.269 -21.6015 31.5467 386.551 20.3273 32.4239 438.166 4.13309 41.2681 35.6379 14.8744 
166.829 167.657 168.17 148.173 163.384 174.132 161.082 158.945 112.917 97.9301 -40.9763 419.68 -38.4178 24.8766 395.859 -86.6424 57.2206 374.162 -75.0524 39.1465 366.302 -18.5642 30.5535 386.169 20.0792 31.6608 437.241 3.93645 37.7964 39.1976 14.3469 
169.328 168.437 170.437 143.194 163.025 174.68 161.773 161.184 101.513 97.6509 -40.6795 417.844 -38.6547 24.3509 394.48 -87.1087 57.0608 372.524 -74.9257 31.2669 369.309 -10.6321 30.0426 384.68 19.6757 30.8808 435.781 3.7141 27.1827 49.5042 14.8203 
172.644 168.393 165.584 143.507 163.073 175.685 161.508 160.35 97.0869 98.2373 -40.8081 415.949 -39.1374 23.4694 393.198 -87.4853 56.5298 371.152 -75.0734 27.7976 370.105 -6.16225 29.2689 383.261 19.2862 30.1203 434.46 3.44267 21.8184 55.1665 15.1612 
174.822 168.862 163.759 141.224 162.803 175.321 161.331 161.026 96.3974 98.7422 -40.4971 413.172 -39.0468 21.9854 392.2 -88.0886 57.0399 370.346 -76.2553 26.326 368.559 -6.06056 28.01 381.056 18.7007 29.1924 432.601 3.39838 20.9193 57.1441 15.9204 
172.96 167.303 163.426 139.149 162.478 178.994 160.248 161.046 95.7716 99.4981 -41.9082 414.015 -40.3254 20.0559 390.263 -87.7959 55.9082 369.149 -77.3337 26.5273 366.351 -8.13389 27.3146 378.307 18.6929 28.0603 430.554 3.50205 22.2592 55.5597 15.6982 
174.444 167.673 162.566 137.798 162.772 177.444 159.947 161.323 99.3933 98.9445 -44.1664 410.972 -38.9629 18.0326 388.039 -87.582 54.5336 368.619 -78.8046 28.321 363.439 -11.5042 26.5425 377.943 19.3062 27.1166 429.696 3.29104 27.425 51.7239 14.9856 
172.655 166.622 163.636 149.611 163.417 174.669 158.12 161.608 87.1201 96.3744 -43.6422 405.501 -37.545 16.551 383.774 -88.2205 53.5576 364.724 -79.6437 19.2509 367.77 0.484391 25.851 375.312 19.8304 25.9763 426.45 2.27 12.7452 68.2491 15.0938 
178.457 167.964 161.171 153.684 163.142 174.89 157.441 159.297 86.0851 93.8135 -44.0464 402.992 -38.3659 14.973 382.67 -90.3222 53.6499 363.705 -81.7255 17.6664 365.761 4.22625 26.0817 372.272 19.4471 24.59 423.126 1.64591 9.91171 74.5788 16.2118 
