175.476 173.874 171.893 153.473 146.353 160.564 164.441 173.245 80.5255 75.1044 200.363 432.288 15.4961 238.933 446.635 -48.8856 275.045 445.247 -48.0142 247.632 453.946 60.1686 265.449 464.265 61.5111 242.373 488.938 39.6369 6.11665 104.98 10.998 
175.279 173.797 173.147 152.898 146.164 161.559 164.604 171.996 80.0814 74.7429 201.078 432.322 14.3771 240.924 447.906 -49.2659 276.584 445.215 -47.7806 249.035 455.306 60.5299 266.774 465.492 61.7641 243.14 489.386 39.6871 6.35721 104.697 11.0282 
176.92 174.19 174.47 153.189 146.474 161.922 164.529 171.916 79.1433 74.6281 203.137 431.74 14.2172 241.901 448.708 -49.2484 278.649 446.546 -47.2769 250.368 456.21 61.014 267.644 465.98 62.2749 243.535 489.373 40.0392 6.85249 105.626 11.9208 
176.155 174.029 175.88 152.846 146.031 161.277 163.364 171.558 78.1597 74.5081 205.133 431.137 13.2988 243.263 448.812 -48.9786 279.539 446.211 -46.7685 251.428 456.578 60.9232 267.969 465.746 62.2029 243.862 488.888 40.0299 7.65163 105.263 11.6836 
174.591 174.048 177.212 152.093 145.335 160.5 162.738 171.249 77.9538 74.218 206.437 430.771 12.4428 244.653 448.751 -48.3713 279.968 446.035 -45.9107 252.307 456.601 61.8174 268.429 465.262 62.5872 244.255 488.143 40.3745 8.68703 105.645 11.1079 
174.877 174.238 179.548 151.681 146.088 160.368 162.833 170.332 77.325 74.7568 208.184 430.958 12.99 244.876 448.51 -47.6784 279.964 445.552 -45.1842 253.626 457.048 62.2532 268.735 465.183 63.0125 244.808 488.228 40.7968 9.42584 105.248 10.9703 
175.126 173.556 180 151.395 145.91 159.914 163.015 169.429 76.6287 74.8102 210.082 430.582 13.845 245.479 447.541 -47.1815 280.445 444.191 -44.4197 255.568 457.686 62.5442 270.002 465.519 63.0448 245.617 488.249 40.9012 10.0812 104.538 11.1417 
174.358 172.919 180 150.576 145.538 160.321 162.581 168.118 77.2674 73.7506 211.192 430.852 13.1866 246.615 448.085 -47.1368 281.811 445.142 -44.0482 255.803 457.023 62.3099 271.253 465.918 62.9302 246.483 488.33 41.0651 9.08522 104.07 11.3781 
175.946 173.344 180 150.52 144.662 160.249 163.533 168.156 78.0975 74.5648 212.834 430.192 14.9006 245.972 447.535 -47.0807 282.007 445.975 -44.0586 256.627 457.077 62.455 272.732 465.85 62.5654 247.509 488.803 41.1943 9.14253 104.337 11.8602 
174.125 172.937 180 150.159 144.758 160.251 163.313 167.13 78.5863 75.1536 213.369 430.738 14.9895 245.367 445.796 -46.4622 280.849 443.712 -43.6419 257.451 457.609 62.3694 273.593 466.074 62.0775 248.554 489.21 40.6615 9.36902 103.022 11.534 
174.722 174.064 180 149.348 143.506 159.777 163.327 167.749 78.2061 76.3629 213.954 431.065 16.1041 245.9 445.002 -45.8308 281.62 443.584 -43.5251 259.256 458.346 62.3208 274.686 466.452 61.9046 249.394 489.711 40.6765 9.9944 102.746 11.6167 
176.497 174.149 179.651 148.157 142.919 160.209 162.844 166.755 78.335 77.8287 214.431 431.923 16.4704 246.588 445.011 -44.9384 282.45 444.042 -42.5762 260.227 458.656 62.6156 275.375 466.276 62.2272 250.162 490.266 41.2478 10.4588 102.162 11.7216 
176.278 173.592 179.715 148.854 142.808 160.776 161.631 166.959 77.5344 77.4016 214.944 432.523 15.0571 247.738 446.487 -45.046 283.768 444.222 -42.3685 261.25 459.363 62.1786 276.205 466.833 61.7308 250.838 490.73 41.1365 11.0109 101.319 12.1221 
178.085 172.959 180 150.189 142.957 162.098 161.183 167.584 77.6651 77.6478 215.288 432.739 13.5348 247.636 447.309 -45.5768 284.551 444.465 -42.5839 260.638 459.349 62.0117 276.112 466.494 61.3834 251.092 490.711 40.8933 11.2698 101.664 12.9632 
178.146 171.694 178.689 150.741 142.16 162.378 161.864 168.383 77.7595 78.2684 217.652 433.065 14.5427 247.186 447.81 -45.5034 285.753 445.726 -42.8033 261.48 459.91 61.8155 276.997 466.945 61.0609 251.884 491.669 40.9346 11.3104 101.968 14.0022 
179.097 171.541 177.734 152.579 142.557 162.863 162.028 167.498 77.4785 78.5061 217.902 434.107 14.3001 246.9 447.592 -45.2697 286.05 445.85 -42.34 261.68 460.148 61.6884 276.972 467.061 61.1791 252.358 492.239 40.9664 11.1855 101.568 14.3405 
177.488 171.998 175.44 154.177 141.97 162.74 162.526 166.489 77.22 78.4571 218.864 434.215 14.8057 246.46 447.723 -45.1568 286.207 446.479 -42.0547 262.072 460.261 61.7414 277.18 467.345 61.2584 252.473 492.508 41.1844 11.1191 101.57 14.8289 
176.008 172.095 174.446 155.59 141.955 162.58 162.586 165.206 76.8689 78.3505 219.458 434.628 14.6707 246.698 448.394 -45.5812 286.379 446.914 -42.1515 262.841 460.107 61.0303 277.655 467.563 60.9677 252.904 492.921 41.128 10.7657 100.463 14.9139 
178.416 171.972 172.716 157.529 142.592 162.313 161.952 162.551 76.2344 77.2893 220.112 435.915 12.2813 248.48 450.268 -46.4394 287.624 448.898 -41.9565 263.452 460.353 60.3071 278.096 468.409 60.9874 253.26 493.316 41.0266 10.2585 99.7384 14.8388 
178.906 171.921 173.136 156.533 142.746 162.025 162.149 166.39 77.2011 77.483 220.685 436.979 11.0386 250.087 451.34 -46.6993 288.514 451.169 -43.4051 263.217 461.211 60.8685 278.416 469.235 61.2242 253.603 493.935 41.0148 10.3596 101.678 13.7779 
179.843 172.372 173.736 154.865 142.159 160.74 163.377 169.254 77.9291 78.3603 221.409 438.024 9.62222 250.801 451.187 -47.044 288.578 451.303 -44.416 262.795 461.512 61.4919 277.903 469.246 61.6466 253.429 493.918 40.9445 10.6767 102.838 12.9754 
177.429 172.313 173.971 154.724 141.936 160.033 162.881 170.119 78.9626 79.4094 221.864 438.5 8.52993 250.344 449.994 -46.8909 286.734 449.974 -44.7496 262.101 461.544 62.0357 277.307 468.767 61.4976 253.014 493.905 40.6291 11.3801 102.6 11.7946 
176.079 172.24 174.615 154.635 141.687 160.418 162.409 170.643 79.1984 79.6401 220.374 437.84 8.71664 249.307 449.13 -46.4945 284.769 450.239 -45.7584 261.362 461.509 62.0956 276.547 468.341 60.9941 252.235 493.748 40.4896 12.0153 103.339 10.7031 
177.694 171.552 174.52 154.13 142.543 161.933 160.801 169.112 78.2374 78.508 217.812 438.054 8.26952 248.823 450.384 -46.2039 284.16 452.097 -45.7358 260.755 461.828 61.5696 276.029 468.891 60.7292 251.489 494.051 40.726 11.9893 103.506 10.6156 
177.396 171.495 173.667 154.054 142.992 162.245 159.612 169.706 77.8745 77.602 216.13 438.707 7.28592 248.18 451.757 -46.3623 282.82 453.5 -46.3367 259.496 461.978 60.8883 275.176 469.41 60.5859 250.515 494.25 40.709 11.2555 103.388 10.0447 
177.932 170.59 173.948 154.355 143.501 162.572 159.593 170.185 78.2787 76.5195 215.104 440.23 7.59798 247.993 453.725 -46.7143 282.659 455.075 -46.9787 259.874 463 60.5863 275.862 471.59 60.3282 250.284 495.722 40.6871 10.3802 102.832 10.016 
176.627 170.92 174.979 154.502 145.275 162.167 159.877 169.417 77.9228 75.2815 213.915 440.544 7.70126 246.915 454.543 -47.3772 282.944 456.088 -47.1825 259.999 463.811 60.4603 276.09 473.152 60.2632 249.567 496.185 40.3297 9.76972 103.444 11.1921 
176.802 171.195 175.995 154.757 143.9 161.964 160.521 168.976 77.9756 74.7484 212.001 442.227 8.64965 246.222 455.7 -46.9053 281.946 458.074 -47.1663 259.501 465.699 60.7111 276.211 475.01 59.6314 249.233 497.746 40.6161 10.4652 104.303 10.9455 
175.446 172.06 175.722 154.404 142.198 161.465 161.353 168.953 77.2727 73.7761 210.947 442.408 9.68736 244.665 457.377 -47.0928 281.413 461.26 -47.5967 259.291 467.339 61.1724 275.779 476.404 58.7549 248.098 498.779 41.1202 12.5291 106.086 11.7909 
175.462 171.667 180 154.247 142.628 161.538 160.825 166.547 76.7863 73.7472 209.686 442.148 10.3764 243.154 457.662 -46.6131 279.904 459.649 -46.327 258.053 467.701 61.2014 274.748 476.393 58.9009 246.617 499.119 41.2675 12.5149 104.565 11.8761 
175.284 172.99 177.195 152.871 144.014 162.14 159.76 168.356 77.8679 74.088 207.359 442.464 11.8191 241.194 457.519 -46.2716 277.032 459.652 -46.8505 256.452 468.09 60.9008 273.628 476.991 58.5787 245.844 500.165 40.92 11.8776 104.252 11.1289 
174.834 172.814 177.539 151.373 144.597 161.36 159.761 167.404 78.4854 73.7444 206.156 442.057 12.2571 238.211 457.586 -46.437 274.342 459.695 -47.0942 254.345 467.196 60.7102 271.433 476.366 58.5405 243.919 499.95 40.8543 11.3279 104.041 11.3417 
174.351 173.676 177.705 150.481 142.917 161.388 161.912 170.792 79.2009 73.6042 204.485 440.996 14.7149 235.353 456.256 -46.454 271.484 457.296 -48.516 252.843 467.858 61.2944 269.816 476.594 57.5853 242.57 500.259 40.2305 12.4789 104.91 10.9845 
175.083 171.498 177.896 149.958 142.644 162.064 158.538 168.563 78.3339 73.3463 203.756 441.017 15.7312 233.004 457.606 -45.386 270.616 459.714 -47.8607 251.453 468.028 60.4447 268.751 476.966 57.5395 240.891 500.981 40.6658 11.8679 104.271 12.1265 
175.343 169.835 177.746 149.572 141.051 162.168 157.374 166.924 78.0095 75.6075 201.962 440.003 17.8079 230.291 456.564 -44.2689 267.996 458.951 -47.0165 250.186 466.752 59.2588 266.975 474.995 56.7354 239.106 500.955 40.8772 12.2407 101.931 12.2916 
175.97 169.954 175.717 149.286 140.49 161.781 156.105 163.327 77.4624 76.451 200.518 439.74 18.4531 228.138 457.093 -43.747 266.459 460.076 -45.7323 248.47 466.122 58.7327 265.219 474.348 57.035 237.059 500.86 41.4975 11.8397 100.902 13.1153 
176.373 170.55 180 150.264 140 161.976 157.594 165.76 77.9412 77.0033 199.341 440.937 19.1828 227.441 458.106 -43.9395 265.388 461.953 -46.4623 247.122 466.722 58.8989 264.568 474.74 56.8887 236.393 501.896 41.4778 12.0707 102.107 12.8098 
176.797 170.688 180 150.762 141.769 161.468 159.679 169.75 78.1341 77.5111 198.231 441.972 21.5192 225.946 458.417 -43.7462 264.259 462.382 -46.9312 246.537 467.844 59.3136 263.907 475.634 56.8422 235.731 503.374 41.4903 12.503 102.578 12.9973 
174.136 170.995 180 150.285 140.593 160.412 160.478 170.263 79.3548 77.6536 197.042 442.066 21.9698 224.742 458.576 -44.3819 262.143 461.261 -47.613 245.299 467.95 60.0349 263.046 475.877 56.3563 234.261 503.603 41.3314 13.5384 102.424 12.1242 
173.236 170.84 176.096 151.089 140.679 160.64 160.597 170.099 80.0485 77.5782 195.279 442.697 21.5555 223.683 459.112 -45.026 261.142 460.957 -47.8926 243.611 467.167 58.9466 261.795 476.207 56.4105 233.105 503.888 41.033 11.4646 100.76 12.1108 
172.446 170.848 176.939 152.205 141.847 160.269 159.921 169.258 80.307 78.3604 194.97 443.828 20.5874 223.008 458.96 -45.0076 260.196 460.548 -47.6234 241.652 466.287 58.2767 259.476 475.723 57.1985 231.579 503.865 40.9258 9.63277 99.6047 11.7888 
171.801 170.145 175.467 151.401 143.164 159.548 160.717 169.699 81.2795 78.9376 194.524 444.685 21.2931 222.654 458.702 -44.7432 259.331 460.34 -47.8606 241.133 467.65 59.6259 258.397 477.103 57.7124 230.523 504.994 40.8915 10.2878 100.196 11.2167 
171.824 169.866 173.896 150.628 144.49 160.075 158.767 168.5 80.2031 78.5239 192.3 444.107 20.9723 220.895 459.059 -44.5734 257.676 460.48 -47.917 239.104 466.682 57.7593 256.408 476.417 57.4434 228.879 504.693 40.6443 8.76826 98.695 11.236 
172.599 169.728 175.87 149.677 147.356 160.583 156.772 167.292 78.9733 79.8688 189.817 443.613 21.6719 218.827 458.937 -44.4952 256.418 460.801 -48.0167 238.11 465.079 55.2746 254.086 475.25 58.0404 226.986 504.286 40.4791 6.19169 96.3861 11.868 
173.38 168.745 176.004 149.293 147.812 161.437 155.631 165.513 78.6598 79.4655 186.866 443.994 19.6499 218.553 459.482 -45.1405 255.961 461.6 -48.0057 236.763 464.443 53.95 252.279 475.24 58.1536 225.168 503.998 40.2271 5.15832 95.1658 11.7416 
175.444 169.492 177.116 149.822 147.519 162.925 154.989 164.761 77.8533 78.572 184.635 444.18 18.5875 217.396 460.02 -45.6112 255.242 463.061 -47.9294 234.584 464.378 52.8361 250.427 475.12 57.7216 223.454 503.946 39.9925 4.59768 95.2509 12.1875 
177.289 169.356 176.36 150.259 147.137 164.063 154.166 163.435 77.5833 77.7626 182.505 442.832 17.2274 216.179 460.547 -46.6302 254.804 463.837 -47.9585 232.269 463.571 52.3264 248.434 474.501 57.3936 221.285 502.801 39.7525 4.32043 96.023 12.8954 
179.001 170.404 176.41 151.776 147.502 165.335 152.772 162.404 77.3136 77.4968 180.095 442.903 15.2425 213.503 460.364 -47.3899 252.497 464.137 -48.7518 229.502 463.521 51.7201 246.131 473.717 56.4002 219.639 502.309 38.8822 4.76769 97.09 13.3544 
178.928 169.68 176.785 154.471 148.72 165.292 150.74 160.506 76.0161 78.405 179.343 442.649 13.9404 211.381 460.44 -47.7248 250.536 463.545 -48.796 227.906 462.36 50.2033 243.316 471.964 55.8131 217.591 501.44 38.3091 5.12217 95.8159 13.4881 
178.056 170.065 178.453 158.103 149.859 163.647 149.467 158.936 74.4992 78.945 179.344 441.866 14.1253 208.434 460.046 -48.1466 248.216 463.105 -49.1984 225.932 461.246 49.0985 241.013 469.868 54.8733 215.353 500.403 37.8624 5.5351 95.7374 13.9975 
173.152 169.626 180 159.086 150.699 161.549 147.726 158.847 74.7033 79.3592 178.967 443.161 12.3702 206.298 460.965 -49.0968 246.399 463.084 -49.9093 223.369 459.979 46.7042 238.183 468.781 53.6067 213.817 500.203 36.792 5.23445 94.3018 14.2428 
176.943 168.703 180 162.621 152.642 165.957 147.425 158.027 74.4728 81.0261 172.89 445.041 10.7263 204.981 462.506 -49.5999 244.895 464.354 -50.5784 221.972 459.428 44.6258 235.498 468.353 53.1563 212.234 501.012 36.47 6.0927 92.1454 13.985 
175.161 170.126 176.731 163.067 152.755 166.104 150.118 159.455 74.8314 81.7421 169.424 445.929 9.83525 203.252 463.013 -51.0862 243.932 464.664 -51.6124 219.551 459.764 44.2811 232.747 469 53.5624 210.722 501.449 35.8107 6.68782 92.9942 14.4832 
174.291 167.174 176.832 163.426 154.431 166.451 148.421 159.903 75.2589 82.6136 165.664 446.85 9.49605 201.43 460.918 -49.9394 241.902 462.67 -51.6515 217.928 458.835 42.9653 230.452 468.931 54.0037 208.992 501.849 35.259 8.10405 90.2841 14.1229 
173.436 165.558 174.114 163.06 155.608 166.603 145.792 158.493 75.8485 83.5765 162.149 448.961 9.16265 199.157 461.775 -49.4323 240.084 462.276 -51.5638 216.111 458.336 41.3499 228.007 468.97 53.9698 207.717 502.901 34.8419 9.85317 87.9776 14.3405 
174.631 165.57 175.114 161.187 156.064 167.537 144.707 159.676 75.6439 82.3288 159.056 449.349 7.77448 198.384 463.196 -50.251 239.834 464.365 -52.1976 214.482 458.126 39.5242 225.828 469.765 53.5389 205.61 502.945 34.5792 11.416 87.5668 14.653 
175.357 164.528 174.937 160.317 155.808 168.114 144.06 159.732 76.1322 82.0565 155.29 449.667 7.37964 196.839 464.859 -50.9042 238.851 464.961 -52.4318 213.113 456.805 37.5704 223.639 469.523 53.5745 203.418 502.998 34.6612 13.6784 85.2547 14.8209 
175.434 164.931 175.595 162.701 154.743 168.138 145.313 161.239 76.7354 81.8216 152.717 449.331 5.93135 196.111 465.501 -51.3837 238.289 465.194 -52.1048 210.689 456.36 39.0848 221.378 469.505 54.3286 201.04 502.37 35.0762 12.9942 86.6955 14.7677 
174.348 166.5 177.889 161.867 153.852 167.301 145.261 163.779 77.4316 81.7428 151.391 448.919 6.09586 193.661 464.826 -51.0146 236.71 465.013 -52.6654 207.469 456.749 40.2774 219.587 469.443 54.0488 199.299 502.307 34.703 10.8716 89.2655 15.3058 
174.25 166.593 180 160.3 154.498 165.624 145.553 162.366 78.8494 82.5967 150.382 449.08 5.7145 191.546 463.517 -50.9157 234.244 462.349 -52.1349 204.659 456.589 41.6772 216.666 468.893 53.874 197.317 502.032 34.0351 10.3543 89.9174 14.9768 
175.915 170.445 180 161.761 154.371 166.281 144.188 160.418 80.3918 82.5596 149.525 449.87 5.75597 189.282 464.703 -50.9355 232.905 463.598 -52.0696 200.685 457.019 42.613 214.369 469.227 53.4322 195.111 502.571 34.181 8.20857 91.8375 15.6655 
177.529 171.011 179.47 160.055 153.979 167.044 144.256 158.383 80.7214 82.8355 148.123 450.153 5.12065 187.607 465.397 -51.1953 230.998 462.124 -50.779 197.796 457.866 43.6695 212.237 469.151 53.4567 193.155 502.656 34.3528 6.68084 91.924 15.7616 
178.969 172.087 177.412 157.884 154.176 167.706 143.462 155.502 80.3265 82.9124 146.217 449.79 3.61138 186.075 465.509 -50.9474 228.633 461.243 -48.7414 194.106 459.153 45.369 209.098 468.573 53.4523 190.874 501.777 34.5976 5.69231 93.795 15.735 
177.784 172.658 177.909 156.484 153.825 169.241 142.802 154.333 79.2905 81.8492 143.84 448.96 0.531274 185.481 466.182 -52.1351 227.265 461.281 -48.4268 191.749 460.361 46.774 206.471 467.956 52.458 188.364 500.485 34.0085 7.29259 96.5581 15.5767 
179.667 171.115 167.258 157.8 154.712 168.148 140.689 150.575 78.6457 81.9475 142.026 448.713 -0.113126 181.457 465.665 -52.5673 222.648 458.661 -48.1049 188.732 460.114 47.1245 202.393 466.217 51.2885 185.959 499.484 33.4302 9.77647 96.3513 15.7499 
176.954 169.673 162.589 157.563 154.442 169.917 139.926 148.704 78.2614 81.4583 138.387 448.899 -3.04198 179.567 466.612 -53.9823 220.381 458.071 -48.3428 186.12 459.172 46.5307 199.001 464.674 49.9236 183.387 498.207 32.8785 11.4617 96.1272 16.1125 
176.695 168.55 159.167 157.09 154.089 169.5 140.242 147.246 77.8684 80.8182 135.859 448.976 -4.84713 177.495 467.275 -55.2423 217.673 457.804 -48.5352 183.432 458.825 45.9618 196.168 463.972 49.051 180.731 497.39 32.4508 12.0622 95.9255 16.2276 
179.63 170.353 151.876 158.514 155.565 168.309 139.484 144.66 77.3275 79.7545 133.045 447.356 -4.60518 173.553 466.367 -55.3457 213.604 457.611 -48.5532 179.736 457.726 44.908 192.808 463.086 48.2877 177.572 496.172 32.0903 11.7395 96.0774 16.1609 
178.946 169.176 149.781 159.532 156.961 169.86 139.755 144.405 76.0005 79.4659 129.159 447.625 -6.04191 170.31 466.321 -55.9129 211.41 458.16 -48.6126 178.051 457.682 43.8122 190.407 463.321 48.1221 174.86 495.791 31.7901 11.529 95.4678 17.0897 
176.996 167.877 150.01 160.905 158.08 170.596 140.908 145.707 73.8296 78.2492 125.935 446.734 -6.5609 167.409 466.627 -57.219 209.925 459.048 -49.46 176.689 456.971 42.3341 187.898 463.321 48.0568 171.403 495.01 31.5916 11.5604 95.0045 18.1264 
177.371 170.24 150.697 161.344 158.657 170.767 140.664 146.052 73.6967 77.1258 122.83 446.066 -5.57825 164.557 467.346 -57.4682 208.311 461.147 -50.0823 174.66 454.587 39.723 185.476 462.952 48.0739 168.329 494.656 31.8717 11.0122 93.0416 18.7363 
178.194 174.475 147.855 162.977 159.6 169.092 141.056 148.533 72.7088 76.7827 120.583 443.079 -3.38981 159.38 466.89 -58.8226 204.385 461.368 -52.2607 171.553 451.049 33.84 182.5 461.262 47.3087 164.878 493.239 31.2654 11.6148 88.9786 19.5545 
178.335 179.872 148.031 159.57 160.542 168.718 144.575 151.26 69.1934 77.9865 117.904 443.441 -2.15296 156.349 466.675 -59.9816 201.791 461.635 -53.5824 170.722 452.608 31.2719 179.707 461.742 47.3122 162.553 493.947 30.4583 14.3664 87.6186 19.699 
179.33 174.588 152.386 156.982 159.628 169.225 147.896 154.903 69.1036 78.6552 114.383 444.305 -2.84504 154.078 466.361 -61.1119 200.004 461.365 -55.347 168.316 451.885 31.0643 176.402 460.629 46.9059 159.885 493.716 29.9302 14.8886 88.4668 19.5585 
178.378 178.67 158.836 166.247 158.922 169.501 144.625 157.939 70.2918 79.929 110.903 444.831 -3.75034 149.247 462.097 -59.3721 196.039 460.004 -57.3771 161.969 451.445 33.1777 172.453 459.022 46.341 156.889 493.389 29.3378 10.8747 92.4956 19.3073 
178.205 176.63 158.858 166.415 159.334 168.969 141.669 156.38 71.1727 81.3019 108.222 446.252 -5.3804 146.517 458.87 -57.6302 191.723 457.46 -57.6339 158.03 450.889 32.7855 168.285 457.914 45.4466 154.32 493.285 28.5327 10.8791 91.2756 18.2019 
176.932 179.89 158.006 163.698 158.68 167.449 138.352 156.966 73.6501 83.7443 104.657 446.859 -6.29115 141.789 455.564 -56.0155 187.52 454.214 -57.7035 153.69 447.268 31.6267 163.23 454.494 44.3101 150.711 491.985 28.1421 11.6068 88.7632 18.7616 
178.178 179.551 159.346 160.807 159.729 168.366 138.374 157.091 74.1305 84.9725 101.439 447.564 -8.4533 138.501 453.107 -56.1914 184.782 451.445 -57.4428 151.559 446.396 30.6684 160.13 453.748 43.3516 147.92 491.492 27.0841 12.4061 86.8206 19.1875 
178.561 177.548 157.297 155.698 158.45 168.199 137.937 155.126 75.8923 85.4386 97.7635 449.098 -9.69896 135.345 452.176 -56.4632 180.605 448.359 -56.2281 148.671 445.044 30.497 157.188 452.533 42.1125 145.358 491.271 26.4405 12.4523 84.5656 18.4881 
177.27 177.622 153.442 158.527 157.803 168.469 132.715 152.743 76.1647 84.4414 94.0992 450.801 -12.0751 131.148 450.269 -53.8236 176.553 446.905 -55.2836 144.092 445.316 30.4252 154.326 451.962 40.4109 142.864 490.935 25.777 10.7853 84.6645 19.3978 
170.831 166.933 158.206 162.517 161.049 167.671 121.04 141.061 69.3362 81.6984 91.568 451.968 -14.6431 118.188 445.023 -46.5872 171.726 443.537 -50.2784 139.828 449.868 28.7668 150.928 452.442 38.7596 140.344 490.663 24.8819 8.88795 82.6108 29.1265 
170.357 168.339 173.84 165.264 161.061 168.991 116.754 135.052 72.8051 81.8321 87.2056 451.345 -15.5642 107.161 446.554 -46.8838 168.007 446.233 -51.8008 133.019 446.864 26.8812 146.917 450.129 37.1147 136.322 488.939 24.5924 6.52815 84.392 36.748 
167.957 163.815 165.109 166.395 159.417 168.003 113.175 135.918 75.5068 82.7963 82.8469 450.523 -13.1839 99.106 446.986 -46.3224 165.248 447.484 -52.9508 130.024 442.131 26.1164 143.582 447.381 35.8384 132.338 487.566 24.7019 7.83204 84.6639 42.0352 
168.625 166.777 165.938 165.99 158.894 167.994 114.04 145.73 77.763 84.6796 77.5192 450.28 -12.5418 97.5592 447.919 -48.7011 163.62 449.045 -55.7016 127.953 439.622 26.0665 141.372 445.706 35.2034 128.994 487.342 24.0294 7.94945 86.5073 41.2345 
170.189 171.371 168.484 164.579 158.156 169.963 118.245 158.857 77.9171 85.8825 72.251 451.259 -13.2739 96.2776 450.396 -53.3412 165.09 453.995 -60.0898 125.935 438.858 25.9873 138.95 444.541 35.1377 126.239 486.907 23.4131 7.82399 92.4749 42.4394 
167.666 172.484 166.099 167.157 158.082 168.962 122.592 163.314 76.0189 84.876 68.3641 450.135 -12.5186 94.5759 452.866 -57.2808 162.47 456.4 -62.4647 121.607 440.315 27.0471 136.442 444.059 34.9201 122.99 486.204 22.7719 6.82858 98.3647 40.7981 
165.99 179.161 163.325 166.951 157.285 168.792 129.111 165.95 75.2943 85.3094 64.5332 451.766 -14.6719 94.753 458.354 -62.9089 161.81 461.136 -64.4263 116.519 442.324 26.3547 133.156 443.516 33.6196 119.983 486.157 21.9707 6.9323 103.869 39.0338 
166.369 177.854 154.489 166.603 156.454 169.526 135.473 166.932 75.867 86.4339 59.5928 452.765 -16.676 95.1712 461.981 -67.0799 158.979 461.644 -65.9618 113.23 440.883 25.3142 129.503 441.822 32.5377 116.709 484.863 21.2136 7.10119 104.31 35.392 
169.092 179.049 149.216 167.057 155.293 170.353 143.903 169.892 76.1975 85.9655 55.3491 453.704 -17.8791 95.3688 465.48 -71.1029 155.092 462.294 -68.0701 110.914 440.755 24.1814 127.842 441.823 31.3503 113.907 485.102 20.1939 6.97541 103.588 31.4809 
162.692 179.623 135.131 169.379 153.887 169.587 144.602 157.645 76.9046 84.9639 51.1226 455.75 -19.1963 96.8979 469.317 -72.8708 147.648 463.035 -68.747 106.796 439.888 21.8879 124.111 441.144 29.6565 110.168 484.569 19.8424 6.3008 99.9318 24.5684 
