161.397 160.129 144.08 170.025 153.888 169.927 143.393 157.85 77.2746 84.5176 43.7099 457.666 -20.4733 94.9441 472.187 -73.5809 146.11 465.128 -70.3888 104.241 438.24 20.5706 121.113 439.996 28.2078 106.624 483.773 19.3686 6.5455 100.244 24.4508 
158.373 160.73 152.867 171.253 153.81 171.474 139.968 154.331 77.8555 83.6488 37.1641 462.667 -23.148 93.1712 474.381 -74.2787 143.587 466.571 -70.6203 100.396 437.477 19.5643 117.621 439.129 26.8374 103.432 483.049 19.2547 7.18962 100.087 23.8946 
154.871 163.569 158.606 170.005 153.194 172.509 144.404 158.503 78.4114 84.2522 32.6414 464.416 -22.9514 90.3857 476.984 -75.2105 141.035 469.632 -71.5399 99.412 436.095 18.7408 115.183 439.479 27.5688 99.7509 482.976 19.9427 5.93635 99.0773 23.6941 
155.034 163.695 165.794 171.466 153.793 169.6 136.228 153.599 77.4913 83.117 27.3613 465.812 -22.9776 87.2139 473.051 -73.8929 136.072 467.873 -70.9053 96.7326 435.873 19.8262 112.234 439.394 28.3813 95.726 482.483 19.9289 6.18959 98.1758 22.0382 
157.757 152.921 172.825 172.481 154.13 168.81 135.721 154.005 75.8049 83.5338 23.2633 465.26 -22.653 82.771 469.462 -73.5235 130.78 467.473 -72.7727 95.1658 436.25 20.3577 110.166 439.212 28.4687 92.0289 482.088 19.4621 6.40913 98.291 20.9057 
153.146 168.185 146.368 172.27 154.554 166.782 129.14 156.974 74.9407 78.9402 19.2338 468.875 -23.6902 81.8901 462.54 -71.8413 123.507 464.511 -72.0343 92.3218 435.917 21.3121 106.695 440.227 29.2862 88.3957 480.458 19.3575 7.0482 96.8541 16.5417 
165.357 170.888 169.069 172.546 158.414 172.772 121.5 167.298 68.5577 75.6745 19.6116 464.067 -26.5235 73.2618 453.672 -67.685 117.599 466.784 -74.5548 92.304 436.967 18.2952 102.716 441.271 29.2892 84.3359 479.014 19.0449 9.86369 94.9615 23.6465 
145.212 148.938 160.899 129.418 162.841 155.984 125.484 164.438 46.226 62.6646 47.9855 472.051 -21.673 63.4462 449.731 -66.6975 109.302 469.191 -77.0076 103.358 452.701 7.33428 106.414 454.491 34.1264 79.1199 480.646 19.4563 32.5342 75.9196 26.5978 
133.164 146.927 180 90.0456 150.855 141.39 136.24 164.069 31.7637 57.1521 61.8942 478.307 -12.0167 56.8618 448.567 -67.14 105.711 466.334 -76.4132 103.399 466.053 -3.20131 103.202 464.412 37.0622 74.7347 481.376 20.0948 69.8936 45.1724 26.3756 
174.081 139.448 180 174.27 173.414 113.362 146.215 156.177 178.114 59.7172 69.6248 482.451 -5.24774 54.1315 447.992 -67.5103 103.125 463.745 -73.993 130.317 453.697 -52.2958 100.438 460.535 38.111 72.5033 480.284 20.1441 102.876 13.3515 26.1912 
173.593 143.717 180 174.27 175.111 109.717 149.123 152.355 178.014 68.2499 64.8567 487.078 -3.9208 51.3981 447.848 -67.1189 98.4941 461.692 -72.5145 128.298 456.599 -58.515 95.5852 452.478 36.7458 69.3074 479.418 21.1987 100.953 9.34078 24.3001 
154.494 161.769 180 174.27 174.27 175.532 152.188 153.515 178.045 77.9369 16.9578 456.156 -19.0756 48.2484 448.091 -68.3863 95.2359 456.737 -71.893 131.796 453.11 -52.9086 89.7289 444.74 35.5785 66.7112 479.235 21.4706 97.6199 14.8194 22.6459 
164.226 171.174 180 174.27 174.27 167.232 153.321 153.523 178.185 85.5634 -7.45132 452.532 -14.0179 44.2393 447.85 -68.9987 91.9007 455.079 -71.8847 128.081 452.12 -51.1572 85.0643 436.802 34.4533 63.6495 477.872 21.8147 95.0524 15.3252 23.0001 
165.268 170.126 180 174.27 179.431 164.049 157.619 150.638 156.531 91.4323 -20.3968 456.14 -15.329 41.9057 449.05 -69.5451 90.0271 454.236 -70.3641 119.153 442.811 -41.6891 79.6194 432.685 33.166 61.243 477.97 21.6551 84.8117 16.8683 23.3258 
164.866 174.156 180 174.27 171.002 166.455 155.31 152.12 117.785 92.6444 -26.4631 460.255 -16.9666 39.2359 448.472 -70.0593 86.7621 450.511 -70.7986 103.327 431.821 -32.2536 75.0972 430.965 31.8374 58.536 477.967 21.2759 69.2877 22.2922 22.1496 
162.782 179.726 170.944 152.492 163.75 170.194 160.18 155.67 118.269 91.0413 -27.7741 457.424 -16.1821 38.453 447.986 -73.059 83.2694 446.946 -72.7526 95.3295 428.083 -32.8574 71.149 430.489 31.5837 55.3949 478.092 20.7985 65.9422 22.4062 18.9817 
158.725 178.183 168.581 155.397 155.487 178.669 161.94 158.073 124.922 89.0495 -23.94 454.237 -16.2902 36.6131 444.5 -74.0762 79.6771 441.573 -73.7536 88.7846 422.467 -35.7301 67.535 427.96 30.5532 51.7748 475.917 20.4664 63.2463 21.1951 17.229 
164.744 179.909 163.514 155.095 151.412 174.211 157.025 155.432 133.166 88.6972 -22.1769 455.823 -17.4237 33.7495 442.442 -72.1754 74.7606 438.345 -72.6938 85.7615 424.781 -39.8459 64.0581 427.256 29.4539 48.5027 475.725 20.7987 65.6023 14.8157 15.6327 
168.695 175.574 161.543 149.571 147.54 173.396 153.067 153.85 138.445 86.5043 -24.3329 456.036 -17.8367 29.6293 441.23 -71.6365 70.4577 436.662 -72.4632 82.4409 425.316 -42.6481 61.5471 427.067 27.975 45.0225 475.255 20.6053 65.4175 11.852 15.5417 
172.534 172.641 161.404 146.169 147.49 171.4 150.169 154.955 145.595 85.5709 -23.1955 453.997 -18.556 25.4282 440.767 -71.1521 66.5197 435.235 -72.6374 79.118 423.776 -42.8483 57.9348 426.911 27.2924 41.6833 475.228 20.5269 64.608 11.7986 15.6815 
165.431 173.553 163.577 154.615 148.579 175.762 149.203 156.573 154.905 84.9234 -26.9317 455.444 -18.4132 22.3003 440.636 -71.7253 63.7904 433.385 -72.8767 77.3351 419.198 -41.945 53.9972 427.172 27.4579 38.639 475.471 19.948 63.95 13.9474 15.8449 
162.761 171.709 162.231 174.27 154.967 178.897 144.348 156.576 153.495 85.4553 -30.2576 456.557 -18.2593 16.7342 440.454 -71.2072 59.8427 433.779 -73.6142 75.0898 416.976 -39.5298 49.347 428 28.2739 35.4249 475.716 19.1149 65.7577 17.2634 17.2149 
158.47 174.031 161.556 174.27 156.475 177.585 141.815 157.468 127.93 85.6801 -33.648 457.464 -17.0471 11.3713 442.983 -71.5803 58.2703 434.211 -73.5725 62.7308 411.244 -27.5356 46.0841 428.445 27.9893 32.4246 476.027 18.7136 54.1354 29.4474 20.1485 
159.804 173.809 159.915 174.27 158.536 174.547 140.413 156.803 119.555 87.3368 -39.4232 460.792 -16.8933 7.63749 445.724 -72.5063 55.2697 435.982 -74.1856 55.9565 410.867 -24.018 42.3412 428.466 27.3423 29.2362 476.576 18.1296 50.1165 34.5775 20.8038 
157.941 174.344 161.566 149.942 158.973 169.849 139.944 158.002 118.897 88.927 -45.5359 461.533 -17.3664 2.44142 446.567 -73.4521 52.4016 437.299 -75.5534 53.0909 411.896 -24.4292 38.7795 427.078 26.4107 26.1144 475.863 17.3936 50.6906 35.5776 22.7083 
156.549 172.687 161.244 128.443 159.166 172.184 140.886 158.931 128.24 89.1015 -49.5837 457.276 -16.5655 -1.75805 445.214 -73.6569 48.3913 436.886 -76.2266 51.6934 412.235 -29.5176 35.6793 425.305 26.0028 22.571 475.119 16.8719 54.1373 31.3735 22.9359 
171.672 171.518 161.793 133.198 161.277 175.583 143.002 159.378 133.356 93.1237 -50.7402 453.836 -18.5933 -4.33668 441.634 -74.6569 44.5962 432.4 -76.6622 48.6571 407.142 -29.8289 31.1047 421.007 26.1974 19.3936 473.371 16.014 53.3772 30.9185 22.0057 
178.039 171.135 161.313 139.922 161.098 173.453 147.191 160.97 142.743 94.3282 -52.2696 449.637 -17.6975 -7.76089 440.156 -75.8882 41.6456 429.865 -76.9113 46.5637 405.288 -31.4589 27.9802 419.778 27.0273 15.5989 473.462 15.8327 54.0519 28.9795 22.1057 
172.663 169.302 160.953 150.838 161.671 169.335 149.468 160.677 138.395 95.7623 -52.6415 445.991 -16.3326 -8.66356 437.757 -77.0397 38.2881 425.728 -76.7447 40.8171 401.092 -27.9034 23.5702 417.338 26.742 12.3007 472.546 15.3158 49.9647 31.1111 20.232 
172.994 166.517 160.262 150.664 160.703 169.237 148.995 158.893 132.443 95.9923 -56.6383 441.994 -14.9516 -11.6381 435.114 -76.3103 33.8667 422.572 -75.8888 35.4034 399.421 -25.3292 21.2211 416.276 26.0014 8.4903 472.435 14.9794 45.0896 31.8088 19.1326 
172.169 166.743 160.163 148.794 158.437 168.555 150.452 158.81 130.643 97.4142 -60.9754 442.51 -15.723 -14.2668 432.711 -76.9688 30.867 419.741 -75.6763 31.5494 396.261 -23.1454 18.8925 412.763 25.3191 4.46925 470.621 14.9786 40.7108 33.1131 18.851 
174.743 164.116 160.483 148.133 159.199 171.742 149.212 155.867 136.683 94.7569 -66.9211 443.742 -18.4363 -16.2146 430.26 -77.122 25.7378 417.672 -75.9296 31.3773 395.638 -30.2949 15.405 411.16 23.7915 0.722761 468.382 14.1648 45.7447 26.9758 16.5737 
175.899 159.015 158.959 174.27 157.555 176.448 144.129 151.503 140.595 91.4296 -72.3746 447.252 -21.1224 -20.0439 429.598 -75.7886 21.2306 416.939 -74.9532 30.1185 397.899 -35.9555 11.5652 411.372 24.1419 -2.45966 466.965 14.11 52.3192 21.1457 16.4318 
167.77 160.052 156.791 174.27 158.17 178.223 142.405 149.918 139.661 89.8466 -79.5422 453.854 -22.264 -22.7824 428.986 -75.5667 17.2303 416.494 -74.5742 27.1303 398.132 -35.8694 8.09672 412.467 25.3523 -5.66781 466.812 13.745 54.7806 20.795 15.5327 
167.843 161.559 154.842 177.422 160.227 176.81 144.445 151.029 148.695 90.0723 -83.5883 454.381 -22.2817 -25.5327 425.951 -76.3049 13.6084 413.414 -74.3145 24.5906 399.225 -37.6045 3.73864 412.722 26.049 -9.04765 466.766 12.6684 58.5866 17.4637 14.8455 
168.187 161.53 155.374 174.27 161.941 177.31 145.296 153.206 134.862 90.3626 -88.0225 451.722 -22.7145 -29.1102 423.768 -77.8971 10.9512 411.795 -76.0777 14.8388 395.894 -31.7112 -0.998535 411.956 25.7141 -12.6233 465.627 11.3109 52.9143 24.1755 15.3545 
173.259 164.078 155.633 174.27 162.362 177.681 148.13 155.58 117.396 92.5258 -91.6041 450.904 -22.3797 -32.2099 423.369 -79.1621 7.051 410.484 -76.5792 4.81608 392.353 -21.3784 -6.27144 409.722 25.7436 -16.352 464.652 10.9357 43.8104 34.3474 14.8917 
175.473 165.275 154.62 174.27 162.661 176.513 147.997 154.084 108.327 92.5974 -92.1824 453.359 -23.0522 -36.5462 426.249 -79.1563 3.18736 412.035 -76.2478 -3.45877 394.76 -18.1524 -10.0024 411.519 25.7502 -19.6389 465.697 11.2714 40.0698 38.6196 15.4475 
169.142 167.121 152.672 174.27 160.969 176.417 148.139 153.723 107.338 93.0403 -94.0062 453.915 -22.4152 -41.5581 428.81 -79.5424 -1.2667 414.337 -77.6105 -9.19039 395.715 -18.912 -14.6542 412.985 24.4485 -22.9321 465.727 11.3762 40.2312 40.7863 15.7977 
169.52 169.227 153.314 157.477 159.858 173.772 150.156 154.732 146.783 94.2438 -95.142 454.565 -22.0468 -46.7552 431.691 -80.4915 -6.68648 416.721 -79.0884 -0.0221159 395.058 -41.1786 -17.9881 413.513 23.4736 -26.7586 466.49 11.4647 58.5709 23.3751 15.7157 
170.962 170.298 151.096 155.557 159.802 173.683 151.667 154.288 152.146 95.2547 -98.3163 458.062 -21.2021 -50.9362 432.917 -80.2307 -11.7034 417.398 -78.8163 -0.42056 397.201 -45.9208 -20.2401 415.27 23.8888 -30.0379 467.962 11.5266 62.8473 19.7126 15.3445 
170.644 173.355 148.544 156.264 160.688 172.891 152.628 153.705 155.663 95.1892 -100.658 453.644 -19.6728 -55.4359 434.081 -82.2701 -15.3363 417.38 -80.3259 -3.25328 399.325 -50.231 -23.6501 416.163 22.9015 -32.4634 467.586 10.0875 66.7211 17.3173 16.6284 
168.617 172.893 147.846 159.187 161.346 172.58 152.301 153.272 152.828 95.3626 -103.755 452.543 -19.5751 -60.7281 434.259 -83.3238 -19.6306 417.261 -82.065 -7.57106 398.825 -51.0769 -26.6579 417.109 21.8739 -35.5078 467.034 8.50097 67.4683 18.5454 17.5819 
173.956 173.196 144.852 150.428 159.873 167.665 153.422 154.04 152.134 94.9209 -105.321 446.063 -19.8725 -68.663 435.219 -83.8843 -26.0466 417.51 -83.0536 -15.565 399.926 -51.8129 -31.9482 417.246 19.0518 -41.5854 466.545 7.47747 66.0292 19.2861 19.1183 
175.218 173.51 143.563 177.968 159.015 166.143 153.971 156.347 179.307 93.1215 -107.235 443.153 -19.9462 -72.1923 433.264 -84.1252 -28.4143 415.255 -84.237 -11.2272 401.145 -60.4975 -34.6008 416.798 19.6832 -44.1429 464.907 6.6762 75.7163 12.3944 19.7995 
176.054 172.606 144.757 174.27 158.968 161.922 154.288 159.579 179.268 91.3016 -107.188 437.41 -20.6981 -74.7718 430.785 -85.1589 -30.3299 412.345 -86.0031 -18.8124 396.291 -56.8037 -38.8364 416.836 20.6859 -46.1905 462.74 5.43406 74.2364 16.3192 20.0788 
172.696 170.292 148.926 174.27 159.705 162.941 151.528 160.398 178.133 90.8437 -111.728 437.543 -20.8017 -77.2531 432.015 -85.0037 -32.7031 414.515 -87.6313 -28.5161 390.734 -54.7493 -41.3775 417.515 20.1747 -48.6725 462.856 5.07634 67.4892 23.4028 19.7291 
179.372 168.971 152.391 174.275 159.218 169.932 151.4 161.327 178.02 89.0677 -119.165 443.539 -23.6203 -80.1032 434.263 -85.0109 -35.7772 417.857 -88.9125 -31.9086 387.751 -56.4949 -42.2048 419.763 19.4448 -52.0809 464.352 4.82357 65.2251 25.9872 19.2217 
173.171 170.137 154.61 174.346 156.35 172.956 152.643 162.979 178.036 89.1085 -124.584 446.756 -23.661 -83.6784 436.322 -85.1655 -38.7266 420.001 -90.0726 -36.0258 385.136 -58.3072 -44.6219 418.787 18.2272 -55.2822 463.953 5.15309 63.0034 27.9777 19.69 
170.643 168.973 155.221 174.343 154.685 172.479 151.87 163.657 178.041 89.2912 -126.936 445.022 -23.5284 -85.8138 436.02 -85.4808 -41.9154 419.723 -90.9039 -39.1385 383.837 -57.3726 -46.3686 416.788 16.3752 -57.8066 462.812 4.81905 59.9338 29.446 19.0354 
168.125 167.098 158.471 174.388 156.11 173.942 150.172 163.627 178.051 89.6326 -132.427 443.104 -22.1968 -88.8249 434.517 -86.3473 -45.194 418.266 -92.5403 -44.6435 381.08 -56.8645 -49.8523 417.578 17.5437 -60.3289 462.689 3.55364 60.5132 30.9155 18.5804 
171.274 168.354 162.06 174.446 155.176 173.183 151.337 164.946 178.068 90.5006 -136.227 442.17 -20.8261 -92.4228 435.316 -86.1682 -48.1749 418.554 -92.6655 -47.8554 379.075 -54.1462 -52.4047 418.657 17.9768 -63.0793 464.062 3.57223 58.3757 32.9547 19.1146 
170.67 168.295 162.683 174.403 154.229 173.68 152.282 166.43 178.057 89.5271 -140.464 444.032 -22.5681 -94.1417 434.417 -87.7139 -51.1846 417.002 -93.1081 -53.0694 376.52 -48.5694 -56.3975 418.687 18.3358 -65.6682 463.59 2.6661 56.1041 36.3892 18.3042 
162.112 168.82 165.518 174.27 153.286 177.798 152.88 167.482 178.035 89.7094 -144.777 447.231 -24.8381 -95.5173 432.406 -88.29 -52.7697 414.596 -93.3081 -55.0473 378.96 -38.813 -58.3308 418.246 18.6269 -68.002 463.115 2.01201 51.8134 40.6654 18.1285 
164.514 169.246 169.256 174.33 151.3 175.072 154.751 169.491 178.037 88.8968 -145.649 446.658 -25.0376 -98.5484 432.339 -88.6631 -54.968 415.442 -95.0889 -57.7604 374.014 -38.9364 -60.5305 418.832 18.1368 -71.2063 463.358 1.58292 51.2132 42.8867 18.0129 
156.657 170.269 170.53 174.27 151.32 176.291 156.099 171.555 178.023 90.0383 -148.187 447.773 -25.0081 -101.22 429.918 -88.9241 -55.9111 414.479 -95.9439 -60.7396 375.987 -34.8268 -62.8912 418.023 17.9447 -73.4091 462.681 1.22624 48.6264 45.7059 18.738 
163.273 170.964 170.737 174.27 152.114 177.111 160.58 172.479 179.458 91.6229 -152.7 447.048 -25.5804 -102.993 426.508 -89.8075 -57.0156 411.635 -96.1154 -57.87 382.363 -30.4266 -63.8478 416.73 18.6835 -75.9364 462.61 0.730477 48.1695 45.5745 18.7712 
154.949 172.49 169.844 114.165 150.899 179.891 161.682 172.12 89.8038 91.329 -157.634 445.031 -22.7402 -105.662 424.391 -91.6085 -60.0075 408.777 -97.0366 -69.5225 402.466 -0.347397 -67.8235 414.905 18.1681 -78.542 460.823 -0.218821 23.6346 74.1071 18.5738 
162.681 172.801 168.199 140.914 150.121 175.287 162.606 171.848 79.5635 91.7818 -157.062 443.36 -26.0633 -108.582 422.945 -91.9027 -62.9073 407.448 -97.3436 -77.2242 409.035 8.88389 -70.3906 414.263 17.3118 -81.5268 460.092 -0.822504 13.7814 87.9948 18.4286 
168.519 173.145 167.166 154.87 151.631 172.581 162.611 170.233 77.4666 92.5746 -158.174 441.8 -27.5992 -113.455 422.548 -92.5734 -68.8412 406.284 -98.7164 -82.9167 409.904 9.21373 -74.2213 412.559 15.996 -85.1242 458.828 -1.7674 11.744 90.8257 17.85 
170.518 170.146 167.27 164.611 153.746 164.644 161.11 170.246 77.6992 92.5072 -156.514 437.281 -27.6894 -116.729 421.515 -92.2235 -73.552 407.982 -100.401 -90.8146 412.998 10.4809 -78.1384 412.553 14.4646 -88.1766 459.059 -2.45041 9.72803 95.6597 16.4022 
174.583 170.894 167.9 157.063 153.353 164.13 159.951 169.097 81.1546 93.1873 -157.472 433.465 -27.8774 -121.58 420.307 -92.1248 -78.8655 407.871 -100.975 -97.2354 408.608 2.94468 -81.2558 411.513 13.1395 -91.433 458.467 -2.58946 3.74942 86.7138 16.1514 
175.356 171.023 170.173 157.217 156.878 164.345 160.192 169.972 75.9106 94.6416 -161.065 432.033 -28.4039 -125.655 419.008 -93.4928 -83.2735 406.951 -103.765 -99.9678 411.106 2.60077 -86.4888 410.389 13.068 -94.6905 457.558 -3.9311 4.55094 89.6858 15.8358 
175.711 172.164 171.785 162.688 160.078 164.109 160.61 171.028 72.5105 95.9461 -164.367 429.756 -29.1517 -130.566 419.32 -95.2189 -87.8382 407.598 -107.256 -102.343 413.373 5.28571 -91.9063 409.058 12.9335 -97.6324 455.992 -5.55852 8.00566 97.8196 16.3253 
175.133 172.746 173.245 166.76 161.295 164.175 161.08 172.127 71.5971 94.6251 -166.705 427.432 -27.855 -134.916 418.829 -94.6512 -92.1337 407.274 -107.248 -103.981 415.224 7.48145 -93.8317 411.018 14.4764 -100.638 456.443 -5.4891 8.85358 100.222 16.4095 
177.521 172.285 171.96 163.594 164.327 166.91 160.387 171.681 81.3859 96.4693 -171.328 427.616 -28.5028 -139.85 419.152 -95.2825 -96.7495 408.517 -108.599 -108.61 400.682 -9.94185 -97.9115 410.262 14.1854 -104.14 455.782 -6.60656 21.8752 77.8526 16.8603 
176.489 172.77 171.633 154.295 164.896 167.337 160.184 171.899 98.4214 96.378 -174.529 426.573 -28.5056 -142.431 418.553 -96.0676 -98.5831 408.116 -109.607 -102.291 386.653 -21.99 -100.11 408.675 13.309 -106.283 454.312 -7.42888 39.1284 63.6508 17.5185 
178.004 173.427 171.525 133.543 164.077 169.359 160.314 171.4 115.528 96.5219 -178.735 425.259 -28.9973 -145.243 418.831 -97.0508 -101.093 407.601 -110.366 -100.522 382.311 -34.9808 -103.118 407.908 12.4009 -108.669 453.568 -8.2833 50.8742 52.0402 17.794 
178.083 172.77 170.087 114.786 162.948 170.901 158.919 169.678 139.718 97.3082 -182.241 424.915 -29.1063 -149.3 419.496 -96.4808 -104.891 408.836 -110.469 -99.5922 381.112 -46.1659 -105.262 406.677 11.0496 -111.584 453.1 -8.5242 58.44 43.5758 18.1839 
179.847 169.808 168.463 177.299 163.714 172.414 156.782 168.037 179.596 98.2257 -186.165 425.246 -29.8521 -153.489 419.933 -96.677 -109.687 410.111 -111.763 -96.9879 383.044 -68.7807 -109.089 404.937 8.80347 -114.493 452.166 -9.65895 73.4972 27.9075 18.2352 
176.35 171.02 168.719 174.27 163.578 175.242 158.595 167.952 178.599 99.7005 -189.518 426.177 -31.4793 -157.073 419.421 -98.0932 -113.188 409.698 -112.904 -104.922 383.945 -75.3882 -111.723 403.59 7.90478 -117.01 451.318 -10.4909 74.1051 24.8889 18.2317 
178.492 173.925 170.265 174.27 163.744 174.75 161.596 168.733 178.177 100.494 -190.925 424.551 -31.1034 -160.739 419.999 -99.011 -116.141 409.074 -112.605 -106.634 384.626 -77.7633 -114.56 403.823 8.617 -119.92 451.48 -10.5888 76.743 22.7367 18.561 
178.653 175.361 171.525 174.27 164.364 173.875 163.876 169.988 178.029 99.738 -192.257 423.722 -31.3893 -164.467 420.294 -100.147 -119.328 408.555 -113.712 -112.758 381.527 -77.8945 -117.152 405.322 9.67083 -122.412 451.158 -11.2351 77.0308 24.9952 18.8761 
176.484 176.399 172.969 90.0457 163.114 173.974 165.657 171.442 101.456 98.1893 -195.404 423.789 -31.1581 -168.023 420.099 -100.936 -121.875 408.078 -114.726 -120.068 392.332 -31.806 -118.888 406.116 9.86768 -124.449 450.61 -11.8632 46.3293 59.7153 19.6461 
177.483 177.006 174.314 127.136 161.547 173.064 166.852 173.053 86.4312 95.0303 -197.631 422.389 -31.5901 -169.66 419.812 -101.7 -122.971 407.186 -115.193 -124.677 398.471 -5.65402 -120.179 409.244 10.7778 -126.449 450.873 -12.5491 23.8518 89.6359 19.9663 
174.828 174.905 173.423 147.76 160.014 174.411 165.484 172.402 71.942 93.8247 -202.385 424.154 -31.8483 -172.009 420.282 -102.075 -126.122 407.396 -115.326 -130.639 412.392 1.24204 -123.246 409.085 9.98596 -128.769 450.229 -12.8269 11.1578 105.815 19.5467 
175.565 174.54 173.032 158.943 160.278 172.63 165.277 172.207 73.3186 93.9663 -204.673 423.697 -31.82 -175.974 421.752 -102.079 -130.509 408.668 -115.879 -136.779 418.808 5.7451 -126.967 409.703 9.4035 -131.303 450.436 -13.164 10.7419 114.19 19.5381 
176.927 173.461 172.231 156.435 159.056 172.059 164.612 171.456 71.8012 93.8528 -207.149 423.045 -31.8565 -178.572 419.772 -102.181 -133.607 405.824 -114.879 -138.289 418.419 6.40618 -130.21 407.575 8.79442 -134.089 449.312 -13.2074 14.0129 114.869 19.2776 
176.073 172.592 171.416 158.546 159.288 172.256 163.533 169.873 70.2475 94.0282 -209.108 422.435 -32.2875 -180.377 417.273 -102.198 -136.743 403.126 -113.818 -143.677 413.525 0.0202971 -133.868 406.163 8.76139 -136.547 448.674 -13.1421 6.77169 103.851 18.3501 
174.17 172.77 171.361 137.379 157.496 173.572 163.903 169.426 62.2454 93.3716 -211.22 422.352 -32.7951 -182.257 415.789 -103.016 -139.637 400.682 -114.084 -143.479 411.616 -7.06993 -135.859 403.283 7.60266 -138.511 446.632 -13.324 6.16542 96.9452 17.6718 
171.717 171.918 170.895 155.781 158.271 174.488 163.459 168.405 60.8017 96.0812 -213.318 422.15 -32.8379 -184.491 415.231 -102.836 -143.051 400.442 -113.96 -143.432 411.324 -4.55356 -137.715 399.859 5.91573 -140.5 445.823 -13.3247 8.72788 99.9644 16.9067 
170.537 170.511 170.549 160.979 156.459 174.841 163.107 167.573 60.0939 95.3322 -215.229 420.634 -31.9346 -185.415 413.833 -102.882 -145.336 398.113 -113.049 -145.307 407.413 -6.58779 -138.614 396.941 4.3153 -142.895 444.452 -12.9719 7.79794 94.9989 15.9276 
168.931 171.048 171.536 168.173 156.284 174.328 164.562 168.473 60.142 95.8798 -215.894 419.514 -31.9679 -187.651 413.922 -103.784 -147.86 397.307 -113.711 -148.146 407.83 -4.22535 -140.763 394.775 2.91385 -145.335 443.435 -12.9714 10.6057 99.1458 15.7764 
167.963 171.05 171.424 166.778 156.399 173.353 164.822 168.907 58.5321 94.0449 -218.26 419.159 -31.674 -190.427 413.22 -103.81 -150.399 396.621 -113.663 -150.995 409.47 -2.34259 -142.636 393.118 2.18806 -147.493 442.278 -12.9652 14.6283 103.837 16.1141 
169.814 171.444 171.723 166.774 155.179 173.555 164.279 168.558 56.8669 92.814 -221.583 420.37 -32.2077 -192.611 413.615 -104.071 -152.656 397.695 -114.255 -154.935 406.914 -8.70411 -144.888 392.973 0.449451 -149.911 441.626 -13.4668 6.83586 96.1692 16.0888 
159.988 170.407 171.799 151.076 155.459 175.873 163.875 169.029 59.3277 92.0508 -227.397 420.89 -31.4797 -198.539 412.672 -103.806 -158.177 397.338 -114.574 -159.594 396.408 -30.908 -148.999 390.303 -1.6757 -155.197 439.593 -13.8616 24.4237 64.3293 16.4724 
157.748 172.374 172.384 174.27 159.436 174.8 165.198 170.514 67.9282 88.6856 -229.126 419.453 -32.7258 -198.894 411.068 -104.565 -157.359 395.58 -115.187 -155.664 386.873 -33.8152 -150.764 393.808 3.25614 -156.307 438.54 -14.5414 40.0821 59.2116 17.3078 
161.329 171.37 171.834 174.27 157.546 174.068 164.338 169.898 106.008 87.9721 -230.735 419.022 -34.1231 -199.134 409.043 -105.027 -157.141 394.328 -114.946 -151.804 371.475 -50.4218 -152.14 393.911 3.96741 -158.249 438.164 -14.505 58.7115 42.5276 17.3132 
162.689 172.205 172.237 174.27 156.764 173.96 164.885 170.931 178.882 87.9326 -233.076 418.78 -34.9409 -200.275 407.844 -105.348 -157.77 392.99 -115.295 -142.018 370.094 -72.6073 -153.884 392.959 4.22277 -159.827 437.299 -14.5575 78.0601 24.929 17.5755 
163.94 171.928 172.298 174.27 156.416 173.84 164.583 170.617 178.164 88.3577 -235.339 418.289 -35.0851 -201.649 407.351 -105.573 -159.794 392.256 -115.134 -145.827 367.325 -76.6492 -155.269 391.245 3.73059 -161.732 436.186 -14.7137 77.2981 23.6604 17.1488 
