163.897 173.122 174.789 160.952 132.913 158.83 170.584 172.869 67.4929 70.5444 153.686 391.098 -31.6328 141.125 367.747 -102.613 114.844 342.316 -112.555 101.603 358.187 0.805783 86.9696 346.127 -3.67601 87.1732 385.737 -17.6777 15.212 111.961 11.3806 
167.804 173.112 176.517 161.909 129.682 160.384 170.242 174.542 67.4829 69.1168 153.024 392.649 -32.3223 140.277 368.306 -103.247 113.675 344.028 -113.866 100.667 359.449 1.21337 85.7495 346.951 -3.8852 86.2938 386.534 -17.7911 16.022 113.501 11.1687 
176.883 174.873 176.419 162.882 130.425 160.623 171.951 175.148 70.2645 70.5263 151.319 393.969 -33.5191 139.388 369.87 -104.526 111.449 345.62 -115.425 100.513 357.689 0.899825 84.937 347.362 -4.1507 85.3728 387.467 -18.3807 14.056 111.892 11.9551 
175.898 175.149 175.176 162.301 132.603 161.634 172.182 176.445 68.8326 69.7163 150.551 395.612 -34.7696 138.969 371.048 -105.537 110.289 346.876 -117.089 99.2296 360.74 0.912139 84.7961 349.513 -4.32608 84.8313 388.305 -18.8335 15.4444 115.079 12.3884 
159.742 174.72 174.231 161.176 135.418 163.93 172.518 177.624 67.6591 69.7837 150.654 397.991 -35.5249 138.711 371.735 -106.348 109.155 347.668 -118.11 98.3735 362.354 0.66573 84.701 350.114 -4.36518 84.4744 389.215 -19.0409 16.7805 116.534 12.8643 
169.686 176.043 174.971 160.663 141.438 160.89 173.886 177.716 70.2687 72.7797 147.633 395.253 -36.8651 138.391 373.036 -107.232 108.29 348.846 -119.271 98.1572 360.937 0.388044 85.0145 351.099 -3.95545 83.9209 390.162 -19.8063 14.8241 114.97 13.207 
171.846 175.681 175.839 160.262 143.756 157.247 173.911 178.047 70.9495 72.9535 145.532 392.058 -36.7581 138.467 373.782 -107.92 107.976 349.126 -120.148 98.3237 361.565 0.469098 85.4136 352.066 -3.80275 83.5411 390.326 -20.244 14.6677 115.761 13.6407 
160.682 174.881 175.99 159.511 145.501 160.524 173.534 178.188 69.8301 73.1118 147.024 395.457 -37.1456 138.43 374.151 -108.511 107.957 349.716 -120.658 97.8311 362.789 -0.0839806 85.6979 352.296 -4.05288 83.3956 390.676 -20.7117 15.3458 116.782 13.6141 
145.623 174.251 175.758 158.408 147.179 160.38 172.953 177.613 69.0792 74.0601 147.073 396.758 -37.1784 138.511 374.595 -108.893 108.199 350.356 -120.91 97.3192 363.83 -0.869073 85.8781 352.317 -4.66784 83.4487 391.495 -21.2558 16.1581 117.001 13.4193 
145.623 174.819 174.913 157.2 147.113 159.8 173.629 176.316 70.4648 75.9042 146.539 397.126 -38.1488 138.078 374.785 -109.022 108.157 350.667 -120.663 96.8284 361.605 -2.06863 85.1517 351.877 -5.39552 83.2533 392.106 -21.847 14.7793 113.871 13.0077 
145.623 174.231 177.259 153.649 144.562 157.445 173.472 176.531 70.2634 72.2622 145.354 395.8 -36.851 137.686 375.5 -108.817 109.196 351.789 -121.114 95.2858 363.002 -2.43787 82.6769 354.445 -6.20733 82.7827 393.328 -22.3183 14.0099 113.885 12.0441 
145.622 174.353 177.613 152.694 145.116 148.743 173.873 176.267 70.1311 70.1283 140.696 391.822 -35.9499 137.665 376.615 -108.771 110.056 353.367 -121.904 94.2517 364.282 -2.56075 80.9809 355.492 -6.98826 82.2479 394.132 -22.5156 13.9842 114.218 11.496 
145.623 173.16 178.354 155.023 143.165 146.95 173.81 177.365 68.6438 68.5567 139.96 392.075 -36.1122 137.333 376.504 -109.496 109.524 353.735 -122.685 94.0165 365.473 -2.7064 81.0882 354.788 -8.34421 82.1297 394.119 -22.6526 16.6051 115.954 11.5033 
161.128 172.928 178.921 158.962 143.368 141.422 173.845 177.708 67.973 67.8161 136.634 388.855 -35.9036 137.057 376.315 -110.221 109.267 353.405 -123.242 94.0911 367.568 -2.38612 81.5677 355.228 -8.82253 82.3137 394.248 -23.0513 18.4696 118.266 11.4904 
134.704 174.323 178.278 161.178 143.97 139.25 174.625 176.966 69.4325 69.4725 134.199 388.093 -35.3068 137.062 376.206 -110.534 109.264 352.981 -123.236 94.7299 366.517 -2.88234 81.9142 355.306 -9.02445 82.3514 394.576 -23.72 17.0482 116.267 11.5111 
122.194 175.258 177.631 161.389 144.447 139.038 175.217 176.571 70.0949 70.9986 133.105 387.787 -34.8212 137.329 376.097 -110.665 109.421 352.658 -123.435 95.2513 365.735 -3.79923 82.3701 355.5 -9.16173 82.4233 394.708 -24.3194 15.582 114.627 11.6249 
113.963 175.263 177.511 161.666 144.967 137.472 174.781 176.471 68.9612 70.4429 132.399 387.206 -34.2963 137.337 375.839 -111.241 109.065 351.826 -123.257 95.489 366.849 -4.10713 82.886 355.959 -9.12742 82.6417 394.716 -24.6791 15.97 115.449 11.9696 
113.52 175.976 176.667 162.028 143.441 138.417 175.577 176.537 68.935 71.3034 132.802 387.653 -35.4936 137.866 375.951 -111.547 108.944 351.759 -123.61 95.553 365.928 -5.01322 82.8992 355.318 -9.68344 82.8209 394.67 -25.1587 15.4766 114.547 12.4101 
112.941 176.894 176.165 160.293 142.9 140.01 176.497 176.876 68.8901 72.7524 133.477 387.67 -36.1187 138.09 376.411 -111.97 108.878 352.176 -124.31 95.726 364.523 -6.27224 83.0673 354.542 -9.79916 82.926 394.425 -25.5808 14.0428 113.374 12.6244 
114.954 177.565 175.599 157.325 141.879 141.569 177.297 177.368 68.411 74.1496 135.043 388.787 -37.6506 138.208 376.815 -112.538 108.64 352.712 -125.018 96.4412 362.835 -8.26864 83.7676 353.36 -10.2594 83.1558 394.034 -26.0574 12.4972 111.541 12.8541 
116.227 177.593 174.519 152.05 141.256 143.833 177.497 177.268 67.7862 75.7441 136.636 390.402 -38.7419 138.68 377.083 -112.64 108.667 353.125 -125.41 97.0319 360.408 -11.1181 84.3609 352.03 -11.0624 83.4847 393.916 -26.422 10.6696 107.964 13.1422 
116.794 177.016 174.541 154.881 142.063 145.323 176.305 177.163 66.6445 74.1454 139.073 391.218 -39.4603 139.281 377.37 -113.305 109.7 353.056 -126.007 97.9545 362.042 -11.0709 85.3009 352.682 -11.5501 84.1755 393.711 -27.1042 11.3692 109.961 13.0947 
120.25 176.32 173.663 157.912 141.88 148.377 174.948 176.561 65.8825 72.0871 142.236 392.811 -40.6467 139.742 377.47 -113.88 110.751 352.722 -126.204 98.6922 363.762 -10.7862 86.0509 353.536 -12.4318 84.9702 393.653 -27.7366 12.8849 111.989 12.915 
124.734 177.075 173.846 164.194 140.744 153.122 175.705 176.76 67.2774 73.6755 144.913 394.904 -42.0075 140.481 376.607 -114.098 111.738 351.939 -126.382 99.2652 364.747 -9.46399 86.9887 353.188 -12.6569 85.6375 393.549 -28.3346 14.6447 113.844 12.7018 
135.295 176.249 174.07 165.158 144.019 157.42 174.531 177.05 67.3758 73.069 148.929 396.625 -43.6081 140.886 376.176 -114.964 113.158 351.865 -127.107 99.7514 366.648 -8.63574 88.6109 354.391 -12.3639 86.5178 392.973 -29.0755 15.9871 117.215 12.0462 
157.865 175.149 173.474 164.697 145.856 163.296 173.093 176.473 65.1379 72.2171 154.46 400.717 -45.0213 141.472 375.784 -114.937 114.66 351.223 -126.765 100.503 368.041 -9.77018 90.0946 354.6 -13.0725 87.3874 392.683 -29.4076 17.1892 117.643 11.6399 
168.789 174.263 172.329 165.37 146.62 166.644 171.857 176.511 66.2672 72.3486 157.832 402.428 -46.1424 141.815 375.167 -115.469 115.738 350.819 -127.135 101.951 368.041 -9.60381 91.5003 354.997 -13.0047 88.3223 392.198 -30.0761 16.8628 118.083 11.1771 
173.98 173.379 173.325 166.638 148.754 168.135 171.008 176.694 67.8406 72.728 160.689 403.219 -46.6003 142.518 374.742 -115.909 116.759 350.321 -127.866 103.275 368.622 -9.00401 92.7716 356.221 -12.5308 89.4384 391.952 -30.7573 16.2535 119.379 11.0398 
179.962 172.207 175.115 167.411 149.526 169.322 169.627 175.929 70.6688 73.5798 165.453 404 -47.8957 144.263 373.502 -116.613 119.263 348.286 -128.419 107.222 368.771 -9.2123 95.8507 357.608 -13.0865 92.1175 391.918 -32.2911 15.1767 118.622 10.7476 
173.976 171.528 175.058 166.035 150.193 168.205 169.341 175.624 71.3501 74.5336 166.441 402.29 -47.9307 145.35 373.665 -116.865 120.569 347.847 -128.904 107.86 369.754 -8.6704 97.3572 358.731 -12.5327 93.2445 391.791 -32.8486 15.4454 120.453 10.8802 
176.029 171.018 174.71 164.679 149.535 166.835 169.091 175.528 71.3073 74.3616 168.326 402.07 -47.0125 146.799 374.42 -117.189 122.395 347.934 -129.023 109.259 370.252 -8.82213 98.9529 359.19 -12.4441 94.6185 391.698 -33.2252 15.2249 121.077 11.0002 
169.405 170.542 175.624 162.79 148.668 168.452 168.371 176.037 71.0403 73.798 170.225 404.942 -47.428 147.842 374.434 -117.408 123.686 348.062 -129.078 110.335 370.492 -9.50752 99.8728 359.786 -13.1172 96.0526 392.194 -33.726 15.1882 120.817 10.7427 
167.077 170.128 177.086 160.671 146.764 170.362 167.631 176.467 69.3139 72.0808 171.628 408.239 -48.034 148.917 375.255 -117.399 125.232 349.23 -129.482 111.367 371.153 -11.0341 100.764 360.563 -14.4344 97.3792 392.791 -34.0237 15.2903 120.504 10.3603 
168.674 169.824 177.241 160.015 146.239 169.864 167.066 176.014 69.3479 72.088 172.967 408.781 -47.7134 150.158 376.561 -117.268 127.336 350.15 -129.036 112.748 372.158 -11.1658 102.333 361.615 -14.6159 98.5865 393.54 -34.1723 15.3836 120.225 10.0572 
177.623 169.758 177.517 159.364 145.895 166.867 167.397 176.161 71.0317 72.6312 173.797 405.888 -47.5408 150.773 376.603 -117.708 128.989 350.143 -128.868 114.477 372.349 -10.6017 103.704 362.17 -14.4996 99.7442 394.04 -34.371 15.2334 119.384 9.3742 
172.756 169.616 177.13 157.718 145.687 165.821 166.987 175.442 70.9827 72.7005 174.17 405.596 -47.8279 151.352 377.075 -117.771 130.415 350.643 -128.601 115.854 372.671 -11.1682 104.95 362.736 -14.8447 100.679 394.617 -34.4794 15.0085 118.146 8.84705 
177.211 169.353 177.178 156.291 145.112 167.072 166.498 174.838 70.2299 72.1116 174.414 407.835 -48.2783 151.948 377.74 -117.382 131.384 351.227 -128.009 116.573 372.75 -11.8916 105.598 363.07 -15.6155 101.424 395.578 -34.2976 15.3522 116.572 8.62059 
174.001 169.353 175.551 156.563 145.913 166.823 166.389 173.704 70.1277 72.3287 174.813 409.102 -48.0574 153.043 379.06 -116.849 132.898 352.04 -127.381 117.152 374.167 -11.7703 106.455 364.49 -15.6585 102.154 396.812 -34.1357 15.6702 116.164 8.63028 
170.931 169.737 174.053 157.623 146.733 166.272 166.742 173.006 70.3526 72.6347 175.058 409.786 -47.8202 154.203 380.386 -116.792 133.864 352.798 -127.336 117.687 375.625 -11.6335 107.123 365.761 -15.8895 102.858 397.993 -34.1674 15.9849 116.266 8.99746 
168.345 169.952 173.278 158.576 147.501 165.849 167.028 172.581 70.7945 73.2306 175.424 410.581 -47.2463 155.08 381.737 -116.729 134.592 353.924 -127.372 118.124 376.903 -11.2193 107.747 366.719 -15.7838 103.387 398.976 -34.0911 16.2052 116.697 9.2124 
166.586 170.12 172.951 159.398 148.018 165.869 167.21 172.236 70.9391 73.4953 175.372 411.625 -47.0993 155.64 382.969 -116.572 135.605 355.017 -127.21 118.368 378.086 -10.9353 108.252 367.496 -15.8127 103.748 399.737 -33.9774 16.5071 116.979 9.08085 
169.939 169.843 172.151 158.837 148.542 167.283 166.979 171.608 69.9843 73.158 175.792 414.137 -47.2927 156.027 384.242 -116.518 136.495 356.365 -127.015 118.318 379.5 -11.4669 108.484 368.402 -16.1869 104.141 400.629 -34.0005 16.6751 117.159 8.82734 
171.89 169.556 171.656 158.629 148.312 168.571 166.722 171.209 68.7331 72.2739 176.249 416.531 -47.3042 156.183 385.483 -116.459 136.837 357.812 -126.919 117.944 380.356 -12.1176 108.196 368.87 -16.7013 104.297 401.34 -33.9154 16.8214 117.287 8.67669 
171.896 169.609 171.02 159.349 148.966 168.112 166.702 170.963 68.8228 71.9114 176.425 417.628 -47.102 156.403 387.116 -116.328 137.099 359.788 -126.979 117.654 381.752 -11.6925 108.132 370.051 -16.5753 104.322 402.174 -33.7919 17.0785 118.379 8.54922 
169.721 169.778 170.761 160.249 149.058 167.086 166.858 170.825 69.3 71.5373 176.191 417.42 -46.7614 156.464 388.221 -116.264 137.354 361.18 -126.836 117.597 382.293 -11.2535 107.922 370.345 -16.5705 104.252 402.799 -33.6661 17.1796 118.547 8.37033 
165.777 169.692 170.195 160.459 149.148 166.598 166.895 170.418 69.1197 71.372 175.814 417.895 -46.122 156.168 388.646 -115.917 137.623 361.617 -126.065 117.051 382.858 -10.8936 107.464 370.699 -16.0762 103.896 403.168 -33.3891 17.1201 118.515 8.12588 
159.964 169.794 170.01 160.883 149.07 163.295 167.126 170.751 69.3821 71.0662 173.748 415.72 -45.5749 155.557 389.509 -115.448 137.45 362.687 -125.443 116.674 383.214 -10.0817 107.072 370.879 -15.485 103.31 403.663 -32.7778 17.2505 118.466 7.84687 
157.519 170.406 170.126 161.732 149.552 160.579 167.755 171.421 70.8463 72.4778 172.692 413.947 -44.2061 155.061 390.879 -115.506 136.491 364.113 -125.744 116.369 384.35 -8.69603 107.092 372.481 -14.2173 102.752 404.768 -32.3865 17.1675 119.339 8.04507 
154.217 170.693 170.488 162.501 150.071 160.534 168.188 172.016 70.8225 72.642 171.903 414.4 -43.4407 154.418 391.389 -115.309 134.897 364.448 -125.845 115.126 385.513 -7.92144 105.995 373.496 -13.1524 101.959 405.593 -32.0116 16.9677 120.541 8.59402 
158.216 170.882 173.571 161.657 149.93 161.519 169.159 174.455 70.181 72.1629 171.129 417.298 -43.4077 152.902 392.848 -115.42 132.293 366.115 -126.469 114.436 386.203 -7.85649 105.301 374.211 -12.8538 100.994 406.649 -31.4747 17.1514 121.203 9.09507 
161.625 171.036 175.353 160.833 150.006 162.266 169.592 176.056 69.8184 72.3902 169.706 418.546 -44.0438 151.391 394.286 -115.268 130.19 368.374 -127.005 113.144 386.977 -7.50148 104.144 375.229 -11.8428 99.6657 407.634 -30.9945 16.6045 122.051 9.16893 
158.79 170.972 175.209 160.694 149.662 162.066 169.553 176.523 69.2183 72.2184 168.52 419.997 -42.874 150.096 396.162 -114.763 128.13 370.386 -126.929 111.371 388.894 -6.92822 102.602 376.952 -10.7381 98.1534 408.985 -30.4344 16.2426 123.399 9.70656 
154.461 170.782 174.077 160.999 148.748 162.542 169.344 176.45 68.8912 72.2907 167.323 421.267 -40.7098 148.773 397.375 -113.883 125.641 371.294 -126.313 109.305 390.074 -6.0007 100.152 378.03 -9.21224 96.3587 410.256 -29.5111 15.3722 124.076 10.532 
153.756 171.194 173.255 161.714 149.529 162.844 169.43 175.713 69.9614 73.4295 165.336 422.14 -40.1992 147.385 398.752 -113.401 123.733 372.071 -126.025 107.773 391.224 -4.91061 98.4432 379.371 -8.13922 94.5038 412.185 -28.9566 15.1568 123.283 11.0245 
154.798 171.719 173.622 162.848 150.059 162.54 170.228 175.421 70.6706 73.6443 162.76 421.557 -39.6557 145.589 399.527 -113.26 120.741 372.337 -125.854 105.775 391.802 -4.08747 95.7933 380.217 -7.2977 92.1746 413.411 -28.4208 14.5762 122.917 11.8243 
158.15 171.755 173.357 163.094 152.098 163.72 169.935 175.402 68.7015 73.5541 159.963 423.197 -39.7937 143.913 400.906 -112.647 118.215 374.112 -125.528 102.392 393.247 -4.46961 92.8984 381.334 -6.93923 89.775 414.963 -27.8701 14.7941 123.249 12.1841 
158.219 171.831 173.534 162.399 151.525 162.605 169.478 175.592 68.9613 73.5224 157.145 423.998 -40.5084 141.787 403.405 -113.114 115.407 377.213 -126.548 101.061 395.341 -5.16122 90.9865 383.875 -7.40754 87.6298 417.115 -28.0025 13.9929 122.624 12.438 
136.912 173.996 172.845 159.976 149.999 158.957 170.838 175.012 68.4547 75.1832 150.551 424.057 -39.0318 140.211 405.818 -112.903 113.05 380.226 -126.099 98.4037 395.289 -6.31499 88.5506 384.494 -7.97446 85.0639 419.639 -27.7566 13.8391 119.561 12.6371 
147.307 175.3 174.742 160.262 145.913 160.588 171.757 175.997 68.9207 72.0586 147.378 426.442 -37.4282 137.543 408.758 -111.23 110.659 383.213 -125.206 95.7197 396.053 -5.43018 83.7736 385.262 -8.22036 81.5503 421.386 -26.1278 12.7901 117.882 12.5864 
145.615 174.212 175.591 160.347 147.808 150.68 170.876 176.802 68.4923 71.2805 140.48 419.74 -35.3659 135.014 410.119 -110.488 109.499 383.965 -125.001 92.8089 396.98 -4.56708 81.5106 385.783 -7.10942 78.665 421.754 -25.726 12.6342 118.476 12.2926 
151.786 174.567 176.545 160.514 148.702 148.854 171.625 177.182 69.851 71.4415 136.855 417.363 -35.1347 132.194 410.694 -111.063 107.217 384.538 -125.115 91.0391 398.404 -3.51893 79.4051 387.426 -6.15862 75.9257 422.53 -25.6178 12.2799 118.624 11.9652 
151.891 175.501 176.225 159.971 148.184 145.441 172.735 178.376 69.7682 69.5087 131.517 415.808 -35.2569 129.429 411.701 -110.961 104.685 386.898 -125.709 87.9615 399.438 -3.60816 75.4218 388.507 -6.92459 72.9496 423.471 -25.4715 12.3353 118.556 11.5298 
151.078 175.464 176.982 160.467 148.435 143.295 172.468 178.856 69.8712 69.5383 127.373 415.355 -35.2665 126.782 410.579 -110.738 101.728 386.175 -124.998 85.7393 401.169 -2.63394 73.0165 390.15 -5.64642 70.4696 424.389 -25.0953 12.3153 119.034 11.5128 
145.635 176.434 177.143 156.317 146.887 140.85 173.408 178.139 69.895 71.1401 121.188 412.562 -36.3786 123.488 410.14 -111.7 98.1603 386.605 -125.147 82.7882 399.602 -4.14001 70.1305 390.795 -5.96486 68.0971 425.435 -25.5915 11.6137 116.474 10.9886 
152.654 177.325 176.219 153.408 146.839 140.525 173.554 177.647 70.5399 71.647 116.738 410.811 -36.0463 120.245 412.164 -111.302 94.7153 388.702 -124.824 79.6142 400.037 -4.45803 66.5573 392.28 -6.15382 65.1341 427.07 -25.1578 11.3107 114.923 10.9378 
140.575 178.093 175.905 151.014 147.455 133.795 173.978 176.478 71.3213 73.8086 108.554 406.025 -33.21 117.195 413.42 -111.644 92.3548 390.402 -125.133 77.6037 399.658 -5.91968 64.6863 393.133 -6.77947 62.7252 428.052 -25.7093 11.1626 112.894 10.2627 
141.073 178.439 175.982 148.792 147.902 132.475 174.228 175.932 72.4322 75.1024 105.354 405.64 -32.1168 114.668 415.322 -111.913 89.9223 392.307 -125.44 75.8956 401.02 -6.28586 62.985 395.308 -6.77892 60.6107 430.067 -25.9711 11.1855 112.124 10.1054 
142.516 177.992 176.323 150.602 148.674 133.597 173.463 175.516 71.2919 76.0994 102.425 407.338 -31.6978 112.875 419.826 -110.671 88.4615 396.442 -124.877 73.4795 404.984 -6.2523 61.5573 397.665 -7.09742 58.5897 433.372 -25.2567 11.3422 112.344 10.0836 
144.704 178.87 176.156 151.228 149.723 135.363 173.447 175.105 70.3654 78.0973 101.099 410.654 -34.2576 109.739 422.851 -111.244 84.7556 399.263 -125.615 71.2588 406.887 -7.26961 60.6381 399.579 -7.04352 56.2374 435.304 -25.3649 11.764 112.215 10.5129 
146.343 179.973 176.865 150.551 150.823 136.838 174.108 175.459 70.8397 78.9438 100.148 412.545 -34.4948 107.294 425.578 -111.606 81.7092 401.348 -126.191 69.6396 408.532 -7.0331 59.3441 401.656 -6.34123 53.9232 436.803 -25.2605 11.9441 112.761 11.1809 
147.601 179.878 176.733 151.176 153.629 139.617 173.781 174.823 68.4033 79.7182 99.7289 415.031 -34.9495 105.718 427.418 -111.346 79.4681 402.219 -126.318 65.8954 408.335 -8.26177 57.2998 402.513 -6.15952 51.4098 437.753 -25.204 13.4964 112.132 11.9863 
151.432 179.609 176.457 148.095 154.977 145.992 173.334 174.635 66.803 80.0176 99.2163 420.678 -37.3608 104.491 429.464 -109.941 78.0184 404.975 -125.863 63.0854 407.409 -11.8576 52.7146 402.871 -6.60877 49.2966 439.861 -24.7816 11.7232 107.067 11.8017 
148.033 179.908 176.688 149.47 154.768 144.52 173.503 174.629 69.6417 79.155 96.6902 419.943 -35.5197 102.348 431.7 -109.657 76.5346 407.503 -126.096 60.5264 408.39 -10.2211 49.187 404.137 -7.32209 47.0277 441.13 -25.049 11.5226 108.903 11.4156 
148.063 179.533 177.27 147.921 154.081 142.917 173.898 174.905 70.521 78.032 95.5065 422.308 -34.8599 99.7087 434.243 -110.001 74.2225 408.937 -126.12 59.1303 410.276 -8.9254 47.7405 406.166 -6.5606 44.5446 442.285 -24.8907 12.0384 110.012 11.7243 
142.944 179.737 180 153.075 152.272 138.715 175.175 176.279 65.0159 72.7676 93.3738 424.356 -31.7566 95.9628 440.545 -109.646 71.7619 410.942 -124.399 55.8308 416.176 -7.20034 46.1744 408.56 -6.1287 42.6491 442.696 -24.0208 12.2621 117.026 13.1036 
143.431 175.356 180 155.976 153.278 138.097 173.833 177.513 64.2759 71.7183 92.3047 425.988 -30.6367 93.9173 442.642 -109.185 68.3131 412.611 -123.614 52.7165 418.589 -5.8346 43.8764 410.131 -5.2972 40.5159 443.746 -23.7912 12.8429 120.662 14.2784 
147.279 171.343 180 157.414 155.151 138.647 171.227 176.702 65.6401 71.8194 90.4519 428.153 -30.9075 93.5062 445.525 -107.866 66.8648 416.201 -123.85 51.1259 421.177 -4.25939 42.2079 412.032 -4.96582 38.7481 446.051 -23.4287 13.0012 122.335 14.9605 
149.864 174.941 180 161.411 155.806 139.007 169.218 176.306 64.014 70.0096 89.326 430.034 -32.0274 92.9866 446.556 -107.7 64.5305 417.155 -124.68 48.7224 422.756 -4.69468 40.4578 412.742 -5.94903 36.9158 446.627 -23.8272 14.127 124.428 16.4165 
142.033 172.851 180 161.237 152.909 138.373 170.165 176.742 60.0879 64.4781 90.1963 436.181 -29.8924 90.1977 449.853 -106.874 61.3518 418.226 -123.965 45.843 424.109 -5.94121 37.9663 413.889 -7.82026 35.4507 447.509 -23.2638 15.9822 125.998 17.7832 
149.507 172.186 180 160.671 150.463 143.041 169.092 176.029 59.5134 63.8879 90.0251 441.115 -31.2801 88.3405 449.895 -106.189 61.5982 420.112 -122.925 43.7673 426.493 -6.60062 35.7806 416.03 -9.06948 33.5759 450.39 -23.0208 16.4982 123.427 15.4617 
163.441 172.189 180 158.51 149.187 148.827 167.764 175.18 61.1903 66.6437 89.9919 445.6 -34.0942 87.454 448.96 -105.655 60.8509 421.86 -122.467 42.3007 427.528 -8.14446 32.9544 418.104 -10.3798 31.9631 453.96 -23.4079 15.0175 117.939 13.8266 
160.292 172.276 180 152.952 147.648 148.332 168.56 177.088 51.7421 56.3259 88.8818 448.39 -35.1975 85.1645 450.428 -106.271 60.0776 423.827 -122.5 38.9442 428.28 -14.1872 29.0408 419.854 -15.3125 31.0928 454.656 -23.6417 17.2253 115.718 12.6245 
143.717 176.704 180 140.202 149.294 141.976 170.945 179.977 50.8129 51.9009 84.8367 448.159 -33.4095 84.9013 454.391 -105.935 60.9305 430.511 -123.021 36.6101 430.819 -14.6712 25.9429 423.364 -17.7159 30.3954 456.099 -23.5889 19.9104 118.676 11.2292 
130.165 178.044 180 145.218 149.821 136.865 171.502 179.975 52.9269 51.648 81.3036 447.108 -29.5021 86.0552 457.346 -105.103 61.5087 432.656 -122.481 35.4879 432.712 -12.7527 23.8942 425.88 -17.0985 29.0456 457.796 -23.5708 19.9575 119.59 12.2918 
123.68 177.189 180 140.644 149.01 132.907 174.151 179.969 51.625 48.2656 78.488 447.63 -28.5979 85.2772 461.624 -105.327 60.8916 434.755 -122.59 34.1006 434.141 -12.683 23.4622 426.739 -18.1068 27.4201 458.067 -23.6564 23.8184 121.11 13.624 
127.025 171.045 180 143.03 150.184 128.743 175.988 179.94 52.9988 50.7074 75.8402 446.63 -28.3515 88.0761 470.066 -100.929 61.749 439.885 -122.028 33.2489 434.57 -11.5433 24.0234 426.283 -17.3271 26.0387 458.282 -23.5519 23.9948 121.719 18.5368 
135.679 167.425 180 131.55 149.721 132.589 175.597 179.943 48.6622 50.2594 75.4289 452.551 -31.0791 87.354 470.861 -100.115 61.5224 442.724 -121.112 32.436 434.083 -16.7687 21.986 426.405 -18.0546 25.2185 460.86 -22.8888 19.1437 113.225 17.1774 
148.003 165.822 172.635 140.479 135.657 141.461 168.239 158.56 85.2224 100.337 45.1148 512.108 -43.9486 44.2083 453.897 -114.566 75.6473 460.202 -106.501 49.3251 507.698 -25.2213 72.0809 496.447 -24.124 25.656 466.528 -14.8992 25.3095 80.3294 12.9426 
163.958 179.372 179.184 90.5335 155.198 150.512 166.452 171.403 56.8778 74.8693 69.0248 462.345 -40.4217 78.0765 465.172 -101.236 56.5903 440.226 -118.151 31.0568 430.734 -39.885 19.0577 428.469 -10.4264 18.5488 467.634 -20.552 41.0908 60.8578 10.2091 
165.598 174.003 180 134.444 146.567 153.972 171.753 178.692 46.2819 47.3832 77.6953 464.646 -36.2916 67.7488 465.937 -104.449 52.9742 443.017 -115.707 22.5416 444.246 -10.3263 12.5343 432.743 -13.6355 17.8101 463.201 -19.599 21.9125 125.66 5.64563 
