178.669 168.484 159.756 151.091 150.311 175.844 158.922 154.483 73.88 78.1771 -162.27 411.992 -14.0931 -204.833 384.507 -82.7503 -239.334 369.023 -83.9914 -246.897 390.48 6.51602 -264.101 395.204 9.50011 -247.262 435.336 -3.91646 6.24692 78.1395 12.6461 
179.065 168.155 159.15 149.856 150.289 175.297 158.377 153.881 73.7901 78.1678 -162.489 411.303 -13.5968 -204.752 383.12 -81.5999 -238.696 367.689 -82.9569 -247.258 388.449 6.18252 -264.105 393.803 10.0026 -247.302 434.141 -3.40727 6.29487 76.497 12.2902 
179.157 167.636 158.296 148.406 150.416 174.872 157.508 152.934 74.3939 78.1664 -162.614 410.115 -13.2966 -205.093 381.392 -80.409 -238.342 366.214 -81.6837 -247.469 385.81 5.43787 -264.087 392.355 10.4963 -247.223 432.88 -2.76066 6.58809 73.7213 11.7817 
179 167.461 158.258 147.484 150.536 174.816 157.392 152.968 74.6392 77.7641 -162.573 408.37 -12.8211 -205.028 379.802 -79.4842 -238.106 364.922 -81.063 -247.283 384.205 5.19294 -264.064 391.489 10.8007 -247.052 431.618 -2.35624 6.76173 72.7167 11.572 
178.634 167.587 158.127 148.969 150.708 174.685 157.125 153.178 73.6305 77.4694 -162.598 406.583 -12.4603 -204.462 378.428 -78.5204 -237.925 363.56 -80.5368 -246.505 384.204 6.44115 -263.64 390.564 11.3325 -246.778 430.196 -2.05825 6.11237 74.5394 11.7976 
178.494 167.414 158.585 148.672 150.85 174.792 156.757 153.568 74.2016 77.3782 -162.421 405.717 -12.027 -204.33 377.012 -77.6771 -238.077 362.367 -80.2065 -246.423 382.862 6.8741 -263.577 389.887 12.1197 -246.711 429.114 -1.64659 6.44129 74.4305 11.8208 
178.561 166.707 158.067 148.198 150.56 174.844 156.713 154.269 75.5762 77.5275 -162.13 404.52 -11.2917 -204.187 375.669 -77.3822 -238.505 361.854 -80.9747 -246.177 380.547 7.17255 -263.507 388.506 12.6383 -246.588 427.814 -1.09934 6.72188 74.6929 11.8274 
178.165 166.231 158.074 148.593 150.18 175.047 156.344 154.591 75.6601 77.282 -161.924 403.07 -10.3177 -203.885 374.398 -76.6757 -238.813 361.306 -81.3261 -246.14 379.131 7.815 -263.602 387.208 13.0337 -246.348 426.451 -0.59329 6.57765 75.8218 12.0216 
177.57 166.268 158.506 149.928 149.77 175.806 156.531 154.943 74.5004 77.1262 -161.281 402.027 -9.80989 -203.971 373.074 -76.4004 -239.159 359.91 -80.8879 -246.778 379.215 9.85788 -263.589 386.097 13.6373 -246.15 425.118 -0.216595 6.76108 78.4257 12.231 
177.523 166.303 158.751 149.719 149.1 176.169 157.052 155.282 74.3489 77.2948 -160.585 401.302 -9.07582 -204.078 371.901 -76.3951 -239.418 359.097 -80.9484 -247.415 377.987 10.4424 -263.928 384.609 13.9441 -246.011 424.031 0.298613 6.8946 78.8987 12.2096 
177.447 166.331 159.366 148.925 148.532 176.633 157.596 155.889 74.6738 77.2923 -159.872 400.478 -8.33037 -203.89 370.567 -76.2963 -239.715 357.822 -80.9145 -247.786 376.225 10.6596 -264.251 383.205 14.3694 -245.813 422.979 0.850056 6.81023 78.4001 12.456 
177.644 166.635 159.661 147.51 148.787 176.721 157.664 155.671 75.0906 77.5266 -159.151 399.582 -7.45439 -202.932 368.473 -75.2041 -238.61 355.27 -79.6629 -247.354 373.837 10.1238 -263.89 381.575 15.1415 -245.448 421.698 1.32344 6.79675 75.7782 12.4201 
177.799 166.462 159.56 148.014 148.794 176.598 157.647 155.484 75.3333 77.7725 -158.452 398.439 -6.93332 -202.214 366.673 -74.8048 -237.392 352.783 -78.7492 -246.237 372.22 10.6536 -262.982 379.595 15.4472 -245.017 420.133 1.66434 6.51296 75.1471 12.2105 
177.816 166.349 160.008 148.297 148.954 176.572 157.104 155.791 74.7897 77.6745 -157.715 397.338 -6.45483 -201.486 364.661 -73.7365 -236.305 350.234 -77.7436 -245.252 371.325 11.7199 -262.144 378.056 16.2865 -244.511 418.455 2.00105 6.21505 75.6289 12.0697 
177.767 166.016 159.85 149.694 148.956 176.916 156.467 155.601 73.382 77.1307 -156.739 394.705 -5.39647 -200.769 361.2 -72.0772 -235.339 346.36 -75.7326 -245.023 370.519 14.1404 -261.855 375.942 17.5168 -243.9 415.676 2.52886 6.13515 77.6217 12.0809 
178.202 166.106 159.578 148.777 148.934 176.714 156.183 154.506 73.5126 77.0728 -156.156 393.23 -5.83594 -200.132 358.958 -71.6135 -234.116 343.735 -74.4827 -244.381 368.133 13.8763 -261.273 373.879 18.0093 -243.384 413.686 2.7682 5.88681 75.7413 11.8661 
178.403 165.928 158.36 150.057 149.272 176.998 155.97 153.214 73.5783 77.2746 -154.92 390.804 -6.02324 -199.055 356.258 -70.9524 -232.974 340.379 -72.6621 -242.887 365.901 14.8979 -259.826 371.243 18.7007 -242.314 411.091 3.07234 5.87569 75.491 12.1789 
178.308 165.666 157.776 150.654 149.008 177.002 155.53 153.367 72.9191 76.9416 -154.376 387.882 -5.69236 -198.514 354.516 -70.5226 -232.83 339.152 -72.9772 -242.077 364.582 15.3708 -259.141 369.202 18.5165 -241.573 409.008 3.37273 6.0288 76.9173 12.2508 
178.571 165.289 157.884 150.475 148.722 176.834 155.447 153.734 72.9339 76.5607 -153.658 385.187 -5.04986 -197.288 352.684 -70.3066 -232.219 337.462 -73.465 -240.975 362.352 15.212 -258.49 367.033 18.2984 -240.698 406.936 3.56221 5.63184 77.1046 12.5698 
178.853 164.962 158.188 150.81 148.437 176.815 156.133 154.867 71.9283 75.8825 -152.845 383.026 -4.60876 -196.711 350.981 -70.8673 -232.151 336.292 -74.5277 -240.901 361.577 15.769 -258.34 365.561 18.0908 -240.049 405.18 3.59155 6.23536 79.2913 12.6992 
179.083 165.183 159.518 148.166 147.749 176.772 156.989 156.496 71.3743 75.063 -152.44 382.047 -3.88202 -196.015 349.736 -70.9124 -232.033 335.761 -75.7979 -241.733 360.079 15.1641 -258.878 365.014 18.3732 -239.771 404.153 3.80916 5.76485 79.2944 12.8059 
179.333 165.134 160.423 149.712 146.982 176.687 157.505 157.328 71.06 74.4303 -151.929 380.436 -3.85542 -196.118 347.964 -71.1943 -232.093 334.556 -76.4616 -241.869 359.636 16.5175 -259.106 364.064 18.6027 -239.455 402.7 4.01832 6.34607 81.6105 12.5719 
179.598 165.31 160.744 151.497 146.403 176.565 157.993 157.691 71.0533 74.3168 -151.761 378.712 -3.66494 -196.473 346.939 -71.4927 -232.266 334.118 -76.9036 -242.059 359.64 18.1214 -258.972 363.34 18.7399 -239.203 401.601 4.22497 7.95948 84.3411 12.3154 
179.725 165.538 161.198 151.831 145.983 176.368 158.268 158.072 71.779 74.7649 -151.708 377.34 -3.14529 -196.351 346.095 -71.6051 -232.336 333.55 -77.3414 -241.767 358.528 18.9272 -258.668 362.169 19.0429 -238.893 400.584 4.48527 8.371 85.4304 12.3727 
179.686 165.605 161.283 151.807 146.071 176.453 158.413 158.085 72.4502 74.7667 -150.89 375.108 -2.78931 -195.572 344.461 -71.7677 -231.868 331.757 -77.6336 -240.655 356.162 19.1429 -257.77 360.171 19.2057 -238.051 398.632 4.6557 8.17177 85.5116 12.6046 
179.754 166.124 161.652 150.266 146.155 176.455 158.799 157.92 72.8511 74.678 -150.117 372.885 -2.63908 -194.596 342.75 -72.028 -230.931 330.001 -78.0313 -239.986 353.281 18.2 -256.99 358.257 19.0166 -237.212 396.731 4.70256 7.48465 84.0408 12.6277 
179.615 166.838 161.815 148.646 146.286 176.462 158.212 157.004 72.6453 74.2453 -149.291 370.985 -3.3541 -193.738 341.218 -72.1656 -229.987 328.555 -78.3553 -239.306 350.428 16.2535 -256.313 356.373 18.5412 -236.425 394.81 4.59413 6.50534 81.5274 12.5884 
179.823 166.765 161.568 147.408 146.222 175.929 158.025 156.29 73.0753 74.2511 -148.837 369.295 -3.98708 -192.696 339.362 -72.3499 -228.169 326.371 -78.5009 -237.958 347.533 14.6788 -255.217 353.864 17.6185 -235.72 392.904 4.36743 6.08999 79.0346 12.1018 
179.975 166.42 160.721 147.752 146.318 175.558 157.572 155.114 73.5243 74.627 -148.429 367.33 -4.60004 -192.147 337.413 -72.7161 -226.409 324.248 -78.0855 -237.008 345.259 13.8941 -254.185 351.6 16.7914 -235.062 391.076 3.97819 6.31714 77.499 11.3297 
179.687 165.86 160.089 147.065 146.078 175.277 157.64 154.545 74.3822 74.9758 -147.722 364.774 -5.30163 -191.308 334.832 -73.5345 -225.021 321.46 -78.2724 -235.796 341.941 12.6534 -253.125 348.704 15.7883 -234.097 388.761 3.50809 6.15931 75.5985 10.9542 
179.637 165.804 159.192 148.174 145.403 174.988 157.853 153.933 75.0459 75.1388 -146.792 359.096 -7.11491 -190.659 330.656 -75.5879 -224.266 317.541 -79.5382 -234.743 337.711 12.1806 -251.597 344.525 14.0798 -232.489 384.472 2.32383 7.445 76.4012 10.8719 
179.613 165.847 158.952 149.534 145.762 174.806 158.044 154.364 75.1709 75.4958 -146.382 356.411 -7.69395 -190.238 328.861 -76.6441 -224.416 316.122 -80.8116 -234.158 336.224 12.6271 -250.799 342.757 13.8611 -231.823 382.425 1.77874 8.06676 78.4565 11.1544 
179.929 165.824 158.491 150.688 146.195 174.629 158.128 153.863 74.8255 75.6273 -146.275 353.834 -8.7452 -189.959 326.95 -77.3011 -223.884 314.5 -80.8013 -233.483 335.561 13.1807 -249.627 341.452 13.4818 -231.138 380.615 1.07728 9.34439 80.0837 11.0341 
179.964 165.265 157.555 150.505 146.509 174.243 157.981 153.271 74.9668 75.999 -146.234 351.91 -9.68003 -189.484 325.25 -77.9874 -223.083 312.985 -80.9603 -232.774 334.495 13.1675 -248.539 340.079 12.8997 -230.461 379.11 0.356191 10.1653 80.8169 10.8347 
179.837 165.013 158.042 149.996 147.421 173.934 158.3 153.581 75.1739 75.9948 -146.048 350.8 -10.6053 -188.882 323.592 -78.9848 -222.009 311.404 -81.6231 -232.48 333.857 13.1899 -247.657 339.529 12.676 -230.106 377.898 -0.593738 10.7853 81.7847 10.4905 
179.827 165.147 157.95 149.213 147.439 173.679 158.992 153.153 75.6786 76.3843 -145.794 349.996 -11.4561 -188.393 322.074 -80.1382 -220.404 309.363 -81.3776 -231.871 332.566 12.8495 -246.647 338.289 12.1651 -229.628 376.652 -1.43103 11.2382 81.2959 10.0623 
179.825 165.037 156.894 147.949 147.355 173.39 159.039 152.088 75.9115 76.65 -145.197 348.073 -11.9518 -187.32 319.893 -80.4881 -218.389 306.987 -80.8659 -230.786 330.202 11.8985 -245.397 336.176 11.5667 -228.57 374.759 -2.02648 11.1698 79.8175 9.71778 
179.792 164.626 156.56 146.666 147.158 173.322 158.915 151.955 76.3176 76.918 -144.114 345.992 -12.2097 -185.666 317.563 -80.7863 -216.272 304.761 -81.4354 -229.539 327.363 10.7686 -243.977 333.686 10.73 -227.331 372.538 -2.81655 11.1431 79.0626 9.38137 
179.768 164.418 155.854 145.916 147.005 173.153 158.884 151.405 76.7879 77.0134 -143.278 343.999 -12.4647 -184.172 315.795 -81.1112 -214.345 303.016 -81.6418 -228.327 324.923 9.68929 -242.712 331.66 9.8724 -226.194 370.63 -3.52179 11.0917 78.1814 9.20836 
179.825 164.311 154.977 145.238 146.859 173.269 158.682 150.533 77.2913 77.0244 -142.219 342.434 -13.3464 -183.162 314.464 -82.058 -212.732 301.829 -82.3051 -227.357 322.492 8.11784 -241.639 329.747 8.68971 -225.209 368.905 -4.31476 11.0967 76.9103 8.90161 
179.39 164.083 153.91 146.095 147.167 174.093 158.556 148.698 78.3503 76.6866 -140.988 341.453 -14.7726 -182.664 313.299 -83.3138 -210.845 300.406 -81.8042 -226.623 320.448 7.76988 -240.708 328.389 8.0493 -224.326 367.156 -5.20874 11.5058 76.2882 8.7865 
178.962 164.261 152.221 147.075 147.608 174.813 158.809 146.996 79.1961 76.321 -139.344 340.439 -15.6938 -181.596 311.799 -84.3696 -208.892 298.315 -80.9581 -225.509 318.447 7.73658 -239.53 326.9 7.64239 -223.311 365.241 -6.01869 11.8226 75.8223 9.30529 
178.966 164.599 150.813 147.777 147.755 175.251 159.064 144.969 79.9172 76.1377 -138.195 339.127 -16.4171 -180.732 310.566 -85.3735 -207.398 296.431 -79.9029 -224.568 316.595 7.49444 -238.642 325.43 7.12053 -222.406 363.589 -6.69675 11.9127 74.9405 10.2286 
179.267 164.815 149.19 148.666 147.841 175.629 159.176 142.897 80.5058 76.03 -136.79 337.241 -16.9677 -179.68 308.882 -86.2627 -205.838 294.126 -78.8233 -223.307 314.472 7.47444 -237.447 323.52 6.76247 -221.243 361.572 -7.30463 11.9875 74.2958 11.2577 
179.161 164.863 150.109 148.831 148.514 176.372 158.857 144.331 80.0653 76.0361 -135.08 335.678 -17.2871 -178.564 307.387 -86.9042 -205.706 292.975 -80.9609 -222.217 313.115 7.1708 -236.283 321.853 6.38162 -220.187 359.512 -8.07664 12.0429 76.5741 10.8458 
175.843 165.076 150.702 149.03 149.087 176.995 158.812 145.122 79.751 75.9132 -133.628 334.798 -18.1568 -177.655 306.036 -87.6917 -205.859 291.569 -82.2231 -221.528 312.133 7.12874 -235.42 320.659 6.11526 -219.276 357.733 -8.81463 12.2323 78.4171 11.1807 
173.159 165.549 151.458 149.304 149.409 177.176 159.06 145.268 79.2791 75.5576 -132.589 333.76 -19.1552 -177.39 304.711 -88.5946 -205.973 290.202 -82.658 -221.205 311.807 7.26565 -234.886 320.008 5.79963 -218.563 356.189 -9.56972 12.5502 80.0129 11.6654 
172.112 165.934 152.006 149.865 149.649 176.988 159.18 145.055 79.0391 75.2676 -131.703 332.208 -19.9498 -176.852 303.032 -89.1447 -205.678 288.451 -82.701 -220.591 311.109 7.47842 -234.193 319.058 5.58198 -217.76 354.515 -10.2072 12.7506 81.1436 12.0949 
171.272 166.328 152.706 150.108 149.698 176.716 159.411 145.767 78.8308 75.1436 -130.749 330.952 -20.576 -176.337 301.508 -89.7989 -205.468 286.867 -83.5176 -219.761 310.1 7.47503 -233.431 317.772 5.34116 -217.053 352.82 -10.7163 12.7691 82.3938 12.2084 
170.758 166.721 154.124 150.299 149.582 176.519 159.733 147.75 78.6125 75.1252 -129.731 329.526 -20.944 -175.651 299.811 -90.2931 -205.102 285.614 -85.2416 -218.908 308.984 7.56381 -232.669 316.263 5.15782 -216.244 351.069 -11.1012 12.7367 84.3479 11.6786 
170.255 166.895 154.313 150.738 149.422 176.228 159.875 148.173 78.4793 75.1213 -128.498 327.707 -21.2689 -174.874 297.692 -90.5886 -204.411 283.549 -85.6211 -217.811 307.509 7.91152 -231.729 314.305 5.12877 -215.279 348.927 -11.4136 12.7042 85.6136 11.6831 
169.906 166.937 154.324 151.137 149.215 176.131 159.838 148.654 78.3177 75.2367 -127.076 325.728 -21.4192 -173.555 295.168 -90.5362 -203.129 281.053 -85.9447 -216.176 305.36 8.2005 -230.371 311.675 5.285 -214.047 346.437 -11.5175 12.4991 86.459 11.5017 
169.599 167.035 154.03 151.358 149.027 176.052 159.894 148.756 78.1283 75.234 -125.693 323.553 -21.5204 -172.213 292.361 -90.3414 -201.884 278.037 -85.5407 -214.618 302.958 8.59254 -229.004 308.957 5.614 -212.747 343.764 -11.4983 12.3589 86.836 11.685 
169.369 167.104 154.353 151.436 148.968 175.988 159.963 149.474 77.5201 74.9804 -124.435 321.539 -22.0221 -171.212 290.042 -90.5218 -201.072 275.815 -86.1146 -213.374 301.11 8.63717 -227.766 306.728 5.68718 -211.588 341.36 -11.5863 12.435 87.7796 11.5448 
169.307 167.2 155.562 151.414 148.911 175.821 160.047 150.548 77.0016 74.7372 -123.174 319.674 -22.5655 -170.201 287.646 -90.6744 -200.344 273.402 -86.8145 -212.259 299.134 8.63654 -226.642 304.492 5.80339 -210.492 338.995 -11.6352 12.4442 88.4842 11.4248 
169.19 167.404 157.901 151.254 148.969 175.612 160.173 152.283 76.4131 74.4497 -122.3 317.96 -23.1984 -169.318 285.074 -90.5857 -199.866 271.068 -87.8621 -211.587 297.493 8.57795 -225.866 302.611 5.84539 -209.675 336.819 -11.7662 12.5217 89.4023 11.0871 
169.323 167.414 159.242 151.281 149.002 175.593 160.106 153.631 76.0654 74.2734 -121.556 316.006 -23.7485 -168.335 282.594 -90.4836 -199.221 268.86 -88.8902 -210.734 295.789 8.48578 -224.979 300.674 5.74172 -208.811 334.728 -11.9515 12.5956 90.1987 10.761 
169.313 167.566 160.162 151.163 148.695 175.49 160.373 155.072 76.0068 74.3192 -120.532 313.629 -23.9548 -167.348 279.767 -90.6254 -198.631 266.406 -90.2034 -209.948 293.4 8.30865 -224.222 298.16 5.50339 -207.849 332.289 -12.1782 12.5636 90.9423 10.5168 
169.27 167.641 161.181 151.485 148.876 175.544 160.539 156.076 75.7955 74.2494 -119.962 311.007 -23.81 -166.366 276.808 -90.1144 -197.917 263.788 -90.4441 -209.292 291.86 8.83939 -223.497 296.278 5.73495 -206.943 329.986 -12.2813 12.7422 92.2661 10.3998 
169.755 167.746 161.992 151.758 148.963 175.936 160.676 156.943 75.574 74.1759 -119.376 308.26 -23.1907 -164.818 273.947 -89.3937 -196.509 260.98 -90.4779 -208.368 290.339 9.28259 -222.515 294.357 5.8258 -205.976 327.728 -12.3672 12.9888 93.2586 10.3203 
170.082 167.825 162.777 151.896 149.157 176.151 160.748 157.828 75.2972 74.007 -118.913 306.431 -22.9964 -163.848 271.634 -88.9834 -195.505 258.897 -90.8367 -207.765 289.328 9.45861 -221.831 293.018 5.80617 -205.372 326.02 -12.5595 13.1895 94.1342 10.049 
170.278 167.965 163.167 151.996 149.244 176.188 160.848 158.307 75.1193 73.9056 -118.488 304.763 -22.9948 -162.965 269.31 -88.606 -194.387 256.744 -90.8784 -207.223 288.161 9.63814 -221.25 291.602 5.84967 -204.804 324.334 -12.6421 13.3105 94.5063 9.74515 
170.465 168.092 163.294 151.625 149.133 176.097 161.048 158.492 75.1358 74.1456 -118.136 303.471 -22.7751 -162.093 267.159 -88.2069 -193.191 254.56 -90.5252 -206.788 286.658 9.63615 -220.804 289.995 5.87516 -204.363 322.789 -12.6679 13.2246 94.0815 9.51017 
170.669 167.96 162.536 151.06 148.872 176.103 161.02 157.78 75.2356 74.486 -117.795 302.29 -22.4965 -161.265 265.02 -87.6915 -191.94 251.976 -89.2879 -205.955 284.302 9.4814 -220.131 287.801 6.10685 -203.909 321.129 -12.4632 12.7901 92.3329 9.43962 
170.853 167.724 161.903 150.519 148.641 176.14 160.935 156.742 75.6195 74.7753 -117.432 300.675 -22.4914 -160.825 262.906 -87.5245 -190.868 249.49 -88.0475 -205.248 281.608 9.26386 -219.475 285.437 6.09122 -203.405 319.311 -12.374 12.5863 90.471 9.35405 
170.993 167.762 162.056 150.687 148.951 176.1 161.134 156.193 76.3321 74.8838 -117.236 298.578 -22.293 -160.576 260.796 -87.5232 -190.297 247.148 -87.1395 -205.127 279.755 9.7973 -219.249 283.864 6.32309 -202.999 317.535 -12.3926 12.672 90.1693 9.49073 
170.852 167.935 162.514 150.997 149.035 176.064 161.496 156.338 76.7484 74.908 -116.833 296.571 -22.3835 -160.615 258.852 -87.9699 -190.313 245.292 -87.2434 -205.149 278.562 10.2152 -219.155 282.524 6.27742 -202.679 315.818 -12.6317 12.9366 90.9601 9.55851 
170.701 168.29 163.246 151.426 149.36 176.103 161.923 157.15 77.0128 75.007 -116.28 294.31 -22.7117 -160.884 256.993 -88.7035 -190.818 243.858 -88.2727 -205.141 277.593 10.6111 -219 281.262 6.26262 -202.338 314.03 -12.8534 13.2688 92.5208 9.47401 
170.732 168.936 164.206 151.76 149.527 176.089 162.688 158.304 77.2653 75.1829 -116.009 292.573 -23.1678 -161.167 255.273 -89.518 -191.235 242.256 -89.3142 -205.167 276.675 11.0034 -218.93 280.027 6.37712 -202.205 312.428 -13.0384 13.4887 93.8222 9.41569 
170.716 169.336 164.313 152.024 149.37 175.961 163.112 158.551 77.5286 75.4359 -115.9 290.525 -23.6552 -161.431 253.561 -90.203 -191.463 240.706 -89.8978 -205.086 275.314 11.1992 -218.813 278.432 6.31765 -201.974 310.723 -13.1187 13.6909 94.4316 9.3726 
170.678 169.536 164.086 152.136 149.061 175.896 163.457 158.571 77.7528 75.5459 -115.966 288.416 -23.8196 -161.65 251.812 -90.6957 -191.718 239.014 -90.0799 -205.124 273.52 11.4245 -218.861 276.572 6.36251 -201.82 308.89 -13.07 13.7866 94.7358 9.47917 
171.387 169.934 164.764 152.269 148.885 175.934 164.094 159.431 77.846 75.6601 -116.306 286.643 -24.2903 -161.918 250.21 -91.4729 -192.26 237.445 -90.9336 -205.474 272.308 11.5298 -219.151 275.112 6.26552 -201.892 307.362 -13.2228 13.9606 95.4906 9.5825 
172.234 170.346 165.138 152.469 148.648 176.075 164.721 160.109 77.796 75.8268 -116.423 284.63 -24.9985 -161.981 248.404 -92.4568 -192.655 235.523 -91.9054 -205.492 270.702 11.5786 -219.193 273.11 6.24149 -201.85 305.377 -13.3263 14.0797 96.23 9.76664 
173.001 170.758 165.605 152.761 148.428 176.401 165.251 160.903 77.4534 75.8407 -116.705 283.035 -25.6754 -161.546 246.792 -93.2399 -192.65 233.538 -92.8515 -205.204 269.433 11.5203 -219.004 271.189 6.15433 -201.874 303.534 -13.5797 14.2459 97.1387 9.9991 
173.027 170.678 165.256 152.387 147.906 176.656 165.2 160.671 77.0981 75.9385 -116.906 281.913 -26.4035 -161.989 245.632 -93.9142 -193.458 232.27 -93.2026 -205.189 267.464 11.0093 -219.039 269.148 5.97805 -202.115 301.921 -13.6043 14.1971 96.7647 10.2549 
173.92 170.627 165.289 152.22 147.535 176.5 165.132 160.7 76.7046 75.7641 -117.396 280.962 -26.9268 -162.453 244.313 -94.1309 -194.057 231.203 -93.5298 -205.458 265.956 10.5436 -219.427 267.541 5.67306 -202.489 300.572 -13.7295 14.1405 96.6784 10.1868 
174.959 170.67 165.35 151.864 146.964 176.207 165.323 160.797 76.3815 75.4268 -117.656 279.782 -27.3607 -163.061 242.875 -94.4804 -194.686 229.976 -93.9031 -206.013 264.081 10.1601 -220.04 265.825 5.45724 -202.804 299.049 -13.7231 14.0287 96.4415 10.1177 
175.936 170.687 165.461 152.071 146.74 175.96 165.351 160.604 76.1267 75.0054 -117.898 277.927 -28.0888 -163.25 241.146 -94.8343 -194.607 228.166 -93.9491 -205.964 262.196 9.96727 -220.117 263.9 5.31361 -202.831 297.129 -13.8966 13.9799 96.4335 10.0486 
177.339 170.765 165.433 152.412 146.294 175.851 165.355 160.345 75.6575 74.6639 -118.018 275.71 -28.7804 -163.367 239.535 -95.2714 -194.353 226.439 -94.092 -205.84 260.454 9.68759 -220.085 261.829 5.02511 -202.74 295.136 -14.0401 14.1514 96.4811 9.94624 
179.866 170.787 165.66 152.395 145.827 175.847 165.438 160.303 75.5618 74.7632 -118.175 274.202 -29.0953 -163.777 238.579 -95.9666 -194.854 225.385 -94.5301 -206.094 258.82 9.30082 -220.391 260.01 4.6044 -202.978 293.623 -14.2164 14.2846 96.4515 10.1029 
176.691 170.687 165.63 151.802 145.536 176.159 165.291 160.099 75.4209 74.9281 -118.671 272.945 -29.4456 -164.558 237.472 -96.2536 -195.915 224.314 -94.6678 -206.579 256.807 8.72963 -220.914 258.225 4.44949 -203.491 292.171 -14.2504 13.9782 95.7693 10.277 
176.04 170.482 165.224 151.689 145.572 176.431 164.888 159.457 75.2431 74.9644 -118.581 271.629 -29.7568 -165.036 235.695 -96.0281 -196.186 222.521 -94.3034 -206.362 254.544 8.49845 -220.868 255.968 4.57927 -203.672 290.25 -14.1871 13.6947 95.1754 10.1636 
175.678 170.433 165.732 151.853 145.182 176.54 164.732 159.626 75.0317 74.8879 -118.681 269.684 -30.0577 -165.272 233.808 -96.1024 -196.132 220.728 -94.3813 -206.457 252.639 8.30104 -221.004 253.748 4.25035 -203.844 288.192 -14.3133 13.9621 95.2166 9.97585 
174.816 170.555 165.827 151.782 145.461 176.832 165.021 159.812 75.3676 75.0005 -118.544 267.643 -30.1985 -165.631 232.381 -96.88 -197.071 219.103 -95.0553 -206.778 250.388 8.27604 -221.356 251.691 4.18773 -204.003 286.126 -14.341 13.8653 95.5094 10.4168 
173.812 170.435 165.527 150.925 145.626 177.279 164.839 160.144 75.6904 75.176 -118.527 265.898 -30.1179 -165.914 231.031 -96.929 -197.97 217.963 -96.1764 -206.914 247.532 7.98721 -221.481 249.49 4.37826 -204.29 284.215 -14.0389 13.3451 95.2308 10.3963 
173.794 170.307 165.705 151.169 146.281 177.201 164.547 160.153 75.7196 75.1499 -118.961 264.245 -30.113 -166.346 229.153 -96.4851 -198.285 216.296 -96.2061 -206.917 245.724 8.29172 -221.524 247.528 4.64218 -204.71 282.296 -13.8837 13.4146 95.6694 10.115 
173.73 170.255 165.246 150.556 146.435 177.203 164.609 160.143 75.9663 75.1318 -119.377 262.479 -30.0544 -166.944 227.706 -96.7503 -199.363 215.095 -96.7856 -207.417 243.521 8.13297 -222.04 245.624 4.46516 -205.255 280.511 -13.7488 13.3814 95.6938 10.2502 
173.594 170.164 164.766 149.718 146.883 177.332 164.381 160.073 76.2101 75.1637 -119.729 261.03 -30.5728 -167.566 226.365 -96.932 -200.444 213.801 -97.3635 -207.315 240.904 7.59956 -222.073 243.63 4.64185 -205.786 278.762 -13.6155 12.6804 94.9245 10.3588 
173.668 169.952 165.016 150.001 147.26 177.09 163.663 159.787 75.8449 74.8699 -120.846 259.551 -31.0663 -169.142 224.729 -96.3024 -201.387 212.701 -96.9363 -207.734 240.177 7.64033 -222.497 242.592 4.59279 -206.712 277.461 -13.5546 13.0072 95.093 9.76132 
174.227 169.6 164.413 148.906 147.765 176.458 163.188 159.362 75.5645 74.6725 -122.145 256.458 -31.2669 -170.149 220.7 -95.5397 -201.869 209.336 -96.8456 -208.392 236.341 6.95349 -223.121 239.128 4.42471 -207.821 274.018 -13.5262 12.689 94.1314 9.12067 
