152.938 169.178 170.981 174.27 160.901 152.57 162.119 167.801 166.37 83.8268 110.965 443.409 -9.51896 115.039 438.233 -78.319 90.4218 419.364 -96.0748 71.538 400.13 -71.0464 49.0264 420.116 5.38054 52.5468 462.066 -4.65765 76.6771 16.3978 8.99415 
153.65 170.28 171.159 174.27 161.493 151.527 163.138 167.642 168.473 83.5676 110.86 443.512 -8.97043 115.947 438.319 -78.6099 90.506 418.599 -96.1992 72.2758 399.291 -69.5317 49.1456 420.436 5.9204 53.5309 463.32 -4.69136 75.1919 17.3591 9.65603 
151.163 170.376 171.153 174.27 160.819 149.94 163.665 168.218 165.584 83.3313 110.109 442.972 -8.47336 116.336 438.305 -78.8097 90.7822 418.979 -96.2667 72.1976 398.712 -66.4975 49.2745 420.266 5.68195 54.2848 463.778 -4.51397 72.5924 19.7181 9.52791 
150.279 170.539 171.005 174.27 161.324 149.816 163.606 168.54 166.795 84.7025 110.52 443.746 -8.88672 116.577 438.766 -79.1539 90.9528 419.448 -96.4891 72.3765 399.804 -65.8082 50.3282 419.988 6.34774 54.8681 464.243 -4.48904 72.5388 19.7802 9.51937 
148.783 170.782 170.744 174.27 161.556 149.251 163.875 168.221 146.767 85.5671 110.699 444.442 -8.46868 117.055 438.438 -79.2962 91.036 418.556 -95.8459 72.9783 398.559 -56.8214 51.6378 420.007 6.97876 55.7797 465.119 -4.35779 66.0714 25.2325 9.7527 
148.738 170.478 170.791 174.27 161.946 149.602 163.836 168.734 103.298 85.2061 111.471 445.292 -8.61157 117.821 440.1 -79.2753 91.4182 420.599 -96.3047 71.8498 402.545 -38.6274 52.3378 420.308 6.84339 56.4663 465.731 -4.02105 52.4843 39.4632 10.0168 
145.939 169.695 170.524 174.27 161.82 148.591 163.381 168.533 139.508 85.3127 111.47 445.527 -7.76992 118.485 441.257 -78.8947 92.1674 421.854 -95.9562 73.8295 400.612 -56.5913 53.4416 419.504 5.76853 56.9484 465.96 -3.55484 63.826 25.6867 10.0398 
142.823 169.483 170.454 174.27 160.549 146.687 163.484 168.986 148.076 83.5604 111.342 445.093 -6.79796 119.597 443.166 -78.6065 92.8896 423.681 -96.2695 75.7797 401.815 -59.7269 53.9951 419.901 5.28075 57.4064 466.025 -3.38642 65.7001 24.0384 10.5831 
140.863 170.147 171.824 174.27 155.013 144.68 164.199 170.208 179.008 76.4358 110.908 443.189 -5.96069 120.766 445.427 -78.9234 92.9898 425.26 -97.7378 77.4834 405.383 -72.8427 52.082 424.508 6.9951 57.8243 466.09 -3.52396 80.656 16.0215 11.7346 
142.134 170.143 171.894 174.27 157.616 143.321 164.426 170.747 178.05 76.4126 110.5 441.895 -5.54965 121.747 445.287 -78.8199 93.6086 425.251 -98.0485 81.5995 401.484 -73.3442 52.0289 425.885 8.66681 58.2701 466.094 -3.65286 81.4782 18.1672 12.0463 
143.37 170.066 171.806 174.27 157.5 143.551 164.28 170.832 178.024 75.5153 111.409 441.511 -5.58874 122.408 445.38 -78.8341 93.9109 425.024 -98.3415 85.472 398.293 -69.0628 52.0561 426.425 9.01392 58.7577 465.937 -3.82742 78.4065 22.5483 12.4441 
143.841 170.886 172.042 174.27 159.664 143.042 164.589 170.939 178.015 76.1818 111.058 441.162 -6.58586 122.818 446.197 -79.2434 94.4349 426.19 -99.0427 88.0193 396.179 -68.3798 52.6958 427.676 9.9093 59.3183 466.218 -3.99228 78.6105 24.7546 12.33 
144.741 170.698 171.425 174.276 159.484 142.442 164.06 170.267 178.015 75.8772 111.039 441.206 -7.13059 123.496 445.858 -79.1612 95.324 426.275 -98.8791 89.1682 394.353 -67.1215 53.26 428.234 9.83652 59.9614 466.528 -4.14761 77.4548 25.998 12.1004 
143.475 170.116 171.281 174.27 157.933 142.161 163.947 169.829 178.019 72.2807 111.394 442.388 -6.70479 123.943 446.22 -78.3753 96.2802 427.005 -97.8635 86.9783 396.879 -69.5063 53.3376 429.021 8.40017 60.3595 466.999 -3.53593 78.9891 23.0642 11.6729 
143.912 170.03 171.06 174.27 157.383 143.099 164.047 170.156 178.021 72.0113 112.384 443.545 -7.3487 124.899 447.23 -78.2203 96.7652 427.885 -98.1595 88.7239 397.734 -65.9324 53.68 429.385 8.35046 60.7705 467.278 -3.55139 76.9022 25.5242 12.1774 
144.421 170.254 171.185 174.27 155.141 144.24 164.918 170.713 178.021 71.5594 113.236 444.949 -7.98026 125.676 448.38 -78.2881 97.4795 428.776 -98.2163 89.7206 398.097 -65.8087 54.1809 429.434 7.73566 61.2565 467.742 -3.42876 75.7127 25.8713 12.2779 
144.564 170.507 171.119 174.27 154.133 144.245 165.618 171.208 179.595 70.3885 113.177 445.905 -8.67426 126.31 449.502 -78.0996 97.8689 430.153 -98.1623 86.9944 403.703 -57.6597 53.5862 430.334 6.83866 61.6812 468.467 -3.37893 72.057 29.6164 12.402 
144.947 170.617 171.017 174.27 152.513 144.198 166.211 171.631 177.517 69.1495 112.526 446.225 -9.1656 126.819 449.664 -77.9616 98.0218 430.49 -98.0934 85.3581 406.782 -53.9995 53.1305 430.909 6.2054 62.0665 468.977 -3.13808 69.9467 31.1072 12.55 
146.889 170.352 170.473 156.918 152.282 145.45 166.35 171.313 172.306 68.7638 113.834 448.274 -9.86493 127.041 449.583 -77.8863 98.5497 430.447 -97.579 84.0665 406.549 -50.558 53.1351 431.457 5.87377 62.6027 469.394 -3.12021 67.5872 33.3396 12.2198 
147.432 169.844 170.178 130.263 151.814 146.182 166.22 171 163.995 68.4007 114.522 449.834 -9.76124 126.974 449.408 -77.5892 98.458 430.265 -96.9519 82.3581 405.782 -46.966 53.0492 431.821 5.68167 63.0288 470.11 -2.78539 64.2705 35.7178 12.108 
148.738 169.695 169.939 146.511 152.442 146.382 166.15 170.822 160.614 69.6363 114.916 451.399 -9.18533 127.388 450.095 -77.1005 98.9188 430.708 -96.3595 83.4411 406.457 -48.1263 54.0078 432.376 6.61041 63.4361 471.121 -2.32025 65.2987 34.1485 12.1318 
150.097 169.876 170.066 90.0456 150.475 146.617 166.083 170.538 121.885 67.5516 115.241 453.175 -9.07255 127.464 451.064 -77.2307 98.7175 430.436 -96.0819 83.4084 413.073 -33.0369 54.6681 432.813 7.15611 63.9382 471.671 -1.70553 54.1242 44.4641 12.5549 
151.13 170.246 171.152 174.27 149.544 146.703 166.257 170.721 103.17 66.9679 116.184 455.389 -8.64608 128.312 453.839 -77.52 99.2084 431.487 -96.3923 83.7174 411.065 -23.3155 55.9233 434.297 8.07373 64.4851 473.071 -1.4968 46.7141 53.8253 13.3442 
152.138 170.864 171.891 174.27 148.188 147.214 166.743 171.112 90.4253 67.031 117.317 456.032 -8.29046 128.776 455.031 -77.9427 99.2593 431.788 -96.8069 81.8923 414.569 -11.9575 56.6016 434.784 8.37609 64.8784 473.676 -1.49681 35.8447 65.7396 13.8573 
151.583 170.691 171.765 174.27 147.215 147.495 166.804 171.353 79.5753 67.16 117.556 456.848 -7.91732 129.038 455.224 -77.6859 99.198 431.774 -96.5785 78.5008 419.178 -6.19958 57.0722 434.784 8.52543 65.1197 474.126 -1.18044 29.0721 72.8841 14.1016 
152.592 171.702 172.465 90.6677 147.149 147.948 166.775 171.733 56.667 66.1459 118.107 457.447 -8.50555 129.056 455.956 -78.0005 99.1109 432.501 -97.1432 72.5546 434.695 -7.70494 57.507 435.919 8.72786 65.2911 474.51 -1.21416 24.4532 78.0274 14.1626 
153.094 171.572 172.534 91.0677 148.867 148.436 166.339 171.752 50.1489 66.568 118.977 457.997 -7.90089 129.163 456.081 -77.337 99.4079 432.625 -96.7524 71.7587 439.341 -6.14899 57.9351 436.959 9.91391 65.312 474.899 -0.850127 20.8489 82.4485 14.0736 
153 171.747 172.723 122.439 150.118 148.819 166.268 172 54.6629 67.2406 118.923 458.013 -7.6768 129.326 455.909 -76.9428 99.5396 432.322 -96.5336 72.6748 440.325 1.77904 58.198 437.435 11.0455 65.3567 475.001 -0.51154 12.4555 93.5427 14.1197 
152.873 171.806 172.891 137.947 149.865 149.023 166.432 172.142 58.5144 67.584 118.99 457.84 -7.32482 129.253 455.98 -76.7843 99.147 432.115 -96.2184 72.8559 440.502 6.32133 57.8469 437.773 11.6721 65.3168 475.315 -0.230966 9.8919 98.0805 14.3264 
152.679 171.264 172.754 153.711 148.945 148.926 166.158 171.965 59.8603 67.6823 118.779 457.977 -7.04757 129.284 455.614 -76.1551 99.3968 432.539 -95.5621 72.5682 440.512 8.57243 57.6174 437.571 11.535 65.2546 475.475 0.110098 9.18206 99.8472 13.9763 
153.518 171.188 172.576 150.089 149.087 149.106 165.95 171.828 58.5808 67.9727 119.136 458.197 -7.20062 129.125 455.943 -76.0161 99.3904 433.071 -95.2723 72.7491 441.141 7.44784 57.718 437.835 11.8652 65.3297 475.908 0.327978 8.85259 98.3126 13.7997 
152.072 171.321 172.453 142.246 151.424 148.547 165.924 171.776 60.5151 69.4842 118.74 458.043 -6.94431 129.163 456.597 -75.6454 99.7455 434.203 -95.0959 74.9633 439.783 5.67069 58.5147 438.455 12.9427 65.4619 476.435 0.67967 11.4137 93.6304 13.5213 
150.856 171.483 172.034 130.617 150.632 147.775 166.713 171.995 58.8118 68.3498 118.212 457.708 -6.32681 129.052 457.029 -75.6065 100.08 434.935 -94.8319 74.5551 437.228 0.826392 58.4254 438.334 12.6672 65.4638 476.385 1.19077 18.3712 86.0661 13.1089 
150.503 171.154 171.605 91.2072 150.162 147.092 166.901 171.718 60.8439 68.0275 117.685 457.385 -6.15957 128.864 457.058 -75.1191 100.74 435.94 -94.3022 74.639 433.556 -10.5644 58.1172 437.594 12.2045 65.3939 476.062 1.74087 34.5488 67.9754 12.3191 
149.647 170.618 171.208 90.4048 147.673 145.812 166.735 171.115 73.7426 67.0573 116.789 456.847 -5.54605 129.042 458.045 -74.4201 101.666 437.188 -93.6025 77.6677 428.183 -15.3536 58.0419 436.4 10.961 65.2568 475.831 2.30808 40.1832 59.5398 11.9156 
146.121 170.436 170.953 90.0608 146.233 143.897 166.662 170.596 92.7667 67.07 115.612 455.992 -4.33142 128.94 458.001 -73.8128 102.198 437.293 -92.8608 81.5201 422.515 -20.34 58.0134 435.348 10.4874 65.1047 475.618 2.82443 44.7096 52.6561 11.4826 
141.965 170.329 170.843 90.0456 144.292 142.268 166.758 170.271 107.674 66.8541 113.912 455.635 -3.18355 128.776 457.895 -73.1297 102.392 437.123 -91.9136 82.8854 419.029 -24.4516 57.6807 434.645 10.3468 64.9093 475.664 3.47749 47.902 47.7107 11.2336 
140.441 170.342 170.665 90.0457 143.35 142.035 166.867 170.102 104.082 66.5253 113.926 456.498 -2.61759 128.689 458.325 -72.7268 102.352 437.375 -91.434 83.6714 420.729 -23.4308 57.6893 434.47 10.4311 64.8277 475.92 3.96138 46.2063 47.9408 11.2674 
139.706 170.479 170.697 90.0457 143.751 141.583 166.62 169.764 105.274 67.011 113.845 456.779 -0.978801 128.48 458.749 -71.5904 102.17 437.549 -90.3073 85.2475 422.192 -22.3428 57.6586 434.743 11.3311 64.3149 476.42 4.88956 45.0694 47.692 11.3668 
139.706 169.526 170.621 90.0457 145.014 142.082 165.825 169.436 107.866 67.893 114.55 457.979 0.0368309 127.96 458.961 -70.7748 101.875 437.857 -89.3931 84.3707 421.556 -23.6743 57.7977 435.047 12.1208 64.0224 477.094 5.50418 46.9231 45.5341 11.1782 
141.401 169.075 170.536 90.0456 145.505 143.122 165.095 168.782 136.978 69.1039 114.654 458.563 1.37213 127.414 459.778 -69.7724 101.687 439.006 -88.1632 85.4856 418.664 -34.0565 57.5167 435.412 12.6605 63.6151 478.274 6.50092 55.1502 36.0196 10.7769 
142.655 169.046 170.74 90.0456 146.14 143.503 165.219 168.871 148.953 69.8268 114.659 459.462 2.34048 127.089 460.261 -68.906 101.386 439.516 -87.2495 84.4767 419.177 -38.5502 57.0249 435.899 13.6384 63.1765 479.082 7.32869 59.597 31.4871 10.7182 
142.182 168.877 170.36 90.0456 144.239 143.358 164.531 168.351 128.917 70.4699 114.099 459.528 3.05862 126.219 460.576 -68.4706 100.687 439.475 -86.5444 83.0656 419.964 -31.189 56.9144 435.456 13.4535 62.5826 479.528 7.83716 52.4457 36.6357 10.655 
142.795 168.847 170.637 90.0456 142.874 143.095 164.012 168.217 124.219 69.8783 114.311 460.784 4.36898 125.708 460.889 -67.5971 100.05 439.328 -85.4641 81.3336 420.795 -29.0188 56.7125 435.827 13.5833 62.0237 480.246 8.64205 50.4218 36.9955 10.8459 
143.099 168.592 170.885 90.0457 141.026 143.512 163.138 167.619 140.659 70.068 114.478 462.173 5.30268 124.923 461.688 -67.023 99.5769 439.669 -84.3686 82.0965 421.933 -36.7987 56.8984 435.995 13.3734 61.4425 481.152 9.48459 55.0204 29.049 10.7069 
142.9 168.896 171.175 90.0456 141.304 143.957 163.278 167.73 151.5 70.2841 114.265 463.656 6.00595 124.35 462.737 -66.4638 98.9116 440.399 -83.6024 82.5274 424.593 -40.1651 56.3085 436.653 14.3144 60.9031 482.297 10.4043 57.9804 25.052 10.796 
141.209 168.757 170.951 90.0456 143.007 144.185 163.154 167.899 151.53 71.5967 113.943 465.307 7.02704 123.638 464.128 -65.5997 98.1232 441.113 -82.9468 82.5762 425.642 -37.9369 56.3233 437.412 16.4951 60.0932 483.302 11.2913 58.1931 25.8984 11.1333 
137.205 169.021 170.797 90.0456 148.294 142.338 163.272 168.127 150.182 71.7283 111.764 465.677 7.67787 122.766 465.01 -65.4664 97.742 441.747 -82.9286 83.6255 426.502 -34.8041 56.5198 438.754 18.7566 59.36 483.687 11.7272 58.7136 28.1634 10.9622 
137.762 169.34 171.092 114.964 152.68 140.826 163.46 168.07 136.581 71.997 110.799 466.441 8.29644 121.828 465.622 -65.4244 97.3083 442.172 -82.6329 80.96 424.274 -31.5345 56.5357 439.878 20.3343 58.5564 483.975 12.169 59.0933 30.5301 10.6893 
137.014 170.285 171.445 174.27 152.382 139.899 163.815 168.435 144.925 71.5156 110.728 468.283 7.79879 120.641 466.301 -66.4242 96.4981 442.944 -83.257 80.9366 422.57 -40.9564 57.1324 441.736 20.3557 58.1886 484.711 11.919 66.4363 24.4975 10.28 
134.684 170.977 171.896 174.27 152.134 139.367 164.036 168.674 175.109 72.7887 110.847 470.275 7.44648 119.926 467.154 -67.3653 96.0699 443.827 -84.1134 78.468 425.241 -58.2788 58.3448 442.598 20.0399 57.8327 485.065 11.5 78.2344 12.9259 10.046 
136.492 171.254 172.797 174.27 153.459 139.488 163.501 168.962 179.204 74.0329 110.511 471.83 6.5651 118.678 468.486 -67.5325 95.5328 445.336 -84.3253 77.749 427.947 -61.5276 59.7298 441.927 18.8798 57.0307 485.208 11.4962 78.3065 10.2612 9.69898 
139.467 171.212 173.471 174.27 157.034 140.041 162.85 168.719 179.477 75.4917 109.994 472.354 5.94782 117.173 468.65 -67.2473 94.9076 445.89 -83.9537 78.3141 429.725 -62.303 60.3064 441.37 18.393 56.0049 484.913 11.7542 77.1643 9.09144 9.09209 
142.599 171.208 174.022 174.27 160.339 140.669 161.964 168.284 170.062 77.0163 109.416 472.398 5.38794 115.396 468.817 -67.1044 93.6954 446.59 -83.6835 79.5247 427.043 -58.3687 59.5596 441.445 18.7688 54.9801 485.908 11.6694 72.7354 13.0538 8.58536 
142.656 171.126 173.222 174.27 162.333 140.673 161.631 167.816 178.794 77.4644 107.489 471.955 5.37104 114.044 468.323 -67.0207 92.1075 446.409 -83.2982 77.4496 428.676 -59.0147 57.3803 442.59 20.0233 54.146 487.599 11.667 74.3035 11.7773 8.43712 
142.84 171.018 172.705 174.27 161.543 140.264 161.626 167.643 178.337 76.4175 105.667 470.942 5.89489 112.653 469.63 -67.3572 90.5952 447.904 -83.6775 79.9474 427.759 -53.2295 54.9678 445.989 21.3793 53.0709 489.729 11.5258 71.2803 17.4072 8.35212 
143.373 171.028 172.462 174.27 162.298 139.652 161.86 167.309 178.457 75.3236 103.313 470.289 7.20984 111.424 470.512 -67.1867 89.2768 449.601 -83.2395 77.1098 429.889 -51.9034 52.3153 448.821 21.6858 52.1968 492.315 11.9646 71.4473 17.7086 7.89874 
144.251 171.057 171.651 174.27 163.567 140.87 162.1 166.744 179.827 77.0252 101.292 469.291 6.78468 109.391 469.948 -67.8462 87.0088 449.362 -83.1322 73.6568 431.221 -46.9458 51.1634 450.242 22.7177 50.838 493.482 11.7201 70.1214 19.8673 7.7156 
145.217 171.273 171.652 174.27 162.35 141.291 162.54 167.154 139.729 77.027 99.683 468.63 7.03991 108.313 471.873 -68.4153 85.9643 450.928 -83.9576 74.8591 432.079 -30.7966 50.3007 452.083 23.8653 49.5047 494.414 11.7425 60.5642 32.1796 7.88046 
146.678 171.465 171.366 174.27 161.959 143.618 163.198 167.194 121.493 78.6768 98.3022 468.093 7.69794 106.93 473.212 -68.6083 83.967 452.203 -84.1901 73.6129 433.744 -23.9518 48.8633 453.298 24.9616 47.9999 495.75 12.1631 55.6562 37.9224 8.17937 
147.213 171.598 170.974 174.27 160.904 145.334 164.125 167.392 117.824 79.5221 97.3105 468.157 7.7413 105.489 473.158 -69.0121 81.7973 451.871 -84.2292 71.2179 433 -22.038 47.5119 453.97 25.5247 47.0324 496.575 12.0533 54.7005 39.7358 8.50515 
148.535 171.812 171.084 174.27 158.001 147.616 164.991 167.821 135.448 80.2625 96.5704 469.794 7.52565 104.173 473.568 -69.3107 80.017 452.693 -84.3556 67.5779 431.71 -29.7827 46.4187 455.506 25.8943 46.0578 498.515 12.0176 61.3243 33.5208 8.53925 
149.397 172.191 171.499 174.27 157.959 149.425 166.075 168.419 178.365 81.011 95.168 470.61 7.60135 103.201 473.133 -69.537 78.6557 452.747 -84.5393 63.6106 432.348 -44.6851 44.3574 456.882 26.8801 45.0471 499.83 11.7849 73.2112 22.702 8.50221 
151.955 173.089 171.932 174.27 158.376 149.985 167.373 168.686 179.927 79.4544 92.711 468.713 8.57275 102.503 473.051 -69.9982 77.4122 451.819 -84.7902 66.162 429.709 -39.1088 41.982 459.57 28.32 43.8037 500.228 11.6351 70.952 27.8926 8.92927 
151.753 173.459 171.907 174.27 157.146 149.151 167.83 168.567 179.594 80.2504 90.5595 469.61 8.43838 101.739 474.915 -69.9476 76.2917 454.135 -85.3275 65.1772 431.846 -37.3501 41.0579 460.632 28.2177 42.6982 501.69 11.5127 69.3952 29.6574 9.15052 
152.862 173.263 172.248 174.27 155.918 149.029 168.05 168.704 179.115 81.5294 88.6453 469.74 8.67336 100.98 475.676 -70.0105 75.232 455.301 -85.4278 63.3789 434.812 -38.0692 40.3596 462.624 28.4615 42.0471 503.648 11.3714 70.2788 28.5724 9.14396 
155.542 173.202 172.081 174.27 154.373 148.426 168.127 168.285 179.516 83.0727 85.3477 467.416 9.09175 99.9845 477.619 -70.5764 74.245 456.888 -85.6045 63.735 435.06 -35.6371 40.104 462.996 28.0071 41.092 504.893 11.3633 66.238 31.0495 9.14775 
154.587 173.261 172.123 174.27 154.037 148.021 168.286 167.865 179.694 83.2227 83.3395 467.914 9.11217 99.4526 480.031 -71.2269 73.9043 458.558 -85.7854 65.312 435.634 -29.0267 39.5602 465.002 28.2575 40.3863 506.548 11.1082 61.162 36.5763 9.21613 
154.474 173.568 172.347 174.27 154.968 147.953 168.677 167.786 179.923 82.6441 82.0476 467.738 8.75531 98.9696 481.397 -72.2703 73.2527 458.886 -86.3047 66.3888 436.323 -20.0235 38.4159 466.565 28.7896 39.7996 507.098 10.7416 55.4668 44.1114 9.57485 
153.608 173.373 172.126 174.27 154.081 147.755 168.43 167.661 97.487 82.3305 82.433 469.975 8.45307 97.7715 483.846 -72.9088 72.4494 459.928 -86.5063 63.4522 456.037 24.7408 38.5931 468.212 29.5965 38.9228 507.89 10.6877 16.6085 86.009 9.85918 
153.523 173.455 172.457 174.27 151.876 146.493 168.187 167.724 87.3168 78.0236 81.2308 471.297 8.46883 96.8445 484.558 -72.6185 71.4562 460.361 -86.2509 57.1604 464.59 30.3448 36.6942 469.841 28.4604 37.948 508.502 10.8765 11.1194 95.7227 10.0088 
153.309 173.228 173.028 174.27 149.965 145.421 167.288 168.065 84.6171 76.1507 81.7547 474.565 7.27022 95.6424 486.061 -72.379 70.3496 462.316 -86.6615 54.9722 470.535 32.9328 35.7907 470.882 26.8804 37.224 509.54 10.7461 9.72885 101.783 9.87448 
150.78 172.786 173.306 174.27 148.465 145.407 166.643 168.437 80.9519 76.3519 83.1602 479.376 6.64683 94.4319 487.959 -72.5528 69.1687 463.643 -86.733 51.4122 474.605 33.673 35.6478 472.59 26.9713 36.4267 511.221 10.6545 12.5036 105.197 10.0578 
150.941 173.226 173.54 104.396 148.134 145.073 166.933 168.667 57.3825 77.2392 83.6366 481.85 6.35307 93.1538 489.797 -73.5636 68.3462 464.467 -86.8907 41.7144 482.894 21.212 36.0851 474.004 27.663 35.5955 512.398 10.0953 14.1451 106.339 10.1643 
152.722 172.976 173.648 122.834 148.814 145.497 166.789 168.848 67.6035 79.1074 83.7374 484.009 7.43345 92.3597 490.753 -72.9161 68.3063 464.97 -85.5846 45.3452 481.688 26.3039 36.197 475.865 29.3988 34.4426 514.033 10.3361 12.7656 104.232 9.91676 
151.693 172.971 173.917 145.322 152.161 146.137 166.628 169.031 67.2866 79.5083 82.8266 486.626 8.23414 91.8716 490.634 -71.6179 67.4042 465.766 -84.2499 45.2714 482.758 26.8386 34.7099 477.499 30.0483 33.6325 516.138 10.6822 11.3615 102.42 9.75738 
152.596 173.313 173.944 160.586 152.853 147.637 166.607 168.963 66.9879 80.0529 82.5375 488.038 8.2428 91.6015 490.208 -70.6352 67.0253 466.108 -83.1609 44.3386 485.283 28.4769 33.5464 479.591 30.775 32.9387 517.822 10.8532 11.3366 103.499 9.47273 
155.483 173.845 173.826 148.773 153.932 149.697 166.534 168.917 57.734 81.327 82.2837 488.401 8.05066 90.7301 489.945 -70.0206 66.7634 466.672 -82.3807 39.1503 485.497 22.9967 32.9146 480.846 31.6522 32.1859 519.038 10.9004 14.5301 99.569 8.76861 
156.881 174.07 174.16 160.399 156.261 151.809 166.609 169.148 60.2643 82.6849 81.2155 488.52 8.46952 90.3149 488.176 -67.8966 66.3274 467.279 -81.4279 37.7438 484.713 23.9029 30.3321 482.046 31.962 31.4233 520.44 11.119 15.046 97.9228 8.04402 
158.321 174.562 174.46 160.641 158.703 152.26 167.192 169.391 60.5441 83.3908 81.2738 490.563 7.97747 89.9447 489.868 -68.4454 66.9424 468.7 -81.9758 39.0417 484.879 22.2495 29.5336 483.138 32.4984 30.4492 521.26 10.8743 14.17 94.9896 7.53346 
158.33 174.855 174.415 151.266 159.551 152.211 167.599 169.255 59.3265 83.0782 82.4994 493.143 8.05598 89.1941 491.776 -69.1855 67.196 470.012 -82.0758 41.0782 483.586 17.9972 29.7582 483.47 32.9832 29.6117 521.477 10.977 17.3155 88.1398 7.17051 
159.295 175.175 174.524 155.006 159.47 151.439 168.07 169.322 59.926 82.958 82.7758 494.743 7.59931 88.7768 494.261 -70.4784 67.8935 471.353 -82.7176 42.64 485.008 18.4443 30.3146 484.788 33.6125 28.8244 521.831 10.489 17.1521 88.789 7.00963 
158.092 174.908 174.745 162.822 160.096 150.275 168.618 169.277 59.6764 82.7242 82.3363 495.568 7.7325 87.8938 496.087 -71.4949 68.3589 471.856 -82.3896 42.3022 488.089 21.5856 30.6235 485.173 34.1601 28.0246 521.747 10.3709 12.6827 93.949 6.80083 
157.316 175.03 174.716 167.28 160.915 147.926 168.651 169.085 61.0076 82.1049 81.2036 496.361 8.76886 86.5949 496.294 -71.3119 67.4094 471.614 -81.8161 40.3149 489.6 24.6881 29.2875 485.056 34.0594 27.0253 521.972 10.5471 10.0696 98.1954 6.79542 
155.963 174.65 174.175 167.485 162.004 147.184 168.504 168.515 61.3811 81.83 79.9459 496.273 9.83662 85.9764 496.331 -70.4744 67.0062 471.873 -80.943 38.6058 489.046 24.2201 27.6096 486.237 34.138 26.2521 522.744 10.6382 12.2778 96.7608 6.57151 
155.056 174.633 174.153 157.5 162.122 146.936 168.408 168.668 54.1823 80.5556 78.7202 496.791 10.5815 85.0917 495.978 -69.2287 66.2224 472.252 -80.1631 32.9254 488.614 20.923 25.844 486.684 34.0051 25.2558 523.037 11.1353 17.4303 95.4874 6.19612 
153.277 174.605 174.086 160.073 162.121 146.589 168.623 168.916 55.8423 79.9006 77.8124 498.124 11.3143 83.9214 494.727 -68.0631 65.8925 471.119 -78.8754 29.512 491.992 26.2248 24.221 487.342 34.7296 24.2551 522.994 11.5232 16.1581 104.641 5.61924 
152.853 174.418 174.557 157.55 161.877 147.061 168.909 169.099 58.7156 79.0793 77.0828 498.946 11.4962 82.5275 494.092 -67.2555 64.5198 470.76 -77.9847 26.0277 496.214 30.4131 21.6388 488.512 34.7388 23.3835 523.614 11.6985 17.3093 112.705 5.41208 
155.141 174.21 174.158 119.952 161.997 149.398 168.83 169.415 43.5175 78.8078 77.7865 500.946 11.0246 81.4046 492.471 -65.7206 63.3806 470.543 -76.5146 22.2361 498.845 20.6692 20.3198 489.273 34.7453 22.7441 524.113 12.1822 16.3854 109.388 4.68525 
159.147 174.568 175.209 131.773 161.698 150.603 169.702 171.139 46.7661 75.9566 77.9992 502.66 10.5239 80.3367 494.662 -65.8359 63.1628 472.018 -76.8282 20.5769 502.436 25.5636 17.8006 491.012 36.3421 21.5367 524.353 12.9271 16.6793 118.544 4.61251 
