178.309 156.438 160.887 152.579 149.655 171.651 149.14 155.02 73.941 76.8327 -249.078 472.662 -8.63085 -299.02 457.925 -65.991 -336.398 447.803 -70.984 -324.368 456.242 25.7558 -339.748 461.383 31.0497 -326.324 499.521 18.0442 8.52155 86.2551 12.8344 
177.093 156.947 161.199 152.954 150.668 172.456 149.599 156.066 73.2542 76.7505 -249.59 474.717 -8.64291 -300.489 460.892 -66.1669 -338.997 451.109 -70.9723 -325.837 458.759 25.9084 -340.551 464.168 31.6454 -327.168 501.781 18.4253 9.06412 87.0761 13.5757 
177.063 157.855 162.433 152.639 150.88 172.46 150.868 156.479 73.5446 76.567 -250.306 476.215 -8.21801 -302.254 463.041 -66.3117 -340.848 452.832 -70.1276 -327.275 460.954 27.387 -341.45 466.661 32.4774 -327.926 503.774 18.872 9.97502 88.0954 13.5775 
176.798 159.037 162.736 151.631 150.839 172.944 151.901 157.113 74.8583 77.0026 -251.115 477.871 -7.4664 -303.81 465.198 -66.2534 -342.731 454.496 -69.6111 -328.602 462.035 27.9229 -342.442 468.685 33.0374 -328.76 505.943 19.381 10.4622 87.4444 13.7442 
176.951 159.488 163.871 150.72 150.596 172.835 152.205 158.472 74.9637 77.0933 -251.826 479.586 -6.24914 -304.662 467.515 -65.7695 -343.986 456.795 -69.911 -329.226 463.789 27.7209 -343.317 470.527 33.116 -329.439 508.199 19.8866 10.0697 87.0826 13.8825 
177.178 160.694 163.718 150.514 150.088 172.806 153.151 158.457 74.8575 77.1825 -252.289 481.79 -5.38795 -305.153 468.797 -65.3998 -343.326 457.584 -69.2183 -329.293 466.298 28.748 -343.577 472.516 33.651 -330.064 510.319 20.2863 9.99684 87.1251 13.0895 
176.928 160.727 162.246 151.117 149.925 172.82 153.379 157.604 74.9409 77.0557 -253.018 483.926 -4.96019 -305.848 470.92 -65.2301 -343.059 458.736 -67.9784 -329.728 469.064 30.5806 -343.909 474.776 34.3865 -330.713 512.36 20.576 10.596 88.1998 12.698 
177.341 162.101 163.237 150.429 149.769 172.494 154.716 158.359 74.4182 77.1334 -254.156 486.986 -4.40881 -305.736 473.454 -65.486 -342.918 460.405 -67.9472 -330.271 471.319 30.4081 -344.35 476.983 34.9405 -331.492 514.85 21.0582 10.3368 87.2241 12.8435 
177.255 161.677 163.619 150.187 149.868 172.453 153.866 158.765 74.3434 76.9474 -254.533 489.039 -4.29182 -305.405 475.123 -64.6823 -343.233 462.193 -67.7659 -330.267 473.392 31.0809 -344.296 478.902 35.4637 -331.687 516.615 21.4129 10.4957 87.8688 13.2304 
177.58 159.992 163.075 150.516 149.693 172.261 152.809 158.293 74.2792 76.7107 -255.03 491.332 -3.77882 -305.92 477.15 -63.8243 -343.464 464.311 -67.4146 -330.849 475.925 31.7596 -344.991 481.136 35.7017 -332.351 518.766 21.6775 10.5678 88.382 12.9968 
176.838 160.104 163.46 151.357 150.452 172.665 152.609 158.081 73.8284 76.1385 -254.988 492.83 -3.86293 -306.047 478.188 -63.4406 -343.38 465.715 -66.8285 -331.168 478.743 33.1664 -345.092 483.573 36.1896 -332.474 520.311 21.6999 11.3056 90.1248 12.8384 
176.227 159.813 164.378 151.946 150.914 173.089 152.186 158.508 73.2826 75.7852 -254.891 494.09 -3.95809 -305.613 479.916 -63.3855 -343.225 467.962 -67.2736 -330.824 480.996 33.3503 -344.791 485.374 36.2151 -332.488 521.741 21.6721 11.4382 91.2431 13.0134 
175.548 159.919 164.334 152.051 150.238 173.797 151.471 158.5 74.7285 76.6379 -253.588 494.418 -3.50224 -303.655 479.781 -62.7735 -342.255 468.221 -67.7149 -328.531 479.644 32.0932 -343.277 484.464 35.6785 -331.456 521.913 21.7126 10.3476 89.3327 13.6856 
174.684 159.442 163.385 151.469 150.493 174.683 151.141 158.441 75.5751 76.8889 -252.42 495.298 -3.38999 -303.203 480.85 -62.674 -342.423 469.851 -68.2077 -327.37 478.434 30.6825 -342.188 484.311 35.6924 -330.649 522.215 21.945 9.78033 87.9924 14.0835 
174.708 159.501 163.642 151.742 151.524 174.997 152.291 158.733 75.0699 76.4242 -252.436 496.255 -3.66097 -303.565 481.677 -62.8242 -342.793 471.067 -68.3749 -327.453 478.965 30.4167 -342.115 485.098 35.8785 -330.311 523.102 22.121 9.80658 87.877 13.9429 
175.009 158.242 162.803 151.036 150.932 175.066 151.532 157.824 75.2835 76.5972 -251.644 496.862 -4.10278 -303.692 481.626 -62.608 -342.011 471.336 -68.2884 -326.962 478.856 29.8013 -341.635 485.225 35.6061 -329.786 523.435 22.0244 9.71092 86.9064 13.2524 
175.99 158.952 162.995 151.826 150.84 174.714 151.882 157.894 74.4437 76.658 -251.706 498.247 -3.99981 -303.603 482.242 -62.3797 -341.183 472.378 -68.2197 -327.329 481.018 30.3126 -342.083 486.777 35.7778 -329.955 524.765 21.8153 9.4281 87.7841 12.725 
176.755 160.04 163.43 152.118 150.738 174.326 152.664 158.189 73.7416 76.7272 -252.201 499.989 -3.18098 -303.542 483.695 -62.32 -340.689 473.886 -68.1323 -328.207 483.61 30.3858 -343.078 488.971 35.7225 -330.583 526.848 21.5793 9.09821 88.0245 12.4201 
177.441 161.189 164.342 151.337 150.19 173.916 153.49 159.087 73.8114 77.0366 -252.768 502.368 -3.10778 -302.914 485.539 -62.6666 -340.557 475.727 -69.032 -329.099 485.042 29.5064 -344.022 490.707 35.4938 -331.183 528.874 21.3429 8.73891 87.1514 12.7772 
177.619 163.579 164.22 150.456 149.753 173.538 155.364 159.192 73.7901 76.9388 -252.823 503.518 -2.68221 -302.887 487.399 -63.9799 -340.506 477.372 -69.6434 -330.186 486.848 29.8859 -344.866 492.505 35.3016 -331.436 530.367 20.9506 9.0588 88.229 12.7022 
177.508 163.973 164.097 150.018 149.83 173.799 155.05 159.14 73.6659 77.4484 -252.906 504.207 -2.52975 -302.833 488.793 -64.0288 -341.074 479.443 -70.2493 -331.171 488.085 29.1207 -345.334 494.102 35.0069 -331.503 531.88 20.67 9.42588 87.9759 13.0613 
177.574 164.614 164.389 148.727 150.46 174.07 154.829 159.229 73.7264 78.3328 -253.046 505.29 -2.27012 -302.464 489.815 -63.2176 -341.459 481.908 -70.5529 -332.281 489.527 28.6549 -345.726 495.873 35.1599 -331.803 533.556 20.5618 10.0745 87.8678 13.6453 
177.299 165.779 164.505 149.243 151.292 174.066 154.324 159.368 73.9036 78.5481 -253.594 506.119 -2.9493 -303.303 491.705 -63.3788 -342.64 484.526 -71.0393 -333.471 492.026 30.0154 -346.299 498.139 35.3678 -332.221 535.006 20.2144 10.876 90.6759 13.9009 
177.176 164.932 163.158 150.69 151.168 174.251 153.099 158.639 74.6628 78.5385 -253.734 507.786 -4.01423 -304.357 493.319 -63.3212 -343.372 486.292 -70.9612 -333.873 494.408 31.1506 -346.857 500.202 35.1694 -332.689 536.634 19.8295 11.0621 92.2421 13.6885 
177.114 163.212 163.401 151.092 150.712 174.192 153.562 159.074 75.0013 78.2857 -253.994 509.013 -4.13083 -303.909 493.733 -62.6361 -343.369 487.199 -71.2541 -333.757 496.304 32.1189 -347.034 501.64 35.0223 -333.001 537.779 19.6023 11.2503 93.8203 14.1736 
176.896 164.102 164.481 151.286 150.402 174.051 154.408 160.553 75.1853 77.8805 -254.983 510.987 -4.14085 -303.976 495.097 -62.3021 -344.339 488.897 -71.8796 -334.074 498.794 32.9677 -347.653 503.782 35.1122 -333.948 539.521 19.3953 11.4055 95.7235 15.0087 
176.405 164.424 164.487 151.17 150.056 174.279 153.731 160.49 76.0762 77.8546 -255.487 512.124 -4.12627 -303.837 495.362 -61.5203 -344.388 489.379 -71.6246 -333.992 499.952 33.6314 -347.854 504.784 34.9979 -334.375 540.562 19.2642 11.603 96.0226 15.3563 
175.302 166.178 165.28 150.745 150.054 175.009 153.828 160.964 76.858 77.7051 -256.121 513.778 -4.05989 -304.688 496.123 -60.9888 -345.405 490.797 -71.7745 -334.818 501.656 34.3281 -348.716 506.605 35.0695 -335.224 542.135 19.1737 11.9557 96.6756 15.6595 
174.934 168.288 164.87 150.727 150.053 175.045 154.229 160.735 77.0279 77.3864 -256.83 514.698 -4.06508 -304.783 496.237 -60.7085 -345.255 490.596 -71.381 -334.188 502.35 34.5575 -348.346 507.198 35.0906 -335.488 542.761 19.1179 12.0428 96.5825 15.5971 
175.277 168.511 164.617 151.225 150.008 174.668 153.876 160.346 76.5179 76.6342 -257.949 515.609 -4.2562 -306.23 497.439 -61.0086 -346.08 491.424 -71.1577 -334.583 503.501 34.2551 -349.137 508.286 34.978 -336.157 543.746 19.1618 11.6788 96.261 15.0185 
175.973 166.658 164.558 151.773 150.374 173.848 151.411 160.218 76.018 76.5127 -259.174 516.499 -5.28076 -307.603 498.004 -60.0766 -347.523 493.028 -71.3522 -334.989 504.729 33.6527 -349.647 509.39 34.8516 -337 544.645 19.0803 11.4215 96.3429 15.5172 
176.498 163.413 163.701 152.002 150.129 173.505 149.07 159.968 76.0858 76.7568 -260.494 517.445 -5.85099 -309.339 500.479 -60.0569 -349.836 495.491 -71.5961 -335.614 505.581 33.0125 -350.421 510.337 34.631 -338.007 545.833 19.232 11.132 96.3585 15.9292 
176.288 160.667 163.011 148.442 149.88 173.765 148.038 159.15 75.2574 76.7404 -261.584 518.509 -5.64757 -310.567 502.339 -60.1169 -351.278 496.898 -71.4256 -337.137 505.014 30.5748 -351.409 510.733 34.4148 -338.764 546.892 19.5613 10.5349 92.9362 15.9446 
176.525 159.016 162.404 149.066 149.887 173.445 147.786 158.288 74.6934 76.5569 -262.681 519.107 -5.57643 -312.79 503.947 -60.3315 -352.648 498.402 -70.872 -338.609 506.054 30.3805 -352.74 511.766 34.4705 -339.832 547.87 19.8223 10.5451 92.5682 15.1347 
176.435 158.035 162.09 150.916 149.765 173.858 146.707 157.758 74.672 76.3554 -263.561 520.171 -4.36777 -314.301 505.045 -59.7242 -353.631 500.119 -70.472 -340.459 506.679 29.3778 -354.761 513.09 34.1162 -341.221 549.416 19.9934 10.1846 90.8096 14.8502 
176.641 157.859 161.658 150.58 149.652 173.835 147.021 157.475 74.6629 76.7324 -264.82 521.354 -3.57012 -316.197 506.185 -59.8018 -354.785 501.638 -70.2657 -342.634 507.901 29.5977 -356.547 514.296 34.067 -342.635 550.867 20.1448 10.5434 90.7437 14.1819 
177.231 157.956 162.119 150.994 149.994 173.441 147.321 157.909 73.8879 77.2611 -266.743 521.941 -2.95537 -318.528 507.624 -59.7945 -356.831 503.759 -70.238 -345.488 509.84 29.6219 -359.11 515.924 34.4007 -344.271 552.565 20.214 10.2547 91.0587 13.8711 
177.588 157.831 163.097 152.933 150.66 172.95 147.65 158.647 73.5416 77.3355 -268.977 522.885 -2.45365 -320.432 509 -59.7388 -358.846 505.469 -70.2 -347.573 511.631 29.6525 -360.921 517.968 34.737 -345.968 554.215 20.2377 10.4648 91.306 13.8997 
178.764 161.536 165.278 154.486 150.567 170.949 149.61 160.049 75.7114 77.3907 -272.586 523.317 -2.71101 -322.048 509.194 -59.6451 -360.193 505.788 -70.2192 -347.812 514.484 33.3232 -362.63 520.058 35.7135 -347.606 555.577 20.3248 9.96796 95.3783 13.6212 
179.528 161.122 165.873 154.473 150.024 169.786 150.384 160.894 75.4575 76.7214 -274.895 523.548 -2.65663 -324.199 509.81 -59.2599 -362.145 507.214 -70.2185 -349.481 516.474 34.7855 -364.454 521.499 36.2741 -348.931 556.583 20.5942 10.3227 97.4932 13.6358 
179.477 164.336 167.083 154.105 149.097 168.613 151.484 161.681 76.1351 76.3887 -277.3 523.849 -2.60475 -326.995 510.426 -58.8486 -363.76 508.808 -70.3923 -351.547 519.337 37.2779 -366.828 523.381 36.6395 -350.419 557.924 20.7492 11.5545 100.637 12.9571 
178.407 166.95 167.512 154.487 148.896 167.331 152.961 162.629 76.7016 76.15 -280.164 524.636 -2.03998 -329.171 512.031 -59.2204 -365.182 510.824 -70.8868 -353.532 522.086 38.9109 -369.008 525.594 36.9099 -352.189 559.789 20.7713 12.4633 102.989 12.4088 
177.578 168.707 169.003 154.66 149.093 166.308 153.834 163.432 77.031 75.8927 -282.995 525.576 -1.97358 -331.333 513.758 -59.3085 -366.881 512.956 -70.7954 -355.313 525.191 40.4954 -370.724 528.214 37.5217 -353.81 561.643 20.8367 13.2734 105.34 12.0872 
177.931 166.798 167.015 154.551 148.74 166.247 155.059 162.958 76.866 75.3299 -284.763 527.324 -1.7415 -333.524 516.36 -60.0628 -368.709 514.902 -70.0382 -356.768 528.206 41.1853 -372.36 531.065 38.0545 -355.342 564.008 21.0691 13.3841 105.72 11.3249 
178.209 165.915 166.895 154.673 148.902 166.257 155.381 163.11 76.2567 74.9557 -285.53 527.451 -2.8632 -335.04 517.172 -61.1943 -369.955 515.904 -70.7884 -357.649 529.272 40.7818 -373.002 532.081 37.8073 -355.78 564.543 20.6881 13.5403 106.222 10.9681 
179.006 165.354 166.721 153.961 148.931 166.898 155.62 162.655 76.4985 75.3067 -285.086 528.454 -3.02403 -335.356 518.065 -61.9741 -369.951 516.242 -71.0269 -358 529.179 40.1304 -373.022 532.526 37.6513 -355.968 565.309 20.4748 13.1665 104.932 10.4992 
179.241 164.852 166.724 153.938 148.954 167.14 155.344 162.911 76.5521 75.544 -284.572 529.465 -2.66225 -334.681 518.35 -61.5229 -369.387 516.889 -71.7294 -357.57 529.677 39.5777 -372.76 532.957 37.2293 -355.953 566.158 20.1813 12.955 104.684 10.9679 
178.135 164.275 168.033 154.245 149.242 168.973 155.341 163.349 76.6349 76.3427 -282.869 530.671 -2.07853 -334.357 518.907 -61.3488 -369.397 518.252 -72.0587 -357.907 530.63 39.5265 -372.796 533.718 36.99 -355.806 567.253 20.1782 13.389 104.741 11.4291 
177.215 164.185 168.806 153.537 149.389 169.96 154.859 163.665 75.5198 76.3243 -282.115 532.89 -2.01474 -333.772 520.575 -61.2662 -369.651 519.856 -72.4006 -358.159 531.613 37.7177 -372.961 534.964 36.3553 -355.959 568.871 19.93 12.5368 103.182 12.0973 
177.279 162.798 164.873 152.336 149.38 170.555 152.689 160.312 75.6284 76.4687 -281.229 534.9 -2.82416 -333.772 522.539 -61.2997 -368.16 520.127 -71.0474 -358.395 531.508 35.8627 -372.877 535.792 35.5334 -355.81 570.302 19.5756 11.8323 98.9029 10.6174 
177.086 160.718 163.321 153.878 149.922 171.137 150.386 158.364 74.1763 76.2627 -280.786 537 -3.66017 -333.555 524.984 -61.1297 -367.679 522.152 -70.6063 -357.269 532.889 33.3146 -372.246 537.373 34.953 -355.466 572.166 19.4688 10.1325 95.9557 10.4956 
177.558 168.632 164.712 156.667 150.606 171.547 152.46 158.844 73.0238 76.2789 -279.205 539.371 -3.23271 -328.225 525.327 -59.5761 -364.999 522.805 -71.5191 -354.638 534.467 31.6984 -370.514 538.29 34.2862 -354.429 573.564 19.0002 8.64004 95.1322 13.3861 
176.02 163.415 160.871 160.543 151.102 172.994 148.372 156.215 72.8915 75.8534 -276.962 541.297 -4.17941 -327.98 527.731 -59.4815 -364.045 524.69 -71.1877 -352.85 535.347 29.8439 -369.308 539.531 33.3758 -353.557 574.925 18.3086 7.59642 93.2416 13.0949 
177.112 159.275 160.019 157.787 151.723 172.257 146.937 156.442 75.1388 76.788 -276.161 541.452 -4.65721 -326.628 528.185 -59.4932 -362.308 524.304 -72.395 -350.7 535.45 29.8224 -367.108 539.88 32.585 -352.32 575.621 17.0753 8.21546 93.6332 13.0588 
178.618 155.068 162.609 156.603 151.548 171.759 145.76 158.122 77.9668 77.7822 -275.218 542.214 -4.60618 -322.735 527.459 -58.3527 -359.62 524.212 -73.8766 -348.391 532.024 27.8166 -364.194 539.353 32.1209 -350.403 575.91 16.6893 8.76427 90.3534 14.9148 
177.596 151.829 161.417 156.536 152.036 172.682 145.313 157.854 76.4665 77.8823 -273.599 543.36 -5.5248 -320.793 528.115 -57.6855 -358.45 525.316 -74.3089 -347.287 533.255 26.4922 -362.033 540.422 31.5498 -348.896 576.799 16.1191 9.77051 89.8686 16.2052 
178.529 151.276 161.86 152.91 152.916 172.007 150.199 158.591 77.2036 78.6496 -272.596 543.256 -5.94834 -319.838 527.29 -59.3174 -356.641 525.036 -75.2932 -346.161 534.019 26.9956 -359.823 541.305 31.2989 -347.051 577.456 15.2964 11.1097 90.8613 15.3946 
178.915 154.338 161.196 152.947 152.218 171.969 148.89 157.656 77.413 78.6829 -270.875 544.33 -6.18287 -316.04 528.404 -59.3915 -353.943 525.502 -74.9773 -343.536 533.509 25.2623 -357.841 541.375 30.9103 -344.928 578.122 15.2139 10.3626 88.3657 15.9526 
179.358 169.59 162.431 151.004 152.477 171.846 150.688 158.927 76.0257 78.6139 -269.278 543.699 -6.83207 -311.864 528.125 -59.3446 -351.789 527.312 -77.0356 -341.357 534.245 23.9188 -355.676 541.412 30.3773 -342.51 578.373 14.9083 9.87574 88.9499 18.5172 
179.654 162.852 162.529 151.044 152.297 171.593 146.868 159.085 75.6449 78.8661 -267.275 544.531 -6.47088 -308.318 527.256 -55.9956 -349.081 528.375 -77.7081 -339.388 535.245 23.0178 -353.317 542.223 29.3349 -340.636 579.498 14.4987 10.3572 88.491 21.4342 
179.418 157.436 161.952 152.056 151.853 172.07 141.741 158.117 75.5642 78.9219 -264.252 545.468 -6.59631 -305.997 527.841 -54.6519 -347.13 529.286 -77.8753 -337.62 534.756 21.7196 -351.751 541.997 28.8953 -338.601 579.735 14.4393 10.0612 87.0919 22.5024 
179.369 156.65 162.13 153.62 151.763 172.317 142.458 157.849 76.5807 79.0276 -262.307 545.977 -6.05058 -302.704 528.578 -54.7892 -344.477 529.985 -77.8569 -334.827 533.762 20.5264 -349.416 542.064 28.895 -336.347 580.2 14.6369 10.2704 85.1726 22.8724 
179.74 147.83 162.187 158.144 152.501 171.973 146.367 157.74 77.1376 79.023 -260.245 546.621 -6.35581 -301.09 529.154 -55.8485 -341.743 530.361 -78.3665 -332.349 534.621 20.4821 -347.464 543.369 28.3453 -334.209 581.054 13.9205 10.1014 85.5057 21.7865 
179.755 142.007 161.028 156.953 152.01 171.597 146.913 157.481 76.9473 79.2958 -257.517 546.633 -7.14264 -299.136 528.806 -55.3778 -339.499 530.267 -78.3379 -330.404 534.708 20.0731 -345.216 543.292 28.1241 -331.729 581.051 13.2589 10.1885 85.3761 22.1702 
178.593 148.189 161.123 154.385 150.919 170.256 150.691 157.333 77.1188 78.7985 -256.636 547.674 -7.03226 -293.162 530.937 -55.6916 -337.443 531.454 -78.5036 -328.388 535.605 18.8501 -343.649 544.417 27.551 -329.774 582.667 13.2142 9.96444 83.7651 24.1884 
176.954 129.143 162.186 156.782 151.708 168.718 148.422 158.315 77.2711 78.5271 -255.124 548.897 -7.29645 -294.922 530.823 -51.0129 -335.675 532.362 -80.1726 -325.244 538.984 21.3457 -341.625 546.178 26.9696 -327.893 584.13 11.9643 7.89119 89.0481 26.1193 
176.723 178.546 162.151 154.744 151.526 169.014 149.623 158.571 79.1693 79.9281 -252.466 550.568 -6.86753 -289.857 531.996 -53.936 -332.333 532.295 -80.7426 -321.666 538.092 19.3137 -338.385 546.25 26.1691 -325.441 585.14 10.9645 8.2201 86.8835 25.3514 
176.141 174.27 161.487 154.725 152.083 168.43 134.601 158.188 78.6007 80.2035 -251.028 550.688 -6.15498 -288.028 532.989 -50.0921 -329.584 533.713 -80.7989 -318.421 539.265 19.4938 -335.106 546.839 26.3343 -322.808 585.805 11.0044 8.05731 88.0145 27.3891 
174.485 174.27 160.66 153.548 151.581 167.833 126.466 157.633 80.2627 79.4993 -246.396 553.611 -7.09714 -282.115 537.492 -47.1657 -323.824 538.66 -83.0624 -310.348 540.936 15.0039 -329.072 548.852 23.0323 -317.679 588.93 9.36902 7.15678 85.9881 31.7341 
175.788 174.27 159.735 152.285 151.942 169.167 113.784 157.058 79.2307 79.4485 -242.192 554.566 -7.58197 -278.829 538.265 -41.8245 -321.503 540.92 -84.0734 -307.683 541.406 12.7975 -325.308 549.094 21.273 -315.15 589.134 8.79785 8.40588 85.58 37.6637 
175.666 174.27 159.853 147.792 150.749 170.018 104.419 157.225 80.1178 78.5821 -240.073 558.483 -6.98865 -275.102 543.303 -38.8066 -320.673 544.381 -84.1897 -305.919 542.231 8.18483 -323.69 551.358 19.4277 -313.75 592.174 8.6599 10.3331 80.8573 41.2921 
178.004 169.087 159.763 148.641 151.561 172.712 100.971 157.041 80.6357 79.1964 -235.76 561.667 -9.21949 -272.44 548.177 -39.937 -321.246 549.934 -85.5664 -303.876 544.459 7.14164 -321.744 553.065 17.9026 -311.411 594.266 8.26945 9.11525 82.5305 43.4621 
178.056 126.705 160.446 148.962 151.028 173.625 97.4945 157.529 80.8304 79.2008 -233.783 565.04 -10.7279 -271.037 555.079 -39.908 -320.646 554.05 -86.9845 -302.445 547.604 6.21014 -320.764 555.588 16.3924 -310.058 597.233 7.57607 7.80764 83.0401 44.521 
178.295 121.095 162.391 147.701 151.222 173.84 96.5323 159.105 81.8329 79.7123 -231.344 567.293 -11.3215 -267.599 558.069 -39.273 -320.097 557.663 -88.6983 -300.65 549.765 5.78655 -318.94 558.092 15.8303 -308.416 599.462 6.68296 8.1298 84.7269 48.105 
178.251 107.951 164.457 147.899 151.538 173.789 109.657 161.312 81.5198 80.7491 -229.261 569.68 -10.3368 -266.984 560.151 -48.6884 -317.563 558.464 -89.2994 -299.135 551.36 6.62224 -316.574 559.474 16.5087 -306.551 601.258 6.35684 8.66638 85.5774 38.6579 
177.321 174.27 164.626 150.391 152.089 174.793 137.992 161.761 87.2619 80.9119 -226.75 572.075 -10.3836 -263.341 559.939 -64.4643 -314.428 560.377 -90.0764 -295.454 548.448 4.8817 -314.034 559.921 16.8272 -304.492 602.501 6.45283 10.7301 82.8436 30.0575 
179.692 154.006 167.721 151.553 153.349 174.761 164.722 163.45 85.3842 81.1129 -225.008 575.992 -12.1119 -264.854 565.926 -74.6681 -313.909 561.892 -91.0366 -295.142 551.303 4.70959 -312.768 562.697 17.3774 -303.277 604.77 5.81983 11.8786 83.31 23.7944 
179.262 154.7 166.877 154.059 153.501 174.665 169.247 162.719 86.5655 82.228 -222.643 580.664 -13.4443 -264.354 569 -78.3494 -311.258 561.78 -90.8574 -292.487 551.114 2.60539 -309.968 563.265 16.771 -301.541 606.301 5.18768 13.1484 80.3304 20.9849 
179.659 159.593 165.462 153.442 154.351 175.495 165.385 160.457 84.124 82.6083 -219.745 582.93 -15.2736 -263.933 569.09 -79.4327 -310.631 563.219 -90.1306 -292.155 553.262 0.761038 -307.849 564.678 15.8626 -299.553 607.686 4.31658 14.3074 78.9935 20.7413 
177.832 159.724 161.51 150.098 153.5 176.206 158.183 158.551 86.1132 85.0548 -217.674 586.023 -17.7373 -264.129 569.895 -80.8948 -308.895 562.072 -89.2125 -291.342 553.16 -0.0914345 -305.867 564.32 14.1957 -298.152 608.847 3.43697 13.605 76.3657 18.8047 
178.6 159.587 161.113 145.069 152.339 175.419 153.658 157.978 85.6071 84.6613 -215.913 589.221 -19.9926 -266.292 572.391 -82.8518 -308.098 560.845 -88.0493 -289.908 555.377 -0.950781 -303.795 565.82 12.8204 -296.416 610.265 2.6764 13.3411 74.436 16.2315 
179.71 152.624 162.473 142.15 150.742 174.966 150.036 156.617 82.2907 82.36 -213.455 589.917 -20.2661 -262.736 567.001 -78.5342 -303.59 558.393 -86.2045 -289.806 558.838 0.0257206 -303.684 568.741 13.3931 -294.426 611.357 2.30944 13.065 72.4764 15.8159 
177.071 156.542 163.358 145.092 150.989 171.279 145.307 157.673 76.72 80.0162 -213.213 586.264 -20.3303 -258.269 567.465 -77.1811 -300.775 558.033 -86.7125 -286.806 563.645 1.36059 -301.274 570.867 12.813 -292.246 611.856 0.866746 10.8603 76.6116 17.6838 
172.544 156.223 162.903 149.079 151.436 170.085 137.688 157.194 74.4259 78.5949 -210.45 585.391 -18.9735 -255.542 568.708 -74.6783 -298.423 558.215 -85.8868 -284.599 565.964 3.21739 -299.376 571.925 13.2908 -290.202 612.068 0.703646 9.64572 79.2781 18.6774 
172.153 153.079 165.947 153.038 152.647 170.854 132.524 158.953 73.6183 77.1485 -204.307 584.363 -18.6788 -251.561 570.307 -74.48 -294.964 559.578 -86.6841 -279.868 567.088 3.07217 -295.255 572.785 12.6342 -285.788 611.963 -0.0144289 9.03945 81.213 19.4816 
175.75 165.646 161.175 154.923 152.808 173.497 136.055 156.938 73.5368 77.3323 -200.137 583.05 -18.8749 -248.006 566.776 -74.2183 -290.299 558.444 -87.3139 -277.399 565.804 2.67349 -293.72 571.196 11.9346 -282.809 610.613 -0.237757 7.60063 80.5779 18.849 
175.011 160.663 157.303 156.062 153.479 174.869 137.812 153.301 73.4887 76.682 -196.203 584.455 -18.6879 -247.676 567.029 -75.5201 -286.873 556.946 -85.08 -275.52 566.178 2.79575 -292.393 571.714 12.1191 -281.192 610.699 -0.583331 7.27765 78.8919 15.8407 
174.037 167.267 156.282 157.552 153.865 175.915 140.107 153.574 73.4387 76.1422 -194.178 583.739 -17.7741 -246.755 568.559 -77.7847 -285.685 558.125 -85.4528 -274.949 568.053 5.88241 -291.762 573.351 12.7736 -279.348 611.035 -0.64018 7.02341 83.5291 14.9767 
175.537 168.58 158.674 157.373 154.572 177.222 143.502 153.81 73.9119 75.642 -192.966 583.562 -17.9733 -245.503 569.702 -79.4379 -284.236 558.668 -85.2237 -274.399 569.63 7.34032 -291.444 575.542 13.5215 -277.798 611.945 -0.876333 7.05366 85.1536 14.5228 
176.133 165.077 158.575 160.053 155.328 178.109 142.775 151.842 68.5315 75.4826 -190.411 586.155 -17.8053 -243.853 571.763 -79.3516 -282.494 561.235 -84.8365 -277.538 572.312 5.48643 -290.895 577.976 13.864 -276.452 613.993 -0.577169 10.7833 82.5557 14.4165 
