173.553 173.451 168.952 169.581 166.048 167.269 171.18 171.408 176.446 82.7944 13.9043 308.903 15.29 1.10498 252.311 -50.9584 -35.0449 229.902 -60.4535 -51.0127 227.399 -39.3305 -88.3691 286.413 32.0005 -67.8315 310.558 1.96756 97.7719 12.8185 15.8486 
171.626 173.581 168.338 166.537 165.724 166.77 170.886 171.077 175.42 81.1498 14.4305 309.396 15.1246 1.72889 253.275 -50.9354 -35.2592 230.398 -60.19 -49.7869 227.503 -33.1369 -88.0595 287.462 31.0183 -67.1109 311.257 1.72803 93.1336 17.5289 16.6394 
170.503 173.356 167.284 170.905 165.528 166.305 170.387 170.51 176.904 80.9316 15.1379 309.937 15.2453 2.49125 253.617 -50.5778 -35.0822 230.332 -59.3566 -49.7118 227.821 -28.9955 -87.2081 287.389 30.7781 -66.2476 311.44 1.57602 89.9434 20.0839 17.253 
169.524 172.74 166.091 174.27 164.704 166.016 169.882 170.131 179.043 81.179 15.6109 311.55 15.4545 3.58208 255.057 -50.1329 -34.1769 231.261 -58.4211 -51.903 227.706 -26.7244 -86.0986 287.139 30.7764 -65.406 312.235 1.60641 87.7757 20.9371 17.6839 
169.137 172.035 165.033 174.27 164.016 166.256 169.042 169.703 178.939 81.8105 16.4108 313.552 15.5522 4.73623 256.694 -49.9605 -32.6997 232.501 -57.8861 -52.4889 228.3 -26.1735 -84.4543 286.654 30.8232 -64.5304 313.032 1.6629 86.3522 20.9506 17.7258 
169.727 171.513 164.297 174.27 163.031 166.518 168.399 169.104 178.434 81.787 17.0392 315.435 14.9552 5.5671 258.599 -50.121 -31.9568 233.872 -57.7034 -50.6831 225.988 -22.2113 -83.3771 287.341 30.8587 -63.7674 314.315 1.64218 82.3841 24.2188 18.0201 
171.162 171.298 163.692 174.27 161.713 166.56 167.917 168.774 178.278 82.1705 17.5728 316.256 14.9956 5.98627 259.257 -49.7638 -31.3287 234.755 -57.4644 -50.9368 225.336 -17.2596 -82.7498 288.021 30.9631 -62.9967 315.327 1.62893 78.4011 27.9253 17.8465 
173.956 171.107 163.249 174.27 160.693 166.381 167.517 168.389 178.077 82.5758 18.2274 316.787 14.449 6.58312 259.531 -49.7983 -30.7645 234.919 -57.3098 -50.7786 223.227 -11.9093 -81.7573 288.1 31.4533 -62.209 315.79 1.60951 74.4622 31.652 17.8717 
177.785 170.813 162.938 174.27 160.286 165.894 166.948 167.55 178.013 82.5031 18.8299 317.461 13.5878 7.4481 260.387 -50.3397 -30.0654 235.139 -57.2604 -49.8166 219.737 -7.92935 -80.5497 288.011 31.7498 -61.4743 316.137 1.59603 71.6714 34.0988 18.1669 
179.242 170.524 162.614 174.288 160.204 165.624 166.416 166.812 178.008 82.2672 19.4598 318.615 12.7405 8.1911 261.514 -50.8361 -29.3799 235.669 -57.1802 -48.912 216.682 -5.21089 -79.343 288.083 31.9105 -60.8084 316.728 1.5604 69.7701 35.4946 18.399 
177.376 170.393 162.375 174.335 159.961 165.484 166.153 166.246 178.018 82.2195 20.0124 319.576 12.9275 9.25943 262.918 -50.8912 -28.2913 237.001 -57.489 -48.3309 215.662 -6.06863 -78.7744 288.913 31.4409 -60.1125 317.698 1.39282 70.0251 35.1855 18.4811 
174.727 170.292 162.188 174.352 159.862 165.286 166.085 166.125 178.022 82.4538 20.3542 319.86 13.2794 10.0514 263.767 -50.9043 -27.3386 238.25 -58.1111 -47.7786 215.798 -6.88965 -78.4544 289.933 31.1963 -59.4668 318.558 1.21194 70.5225 35.23 18.2657 
172.682 170 162.007 174.363 160.421 165.352 165.948 166.098 178.025 82.7543 21.0619 319.948 13.4148 10.4774 263.823 -51.0428 -26.5813 238.921 -58.654 -47.599 215.754 -8.55998 -77.9698 290.251 31.1893 -58.7804 319.036 1.06799 71.285 34.6126 17.8077 
170.992 169.873 161.91 174.381 161.604 165.293 166.215 166.249 178.031 81.906 21.7308 319.639 13.3083 10.6914 263.439 -51.4355 -26.6188 238.952 -59.3083 -47.8991 215.502 -5.01725 -77.8042 290.98 31.0578 -58.1615 319.223 0.989178 69.605 37.2691 17.748 
169.901 169.884 161.964 174.425 162.946 164.913 166.699 166.372 178.044 80.799 22.0986 319.693 13.3052 11.3104 263.816 -51.8852 -26.4146 239.347 -60.0576 -47.4558 214.942 -0.446992 -77.6573 291.742 30.5811 -57.6159 319.536 0.948985 67.1779 40.5724 17.9698 
168 169.87 162.122 174.457 163.628 164.277 167.021 166.186 178.054 79.3698 22.3073 319.325 13.1146 11.6901 263.69 -52.2459 -26.042 239.233 -60.2679 -47.1687 215.115 4.41386 -77.4475 292.403 29.9653 -57.1623 319.663 0.845896 64.5717 43.5775 17.9195 
167.359 169.912 162.301 174.493 163.603 163.695 167.303 166.012 178.064 77.9255 22.4658 319.47 13.8923 12.1727 264.228 -52.2784 -25.6429 239.97 -60.7274 -46.5403 216.281 10.1167 -77.7597 293.776 28.9184 -56.8275 320.19 0.805076 61.473 47.4413 17.9443 
166.258 170.2 162.86 174.569 163.463 163.188 167.695 166.057 178.085 76.7452 22.4365 319.651 14.6412 12.5741 264.802 -52.2257 -25.2976 240.706 -61.2055 -45.8283 216.632 16.5444 -78.0148 295.402 28.1268 -56.5575 320.837 0.854466 58.5574 51.3821 17.9382 
164.753 170.449 163.351 174.634 163.904 162.692 168.361 166.135 178.103 75.8807 22.8059 320.227 16.1006 13.1864 265.669 -52.1142 -24.4098 242.088 -61.976 -45.6305 218.403 23.3315 -78.2865 298.119 27.1654 -55.9547 322.02 0.77924 55.9342 55.7757 17.6411 
165.24 170.632 163.572 174.629 164.199 162.79 168.976 166.557 178.102 76.8873 23.0395 320.602 17.4297 13.3648 265.658 -51.6341 -24.2918 242.651 -62.1755 -46.5215 220.215 25.4899 -78.5717 299.516 27.3256 -55.742 322.648 0.761868 55.2462 57.4995 17.5348 
164.637 170.978 163.994 174.664 164.571 163.106 169.371 166.997 178.112 77.5074 23.5172 320.812 18.037 13.6153 265.344 -51.6039 -24.0388 242.689 -62.5468 -46.6516 219.585 26.9677 -78.3299 300.133 27.6133 -55.3615 322.755 0.799303 55.2878 58.3563 17.3901 
164.854 171.215 164.18 174.701 165.28 163.536 169.926 167.398 178.122 78.5303 24.1353 321.088 18.5252 14.2278 265.26 -51.7031 -23.3245 242.902 -62.8739 -46.7237 218.181 27.4888 -78.0066 300.645 28.0135 -54.8931 322.786 0.810661 56.0545 58.5745 17.2191 
166.463 171.525 164.75 174.701 165.425 164.199 170.386 168.002 178.122 78.9241 24.6572 321.189 18.8603 14.8121 265.21 -51.5578 -22.9553 243.006 -63.0302 -47.1463 218.166 26.9404 -77.8573 300.954 28.1057 -54.4955 322.885 0.919478 56.543 58.5077 17.3235 
167.873 171.834 165.47 174.685 165.567 164.56 170.74 168.55 178.118 79.3398 25.1277 321.115 19.3589 15.7688 264.836 -51.2915 -22.2924 242.736 -63.2683 -47.5348 218.546 26.7849 -77.6423 300.909 28.2287 -54.0339 322.638 1.04739 56.6539 58.8697 17.5102 
169.626 172.148 166.084 174.677 165.443 164.969 171.053 169.042 178.117 79.2355 25.6016 321.41 19.9645 16.8441 264.677 -51.0397 -21.4626 242.548 -63.4474 -47.6778 218.93 26.873 -77.6244 300.991 28.0524 -53.6313 322.516 1.12245 56.5945 59.2636 17.7227 
171.885 172.525 166.819 174.627 164.884 165.489 171.429 169.687 178.103 78.9679 26.0057 321.738 20.6654 17.9052 264.689 -50.6516 -20.7191 242.597 -63.7059 -48.3434 221.219 26.8167 -77.7584 301.315 27.6837 -53.2632 322.651 1.16925 56.0281 60.1086 17.9962 
173.843 172.822 167.1 174.627 164.562 165.745 171.744 170.097 178.103 79.1766 26.364 322.492 21.2868 19.1866 265.316 -50.2712 -19.757 242.744 -63.5525 -48.0449 220.957 26.5616 -77.3934 301.233 27.7137 -52.7478 322.707 1.35577 56.1714 59.9902 18.4351 
177.368 172.991 167.475 174.538 163.71 166.448 171.827 170.336 178.079 78.9656 27.08 323.842 21.3408 20.1409 266.026 -50.1479 -19.0815 242.812 -63.4744 -47.7304 224.254 25.8256 -76.765 301.145 27.6965 -52.3342 322.908 1.45394 55.5618 60.3401 18.8353 
178.514 173.138 167.609 174.424 162.45 166.877 171.871 170.323 178.047 78.7228 27.4976 324.686 21.6964 20.9419 266.455 -49.6456 -18.3256 242.847 -63.1027 -47.7005 227.93 24.9134 -76.3514 301.148 27.4088 -51.9054 323.095 1.51268 54.7887 60.6326 19.078 
174.391 173.069 167.468 174.428 161.569 167.515 171.691 170.182 178.048 78.8447 28.2299 325.628 21.7512 21.3123 266.628 -49.3847 -17.9037 242.892 -62.7768 -47.2416 227.1 23.2599 -75.8195 300.687 27.3783 -51.4699 323.133 1.62958 55.2201 59.3192 19.1404 
171.042 172.812 167.184 174.458 160.8 168.286 171.467 170.119 178.057 79.4507 28.9781 326.176 22.1573 21.507 266.48 -48.9225 -17.4671 243.111 -62.4302 -47.0316 225.105 20.7678 -75.379 300.263 27.3441 -50.9424 323.198 1.67799 56.299 57.3884 18.9645 
168.194 172.346 166.831 174.528 160.405 169.289 171.091 170.023 178.075 80.3918 29.9829 327.218 22.4556 21.7741 266.583 -48.6784 -16.9172 243.439 -62.1339 -46.3656 221.46 18.0551 -74.6519 299.566 27.7234 -50.3837 323.202 1.79808 57.939 55.0295 18.7603 
165.738 171.884 166.455 174.572 160.306 170.405 170.582 169.943 178.087 81.6751 31.1378 328.066 22.7969 22.1779 266.279 -48.3859 -16.2332 243.489 -61.8711 -45.9485 218.283 14.9951 -73.775 298.511 28.3956 -49.747 322.915 1.93327 59.6202 52.8005 18.4951 
163.772 171.467 166.18 174.585 159.971 171.362 170.158 169.74 178.091 82.4844 31.9504 328.994 22.9797 22.6514 266.531 -47.9896 -15.5947 243.874 -61.576 -45.6021 216.936 12.196 -73.0453 297.589 28.7522 -49.1826 322.954 2.13593 60.5184 51.056 18.408 
161.999 171.209 165.705 174.552 158.996 172.134 169.875 169.576 178.084 82.8729 32.5748 329.883 23.0751 23.3212 266.785 -47.5201 -14.853 244.003 -61.1118 -45.734 217.242 9.48046 -72.3643 296.534 28.914 -48.63 322.953 2.37781 61.0424 49.5681 18.4585 
160.427 170.988 165.314 174.501 157.663 172.803 169.415 169.258 178.071 82.7932 33.2362 330.633 22.9488 23.8576 266.673 -46.8554 -14.3999 243.745 -60.4678 -45.5276 218.591 7.76367 -71.742 295.395 28.8497 -48.1345 322.896 2.63249 60.613 48.4485 18.597 
159.602 170.678 165.136 174.406 156.511 173.264 169.048 168.951 178.047 82.9422 33.7763 331.362 22.56 24.3383 266.722 -46.2072 -14.0201 243.505 -59.6838 -45.632 221.168 5.80059 -71.1445 294.334 28.7703 -47.6515 323.031 2.8883 60.0509 47.169 18.7782 
159.924 170.385 164.965 174.35 155.739 173.29 168.678 168.438 178.033 83.4026 34.152 331.88 22.0724 24.6814 266.882 -45.6151 -13.4839 243.369 -58.6798 -45.358 222.828 3.54185 -70.4138 293.454 28.7936 -47.1846 323.389 3.12863 59.9258 45.2587 18.729 
161.829 169.817 164.638 174.288 155.373 172.986 168.042 167.643 178.018 84.6432 34.5991 332.311 21.5033 24.7746 267.052 -44.9167 -12.8888 243.521 -57.5167 -45.1068 225.085 -0.109156 -69.6465 292.548 28.9774 -46.6613 324.038 3.34728 60.3797 42.3426 18.385 
162.835 169.25 164.278 174.27 155.495 172.765 167.609 167.002 178.019 85.8335 35.0093 332.627 21.5592 24.4705 267.027 -44.2663 -12.7537 243.874 -56.576 -45.0424 227.629 -2.05183 -69.2043 292.341 29.0657 -46.2276 324.869 3.49965 60.1805 40.6115 17.9592 
163.465 168.855 164.098 174.27 155.789 172.593 167.319 166.604 178.023 86.9067 35.4892 333.143 21.5089 24.3991 267.029 -43.7928 -12.4365 244.196 -55.7699 -44.6509 229.541 -3.64548 -68.6432 292.254 29.2817 -45.698 325.653 3.63757 60.2174 39.0398 17.5536 
163.399 168.488 163.936 174.27 155.962 172.788 167.222 166.324 178.092 87.5561 36.0957 333.717 21.6149 24.5329 266.942 -43.4543 -12.1814 244.317 -55.1155 -44.2838 232.153 -5.65587 -68.013 291.889 29.7206 -45.1724 326.184 3.92263 60.7677 37.2188 17.3217 
162.626 168.346 164.125 174.27 156.737 173.041 167.292 166.278 178.66 88.2329 36.6976 333.723 22.0796 25.0369 266.617 -43.3857 -12.0148 244.113 -54.9779 -43.5723 234.626 -5.66057 -67.6024 291.831 30.0102 -44.5348 326.43 3.98715 60.2605 37.0645 17.4552 
161.092 168.438 164.247 174.27 157.404 172.822 167.635 166.441 178.896 88.8549 36.9685 333.474 22.8488 25.5765 265.967 -42.8768 -11.6147 243.806 -54.6445 -43.3253 235.26 -6.23836 -67.4992 291.956 30.0436 -43.898 326.463 4.04504 60.5474 36.5729 17.4735 
160.494 168.673 164.797 174.27 158.301 172.527 168.099 166.806 179.867 88.8488 37.204 332.871 23.2232 25.9587 265.281 -42.5777 -11.4861 243.322 -54.3393 -43.3895 237.933 -3.92338 -67.558 292.831 30.0844 -43.2744 326.689 4.08773 59.1058 38.2233 17.5573 
160.339 168.657 164.981 174.27 158.528 172.113 168.309 167.012 179.137 88.606 37.466 332.166 23.0558 26.3478 264.534 -42.3197 -11.374 242.562 -53.8698 -43.6417 239.665 -2.19885 -67.2662 293.04 30.0912 -42.6442 326.532 4.11292 57.9675 39.3818 17.7076 
161.272 168.446 164.851 174.27 158.171 172.067 168.331 166.894 178.519 88.4887 38.0547 331.839 22.1634 26.412 263.489 -42.0311 -11.3733 241.387 -52.8198 -43.6177 239.792 -3.30509 -66.5837 292.085 30.2649 -42.0199 326.17 4.36722 58.3767 37.6487 17.6802 
161.928 168.263 164.535 174.27 158.308 172.12 168.53 166.859 178.862 88.3543 38.759 332.639 21.321 26.8946 263.376 -41.844 -10.6395 241.138 -52.0391 -42.8549 239.328 -3.35821 -65.6586 291.942 30.5793 -41.4232 326.224 4.52771 58.7248 36.857 17.4731 
162.304 168.113 164.159 174.27 157.902 172.27 168.495 166.556 178.717 88.1275 39.6026 333.374 20.229 27.1199 263.022 -41.8346 -10.1812 240.826 -51.442 -42.1894 239.476 -4.76161 -64.5356 291.198 30.7673 -40.8059 326.161 4.72538 59.4117 35.1242 17.1947 
162.222 167.998 163.981 174.27 157.496 172.575 168.486 166.485 177.733 88.4539 40.3947 334.067 19.7814 27.3704 262.799 -41.6759 -9.38431 241.046 -51.3284 -41.6146 241.235 -6.93914 -63.5867 290.802 31.0354 -40.2008 326.334 4.89704 60.7536 33.316 16.6083 
161.347 167.901 163.579 174.27 157.448 172.928 168.367 166.578 176.657 89.1988 40.9564 333.99 20.0532 27.8856 262.412 -41.4119 -8.72965 241.423 -51.7518 -41.2838 242.855 -7.18435 -63.109 290.546 31.1389 -39.6189 326.346 4.9069 60.5163 33.6352 16.287 
160.504 167.869 163.02 167.43 157.41 173.675 168.249 166.792 175.783 89.601 41.6636 334.211 19.938 28.14 262.093 -41.4461 -8.47015 241.805 -52.2496 -41.0212 244.865 -5.91612 -62.7028 290.371 31.3364 -39.1532 326.423 4.91978 59.0679 35.1414 16.0498 
159.472 167.987 162.666 174.27 157.2 173.927 168.457 167.495 117.68 89.8191 41.8004 334.148 19.9726 28.4718 262.009 -41.3536 -8.25082 242.221 -52.7317 -44.8009 252.495 8.04586 -62.4332 290.561 31.6151 -38.7708 326.458 5.17502 46.7461 48.8351 15.9782 
159.141 168.343 162.8 174.27 156.578 173.824 168.607 168.001 84.1012 89.4633 41.8011 333.805 19.7918 29.1197 262.04 -41.2628 -7.65603 242.508 -53.1742 -47.0699 267.944 19.3487 -62.1426 291.057 31.6653 -38.3489 326.416 5.21748 30.1926 66.8539 15.9612 
159.802 168.513 162.785 139.294 156.148 173.68 168.731 168.336 71.2933 88.7823 41.9182 333.7 19.3381 29.7384 262.26 -41.3404 -7.07391 242.693 -53.4368 -49.3103 282.71 24.756 -61.7514 291.479 31.6168 -38.0041 326.436 5.16811 16.4797 83.9752 16.0006 
160.95 168.715 162.932 152.599 156.339 173.267 168.926 168.589 72.6358 88.2034 42.0179 333.207 19.407 30.3366 262.367 -41.3602 -6.66035 242.724 -53.708 -50.339 287.379 29.6065 -61.6501 292.074 31.4826 -37.7569 326.329 5.15317 12.527 92.4158 16.188 
161.807 168.867 162.992 155.211 156.318 173.125 169.173 168.901 73.6568 87.5588 42.2811 333.156 19.2324 30.7198 262.545 -41.5407 -6.31122 242.829 -53.9532 -50.656 289.379 31.5164 -61.4292 292.547 31.4868 -37.5841 326.247 5.17418 12.1453 95.8457 16.2378 
163.237 168.911 163.002 152.653 156.253 172.951 169.158 168.943 73.4719 86.8461 42.5529 333.075 18.6134 31.0968 262.728 -41.7822 -5.84961 242.838 -54.0596 -50.4292 289.855 31.6968 -60.8992 292.715 31.5624 -37.3519 326.18 5.21255 12.4917 96.5496 16.1859 
164.963 169.014 163.133 150.127 156.43 172.613 169.207 168.909 73.4139 86.1277 42.8009 333.007 18.1411 31.4765 263.107 -42.1533 -5.4156 242.924 -54.1469 -49.7931 290.435 31.8204 -60.3592 293.111 31.5367 -37.0976 326.257 5.19538 12.4235 97.0344 16.182 
166.152 168.99 163.067 139.378 156.683 172.418 169.122 168.606 71.4433 85.8009 43.1779 332.97 17.8408 31.8324 263.362 -42.4155 -4.96347 242.905 -54.0933 -49.2524 288.803 29.1752 -59.8069 292.975 31.5082 -36.8481 326.158 5.2012 13.6433 93.914 16.1648 
167.232 169.026 163.222 133.89 156.586 171.983 169.108 168.21 72.4511 85.4591 43.4226 333.036 17.3239 32.2181 263.755 -42.7358 -4.2515 242.858 -53.9987 -46.8978 285.125 27.2998 -59.0822 292.765 31.5247 -36.5441 326.144 5.22112 15.1363 88.2208 16.0146 
167.67 168.956 163.175 130.608 156.649 171.886 169.025 167.938 72.0209 85.4169 43.7888 333.181 17.0738 32.4233 263.992 -43.0477 -3.9876 242.78 -54.0316 -46.5645 283.879 25.9956 -58.5671 292.476 31.5831 -36.3226 326.031 5.20484 16.8351 86.154 16.0366 
167.582 168.962 163.077 129.981 156.671 171.58 169.033 167.903 71.0886 85.5397 43.8709 333.177 16.9493 32.4988 264.111 -43.3657 -3.85325 242.867 -54.3056 -47.123 284.691 25.8275 -58.2751 292.503 31.5953 -36.1411 326.013 5.0683 17.0445 87.3506 15.9906 
167.527 168.939 163.069 127.975 156.695 171.494 169.057 167.884 70.6926 85.7519 44.032 332.803 17.1013 32.3824 264.067 -43.6695 -3.94974 242.939 -54.7541 -47.412 284.739 25.2168 -58.2608 292.46 31.4657 -36.0559 325.955 4.9255 17.4666 87.4003 15.9449 
167.672 168.855 163.194 138.189 157.089 171.193 168.941 167.8 72.4114 85.6061 44.1316 332.034 17.034 32.1561 263.696 -44.0225 -4.49719 242.666 -55.1707 -47.4084 286.496 28.0861 -58.2604 292.66 31.1925 -35.9307 325.738 4.70864 14.8591 91.488 16.1201 
168.337 168.707 163.386 145.198 157.376 170.786 168.717 167.458 74.311 85.4829 44.2174 331.232 16.9819 31.95 263.361 -44.4697 -4.986 242.279 -55.5409 -46.9748 286.407 29.438 -58.3242 292.61 30.7483 -35.7779 325.474 4.45844 13.7232 92.4381 16.313 
169.328 168.595 163.688 152.801 157.388 170.18 168.604 167.091 75.512 85.2713 44.1963 330.442 16.9275 31.8239 263.079 -44.7537 -5.37007 241.869 -55.7511 -46.6257 287.022 30.7798 -58.3803 292.692 30.3337 -35.6631 325.236 4.26345 12.4878 93.9105 16.5223 
170.26 168.539 163.844 157.333 157.319 169.597 168.419 166.669 76.5349 84.7352 44.1366 329.809 16.7707 31.6786 262.982 -45.0338 -5.69769 241.69 -55.8425 -46.3303 287.546 31.7104 -58.3949 292.89 29.8532 -35.5392 325.165 4.10171 11.6954 94.8597 16.6698 
171.349 168.395 163.889 159.123 157.47 169.055 168.178 166.183 76.7921 84.2664 43.9842 329.037 16.867 31.6299 262.932 -45.2567 -5.99417 241.711 -56.0718 -46.3581 288.491 32.0026 -58.5745 293.305 29.2238 -35.4334 325.123 3.88625 11.1347 96.0344 16.8714 
172.21 168.13 163.866 157.341 157.681 168.671 167.829 165.712 76.2516 83.8203 44.0247 328.588 16.7557 31.4153 262.709 -45.3103 -6.36378 241.486 -55.906 -46.7511 289.287 31.9501 -58.4693 293.59 29.0634 -35.3286 324.963 3.80633 11.5309 96.9645 16.9905 
173.142 167.89 163.951 155.739 157.806 168.157 167.579 165.316 75.8674 83.4482 43.8807 328.208 16.7395 31.3076 262.6 -45.3177 -6.69455 241.363 -55.848 -47.2162 290.003 31.693 -58.5979 293.941 28.6605 -35.2787 324.873 3.64016 11.7966 97.6822 17.1991 
173.711 167.717 163.924 153.013 157.823 167.738 167.27 164.83 75.0722 83.159 43.7873 328.052 16.6696 31.2518 262.727 -45.3429 -6.75627 241.46 -55.7834 -47.1469 289.903 30.7792 -58.5148 294.143 28.3324 -35.1767 324.877 3.54662 12.0497 97.0652 17.2676 
174.51 167.557 163.835 152.326 157.846 167.453 166.995 164.416 74.8798 82.7123 43.8354 327.696 16.5413 31.1504 262.614 -45.4761 -7.02719 241.365 -55.768 -47.3594 290.396 30.6207 -58.4451 294.407 27.891 -35.0436 324.798 3.39976 12.2984 97.5351 17.4243 
175.92 167.416 163.854 151.668 158.083 166.98 166.588 164.01 74.5812 82.3767 43.784 327.062 16.0264 31.1106 262.632 -45.6857 -7.03932 241.399 -55.9386 -47.4887 290.638 30.165 -58.2172 294.608 27.431 -34.889 324.676 3.16822 12.7687 97.7138 17.4515 
177.722 167.659 164.115 150.804 158.376 166.359 166.551 163.972 73.9811 82.1259 43.6539 326.156 15.3687 31.4479 262.973 -46.1792 -6.58864 241.88 -56.8755 -47.396 291.011 29.2467 -57.88 294.949 26.7564 -34.6797 324.63 2.80259 13.1768 98.1182 17.3898 
179.158 167.755 164.057 150.919 158.361 166.035 166.169 163.615 74.1608 81.6622 43.5452 325.364 14.4078 31.689 263.465 -46.7959 -6.35088 242.461 -57.7239 -47.1712 290.899 28.6186 -57.4901 295.261 25.9529 -34.4412 324.702 2.43413 13.5724 97.8902 17.4224 
179.956 167.886 163.848 150.506 158.479 166.078 165.734 162.911 73.2705 81.1984 43.6201 324.991 13.0891 32.1821 264.486 -47.8368 -6.18136 243.053 -58.4852 -47.1045 290.526 27.3801 -56.8758 295.074 25.3127 -34.1746 324.785 2.15978 14.4789 97.0791 17.791 
178.937 167.684 162.928 149.494 158.403 166.259 164.917 161.267 71.9226 81.0777 43.6535 324.976 11.4871 32.9002 266.341 -48.984 -6.07614 243.959 -58.8545 -46.5478 289.6 25.4146 -56.0684 294.047 24.378 -33.8288 325.159 1.9632 14.9795 94.5561 18.5728 
177.553 167.469 161.561 145.981 158.523 166.318 163.945 159.459 70.7036 80.98 43.5678 325.303 9.96769 33.8808 268.722 -49.948 -5.85776 245.014 -59.0872 -45.6624 288.02 23.0139 -55.1825 293.184 23.6529 -33.5057 325.652 1.90532 15.7201 90.787 19.6318 
176.99 167.336 159.724 140.017 158.65 166.568 163.191 157.623 70.7723 80.7086 43.55 325.788 8.62888 34.655 271.005 -50.8291 -5.86603 245.911 -58.8749 -44.7326 285.947 20.5712 -54.3858 292.897 22.9325 -33.2441 326.19 1.78252 17.1738 85.972 20.8062 
176.534 167.296 158.491 133.939 158.911 166.656 162.617 156.029 70.8591 80.3329 43.503 326.501 7.46385 35.5635 273.285 -51.3781 -5.47803 247.004 -58.6521 -43.6332 284.424 18.0469 -53.6259 293.041 22.3014 -32.9937 326.989 1.67561 18.909 81.2906 21.7119 
176.274 167.353 158.029 128.524 159.025 166.796 162.263 155.107 70.9539 80.0136 43.6346 327.312 6.84833 36.5908 275.459 -51.6988 -4.75691 248.166 -58.7331 -42.5023 283.162 15.8161 -52.8039 292.988 21.7932 -32.7943 327.511 1.64119 20.6885 77.6523 22.4063 
176.307 167.592 158.222 124.28 158.805 166.715 162.284 155.213 71.0265 80.0777 43.6952 327.73 6.88841 37.6756 277.156 -51.5906 -3.70084 249.329 -59.4598 -41.3202 281.987 13.6181 -52.2173 292.768 21.3985 -32.5918 327.861 1.68237 22.3114 74.7119 22.639 
176.601 167.782 158.471 120.045 158.872 166.854 162.096 155.273 71.5882 80.393 43.8409 327.841 6.99229 38.4843 278.489 -51.5079 -2.86778 250.227 -59.985 -40.37 280.463 11.4424 -51.5401 292.252 21.1501 -32.4213 328.102 1.73482 24.3755 71.452 22.7988 
176.647 167.821 158.857 115.191 158.638 166.822 161.819 155.458 72.4672 80.8294 43.9339 327.814 7.26864 39.2416 279.373 -51.0729 -1.93646 250.941 -60.2856 -39.4404 278.758 8.97351 -50.9179 291.528 20.8272 -32.2528 328.312 1.76433 26.6542 67.6878 22.7575 
176.787 167.826 158.894 109.189 157.286 166.841 161.529 155.593 73.8686 81.1498 43.9063 327.354 7.69874 39.4562 279.415 -50.4283 -1.61979 251.116 -60.063 -38.7458 276.258 5.89157 -50.6575 290.207 20.5564 -32.1829 328.273 2.02667 29.5701 62.4771 22.6442 
176.739 167.631 159.623 100.827 156.285 166.865 161.061 155.883 76.3585 81.5235 43.9008 327.235 8.23935 39.533 279.363 -49.802 -1.15541 251.308 -59.9548 -37.7725 273.572 1.84694 -50.3617 288.869 20.2856 -32.1655 328.265 2.31404 33.5621 56.0813 22.28 
176.639 167.689 160.425 90.1778 155.28 166.868 160.681 156.188 84.9912 82.0926 43.7612 327.285 8.74753 39.5059 279.617 -49.3383 -0.756553 251.77 -59.9258 -35.6742 269.458 -3.42447 -50.134 287.626 19.9079 -32.2117 328.489 2.64037 38.9233 47.6312 21.9322 
176.364 168.007 161.229 90.0456 154.704 166.667 160.569 156.544 106.803 82.7592 43.397 327.416 9.15045 39.2806 279.59 -48.9247 -0.518942 252.029 -59.7955 -32.5671 261.538 -8.68965 -50.0266 286.542 19.5105 -32.3081 328.784 2.96587 44.1837 39.4566 21.4985 
176.116 168.261 161.702 90.0456 154.676 166.667 160.569 156.498 131.374 83.6038 43.2868 327.686 9.60291 38.9306 279.453 -48.6482 -0.439479 252.169 -59.4567 -29.9781 255.344 -15.4839 -49.9538 285.71 19.1476 -32.3886 329.02 3.19805 49.3216 32.0589 21.1076 
