177.875 177.253 172.903 174.27 160.403 167.495 173.034 169.926 178.46 91.1757 2.19882 398.499 5.63694 1.19395 358.455 -70.3156 -25.4462 335.459 -83.6195 -50.6775 328.074 -75.073 -85.7531 362.425 14.3032 -72.6954 399.103 -10.9274 98.6043 5.37612 11.4948 
176.999 178.534 172.944 174.27 160.19 166.641 173.214 169.243 178.446 92.1452 2.07341 398.247 5.73161 0.696803 358.5 -70.2058 -25.8565 334.937 -82.7637 -50.5395 328.328 -74.7115 -85.5879 362.607 15.1462 -72.975 399.354 -10.9794 98.6897 4.53319 11.5998 
176.395 179.112 172.631 174.27 159.923 166.054 173.181 168.585 178.722 92.5721 1.51287 397.442 5.50779 0.311131 358.245 -69.9197 -26.5086 334.267 -81.8492 -52.0702 328.186 -71.7461 -85.9513 363.311 15.6292 -73.2952 399.542 -11.2043 97.9047 5.57632 11.8983 
176.644 179.936 172.063 174.27 159.093 165.876 173.245 168.106 178.772 92.4066 1.07458 397.515 5.11349 -0.170395 358.257 -69.6812 -27.187 334.231 -81.4513 -51.8616 328.215 -70.8836 -86.0608 363.075 15.6406 -73.4897 399.692 -11.1855 97.0413 5.6194 11.9832 
176.329 179.775 171.663 174.27 158.544 165.829 172.681 167.734 178.596 92.3432 1.02135 397.895 4.77124 -0.683975 357.955 -69.3576 -27.7681 333.894 -81.2805 -51.7857 327.321 -69.8693 -86.366 362.867 15.4225 -73.7591 399.66 -11.3231 95.7127 6.31521 12.0258 
176.75 179.739 171.976 174.27 158.101 166.001 172.67 168.002 178.322 92.553 0.720058 397.65 4.46753 -0.831122 357.532 -69.3764 -28.2961 333.885 -81.9 -52.2653 326.134 -69.5252 -86.9551 363.009 15.0474 -74.0811 399.756 -11.5796 94.6452 7.49719 12.0977 
177.032 179.928 171.55 174.27 157.788 166.233 172.377 167.858 178.272 92.6042 0.28853 397.005 3.86814 -1.20725 357.245 -69.5679 -28.9389 334.391 -82.615 -53.0206 325.503 -68.3069 -87.7459 363.571 14.4313 -74.4032 400.137 -11.8836 92.9358 9.30809 11.9909 
178.218 179.434 171.291 174.27 157.054 167.49 172.048 167.885 178.151 92.0333 0.61448 397.993 3.17703 -1.98033 356.864 -70.0293 -29.9044 334.753 -83.6442 -54.3002 323.879 -68.4708 -88.5603 363.553 13.6252 -74.7396 400.36 -12.085 91.5472 10.6854 11.8248 
179.277 178.848 170.747 174.27 156.297 168.529 171.875 167.838 178.082 91.8682 0.901211 398.991 2.47982 -3.10529 356.082 -70.1654 -31.1352 334.936 -84.1333 -55.6697 322.408 -67.7831 -89.223 363.768 13.1916 -75.1161 400.792 -12.2323 89.8794 12.0873 11.4805 
179.941 178.113 170.029 174.27 156.042 168.682 171.522 168.036 178.076 92.0644 0.807771 398.693 1.51644 -4.10549 354.765 -70.217 -32.5014 334.588 -84.8344 -55.1962 321.255 -65.2133 -89.1748 363.784 12.8254 -75.3721 400.693 -12.605 87.0766 14.2581 11.3582 
178.455 177.202 169.649 174.27 155.826 168.631 171.35 168.546 178.048 91.7801 0.457906 398.776 1.0157 -4.9717 353.524 -69.9855 -33.7967 334.464 -85.61 -55.5295 319.602 -61.8339 -89.8586 364.291 12.2928 -75.68 400.782 -12.9045 84.0696 17.5021 11.3636 
176.595 176.096 169.688 174.27 156.439 169.144 170.922 169.11 178.031 91.4225 0.785839 400.385 0.521338 -5.40052 353.134 -69.8327 -34.3657 334.688 -86.1878 -54.424 318.738 -58.7006 -89.9219 365.341 12.1378 -75.9409 401.12 -13.2163 81.8692 20.1608 11.3762 
175.387 175.258 170.392 174.27 156.213 169.672 170.585 169.608 178.014 90.4912 1.05538 401.481 0.0846329 -6.06502 352.775 -70.1482 -34.982 334.904 -87.0971 -53.6206 315.846 -58.0758 -90.2944 365.83 11.6144 -76.2532 401.156 -13.418 80.626 21.8371 11.2815 
175.831 174.114 170.956 174.299 156.16 169.467 170.244 170.052 178.015 89.4719 1.0112 402.671 -1.0925 -6.87467 352.481 -70.5503 -35.2941 334.784 -87.6805 -52.882 312.02 -57.3468 -90.3965 366.419 11.2654 -76.77 400.997 -13.533 79.7498 23.2257 10.9259 
176.252 173.526 171.104 174.333 156.218 169.265 169.706 170.015 178.026 89.7804 1.05497 403.089 -1.14229 -7.05015 352.973 -70.7038 -34.9853 335.31 -87.9864 -53.2445 311.418 -59.971 -90.0204 366.02 11.4914 -76.9456 400.786 -13.4278 81.3938 21.9389 10.6709 
177.308 173.167 171.176 174.314 156.052 169.41 169.401 170.272 178.026 89.3937 1.2469 403.021 -0.38683 -7.14229 352.53 -70.1526 -34.6785 335.194 -87.5207 -54.8905 314.744 -67.1076 -90.1398 365.513 11.6951 -77.1832 400.533 -13.1365 86.7777 16.436 10.4078 
177.567 172.717 170.974 174.29 156.191 169.594 169.311 170.186 178.02 89.0295 0.734892 403.08 0.0313401 -7.38064 352.522 -70.1275 -35.2134 334.619 -87.1239 -54.0227 316.015 -66.9203 -90.3815 365.106 12.0669 -77.6499 400.342 -12.734 86.7152 15.6792 10.6367 
178.058 172.689 170.26 174.279 156.741 169.643 169.569 170.068 178.015 88.9632 -0.0362501 403.343 0.408464 -7.33249 353.247 -70.072 -35.7136 334.781 -86.8288 -53.9081 315.24 -63.2286 -90.8613 365.394 12.6554 -78.0361 400.749 -12.399 84.679 18.035 11.0749 
178.713 172.537 170.171 174.288 157.138 169.734 169.539 170.276 178.015 89.0604 -0.682714 403.059 1.01748 -7.14394 353.448 -69.4762 -36.2966 334.577 -86.5033 -54.7411 314.205 -62.4148 -91.4116 365.293 13.348 -78.5534 400.97 -11.9396 84.2431 18.5048 11.735 
179.314 172.31 169.899 174.293 157.205 169.951 169.357 170.727 178.017 88.8254 -1.23837 402.772 1.51724 -6.95097 353.032 -68.6129 -36.5384 334.046 -85.8553 -56.3464 313.751 -63.8196 -91.9722 364.731 13.9428 -78.9859 400.68 -11.5155 85.77 17.2308 12.1195 
179.701 172.048 169.521 174.292 157.547 169.727 168.915 170.729 178.017 88.9324 -1.81465 402.246 1.92613 -7.48999 352.938 -68.1488 -37.0886 333.835 -85.4627 -57.9604 313.524 -65.0701 -92.207 364.159 14.3748 -79.4913 400.251 -11.1638 87.0197 16.2931 12.2017 
179.669 171.142 168.976 174.298 158.136 169.676 168.174 169.842 178.019 89.4537 -1.47288 402.789 2.722 -8.4119 353.349 -67.9888 -36.8595 334.109 -84.5212 -60.5073 314.469 -69.8255 -91.7737 363.171 14.9643 -79.8578 399.711 -10.767 90.6828 13.019 11.4176 
179.518 170.818 168.816 174.317 158.764 169.417 167.797 169.666 178.025 89.7885 -1.31189 402.464 3.01715 -9.03576 353.296 -68.1022 -36.8016 334.226 -84.3044 -62.0159 314.749 -72.9245 -91.7596 362.637 15.1658 -80.2026 399.133 -10.689 93.1203 11.5549 10.9045 
179.916 170.538 168.512 174.305 159.201 169.723 167.427 169.379 178.024 89.8309 -1.45739 402.938 2.49227 -9.9013 353.561 -68.6727 -37.5189 334.055 -84.4983 -62.8915 315.384 -73.565 -92.0625 361.944 15.1598 -80.702 398.722 -10.6127 93.507 11.0102 10.8363 
179.449 170.1 168.476 174.284 159.766 170.063 166.755 168.946 178.02 90.3291 -1.53805 402.394 2.19907 -10.7053 353.511 -69.1833 -38.3246 333.632 -84.7893 -62.834 316.34 -73.7521 -92.0185 361.117 15.2739 -81.2018 398.042 -10.5893 93.4425 10.2183 10.9049 
177.98 170.231 168.367 174.301 160.974 171.188 166.892 169.088 178.024 91.1343 -1.27332 402.263 2.57759 -11.3105 353.219 -69.4699 -38.8425 333.341 -84.8913 -62.5946 315.833 -74.3742 -92.0334 361.213 15.9913 -81.692 397.579 -10.5675 94.3105 9.80998 10.8099 
176.934 170.111 167.91 174.304 161.489 171.656 166.72 169.025 178.023 91.8134 -1.27956 401.965 2.96554 -11.6838 353.089 -69.3352 -38.8814 333.17 -84.6238 -61.5194 316.006 -74.7215 -92.2425 361.657 16.5839 -82.1396 397.054 -10.6717 95.4669 9.14472 10.6438 
177.018 170.116 167.344 174.294 162.009 171.475 166.552 168.99 178.018 92.6499 -1.82336 401.247 2.81413 -12.2393 353.05 -69.1479 -39.2045 332.844 -84.1817 -61.0368 315.605 -73.9409 -92.6294 362.333 17.1841 -82.6453 396.736 -10.8411 96.0279 9.1821 10.5826 
177.139 170.586 166.924 174.278 161.669 171.271 166.787 169.118 178.013 93.0468 -2.71472 399.11 2.62737 -12.7432 352.135 -69.1492 -40.2987 331.522 -84.1973 -62.0965 314.358 -72.1762 -93.0492 361.65 17.3373 -83.0922 395.792 -10.9199 95.4007 10.0632 11.077 
177.768 170.611 166.562 174.281 161.56 171.024 166.721 168.836 178.011 93.5564 -3.37599 397.666 2.10666 -13.4417 351.808 -69.5712 -41.2346 330.849 -84.2375 -62.6918 312.897 -71.5377 -93.3857 361.341 17.0853 -83.6237 395.362 -11.2336 94.4843 10.6695 11.2688 
177.753 170.363 166.231 174.278 161.693 171.198 166.08 167.851 178.012 92.2046 -3.78581 397.82 0.902442 -14.8558 351.549 -70.2864 -42.9608 329.61 -84.0162 -61.9151 311.611 -67.7025 -94.0579 360.806 16.0061 -84.5381 394.964 -11.4656 90.4741 12.4641 11.6327 
177.908 169.663 165.688 174.275 161.339 171.087 164.956 166.776 178.009 91.7119 -4.48481 396.874 -0.712584 -16.7359 350.789 -71.0747 -45.0225 328.471 -84.1433 -62.6556 309.685 -63.8372 -94.5458 360.193 15.0615 -85.2712 394.657 -11.9173 86.6053 14.9843 11.707 
178.497 169.666 165.795 174.27 161.222 170.772 164.59 166.234 178.009 91.7405 -5.43707 395.483 -1.94849 -18.3579 349.737 -71.9446 -46.7728 327.709 -84.7866 -64.1344 308.628 -59.5946 -95.2745 359.907 14.1426 -85.9591 394.399 -12.4872 83.0558 18.1788 11.5579 
177.733 168.68 164.567 174.27 160.621 170.984 163.679 165.634 178.012 91.1186 -5.90367 395.018 -2.96372 -20.3234 347.484 -72.0687 -48.586 326.367 -84.9626 -65.6119 307.584 -54.2324 -96.3956 359.573 13.1164 -86.5784 393.93 -13.2642 79.0972 21.8462 11.0254 
177.726 168.369 164.036 174.27 159.912 171.005 163.243 165.681 178.034 90.6152 -6.91428 393.121 -4.33134 -22.4727 344.61 -72.3968 -50.3677 325.141 -85.7043 -69.4665 307.876 -50.3572 -98.09 359.674 11.6831 -87.213 393.423 -14.1914 76.4747 24.9453 10.1729 
179.221 167.675 164.114 174.27 159.108 170.194 162.456 164.976 178.013 89.6921 -8.06389 390.372 -5.80852 -24.2626 343.643 -73.3688 -51.8924 324.675 -86.5486 -67.8735 304.18 -45.7436 -99.7402 360.83 10.3554 -87.9827 393.339 -15.3289 72.4872 29.1455 9.78197 
179.181 166.675 165.08 174.27 158.095 169.395 160.831 164.116 178.013 89.8118 -9.08749 387.795 -6.72615 -25.6904 342.99 -74.2681 -52.7698 324.467 -87.5316 -68.3366 303.256 -44.9052 -100.002 360.378 8.97093 -88.5417 392.895 -16.2863 70.59 30.4562 9.26326 
177.403 166.675 166.791 174.352 157.039 167.874 161.079 165.221 178.025 89.3469 -11.0787 385.211 -8.18347 -26.8566 341.939 -74.8222 -53.197 324.238 -88.9012 -66.5362 298.538 -40.7022 -101.368 361.658 7.85155 -89.1314 392.767 -17.283 67.9752 34.3608 8.62607 
176.515 166.667 168.112 174.529 155.922 167.092 160.787 165.503 178.073 89.0758 -12.4835 382.906 -9.39408 -27.7387 340.159 -74.8592 -53.6914 322.813 -89.1719 -65.5804 291.83 -40.121 -102.135 360.783 6.84186 -89.458 391.573 -17.9447 67.1049 34.979 8.29933 
176.001 167.39 168.172 174.683 155.087 166.37 161.121 165.547 178.116 88.0588 -13.7706 381.489 -10.1742 -28.5291 339.589 -75.5262 -54.954 322.126 -89.6156 -65.2273 285.336 -37.4313 -102.996 360.216 6.01658 -89.9875 390.875 -18.5237 65.5082 36.9106 8.58441 
176.329 168.156 169.242 174.855 154.255 166.424 161.739 165.824 178.164 86.8505 -14.4531 381.777 -11.0407 -29.1805 339.451 -76.1744 -56.4328 321.51 -90.1078 -64.5526 277.918 -30.782 -104.055 360.369 5.15964 -90.718 390.771 -19.0976 62.1806 40.4936 9.18291 
177.1 168.632 170.533 174.993 153.516 167.016 162.403 166.181 178.204 86.6284 -14.9496 381.788 -10.8155 -30.0975 338.634 -76.348 -57.5976 320.764 -90.4349 -65.2967 271.625 -17.8135 -105.414 360.555 4.59653 -91.5064 390.42 -19.4854 56.5812 46.8342 9.31413 
177.174 168.988 171.016 175.071 152.603 166.753 163.15 166.484 178.226 86.0327 -15.8325 380.667 -11.6031 -30.4842 337.885 -77.0674 -58.9066 319.835 -91.3002 -66.2065 266.578 -12.9861 -106.271 359.84 3.41382 -91.9624 389.544 -20.1491 54.4022 49.275 9.97721 
177.639 169.14 171.422 175.058 151.838 166.788 163.34 166.644 178.224 85.2588 -16.3939 381.097 -12.4229 -31.8881 337.286 -77.6641 -59.8383 319.307 -91.8364 -67.7062 268.505 -9.00749 -107.279 359.885 2.34056 -92.7481 389.158 -20.7863 52.2788 51.6006 9.58319 
177.84 170.896 172.39 175.091 151.22 166.895 165.063 167.147 178.231 85.4889 -17.5257 381.529 -12.0128 -32.6164 337.735 -78.5914 -60.4327 319.837 -91.9781 -71.5124 265.677 -5.60594 -108.198 359.911 2.37773 -93.5619 389.595 -20.9042 51.3834 53.1996 9.36007 
178.52 171.005 172.85 175.078 151.187 167.311 165.822 167.7 178.228 85.6017 -18.554 380.922 -12.393 -33.2694 337.38 -79.4205 -61.4848 319.637 -92.8888 -73.7812 266.826 -6.34708 -109.477 360.192 1.77058 -94.4269 389.736 -21.4597 51.22 53.513 9.58415 
175.863 170.608 172.431 175.034 150.796 165.708 165.728 167.864 178.218 85.074 -21.1695 378.622 -13.5516 -34.6421 335.72 -79.5728 -63.4136 317.719 -93.01 -77.3342 268.643 -8.26408 -110.831 359.446 0.535057 -95.9495 389.112 -22.6349 51.2333 52.7253 10.0032 
174.001 169.969 172.219 174.959 150.678 164.699 166.403 168.799 178.197 85.1571 -22.4677 376.746 -13.7422 -34.6464 334.925 -79.5786 -64.2183 316.774 -93.2419 -78.6523 271.683 -12.0582 -111.163 358.759 -0.0210323 -96.3393 388.75 -23.1038 51.7004 51.5603 10.6317 
174.795 169.899 172.115 174.931 150.127 164.748 166.925 169.562 178.189 84.9695 -23.3615 377.038 -13.6283 -35.4558 334.287 -79.586 -65.5505 316.031 -93.2963 -79.1147 273.029 -12.3199 -112.022 358.448 -0.524741 -97.1269 388.516 -23.4192 51.136 51.6975 11.0086 
175.423 170.412 172.222 174.911 150.371 164.588 167.429 170.097 178.184 85.3448 -24.3661 376.942 -14.3392 -35.7291 334.089 -80.2882 -66.6681 315.506 -93.9615 -79.469 273.728 -12.8251 -112.318 358.092 -0.693209 -97.6813 388.29 -23.827 50.9501 51.8987 11.6402 
174.198 170.458 171.843 174.874 150.457 163.594 167.722 170.438 178.172 84.5336 -25.4477 375.637 -15.1005 -36.2887 332.492 -80.363 -67.6679 313.966 -94.1668 -80.9587 273.408 -14.6068 -112.879 357.054 -1.20164 -98.0085 387.217 -24.3199 51.7429 51.3383 11.9142 
174.041 170.211 171.375 174.879 150.341 163.233 167.819 170.843 178.172 84.3624 -26.282 374.757 -15.7829 -36.9259 331.537 -80.4997 -68.5242 313.308 -94.462 -82.1559 270.836 -16.9094 -113.02 355.744 -1.28366 -98.2567 386.377 -24.5352 52.8377 50.3627 12.0016 
173.196 169.125 170.345 174.786 150.622 162.709 167.017 171.006 178.146 84.3052 -27.0798 373.386 -16.8271 -37.5741 331.046 -80.7563 -68.9264 313.199 -95.0625 -83.785 274.012 -20.2851 -113.225 354.744 -1.86313 -98.4238 385.774 -25.0017 53.4193 49.719 11.7965 
173.891 168.46 169.778 174.705 150.469 162.679 166.394 170.951 178.125 83.8702 -27.5783 372.166 -17.9987 -38.356 331.056 -81.8075 -69.6774 313.344 -96.0934 -84.5345 277.014 -22.0563 -113.209 353.883 -2.26871 -98.5854 385.176 -25.314 53.4335 50.0264 11.7066 
173.294 168.113 169.671 174.658 148.802 161.793 165.689 170.66 178.113 82.6444 -28.5953 370.919 -18.6629 -38.962 331.421 -82.5267 -70.312 313.697 -96.8539 -84.6216 278.863 -22.8209 -113.185 353.272 -3.29661 -98.6916 385.028 -25.4913 52.3978 50.4596 11.713 
171.5 167.87 169.584 174.543 147.275 160.396 164.904 170.312 178.082 81.3444 -29.9689 369.181 -19.2266 -39.5734 331.072 -82.625 -70.6746 313.522 -97.0731 -85.4489 283.783 -20.7655 -113.486 353.371 -4.35448 -98.8151 385.125 -25.7819 49.7303 52.3862 11.5078 
170.647 167.615 169.706 174.325 146.778 159.238 164.106 170.167 178.026 80.6291 -31.1303 367.945 -19.5493 -39.8523 330.798 -82.5356 -70.7774 313.548 -97.3319 -87.1072 292.071 -19.406 -113.674 353.733 -5.04088 -98.8383 385.401 -26.1077 47.1817 54.8094 11.364 
170.055 167.088 169.079 174.297 146.476 158.666 163.929 169.994 178.018 79.7441 -30.8638 368.3 -19.7971 -39.9663 330.365 -82.6497 -70.2641 313.107 -97.2515 -87.009 292.973 -18.3151 -113.614 353.496 -5.54083 -98.7485 384.931 -26.2937 46.326 55.6975 10.9122 
169.104 167.083 169.547 174.27 146.627 157.762 164.029 170.702 178.119 79.2663 -31.1031 367.359 -20.0741 -40.113 329.103 -82.7706 -70.1819 312.303 -97.8757 -89.1429 300.044 -18.6884 -113.788 353.258 -6.1246 -98.5606 384.476 -26.7364 44.765 57.6387 10.6762 
169.165 166.734 169.59 174.27 147.455 158.277 163.781 171.176 178.021 79.5826 -30.4859 366.881 -19.8003 -40.123 328.154 -82.7429 -69.7918 311.863 -98.2629 -89.3032 296.562 -18.529 -113.776 352.995 -6.53701 -98.3174 384.066 -27.1459 45.4027 57.3472 10.3691 
169.254 166.421 169.823 174.27 147.817 158.14 163.373 171.464 178.245 79.2874 -30.0288 367.104 -20.5597 -40.3509 327.878 -83.0779 -69.4166 311.67 -98.8745 -90.2326 300.956 -18.9635 -113.611 352.926 -7.26176 -98.1741 384.043 -27.7998 44.2213 58.4977 9.9655 
168.294 166.381 170.402 174.27 148.344 157.431 163.253 171.055 178.018 78.5598 -29.0307 368.321 -21.1191 -40.084 328.332 -83.5437 -68.1706 311.284 -98.9506 -87.1472 295.986 -17.4475 -112.76 353.126 -7.503 -97.7249 383.722 -28.216 45.2997 57.9259 9.37231 
167.404 167.1 171.012 174.717 148.629 157.449 162.73 169.774 178.121 77.6013 -27.1789 370.072 -20.862 -39.2055 328.939 -83.7646 -66.6705 311.028 -98.5626 -79.4507 275.139 -17.8529 -111.939 352.956 -7.51985 -97.0943 383.321 -28.1582 50.0392 52.7485 9.04526 
168.57 168.437 172.367 174.898 147.986 157.889 163.23 169.537 178.172 76.713 -25.9191 371.895 -20.9698 -38.2974 329.655 -83.9648 -66.1121 310.989 -98.6704 -75.3187 267.137 -17.5129 -111.682 353.42 -7.58826 -96.7862 383.38 -28.1627 51.6823 51.4409 9.45192 
169.4 169.395 173.392 174.975 147.716 158.584 164.093 169.214 178.193 76.5657 -25.0192 371.743 -20.8238 -37.4348 329.868 -84.5928 -65.9073 310.589 -98.9543 -73.8337 262.314 -19.1302 -111.554 353.372 -7.60305 -96.5058 383.12 -28.2891 53.3543 50.0781 9.97303 
170.737 169.51 173.972 174.948 147.81 159.879 164.364 168.784 178.187 77.0939 -23.9058 371.588 -20.2808 -36.6287 330.129 -84.8746 -65.4658 310.466 -99.0512 -74.6555 263.786 -20.3238 -111.339 353.389 -7.59376 -96.1817 383.131 -28.4319 53.8561 49.7493 10.2793 
171.779 169.566 173.828 174.92 147.87 160.701 164.485 168.169 178.18 76.8953 -23.0934 372.14 -20.7529 -36.2088 330.051 -85.1206 -65.1168 310.208 -99.0509 -74.7557 265.486 -20.9604 -111.114 353.247 -7.6836 -96.0024 383.045 -28.5208 53.8511 49.5165 10.3481 
172.129 169.884 173.739 174.924 148.083 161.041 164.665 167.726 178.181 77.1634 -22.7089 372.7 -21.0413 -35.9175 330.254 -85.1453 -64.8106 310.201 -98.8695 -74.0305 265.492 -20.8393 -110.726 353.295 -7.37365 -95.7739 383.13 -28.4825 54.076 49.3796 10.3568 
172.603 169.947 173.99 174.906 148.313 161.465 164.582 167.283 178.177 77.8016 -22.5413 372.432 -21.5582 -35.303 330.115 -85.1234 -64.5857 309.828 -98.7702 -74.7549 265.485 -23.0364 -110.142 352.407 -7.13302 -95.3378 382.646 -28.409 54.9124 48.4087 10.6687 
171.932 170.523 174.793 174.925 148.583 160.952 164.697 167.211 178.182 78.4413 -23.275 371.305 -21.3537 -34.5165 330.262 -85.0023 -64.4259 309.797 -98.5703 -74.4283 264.058 -23.9396 -110.057 352.216 -6.7933 -95.1369 382.535 -28.2256 55.5142 47.8209 11.1735 
171.812 170.101 174.92 174.893 149.09 160.997 164.351 166.838 178.174 79.1856 -23.6227 371.248 -21.5628 -33.8846 330.53 -84.3534 -64.2758 309.812 -97.892 -75.2079 265.265 -26.5328 -109.8 351.71 -6.39224 -95.0197 382.569 -27.9919 56.2727 46.3559 11.6305 
172.583 170.016 175.034 174.865 149.446 161.821 164.417 166.796 178.167 80.2244 -23.8178 370.729 -21.2298 -33.0964 330.678 -83.8355 -63.9961 309.853 -97.3491 -76.2892 266.297 -28.5476 -109.845 351.428 -5.92467 -94.9155 382.637 -27.7082 56.9684 45.2837 12.0771 
172.857 169.401 174.332 174.721 150.103 161.96 164.503 167.144 178.128 80.879 -24.3284 370.147 -20.9555 -32.6162 330.424 -82.869 -64.0709 309.862 -96.8001 -79.137 272.641 -28.4144 -110.013 351.163 -5.51605 -94.8414 382.738 -27.3794 56.1782 45.9363 12.4767 
172.314 169.208 173.793 174.736 150.926 161.63 165.065 167.766 178.132 81.2274 -24.6731 369.604 -20.1979 -32.1497 329.589 -81.7866 -64.1339 309.346 -96.0486 -79.573 271.038 -28.5576 -110.054 350.753 -4.8591 -94.7249 382.355 -26.9049 56.7477 45.4724 12.8325 
171.728 169.131 173.332 174.777 151.286 161.289 165.76 168.756 178.142 81.6126 -25.1881 369.92 -19.5005 -31.9784 329.388 -80.7555 -64.4459 309.511 -95.3665 -80.2884 268.667 -29.67 -110.301 350.668 -4.135 -94.7648 382.534 -26.2457 57.6539 44.4617 13.1391 
173.96 169.615 173.285 174.768 151.871 162.106 166.453 169.998 178.139 81.9225 -25.1382 371.122 -18.9805 -31.9942 329.118 -79.7409 -64.435 309.834 -94.9821 -80.9867 268.71 -29.6673 -110.374 350.715 -3.05747 -94.7925 382.684 -25.4653 58.3755 44.4816 13.0585 
178.494 170.333 173.259 174.859 152.154 163.342 167.318 171.221 178.163 82.2497 -24.5785 373.147 -17.9832 -31.7383 328.971 -78.6269 -64.3737 309.861 -94.2276 -79.9687 263.686 -29.8915 -110.326 350.629 -1.56963 -94.8528 382.613 -24.4476 59.875 43.6914 13.2263 
174.619 170.155 172.256 174.836 152.898 165.362 167.595 171.882 178.156 82.6562 -23.8425 373.578 -17.904 -31.695 327.442 -77.4274 -63.6775 309.066 -93.4051 -81.0073 263.396 -30.2293 -110.123 349.532 -0.552054 -94.6953 381.629 -23.7399 60.6545 43.3191 12.7318 
174.659 169.645 171.02 174.812 153.446 166.8 167.676 172.543 178.15 82.9698 -22.6169 373.786 -17.1812 -31.8124 325.784 -76.3306 -63.5346 308.124 -92.7092 -82.1349 263.068 -30.6846 -110.151 348.531 0.626677 -94.5595 380.517 -23.0029 61.7648 42.9728 12.5173 
176.712 168.926 169.269 174.748 153.376 168.426 167.096 172.831 178.131 83.4682 -21.3266 374.557 -15.9811 -32.0723 324.559 -75.1079 -63.0649 307.824 -91.7957 -84.0548 264.495 -33.5835 -109.983 347.219 1.4455 -94.4817 379.746 -22.1375 63.1629 41.4424 11.9624 
177.161 168.514 168.536 174.72 152.563 169.848 166.462 173.183 178.124 83.7253 -20.5667 374.772 -15.0604 -32.2004 323.571 -74.026 -62.6498 307.431 -90.9705 -84.5915 264.763 -36.4263 -109.538 345.862 2.24575 -94.3355 378.926 -21.2297 64.5512 39.6973 11.6021 
177.349 168.026 166.985 174.608 152.779 169.551 165.791 173.023 178.093 83.4759 -20.3994 373.144 -14.0019 -31.8044 322.973 -73.1945 -62.4938 306.692 -90.0237 -84.8054 268.225 -36.9689 -109.256 344.835 3.08623 -94.1793 378.194 -20.4944 64.8732 38.8522 11.8453 
177.753 167.737 166.16 174.387 152.363 168.695 165.587 172.783 178.031 82.842 -20.7177 371.279 -12.6238 -31.8033 322.508 -72.3461 -62.8276 306.098 -89.2523 -85.2385 275.577 -33.5355 -109.58 344.788 3.63767 -94.2596 378.028 -19.7417 62.7879 40.4035 12.131 
178.09 167.425 165.458 174.449 152.022 167.86 165.107 172.682 178.047 82.5346 -20.8352 369.697 -11.3984 -31.6612 321.218 -71.2213 -62.9136 304.914 -88.0768 -85.589 272.189 -33.3971 -109.784 343.807 4.39909 -94.0324 377.031 -18.9027 63.2052 39.7759 12.277 
178.272 167.338 164.596 174.497 151.772 167.12 164.623 172.148 178.062 82.7852 -20.8732 368.901 -9.90683 -31.6975 320.541 -70.2531 -62.9237 304.2 -86.653 -85.3596 270.244 -35.6024 -109.769 343.035 5.60597 -93.9421 376.468 -17.8356 64.8682 37.5 12.1614 
177.206 167.384 163.991 174.374 152.517 166.747 164.497 171.929 178.028 83.0676 -20.5221 366.754 -7.99113 -31.8968 319.362 -69.6464 -63.1662 303.297 -85.7778 -86.0451 273.61 -34.8524 -109.99 342.778 6.78354 -93.9272 375.682 -17.0057 65.4329 37.4224 12.0732 
176.646 167.712 164.402 174.334 152.816 166.473 164.451 171.798 178.019 82.5993 -20.1434 365.708 -6.83723 -32.2212 318.21 -69.2933 -63.6162 302.209 -85.202 -86.7563 274.262 -36.7128 -110.273 342.221 7.70422 -93.8683 374.533 -16.0753 67.6642 35.8659 12.0372 
175.474 167.674 163.782 174.33 152.805 166.76 164.654 172.062 178.02 81.473 -18.3688 364.973 -3.91887 -32.4182 317.525 -68.4625 -63.2244 301.868 -83.9203 -84.718 274.511 -39.1482 -110.79 342.698 9.45686 -93.8441 373.239 -14.3757 71.7921 33.4755 11.4951 
174.693 167.834 164.213 174.505 153.97 166.18 164.72 171.3 178.063 80.781 -17.8528 363.397 -2.51075 -32.1815 316.666 -67.8082 -62.7269 300.771 -83.0012 -82.1332 267.668 -35.4875 -111.716 343.127 10.1954 -93.9403 372.265 -13.7745 70.8856 35.1779 11.3436 
173.721 167.333 163.68 174.603 154.434 165.124 165.127 171.134 178.09 80.4024 -16.8887 362.266 -1.10918 -32.1537 314.511 -66.946 -62.7995 298.56 -82.1745 -81.5093 262.199 -24.7221 -112.122 341.835 11.1829 -93.6634 369.987 -12.8736 66.1976 41.1143 11.4158 
