179.322 166.234 163.856 174.27 144.115 174.694 162.269 164.766 143.48 86.5443 -36.2677 170.701 -10.1687 -49.9296 138.907 -74.9928 -82.7983 132.178 -95.4255 -115.277 130.436 -60.5275 -131.167 166.989 -6.77265 -107.452 202.492 -23.7519 68.4651 25.326 13.5058 
179.387 166.252 163.989 174.27 147.628 174.862 162.448 164.482 128.429 87.1468 -37.1099 171.305 -10.8016 -50.9198 139.756 -76.4007 -84.09 133.329 -96.9869 -117.059 131.985 -57.1158 -132.686 166.558 -8.00702 -108.612 203.073 -24.3472 63.5027 29.1579 13.7006 
179.248 166.37 164.182 174.27 153.957 175.221 163.021 164.611 124.775 88.0364 -37.6287 171.584 -11.2395 -51.5089 140.441 -78.106 -85.2173 133.887 -98.4632 -118.162 132.39 -58.1239 -133.856 166.004 -8.63277 -109.492 203.268 -24.9465 62.9319 29.3923 13.8662 
179.052 166.759 164.595 174.27 158.996 175.703 163.842 164.973 124.257 88.711 -37.8364 171.789 -11.6714 -51.923 140.841 -79.6879 -86.1757 134.233 -99.9485 -119.061 132.416 -60.0724 -134.875 165.609 -9.22878 -110.158 203.274 -25.547 63.5184 28.9158 14.0835 
179.05 167.181 164.859 174.27 160.617 175.893 164.437 164.937 117.369 89.0319 -37.9674 172.238 -12.3364 -52.2313 141.431 -81.44 -86.8269 134.527 -101.317 -120.044 133.089 -58.5876 -135.476 165.443 -10.0078 -110.705 203.386 -26.2465 61.3265 31.1383 14.0835 
179.15 167.633 165.156 174.27 160.448 175.912 164.99 164.932 98.7873 88.6966 -37.9369 172.936 -13.2437 -52.7176 141.824 -83.1749 -87.426 134.723 -102.66 -121.616 136.68 -50.3126 -136.125 165.454 -11.3428 -111.119 203.528 -27.0808 52.5369 39.6153 13.9287 
179.223 168.037 165.142 174.27 161.367 175.884 165.414 164.924 99.4625 88.3692 -37.7483 173.544 -14.3896 -53.0085 142.379 -84.9071 -87.9286 135.223 -104.099 -121.954 136.631 -50.3256 -136.385 165.128 -12.8974 -111.304 203.758 -27.8372 50.4276 40.7545 13.9048 
179.23 168.705 166.414 174.27 131.326 175.777 166.064 166.787 101.08 79.7832 -37.8438 174.046 -16.3651 -53.5709 142.552 -86.9419 -88.7381 135.552 -105.697 -121.984 137.41 -49.0869 -136.667 170.197 -16.4721 -111.761 204.372 -28.8814 50.0015 42.7282 13.8194 
179.223 169.411 168.269 174.27 125.251 175.575 166.55 168.435 97.7759 75.4866 -38.0111 174.642 -18.2363 -54.0092 142.883 -88.6684 -89.3026 136.118 -107.079 -122.429 140.044 -47.7373 -136.399 173.812 -18.4902 -111.992 205.247 -29.9667 49.5415 45.0036 13.6877 
179.19 169.767 169.89 174.27 126.059 175.226 166.526 169.399 93.2665 72.6695 -38.171 175.732 -19.9983 -54.1392 143.937 -89.994 -89.436 136.88 -107.861 -121.837 143.615 -45.1973 -135.782 177.223 -19.6487 -112.05 206.47 -31.1433 48.2073 48.2308 13.5167 
178.974 169.721 171.014 174.27 128.73 175.079 166.039 169.454 83.5344 71.0929 -37.9882 176.863 -21.8462 -54.1557 144.791 -90.7763 -89.1611 137.452 -107.998 -122.492 149.759 -41.6116 -135.131 180.202 -20.3212 -111.753 207.673 -32.3435 45.4175 53.357 13.1903 
178.655 169.94 172.393 174.27 133.978 175.061 165.885 169.814 81.2624 70.3657 -37.9313 177.662 -23.2991 -53.9115 145.768 -91.5558 -89.0725 137.812 -108.158 -122.619 154.231 -37.0267 -134.392 183.439 -20.8139 -111.265 209.103 -33.7495 41.661 59.7405 13.1902 
178.617 170.243 173.004 91.1123 133.403 174.46 165.844 169.439 66.6844 70.3756 -37.9895 179.432 -25.013 -53.2395 147.652 -93.3091 -88.6074 138.495 -108.923 -123.857 171.555 -32.1009 -133.265 185.59 -22.469 -110.876 211.187 -35.3337 28.4781 75.5489 13.1269 
178.379 170.351 173.178 117.063 133.253 174.352 165.486 168.561 69.4455 70.6528 -37.6337 181.216 -27.3138 -52.8546 150.543 -95.7622 -88.6273 140.893 -110.587 -122.635 177.419 -25.1984 -132.749 187.988 -24.1786 -110.333 213.502 -36.8956 19.2046 86.9718 13.3031 
178.402 169.967 173.413 135.579 132.878 174.015 164.606 167.854 72.1158 70.3148 -37.6144 183.189 -29.2985 -52.8383 153.821 -97.0809 -88.1206 143.643 -110.992 -122.163 183.922 -21.3087 -132.251 191.441 -26.5473 -109.608 216.469 -38.6553 16.2813 93.8361 13.0628 
178.413 169.293 173.916 145.251 133.907 173.915 163.488 167.059 73.6908 69.8629 -37.4531 184.459 -31.0613 -52.6674 156.736 -98.0386 -87.6127 146.062 -110.962 -121.644 190.551 -19.1484 -131.629 194.919 -28.3464 -108.643 219.108 -40.3524 16.4444 99.1739 13.0013 
178.531 168.84 173.848 149.684 134.67 173.546 162.579 166.063 75.7233 70.0416 -37.252 186.17 -32.5492 -51.8026 159.562 -98.6627 -86.3038 148.044 -110.463 -120.998 196.514 -18.0375 -130.755 198.45 -29.9481 -107.433 221.927 -42.0868 17.5401 102.351 12.987 
178.628 168.809 173.383 150.783 134.937 173.3 161.845 164.915 75.0512 70.4581 -36.4166 188.374 -33.9892 -50.1767 162.333 -99.2814 -84.1926 149.873 -109.871 -119.237 201.27 -19.1561 -129.343 201.123 -31.3188 -106.011 224.399 -43.7485 17.8922 103.55 13.0103 
178.565 168.629 173.282 148.003 133.736 173.259 160.667 163.131 74.821 71.8235 -35.0352 191.46 -33.9586 -47.6931 165.975 -99.0324 -81.365 153.007 -109.878 -117.295 202.932 -21.5865 -128.275 203.238 -32.5539 -104.581 227.553 -45.304 15.8634 101.068 13.0488 
178.792 168.51 171.407 146.85 135.069 172.825 159.399 159.685 74.6249 74.2872 -33.8926 194.476 -34.2144 -45.0392 169.116 -98.4182 -77.918 155.427 -109.267 -115.251 204.587 -23.8538 -126.861 204.543 -33.5089 -103.181 230.371 -47.0102 14.3283 98.5225 12.798 
178.987 167.302 170.308 144.842 136.835 172.515 157.131 156.335 73.0439 76.5921 -32.8186 197.24 -34.8398 -42.8238 172.318 -97.6432 -74.8402 158.456 -109.098 -112.493 205.169 -27.3586 -125.228 205.515 -34.4572 -101.815 233.027 -48.6066 11.8795 94.6051 12.3361 
179.538 166.8 169.997 144.432 139.567 171.912 155.806 154.265 72.8741 78.8148 -32.0804 199.792 -35.8768 -40.4879 175.762 -97.7519 -72.2345 161.635 -110.175 -110.737 205.946 -29.9428 -123.603 206.562 -35.5702 -100.527 235.618 -50.2165 10.9541 92.3003 12.3528 
179.721 166.464 169.337 143.347 142.385 171.208 154.718 152.725 72.158 80.4315 -31.8042 203.642 -37.225 -38.4349 180.852 -98.7838 -69.8032 166.42 -112.165 -109.641 208.195 -33.2645 -122.542 209.076 -37.2529 -99.773 239.447 -52.0588 10.3345 90.3532 12.3573 
179.29 166.686 169.054 141.538 144.054 170.875 153.855 151.302 71.4988 81.1743 -31.1824 207.046 -39.3439 -36.0859 186.599 -101.082 -67.9975 172.054 -115.643 -108.392 210.02 -36.9889 -121.429 211.728 -39.3919 -98.953 243.011 -53.7444 9.99391 88.6621 13.0588 
179.069 166.932 168.589 138.33 145.258 170.9 154.161 151.09 71.2812 81.7222 -30.544 210.884 -41.4983 -33.8101 193.166 -104.406 -66.4209 178.553 -120.093 -107.491 211.567 -41.406 -120.957 214.834 -41.8393 -98.3825 246.955 -55.2836 10.0913 86.331 13.8779 
178.171 166.78 165.598 134.885 145.84 170.297 154.417 149.969 72.504 81.8546 -29.9316 213.535 -43.0689 -31.2038 198.608 -107.177 -64.4976 183.715 -123.591 -106.33 211.261 -45.4045 -120.181 216.896 -44.1866 -97.4063 249.752 -56.5006 11.6072 83.3483 14.7496 
177.572 166.738 163.418 136.336 146.097 170.116 154.438 149.579 72.6785 81.4703 -29.0761 215.544 -45.12 -28.8327 204.505 -110.127 -62.1817 189.826 -127.676 -104.6 211.94 -49.2062 -119.28 218.764 -46.9579 -96.4271 252.161 -57.5784 12.3755 81.9374 15.1634 
176.846 166.806 161.673 137.114 146.399 169.68 154.435 149.795 73.1783 81.3143 -28.4981 217.565 -47.1056 -26.298 210.152 -112.557 -59.6365 195.727 -131.555 -102.58 212.644 -53.0597 -118.266 220.686 -49.6441 -95.4144 254.522 -58.9594 13.5282 80.7354 15.6113 
176.217 165.442 160.54 133.759 146.792 169.27 153.87 152.338 73.0321 81.3336 -27.5011 223.671 -51.1829 -22.5106 221.208 -116.787 -55.9955 207.159 -139.092 -97.9882 216.609 -61.4962 -115.958 225.763 -54.7964 -93.8227 260.658 -62.5275 16.6499 77.9355 16.6157 
176.534 164.866 161.111 128.061 146.24 169.638 154.52 154.305 76.7837 82.1157 -27.1581 226.961 -52.6948 -21.34 227.15 -119.454 -55.2814 212.716 -142.881 -95.6178 216.219 -66.6943 -115.042 227.584 -57.2269 -93.4601 263.613 -63.9642 20.4016 74.0875 17.3748 
177.099 165.048 161.867 124.962 146.152 170.409 154.975 155.123 80.0302 82.8175 -26.4892 230.393 -54.8646 -20.398 233.238 -122.798 -55.0726 217.877 -146.354 -93.7267 217.623 -71.2653 -113.925 230.571 -59.579 -92.9639 267.192 -65.9357 23.2661 71.3413 18.1698 
177.436 164.859 162.87 124.678 145.934 170.933 156.577 156.257 83.6927 83.8242 -25.8619 232.876 -56.2851 -19.3825 238.299 -125.916 -55.1752 221.55 -149.528 -92.3008 218.154 -73.8268 -113.128 232.532 -61.336 -92.2923 269.781 -67.4879 24.3504 70.8068 19.3803 
177.885 165.108 163.134 124.798 145.916 171.551 157.055 156.483 84.5842 84.0345 -25.0017 235.09 -58.1037 -18.654 243.138 -128.967 -55.3278 225.679 -152.535 -91.6746 220.353 -75.7238 -112.27 234.887 -63.3543 -91.6276 272.219 -69.2374 24.1727 71.9315 20.2867 
178.57 165.544 164.121 123.279 145.973 172.378 157.803 157.532 85.0681 84.7432 -24.4639 237.66 -59.2884 -17.7608 247.883 -131.177 -55.1074 230.138 -155.509 -90.6348 222.689 -78.8163 -111.669 237.246 -65.106 -91.109 274.92 -70.8113 25.432 71.7983 21.1096 
178.13 165.646 164.709 125.16 145.62 172.496 158.418 157.419 83.0056 83.7852 -23.182 239.638 -59.9377 -16.7334 251.426 -132.539 -53.8382 231.771 -156.117 -88.8929 224.431 -78.477 -110.122 237.691 -66.0721 -90.3024 275.689 -71.2161 23.8707 73.1619 21.4826 
177.97 166.114 164.176 129.738 145.229 172.895 160.063 156.944 81.817 83.3387 -22.0619 242.319 -61.8152 -15.6366 257.375 -135.427 -52.7222 235.124 -157.955 -87.3316 227.087 -78.0987 -108.458 238.964 -67.9707 -89.539 277.444 -72.656 20.9931 75.9996 22.4744 
178.022 166.831 163.866 133.328 144.931 173.255 162.205 157.179 81.4937 83.22 -21.5965 244.913 -63.0628 -14.8424 263.17 -137.884 -52.172 238.829 -159.939 -86.6611 229.586 -77.8109 -107.436 240.529 -69.6615 -89.1751 279.594 -73.8895 18.5139 78.7452 23.5741 
178.042 167.414 163.095 134.642 145.192 173.613 163.614 156.988 81.5718 83.1403 -21.2827 246.958 -63.827 -14.25 267 -139.59 -51.3299 241.167 -160.918 -86.04 231.328 -78.3028 -106.716 242.049 -70.7223 -88.9296 281.393 -74.9538 17.8924 79.4799 24.1075 
177.772 168.386 163.051 135.317 145.902 173.667 164.738 157.849 80.9804 83.0743 -21.2906 248.092 -63.8555 -13.5248 269.08 -140.374 -50.7767 242.419 -161.727 -85.6353 232.304 -78.3553 -106.078 242.839 -70.9707 -88.734 282.395 -75.6309 17.8871 80.6174 24.514 
177.801 168.539 162.581 138.782 146.26 173.977 164.801 158.147 82.8109 83.4865 -21.1514 249.164 -64.1005 -13.133 270.006 -140.788 -50.3359 242.773 -162.061 -84.1267 231.194 -78.7766 -105.24 242.711 -70.954 -88.603 282.788 -76.1257 18.7008 79.8027 24.6868 
177.896 168.641 162.273 138.494 146.706 174.242 164.37 158.082 83.3331 83.9282 -21.1283 250.383 -64.4982 -12.9549 270.21 -141.02 -50.1981 242.645 -162.121 -83.3477 230.989 -79.3848 -104.617 242.714 -70.8329 -88.5887 283.242 -76.6474 19.5141 78.9159 24.7394 
177.944 168.778 162.269 137.405 146.975 174.448 163.835 157.674 83.6788 84.2531 -21.2688 251.124 -65.1827 -13.0718 269.703 -141.5 -50.1148 242.275 -162.302 -82.9396 230.897 -80.6424 -104.439 242.828 -71.1577 -88.726 283.607 -77.3402 20.4932 77.4579 24.3985 
177.845 168.896 162.347 135.422 147.062 174.455 163.813 157.39 83.4394 84.2737 -21.6326 251.139 -65.889 -13.2543 269.06 -142.014 -50.3224 241.14 -162.407 -83.0935 230.74 -81.7298 -104.529 242.695 -71.4662 -88.9243 283.54 -78.0549 21.2862 76.2595 24.5611 
177.945 169.212 162.61 134.665 147.075 174.549 163.871 157.137 83.1243 84.2112 -22.174 250.646 -66.7784 -13.6643 268.433 -142.773 -51.1525 240.253 -162.922 -84.2077 230.801 -81.974 -105.139 242.633 -72.0648 -89.2623 283.416 -78.7836 20.7868 76.571 24.9113 
178.283 169.881 162.922 137.087 146.955 174.747 163.944 157.202 81.859 83.743 -22.6691 249.94 -68.023 -14.4036 267.635 -143.842 -52.58 239.632 -163.919 -86.1689 231.858 -80.6765 -106.081 242.882 -73.0291 -89.6842 283.236 -79.7094 18.1749 79.5098 25.2729 
178.701 170.716 163.143 142.274 146.801 175.089 163.671 156.527 80.7245 83.317 -23.3298 249.323 -69.0266 -15.5978 266.578 -144.899 -54.1701 238.978 -164.493 -88.4775 233.661 -78.4971 -107.364 243.552 -74.0339 -90.3625 283.378 -80.6946 14.6655 83.2029 25.3353 
179.072 171.475 163.32 143.479 146.757 175.338 163.422 156.344 80.1286 83.1948 -23.9261 248.616 -69.5522 -16.6389 265.282 -145.565 -55.5978 237.995 -164.911 -89.8077 234.428 -77.7917 -108.276 243.707 -74.3872 -91.0077 283.179 -81.4425 13.4302 84.7507 25.3806 
179.309 172.823 164.122 145.314 146.979 175.558 163.808 156.803 80.4866 83.4896 -24.4547 248.305 -69.8765 -17.5039 264.795 -146.065 -56.5915 237.631 -165.451 -90.3956 234.158 -77.8129 -109.029 243.704 -74.3733 -91.7154 282.938 -81.893 13.567 85.069 25.4043 
179.551 172.806 164.08 144.947 147.128 175.655 163.153 156.82 80.1877 83.5788 -25.0774 248.079 -69.9399 -18.5337 263.374 -145.858 -57.1405 237.146 -165.339 -90.8523 233.971 -78.4225 -109.819 243.617 -74.3309 -92.5074 282.611 -82.1636 14.1519 84.4283 24.6874 
179.723 172.88 163.699 147.19 147.151 175.909 162.042 156.52 81.0353 83.6918 -25.6309 248.017 -70.0613 -19.6775 261.661 -145.385 -57.7144 236.045 -164.799 -90.5584 232.929 -78.6411 -110.306 243.281 -74.2117 -93.412 282.136 -82.3566 14.6892 83.0168 24.0379 
179.881 173.722 163.705 147.186 147.191 175.977 161.346 156.504 80.7517 83.7763 -26.6572 248.046 -70.1564 -20.7581 260.534 -145.143 -58.6845 235.501 -164.752 -91.3075 233.016 -79.5571 -111.343 243.563 -74.5336 -94.5127 282.203 -82.8198 15.3277 81.9473 23.7033 
179.786 173.563 163.783 145.009 147.053 176.152 160.611 156.867 80.0631 83.6586 -27.5857 248.103 -70.4479 -21.8845 259.408 -144.934 -60.0431 235.202 -165.151 -92.7869 233.416 -80.2189 -112.609 243.697 -74.9429 -95.6831 282.153 -83.2851 15.4539 81.9092 23.4922 
179.469 173.042 163.993 143.213 147.029 176.453 160.128 157.463 79.3031 83.6937 -28.4243 247.78 -70.7787 -22.839 258.555 -144.806 -61.2356 235.304 -165.837 -94.3258 233.767 -80.8216 -113.903 243.729 -75.2197 -96.7969 281.92 -83.6766 15.5989 82.3129 23.334 
179.096 172.019 163.49 141.757 147.048 176.714 158.779 156.846 78.0976 83.5835 -29.424 247.234 -70.7341 -24.1938 257.112 -144.114 -62.1866 234.617 -165.322 -95.4847 234.193 -81.4436 -115.185 243.703 -75.3039 -97.978 281.525 -83.8561 15.8622 81.6577 22.864 
178.675 170.865 163.195 141.155 147.373 176.92 156.979 156.161 76.6664 83.0556 -30.2419 246.644 -70.7534 -25.4361 255.848 -143.628 -63.1996 234.229 -165.19 -96.4281 234.19 -82.4904 -116.119 243.457 -75.6531 -99.0253 280.999 -83.9575 16.4929 80.7573 22.3843 
178.482 168.118 163.011 136.689 147.244 176.726 155.042 156.074 76.24 83.4404 -31.8618 246.713 -70.5221 -27.0275 254.021 -142.734 -65.002 233.784 -165.158 -98.5154 233.83 -85.1153 -118.218 243.844 -75.9661 -100.573 281.406 -84.0769 18.9109 77.4626 22.1383 
178.358 167.177 163.208 130.971 147.081 176.507 154.363 156.325 76.3494 83.8157 -33.5054 246.374 -70.1724 -28.3425 252.378 -141.884 -66.9297 233.323 -165.365 -101.144 233.314 -87.2721 -120.529 244.071 -76.1193 -102.113 281.538 -84.1456 21.2029 75.0841 22.3512 
178.135 166.49 163.34 126.902 146.928 176.393 153.448 156.309 76.9905 84.1312 -34.8734 245.729 -69.7123 -29.5238 250.994 -141.065 -68.2992 232.956 -165.452 -102.682 232.147 -89.9403 -122.186 243.923 -76.3598 -103.411 281.37 -84.2003 24.1446 71.8422 22.4017 
178.01 165.875 163.851 121.717 146.64 176.33 153.292 157.236 78.9455 84.6133 -36.2101 245.344 -69.2266 -30.7234 249.909 -140.591 -69.616 232.998 -166.137 -103.871 230.424 -92.9051 -123.796 243.429 -76.3527 -104.799 281.198 -84.0971 27.65 68.3746 22.3409 
177.926 166.871 164.529 118.453 146.574 176.125 154.112 157.886 79.9889 84.5632 -37.4137 245.012 -69.1182 -32.0542 248.687 -140.612 -71.073 232.871 -166.599 -105.799 229.838 -94.1017 -125.821 243.558 -76.5625 -106.113 281.054 -84.2355 29.0238 67.4401 22.184 
177.783 167.719 164.613 117.536 146.463 176.141 154.194 157.861 80.1116 84.3293 -38.5291 244.563 -69.1308 -33.4173 247.893 -140.615 -72.5373 232.44 -166.615 -107.66 229.551 -94.5149 -127.556 243.505 -76.7773 -107.463 280.739 -84.4313 29.3975 67.1335 22.1907 
177.539 167.511 165.043 117.988 146.095 176.139 154.044 158.223 79.7517 84.074 -39.5257 244.36 -69.4152 -34.8093 247.445 -140.793 -74.2014 232.262 -167.091 -109.468 229.332 -94.229 -128.991 243.096 -76.9493 -108.797 280.298 -84.5424 28.7993 67.9605 22.3742 
177.351 167.445 165.13 119.621 145.832 176.059 153.993 158.283 79.5065 83.7143 -40.4293 244.557 -69.8967 -36.3969 246.818 -140.945 -75.72 231.792 -167.116 -111.143 229.163 -92.8417 -130.388 242.67 -76.9584 -110.153 279.829 -84.6401 27.1898 69.6408 22.223 
177.22 167.296 164.233 122.188 145.495 176.005 153.702 157.493 78.8177 83.2533 -41.4994 245.124 -70.7869 -38.2792 246.64 -141.438 -77.1561 231.493 -166.791 -112.811 229.872 -91.7476 -131.808 242.966 -77.4095 -111.635 279.915 -85.133 25.4528 70.879 21.7431 
177.075 166.979 164.228 121.692 145.323 176 153.643 157.479 76.8949 82.6603 -42.8159 245.266 -71.3694 -40.3579 246.65 -142.148 -78.9286 231.903 -167.205 -114.533 231.154 -92.0342 -133.637 243.34 -77.8516 -113.261 279.956 -85.3582 24.9385 71.3457 21.3251 
177.487 167.1 163.955 122.772 145.198 175.456 154.331 157.579 75.3321 81.7875 -44.4586 245.467 -71.9001 -42.3677 246.268 -142.825 -80.5517 231.627 -167.289 -116.959 232.364 -90.4968 -135.616 243.677 -78.0941 -114.99 279.882 -85.6544 22.8527 73.8499 20.7888 
177.76 167.599 163.748 124.49 144.87 175.127 154.842 157.497 74.1224 80.9888 -46.1388 245.413 -72.7766 -44.6107 245.917 -143.634 -82.3949 231.506 -167.416 -119.524 233.516 -89.4782 -137.77 244.139 -78.5616 -116.864 279.834 -86.0658 21.0505 75.7724 20.2497 
178.088 167.763 163.438 125.787 144.744 174.771 154.788 157.527 73.0682 80.2384 -48.0755 245.443 -73.5282 -47.0684 245.329 -144.162 -84.3612 231.584 -167.852 -121.669 234.32 -88.6943 -139.886 244.264 -78.7528 -118.921 279.734 -86.3668 19.6737 77.4341 19.6502 
178.219 169.165 163.353 127.037 144.628 174.682 155.72 157.622 71.8777 79.4714 -49.9703 245.079 -74.7064 -49.7775 244.426 -145.282 -86.5059 230.992 -168.089 -124.065 235.081 -88.1624 -142.175 244.504 -79.0287 -120.978 279.365 -86.8869 18.6399 78.8098 18.8694 
178.434 169.564 163.159 128.255 144.421 174.416 155.458 157.464 71.2744 78.6539 -52.0762 245.096 -75.9273 -52.5552 243.836 -145.98 -88.8896 231.114 -168.825 -126.128 235.406 -87.8925 -144.365 244.454 -79.3611 -123.213 279.131 -87.2653 17.73 79.8795 18.3805 
178.568 170.062 163.584 130.188 143.736 174.182 156.243 158.474 71.0564 78.1463 -54.3322 245.53 -77.2385 -55.1111 243.825 -146.956 -91.7997 230.968 -169.798 -129.213 236.336 -86.376 -146.772 244.623 -79.69 -125.675 279.141 -87.7592 15.5117 82.7996 18.5471 
178.352 169.974 163.558 132.53 143.389 174.23 155.925 158.31 71.5414 77.6789 -56.4799 245.787 -78.4075 -58.0818 244.074 -147.872 -94.8654 231.467 -170.757 -130.929 236.016 -85.8691 -148.822 244.254 -79.8911 -128.026 278.931 -87.9283 14.5175 83.7495 18.5227 
178.185 171.077 163.551 133.998 143.173 174.33 156.584 158.904 72.0092 77.5597 -58.5025 246.165 -79.4882 -60.6608 244.483 -148.976 -97.8144 231.745 -171.787 -132.581 235.713 -85.5679 -150.763 243.888 -80.04 -130.253 278.722 -88.1818 13.8646 84.5958 18.6928 
177.756 170.585 163.362 135.752 142.774 174.531 155.833 158.968 73.0584 77.6248 -60.8874 246.723 -80.487 -63.7316 244.949 -149.614 -101.351 232.701 -172.793 -134.391 235.39 -85.3011 -152.804 243.735 -80.2601 -132.759 278.944 -88.3926 13.2363 85.2096 18.9944 
177.244 170.709 164.419 137.081 142.21 175.046 156.432 160.023 74.1939 78.3299 -63.2246 247.684 -81.2491 -66.8463 245.65 -150.797 -105.107 233.096 -173.848 -136.51 235.174 -85.1352 -155.232 243.723 -80.266 -135.409 279.419 -88.601 12.7683 85.4187 19.312 
177.176 171.357 164.892 139.617 142.009 175.067 157.221 160.338 74.9353 78.6302 -65.7956 248.608 -82.1097 -70.1307 246.448 -151.973 -108.553 234.04 -174.822 -138.545 235.286 -84.9564 -157.557 243.906 -80.4445 -138.18 279.99 -88.8204 12.1931 85.823 19.2171 
177.357 176.728 165.249 143.031 141.256 174.634 160.863 160.984 75.406 78.7138 -68.8211 249.414 -82.9557 -73.8348 247.577 -154.165 -112.101 234.12 -175.155 -141.438 235.874 -83.7462 -160.206 244.344 -80.3088 -141.052 280.593 -88.9612 11.1421 87.0228 18.6193 
177.582 173.994 164.306 143.805 140.776 174.276 160.762 160.085 75.391 78.5889 -71.3315 249.654 -84.047 -77.4948 247.256 -154.757 -115.17 233.653 -174.712 -143.563 235.975 -83.2602 -162.334 244.065 -80.1149 -143.617 280.508 -88.8498 10.4808 86.7682 17.9435 
178.273 171.319 164.512 144.764 139.915 173.55 159.043 160.011 74.7457 77.9142 -74.2915 249.948 -84.7673 -80.7913 245.638 -153.939 -117.718 232.871 -174.101 -146.562 237.002 -82.5108 -165.068 244.857 -79.8447 -146.321 280.953 -88.8422 10.1207 86.8703 17.2356 
178.234 168.939 164.79 144.995 139.12 173.3 160.455 159.768 74.5323 77.1439 -77.0311 250.597 -85.8855 -84.9863 245.543 -155.092 -121.237 232.961 -174.146 -149.454 237.822 -81.7479 -167.706 245.354 -79.6185 -149.196 281.344 -88.5959 9.52565 87.2643 16.3004 
178.962 166.808 164.913 146.104 138.122 172.488 160.434 159.422 73.463 75.8683 -79.9027 250.514 -86.1291 -88.3611 244.499 -154.77 -123.694 231.623 -172.744 -152.622 238.906 -80.2026 -170.202 245.937 -78.9869 -151.693 281.355 -88.1638 9.2634 87.9954 15.4151 
178.005 164.239 165.674 152.222 137.969 172.99 164.507 160.895 71.5339 75.6175 -82.4673 250.178 -87.6033 -92.3857 245.056 -157.281 -129.184 230.65 -173.031 -156.702 243.719 -75.916 -173.075 247.246 -77.8704 -154.67 281.556 -87.9287 7.85236 94.5577 16.1252 
177.961 164.302 166.708 149.533 136.72 172.975 166.327 163.613 72.0202 75.5521 -85.0763 249.417 -88.2996 -95.8551 243.13 -157.475 -132.802 227.849 -171.604 -161.138 247.096 -71.5278 -175.371 248.123 -76.5148 -157.315 281.285 -87.5283 11.4484 99.5165 16.0787 
177.813 165.309 168.13 147.285 135.763 173.238 168.342 164.073 72.3192 76.2363 -87.4732 249.366 -89.2279 -99.4181 243.162 -158.922 -136.967 226.483 -171.007 -164.638 248.788 -69.6556 -177.337 248.464 -75.5155 -160.136 281.509 -87.1777 14.1659 100.959 16.5148 
177.802 165.354 169.548 147.101 135.122 173.581 169.05 165.398 73.2351 76.3663 -89.324 248.572 -89.6945 -102.901 241.001 -158.907 -139.594 223.494 -168.698 -167.713 250.181 -66.6799 -179.098 248.596 -74.1359 -162.3 280.81 -86.521 16.9435 102.576 16.0266 
177.677 166.781 171.119 146.464 134.94 173.957 169.538 165.092 74.2534 76.8743 -91.1643 248.615 -90.648 -106.788 241.415 -159.96 -142.554 223.182 -167.993 -170.163 251.182 -64.8921 -180.775 248.801 -73.2728 -164.678 280.873 -85.9705 18.7418 103.308 15.6273 
177.793 170.473 171.658 146.364 134.458 174.259 169.923 164.998 74.8121 77.052 -92.6879 248.599 -90.8648 -109.455 240.056 -159.443 -144.062 220.268 -165.179 -172.124 251.844 -62.875 -182.226 248.577 -71.9625 -166.692 280.267 -85.1419 20.0793 102.756 15.6101 
177.971 175.323 172.48 147.153 134.355 174.948 169.783 164.415 75.9577 77.5364 -95.8289 249.895 -91.2323 -115.354 239.572 -159.186 -147.666 218.153 -161.858 -175.704 253.991 -59.6931 -185.312 249.495 -69.702 -170.899 280.746 -83.7141 21.6507 102.29 15.2072 
178.149 178.434 172.369 147.774 134.784 175.43 169.336 163.695 75.823 77.7145 -96.9686 250.296 -91.0592 -117.894 237.98 -158.137 -149.273 216.368 -159.366 -177.165 254.5 -58.7414 -186.711 250.005 -68.3821 -172.546 280.866 -82.8707 21.517 100.723 14.9812 
178.536 179.771 173.299 147.771 135.134 175.883 167.955 163.633 76.4805 78.1735 -97.8496 250.754 -90.6148 -120.158 236.94 -157.15 -151.268 215.755 -158.136 -178.339 253.698 -57.5569 -187.854 249.671 -67.0745 -174.017 280.59 -81.8309 21.2673 99.8715 14.6225 
