164.194 160.033 157.307 132.95 144.796 159.072 151.46 153.682 89.5027 90.0166 17.012 267.923 -48.6505 25.8184 260.214 -115.963 -5.32583 242.733 -136.682 -38.8172 237.611 -64.923 -56.5339 249.267 -55.8554 -41.7861 297.495 -58.4804 16.9424 64.7932 14.9389 
165.875 158.534 156.752 134.8 145.514 159.953 149.533 152.571 92.1835 90.5705 17.581 266.582 -46.9507 25.3015 257.573 -113.294 -5.86385 241.242 -134.282 -39.068 235.704 -64.0069 -56.9212 248.953 -54.1713 -41.2448 297.204 -56.7487 17.7548 62.8585 14.5787 
167.139 157.765 157.119 136.832 145.661 160.59 148.302 152.245 94.6795 91.7314 17.8257 264.713 -44.9513 25.0035 254.357 -110.316 -6.05383 239.189 -132.074 -39.6498 233.567 -61.7383 -57.0801 247.729 -52.4399 -40.6813 296.575 -55.005 17.1686 62.4159 14.2086 
168.083 157.429 157.208 137.963 145.837 161.117 147.619 152.093 97.6591 92.855 18.0908 262.854 -42.5723 24.7336 251.123 -107.231 -6.40702 236.699 -129.438 -39.8145 230.859 -59.8531 -57.2743 246.385 -50.0859 -40.1443 295.726 -53.055 17.5295 61.0699 14.0941 
168.466 157.538 157.467 138.905 146.593 161.186 147.346 151.972 99.3571 93.5679 18.7748 261.519 -41.0748 24.9975 248.6 -104.795 -6.21052 234.49 -127.058 -39.1253 228.674 -57.9086 -56.512 244.906 -47.7242 -39.4862 294.649 -51.2866 17.9143 59.9858 13.9773 
168.827 157.187 157.474 139.376 147.212 161.487 146.385 151.471 99.4691 93.867 19.2874 259.428 -39.5628 25.2886 246.236 -102.241 -5.84388 232.835 -125.179 -38.9865 227.643 -55.8339 -56.0487 243.927 -45.8151 -38.8384 293.566 -49.7498 17.8027 60.0306 13.9894 
168.775 157.074 157.418 138.571 147.432 161.292 145.753 151.267 99.4334 94.0028 19.9152 257.972 -37.8373 26.0129 244.22 -99.6768 -5.19836 231.056 -123.13 -38.155 226.29 -53.8354 -55.2565 242.52 -43.576 -38.1941 292.153 -48.0069 17.983 59.8444 14.2161 
168.4 158.004 157.624 138.093 147.382 160.877 146.267 151.381 99.5541 94.0732 20.5046 256.963 -36.1198 26.7178 242.906 -97.8967 -4.52693 229.609 -121.245 -37.3782 225.076 -51.5403 -54.5295 241.183 -41.5776 -37.6209 290.915 -46.1038 17.607 60.0228 14.214 
168.027 158.655 157.681 137.05 147.101 160.417 147.05 151.669 97.9109 93.7181 21.0152 255.602 -34.3007 27.4347 241.404 -96.2979 -3.83214 227.938 -119.482 -37.062 224.712 -47.8217 -53.9264 239.808 -39.4852 -37.0289 289.359 -44.2721 16.1479 62.1041 14.1738 
167.807 158.826 157.671 136.064 147.313 160.068 147.304 151.818 97.3776 93.5266 21.5052 254.669 -32.1483 27.8682 239.955 -94.1574 -3.20934 226.548 -117.291 -36.4228 223.876 -45.7167 -53.5522 238.962 -37.142 -36.4688 288.251 -42.3313 16.4022 62.1525 14.0091 
167.62 159.455 157.9 135.165 147.19 159.732 148.108 152.257 96.4649 93.2657 21.9137 253.973 -30.2693 28.0048 238.735 -92.269 -2.87206 225.431 -115.239 -36.3243 223.614 -43.1718 -53.2918 238.389 -34.8998 -36.0492 287.345 -40.3301 16.2491 62.8208 13.7522 
167.12 159.974 158.012 134.775 146.939 159.182 148.91 152.525 96.6652 93.2141 22.321 253.802 -28.0294 28.19 237.646 -90.1371 -2.56874 224.01 -112.593 -35.9264 222.727 -40.7695 -53.1504 237.743 -32.4757 -35.6812 286.609 -38.2564 16.3429 62.6067 13.5396 
166.766 160.782 158.221 135.343 146.68 158.796 150.141 152.861 97.5823 93.3801 22.7766 253.522 -25.874 28.1564 235.939 -88.056 -2.68563 221.848 -109.673 -35.5241 221.162 -38.0958 -53.032 236.868 -29.6506 -35.3679 285.675 -36.2031 16.6768 62.1045 13.3719 
166.44 160.976 158.232 135.501 146.272 158.661 151.119 152.982 98.2006 93.2977 23.412 252.459 -24.053 28.2234 234.502 -86.6715 -2.815 219.844 -107.393 -35.1167 219.011 -35.8943 -52.8213 235.146 -27.231 -35.0773 283.887 -34.0647 16.9619 61.8651 13.3454 
166.486 160.752 158.149 135.371 146.433 158.647 151.032 152.658 98.4453 93.2569 23.8235 251.498 -21.891 27.913 232.395 -84.555 -3.27811 217.599 -104.555 -35.078 217.138 -34.5166 -53.1271 234.127 -24.6351 -34.8196 282.413 -32.0329 18.3121 60.5908 13.3322 
166.709 160.553 158.398 133.676 146.421 158.744 150.955 152.5 98.0929 92.7525 24.7582 251.468 -19.9155 27.6629 230.886 -82.6033 -3.28968 215.691 -101.723 -34.6813 215.702 -33.5202 -53.0693 233.216 -22.0551 -34.6499 281.12 -29.9229 19.9965 58.8602 13.0698 
167.21 160.138 158.638 133.39 145.782 159.008 150.784 152.385 99.6386 92.4973 25.6924 251.274 -18.2573 27.2548 229.097 -80.7793 -3.28355 213.659 -99.0621 -33.958 212.751 -33.7987 -52.7987 231.567 -19.7209 -34.5381 279.532 -27.6892 22.5871 55.5724 12.6349 
167.515 160.21 158.898 132.443 145.086 159.237 150.865 152.413 100.987 92.194 27.0097 251.876 -17.0103 27.1198 228.174 -79.5349 -3.22207 212.216 -97.04 -33.2385 210.372 -33.9019 -52.3275 229.986 -17.7228 -34.4509 278.089 -25.657 24.5964 53.1391 12.4784 
167.605 160.442 158.969 131.763 144.125 159.153 151.114 152.711 102.242 91.7318 27.9347 252.542 -15.91 26.8 227.188 -78.2607 -3.26548 210.812 -95.1422 -32.6758 208.027 -33.5285 -51.7824 228.186 -15.8918 -34.4767 276.549 -23.5577 25.9043 51.2947 12.2508 
168.423 160.051 159.212 128.347 143.831 159.862 150.319 152.725 103.949 91.2252 29.1547 252.859 -14.5861 26.6887 225.735 -76.3093 -2.96891 209.49 -93.278 -31.5754 205.778 -35.7236 -51.3185 226.529 -13.9249 -34.4547 274.895 -21.56 29.7986 47.1337 11.9035 
168.391 160.783 160.023 128.281 142.936 159.791 150.79 153.471 108.035 90.5511 29.9712 253.777 -13.0946 26.2153 224.09 -74.2499 -2.87972 207.841 -90.9018 -31.0696 202.817 -37.6233 -51.0593 225.181 -11.5963 -34.5723 273.543 -19.2859 33.9453 42.6701 11.3581 
168.79 161.248 161.051 132.813 142.025 159.747 151.152 154.639 112.986 90.5861 31.1838 255.923 -13.0896 26.163 223.91 -73.4255 -2.25952 208.109 -90.4847 -30.0068 199.388 -40.4018 -49.6195 222.301 -10.5196 -34.6379 271.608 -16.9836 36.8199 39.5986 10.7133 
168.07 161.987 161.437 137.727 141.17 159.425 152.006 155.29 117.302 89.4466 31.9468 257.374 -12.0397 25.5512 222.933 -72.0356 -2.71884 207.052 -88.6395 -30.4612 197.32 -41.6082 -49.9598 221.889 -8.75937 -34.8937 270.917 -15.2412 39.5793 36.6757 10.4746 
168.486 162.471 161.662 144.947 140.131 159.485 152.536 155.615 121.201 88.5594 32.3899 257.347 -10.4055 24.7788 221.016 -70.1557 -3.36893 205.335 -86.417 -31.1004 194.898 -41.8765 -50.428 221.36 -6.94955 -35.1298 270.078 -13.5241 41.3929 34.4155 10.1907 
168.843 163.089 162.893 137.505 139.94 159.012 153.341 156.855 118.842 88.4126 32.9643 258.6 -10.109 24.7479 220.82 -69.4845 -2.83379 205.49 -86.1389 -31.1246 194.356 -39.8059 -49.3936 219.268 -6.06236 -35.2396 268.368 -11.6437 40.2403 35.9087 9.69466 
169.254 163.759 163.462 142.243 139.861 159.035 153.934 157.177 121.26 87.2471 33.2985 258.247 -8.59669 24.1602 219.469 -67.8749 -3.59247 204.257 -84.1788 -31.9454 193.218 -39.4825 -50.4375 219.51 -4.50258 -35.5334 267.835 -10.1168 41.5771 34.4456 9.70508 
170.186 164.096 163.495 147.169 140.347 159.552 154.393 156.935 121.778 86.1567 33.7948 257.152 -7.00368 23.7351 218.043 -66.4955 -4.22969 202.761 -82.3332 -32.4721 192.257 -37.9471 -51.4615 219.756 -2.76611 -35.8097 267.102 -8.8233 42.2877 34.042 9.79596 
170.3 164.411 163.011 150.879 141.159 159.342 154.814 156.432 123.171 85.0914 33.659 255.653 -5.53374 23.179 216.824 -65.2232 -5.13962 201.271 -80.3678 -33.4432 191.194 -36.1343 -52.7792 220.202 -0.88084 -36.219 266.443 -7.59018 43.0209 33.8713 10.0578 
170.283 165.157 163.162 154.52 142.316 158.637 155.606 156.473 123.865 84.2495 32.9938 253.618 -3.77333 22.4123 215.181 -63.5702 -5.96733 199.483 -78.0383 -34.4402 190.303 -33.2793 -54.2487 220.971 1.36057 -36.6664 265.781 -6.24862 43.5866 34.3101 10.0954 
170.059 165.656 163.638 162.469 143.28 158.006 156.257 156.548 123.531 83.1699 32.3434 251.541 -2.38001 21.7737 213.662 -62.2245 -6.39223 197.778 -75.9842 -34.8895 189.377 -30.6727 -55.2107 221.508 3.42927 -37.0719 264.946 -4.97012 44.1678 34.6174 9.94932 
169.658 165.893 163.947 169.489 144.448 157.415 156.742 156.344 123.586 82.3879 31.6751 249.737 -1.14623 21.1793 211.675 -60.606 -6.95537 195.443 -73.4945 -35.618 188.301 -27.9765 -56.125 221.839 5.66851 -37.4132 264.134 -3.80828 44.8464 34.5414 9.95349 
169.369 165.9 164.264 175.738 144.914 157.162 156.83 155.94 125.58 81.6053 31.4181 248.691 -0.301221 20.8522 210.285 -59.3607 -7.22273 193.492 -71.3865 -35.5933 186.812 -28.0689 -56.405 221.497 7.38474 -37.6706 263.083 -2.56612 46.8932 32.4168 10.0482 
169.381 165.717 164.532 174.27 145.094 157.063 156.646 155.354 125.464 81.1428 31.4162 247.751 0.372963 20.5042 208.508 -58.0442 -7.17541 191.225 -69.1324 -35.5764 185.554 -26.8551 -56.4879 220.608 8.84748 -37.763 261.79 -1.43546 47.4661 31.3107 9.92668 
169.358 165.455 164.772 174.27 145.802 156.822 156.479 154.946 126.869 80.4263 31.4345 247.292 0.755728 20.6386 207.663 -57.1996 -6.96526 189.591 -67.6532 -35.0897 184.463 -26.9383 -56.3839 219.722 10.0887 -37.8709 260.511 -0.425806 49.0039 29.7114 10.1703 
169.602 165.311 164.843 174.27 146.543 156.976 156.405 154.939 132.027 79.6892 31.8295 247.902 0.922116 20.7821 207.22 -56.5868 -7.0588 188.447 -66.8005 -34.6049 183.106 -28.6463 -56.2487 218.966 11.2917 -38.0023 259.484 0.562174 51.7065 27.2761 10.522 
170.008 165.121 164.711 174.27 147.14 157.127 156.132 154.839 137.509 79.0364 32.1734 248.623 1.16397 20.793 206.948 -55.9431 -7.32043 187.692 -66.1557 -34.0699 182.219 -30.4296 -56.1645 218.373 12.2907 -38.1794 258.713 1.44124 54.1056 25.0137 10.7963 
171.016 165.421 164.897 177.471 147.515 157.622 156.602 155.455 144.612 78.7976 32.2843 248.672 2.31548 20.529 206.063 -54.9069 -7.90456 186.668 -65.3141 -34.5072 181.146 -32.7974 -56.5468 217.967 13.5891 -38.4727 258.137 2.47604 57.2802 22.359 10.9566 
171.822 166.056 165.076 160.951 147.903 157.833 157.594 156.013 145.844 78.7506 32.1067 248.12 3.32515 20.2058 204.612 -54.0524 -8.79959 184.893 -64.3315 -35.1397 179.871 -30.7216 -57.1947 217.203 14.8269 -38.7521 257.228 3.36476 56.9066 23.0659 11.3941 
171.776 166.612 165.125 143.367 148.687 157.664 158.461 156.364 148.957 78.3723 31.9332 247.739 4.15957 20.1181 203.429 -53.3527 -9.45923 183.25 -63.3656 -36.0799 178.986 -30.3218 -57.681 216.52 16.0765 -38.9528 256.243 4.13346 58.2988 22.485 11.9055 
171.862 166.944 165.199 132.909 149.124 157.554 159.128 156.473 151.485 78.1082 31.781 247.418 4.69226 19.8237 202.519 -52.9923 -10.2163 181.812 -62.5515 -36.6444 178.487 -30.0576 -58.224 215.927 16.9435 -39.1333 255.437 4.76276 59.1526 21.8494 12.4261 
172.105 167.288 165.263 125.046 149.971 157.699 159.618 156.555 155.544 78.0808 31.7968 247.171 5.23462 19.5327 201.808 -52.7138 -11.0135 180.888 -62.1344 -36.8368 178.532 -30.6355 -58.8959 215.784 17.7956 -39.312 254.896 5.25119 60.7331 20.8565 12.8537 
172.755 167.516 165.233 121.114 150.813 157.941 159.971 156.387 159.843 78.1432 31.7651 246.653 5.72885 19.2461 201.385 -52.6919 -11.7096 180.264 -61.8474 -36.6741 178.642 -31.3126 -59.5763 215.98 18.382 -39.4833 254.548 5.55775 62.1291 20.0016 13.2883 
173.422 167.777 165.135 131.332 151.7 157.974 160.495 156.405 163.919 77.9631 31.5958 246.086 6.25403 19.0695 200.99 -52.7527 -12.1451 179.634 -61.6598 -36.1115 178.088 -32.6091 -60.2426 216.2 18.9402 -39.6481 254.224 5.8522 63.9347 18.8448 13.6288 
174.137 167.938 165.015 140.936 152.192 158.276 160.8 156.425 166.51 77.9731 31.4578 245.227 6.67368 18.8111 200.452 -52.7832 -12.4449 179.063 -61.5163 -36.0843 177.297 -33.9594 -60.7458 216.348 19.4183 -39.79 253.982 6.03869 65.5742 17.7612 13.7029 
174.608 168.01 164.858 171.998 152.644 158.37 161.09 156.441 169.111 77.9089 31.1846 244.333 7.04747 18.5925 200.041 -52.9744 -12.5675 178.599 -61.5187 -37.0197 176.221 -36.2554 -61.1857 216.35 19.7098 -39.9382 253.7 6.20479 67.7092 16.2367 13.7197 
174.945 168.207 164.851 174.27 152.891 158.373 161.405 156.571 168.662 77.7314 31.0326 243.459 7.14041 18.4906 199.462 -53.2416 -12.5027 178.1 -61.6751 -37.3349 175.452 -36.4189 -61.5224 216.355 19.7917 -39.9724 253.344 6.19776 68.118 16.3463 13.6271 
175.227 168.375 164.86 174.27 152.898 158.381 161.683 156.66 170.461 77.447 30.871 243.018 7.15345 18.4454 199.088 -53.467 -12.2617 177.62 -61.6473 -40.5735 174.174 -36.6473 -61.7265 216.262 19.8505 -40.0365 253.049 6.22072 68.8196 16.8219 13.5446 
175.53 168.5 164.916 174.27 152.991 158.676 161.954 156.816 168.393 77.2821 30.977 242.621 7.17423 18.4609 198.578 -53.7332 -12.0065 177.076 -61.7231 -39.147 173.185 -35.5303 -61.8006 216.05 19.9575 -40.0334 252.683 6.17908 67.9506 17.5326 13.4282 
175.867 168.624 165.054 174.27 152.651 158.815 162.11 156.991 166.514 77.0014 30.9742 242.232 7.02617 18.3924 198.031 -53.9232 -11.8415 176.649 -61.8179 -39.3914 172.471 -34.6912 -61.9737 215.954 19.7812 -40.0285 252.409 6.03592 67.3016 18.3395 13.2636 
176.059 168.671 165.287 174.27 152.293 158.937 162.122 157.15 163.814 76.6773 31.1246 241.933 6.59006 18.399 197.535 -54.2323 -11.5566 176.39 -62.1277 -38.8743 171.994 -33.6004 -61.9312 215.789 19.4329 -39.92 252.131 5.80492 66.1426 19.3266 12.991 
176.168 168.622 165.542 174.27 151.836 159.161 162.033 157.277 161.964 76.4857 31.3508 241.513 6.20107 18.3887 196.781 -54.354 -11.3402 175.926 -62.3023 -38.6357 171.358 -33.1082 -61.7976 215.421 19.1451 -39.7864 251.764 5.54172 65.4304 19.8023 12.6815 
176.162 168.48 165.856 174.27 151.308 159.47 161.847 157.343 161.021 76.3743 31.6516 241.2 5.7646 18.4696 196.222 -54.5362 -11.0479 175.568 -62.5293 -38.4097 170.759 -33.5529 -61.435 214.946 18.8179 -39.6289 251.388 5.23807 65.3544 19.6401 12.4055 
175.893 168.55 166.165 174.27 150.757 159.511 161.801 157.49 160.517 76.2049 31.8997 241.057 5.19563 18.5549 195.879 -54.8207 -10.8468 175.369 -62.8739 -38.3153 170.505 -34.0056 -61.1007 214.661 18.3898 -39.4718 251.033 4.85241 65.4834 19.5763 12.2454 
175.293 168.619 166.522 174.27 150.012 159.226 161.689 157.618 160.567 75.8877 32.1253 241.252 4.51106 18.6038 195.762 -55.0626 -10.6417 175.277 -63.1041 -38.1895 170.349 -34.8558 -60.6439 214.377 17.8735 -39.3047 250.731 4.46591 65.8601 19.1422 12.1117 
174.586 168.709 166.94 174.27 149.429 158.844 161.667 157.804 161.404 75.602 32.2909 241.614 3.79397 18.5905 195.613 -55.2892 -10.6352 175.041 -63.294 -38.0555 170.188 -35.725 -60.2614 214.083 17.3944 -39.1604 250.399 4.0901 66.3377 18.6228 12.1031 
173.853 168.781 167.284 174.27 149.238 158.411 161.525 157.956 163.122 75.3053 32.474 242.08 3.1067 18.6898 195.803 -55.6077 -10.4591 175.223 -63.8286 -37.9859 170.625 -36.9653 -59.902 213.993 16.6947 -39.0134 250.201 3.62756 67.0589 18.1004 12.0299 
173.261 168.804 167.451 174.27 149.066 158.068 161.458 158.098 162.786 75.0236 32.6455 242.631 2.45292 18.8565 196.239 -56.0947 -10.237 175.575 -64.4969 -37.5289 170.884 -37.5473 -59.4546 213.857 15.9863 -38.8742 250.068 3.20362 67.0747 18.1359 12.0057 
172.659 168.826 167.563 174.27 149.471 157.592 161.387 158.22 162.867 74.7621 32.7338 242.813 1.76461 19.1716 196.547 -56.6692 -9.92404 175.707 -65.2892 -37.1077 171.162 -38.0594 -58.9784 213.719 15.3964 -38.6927 249.787 2.7572 67.3362 18.2242 12.0343 
172.082 168.605 167.397 174.27 149.871 157.274 160.991 157.985 160.786 74.5787 32.9471 242.835 1.15213 19.5958 196.874 -57.1823 -9.47462 175.89 -65.9819 -36.0438 171.264 -37.9748 -58.2527 213.412 14.8355 -38.4584 249.513 2.30165 66.8798 18.6094 12.0052 
171.546 168.394 167.022 174.27 149.899 156.967 160.637 157.653 156.55 74.4436 33.0298 242.768 0.692163 19.8668 197.031 -57.523 -9.16711 175.877 -66.3603 -35.3009 171.123 -36.9264 -57.6829 213.06 14.3016 -38.3147 249.28 1.94212 65.571 19.5538 12.0047 
171.034 168.209 166.566 174.27 149.926 156.624 160.241 157.287 152.25 74.4275 33.0885 242.718 0.28796 20.0889 197.228 -57.7363 -8.99279 175.972 -66.6131 -34.6805 171.136 -35.6605 -57.1784 212.879 13.871 -38.156 249.205 1.62146 64.1694 20.6184 12.0309 
170.718 168.027 166.055 174.27 150.1 156.43 159.908 156.975 146.735 74.5605 33.0834 242.419 0.0914402 20.2655 197.295 -57.7964 -8.96219 176.022 -66.7822 -34.3022 171.197 -33.6878 -56.8789 212.768 13.6643 -38.0657 249.136 1.37554 62.5065 22.214 12.0904 
170.456 167.892 165.599 174.27 150.054 156.339 159.679 156.734 139.861 74.7299 33.0385 242.141 0.0373135 20.284 197.244 -57.7341 -9.06651 176.059 -66.7899 -34.4371 171.443 -30.9709 -56.8036 212.775 13.4616 -38.0368 249.16 1.21497 60.2501 24.3652 12.1282 
170.381 167.801 165.014 174.27 150.063 156.332 159.574 156.563 133.654 74.9247 32.9553 241.809 0.144185 20.307 197.155 -57.6156 -9.22854 176.063 -66.7717 -34.6674 171.834 -28.0857 -56.8669 212.804 13.4016 -38.049 249.207 1.10961 57.9662 26.6749 12.2039 
170.396 167.7 164.449 174.27 150.114 156.291 159.493 156.412 127.857 75.0908 32.7662 241.411 0.110751 20.2966 197.026 -57.585 -9.38637 176.024 -66.8009 -35.0224 172.438 -25.1663 -57.0221 212.813 13.2538 -38.0877 249.174 0.975661 55.5444 29.1256 12.2898 
170.293 167.688 164.045 174.27 150.008 156.278 159.495 156.335 123.45 75.1771 32.6607 241.15 0.0759678 20.3149 196.956 -57.5999 -9.42141 175.984 -66.8049 -35.2436 172.923 -22.778 -57.0717 212.765 13.1051 -38.1028 249.137 0.878202 53.4363 31.1689 12.3379 
170.206 167.679 163.616 174.27 149.909 156.324 159.45 156.216 120.692 75.4003 32.5342 240.863 0.0920601 20.2476 196.771 -57.5748 -9.43384 175.912 -66.763 -35.4435 173.149 -21.2839 -57.1506 212.627 12.9637 -38.1892 249.08 0.743937 51.9713 32.4888 12.285 
170.06 167.693 163.341 174.27 149.937 156.326 159.394 156.154 118.784 75.6989 32.4071 240.585 0.161385 20.1387 196.447 -57.4758 -9.45224 175.715 -66.6567 -35.694 173.241 -20.1555 -57.2664 212.396 12.9107 -38.295 248.95 0.647701 50.8669 33.4513 12.198 
170.261 167.718 163.094 174.27 149.965 156.641 159.4 156.174 116.259 76.2139 32.0763 239.986 0.0969658 19.5438 195.558 -57.4639 -9.88747 175.053 -66.5479 -36.398 173.158 -18.1014 -57.6888 211.86 12.9781 -38.7174 248.636 0.444425 48.9411 35.1331 11.979 
170.846 167.739 163.422 174.27 149.786 157.107 159.445 156.316 115.944 76.7683 31.9534 239.724 -0.114928 19.0514 195.101 -57.699 -10.265 174.805 -66.714 -36.9241 173.159 -17.2696 -58.0755 211.65 13.0438 -38.9849 248.604 0.275817 47.9948 35.9464 11.8175 
171.477 167.768 163.88 174.27 149.476 157.532 159.722 156.659 115.389 77.2135 31.7471 239.459 -0.256669 18.4953 194.595 -57.9419 -10.6977 174.449 -66.8644 -37.5179 173.142 -16.2287 -58.4737 211.305 13.115 -39.234 248.513 0.201611 46.8331 36.92 11.6716 
172.263 167.72 164.377 174.27 149.288 158.022 159.854 156.914 114.346 77.5546 31.5638 239.237 -0.470876 18.0775 194.291 -58.245 -11.0802 174.29 -67.1794 -38.2346 173.428 -14.8419 -58.9727 211.066 13.0389 -39.4894 248.423 0.0389107 45.3329 38.4299 11.6146 
172.806 167.569 164.729 174.27 148.642 158.423 159.75 156.907 113.634 78.0269 31.401 239.091 -0.698237 17.7005 193.92 -58.3179 -11.4666 174 -67.183 -38.9171 173.405 -13.6372 -59.2524 210.399 12.8678 -39.7037 248.234 -0.0758975 43.6272 39.5717 11.6057 
173.303 167.443 165.115 174.27 148.18 158.737 159.715 156.981 113.308 78.4154 31.1621 238.948 -0.909104 17.2592 193.376 -58.2917 -12.0615 173.708 -67.291 -39.8643 173.316 -12.6871 -59.7884 209.891 12.6082 -39.9734 248.052 -0.237716 42.1949 40.6296 11.6055 
173.61 167.371 165.47 174.27 147.706 158.824 159.735 157.046 112.199 78.6232 30.8139 238.962 -1.37163 16.866 193.257 -58.6129 -12.6388 173.64 -67.6323 -40.6128 173.756 -11.6192 -60.1812 209.593 12.2173 -40.2368 247.936 -0.500067 40.6487 41.9944 11.7304 
173.671 167.418 165.989 174.27 147.489 158.578 159.768 157.297 110.259 78.6184 30.2231 238.592 -1.84603 16.5017 193.118 -58.8206 -13.1077 173.738 -68.1055 -41.4303 174.813 -10.4082 -60.6876 209.78 11.7848 -40.4988 247.902 -0.867648 39.2545 43.7261 11.7247 
173.165 167.431 166.459 174.27 147.239 158.054 159.608 157.494 108.021 78.348 29.6679 238.464 -2.50866 16.3219 193.167 -59.0732 -13.2284 174.058 -68.7873 -41.8665 176.046 -9.42845 -60.9007 209.98 11.1072 -40.6689 247.895 -1.326 37.8253 45.4537 11.554 
172.64 167.411 166.956 174.27 146.784 157.573 159.412 157.658 106.386 78.1174 29.1669 238.495 -3.18567 16.1489 193.576 -59.4479 -13.2157 174.598 -69.4221 -42.0003 177.207 -8.90673 -60.9152 210.287 10.3459 -40.806 248.07 -1.78413 36.646 46.6873 11.3718 
172.23 167.149 167.121 174.27 146.812 157.401 159.041 157.599 105.108 78.2636 28.907 238.62 -3.55572 15.9565 194.044 -59.707 -13.3177 175.25 -69.9742 -42.1362 178.34 -8.42271 -60.9196 210.693 9.90777 -40.9575 248.404 -2.18977 35.768 47.7812 11.2077 
171.823 166.896 167.158 174.27 147.15 157.384 158.677 157.428 104.6 78.4072 28.8364 239.088 -3.86532 15.7831 194.676 -59.9645 -13.4593 175.912 -70.3743 -42.3235 179.084 -8.27381 -60.974 211.222 9.62062 -41.1399 248.825 -2.57713 35.5082 48.3818 11.1563 
171.603 166.686 167.121 174.27 147.754 157.528 158.468 157.281 104.931 78.7423 28.782 239.681 -3.95996 15.5006 195.318 -60.1866 -13.7787 176.652 -70.7431 -42.3163 179.689 -8.54094 -61.2256 211.908 9.46311 -41.4109 249.464 -2.90604 35.6052 48.4304 11.1196 
171.28 166.51 167.029 174.27 148.567 157.463 158.329 157.081 105.542 78.9258 28.6636 240.112 -4.03533 15.3434 195.612 -60.2815 -13.9101 177.017 -70.8735 -42.3744 179.886 -8.98614 -61.4601 212.559 9.37629 -41.5955 249.941 -3.2668 36.2023 48.1323 11.065 
170.958 166.248 166.707 174.27 149.205 157.379 158.075 156.693 105.636 79.0734 28.5177 240.77 -4.18677 15.2224 196.368 -60.5538 -13.95 177.566 -70.9161 -42.3009 180.616 -9.34932 -61.4925 213.421 9.2449 -41.7496 250.676 -3.68428 36.655 47.8579 11.0909 
170.686 165.924 166.299 174.27 149.636 157.299 157.739 156.191 105.578 79.2147 28.5149 241.479 -4.47002 15.0818 196.929 -60.8447 -13.9835 177.938 -70.8621 -42.26 181.254 -9.7028 -61.4046 214.027 9.05159 -41.7738 251.318 -4.1159 36.888 47.5386 11.0953 
170.478 165.763 166.027 174.27 149.827 157.15 157.635 155.828 104.613 79.2051 28.5556 242.242 -4.91585 15.0991 197.482 -61.2983 -13.9649 178.241 -70.9591 -42.2999 182.535 -9.11557 -61.2772 214.791 8.67353 -41.7114 251.998 -4.73299 36.1407 48.3244 11.1993 
170.205 165.652 165.974 174.27 149.75 156.87 157.496 155.443 104.383 78.9776 28.5448 242.807 -5.58348 15.2157 197.951 -61.8434 -13.7429 178.323 -71.0375 -41.736 183.313 -9.16053 -61.0074 215.367 8.06553 -41.6088 252.478 -5.41224 35.7314 48.3706 11.3012 
170.168 165.575 165.935 174.27 149.452 156.808 157.368 155.1 101.804 78.8118 28.675 243.495 -6.31307 15.3541 198.58 -62.503 -13.5606 178.844 -71.4312 -42.1804 185.842 -8.17664 -60.9192 216.525 7.18088 -41.4348 253.336 -6.36291 34.1022 50.1549 11.355 
170.217 165.665 166.215 174.27 149.293 156.881 157.513 155.141 100.025 78.5448 28.9344 244.44 -6.90069 15.6606 199.153 -63.1144 -13.1687 179.378 -72.0711 -42.1645 188.015 -7.32371 -60.8029 217.773 6.37237 -41.2362 254.252 -7.35531 32.769 51.9167 11.2867 
170.76 165.789 166.516 174.27 149.521 157.418 157.459 155.213 98.8742 78.67 29.4736 245.798 -7.44993 15.922 200.128 -63.7769 -12.8239 180.493 -73.03 -41.8198 189.888 -6.96107 -60.5871 219.032 5.797 -41.0388 255.27 -8.29023 32.0395 53.4468 11.125 
171.231 165.765 166.731 174.27 149.817 157.969 157.065 155.222 99.5228 78.7879 30.1576 247.182 -7.9661 16.2693 201.143 -64.2632 -12.1371 181.797 -74.1041 -40.6552 190.429 -7.09742 -60.0772 219.941 5.24568 -40.7544 256.097 -9.15645 31.9901 54.2389 10.6962 
