168.327 163.619 164.903 176.095 132.554 156.611 157.361 168.235 161.284 83.3841 26.5843 420.809 -18.0717 38.7416 417.716 -84.9731 12.2648 409.235 -112.293 -16.1735 381.068 -95.4431 -47.5882 394.283 -33.1004 -33.0484 441.706 -26.0141 63.5692 24.3346 12.1316 
166.072 163.398 160.397 174.27 134.407 155.477 156.269 164.187 164.053 84.1505 26.2639 419.178 -17.2174 39.5405 418.811 -84.9208 13.6423 408.868 -111.05 -15.2003 380.845 -92.7369 -46.356 395.728 -32.2979 -32.6949 443.212 -26.346 61.6442 25.0005 11.7084 
164.312 166.371 155.361 177.85 138.114 157.825 159.292 167.111 163.741 86.0847 28.4924 425.176 -17.1627 41.8893 422.774 -85.4003 13.8075 410.031 -110.918 -14.0308 381.693 -93.0464 -45.0182 396.484 -29.3409 -32.5369 444.574 -26.4844 64.8145 24.3476 13.6985 
163.907 165.608 154.256 174.639 143.714 158.891 158.526 164.854 161.926 86.5583 28.6785 425.624 -17.4895 41.964 424.953 -86.1769 13.9632 410.799 -110.909 -13.9214 380.08 -88.6661 -43.3617 397.501 -27.7861 -32.1725 445.558 -26.6329 62.4719 27.7409 13.8329 
166.086 166.473 153.831 174.27 147.365 157.924 158.047 162.321 164.568 86.9822 28.1188 424.649 -17.579 41.5563 427.798 -86.7626 14.2995 412.74 -110.675 -12.2097 381.794 -84.7974 -41.6988 400.738 -26.0511 -31.9215 448.4 -26.5041 60.7319 29.3658 13.2817 
166.789 166.351 154.628 174.27 149.569 157.212 157.27 160.434 159.257 87.0419 27.5799 423.229 -18.166 40.7211 429.843 -87.5647 14.0978 414.193 -110.886 -11.2855 380.612 -81.8477 -40.3471 401.529 -25.2263 -31.9552 449.005 -26.346 58.644 32.009 12.8314 
166.476 166.425 155.873 174.27 150.405 156.649 157.717 160.409 146.639 86.5503 27.3832 422.027 -18.5141 39.9645 430.757 -88.2153 13.5379 415.194 -111.527 -10.3326 379.385 -74.8649 -40.266 402.354 -24.7148 -31.9435 449.321 -26.2196 53.8197 37.6397 12.5778 
165.852 166.837 156.487 174.27 150.827 156.13 158.28 161.21 134.595 85.2734 27.1946 421.84 -19.1537 39.4372 431.262 -88.5929 12.6996 415.952 -112.362 -9.79453 377.511 -64.2941 -40.6631 403.845 -24.5377 -32.0298 449.846 -26.3472 45.9632 46.4153 12.7429 
165.478 166.691 155.96 174.27 150.881 156.991 160.137 161.603 131.798 85.6916 27.9227 423.854 -18.2249 39.2282 431.363 -88.2093 11.3528 414.672 -111.759 -10.7445 377.144 -61.1979 -41.7493 404.971 -23.2317 -32.2895 450.804 -26.0942 44.8595 47.6666 13.8446 
165.377 166.558 156.578 174.27 152.305 156.431 161.407 161.702 128.472 86.1268 27.0277 423.98 -18.5129 38.4644 433.008 -89.0759 10.2933 415.583 -112.071 -10.6344 376.977 -56.1535 -42.0994 405.72 -22.7114 -32.4219 451.486 -25.862 41.2997 52.0169 14.1422 
164.638 166.642 155.592 174.27 152.253 156.528 164.429 162.458 128.668 87.1434 26.4385 424.755 -17.744 38.7043 434.423 -88.8436 9.11284 415.269 -111.577 -12.1813 377.455 -56.2601 -43.0943 406.862 -22.0163 -32.6685 452.715 -25.7249 42.1016 51.4047 15.7715 
163.537 166.48 156.376 174.27 152.705 155.198 163.991 162.642 120.477 86.2921 25.3928 425.557 -18.4134 37.8169 435.761 -89.0797 8.34876 416.137 -111.588 -14.276 379.712 -48.3585 -42.9752 407.458 -22.1717 -32.9448 453.185 -25.308 35.838 57.653 15.8045 
162.779 164.903 155.584 174.27 152.142 154.976 164.367 162.592 121.613 86.5168 25.2155 427.582 -17.3752 37.4394 435.443 -87.9137 7.79444 415.317 -110.095 -15.2702 380.695 -49.8529 -43.9828 409.124 -21.4858 -33.3383 454.72 -25.0001 37.8109 54.6429 16.0591 
163.457 165.539 156.293 174.27 153.172 155.148 163.139 162.284 120.736 86.6198 24.2406 427.779 -16.9389 36.6911 435.187 -87.3513 7.38336 415.858 -109.443 -15.6968 381.638 -46.8553 -44.7147 410.115 -21.1015 -33.6765 455.787 -24.5665 35.6323 56.5093 15.442 
164.008 166.518 155.487 174.27 152.654 155.695 163.257 161.851 122.885 86.9781 23.22 427.735 -15.9514 36.9631 434.384 -85.6759 7.1223 415.488 -107.908 -16.831 382.574 -48.556 -46.1151 412.013 -20.335 -34.1248 457.616 -24.388 37.8331 53.471 15.6163 
164.489 167.05 154.544 174.27 152.666 156.793 162.511 161.055 123.487 87.0731 22.7852 428.603 -15.6124 37.2963 434.471 -84.2583 6.69519 415.792 -106.759 -17.9104 384.37 -50.5428 -47.2706 413.975 -19.5215 -34.4983 459.431 -24.2937 40.4784 50.6566 16.076 
165.795 167.301 155.074 174.27 152.805 157.723 161.531 160.635 123.762 86.9634 22.3746 428.598 -16.0187 36.6938 435.413 -84.4351 6.3045 417.176 -106.753 -17.8473 384.787 -48.2818 -47.7157 414.773 -19.2353 -34.866 460.038 -23.9399 38.8799 52.6657 15.7531 
166.855 167.867 156.187 174.27 153.128 158.064 162.248 161.176 120.022 87.0197 21.9762 429.398 -16.8967 36.5614 437.895 -85.2361 5.3499 418.988 -107.594 -18.3786 385.832 -41.6092 -47.8712 414.958 -19.4102 -35.328 460.475 -23.5729 32.7633 58.8946 16.628 
164.858 168.274 156.715 174.27 151.865 157.559 165.023 162.15 119.447 86.979 21.7354 431.063 -16.5646 36.5766 439.745 -85.532 4.55012 419.129 -107.682 -19.7062 385.47 -43.6277 -48.3125 414.696 -19.2593 -35.92 460.584 -23.3162 34.3474 57.4405 17.8627 
164.023 167.076 158.302 174.27 151.199 157.041 163.509 160.955 120.95 88.7186 20.9181 433.39 -16.2659 35.7883 439.969 -85.3014 3.51061 418.71 -107.359 -19.5037 386.777 -50.4719 -48.3146 414.052 -19.1613 -36.8685 461.078 -22.9556 38.8443 51.0039 18.2102 
164.663 165.289 159.928 174.27 150.199 158.121 162.305 160.93 128.757 90.8668 19.9134 434.723 -16.2677 35.1178 441.014 -85.6133 2.38088 419.356 -107.761 -18.2434 390.196 -63.1307 -48.4571 413.364 -19.1419 -37.865 462.104 -22.9217 47.9102 40.2042 18.5214 
164.123 164.002 160.96 174.27 149.353 158.16 161.36 160.492 133.782 92.6691 18.5549 436.058 -16.1109 34.057 441.181 -85.9491 1.33819 419.506 -107.848 -20.4597 393.185 -71.2314 -48.8079 412.615 -19.3636 -38.8681 462.971 -22.8496 53.5025 33.0013 18.2892 
164.496 164.243 162.439 174.27 148.55 157.366 161.519 160.699 149.279 95.1582 17.5484 437.561 -16.2265 32.4856 441.213 -86.6333 1.16171 419.508 -108.055 -21.9261 396.184 -82.9446 -47.9169 411.078 -20.0497 -39.6686 463.339 -22.9485 61.1155 23.4961 17.0341 
164.388 163.21 162.292 174.27 147.512 157.023 160.552 160.753 168.19 97.0797 16.6757 438.844 -16.7423 30.7742 441.391 -87.1424 0.116587 420.403 -108.748 -24.6235 400.721 -93.5811 -47.759 409.816 -21.4308 -40.5562 463.789 -23.273 67.3747 15.7673 16.1382 
163.194 162.975 160.946 162.594 146.451 157.521 158.685 159.484 170.81 97.2537 16.0628 439.787 -16.9082 30.0488 439.867 -86.3327 -0.116594 419.698 -107.753 -24.8612 402.542 -95.9062 -49.0585 410.157 -21.6172 -41.3432 464.384 -23.6506 68.8824 12.7431 15.484 
161.299 162.798 161.646 151.726 144.81 157.416 158.356 159.567 170.452 96.4008 15.5417 441.061 -17.0258 29.0632 439.664 -86.9269 -0.713572 419.032 -107.775 -25.1957 402.638 -97.3753 -49.2275 410.13 -21.428 -42.0691 464.452 -23.8117 69.6913 11.2056 15.1697 
160.73 161.555 160.305 151.018 143.6 156.46 158.379 159.145 170.207 95.8185 15.1661 442.618 -18.0747 27.2652 442.405 -88.7208 -1.56807 421.591 -109.136 -26.4124 403.551 -98.9449 -48.7187 410.275 -22.3514 -42.7435 464.674 -24.0669 70.0414 11.7145 14.4915 
160.404 160.26 159.317 149.963 141.708 156.774 157.631 158.291 169.863 94.4397 14.9642 443.867 -18.0731 25.8585 443.468 -89.0982 -2.00746 422.665 -108.753 -27.4199 405.432 -99.413 -49.515 411.156 -22.8163 -43.3096 465.234 -24.1524 70.7013 10.958 13.8687 
159.595 159.567 158.722 151.77 141.94 157.183 156.836 157.5 169.234 92.6974 15.2481 445.075 -18.0541 24.8343 443.36 -89.5655 -2.34363 423.092 -108.671 -28.3862 406.555 -100.445 -50.9672 412.678 -22.7954 -43.7411 465.96 -24.6135 72.2513 10.3374 13.1556 
160.653 158.519 158.934 154.025 141.581 157.942 155.712 157.074 168.782 91.6983 15.2876 446.1 -18.2285 23.4881 443.633 -89.9704 -3.31221 423.594 -108.753 -29.4347 407.224 -100.447 -51.8479 413.914 -22.9082 -44.3433 466.811 -24.7507 72.2608 10.272 12.7163 
164.41 159.209 159.119 158.569 142.013 160.288 155.215 156.72 167.913 91.1616 16.7657 448.407 -18.6778 22.2005 442.719 -90.1996 -3.9908 423.652 -108.593 -30.4139 407.395 -100.02 -53.2608 415.623 -22.6866 -44.8816 468.19 -25.1923 72.012 10.4234 11.6829 
165.824 158.534 158.622 164.428 142.078 161.438 153.535 156.207 169.9 90.1815 17.4244 451.049 -18.9872 21.2288 443.091 -89.9017 -4.69102 424.847 -108.51 -31.6819 409.51 -100.007 -54.4099 417.922 -22.4879 -45.4061 469.949 -25.5196 72.9481 10.0932 11.1538 
168.408 159.191 158.101 161.839 141.608 161.805 154.148 157.346 171.254 89.8398 17.8124 454.467 -20.5582 20.3709 445.694 -91.1341 -5.413 427.996 -110.291 -32.5452 410.833 -100.516 -53.92 419.294 -23.0161 -45.8336 471.347 -25.8688 72.8153 11.3379 10.779 
170.383 160.098 158.519 161.674 142.101 161.906 155.158 158.755 172.547 88.8456 17.9436 457.042 -21.5995 19.1859 448.288 -92.5089 -6.04536 431.232 -112.049 -33.1956 412.302 -100.794 -53.8828 421.312 -23.3702 -46.2448 472.811 -26.2144 73.1391 12.7087 10.0965 
172.658 160.817 159.569 164.507 142.61 161.996 155.814 160.177 171.013 88.4434 17.0733 458.223 -22.5098 18.7452 450.249 -92.8668 -6.45941 434.111 -113.395 -32.8236 413.418 -100.309 -54.1657 423.54 -23.4394 -46.5626 474.449 -26.4199 72.8814 14.2469 9.90241 
172.563 160.892 159.566 168.036 144.386 161.783 155.656 160.258 170.509 88.4536 16.3326 459.563 -21.4684 18.2542 450.149 -92.2244 -6.23059 434.767 -112.461 -32.5743 415.536 -99.3361 -55.3034 426.085 -22.4377 -46.7931 476.665 -26.4822 73.6951 13.6705 9.08673 
170.868 160.425 159.518 174.03 146.275 160.951 154.618 159.15 170.141 88.557 15.2664 461.559 -21.4212 17.6907 451.369 -91.937 -6.2115 436.113 -111.638 -31.8784 418.182 -99.6614 -55.2628 428.486 -21.8427 -47.0319 478.948 -26.5183 74.4949 12.3208 8.5357 
170.36 160.208 159.908 169.181 147.809 161.194 153.905 158.504 170.434 88.4718 15.0109 463.74 -21.8784 17.3183 452.457 -91.733 -6.26571 437.222 -111.156 -30.8232 420.212 -99.9515 -55.1166 431.097 -21.1215 -47.2461 480.901 -26.7147 75.4657 11.2622 8.25026 
170.306 159.748 160.044 174.932 148.197 161.938 152.919 158.037 167.743 88.453 15.2616 465.778 -21.4969 16.839 453.267 -91.0708 -6.7897 437.936 -110.38 -31.2795 420.479 -99.1231 -55.4105 432.773 -20.8122 -47.5328 482.555 -26.5581 74.6497 11.5547 8.27118 
170.192 159.94 160.512 178.08 149.231 161.957 152.785 157.521 168.883 88.7318 14.8405 467.357 -21.6557 16.7654 453.28 -90.3843 -6.69435 438.021 -109.45 -31.4636 421.887 -99.8852 -55.3159 434.23 -20.5461 -47.8231 484.048 -26.6061 75.1747 10.075 8.09108 
170.192 159.505 160.657 177.596 149.075 162.485 152.243 157.221 171.426 88.8395 14.2671 468.266 -21.6029 16.7888 454.208 -90.1018 -6.62825 439.035 -109.103 -31.641 423.836 -101.311 -55.221 435.403 -20.3557 -48.0645 485.238 -26.6701 76.5839 8.83276 8.0716 
171.221 159.185 161.121 178.306 149.176 163.016 152.267 157.645 171.363 89.4553 14.1617 469.36 -21.6301 16.7624 455.066 -90.0142 -7.11875 439.868 -109.244 -32.2267 424.363 -100.969 -55.4043 436.411 -20.3982 -48.3446 486.495 -26.788 75.9207 9.23886 8.46587 
172.042 158.674 161.097 170.156 149.303 162.724 152.018 157.457 171.07 89.5419 13.8651 470.378 -21.3881 16.3102 456.201 -90.1487 -7.67361 441.269 -109.397 -32.3387 425.8 -100.507 -56.1778 437.616 -20.5737 -48.7088 487.733 -26.8054 75.4126 9.46967 8.46708 
171.829 157.71 160.831 164.677 149.349 162.603 151.72 156.779 169.76 89.6773 14.1477 472.024 -22.0571 15.7206 458.173 -91.3004 -8.22415 442.717 -110.035 -31.8848 426.962 -100.122 -56.1306 438.484 -20.8862 -49.0355 488.691 -27.1274 74.5154 9.75376 8.46884 
171.296 157.683 160.815 161.597 148.445 162.559 151.766 156.579 168.462 90.0357 14.267 473.166 -22.4314 15.3531 459.408 -91.7649 -8.51497 443.503 -110.208 -32.1204 427.006 -98.2179 -56.4389 439.093 -21.4791 -49.3165 489.627 -27.2181 72.0111 11.1231 8.48966 
170.421 157.474 160.686 157.739 147.821 162.45 151.773 156.152 168.511 90.1951 14.2495 474.424 -23.4826 15.2712 461.746 -92.8654 -8.44261 444.625 -110.698 -31.1106 427.093 -98.404 -55.2039 439.001 -22.072 -49.5442 489.909 -27.3121 70.6007 11.366 8.71919 
170.133 157.862 160.6 156.834 148.15 162.657 152.31 155.92 165.678 90.334 14.39 475.453 -24.069 14.3779 462.161 -93.6218 -8.83288 444.311 -110.73 -30.5423 426.569 -96.4702 -55.3463 439.358 -21.8672 -49.9868 490.497 -27.4328 68.627 12.1437 8.43974 
170.088 158.221 160.231 156.398 149.231 163.044 152.312 155.245 167.073 89.7755 14.5926 477.133 -24.954 13.6508 463.679 -94.5609 -8.91329 445.545 -111.019 -30.241 428.356 -97.3658 -55.3775 440.917 -21.8378 -50.2448 491.503 -27.826 69.6689 11.3728 8.02928 
169.553 158.308 159.557 155.908 150.818 162.962 151.454 154.47 167.044 89.0527 14.1833 478.203 -25.9731 13.2009 465.025 -94.9046 -8.85988 446.697 -111.092 -30.1322 429.858 -96.8525 -55.3453 442.781 -21.4939 -50.493 492.525 -28.1733 70.3066 11.3483 7.76564 
168.982 158.813 159.046 155.416 153.165 162.345 150.749 153.638 166.193 88.2914 13.5195 478.917 -26.2936 13.4629 466.187 -94.6862 -8.18637 447.863 -110.739 -28.9327 431.972 -96.1733 -55.6655 445.744 -20.6759 -50.6694 494.168 -28.7043 71.7523 11.0934 7.53558 
169.215 159.354 158.115 155.71 155.182 162.184 150.623 153.345 168.695 87.6204 13.2075 480.124 -27.2043 13.7636 467.93 -94.95 -7.52332 449.657 -111.02 -28.7799 434.165 -96.6745 -55.7994 448.751 -20.3363 -50.8496 495.885 -29.515 73.7777 10.7588 7.32506 
169.72 159.814 157.824 154.418 155.507 161.958 150.885 153.33 169.648 87.2592 13.1077 481.873 -28.1239 14.1316 469.891 -95.1231 -7.08013 451.377 -111.283 -28.2135 435.871 -96.7222 -55.7676 451.069 -19.9351 -50.9826 497.469 -29.9994 74.8953 10.7773 7.4056 
170.045 160.308 157.35 152.751 155.854 161.846 151.213 152.983 169.274 86.8768 13.0043 483.981 -28.9248 14.033 472.329 -95.6772 -6.9849 453.303 -111.532 -27.6966 437.442 -96.2968 -55.8814 453.267 -19.8586 -51.2627 499.016 -30.4383 75.2643 11.2864 7.51621 
170.636 160.319 156.358 155.393 155.894 162.245 151.708 153.02 171.695 87.0207 12.8713 484.654 -29.1499 14.0434 474.579 -96.1199 -7.08657 455.572 -112.167 -27.6672 439.664 -96.9248 -56.1357 454.731 -19.7618 -51.4902 500.147 -30.6949 76.5147 11.3528 7.68315 
171.504 161.146 156.186 176.305 155.2 162.399 152.426 154.012 178.742 86.6859 12.9164 485.725 -29.5438 13.8315 476.381 -96.6823 -7.34929 457.645 -113.133 -28.9469 442.076 -100.23 -56.7055 456.189 -20.2989 -51.7923 501.235 -31.1171 79.2433 9.93349 7.6762 
173.278 161.452 156.099 177.372 154.698 162.334 153.089 155.636 179.106 86.0747 12.8186 486.707 -29.9217 13.565 478.258 -97.4273 -7.89552 459.954 -114.491 -28.9477 443.366 -98.7752 -57.7435 458.133 -20.6582 -52.1822 502.475 -31.6068 78.5784 12.0954 7.81448 
174.647 160.407 154.5 179.211 153.861 162.29 152.466 156.82 179.732 85.386 12.7326 487.309 -29.8989 12.7241 479.36 -97.9399 -9.32856 461.495 -115.632 -28.2679 443.046 -92.7092 -58.7823 459.494 -20.9923 -52.6775 503.402 -32.0046 73.9897 17.6103 8.11178 
176.148 162.196 157.033 174.27 154.851 161.91 153.037 158.312 179.908 83.8371 12.1284 486.813 -30.4339 12.4411 481.099 -99.3773 -10.8769 462.724 -117.53 -26.7592 438.969 -86.8512 -59.3157 461.234 -21.3338 -52.7216 503.535 -32.5985 69.5375 25.3033 9.18275 
175.752 162.641 158.947 174.27 155.687 160.365 152.527 159.441 178.7 83.1391 11.4785 485.31 -30.6587 12.2949 481.967 -99.5188 -11.6909 463.912 -118.668 -24.6648 435.603 -85.4337 -59.845 461.722 -21.8061 -52.5977 503.385 -32.8923 67.6704 29.1291 9.67575 
174.996 163.97 161.096 174.27 156.828 159.548 152.618 160.072 178.078 83.4016 11.2365 484.336 -30.5431 12.4243 483.21 -99.5972 -12.1487 465.244 -119.527 -22.2687 432.915 -85.4408 -60.0847 462.374 -21.8226 -52.5261 503.734 -33.0756 66.9433 31.3298 10.1931 
176.48 163.659 161.508 174.27 156.397 160.924 150.803 158.22 178.058 84.6329 11.2128 484.773 -28.7285 12.0274 482.385 -98.1368 -12.5241 464.992 -118.298 -24.0206 432.922 -86.003 -60.7388 462.606 -21.7301 -52.831 504.987 -32.55 66.3444 30.1731 9.99478 
175.761 162.745 159.821 174.27 154.892 161.005 148.808 156.883 178.115 85.6473 10.4729 484.594 -27.9101 11.6606 481.828 -97.0387 -12.6924 465.313 -117.426 -25.7038 434.268 -85.4268 -61.05 463.047 -22.3762 -53.0669 506.194 -32.3151 64.6526 29.8297 9.62529 
174.992 160.956 158.038 174.27 151.805 161.029 147.476 156.353 178.526 85.9957 9.8093 485.244 -27.6751 11.1462 482.639 -96.7458 -13.4455 466.223 -117.256 -28.1916 436.878 -84.2452 -61.3605 463.326 -23.5985 -53.5121 507.553 -32.0696 62.0862 29.9534 9.79475 
173.846 157.966 157.027 174.27 151.933 160.088 148.159 157.046 178.188 84.8223 9.59529 486.073 -28.0732 11.0491 487.54 -98.0452 -14.4814 469.538 -118.181 -26.199 435.815 -80.694 -60.6903 465.225 -24.2156 -53.5726 508.721 -32.0089 58.4856 34.65 11.1068 
172.527 159.161 158.365 174.27 152.053 159.297 149.767 158.308 178.035 83.2737 8.93796 485.544 -28.2384 11.2692 490.678 -98.8289 -14.396 471.956 -118.752 -23.2396 435.035 -78.6261 -60.4925 467.106 -24.3446 -53.5207 509.475 -32.0788 57.0849 37.537 11.627 
170.163 162.306 160.776 174.27 152.558 157.679 151.512 159.749 178.024 82.6643 7.84617 484.881 -27.9391 11.6076 493.326 -99.0388 -14.1427 474.357 -119.194 -21.1708 434.912 -79.2064 -60.5989 468.535 -24.2698 -53.4172 510.464 -31.8589 57.5527 38.3674 11.9425 
168.239 163.511 162.019 174.276 153.41 157.011 152.455 160.417 178.024 82.819 7.0365 484.54 -27.8025 11.5656 495.646 -99.1591 -14.3763 476.514 -119.584 -21.0421 436.109 -81.9085 -60.796 469.27 -24.3212 -53.4295 511.451 -31.498 58.9501 37.4021 12.2923 
167.083 164.048 163.268 174.328 153.971 157.335 153.683 161.253 178.036 82.9631 6.84413 483.979 -26.9204 12.0224 496.211 -98.1885 -13.7601 478.308 -119.375 -20.6748 435.113 -81.4852 -61.7067 470.819 -23.8221 -53.494 512.836 -31.2094 58.9147 38.3342 11.8293 
167.867 165.046 163.857 174.345 153.628 159.038 152.936 159.706 178.039 84.0676 7.21109 485.302 -26.2785 11.9274 495.573 -97.1632 -13.416 478.158 -118.063 -22.2696 435.514 -81.2025 -62.9564 472.322 -22.6531 -53.8195 514.764 -30.9632 59.5357 37.0597 11.2055 
168.529 164.465 164.166 174.324 153.509 160.454 151.811 158.757 178.033 84.8388 7.61687 486.26 -25.6991 11.8501 494.779 -96.4553 -13.2589 478.067 -117.647 -24.3723 437.902 -82.7501 -63.5189 473.627 -21.9709 -54.2087 516.484 -30.8515 60.9476 34.5822 10.711 
168.221 165.642 166.021 174.356 155.158 160.499 154.087 160.847 178.04 83.4857 7.54173 486.37 -25.8907 12.5337 495.187 -96.5662 -12.6111 479.175 -118.382 -23.4175 437.932 -82.6789 -64.6041 476.053 -20.9348 -54.2438 517.463 -30.9888 63.0191 35.1177 10.6318 
167.2 166.964 167.167 174.377 156.795 159.514 156.123 162.547 178.045 82.7698 6.97322 486.788 -26.6969 12.9416 497.037 -97.3336 -12.4141 481.02 -119.356 -22.3258 437.773 -81.3435 -64.9182 477.657 -20.4429 -54.3912 518.091 -31.1335 63.2463 36.9971 10.8529 
167.321 167.507 167.068 174.346 155.688 160.035 155.976 162.033 178.038 83.049 7.16066 488.435 -26.6868 12.4575 496.946 -96.9116 -12.4338 481.098 -118.639 -24.1859 439.981 -82.9389 -65.1445 477.72 -20.2261 -54.5919 518.815 -30.7329 64.2766 34.9083 10.3733 
166.32 167.856 167.189 174.338 156.481 159.102 156.754 162.863 178.037 83.1368 6.69561 489.255 -27.3829 12.2432 497.938 -97.5102 -12.4441 482.478 -119.285 -24.1625 441.221 -83.8416 -65.2235 478.015 -20.2518 -54.6836 519.203 -30.8156 64.9967 34.8776 10.1131 
163.551 169.401 170.077 174.27 155.106 156.49 157.149 165.953 178.033 80.0661 5.24408 488.927 -28.3705 11.3438 498.523 -97.8062 -12.7915 484.953 -120.748 -26.2021 445.238 -77.9295 -66.528 478.822 -21.2093 -54.6564 519.362 -30.8372 62.5267 39.6508 9.4637 
163.181 169.014 170.141 114.44 156.633 155.956 157.684 165.836 159.786 81.1629 4.51523 489.86 -28.1131 11.0665 499.384 -97.4881 -13.3466 486.155 -120.598 -37.4397 456.061 -66.2179 -66.1909 478.733 -21.8796 -55.2078 520.669 -30.4187 54.8062 46.2769 9.57302 
162.086 169.13 169.909 90.0457 157.042 155.051 158.323 166.878 92.6741 81.3032 3.51601 491.246 -27.8663 10.3257 499.819 -97.0057 -13.9238 487.845 -120.563 -39.9176 470.605 -47.6386 -66.979 480.472 -22.1629 -55.4881 522.136 -30.2633 36.5195 63.2809 9.29068 
161.401 169.155 168.572 113.222 156.183 154.576 158.645 166.874 79.0554 81.8958 2.979 492.649 -27.6152 9.62802 501.451 -97.1146 -14.8733 489.471 -120.529 -43.6411 474.457 -38.5441 -66.8926 480.567 -22.9417 -55.8734 523.088 -29.9975 23.4325 75.317 9.3661 
161.655 169.552 167.747 135.804 155.823 155.081 158.944 167.301 75.0557 81.7177 2.66891 494.326 -26.6091 8.90562 501.956 -97.3725 -16.2463 488.591 -120.092 -47.9495 477.698 -30.2272 -67.706 482.705 -22.3052 -56.4313 524.577 -30.0909 14.8407 85.369 9.77669 
161.794 169.977 167.16 153.396 155.686 155.734 159.378 166.519 74.6715 81.8141 2.35107 496.482 -25.3585 8.05143 502.065 -96.8596 -17.4282 487.692 -118.762 -51.9979 482.408 -22.5177 -69.0645 485.732 -21.1254 -57.4004 526.717 -30.0607 9.51752 93.5559 10.0081 
163.865 167.809 164.594 155.321 154.42 157.487 156.379 164.701 74.2921 83.0608 2.44544 498.818 -24.6507 7.1919 502.285 -95.9012 -18.4209 487.796 -117.647 -53.7853 484.757 -21.2834 -69.5176 487.124 -20.5456 -58.1788 528.535 -30.0121 9.37687 94.1154 10.1115 
163.754 168.21 164.478 153.847 155.058 157.031 156.019 164.755 73.0215 83.21 1.95983 499.358 -24.1641 7.36355 503.477 -95.4084 -18.6859 488.753 -117.634 -54.2723 486.178 -21.8019 -69.5488 488.485 -20.0239 -58.5852 529.287 -30.0759 10.3942 94.3302 10.6655 
165.341 167.914 163.719 153.952 154.126 158.583 156.498 164.306 73.7411 84.0933 2.38532 501.186 -24.1513 6.50609 503.291 -95.1015 -19.7793 489.57 -117.413 -55.3612 486.935 -21.8549 -70.4227 489.414 -20.2661 -59.2778 530.57 -29.9667 10.3182 93.6533 10.5805 
167.444 166.518 162.928 152.539 151.762 160.253 155.245 163.953 75.7998 85.0566 2.69791 503.007 -23.4328 5.76024 504.539 -94.8401 -20.8443 490.948 -117.468 -55.5074 485.149 -23.4777 -70.6866 489.129 -21.0984 -60.0233 531.563 -29.5349 11.28 90.3976 10.8644 
169.676 165.397 163.517 151.286 150.742 161.663 155.45 163.758 74.8952 85.5962 2.72819 504.572 -22.9616 5.22742 504.825 -94.6362 -21.3565 490.901 -116.965 -56.7081 485.999 -23.8237 -71.5004 489.339 -21.2466 -60.6579 532.259 -29.2072 11.0761 89.5622 10.8425 
171.119 164.831 163.238 152.017 149.537 162.326 155.98 163.913 74.7814 86.0311 2.32153 506.19 -22.3835 4.76212 506.252 -94.9021 -21.7835 491.72 -116.843 -58.0198 486.129 -23.6415 -71.937 489.296 -21.5582 -61.1784 532.947 -28.7175 11.3823 89.61 10.8762 
172.374 165.035 163.579 149.811 148.836 163.111 156.877 163.828 75.9656 86.9861 1.84841 508.03 -21.8807 4.40705 507.539 -95.0519 -22.3009 492.408 -116.655 -57.4147 485.163 -25.9839 -72.6218 489.523 -21.5087 -61.8391 534.157 -28.2979 11.9861 85.2651 11.0667 
172.462 164.305 163.313 148.659 149.14 163.368 157.268 163.263 73.1472 87.5579 1.07213 509.539 -21.9241 3.9641 509.361 -95.1597 -22.7342 493.683 -116.252 -57.8925 487.893 -27.3998 -73.3429 490.733 -21.3027 -62.3315 535.648 -28.0534 11.8282 83.8933 11.1818 
171.974 163.552 162.423 148.895 148.863 163.116 156.721 162.455 71.7543 87.3977 0.717715 510.515 -22.2988 3.96573 511.437 -95.4233 -22.7263 495.155 -116.334 -56.8218 489.469 -28.4778 -73.1915 491.485 -21.391 -62.6669 536.255 -28.1126 11.6843 83.0323 11.4632 
170.187 164.202 162.564 143.899 148.946 160.921 158.066 163.163 70.6349 84.3905 -0.316162 511.073 -23.11 4.1852 513.433 -95.838 -22.7192 496.948 -117.021 -55.9968 490.492 -30.2086 -73.6788 493.319 -21.6721 -62.8348 536.371 -28.285 13.68 82.388 11.8191 
