174.714 166.778 138.788 147.043 148.882 173.725 150.688 147.262 80.9844 85.5466 -121.134 196.247 69.4739 -90.9814 204.924 13.3304 -46.2193 195.543 8.80816 -50.5452 177.768 102.109 -36.9672 181.387 103.461 -56.9983 221.132 102.197 10.9125 87.4052 20.1349 
174.466 167.147 138.647 147.085 149.036 173.87 150.784 147.162 80.999 85.444 -121.742 196.735 69.4422 -91.2845 205.254 13.449 -46.752 195.845 9.06831 -51.2291 178.213 102.377 -37.6035 181.809 103.773 -57.4647 221.477 102.386 10.8619 87.3491 19.9392 
174.314 167.425 138.693 147.171 148.745 173.994 150.918 147.284 81.0376 85.3876 -122.304 197.056 69.5228 -91.5749 205.404 13.5657 -47.193 196.052 9.25901 -51.9302 178.508 102.628 -38.1758 182.044 103.944 -57.9709 221.776 102.624 10.863 87.2805 19.7572 
174.316 167.393 138.679 147.011 148.354 174.241 150.943 147.354 81.1897 85.7032 -123.578 197.491 69.8615 -92.1308 205.599 13.9222 -47.8504 196.286 9.92453 -53.0015 178.556 102.855 -39.2503 182.059 104.29 -59.1031 222.067 103.237 10.8294 86.6976 19.6242 
174.303 167.406 139.146 146.701 148.305 174.489 151.062 147.673 81.0693 85.8352 -124.287 197.79 70.1191 -92.3801 205.668 14.0907 -48.0141 196.547 10.1247 -53.4273 178.563 102.909 -39.6767 181.949 104.548 -59.6009 222.13 103.606 10.6818 86.5455 19.5941 
174.317 167.546 139.607 146.572 148.213 174.478 151.313 147.719 81.0343 85.8628 -124.926 197.863 70.5318 -93.0918 205.601 14.3714 -48.569 196.495 10.4432 -53.9791 178.576 103.193 -40.169 181.963 104.826 -60.2907 222.139 103.955 10.6267 86.4817 19.7089 
174.161 167.952 140.392 146.93 148.613 174.465 151.617 148.007 80.9423 85.327 -125.462 197.915 70.8453 -94.0224 205.652 14.7506 -49.3447 196.722 10.6025 -54.7546 179.017 104.027 -41.0424 182.607 105.588 -61.0229 222.311 104.239 10.7592 87.218 19.7777 
174.372 168.068 140.773 146.8 148.718 174.294 151.867 148.115 80.9356 85.3049 -126.13 197.8 71.2422 -94.8005 205.475 15.0619 -50.0229 196.424 10.9316 -55.3776 178.995 104.512 -41.6476 182.604 106.054 -61.7585 222.244 104.519 10.7202 87.3337 19.8871 
174.486 167.983 141.315 146.612 148.943 174.262 151.805 148.3 80.6788 85.393 -126.826 197.505 71.6102 -95.6284 205.392 15.3957 -50.7828 196.384 11.1017 -55.9775 178.873 104.622 -42.2955 182.353 106.397 -62.5427 222.067 104.815 10.5335 87.2921 19.9255 
174.556 168.089 141.558 146.599 149.562 174.367 151.777 148.211 80.1251 85.5118 -127.732 197.482 71.6991 -96.2658 205.046 15.576 -51.4696 196.021 11.312 -56.546 178.754 104.579 -43.1812 182.003 106.798 -63.3298 221.813 104.989 10.4406 87.0376 19.8679 
174.418 168.387 141.457 146.094 150.164 174.556 151.803 148.049 79.7524 85.5946 -128.694 197.347 71.697 -96.8168 204.737 15.6779 -51.9791 195.684 11.5792 -57.3575 178.633 104.481 -44.2474 181.739 107.295 -64.135 221.604 105.136 10.2518 86.7144 19.8811 
174.237 168.487 141.716 145.586 150.873 174.905 151.787 147.732 79.2303 85.5316 -129.947 197.595 71.593 -97.6907 204.888 15.7048 -53.0029 195.558 11.6851 -58.2564 178.814 104.301 -45.3811 181.714 107.671 -65.0431 221.533 105.208 10.086 86.3661 19.8091 
174.18 168.412 141.897 145.093 151.393 175.073 151.638 147.622 78.8063 85.4169 -130.924 197.518 71.5919 -98.6656 204.804 15.7934 -53.9607 195.677 11.6446 -58.9479 178.969 104.076 -46.1909 181.776 107.877 -65.9566 221.459 105.246 9.89791 86.2021 19.7833 
174.108 168.305 141.662 145.365 152.04 175.233 151.548 147.487 78.3843 85.2285 -132.001 197.908 71.4883 -99.725 205.084 15.8528 -55.2425 195.997 11.6009 -59.8477 179.196 103.951 -47.2759 181.896 108.1 -66.9053 221.461 105.262 9.86446 86.1986 19.613 
173.809 168.462 141.661 145.118 152.603 175.39 151.698 147.748 78.116 85.0525 -132.909 198.241 71.3722 -100.461 205.039 15.9772 -56.0428 196.05 11.7199 -60.9147 179.459 104.13 -48.4033 182.098 108.709 -67.8347 221.568 105.4 9.70196 86.2789 19.5122 
173.601 168.672 141.541 144.983 152.963 175.585 151.801 147.823 77.8807 84.8991 -134.065 198.74 71.3308 -101.21 205.042 16.0744 -57.0256 196.252 11.8558 -61.9396 179.821 104.356 -49.5203 182.437 109.198 -68.8032 221.736 105.514 9.68248 86.4301 19.2832 
173.569 168.587 141.852 144.824 153.082 175.658 151.712 147.905 77.8733 84.8711 -135.229 199.07 71.5234 -102.254 205.035 16.3154 -58.3269 196.571 11.9462 -62.791 180.196 104.516 -50.3599 182.89 109.419 -69.8393 222.005 105.653 9.62626 86.4277 19.036 
173.287 168.467 142.083 144.695 152.996 175.889 151.579 148.264 78.0029 85.144 -136.419 199.377 71.704 -103.302 205.215 16.5349 -59.3478 197.21 11.9 -63.8508 180.158 104.458 -51.4174 182.798 109.461 -70.874 222.105 105.876 9.54848 86.4743 18.9455 
173.3 168.448 142.555 145.652 153.296 175.998 151.876 148.553 77.9848 85.4571 -137.796 199.88 72.1264 -104.388 205.39 16.8764 -60.5242 197.614 12.1432 -64.7695 180.439 105.012 -52.5403 183.053 109.906 -72.0085 222.474 106.231 9.77145 86.7478 18.8164 
173.468 168.426 143.001 146.886 153.534 176.125 152.125 148.444 78.2625 86.2275 -139.175 200.478 72.4428 -105.556 205.689 17.1125 -61.8457 198.032 12.3976 -65.4921 180.436 105.288 -53.6257 183.013 110.059 -73.1622 222.83 106.594 10.1205 86.4689 18.6487 
173.717 168.358 143.489 147.752 153.892 176.134 152.302 148.432 78.3377 86.9203 -140.459 200.892 72.8021 -106.859 206.027 17.2606 -63.2518 198.487 12.4912 -66.2141 180.531 105.454 -54.7416 183.035 110.279 -74.374 223.138 106.931 10.4192 86.2593 18.5143 
173.585 168.337 144.077 148.036 153.86 176.093 152.558 148.984 78.2797 86.7405 -141.789 201.206 73.2812 -108.411 206.644 17.3966 -64.7913 199.301 12.2506 -67.3551 180.907 105.737 -55.8859 183.467 110.52 -75.5494 223.467 107.233 10.4611 86.6602 18.4405 
173.211 168.664 144.987 149.755 153.96 176.225 153.264 149.74 78.1513 86.3909 -143.188 201.809 73.7306 -109.983 207.345 17.5088 -66.3812 200.291 11.9489 -68.6772 181.565 106.669 -57.1838 184.171 111.103 -76.6884 223.935 107.51 10.6151 87.9013 18.3177 
172.857 169.1 146.273 151.278 154.217 176.566 154.003 150.269 78.3738 86.52 -144.619 202.598 73.8327 -111.272 208.205 17.3456 -67.8074 201.033 11.661 -70.0646 181.898 107.374 -58.5647 184.402 111.453 -77.7295 224.303 107.706 10.7398 88.7018 18.1416 
172.677 169.843 147.496 151.843 154.19 176.52 154.723 150.976 78.5044 86.3734 -145.634 202.74 74.1067 -112.657 208.898 17.463 -69.2399 201.962 11.4821 -71.3571 182.562 108.178 -59.803 185.073 111.845 -78.8087 224.817 108.021 10.894 89.576 18.0057 
172.409 170.592 148.832 152.23 154.169 176.512 155.468 151.882 78.632 86.5845 -146.445 202.819 74.3344 -113.744 209.303 17.4861 -70.3801 202.574 11.1823 -72.6256 182.809 108.661 -61.0337 185.143 112.028 -79.6915 225.147 108.266 10.9878 90.1908 17.8423 
172.06 171.343 149.996 152.482 153.847 176.316 155.964 152.668 78.5766 86.0746 -147.202 202.974 74.7948 -115.273 210.227 17.9074 -71.9188 203.824 11.0122 -74.2242 183.591 109.298 -62.1556 185.82 112.22 -80.5993 225.685 108.603 10.7927 91.2076 17.7869 
171.966 171.853 151.228 153.238 153.692 176.106 156.222 153.386 78.3951 85.6433 -148.057 203.543 75.2758 -116.664 211.335 18.4228 -73.5316 205.217 10.9217 -75.694 184.423 109.936 -63.2636 186.463 112.462 -81.4524 226.266 108.995 10.6815 92.1728 17.5979 
172.274 172.388 153.617 154.127 153.777 175.834 156.299 154.029 78.5334 85.6576 -149.901 204.874 75.8481 -118.86 213.613 19.0688 -76.306 207.662 11.0026 -78.1899 185.732 110.437 -65.5282 187.637 112.678 -83.2564 227.616 109.674 10.659 92.5885 17.1364 
172.629 172.718 155.026 153.356 153.726 175.431 156.012 154.322 78.7251 85.3285 -150.223 205.294 76.3036 -119.636 214.801 19.8112 -77.3016 209.177 11.4484 -78.9895 186.806 110.755 -66.1092 188.955 113.134 -83.8768 228.668 110.252 10.4347 92.4548 16.9775 
172.844 173.324 156.082 152.47 153.469 175.167 156.005 154.662 78.8421 84.9406 -150.778 205.706 76.7973 -120.588 215.983 20.5407 -78.3001 210.585 11.9545 -79.9378 187.858 111.147 -66.7901 190.202 113.661 -84.6495 229.592 110.834 10.1529 92.4601 16.9697 
173.174 173.821 157.12 151.701 153.235 174.869 155.934 154.933 78.969 84.6743 -151.37 206.108 77.3288 -121.642 217.033 21.1821 -79.3328 211.798 12.3947 -80.7894 188.798 111.424 -67.4203 191.334 114.111 -85.4766 230.498 111.327 9.85596 92.3767 17.0135 
173.386 174.137 158.362 150.747 153.125 174.66 156.005 155.428 79.0416 84.401 -151.825 206.455 78.0001 -122.362 217.846 21.906 -79.9824 212.611 13.02 -81.502 189.714 112.024 -67.9695 192.461 114.989 -86.2514 231.382 112.02 9.56473 92.282 17.0727 
173.73 174.573 159.506 150.353 153.149 174.441 156.208 155.739 78.9961 84.3326 -152.242 206.706 78.5811 -123.336 218.711 22.4948 -80.8305 213.392 13.5179 -82.0267 190.513 112.463 -68.5041 193.373 115.607 -87.0356 232.136 112.61 9.45769 92.1422 17.1802 
174.07 175.539 160.547 149.602 152.92 174.273 156.866 156.17 78.9959 84.2619 -152.764 206.844 79.094 -124.238 219.426 22.7494 -81.5069 213.831 13.7852 -82.5208 190.964 112.687 -68.9823 193.928 116.018 -87.705 232.624 113.037 9.33866 91.9652 17.3566 
174.469 176.585 161.366 149.145 152.873 174.078 157.693 156.432 78.9236 84.1499 -153.205 206.999 79.5046 -124.851 219.901 22.8768 -82.0506 213.737 14.0894 -82.978 191.205 112.913 -69.4459 194.238 116.472 -88.2225 232.862 113.396 9.24281 91.6591 17.4356 
174.799 176.869 161.862 148.225 152.775 174.008 158.391 156.577 78.9085 83.9749 -153.662 207.088 79.723 -125.333 220.241 22.9735 -82.3432 213.724 14.3876 -83.2114 191.493 112.921 -69.6545 194.695 116.794 -88.6892 233.101 113.639 9.08371 91.2048 17.6083 
174.849 176.892 162.141 147.14 152.518 173.884 158.986 156.772 79.0743 83.6626 -153.851 207.098 79.931 -125.83 220.393 23.1858 -82.5096 213.77 14.7117 -83.5139 191.884 113.285 -69.8421 195.343 117.233 -89.0865 233.364 113.897 8.97788 91.181 17.8755 
174.813 176.511 162.266 146.349 152.521 173.939 159.283 156.826 79.1639 83.5743 -154.167 207.226 79.9868 -126.104 220.462 23.3653 -82.5299 213.881 15.0278 -83.7555 192.143 113.471 -70.1004 195.733 117.553 -89.4232 233.531 114.092 8.96675 91.0631 18.0665 
174.573 176.434 162.311 145.822 152.286 174.145 159.566 156.864 79.3279 83.6478 -154.404 207.126 79.9374 -126.359 220.396 23.4333 -82.4181 214.063 15.1869 -84.0301 192.127 113.438 -70.3404 195.779 117.525 -89.7627 233.582 114.222 8.9347 90.9038 18.3064 
174.311 176.886 162.251 145.346 152.152 174.24 159.701 156.857 79.4333 83.6298 -154.6 207.027 80.0523 -126.786 220.582 23.6556 -82.5843 214.481 15.4203 -84.3918 192.348 113.567 -70.6556 196.084 117.701 -90.1507 233.804 114.448 8.8877 90.8881 18.4883 
174.048 177.192 162.23 145.164 151.956 174.244 159.791 156.913 79.7042 83.4962 -154.713 206.761 80.0663 -126.999 220.673 23.8609 -82.6702 214.677 15.7275 -84.7331 192.536 114.044 -71.0116 196.49 118.036 -90.5184 233.982 114.66 9.02097 91.0833 18.5827 
173.981 177.578 162.012 144.881 151.737 174.291 159.755 156.866 80.0266 83.6904 -154.911 206.319 80.0943 -127.236 220.637 24.0298 -82.5543 214.779 15.9947 -85.0568 192.41 114.168 -71.3427 196.458 118.135 -90.8736 234.017 114.847 9.05078 90.9575 18.8332 
174.154 178.371 161.728 144.592 151.624 174.008 159.858 156.868 80.1527 83.6593 -154.976 205.858 80.1783 -127.905 220.788 24.1871 -82.9751 214.957 16.0751 -85.4525 192.417 114.28 -71.7486 196.553 118.192 -91.2893 234.023 114.939 9.10688 91.0772 19.0405 
174.613 179.859 161.75 144.577 151.227 173.464 160.338 156.859 80.4403 83.603 -155.581 205.473 80.4221 -129.35 221.536 24.3307 -84.346 214.638 16.2485 -86.7452 192.003 114.567 -72.8126 196.094 118.146 -92.1694 233.768 115.181 9.05733 91.0932 19.2541 
174.917 179.647 161.573 145.1 151.284 173.272 160.447 156.612 80.3402 83.7193 -155.845 205.297 80.531 -130.08 222.192 24.2819 -85.0956 214.507 16.2232 -87.1113 191.837 114.587 -73.1658 195.761 117.998 -92.4762 233.585 115.219 9.08487 91.1129 19.3828 
174.963 179.231 161.609 146.257 151.432 173.466 160.471 156.513 80.1387 83.9956 -156.576 205.338 80.7116 -130.609 222.441 24.2711 -85.725 214.241 16.2891 -87.6043 191.651 114.806 -73.715 195.289 118.001 -92.9086 233.384 115.33 9.19041 91.2213 19.3852 
174.692 177.478 161.658 146.343 151.338 173.521 160.291 156.519 80.1196 83.921 -156.946 205.181 80.8671 -131.104 222.159 24.5338 -86.3307 213.996 16.4632 -88.1658 191.634 115.162 -74.1935 195.236 118.239 -93.3018 233.279 115.453 9.18142 91.4007 19.3165 
174.444 175.973 161.827 146.399 151.262 173.667 160.425 156.723 80.3627 84.0608 -157.349 204.931 81.0754 -131.579 221.642 24.7247 -86.7499 213.643 16.5793 -88.7021 191.384 115.579 -74.698 195.024 118.526 -93.7202 233.133 115.615 9.22697 91.5731 19.3181 
174.437 174.565 161.677 146.595 151.477 173.816 160.388 156.511 80.4751 84.264 -157.986 205.07 81.348 -132.114 221.453 24.982 -87.4057 213.485 16.8813 -89.1166 191.401 115.844 -75.1794 195.067 118.771 -94.2082 233.173 115.771 9.2797 91.4827 19.2489 
174.427 172.876 161.451 146.679 151.526 173.726 160.173 156.319 80.7355 84.1972 -158.297 205.011 81.5054 -132.998 221.4 25.3227 -88.4395 213.541 17.0718 -89.7043 191.43 116.108 -75.7213 195.238 118.923 -94.6897 233.231 115.869 9.31418 91.5159 19.1767 
174.557 171.038 161.26 146.746 151.611 173.479 160.02 156.151 80.7326 84.0919 -158.506 204.881 81.6474 -134.015 221.568 25.6071 -89.5224 213.788 17.1226 -90.2494 191.596 116.241 -76.2156 195.422 119.002 -95.1758 233.294 115.955 9.28393 91.6103 19.1695 
174.816 168.983 161.237 146.968 151.521 173.1 159.834 156.117 80.9606 83.9122 -158.612 204.899 81.7 -135.041 221.958 25.8648 -90.7106 213.929 17.1404 -91.076 191.622 116.497 -76.9107 195.471 118.996 -95.6102 233.374 116.04 9.34555 91.7269 19.1239 
175.146 167.114 161.288 147.169 151.593 172.898 159.682 156.025 81.0126 83.825 -158.942 205.166 81.9878 -136.049 222.606 26.2318 -91.8102 214.353 17.284 -91.7084 191.944 116.751 -77.4128 195.762 119.112 -96.0504 233.659 116.293 9.2957 91.7389 19.1311 
175.409 165.912 161.571 147.312 151.879 172.935 159.496 156.114 80.9497 83.9831 -159.499 205.638 82.2683 -136.729 223.054 26.521 -92.8032 214.844 17.3258 -92.4496 192.304 116.905 -78.13 195.924 119.298 -96.5261 233.971 116.576 9.23928 91.6726 18.8676 
175.554 165.024 161.838 147.325 151.951 172.922 159.454 156.229 80.7449 83.9271 -160.09 206.14 82.8064 -137.458 223.592 26.9701 -93.6946 215.396 17.5507 -92.9953 192.842 117.201 -78.6235 196.342 119.602 -97.0009 234.377 116.969 9.16625 91.687 18.7551 
175.661 164.431 162.091 147.327 151.961 172.827 159.447 156.492 80.6105 83.7567 -160.601 206.632 83.2643 -138.382 224.177 27.3769 -94.6692 216.139 17.5684 -93.5993 193.381 117.508 -79.1648 196.802 119.854 -97.4192 234.776 117.262 9.13486 91.9712 18.7104 
175.813 164.038 162.241 147.333 152.169 172.808 159.24 156.684 80.5083 83.7086 -161.135 207.312 83.578 -138.934 224.588 27.756 -95.444 216.679 17.7255 -94.2102 193.888 117.842 -79.7981 197.221 120.245 -97.8261 235.169 117.551 9.13404 92.1151 18.5313 
175.82 163.775 162.174 147.717 152.255 172.728 159.102 156.621 80.441 83.3643 -161.775 208.006 84.2091 -139.737 225.062 28.4078 -96.2972 217.353 18.1375 -94.5576 194.647 118.659 -80.2245 198.112 120.782 -98.2574 235.724 117.93 9.3966 92.6556 18.529 
175.814 163.802 162.131 147.919 152.379 172.773 158.816 156.591 80.5016 83.2293 -162.492 208.686 84.8006 -140.281 225.327 29.0315 -97.0372 217.783 18.6498 -95.0385 195.268 119.432 -80.7694 198.815 121.433 -98.7028 236.272 118.386 9.54976 92.8791 18.3786 
175.915 164.019 162.185 147.912 152.489 172.881 158.561 156.686 80.5807 83.2393 -163.169 209.333 85.2871 -140.463 225.283 29.468 -97.379 217.976 19.0877 -95.3906 195.741 120.053 -81.1984 199.343 122.046 -99.0609 236.731 118.786 9.63443 92.9466 18.1999 
175.991 164.103 162.21 148.108 152.417 172.804 158.547 156.734 80.6332 83.0395 -163.738 209.976 85.9566 -140.841 225.365 30.0577 -97.8213 218.202 19.6644 -95.649 196.218 120.831 -81.4872 199.942 122.571 -99.4128 237.15 119.231 9.81983 93.2012 18.1494 
176.114 164.145 162.152 148.256 152.513 172.706 158.36 156.648 80.5658 82.8982 -164.299 210.479 86.6119 -141.32 225.457 30.7407 -98.2888 218.598 20.2668 -95.9467 196.837 121.483 -81.7887 200.639 123.14 -99.807 237.632 119.696 9.86525 93.3732 18.1479 
176.128 164.227 162.145 148.438 152.504 172.721 157.999 156.584 80.6297 82.7952 -164.826 210.97 87.1451 -141.391 225.246 31.3117 -98.464 218.75 20.8775 -96.0936 197.248 122.067 -81.9538 201.178 123.583 -100.088 238.045 120.139 9.97882 93.32 18.0223 
176.202 164.186 162.049 148.491 152.275 172.717 157.625 156.428 80.8129 82.8074 -165.264 211.229 87.6231 -141.208 224.784 31.7533 -98.4264 218.461 21.5123 -96.1559 197.234 122.44 -82.028 201.285 123.78 -100.299 238.24 120.525 10.1156 92.9477 17.8698 
176.19 164.17 161.814 148.843 152.035 172.586 157.578 156.171 81.0292 82.6211 -165.529 211.308 88.1092 -141.365 224.54 32.221 -98.6263 218.266 22.1656 -96.1072 197.447 123.205 -82.0679 201.747 124.112 -100.551 238.516 120.868 10.4769 93.0534 17.8474 
176.326 164.055 161.615 149.026 151.748 172.431 157.264 155.891 81.2099 82.5591 -165.712 211.375 88.4234 -141.119 224.058 32.5104 -98.7192 217.712 22.7413 -96.193 197.386 123.551 -82.1571 201.816 124.233 -100.722 238.638 121.116 10.6551 92.6591 17.5762 
176.544 163.975 161.29 149.199 151.643 172.182 157.213 155.509 81.3856 82.4428 -165.905 211.321 88.8225 -141.291 223.811 32.8325 -99.1924 217.28 23.2607 -96.3436 197.439 123.956 -82.3242 202.028 124.458 -100.954 238.784 121.338 10.7873 92.4048 17.3723 
176.663 164.067 161.021 149.308 151.454 172.147 157.117 155.308 81.5795 82.5102 -166.11 211.243 89.0073 -141.141 223.464 32.8907 -99.2857 216.912 23.4904 -96.3965 197.272 124.082 -82.4068 201.924 124.432 -101.049 238.793 121.413 10.9127 92.1714 17.1596 
176.91 164.302 160.604 149.554 151.076 172.038 157.225 155.102 81.8476 82.5734 -166.611 211.379 89.612 -141.241 223.205 33.1374 -99.548 216.715 23.885 -96.5399 196.998 124.301 -82.5644 201.761 124.319 -101.288 238.828 121.691 11.1674 91.9393 17.005 
177.05 164.499 160.41 149.536 150.943 172.064 157.255 155.098 81.9652 82.7922 -166.837 211.503 89.7036 -141.11 223.008 33.023 -99.4296 216.529 23.8827 -96.5485 196.636 124.033 -82.6108 201.413 124.045 -101.376 238.697 121.685 11.2278 91.6192 16.971 
177.062 164.569 160.326 149.565 150.588 172.077 157.212 155.067 82.0656 82.8612 -166.875 211.485 89.7629 -140.853 222.631 33.0086 -99.3293 216.167 23.9861 -96.4456 196.342 123.935 -82.4712 201.131 123.782 -101.374 238.569 121.683 11.3247 91.3448 16.8381 
177.079 164.82 160.206 149.502 150.364 172.122 157.546 155.145 82.1244 83.0383 -166.987 211.59 89.8932 -140.713 222.71 32.8711 -99.1438 216.034 23.9651 -96.4268 196.149 123.768 -82.4095 200.893 123.602 -101.392 238.551 121.686 11.2978 91.1613 16.8764 
176.908 164.867 160.215 149.449 150.546 172.271 157.644 155.09 82.1216 83.1769 -166.965 211.667 89.8995 -140.548 222.78 32.8101 -99.0263 216.009 23.9708 -96.415 196.056 123.59 -82.4208 200.796 123.617 -101.375 238.537 121.722 11.191 90.9341 16.837 
176.74 164.933 160.084 149.367 150.498 172.383 157.773 155.041 82.1514 83.2852 -166.934 211.658 89.7985 -140.469 222.831 32.6735 -98.8852 216.025 23.8633 -96.4777 195.802 123.245 -82.4168 200.508 123.402 -101.368 238.429 121.689 11.0614 90.6788 16.8708 
176.641 164.957 159.958 149.344 150.428 172.36 157.833 154.906 82.1667 83.2486 -166.833 211.439 89.7172 -140.595 222.622 32.6405 -99.0377 215.98 23.7791 -96.4592 195.644 123.054 -82.3758 200.393 123.189 -101.441 238.329 121.609 11.0517 90.5767 16.8345 
176.444 164.956 159.745 149.341 150.286 172.363 157.762 154.743 82.1614 83.2498 -166.735 211.273 89.6363 -140.702 222.278 32.6302 -99.1218 215.883 23.6913 -96.3936 195.443 122.79 -82.2668 200.205 122.887 -101.468 238.179 121.489 11.0352 90.4468 16.8371 
176.383 164.955 159.468 149.488 150.273 172.193 157.835 154.505 82.1544 83.1795 -166.662 211.049 89.6401 -141.144 222.304 32.7315 -99.5482 215.882 23.7256 -96.4699 195.402 122.806 -82.3397 200.189 122.768 -101.588 238.097 121.429 11.1109 90.5495 16.9009 
176.24 164.765 159.296 149.487 150.128 172.158 157.715 154.345 82.0557 83.1546 -166.58 210.91 89.4307 -141.388 222.212 32.6791 -99.6898 215.859 23.6135 -96.4556 195.288 122.441 -82.2551 200.05 122.393 -101.7 237.975 121.262 11.0477 90.3835 17.0039 
176.057 164.399 159.217 149.644 150.021 172.123 157.72 154.203 81.9397 83.0021 -166.47 210.757 89.2456 -141.789 222.394 32.7333 -100.008 215.921 23.5757 -96.5265 195.393 122.413 -82.2667 200.114 122.207 -101.834 237.979 121.148 11.0966 90.5044 17.1328 
176.041 164.363 159.261 149.698 149.911 172.214 157.663 154.361 82.0038 83.1035 -166.429 210.44 88.9948 -141.824 222.155 32.6399 -99.9874 215.806 23.4036 -96.6784 195.198 122.323 -82.3929 199.847 122.054 -101.923 237.861 121.034 11.1276 90.5427 17.1479 
176.209 164.081 159.15 149.757 150.096 172.105 157.473 154.237 81.9105 82.8612 -166.419 210.123 88.7392 -142.372 221.984 32.7597 -100.615 215.852 23.3209 -96.9033 195.449 122.338 -82.6389 200.165 122.101 -102.199 237.934 120.894 11.0864 90.6391 17.1013 
176.286 163.889 159.048 149.589 150.496 172.191 157.12 154.14 81.6805 82.8199 -166.697 209.919 88.5741 -142.841 221.886 32.8269 -101.132 216.026 23.1967 -97.1462 195.721 122.067 -82.8863 200.39 122.127 -102.505 237.996 120.746 10.8134 90.5561 17.0662 
176.373 163.894 159.137 149.31 150.931 172.455 156.82 154.219 81.4765 82.8927 -167.242 209.82 88.5575 -143.247 221.629 32.8301 -101.488 216.022 23.0249 -97.3632 195.728 121.683 -83.0567 200.327 122.196 -102.822 237.922 120.666 10.3767 90.3167 17.0783 
176.471 164.122 159.151 149.055 151.645 172.656 156.612 154.109 81.0163 82.9836 -167.83 209.755 88.5309 -143.715 221.478 32.7656 -102.084 216.284 22.7942 -97.6802 195.989 121.214 -83.3856 200.416 122.336 -103.174 237.885 120.547 9.90697 90.1797 16.9438 
176.345 164.941 159.314 148.521 151.973 172.923 156.829 154.35 80.5141 82.9777 -168.885 209.068 88.4939 -145.009 220.755 32.5401 -103.506 216.318 22.1456 -98.5258 196.064 120.604 -84.1203 200.252 122.251 -103.983 237.547 120.182 9.35801 90.2821 16.7924 
176.454 165.606 159.431 148.437 151.918 173.157 156.723 154.382 80.3267 83.1378 -169.515 208.465 88.5615 -145.27 220.046 32.2564 -104.045 215.922 21.7297 -98.8388 195.639 119.907 -84.3559 199.673 121.865 -104.193 237.107 119.85 9.05553 89.9656 16.5553 
176.439 166.303 159.502 148.713 152.297 173.146 156.831 154.35 79.672 82.8539 -169.837 207.333 88.5452 -145.662 219.185 31.8969 -104.654 215.467 21.2701 -98.9898 195.082 119.11 -84.4735 199.004 121.362 -104.402 236.362 119.378 8.85209 89.9757 16.3919 
176.556 166.927 159.613 148.915 152.366 173.205 156.655 154.2 79.3484 82.9237 -170.152 206.313 88.4209 -145.948 218.153 31.6479 -105.205 214.627 20.9487 -99.3545 194.769 118.821 -84.8289 198.553 121.172 -104.76 235.887 118.974 8.75333 90.0283 16.1941 
176.488 167.666 160.211 148.534 152.17 173.251 156.844 154.658 79.3251 82.9608 -170.089 205.188 87.9886 -146.579 217.647 31.2382 -105.792 214.402 20.1279 -99.8185 194.506 118.467 -85.2332 198.225 120.799 -105.102 235.481 118.488 8.6855 90.3993 16.2417 
