173.95 167.271 171.496 148.157 146.516 163.273 158.628 163.692 76.695 75.6783 -196.221 183.16 70.0462 -192.07 208.284 11.6891 -153.439 209.027 -7.88077 -134.167 187.21 95.3135 -119.901 192.079 93.5954 -141.395 225.081 94.3127 10.6175 96.6967 16.1732 
174.073 167.294 171.666 148.915 146.493 163.363 158.625 163.987 76.7429 75.5844 -196.239 183.075 69.8552 -192.092 208.287 11.504 -153.409 209.177 -8.15771 -134.324 187.149 95.3969 -120.047 192.002 93.4803 -141.431 225.059 94.1735 10.7535 97.0581 16.2508 
174.007 167.357 171.739 149.228 146.435 163.299 158.713 164.208 76.8038 75.581 -196.056 182.829 69.6924 -192.217 208.267 11.3532 -153.477 209.287 -8.39889 -134.417 187.132 95.4021 -120.141 191.979 93.3582 -141.471 225.058 94.0206 10.8372 97.3247 16.3318 
174.137 167.462 171.877 149.584 146.511 163.342 158.827 164.466 76.969 75.6658 -196.016 182.743 69.5159 -192.25 208.365 11.1857 -153.518 209.511 -8.64473 -134.546 187.11 95.4716 -120.305 191.973 93.3855 -141.485 225.096 93.9187 10.9052 97.5785 16.351 
174.229 167.528 172.119 149.555 146.338 163.416 158.865 164.662 77.0884 75.7163 -196.024 182.704 69.4072 -192.135 208.273 10.9993 -153.451 209.433 -8.81004 -134.634 187.097 95.5768 -120.386 191.927 93.3612 -141.495 225.104 93.8168 10.9918 97.7467 16.3121 
174.399 167.764 172.367 149.447 145.977 163.575 159.219 165.056 77.1581 75.7106 -195.979 182.922 69.1884 -192.165 208.353 10.6451 -153.342 209.482 -9.13606 -134.684 187.192 95.7337 -120.467 191.96 93.2548 -141.527 225.175 93.6618 11.2135 98.1604 16.3832 
177.26 168.148 171.061 149.499 146.391 164.246 159.866 162.936 78.3249 76.392 -197.581 183.58 69.4506 -192.182 208.506 9.97598 -152.722 207.333 -8.01006 -133.964 186.897 96.591 -119.668 192.021 93.8431 -141.249 225.057 93.5587 11.1563 97.4252 16.4106 
176.631 168.2 170.737 150.486 146.415 163.951 159.802 162.993 78.2862 76.0064 -197.389 183.655 69.1767 -192.022 208.542 9.78812 -152.778 207.372 -8.25863 -134.219 187.003 96.6509 -119.854 192.103 93.6836 -141.304 225.164 93.3615 11.2194 97.6887 16.2364 
175.954 168.251 170.927 151.032 146.32 163.584 159.705 163.295 78.1997 75.8499 -197.062 183.665 69.0393 -191.995 208.431 9.74889 -153.033 207.425 -8.51288 -134.443 187.116 96.6005 -120.094 192.173 93.5415 -141.405 225.258 93.1961 11.2892 97.8634 16.0677 
175.45 168.35 171.215 151 146.007 163.359 159.843 163.69 78.0645 75.702 -196.928 183.715 68.9175 -191.958 208.32 9.4803 -153.17 207.468 -8.96067 -134.563 187.115 96.3588 -120.221 192.092 93.2414 -141.437 225.288 92.9854 11.3545 97.9673 15.9498 
175.107 168.492 171.559 150.49 145.705 163.253 159.862 164.04 77.9274 75.7401 -196.809 183.699 68.7418 -191.825 208.045 9.24555 -153.284 207.58 -9.38239 -134.663 187.14 96.018 -120.35 191.998 92.9225 -141.48 225.317 92.7861 11.401 97.9648 15.7981 
175.178 168.566 171.889 150.038 145.656 163.436 159.986 164.311 77.9282 75.8326 -197.024 183.844 68.6167 -191.681 208.012 8.88853 -153.269 207.703 -9.82913 -134.748 187.108 95.6266 -120.434 191.902 92.6327 -141.487 225.367 92.5594 11.3328 97.8817 15.6886 
174.99 168.613 172.138 149.543 145.537 163.436 160.102 164.501 77.8993 75.9006 -196.782 183.72 68.3838 -191.425 207.957 8.53544 -153.118 207.626 -10.1926 -134.767 187.015 95.2686 -120.434 191.729 92.374 -141.381 225.329 92.3398 11.2707 97.7501 15.5809 
175.298 168.594 172.339 149.011 145.435 163.79 160.052 164.489 77.8852 75.9688 -196.905 183.96 68.0402 -191.085 207.896 8.07937 -152.97 207.532 -10.576 -134.664 187.03 94.7191 -120.324 191.712 91.9486 -141.262 225.384 92.0082 11.1797 97.4084 15.3853 
175.308 168.686 172.563 148.488 145.404 163.821 160.139 164.643 77.8455 76.002 -196.798 184.174 67.6669 -190.721 207.806 7.53099 -152.871 207.461 -11.0422 -134.596 187.105 94.3121 -120.259 191.716 91.5964 -141.127 225.411 91.6421 11.1466 97.3374 15.1396 
175.361 168.726 172.766 148.317 145.549 163.969 160.02 164.66 77.9101 76.0827 -196.792 184.434 67.1722 -190.259 207.574 6.94271 -152.605 207.294 -11.5683 -134.5 187.128 93.7865 -120.145 191.727 91.1385 -140.955 225.469 91.1451 11.0844 97.1604 14.9606 
175.429 168.709 172.898 148.109 145.825 164.156 159.844 164.527 78.1786 76.3611 -196.596 184.606 66.5706 -189.777 207.442 6.33642 -152.242 207.033 -12.08 -134.343 187.042 93.0574 -119.986 191.771 90.7004 -140.777 225.573 90.6094 10.8795 96.6238 14.808 
175.828 168.651 173.052 147.957 146.019 164.495 159.554 164.425 78.3493 76.5075 -196.698 185.224 65.9488 -189.177 207.207 5.73277 -151.957 206.906 -12.6456 -134.098 186.951 92.2207 -119.766 191.798 90.1239 -140.495 225.643 90.015 10.7506 96.1213 14.5604 
176.633 168.548 173.146 148.165 146.476 165.123 159.175 164.2 78.5161 76.6197 -197.103 186.141 65.2963 -188.523 206.956 5.07281 -151.668 206.717 -13.2066 -133.837 186.833 91.1466 -119.473 191.859 89.5626 -140.201 225.795 89.3715 10.4262 95.2611 14.261 
177.439 168.433 173.26 147.706 146.808 165.971 158.818 164.07 78.644 76.8102 -197.623 187.249 64.6548 -187.536 206.61 4.34108 -150.889 206.564 -13.864 -133.48 186.561 89.7413 -119.026 191.743 88.9601 -139.724 225.928 88.7655 10.0028 94.0358 14.0671 
178.078 168.265 173.258 146.792 146.96 166.709 158.464 163.837 78.8993 77.1496 -198.192 188.373 64.0736 -186.684 206.592 3.73429 -150.27 206.68 -14.4156 -133.155 186.512 88.585 -118.664 191.746 88.3845 -139.25 226.198 88.2107 9.76281 93.0608 13.8778 
176.883 168.01 173.446 146.052 146.814 166.108 157.908 163.576 78.7324 77.1898 -196.946 188.89 62.5374 -185.191 206.83 2.76985 -149.378 207.042 -15.2773 -132.159 187.697 87.7576 -117.652 192.77 87.4419 -138.233 226.938 87.0667 9.77333 93.0259 13.4627 
176.982 167.936 173.872 145.756 146.526 165.839 158.053 163.798 78.6267 77.169 -196.396 189.028 61.9 -184.587 207.362 2.37168 -148.706 207.453 -15.436 -131.564 188.724 88.0242 -117.123 193.725 87.2962 -137.889 227.509 86.6984 9.98095 93.6308 13.4563 
179.755 168.402 172.788 146.808 147.658 166.697 158.852 162.374 79.7174 77.9156 -197.043 189.817 61.5496 -184.016 208.033 1.51944 -146.755 206.554 -14.7685 -130.059 188.697 88.6571 -115.7 194.214 87.8073 -137.086 227.733 86.4562 9.99237 93.444 14.1177 
178.604 168.61 171.807 146.563 148.339 167.27 158.905 161.161 80.4573 78.6712 -197.758 191.419 61.245 -183.187 208.301 0.970949 -145.062 206.044 -14.1851 -128.991 188.679 88.6073 -114.657 194.531 88.034 -136.33 227.979 86.2634 9.85797 92.7093 14.6331 
178.146 168.941 170.006 146.438 148.774 167.31 159.413 160.177 80.9173 79.1673 -197.605 192.002 60.8984 -182.492 208.694 0.462679 -143.346 205.855 -13.7657 -128.019 188.653 88.766 -113.736 194.723 88.2967 -135.645 228.101 86.1749 9.83841 92.588 15.3315 
178.831 169.129 168.231 146.701 149.586 167.51 159.654 159.41 81.0509 79.4417 -197.378 192.271 60.5032 -181.86 209.107 0.0450764 -141.914 206.088 -13.6636 -127.251 188.838 88.945 -113.039 195.099 88.6841 -135.12 228.319 86.0212 9.81323 93.0145 15.9151 
178.162 169.251 166.804 146.965 150.126 166.955 160.065 159.001 80.8974 79.4 -196.437 191.717 59.9316 -181.425 209.254 -0.314172 -140.772 206.23 -13.7089 -126.559 189.214 89.3423 -112.417 195.567 89.0423 -134.695 228.472 85.8594 9.88901 93.8395 16.4329 
176.107 169.315 165.797 147.274 150.535 166.633 160.349 158.736 80.9118 79.4327 -195.828 191.228 59.4711 -180.802 209.116 -0.841318 -139.588 206.051 -13.8991 -125.974 189.299 89.5787 -111.891 195.736 89.2041 -134.282 228.47 85.5796 9.97482 94.4495 16.8156 
175.104 169.388 164.794 147.534 150.712 166.753 160.717 158.427 80.9898 79.5428 -195.766 190.957 59.2722 -180.352 209.111 -1.33523 -138.548 205.864 -14.0402 -125.364 189.145 89.6409 -111.331 195.643 89.1268 -133.881 228.298 85.3116 10.0621 94.9035 17.2528 
173.958 169.287 163.894 147.714 150.772 166.702 160.828 158.022 80.8999 79.4822 -195.673 190.722 59.2813 -180.183 209.075 -1.45721 -138.012 205.703 -14.0134 -124.954 188.953 89.6364 -110.916 195.475 89.0128 -133.591 228.018 85.153 10.0972 95.246 17.5794 
172.821 169.085 163.102 147.607 150.524 166.387 160.96 157.656 80.864 79.4202 -195.555 190.659 59.1058 -180.156 209.035 -1.6449 -137.607 205.249 -13.9363 -124.611 188.702 89.4205 -110.53 195.183 88.7078 -133.284 227.754 84.9781 10.0979 95.005 17.9169 
172.245 168.755 162.446 147.339 150.302 166.164 160.973 157.279 80.7679 79.3413 -195.542 190.678 59.0945 -180.11 208.94 -1.79328 -137.236 204.709 -13.8306 -124.393 188.3 88.9758 -110.199 194.773 88.3989 -133.041 227.432 84.8633 9.93211 94.4434 18.2155 
171.678 168.453 162.026 147.114 150.141 165.96 160.902 156.993 80.7133 79.3019 -195.432 190.592 59.0403 -180.023 208.886 -1.81446 -136.858 204.25 -13.6347 -124.453 188.165 88.8412 -110.151 194.59 88.3861 -132.922 227.323 84.8509 9.80172 94.0239 18.4699 
170.622 168.388 161.834 147.143 149.888 165.488 161.104 157.164 80.6834 79.1927 -195.104 190.432 58.9911 -180.129 208.754 -1.84969 -136.538 203.94 -13.6198 -124.431 188.083 88.9727 -110.087 194.466 88.3948 -132.844 227.188 84.8122 9.84242 94.1387 18.8151 
169.879 168.467 161.833 147.2 149.634 165.171 161.43 157.517 80.6593 79.1014 -194.85 190.194 58.8711 -180.328 208.736 -2.0022 -136.294 203.74 -13.7975 -124.469 187.956 89.0887 -110.096 194.262 88.3698 -132.801 227.024 84.7355 9.90658 94.4117 19.1545 
171.777 168.988 165.512 148.033 147.786 164.796 162.056 160.035 79.9754 78.3803 -194.182 190.387 58.4453 -180.178 208.747 -2.43157 -137.992 204.558 -15.079 -125.258 188.07 88.8247 -110.807 194.219 88.1555 -133.208 227.116 84.7198 9.89303 94.9846 17.5057 
172.673 169.186 165.654 148.213 148.448 165.163 161.715 160.389 79.6453 78.1454 -194.567 190.268 58.6309 -180.529 208.606 -2.3556 -138.501 204.932 -15.4551 -125.531 188.043 88.7028 -111.049 194.098 88.0871 -133.511 226.966 84.6277 9.81576 95.546 17.3962 
172.567 169.669 165.408 148.402 148.943 165.134 161.659 160.437 79.4796 78.0555 -194.788 190.021 58.6932 -181.274 208.535 -2.31378 -139.151 205.29 -15.7461 -125.852 188.083 88.7526 -111.442 194.104 88.0448 -133.934 226.819 84.4772 9.90629 96.289 17.5025 
172.266 169.865 165.201 148.369 148.696 164.94 161.999 160.329 79.7083 78.2071 -194.849 189.545 58.4502 -182.003 208.205 -2.47133 -139.469 204.757 -15.8333 -126.117 187.627 88.6591 -111.725 193.619 87.6539 -134.315 226.463 84.2929 10.0619 96.2162 17.8413 
178.294 170.249 166.656 148.414 147.852 165.001 161.577 161.624 79.3533 77.8994 -194.489 188.619 58.6483 -181.963 207.511 -2.45604 -140.454 204.945 -16.6731 -126.992 187.51 88.1117 -112.732 193.286 86.8846 -135.037 226.325 84.1139 10.4043 96.2822 16.991 
179.297 170.156 168.586 148.305 147.164 164.693 161.192 162.833 78.8963 77.5007 -194.098 187.468 58.6446 -182.176 206.75 -2.60354 -141.494 204.649 -17.5379 -127.661 187.397 87.5447 -113.48 192.969 86.0669 -135.724 226.029 83.7585 10.6494 96.3641 16.3629 
178.979 169.817 170.064 148.004 146.556 164.264 160.576 163.593 78.3234 77.0771 -193.989 186.429 58.5929 -182.529 205.943 -2.6753 -142.878 204.292 -18.2545 -128.548 187.561 87.094 -114.378 192.787 85.3366 -136.471 225.864 83.3793 10.8501 96.4415 15.6228 
178.545 169.365 171.011 147.557 146.302 163.888 159.854 164.183 77.6751 76.6689 -193.905 185.434 58.5712 -183.018 204.995 -2.54628 -144.423 204.264 -18.8479 -129.422 187.737 86.5441 -115.258 192.655 84.742 -137.212 225.707 82.972 10.8785 96.6605 14.9854 
178.707 168.86 171.674 146.951 146.162 164.321 159.314 164.591 77.3498 76.5879 -194.519 184.841 58.5263 -183.578 204.411 -2.46326 -145.726 204.385 -19.3133 -130.239 187.514 85.7461 -116.141 192.265 84.2188 -137.83 225.494 82.6917 10.7937 96.3181 14.5957 
178.935 168.712 172.146 146.398 145.754 164.781 159.331 164.973 77.4361 76.7924 -194.966 184.169 58.3966 -184.415 204.208 -2.47245 -146.842 204.628 -19.6868 -130.995 187.373 85.3538 -116.96 192.001 83.7293 -138.495 225.391 82.4649 10.8847 96.3109 14.5097 
179.093 168.416 172.666 146.18 145.565 165.442 159.079 165.04 77.4777 76.8519 -195.465 183.536 57.9033 -184.948 203.749 -2.6985 -147.535 204.588 -20.1331 -131.393 187.083 84.7101 -117.382 191.721 83.0032 -139.018 225.078 81.9828 10.9212 96.2357 14.4953 
178.859 168.283 173.195 145.832 145.198 165.691 158.906 165.154 77.5433 76.8413 -195.822 183.055 57.5136 -185.417 203.238 -2.86187 -148.162 204.423 -20.4929 -131.86 186.999 84.4047 -117.834 191.613 82.5036 -139.548 224.889 81.578 10.9913 96.336 14.4771 
177.815 168.097 173.384 145.658 145.091 165.3 158.645 165.139 77.4344 76.7261 -195.572 182.414 56.9857 -186.216 203.024 -2.82258 -149.105 204.519 -20.7778 -132.397 187.202 84.1908 -118.438 191.79 82.1656 -140.125 224.856 81.2279 11.119 96.5515 14.5245 
177.249 167.967 173.577 145.832 145.113 165.194 158.613 165.298 77.1442 76.3882 -196.054 182.499 56.6857 -187.404 203.05 -2.7466 -150.221 204.925 -21.1599 -133.065 187.368 83.8673 -119.118 191.912 81.7974 -140.75 224.85 80.9044 11.1564 96.8894 14.7899 
176.614 167.881 173.573 145.931 145.231 165.037 158.454 165.286 77.0494 76.1743 -196.729 182.627 56.3971 -188.303 202.944 -2.74261 -151.342 205.227 -21.5762 -133.805 187.407 83.4896 -119.859 191.953 81.4415 -141.321 224.87 80.5627 11.1518 97.0064 14.849 
177.137 167.773 173.538 146.259 145.472 165.721 158.12 164.896 77.1744 76.1161 -198.17 183.434 56.2019 -188.425 202.45 -2.92902 -151.924 204.785 -21.6954 -134.267 187.15 82.9747 -120.331 191.88 81.1101 -141.798 224.785 80.2733 11.0599 96.3544 14.5305 
177.537 167.635 173.333 146.348 145.712 166.326 157.862 164.364 77.2801 76.1837 -199.42 184.125 56.0311 -188.312 201.845 -3.23323 -152.14 203.908 -21.7069 -134.576 186.78 82.426 -120.656 191.662 80.8144 -142.17 224.606 79.9514 10.9515 95.5448 14.1904 
177.808 167.507 172.853 146.538 145.997 166.671 157.733 163.607 77.4445 76.2525 -200.322 184.413 55.8381 -188.217 201.195 -3.68869 -152.322 202.711 -21.6327 -134.794 186.247 81.7566 -120.863 191.358 80.4682 -142.503 224.345 79.5796 10.7726 94.4804 13.7826 
177.751 167.377 172.462 146.698 146.269 166.467 157.675 162.957 77.5559 76.374 -200.494 184.087 55.4102 -188.257 200.863 -4.22817 -152.58 201.828 -21.725 -135.004 185.855 81.2322 -121.076 191.032 80.0446 -142.704 224.036 79.0758 10.72 93.9777 13.468 
177.671 167.256 172.126 146.692 146.266 166.039 157.707 162.702 77.5212 76.5069 -200.1 183.331 54.9092 -188.648 200.683 -4.67119 -152.914 201.387 -22.0242 -135.314 185.688 80.9136 -121.403 190.775 79.6274 -142.97 223.805 78.5787 10.7986 94.0875 13.4822 
176.884 167.193 171.889 146.497 146.173 165.175 157.95 162.69 77.5169 76.5974 -199.152 182.111 54.3042 -189.313 200.867 -5.09268 -153.223 201.497 -22.475 -135.553 185.563 80.701 -121.671 190.561 79.2743 -143.137 223.571 78.0993 10.9127 94.6549 13.7835 
176.157 167.288 171.67 146.312 145.937 164.422 158.376 162.827 77.5204 76.6235 -198.458 181.356 53.7081 -190.241 201.346 -5.4803 -153.647 202.028 -23.0389 -135.882 185.568 80.4557 -122.013 190.469 78.823 -143.358 223.501 77.626 11.0512 95.355 14.2429 
175.53 167.695 171.569 145.941 145.625 163.791 159.191 163.197 77.4988 76.5834 -197.962 180.826 53.2799 -191.143 201.947 -6.01146 -154.148 202.576 -23.6138 -136.201 185.593 80.3296 -122.339 190.385 78.5569 -143.562 223.446 77.2652 11.1393 96.0848 14.557 
174.959 168.173 171.469 146.005 145.397 163.149 160.191 163.681 77.3875 76.5218 -197.34 180.366 52.8243 -192.13 202.854 -6.63093 -154.654 203.166 -24.2829 -136.561 185.671 80.2116 -122.726 190.332 78.2928 -143.782 223.425 76.884 11.2578 96.9241 14.8892 
174.355 168.639 171.442 145.92 145.173 162.55 161.185 164.311 77.3717 76.5002 -196.86 179.914 52.4435 -193.203 203.841 -7.24885 -155.238 204.02 -25.0961 -136.941 185.721 80.0356 -123.115 190.26 77.9893 -143.991 223.47 76.4843 11.3274 97.8456 15.2732 
173.852 168.935 171.531 145.755 144.907 162.079 161.852 164.811 77.3445 76.4879 -196.453 179.537 52.0781 -194.032 204.687 -7.74328 -155.767 204.774 -25.7984 -137.267 185.866 79.89 -123.465 190.289 77.6966 -144.206 223.574 76.1457 11.4266 98.6011 15.5187 
173.552 169.224 171.69 145.682 144.664 161.85 162.334 165.283 77.3851 76.5555 -196.246 179.435 51.7533 -194.665 205.419 -8.15575 -156.127 205.595 -26.4171 -137.552 186.091 79.6944 -123.786 190.473 77.4111 -144.475 223.835 75.8783 11.5136 99.1259 15.7461 
173.149 169.422 171.902 145.461 144.327 161.491 162.903 165.897 77.2397 76.5042 -195.774 179.021 51.0839 -195.272 206.058 -9.16281 -156.316 206.201 -27.6182 -137.61 186.374 78.9957 -123.893 190.704 76.5793 -144.66 223.992 75.0599 11.6526 99.7826 16.0521 
172.984 169.485 172.129 145.366 144.18 161.319 162.969 166.264 77.1192 76.4713 -195.506 179.101 50.8712 -195.161 205.976 -9.56034 -156.095 206.17 -28.1078 -137.533 186.48 78.8082 -123.834 190.74 76.3098 -144.586 224.025 74.7921 11.7625 99.9804 16.1203 
173.328 169.436 172.152 145.497 144.101 161.581 162.839 166.45 76.9874 76.4056 -195.812 179.346 50.6551 -194.7 205.582 -10.0332 -155.499 205.891 -28.5997 -137.331 186.436 78.4882 -123.596 190.636 75.9083 -144.393 223.954 74.4507 11.8374 100.011 16.1951 
173.637 169.36 172.311 145.689 143.94 161.834 162.693 166.708 76.8225 76.3069 -195.968 179.493 50.3539 -194.221 205.087 -10.5012 -154.935 205.505 -29.1881 -137.024 186.223 78.102 -123.287 190.345 75.3996 -144.087 223.7 74.0208 11.9778 100.129 16.2701 
174.241 169.371 172.585 145.692 143.658 162.306 162.573 166.987 76.8151 76.2253 -196.467 180.038 50.0333 -193.679 204.614 -10.9668 -154.316 205.294 -29.7705 -136.626 186.068 77.7108 -122.859 190.221 74.9014 -143.799 223.555 73.6365 12.0509 100.171 16.3313 
174.273 169.456 172.848 145.534 143.484 162.361 162.468 167.296 76.8706 76.3089 -196.365 180.21 49.6445 -193.149 204.07 -11.3322 -153.71 205.127 -30.3231 -136.254 185.938 77.4759 -122.527 190.052 74.5533 -143.477 223.397 73.2533 12.1866 100.41 16.4419 
174.071 169.383 173.113 145.286 143.107 162.286 162.276 167.436 77.0554 76.478 -196.048 180.174 49.2535 -192.491 203.639 -11.7172 -153.108 204.991 -30.7628 -135.836 185.724 77.1511 -122.118 189.883 74.1561 -143.137 223.284 72.9277 12.2743 100.364 16.4244 
173.649 169.428 173.415 145.095 142.881 162.036 161.88 167.471 77.2797 76.6852 -195.5 180.017 48.7601 -191.815 202.899 -11.9408 -152.617 204.65 -31.1488 -135.499 185.474 76.873 -121.796 189.646 73.7762 -142.788 223.1 72.5766 12.3757 100.263 16.3761 
173.445 169.401 173.719 145.016 142.807 161.882 161.456 167.393 77.5732 76.9712 -194.993 179.789 48.2843 -190.797 202.002 -12.3555 -152.01 203.914 -31.4855 -135.179 185.272 76.7342 -121.519 189.46 73.5384 -142.424 222.944 72.2127 12.5003 100.059 16.0624 
173.477 169.435 174.085 144.905 142.774 161.868 161.205 167.419 77.9329 77.3204 -194.573 179.654 47.8499 -189.871 201.279 -12.7095 -151.342 203.309 -31.8087 -134.821 185.066 76.6319 -121.215 189.273 73.3642 -142.026 222.812 71.8703 12.5854 99.9302 15.8675 
174.182 169.434 174.432 144.839 142.714 162.357 160.971 167.364 78.4027 77.7308 -194.742 179.876 47.4876 -189.091 200.857 -13.0326 -150.652 202.94 -32.0352 -134.5 184.842 76.4356 -120.902 189.125 73.1086 -141.69 222.783 71.5609 12.6232 99.6692 15.7793 
174.648 169.433 174.728 144.749 142.659 162.775 160.789 167.388 78.7627 78.0601 -194.955 180.206 47.2121 -188.428 200.591 -13.2011 -150.129 202.712 -32.1319 -134.182 184.738 76.3299 -120.637 189.102 73.0303 -141.452 222.858 71.4403 12.6224 99.3289 15.6419 
174.754 169.41 175.002 144.677 142.808 162.928 160.503 167.311 79.0583 78.3959 -195.117 180.522 47.0409 -187.93 200.391 -13.1293 -149.854 202.481 -32.0393 -134.024 184.925 76.3524 -120.571 189.35 73.1368 -141.351 223.117 71.3667 12.5969 98.9623 15.473 
174.989 169.369 175.02 144.654 142.75 163.22 160.326 167.249 79.3461 78.6837 -195.565 181.066 46.9464 -187.366 200.19 -13.0846 -149.452 202.385 -31.9561 -133.821 184.968 76.2869 -120.404 189.468 73.1058 -141.175 223.317 71.3351 12.5966 98.5687 15.3636 
174.771 169.387 174.924 144.508 142.751 163.136 160.304 167.304 79.5557 78.916 -195.783 181.517 46.9214 -187.287 200.196 -12.893 -149.466 202.647 -31.8841 -133.716 185.212 76.315 -120.38 189.78 73.1504 -141.177 223.607 71.3611 12.6089 98.4386 15.3645 
174.402 169.372 174.942 144.459 142.875 162.936 160.241 167.363 79.709 79.0377 -195.778 181.937 46.8829 -187.265 200.364 -12.5942 -149.558 203.063 -31.721 -133.705 185.672 76.4368 -120.437 190.322 73.3235 -141.214 224.053 71.4487 12.5875 98.3435 15.363 
173.614 169.257 174.677 144.727 143.061 162.634 160.119 167.407 79.821 78.9914 -195.702 182.396 46.7647 -187.206 200.665 -12.3164 -149.591 203.798 -31.6655 -133.645 186.115 76.4111 -120.395 190.908 73.3687 -141.146 224.571 71.5461 12.5344 98.1915 15.4294 
173.531 169.153 174.524 145.193 143.285 162.704 160.049 167.498 79.6114 78.6005 -195.901 182.81 46.6466 -187.222 201.062 -12.3116 -149.575 204.505 -31.8057 -133.572 186.284 76.149 -120.21 191.117 73.1836 -140.981 224.739 71.4992 12.3905 98.2675 15.561 
173.506 169.158 174.409 145.475 143.55 162.797 159.983 167.556 79.3714 78.2457 -196.137 183.23 46.6622 -187.124 201.203 -12.1946 -149.519 204.973 -31.8468 -133.474 186.472 76.0233 -120.027 191.317 73.1572 -140.794 224.85 71.4905 12.253 98.3931 15.662 
173.357 169.076 174.383 145.631 143.81 162.743 159.84 167.615 79.203 78.0272 -195.976 183.418 46.6666 -187.164 201.455 -11.968 -149.493 205.591 -31.8305 -133.366 186.735 75.8887 -119.853 191.623 73.1421 -140.652 225.065 71.4804 12.1183 98.5404 15.8791 
173.516 169.007 174.362 145.919 144.013 162.923 159.778 167.66 79.0238 77.7358 -196.026 183.787 46.6587 -187.085 201.668 -11.9036 -149.286 206.051 -31.8752 -133.175 186.855 75.6355 -119.574 191.828 73.024 -140.446 225.183 71.4362 11.9644 98.5575 16.066 
173.526 168.943 174.352 145.945 144.105 162.985 159.779 167.69 78.9171 77.5209 -195.92 183.911 46.6299 -186.848 201.812 -11.9926 -148.948 206.317 -31.9261 -132.963 187.025 75.4796 -119.26 192.055 72.958 -140.231 225.323 71.3435 11.8172 98.616 16.1594 
173.297 168.75 174.354 145.869 144.087 162.814 159.784 167.613 78.7987 77.2816 -195.398 183.704 46.5418 -186.748 202.195 -12.1447 -148.726 206.486 -31.9864 -132.67 187.171 75.2659 -118.883 192.273 72.8013 -139.995 225.432 71.2102 11.6953 98.6177 16.1746 
173.325 168.538 174.472 145.845 144.077 162.733 159.701 167.581 78.6653 77.1492 -194.943 183.65 46.4112 -186.637 202.634 -12.2598 -148.446 206.573 -31.9753 -132.489 187.493 75.2329 -118.655 192.561 72.7538 -139.808 225.648 71.1218 11.6856 98.624 16.1996 
173.539 168.352 174.734 145.894 144.128 162.774 159.455 167.464 78.6282 77.0672 -194.571 183.694 46.2794 -186.339 202.961 -12.3815 -148.112 206.465 -31.9405 -132.299 187.712 75.1244 -118.423 192.808 72.6943 -139.588 225.847 71.0158 11.6404 98.4018 16.1129 
174.4 168.182 175.033 146.049 144.248 163.276 159.236 167.242 78.7239 77.1189 -194.915 184.11 46.188 -185.696 203.21 -12.7052 -147.568 206.113 -31.864 -132.078 187.74 74.9667 -118.158 192.875 72.5806 -139.307 225.919 70.8388 11.5921 98.0671 15.8425 
174.793 168.104 175.097 146.095 144.374 163.446 159.125 166.93 78.9865 77.3959 -194.861 184.377 45.998 -185.26 203.583 -12.9724 -147.159 205.83 -31.7833 -131.997 187.821 74.8287 -118.091 193.009 72.5146 -139.116 226.134 70.697 11.5797 97.602 15.6284 
