179.198 166.14 150.127 143.608 153.436 173.121 150.048 149.902 88.8033 92.0734 -104.775 164.545 -9.02618 -56.8308 177.864 -59.6789 -13.4181 170.703 -53.4318 -37.5992 151.294 30.4396 -28.3796 158.447 43.2055 -48.6615 203.001 34.0123 8.76451 75.641 18.2042 
178.972 165.921 149.934 143.871 153.567 173.143 149.857 149.645 88.8888 92.1833 -104.397 164.434 -9.03232 -56.1405 177.834 -59.6137 -12.9323 170.585 -53.3092 -37.1596 151.025 30.2734 -28.0181 158.164 43.1866 -48.2406 202.875 34.0909 8.80384 75.3394 18.0656 
178.903 165.803 149.746 144.116 153.631 173.161 149.549 149.245 88.804 92.3414 -104.168 164.577 -8.93436 -55.6222 177.914 -59.3795 -12.6349 170.685 -53.063 -36.769 151.052 30.2005 -27.6911 158.106 43.2312 -47.9075 202.947 34.2732 8.81621 75.0373 17.9092 
178.689 165.732 149.583 144.152 153.648 173.192 149.316 148.982 88.7755 92.5472 -104.023 164.709 -8.87695 -55.2266 177.983 -59.205 -12.3962 170.856 -52.9434 -36.3148 151.034 29.995 -27.3656 158.007 43.1702 -47.5792 202.999 34.3968 8.91235 74.7065 17.7739 
178.469 165.755 149.643 143.855 153.414 173.222 149.282 149.03 88.919 92.7963 -103.887 164.765 -8.77003 -54.6572 177.842 -59.0461 -11.9415 170.899 -52.8458 -35.711 150.782 29.7501 -26.9907 157.743 43.1353 -47.2301 202.969 34.5298 9.08623 74.2928 17.6315 
178.33 165.674 149.301 143.768 153.247 173.179 149.086 149.021 89.0108 92.8386 -103.607 164.755 -8.77148 -54.0931 177.638 -58.9189 -11.5224 170.894 -52.762 -35.2329 150.513 29.5021 -26.5757 157.479 43.0538 -46.8322 202.823 34.5872 9.12641 74.0372 17.4906 
178.363 165.637 149.065 143.95 153.101 173.076 148.943 148.957 88.8826 92.7244 -103.466 165.13 -8.84467 -53.6355 177.887 -58.8899 -11.2693 171.192 -52.7911 -35.0618 150.606 29.3321 -26.2488 157.48 42.904 -46.4512 202.876 34.6185 8.97162 74.0918 17.33 
178.594 165.505 148.975 143.849 152.811 173 149.041 149.099 88.8193 92.6416 -103.228 165.401 -8.87977 -53.1685 178.179 -58.9939 -10.9152 171.141 -52.8053 -34.8672 150.515 29.3534 -25.8962 157.295 42.7745 -46.0424 202.802 34.6366 8.79716 74.2431 17.3092 
178.665 165.319 148.828 144.169 152.76 172.949 149.033 148.965 88.6257 92.4858 -103.051 165.829 -8.92754 -52.6656 178.834 -59.0773 -10.6072 171.344 -52.781 -34.8141 150.73 29.4742 -25.5815 157.361 42.7048 -45.6305 202.923 34.6963 8.53152 74.5072 17.2555 
178.762 165.11 148.757 144.407 152.672 172.936 149.006 148.917 88.4681 92.4576 -102.674 166.087 -8.84925 -52.0886 179.22 -59.0298 -10.137 171.413 -52.6057 -34.7165 151.001 29.8845 -25.1954 157.483 42.8128 -45.2379 203.108 34.7946 8.20277 74.9014 17.2473 
178.78 165.074 148.906 144.333 152.614 172.958 149.075 148.94 88.4222 92.6413 -102.249 166.298 -8.77576 -51.4666 179.376 -58.9406 -9.61796 171.455 -52.4501 -34.395 151.187 30.1196 -24.87 157.548 42.9118 -44.8465 203.311 34.8991 8.16031 74.9761 17.176 
178.624 164.949 148.857 144.361 152.55 172.972 148.97 148.799 88.3536 92.7549 -101.951 166.492 -8.74466 -50.9275 179.507 -58.795 -9.22464 171.501 -52.2595 -34.1988 151.385 30.2523 -24.589 157.61 42.9216 -44.4879 203.487 34.9782 8.05238 74.9896 17.0776 
178.348 164.86 148.668 144.314 152.577 172.881 148.797 148.61 88.2145 92.861 -101.737 166.523 -8.66451 -50.6208 179.67 -58.702 -8.93299 171.688 -52.1964 -33.8836 151.57 30.2792 -24.3269 157.681 42.895 -44.1224 203.609 35.0182 8.10552 75.0234 17.0698 
178.203 164.737 148.614 144.182 152.622 172.766 148.542 148.398 88.082 92.9743 -101.477 166.595 -8.57788 -50.298 179.767 -58.55 -8.69335 171.904 -52.1398 -33.4698 151.834 30.2477 -24.006 157.865 42.8337 -43.7585 203.805 35.0478 8.20768 74.9325 16.9799 
177.998 164.641 148.615 144.12 152.639 172.619 148.499 148.271 88.0273 93.0333 -101.178 166.69 -8.5472 -49.9637 180.117 -58.5919 -8.37328 172.168 -52.1791 -33.1623 152.062 30.236 -23.7051 158.023 42.7725 -43.3914 203.986 35.0634 8.22948 74.9808 16.9811 
177.716 164.535 148.659 144.037 152.67 172.568 148.564 148.163 88.1636 93.1116 -101.037 166.905 -8.57297 -49.5856 180.595 -58.7033 -8.06269 172.474 -52.2805 -32.8182 152.137 30.0554 -23.3936 158.089 42.6545 -43.0109 204.117 35.0961 8.28009 74.8724 16.9487 
177.498 164.446 148.897 143.822 152.557 172.568 148.767 148.109 88.502 93.3579 -100.752 167.022 -8.45897 -49.1355 180.9 -58.8091 -7.6698 172.5 -52.3002 -32.2663 151.911 29.8204 -23.0034 157.905 42.5642 -42.6143 204.182 35.1852 8.40881 74.4451 16.9454 
177.268 164.446 148.994 143.85 152.498 172.588 149.058 148.183 88.6292 93.4414 -100.416 167.219 -8.41725 -48.6498 181.21 -58.9703 -7.18567 172.514 -52.326 -31.9562 151.838 29.7571 -22.6914 157.804 42.551 -42.2107 204.257 35.2383 8.38397 74.3591 16.9934 
176.87 164.511 149.199 143.692 152.449 172.596 149.05 148.151 88.7485 93.7499 -99.5122 167.123 -7.96229 -47.6205 181.334 -58.6978 -6.02172 172.766 -52.0377 -30.7711 151.969 29.9985 -21.7595 158.009 42.8162 -41.3137 204.52 35.4968 8.61648 74.2858 17.0642 
176.485 164.449 149.044 143.744 152.463 172.543 148.936 148.036 88.904 93.7604 -99.2187 167.019 -7.90163 -47.3225 181.295 -58.619 -5.73057 172.856 -52.0171 -30.4268 151.846 29.7849 -21.5756 157.997 42.7596 -41.0243 204.507 35.4915 8.81194 74.0926 17.0311 
176.111 164.301 148.871 143.947 152.567 172.43 148.747 147.798 88.8349 93.7077 -98.7918 167.165 -7.88456 -46.8464 181.572 -58.5537 -5.30834 173.016 -51.9343 -30.0803 151.98 29.7168 -21.2588 158.098 42.7268 -40.5428 204.621 35.5155 8.86455 74.0284 17.0282 
175.758 164.222 148.814 143.981 152.693 172.4 148.742 147.655 88.8381 93.714 -98.5066 167.271 -7.88493 -46.4172 181.814 -58.6176 -4.88543 173.096 -51.9376 -29.6838 152.018 29.644 -20.9422 158.115 42.7402 -40.0704 204.672 35.544 8.95712 73.9327 17.063 
175.652 164.043 148.685 144.202 152.914 172.399 148.66 147.461 88.7289 93.6249 -98.042 167.325 -7.83105 -45.9745 182.029 -58.6627 -4.5116 173.048 -51.8911 -29.4027 152.205 29.7778 -20.5797 158.273 42.8383 -39.582 204.778 35.5547 8.90465 74.0143 17.0845 
175.542 163.948 148.61 144.374 152.923 172.394 148.724 147.453 88.9011 93.7062 -97.4159 167.254 -7.73806 -45.431 182.176 -58.7566 -3.94721 172.803 -51.7967 -29.1148 152.105 30.0143 -20.1952 158.183 42.9621 -39.0658 204.808 35.5918 8.80126 74.1237 17.2044 
175.441 163.95 148.744 144.242 152.706 172.422 148.849 147.393 89.2992 94.0833 -96.6048 167.083 -7.59557 -44.7088 181.995 -58.7309 -3.20669 172.395 -51.5292 -28.386 151.791 30.1004 -19.5907 157.966 43.056 -38.5119 204.813 35.6805 8.86182 73.7638 17.3002 
175.233 164.012 148.76 144.257 152.567 172.38 148.934 147.218 89.5613 94.4505 -95.737 166.915 -7.48895 -43.897 182.01 -58.8082 -2.3406 172.164 -51.3035 -27.708 151.589 30.1337 -19.0161 157.785 43.0828 -37.9366 204.87 35.7313 8.88416 73.5165 17.4393 
174.9 163.948 148.46 144.429 152.656 172.293 148.908 146.858 89.5162 94.3904 -94.9496 167.062 -7.78215 -43.1793 182.484 -59.0964 -1.72478 172.254 -51.3819 -27.2144 151.545 29.7268 -18.6439 157.678 42.8196 -37.2777 204.87 35.6133 9.0124 73.2603 17.4929 
174.782 163.738 148.011 144.977 152.879 172.241 148.688 146.434 89.1415 94.0364 -94.0758 167.37 -8.07313 -42.6062 183.086 -59.3084 -1.27994 172.421 -51.4721 -27.0003 151.965 29.5908 -18.2157 157.947 42.656 -36.5754 205.055 35.4698 8.85042 73.3615 17.5424 
174.687 163.728 147.758 145.535 153.065 172.197 148.872 146.384 88.7976 93.6831 -93.0979 167.479 -8.32928 -41.8822 183.463 -59.5762 -0.646931 172.417 -51.5894 -26.8338 152.405 29.7563 -17.795 158.282 42.6661 -35.8357 205.225 35.3037 8.67054 73.7816 17.5929 
174.437 163.824 147.752 145.626 153.002 172.177 149.043 146.314 88.9661 93.7581 -92.2988 167.572 -8.47708 -41.047 183.763 -59.774 0.216182 172.507 -51.6341 -26.1965 152.487 29.7445 -17.2392 158.437 42.6418 -35.1039 205.423 35.1976 8.76906 73.814 17.6884 
174.194 163.838 147.564 145.677 152.985 172.197 149.122 146.15 89.0079 93.7518 -91.5773 167.924 -8.71763 -40.2608 184.199 -59.9634 0.979326 172.79 -51.6799 -25.4371 152.662 29.4841 -16.7122 158.689 42.562 -34.4003 205.681 35.0921 9.01231 73.5979 17.7461 
173.993 163.623 147.474 145.747 152.965 172.165 149.049 145.849 88.9732 93.7183 -90.8312 168.316 -8.99717 -39.4196 184.641 -60.1461 1.63616 172.904 -51.7198 -24.7426 152.793 29.0701 -16.2396 158.828 42.3536 -33.7364 205.909 34.9463 9.22556 73.1599 17.7251 
173.907 163.547 147.507 145.924 152.89 172.243 149.011 145.592 89.0369 93.7046 -89.941 168.578 -9.09171 -38.6581 185.015 -60.1874 2.31313 173.123 -51.6851 -23.8879 153.004 28.8314 -15.5658 159.133 42.3007 -33.0731 206.255 34.9436 9.3886 72.6923 17.7193 
173.726 163.772 147.493 146.211 152.735 172.481 149.347 145.683 89.1623 93.52 -89.1224 168.61 -9.27624 -37.7371 185.145 -60.3609 3.37087 173.088 -51.6149 -23.1703 153.183 29.0413 -14.7889 159.514 42.4683 -32.3795 206.466 34.8736 9.33738 72.8088 17.9075 
173.312 164.128 147.6 146.538 152.852 172.461 149.652 145.804 88.9519 93.3475 -87.712 169.259 -9.7222 -36.0966 185.9 -60.7267 4.99748 173.877 -51.9296 -21.8343 153.895 28.8131 -13.7124 160.321 42.3994 -31.066 207.077 34.6459 9.64454 72.9372 17.873 
173.105 164.374 147.767 146.417 152.845 172.541 149.966 146.128 89.0535 93.4008 -87.3017 169.508 -9.9129 -35.5168 185.955 -60.8659 5.73431 173.942 -51.9358 -21.3834 154.072 29.012 -13.4219 160.652 42.5836 -30.6813 207.29 34.5482 9.82105 73.1428 17.9989 
173.041 164.649 148.153 146.365 152.94 172.766 150.243 146.342 89.126 93.3446 -86.5779 169.711 -9.97246 -34.8247 185.773 -60.833 6.5065 173.892 -51.7831 -20.6786 154.361 29.2105 -12.972 161.186 42.9868 -30.1744 207.612 34.5486 10.1043 73.0198 18.0359 
172.735 164.916 148.336 146.323 152.836 173.026 150.583 146.585 89.304 93.1433 -86.1683 170.041 -10.2945 -34.1682 185.601 -60.8762 7.25219 173.754 -51.6813 -20.2121 154.415 29.3415 -12.5861 161.462 43.2367 -29.6634 207.699 34.4848 10.237 73.0356 18.1101 
172.366 165.263 148.508 146.133 152.827 173.241 151.037 146.665 89.5353 93.0785 -85.9536 170.536 -10.6097 -33.6604 185.869 -61.1815 7.8377 174.022 -51.8552 -19.3783 154.535 29.0038 -12.2004 161.898 43.4066 -29.2164 207.943 34.3733 10.7803 72.6402 18.1939 
172.142 165.659 148.78 145.896 152.739 173.418 151.49 146.931 89.7744 93.0256 -85.8208 171.188 -10.8494 -33.3059 186.211 -61.4303 8.26757 174.484 -52.1082 -18.6309 154.662 28.4958 -11.94 162.316 43.5455 -28.858 208.224 34.3172 11.4223 72.1717 18.2027 
171.857 166.083 148.942 145.917 152.678 173.496 151.98 147.491 90.1223 92.786 -85.789 171.781 -11.1917 -32.9181 186.5 -61.7926 8.83102 174.85 -52.4814 -18.2222 154.519 28.1253 -11.8174 162.492 43.5838 -28.5106 208.282 34.1692 11.9001 72.189 18.2723 
172.034 166.465 149.259 145.837 152.645 173.629 152.277 147.973 90.1993 92.6864 -85.6088 172.313 -11.3273 -32.8637 186.914 -62.0095 9.1031 175.502 -52.8647 -17.8118 154.669 27.6994 -11.7279 162.827 43.6153 -28.2773 208.488 34.101 12.418 72.1584 18.325 
171.99 166.758 149.574 145.827 152.765 173.635 152.501 148.26 90.129 92.6069 -85.6205 172.837 -11.3409 -32.933 187.557 -62.2472 9.17397 176.355 -53.286 -17.5026 155.032 27.1665 -11.7694 163.28 43.6091 -28.1231 208.848 34.0597 12.9897 72.02 18.3244 
172.001 166.978 149.711 145.663 152.696 173.731 152.712 148.676 90.1732 92.5676 -85.3712 173.016 -11.2796 -32.8842 187.714 -62.3256 9.42559 176.801 -53.4613 -16.9813 155.156 26.8383 -11.5618 163.553 43.6746 -27.924 209.026 34.0434 13.458 71.83 18.3852 
171.994 167.158 149.948 145.511 152.658 173.785 152.861 148.977 90.2332 92.6276 -85.1883 173.174 -11.1697 -32.8768 187.946 -62.3756 9.59445 177.4 -53.6737 -16.4434 155.399 26.4529 -11.3361 163.903 43.6567 -27.7552 209.297 34.0379 13.9129 71.5779 18.3845 
172.005 167.179 150.101 145.465 152.68 173.796 152.809 149.153 90.2471 92.7056 -84.8855 173.212 -11.107 -32.7509 187.95 -62.3245 9.74507 177.781 -53.7857 -16.0278 155.65 26.1255 -11.1149 164.199 43.6345 -27.5512 209.532 33.9908 14.2156 71.3288 18.2956 
171.877 167.173 150.314 145.586 152.788 173.831 152.855 149.332 90.4063 92.6904 -84.6842 173.363 -11.1195 -32.634 188.067 -62.3229 9.91113 178.065 -53.9095 -15.6131 155.811 25.7634 -10.888 164.505 43.6132 -27.2972 209.729 33.9184 14.597 71.0219 18.2757 
171.713 167.079 150.535 145.601 152.75 173.916 152.864 149.454 90.6026 92.776 -84.4692 173.382 -11.127 -32.3512 187.856 -62.2183 10.1652 178.064 -53.8965 -15.0994 155.812 25.4146 -10.5809 164.636 43.6847 -26.9956 209.79 33.8765 14.9897 70.5709 18.1982 
171.55 167.054 150.828 146.025 152.695 174.009 152.898 149.552 90.6826 92.8558 -84.3091 173.672 -11.2694 -32.0147 187.808 -62.1427 10.3942 178.284 -53.9715 -14.741 155.907 24.9838 -10.2739 164.787 43.6813 -26.6386 209.887 33.8324 15.2415 70.2482 18.0405 
171.517 167.009 151.167 147 152.624 174.105 152.882 149.732 90.7993 92.9171 -83.9907 173.767 -11.3413 -31.6861 187.585 -62.071 10.6211 178.263 -54.0602 -14.6103 155.772 24.7777 -9.96993 164.753 43.6493 -26.2651 209.845 33.7874 15.1809 70.2136 17.8955 
171.602 167.111 151.535 146.879 152.562 174.155 152.915 150.103 90.7161 92.8874 -83.6243 173.916 -11.4262 -31.4453 187.578 -62.1333 10.9666 178.455 -54.3565 -14.2536 155.741 24.4499 -9.68454 164.704 43.5402 -25.8451 209.782 33.7093 15.3925 70.2284 17.8767 
171.737 167.27 151.948 147.26 152.688 174.199 153.009 150.483 90.6518 92.6937 -83.122 174.047 -11.5576 -31.0947 187.759 -62.3064 11.349 178.848 -54.7751 -14.0122 155.841 24.1144 -9.37631 164.901 43.4474 -25.3962 209.84 33.6094 15.5356 70.3812 17.792 
171.939 167.347 152.249 148.631 152.774 174.214 153.042 150.658 90.6345 92.4147 -82.4561 173.974 -11.6771 -30.7018 187.965 -62.499 11.678 179.252 -55.1875 -14.0051 155.908 23.9509 -9.02157 165.133 43.2974 -24.8879 209.892 33.4724 15.3589 70.8185 17.6604 
172.067 167.367 152.386 149.786 152.883 174.18 153.049 150.868 90.6386 92.0549 -81.64 173.74 -11.8719 -30.1065 187.886 -62.6156 12.2222 179.417 -55.4741 -13.9732 155.915 23.9 -8.58474 165.33 43.1831 -24.3386 209.867 33.3006 15.0839 71.2827 17.5334 
171.995 167.218 152.364 149.304 152.763 174.094 153.028 150.963 90.7076 91.8366 -80.9399 173.81 -12.1257 -29.208 187.804 -62.5528 13.0457 179.343 -55.3933 -13.4506 156 23.9678 -8.00113 165.429 43.1348 -23.7401 209.883 33.2406 14.9958 71.3252 17.4542 
171.735 167.072 152.315 148.899 152.555 174.111 152.961 151.123 90.7667 91.7735 -80.4575 173.917 -12.3258 -28.1737 187.249 -62.3217 14.0035 178.891 -55.0945 -12.746 155.849 23.8937 -7.4723 165.29 43.2452 -23.0987 209.763 33.2326 15.2119 70.9798 17.3668 
171.604 167.102 152.39 148.461 152.512 174.074 152.992 151.326 90.7896 91.7027 -79.9727 174.01 -12.3736 -27.3431 186.987 -62.2186 14.8383 178.626 -54.9814 -12.0712 155.684 23.748 -7.02176 165.139 43.3632 -22.4617 209.652 33.2622 15.536 70.7005 17.348 
171.645 167.173 152.41 148.563 152.664 174.019 153.063 151.357 90.7343 91.4295 -79.2953 174.096 -12.41 -26.497 187.015 -62.2825 15.5525 178.567 -55.0342 -11.5954 155.7 23.5402 -6.57007 165.199 43.4193 -21.7727 209.686 33.2674 15.7127 70.5286 17.2444 
171.591 167.307 152.502 148.454 152.606 173.937 153.273 151.458 90.6782 91.186 -78.4517 173.943 -12.4446 -25.6001 187.012 -62.411 16.3873 178.495 -55.1177 -11.0262 155.747 23.4529 -6.08476 165.31 43.4711 -21.0602 209.686 33.2284 15.919 70.5007 17.1881 
171.391 167.252 152.51 148.618 152.509 173.773 153.346 151.484 90.9098 90.9729 -77.7553 174.077 -12.6907 -24.4212 186.896 -62.4318 17.2843 178.108 -55.019 -10.5215 155.596 23.3727 -5.63765 165.229 43.4489 -20.3319 209.663 33.1848 16.0086 70.2333 17.0022 
171.373 167.452 152.49 148.67 152.418 173.676 153.541 151.803 91.1188 90.9517 -77.0027 174.036 -12.6459 -23.4481 186.468 -62.2806 18.2037 177.624 -54.8259 -9.97009 155.346 23.6845 -5.19248 165.077 43.6857 -19.6071 209.565 33.2316 16.1054 70.313 16.9476 
171.391 167.616 152.56 148.539 152.305 173.498 153.614 152.052 91.1525 91.1304 -76.3193 173.987 -12.5587 -22.625 186.374 -62.2539 18.9765 177.427 -54.8104 -9.5557 155.07 23.6481 -4.8542 164.64 43.6716 -18.9171 209.41 33.3058 16.0907 70.3207 16.9044 
171.5 167.569 152.328 148.583 152.261 173.31 153.488 151.921 90.9759 91.0638 -75.3853 173.605 -12.4533 -21.9822 186.458 -62.3209 19.6061 177.485 -54.9352 -9.06799 154.977 23.5844 -4.29526 164.384 43.528 -18.2216 209.264 33.2876 15.9326 70.4817 16.9036 
171.38 167.601 152.201 149.291 152.126 173.066 153.485 151.796 91.1167 90.9349 -74.694 173.525 -12.388 -21.0823 186.572 -62.3105 20.3534 177.581 -54.9159 -8.61733 154.989 23.8979 -3.60826 164.429 43.4911 -17.5387 209.342 33.316 15.5436 70.8171 16.7851 
171.225 167.73 152.151 149.836 151.82 172.898 153.671 151.908 91.6129 91.0886 -74.0885 173.528 -12.3368 -20.0308 186.503 -62.2237 21.3186 177.321 -54.6471 -8.47656 154.751 24.7914 -2.93181 164.221 43.5538 -16.8969 209.353 33.3963 14.5965 71.6315 16.7573 
170.913 167.952 152.27 150.263 151.649 172.711 153.851 152.052 91.921 91.2758 -73.7457 173.631 -12.2737 -19.0487 186.304 -62.0847 22.2713 177.033 -54.3359 -8.21325 154.551 25.534 -2.3545 163.984 43.7061 -16.3119 209.332 33.517 13.9603 72.2075 16.7523 
170.784 168.051 152.29 149.964 151.466 172.551 154.062 152.252 92.0235 91.6154 -73.3572 173.533 -12.1506 -18.3008 186.004 -62.0409 23.0619 176.475 -54.0697 -7.92462 154.16 26.1341 -1.98133 163.41 43.8106 -15.7754 209.081 33.6198 13.5561 72.6254 16.8544 
170.666 168.188 152.379 149.84 151.541 172.394 154.112 152.401 91.8275 91.762 -72.9853 173.278 -12.0672 -17.8352 185.561 -62.0296 23.5534 175.854 -53.9778 -7.82768 153.883 26.5585 -1.77638 162.909 43.8571 -15.3074 208.735 33.6051 13.2681 73.0508 16.9215 
170.506 168.356 152.497 149.764 151.709 172.206 154.2 152.555 91.4519 91.7254 -72.543 172.998 -12.0336 -17.4152 185.353 -62.1047 24.0419 175.466 -53.9931 -7.83687 153.813 27.0879 -1.56628 162.594 43.9012 -14.8414 208.402 33.5661 12.9086 73.7923 17.0222 
170.296 168.51 152.692 149.802 151.895 171.995 154.204 152.71 91.0019 91.658 -72.2627 172.727 -12.0256 -17.0118 185.105 -62.0995 24.4784 174.997 -53.9023 -8.18956 153.902 27.883 -1.48382 162.358 43.9854 -14.4994 208.13 33.5373 12.2719 74.798 17.1052 
170.255 168.434 152.766 150.067 152.094 171.815 154.104 152.625 90.5352 91.4823 -71.8834 172.455 -12.0035 -16.4494 184.839 -61.9908 24.8344 174.52 -53.698 -8.4586 154.151 28.646 -1.23109 162.296 44.0639 -14.1569 207.986 33.5344 11.5799 75.5982 17.0123 
170.175 168.407 152.827 150.25 152.382 171.652 154.083 152.622 89.9328 91.4199 -71.6916 172.3 -11.912 -16.0198 184.607 -61.8266 25.0791 174.238 -53.5211 -8.84034 154.635 29.5788 -1.04362 162.335 44.1613 -13.9193 207.95 33.5667 10.8308 76.646 16.8819 
170.071 168.322 152.876 150.21 152.581 171.559 154.038 152.614 89.4721 91.4593 -71.5306 172.191 -11.8815 -15.5145 184.184 -61.5689 25.3527 173.812 -53.2019 -9.06986 155.005 30.3807 -0.847757 162.308 44.2975 -13.7159 207.904 33.6166 10.2508 77.3535 16.7187 
170.015 168.161 152.883 150.282 152.75 171.541 153.888 152.511 88.9705 91.4199 -71.4621 172.238 -11.9108 -15.08 183.854 -61.2975 25.5744 173.507 -52.8834 -9.34589 155.481 31.1681 -0.648195 162.375 44.4067 -13.5487 207.922 33.6538 9.68758 78.1178 16.5679 
170.136 168.031 152.861 150.462 152.95 171.581 153.754 152.403 88.4272 91.2625 -71.3677 172.432 -11.9906 -14.7986 183.724 -61.0219 25.6444 173.448 -52.6444 -9.72017 156.203 31.9796 -0.4711 162.681 44.5029 -13.4321 208.076 33.6754 9.16412 79.0237 16.3995 
170.177 167.904 152.932 150.171 152.97 171.681 153.751 152.389 88.0864 91.3575 -71.4048 172.584 -12.0473 -14.6084 183.408 -60.812 25.7021 173.133 -52.4364 -9.8752 156.596 32.6233 -0.263438 162.709 44.5287 -13.3222 208.099 33.6566 8.85967 79.6339 16.297 
169.954 167.768 153.169 149.714 152.853 171.612 153.725 152.278 87.6316 91.5317 -71.6085 172.984 -12.0891 -14.212 183.36 -60.6145 25.9063 172.886 -52.1958 -10.0866 157.083 33.4669 0.0340967 162.577 44.4416 -13.1162 208.138 33.6756 8.56212 80.5464 16.193 
169.942 167.717 153.263 149.384 152.887 171.627 153.802 152.145 87.3602 91.5755 -71.6417 173.369 -12.1764 -14.0327 183.435 -60.609 26.0038 172.674 -52.0531 -10.114 157.362 33.7262 0.105066 162.598 44.4579 -12.9695 208.232 33.6705 8.52869 80.7485 16.2115 
169.982 167.67 153.429 149.172 152.899 171.656 153.86 152.001 87.0401 91.5681 -71.5811 173.796 -12.2767 -13.7367 183.673 -60.6287 26.2011 172.614 -51.8988 -10.1185 157.721 33.9546 0.164285 162.71 44.502 -12.804 208.405 33.692 8.51392 80.949 16.2302 
169.92 167.765 153.598 148.937 152.753 171.67 154.089 152.091 86.818 91.491 -71.4787 174.241 -12.3747 -13.4472 183.832 -60.6862 26.4769 172.507 -51.7655 -10.1358 158.018 34.2007 0.237802 162.827 44.563 -12.6018 208.56 33.7114 8.50992 81.1843 16.3052 
169.821 167.911 153.712 148.647 152.628 171.559 154.297 152.196 86.6247 91.5439 -71.3781 174.642 -12.4062 -13.2949 184.172 -60.8321 26.7225 172.729 -51.8188 -10.0863 158.269 34.2796 0.249838 162.899 44.5399 -12.3944 208.735 33.7365 8.58075 81.4215 16.4097 
169.785 168.081 153.953 148.454 152.588 171.486 154.506 152.362 86.4207 91.5925 -71.2068 175.1 -12.3902 -13.0994 184.684 -61.0146 27.0379 172.995 -51.8868 -9.98651 158.549 34.304 0.269919 163.022 44.5414 -12.1612 208.979 33.7894 8.64507 81.5641 16.5575 
169.753 168.184 154.247 148.552 152.528 171.496 154.543 152.383 86.201 91.3236 -70.9323 175.701 -12.5104 -12.7241 185.205 -61.1144 27.3988 173.28 -51.8829 -9.87041 158.978 34.25 0.43909 163.373 44.5472 -11.8602 209.29 33.823 8.58457 81.5855 16.6105 
169.75 168.191 154.504 148.907 152.55 171.542 154.435 152.284 85.8321 90.9849 -70.6561 176.414 -12.734 -12.423 185.897 -61.2056 27.6117 173.646 -51.9361 -9.88311 159.507 34.1604 0.587122 163.702 44.4119 -11.5549 209.575 33.8313 8.4964 81.7014 16.6328 
169.758 168.155 154.67 149.205 152.502 171.611 154.327 152.08 85.5226 90.6669 -70.2851 176.966 -12.9026 -12.0805 186.447 -61.2459 27.8917 174.047 -51.9079 -9.69239 160.078 34.131 0.926471 164.164 44.3222 -11.2378 209.913 33.8309 8.42839 81.7702 16.6514 
169.862 168.109 154.747 149.508 152.374 171.651 154.233 151.84 85.3406 90.3589 -69.7893 177.4 -13.1217 -11.6091 186.962 -61.2568 28.2217 174.516 -51.8904 -9.52806 160.611 34.1348 1.30099 164.604 44.206 -10.9064 210.243 33.8187 8.35729 81.916 16.5768 
169.886 168.015 154.764 149.615 152.244 171.656 154.066 151.583 85.3784 90.2706 -69.4189 177.767 -13.1996 -11.173 187.265 -61.1437 28.5109 174.787 -51.7648 -9.26844 160.94 34.1508 1.66408 164.937 44.1772 -10.5799 210.561 33.8337 8.31914 81.8562 16.4923 
169.827 167.941 154.718 149.572 152.059 171.687 154 151.311 85.4066 90.3312 -69.0778 178.285 -13.23 -10.6544 187.614 -61.0357 28.9385 175.229 -51.596 -8.79895 161.308 34.1839 2.16043 165.304 44.1666 -10.2367 210.975 33.8896 8.3135 81.7578 16.4255 
169.638 168.055 154.629 149.502 151.942 171.632 154.143 151.432 85.5788 90.3496 -68.7952 178.593 -13.2701 -10.1581 187.695 -61.0248 29.4017 175.398 -51.5834 -8.46443 161.408 34.2008 2.50259 165.465 44.1984 -9.8547 211.168 33.8801 8.30567 81.7685 16.3676 
169.652 168.196 154.599 149.614 151.949 171.515 154.18 151.451 85.606 90.5096 -68.4205 178.931 -13.1726 -9.68569 187.919 -60.9191 29.861 175.757 -51.5062 -8.11855 161.657 34.3668 2.85401 165.66 44.2842 -9.45175 211.438 33.9555 8.33923 81.9512 16.3226 
