152.416 172.742 179.24 151.34 154.489 175.568 165.026 175.567 91.7116 90.2541 24.8605 147.244 23.9958 80.9541 146.926 -11.3815 120.601 146.777 -8.41054 66.5489 134.952 92.6819 80.9757 139.302 94.8518 72.7062 176.111 76.5872 12.9218 106.103 14.0758 
152.192 173.27 179.847 151.433 154.878 175.735 165.121 176.69 91.7722 90.3223 24.9795 144.793 25.2434 80.3589 144.424 -10.3863 120.478 145.284 -7.63585 66.9479 133.575 93.7051 81.1948 138.069 95.7983 72.6723 174.794 77.1638 12.9213 106.214 14.7006 
151.956 173.546 180 151.751 155.183 176.079 164.964 176.417 91.6043 90.4285 24.6667 143.636 25.5979 79.9553 143.589 -10.3271 120.227 144.424 -7.46147 67.1512 132.84 93.7413 81.0956 137.351 95.8703 72.6046 174.144 77.2207 12.9766 105.835 14.8696 
151.76 173.517 180 152.205 155.538 176.349 164.711 175.692 91.3138 90.5612 24.3993 142.613 25.9386 79.7758 142.948 -10.24 120.058 143.58 -7.26697 67.4629 132.073 93.6757 81.015 136.582 95.9396 72.6342 173.471 77.3429 13.0052 105.329 14.8799 
151.654 173.362 180 152.617 155.829 176.566 164.476 174.639 90.8125 90.7398 24.1352 141.794 26.0973 79.8284 142.541 -10.2505 119.875 142.746 -7.11427 67.7817 131.324 93.3975 80.8394 135.72 95.8871 72.6743 172.774 77.4159 13.0478 104.701 14.6666 
151.616 173.056 180 152.792 155.792 177.15 164.3 173.572 90.8071 91.6642 23.74 140.932 26.2457 79.9674 142.444 -10.5045 119.515 142.094 -7.1534 68.253 130.56 93.3203 80.7314 134.863 96.0874 72.9472 172.053 77.5235 12.9809 104.237 14.2036 
151.629 172.891 180 152.922 155.826 177.17 164.404 172.339 90.1659 91.5249 23.7072 140.556 26.1481 80.7357 142.337 -10.5188 119.558 141.142 -6.93163 68.6263 129.983 92.9949 80.746 134.152 96.0667 73.1332 171.454 77.657 12.9784 103.396 13.5358 
151.796 173.009 180 152.876 155.475 177.632 164.585 171.201 90.4195 91.7627 23.6957 140.192 26.2032 81.7452 142.505 -10.4679 119.233 140.628 -6.9061 68.9845 129.748 93.3361 81.1716 133.957 96.5157 73.5885 171.091 77.9858 12.8135 102.994 12.3733 
151.832 173.116 180 152.932 155.237 177.578 164.91 169.922 90.1718 91.0883 23.9729 140.361 25.9688 83.1077 142.584 -10.2309 119.038 139.821 -6.70539 69.1254 129.444 93.3248 81.4994 133.711 96.6521 73.865 170.761 78.3008 12.7297 102.146 11.0602 
151.528 173.201 180 152.897 154.958 177.406 165.217 169.176 90.0639 90.3938 24.2116 140.865 25.6751 84.5529 142.873 -10.0795 119.292 139.297 -6.4838 69.0664 129.157 93.3069 81.7716 133.473 96.7189 74.143 170.432 78.6076 12.6585 101.7 10.0298 
151.349 173.397 180 152.88 154.665 177.199 165.407 168.734 90.0888 89.7446 24.2865 141.664 25.4697 85.8563 143.255 -9.92775 119.583 138.925 -6.30536 68.8169 128.998 93.344 81.962 133.34 96.7829 74.44 170.218 78.9321 12.5911 101.518 9.15203 
150.982 173.613 180 152.965 154.56 176.869 165.524 168.412 90.1163 89.3047 24.1314 142.591 25.2567 86.9401 143.623 -9.8347 120.026 138.621 -6.10784 68.4751 128.769 93.3396 81.941 133.072 96.8175 74.7043 169.948 79.1961 12.5577 101.562 8.60442 
150.584 173.892 180 153.152 154.621 176.479 165.546 168.248 90.1241 89.0997 23.7642 143.567 25.1502 87.6537 143.86 -9.81645 120.442 138.311 -5.92874 68.1335 128.574 93.3164 81.8052 132.779 96.8109 74.9281 169.7 79.373 12.5518 101.745 8.3582 
150.189 174.383 180 153.302 154.734 176.048 165.667 168.359 90.1607 88.9687 23.3498 144.302 25.149 88.3428 143.942 -9.72386 121.091 138.019 -5.57224 67.9197 128.398 93.4239 81.7542 132.549 96.8895 75.1306 169.474 79.5444 12.5801 102.057 8.31414 
149.854 175.308 180 153.485 154.937 175.65 165.989 168.694 90.1343 88.9281 22.944 145 25.1661 89.0575 144.088 -9.68833 121.944 137.805 -5.15337 67.7709 128.242 93.5633 81.6989 132.307 97.0031 75.3007 169.247 79.7026 12.6152 102.508 8.41099 
149.401 176.588 180 153.689 155.315 175.113 166.221 169.172 90.0462 88.9876 22.5163 145.667 25.2103 89.7936 144.255 -9.55952 122.953 137.874 -4.64854 67.8426 128.188 93.7134 81.7445 132.209 97.1213 75.4685 169.128 79.8377 12.6907 103.007 8.59633 
149.109 178.468 180 153.776 155.654 174.761 166.771 169.813 89.8909 89.0646 22.2643 146.077 25.3094 90.6408 144.447 -9.43141 124.045 138 -4.12015 68.0015 128.095 93.8569 81.7946 132.072 97.2701 75.6518 168.97 79.9882 12.7556 103.537 8.76522 
149.122 178.573 180 153.887 156.191 174.537 167.724 170.648 89.4544 89.1096 22.2778 146.167 25.612 92.0922 144.671 -9.13409 125.615 138.158 -3.36482 68.6322 127.945 94.0816 82.1352 131.892 97.5525 76.0879 168.711 80.2648 12.8581 104.126 8.81309 
149.467 175.754 180 153.782 156.542 174.692 168.849 171.433 89.2166 89.2211 22.3767 146.022 25.7386 92.8049 145.189 -9.10879 126.363 138.702 -3.11321 68.9261 127.971 94.053 82.1917 131.923 97.5967 76.1857 168.73 80.3202 12.8997 104.542 8.82111 
150.207 174.27 180 153.638 156.843 174.946 169.606 172.326 88.8642 89.3227 22.7478 145.574 26.0037 93.0857 145.705 -9.22276 127.069 139.105 -2.8002 69.4928 127.94 94.1206 82.4233 131.907 97.7427 76.4163 168.709 80.4998 12.9825 104.755 9.22191 
151.08 174.27 180 153.425 157.072 175.32 170.292 173.146 88.4921 89.3813 23.1968 144.96 26.2339 93.5436 145.969 -9.17149 127.743 139.544 -2.55946 70.0264 127.904 94.0818 82.6024 131.917 97.8549 76.591 168.712 80.6438 13.0251 104.882 9.384 
151.887 174.27 180 153.19 157.236 175.657 170.854 173.921 87.9985 89.4093 23.8183 144.238 26.456 94.0014 146.338 -9.1274 128.496 140.052 -2.34864 70.7528 127.818 93.9532 82.8857 131.879 97.9057 76.8 168.704 80.7979 13.113 104.847 9.59413 
152.702 174.27 179.725 152.602 156.976 176.233 171.581 175.176 88.2642 90.1717 24.1776 143.423 26.7644 94.1379 147.011 -9.32409 128.971 141.003 -2.39251 71.4729 127.78 94.1051 83.1563 132.036 98.2812 77.1729 168.818 81.0244 13.0531 105.023 9.91764 
153.626 174.27 179.201 152.274 156.995 176.554 172.037 175.822 87.6656 90.2068 25.0737 142.682 26.948 94.6022 147.381 -9.26615 129.523 141.479 -2.28139 72.255 127.79 93.8752 83.4598 131.973 98.2325 77.4099 168.909 81.15 13.1919 104.725 9.97082 
154.367 174.27 179.087 151.642 156.742 177.065 172.102 176.767 87.7421 90.9234 25.7139 141.819 27.3522 94.4799 147.707 -9.23472 129.702 142.248 -2.33648 73.1247 127.848 93.9963 83.8235 132.148 98.5816 77.794 169.083 81.3691 13.1958 104.62 10.2122 
154.879 174.27 179.333 151.137 156.46 177.385 172.039 177.739 88.0659 91.5198 26.2637 141.168 27.6495 94.4256 147.929 -9.16355 129.871 142.925 -2.32152 73.7982 127.949 94.1336 84.2822 132.359 98.8274 78.196 169.3 81.5527 13.1511 104.512 10.4104 
155.624 174.27 180 150.721 156.168 177.779 171.628 178.528 88.4467 92.0276 27.0267 140.564 27.9582 94.2937 147.981 -8.94955 129.871 143.424 -2.24395 74.3537 128.115 94.3191 84.7656 132.594 99.0665 78.5991 169.564 81.7727 13.0731 104.286 10.5314 
156.206 174.27 180 150.353 155.918 178.159 171.14 179.962 88.9073 92.4238 27.8277 139.985 28.241 94.2316 147.815 -8.68664 129.957 144.051 -2.15412 74.6995 128.33 94.6033 85.1882 132.869 99.344 78.9805 169.803 81.9685 12.9645 104.419 10.6687 
156.818 174.27 180 150.076 155.575 178.534 170.601 179.962 89.4734 92.6855 28.6148 139.574 28.3634 94.2531 147.571 -8.43535 129.563 143.806 -1.9058 74.7584 128.589 94.9453 85.5786 133.124 99.5773 79.35 170.002 82.1366 12.8032 104.083 10.4598 
157.297 174.27 180 149.91 155.308 178.816 169.938 179.963 89.9569 92.9385 29.2003 139.413 28.4138 94.2615 147.36 -8.23401 129.241 143.526 -1.64773 74.7815 128.812 95.1931 85.8936 133.301 99.7389 79.7137 170.194 82.2837 12.6655 103.714 10.3204 
157.85 174.27 180 149.838 154.968 179.157 169.392 179.964 90.5165 93.0698 29.7612 139.369 28.3925 94.3963 147.178 -8.08838 128.917 143.075 -1.33442 74.5372 128.989 95.4609 86.1037 133.396 99.8522 80.0284 170.326 82.4249 12.5283 103.425 10.1054 
157.953 174.27 180 149.923 154.723 179.375 169.067 179.964 90.9745 93.1773 30.0308 139.561 28.3574 94.6175 147.051 -7.97726 128.776 142.656 -1.05525 74.2981 129.082 95.7262 86.2547 133.38 99.9618 80.311 170.381 82.5641 12.4476 103.272 9.93876 
157.872 174.27 180 150.078 154.568 179.558 168.977 179.965 91.3559 93.2867 30.1567 139.815 28.4485 94.766 146.91 -7.86307 128.693 142.211 -0.857695 73.9987 129.128 96.0248 86.3153 133.266 100.1 80.5668 170.363 82.7316 12.3954 103.287 9.83142 
157.553 174.27 180 150.303 154.558 179.476 168.85 179.965 91.5478 93.5108 29.9539 140.237 28.4103 94.8302 146.863 -7.83295 128.633 141.906 -0.737285 73.7191 129.094 96.0879 86.1976 133.021 100.066 80.7511 170.274 82.8109 12.4056 103.304 9.80351 
157.191 174.27 180 150.496 154.581 179.279 169.03 179.965 91.708 93.7624 29.664 140.573 28.4448 94.9492 146.886 -7.84632 128.576 141.602 -0.682058 73.4716 129.021 96.1689 86.0761 132.733 100.065 80.8896 170.18 82.9037 12.4134 103.323 9.72164 
156.595 174.27 179.998 150.764 154.698 178.885 169.426 179.966 91.6523 93.8404 29.3254 140.902 28.5176 95.2112 147.004 -7.87881 128.968 141.526 -0.664426 73.4591 128.876 96.24 86.0783 132.423 100.085 81.042 170.025 83 12.4582 103.564 9.81423 
156.23 174.27 180 151.155 155.089 178.192 169.928 179.964 91.1231 93.079 29.3034 141.132 28.4514 95.6495 146.895 -7.82623 129.722 141.231 -0.480889 73.3146 128.654 96.0311 86.0327 132.08 99.8217 80.97 169.801 82.9643 12.5905 103.764 10.0011 
155.971 174.27 180 151.546 155.542 177.84 170.503 177.764 90.5772 92.3167 29.5826 141.081 28.4882 96.0264 146.691 -7.7533 129.731 139.978 -0.293554 73.3712 128.418 95.8846 86.1246 131.841 99.668 80.8862 169.577 82.9241 12.6798 103.094 9.75158 
155.541 175.626 180 151.595 155.543 177.979 171.246 177.302 90.8196 92.385 29.4816 140.86 28.6283 96.4325 146.471 -7.64614 129.741 139.747 -0.410084 73.4781 128.302 96.1371 86.2614 131.882 99.9129 80.942 169.465 82.9572 12.6224 103.152 9.37808 
155.056 176.921 180 151.905 155.867 177.848 171.662 176.463 90.2854 91.7782 29.6502 140.924 28.5835 96.6964 146.151 -7.54048 129.869 139.215 -0.383944 73.6301 128.145 96.0174 86.3276 131.733 99.8245 80.8417 169.312 82.9091 12.7029 102.868 9.21222 
154.725 179.122 180 151.891 155.87 178.052 171.951 176.128 90.3292 91.952 29.4214 140.819 28.686 96.4849 146.076 -7.62388 129.633 139.182 -0.579977 73.8217 128.068 96.1323 86.3202 131.797 100.042 80.8377 169.25 82.9326 12.6491 102.812 9.18459 
154.57 177.798 180 151.854 155.804 178.412 172.138 175.912 90.4181 92.1323 29.3104 140.785 28.8154 96.1311 146.011 -7.69914 129.324 139.167 -0.820727 73.9042 127.997 96.2591 86.2451 131.828 100.25 80.8278 169.202 82.9737 12.6002 102.822 9.19806 
154.36 175.538 180 152.26 156.001 178.497 172.175 175.114 90.2396 92.4595 29.1824 140.81 28.9436 95.5911 145.822 -7.9114 128.921 139.1 -1.14289 73.6695 127.879 96.0279 85.9548 131.511 100.105 80.7025 169.052 82.8271 12.517 103.05 9.27648 
154.218 173.492 180 152.356 156.321 178.498 172.602 174.611 89.7524 91.7823 29.5061 140.592 28.9563 95.6076 145.583 -7.84712 128.94 138.765 -1.23101 73.8212 127.712 95.8238 85.999 131.454 100.007 80.5889 168.937 82.7629 12.55 102.775 9.2046 
154.067 171.94 180 152.347 156.511 178.408 172.999 174.238 89.3462 91.0734 29.8145 140.343 28.9078 95.6685 145.395 -7.8335 128.935 138.514 -1.36887 73.995 127.56 95.588 86.0923 131.488 99.8862 80.448 168.869 82.6671 12.5633 102.432 9.07833 
153.928 169.988 180 152.032 156.236 178.736 173.486 174.433 89.4688 91.1698 29.659 139.991 28.9928 95.2634 145.563 -8.0448 128.64 138.804 -1.69125 74.2012 127.574 95.6744 86.1035 131.743 100.114 80.3832 168.905 82.6364 12.4825 102.471 9.15756 
153.701 168.137 180 151.694 155.966 178.986 173.778 174.549 89.4818 91.3629 29.451 139.719 28.9585 94.8502 145.759 -8.27749 128.339 139.181 -2.00711 74.4083 127.618 95.6183 86.0511 131.938 100.25 80.2664 168.968 82.5768 12.4005 102.405 9.24183 
153.507 166.564 180 151.377 155.666 179.165 173.862 174.545 89.7009 91.6179 29.1374 139.688 28.8266 94.3341 146.011 -8.48898 127.855 139.545 -2.33128 74.3084 127.72 95.5257 85.8718 132.108 100.238 80.1004 169.098 82.4922 12.3257 102.328 9.27678 
153.303 165.117 180 151.059 155.466 179.316 173.89 174.372 89.7533 92.0486 28.7113 139.777 28.7148 93.6198 146.312 -8.78037 127.248 139.926 -2.77348 74.2355 127.811 95.2946 85.5628 132.161 100.13 79.8962 169.236 82.3801 12.2982 102.166 9.36411 
153.241 164.202 180 150.796 155.222 179.337 173.833 174.163 90.123 92.4114 28.1663 139.902 28.5176 92.8919 146.475 -9.07052 126.569 140.166 -3.14926 73.8485 127.917 95.1774 85.27 132.226 99.9453 79.656 169.354 82.2123 12.2375 102.173 9.42951 
153.262 163.455 180 150.682 154.984 179.196 173.624 173.999 90.5602 92.755 27.5208 139.98 28.2889 92.1465 146.59 -9.33496 125.873 140.38 -3.50118 73.3093 127.98 95.076 84.9248 132.213 99.6612 79.3785 169.397 82.0134 12.2303 102.299 9.49331 
153.379 162.695 180 150.691 154.846 178.977 173.44 173.829 90.817 93.1121 26.8208 140.179 28.1213 91.39 146.8 -9.58449 125.236 140.645 -3.86865 72.8309 128.047 94.9057 84.5383 132.148 99.3567 79.0922 169.452 81.8468 12.252 102.384 9.59295 
153.53 161.232 180 150.722 154.687 178.555 173.391 173.766 91.0259 93.4313 25.957 140.378 28.0209 90.5597 147.073 -9.87525 124.612 140.911 -4.30578 72.2511 128.052 94.6995 84.0376 131.992 99.0017 78.746 169.466 81.6595 12.302 102.58 9.7466 
153.465 161.359 180 150.813 154.587 177.854 173.451 173.847 91.1395 93.7267 24.9127 140.564 28.1181 89.5428 147.303 -10.0951 123.843 141.085 -4.73168 71.6414 128.013 94.5833 83.4478 131.78 98.7106 78.3189 169.437 81.5209 12.404 102.817 9.92117 
153.557 161.627 180 150.956 154.504 177.098 173.555 173.961 91.2047 93.9505 23.9305 140.714 28.1769 88.5652 147.612 -10.3645 123.202 141.284 -5.09084 71.006 127.927 94.4312 82.85 131.528 98.3963 77.8663 169.37 81.374 12.5017 103.116 10.191 
153.594 162.044 180 151.012 154.421 176.266 173.704 174.048 91.4276 94.1118 22.8163 140.851 28.3908 87.5322 147.847 -10.6125 122.565 141.396 -5.40255 70.2256 127.777 94.3608 82.2185 131.271 98.1703 77.3884 169.282 81.2681 12.5308 103.5 10.5085 
153.099 161.704 180 151.114 154.356 175.603 173.587 174.012 91.7659 94.1911 21.6063 141.368 28.4864 86.5842 148.119 -10.8233 122.022 141.527 -5.61207 69.3936 127.71 94.3144 81.6521 131.141 97.9759 76.9605 169.257 81.1666 12.5101 103.882 10.8555 
152.241 160.905 180 151.207 154.276 175.079 173.306 173.897 92.1397 94.2379 20.2894 142.252 28.4828 85.6794 148.469 -11.0698 121.508 141.668 -5.79065 68.4598 127.64 94.2233 81.0368 130.984 97.7638 76.5711 169.195 81.0653 12.4526 104.3 11.2249 
151.524 159.569 180 151.314 154.173 174.732 172.835 173.644 92.4358 94.3067 19.2133 143.063 28.3712 84.7597 148.712 -11.2582 120.979 141.665 -5.91217 67.4913 127.533 94.0891 80.331 130.742 97.5143 76.1633 169.053 80.9409 12.435 104.659 11.6084 
151.282 157.286 179.801 151.414 154.035 175.018 172.001 173.381 93.1879 94.4093 18.0825 144.157 28.2043 83.4114 148.647 -11.1808 119.933 141.576 -5.97571 65.7427 127.536 94.3222 79.1782 130.588 97.5107 75.3748 168.975 80.9941 12.3637 105.174 11.8757 
150.931 158.494 179.484 151.735 154.251 175.338 171.825 172.877 92.9039 93.4495 18.3424 145.087 27.6741 83.7363 147.808 -10.8097 119.939 140.61 -5.62116 65.0676 127.391 94.1515 78.8819 130.34 97.2747 75.102 168.715 80.89 12.4082 104.972 11.6226 
150.917 159.24 179.246 152.036 154.531 175.514 171.789 172.464 92.6914 92.7355 18.5835 145.416 27.3468 84.0198 146.843 -10.4117 119.79 139.625 -5.2323 64.5132 127.231 94.1769 78.586 130.177 97.2443 74.7054 168.462 80.864 12.4638 104.708 11.26 
150.917 160.342 179.018 152.265 154.662 175.601 171.821 172.212 92.52 92.1638 18.8116 145.476 27.1668 84.3244 145.796 -9.97448 119.61 138.686 -4.87358 64.1511 127.05 94.3259 78.4426 130.007 97.3294 74.3447 168.205 80.8962 12.5082 104.416 10.8274 
151.011 161.842 178.843 152.464 154.701 175.605 172.005 172.152 92.3974 91.6303 18.9269 145.377 26.9742 84.7994 144.848 -9.55766 119.584 137.978 -4.55528 63.8432 126.87 94.4942 78.3603 129.86 97.4394 74.0078 167.934 80.9473 12.5394 104.256 10.3604 
150.716 163.642 178.759 152.627 154.547 175.373 172.375 172.249 92.1825 91.1012 18.8929 145.227 26.8408 85.3393 143.977 -9.18158 119.732 137.425 -4.28913 63.7459 126.611 94.6885 78.4228 129.609 97.5665 73.6914 167.614 81.0201 12.594 104.142 9.95942 
150.36 165.396 178.724 152.764 154.477 175.11 173.099 172.466 91.9817 90.7453 18.7895 144.851 26.8808 85.7116 143.279 -8.92986 119.796 136.932 -4.10121 63.7888 126.299 94.9655 78.5124 129.329 97.7633 73.3787 167.283 81.0994 12.659 104.07 9.63213 
150.182 166.567 178.834 152.764 154.345 174.956 174.154 172.807 91.789 90.3953 18.7233 144.218 27.0538 85.9252 142.636 -8.76814 119.791 136.373 -3.93183 63.9092 125.937 95.29 78.6508 129.031 98.0118 73.0895 166.904 81.1801 12.6985 104.017 9.39374 
149.969 167.469 179.013 152.745 154.323 174.889 175.598 173.374 91.5645 90.1218 18.7688 143.343 27.3367 86.0121 142.126 -8.65909 119.807 135.881 -3.75333 64.1224 125.558 95.6813 78.809 128.734 98.3385 72.7958 166.506 81.2734 12.7301 104.061 9.27864 
149.864 171.469 179.137 152.814 154.308 174.888 177.004 173.873 91.3113 89.9336 18.6582 142.725 27.6337 85.8998 141.878 -8.71744 119.584 135.422 -3.71373 64.2056 125.198 95.9819 78.801 128.382 98.5855 72.4914 166.11 81.3675 12.7541 104.104 9.16863 
149.99 175.115 179.269 152.853 154.287 175.055 178.283 174.434 91.0833 89.7933 18.5716 142.217 27.8656 85.6542 141.877 -8.90978 119.254 135.046 -3.74335 64.1653 124.829 96.2138 78.6771 127.994 98.7691 72.143 165.706 81.4445 12.7728 104.193 9.12178 
149.978 177.466 179.438 152.908 154.329 175.241 179.109 175.098 90.815 89.6673 18.4143 141.691 28.1989 85.0366 141.757 -9.01292 118.647 134.585 -3.79243 64.0307 124.56 96.5046 78.4218 127.703 99.0039 71.7248 165.32 81.5044 12.7906 104.355 9.15515 
149.978 174.27 179.567 153 154.353 175.507 177.983 175.693 90.5764 89.4912 18.0914 141.46 28.643 84.8921 142.177 -9.13102 117.835 134.226 -3.9328 63.8207 124.412 96.8533 78.1585 127.532 99.2623 71.2886 165.026 81.6142 12.8045 104.577 8.7103 
150.041 174.27 179.514 153.145 154.326 175.757 177.982 175.911 90.4389 89.3481 17.4262 141.522 29.0101 83.7345 141.773 -9.13891 116.814 133.717 -4.08134 63.3615 124.287 97.1511 77.7157 127.37 99.4661 70.8144 164.73 81.7154 12.8104 104.733 8.82479 
149.991 174.27 179.546 153.337 154.379 175.76 177.982 175.577 90.3539 89.1559 16.571 141.777 29.3106 82.2613 141.482 -9.16957 115.622 133.227 -4.18169 62.8249 124.188 97.4254 77.2294 127.289 99.6426 70.3223 164.496 81.8661 12.8347 104.722 9.11209 
149.978 176.315 179.375 153.529 154.142 175.651 178.704 174.825 90.7902 89.622 15.1694 142.247 29.5285 78.2598 141.785 -9.92495 113.902 133.059 -4.50012 62.1061 124.215 97.9871 76.61 127.286 100.035 69.9356 164.351 82.1562 12.8301 104.887 11.2595 
149.971 172.133 178.549 153.851 153.793 175.522 177.236 173.051 91.4399 90.4093 12.9005 142.832 29.8253 76.0095 140.844 -9.07502 111.242 132.656 -4.55473 60.5571 123.952 98.6973 75.2179 126.851 100.468 68.9091 164.05 82.6458 12.9215 104.859 10.8243 
150.031 168.537 177.879 154.579 154.161 175.395 175.979 171.376 91.4297 90.4335 12.1603 143.247 29.792 75.5101 140.206 -8.38392 110.241 132.369 -4.38195 59.8693 123.84 98.7108 74.6072 126.555 100.238 68.4606 163.98 82.7209 13.1945 104.549 10.3355 
150.097 165.385 177.258 154.846 154.021 175.427 174.865 170.29 92.0364 91.2356 11.1036 143.462 29.9411 75.0822 140.076 -7.93707 109.345 132.646 -4.30492 59.3049 123.789 99.1222 74.105 126.446 100.464 68.0923 164.025 82.9996 13.2755 104.565 9.90802 
150.133 168.961 176.938 155.671 154.262 175.274 174.482 169.594 92.0222 91.224 10.6451 143.619 29.8311 75.1818 139.847 -7.60405 108.922 132.653 -4.07862 58.7095 123.702 99.3177 73.5638 126.218 100.451 67.6029 163.925 83.1226 13.5192 104.599 9.46763 
150.181 172.695 176.639 156.611 154.506 175.134 174.864 169.401 92.0543 91.1906 10.3146 143.516 29.9143 75.2024 139.697 -7.35915 108.449 132.6 -3.91639 58.2137 123.694 99.6988 73.1557 126.111 100.549 67.1129 163.865 83.2292 13.7675 104.798 9.04883 
149.966 176.369 176.43 157.652 154.612 174.837 175.907 169.453 92.0628 91.1491 9.90678 143.37 30.1992 75.0179 139.746 -7.19045 107.82 132.508 -3.77675 57.7268 123.728 100.219 72.7576 126.006 100.733 66.5993 163.808 83.3685 14.0284 105.11 8.69667 
149.456 177.187 176.378 157.985 154.353 175.131 177.252 169.999 92.4548 91.7299 9.39154 142.753 30.926 74.0472 139.828 -7.08519 106.802 132.413 -3.65385 57.3822 124.01 101.306 72.5212 126.053 101.437 66.2462 163.833 83.6751 14.1807 105.752 8.73164 
148.698 176.227 176.49 158.67 154.232 174.771 177.882 170.387 92.2627 91.5213 8.99486 142.622 31.2921 73.2535 139.345 -6.78741 105.97 131.961 -3.36124 56.8454 124.266 101.954 72.0914 126.014 101.661 65.7347 163.798 83.8115 14.5771 106.073 8.74048 
148.241 172.941 176.529 158.418 153.777 175.28 177.52 170.498 92.3855 91.9092 8.45602 142.083 31.9133 71.1108 138.404 -6.56677 104.491 131.094 -3.14161 56.2264 124.496 102.733 71.5963 125.837 102.105 65.2588 163.638 83.977 14.7609 106.292 9.38049 
147.952 169.32 176.509 158.195 153.735 175.428 176.239 169.828 92.0148 91.7713 7.86126 142.102 32.1249 69.1938 137.162 -6.26834 102.921 129.757 -2.80982 55.2839 124.584 102.998 70.7178 125.415 101.998 64.5516 163.374 83.9602 15.1889 106.017 9.78415 
148.461 169.961 176.104 158.073 153.805 175.907 175.291 168.89 91.7058 91.6301 7.32416 141.895 32.2913 67.4585 136.157 -5.99099 101.426 128.566 -2.52949 54.3551 124.525 103.123 69.8203 125.014 101.848 63.78 163.129 83.9557 15.5234 105.612 10.0786 
149.035 169.707 175.415 158.131 153.916 176.036 174.456 167.944 91.4242 91.5672 6.54115 141.829 32.2434 66.2987 135.754 -5.95718 100.322 127.925 -2.43293 53.4802 124.343 103.016 68.8962 124.597 101.582 62.9809 162.921 83.9399 15.779 105.25 10.1841 
149.411 171.174 174.683 158.222 154.265 175.77 174.215 167.087 91.2576 91.5823 5.48511 141.954 32.1182 65.9676 135.937 -6.17944 99.6542 127.759 -2.41062 52.7224 124.125 102.838 68.0345 124.308 101.368 62.2055 162.82 83.9569 15.8975 104.945 9.94948 
149.779 172.199 174.199 158.378 154.609 175.601 174.991 166.547 91.0736 91.5935 4.60118 142.097 32.1197 65.9843 136.383 -6.36814 99.0521 127.673 -2.32444 52.0372 124.118 102.842 67.2788 124.203 101.363 61.4923 162.85 84.0544 15.9613 104.789 9.51391 
149.773 171.752 173.754 158.582 154.966 175.426 175.772 166.052 90.9069 91.7255 3.34454 142.546 32.367 65.695 136.624 -6.37703 98.1915 127.375 -2.25333 51.0732 124.298 102.884 66.328 124.097 101.46 60.8065 162.928 84.1707 15.9303 104.731 9.1302 
