150.095 178.556 180 152.186 154.489 176.44 158.79 163.253 87.8424 89.5925 43.6279 129.048 23.1204 105.347 132.463 -13.7767 140.271 128.53 -7.87279 91.8555 116.297 88.6304 105.785 119.748 92.2129 95.7259 155.58 76.2669 12.0042 101.416 10.4867 
149.656 177.674 180 152.226 154.517 176.387 159.045 163.321 87.6341 89.4084 43.2739 129.133 23.1503 105.361 132.684 -13.9114 140.317 128.732 -7.88087 91.7506 116.387 88.6546 105.639 119.832 92.2505 95.4751 155.61 76.2243 12.0194 101.661 10.5154 
149.591 176.578 180 152.295 154.524 176.327 159.413 164.101 87.5026 89.2837 42.8591 129.605 22.9846 105.593 133.312 -14.1136 140.536 129.315 -7.75856 91.4718 116.635 88.561 105.369 120.039 92.1533 95.26 155.803 76.212 12.0789 101.951 10.5662 
149.8 175.725 180 152.252 154.606 176.224 159.816 165.258 87.3377 89.2655 42.3125 130.027 22.8082 105.736 134.105 -14.4279 140.855 130.05 -7.64175 91.2144 116.933 88.3609 105.003 120.313 92.0458 95.0233 156.087 76.1808 12.0805 102.218 10.7837 
150.459 175.079 180 152.173 154.677 176.171 160.237 166.524 87.3095 89.2825 41.7413 130.61 22.5746 105.811 135.035 -14.7464 141.219 130.921 -7.5718 90.8906 117.333 88.1292 104.606 120.724 91.8995 94.841 156.518 76.1621 12.0692 102.476 11.0725 
151.226 174.864 180 152.02 154.772 176.06 160.515 167.798 87.3893 89.3266 41.122 131.235 22.2592 105.706 135.869 -14.9763 141.473 131.791 -7.55975 90.4508 117.735 87.8607 104.065 121.198 91.7649 94.6276 156.988 76.1032 12.0222 102.723 11.3794 
151.902 175.06 180 151.865 154.886 175.825 160.619 168.585 87.3809 89.4324 40.5316 131.922 21.8981 105.309 136.505 -15.132 141.452 132.561 -7.84577 90.1273 118.049 87.5441 103.5 121.587 91.592 94.3606 157.398 75.9956 12.0174 102.824 11.5998 
152.432 175.709 180 151.723 155.066 175.474 160.754 169.292 87.0437 89.5951 39.9765 132.616 21.5725 104.715 137.137 -15.2956 141.267 133.449 -8.60655 90.0395 118.32 87.1056 102.858 121.917 91.4096 94.0429 157.769 75.8591 12.0694 102.87 11.712 
152.937 176.835 180 151.458 155.167 175.202 161.028 169.451 87.0623 89.717 39.5476 133.129 21.2765 104.135 137.781 -15.5719 140.915 134.147 -9.39821 89.7947 118.498 86.7127 102.303 122.249 91.1966 93.728 158.115 75.6841 12.085 102.852 11.7328 
153.393 178.524 180 151.173 155.197 175.01 161.495 169.441 87.2386 89.7501 39.1657 133.385 21.1762 103.557 138.34 -15.8169 140.34 134.57 -9.99706 89.4966 118.766 86.5579 101.889 122.709 91.1169 93.4262 158.493 75.5639 12.0766 102.802 11.643 
153.557 179.795 180 151.008 155.065 174.964 161.785 169.272 87.4034 89.721 38.898 133.596 21.1361 102.911 138.753 -15.9603 139.695 134.807 -10.4352 89.0286 119.043 86.4692 101.415 123.101 91.0114 93.0669 158.819 75.443 12.0983 102.829 11.5774 
153.915 178.856 180 151.106 154.676 175.162 161.925 168.761 87.6333 89.4796 38.8289 133.759 21.0349 102.696 139.206 -15.9612 139.231 135.134 -10.6372 88.4346 119.689 86.6807 101.27 123.673 90.9167 92.8107 159.278 75.3877 12.128 103.132 11.338 
154.171 178.167 180 151.309 154.285 175.457 161.931 168.611 87.8613 89.2 38.8149 133.926 21.0164 102.568 139.622 -15.8196 138.959 135.509 -10.5076 87.8017 120.345 87.0357 101.097 124.262 90.9139 92.5299 159.724 75.4043 12.2304 103.617 11.2173 
154.495 177.794 180 151.548 154.027 175.84 161.776 168.682 88.0793 89.0327 38.7559 134.399 21.1129 102.45 140.168 -15.4821 138.618 136.046 -10.2414 87.2515 121.072 87.3889 100.907 124.932 90.9576 92.3058 160.31 75.5424 12.372 103.943 11.0372 
154.674 177.947 180 151.883 153.884 176.151 161.523 168.511 88.1676 88.9665 38.6057 135.046 21.3203 102.2 140.709 -15.0924 138.131 136.608 -10.1355 86.8483 121.848 87.7405 100.742 125.587 91.0196 92.0992 160.964 75.7265 12.5517 104.127 10.7993 
154.614 178.356 180 152.198 153.873 176.399 161.208 168.266 87.9781 89.053 38.6011 135.762 21.5846 101.83 141.416 -14.6987 137.709 137.425 -10.1592 86.7279 122.609 87.9668 100.544 126.195 91.1176 91.8857 161.67 75.9455 12.7208 104.189 10.665 
154.41 178.84 180 152.361 153.952 176.647 161.024 168.43 87.9474 89.0332 38.7483 136.258 22.0589 101.275 142.013 -14.3101 137.443 138.325 -10.3562 86.7257 123.346 88.3772 100.475 126.926 91.4189 91.7518 162.436 76.161 12.8081 104.531 10.757 
153.983 179.198 180 152.396 154.104 176.869 160.917 168.792 88.0902 89.0463 39.0929 136.428 22.6868 100.662 142.379 -13.8763 137.317 139.037 -10.4326 86.7925 123.998 89.0224 100.473 127.691 91.9698 91.6311 163.186 76.4163 12.8411 104.953 11.025 
153.304 179.281 180 152.334 154.294 177 160.964 169.082 88.25 89.1166 39.4364 136.336 23.2908 100.029 142.559 -13.5577 137.183 139.509 -10.3745 86.8417 124.553 89.6479 100.403 128.402 92.5346 91.4485 163.807 76.597 12.851 105.317 11.3654 
152.209 179.283 180 152.244 154.42 177.004 161.008 169.461 88.3822 89.2681 39.8705 136.196 23.9261 99.3312 142.735 -13.3063 137.224 140.074 -10.2989 86.9575 125.033 90.2179 100.307 129.043 93.1044 91.2622 164.381 76.7506 12.8287 105.751 11.9086 
150.834 179.621 180 152.232 154.448 176.797 161.061 169.721 88.4361 89.402 40.0963 136.233 24.3598 98.8335 143.041 -13.2595 137.48 140.831 -10.2404 87.0253 125.498 90.571 100.179 129.617 93.4911 91.0616 164.915 76.8215 12.8057 106.207 12.492 
149.875 179.447 180 152.254 154.248 176.491 160.987 169.676 88.6957 89.5177 39.9982 136.875 24.3274 98.5705 143.66 -13.3969 137.661 141.765 -10.2652 86.6431 126.126 90.7668 99.9593 130.161 93.54 90.856 165.507 76.7786 12.8282 106.762 12.8691 
149.067 178.667 180 152.404 154.083 176.095 160.796 169.382 88.9062 89.4871 39.7898 137.924 24.1652 98.5514 144.722 -13.5698 137.858 142.92 -10.1329 86.2393 126.971 90.8322 99.7902 130.92 93.4308 90.7291 166.284 76.7336 12.9019 107.193 13.1024 
148.739 178.227 180 152.511 154.012 175.894 160.417 168.942 89.0753 89.5897 39.5647 138.962 24.1022 98.333 145.891 -13.6263 137.66 144.056 -9.88257 85.8607 127.822 90.8303 99.5049 131.707 93.3267 90.541 167.147 76.7451 12.9618 107.331 13.2159 
148.639 178.014 180 152.762 154.237 175.429 160.22 168.295 88.7397 89.0716 39.3413 140.47 23.9777 98.1381 146.985 -13.4082 137.347 144.883 -9.48349 85.4898 128.618 90.5128 99.1265 132.433 92.9559 90.1747 168.146 76.7976 13.1638 106.781 13.199 
148.951 177.392 180 152.833 154.411 175.036 160.344 167.775 88.6474 88.6905 39.0283 141.587 24.0097 97.8183 147.763 -13.2313 136.917 145.507 -9.17959 85.2117 129.215 90.4498 98.8583 133.142 92.8313 89.6967 169.017 76.9283 13.2977 106.208 13.138 
149.631 176.966 180 152.611 154.449 174.809 160.68 167.815 88.7358 88.34 38.7901 141.91 24.2481 97.3343 147.711 -12.9773 136.459 145.593 -8.61465 84.9308 129.76 90.8287 98.6674 133.918 93.0467 89.1075 169.719 77.0953 13.4225 105.806 13.2195 
150.162 176.813 180 152.321 154.508 174.433 160.802 168.31 88.8992 87.9616 38.2151 142.233 24.2487 96.6659 147.325 -12.7399 135.971 145.503 -8.08967 84.3496 130.194 91.0537 98.1736 134.604 93.1298 88.4563 170.254 77.0935 13.5216 105.573 13.4574 
150.548 176.306 180 152.294 154.714 173.984 160.317 168.322 89.0568 87.6683 37.2758 143.273 23.8571 96.1231 147.572 -12.7255 135.324 145.649 -7.81344 83.4874 130.613 90.8278 97.4075 135.162 92.843 87.8196 170.802 76.9702 13.6035 105.188 13.459 
150.612 175.961 180 152.32 154.797 173.715 159.813 167.906 89.2037 87.4248 36.4165 144.596 23.6677 95.4671 148.127 -12.6609 134.505 145.955 -7.764 82.4713 131.223 90.6385 96.5544 135.785 92.5927 87.2189 171.493 76.9012 13.6649 104.966 13.3696 
150.292 175.792 180 152.477 154.966 173.468 159.229 167.474 89.2629 87.3796 35.7059 145.86 23.6932 94.4497 148.666 -12.4987 133.642 146.772 -8.19586 81.6324 131.924 90.4748 95.748 136.44 92.36 86.6154 172.275 76.831 13.747 105.057 13.4704 
150.145 175.308 180 152.512 154.918 173.3 159.092 167.131 89.3148 87.3829 35.0373 146.865 23.8532 93.2642 149.296 -12.471 132.792 147.698 -8.70462 80.948 132.622 90.4481 95.1141 137.111 92.2381 85.9482 173.052 76.8152 13.8033 105.216 13.697 
150.042 174.92 180 152.274 154.69 173.253 159.312 167.16 89.3916 87.3264 34.5627 147.019 24.2751 92.1502 149.461 -12.368 132.101 148.34 -8.95703 80.5676 133.334 90.8522 94.861 137.91 92.458 85.2135 173.735 76.8677 13.8449 105.471 13.9672 
150.101 174.935 180 151.681 154.262 173.252 159.027 166.536 89.694 87.4679 32.9228 148.239 24.1408 90.0239 150.233 -12.6028 129.88 148.897 -8.94299 78.9435 134.597 90.6645 93.355 139.193 91.9758 83.6684 175.017 76.4604 14.0167 105.141 13.9903 
149.64 174.728 180 151.787 154.162 173.282 158.58 165.782 89.8485 87.7474 31.6952 149.457 23.904 89.0282 151.329 -12.8203 128.774 149.607 -9.33213 77.8198 135.045 90.1697 92.2065 139.506 91.4794 82.9365 175.59 76.2534 14.0532 105.076 13.8954 
149.779 174.212 180 152.004 154.38 173.503 157.728 164.85 89.9801 88.4192 30.1913 150.742 23.6221 87.6807 152.522 -12.962 127.479 150.785 -9.88022 76.7829 135.268 89.3322 90.7723 139.647 90.8154 82.0816 176.219 76.022 14.0677 104.782 13.9883 
150.442 173.565 180 152.155 154.84 173.731 157.289 164.301 90.3269 89.2495 29.0197 151.678 23.7008 85.8766 153.186 -12.9659 125.925 151.546 -10.2737 75.8298 135.563 89.021 89.5477 139.892 90.525 81.202 176.902 75.9273 14.0719 104.525 14.2587 
151.563 172.737 180 151.907 154.68 174.159 157.653 164.79 90.867 90.1791 27.8235 153.088 23.2297 84.5558 153.936 -13.6745 124.869 152.174 -11.0684 74.983 135.609 88.6845 88.5693 139.795 89.9948 80.3375 177.413 75.691 14.2094 104.277 14.4021 
153.182 171.958 178.977 151.62 154.353 174.668 158.159 165.117 91.2509 90.824 26.9317 153.661 22.9271 83.2905 154.532 -14.3246 123.624 152.408 -11.7317 74.2456 135.953 88.5804 87.7798 140.028 89.6715 79.5378 178.027 75.4586 14.3306 103.985 14.3392 
154.735 171.343 177.523 151.372 154 175.085 158.859 165.058 91.4128 91.0222 26.3299 153.831 22.6522 82.3351 155.22 -14.9107 122.627 152.594 -12.1595 73.7471 136.458 88.5555 87.2404 140.604 89.4933 78.7657 178.708 75.2919 14.4492 103.572 14.2097 
155.777 170.898 176.354 151.199 153.914 175.183 159.739 164.858 91.5569 91.3289 25.5107 154.536 22.4529 81.2885 155.913 -15.4927 121.489 152.739 -12.5398 73.1405 137.129 88.5328 86.5469 141.253 89.3708 78.0058 179.512 75.1386 14.4957 103.121 14.0841 
157.114 170.583 175.438 150.915 153.619 175.584 160.462 164.451 91.8571 91.6355 24.7644 154.886 22.246 80.1746 156.463 -15.9416 120.175 152.797 -12.797 72.2426 137.503 88.4375 85.6725 141.612 89.1232 77.1427 180.102 74.9993 14.5721 102.686 13.9356 
157.98 170.277 174.409 150.802 153.459 175.836 160.666 163.629 92.2236 92.0128 23.7339 155.445 22.0821 79.1318 156.876 -16.2405 118.75 152.728 -12.9173 71.3371 137.767 88.2905 84.7794 141.88 88.8167 76.2825 180.646 74.8712 14.6637 102.051 13.6729 
158.575 169.714 173.507 150.65 153.308 175.957 160.143 162.901 92.5914 92.3415 22.7777 155.811 21.9311 78.0334 156.892 -16.2501 117.454 152.864 -12.9758 70.725 138.067 88.221 84.202 142.293 88.55 75.396 181.188 74.7659 14.7618 101.414 13.5152 
158.87 169.102 172.799 150.176 152.891 176.133 160.283 162.655 92.8443 92.4129 22.1171 155.984 21.9692 77.1011 156.82 -16.4193 116.39 152.96 -13.0651 70.3144 138.585 88.3296 83.9398 142.947 88.4076 74.598 181.776 74.5958 14.8438 101.094 13.4003 
158.785 168.842 172.189 149.968 152.628 175.977 160.804 162.693 92.8533 92.2847 21.4626 156.251 22.0623 76.1396 156.947 -16.7692 115.459 152.999 -13.1398 69.9386 139.182 88.5954 83.6049 143.675 88.4561 73.7529 182.376 74.5019 14.9727 100.903 13.4291 
158.343 168.844 171.644 149.981 152.509 175.598 161.622 162.849 92.6796 92.2199 20.7899 156.717 22.0646 74.9703 157.264 -17.2564 114.547 152.885 -13.2108 69.4182 139.657 88.7404 83.0063 144.094 88.4666 72.8564 182.873 74.3572 15.0885 100.717 13.689 
158.101 168.973 171.199 150.434 152.764 174.988 162.523 162.867 92.2491 92.2357 19.965 157.579 22.0404 73.2434 158.249 -17.8568 113.434 153.047 -13.2211 68.7445 140.026 88.6307 82.0245 144.309 88.3771 71.9159 183.384 74.2403 15.184 100.543 14.3456 
157.596 169.038 170.889 150.996 153.079 174.598 163.374 162.948 91.7574 92.1891 19.2023 158.419 21.8658 72.0474 159.413 -18.4838 112.582 153.381 -13.305 67.8659 140.468 88.5112 80.9693 144.422 88.1553 71.0639 183.835 74.0521 15.4082 100.756 14.8027 
157.641 169.031 170.699 152.217 153.609 175.049 164.596 163.471 91.1455 91.946 17.5263 161.128 20.3399 71.4867 161.673 -20.0513 111.727 154.422 -14.3629 65.1082 141.484 87.4508 78.3344 144.716 86.9743 69.559 184.704 73.3137 15.7924 101.463 14.7012 
157.184 169.143 170.952 153.865 154.539 174.879 165.581 163.422 90.6367 91.824 16.1972 162.784 19.5935 72.2015 163.27 -20.8237 111.824 155.269 -14.869 63.7796 142.327 87.132 77.1061 144.91 86.3767 69.1262 185.174 72.951 16.2348 102.41 14.3093 
156.505 168.873 171.114 155.506 155.355 174.396 165.847 163.194 90.2272 91.7044 14.6018 164.303 18.9281 72.6522 164.266 -21.3675 111.554 155.977 -15.3145 62.6172 143.098 86.6585 76.0259 145.149 85.7547 68.6585 185.662 72.493 16.4885 102.991 13.8081 
155.796 168.204 170.891 156.903 156.005 173.924 165.107 162.567 89.7943 91.4801 13.0584 166.076 18.317 72.7981 165.035 -21.6387 111.104 156.958 -15.7791 61.7362 143.829 85.976 75.2328 145.474 84.9964 68.263 186.11 72.0452 16.6413 103.361 13.3212 
155.723 167.411 170.229 157.794 156.511 173.603 164.302 161.497 89.4694 91.4561 11.606 167.699 17.6055 73.0273 166.363 -21.9856 110.642 158.333 -16.2823 61.1421 144.371 84.9474 74.666 145.76 84.0564 67.8796 186.593 71.6506 16.6352 103.25 12.7864 
155.887 167.021 169.723 158.445 156.731 173.456 163.937 160.492 89.1725 91.307 10.3868 169.092 16.8257 73.2961 167.644 -22.4071 110.048 159.289 -16.7257 60.5374 144.896 84.0148 74.2002 146.026 83.1763 67.5017 187.049 71.2604 16.6442 102.95 12.1943 
156.208 167.048 169.359 158.875 156.814 173.486 163.766 159.881 89.0352 91.2264 9.47681 169.529 16.3604 73.2315 168.311 -22.7956 109.473 159.807 -17.0867 60.0433 145.364 83.6048 73.8958 146.299 82.6614 67.0755 187.406 70.9304 16.7353 102.913 11.8417 
157.03 167.138 169.14 159.131 156.916 173.899 163.808 159.63 88.7277 91.0111 8.79585 169.645 16.2404 72.5619 168.822 -22.9897 108.634 160.193 -17.2788 59.4355 145.978 83.323 73.461 146.666 82.3138 66.472 187.881 70.6953 16.6911 102.972 11.7112 
157.918 167.048 168.906 159.265 157.001 174.32 163.504 159.319 88.469 90.8236 8.30103 169.753 16.0104 71.7798 169.129 -23.1159 107.729 160.494 -17.5269 58.7367 146.471 82.8258 72.8593 146.958 81.8128 65.8921 188.241 70.3877 16.5997 102.893 11.5896 
158.256 166.723 168.61 159.47 157.309 174.451 162.878 158.083 88.4221 91.2856 7.35675 169.872 15.7238 71.0971 169.492 -23.6417 106.643 160.655 -17.9918 58.0208 146.646 82.0082 72.1077 146.972 81.3329 65.3795 188.31 69.8081 16.1429 102.873 11.3782 
158.659 166.659 168.247 159.485 157.132 174.53 162.315 157.418 88.429 91.1726 6.67783 170.034 15.1525 70.9117 170.007 -24.0376 105.919 160.9 -18.3485 57.4462 146.784 81.3347 71.6189 147.105 80.6896 64.8993 188.507 69.4665 16.1642 102.366 11.0488 
158.936 166.896 168.179 159.379 156.877 174.547 162.06 157.313 88.547 91.1574 5.9455 170.105 14.7501 70.2988 170.084 -24.4776 105.07 160.8 -18.7757 56.7871 146.95 81.0347 71.0966 147.245 80.2627 64.3236 188.7 69.1734 16.2941 102.016 10.9138 
159.244 167.071 168.237 159.087 156.552 174.588 161.984 157.471 88.7425 91.1162 5.34635 169.865 14.5393 69.5671 169.854 -24.8251 104.294 160.513 -19.0256 56.2512 147.166 81.0403 70.6651 147.56 80.1419 63.6975 188.975 68.951 16.405 101.702 10.9112 
160.028 167.275 168.122 158.637 156.268 174.922 162.174 157.635 88.7888 91.1496 4.83563 169.225 14.6734 68.1373 169.826 -25.0756 103.132 160.315 -19.1721 55.7133 147.407 81.0844 70.1632 147.861 80.0684 62.8224 189.294 68.8241 16.3774 101.418 11.1363 
160.707 167.364 167.78 158.271 156.024 175.259 162.367 157.447 88.7708 91.124 4.19565 168.839 14.7266 66.7265 170.19 -25.3469 101.809 160.226 -19.2932 54.9182 147.533 80.7387 69.3414 148.026 79.7592 61.9077 189.553 68.6559 16.2424 100.938 11.3221 
160.411 167.38 167.659 158.196 156.091 175.067 162.174 157.421 88.8573 91.1489 3.34448 168.547 14.661 65.0204 169.739 -25.6551 100.47 159.674 -19.498 53.9032 147.497 80.4901 68.2607 148.043 79.533 60.9986 189.562 68.3197 16.2123 100.625 11.68 
159.971 167.277 167.518 158.122 156.137 174.692 162.109 157.379 88.8662 91.1624 2.39307 168.525 14.6382 63.4664 169.755 -25.9601 99.3196 159.613 -19.6961 53.0188 147.515 80.267 67.278 148.143 79.3666 60.0724 189.65 68.0746 16.1795 100.496 12.0602 
160.224 167.061 167.041 157.697 155.897 174.622 162.278 156.945 88.8438 91.1828 1.20028 168.513 14.6575 61.6675 170.449 -26.2994 97.6352 159.568 -19.9462 52.0136 147.436 79.6741 66.11 148.121 78.9002 59.0378 189.776 67.8339 15.98 99.9282 12.3441 
160.053 166.922 166.55 157.566 155.94 174.252 162.391 156.552 88.8198 91.1737 -0.264457 168.698 14.6108 59.8359 170.896 -26.7475 95.8616 159.267 -20.2905 50.8381 147.304 79.0506 64.7769 148.015 78.3965 58.0735 189.774 67.5019 15.896 99.3774 12.6491 
159.57 166.864 166.195 157.35 155.905 173.773 162.625 156.297 88.7655 91.183 -1.64403 168.843 14.6361 58.0731 171.249 -27.1035 94.4789 159.151 -20.4476 49.9643 147.094 78.5828 63.6636 147.969 78.1302 57.0754 189.774 67.2558 15.7576 98.9431 13.1403 
159.604 166.699 165.692 156.76 155.59 173.621 162.778 155.841 88.6766 91.0866 -3.07248 168.845 14.7059 56.2701 171.879 -27.3737 92.736 159.09 -20.6798 49.0133 146.87 77.8789 62.5239 147.885 77.6674 55.9711 189.808 67.0175 15.4976 98.2338 13.4048 
159.244 166.297 165.184 156.465 155.53 173.156 162.672 155.353 88.3491 91.1441 -4.60125 168.825 14.6813 54.5944 172.396 -27.7259 91.1435 159.177 -21.0234 48.0527 146.589 76.9092 61.202 147.666 77.1393 54.884 189.733 66.6904 15.2309 97.5492 13.6544 
158.632 166.02 164.75 155.999 155.203 172.707 162.411 154.82 88.1417 91.198 -5.9588 168.535 14.5418 53.1952 172.497 -27.9681 89.7939 159.182 -21.2059 47.2417 146.114 76.0349 60.0898 147.338 76.6891 53.7847 189.502 66.3633 14.9729 96.8845 13.8062 
158.331 165.701 164.186 155.457 154.906 172.441 162.067 154.24 87.8295 91.28 -7.46139 168.286 14.5168 51.775 172.812 -28.2057 88.2453 159.344 -21.4672 46.4351 145.676 75.0805 58.9284 147.028 76.2003 52.5953 189.311 66.1024 14.7212 96.1277 13.8332 
158.356 165.642 163.79 154.857 154.719 172.368 161.73 153.942 87.8272 91.3509 -8.65121 167.914 14.8706 50.2478 173.031 -28.2164 86.6928 159.511 -21.6215 45.3992 145.486 74.5466 57.6752 147.022 76.0307 51.4552 189.381 66.0028 14.5 95.6514 13.8567 
157.893 165.353 163.111 154.195 154.315 172.227 161.172 153.277 87.4521 91.2982 -10.037 167.651 14.9951 48.7523 172.731 -28.267 84.921 159.163 -21.7359 44.3335 144.939 73.6174 56.4119 146.446 75.5684 50.1872 189.019 65.7909 14.1949 94.7743 13.7314 
157.759 165.67 162.495 153.576 153.898 172.131 161.117 153.19 87.2571 91.1732 -11.5145 167.661 15.174 47.3586 172.75 -28.476 83.3909 158.936 -22.0615 43.1013 144.454 72.8933 55.1112 145.971 75.2151 48.9983 188.725 65.7083 13.9434 94.208 13.7004 
158.427 165.798 161.909 153.017 153.74 172.286 161.189 153.15 86.921 91.0653 -12.7007 167.356 15.5591 45.9318 172.612 -28.4522 81.8109 158.589 -22.1452 41.9017 144.352 72.4497 53.7898 145.767 75.0727 47.8057 188.736 65.6925 13.7137 93.6937 13.611 
158.337 165.646 161.124 152.531 153.577 172.056 160.941 152.955 86.2324 91.2321 -14.1955 167.074 15.7097 44.5922 172.167 -28.6334 80.2632 158.327 -22.4596 40.7855 144.046 71.4934 52.3812 145.17 74.6689 46.6162 188.437 65.4909 13.3629 93.0527 13.4125 
159.015 165.651 160.564 151.651 153.576 171.956 161.098 153.112 85.8943 91.2617 -15.443 166.955 15.813 43.3362 172.324 -28.7921 79.0635 158.506 -22.8022 39.7042 143.957 70.6355 51.0403 145.027 74.3291 45.4956 188.527 65.3634 13.0506 92.5305 13.3753 
159.942 165.535 159.74 150.679 153.579 171.801 161.145 153.067 85.3898 91.4485 -16.689 166.845 15.9778 42.0469 172.179 -28.9024 77.6633 158.467 -23.0297 38.7429 143.942 69.6876 49.6969 144.838 74.0055 44.4048 188.688 65.2075 12.6867 91.6969 13.2315 
160.069 165.283 159.068 149.615 153.564 171.422 160.787 152.928 84.7283 91.8764 -17.977 166.394 15.9399 40.934 171.639 -29.1528 76.4569 158.429 -23.4236 38.0256 143.603 68.3671 48.4529 144.297 73.5612 43.3882 188.44 64.9244 12.2333 90.719 13.0442 
160.444 165.599 158.939 149.066 154.122 171.021 160.756 152.63 84.3093 92.532 -19.3763 166.016 16.3224 39.5492 171.29 -29.5793 75.2191 158.463 -23.9156 37.0908 143.303 67.3286 47.1245 143.871 73.5584 42.3478 188.284 64.6211 11.5573 90.4443 13.0715 
160.732 165.766 158.535 147.737 154.42 170.736 160.594 152.889 84.3799 92.5147 -20.354 165.909 16.4543 38.8779 171.279 -29.7846 74.6838 158.832 -24.1079 36.8568 143.078 66.5406 46.4983 144.098 73.6364 41.5582 188.56 64.5937 11.3371 89.5033 13.0829 
160.882 165.748 158.411 146.507 154.417 170.4 160.259 153.31 84.0109 92.8492 -21.2975 165.965 16.3397 38.1792 170.917 -29.953 73.944 159.1 -24.4768 36.5683 142.874 65.1345 45.6841 143.876 73.2966 40.803 188.614 64.444 10.9829 88.1358 12.8889 
161.009 165.593 158.307 145.119 154.453 170.2 159.898 153.601 83.8308 93.0766 -22.1021 165.858 16.1244 37.4583 170.479 -30.1056 73.1068 159.247 -24.8992 36.3285 142.428 63.674 44.8566 143.548 72.8564 40.0846 188.492 64.2397 10.8952 86.6847 12.6671 
161.486 165.481 157.937 143.709 154.412 169.901 159.729 153.61 83.9975 93.3853 -22.8775 165.673 15.8462 36.8168 170.505 -30.4257 72.4303 159.732 -25.3976 36.0819 141.935 62.0569 44.0669 143.263 72.2876 39.3848 188.463 64.009 10.9227 85.2376 12.5548 
161.862 165.487 158.079 143.245 154.441 169.667 159.855 153.797 84.9816 93.1519 -23.5629 165.649 15.5046 36.4108 170.405 -30.7499 71.7982 159.694 -25.8113 35.4872 141.376 61.2875 43.4117 143.369 72.0404 38.7838 188.558 63.7898 11.0946 84.2919 12.3508 
161.959 165.615 158.36 142.895 154.287 169.698 160.102 154.106 85.6387 93.2122 -24.188 165.545 15.1671 35.9601 169.971 -31.0376 71.3597 159.588 -26.1293 35.1554 140.797 60.9109 42.9612 143.175 71.7867 38.1287 188.471 63.586 11.2772 83.8196 12.2729 
161.882 165.75 158.848 142.632 154.104 169.847 160.413 154.612 85.8942 93.2877 -24.7432 165.464 14.7583 35.4169 169.455 -31.3851 71.024 159.513 -26.5368 34.9599 140.293 60.6299 42.6155 142.848 71.5197 37.4531 188.245 63.3555 11.4093 83.6413 12.314 
161.894 165.849 159.266 142.807 154.002 169.941 160.585 154.984 86.192 93.1717 -25.3159 165.188 14.3275 34.8691 169.065 -31.7066 70.6695 159.543 -26.9938 34.5554 140.002 60.5291 42.2698 142.784 71.2602 36.8355 188.1 63.0457 11.4855 83.8618 12.3525 
