176.644 151.005 168.883 168.449 160.718 177.271 125.894 159.089 161.185 143.844 -51.3508 219.894 -12.8715 -12.4569 232.553 -12.5575 20.478 221.314 -50.6562 47.1355 213.888 -34.6868 48.0613 214.035 5.29449 -7.38408 174.789 32.778 14.3478 8.07732 33.5259 
176.558 151.472 168.912 168.34 159.569 177.403 126.352 159.233 161.185 142.43 -52.0455 220.485 -12.8274 -12.3196 232.962 -13.2954 20.4985 221.781 -50.7475 47.0424 214.452 -34.623 47.1058 214.826 6.11971 -7.59347 175.189 32.7036 15.3671 7.99689 32.907 
176.586 151.975 168.98 168.267 158.346 177.513 127.054 159.354 161.176 141.229 -52.6141 221.014 -12.8564 -12.1883 233.356 -14.2111 20.4656 222.235 -50.8218 46.8918 215.009 -34.5892 46.3051 215.543 6.79517 -7.78019 175.567 32.6104 16.1997 7.90988 32.1296 
176.741 152.484 169.034 168.208 157.096 177.547 127.917 159.447 161.172 139.874 -53.1893 221.563 -12.8305 -12.1139 233.896 -15.1923 20.2925 222.847 -50.8326 46.688 215.56 -34.6097 45.4036 216.285 7.56087 -7.97681 175.974 32.5069 17.239 7.89835 31.2141 
176.913 153.014 169.04 168.169 156.345 177.483 127.895 159.468 161.152 139.279 -53.5439 222.188 -12.7325 -12.3272 234.532 -15.218 20.04 223.525 -50.8168 46.4179 216.021 -34.752 44.9144 216.892 7.82871 -8.19301 176.44 32.3836 17.7981 7.91855 31.1388 
177.109 153.331 169.006 168.154 156.399 177.376 127.812 159.538 161.179 139.463 -53.8298 222.924 -12.5586 -12.5028 235.32 -15.192 19.7318 224.43 -50.8073 46.1552 216.58 -34.9687 44.825 217.427 7.70982 -8.43005 176.974 32.2337 17.8889 7.98595 31.0116 
177.333 153.31 168.94 168.215 157.497 177.298 127.717 159.559 161.257 140.529 -53.9757 223.851 -12.264 -12.699 236.185 -15.1496 19.4345 225.469 -50.6664 45.9613 217.027 -35.2212 45.2831 217.675 7.16681 -8.69234 177.485 32.0743 17.4257 8.14466 30.7661 
177.527 153.249 168.867 168.319 159.237 177.235 127.782 159.575 161.341 141.986 -54.0038 224.624 -12.1749 -12.9185 236.921 -15.3332 19.1181 226.247 -50.7264 45.765 217.334 -35.5844 45.9145 217.823 6.31156 -8.96162 177.982 31.8914 16.709 8.30344 30.5312 
177.641 153.334 168.748 168.401 160.772 177.258 128.274 159.523 161.412 143.428 -53.9615 225.261 -12.1629 -13.1784 237.588 -15.8715 18.8247 226.888 -50.8736 45.5457 217.592 -36.0435 46.5545 217.931 5.35986 -9.20037 178.395 31.6433 15.9613 8.43617 30.1439 
177.838 153.593 168.661 168.567 162.511 177.274 128.884 159.407 161.536 144.858 -53.7988 225.647 -12.2612 -13.4391 238.181 -16.3976 18.4825 227.522 -50.9411 45.3018 217.856 -36.4997 47.0297 218.093 4.45071 -9.4144 178.759 31.4041 15.3237 8.60451 29.7146 
177.968 153.88 168.605 168.695 163.474 177.241 129.183 159.323 161.621 145.908 -53.4747 225.972 -12.3123 -13.7241 238.693 -16.5195 18.1701 227.946 -51.0798 45.0707 217.903 -36.996 47.4394 218.141 3.61124 -9.60162 179.079 31.2255 14.8339 8.77812 29.7142 
178.093 154.491 168.563 168.996 164.341 177.228 129.049 159.219 161.828 147.671 -52.7842 226.372 -12.7701 -14.4735 239.406 -16.2647 17.5061 228.658 -51.578 44.5478 218.21 -38.0628 48.2441 218.274 1.78338 -9.83693 179.601 30.7425 13.664 9.03094 30.322 
177.926 153.891 168.517 169.159 164.69 177.216 128.902 159.101 161.91 148.614 -52.4221 226.377 -12.9897 -14.7007 239.402 -16.3046 17.2695 228.777 -51.7624 44.4299 218.321 -38.4156 48.8439 218.126 0.815824 -9.80036 179.725 30.5714 12.8367 9.12344 30.4297 
177.666 153.735 168.374 169.225 164.959 177.214 128.764 158.886 161.879 149.162 -52.3098 226.46 -13.2876 -14.8331 239.535 -16.3167 17.0124 229.036 -51.9252 44.2431 218.655 -38.6928 49.1614 218.201 0.0560229 -9.76824 179.954 30.3475 12.2144 9.15814 30.5547 
177.352 153.548 168.237 169.165 165.079 177.185 128.477 158.696 161.756 149.345 -52.3391 226.734 -13.4141 -14.8618 239.732 -16.2754 16.8513 229.258 -52.1363 44.0945 218.966 -38.9392 49.2868 218.371 -0.462771 -9.69876 180.259 30.1599 11.9082 9.13195 30.7608 
177.043 153.101 168.166 169.154 165.067 177.216 128.406 158.592 161.749 149.446 -52.4444 227.077 -13.5027 -14.7207 239.956 -16.613 16.8227 229.551 -52.3502 44.0776 219.323 -39.1891 49.4389 218.634 -0.864208 -9.56761 180.623 30.0114 11.7094 9.11218 30.6059 
176.864 152.867 168.141 169.213 165.099 177.295 128.492 158.581 161.844 149.733 -52.5825 227.543 -13.4964 -14.5708 240.285 -16.9741 16.8596 229.966 -52.52 44.1312 219.801 -39.4058 49.7621 218.914 -1.28949 -9.38049 180.99 29.8794 11.4037 9.08755 30.3865 
176.781 152.853 168.104 169.312 165.025 177.362 128.8 158.582 161.968 149.869 -52.8373 228.126 -13.4034 -14.3721 240.749 -17.3975 17.009 230.483 -52.6117 44.3102 220.497 -39.4514 50.1102 219.368 -1.50304 -9.13045 181.405 29.7617 11.168 9.0189 30.0954 
176.943 153.057 168.044 169.446 165.043 177.413 129.052 158.565 162.093 150.164 -53.1772 228.79 -13.3355 -14.2539 241.3 -17.7109 17.0878 231.076 -52.6603 44.4475 221.243 -39.4699 50.6114 219.791 -1.81593 -8.87738 181.892 29.6563 10.7839 8.97893 29.8785 
177.302 153.281 167.894 169.615 165.162 177.392 128.877 158.409 162.195 150.626 -53.387 229.505 -13.2411 -14.2765 241.974 -17.4691 17.0381 231.954 -52.4802 44.4567 222.052 -39.5453 51.1542 220.194 -2.33256 -8.66087 182.427 29.5321 10.258 9.02858 29.9118 
177.588 153.435 167.731 169.728 165.302 177.348 128.447 158.182 162.171 151.101 -53.4929 229.943 -13.2887 -14.4305 242.403 -17.1527 16.9812 232.562 -52.3774 44.4549 222.778 -39.5451 51.7443 220.525 -2.92496 -8.44169 182.9 29.396 9.62214 9.02899 30.155 
177.831 153.572 167.551 169.783 165.345 177.326 128.137 157.957 162.108 151.32 -53.4026 230.271 -13.3538 -14.575 242.725 -16.844 16.945 233.074 -52.2582 44.4479 223.373 -39.5341 52.1148 220.864 -3.2662 -8.24876 183.22 29.2609 9.24688 9.04163 30.3888 
178.04 153.512 167.484 169.858 165.471 177.27 127.767 157.819 162.092 151.72 -53.2277 230.389 -13.5203 -14.7366 242.908 -16.491 16.8927 233.485 -52.1433 44.4411 223.895 -39.4879 52.578 221.09 -3.6856 -8.06413 183.488 29.1765 8.74729 9.05986 30.645 
178.19 153.424 167.457 169.932 165.584 177.201 127.471 157.741 162.1 152.037 -52.9332 230.321 -13.7578 -14.812 242.966 -16.1624 16.9249 233.732 -52.0476 44.4827 224.274 -39.4183 52.9256 221.287 -3.98217 -7.88508 183.69 29.1496 8.3516 9.06204 30.9021 
178.35 153.158 167.464 170.01 165.738 177.193 127.47 157.721 162.157 152.406 -52.7307 230.214 -13.9613 -14.8435 242.984 -16.1431 16.9566 233.942 -51.9565 44.5499 224.515 -39.4127 53.3424 221.368 -4.27405 -7.71474 183.829 29.158 8.01153 9.11251 30.8465 
178.478 153.024 167.419 170.061 165.946 177.17 127.598 157.639 162.201 152.806 -52.4117 230.155 -14.0939 -14.8293 243.077 -16.1493 16.9427 234.249 -51.7536 44.5881 224.712 -39.4484 53.7309 221.398 -4.6016 -7.54632 183.969 29.1669 7.70768 9.22454 30.6476 
178.552 152.904 167.278 170.03 166.088 177.141 127.967 157.438 162.156 153.124 -52.0473 230.134 -14.1413 -14.7158 243.209 -16.3461 16.8876 234.625 -51.4136 44.6126 224.874 -39.4463 54.1574 221.353 -4.89361 -7.36574 184.105 29.224 7.4277 9.39319 30.1396 
178.559 152.822 167.125 169.932 166.28 177.168 128.494 157.263 162.099 153.49 -51.6342 230.112 -14.1469 -14.5393 243.314 -16.7502 16.905 234.971 -51.0731 44.6874 225.031 -39.3867 54.5828 221.33 -5.09149 -7.16953 184.215 29.3123 7.19812 9.54604 29.4613 
178.613 152.879 166.948 169.824 166.521 177.2 129.126 157.095 162.057 153.87 -51.0861 230.163 -14.1766 -14.2469 243.521 -17.1553 16.9907 235.405 -50.709 44.8226 225.232 -39.3428 54.9849 221.345 -5.27955 -6.95513 184.34 29.3807 6.98707 9.70929 28.744 
178.627 153.107 166.765 169.716 166.796 177.246 129.608 156.903 161.994 154.148 -50.3564 230.147 -14.2084 -13.9517 243.706 -17.3303 17.17 235.813 -50.2791 45.0099 225.425 -39.2302 55.2083 221.491 -5.29727 -6.73005 184.438 29.4624 6.8689 9.85783 28.2123 
178.556 153.472 166.596 169.589 166.97 177.286 129.945 156.74 161.938 154.293 -49.6185 230.036 -14.2408 -13.7786 243.826 -17.3319 17.3697 236.11 -49.9387 45.186 225.571 -39.1512 55.3007 221.709 -5.22772 -6.52705 184.475 29.519 6.8457 9.97927 27.96 
178.462 153.955 166.475 169.537 167.141 177.343 130.092 156.635 161.935 154.39 -48.927 229.958 -14.2529 -13.6379 243.937 -17.0003 17.5768 236.383 -49.6174 45.3305 225.696 -39.0837 55.2874 221.938 -5.09277 -6.3474 184.481 29.5813 6.86767 10.0837 28.0086 
178.316 154.268 166.471 169.488 167.267 177.409 130.074 156.672 161.947 154.444 -48.3359 229.9 -14.2385 -13.5696 243.959 -16.6217 17.8071 236.43 -49.5344 45.4579 225.753 -39.0369 55.2159 222.167 -4.93226 -6.18691 184.497 29.6807 6.92672 10.0707 28.3046 
178.117 154.409 166.506 169.481 167.296 177.489 129.733 156.744 161.973 154.365 -47.8177 229.887 -14.2376 -13.4964 243.958 -15.99 18.0195 236.479 -49.5269 45.559 225.803 -39.0582 55.1079 222.381 -4.80091 -6.0255 184.501 29.7347 7.01752 10.0458 28.8464 
178.031 154.326 166.588 169.502 167.349 177.57 129.481 156.87 162.052 154.324 -47.1009 229.895 -14.1949 -13.4357 243.852 -15.476 18.299 236.303 -49.5761 45.7449 225.673 -39.0662 55.0056 222.526 -4.57704 -5.86983 184.46 29.8601 7.19201 10.0038 29.3757 
177.949 154.124 166.691 169.553 167.339 177.64 129.17 157.018 162.152 154.157 -46.4732 229.957 -14.0735 -13.3741 243.793 -14.8713 18.5475 236.213 -49.5932 45.9351 225.579 -39.0774 54.8217 222.716 -4.28484 -5.70741 184.416 29.9929 7.44304 9.98736 29.9138 
177.912 153.866 166.868 169.603 167.264 177.705 128.733 157.256 162.252 154.007 -45.8724 229.948 -13.9304 -13.342 243.65 -14.187 18.9533 235.874 -49.7459 46.2343 225.359 -39.0319 54.7903 222.79 -3.94302 -5.52399 184.353 30.1647 7.7147 9.86893 30.71 
177.826 153.526 167.07 169.658 167.252 177.747 128.091 157.565 162.365 153.982 -45.3463 230.017 -13.7087 -13.3712 243.533 -13.3682 19.4183 235.526 -49.9509 46.6092 225.167 -38.9448 54.9466 222.787 -3.64526 -5.33166 184.294 30.3326 7.90754 9.71918 31.6901 
177.75 153.221 167.325 169.769 167.281 177.817 127.234 157.901 162.525 153.991 -44.839 229.933 -13.546 -13.3922 243.339 -12.3233 19.9399 235.09 -50.1865 47.0301 224.859 -38.9016 55.1452 222.73 -3.40091 -5.10903 184.226 30.511 8.10152 9.59061 32.9096 
177.652 152.795 167.649 169.886 167.314 177.904 126.215 158.303 162.684 154.015 -44.3816 229.739 -13.386 -13.4658 243.017 -11.2269 20.5025 234.486 -50.5264 47.498 224.507 -38.8174 55.3763 222.635 -3.13616 -4.86389 184.1 30.6828 8.28398 9.40929 34.3179 
177.469 152.358 167.969 170.032 167.265 177.979 124.697 158.672 162.85 153.958 -44.057 229.544 -13.2056 -13.7216 242.606 -9.65791 20.984 233.881 -50.8699 47.8703 224.083 -38.8434 55.5583 222.526 -2.93992 -4.6427 183.961 30.8192 8.51978 9.27418 36.1782 
177.28 151.816 168.332 170.245 167.405 178.025 123.063 159.097 163.072 154.205 -43.7752 229.418 -12.9677 -14.0186 242.144 -7.9781 21.4466 233.224 -51.2235 48.2633 223.615 -38.8525 55.9677 222.243 -2.88056 -4.42449 183.794 30.9557 8.59171 9.14932 38.1747 
177.125 151.218 168.711 170.448 167.696 178.029 121.477 159.554 163.319 154.601 -43.6213 229.473 -12.6843 -14.3147 241.771 -6.3853 21.839 232.67 -51.6235 48.6229 223.217 -38.9168 56.3946 221.98 -2.92848 -4.22876 183.723 31.0829 8.5952 9.05229 40.1194 
176.955 150.458 169.046 170.68 168.087 178.043 120.149 159.903 163.536 155.046 -43.5207 229.518 -12.4091 -14.4602 241.35 -5.26957 22.2002 232.094 -51.9517 48.9618 222.855 -38.9229 56.8788 221.631 -3.00877 -4.02239 183.627 31.2229 8.4904 8.9388 41.566 
176.857 149.816 169.343 170.932 168.378 178.028 119.072 160.137 163.714 155.345 -43.4015 229.599 -12.2708 -14.4846 240.963 -4.41663 22.4927 231.608 -52.2085 49.2169 222.584 -38.9452 57.3017 221.328 -3.15011 -3.78839 183.575 31.3409 8.33073 8.82988 42.6797 
176.792 148.97 169.567 171.155 168.718 177.987 118.382 160.314 163.835 155.689 -43.3432 229.723 -12.1272 -14.2633 240.666 -4.05624 22.7626 231.146 -52.4157 49.4685 222.317 -38.9174 57.8066 220.932 -3.31369 -3.55037 183.548 31.4914 8.10016 8.72335 43.2254 
176.783 148.164 169.734 171.304 168.91 177.908 118.084 160.454 163.911 155.936 -43.3681 229.96 -11.9735 -13.938 240.56 -4.23523 23.0348 230.789 -52.5739 49.7383 222.235 -38.8029 58.3152 220.693 -3.43272 -3.28883 183.658 31.6603 7.86059 8.59271 43.2216 
176.833 147.561 169.859 171.441 169.072 177.834 118.176 160.539 163.937 156.168 -43.3609 230.218 -11.9102 -13.5322 240.549 -4.79347 23.1797 230.577 -52.665 49.8913 222.321 -38.6796 58.7988 220.528 -3.65981 -3.02655 183.84 31.8268 7.50636 8.46846 42.7369 
176.718 147.214 169.874 171.526 169.251 177.83 118.314 160.516 163.895 156.409 -43.2902 230.366 -11.8526 -13.2071 240.479 -5.38066 23.3095 230.398 -52.686 50.0247 222.491 -38.514 59.1653 220.472 -3.87892 -2.73422 183.991 31.9872 7.12884 8.35045 42.2034 
176.595 147.127 169.835 171.55 169.288 177.806 118.601 160.42 163.778 156.489 -43.1932 230.46 -11.7984 -12.9256 240.425 -5.96717 23.471 230.327 -52.6091 50.1772 222.771 -38.2705 59.5532 220.496 -4.00151 -2.40547 184.08 32.1089 6.78368 8.2405 41.6265 
176.607 147.19 169.755 171.537 169.242 177.807 119.312 160.258 163.622 156.527 -43.0068 230.166 -11.9304 -12.6296 240.236 -6.91234 23.7283 230.09 -52.4663 50.3963 222.991 -37.9498 59.956 220.496 -4.06278 -2.02429 184.044 32.2245 6.43068 8.11046 40.7419 
176.761 147.489 169.653 171.559 169.078 177.804 120.321 160.162 163.592 156.562 -42.6681 229.769 -12.1528 -12.2097 240.225 -7.94003 24.0546 230.092 -52.2623 50.6966 223.273 -37.7128 60.373 220.653 -4.05471 -1.59459 184.055 32.3254 6.20261 8.04952 39.6702 
176.96 147.966 169.518 171.559 168.906 177.818 121.597 159.985 163.539 156.641 -42.1004 229.352 -12.3361 -11.6628 240.318 -8.86337 24.3499 230.254 -51.8957 50.9841 223.431 -37.5214 60.8867 220.639 -4.10328 -1.16872 184.019 32.4377 5.99156 8.08204 38.4974 
177.131 148.615 169.369 171.48 168.778 177.87 123.237 159.783 163.495 156.774 -41.2664 228.656 -12.6921 -11.0888 240.347 -10.2019 24.8638 230.201 -51.6122 51.454 223.515 -37.3281 61.4892 220.704 -4.10971 -0.656787 183.967 32.519 5.83312 8.08421 37.1903 
177.235 149.669 169.265 171.468 168.885 177.967 124.494 159.63 163.548 157.16 -39.8037 227.951 -12.9955 -10.6154 240.352 -10.6345 25.4286 230.155 -51.3561 51.9097 223.456 -37.3361 62.0742 220.62 -4.35331 -0.102041 183.787 32.5255 5.62699 8.10439 36.7343 
177.277 150.494 169.253 171.564 169.066 178.109 124.942 159.628 163.737 157.626 -38.1488 227.407 -13.2044 -10.2603 240.315 -10.1681 26.1448 230.11 -51.235 52.5082 223.27 -37.5041 62.761 220.427 -4.64485 0.484243 183.544 32.447 5.50685 8.15078 37.1851 
177.219 150.893 169.332 171.796 169.254 178.193 124.599 159.769 164.054 158.166 -36.4558 227.011 -13.2608 -10.1244 240.135 -9.16933 26.8108 229.93 -51.3095 53.1461 222.904 -37.8497 63.5586 220.111 -5.07073 1.10569 183.314 32.3524 5.45307 8.26789 38.287 
176.986 150.979 169.399 172.143 169.564 178.16 123.774 159.924 164.382 158.706 -34.9344 226.86 -13.2327 -10.0388 239.873 -7.88044 27.3912 229.769 -51.507 53.7683 222.483 -38.3193 64.2874 219.741 -5.62815 1.72069 183.064 32.1757 5.38087 8.44602 39.7116 
176.696 150.847 169.445 172.539 169.794 178.073 122.985 160.064 164.728 159.035 -33.5479 227.008 -13.3507 -9.93123 239.63 -7.05008 27.8834 229.59 -51.9462 54.3376 222.199 -38.9567 64.8079 219.628 -6.25375 2.36786 182.953 31.8765 5.33166 8.58551 40.9308 
176.484 150.286 169.464 172.924 169.915 178.044 122.39 160.226 165.077 159.287 -32.5568 227.448 -13.4844 -9.80278 239.431 -6.94785 28.0859 229.511 -52.4991 54.663 222.056 -39.7209 65.2515 219.631 -7.00601 2.93161 183.014 31.6084 5.30695 8.72207 41.4577 
176.39 149.57 169.297 172.974 169.793 178.053 122.133 160.123 165.06 159.134 -32.0667 227.646 -13.8034 -9.34071 239.09 -7.85989 28.3869 229.277 -52.8678 55.0178 222.003 -40.0919 65.6069 219.747 -7.41541 3.52305 183.14 31.4732 5.23428 8.74078 40.9684 
176.387 149.134 169.062 172.983 169.642 178.033 122.542 159.874 164.936 158.938 -31.5017 227.376 -14.1921 -8.91135 238.51 -9.30605 28.6002 228.609 -53.0817 55.2411 221.545 -40.3665 65.9023 219.506 -7.839 4.02435 183.055 31.4277 5.13218 8.75144 39.9587 
176.472 149.12 168.857 173.024 169.59 178.037 123.595 159.649 164.929 158.914 -30.7358 226.663 -14.6366 -8.44122 237.952 -10.8651 28.8188 227.905 -53.1197 55.475 220.987 -40.577 66.1911 219.157 -8.19755 4.44814 182.824 31.4249 5.03085 8.80276 38.696 
176.492 149.465 168.617 173.126 169.618 177.932 124.761 159.405 165.073 159.137 -29.5269 225.573 -15.1089 -8.1053 237.435 -12.0929 28.9262 227.437 -53.0014 55.6977 220.507 -40.8783 66.4871 218.907 -8.69072 4.88538 182.545 31.3938 4.90032 9.02077 37.5797 
176.367 149.858 168.357 173.318 169.717 177.707 125.761 159.137 165.34 159.46 -28.0237 224.195 -15.6257 -7.73109 236.783 -13.0698 29.1266 227.044 -52.7682 56.0611 219.99 -41.167 66.8084 218.665 -9.14407 5.37078 182.154 31.3655 4.74391 9.36343 36.596 
176.122 150.234 168.131 173.657 169.842 177.329 126.687 158.878 165.722 159.795 -26.3343 222.693 -16.1545 -7.35335 236.068 -13.992 29.3018 226.745 -52.5727 56.4486 219.489 -41.5813 67.0958 218.456 -9.66834 5.88278 181.702 31.2399 4.59774 9.80073 35.6623 
175.794 150.706 167.959 174.123 170.016 176.952 127.275 158.686 166.166 160.133 -24.5868 221.463 -16.4672 -7.09926 235.423 -14.2875 29.4138 226.46 -52.445 56.8082 218.84 -42.0913 67.3724 217.994 -10.2267 6.35479 181.11 31.0449 4.49102 10.2808 35.2731 
175.485 150.926 167.795 174.598 170.119 176.682 127.766 158.554 166.537 160.331 -22.9983 220.626 -16.6445 -6.7723 234.849 -14.5871 29.6899 225.96 -52.5155 57.2712 218.041 -42.5705 67.727 217.373 -10.6829 6.82118 180.512 30.8076 4.45242 10.6276 35.1002 
175.177 151.017 167.609 174.917 170.101 176.455 127.982 158.314 166.76 160.344 -21.5908 220.017 -16.9521 -6.56382 234.237 -15.0653 29.7312 225.509 -52.7506 57.5715 217.361 -43.2398 67.9699 216.91 -11.3416 7.34009 180.01 30.4211 4.42572 10.9935 34.8871 
174.818 150.959 167.357 175.197 170.021 176.174 128.222 158.071 166.994 160.463 -20.3764 219.599 -17.3938 -6.41261 233.599 -16.0281 29.6225 225.056 -53.3486 57.7909 216.756 -44.2429 68.2362 216.592 -12.3605 7.91623 179.658 29.8869 4.39988 11.3889 34.5262 
174.367 149.934 166.87 175.227 169.907 175.542 128.731 157.865 166.977 160.177 -18.6847 217.473 -19.1053 -5.54874 231.373 -19.2304 30.1868 223.128 -55.3231 58.4088 215.612 -46.0184 68.382 216.173 -14.1261 9.24536 178.59 28.6268 4.22707 11.2651 33.4052 
173.967 149.739 166.737 174.938 169.666 175.055 129.171 158.118 166.875 159.857 -18.6253 216.09 -20.2737 -4.98807 230.037 -21.2897 31.1033 221.486 -56.9571 58.8766 215.108 -46.9103 68.3776 216.289 -14.9217 10.1128 178.092 28.0006 4.19116 10.6027 33.219 
173.671 150.119 166.967 174.886 169.442 174.817 130.099 158.444 166.917 159.559 -18.3398 214.999 -21.3375 -4.01895 229.367 -22.8567 32.1464 220.258 -58.1427 59.5826 214.557 -47.687 68.948 216.176 -15.6083 11.1096 177.79 27.4894 4.27033 10.165 33.0334 
173.419 150.677 167.087 174.907 169.365 174.455 131.056 158.519 167.015 159.728 -17.2832 213.461 -22.0169 -3.45715 228.77 -23.9156 32.6768 219.34 -58.7481 60.1118 213.989 -48.2459 69.7628 215.943 -16.3065 12.0278 177.574 27.2342 4.28799 10.1355 32.812 
172.635 151.103 167.159 174.726 169.423 173.384 131.465 158.461 166.976 160.266 -15.4277 211.463 -22.6294 -3.23593 227.665 -24.8907 32.8383 218.378 -59.5945 60.2855 213.417 -49.2258 70.5503 215.552 -17.7566 13.0521 177.202 26.7644 4.09565 10.2129 32.758 
171.872 151.353 167.054 174.369 169.718 172.3 131.74 158.573 166.824 160.747 -13.5668 209.464 -23.5882 -2.46788 226.52 -25.9835 33.7639 217.188 -60.8762 60.9213 212.949 -50.2399 71.3084 215.177 -19.1663 14.2588 176.574 25.9541 3.83835 9.90031 33 
172.128 150.773 166.791 173.927 170.058 171.873 132.105 158.869 166.765 161.143 -12.3856 206.886 -24.9036 -0.880109 225.251 -27.9504 35.6757 216.25 -62.2815 62.3128 213.028 -50.946 72.3477 215.31 -19.9699 15.7862 175.835 25.0377 3.61748 9.29173 32.5903 
171.95 149.614 166.969 173.777 170.191 171.282 132.893 159.246 166.764 161.32 -11.2162 206.42 -25.3156 0.582299 224.948 -29.5827 37.0977 216.183 -62.6607 63.3105 213.39 -51.1145 73.5391 215.499 -20.2899 17.0869 175.92 24.8442 3.55759 8.87124 31.4917 
172.022 150.361 167.325 173.525 170.237 170.469 134.307 159.533 166.627 161.684 -9.54223 204.457 -25.8454 1.63557 224.257 -31.461 37.8488 215.768 -63.3107 63.7941 213.443 -51.7246 74.6276 215.569 -21.2626 18.317 175.951 24.5945 3.6302 8.67305 30.364 
172.161 151.474 167.484 173.195 170.416 169.32 135.077 159.779 166.527 162.262 -7.6517 202.754 -26.2561 2.46876 223.386 -32.5742 38.5424 214.929 -64.234 64.2431 213.097 -52.6549 75.6282 215.287 -22.5601 19.4708 175.697 24.2015 3.77106 8.50757 30.1678 
173.089 152.225 167.353 172.832 170.68 168.675 135.151 159.742 166.441 162.87 -5.99844 200.866 -27.1792 3.53108 222.263 -33.4762 39.5987 213.892 -65.271 65.0728 212.618 -53.7235 76.6113 215.089 -23.9021 20.8221 175.258 23.5603 3.8187 8.38462 30.355 
174.038 152.665 167.374 172.601 170.889 168.576 135.886 159.819 166.338 163.044 -5.0451 199.435 -27.9678 5.28444 221.486 -34.8275 41.184 213.085 -65.7676 66.3619 212.139 -54.1136 77.839 214.948 -24.3844 22.2077 175.125 23.3333 3.82018 8.22093 29.7488 
174.819 153.718 167.704 172.595 171.008 168.526 137.818 160.012 166.303 163.153 -4.06244 198.083 -28.2294 6.95949 221.335 -36.7194 42.2863 213.019 -65.8268 67.2642 212.102 -54.1328 79.0778 214.936 -24.6076 23.3447 175.535 23.4665 3.97256 8.1133 28.1067 
174.99 155.443 168.101 172.42 171.084 168.238 140.061 160.537 166.134 163.526 -2.89768 196.119 -28.3799 8.37415 220.82 -38.8966 43.3173 212.717 -66.3621 67.9625 212.259 -54.3338 80.2381 215.028 -25.0949 24.4153 175.78 23.4603 4.27266 7.82163 26.6664 
174.891 156.959 168.191 172.185 171.235 167.633 141.206 160.948 166.04 164.071 -1.30396 194.389 -28.5653 9.47011 220.213 -40.3202 44.3233 212.151 -67.2366 68.6463 212.326 -54.9399 81.2568 215.217 -25.9905 25.5633 175.89 23.1553 4.54847 7.54978 26.2779 
174.896 158.017 168.046 171.875 171.408 167.196 141.838 161.2 166.05 164.518 0.117817 192.976 -29.1314 10.8142 219.892 -41.5094 45.7161 211.683 -68.2172 69.697 212.444 -55.6512 82.3219 215.695 -26.7884 26.863 176.029 22.611 4.65642 7.30192 26.3 
174.795 158.613 167.952 171.688 171.588 167.22 142.252 161.367 166.042 164.552 0.494404 191.821 -29.8186 12.6748 220.028 -42.3559 47.4814 211.431 -68.7108 71.1065 212.453 -55.937 83.5209 216.185 -26.987 28.2096 176.39 22.2798 4.57441 7.07925 26.2353 
174.98 159.386 168.23 171.699 171.748 167.832 143.219 161.529 166.1 164.479 0.493243 190.199 -30.1019 14.4575 220.484 -43.0958 48.7903 211.776 -68.3977 72.395 212.484 -55.5621 84.88 216.301 -26.5106 29.2476 176.791 22.4274 4.63065 7.10329 25.324 
175.132 160.39 168.718 171.666 171.824 168.438 144.921 161.992 166.091 164.585 0.540734 188.324 -30.0738 16.0603 220.616 -44.4483 50.0958 212.294 -68.2565 73.5665 212.841 -55.1302 86.4362 216.5 -25.9638 30.1624 177.06 22.6378 4.98531 7.00959 23.9497 
174.379 161.182 169.111 171.747 171.971 168.049 146.366 162.7 166.251 165.026 1.62538 188.316 -29.8573 17.5302 220.691 -45.8833 51.6449 212.662 -68.5811 74.8619 213.484 -54.967 88.0788 216.876 -25.7168 31.1531 177.39 22.6772 5.37362 6.7361 23.0554 
