179.503 166.594 167.086 165.621 165.787 175.475 158.828 158.515 157.911 159.666 -97.3193 213.867 -37.5139 -45.2738 146.076 -75.1946 -12.1629 136.142 -79.0899 18.069 135.517 -60.2236 43.887 149.628 -32.2862 -15.3231 211.707 -7.78454 13.6271 9.66372 9.91244 
179.582 166.57 167.003 165.674 165.831 175.498 158.817 158.521 157.99 159.791 -97.3851 213.373 -37.0101 -45.3998 146.135 -74.8151 -12.1077 136.164 -78.6368 18.1674 135.618 -59.8225 43.9624 149.855 -31.9217 -15.3834 211.951 -7.50291 13.5467 9.66048 9.97768 
179.434 166.573 166.93 165.715 165.863 175.529 158.877 158.562 158.062 159.912 -97.4756 213.092 -36.6461 -45.5066 146.248 -74.6311 -12.0709 136.246 -78.375 18.2657 135.768 -59.6032 44.0905 150.119 -31.72 -15.4423 212.157 -7.26648 13.5107 9.66658 10.008 
179.124 166.604 166.883 165.774 165.912 175.581 158.981 158.618 158.142 160.02 -97.6567 213.066 -36.2659 -45.5417 146.409 -74.4164 -11.9581 136.341 -78.0154 18.369 135.891 -59.2383 44.1764 150.344 -31.3818 -15.4842 212.412 -7.00829 13.4473 9.65172 10.046 
178.774 166.659 166.863 165.855 166.006 175.597 159.107 158.721 158.319 160.236 -97.8098 213.177 -36.0714 -45.5371 146.534 -74.2769 -11.8866 136.404 -77.747 18.475 136.028 -59.0398 44.255 150.569 -31.1979 -15.5257 212.623 -6.78933 13.395 9.63728 10.0409 
178.281 166.666 166.797 165.874 166.037 175.617 159.174 158.744 158.422 160.358 -97.9155 213.479 -36.0415 -45.45 146.655 -74.1885 -11.742 136.475 -77.5213 18.6541 136.17 -58.8706 44.3931 150.79 -31.0464 -15.528 212.78 -6.61971 13.3573 9.63497 10.0397 
177.99 166.658 166.746 165.893 166.057 175.622 159.166 158.73 158.502 160.414 -98.0175 213.848 -35.8858 -45.3816 146.904 -74.0101 -11.6908 136.674 -77.2582 18.7395 136.41 -58.678 44.3873 151.006 -30.8334 -15.5274 213.01 -6.39325 13.2875 9.63396 10.0133 
177.855 166.626 166.685 165.87 166.051 175.621 159.097 158.674 158.524 160.435 -98.0403 214.231 -35.8434 -45.3204 147.192 -73.9408 -11.6868 136.924 -77.1451 18.7659 136.661 -58.6114 44.3633 151.219 -30.7392 -15.5171 213.208 -6.22937 13.2515 9.63356 9.96824 
177.998 166.594 166.64 165.844 166.032 175.648 159.038 158.646 158.554 160.472 -97.9712 214.351 -35.693 -45.2181 147.34 -73.7518 -11.6518 137.113 -76.9922 18.8478 136.908 -58.5248 44.4394 151.458 -30.6096 -15.4879 213.379 -6.04076 13.2606 9.63891 9.9152 
178.074 166.558 166.596 165.819 166.02 175.676 158.988 158.604 158.558 160.478 -97.9392 214.533 -35.4892 -45.2006 147.628 -73.6269 -11.6732 137.363 -76.847 18.8252 137.136 -58.4001 44.4 151.635 -30.4512 -15.4569 213.578 -5.87112 13.2511 9.63444 9.89187 
178.251 166.497 166.524 165.746 165.969 175.731 158.916 158.55 158.514 160.447 -97.9124 214.614 -35.2879 -45.1428 147.782 -73.38 -11.6815 137.526 -76.5961 18.7995 137.315 -58.1764 44.3624 151.81 -30.243 -15.4437 213.759 -5.70132 13.2429 9.61895 9.84905 
178.571 166.385 166.414 165.654 165.898 175.791 158.772 158.445 158.435 160.368 -97.7335 214.483 -35.1249 -44.9632 147.799 -73.035 -11.5818 137.573 -76.2439 18.8398 137.375 -57.8298 44.3458 151.886 -29.9358 -15.3861 213.861 -5.51346 13.2083 9.58824 9.7983 
178.749 166.3 166.317 165.596 165.847 175.794 158.634 158.322 158.345 160.313 -97.5514 214.331 -34.8966 -44.8126 147.788 -72.621 -11.5144 137.533 -75.7622 18.8519 137.363 -57.3754 44.3244 151.928 -29.5521 -15.3354 213.971 -5.30516 13.1947 9.55525 9.74854 
179.139 166.195 166.184 165.496 165.742 175.821 158.437 158.139 158.18 160.155 -97.2692 214.118 -34.6838 -44.7008 147.749 -72.1815 -11.5382 137.499 -75.2989 18.7535 137.345 -56.9469 44.193 151.933 -29.2132 -15.2814 214.06 -5.11951 13.1648 9.50742 9.67057 
179.464 166.077 166.02 165.372 165.605 175.773 158.204 157.901 157.937 159.935 -96.9182 213.882 -34.4193 -44.5635 147.675 -71.6518 -11.5278 137.447 -74.7508 18.6857 137.326 -56.432 44.1275 151.987 -28.8217 -15.1925 214.147 -4.88127 13.1664 9.4583 9.60125 
179.714 166.036 165.907 165.314 165.519 175.69 158.076 157.742 157.775 159.756 -96.5752 213.64 -34.1278 -44.4511 147.63 -71.1811 -11.5511 137.421 -74.2666 18.5902 137.353 -56.0001 44.0553 152.095 -28.478 -15.1052 214.293 -4.64793 13.1816 9.39761 9.51751 
179.863 165.94 165.744 165.243 165.422 175.62 157.964 157.573 157.622 159.58 -96.3498 213.241 -33.6346 -44.2931 147.48 -70.6085 -11.4877 137.304 -73.6332 18.6081 137.332 -55.4321 44.0916 152.206 -28.0007 -15.0048 214.435 -4.40541 13.2065 9.35426 9.45008 
179.906 165.89 165.641 165.207 165.364 175.443 157.913 157.458 157.52 159.495 -96.007 212.666 -33.155 -44.1304 147.315 -70.1382 -11.4009 137.164 -73.0881 18.736 137.354 -55.0038 44.3245 152.426 -27.6644 -14.8752 214.55 -4.16901 13.3072 9.34271 9.38073 
179.956 165.837 165.592 165.18 165.36 175.407 158.017 157.481 157.392 159.329 -95.6359 212.142 -32.6897 -44.0527 147.291 -69.8442 -11.419 137.146 -72.7597 18.7828 137.436 -54.7 44.4803 152.618 -27.3911 -14.8053 214.742 -4.00524 13.466 9.37808 9.32661 
179.975 165.829 165.281 165.082 165.253 175.068 158.038 157.472 157.724 159.602 -95.2153 211.743 -32.3472 -44.3302 146.645 -68.891 -11.7838 136.345 -71.5899 18.8586 136.749 -53.7359 44.7036 152.162 -26.4521 -14.7713 214.639 -3.73364 13.6263 9.62428 9.28088 
179.938 165.826 165.054 165.069 165.263 175.011 158.102 157.367 157.98 159.707 -94.4225 211.504 -32.1967 -44.4915 145.757 -67.555 -12.1575 135.131 -69.9222 19.0366 135.679 -52.3096 45.0018 151.313 -25.009 -14.6626 214.434 -3.24514 13.8427 9.95867 9.1917 
179.795 165.854 165.049 165.022 165.221 175.05 158.166 157.239 158.055 159.598 -94.0959 211.684 -32.4448 -44.5975 145.235 -67.0728 -12.3181 134.384 -69.2407 19.2893 135.13 -51.7998 45.1943 150.855 -24.4799 -14.6915 214.21 -3.14819 13.8929 10.2152 9.18044 
179.646 165.806 164.921 164.862 165.086 175.068 158.086 156.982 157.967 159.405 -93.8581 211.82 -32.5801 -44.563 144.832 -66.6487 -12.3083 133.827 -68.6033 19.5824 134.742 -51.2761 45.3718 150.475 -23.9655 -14.6567 213.994 -3.01813 13.881 10.4093 9.18236 
179.548 165.767 164.816 164.755 164.997 174.991 158.029 156.785 157.94 159.29 -93.6662 211.751 -32.599 -44.4896 144.431 -66.2555 -12.2654 133.329 -68.0644 19.8523 134.435 -50.8596 45.552 150.221 -23.5589 -14.6265 213.798 -2.89756 13.8772 10.558 9.17097 
179.457 165.69 164.713 164.623 164.895 174.935 157.892 156.577 157.838 159.13 -93.6079 211.639 -32.511 -44.4529 144.025 -65.8367 -12.2674 132.861 -67.5655 20.0109 134.141 -50.4771 45.6345 149.964 -23.218 -14.5971 213.629 -2.8108 13.85 10.6582 9.15331 
179.41 165.611 164.602 164.515 164.831 174.853 157.783 156.421 157.782 159.018 -93.4991 211.526 -32.4775 -44.2873 143.509 -65.2777 -12.1888 132.339 -66.9556 20.1382 133.832 -50.0468 45.6589 149.725 -22.8649 -14.5751 213.44 -2.68968 13.7966 10.6752 9.09905 
179.254 165.562 164.603 164.51 164.817 175.041 157.626 156.289 157.756 158.912 -93.4185 211.549 -32.4393 -44.3911 143.026 -64.5748 -12.2408 131.841 -66.3749 20.0811 133.531 -49.7694 45.5221 149.625 -22.805 -14.5524 213.314 -2.44545 13.644 10.6284 9.18134 
179.204 165.321 164.392 164.251 164.655 175.008 157.25 155.983 157.438 158.676 -93.2814 211.28 -32.4169 -44.2173 142.404 -63.836 -12.3054 131.32 -65.7075 19.959 133.207 -49.2874 45.4453 149.443 -22.5592 -14.5624 213.088 -2.33262 13.6597 10.5703 9.02275 
179.195 165.212 164.296 164.134 164.567 174.938 157.086 155.883 157.334 158.58 -93.2125 210.966 -32.303 -44.0521 141.805 -63.1072 -12.302 130.785 -64.9961 19.8991 132.873 -48.7489 45.4057 149.277 -22.1883 -14.6067 212.867 -2.15546 13.6988 10.5137 8.91243 
179.138 165.115 164.211 164.014 164.485 174.949 156.939 155.791 157.176 158.445 -93.3654 210.774 -32.0716 -43.9947 141.263 -62.4718 -12.3909 130.33 -64.4095 19.7338 132.559 -48.2777 45.2971 149.125 -21.9195 -14.6873 212.649 -1.9895 13.7379 10.4475 8.81046 
179.034 165.107 164.236 164.004 164.463 174.991 156.942 155.864 157.178 158.427 -93.5392 210.463 -31.6865 -43.9452 140.671 -61.7582 -12.451 129.814 -63.7539 19.5693 132.204 -47.7283 45.1675 148.959 -21.5396 -14.7894 212.467 -1.76187 13.7452 10.3511 8.72315 
178.831 165.205 164.347 164.106 164.551 175.165 157.054 156.063 157.296 158.553 -93.7178 210.101 -31.2202 -43.8976 140.026 -60.9232 -12.5303 129.234 -62.9509 19.3939 131.785 -47.0364 45.0826 148.788 -21.0366 -14.8775 212.325 -1.43043 13.7848 10.2524 8.61506 
178.632 165.25 164.405 164.176 164.563 175.48 157.109 156.152 157.237 158.526 -93.9969 209.84 -30.639 -43.9795 139.538 -60.1836 -12.6803 128.779 -62.2045 19.1739 131.408 -46.2959 45.0233 148.683 -20.4945 -14.9524 212.317 -1.14353 13.8522 10.1714 8.53811 
178.462 165.276 164.446 164.255 164.582 175.661 157.107 156.228 157.208 158.53 -93.9348 209.274 -30.2173 -43.9965 138.958 -59.3113 -12.8365 128.252 -61.3128 18.9849 131.064 -45.5431 45.0392 148.684 -19.9252 -15.0241 212.313 -0.815581 13.9971 10.1098 8.41711 
178.397 165.379 164.613 164.458 164.679 175.718 157.216 156.459 157.356 158.662 -93.6575 208.744 -29.9286 -43.9695 138.56 -58.6272 -12.954 127.915 -60.7176 18.8516 130.91 -45.1286 45.1146 148.813 -19.5466 -15.0418 212.398 -0.47878 14.1595 10.0509 8.30298 
178.343 165.443 164.749 164.631 164.772 175.797 157.223 156.586 157.471 158.79 -93.4542 208.332 -29.771 -43.9982 138.366 -58.1451 -13.1451 127.704 -60.2191 18.6266 130.824 -44.8117 45.0685 148.922 -19.2204 -15.1158 212.501 -0.197707 14.3179 9.99771 8.18433 
178.356 165.47 164.883 164.79 164.882 175.839 157.107 156.636 157.487 158.789 -93.2624 207.803 -29.2224 -43.943 138.349 -57.4237 -13.3298 127.661 -59.5152 18.3345 130.895 -44.3392 44.9753 149.102 -18.6632 -15.0912 212.721 0.35469 14.4752 9.89147 8.02639 
178.349 165.518 164.986 164.884 164.97 175.839 157.04 156.667 157.512 158.811 -93.1127 207.568 -29.2155 -43.8818 138.537 -57.3707 -13.3774 127.834 -59.3969 18.2161 131.155 -44.3791 44.8849 149.333 -18.591 -15.1059 212.959 0.444307 14.5014 9.83313 7.94178 
178.256 165.636 165.104 164.978 165.025 175.909 157.118 156.73 157.548 158.823 -92.9418 207.263 -28.9775 -43.7769 138.646 -57.2028 -13.3352 127.921 -59.0548 18.1721 131.323 -44.1107 44.802 149.465 -18.241 -15.0753 213.162 0.700849 14.444 9.76016 7.85588 
178.207 165.678 165.189 165.048 165.089 175.98 157.097 156.756 157.565 158.834 -92.7359 207.035 -28.7988 -43.6844 138.809 -56.9607 -13.3067 128.051 -58.6633 18.1587 131.541 -43.8176 44.7624 149.684 -17.8887 -15.0225 213.452 0.932473 14.4032 9.71867 7.78094 
178.158 165.725 165.265 165.094 165.147 176.097 157.111 156.807 157.526 158.808 -92.4535 206.797 -28.6221 -43.6834 138.847 -56.6363 -13.3669 128.075 -58.2248 18.1031 131.641 -43.4629 44.7067 149.808 -17.5486 -14.951 213.664 1.20162 14.3515 9.7015 7.70795 
177.933 165.862 165.311 165.151 165.223 176.457 157.218 156.785 157.62 158.873 -92.2097 206.612 -28.2975 -43.7572 138.907 -56.1536 -13.3742 128.089 -57.5792 18.1232 131.782 -43.0521 44.6401 150.087 -17.2668 -14.8532 213.98 1.61224 14.1605 9.68369 7.71826 
177.839 165.966 165.523 165.242 165.307 176.678 157.336 156.985 157.634 158.877 -91.7269 206.089 -27.9224 -43.7769 138.955 -55.8061 -13.398 128.086 -57.0859 18.2208 131.946 -42.6481 44.7864 150.329 -16.8721 -14.7531 214.284 1.92236 14.1407 9.73079 7.65549 
177.78 166.167 165.835 165.403 165.43 176.942 157.609 157.328 157.758 159.011 -91.286 205.576 -27.5286 -43.8004 139.08 -55.6116 -13.366 128.046 -56.5957 18.3985 132.073 -42.2212 45.0351 150.537 -16.4272 -14.6002 214.618 2.25355 14.1442 9.79504 7.6226 
177.78 166.374 166.184 165.635 165.631 177.216 157.903 157.747 158.065 159.388 -90.9486 205.221 -27.2094 -43.9725 139.294 -55.4838 -13.4625 127.95 -56.1019 18.5211 132.143 -41.8199 45.3001 150.713 -15.914 -14.4987 215.062 2.53817 14.2123 9.91037 7.62642 
177.718 166.607 166.57 165.915 165.827 177.572 158.255 158.23 158.456 159.826 -90.6174 204.888 -26.8825 -44.0544 139.501 -55.3272 -13.4078 127.808 -55.5291 18.7892 132.21 -41.3273 45.7134 150.969 -15.2673 -14.3871 215.553 2.85595 14.323 10.0284 7.6821 
177.669 166.789 166.884 166.101 165.927 177.88 158.583 158.634 158.757 160.157 -90.3563 204.543 -26.6421 -44.0705 139.613 -55.2741 -13.2888 127.569 -55.0278 19.0685 132.184 -40.897 46.0594 151.099 -14.7114 -14.2869 215.9 3.09439 14.3705 10.1179 7.75542 
177.608 166.935 167.159 166.276 166.005 178.188 158.892 159.041 159.04 160.44 -90.1471 203.999 -26.3457 -44.01 139.549 -55.1692 -13.0677 127.254 -54.6106 19.431 132.083 -40.4926 46.4599 151.175 -14.1481 -14.2135 216.087 3.32129 14.4366 10.2062 7.85278 
177.607 167.108 167.424 166.446 166.078 178.404 159.272 159.451 159.33 160.734 -89.9753 203.285 -25.9132 -43.9359 139.443 -55.2335 -12.8535 126.942 -54.375 19.8194 132.012 -40.2743 46.8935 151.29 -13.7522 -14.174 216.218 3.53201 14.5056 10.3082 7.9288 
177.568 167.272 167.641 166.574 166.129 178.643 159.588 159.766 159.52 160.928 -89.935 202.703 -25.5588 -43.8552 139.285 -55.3344 -12.6389 126.613 -54.1686 20.1338 131.802 -40.0005 47.1912 151.184 -13.3383 -14.1269 216.181 3.71814 14.529 10.3731 8.02155 
177.548 167.421 167.833 166.689 166.204 178.841 159.834 160.026 159.689 161.121 -89.8747 202.17 -25.2927 -43.7976 139.161 -55.5131 -12.4827 126.341 -54.1078 20.3648 131.57 -39.819 47.3768 150.958 -12.9972 -14.0925 216.063 3.87376 14.5239 10.4267 8.09898 
177.49 167.545 167.984 166.749 166.252 179.034 160.023 160.202 159.759 161.209 -89.8861 201.864 -25.0479 -43.6765 139.113 -55.7158 -12.3013 126.176 -54.0961 20.6239 131.441 -39.6798 47.6054 150.848 -12.7237 -14.0305 215.974 4.04476 14.5371 10.4827 8.15041 
177.396 167.742 168.272 166.873 166.329 179.422 160.278 160.516 159.899 161.372 -89.7174 201.319 -24.5995 -43.4104 138.935 -55.8517 -11.8886 125.757 -53.8918 21.1399 130.997 -39.219 48.0509 150.397 -11.9471 -13.7735 215.694 4.47782 14.5674 10.5704 8.28676 
177.432 167.756 168.32 166.897 166.334 179.435 160.248 160.494 159.87 161.32 -89.7137 201.244 -24.3751 -43.4147 139.025 -55.9254 -11.8888 125.76 -53.9157 21.2013 130.876 -39.087 48.0839 150.199 -11.64 -13.7035 215.622 4.63356 14.5791 10.6211 8.31505 
177.432 167.808 168.378 166.939 166.357 179.497 160.284 160.523 159.866 161.323 -89.6506 201.039 -24.0483 -43.3523 139.023 -55.9408 -11.8033 125.696 -53.8489 21.3124 130.675 -38.8417 48.1661 149.939 -11.2597 -13.5714 215.511 4.84579 14.5743 10.6428 8.3517 
177.483 167.874 168.453 166.998 166.368 179.528 160.376 160.629 159.899 161.338 -89.5623 200.746 -23.6543 -43.3336 139.004 -56.0329 -11.7684 125.618 -53.9356 21.4207 130.461 -38.7743 48.3166 149.709 -11.0281 -13.4328 215.381 5.02258 14.6238 10.6845 8.372 
177.543 167.901 168.499 167.047 166.366 179.582 160.43 160.681 159.914 161.381 -89.4844 200.326 -23.2789 -43.3998 138.88 -56.1468 -11.8369 125.436 -54.0323 21.472 130.159 -38.7889 48.4736 149.418 -10.9501 -13.2918 215.185 5.11334 14.691 10.7473 8.38021 
177.522 167.929 168.576 167.078 166.33 179.663 160.452 160.717 159.876 161.354 -89.3899 199.918 -22.9499 -43.3165 138.623 -56.1058 -11.7722 125.177 -53.9184 21.6414 129.898 -38.6733 48.7882 149.313 -10.8671 -13.1497 214.98 5.22301 14.7962 10.792 8.36661 
177.432 167.958 168.634 167.138 166.322 179.825 160.468 160.764 159.929 161.432 -89.3842 199.519 -22.5928 -43.2854 138.256 -55.8814 -11.6751 124.842 -53.7262 21.8271 129.59 -38.463 49.1105 149.188 -10.6683 -13.0774 214.74 5.33499 14.9199 10.8346 8.39598 
177.394 167.957 168.685 167.184 166.305 179.913 160.402 160.768 159.93 161.461 -89.3529 199.158 -22.387 -43.2784 138.004 -55.815 -11.6386 124.626 -53.7194 21.9427 129.352 -38.4039 49.39 149.091 -10.5876 -12.9934 214.542 5.3688 15.0682 10.876 8.40013 
177.43 167.958 168.72 167.213 166.273 179.877 160.33 160.778 159.936 161.477 -89.2795 198.88 -22.1969 -43.3092 137.802 -55.6214 -11.6508 124.469 -53.6255 22.0078 129.198 -38.302 49.6236 149.087 -10.4541 -12.9369 214.447 5.42382 15.23 10.9183 8.39274 
177.424 167.928 168.731 167.228 166.242 179.838 160.232 160.723 159.929 161.509 -89.1659 198.574 -22.0868 -43.2804 137.549 -55.3716 -11.5945 124.249 -53.3786 22.1293 129.061 -38.1047 49.8694 149.151 -10.2603 -12.9343 214.365 5.45968 15.3825 10.9612 8.3995 
177.42 167.928 168.78 167.251 166.236 179.766 160.197 160.734 159.956 161.587 -89.0707 198.374 -22.0984 -43.2519 137.315 -55.1973 -11.5379 124.047 -53.1991 22.247 128.969 -38.0139 50.1058 149.248 -10.1887 -12.9284 214.296 5.463 15.5228 10.9977 8.40475 
177.425 167.927 168.8 167.273 166.242 179.751 160.173 160.712 159.956 161.61 -89.0531 198.249 -22.0793 -43.2771 137.204 -55.0884 -11.5221 123.95 -53.0532 22.2786 128.886 -37.8561 50.195 149.254 -10.0284 -12.9206 214.268 5.47127 15.5948 11.0093 8.43212 
177.456 167.945 168.836 167.303 166.267 179.692 160.192 160.734 159.992 161.673 -89.0643 198.171 -22.0384 -43.3667 137.14 -55.0561 -11.5906 123.894 -53.0139 22.2559 128.836 -37.8216 50.2533 149.268 -9.98187 -12.9367 214.265 5.47075 15.6639 11.0316 8.4416 
177.451 167.957 168.876 167.321 166.274 179.682 160.223 160.756 160.015 161.745 -89.0807 198.146 -22.0319 -43.4019 137.081 -55.0358 -11.675 123.799 -52.8444 22.1815 128.734 -37.6792 50.2491 149.228 -9.88486 -12.9748 214.229 5.52583 15.7137 11.0301 8.42387 
177.302 167.971 168.917 167.362 166.295 179.837 160.251 160.779 160.083 161.863 -89.0596 198.041 -22.0545 -43.3016 136.84 -54.8399 -11.6007 123.547 -52.4845 22.2013 128.557 -37.3777 50.294 149.17 -9.67415 -13.0273 214.107 5.61355 15.7448 10.9908 8.41628 
177.155 167.964 168.953 167.409 166.327 179.87 160.247 160.778 160.152 161.983 -88.9981 197.833 -21.9322 -43.3161 136.588 -54.4564 -11.6307 123.303 -52.0061 22.1687 128.427 -37.021 50.3312 149.195 -9.44787 -13.1312 214.027 5.73842 15.8022 10.9785 8.4118 
177.227 167.974 169.005 167.508 166.41 179.145 160.268 160.834 160.309 162.159 -88.9186 197.394 -21.6351 -43.3653 136.284 -53.9567 -11.7001 123.044 -51.5197 22.128 128.308 -36.6595 50.3653 149.232 -9.16608 -13.2619 213.97 5.90549 15.8612 10.9798 8.38232 
177.423 167.997 169.081 167.625 166.512 178.584 160.295 160.917 160.497 162.361 -88.7792 196.857 -21.1816 -43.3639 135.955 -53.3015 -11.6954 122.82 -50.9065 22.1457 128.266 -36.1918 50.4339 149.403 -8.81373 -13.4193 213.976 6.11577 15.9215 10.9762 8.35381 
177.51 168.104 169.207 167.753 166.657 178.161 160.47 161.133 160.776 162.68 -88.674 196.213 -20.6472 -43.4114 135.482 -52.6489 -11.6732 122.486 -50.3403 22.2686 128.184 -35.7794 50.5908 149.537 -8.47029 -13.5886 213.924 6.34607 15.9695 11.0266 8.35276 
177.41 168.206 169.314 167.841 166.772 177.899 160.65 161.292 160.983 162.922 -88.6518 195.644 -20.2026 -43.4006 135.019 -52.1258 -11.5508 122.189 -49.8635 22.4449 128.144 -35.4479 50.7703 149.702 -8.22922 -13.7456 213.823 6.5274 16.0063 11.0532 8.38292 
177.179 168.276 169.403 167.884 166.851 177.693 160.791 161.395 161.112 163.109 -88.8031 195.163 -19.858 -43.368 134.492 -51.6679 -11.3831 121.816 -49.365 22.6304 127.982 -35.0387 50.9287 149.737 -7.9762 -13.8986 213.593 6.67961 16.0163 11.0632 8.4463 
176.983 168.292 169.419 167.882 166.881 177.534 160.888 161.418 161.153 163.179 -89.0344 194.716 -19.5039 -43.3715 133.926 -51.2203 -11.2234 121.405 -48.8772 22.8371 127.805 -34.6599 51.1154 149.76 -7.76145 -14.0476 213.333 6.81328 16.0231 11.0912 8.52871 
176.832 168.317 169.427 167.841 166.895 177.415 161.01 161.388 161.109 163.171 -89.3935 194.489 -19.2268 -43.4959 133.465 -50.9388 -11.1937 121.051 -48.519 22.938 127.628 -34.3482 51.2185 149.734 -7.63965 -14.2023 213.088 6.93074 16.0124 11.1267 8.61779 
176.776 168.32 169.435 167.816 166.926 177.248 161.086 161.385 161.085 163.173 -89.8295 194.233 -19.0466 -43.7754 132.88 -50.6854 -11.2639 120.563 -48.2771 22.9663 127.271 -34.0837 51.2764 149.536 -7.51431 -14.3911 212.749 6.98214 16.0177 11.1754 8.73178 
176.995 168.209 169.403 167.538 166.631 178.001 161.075 161.052 161.315 162.928 -90.5682 194.492 -18.4581 -44.9575 132.702 -50.64 -12.0684 120.407 -48.4686 22.1858 126.904 -34.1829 50.2282 148.864 -7.43746 -14.7847 212.564 6.98296 15.7202 11.1609 8.95754 
176.823 168.3 169.443 167.596 166.774 177.867 161.363 161.22 161.376 162.885 -91.6642 194.169 -17.85 -45.797 132.01 -50.3322 -12.5124 119.876 -48.3972 21.8052 126.361 -33.838 49.9971 148.588 -7.16957 -15.2945 212.342 6.9684 15.7804 11.1579 9.14493 
176.318 168.269 169.422 167.467 166.624 179.251 161.509 161.074 161.667 162.769 -92.5883 194.577 -17.344 -47.08 132.051 -50.5046 -13.4555 119.927 -48.93 21.04 126.176 -34.193 49.1499 148.182 -7.12308 -15.7002 212.423 6.79388 15.6897 11.2412 9.34464 
176.274 168.407 169.547 167.632 166.826 179 161.807 161.379 161.774 162.881 -93.2325 194.436 -17.031 -47.3357 131.926 -50.5555 -13.5558 119.887 -49.07 21.004 126.142 -34.2131 49.3197 148.441 -7.37206 -15.9662 212.491 6.62253 15.8034 11.2523 9.41489 
176.149 168.479 169.611 167.625 166.838 179.906 161.953 161.34 162.093 162.878 -93.8719 194.559 -16.7887 -48.2291 131.913 -50.874 -14.3462 119.997 -49.6677 20.2488 126.063 -34.7303 48.5617 148.24 -7.65265 -16.3685 212.565 6.37744 15.7519 11.2337 9.44343 
176.099 168.481 169.727 167.79 166.947 179.575 162.016 161.497 162.007 162.828 -94.1521 194.141 -16.5843 -48.1822 131.712 -50.8898 -14.3115 119.874 -49.6005 20.2682 125.977 -34.6318 48.7186 148.418 -7.97914 -16.5343 212.487 6.17505 15.7853 11.2054 9.42528 
176.304 168.468 169.749 167.837 166.993 178.886 162.004 161.479 161.739 162.669 -94.3434 194.027 -16.4859 -48.1415 131.806 -50.8792 -14.3428 119.952 -49.4043 20.2577 126.106 -34.3737 48.8496 148.741 -8.09832 -16.6878 212.544 6.08079 15.8703 11.2284 9.4091 
176.664 168.447 169.789 167.876 167.039 178.356 161.977 161.465 161.467 162.558 -94.426 194.008 -16.5697 -48.1093 131.959 -51.0508 -14.4448 120.001 -49.2593 20.1881 126.152 -34.1657 48.9238 148.934 -8.21432 -16.7941 212.568 6.01182 15.9567 11.2584 9.37575 
176.176 168.44 169.788 167.718 166.904 179.448 161.953 161.225 161.544 162.244 -94.6858 194.846 -16.8473 -48.7714 132.484 -51.4794 -15.2843 120.477 -49.6675 19.2771 126.262 -34.4417 47.8212 148.725 -8.25598 -17.0241 212.821 5.92666 15.7586 11.2027 9.28743 
176.652 168.347 169.825 167.777 166.928 178.559 161.824 161.201 161.373 162.108 -94.7051 194.962 -16.9934 -48.6328 132.696 -51.4882 -15.2067 120.587 -49.3872 19.2954 126.388 -34.1605 47.917 148.98 -8.2198 -17.0494 212.96 5.93024 15.8015 11.1691 9.29723 
176.012 168.346 169.89 167.655 166.786 179.927 161.753 160.994 161.545 161.952 -94.9821 195.694 -16.9532 -49.0669 132.993 -51.494 -15.6879 120.885 -49.3908 18.8454 126.529 -34.1051 47.2565 148.882 -7.80838 -17.1676 213.222 5.99322 15.6778 11.1956 9.27605 
176.504 168.272 170.008 167.821 166.956 178.446 161.633 161.08 161.562 162.135 -94.8374 195.436 -16.872 -48.6096 132.868 -51.1383 -15.2379 120.657 -48.7114 19.2941 126.483 -33.4776 47.6926 149.072 -7.43829 -17.0801 213.237 6.14381 15.6885 11.2041 9.31431 
175.735 168.233 170.058 167.717 166.877 179.575 161.541 160.866 161.73 162.093 -95.0197 195.941 -16.6536 -48.9181 132.983 -50.9845 -15.4406 120.727 -48.5359 19.092 126.426 -33.2014 47.2713 148.776 -6.75206 -17.0696 213.314 6.28692 15.5925 11.229 9.40417 
175.979 168.162 170.165 167.886 167.089 178.368 161.451 160.971 161.794 162.429 -94.8604 195.295 -16.3203 -48.2908 132.436 -50.2967 -14.7825 120.074 -47.4682 19.7507 126.118 -32.3238 47.9348 148.82 -6.24446 -16.884 213.122 6.49006 15.6033 11.2255 9.47333 
