178.369 150.588 151.306 155.779 157.672 175.943 141.213 142.491 148.483 151.603 19.6346 140.254 -61.4732 66.2059 146.7 -106.318 96.0447 139.718 -107.154 125.152 140.262 -91.9762 148.949 142.302 -59.0879 79.6718 172.285 -19.0187 16.1649 10.6395 7.35272 
178.145 149.906 150.668 155.314 157.207 175.813 139.543 141.863 147.937 150.662 18.4102 140.586 -61.2625 64.2921 146.74 -105.404 94.2219 140.774 -107.217 123.447 141.341 -92.3262 147 142.944 -59.6158 78.4862 173.061 -19.2092 15.7513 10.6792 7.5145 
178.024 149.541 150.669 155.148 156.969 175.821 138.661 141.781 147.674 150.016 17.9042 140.577 -60.9141 63.5713 146.95 -104.869 93.6445 141.592 -107.344 122.829 141.856 -92.4033 146.095 143.057 -59.7516 78.1342 173.457 -19.1924 15.3958 10.5475 7.74433 
178.054 149.286 151.016 155.21 156.891 175.929 137.812 141.881 147.44 149.38 17.2328 141.09 -60.9133 62.7608 147.138 -104.344 92.9588 142.351 -107.59 122.004 142.212 -92.5329 144.961 142.995 -59.9525 77.7171 173.945 -19.2462 15.0074 10.3459 8.04441 
178.218 148.998 151.444 155.352 156.968 176.058 137.081 141.998 147.265 148.988 16.6775 141.934 -61.0317 62.1547 147.264 -103.791 92.3445 142.856 -107.682 121.215 142.421 -92.5729 144.039 143.053 -60.1535 77.4302 174.487 -19.2864 14.7552 10.15 8.25502 
178.345 148.654 151.839 155.462 157.093 176.152 136.37 142.225 147.217 148.802 16.1854 142.894 -61.2089 61.564 147.261 -103.172 91.8564 143.365 -107.817 120.592 142.739 -92.6611 143.322 143.188 -60.3646 77.1729 174.949 -19.3352 14.577 10.0193 8.65512 
178.489 148.203 151.844 155.449 157.242 176.221 135.624 142.018 147.011 148.796 15.8007 143.855 -61.4085 60.9852 147.096 -102.527 91.2166 143.248 -107.537 119.91 142.743 -92.5768 142.876 143.441 -60.5318 76.9491 175.369 -19.4074 14.675 10.0137 8.79411 
178.586 147.787 151.9 155.441 157.491 176.265 135.109 141.866 146.912 149.02 15.4987 144.716 -61.6026 60.5134 146.963 -102.015 90.6709 143.041 -107.248 119.41 142.751 -92.4844 142.704 143.755 -60.6428 76.751 175.702 -19.4595 14.9073 10.1 8.85331 
178.665 147.398 152.068 155.445 157.751 176.283 134.817 141.872 146.894 149.356 15.2452 145.409 -61.7371 60.1419 146.826 -101.65 90.2643 142.819 -107.031 119.034 142.689 -92.3567 142.656 144.047 -60.6748 76.5534 175.958 -19.4814 15.1741 10.1582 8.89046 
178.721 146.983 152.072 155.356 157.94 176.296 134.641 141.77 146.847 149.705 15.078 146.053 -61.936 59.9169 146.872 -101.486 89.9519 142.68 -106.837 118.81 142.746 -92.2787 142.767 144.429 -60.7386 76.4142 176.172 -19.5181 15.47 10.2747 8.80153 
178.768 146.737 152.189 155.333 158.145 176.312 134.644 141.862 146.968 150.137 14.9506 146.706 -62.1383 59.7519 147.002 -101.443 89.7562 142.702 -106.783 118.74 142.93 -92.2681 142.94 144.805 -60.7593 76.2883 176.388 -19.5277 15.723 10.4177 8.7639 
178.832 146.602 152.392 155.369 158.325 176.377 134.801 142.156 147.212 150.562 14.8471 147.168 -62.2844 59.5867 147.069 -101.504 89.7147 142.809 -106.91 118.818 143.138 -92.339 143.157 145.086 -60.7725 76.1956 176.534 -19.5532 15.8938 10.5292 8.87293 
178.86 146.468 152.52 155.358 158.39 176.398 135.094 142.37 147.3 150.762 14.7795 147.442 -62.4026 59.525 147.345 -101.793 89.6716 142.991 -107.085 118.793 143.249 -92.3837 143.218 145.259 -60.7872 76.0811 176.647 -19.5902 15.9936 10.5172 8.7976 
178.897 146.448 152.579 155.311 158.416 176.43 135.496 142.559 147.432 150.96 14.7287 147.593 -62.491 59.5183 147.622 -102.158 89.7065 143.173 -107.252 118.884 143.407 -92.4336 143.336 145.439 -60.7673 75.9736 176.731 -19.624 16.0603 10.5468 8.71544 
178.903 146.548 152.651 155.277 158.437 176.429 136.056 142.834 147.658 151.227 14.6861 147.61 -62.5028 59.5348 147.951 -102.626 89.7721 143.46 -107.509 119.04 143.671 -92.5478 143.487 145.651 -60.7557 75.8416 176.789 -19.6378 16.1041 10.5981 8.63346 
178.901 146.837 152.71 155.272 158.379 176.413 136.73 143.06 147.771 151.251 14.6549 147.481 -62.4715 59.5407 148.415 -103.226 89.8094 143.809 -107.799 119.074 143.858 -92.6575 143.419 145.726 -60.7531 75.6811 176.885 -19.6762 16.0331 10.5425 8.49584 
178.874 147.081 152.646 155.179 158.229 176.367 137.321 143.129 147.781 151.154 14.6679 147.259 -62.4098 59.6141 148.942 -103.823 89.8597 144.127 -107.998 119.098 144.049 -92.7232 143.305 145.804 -60.7276 75.5142 176.971 -19.7112 15.9327 10.4863 8.29588 
178.813 147.433 152.48 154.954 157.936 176.271 138.247 143.135 147.658 150.847 14.5454 146.839 -62.3952 59.5232 150.096 -104.921 89.6489 144.85 -108.408 118.779 144.469 -92.9286 142.748 145.964 -60.8397 75.0224 177.185 -19.8572 15.723 10.3354 7.92544 
178.784 148.058 152.288 154.871 157.659 176.252 138.822 142.966 147.497 150.423 14.6054 146.428 -62.2474 59.5228 150.781 -105.523 89.5695 145.247 -108.522 118.62 144.713 -93.0108 142.345 145.938 -60.8683 74.8535 177.279 -19.8685 15.4729 10.2318 7.7199 
178.765 148.775 152.188 154.874 157.435 176.289 139.287 142.796 147.316 149.899 14.5066 146.094 -62.1366 59.3492 151.417 -106.032 89.2741 145.679 -108.65 118.235 144.971 -93.1299 141.672 145.906 -60.9669 74.5869 177.502 -19.924 15.1466 10.1089 7.53419 
178.795 149.379 152.113 154.907 157.251 176.385 139.472 142.612 147.184 149.474 14.2951 145.993 -62.119 59.0559 151.799 -106.261 88.8901 145.963 -108.688 117.8 145.212 -93.2461 141.01 145.908 -61.0796 74.2979 177.699 -19.9654 14.8813 10.0448 7.42861 
178.9 149.932 152.243 155.106 157.227 176.552 139.632 142.621 147.205 149.195 14.0026 146.069 -62.2139 58.7278 152.132 -106.44 88.4935 146.298 -108.831 117.352 145.467 -93.4312 140.341 145.922 -61.2466 74.0197 177.939 -20.0217 14.618 9.97387 7.36381 
179.084 150.392 152.539 155.417 157.344 176.772 139.849 142.815 147.344 149.077 13.601 146.256 -62.3027 58.3125 152.398 -106.584 88.0788 146.574 -109.02 116.86 145.633 -93.6197 139.676 145.92 -61.4345 73.7104 178.164 -20.0763 14.3873 9.8708 7.3559 
179.29 150.764 152.838 155.755 157.547 177.027 139.854 143.006 147.514 149.086 13.0049 146.757 -62.3932 57.7063 152.55 -106.514 87.5758 146.878 -109.188 116.345 145.921 -93.8352 139.095 146.102 -61.6623 73.3941 178.484 -20.1392 14.2495 9.82814 7.47238 
179.484 150.911 152.966 156.033 157.71 177.247 139.398 142.837 147.449 149.043 12.3264 147.522 -62.7082 57.0574 152.399 -106.152 86.8998 146.826 -109.1 115.628 146.001 -93.9575 138.506 146.39 -61.9463 73.0635 178.813 -20.2844 14.2618 9.80845 7.53551 
179.64 150.88 153.125 156.297 157.978 177.437 138.771 142.751 147.435 149.215 11.6074 148.369 -63.0041 56.2277 151.939 -105.556 86.1025 146.543 -108.951 114.838 145.951 -94.05 138.043 146.725 -62.249 72.7095 179.09 -20.4303 14.4478 9.83889 7.69833 
179.73 150.709 153.198 156.501 158.287 177.587 138.074 142.709 147.53 149.608 10.949 149.17 -63.404 55.398 151.107 -104.844 85.404 146.028 -108.778 114.203 145.875 -94.17 137.791 147.166 -62.599 72.3349 179.222 -20.6367 14.7299 9.96572 8.00033 
179.729 150.437 153.233 156.567 158.483 177.588 137.286 142.61 147.447 149.823 10.3401 149.92 -63.7414 54.586 150.461 -104.169 84.7524 145.696 -108.653 113.56 145.776 -94.2188 137.492 147.523 -62.8879 71.9432 179.369 -20.8436 15.0064 10.0214 8.35462 
179.665 150.01 153.322 156.567 158.571 177.514 136.393 142.658 147.42 149.924 9.79109 150.681 -64.0305 53.8197 149.992 -103.506 84.2504 145.756 -108.773 113.084 145.921 -94.3883 137.171 147.839 -63.1806 71.5791 179.547 -21.0666 15.1534 10.0693 8.91064 
179.581 149.444 153.374 156.443 158.488 177.383 135.698 142.828 147.382 149.811 9.34247 151.268 -64.189 53.1591 149.919 -103.133 83.9044 146.227 -109.125 112.698 146.249 -94.6199 136.711 148.027 -63.4327 71.2029 179.746 -21.284 15.1071 10.0188 9.50189 
179.518 148.914 153.469 156.313 158.376 177.29 135.495 143.2 147.477 149.723 8.89786 151.542 -64.2322 52.7049 150.094 -103.183 83.7098 146.887 -109.669 112.443 146.675 -94.9299 136.273 148.151 -63.651 70.7903 179.856 -21.4757 14.9716 9.92167 9.92923 
179.418 148.259 153.368 156.035 158.118 177.109 135.365 143.334 147.431 149.517 8.5807 151.523 -64.1765 52.4563 150.581 -103.496 83.5678 147.623 -110.152 112.248 147.193 -95.2086 135.876 148.382 -63.8542 70.3638 179.954 -21.674 14.8275 9.83363 10.0659 
179.297 147.823 153.237 155.681 157.775 176.927 135.537 143.293 147.144 148.967 8.342 151.417 -64.1458 52.2566 151.484 -104.158 83.3262 148.453 -110.62 111.867 147.613 -95.4452 135.188 148.399 -64.0613 69.9267 180.108 -21.8838 14.5477 9.65479 9.89098 
179.238 147.602 153.033 155.243 157.4 176.776 135.822 142.992 146.604 148.133 8.16245 151.313 -64.166 52.1636 152.686 -104.971 82.9914 149.258 -110.921 111.309 147.961 -95.5572 134.277 148.398 -64.2577 69.4904 180.369 -22.0826 14.1759 9.41268 9.39902 
179.204 147.622 152.602 154.712 156.988 176.658 135.99 142.351 145.873 147.295 7.94689 151.281 -64.2959 51.9644 153.661 -105.618 82.4109 149.735 -110.949 110.547 148.201 -95.5803 133.355 148.503 -64.4676 69.0323 180.661 -22.2859 13.9328 9.23345 8.80725 
179.185 147.671 152.154 154.402 156.725 176.604 135.877 141.71 145.385 146.833 7.52914 151.251 -64.3895 51.4314 154.227 -105.89 81.5992 150.039 -110.888 109.764 148.608 -95.7216 132.599 148.849 -64.7356 68.4904 180.926 -22.4694 13.8619 9.24526 8.45367 
179.214 147.649 151.789 154.255 156.623 176.607 135.526 141.058 144.944 146.517 6.86395 151.612 -64.5988 50.7563 154.626 -105.905 80.6468 150.194 -110.712 108.861 148.901 -95.8121 131.858 149.247 -65.0041 67.9261 181.223 -22.6355 13.9075 9.2878 8.18112 
179.171 147.378 151.201 154.019 156.535 176.512 134.889 140.288 144.567 146.561 6.11239 152.195 -64.9743 49.8453 154.624 -105.636 79.5575 149.946 -110.345 107.947 149.12 -95.8977 131.38 149.853 -65.3299 67.2745 181.37 -22.8335 14.2568 9.51924 8.05945 
178.914 146.945 150.657 153.648 156.428 176.259 133.999 139.657 144.236 146.635 5.40905 152.345 -65.1187 48.8096 154.27 -105.139 78.6361 149.662 -110.049 107.167 149.274 -95.9669 130.957 150.394 -65.6101 66.5889 181.42 -23.017 14.5693 9.72481 8.27732 
178.697 146.455 150.414 153.359 156.217 176.083 133.187 139.458 144.009 146.459 4.61965 152.409 -65.2406 47.728 154.193 -104.833 77.8707 149.936 -110.226 106.389 149.566 -96.1956 130.233 150.7 -65.9042 65.8365 181.478 -23.2291 14.6268 9.72535 8.73932 
178.599 145.954 150.322 153.149 155.948 175.954 132.899 139.45 143.746 145.942 3.73528 152.673 -65.3294 46.7113 154.704 -105.047 77.1272 150.49 -110.652 105.463 149.722 -96.4621 129.062 150.536 -66.199 65.0518 181.559 -23.4511 14.3707 9.50962 9.00318 
178.562 145.606 150.198 152.87 155.658 175.845 132.958 139.225 143.27 145.088 3.02931 152.699 -65.3466 45.7788 155.513 -105.613 76.2728 150.954 -110.987 104.392 149.719 -96.6553 127.646 150.2 -66.5005 64.2817 181.701 -23.7192 13.9568 9.24074 8.91078 
178.646 145.514 149.953 152.376 155.35 175.838 133.222 138.676 142.486 144.11 2.36004 152.508 -65.4109 44.9409 156.321 -106.375 75.2634 151.031 -111.077 103.136 149.362 -96.6407 126.215 149.805 -66.7453 63.5283 181.838 -24.0422 13.6538 8.94902 8.49759 
178.765 145.579 149.771 152.089 155.083 175.922 133.325 138.237 141.95 143.417 1.52275 152.281 -65.3926 43.9606 156.65 -106.789 74.1887 151.027 -111.129 102.017 149.225 -96.68 125.016 149.67 -66.9228 62.7101 181.928 -24.2997 13.4745 8.84564 8.30399 
178.799 145.538 149.519 151.852 154.883 175.952 133.04 137.714 141.434 142.916 0.47749 152.478 -65.6066 42.9497 156.752 -106.869 73.0748 150.919 -111.06 100.874 149.052 -96.6892 123.953 149.627 -67.1002 61.8667 181.999 -24.5416 13.4808 8.79818 8.2064 
178.715 145.583 149.303 151.754 154.782 175.881 132.456 137.281 141.106 142.56 -0.49806 152.656 -65.9235 41.8124 156.331 -106.588 72.0021 150.659 -110.986 99.7797 148.853 -96.8005 122.867 149.579 -67.3901 61.0262 182.068 -24.8348 13.4113 8.77066 8.35593 
178.542 145.47 149.281 151.733 154.671 175.748 131.934 137.229 140.986 142.206 -1.5215 152.844 -66.1744 40.5715 156.068 -106.393 71.0023 150.736 -111.242 98.6955 148.811 -97.0944 121.609 149.464 -67.7686 60.1313 182.161 -25.1225 13.1581 8.65503 8.68082 
178.585 145.169 149.309 151.701 154.53 175.69 132.163 137.555 140.943 141.585 -2.69353 153.28 -66.2833 39.39 156.748 -106.943 70.1664 151.407 -111.928 97.6189 148.905 -97.4952 120.043 149.077 -68.1254 59.2057 182.29 -25.3989 12.6322 8.37039 8.92652 
178.8 144.97 149.518 151.835 154.551 175.761 132.571 138.04 141.021 140.924 -3.71637 153.705 -66.466 38.3374 157.766 -107.671 69.4742 152.293 -112.703 96.6558 149.099 -97.9055 118.437 148.66 -68.4137 58.3083 182.423 -25.6519 12.0341 8.1011 9.15181 
179.028 144.846 149.707 151.762 154.6 175.774 133.038 138.15 140.627 140.027 -4.51642 153.986 -66.64 37.5273 159.049 -108.538 68.9011 152.934 -113.113 95.6572 148.926 -97.8469 116.906 148.282 -68.4389 57.4969 182.709 -25.8745 11.5024 7.75734 9.16539 
179.231 145.174 149.843 151.741 154.672 175.903 133.304 138.07 140.25 139.33 -5.40485 154.282 -66.8306 36.5888 159.506 -108.901 68.0312 153.06 -113.211 94.5071 148.611 -97.732 115.441 147.907 -68.466 56.6634 182.897 -26.0658 11.1252 7.55227 9.1734 
179.327 145.544 149.975 151.935 154.88 176.094 132.911 138.001 140.153 139.029 -6.50165 154.866 -67.2518 35.6005 159.183 -108.578 67.0336 153.127 -113.289 93.4007 148.535 -97.8421 114.103 147.701 -68.6763 55.8262 183.09 -26.2798 10.8323 7.46293 9.27371 
179.207 145.462 149.991 152.03 155.064 176.056 132.086 138.04 140.265 139.184 -7.54981 155.231 -67.647 34.3603 158.41 -107.895 65.9264 153.144 -113.492 92.2954 148.564 -98.1963 112.987 147.611 -69.1264 54.9335 183.112 -26.5349 10.7411 7.43573 9.67055 
179.236 145.098 150.196 152.284 155.33 176.107 131.677 138.598 140.743 139.546 -8.85859 155.872 -67.9891 33.1137 158.438 -107.718 65.0029 153.818 -114.192 91.3281 149.009 -98.8875 111.92 147.668 -69.7627 53.9801 183.102 -26.7751 10.6352 7.38313 10.1888 
179.347 144.681 150.417 152.554 155.524 176.091 132.015 139.297 141.239 139.696 -10.1514 156.583 -68.2264 32.0201 159.298 -108.328 64.1818 154.692 -115.06 90.398 149.455 -99.6096 110.744 147.657 -70.3712 53.0488 183.116 -27.0222 10.4249 7.29967 10.3602 
179.428 144.509 150.482 152.476 155.569 175.943 132.341 139.439 140.95 138.955 -11.041 157.126 -68.5321 31.1288 160.505 -109.093 63.4098 155.43 -115.556 89.2573 149.537 -99.8211 109.17 147.486 -70.6919 52.2135 183.279 -27.2821 9.9658 7.09618 10.2578 
179.665 144.688 150.564 152.297 155.677 175.95 132.739 139.335 140.384 138.173 -11.8451 157.491 -68.7525 30.2542 161.35 -109.664 62.5774 155.621 -115.621 87.9718 149.127 -99.5758 107.56 147.128 -70.7371 51.3936 183.498 -27.4647 9.51493 6.88962 10.0988 
179.876 145.231 150.617 152.351 155.896 176.162 132.583 139.073 140.04 137.788 -12.7939 157.905 -69.0522 29.2383 160.954 -109.41 61.4247 155.29 -115.443 86.635 148.664 -99.4044 106.08 146.757 -70.843 50.5694 183.633 -27.6542 9.2143 6.77456 10.0742 
179.964 145.266 150.656 152.574 156.216 176.385 131.719 139.058 140.166 138.034 -13.9034 158.213 -69.3458 28.1246 159.939 -108.506 60.2882 155.165 -115.488 85.521 148.648 -99.636 104.978 146.749 -71.2566 49.7186 183.703 -27.8763 9.09764 6.72295 10.4585 
179.985 144.978 150.924 152.96 156.631 176.495 130.835 139.465 140.67 138.72 -15.1798 158.566 -69.5947 26.9633 158.871 -107.519 59.1681 155.241 -115.834 84.4629 148.815 -100.139 104.074 146.902 -71.8599 48.8024 183.678 -28.0919 9.13694 6.697 11.1375 
179.953 144.754 151.098 153.202 156.761 176.422 130.423 139.96 141.131 139.132 -16.4591 159.069 -69.8342 25.8876 158.512 -107.229 58.0999 155.574 -116.42 83.4159 149.07 -100.767 103.073 146.935 -72.4345 47.8607 183.601 -28.3246 9.16464 6.68423 11.5791 
179.893 144.337 150.947 153.048 156.519 176.132 130.822 140.053 141.018 138.602 -17.5265 159.292 -69.8864 24.7855 159.348 -107.982 56.9932 156.011 -116.946 82.1825 149.137 -101.183 101.613 146.724 -72.8186 46.9523 183.588 -28.5982 8.93304 6.64285 11.2983 
179.928 144.391 150.721 152.647 156.233 175.928 131.061 139.706 140.285 137.461 -18.283 159.271 -69.9914 23.6495 160.303 -108.696 55.8534 156.359 -117.187 80.7309 148.955 -101.215 99.8188 146.348 -72.9945 46.1117 183.686 -28.8821 8.52907 6.56304 10.9752 
179.976 145.012 150.628 152.304 156.147 175.892 131.17 139.091 139.293 136.378 -19.0415 159.203 -70.1914 22.6939 160.688 -109.113 54.7753 156.218 -117.046 79.2289 148.421 -100.897 98.0683 145.922 -73.0366 45.3136 183.816 -29.1483 8.08945 6.42343 10.6414 
179.937 145.735 150.579 152.208 156.211 175.909 131.19 138.545 138.653 135.877 -20.0231 159.485 -70.4592 21.8102 160.699 -109.261 53.6372 156.003 -116.861 77.8663 148.03 -100.719 96.6688 145.678 -73.2051 44.5115 183.921 -29.388 7.8443 6.32716 10.3621 
179.987 146.167 150.616 152.331 156.416 175.897 130.728 138.463 138.693 136.226 -21.1495 159.827 -70.6617 20.857 160.038 -108.819 52.5269 155.962 -116.981 76.8223 148.019 -100.977 95.8141 145.712 -73.6412 43.6649 183.925 -29.6114 7.90427 6.31545 10.5686 
179.914 146.202 150.783 152.489 156.572 175.703 130.856 138.754 139.034 136.886 -22.2678 160.099 -70.7187 19.9408 160.028 -108.992 51.5042 156.143 -117.405 75.87 148.182 -101.444 95.1376 145.882 -74.1333 42.8113 184.053 -29.8242 8.0937 6.3341 10.5601 
179.793 146.538 150.909 152.611 156.562 175.514 131.747 138.952 139.217 137.157 -23.3059 160.478 -70.8476 19.1821 160.505 -109.854 50.5361 156.216 -117.817 74.8949 148.26 -101.871 94.3614 146.075 -74.5895 42.0182 184.301 -30.1118 8.1793 6.30361 10.0795 
179.74 146.774 150.765 152.409 156.297 175.333 132.967 138.881 139 136.812 -24.2837 160.603 -70.9372 18.3383 161.708 -111.284 49.5618 156.494 -118.285 73.81 148.277 -102.229 93.2821 146.023 -74.9627 41.2287 184.454 -30.4377 8.11836 6.32804 9.45727 
179.695 147.269 150.527 152.034 155.983 175.051 133.857 138.605 138.481 136.046 -24.9377 160.788 -71.1543 17.5283 163.195 -112.613 48.7419 157.164 -118.721 72.8131 148.572 -102.495 92.1035 146.091 -75.2237 40.4876 184.645 -30.7375 7.95892 6.38657 9.12626 
179.674 147.977 150.344 151.509 155.689 174.784 134.496 137.956 137.462 135.022 -25.4245 160.917 -71.4203 16.8051 164.366 -113.72 47.949 157.336 -118.767 71.6969 148.428 -102.312 90.9077 146.06 -75.2843 39.8259 184.845 -31.04 7.75526 6.40406 8.88991 
179.701 148.979 150.281 151.227 155.585 174.679 135.127 137.378 136.592 134.272 -26.1069 161.467 -71.8635 16.147 165.398 -114.7 47.1769 157.539 -118.794 70.6106 148.316 -102.172 89.7903 146.035 -75.4462 39.1532 185.01 -31.3348 7.583 6.41698 8.77643 
179.605 149.786 150.142 150.995 155.408 174.473 135.46 136.85 135.993 133.873 -26.8492 162.302 -72.282 15.4666 166.29 -115.36 46.3585 157.98 -118.872 69.6893 148.615 -102.28 89.0347 146.364 -75.7926 38.4988 185.209 -31.6022 7.62545 6.40798 8.71233 
179.459 150.325 150.025 150.79 155.176 174.209 135.828 136.726 135.884 134.014 -27.7277 163.276 -72.5335 14.6237 167.21 -115.902 45.4963 158.776 -119.261 68.9304 149.369 -102.801 88.6065 146.991 -76.4081 37.8249 185.421 -31.8512 7.90205 6.41276 8.72359 
179.292 150.804 150.118 150.794 155.101 173.965 136.461 137.055 136.175 134.485 -28.6668 164.163 -72.6663 13.8113 168.313 -116.609 44.7804 159.782 -119.964 68.3514 150.264 -103.549 88.3213 147.669 -77.1044 37.1813 185.699 -32.1092 8.20658 6.48746 8.80383 
179.122 151.488 150.211 150.784 154.952 173.741 137.316 137.411 136.439 134.767 -29.5525 164.909 -72.7393 13.1565 169.45 -117.449 44.161 160.665 -120.638 67.8258 151.03 -104.187 87.9713 148.215 -77.6143 36.5777 186.007 -32.3461 8.44578 6.57 8.85756 
178.958 152.638 149.981 150.551 154.707 173.374 138.687 137.552 136.263 134.37 -31.0339 165.695 -72.851 11.8922 171.578 -119.031 43.0346 162.025 -121.55 66.6126 151.775 -104.759 86.6767 148.541 -77.992 35.4039 186.482 -32.7445 8.51765 6.88785 9.14937 
178.959 153.341 149.949 150.38 154.642 173.284 139.184 137.578 135.865 133.747 -31.4408 165.821 -72.788 11.4883 172.472 -119.65 42.8506 162.637 -121.88 66.2546 151.908 -104.716 86.0817 148.538 -77.9005 35.0594 186.684 -32.8606 8.37271 7.16902 9.41562 
179.083 153.876 149.999 150.269 154.711 173.348 139.334 137.432 135.295 133.032 -31.9459 165.955 -72.8865 11.0421 172.873 -120.047 42.4894 162.852 -121.998 65.6296 151.816 -104.506 85.2529 148.567 -77.7952 34.584 186.876 -33.0285 8.13615 7.3545 9.56262 
179.152 154.17 150 150.128 154.768 173.337 139.191 137.049 134.647 132.401 -32.2926 166.001 -72.992 10.5534 172.854 -120.196 41.9602 162.681 -121.896 64.9156 151.509 -104.207 84.485 148.531 -77.7239 34.168 187.006 -33.1941 7.93015 7.4728 9.61918 
179.258 154.391 150.041 150.081 154.834 173.349 139.101 136.78 134.236 132.046 -32.6507 166.058 -73.1865 10.0591 172.764 -120.352 41.403 162.475 -121.882 64.2423 151.206 -104.102 83.8395 148.434 -77.8245 33.7395 186.968 -33.3762 7.81199 7.54396 9.63718 
179.443 154.765 150.198 150.21 154.967 173.458 139.279 136.817 134.172 131.995 -33.0739 166.212 -73.4071 9.50117 172.889 -120.564 40.8892 162.596 -122.042 63.6897 151.169 -104.214 83.3214 148.403 -78.013 33.2915 186.883 -33.49 7.786 7.62811 9.68112 
179.552 155.048 150.386 150.39 155.072 173.529 139.354 136.947 134.271 132.147 -33.5093 166.553 -73.6549 8.93599 172.875 -120.643 40.3679 162.748 -122.243 63.1888 151.249 -104.472 82.9441 148.445 -78.3275 32.8523 186.764 -33.6037 7.85329 7.63511 9.65145 
179.611 155.168 150.686 150.663 155.206 173.596 139.274 137.181 134.556 132.446 -33.9847 167.045 -73.9073 8.43047 172.729 -120.549 39.8882 162.982 -122.451 62.7973 151.53 -104.812 82.6446 148.633 -78.6623 32.4356 186.791 -33.6996 7.93233 7.56506 9.52202 
179.711 155.276 150.962 150.901 155.309 173.696 139.234 137.527 135.002 132.974 -34.4833 167.502 -74.1078 7.88832 172.424 -120.386 39.4365 163.202 -122.714 62.5092 151.846 -105.232 82.4801 148.82 -79.051 32.039 186.784 -33.7919 8.06681 7.48872 9.4153 
179.803 155.427 151.204 151.095 155.396 173.773 139.576 137.974 135.493 133.586 -35.057 167.922 -74.1974 7.35551 172.452 -120.475 39.0078 163.404 -123.036 62.2057 152.052 -105.64 82.2983 148.916 -79.4405 31.624 186.731 -33.8723 8.19589 7.47707 9.43114 
179.888 155.656 151.433 151.298 155.468 173.794 140.104 138.522 136.076 134.21 -35.6088 168.172 -74.1595 6.90622 172.671 -120.706 38.7012 163.692 -123.441 62.0195 152.266 -106.056 82.1281 148.912 -79.724 31.2339 186.683 -33.9136 8.30642 7.52954 9.50122 
179.894 156.035 151.757 151.533 155.585 173.8 140.744 139.061 136.576 134.695 -36.1277 168.41 -74.1847 6.54738 173.134 -121.107 38.4635 163.986 -123.868 61.8279 152.41 -106.416 81.8829 148.876 -79.9586 30.8864 186.733 -34.003 8.34767 7.62007 9.60887 
179.914 156.552 152.059 151.675 155.66 173.835 141.369 139.499 136.94 135.101 -36.6186 168.537 -74.199 6.17311 173.4 -121.439 38.1342 164.064 -124.173 61.5129 152.365 -106.654 81.567 148.713 -80.1391 30.5559 186.696 -34.0548 8.3853 7.68121 9.66742 
179.913 156.964 152.292 151.692 155.67 173.791 141.853 139.742 137.091 135.304 -36.9849 168.446 -74.2237 5.86823 173.598 -121.789 37.7765 163.962 -124.397 61.1008 152.136 -106.785 81.1458 148.449 -80.2744 30.2539 186.672 -34.1461 8.3656 7.73824 9.68743 
