176.58 154.735 161.592 168.463 166.185 172.389 153.727 156.387 162.19 159.474 46.9222 106.406 17.0658 90.9546 120.606 -27.5026 126.721 116.124 -28.9164 156.573 118.173 -10.4776 173.647 114.854 26.5092 97.1355 139.587 64.5131 13.4175 11.4079 10.7034 
176.563 154.154 161.629 168.445 166.129 172.446 153.085 156.265 162 159.324 47.209 106.439 16.9725 90.9884 120.623 -27.207 126.882 116.294 -28.8605 156.646 118.229 -10.3992 173.726 115.014 26.4812 97.2947 139.779 64.5183 13.3532 11.3371 10.8097 
176.645 153.654 161.778 168.469 166.068 172.603 152.519 156.243 161.872 159.171 47.3846 106.643 16.8236 91.054 120.583 -26.9128 127.062 116.46 -28.8242 156.721 118.297 -10.3172 173.749 115.203 26.4653 97.4534 140.046 64.5409 13.2426 11.2516 10.9049 
176.663 152.858 161.743 168.467 165.969 172.674 151.71 156.023 161.728 158.97 48.1225 106.901 16.5789 91.5659 120.171 -26.6234 127.539 116.296 -28.955 157.214 118.254 -10.5845 174.24 115.308 26.0728 98.2505 140.275 64.3438 13.1225 11.2662 10.9176 
176.689 152.287 161.633 168.403 165.818 172.757 150.94 155.682 161.489 158.668 48.5281 107.182 16.3713 91.9366 119.969 -26.3899 127.806 116.109 -28.9245 157.487 118.199 -10.6712 174.472 115.428 25.8656 98.7655 140.603 64.1973 13.0051 11.2937 10.8715 
176.834 152.326 161.526 168.251 165.626 172.953 150.702 155.345 161.192 158.305 48.8073 107.598 16.0675 92.6463 120.073 -26.4365 128.237 115.925 -28.8225 157.807 118.117 -10.6637 174.723 115.564 25.7506 99.2269 140.912 64.0419 12.8884 11.246 10.6345 
176.98 152.953 161.538 168.102 165.477 173.155 151.057 155.124 160.913 157.932 49.0446 108.112 15.8655 93.5528 120.53 -26.6909 128.735 115.819 -28.6883 158.119 118.026 -10.5863 174.95 115.698 25.7012 99.7091 141.281 63.9631 12.7527 11.1239 10.2675 
177.055 153.786 161.564 167.89 165.351 173.283 151.674 154.985 160.672 157.615 49.2776 108.455 15.7513 94.5254 121.134 -27.0539 129.304 115.773 -28.5504 158.458 117.951 -10.461 175.186 115.815 25.7345 100.148 141.621 63.9143 12.6329 10.9704 9.92404 
177.152 154.808 161.688 167.64 165.233 173.443 152.539 154.976 160.471 157.377 49.5668 108.696 15.6327 95.6559 121.846 -27.5259 130.102 115.834 -28.4361 158.974 117.949 -10.2804 175.576 115.955 25.8796 100.572 141.889 63.88 12.5472 10.7827 9.66477 
177.241 156.035 161.876 167.408 165.142 173.586 153.423 155.023 160.313 157.196 49.9037 108.778 15.4792 96.8549 122.416 -27.9601 130.982 115.914 -28.3025 159.561 117.97 -10.0249 175.999 116.08 26.1314 100.937 142.068 63.8715 12.4664 10.6026 9.44785 
177.291 157.098 162.013 167.167 165.039 173.662 154.151 155.101 160.205 157.091 50.235 108.705 15.3812 97.8966 122.824 -28.3378 131.801 116.003 -28.2436 160.158 118.003 -9.84404 176.462 116.128 26.3509 101.283 142.166 63.8633 12.4176 10.4652 9.31026 
177.358 158.282 162.173 166.984 164.762 173.747 154.961 155.21 160.128 156.855 50.7524 108.395 15.2784 99.41 123.101 -28.7578 133.009 115.985 -28.168 161.139 117.93 -9.52995 177.191 115.855 26.7946 101.866 142.086 63.9165 12.3806 10.3871 9.119 
177.43 158.963 162.281 167.013 164.648 173.831 155.497 155.321 160.213 156.821 50.703 108.288 15.2021 99.9687 123.226 -28.9815 133.362 116.02 -28.1339 161.444 117.952 -9.3392 177.341 115.64 27.1334 101.884 141.938 64.0008 12.4158 10.4296 8.98575 
177.481 159.267 162.223 167.045 164.522 173.889 155.688 155.271 160.274 156.785 50.7311 108.082 15.1721 100.464 123.003 -29.0351 133.615 115.877 -28.0702 161.773 117.91 -9.20605 177.579 115.371 27.393 102.019 141.713 64.05 12.4778 10.5656 8.80387 
177.527 159.53 162.193 167.139 164.416 173.957 155.918 155.288 160.403 156.76 50.6743 107.883 15.2004 100.735 122.653 -29.0689 133.722 115.632 -28.0222 162.014 117.858 -9.11461 177.738 115.125 27.6175 102.088 141.469 64.0921 12.5478 10.7459 8.67793 
177.572 159.737 162.13 167.236 164.321 174.033 156.119 155.271 160.518 156.744 50.6189 107.777 15.1309 101.055 122.275 -29.1046 133.829 115.317 -27.9581 162.231 117.707 -9.01306 177.892 114.825 27.8482 102.147 141.183 64.0975 12.6391 10.9158 8.52616 
177.633 159.881 162.043 167.352 164.25 174.096 156.229 155.218 160.618 156.732 50.5325 107.63 15.0598 101.213 121.819 -29.1505 133.8 114.925 -27.9573 162.339 117.486 -9.0258 177.966 114.489 27.9339 102.185 140.86 64.0599 12.7127 11.0862 8.39072 
177.669 159.775 161.86 167.428 164.187 174.161 156.141 155.106 160.697 156.74 50.4104 107.414 15.0093 101.191 121.24 -29.1497 133.651 114.519 -28.0188 162.37 117.259 -9.15503 178.033 114.158 27.873 102.225 140.503 63.9573 12.8012 11.2674 8.28471 
177.679 159.66 161.708 167.526 164.176 174.194 156.04 155.025 160.737 156.764 50.381 107.105 14.9081 101.145 120.695 -29.2137 133.523 114.091 -28.1605 162.378 116.913 -9.35774 178.109 113.764 27.6959 102.307 140.118 63.7926 12.8708 11.3851 8.21848 
177.729 159.603 161.703 167.693 164.237 174.245 156.008 155.073 160.795 156.825 50.4247 106.826 14.8394 101.003 120.216 -29.3051 133.386 113.705 -28.3728 162.292 116.503 -9.63372 178.095 113.343 27.3879 102.388 139.732 63.6179 12.8856 11.398 8.21326 
177.765 159.756 161.808 167.894 164.316 174.287 156.149 155.192 160.796 156.875 50.5598 106.659 14.741 100.962 120.067 -29.5473 133.344 113.491 -28.6831 162.207 116.095 -9.95816 178.094 112.961 26.9823 102.54 139.428 63.4197 12.8612 11.3003 8.21909 
177.81 160.032 161.95 168.054 164.411 174.347 156.401 155.341 160.809 156.922 50.7435 106.532 14.641 101.066 119.948 -29.7922 133.457 113.274 -28.9504 162.258 115.752 -10.2449 178.187 112.709 26.6097 102.767 139.19 63.2449 12.7922 11.1919 8.23459 
177.856 160.376 162.118 168.18 164.48 174.42 156.707 155.479 160.815 156.965 50.9614 106.555 14.5573 101.358 119.873 -29.9975 133.725 113.102 -29.1457 162.428 115.542 -10.471 178.37 112.634 26.2868 103.054 139.062 63.1044 12.6978 11.0781 8.21986 
177.891 160.81 162.254 168.278 164.533 174.501 157.069 155.565 160.779 156.968 51.2092 106.791 14.4374 101.768 120.004 -30.213 134.103 113.005 -29.2757 162.687 115.451 -10.6416 178.639 112.686 26.0315 103.384 139.035 62.9892 12.6167 10.9724 8.22375 
177.97 161.335 162.444 168.377 164.56 174.625 157.507 155.687 160.76 156.947 51.5211 107.237 14.2471 102.294 120.309 -30.4759 134.607 113.006 -29.4081 163.032 115.484 -10.814 178.949 112.857 25.7878 103.745 139.111 62.8708 12.5175 10.8533 8.25046 
178.024 161.869 162.602 168.483 164.641 174.752 157.989 155.772 160.787 156.967 51.8633 107.764 14.0142 102.903 120.757 -30.7707 135.225 113.053 -29.4901 163.543 115.674 -10.9555 179.433 113.161 25.6401 104.135 139.203 62.7507 12.4874 10.8122 8.34273 
178.109 162.212 162.628 168.545 164.724 174.866 158.267 155.731 160.807 156.985 52.161 108.413 13.8501 103.387 121.283 -30.9658 135.734 113.159 -29.485 164.024 115.953 -11.0736 179.916 113.522 25.5242 104.524 139.364 62.6703 12.4854 10.8296 8.47785 
178.178 162.47 162.662 168.584 164.803 174.954 158.51 155.7 160.845 157.022 52.4694 109.012 13.6314 103.965 121.815 -31.1438 136.334 113.362 -29.4453 164.599 116.338 -11.1032 180.464 113.927 25.5506 104.883 139.505 62.6017 12.5268 10.8787 8.6066 
178.203 162.61 162.66 168.556 164.813 174.973 158.633 155.651 160.822 157.035 52.8707 109.539 13.3834 104.593 122.436 -31.3362 136.983 113.701 -29.4676 165.188 116.721 -11.1195 181.014 114.26 25.5892 105.258 139.667 62.5126 12.5741 10.8929 8.7162 
178.198 162.521 162.548 168.441 164.761 174.894 158.478 155.461 160.71 156.978 53.3306 109.884 13.1597 105.136 122.797 -31.3863 137.5 113.972 -29.4069 165.699 117.069 -11.0684 181.492 114.52 25.6794 105.594 139.824 62.4306 12.6351 10.9674 8.73987 
178.188 162.362 162.518 168.343 164.745 174.793 158.316 155.375 160.638 156.984 53.7872 109.97 13.0191 105.633 123.04 -31.4231 138.02 114.297 -29.4076 166.195 117.403 -11.0124 181.956 114.744 25.789 105.889 139.947 62.3604 12.7022 11.0054 8.73723 
178.19 162.049 162.433 168.198 164.699 174.691 158.004 155.254 160.534 156.982 54.2402 109.974 12.8564 106.139 123.103 -31.3715 138.537 114.577 -29.3606 166.689 117.702 -10.9116 182.411 114.961 25.9429 106.169 140.06 62.3016 12.7651 11.048 8.6849 
178.16 161.671 162.295 168.029 164.634 174.603 157.574 155.059 160.396 156.944 54.6828 109.862 12.7389 106.535 123 -31.2557 138.92 114.687 -29.2842 167.096 117.861 -10.82 182.808 115.069 26.0546 106.45 140.147 62.2422 12.8177 11.1206 8.61574 
178.102 161.2 162.102 167.831 164.526 174.509 157.022 154.789 160.198 156.84 55.0506 109.798 12.6369 106.831 122.884 -31.0751 139.142 114.795 -29.1958 167.344 117.998 -10.7588 183.074 115.148 26.1058 106.7 140.272 62.1891 12.8639 11.188 8.49819 
178.086 160.688 161.927 167.656 164.379 174.464 156.461 154.554 160.001 156.713 55.3701 109.766 12.5336 107.029 122.653 -30.8605 139.241 114.822 -29.1109 167.451 118.044 -10.7205 183.213 115.19 26.1011 106.915 140.4 62.1409 12.8859 11.2317 8.35638 
178.041 160.078 161.727 167.464 164.195 174.404 155.856 154.308 159.795 156.576 55.5725 109.673 12.4831 107.065 122.305 -30.6084 139.186 114.745 -29.0122 167.424 118.011 -10.7009 183.267 115.17 26.0799 107.084 140.491 62.1095 12.9274 11.2864 8.23191 
178.021 159.534 161.486 167.269 164.026 174.395 155.272 154.06 159.575 156.448 55.7715 109.691 12.3825 107.1 122.001 -30.4046 139.124 114.666 -28.9649 167.383 117.919 -10.7231 183.322 115.105 25.9963 107.284 140.599 62.0467 12.9571 11.3173 8.11881 
178.077 158.961 161.273 167.043 163.847 174.473 154.652 153.765 159.331 156.308 55.931 109.828 12.2813 107.056 121.586 -30.1179 138.942 114.464 -28.8637 167.256 117.778 -10.7623 183.326 115.041 25.8615 107.485 140.697 62.0111 12.97 11.3743 7.9856 
178.149 158.512 161.169 166.895 163.743 174.604 154.162 153.592 159.168 156.214 56.0817 109.957 12.2282 106.995 121.139 -29.8311 138.786 114.262 -28.7776 167.164 117.663 -10.8077 183.381 115.02 25.7512 107.701 140.789 62.008 13.0029 11.4325 7.88375 
178.214 158.141 161.049 166.699 163.641 174.724 153.667 153.374 158.993 156.109 56.2354 110.13 12.1691 106.917 120.684 -29.537 138.588 113.944 -28.6577 167.07 117.468 -10.8541 183.432 114.951 25.6167 107.959 140.889 62.0129 13.011 11.5218 7.78755 
178.267 157.807 161.045 166.607 163.534 174.861 153.316 153.233 158.875 156.015 56.4443 110.304 12.107 106.832 120.102 -29.2199 138.361 113.417 -28.473 166.942 117.143 -10.8527 183.456 114.801 25.5539 108.201 140.934 62.0354 13.0503 11.6425 7.68969 
178.312 157.45 161.053 166.539 163.415 174.988 152.935 153.055 158.743 155.896 56.6049 110.447 12.0384 106.724 119.385 -28.8578 138.06 112.688 -28.2332 166.74 116.638 -10.8086 183.4 114.492 25.5136 108.407 140.873 62.0736 13.0807 11.7829 7.562 
178.305 157.211 161.098 166.5 163.241 175.128 152.671 152.916 158.554 155.688 56.7687 110.607 11.8918 106.746 118.698 -28.6052 137.915 111.9 -28.0161 166.648 116.077 -10.7255 183.459 114.119 25.5681 108.641 140.747 62.0903 13.1668 11.9106 7.45916 
178.266 157.27 161.245 166.465 163.066 175.268 152.73 152.898 158.395 155.523 56.9938 110.704 11.636 106.977 118.052 -28.5593 137.872 111.011 -27.874 166.553 115.375 -10.6879 183.495 113.664 25.5655 108.87 140.531 62.0455 13.2346 11.9681 7.28285 
178.175 157.75 161.498 166.511 162.946 175.364 153.296 153.057 158.34 155.431 57.1786 110.613 11.3871 107.443 117.546 -28.7632 138.037 110.142 -27.8002 166.604 114.683 -10.6072 183.619 113.166 25.6696 109.057 140.215 62.0005 13.311 11.983 7.09693 
178.063 158.391 161.749 166.575 162.865 175.426 154.22 153.331 158.372 155.464 57.3245 110.164 11.1745 107.983 117.102 -29.1771 138.283 109.269 -27.8228 166.713 113.946 -10.5454 183.774 112.567 25.7794 109.17 139.718 61.9197 13.3894 11.9654 6.95339 
177.912 159.08 161.907 166.635 162.848 175.414 155.387 153.743 158.467 155.612 57.3594 109.401 10.9907 108.611 116.821 -29.7874 138.742 108.63 -28.0529 166.957 113.241 -10.5204 184.04 111.851 25.9258 109.216 139.045 61.7774 13.511 11.8388 6.91104 
177.673 159.935 161.934 166.75 162.908 175.307 156.629 154.142 158.628 155.81 57.3624 108.473 10.8905 109.158 116.712 -30.5153 139.26 108.155 -28.4045 167.322 112.617 -10.5813 184.399 111.088 26.0325 109.246 138.288 61.6095 13.6313 11.7186 7.00486 
177.448 160.734 161.73 166.91 162.976 175.157 157.465 154.171 158.676 155.942 57.314 107.518 10.8176 109.554 116.567 -31.1582 139.62 107.549 -28.6736 167.629 111.886 -10.732 184.733 110.183 25.9961 109.305 137.481 61.3645 13.7448 11.6649 7.15556 
177.244 161.46 161.418 167.185 162.994 174.963 158.015 153.889 158.72 155.93 57.391 106.656 10.7251 109.927 116.443 -31.6923 139.847 106.848 -28.8026 167.93 111.269 -10.9687 184.945 109.407 25.7799 109.408 136.73 61.0882 13.7229 11.7596 7.31129 
177.09 161.938 161.241 167.393 162.986 174.814 158.205 153.526 158.701 155.886 57.5181 105.727 10.567 110.183 116.207 -32.0873 140.074 106.095 -28.8711 168.223 110.685 -11.2756 185.122 108.68 25.4323 109.534 135.986 60.7622 13.6402 11.8686 7.54468 
176.945 162.376 161.437 167.598 163.132 174.706 158.216 153.391 158.784 155.91 57.7374 104.821 10.4703 110.462 115.777 -32.2538 140.438 105.318 -28.8809 168.653 110.121 -11.5303 185.392 108.06 25.1156 109.723 135.335 60.4981 13.4913 11.9556 7.76164 
176.849 162.55 161.794 167.8 163.341 174.648 158.053 153.494 158.952 156.058 58.004 103.794 10.3292 110.678 115.049 -32.3121 140.882 104.624 -28.9576 169.138 109.543 -11.7261 185.667 107.449 24.8547 109.876 134.678 60.2264 13.3185 11.9857 7.88888 
176.765 162.553 162.042 168.11 163.468 174.635 157.843 153.679 159.142 156.244 58.1601 102.759 10.0886 110.91 114.116 -32.383 141.384 103.977 -29.1326 169.648 108.894 -11.8517 185.965 106.762 24.7327 109.967 133.956 59.9208 13.2158 11.9789 7.92663 
176.627 162.398 162.173 168.404 163.635 174.597 157.641 153.959 159.357 156.51 58.2723 101.573 9.84172 111.133 113.246 -32.5227 142.019 103.615 -29.4547 170.263 108.344 -11.9496 186.384 106.099 24.727 109.991 133.199 59.5918 13.1925 11.9019 7.98923 
176.444 162.428 162.387 168.709 163.882 174.52 157.577 154.259 159.608 156.851 58.3447 100.421 9.71679 111.397 112.466 -32.6853 142.692 103.358 -29.803 170.92 107.889 -12.0764 186.873 105.523 24.6901 110.041 132.462 59.2957 13.1692 11.8052 8.07583 
176.217 162.628 162.69 169.089 164.113 174.378 157.568 154.535 159.875 157.115 58.4936 99.4654 9.71064 111.676 111.785 -32.7678 143.325 103.124 -30.0744 171.536 107.565 -12.1811 187.289 105.116 24.6451 110.114 131.862 59.0756 13.0911 11.7296 8.16021 
175.99 162.905 162.927 169.428 164.317 174.204 157.538 154.744 160.084 157.351 58.6367 98.6414 9.79501 111.842 111.223 -32.8605 143.933 102.955 -30.3828 172.158 107.288 -12.3264 187.741 104.709 24.5459 110.241 131.365 58.8711 13.0142 11.6599 8.32743 
175.79 163.27 163.25 169.757 164.501 174.1 157.541 154.952 160.282 157.528 58.7667 97.8499 9.82263 112.047 110.6 -32.9412 144.557 102.774 -30.6511 172.766 107.059 -12.4421 188.136 104.398 24.4536 110.377 130.921 58.6856 12.8871 11.5786 8.49 
175.573 163.054 163.518 169.857 164.701 173.988 157.105 155.048 160.419 157.688 58.9331 97.1696 9.88688 112.06 109.799 -32.7972 145.072 102.576 -30.8013 173.332 106.935 -12.5527 188.557 104.218 24.3581 110.54 130.602 58.5295 12.7898 11.5655 8.70445 
175.351 162.401 163.756 169.797 164.968 173.917 156.429 155.124 160.538 157.945 59.1092 96.6502 9.85978 112.07 109.023 -32.5708 145.634 102.505 -30.9094 173.977 106.977 -12.6229 189.134 104.177 24.3573 110.714 130.355 58.3921 12.7794 11.5977 8.9811 
175.126 160.968 163.883 169.538 165.238 173.842 155.284 155.046 160.561 158.189 59.3078 96.2821 9.77915 111.95 108.242 -32.1485 146.068 102.508 -30.9929 174.537 107.103 -12.7571 189.714 104.212 24.2724 110.943 130.249 58.2102 12.8104 11.6643 9.29975 
174.972 159.266 164.039 169.259 165.477 173.805 154.03 154.949 160.541 158.367 59.5338 95.9417 9.60551 111.83 107.531 -31.7252 146.423 102.472 -31.0834 174.982 107.171 -12.9443 190.207 104.232 24.0947 111.186 130.173 57.9655 12.8379 11.7085 9.62357 
174.948 157.674 164.337 169.055 165.684 173.833 152.949 154.934 160.513 158.527 59.813 95.8062 9.34889 111.733 106.874 -31.3436 146.681 102.448 -31.2569 175.327 107.214 -13.2197 190.639 104.283 23.7899 111.489 130.214 57.6468 12.8597 11.7377 9.90422 
174.924 156.231 164.779 168.967 165.92 173.892 152.001 155.052 160.545 158.737 60.1073 95.6722 8.94122 111.745 106.236 -31.0636 146.952 102.355 -31.4757 175.692 107.225 -13.5084 191.098 104.281 23.5134 111.763 130.224 57.2438 12.9348 11.8166 10.1579 
174.977 155.018 165.22 168.998 166.186 173.947 151.285 155.251 160.698 159.02 60.3963 95.6367 8.50943 111.787 105.618 -30.8451 147.122 102.193 -31.728 176.011 107.275 -13.8714 191.517 104.345 23.1842 112.01 130.249 56.8347 13.013 11.9636 10.3371 
175.158 153.981 165.623 169.14 166.444 174.048 150.735 155.463 160.921 159.366 60.6625 95.6288 8.00292 111.861 105.141 -30.807 147.251 102.041 -32.0976 176.333 107.328 -14.3437 191.946 104.387 22.7766 112.244 130.244 56.3673 13.1089 12.1473 10.4671 
175.372 153.186 165.966 169.232 166.601 174.14 150.203 155.592 161.078 159.645 60.8583 95.607 7.49112 111.906 104.745 -30.877 147.295 101.878 -32.5026 176.535 107.309 -14.851 192.227 104.355 22.2879 112.415 130.205 55.8699 13.1602 12.296 10.5538 
175.531 152.631 165.993 169.268 166.635 174.209 149.732 155.476 161.115 159.759 61.0747 95.6423 7.03053 111.91 104.462 -31.0296 147.227 101.675 -32.9049 176.594 107.176 -15.409 192.346 104.236 21.6879 112.58 130.211 55.3559 13.1573 12.4011 10.5746 
175.642 152.182 165.829 169.229 166.577 174.344 149.434 155.268 161.081 159.774 61.3312 95.8424 6.54916 111.845 104.351 -31.2727 147.013 101.477 -33.3266 176.468 106.971 -16.0143 192.276 104.091 20.9784 112.72 130.239 54.8556 13.1006 12.4558 10.5082 
175.698 151.851 165.435 169.073 166.444 174.471 149.306 154.959 160.96 159.702 61.561 96.0691 6.09009 111.773 104.349 -31.5781 146.718 101.336 -33.7701 176.203 106.761 -16.6718 192.109 104.014 20.1739 112.896 130.327 54.3822 13.0127 12.439 10.3722 
175.747 151.817 164.976 168.912 166.298 174.623 149.406 154.714 160.835 159.597 61.8503 96.4864 5.59271 111.752 104.576 -32.0402 146.447 101.237 -34.2495 175.933 106.525 -17.3457 191.951 103.964 19.3528 113.144 130.518 53.9255 12.9192 12.3745 10.1659 
175.767 152.017 164.592 168.661 166.121 174.786 149.676 154.569 160.697 159.458 62.1911 96.9137 5.10262 111.819 104.885 -32.5843 146.293 101.189 -34.7399 175.709 106.304 -17.9788 191.812 103.92 18.5723 113.434 130.745 53.5002 12.8076 12.2558 9.96035 
175.898 152.391 164.277 168.42 165.958 174.95 150.046 154.515 160.605 159.356 62.5722 97.1758 4.69369 111.917 105.152 -33.135 146.216 101.152 -35.2227 175.535 106.11 -18.5654 191.692 103.906 17.8455 113.718 130.968 53.098 12.6872 12.1159 9.78633 
176.008 152.828 164.02 168.114 165.78 175.071 150.447 154.489 160.485 159.175 63.03 97.3595 4.34723 112.101 105.39 -33.631 146.275 101.153 -35.6579 175.456 105.968 -19.0642 191.628 103.916 17.2258 114.024 131.188 52.7414 12.5676 11.9617 9.65601 
176.113 153.138 163.861 167.641 165.565 175.172 150.782 154.468 160.259 158.936 63.5454 97.5412 3.88453 112.296 105.65 -34.1051 146.341 101.204 -36.1225 175.308 105.844 -19.5754 191.53 103.957 16.5872 114.321 131.411 52.3474 12.4786 11.7725 9.54486 
176.163 153.39 163.784 167.191 165.387 175.234 151.163 154.592 160.102 158.735 64.1519 97.6364 3.4896 112.521 105.941 -34.5726 146.548 101.342 -36.6116 175.253 105.73 -20.0376 191.513 103.984 16.0303 114.646 131.639 51.9661 12.4161 11.5323 9.52129 
176.16 153.804 163.562 166.718 165.244 175.251 151.542 154.707 159.985 158.613 64.7101 97.5879 3.02048 112.798 106.206 -35.2092 146.891 101.55 -37.2191 175.353 105.647 -20.5159 191.614 103.985 15.5043 114.958 131.811 51.5188 12.3654 11.2879 9.56077 
176.181 154.035 163.303 166.233 165.08 175.245 151.682 154.777 159.865 158.519 65.2122 97.5394 2.51121 113.004 106.368 -35.8788 147.193 101.733 -37.8982 175.442 105.509 -21.064 191.723 103.88 14.9173 115.266 131.94 50.9764 12.3414 11.06 9.64823 
176.167 153.88 162.919 165.706 164.92 175.237 151.561 154.74 159.698 158.398 65.6925 97.5151 1.99394 113.247 106.598 -36.4928 147.587 101.998 -38.5053 175.632 105.45 -21.5242 191.906 103.815 14.4388 115.56 132.071 50.4297 12.3404 10.857 9.78917 
176.177 153.556 162.538 165.224 164.8 175.229 151.364 154.66 159.559 158.315 65.99 97.3276 1.59416 113.406 106.811 -37.092 147.941 102.315 -39.0785 175.859 105.503 -21.9664 192.149 103.857 14.0097 115.802 132.167 49.8955 12.3761 10.7053 9.96739 
176.148 153.618 162.212 164.91 164.762 175.235 151.321 154.639 159.492 158.283 66.1482 97.2686 1.31133 113.647 107.136 -37.7267 148.388 102.7 -39.6167 176.228 105.634 -22.3358 192.511 103.956 13.6766 116.081 132.313 49.4437 12.3981 10.5678 10.1153 
176.111 153.652 161.996 164.692 164.742 175.269 151.267 154.645 159.463 158.255 66.2425 97.3109 0.928912 113.791 107.465 -38.3622 148.723 103.064 -40.1718 176.518 105.782 -22.7437 192.79 104.034 13.313 116.294 132.465 48.9535 12.4277 10.475 10.2623 
176.045 153.669 161.937 164.578 164.751 175.3 151.134 154.65 159.488 158.235 66.2127 97.1583 0.529922 113.934 107.607 -38.9781 149.055 103.231 -40.6641 176.873 105.916 -23.168 193.15 104.116 12.9886 116.465 132.538 48.4154 12.5011 10.4621 10.3995 
176.091 153.753 162.148 164.555 164.792 175.349 150.904 154.699 159.484 158.18 66.1602 97.1334 0.0700045 114.059 107.874 -39.6297 149.345 103.328 -41.1009 177.197 106.067 -23.5946 193.509 104.244 12.652 116.614 132.634 47.8495 12.5982 10.4828 10.5003 
176.068 153.926 162.39 164.606 164.818 175.431 150.72 154.735 159.458 158.117 66.0631 97.0967 -0.560265 114.393 108.096 -40.4105 149.786 103.383 -41.5605 177.624 106.234 -24.0295 193.93 104.384 12.3324 116.736 132.675 47.1953 12.7021 10.5041 10.5514 
176.055 154.096 162.484 164.721 164.841 175.489 150.506 154.666 159.459 158.068 65.9186 97.0202 -1.10583 114.659 108.217 -41.0877 150.063 103.388 -41.9892 177.923 106.379 -24.4753 194.197 104.537 11.948 116.806 132.76 46.5658 12.7427 10.5432 10.5378 
175.962 154.096 162.595 164.855 164.901 175.492 150.168 154.616 159.466 158.059 65.6601 96.8815 -1.54484 114.702 108.401 -41.7461 150.2 103.439 -42.4703 178.105 106.514 -25.0187 194.411 104.687 11.4389 116.834 132.858 45.8974 12.7961 10.5615 10.5979 
175.879 154.218 162.591 165.107 165.027 175.501 149.968 154.54 159.543 158.143 65.3694 96.8028 -1.88851 114.764 108.657 -42.4691 150.405 103.565 -42.9358 178.403 106.744 -25.5415 194.764 104.939 11.0175 116.871 132.971 45.2744 12.899 10.5958 10.6941 
175.791 154.294 162.581 165.393 165.212 175.519 149.81 154.508 159.698 158.345 65.0196 96.7435 -2.29137 114.721 109.023 -43.2636 150.617 103.857 -43.5071 178.759 107.082 -26.1372 195.174 105.229 10.5542 116.869 133.085 44.615 13.0147 10.6482 10.8921 
