164.826 176.941 175.704 174.968 174.481 149.808 174.042 173.418 171.694 168.121 11.9599 136.173 -71.186 43.9601 177.627 -125.486 63.3621 173.973 -132.602 81.3107 168.65 -119.436 94.7335 165.293 -91.8947 46.6108 159.224 -28.2746 4.48091 0.547718 4.06651 
164.268 176.938 175.634 174.883 174.564 149.324 173.823 173.214 171.482 168.155 12.9632 136.102 -71.3098 44.8803 177.385 -125.775 64.1591 173.523 -132.905 82.2492 168.061 -119.723 95.8773 164.772 -92.1747 47.61 159.349 -28.5752 4.68029 0.539835 4.03974 
164.041 176.931 175.61 174.835 174.555 149.056 173.654 173.089 171.351 168.142 13.2354 136.235 -71.4501 45.0676 177.171 -125.862 64.14 173.169 -133.031 82.3227 167.655 -119.88 96.0689 164.392 -92.3858 47.8892 159.394 -28.7362 4.80301 0.513711 4.07848 
164.072 176.948 175.633 174.908 174.613 149.051 173.631 173.161 171.484 168.281 13.6386 136.217 -71.5839 45.4891 176.751 -125.929 64.4893 172.879 -133.083 82.7017 167.47 -119.94 96.4301 164.105 -92.4556 48.2794 159.225 -28.8058 4.76919 0.439424 3.99149 
164.213 176.961 175.684 175.015 174.701 149.132 173.716 173.327 171.708 168.505 13.99 136.204 -71.7523 45.9689 176.413 -126.1 64.9824 172.683 -133.206 83.1643 167.379 -120.061 96.7985 163.942 -92.583 48.6199 159.025 -28.9042 4.6857 0.38661 3.91867 
164.348 176.959 175.743 175.124 174.775 149.247 173.81 173.517 171.959 168.696 14.3766 136.192 -71.9177 46.5823 176.193 -126.231 65.6221 172.723 -133.279 83.7423 167.624 -120.11 97.2221 164.115 -92.6058 48.9602 158.822 -28.9632 4.57731 0.306072 3.84084 
164.51 176.928 175.762 175.187 174.807 149.458 173.861 173.626 172.112 168.757 14.8003 136.123 -72.1645 47.3493 176.061 -126.385 66.4327 172.844 -133.332 84.4472 167.903 -120.099 97.7463 164.353 -92.5456 49.3293 158.662 -29.0282 4.46942 0.242787 3.77869 
164.707 176.934 175.816 175.254 174.806 149.705 174.004 173.749 172.274 168.914 15.1613 135.981 -72.3724 48.0844 176.012 -126.513 67.2981 172.982 -133.388 85.2134 168.207 -120.076 98.4399 164.73 -92.4565 49.6715 158.418 -29.0685 4.47007 0.194035 3.74581 
164.917 176.969 175.911 175.329 174.815 149.965 174.202 173.916 172.488 169.194 15.4791 135.806 -72.6249 48.7679 176.127 -126.737 68.2236 173.277 -133.563 86.0566 168.631 -120.168 99.2888 165.169 -92.4494 50.0277 158.129 -29.1699 4.47955 0.161929 3.66456 
164.988 177.041 176.026 175.404 174.846 150.117 174.476 174.126 172.748 169.576 15.7767 135.592 -72.8438 49.344 176.365 -127.015 69.0967 173.611 -133.841 86.8957 169.053 -120.37 100.175 165.598 -92.5252 50.3549 157.874 -29.3342 4.53228 0.155277 3.58427 
165.025 177.081 176.08 175.414 174.873 150.313 174.641 174.217 172.873 169.853 15.9938 135.485 -73.1286 49.6834 176.816 -127.309 69.7293 174.015 -134.192 87.5614 169.407 -120.671 100.938 165.934 -92.7056 50.6493 157.729 -29.567 4.63497 0.202169 3.53458 
164.991 177.116 176.088 175.391 174.927 150.435 174.734 174.224 172.908 170.019 16.1523 135.345 -73.3929 49.9328 177.235 -127.561 70.169 174.322 -134.509 88.0723 169.632 -120.948 101.516 166.142 -92.8576 50.8908 157.639 -29.8048 4.757 0.268305 3.53123 
164.841 177.146 176.078 175.345 174.98 150.429 174.779 174.206 172.92 170.21 16.3359 135.09 -73.6097 50.0048 177.577 -127.852 70.4042 174.518 -134.886 88.4591 169.715 -121.302 102.023 166.234 -93.0929 51.1219 157.59 -30.0774 4.90871 0.381713 3.53095 
164.641 177.189 176.047 175.3 175.092 150.376 174.802 174.152 172.893 170.384 16.4885 134.642 -73.7218 49.8452 177.596 -128.1 70.3409 174.278 -135.236 88.571 169.351 -121.659 102.268 165.94 -93.3642 51.2766 157.45 -30.3304 5.08045 0.500412 3.58642 
164.386 177.226 176.003 175.241 175.206 150.244 174.788 174.079 172.823 170.498 16.6682 134.173 -73.7859 49.5732 177.55 -128.318 70.1431 173.945 -135.559 88.5655 168.861 -122.005 102.375 165.524 -93.6533 51.4089 157.359 -30.5724 5.22593 0.631457 3.65546 
164.216 177.234 175.923 175.151 175.243 150.158 174.706 173.939 172.644 170.409 16.8147 133.721 -73.7986 49.3162 177.377 -128.47 69.8954 173.491 -135.758 88.452 168.233 -122.221 102.355 164.994 -93.8684 51.5289 157.295 -30.7451 5.3288 0.733581 3.74084 
164.104 177.195 175.812 175.046 175.228 150.125 174.556 173.759 172.423 170.206 16.9793 133.182 -73.8154 49.1143 176.868 -128.57 69.6691 172.808 -135.852 88.3248 167.479 -122.316 102.269 164.391 -93.993 51.6322 157.163 -30.8879 5.39476 0.804393 3.80035 
164.068 177.141 175.704 174.957 175.201 150.111 174.383 173.57 172.194 169.973 17.1499 132.758 -73.8723 49.0157 176.38 -128.671 69.5028 172.181 -135.916 88.2134 166.774 -122.385 102.151 163.818 -94.103 51.7274 157.034 -30.9961 5.42779 0.8536 3.85679 
163.949 177.072 175.61 174.893 175.159 149.977 174.19 173.407 171.99 169.731 17.3642 132.351 -73.9321 48.9836 175.863 -128.785 69.3473 171.578 -135.979 88.0699 166.116 -122.454 102.004 163.28 -94.2387 51.823 156.9 -31.1112 5.44651 0.87207 3.8968 
163.883 176.976 175.514 174.825 175.096 149.9 173.968 173.237 171.786 169.436 17.5291 132.002 -73.9971 49.0191 175.343 -128.885 69.2642 171.032 -136.016 87.9838 165.526 -122.483 101.866 162.763 -94.3238 51.9237 156.797 -31.2109 5.40829 0.88793 3.91037 
163.802 176.895 175.456 174.784 174.987 149.764 173.766 173.115 171.638 169.182 17.63 131.84 -74.0801 49.061 174.859 -129.015 69.1474 170.56 -136.109 87.8405 165.035 -122.588 101.693 162.298 -94.4958 51.996 156.723 -31.3307 5.35561 0.87357 3.90063 
163.777 176.836 175.425 174.776 174.934 149.667 173.621 173.037 171.555 169.027 17.7322 131.718 -74.2151 49.1713 174.454 -129.179 69.1163 170.178 -136.228 87.7796 164.682 -122.706 101.581 161.996 -94.6479 52.0516 156.677 -31.4588 5.3241 0.849349 3.90259 
163.84 176.817 175.425 174.807 174.922 149.677 173.537 173.024 171.546 168.956 17.8091 131.652 -74.4048 49.2629 174.111 -129.381 69.0844 169.903 -136.389 87.7191 164.434 -122.869 101.486 161.754 -94.8344 52.1079 156.665 -31.5915 5.27174 0.823394 3.8745 
163.857 176.819 175.465 174.873 174.936 149.633 173.513 173.082 171.636 168.989 17.8902 131.605 -74.5383 49.4032 173.82 -129.576 69.1131 169.725 -136.553 87.7313 164.328 -123.028 101.467 161.621 -94.9865 52.169 156.654 -31.7029 5.22116 0.789496 3.82279 
163.873 176.835 175.518 174.925 174.963 149.607 173.522 173.159 171.715 169.02 17.9355 131.631 -74.6855 49.5167 173.586 -129.784 69.1268 169.557 -136.751 87.7129 164.199 -123.232 101.38 161.473 -95.2024 52.2173 156.693 -31.8484 5.14402 0.759892 3.80318 
163.916 176.854 175.568 174.981 174.997 149.599 173.546 173.241 171.81 169.068 17.9759 131.728 -74.8832 49.6542 173.413 -129.984 69.1665 169.461 -136.943 87.7204 164.14 -123.436 101.323 161.35 -95.4119 52.2583 156.7 -32.0092 5.06867 0.724912 3.77898 
163.999 176.865 175.608 175.011 175.035 149.629 173.55 173.297 171.868 169.057 17.9976 131.834 -75.0944 49.7891 173.27 -130.166 69.2405 169.381 -137.11 87.7762 164.076 -123.595 101.255 161.204 -95.565 52.3012 156.686 -32.174 4.97176 0.710249 3.75885 
164.063 176.873 175.637 175.017 175.081 149.668 173.535 173.325 171.872 169.038 18.0256 131.965 -75.3298 49.8852 173.239 -130.367 69.2758 169.343 -137.318 87.8025 163.97 -123.799 101.188 161.047 -95.7641 52.3557 156.726 -32.3499 4.89591 0.725135 3.77285 
164.058 176.879 175.668 175.038 175.1 149.633 173.535 173.373 171.915 169.05 18.0691 132.119 -75.5451 49.9639 173.221 -130.565 69.2917 169.385 -137.531 87.8061 164.014 -124.022 101.147 161.04 -95.9889 52.405 156.785 -32.5305 4.84042 0.713303 3.75859 
164.048 176.893 175.697 175.061 175.131 149.581 173.558 173.431 171.974 169.06 18.1137 132.241 -75.715 50.0396 173.19 -130.734 69.3271 169.417 -137.695 87.8267 164.059 -124.185 101.103 161.02 -96.1423 52.4475 156.81 -32.6882 4.78232 0.697177 3.73568 
164.095 176.911 175.725 175.075 175.172 149.594 173.576 173.466 172.01 169.083 18.1041 132.435 -75.9467 50.1355 173.219 -130.929 69.3743 169.448 -137.892 87.859 164.071 -124.386 101.063 160.99 -96.3278 52.4849 156.821 -32.8681 4.74705 0.690591 3.74933 
164.123 176.931 175.753 175.096 175.245 149.57 173.619 173.517 172.055 169.133 18.0924 132.617 -76.1391 50.2417 173.303 -131.126 69.45 169.499 -138.089 87.8915 164.046 -124.59 101.006 160.919 -96.5267 52.5238 156.845 -33.0415 4.70531 0.687687 3.7684 
164.128 176.956 175.794 175.131 175.303 149.527 173.689 173.594 172.135 169.215 18.0777 132.754 -76.3656 50.3826 173.363 -131.374 69.5723 169.58 -138.333 87.994 164.122 -124.826 101.043 160.98 -96.7309 52.57 156.823 -33.2553 4.70387 0.67943 3.77061 
164.17 176.988 175.84 175.163 175.37 149.513 173.762 173.676 172.22 169.322 18.048 132.913 -76.5614 50.5216 173.421 -131.575 69.7054 169.662 -138.529 88.1145 164.199 -125.012 101.099 161.048 -96.8807 52.6097 156.783 -33.4212 4.71431 0.675462 3.76742 
164.22 177.001 175.862 175.17 175.415 149.539 173.781 173.709 172.249 169.388 18.0232 133.053 -76.8112 50.5981 173.543 -131.821 69.7812 169.784 -138.789 88.2069 164.279 -125.261 101.175 161.135 -97.0936 52.6748 156.786 -33.6252 4.74276 0.697408 3.76744 
164.254 177.018 175.886 175.187 175.443 149.525 173.831 173.756 172.297 169.485 18.0543 133.259 -77.104 50.7629 173.68 -132.1 69.9293 169.905 -139.076 88.3313 164.36 -125.546 101.29 161.232 -97.3529 52.7448 156.798 -33.8494 4.78628 0.694897 3.77708 
164.227 177.044 175.923 175.222 175.488 149.454 173.903 173.849 172.412 169.642 18.0751 133.343 -77.3025 50.8734 173.757 -132.346 70.0445 170.049 -139.334 88.445 164.531 -125.801 101.414 161.385 -97.5663 52.803 156.769 -34.0429 4.81251 0.679628 3.74225 
164.182 177.053 175.933 175.229 175.523 149.34 173.928 173.884 172.458 169.74 18.1627 133.431 -77.5603 51.022 173.869 -132.631 70.1699 170.17 -139.634 88.5607 164.659 -126.103 101.538 161.533 -97.8403 52.8861 156.755 -34.2825 4.86306 0.667518 3.74887 
164.144 177.063 175.947 175.245 175.565 149.253 173.982 173.945 172.528 169.836 18.2939 133.422 -77.7961 51.2193 173.84 -132.867 70.3749 170.253 -139.848 88.7477 164.835 -126.295 101.713 161.772 -97.9879 52.9735 156.644 -34.4878 4.92968 0.637447 3.72364 
164.095 177.096 176.006 175.32 175.653 149.145 174.101 174.13 172.76 170.069 18.4582 133.351 -77.992 51.3727 173.832 -133.11 70.6084 170.505 -140.08 88.9866 165.209 -126.514 101.932 162.024 -98.1359 53.0678 156.443 -34.6925 4.90679 0.605542 3.58599 
164.057 177.095 176.047 175.388 175.734 149.036 174.167 174.275 172.96 170.242 18.5827 133.349 -78.1988 51.5998 173.856 -133.326 70.9198 170.825 -140.259 89.3055 165.693 -126.66 102.221 162.395 -98.2077 53.175 156.236 -34.8828 4.89977 0.58429 3.44106 
164.02 177.059 176.058 175.424 175.837 148.941 174.149 174.349 173.083 170.342 18.6632 133.357 -78.3898 51.8146 173.874 -133.527 71.2105 171.127 -140.415 89.5964 166.113 -126.779 102.443 162.708 -98.2519 53.2835 156.073 -35.0621 4.86976 0.579631 3.30147 
164.006 177.023 176.072 175.454 175.931 148.86 174.152 174.434 173.204 170.427 18.7329 133.396 -78.5816 52.0627 173.961 -133.757 71.5551 171.465 -140.591 89.9128 166.501 -126.919 102.641 162.943 -98.3138 53.4057 155.936 -35.2453 4.79138 0.568028 3.16477 
164.062 176.977 176.071 175.452 176.013 148.911 174.117 174.469 173.256 170.44 18.7649 133.426 -78.803 52.2671 174.123 -133.963 71.887 171.804 -140.751 90.2445 166.823 -127.031 102.808 163.102 -98.3408 53.5264 155.832 -35.413 4.69003 0.582263 3.05082 
164.124 176.944 176.08 175.443 176.043 148.972 174.122 174.521 173.325 170.441 18.812 133.389 -79.0424 52.4417 174.399 -134.168 72.2187 172.224 -140.921 90.5701 167.203 -127.163 102.952 163.273 -98.3872 53.6423 155.697 -35.5906 4.56242 0.593074 2.95347 
164.201 176.897 176.068 175.401 176.079 149.086 174.079 174.514 173.31 170.356 18.8637 133.324 -79.2723 52.5785 174.716 -134.337 72.5075 172.586 -141.06 90.8589 167.447 -127.263 103.034 163.343 -98.4241 53.7619 155.62 -35.7541 4.42979 0.622426 2.90868 
164.299 176.878 176.069 175.365 176.127 149.27 174.062 174.527 173.33 170.323 18.865 133.263 -79.4883 52.6264 175.055 -134.514 72.7094 172.93 -141.236 91.1115 167.684 -127.409 103.093 163.376 -98.4833 53.8644 155.571 -35.9207 4.29253 0.683688 2.87316 
164.407 176.88 176.076 175.335 176.173 149.452 174.095 174.539 173.342 170.3 18.9396 133.187 -79.7317 52.7704 175.31 -134.683 72.9925 173.11 -141.397 91.403 167.747 -127.546 103.192 163.308 -98.5558 53.9758 155.481 -36.1006 4.18737 0.732428 2.89915 
164.534 176.894 176.094 175.318 176.197 149.648 174.141 174.557 173.36 170.287 19.0301 133.093 -79.983 52.8666 175.548 -134.852 73.2364 173.243 -141.587 91.6516 167.734 -127.73 103.265 163.138 -98.6808 54.0849 155.339 -36.2753 4.06908 0.787552 2.93865 
164.674 176.908 176.12 175.293 176.207 149.855 174.195 174.589 173.378 170.279 19.1532 133.071 -80.2682 53.0406 175.795 -135.038 73.5601 173.413 -141.787 91.9828 167.767 -127.913 103.406 163.02 -98.8014 54.2096 155.217 -36.4503 3.95164 0.854106 2.97299 
164.805 176.931 176.147 175.268 176.242 150.05 174.248 174.596 173.383 170.304 19.3278 133.046 -80.5622 53.1908 176.09 -135.2 73.8541 173.539 -141.994 92.2977 167.749 -128.107 103.52 162.897 -98.9126 54.3347 155.108 -36.6148 3.87617 0.932114 3.07168 
164.956 176.971 176.185 175.258 176.24 150.266 174.34 174.624 173.401 170.326 19.4729 133.085 -80.8276 53.3846 176.332 -135.351 74.1627 173.605 -142.177 92.5733 167.656 -128.293 103.618 162.711 -99.0559 54.4521 155.043 -36.7435 3.7924 0.994452 3.16874 
165.063 177.014 176.234 175.257 176.251 150.469 174.438 174.679 173.462 170.39 19.6614 133.127 -81.1459 53.5049 176.706 -135.523 74.4171 173.799 -142.434 92.8124 167.662 -128.578 103.699 162.544 -99.2964 54.5815 154.995 -36.9351 3.69533 1.05799 3.25175 
165.17 177.064 176.289 175.273 176.26 150.687 174.568 174.752 173.552 170.507 19.8255 133.106 -81.4516 53.532 177.043 -135.688 74.6165 173.957 -142.697 93.0291 167.659 -128.87 103.788 162.387 -99.5305 54.6658 154.906 -37.1219 3.62622 1.12149 3.33154 
165.206 177.121 176.351 175.308 176.301 150.82 174.719 174.848 173.672 170.632 20.0227 133.055 -81.6759 53.607 177.247 -135.826 74.8802 174.043 -142.917 93.2937 167.668 -129.104 103.974 162.261 -99.7229 54.7695 154.818 -37.2994 3.55283 1.14724 3.37562 
165.273 177.172 176.406 175.337 176.363 150.943 174.851 174.934 173.787 170.751 20.2229 133.05 -81.9305 53.7794 177.447 -135.968 75.211 174.154 -143.107 93.6119 167.737 -129.291 104.166 162.165 -99.8573 54.8604 154.718 -37.4731 3.47018 1.15359 3.41613 
165.307 177.212 176.466 175.37 176.455 151.044 174.964 175.016 173.89 170.904 20.4281 133.031 -82.1874 53.8848 177.756 -136.069 75.5036 174.37 -143.286 93.8924 167.868 -129.474 104.336 162.162 -99.9743 54.9405 154.635 -37.6268 3.42316 1.17912 3.4696 
165.294 177.209 176.481 175.347 176.567 151.156 174.993 175.028 173.908 170.96 20.6178 133.055 -82.53 53.8869 178.024 -136.204 75.6814 174.518 -143.527 94.0731 167.891 -129.737 104.364 162.048 -100.19 55.0198 154.575 -37.8567 3.37566 1.22462 3.53765 
165.16 177.193 176.498 175.318 176.537 151.13 175.012 175.023 173.912 170.989 20.8339 133.004 -82.8203 53.914 178.186 -136.336 75.847 174.558 -143.792 94.2344 167.861 -130.026 104.399 161.911 -100.432 55.1215 154.547 -38.0882 3.32766 1.24472 3.59892 
164.955 177.174 176.501 175.273 176.484 151.029 175.022 174.993 173.869 170.935 21.088 132.898 -83.0789 53.8607 178.396 -136.481 75.9032 174.584 -144.083 94.2569 167.729 -130.365 104.316 161.666 -100.756 55.2279 154.52 -38.3434 3.28002 1.28859 3.69075 
164.701 177.174 176.476 175.175 176.248 150.856 175.079 174.898 173.721 170.757 21.6618 132.748 -83.5548 53.9895 178.589 -136.836 76.0951 174.375 -144.617 94.3496 167.194 -130.992 104.303 161.106 -101.411 55.4855 154.452 -38.8076 3.25157 1.4138 3.90824 
164.43 177.153 176.429 175.095 176.021 150.588 175.041 174.788 173.55 170.523 21.9649 132.658 -83.7024 54.0669 178.487 -136.987 76.0962 174.044 -144.827 94.2698 166.709 -131.249 104.28 160.791 -101.776 55.6147 154.5 -39.043 3.31778 1.48052 4.01808 
164.199 177.126 176.385 175.033 175.837 150.332 174.995 174.709 173.431 170.35 22.2835 132.56 -83.8527 54.2707 178.313 -137.202 76.142 173.738 -145.025 94.2585 166.356 -131.48 104.322 160.546 -102.101 55.7861 154.516 -39.2905 3.34975 1.4988 4.07922 
163.982 177.099 176.339 174.993 175.645 150.055 174.95 174.64 173.331 170.181 22.587 132.329 -83.9259 54.5158 178.04 -137.416 76.1534 173.421 -145.171 94.2218 166.111 -131.628 104.446 160.52 -102.337 55.9362 154.489 -39.4762 3.44468 1.46821 4.11711 
163.813 177.06 176.284 174.936 175.491 149.813 174.862 174.544 173.191 170.013 22.8357 132.239 -84.023 54.8008 177.847 -137.621 76.1581 173.154 -145.305 94.1658 165.847 -131.787 104.515 160.414 -102.577 56.1029 154.484 -39.6489 3.51846 1.46019 4.16916 
163.647 177.015 176.236 174.906 175.365 149.546 174.774 174.485 173.105 169.888 23.0818 132.122 -84.0216 55.0887 177.508 -137.778 76.1678 172.813 -145.356 94.1306 165.596 -131.84 104.582 160.323 -102.709 56.2474 154.447 -39.7632 3.58962 1.41527 4.19303 
163.536 176.981 176.19 174.88 175.292 149.374 174.675 174.423 173.032 169.794 23.2776 132.091 -84.0261 55.3949 177.177 -137.905 76.2237 172.511 -145.39 94.1638 165.427 -131.861 104.7 160.302 -102.778 56.4091 154.433 -39.8487 3.65554 1.35276 4.20985 
163.384 176.935 176.14 174.835 175.205 149.111 174.564 174.348 172.926 169.649 23.4732 132.159 -83.9922 55.7719 177.023 -137.983 76.3282 172.35 -145.388 94.2247 165.364 -131.861 104.818 160.385 -102.831 56.5956 154.484 -39.9135 3.74472 1.29828 4.26188 
163.246 176.889 176.083 174.801 175.126 148.857 174.43 174.258 172.824 169.539 23.6314 132.209 -83.8973 56.0734 176.739 -138.049 76.3495 172.129 -145.387 94.2504 165.327 -131.854 104.956 160.56 -102.855 56.7668 154.55 -39.9313 3.86189 1.21399 4.28891 
163.156 176.877 176.042 174.782 175.157 148.673 174.327 174.191 172.753 169.513 23.7439 132.264 -83.7978 56.379 176.513 -138.059 76.4091 171.954 -145.358 94.3152 165.293 -131.819 105.098 160.677 -102.825 56.9562 154.605 -39.9146 3.95639 1.14129 4.31895 
163.047 176.857 176.017 174.785 175.215 148.464 174.237 174.172 172.739 169.514 23.835 132.305 -83.6535 56.6896 176.202 -138.08 76.5036 171.789 -145.33 94.4028 165.282 -131.774 105.229 160.785 -102.764 57.1536 154.647 -39.8802 4.0379 1.05467 4.28071 
162.937 176.855 176.004 174.791 175.314 148.271 174.186 174.194 172.753 169.511 23.9718 132.302 -83.5213 56.9835 175.895 -138.106 76.6642 171.648 -145.295 94.5682 165.28 -131.698 105.402 160.868 -102.654 57.3433 154.669 -39.8496 4.10306 0.980039 4.2076 
162.796 176.856 176 174.825 175.433 148.042 174.159 174.23 172.787 169.555 24.1176 132.274 -83.336 57.2429 175.555 -138.089 76.8262 171.484 -145.222 94.7434 165.278 -131.563 105.601 160.993 -102.471 57.511 154.659 -39.7782 4.19249 0.905373 4.13734 
162.701 176.854 175.978 174.846 175.7 147.909 174.098 174.234 172.789 169.612 24.2252 132.243 -83.2314 57.5042 175.257 -138.093 77.022 171.345 -145.164 94.9557 165.249 -131.427 105.789 161.048 -102.254 57.6756 154.64 -39.7342 4.26579 0.859885 4.06099 
162.587 176.871 175.982 174.888 175.999 147.758 174.084 174.284 172.836 169.694 24.3374 132.156 -83.0767 57.7477 174.992 -138.025 77.217 171.255 -145.049 95.1426 165.271 -131.235 105.945 161.113 -101.972 57.8012 154.574 -39.6424 4.31702 0.807712 3.98635 
162.505 176.895 176.001 174.923 176.294 147.667 174.097 174.351 172.891 169.778 24.4241 132.002 -82.9369 57.9433 174.764 -137.988 77.4059 171.161 -144.965 95.3252 165.245 -131.071 106.075 161.105 -101.706 57.9027 154.497 -39.5483 4.3438 0.7821 3.91407 
162.38 176.927 176.036 174.933 176.744 147.563 174.136 174.466 172.956 169.978 24.5128 131.496 -82.6772 58.1234 174.304 -137.926 77.6282 170.822 -144.831 95.5355 164.935 -130.822 106.17 160.812 -101.296 58.018 154.185 -39.3997 4.37987 0.786555 3.82907 
162.352 176.948 176.067 174.951 177.003 147.593 174.172 174.538 173.015 170.07 24.5557 131.131 -82.5287 58.1939 174.106 -137.879 77.8237 170.701 -144.749 95.7641 164.856 -130.654 106.306 160.731 -100.986 58.073 154.006 -39.2843 4.37927 0.806222 3.76356 
162.299 176.945 176.077 174.967 177.261 147.602 174.163 174.546 173.015 170.155 24.5227 130.785 -82.3958 58.1466 173.862 -137.854 77.8467 170.434 -144.709 95.7752 164.523 -130.589 106.265 160.439 -100.833 58.0793 153.814 -39.2121 4.40399 0.852025 3.74227 
162.318 176.943 176.078 174.973 177.37 147.682 174.168 174.546 173.003 170.135 24.453 130.456 -82.279 58.1112 173.62 -137.776 77.8873 170.181 -144.602 95.7964 164.238 -130.444 106.257 160.199 -100.639 58.0416 153.604 -39.1051 4.4192 0.884533 3.72813 
162.35 176.934 176.074 174.961 177.452 147.769 174.154 174.523 172.981 170.121 24.3386 130.107 -82.1854 58.0669 173.48 -137.695 77.912 170.016 -144.488 95.7997 164.03 -130.303 106.188 159.98 -100.443 57.9549 153.396 -38.9904 4.40291 0.919749 3.73169 
162.387 176.922 176.042 174.957 177.59 147.868 174.122 174.46 172.935 170.067 24.2601 129.747 -82.102 58.0949 173.199 -137.58 77.9599 169.729 -144.333 95.7898 163.758 -130.121 106.114 159.721 -100.225 57.8663 153.171 -38.8711 4.3787 0.925102 3.75128 
162.443 176.895 175.99 174.913 177.592 148.013 174.053 174.359 172.835 169.914 24.1962 129.44 -82.0608 58.0124 173.069 -137.429 77.9274 169.558 -144.159 95.7125 163.559 -129.925 105.951 159.482 -100.01 57.7616 152.981 -38.7427 4.32626 0.956954 3.79119 
162.514 176.871 175.945 174.881 177.5 148.165 174.015 174.276 172.784 169.785 24.1611 129.156 -82.0618 57.9643 172.842 -137.313 77.9093 169.364 -144.02 95.6611 163.459 -129.763 105.835 159.372 -99.8298 57.6469 152.764 -38.6409 4.28034 0.935326 3.82089 
162.536 176.819 175.889 174.831 177.302 148.259 173.924 174.164 172.701 169.603 24.1575 128.808 -82.044 57.8598 172.603 -137.153 77.8205 169.137 -143.837 95.5302 163.302 -129.558 105.604 159.191 -99.6385 57.4561 152.534 -38.5107 4.21984 0.928189 3.87057 
162.574 176.786 175.851 174.771 176.939 148.346 173.893 174.088 172.634 169.365 24.1398 128.487 -82.0917 57.6148 172.492 -137.042 77.61 169.015 -143.733 95.2678 163.184 -129.467 105.229 158.98 -99.5971 57.1704 152.311 -38.4271 4.11536 0.948484 3.92642 
162.603 176.741 175.796 174.683 176.523 148.434 173.858 173.975 172.523 169.103 24.0946 128.334 -82.2018 57.2824 172.717 -136.952 77.3336 169.171 -143.661 94.9434 163.29 -129.419 104.748 158.959 -99.6114 56.8137 152.252 -38.3795 4.01724 0.999362 4.01736 
162.573 176.723 175.75 174.608 176.041 148.412 173.891 173.868 172.415 168.783 24.0051 128.292 -82.336 56.7888 173.019 -136.893 76.8872 169.327 -143.651 94.4237 163.302 -129.493 104.112 158.819 -99.8115 56.3373 152.17 -38.4062 3.9207 1.08283 4.13671 
162.639 176.783 175.743 174.58 175.702 148.487 174.024 173.787 172.283 168.511 23.893 128.283 -82.476 56.219 173.057 -136.869 76.3442 169.062 -143.691 93.7963 162.824 -129.626 103.396 158.383 -100.137 55.8138 152.111 -38.4711 3.88636 1.24312 4.33949 
162.763 176.909 175.824 174.711 175.728 148.616 174.265 173.834 172.313 168.626 23.6734 128.328 -82.4918 55.3293 173 -136.751 75.5189 168.647 -143.713 92.9689 162.227 -129.749 102.732 158.047 -100.485 55.2057 152.046 -38.4772 3.97366 1.37235 4.55181 
