176.186 148.597 163.055 168.318 168.225 178.505 106.751 158.255 165.426 167.695 -24.7494 129.952 -37.6637 -62.6722 129.992 -66.5196 -85.5079 172.716 -116.242 -124.373 189.252 -106.514 -161.046 184.371 -73.1412 -91.9424 171.781 -13.1606 20.811 18.5106 52.758 
175.804 148.74 163.214 168.88 168.802 178.686 107.696 158.728 165.792 168.233 -24.3668 130.217 -37.1216 -64.4175 128.582 -64.6302 -84.9567 173.457 -115.989 -123.736 189.609 -106.393 -160.609 185.135 -73.0564 -91.667 172.011 -12.8451 20.8819 18.218 55.3581 
175.638 148.426 163.406 169.337 169.31 178.794 109.466 159.294 166.181 168.81 -24.0933 130.288 -36.7451 -65.2 128.027 -64.7566 -84.8487 173.988 -115.812 -123.496 189.784 -106.218 -160.329 185.721 -72.8617 -91.419 172.066 -12.5521 20.82 17.9088 55.6514 
175.638 147.319 163.585 169.708 169.715 178.755 111.383 159.843 166.595 169.379 -23.7926 130.289 -36.3632 -65.2404 128.364 -66.074 -84.8849 174.499 -115.609 -123.411 190.054 -105.928 -160.157 186.258 -72.4954 -91.1727 172.003 -12.2248 20.7664 17.6747 54.4379 
175.513 145.468 163.627 169.949 169.994 178.8 111.676 160.207 166.94 169.864 -23.5077 130.338 -36.0058 -65.0971 129.112 -67.0714 -84.9888 175.039 -115.417 -123.445 190.41 -105.643 -160.045 186.743 -72.1405 -90.9618 171.929 -11.9328 20.6693 17.5102 53.3327 
175.415 142.767 163.573 170.111 170.182 178.792 111.4 160.433 167.239 170.323 -23.1541 130.496 -35.6591 -64.4325 130.38 -68.2881 -84.9753 175.584 -115.245 -123.449 190.989 -105.413 -159.963 187.321 -71.829 -90.7642 171.914 -11.678 20.6038 17.4988 51.7253 
175.317 138.431 163.332 170.169 170.272 178.776 110.805 160.418 167.465 170.667 -22.8605 130.726 -35.5106 -63.6265 132.179 -69.6718 -84.942 176.224 -115.095 -123.493 191.822 -105.207 -159.94 187.97 -71.5274 -90.6144 171.972 -11.4914 20.5561 17.6149 49.7426 
175.253 133.283 162.967 170.138 170.263 178.741 110.015 160.246 167.585 170.878 -22.5502 130.931 -35.3894 -62.8201 133.906 -70.6359 -84.7325 176.715 -114.968 -123.427 192.579 -105.06 -159.874 188.47 -71.3134 -90.4387 172.033 -11.357 20.5438 17.8064 48.0353 
175.151 128.874 162.414 170.046 170.158 178.708 109.913 159.978 167.665 170.995 -22.2588 131.056 -35.3022 -61.9788 135.602 -71.7232 -84.479 177.357 -114.762 -123.354 193.562 -104.787 -159.824 189.033 -70.9339 -90.2184 172.054 -11.2041 20.5917 18.0824 46.3368 
175.408 127.344 162.272 170.095 170.172 178.31 109.181 160.009 167.855 171.116 -21.912 131.192 -35.1257 -61.345 136.249 -71.5915 -84.0109 178.124 -114.555 -123.047 194.595 -104.464 -159.58 189.605 -70.5704 -89.9596 172.092 -10.9744 20.6236 18.302 46.3197 
175.683 127.652 162.141 170.042 170.071 177.884 108.207 159.938 167.911 171.035 -21.563 131.27 -34.9008 -60.9124 136.561 -71.0701 -83.4662 178.802 -114.294 -122.645 195.418 -104.126 -159.233 189.98 -70.2636 -89.6714 172.143 -10.7545 20.6444 18.4711 46.7869 
175.847 129.525 161.981 169.997 169.989 177.516 106.855 159.721 167.902 170.858 -21.2103 131.397 -34.6876 -60.1633 136.209 -69.5466 -82.537 179.253 -113.998 -121.878 196.043 -103.891 -158.597 190.142 -70.1915 -89.323 172.226 -10.5492 20.6558 18.6826 48.3609 
175.972 132.057 162.036 169.957 169.889 177.129 105.644 159.667 167.823 170.538 -20.8243 131.474 -34.4782 -59.1337 135.502 -67.54 -81.5057 179.757 -113.787 -120.96 196.432 -103.712 -157.843 190.089 -70.2384 -88.9887 172.342 -10.3818 20.6828 18.7445 50.6667 
176.112 134.276 162.091 169.926 169.767 176.716 105.111 159.735 167.825 170.392 -20.4676 131.379 -34.2318 -58.2244 134.857 -65.8794 -80.694 180.3 -113.57 -120.257 196.686 -103.523 -157.197 189.907 -70.2712 -88.692 172.423 -10.2095 20.6278 18.7048 52.7079 
176.21 136.679 162.202 169.835 169.599 176.345 104.537 159.667 167.702 170.025 -20.06 131.324 -33.9489 -57.2831 134.326 -64.3363 -79.8884 180.646 -113.291 -119.527 196.907 -103.221 -156.684 189.661 -70.1058 -88.3461 172.381 -10.0272 20.7899 18.7641 54.4537 
176.305 139.204 161.986 169.808 169.48 175.994 104.108 159.344 167.639 169.721 -19.6538 131.378 -33.6854 -56.7435 133.821 -62.8541 -79.0528 180.861 -112.877 -118.882 197.266 -102.86 -156.326 189.465 -69.8281 -88.0363 172.343 -9.81362 21.0437 19.0311 56.0179 
176.437 141.418 161.468 169.793 169.382 175.663 103.845 158.86 167.565 169.465 -19.2801 131.523 -33.4879 -56.4603 133.381 -61.6277 -78.4716 180.992 -112.45 -118.553 197.642 -102.474 -156.238 189.319 -69.4451 -87.7876 172.309 -9.62121 21.3165 19.3879 57.3124 
176.566 143.102 160.571 169.851 169.273 175.411 103.597 158.256 167.684 169.479 -19.0462 131.695 -33.2993 -56.8424 133.175 -60.634 -78.0761 181.09 -112.008 -118.522 198.146 -102.174 -156.272 189.364 -69.1714 -87.6566 172.51 -9.44496 21.4143 19.8376 58.2308 
176.507 144.378 160.102 169.904 169.217 175.353 103.499 157.788 167.659 169.338 -18.8077 131.987 -33.1734 -56.9056 132.909 -59.8123 -77.6935 180.905 -111.719 -118.495 198.323 -101.949 -156.397 189.222 -68.8983 -87.5119 172.559 -9.33825 21.6339 20.2878 58.9221 
176.386 144.792 159.524 169.932 169.189 175.404 103.508 157.239 167.624 169.25 -18.6259 132.253 -33.0043 -56.8761 132.802 -59.224 -77.4062 180.647 -111.347 -118.546 198.472 -101.656 -156.563 189.165 -68.5403 -87.3876 172.619 -9.16602 21.8292 20.7397 59.1863 
176.266 144.668 158.808 169.977 169.195 175.495 103.238 156.744 167.603 169.223 -18.4524 132.457 -32.8626 -56.8446 132.691 -58.6749 -77.2791 180.321 -111.094 -118.699 198.462 -101.477 -156.775 189.078 -68.2683 -87.2774 172.635 -9.04845 21.9631 21.0849 59.4313 
176.152 144.452 158.181 170.05 169.244 175.627 102.859 156.343 167.625 169.256 -18.3499 132.613 -32.7506 -56.7663 132.591 -58.144 -77.1142 179.828 -110.877 -118.809 198.264 -101.367 -156.905 188.896 -68.091 -87.1706 172.625 -8.94321 22.0394 21.4037 59.5474 
175.915 144.264 157.537 170.082 169.259 175.923 102.755 155.856 167.611 169.277 -18.2532 132.744 -32.5965 -56.4445 132.624 -57.9679 -76.9392 179.234 -110.608 -118.91 198.01 -101.253 -156.964 188.746 -67.9423 -87.0418 172.624 -8.8194 22.0465 21.7361 59.1462 
175.685 144.473 156.999 170.142 169.323 176.251 102.45 155.43 167.62 169.351 -18.1525 132.827 -32.4011 -56.1128 132.668 -57.7345 -76.7968 178.677 -110.321 -118.989 197.769 -101.111 -156.979 188.649 -67.7612 -86.8814 172.604 -8.65254 22.023 22.0139 58.7823 
175.432 144.198 156.642 170.16 169.362 176.629 102.847 155.103 167.552 169.432 -18.0718 132.935 -32.1693 -55.6202 133.143 -58.2873 -76.717 178.39 -110.027 -119.041 197.561 -100.953 -157.005 188.674 -67.5562 -86.7275 172.654 -8.43482 22.0083 22.1066 57.5746 
175.101 142.648 156.227 170.059 169.311 177.084 103.653 154.618 167.394 169.457 -17.9343 133.113 -31.8158 -55.0051 134.117 -59.4521 -76.5635 178.202 -109.615 -119.073 197.443 -100.729 -157 188.743 -67.3158 -86.5611 172.767 -8.17486 21.9877 22.2358 55.5353 
174.692 141.022 156.151 169.92 169.205 177.603 104.353 154.161 167.18 169.434 -17.7879 133.389 -31.4149 -54.4624 135.076 -60.4271 -76.3234 177.993 -109.198 -119.164 197.229 -100.497 -157.016 188.622 -67.1017 -86.4089 172.888 -7.9094 21.9439 22.4256 53.6665 
174.458 139.28 156.421 169.753 169.083 177.953 104.861 153.862 166.967 169.404 -17.5081 133.707 -30.9714 -53.8772 136.054 -61.3336 -76.1698 177.95 -108.859 -119.293 197.046 -100.255 -157.052 188.431 -66.8826 -86.2614 172.946 -7.6695 21.897 22.5285 52.0111 
174.289 137.223 156.861 169.512 168.897 178.266 105.741 153.689 166.721 169.293 -17.217 133.991 -30.6326 -53.5035 137.198 -62.77 -76.2103 178.056 -108.638 -119.483 196.887 -100.023 -157.085 188.25 -66.6691 -86.1098 172.961 -7.49884 21.8192 22.4986 49.9776 
174.127 135.596 157.432 169.232 168.673 178.567 106.681 153.584 166.464 169.156 -16.9444 134.217 -30.4026 -53.1405 138.366 -64.3529 -76.2647 178.114 -108.502 -119.662 196.716 -99.8534 -157.109 188.04 -66.5235 -85.9666 172.946 -7.40928 21.7445 22.4731 47.8382 
173.839 133.852 158.038 168.952 168.471 178.965 107.709 153.532 166.25 169.084 -16.7928 134.351 -30.2953 -52.5296 139.64 -65.9998 -76.2911 178.163 -108.394 -119.852 196.625 -99.7071 -157.167 187.84 -66.3813 -85.8222 172.874 -7.37327 21.7026 22.5221 45.6415 
173.589 133.416 158.752 168.693 168.317 179.332 108.707 153.583 166.109 169.05 -16.6844 134.511 -30.3205 -51.9624 140.851 -67.6631 -76.3825 178.425 -108.368 -120.035 196.751 -99.5892 -157.215 187.801 -66.2573 -85.7111 172.852 -7.37184 21.6494 22.5264 43.6801 
173.427 134.325 159.529 168.54 168.239 179.606 108.973 153.769 166.06 169.122 -16.5429 134.707 -30.4586 -51.3321 141.641 -68.7646 -76.468 178.767 -108.43 -120.208 196.97 -99.5103 -157.285 187.801 -66.1211 -85.5877 172.795 -7.40051 21.6273 22.5311 42.5989 
173.25 135.156 160.225 168.362 168.14 179.944 109.173 153.887 165.999 169.144 -16.4579 134.916 -30.5583 -50.9718 142.492 -69.7693 -76.5176 179.1 -108.368 -120.323 197.283 -99.3217 -157.28 187.942 -65.9049 -85.451 172.817 -7.3358 21.5798 22.5701 41.4489 
173.212 135.35 160.754 168.16 168.021 179.889 109.189 153.989 165.946 169.089 -16.3175 135.242 -30.6776 -50.6441 143.372 -70.5985 -76.6513 179.439 -108.294 -120.466 197.575 -99.0604 -157.26 188.046 -65.6015 -85.3021 172.868 -7.24981 21.531 22.5813 40.4414 
173.226 134.097 161.145 167.988 167.952 179.796 109.425 154.085 165.934 169.102 -16.1477 135.569 -30.7806 -50.243 144.259 -71.3064 -76.7539 179.691 -108.21 -120.573 197.886 -98.7974 -157.222 188.205 -65.2738 -85.1444 172.877 -7.13627 21.4841 22.6288 39.4524 
173.225 131.35 161.285 167.807 167.862 179.71 110.559 154.106 165.946 169.069 -15.9977 135.889 -30.8042 -49.5132 145.458 -72.1685 -76.7929 179.82 -108.067 -120.595 198.128 -98.5306 -157.089 188.332 -64.9781 -84.9806 172.919 -6.98424 21.4114 22.6872 38.0511 
173.328 128.491 161.306 167.64 167.788 179.688 112.649 154.077 166.033 169.066 -15.8258 136.118 -30.7795 -48.622 146.746 -73.2738 -76.7752 179.796 -107.871 -120.579 198.327 -98.2305 -156.938 188.409 -64.6469 -84.8162 172.91 -6.80478 21.3611 22.8111 36.3417 
173.521 126.455 161.16 167.58 167.778 179.856 114.983 154.107 166.182 169.095 -15.6181 136.285 -30.7515 -47.6137 147.597 -74.1387 -76.7485 179.761 -107.743 -120.513 198.448 -97.9911 -156.768 188.461 -64.3563 -84.6398 172.853 -6.64005 21.3193 22.8631 35.209 
173.716 126.152 160.959 167.517 167.742 179.977 116.654 153.97 166.315 169.073 -15.4067 136.504 -30.8169 -46.6997 147.817 -74.5472 -76.6405 179.641 -107.646 -120.424 198.545 -97.8349 -156.579 188.352 -64.177 -84.4695 172.793 -6.55186 21.2836 23.0055 34.8941 
174.021 126.88 160.827 167.56 167.759 179.606 118.232 154.05 166.537 169.095 -15.2383 136.611 -30.9756 -46.0792 147.715 -75.0309 -76.5433 179.605 -107.651 -120.346 198.63 -97.7169 -156.434 188.233 -64.0061 -84.3084 172.635 -6.49931 21.2738 23.0837 34.7855 
174.407 127.971 160.764 167.658 167.788 179.213 119.409 154.204 166.772 169.114 -15.09 136.671 -31.1882 -45.6718 147.361 -75.3471 -76.4276 179.594 -107.701 -120.24 198.654 -97.6494 -156.256 188.03 -63.9038 -84.152 172.449 -6.46614 21.2468 23.1128 34.9475 
174.616 128.435 160.685 167.708 167.781 178.996 119.935 154.326 166.938 169.087 -14.9962 136.59 -31.3008 -45.3495 147.022 -75.4005 -76.2097 179.458 -107.711 -120.019 198.496 -97.6207 -155.993 187.692 -63.8842 -83.9794 172.223 -6.42206 21.2175 23.106 35.0941 
174.8 129.175 160.594 167.748 167.756 178.805 119.929 154.398 167.068 169.03 -14.9168 136.465 -31.4269 -45.2074 146.453 -75.2113 -76.0274 179.405 -107.721 -119.836 198.405 -97.5558 -155.769 187.419 -63.8175 -83.8205 172.021 -6.37561 21.2019 23.0962 35.5807 
174.858 129.73 160.379 167.752 167.695 178.736 119.864 154.378 167.128 168.934 -14.9079 136.248 -31.5131 -45.2575 146.004 -75.0723 -75.8689 179.366 -107.686 -119.666 198.303 -97.4775 -155.564 187.166 -63.7412 -83.667 171.878 -6.30589 21.1881 23.0669 35.8959 
174.994 130.505 160.204 167.787 167.652 178.635 119.924 154.473 167.172 168.831 -14.9202 135.907 -31.6306 -45.3738 145.435 -74.9854 -75.7436 179.26 -107.685 -119.489 198.045 -97.384 -155.351 186.825 -63.6298 -83.4954 171.674 -6.20681 21.1725 22.966 36.198 
174.928 130.838 160.029 167.756 167.569 178.707 119.434 154.421 167.114 168.678 -14.8661 135.636 -31.5568 -45.3961 144.818 -74.4561 -75.4648 178.973 -107.558 -119.17 197.665 -97.2985 -155.019 186.424 -63.5832 -83.2855 171.522 -6.06302 21.1477 22.9116 36.6446 
174.804 131.5 159.752 167.622 167.385 178.882 119.02 154.321 166.97 168.448 -14.8033 135.383 -31.473 -45.533 144.107 -74.0032 -75.3104 178.696 -107.405 -118.958 197.2 -97.1359 -154.742 185.948 -63.4451 -83.0717 171.365 -5.89869 21.1178 22.8155 37.1288 
174.594 132.267 159.494 167.428 167.161 179.129 118.243 154.157 166.766 168.174 -14.6587 135.158 -31.3239 -45.56 143.239 -73.2484 -75.0305 178.318 -107.202 -118.653 196.685 -96.9625 -154.412 185.407 -63.3085 -82.8099 171.208 -5.72752 21.1256 22.776 37.8535 
174.398 133.062 159.348 167.206 166.925 179.397 117.095 153.958 166.53 167.888 -14.5087 134.88 -31.2667 -45.5204 142.178 -72.2185 -74.6902 177.906 -107.008 -118.313 196.208 -96.7903 -154.055 184.864 -63.1795 -82.4859 171.01 -5.61032 21.1568 22.802 38.9245 
174.212 133.737 159.305 167.015 166.727 179.667 115.874 153.731 166.292 167.655 -14.2695 134.609 -31.176 -45.3167 141.101 -71.0308 -74.1956 177.543 -106.804 -117.881 195.858 -96.6213 -153.644 184.417 -63.067 -82.0835 170.795 -5.51429 21.2115 22.9082 40.1759 
174.064 134.605 159.494 166.951 166.619 179.946 114.666 153.615 166.167 167.516 -13.9454 134.444 -31.0117 -44.9563 140.122 -69.6824 -73.5355 177.318 -106.595 -117.358 195.82 -96.4651 -153.18 184.213 -62.9788 -81.6399 170.699 -5.386 21.2659 23.1232 41.5428 
173.925 134.448 159.814 167.005 166.583 179.696 113.873 153.665 166.135 167.452 -13.5007 134.336 -30.6872 -44.4566 139.803 -68.6989 -72.8163 177.097 -106.371 -116.776 195.797 -96.3231 -152.608 184.132 -62.9167 -81.1261 170.652 -5.20328 21.2461 23.3201 42.1548 
173.938 134.001 160.056 167.271 166.701 178.935 112.777 153.925 166.349 167.607 -12.4451 134.278 -29.4684 -44.4717 140.023 -67.8801 -71.3644 176.85 -105.83 -115.496 195.854 -96.0768 -151.262 184.427 -62.9141 -80.08 170.774 -4.68295 21.0121 23.5034 41.7241 
174.08 132.813 160.116 167.491 166.899 178.315 112.862 154.142 166.548 167.804 -11.856 134.354 -28.5717 -44.7768 141.205 -68.7155 -70.8932 176.903 -105.621 -115.082 195.936 -96.0463 -150.705 184.738 -63.0878 -79.7193 170.848 -4.42494 20.7333 23.4573 39.8678 
174.202 131.434 160.184 167.583 167.024 177.909 113.549 154.445 166.61 167.882 -11.3296 134.65 -27.9858 -44.7447 142.925 -70.0782 -70.6599 177.169 -105.469 -114.759 195.889 -95.9722 -150.204 184.975 -63.1556 -79.3303 171.024 -4.17026 20.4706 23.1632 37.4762 
174.351 129.66 160.416 167.667 167.146 177.568 115.54 154.873 166.609 167.923 -10.9384 135.181 -27.4029 -43.9337 144.975 -71.4411 -70.4564 177.394 -105.24 -114.349 195.613 -95.8761 -149.737 184.999 -63.2102 -79.0901 171.349 -3.80787 20.2917 22.7407 34.9149 
174.407 128.666 160.43 167.599 167.15 177.224 118.268 155.045 166.502 167.88 -10.4652 135.792 -26.9598 -42.9208 146.924 -72.9707 -70.3723 177.368 -105.011 -114.07 195.099 -95.766 -149.341 184.8 -63.2234 -78.8267 171.666 -3.51622 20.1264 22.3645 32.3661 
174.504 128.678 160.552 167.567 167.17 177.097 120.721 155.196 166.371 167.796 -10.0949 136.482 -26.6992 -41.9289 148.466 -74.0059 -70.1786 177.312 -104.736 -113.574 194.668 -95.6323 -148.886 184.702 -63.2025 -78.572 172.09 -3.21937 20.0859 21.9951 30.4968 
174.624 129.323 160.821 167.549 167.261 177.105 122.187 155.274 166.233 167.752 -9.71795 137.023 -26.5227 -41.123 149.149 -74.2879 -69.9092 177.149 -104.428 -113.055 194.378 -95.4407 -148.452 184.769 -63.0819 -78.2968 172.508 -2.90807 20.087 21.769 29.6448 
174.556 129.336 161.126 167.436 167.341 177.064 122.472 155.3 166.06 167.775 -9.33135 137.494 -26.3747 -40.386 149.481 -74.0128 -69.5559 177.066 -104.166 -112.559 194.258 -95.2723 -148.074 184.94 -62.9774 -77.9925 172.863 -2.6814 20.1316 21.6678 29.4609 
174.472 129.337 161.352 167.202 167.311 177.061 121.846 155.144 165.825 167.725 -8.82372 137.892 -26.2723 -39.7735 149.387 -73.3777 -69.2289 176.961 -103.9 -112.167 194.246 -95.0378 -147.752 185.064 -62.7895 -77.6273 173.088 -2.52678 20.1988 21.7148 29.8315 
174.317 129.588 161.661 166.955 167.252 176.997 120.447 154.981 165.574 167.64 -8.31181 138.224 -26.2136 -39.1927 148.852 -72.3025 -68.7878 176.908 -103.675 -111.717 194.366 -94.8381 -147.414 185.13 -62.647 -77.2129 173.242 -2.4365 20.3184 21.8594 30.8486 
173.97 129.216 161.929 166.697 167.183 176.822 120.003 154.757 165.328 167.587 -7.9562 138.419 -26.177 -38.667 148.997 -71.9497 -68.4268 176.762 -103.454 -111.436 194.503 -94.6632 -147.181 185.242 -62.4973 -76.8246 173.347 -2.36723 20.3959 22.0969 30.8722 
173.578 128.696 161.936 166.522 167.152 176.591 120.362 154.419 165.228 167.603 -7.72153 138.477 -26.1556 -37.9745 149.422 -71.9868 -67.931 176.707 -103.308 -111.125 194.817 -94.5683 -146.937 185.413 -62.4011 -76.4541 173.41 -2.3312 20.4814 22.4191 30.5425 
173.336 127.908 161.703 166.479 167.14 176.421 121.217 154.061 165.268 167.659 -7.55894 138.389 -26.049 -37.4465 150.194 -72.3999 -67.4038 176.845 -103.247 -110.827 195.325 -94.5702 -146.691 185.76 -62.4106 -76.161 173.5 -2.33115 20.5197 22.7254 29.7878 
173.16 127.325 161.391 166.521 167.139 176.282 122.617 153.824 165.379 167.734 -7.42339 138.216 -25.9616 -36.9785 151.387 -73.215 -66.9184 177.314 -103.24 -110.586 196.066 -94.553 -146.492 186.265 -62.372 -75.8741 173.632 -2.32717 20.5551 22.9739 28.7002 
173.095 127.415 161.097 166.657 167.19 176.192 124.557 153.845 165.553 167.836 -7.33548 138.045 -25.8134 -36.5368 152.836 -74.2432 -66.5966 178.032 -103.2 -110.394 196.837 -94.4566 -146.313 186.848 -62.2421 -75.6316 173.847 -2.21123 20.5531 23.0231 27.4561 
172.934 128.463 160.937 166.777 167.212 176.042 126.747 154.041 165.651 167.835 -7.26896 138.035 -25.6833 -35.9147 154.349 -75.2712 -66.3736 178.886 -103.154 -110.201 197.504 -94.3613 -146.076 187.387 -62.1559 -75.4274 174.222 -2.05769 20.4864 22.8995 26.3873 
172.93 130.713 160.849 166.959 167.261 175.922 129.716 154.306 165.695 167.777 -6.88373 138.485 -25.4597 -34.8564 156.585 -76.5644 -66.0349 180.182 -102.9 -109.717 198.554 -94.0725 -145.537 188.456 -61.8628 -74.9521 175.083 -1.70419 20.3971 22.6129 25.0104 
173.035 132.036 161.096 167.17 167.346 176.044 130.578 154.756 165.744 167.779 -6.88399 138.786 -25.571 -34.4086 157.151 -76.814 -66.177 180.963 -102.877 -109.624 199.004 -93.9835 -145.461 188.982 -61.7104 -74.9166 175.537 -1.55548 20.3869 22.2713 25.1579 
172.981 132.827 161.005 167.088 167.203 175.996 130.263 154.727 165.588 167.584 -6.6772 139.096 -25.6219 -34.1106 157.26 -76.6052 -66.2563 181.4 -102.645 -109.322 199.472 -93.7854 -145.119 189.672 -61.5013 -74.684 176.121 -1.42723 20.3594 22.055 25.5479 
172.949 133.075 161.24 167.095 167.183 176.016 129.264 154.925 165.546 167.523 -6.44921 139.158 -25.7194 -33.9562 156.8 -75.9744 -66.1771 181.686 -102.433 -108.76 200.036 -93.6057 -144.653 190.506 -61.3224 -74.4015 176.543 -1.32731 20.4045 21.9017 26.3283 
172.884 132.787 161.761 167.014 167.183 176.015 127.695 155.184 165.543 167.577 -6.18365 138.972 -25.791 -33.8656 156.041 -75.1121 -65.9625 181.989 -102.241 -108.113 200.812 -93.3879 -144.147 191.46 -61.1159 -74.0214 176.819 -1.27108 20.4966 21.8819 27.3855 
172.944 133.11 163.047 166.947 167.202 176.102 125.826 155.86 165.558 167.672 -5.9711 138.807 -25.9905 -33.8457 154.821 -73.9794 -65.605 182.52 -102.17 -107.277 201.705 -93.1913 -143.552 192.393 -60.9462 -73.5701 177.035 -1.24304 20.66 21.8093 29.0669 
173.267 132.632 165.624 166.923 167.33 176.411 124.121 156.801 165.712 167.979 -5.70758 138.487 -26.2517 -33.9005 153.67 -73.0291 -65.2743 183.303 -102.305 -106.621 202.77 -92.9402 -143.101 193.454 -60.6281 -73.0429 177.023 -1.26734 20.8451 21.7577 30.7966 
173.874 131.827 169.377 167.146 167.658 176.929 123.13 158.33 166.135 168.695 -5.40529 138.046 -26.5513 -33.8678 152.572 -72.2763 -64.7266 184.582 -102.654 -105.911 204.25 -92.688 -142.736 194.886 -60.1642 -72.4273 176.832 -1.29111 21.1376 21.6943 32.6744 
174.582 130.713 173.586 167.486 167.891 177.467 122.624 159.993 166.524 169.343 -5.21624 137.567 -26.8721 -34.2699 152.059 -71.9964 -64.2495 186.276 -102.953 -105.371 206.075 -92.2703 -142.44 196.631 -59.5133 -71.7962 176.63 -1.25319 21.3517 21.6077 33.9628 
175.463 130.427 174.569 167.923 168.08 178.138 123.123 160.547 166.875 169.629 -5.24349 136.912 -27.0687 -34.558 151.884 -72.0211 -63.618 187.407 -102.8 -104.677 207.714 -91.6652 -141.819 198.323 -58.7965 -71.1822 176.487 -0.958632 21.3555 21.6726 34.2359 
175.855 130.892 174.86 168.16 168.136 178.717 124.254 160.581 167.054 169.632 -5.30929 136.08 -26.8924 -34.4038 152.017 -72.1121 -62.6114 187.855 -102.35 -103.475 209.012 -91.0819 -140.628 199.96 -58.3094 -70.4853 176.564 -0.501341 21.2013 21.8183 33.6527 
176.061 130.398 175.23 168.424 168.304 179.001 124.024 160.808 167.271 169.705 -5.22027 135.394 -26.3746 -33.8827 152.1 -71.153 -60.9953 187.966 -101.729 -101.346 210.365 -90.7039 -138.677 202.021 -58.1729 -69.596 177.092 0.0655273 21.0399 21.9834 33.3367 
175.918 128.81 175.759 168.771 168.451 179.85 122.834 160.965 167.656 169.791 -5.0519 134.857 -25.7851 -33.2607 152.011 -69.5826 -59.186 187.805 -101.076 -99.0439 211.734 -90.3675 -136.474 204.089 -58.1691 -68.67 177.698 0.58092 20.8103 22.3767 33.3671 
177.089 127.768 176.809 168.914 168.294 178.605 121.404 161.363 167.95 169.974 -4.14918 134.556 -25.2806 -33.0325 151.444 -68.3641 -57.8483 187.948 -100.558 -97.2738 212.897 -89.8204 -134.783 205.649 -57.7534 -67.6849 177.777 0.913314 20.772 22.6589 34.0675 
177.301 126.688 177.457 168.882 168.244 178.209 119.806 161.327 168.033 170.275 -3.18441 133.727 -24.4983 -32.7788 150.252 -67.0786 -56.5218 187.985 -100.073 -95.8838 213.55 -89.1691 -133.494 206.552 -57.1084 -66.7097 177.261 1.30808 20.8086 22.8794 35.2085 
177.421 126.973 177.438 169.177 168.323 177.698 116.961 161.309 168.487 170.733 -2.38908 132.768 -23.4564 -33.066 148.351 -64.8235 -54.7133 188.216 -99.4988 -94.0369 214.476 -88.7411 -131.796 207.693 -56.8816 -65.8053 177.101 1.83809 20.6644 23.0346 37.4938 
177.708 133.542 177.832 169.011 167.932 177.025 115.346 162.333 168.704 170.696 -1.63141 131.075 -21.8073 -32.4594 145.566 -62.5295 -51.0367 187.606 -98.9608 -90.7548 213.801 -89.0199 -128.94 207.6 -57.9914 -64.6818 176.947 2.06179 20.5517 23.063 40.2288 
178.136 138.389 177.412 168.757 167.642 176.649 114.561 163.705 168.804 170.532 -1.00277 130.156 -20.4378 -31.4941 143.786 -60.3459 -47.7511 187.707 -98.2824 -87.0923 213.313 -89.3786 -125.676 208.023 -59.2469 -63.5643 177.324 2.25205 20.425 22.4511 42.7296 
178.369 138.159 176.544 168.149 167.112 176.538 114.214 164.863 168.799 170.41 -0.500002 129.828 -19.6543 -30.0092 144.098 -59.7766 -45.5688 188.134 -97.5611 -84.5613 213.285 -89.1875 -123.254 208.979 -59.6089 -62.6548 177.728 2.46811 20.3938 21.9928 42.6935 
178.868 136.828 175.867 167.361 166.65 176.127 113.675 165.856 168.628 170.663 0.246476 129.475 -19.2551 -28.9321 144.563 -59.7712 -44.2974 188.62 -97.0421 -83.0394 213.273 -88.7355 -121.936 209.842 -59.278 -61.7636 177.677 2.5974 20.7063 21.617 42.4165 
179.37 135.104 177.231 166.727 166.413 175.518 112.691 166.607 168.332 171.043 0.909127 128.624 -18.5834 -28.2751 144.1 -59.2336 -43.2102 189.025 -96.7025 -81.8438 213.136 -88.2364 -121.266 210.43 -58.6781 -60.9624 177.257 2.80186 21.2977 21.2125 43.1298 
