166.768 175.445 173.802 175.676 178.32 155.008 172.521 169.828 170.118 172.962 64.7831 118.716 -74.6451 112.924 148.867 -128.097 135.225 145.894 -129.409 153.185 149.277 -111.466 165.425 156.824 -79.0944 100.193 149.815 -29.5881 10.6241 3.29149 3.88024 
167.097 175.46 173.723 175.54 178.101 155.466 172.501 169.755 169.882 172.798 64.6142 118.864 -74.7301 112.429 149.394 -128.302 134.78 146.235 -129.686 152.852 149.322 -111.788 165.354 156.909 -79.4088 100.26 150.191 -29.6961 10.7009 3.18286 3.98032 
167.249 175.45 173.658 175.323 177.784 155.792 172.478 169.738 169.662 172.617 64.4809 118.846 -74.7372 111.812 149.82 -128.503 134.291 146.561 -129.974 152.513 149.384 -112.145 165.331 156.983 -79.7514 100.313 150.471 -29.8312 10.7836 3.10497 4.03708 
167.331 175.465 173.649 175.081 177.433 156.044 172.524 169.843 169.534 172.519 64.3924 118.732 -74.6698 111.171 150.26 -128.693 133.812 147.023 -130.309 152.2 149.54 -112.546 165.323 157.103 -80.0716 100.346 150.684 -29.9452 10.8518 3.02192 4.02554 
167.347 175.477 173.627 174.843 177.092 156.205 172.54 169.905 169.381 172.391 64.3755 118.641 -74.5818 110.646 150.688 -128.813 133.379 147.415 -130.588 151.876 149.632 -112.903 165.278 157.184 -80.368 100.381 150.889 -30.0273 10.92 2.92358 4.04923 
167.288 175.481 173.574 174.635 176.83 156.28 172.55 169.926 169.214 172.271 64.4165 118.577 -74.4854 110.256 151.035 -128.926 133.068 147.748 -130.825 151.661 149.734 -113.198 165.293 157.29 -80.6152 100.452 151.102 -30.1131 10.9708 2.85355 4.07148 
167.261 175.527 173.57 174.445 176.555 156.345 172.619 170.009 169.119 172.157 64.4697 118.622 -74.4578 110.057 151.377 -129.011 132.921 148.164 -131.038 151.563 149.96 -113.452 165.343 157.468 -80.7924 100.526 151.284 -30.1877 10.9903 2.79214 4.03258 
167.208 175.614 173.576 174.218 176.23 156.388 172.771 170.105 168.991 172.026 64.6548 118.856 -74.4344 109.928 152.04 -129.163 132.804 148.758 -131.34 151.514 150.253 -113.813 165.475 157.768 -81.0701 100.746 151.633 -30.3095 11.047 2.70287 4.09704 
166.994 175.644 173.531 174.101 176.042 156.241 172.797 170.068 168.923 171.938 64.7785 118.972 -74.3626 109.93 152.213 -129.166 132.787 148.943 -131.372 151.532 150.449 -113.889 165.56 157.945 -81.126 100.834 151.79 -30.3148 11.0537 2.71132 4.09572 
166.762 175.666 173.466 173.965 175.877 156.112 172.81 170.002 168.843 171.866 64.919 119.104 -74.3347 109.853 152.412 -129.236 132.724 149.087 -131.458 151.535 150.596 -114.034 165.652 158.085 -81.2513 100.95 151.956 -30.3763 11.098 2.74017 4.11869 
166.577 175.625 173.389 173.865 175.765 155.968 172.702 169.903 168.765 171.79 65.0767 119.269 -74.3418 109.824 152.462 -129.271 132.684 149.12 -131.505 151.524 150.658 -114.131 165.664 158.113 -81.3798 101.056 152.088 -30.4271 11.0792 2.76137 4.10267 
166.41 175.58 173.351 173.751 175.656 155.794 172.621 169.853 168.685 171.701 65.2775 119.459 -74.3709 109.763 152.562 -129.301 132.593 149.116 -131.572 151.424 150.613 -114.259 165.603 158.065 -81.556 101.149 152.189 -30.5001 11.0909 2.73808 4.13349 
166.227 175.487 173.275 173.642 175.548 155.651 172.473 169.739 168.612 171.611 65.4968 119.585 -74.3496 109.779 152.475 -129.316 132.583 148.973 -131.593 151.432 150.559 -114.347 165.655 157.995 -81.7016 101.309 152.27 -30.5648 11.0868 2.76911 4.13322 
166.14 175.387 173.186 173.597 175.548 155.568 172.341 169.598 168.565 171.558 65.7479 119.721 -74.3796 110.029 152.211 -129.303 132.785 148.696 -131.501 151.61 150.445 -114.295 165.757 157.833 -81.7261 101.508 152.265 -30.6056 11.0135 2.81476 4.11566 
166.085 175.268 173.061 173.544 175.587 155.541 172.158 169.386 168.449 171.46 66.0019 119.884 -74.4502 110.407 152.038 -129.264 133.109 148.461 -131.347 151.901 150.356 -114.148 165.971 157.698 -81.6529 101.743 152.246 -30.6445 10.9696 2.86638 4.14093 
166.075 175.118 172.913 173.495 175.661 155.546 171.93 169.126 168.304 171.303 66.2098 120.073 -74.5219 110.809 151.781 -129.229 133.459 148.149 -131.151 152.205 150.186 -113.937 166.145 157.454 -81.5536 102.004 152.203 -30.6746 10.863 2.91171 4.16958 
166.281 175.094 172.86 173.492 175.808 155.713 171.824 169.051 168.273 171.209 66.4118 120.356 -74.7443 111.421 151.657 -129.202 134.039 148.163 -131.004 152.685 150.205 -113.691 166.395 157.223 -81.3124 102.272 152.09 -30.7005 10.6843 2.91365 4.05927 
166.524 175.114 172.825 173.521 175.992 155.908 171.781 168.993 168.257 171.144 66.6632 120.653 -75.0308 112.114 151.62 -129.251 134.7 148.207 -130.938 153.267 150.227 -113.499 166.751 157.032 -81.08 102.586 151.991 -30.7741 10.544 2.92159 3.99088 
166.753 175.136 172.818 173.595 176.211 156.146 171.692 168.931 168.187 171.115 66.8524 120.858 -75.2707 112.715 151.562 -129.271 135.256 148.26 -130.894 153.777 150.241 -113.324 167.135 156.951 -80.8334 102.912 151.963 -30.823 10.5019 2.92525 3.91013 
166.961 175.148 172.821 173.625 176.338 156.459 171.581 168.924 168.124 171.103 67 120.93 -75.6175 113.218 151.548 -129.361 135.769 148.407 -131 154.267 150.299 -113.317 167.631 156.898 -80.709 103.232 151.916 -30.9831 10.5264 2.92268 3.78768 
167.027 175.18 172.826 173.634 176.474 156.696 171.498 168.955 168.085 171.194 67.1325 120.779 -75.8671 113.6 151.45 -129.419 136.199 148.539 -131.159 154.714 150.376 -113.428 168.182 156.947 -80.681 103.57 151.849 -31.1763 10.6345 2.92903 3.63047 
167.041 175.261 172.915 173.649 176.567 156.904 171.454 169.128 168.2 171.385 67.255 120.492 -76.0747 113.825 151.256 -129.407 136.548 148.779 -131.369 155.107 150.625 -113.628 168.73 157.079 -80.6439 103.84 151.685 -31.3819 10.7701 2.97164 3.32839 
166.837 175.393 173.025 173.65 176.488 156.956 171.592 169.352 168.384 171.61 67.4329 120.01 -76.1705 113.802 150.921 -129.325 136.693 148.969 -131.692 155.372 150.835 -114.002 169.293 157.19 -80.8073 104.065 151.464 -31.6274 10.9577 3.0377 2.94703 
166.233 175.576 173.144 173.523 175.967 156.687 172.645 169.609 168.514 171.77 67.947 119.265 -76.1979 114.167 150.6 -129.157 136.878 149.148 -132.356 155.699 150.953 -114.855 170.217 157.228 -81.4708 104.53 151.15 -32.0544 11.2352 3.04374 2.55945 
165.562 175.787 173.111 173.493 175.654 156.307 173.995 169.663 168.55 171.905 68.2395 118.624 -76.181 114.288 150.659 -129.084 136.69 149.335 -132.877 155.64 151.014 -115.534 170.678 157.281 -82.0368 104.654 150.979 -32.3876 11.5013 3.02811 2.49798 
164.921 176.307 173.079 173.55 175.44 155.893 175.499 169.693 168.61 171.953 68.5695 118.093 -76.1805 114.668 150.566 -129.006 136.727 149.325 -133.263 155.784 151.052 -116.025 171.183 157.361 -82.4625 104.878 150.788 -32.6369 11.6959 3.06923 2.54254 
164.335 177.099 172.975 173.65 175.415 155.429 176.411 169.558 168.599 172.078 68.8817 117.715 -76.2197 114.91 150.268 -128.859 136.812 149.076 -133.498 155.949 150.897 -116.324 171.569 157.44 -82.7478 105.074 150.628 -32.8476 11.9449 3.12867 2.56188 
163.866 177.582 172.8 173.75 175.535 155.038 176.033 169.298 168.537 172.353 69.1777 117.415 -76.2556 114.898 149.726 -128.613 136.962 148.661 -133.564 156.206 150.587 -116.403 172.008 157.607 -82.7794 105.278 150.473 -32.968 12.3504 3.21853 2.42586 
163.52 177.287 172.587 173.809 175.787 154.671 174.627 168.948 168.462 172.66 69.4855 117.253 -76.2896 114.776 149.099 -128.428 137.07 148.068 -133.503 156.403 150.19 -116.362 172.328 157.668 -82.7228 105.471 150.342 -33.0305 12.7231 3.34329 2.28409 
163.299 176.443 172.381 173.89 176.243 154.417 173.199 168.581 168.417 173.079 69.6441 117.127 -76.248 114.641 148.53 -128.339 137.156 147.343 -133.309 156.576 149.728 -116.201 172.63 157.659 -82.5512 105.658 150.169 -33.0252 13.1258 3.50432 2.26245 
163.246 175.18 172.223 173.952 176.906 154.246 172.171 168.3 168.381 173.536 69.7331 117.111 -76.2039 114.896 148.39 -128.65 137.444 146.708 -133.09 156.915 149.326 -115.951 172.942 157.646 -82.2801 105.888 150.047 -32.9819 13.4056 3.64057 2.58695 
163.308 174.651 172.126 173.996 177.555 154.23 171.401 168.158 168.37 173.952 69.8188 117.076 -76.0982 114.988 148.042 -128.749 137.643 146.164 -132.903 157.128 148.881 -115.739 173.183 157.497 -82.0356 106.112 149.932 -32.8799 13.6246 3.69133 2.68783 
163.397 174.377 172 173.966 178.203 154.348 170.764 167.97 168.255 174.273 69.923 117.087 -75.9568 114.994 147.613 -128.632 137.78 145.735 -132.662 157.263 148.521 -115.503 173.404 157.344 -81.7099 106.328 149.845 -32.7224 13.8259 3.70976 2.65212 
163.522 174.071 171.915 173.959 178.809 154.531 170.126 167.887 168.238 174.605 69.9874 117.131 -75.8869 115.087 147.126 -128.435 138.032 145.498 -132.463 157.531 148.281 -115.249 173.708 157.093 -81.3239 106.544 149.7 -32.5838 13.9148 3.73369 2.42665 
163.707 173.792 171.897 173.953 179.487 154.747 169.665 167.895 168.234 174.919 70.134 117.288 -75.8665 115.431 146.844 -128.256 138.45 145.437 -132.302 157.908 148.144 -115.012 174.058 156.938 -80.9316 106.812 149.581 -32.4554 13.975 3.69587 2.25593 
163.875 173.634 171.958 173.917 179.862 154.929 169.489 168.037 168.275 175.222 70.3137 117.406 -75.8594 115.938 146.867 -128.128 139.011 145.704 -132.202 158.371 148.215 -114.824 174.494 156.922 -80.564 107.092 149.468 -32.3253 13.9956 3.57758 2.11458 
164.154 173.587 172.081 173.968 179.287 155.24 169.454 168.254 168.368 175.564 70.4986 117.521 -75.9983 116.433 147.029 -127.947 139.578 146.142 -132.23 158.817 148.353 -114.757 174.945 156.885 -80.2754 107.374 149.345 -32.2614 14.0131 3.42323 1.92914 
164.487 173.583 172.229 174.051 178.753 155.544 169.446 168.534 168.544 175.871 70.7191 117.609 -76.2275 117.131 147.127 -127.805 140.283 146.562 -132.293 159.379 148.528 -114.697 175.416 156.852 -80.0206 107.674 149.18 -32.2374 13.9586 3.29185 1.72225 
164.602 173.586 172.434 174.067 178.431 155.716 169.635 168.907 168.768 176.047 70.9483 117.601 -76.3795 117.781 147.023 -127.553 140.953 147.007 -132.477 159.943 148.801 -114.823 175.922 156.865 -80.0144 108.037 149.047 -32.2696 13.8275 3.18433 1.34468 
164.554 173.52 172.596 174.065 178.334 155.731 169.816 169.248 168.995 176.151 71.2331 117.511 -76.609 118.507 146.768 -127.354 141.678 147.426 -132.755 160.578 149.169 -115.044 176.484 156.969 -80.1547 108.416 148.907 -32.4269 13.6683 3.12908 0.929345 
164.334 173.416 172.783 174.064 178.406 155.525 170.009 169.65 169.353 176.266 71.5992 117.175 -76.7304 119.271 146.185 -127.174 142.433 147.629 -133.009 161.297 149.553 -115.261 177.066 157.081 -80.3086 108.806 148.671 -32.5988 13.4599 3.17551 0.632121 
163.879 173.199 172.802 174.196 178.366 155.057 169.944 169.777 169.556 176.459 71.9939 116.801 -76.6838 119.942 145.525 -127.096 143.099 147.379 -133.101 162.002 149.671 -115.359 177.714 157.27 -80.4231 109.202 148.439 -32.7542 13.457 3.3121 0.650855 
163.348 173.012 172.838 174.528 178.203 154.381 170.007 169.836 169.894 176.836 72.4424 116.389 -76.6082 120.654 144.941 -127.409 143.727 146.646 -133.037 162.672 149.515 -115.328 178.247 157.33 -80.4784 109.57 148.088 -32.9086 13.4912 3.53796 0.654729 
162.862 173.08 172.818 174.898 178.178 153.727 170.214 169.739 170.109 177.112 72.9144 116.086 -76.4134 121.223 144.657 -127.633 144.152 145.733 -132.84 163.119 149.04 -115.212 178.618 157.129 -80.5042 109.912 147.758 -32.9644 13.5689 3.70961 0.960706 
162.428 173.174 172.675 175.176 178.16 153.255 170.353 169.511 170.092 177.266 73.2697 115.829 -76.0337 121.557 144.45 -127.674 144.405 144.899 -132.545 163.403 148.409 -114.991 178.896 156.809 -80.4163 110.23 147.549 -32.8886 13.6858 3.78005 1.35665 
162.202 173.366 172.468 175.428 178.303 153.039 170.713 169.232 169.99 177.25 73.6167 115.723 -75.689 121.818 144.499 -127.663 144.604 144.314 -132.264 163.622 147.815 -114.768 179.144 156.412 -80.3164 110.568 147.447 -32.7648 13.7494 3.75787 1.79365 
162.16 173.721 172.215 175.569 178.361 153.11 171.172 168.975 169.803 177.258 73.8379 115.6 -75.3393 122.055 144.765 -127.632 144.841 144.004 -131.926 163.928 147.337 -114.406 179.555 156.06 -79.9785 110.903 147.348 -32.5454 13.8746 3.71333 2.21162 
162.313 174.294 172.107 175.453 178.445 153.419 171.755 168.889 169.617 177.076 73.9863 115.636 -75.0525 122.273 145.123 -127.63 145.091 144.006 -131.755 164.205 147.045 -114.194 179.929 155.703 -79.7193 111.229 147.332 -32.3286 13.8751 3.59929 2.47811 
162.606 174.812 172.201 175.506 178.828 153.819 172.398 169.155 169.798 176.903 74.4422 115.753 -74.8995 123.072 145.324 -127.242 145.964 144.271 -131.633 165.003 146.798 -113.913 180.554 154.97 -79.34 111.834 147.005 -32.0605 13.5715 3.40618 2.43672 
163.022 175.068 172.358 175.487 179.267 154.29 172.824 169.473 170.052 176.761 74.5067 115.813 -75.0749 123.353 145.482 -127.012 146.349 144.768 -131.802 165.325 146.876 -113.946 180.728 154.528 -79.2868 111.97 146.819 -32.017 13.2413 3.26828 2.19109 
163.336 175.178 172.622 175.456 179.61 154.578 172.962 169.871 170.289 176.663 74.8375 115.908 -75.2666 123.874 145.605 -126.758 146.977 145.394 -131.985 165.789 147.051 -114.012 180.963 154.215 -79.2906 112.281 146.662 -31.9506 12.8873 3.07976 1.82867 
163.542 175.3 172.752 175.393 179.844 154.796 173.236 170.136 170.476 176.545 75.0806 115.896 -75.4881 124.292 145.451 -126.532 147.425 145.701 -132.259 166.114 147.097 -114.246 181.164 153.879 -79.5237 112.564 146.524 -32.0049 12.5916 2.95566 1.52661 
163.653 175.184 172.846 175.43 179.947 154.869 173.014 170.387 170.709 176.689 75.2856 115.696 -75.6033 124.783 145.192 -126.424 147.958 145.884 -132.41 166.559 147.126 -114.335 181.555 153.682 -79.5515 112.866 146.309 -32.0281 12.4849 2.89041 1.26711 
163.595 174.996 172.97 175.491 179.947 154.666 173.057 170.65 171.058 177.074 75.5142 115.32 -75.7317 125.708 144.919 -126.933 148.733 145.591 -132.51 167.254 147.113 -114.379 182.12 153.697 -79.5192 113.195 145.935 -32.1343 12.4635 2.93834 1.34863 
163.226 175.142 173.142 175.634 179.762 154.079 173.164 170.897 171.471 177.459 75.8286 114.804 -75.6542 126.666 144.292 -127.479 149.468 144.832 -132.475 167.927 147 -114.346 182.576 153.758 -79.4706 113.501 145.463 -32.2058 12.4292 3.10024 1.54047 
162.799 175.294 173.25 175.857 179.7 153.449 173.128 170.913 171.694 177.679 76.0987 114.378 -75.49 127.362 143.662 -127.804 149.985 143.814 -132.3 168.44 146.654 -114.237 182.955 153.722 -79.4267 113.801 145.034 -32.2321 12.492 3.31868 1.85984 
162.44 175.371 173.214 176.163 179.584 153.05 173.198 170.747 171.795 177.923 76.3751 113.97 -75.2332 127.937 143.089 -127.85 150.501 142.781 -131.914 169.019 146.177 -113.865 183.5 153.589 -79.0808 114.13 144.652 -32.1261 12.6745 3.56417 2.19722 
162.262 175.479 173.085 176.517 179.696 152.89 173.447 170.581 171.868 178.163 76.6354 113.617 -74.8778 128.581 142.699 -127.741 151.106 142.017 -131.402 169.687 145.712 -113.306 184.101 153.423 -78.4974 114.493 144.317 -31.8833 12.8422 3.7123 2.50666 
162.278 176.175 172.78 176.82 179.784 153.211 175.098 170.249 171.75 177.935 76.8481 113.4 -74.503 128.968 142.909 -127.64 151.188 141.432 -131.016 169.929 145.152 -112.922 184.512 152.845 -78.0927 114.844 144.111 -31.5794 12.9061 3.79928 3.12246 
162.417 177.112 172.739 176.905 179.394 153.514 176.34 170.311 171.752 177.86 77.1124 113.189 -74.1361 129.505 142.903 -127.099 151.498 141.283 -130.728 170.3 144.741 -112.604 184.934 152.362 -77.7268 115.19 143.86 -31.2702 12.8868 3.71189 3.30655 
162.568 177.624 172.813 176.882 178.842 153.792 177.146 170.522 171.795 177.751 77.4842 112.984 -73.8958 130.113 143.032 -126.525 152.004 141.542 -130.548 170.764 144.484 -112.32 185.328 151.901 -77.355 115.499 143.523 -30.9797 12.7913 3.51435 3.30301 
162.745 177.951 173.095 176.826 178.167 153.93 177.621 170.913 171.945 177.53 78.0293 112.961 -73.8097 130.847 143.288 -125.956 152.767 142.09 -130.476 171.323 144.393 -112.104 185.554 151.489 -77.127 115.806 143.203 -30.7131 12.4905 3.23291 3.17291 
162.835 177.606 173.306 176.844 177.387 153.786 177.383 171.292 172.206 177.478 78.6099 112.954 -73.8652 131.767 143.65 -125.935 153.702 142.565 -130.454 171.989 144.319 -111.943 185.772 151.168 -76.9731 116.111 142.834 -30.5707 12.2065 2.98612 3.11982 
163.114 176.976 173.451 176.891 176.83 153.723 176.889 171.518 172.572 177.694 79.0523 112.865 -74.0268 133.028 143.492 -126.269 154.921 142.298 -130.283 172.981 144.175 -111.62 186.195 151.045 -76.6294 116.46 142.358 -30.486 12.0446 2.97551 3.18505 
163.415 176.713 173.755 177.016 176.771 153.734 176.301 171.662 172.974 178.179 79.699 112.359 -74.0742 134.916 142.05 -126.501 156.983 140.956 -129.73 174.813 143.754 -110.978 187.4 150.981 -75.9099 117.247 141.568 -30.2983 12.0388 3.20495 3.07398 
163.752 176.592 173.845 177.181 176.652 153.951 175.772 171.556 173.206 178.573 79.7225 112.386 -74.2784 135.683 141.003 -126.513 157.951 140.252 -129.332 175.802 143.959 -110.502 188.062 151.438 -75.3474 117.566 141.361 -30.2263 12.1332 3.60309 2.81853 
163.578 176.767 173.729 177.124 176.667 153.999 176.105 171.445 173.144 178.441 80.0125 112.207 -74.1216 136.125 140.319 -126.221 158.418 139.845 -129.176 176.39 143.994 -110.385 188.768 151.491 -75.142 118.066 141.25 -30.0958 12.1848 3.81939 2.65708 
163.182 176.826 173.534 177.185 176.766 153.875 176.701 171.327 173.066 178.335 80.2863 112.015 -73.8068 136.219 139.788 -125.792 158.485 139.448 -129.108 176.593 143.856 -110.397 189.195 151.365 -75.1349 118.494 141.202 -29.9902 12.2377 3.9522 2.59584 
162.679 176.643 173.468 177.091 177.005 153.62 177.823 171.367 172.915 178.161 80.7138 111.802 -73.4165 136.084 139.597 -125.367 158.321 139.255 -129.215 176.512 143.53 -110.648 189.449 150.954 -75.3999 118.877 141.158 -29.9104 12.2336 3.87224 2.62468 
162.177 176.357 173.555 177.023 177.256 153.243 178.241 171.607 172.87 178.019 81.1918 111.695 -73.0224 135.921 139.417 -124.836 158.301 139.406 -129.318 176.457 143.241 -110.857 189.58 150.502 -75.6751 119.202 141.078 -29.8285 12.1413 3.62215 2.3948 
161.835 175.809 173.584 177.068 177.42 152.913 177.973 171.82 172.883 177.958 81.7413 111.705 -72.7631 136.052 139.546 -124.62 158.574 139.728 -129.373 176.577 142.974 -110.98 189.73 150.078 -75.902 119.547 141.011 -29.7953 12.0006 3.28423 2.23473 
161.364 175.4 173.625 176.98 177.576 152.538 178.06 172.003 172.817 177.773 82.3338 111.639 -72.5367 136.228 139.946 -124.469 158.841 140.176 -129.517 176.701 142.754 -111.197 189.978 149.582 -76.1788 119.896 140.922 -29.7871 11.8515 2.93621 2.19715 
160.874 175.237 173.668 176.891 177.653 152.089 177.948 172.115 172.697 177.511 82.9834 111.663 -72.3845 136.787 140.477 -124.422 159.349 140.644 -129.606 176.986 142.627 -111.332 190.278 149.211 -76.3866 120.273 140.923 -29.744 11.6594 2.60383 2.2745 
160.419 175.348 173.625 176.904 177.592 151.723 177.742 172.095 172.695 177.377 83.4897 111.581 -72.2693 137.557 140.992 -124.644 159.979 140.848 -129.587 177.446 142.508 -111.314 190.658 148.977 -76.4523 120.646 140.881 -29.7187 11.5098 2.41588 2.50284 
160.297 175.516 173.598 177.139 177.382 151.585 177.366 171.97 172.893 177.438 83.8784 111.511 -72.239 138.334 141.184 -124.872 160.655 140.67 -129.379 178.075 142.388 -111.063 191.088 148.756 -76.2884 120.986 140.733 -29.6456 11.3676 2.45022 2.71115 
160.298 175.669 173.529 177.453 176.819 151.61 176.936 171.789 173.131 177.638 84.0106 111.284 -72.1642 138.983 141.077 -125.058 161.312 140.324 -129.043 178.785 142.314 -110.626 191.579 148.658 -75.8896 121.276 140.52 -29.5098 11.3019 2.62123 2.81352 
160.461 175.672 173.476 177.801 175.778 151.789 176.333 171.531 173.391 177.875 84.0738 111.109 -72.1396 139.567 140.739 -125.055 161.99 139.968 -128.598 179.595 142.372 -110.013 192.156 148.66 -75.2461 121.536 140.295 -29.306 11.2614 2.90661 2.78186 
160.842 175.566 173.476 178.131 175.387 152.086 175.722 171.285 173.639 178.074 84.1674 111.218 -72.2203 140.269 140.397 -124.999 162.835 139.701 -128.115 180.556 142.581 -109.305 192.839 148.821 -74.4562 121.832 140.153 -29.0845 11.2338 3.22488 2.70456 
161.403 175.523 173.538 178.427 175.67 152.5 175.396 171.093 173.926 178.191 84.313 111.562 -72.4313 141.089 140.178 -124.894 163.721 139.54 -127.635 181.54 142.931 -108.571 193.53 149.103 -73.6267 122.144 140.065 -28.8622 11.2043 3.5633 2.68396 
161.827 175.5 173.618 178.75 175.78 152.814 175.222 170.96 174.178 178.229 84.5958 111.97 -72.6096 141.804 140.028 -124.787 164.481 139.402 -127.253 182.398 143.266 -107.994 194.169 149.38 -72.9918 122.519 140.086 -28.6804 11.1719 3.87066 2.69006 
162.129 175.461 173.668 178.953 175.931 152.976 175.121 170.77 174.185 178.291 85.4866 112.624 -72.7665 143.161 139.99 -124.656 165.834 139.369 -126.859 183.77 143.718 -107.414 195.292 149.967 -72.3256 123.386 140.302 -28.4894 11.2058 4.11771 2.74879 
162.183 175.398 173.702 178.761 175.645 152.952 175.305 170.796 173.962 178.151 86.0755 113.195 -72.8987 143.652 140.344 -124.609 166.283 139.65 -126.853 184.154 143.977 -107.367 195.627 150.378 -72.2332 123.798 140.602 -28.4767 11.2791 4.07074 2.83859 
162.073 175.365 173.684 178.498 175.311 152.822 175.586 170.856 173.708 177.988 86.7181 113.622 -72.9526 144.146 140.815 -124.572 166.684 139.967 -126.909 184.433 144.099 -107.435 195.893 150.601 -72.2763 124.237 140.834 -28.5082 11.3215 3.90888 2.99402 
162.023 175.436 173.648 178.239 174.978 152.799 175.93 170.898 173.479 177.828 87.2576 114.053 -73.0489 144.702 141.237 -124.533 167.085 140.266 -126.988 184.7 144.236 -107.556 196.159 150.825 -72.3754 124.661 141.041 -28.5678 11.3676 3.75562 3.13542 
161.905 175.647 173.612 177.848 174.448 152.764 176.538 170.993 173.214 177.588 87.801 114.292 -73.1001 145.187 141.736 -124.418 167.417 140.623 -127.113 184.881 144.296 -107.765 196.428 150.87 -72.5716 125.067 141.213 -28.6371 11.3706 3.52815 3.29939 
161.637 175.905 173.633 177.412 174.403 152.569 176.969 171.168 172.991 177.348 88.3225 114.46 -73.135 145.695 142.338 -124.339 167.852 141.155 -127.31 185.067 144.436 -108.11 196.691 150.954 -72.9503 125.495 141.406 -28.7713 11.3291 3.20609 3.39925 
161.377 176.013 173.619 177.183 175.25 152.37 177.139 171.323 172.911 177.215 88.7001 114.558 -73.1314 146.189 142.876 -124.294 168.371 141.6 -127.385 185.315 144.504 -108.26 196.932 150.934 -73.1436 125.863 141.521 -28.86 11.2744 2.91453 3.46959 
161.074 176.084 173.595 177.049 175.784 152.125 177.227 171.457 172.916 177.14 89.0185 114.511 -73.1079 146.662 143.346 -124.316 168.911 141.958 -127.412 185.589 144.529 -108.342 197.201 150.839 -73.2588 126.19 141.556 -28.9212 11.2224 2.65815 3.52422 
160.839 176.123 173.646 176.871 176.136 151.827 177.131 171.633 172.937 177.176 89.3787 114.392 -73.0601 147.321 143.78 -124.348 169.677 142.316 -127.336 186.009 144.636 -108.332 197.518 150.929 -73.2492 126.521 141.578 -28.913 11.1895 2.38622 3.56164 
160.753 176.134 173.733 176.731 176.237 151.562 176.933 171.81 173.011 177.233 89.7799 114.382 -73.0302 148.059 144.022 -124.38 170.506 142.535 -127.223 186.518 144.783 -108.286 197.834 151.134 -73.2249 126.897 141.631 -28.8746 11.1375 2.19343 3.56605 
