169.54 164.468 164.751 165.868 166.842 164.199 156.296 157.341 158.056 156.582 155.075 134.928 50.6829 128.67 120.564 -13.5897 105.252 108.274 -23.5102 74.6742 105.651 -18.0543 49.7418 112.093 2.3967 86.9221 158.58 63.4613 5.47993 6.82666 4.85454 
169.781 164.96 165.221 166.26 167.196 164.3 156.923 157.889 158.519 157.016 154.937 134.602 50.7729 128.665 120.397 -13.6611 105.341 107.897 -23.4664 74.7671 105.267 -17.9722 49.9216 111.719 2.54297 86.9878 158.411 63.6599 5.3808 6.80211 4.91353 
169.977 165.375 165.647 166.594 167.484 164.418 157.511 158.432 158.947 157.428 154.952 134.308 50.9886 128.783 120.291 -13.7266 105.472 107.611 -23.4776 74.8536 104.966 -17.9266 49.9999 111.449 2.64595 87.0833 158.283 63.855 5.36958 6.80959 5.005 
170.078 165.698 165.999 166.853 167.668 164.492 158.004 158.889 159.275 157.734 155.047 134.03 51.2677 129.148 120.371 -13.7613 105.837 107.526 -23.5348 75.1854 104.801 -17.9542 50.2478 111.275 2.63287 87.2499 158.19 64.0383 5.39232 6.8062 5.10647 
170.081 165.94 166.237 167.016 167.77 164.468 158.394 159.211 159.49 157.938 155.137 133.742 51.567 129.608 120.542 -13.7455 106.28 107.567 -23.553 75.6029 104.758 -17.9762 50.601 111.199 2.60302 87.467 158.109 64.2264 5.40033 6.80534 5.20664 
170.006 166.095 166.429 167.131 167.811 164.367 158.698 159.496 159.653 158.074 155.331 133.469 51.9982 130.259 120.797 -13.6883 106.843 107.74 -23.6378 76.1388 104.844 -18.0793 51.0608 111.246 2.48403 87.7594 158.033 64.4208 5.38721 6.79723 5.33952 
169.868 166.131 166.466 167.129 167.769 164.234 158.821 159.575 159.652 158.055 155.658 133.211 52.4319 130.881 121.012 -13.6184 107.337 107.907 -23.7039 76.6313 104.919 -18.152 51.4778 111.251 2.40106 88.0621 157.901 64.556 5.37601 6.78122 5.48334 
169.721 166.112 166.359 167.032 167.677 164.19 158.813 159.425 159.461 157.868 156.02 132.709 52.8559 131.545 121.05 -13.4769 107.846 107.87 -23.584 77.1548 104.758 -18.0075 51.988 111.005 2.51962 88.4134 157.714 64.6533 5.31075 6.76802 5.666 
169.48 165.976 166.075 166.832 167.513 164.103 158.647 159.042 159.116 157.575 156.57 132.352 53.1301 132.259 121.008 -13.4257 108.421 107.652 -23.4275 77.7278 104.379 -17.8515 52.5125 110.512 2.59904 88.7992 157.402 64.6028 5.29612 6.7836 5.88966 
169.275 165.913 165.787 166.581 167.323 164.313 158.427 158.516 158.606 157.153 157.309 132.207 53.4431 132.804 120.741 -13.3007 108.699 107.359 -23.1798 78.0122 103.996 -17.5368 52.8259 109.962 2.89639 89.215 156.997 64.6436 5.29043 6.81682 6.06273 
169.117 165.624 165.388 166.3 167.101 164.388 158.037 158.012 158.222 156.848 157.979 131.864 53.4889 133.358 120.039 -13.2357 109.158 106.708 -23.044 78.4201 103.257 -17.452 53.2326 109.159 2.84989 89.5146 156.414 64.4047 5.25398 6.8677 6.13172 
169.646 165.17 165.139 165.815 166.763 165.31 157.124 157.66 157.637 156.314 159.31 131.351 53.9885 133.743 118.919 -12.7186 109.473 106.363 -23.0785 78.8563 102.202 -16.8195 53.6312 107.629 3.44915 89.8234 155.865 64.0814 5.30578 6.91216 5.61775 
170.328 165.006 164.936 165.478 166.512 166.155 156.564 157.311 157.151 155.851 160.507 130.589 54.3506 134.076 117.769 -12.4555 109.707 105.639 -23.0355 79.2513 100.971 -16.2615 53.9757 106.051 4.01663 90.1076 155.344 63.6716 5.37412 6.92832 5.39147 
170.766 164.772 164.642 165.136 166.323 166.646 155.907 156.82 156.553 155.37 161.333 129.918 54.6702 134.529 117.076 -12.0001 110.117 105.27 -22.7394 79.8118 100.187 -15.5945 54.3497 104.96 4.5825 90.3911 155.087 63.4161 5.55136 6.95157 5.24035 
170.962 164.648 164.492 165.025 166.282 166.885 155.43 156.538 156.204 155.121 161.868 129.42 54.9391 134.796 116.608 -11.5462 110.344 105.069 -22.3911 80.1611 99.698 -14.9615 54.4707 104.212 5.1986 90.6442 155.036 63.3405 5.80535 6.97146 5.11789 
170.997 164.603 164.499 165.042 166.305 166.947 155.122 156.429 156.06 155.037 162.222 129.015 55.0714 135.028 116.269 -11.189 110.624 104.958 -22.1321 80.5406 99.4568 -14.5804 54.6399 103.758 5.58798 90.9079 155.089 63.2768 6.03047 6.95113 4.97009 
171.001 164.642 164.673 165.22 166.455 166.925 155.01 156.564 156.171 155.167 162.429 128.628 55.1492 135.209 116.056 -10.9266 110.845 104.964 -22.0038 80.8158 99.4535 -14.395 54.7357 103.607 5.864 91.2178 155.226 63.2955 6.2346 6.92455 4.8438 
170.956 164.626 164.854 165.406 166.606 166.848 154.986 156.761 156.348 155.339 162.592 128.223 55.2666 135.475 115.909 -10.6969 111.138 104.984 -21.8861 81.0845 99.5425 -14.2592 54.8223 103.657 6.0846 91.5926 155.396 63.369 6.43056 6.93022 4.76164 
170.844 164.639 165.018 165.623 166.766 166.727 155.017 157.006 156.633 155.643 162.805 127.931 55.4248 135.901 115.842 -10.4841 111.575 105.096 -21.8792 81.4406 99.718 -14.3311 54.962 103.754 6.09975 92.0007 155.531 63.4402 6.64419 6.95838 4.70732 
170.715 164.716 165.148 165.875 166.965 166.564 155.135 157.262 156.994 156.032 163.099 127.711 55.5581 136.458 115.825 -10.3604 112.197 105.152 -21.8961 81.963 99.8235 -14.4691 55.2765 103.768 6.02544 92.4737 155.62 63.4842 6.83505 6.99322 4.64865 
170.582 164.785 165.222 166.067 167.106 166.381 155.191 157.416 157.272 156.383 163.383 127.532 55.6359 136.932 115.674 -10.2728 112.808 104.928 -21.7865 82.4848 99.7172 -14.4822 55.591 103.674 5.99845 92.9394 155.673 63.5144 7.01716 7.01203 4.55389 
170.44 164.764 165.182 166.123 167.095 166.225 155.206 157.418 157.359 156.517 163.703 127.218 55.72 137.43 115.469 -10.3139 113.424 104.509 -21.69 83.0162 99.3557 -14.4634 55.9524 103.369 5.92516 93.3375 155.563 63.4537 7.14109 7.04551 4.5091 
170.347 164.718 165.062 166.075 167.047 166.099 155.186 157.299 157.293 156.545 164.035 126.911 55.783 137.817 115.242 -10.3968 113.811 104.074 -21.6021 83.3328 98.9738 -14.4152 56.1648 103.045 5.8645 93.6461 155.357 63.3527 7.23361 7.08502 4.55249 
170.146 164.549 164.848 165.912 166.868 165.949 155 157.015 157.049 156.354 164.272 126.441 55.7707 138.095 114.959 -10.5943 114.076 103.526 -21.5892 83.5577 98.4561 -14.4339 56.3477 102.563 5.73794 93.8342 155.014 63.1202 7.26436 7.11156 4.63334 
169.915 164.338 164.639 165.665 166.622 166.074 154.689 156.615 156.596 155.96 164.599 126.228 55.7974 138.151 114.734 -10.8072 114.054 103.144 -21.6167 83.5392 98.1872 -14.4414 56.4401 102.328 5.66838 94.0117 154.685 62.9723 7.20598 7.11419 4.72716 
169.75 164.105 164.389 165.419 166.418 166.068 154.413 156.268 156.249 155.626 164.986 125.956 55.7529 138.345 114.487 -11.0546 114.132 102.747 -21.7428 83.5608 97.7739 -14.5458 56.451 101.944 5.50888 94.0862 154.292 62.657 7.22358 7.17065 4.8765 
169.599 163.969 164.202 165.257 166.311 166.086 154.227 156.025 155.974 155.339 165.428 125.738 55.6339 138.405 114.144 -11.3438 114.053 102.317 -21.9168 83.4378 97.2701 -14.5966 56.3369 101.469 5.47821 94.1502 153.932 62.3185 7.25459 7.2384 5.00656 
169.337 163.819 164.045 165.11 166.224 166.043 153.962 155.765 155.694 155.029 165.816 125.531 55.4942 138.381 113.78 -11.5492 113.924 101.91 -22.0217 83.276 96.808 -14.5763 56.2017 101.035 5.56059 94.1985 153.64 62.0105 7.28444 7.29882 5.09014 
168.687 163.714 163.992 165.03 166.17 166.122 153.687 155.547 155.419 154.802 166.142 125.527 55.3583 138.341 113.7 -11.7565 113.734 101.805 -22.1628 83.1232 96.682 -14.5628 56.1796 100.91 5.66261 94.3996 153.532 61.9125 7.2585 7.31221 5.16998 
168.225 163.606 163.968 165.048 166.24 166.017 153.546 155.47 155.339 154.747 166.436 125.445 55.119 138.38 113.691 -12.0324 113.632 101.666 -22.3409 83.013 96.3798 -14.5547 56.0771 100.556 5.79914 94.5056 153.399 61.6895 7.32746 7.37743 5.29341 
167.809 163.526 163.977 165.081 166.331 165.857 153.436 155.448 155.31 154.733 166.622 125.409 54.9072 138.416 113.73 -12.2234 113.561 101.628 -22.4887 82.9397 96.1967 -14.5387 55.9986 100.327 5.92855 94.5991 153.349 61.5199 7.39774 7.43204 5.37656 
167.425 163.438 164.002 165.109 166.41 165.667 153.325 155.443 155.293 154.726 166.731 125.335 54.7333 138.477 113.764 -12.3408 113.566 101.587 -22.5696 82.9407 96.0816 -14.5105 55.975 100.211 6.03131 94.7059 153.344 61.3836 7.46571 7.46742 5.42883 
167.063 163.33 163.995 165.114 166.468 165.501 153.175 155.417 155.262 154.752 166.777 125.241 54.5634 138.53 113.823 -12.4326 113.551 101.57 -22.6284 82.9181 95.9899 -14.4626 55.8936 100.135 6.12552 94.8247 153.356 61.2844 7.56717 7.5072 5.48516 
166.859 163.268 164.032 165.132 166.503 165.363 153.139 155.452 155.278 154.781 166.828 125.162 54.4484 138.715 113.892 -12.5047 113.696 101.564 -22.6834 83.0314 95.9325 -14.4653 55.9359 100.096 6.12816 94.9548 153.383 61.1777 7.64325 7.54801 5.53739 
166.625 163.272 164.137 165.229 166.605 165.211 153.197 155.61 155.421 154.913 166.741 125.076 54.3607 138.841 113.978 -12.5474 113.782 101.637 -22.7559 83.1015 96.0158 -14.5035 55.9974 100.212 6.12533 95.0812 153.487 61.141 7.66278 7.5609 5.56598 
166.515 163.329 164.269 165.351 166.701 165.129 153.32 155.848 155.657 155.129 166.677 125.067 54.296 138.958 113.97 -12.6049 113.869 101.648 -22.9016 83.1436 96.048 -14.6592 55.997 100.277 6.02143 95.1613 153.564 61.0872 7.69824 7.57914 5.57293 
166.45 163.39 164.411 165.478 166.797 165.072 153.489 156.112 155.904 155.316 166.543 125 54.1999 139.066 114.01 -12.7072 113.918 101.736 -23.1245 83.1684 96.138 -14.8618 56.0395 100.386 5.89107 95.2293 153.645 61.0205 7.67872 7.59061 5.59831 
166.503 163.445 164.536 165.559 166.838 165.037 153.654 156.347 156.126 155.473 166.467 125.093 54.0619 139.189 114.148 -12.8606 113.971 101.922 -23.4017 83.1827 96.3728 -15.1788 56.06 100.596 5.65924 95.2886 153.775 60.9165 7.67511 7.59589 5.63289 
166.496 163.488 164.604 165.595 166.854 165.002 153.77 156.518 156.288 155.593 166.322 125.25 53.791 139.321 114.381 -13.0694 114.031 102.248 -23.7726 83.2384 96.7217 -15.5982 56.1477 100.884 5.30556 95.33 153.946 60.736 7.6434 7.58232 5.66341 
166.52 163.512 164.632 165.566 166.829 164.952 153.782 156.581 156.347 155.651 166.161 125.53 53.4198 139.325 114.683 -13.2779 113.999 102.662 -24.0786 83.241 97.1956 -15.9333 56.1839 101.324 5.01562 95.3811 154.205 60.6025 7.62502 7.54245 5.65476 
166.67 163.536 164.627 165.545 166.81 165.012 153.859 156.679 156.449 155.783 166.156 125.983 53.066 139.26 114.989 -13.5558 113.829 103.074 -24.4572 83.067 97.647 -16.3095 56.0115 101.772 4.70847 95.4256 154.476 60.478 7.6575 7.53654 5.68653 
166.889 163.547 164.617 165.519 166.785 165.157 153.925 156.746 156.524 155.912 166.312 126.595 52.7394 139.267 115.428 -13.8545 113.751 103.551 -24.8301 82.9946 98.1099 -16.6805 55.9338 102.174 4.39104 95.4897 154.74 60.3656 7.69309 7.53195 5.72744 
167.151 163.543 164.604 165.47 166.732 165.368 153.975 156.791 156.551 155.989 166.505 127.137 52.4673 139.279 115.798 -14.1268 113.682 103.958 -25.1768 82.9268 98.5001 -17.0142 55.8488 102.546 4.08287 95.5521 154.956 60.2706 7.72355 7.53018 5.76996 
167.492 163.566 164.608 165.454 166.697 165.603 154.069 156.881 156.645 156.119 166.723 127.616 52.2415 139.377 116.103 -14.3647 113.701 104.316 -25.5188 82.9353 98.8338 -17.3786 55.8379 102.829 3.74706 95.6325 155.101 60.1865 7.7471 7.53253 5.81313 
168.08 163.495 164.493 165.293 166.557 165.941 154.082 156.831 156.559 156.11 167.228 128.262 51.9604 139.619 116.436 -14.6917 113.794 104.718 -25.9199 83.0022 99.2124 -17.7585 55.8562 103.187 3.35138 95.8572 155.23 60.0107 7.80968 7.56029 5.91086 
168.52 163.479 164.399 165.191 166.476 166.174 154.075 156.746 156.435 156.028 167.553 128.571 51.8782 139.749 116.533 -14.8053 113.831 104.854 -26.0366 83.0197 99.2967 -17.8191 55.8752 103.266 3.27051 95.9821 155.252 59.9286 7.8284 7.59837 5.97214 
168.877 163.445 164.303 165.077 166.381 166.354 154.026 156.639 156.289 155.914 167.84 128.768 51.8416 139.916 116.596 -14.8777 113.934 104.965 -26.1132 83.0949 99.3531 -17.8493 55.9397 103.315 3.21567 96.1223 155.26 59.8528 7.8504 7.64226 6.01483 
169.224 163.459 164.267 165.02 166.324 166.515 154.028 156.554 156.175 155.787 168.08 128.93 51.7853 140.085 116.663 -14.9316 114.1 105.099 -26.1488 83.2465 99.4556 -17.8532 56.1136 103.426 3.18885 96.2783 155.322 59.7878 7.82777 7.66968 6.01028 
169.502 163.494 164.255 165.002 166.279 166.619 154.068 156.507 156.105 155.702 168.288 129.043 51.7125 140.259 116.724 -15.022 114.304 105.174 -26.1989 83.4556 99.4676 -17.8754 56.3579 103.455 3.1167 96.44 155.344 59.7037 7.77967 7.68652 5.99222 
169.719 163.578 164.293 165.033 166.301 166.669 154.147 156.523 156.105 155.7 168.441 129.083 51.6112 140.368 116.722 -15.1309 114.42 105.241 -26.2884 83.5701 99.5005 -17.9255 56.5134 103.502 3.0634 96.606 155.372 59.6121 7.74663 7.70668 5.97171 
169.81 163.662 164.323 165.068 166.308 166.607 154.26 156.557 156.15 155.733 168.589 129.058 51.4957 140.528 116.659 -15.2872 114.622 105.204 -26.4071 83.7543 99.4921 -18.0633 56.7249 103.523 2.91621 96.8189 155.365 59.4828 7.71257 7.71411 5.93376 
169.815 163.793 164.401 165.122 166.334 166.485 154.38 156.593 156.198 155.755 168.742 129.076 51.3768 140.631 116.571 -15.402 114.791 105.166 -26.4467 83.9418 99.5297 -18.1215 56.96 103.608 2.85842 97.0657 155.414 59.4017 7.66926 7.68915 5.86178 
169.804 163.932 164.466 165.171 166.382 166.335 154.513 156.594 156.225 155.798 169.019 129.231 51.2285 140.838 116.581 -15.459 115.108 105.221 -26.3835 84.3144 99.6712 -18.0909 57.3784 103.786 2.84125 97.4427 155.538 59.3615 7.63147 7.63648 5.75873 
169.736 164.113 164.576 165.285 166.514 166.235 154.731 156.677 156.326 155.946 169.302 129.246 51.1185 141.094 116.569 -15.439 115.47 105.278 -26.2434 84.7132 99.8074 -17.9568 57.7997 103.928 2.94616 97.894 155.632 59.4118 7.63695 7.60345 5.6491 
169.697 164.344 164.733 165.485 166.722 166.208 155.009 156.868 156.552 156.227 169.565 129.098 51.0778 141.391 116.39 -15.2571 115.908 105.23 -26.0027 85.1858 99.8791 -17.7471 58.2715 104.031 3.11821 98.4069 155.687 59.5676 7.65865 7.55655 5.4946 
169.68 164.528 164.85 165.659 166.862 166.219 155.279 157.039 156.778 156.524 169.941 128.744 51.2195 141.78 115.917 -14.9994 116.441 104.82 -25.6694 85.7258 99.6601 -17.5173 58.7477 103.9 3.2585 98.9368 155.536 59.7643 7.70785 7.50177 5.35583 
169.603 164.587 164.865 165.732 166.892 166.296 155.334 157.04 156.84 156.661 170.352 128.047 51.4753 142.204 115.177 -14.6718 116.998 104.075 -25.2663 86.2535 99.099 -17.2589 59.1541 103.441 3.3856 99.3817 155.108 59.9404 7.78771 7.46981 5.25076 
169.542 164.486 164.763 165.67 166.808 166.452 155.172 156.796 156.652 156.561 170.928 127.207 51.9031 142.858 114.492 -14.3694 117.697 103.218 -24.8714 86.9337 98.3127 -16.999 59.6847 102.724 3.47702 99.7927 154.492 60.0652 7.85489 7.44907 5.27791 
169.591 164.271 164.609 165.51 166.655 166.701 154.848 156.477 156.367 156.307 171.68 126.435 52.3656 143.544 113.8 -14.1012 118.33 102.361 -24.5544 87.5014 97.471 -16.7668 60.0871 101.886 3.6323 100.17 153.756 60.1454 7.96282 7.48079 5.38552 
169.61 163.923 164.353 165.205 166.377 166.867 154.283 155.991 155.921 155.812 172.401 125.695 52.7606 144.231 113.125 -13.858 118.911 101.641 -24.3298 88.0269 96.769 -16.6184 60.4962 101.08 3.78959 100.548 152.988 60.1182 8.04863 7.52127 5.51514 
169.539 163.679 164.215 164.898 166.112 166.801 153.771 155.484 155.422 155.334 173.374 124.345 53.0535 145.258 111.774 -13.5188 120.041 100.401 -23.8084 89.1321 95.8313 -16.1757 61.4207 100.157 4.18939 101.636 151.946 60.1487 8.23267 7.51673 5.4364 
169.567 163.664 164.316 164.912 166.156 166.677 153.817 155.48 155.405 155.312 173.65 123.875 53.2945 145.591 111.352 -13.411 120.438 100.038 -23.5352 89.4806 95.6519 -15.8734 61.714 100.039 4.5272 102.134 151.684 60.2905 8.32304 7.54658 5.38256 
169.578 163.601 164.327 164.939 166.208 166.626 153.882 155.477 155.432 155.373 173.999 123.295 53.4928 145.753 110.804 -13.3743 120.59 99.4714 -23.2551 89.5583 95.2939 -15.5099 61.7733 99.8734 4.90791 102.644 151.318 60.4853 8.41542 7.59964 5.38697 
169.609 163.498 164.315 164.961 166.239 166.652 153.861 155.425 155.415 155.423 174.376 122.737 53.601 146.155 110.559 -13.4583 121.004 99.0642 -23.1386 89.9311 94.9357 -15.3243 62.0888 99.616 5.06909 103.113 150.943 60.6182 8.48502 7.63383 5.44062 
169.664 163.331 164.173 164.859 166.148 166.749 153.755 155.26 155.276 155.356 174.835 122.118 53.6154 146.815 110.287 -13.6387 121.586 98.5964 -23.212 90.461 94.3449 -15.3543 62.5186 98.9773 4.98083 103.505 150.309 60.5582 8.56527 7.6959 5.58747 
169.72 163.034 163.948 164.596 165.982 166.938 153.443 154.921 154.934 155.1 175.566 121.57 53.7372 147.828 110.146 -13.7593 122.392 98.3186 -23.3792 91.1685 93.8366 -15.5035 63.0569 98.1755 4.85565 103.925 149.568 60.3955 8.71958 7.81105 5.82966 
169.894 162.842 163.754 164.327 165.797 167.12 153.099 154.543 154.563 154.827 176.559 121.391 53.829 148.731 110.031 -13.8803 123.025 98.0634 -23.4863 91.7592 93.3543 -15.5306 63.4914 97.3703 4.93463 104.43 148.914 60.3151 8.91701 7.90035 6.09126 
170.074 162.721 163.591 164.116 165.635 167.257 152.869 154.177 154.194 154.556 177.438 121.219 53.892 149.33 109.599 -13.8926 123.527 97.5404 -23.3645 92.2499 92.7134 -15.327 63.8867 96.5908 5.14414 104.93 148.254 60.2937 9.05624 7.95727 6.20715 
170.275 162.627 163.495 163.969 165.521 167.41 152.698 153.9 153.887 154.332 178.091 120.91 54.1535 149.701 109.065 -13.6737 123.919 97.0192 -23.0365 92.6272 92.2132 -14.9454 64.1562 96.1167 5.4757 105.375 147.743 60.4209 9.19086 7.99242 6.20926 
170.573 162.507 163.356 163.777 165.393 167.657 152.546 153.65 153.594 154.126 178.74 120.577 54.5037 150.177 108.631 -13.3527 124.357 96.6825 -22.6875 92.9814 91.9241 -14.5645 64.3732 95.8787 5.79477 105.835 147.37 60.5983 9.35105 8.07124 6.23114 
170.84 162.446 163.263 163.653 165.349 167.841 152.504 153.553 153.47 154.12 179.237 120.249 54.7677 150.552 108.206 -13.0546 124.693 96.3516 -22.3631 93.2045 91.656 -14.2028 64.4364 95.7128 6.0889 106.226 147.048 60.7992 9.54146 8.16595 6.23871 
170.981 162.327 163.174 163.563 165.315 167.971 152.475 153.495 153.4 154.145 179.643 119.782 54.9794 150.968 107.806 -12.8902 125.037 95.9944 -22.1706 93.4237 91.3631 -13.9725 64.5294 95.5616 6.27012 106.596 146.763 60.9117 9.67721 8.26225 6.29342 
171.009 162.142 163.066 163.443 165.23 168.09 152.408 153.41 153.299 154.097 179.995 119.254 55.0897 151.629 107.65 -12.9041 125.684 95.8189 -22.2204 93.9453 91.1829 -14.0726 64.9212 95.3876 6.09659 106.96 146.456 60.8237 9.76903 8.35008 6.35206 
170.916 161.944 162.922 163.287 165.084 168.095 152.308 153.285 153.167 153.971 180.375 118.777 55.0709 152.307 107.585 -13.1088 126.301 95.6633 -22.4611 94.4574 90.9801 -14.3672 65.317 95.1566 5.75809 107.29 146.132 60.5981 9.8418 8.42377 6.46533 
170.736 161.843 162.863 163.225 165.011 168.009 152.241 153.185 153.061 153.828 180.565 118.379 54.9228 152.852 107.749 -13.3846 126.781 95.7464 -22.7786 94.9234 90.9864 -14.7316 65.7822 95.0591 5.40013 107.568 145.948 60.3681 9.81105 8.43609 6.57661 
170.586 161.854 162.877 163.238 165.021 167.904 152.202 153.131 153.013 153.746 180.705 118.22 54.6414 153.261 108.127 -13.7071 127.115 96.065 -23.1395 95.3174 91.1796 -15.0872 66.2664 95.0596 5.10351 107.833 145.919 60.1615 9.72892 8.4124 6.6658 
170.55 161.923 162.941 163.327 165.09 167.878 152.262 153.14 153.028 153.72 180.791 118.128 54.2509 153.492 108.58 -14.1093 127.281 96.5019 -23.5666 95.5751 91.4881 -15.4782 66.6688 95.1831 4.7741 108.059 145.944 59.9538 9.60953 8.3727 6.72882 
170.668 162.155 163.165 163.595 165.341 167.854 152.549 153.407 153.292 153.942 180.756 118.214 53.8314 153.479 109.062 -14.493 127.172 97.0658 -24.0107 95.5763 91.9625 -15.8392 66.879 95.4953 4.52519 108.226 146.068 59.8759 9.46292 8.31913 6.76065 
170.849 162.52 163.512 163.952 165.649 167.838 153.024 153.875 153.723 154.28 180.643 118.32 53.4061 153.386 109.471 -14.8781 127.029 97.6829 -24.5325 95.5346 92.5556 -16.3196 67.0525 95.961 4.15818 108.366 146.232 59.801 9.29308 8.25172 6.71468 
171.034 162.942 163.873 164.31 166.001 167.803 153.522 154.41 154.197 154.654 180.431 118.416 53.0289 153.251 109.794 -15.1146 126.832 98.4099 -25.0339 95.4155 93.3193 -16.8142 67.1418 96.5984 3.78813 108.471 146.436 59.7868 9.13482 8.18801 6.61831 
171.224 163.373 164.263 164.646 166.387 167.729 154.022 155.036 154.75 155.108 180.242 118.682 52.8091 153.171 110.213 -15.1372 126.688 99.4443 -25.4979 95.2753 94.4598 -17.3494 67.162 97.5774 3.39407 108.586 146.764 59.8822 9.03488 8.15768 6.48672 
171.397 163.78 164.647 164.941 166.725 167.675 154.64 155.706 155.311 155.532 179.974 118.821 52.6135 153.015 110.688 -15.2571 126.469 100.565 -26.0373 95.0303 95.7442 -17.9781 67.082 98.7556 2.89744 108.661 147.103 59.965 8.91949 8.13775 6.38553 
171.504 164.399 165.357 165.341 166.937 167.748 155.733 156.765 156.137 156.065 179.809 119.04 52.5638 152.872 111.312 -15.6939 126.419 101.669 -26.8098 95.0584 97.1073 -18.8839 67.3306 100.134 2.07378 108.756 147.493 60.1167 8.61493 7.98763 6.21782 
171.709 164.66 165.756 165.577 167.039 167.736 156.479 157.605 156.839 156.457 179.635 119.202 52.5013 152.937 112.059 -16.0623 126.501 102.889 -27.7156 95.0941 98.5278 -20.0389 67.3978 101.498 1.01676 108.706 147.76 60.1067 8.47867 7.92137 6.16316 
171.867 164.524 165.732 165.402 166.868 167.657 156.686 157.932 157.061 156.381 179.383 119.359 52.4212 152.866 112.962 -16.326 126.405 104.402 -28.511 94.9722 100.2 -21.0429 67.3259 102.994 0.123835 108.536 147.99 60.0784 8.392 7.88395 6.14987 
172.578 164.195 165.192 164.859 166.505 168.452 156.482 157.733 156.944 155.993 178.717 119.576 51.926 152.326 114.335 -17.0214 125.524 106.8 -29.8586 94.2216 102.72 -22.4174 66.8578 105.41 -0.941007 108.034 148.66 59.9645 8.10675 7.76847 6.34148 
172.981 163.77 164.617 164.244 165.987 169.383 155.852 157.115 156.417 155.388 178.816 119.707 51.7153 151.753 114.687 -17.6528 124.57 107.733 -30.667 93.4226 103.706 -23.0323 66.3159 106.366 -1.25756 107.722 148.751 59.8759 7.93664 7.69502 6.56847 
173.213 163.094 163.732 163.419 165.415 169.786 155.061 156.418 155.827 154.758 178.865 119.833 51.459 151.197 115.09 -18.072 123.621 108.754 -31.3259 92.5795 104.691 -23.5465 65.6705 107.17 -1.48065 107.394 148.873 59.7094 7.89229 7.67453 6.83508 
173.422 162.557 163.007 162.726 164.946 170.009 154.423 155.867 155.332 154.22 178.859 119.975 51.2091 150.741 115.539 -18.38 122.913 109.824 -31.8443 92.0178 105.716 -23.9601 65.2546 107.979 -1.67106 107.166 149.007 59.622 7.87009 7.62077 7.01592 
173.413 161.799 162.057 161.856 164.323 170.029 153.548 155.074 154.621 153.452 178.822 120.051 51.1294 150.642 116.227 -18.5057 122.676 111.116 -32.1872 91.9183 106.924 -24.3195 65.1864 108.913 -1.93652 107.023 149.13 59.5638 7.89113 7.57355 7.16691 
