165.404 155.792 157.005 161.769 162.056 163.082 143.949 151.626 154.942 152.393 226.134 262.033 53.3166 210.428 252.382 -9.86711 184.256 247.9 -30.1082 154.699 237.312 -26.0914 125.944 232.855 -4.6613 157.306 274.48 61.7993 8.84032 7.56737 10.5077 
165.648 155.795 157.083 161.829 162.113 163.109 144.012 151.672 154.94 152.396 226.381 261.645 53.4343 210.63 252.009 -9.80287 184.65 247.319 -29.8895 155.192 236.639 -25.8096 126.512 232.262 -4.42265 157.609 274.062 61.9337 8.75057 7.52311 10.3024 
166.233 156.053 157.33 161.934 162.258 163.331 144.249 151.695 154.947 152.38 226.819 261.757 53.5575 210.886 251.756 -9.72025 185.172 246.761 -29.5201 155.849 236.055 -25.3749 127.228 231.79 -4.05851 157.942 273.786 62.1027 8.65499 7.43921 9.99236 
166.583 156.2 157.493 162.01 162.32 163.715 144.544 151.762 155.019 152.508 227.542 261.997 53.7441 211.456 251.762 -9.73133 185.803 246.375 -29.3579 156.495 235.452 -25.156 127.859 231.138 -3.86222 158.284 273.501 62.1846 8.65922 7.48443 9.8604 
166.754 156.463 157.912 162.387 162.54 164.021 144.814 152.037 155.282 152.764 228.627 262.107 53.8168 212.679 251.596 -9.55143 187.195 245.91 -29.2369 157.935 234.563 -25.011 129.338 230.19 -3.76379 159.103 273.044 62.2754 8.54749 7.55498 9.83139 
166.825 156.613 158.1 162.717 162.745 164.175 144.898 152.19 155.576 152.946 228.987 262.312 53.9598 213.164 251.357 -9.1782 187.8 245.686 -29.0178 158.423 234.166 -24.902 129.832 229.704 -3.62346 159.355 272.861 62.4773 8.51029 7.66664 9.88144 
167.041 156.813 158.266 163.045 162.892 164.476 145.052 152.303 155.742 152.94 229.398 262.129 54.151 213.817 251.325 -8.90112 188.587 245.71 -28.8061 159.134 233.999 -24.8013 130.574 229.395 -3.49394 159.738 272.689 62.6863 8.45059 7.75747 9.86775 
167.814 157.054 158.369 163.175 162.936 164.842 145.238 152.291 155.745 152.828 229.696 261.615 54.3006 214.087 251.093 -8.77123 189.013 245.403 -28.4651 159.606 233.672 -24.4438 131.176 229.045 -3.04731 160.091 272.451 62.9582 8.34177 7.73226 9.66158 
168.324 157.263 158.529 163.231 162.872 165.104 145.607 152.42 155.753 152.792 229.977 261.268 54.4971 214.291 250.719 -8.72798 189.441 244.867 -28.1909 160.061 233.102 -24.136 131.695 228.544 -2.76608 160.367 271.98 63.1627 8.25339 7.72109 9.39088 
168.938 157.273 158.333 162.935 162.639 165.28 145.669 152.205 155.416 152.412 230.391 260.962 54.8615 214.343 250.201 -8.68002 189.709 244.17 -27.7703 160.399 232.472 -23.5773 132.079 228.108 -2.24382 160.665 271.448 63.4258 8.18995 7.67077 9.02544 
169.52 157.095 158.046 162.767 162.468 165.378 145.571 152.024 155.317 152.225 230.731 260.368 55.1321 214.638 249.711 -8.54771 190.202 243.583 -27.4127 160.875 232.077 -23.3056 132.611 227.758 -2.00512 161.038 270.882 63.5971 8.12214 7.6348 8.77573 
169.519 157.085 157.984 162.56 162.234 165.278 145.367 151.738 155.05 151.967 231.166 259.712 55.4174 215.253 249.319 -8.35452 191.048 243.046 -27.0784 161.747 231.694 -23.1047 133.443 227.503 -1.99307 161.499 270.448 63.6439 8.04392 7.57135 8.55335 
169.227 157.041 157.883 162.6 162.139 165.155 145.147 151.674 155.222 152.201 231.662 259.18 55.7104 216.019 248.962 -8.05169 191.873 242.671 -26.9365 162.432 231.378 -23.2376 134.046 227.098 -2.19626 161.953 269.983 63.6955 8.07583 7.64198 8.63496 
169.078 157.225 158.092 162.878 162.277 165.281 145.379 151.911 155.545 152.539 232.401 259.051 56.1244 216.927 248.897 -7.83175 192.675 242.556 -26.8983 163.024 231.096 -23.3375 134.528 226.675 -2.26978 162.416 269.654 63.8244 8.17018 7.81779 8.7891 
169.06 157.435 158.205 162.91 162.34 165.509 145.464 151.889 155.629 152.716 233.074 259.016 56.4391 217.507 248.445 -7.49494 193.247 242.177 -26.6714 163.513 230.753 -23.2008 134.921 226.297 -2.15365 162.84 269.363 63.9935 8.24919 7.86005 8.8913 
169.399 157.606 158.376 163.083 162.474 165.812 145.717 152.098 155.854 152.974 233.549 258.618 56.5089 217.864 247.947 -7.45089 193.605 241.687 -26.6482 163.832 230.218 -23.1871 135.267 225.758 -2.06167 163.212 268.953 64.071 8.2397 7.89421 8.91193 
169.583 157.544 158.231 162.886 162.301 165.88 145.676 151.996 155.711 152.812 233.791 258.134 56.6784 217.876 247.176 -7.34902 193.708 240.899 -26.431 164.003 229.482 -22.885 135.52 225.18 -1.72375 163.426 268.445 64.2041 8.14857 7.84053 8.79262 
169.82 157.523 158.142 162.837 162.265 165.691 145.74 152.072 155.807 152.88 233.859 257.516 56.8311 217.802 246.561 -7.32605 193.743 240.159 -26.1921 164.121 228.937 -22.6143 135.698 224.795 -1.41709 163.661 267.961 64.4272 8.08724 7.73833 8.579 
170.057 157.512 158.123 162.844 162.164 165.392 145.957 152.257 155.894 152.936 233.787 256.755 56.8579 217.88 246.268 -7.43261 194.026 239.767 -26.0771 164.576 228.687 -22.5059 136.245 224.632 -1.35622 163.932 267.44 64.6015 7.93951 7.57957 8.2907 
170.231 157.696 158.401 163.205 162.426 165.174 146.373 152.741 156.334 153.359 233.801 256.273 56.9572 218.161 246.184 -7.48846 194.405 239.579 -26.0431 165.014 228.552 -22.5319 136.716 224.526 -1.39082 164.241 267.031 64.8426 7.85984 7.51384 8.13609 
169.931 157.878 158.697 163.527 162.624 164.66 146.677 153.098 156.586 153.628 233.776 255.716 57.0843 218.694 246.21 -7.45538 195.201 239.552 -25.9676 165.986 228.536 -22.5747 137.724 224.552 -1.59281 164.647 266.655 65.0219 7.6798 7.37038 7.91952 
169.557 158.166 158.959 163.782 162.714 164.317 146.967 153.295 156.703 153.789 233.975 255.453 57.1894 219.434 246.183 -7.42979 196.199 239.547 -25.9761 167.056 228.513 -22.7727 138.728 224.587 -2.03433 165.046 266.309 64.9995 7.56517 7.30286 7.77004 
169.403 158.446 159.139 163.932 162.848 164.316 147.211 153.393 156.784 153.989 234.543 255.405 57.5084 220.096 245.948 -7.24193 196.971 239.361 -25.884 167.791 228.338 -22.8232 139.329 224.401 -2.2486 165.453 265.904 65.1027 7.60771 7.30768 7.74759 
169.388 158.559 159.169 163.88 162.72 164.342 147.337 153.447 156.731 153.963 234.908 254.938 57.6888 220.622 245.501 -7.14297 197.592 239.003 -25.8617 168.398 227.921 -22.866 139.888 223.982 -2.39183 165.771 265.349 65.1293 7.57858 7.31813 7.72854 
169.31 158.581 159.121 163.766 162.631 164.113 147.328 153.331 156.627 153.866 235.268 254.503 57.8739 220.967 244.773 -7.03308 198.162 238.287 -25.7057 169.046 227.35 -22.7855 140.527 223.562 -2.43103 166.124 264.787 65.1449 7.49001 7.21815 7.56166 
169.088 158.363 158.836 163.37 162.317 163.813 147.134 153.033 156.29 153.592 235.388 253.594 58.1009 221.103 244.013 -6.84142 198.402 237.423 -25.3741 169.286 226.599 -22.4174 140.693 222.895 -2.11355 166.33 264.088 65.3112 7.55175 7.19536 7.41118 
168.759 158.362 158.822 163.342 162.213 163.534 147.254 153.067 156.304 153.625 235.562 252.753 58.3523 221.381 243.566 -6.75368 198.764 236.809 -25.1936 169.64 225.997 -22.2773 140.992 222.286 -2.02173 166.562 263.397 65.4927 7.58308 7.19471 7.26809 
168.456 158.309 158.694 163.315 162.1 163.17 147.227 152.962 156.309 153.632 235.73 251.985 58.4749 221.704 243.043 -6.69076 199.29 236.123 -25.0049 170.25 225.405 -22.2141 141.582 221.686 -2.04186 166.858 262.752 65.5768 7.54168 7.10919 7.05175 
168.373 158.712 159.026 163.73 162.574 162.947 147.641 153.274 156.706 154.097 235.985 251.461 58.601 222.187 242.838 -6.65153 199.871 235.801 -24.9036 170.876 225.141 -22.2227 142.154 221.398 -2.14867 167.269 262.341 65.7611 7.53738 7.05352 6.90967 
168.246 159.157 159.433 164.159 163.056 162.714 148.054 153.573 157.022 154.527 236.106 250.89 58.6827 222.666 242.563 -6.50674 200.584 235.587 -24.7456 171.655 225.057 -22.2095 142.92 221.346 -2.32609 167.68 262.041 65.9435 7.45285 6.957 6.74481 
168.298 159.289 159.543 164.321 163.246 162.99 148.273 153.718 157.235 154.806 236.744 250.499 59.057 223.316 242.166 -6.33026 201.156 235.187 -24.6631 172.011 224.754 -22.2407 143.083 220.949 -2.3956 168.128 261.632 66.0487 7.65651 7.08364 6.82896 
168.91 159.585 159.77 164.348 163.471 163.211 148.61 153.831 157.377 155.014 237.148 249.991 59.1194 223.492 241.378 -6.32345 201.41 234.406 -24.5594 172.32 224.186 -22.1245 143.34 220.417 -2.33747 168.45 261.077 66.1229 7.69631 6.98738 6.71406 
169.065 159.56 159.642 164.056 163.328 163.221 148.479 153.605 157.106 154.81 237.14 249.025 58.9617 223.504 240.477 -6.17247 201.521 233.522 -24.2915 172.508 223.441 -21.8087 143.561 219.765 -2.08768 168.663 260.454 66.2204 7.66165 6.90436 6.6013 
169.072 159.512 159.537 163.806 163.111 163.22 148.532 153.449 156.855 154.557 237.415 248.322 59.1425 223.686 239.921 -6.10467 201.661 232.847 -24.096 172.588 222.799 -21.537 143.532 219.194 -1.82593 168.876 259.88 66.3814 7.77157 6.93387 6.50623 
168.931 159.442 159.476 163.638 162.898 163.17 148.507 153.369 156.782 154.53 237.73 247.68 59.4693 224.107 239.526 -5.88413 202.003 232.319 -23.8793 172.78 222.278 -21.3838 143.578 218.606 -1.65618 169.117 259.274 66.6431 7.90997 7.03676 6.51159 
168.987 159.613 159.767 163.895 163.026 163.267 148.883 153.655 157.042 154.792 237.997 247.042 59.9573 224.476 239.103 -5.66258 202.292 231.812 -23.7004 172.907 221.734 -21.2882 143.623 218.022 -1.51888 169.26 258.618 66.999 7.95959 7.14763 6.52805 
168.98 159.798 159.998 164.235 163.24 163.419 149.195 153.915 157.367 155.133 238.318 246.464 60.2901 224.984 238.773 -5.48624 202.7 231.519 -23.6446 173.21 221.352 -21.4058 143.855 217.578 -1.6535 169.46 258.017 67.2254 7.96976 7.23156 6.62293 
168.925 159.86 160.068 164.413 163.436 163.556 149.205 154.003 157.538 155.314 238.521 245.441 60.4439 225.371 238.157 -5.22964 202.915 231.185 -23.6019 173.303 220.982 -21.5055 143.892 217.21 -1.7595 169.684 257.444 67.3946 7.99251 7.32144 6.842 
168.845 159.751 159.858 164.223 163.295 163.969 148.904 153.735 157.32 155.084 238.774 244.096 60.5733 225.773 237.374 -4.89826 203.094 230.901 -23.5801 173.273 220.729 -21.6887 143.727 216.884 -2.00929 169.849 256.755 67.4083 8.10678 7.46504 7.17572 
168.438 159.13 159.272 163.592 162.859 164.319 148.097 153.07 156.738 154.56 239.196 242.771 60.6203 226.219 236.565 -4.57548 203.194 230.703 -23.6789 173.112 220.576 -21.9392 143.325 216.569 -2.34482 170.065 256.069 67.2545 8.37791 7.65163 7.68191 
167.62 158.701 158.707 162.856 162.288 164.226 147.2 152.261 155.976 153.777 239.534 241.584 60.4621 226.889 235.599 -4.24844 203.841 230.462 -23.7121 173.698 220.515 -22.2195 143.768 216.533 -2.96231 170.516 255.512 66.8835 8.41747 7.66164 7.98153 
166.658 158.247 158.111 162.157 161.753 163.856 146.347 151.454 155.26 153.045 239.744 240.616 60.3009 227.355 234.503 -3.87205 204.398 229.885 -23.5611 174.2 220.163 -22.283 144.217 216.242 -3.28809 170.888 254.907 66.5537 8.41638 7.67363 8.17615 
165.793 157.725 157.562 161.659 161.334 163.293 145.585 150.854 154.761 152.461 239.699 239.605 60.0957 227.386 233.182 -3.56831 204.553 228.924 -23.3706 174.44 219.379 -22.1589 144.597 215.605 -3.24466 171.124 254.134 66.3575 8.27538 7.5994 8.29709 
165.653 157.517 157.304 161.559 161.264 163.063 145.15 150.601 154.664 152.253 239.583 238.486 59.9573 227.273 231.947 -3.34683 204.497 227.895 -23.1895 174.4 218.507 -22.0173 144.744 214.824 -3.03785 171.256 253.398 66.3032 8.13227 7.57807 8.38341 
165.445 157.258 157.12 161.69 161.314 162.77 144.816 150.552 154.765 152.214 239.16 236.912 59.818 227.282 230.913 -3.13112 204.597 227.082 -23.0674 174.515 217.838 -22.0327 145.015 214.174 -3.02234 171.33 252.616 66.2503 7.97985 7.56292 8.47735 
165.306 157.046 156.797 161.546 161.127 162.747 144.424 150.306 154.593 151.945 238.732 235.482 59.6004 227.116 230.015 -2.9807 204.499 226.404 -22.9639 174.415 217.239 -22.0362 144.996 213.53 -3.05391 171.228 251.77 66.1632 7.92276 7.57415 8.56519 
164.291 156.669 156.17 161.053 160.537 162.456 143.844 149.746 154.131 151.285 238.322 233.357 59.4441 227.24 228.275 -2.67789 204.638 224.99 -22.7936 174.496 215.903 -22.0711 145.092 212.079 -3.1549 171.189 250.145 66.0037 7.8924 7.62829 8.73912 
163.849 156.912 156.154 160.989 160.412 162.321 144.012 149.739 154.069 151.128 238.196 232.871 59.1537 227.096 227.468 -2.9611 204.6 224.179 -22.9699 174.524 215.106 -22.2395 145.16 211.264 -3.35151 171.109 249.354 65.7645 7.83643 7.57127 8.60617 
163.48 157.14 156.269 160.924 160.295 162.165 144.192 149.77 153.945 150.929 238.125 232.504 59.0012 226.786 226.493 -3.12388 204.367 223.118 -23.0195 174.35 214.041 -22.1537 145.068 210.272 -3.2343 170.955 248.566 65.6743 7.76648 7.51675 8.49371 
163.489 157.43 156.548 161.056 160.262 162.122 144.444 149.911 153.939 150.837 237.974 232.004 58.8959 226.542 225.707 -3.22856 204.339 222.292 -23.0224 174.418 213.218 -22.082 145.275 209.481 -3.14703 170.816 247.873 65.6584 7.59517 7.42868 8.31667 
163.336 157.682 156.813 161.271 160.411 161.893 144.594 150.006 154.011 150.884 237.634 231.353 58.722 226.247 224.791 -3.24457 204.318 221.464 -22.9629 174.488 212.596 -22.0483 145.461 208.987 -3.1699 170.731 247.321 65.6294 7.42447 7.31843 8.17052 
163.234 157.89 157.006 161.396 160.537 161.722 144.672 150.057 154.048 150.927 237.223 230.738 58.5456 225.818 223.859 -3.19324 204.161 220.619 -22.8319 174.47 211.983 -21.9326 145.576 208.522 -3.11277 170.574 246.82 65.639 7.23693 7.1696 8.02376 
163.282 158.118 157.292 161.65 160.75 161.673 144.975 150.284 154.222 151.014 236.846 230.102 58.4493 225.572 223.252 -3.21555 204.058 220.073 -22.7799 174.397 211.591 -21.8912 145.562 208.174 -3.07108 170.41 246.406 65.6683 7.14392 7.11121 7.91326 
163.439 158.221 157.385 161.766 160.826 161.706 145.109 150.374 154.272 150.994 236.547 229.349 58.3428 225.416 222.706 -3.24793 203.925 219.626 -22.7869 174.216 211.258 -21.9045 145.377 207.849 -3.0599 170.285 245.984 65.6671 7.14289 7.12109 7.89229 
163.378 158.173 157.399 161.873 160.923 161.738 145.086 150.464 154.399 151.087 236.345 228.855 58.3386 225.291 222.285 -3.19911 203.688 219.338 -22.8398 173.825 211.103 -21.9925 144.903 207.62 -3.07358 170.14 245.632 65.7016 7.27511 7.21947 8.04097 
163.317 158.058 157.369 161.987 161.036 161.858 145.045 150.551 154.58 151.3 236.29 228.378 58.4566 225.299 221.954 -3.11536 203.462 219.152 -22.9228 173.382 211.043 -22.1537 144.294 207.461 -3.15769 170.038 245.307 65.7896 7.4972 7.37219 8.27761 
163.404 158.017 157.378 162.126 161.204 162.131 145.122 150.714 154.81 151.569 236.498 228.138 58.6172 225.415 221.812 -3.1429 203.27 219.166 -23.1444 172.963 211.12 -22.4304 143.673 207.36 -3.33375 169.984 245.028 65.8307 7.76694 7.5337 8.5449 
163.666 158.018 157.421 162.268 161.431 162.479 145.312 150.911 155.065 151.829 236.786 228.006 58.8467 225.533 221.842 -3.22854 203.053 219.289 -23.3331 172.555 211.339 -22.6373 143.079 207.43 -3.41198 170.009 244.88 65.9236 8.02538 7.65849 8.7215 
163.838 157.991 157.394 162.221 161.458 162.73 145.443 150.984 155.154 151.958 237.081 227.842 58.995 225.707 221.863 -3.42408 202.947 219.334 -23.5616 172.295 211.487 -22.8791 142.619 207.501 -3.59148 170.076 244.71 65.9111 8.26009 7.75117 8.80483 
163.908 158.17 157.51 162.23 161.509 162.937 145.644 151.053 155.208 152.057 237.34 227.614 59.009 226.007 221.865 -3.6729 203.1 219.356 -23.8273 172.397 211.56 -23.2046 142.583 207.536 -3.96389 170.187 244.519 65.7548 8.364 7.77074 8.81724 
164.051 158.312 157.645 162.339 161.733 163.049 145.915 151.249 155.402 152.393 237.576 227.366 59.0456 226.242 221.76 -3.87472 203.149 219.195 -24.0541 172.41 211.399 -23.4518 142.474 207.394 -4.25963 170.312 244.277 65.6533 8.47185 7.7891 8.85271 
163.993 158.447 157.805 162.532 161.996 163.069 146.096 151.457 155.683 152.859 237.794 227.211 59.0766 226.47 221.539 -3.9562 203.253 218.894 -24.2358 172.467 211.088 -23.7195 142.407 207.134 -4.62155 170.415 244.005 65.5659 8.55883 7.82451 8.92284 
163.892 158.757 158.184 162.984 162.549 162.992 146.566 151.991 156.311 153.736 238.069 226.891 59.18 226.771 221.227 -4.18583 203.394 218.457 -24.582 172.551 210.665 -24.1708 142.343 206.807 -5.16411 170.598 243.635 65.4785 8.64348 7.85323 8.96894 
163.89 158.756 158.26 163.109 162.737 162.87 146.684 152.158 156.504 154.026 238.119 226.523 59.1133 226.773 220.856 -4.3696 203.372 217.947 -24.7241 172.58 210.023 -24.2505 142.452 206.314 -5.23668 170.72 243.319 65.4279 8.55387 7.82364 8.91047 
163.833 158.702 158.172 163.054 162.732 162.847 146.487 152.088 156.483 154.113 238.136 226.02 59.0388 226.816 220.475 -4.40565 203.373 217.516 -24.7915 172.564 209.518 -24.3243 142.444 205.924 -5.34267 170.81 243.028 65.3501 8.54063 7.84892 8.93844 
163.675 158.561 158.003 162.864 162.549 162.771 146.255 151.866 156.262 153.96 238.114 225.376 58.8393 226.837 219.989 -4.52761 203.319 216.94 -24.8677 172.486 208.89 -24.3377 142.374 205.447 -5.33896 170.902 242.69 65.239 8.53589 7.87047 8.92778 
163.414 158.392 157.779 162.676 162.349 162.636 145.978 151.614 156 153.718 238.14 225.027 58.6656 226.881 219.576 -4.55 203.416 216.495 -24.8381 172.607 208.393 -24.2725 142.523 205.097 -5.32284 171.025 242.39 65.1634 8.49308 7.86093 8.87555 
163.319 158.204 157.521 162.473 162.176 162.485 145.77 151.412 155.775 153.457 238.109 224.651 58.5418 226.904 219.23 -4.56108 203.434 216.186 -24.7743 172.611 208.105 -24.125 142.566 204.924 -5.15477 171.171 242.13 65.1642 8.4815 7.87084 8.85261 
163.279 158.078 157.228 162.113 161.838 162.428 145.43 151.048 155.347 152.955 238.063 224.227 58.3954 226.985 218.86 -4.48072 203.643 215.914 -24.5782 172.895 207.881 -23.8609 142.922 204.802 -4.92477 171.344 241.883 65.149 8.40336 7.81717 8.77656 
163.306 158.011 157.035 161.889 161.612 162.366 145.16 150.767 155.026 152.547 238.119 223.788 58.2809 227.091 218.52 -4.38263 203.938 215.672 -24.3854 173.311 207.688 -23.6356 143.43 204.66 -4.73231 171.578 241.622 65.1628 8.29755 7.72906 8.67896 
163.2 158.038 156.903 161.697 161.374 162.362 145.063 150.577 154.78 152.182 238.236 223.417 58.2332 227.365 218.313 -4.26553 204.301 215.613 -24.2263 173.718 207.619 -23.4657 143.874 204.529 -4.54418 171.813 241.407 65.2215 8.24679 7.69898 8.66727 
163.263 158.07 156.81 161.662 161.261 162.431 145.199 150.57 154.737 151.937 238.548 223.208 58.3616 227.782 218.282 -4.22558 204.712 215.652 -24.1235 174.082 207.644 -23.3709 144.243 204.411 -4.35643 172.094 241.192 65.3257 8.24928 7.73272 8.6355 
163.344 158.242 156.854 161.665 161.238 162.508 145.557 150.656 154.776 151.931 238.962 223.11 58.5691 228.087 218.149 -4.27441 204.931 215.473 -24.0579 174.262 207.558 -23.3006 144.369 204.308 -4.25564 172.367 240.934 65.4837 8.30036 7.73727 8.54213 
163.454 158.452 157.015 161.734 161.296 162.679 145.904 150.768 154.879 152.027 239.419 222.888 58.8068 228.399 217.805 -4.2788 205.157 215.106 -23.995 174.417 207.38 -23.2925 144.439 204.141 -4.24184 172.632 240.591 65.6346 8.36278 7.74933 8.46519 
163.408 158.564 157.081 161.761 161.235 162.699 146.143 150.832 154.927 152.045 239.61 222.272 58.9904 228.713 217.212 -4.26693 205.397 214.538 -23.9422 174.572 207.02 -23.3477 144.514 203.881 -4.34237 172.855 240.084 65.724 8.38461 7.76957 8.39647 
163.312 158.619 157.183 161.866 161.301 162.583 146.427 150.973 155.076 152.231 239.861 221.5 59.1977 229.079 216.55 -4.32473 205.618 213.798 -23.9478 174.656 206.531 -23.4585 144.494 203.553 -4.47349 173.178 239.515 65.808 8.44912 7.82878 8.32909 
163.062 158.487 157.161 161.787 161.196 162.5 146.418 150.952 155.046 152.246 240.13 220.7 59.4441 229.346 215.776 -4.29319 205.703 212.945 -23.9225 174.546 205.9 -23.4627 144.229 203.137 -4.48723 173.453 238.864 65.9179 8.58939 7.93535 8.32844 
162.573 158.225 156.956 161.578 160.986 162.274 146.19 150.763 154.87 152.085 240.39 219.8 59.6343 229.702 214.993 -4.25418 205.911 212.156 -23.8664 174.604 205.361 -23.4553 144.134 202.861 -4.53109 173.821 238.204 65.9945 8.70054 8.00767 8.29936 
162.201 158.02 156.691 161.306 160.712 162.119 145.796 150.397 154.571 151.808 240.594 218.902 59.8125 230.061 214.085 -4.10192 206.294 211.372 -23.745 174.888 204.859 -23.4753 144.259 202.605 -4.70779 174.126 237.51 65.9874 8.77343 8.04801 8.2594 
161.703 157.728 156.357 160.844 160.296 161.76 145.286 149.925 154.143 151.46 240.762 217.901 60.006 230.318 212.999 -3.87486 206.586 210.418 -23.5537 175.202 204.193 -23.3718 144.442 202.258 -4.79374 174.415 236.819 65.962 8.82031 8.00277 8.24069 
161.979 157.641 156.02 160.288 159.863 161.74 144.699 149.32 153.542 151.048 240.63 216.26 59.9904 230.42 211.725 -3.54634 206.844 209.484 -23.2639 175.541 203.549 -23.195 144.694 201.902 -4.8905 174.628 236.106 65.9358 8.81195 7.91535 8.21684 
162.044 157.647 155.863 159.905 159.646 161.849 144.295 148.928 153.13 150.818 240.682 214.514 60.1587 230.741 210.572 -3.14619 207.161 208.645 -23.0143 175.769 202.894 -23.0474 144.736 201.384 -4.94893 174.854 235.401 65.9598 8.9416 7.96553 8.35848 
162.093 157.42 155.616 159.626 159.51 161.973 143.763 148.624 152.819 150.619 240.568 212.753 60.267 231.068 209.631 -2.70264 207.494 208.178 -22.8593 175.961 202.637 -23.0673 144.752 201.078 -5.1329 175.019 234.705 65.9556 9.07696 8.06302 8.60787 
162.085 157.354 155.591 159.541 159.496 162.03 143.631 148.614 152.734 150.554 240.503 211.327 60.3506 231.436 208.899 -2.46453 207.816 207.913 -22.8344 176.144 202.584 -23.1614 144.789 200.985 -5.32734 175.215 234.034 65.9988 9.18239 8.1405 8.79421 
162.305 157.18 155.504 159.464 159.556 162.188 143.421 148.605 152.659 150.504 240.471 209.878 60.4545 231.824 208.232 -2.19395 208.098 207.697 -22.793 176.245 202.493 -23.1916 144.766 200.861 -5.4305 175.468 233.386 66.0917 9.29368 8.25536 9.00771 
162.785 157.027 155.302 159.329 159.601 162.332 142.981 148.437 152.572 150.512 240.211 208.248 60.23 232.023 207.413 -1.99639 208.254 207.342 -22.7591 176.315 202.386 -23.2542 144.733 200.849 -5.58075 175.746 232.772 66.1151 9.38773 8.30914 9.19463 
163.43 157.102 155.204 159.194 159.684 162.574 142.561 148.218 152.397 150.504 239.914 206.572 59.936 232.204 206.604 -1.69874 208.552 206.949 -22.5389 176.671 202.25 -23.1166 145.017 200.889 -5.6395 176.086 232.284 66.125 9.44362 8.27019 9.3148 
163.56 156.939 154.952 158.87 159.648 162.738 142.134 147.802 152.053 150.391 239.845 205.253 59.7241 232.47 205.815 -1.39387 208.911 206.359 -22.2663 177.074 201.868 -22.9387 145.27 200.621 -5.68818 176.374 231.75 66.0524 9.58869 8.25789 9.411 
163.591 156.919 154.832 158.581 159.55 162.838 141.9 147.479 151.733 150.185 239.847 204.269 59.4783 232.774 205.151 -1.23127 209.338 205.871 -22.0865 177.562 201.501 -22.808 145.698 200.278 -5.72423 176.682 231.273 65.9292 9.641 8.22153 9.42607 
163.352 156.842 154.698 158.364 159.475 162.785 141.718 147.231 151.516 149.919 240.016 203.527 59.4212 233.077 204.496 -1.06456 209.726 205.413 -21.9526 177.99 201.215 -22.7368 146.081 199.943 -5.73154 176.955 230.792 65.8287 9.68523 8.19695 9.48688 
