177.047 160.721 159.525 159.728 160.022 175 144.165 146.432 148.441 149.813 14.6594 297.309 48.6316 43.7652 306.478 -9.4017 77.9946 309.714 -21.7581 113.38 310.102 -10.9566 142.67 305.756 17.8029 83.0711 326.609 76.5715 15.6788 12.3332 13.2147 
177.063 160.627 159.959 160.026 160.198 175.153 143.844 146.769 148.477 149.573 14.4454 297.058 48.477 43.3629 306.044 -9.229 77.5556 310.063 -22.0545 112.636 309.996 -11.1874 141.703 305.528 17.447 82.7805 326.698 76.4199 15.3331 11.9932 13.527 
177.118 160.453 160.318 160.129 160.266 175.269 143.325 146.763 148.111 149.118 14.145 296.625 48.1858 42.9222 305.673 -9.03731 76.822 310.032 -22.2254 111.403 309.399 -11.3502 140.291 304.97 16.9392 82.4014 326.669 76.2368 14.8971 11.5169 13.556 
177.011 160.391 160.479 160.222 160.356 175.205 142.973 146.642 147.852 148.814 13.7018 296.501 48.0025 42.5323 305.254 -8.90532 75.9908 309.681 -22.3134 110.224 308.891 -11.5711 139.128 304.851 16.3269 82.0481 326.636 76.0403 14.5884 11.1904 13.3573 
177.022 160.394 160.477 160.118 160.274 175.181 142.719 146.392 147.527 148.61 13.32 296.324 47.7813 42.1906 304.97 -8.8835 75.0784 309.289 -22.3464 109.073 308.444 -11.7759 138.195 304.839 15.7074 81.6656 326.489 75.8003 14.5022 10.9737 12.9873 
176.722 160.049 160.243 159.821 159.966 174.822 142.092 146.036 147.041 147.945 12.9633 295.672 47.6833 41.1862 304.172 -8.61717 73.2657 308.33 -22.401 106.819 307.37 -12.1824 136.104 304.53 14.5794 80.828 326.119 75.2885 14.2118 10.5658 12.5637 
176.501 159.954 159.908 159.561 159.752 174.538 141.823 145.812 146.832 147.575 12.8452 294.996 47.9994 40.6319 303.764 -8.2855 72.4809 307.872 -22.2073 105.888 306.85 -12.1985 135.169 304.129 14.2544 80.4393 325.606 75.2416 14.0677 10.4375 12.4679 
176.175 159.415 159.486 159.234 159.454 174.178 141.026 145.263 146.395 146.807 12.7372 294.314 48.2279 40.0859 303.113 -7.79233 71.6062 307.015 -21.9485 104.871 306.23 -12.2569 134.036 303.697 13.8819 80.0265 325.173 75.0802 13.8333 10.3537 12.3259 
175.902 158.945 159.242 159.078 159.346 173.996 140.502 145.128 146.528 146.764 12.4961 294.098 48.3959 39.5278 302.575 -7.37827 71.0602 306.721 -21.8813 104.395 306.343 -12.4711 133.581 303.792 13.5343 79.6705 324.708 74.9896 13.8366 10.4674 12.5682 
175.74 158.871 159.066 159.138 159.428 173.832 140.369 145.112 146.759 146.746 12.2068 293.907 48.6929 38.9308 302.304 -7.19249 70.4762 306.371 -21.8626 103.782 306.202 -12.711 132.87 303.573 13.1704 79.3391 324.339 74.9171 13.6676 10.4642 12.6023 
175.537 158.661 158.943 159.179 159.488 173.666 140.115 145.275 147.097 146.699 11.9515 293.885 48.9211 38.3766 301.917 -6.87405 70.1165 306.269 -21.9161 103.312 306.151 -12.9241 132.078 303.224 12.9075 79.0474 323.986 74.8694 13.3356 10.3966 12.9769 
175.277 158.679 159.022 159.364 159.706 173.429 140.24 145.599 147.594 146.93 11.6989 294.068 48.9744 37.781 301.573 -6.79679 69.7348 305.996 -22.0645 102.895 306.054 -13.225 131.455 303.054 12.5552 78.7604 323.695 74.7648 13.0936 10.3845 13.2038 
175.096 158.476 158.966 159.283 159.624 173.317 140.058 145.643 147.623 146.7 11.3373 294.458 48.8938 37.5024 301.287 -6.73334 69.5727 305.891 -22.1477 102.628 306.077 -13.3501 130.989 303.092 12.379 78.5391 323.486 74.6369 12.9054 10.3343 13.4018 
175.116 158.329 159.037 159.324 159.635 173.274 139.919 145.741 147.691 146.555 10.9957 294.632 48.7767 37.3655 300.953 -6.70601 69.4756 305.817 -22.2708 102.371 306.161 -13.5008 130.512 303.186 12.1959 78.3476 323.332 74.5443 12.6654 10.233 13.5586 
175.282 158.534 159.249 159.567 159.858 173.306 140.269 146.036 148.068 146.954 10.7506 294.723 48.5464 37.2107 300.775 -6.95881 69.332 305.622 -22.4762 102.173 306.236 -13.7656 130.271 303.494 11.8743 78.2034 323.152 74.4104 12.5671 10.2166 13.4941 
175.294 158.638 159.502 159.706 159.912 173.235 140.658 146.327 148.248 147.06 10.7468 295.021 48.2698 37.2309 300.733 -7.19982 69.1995 305.609 -22.6171 101.919 306.385 -13.9083 129.918 303.847 11.6522 78.0416 323.188 74.3829 12.3992 10.1243 13.3115 
175.225 158.569 159.541 159.722 159.899 173.044 140.636 146.349 148.281 146.978 10.6603 294.984 48.0797 37.1104 300.743 -7.30184 68.9695 305.641 -22.7392 101.533 306.44 -14.0589 129.363 303.877 11.4537 77.9115 323.13 74.3189 12.1667 10.0071 13.2516 
175.046 158.395 159.454 159.563 159.75 172.747 140.402 146.145 147.932 146.569 10.5922 294.708 48.0427 36.9645 300.917 -7.30738 68.6309 305.69 -22.7102 101.026 306.337 -14.0324 128.734 303.862 11.3382 77.7869 323.163 74.2509 11.961 9.84532 13.0825 
174.91 158.433 159.501 159.557 159.758 172.572 140.362 146.042 147.799 146.468 10.2905 294.689 48.1494 36.7746 300.924 -7.23595 68.2441 305.685 -22.6389 100.608 306.381 -14.0148 128.376 304.042 11.267 77.6803 323.241 74.2454 11.9485 9.82207 12.972 
174.798 158.581 159.481 159.48 159.685 172.325 140.399 145.856 147.567 146.212 10.1857 294.658 48.1532 36.6758 300.895 -7.2618 67.9569 305.493 -22.5559 100.243 306.168 -13.9626 127.954 303.922 11.2349 77.6009 323.286 74.2115 11.8331 9.75565 12.7773 
174.578 158.4 159.316 159.171 159.45 172.048 140.067 145.379 147.009 145.721 10.1235 294.776 48.0426 36.5472 300.639 -7.04838 67.6161 305.1 -22.2955 99.8787 305.767 -13.7442 127.591 303.681 11.3084 77.4986 323.322 74.189 11.7912 9.74921 12.6465 
174.358 158.309 159.045 158.791 159.2 171.8 139.816 144.772 146.32 145.251 9.76471 294.941 47.892 36.205 300.526 -6.9891 67.1085 304.686 -22.0362 99.3605 305.378 -13.5419 127.211 303.64 11.2801 77.2485 323.353 74.1136 11.8652 9.74793 12.4034 
174.253 158.474 158.936 158.597 158.954 171.673 139.747 144.397 145.82 144.914 9.64738 295.351 47.878 36.0263 300.886 -7.0668 66.8807 304.873 -21.9334 99.2099 305.443 -13.4123 127.26 303.919 11.3007 77.1525 323.627 74.0658 12.0464 9.76794 12.2382 
174.109 158.599 158.917 158.519 158.828 171.47 139.617 144.141 145.499 144.718 9.5642 295.633 47.9061 35.9327 301.09 -7.00764 66.6695 304.967 -21.8029 99.0448 305.514 -13.3078 127.229 304.136 11.3101 77.1032 323.837 74.0666 12.1574 9.79613 12.1142 
174.036 158.755 158.944 158.459 158.661 171.357 139.642 144.024 145.265 144.499 9.42701 295.858 47.9893 35.8502 301.303 -6.99426 66.4974 305.144 -21.6965 98.9063 305.666 -13.175 127.148 304.435 11.3943 77.0459 324.078 74.1062 12.1967 9.80111 12.0053 
174.076 158.896 159.028 158.468 158.577 171.353 139.536 143.787 144.889 144.163 9.33861 296.055 47.9238 35.8885 301.394 -6.8927 66.2774 305.116 -21.5139 98.6414 305.636 -13.0008 126.939 304.644 11.4685 77.0213 324.379 74.1444 12.199 9.75006 11.7835 
174.282 159.094 159.244 158.673 158.68 171.527 139.613 143.753 144.742 144.079 9.23947 296.066 47.814 35.8754 301.427 -6.83786 66.0199 305.042 -21.3951 98.3101 305.503 -12.8839 126.615 304.663 11.4848 76.974 324.662 74.1806 12.1103 9.65692 11.5727 
174.356 159.237 159.364 158.751 158.708 171.582 139.697 143.634 144.548 143.941 9.15393 295.989 47.7432 35.8345 301.349 -6.7193 65.6501 304.746 -21.1456 97.8732 305.226 -12.704 126.176 304.582 11.5104 76.9176 324.874 74.217 12.0064 9.59167 11.2692 
174.543 159.454 159.542 158.897 158.794 171.696 140.035 143.719 144.548 143.982 9.0405 295.976 47.6597 35.7862 301.111 -6.7475 65.2481 304.267 -21.0068 97.4567 304.796 -12.6243 125.825 304.395 11.4854 76.8493 324.972 74.214 11.9786 9.56033 10.9116 
174.643 159.689 159.698 159.09 158.913 171.696 140.421 143.916 144.737 144.169 9.04542 295.935 47.5303 35.7442 300.779 -6.85046 64.9399 303.718 -20.9766 97.1234 304.29 -12.6504 125.463 304.059 11.4003 76.7606 324.941 74.1672 11.8757 9.52539 10.6185 
174.729 159.965 159.9 159.41 159.152 171.707 140.807 144.238 145.077 144.45 9.10662 295.775 47.4235 35.6567 300.553 -6.99953 64.6708 303.436 -21.1089 96.8733 303.993 -12.8232 125.204 303.79 11.235 76.69 324.944 74.092 11.7904 9.50966 10.4673 
174.634 159.948 159.889 159.459 159.177 171.634 140.793 144.269 145.151 144.459 9.23694 295.455 47.3357 35.7115 300.17 -6.92755 64.4505 303.104 -21.0814 96.6283 303.752 -12.8847 124.9 303.539 11.1418 76.6168 324.9 74.0273 11.68 9.507 10.361 
174.526 159.837 159.831 159.51 159.254 171.563 140.662 144.324 145.263 144.425 9.26976 295.153 47.3094 35.6912 299.886 -6.78931 64.3406 303.07 -21.1174 96.4744 303.74 -12.9673 124.603 303.392 11.0651 76.5232 324.839 73.9726 11.5144 9.48606 10.4902 
174.508 159.705 159.855 159.582 159.36 171.66 140.514 144.377 145.34 144.339 9.29548 295.008 47.1544 35.6964 299.425 -6.57692 64.1794 302.972 -21.0859 96.3258 303.83 -13.0102 124.385 303.373 11.0215 76.4342 324.749 73.9324 11.4307 9.54194 10.6361 
174.532 159.608 159.948 159.673 159.504 171.776 140.457 144.517 145.495 144.409 9.29706 294.76 47.0443 35.647 298.986 -6.43518 64.0147 302.851 -21.117 96.2358 303.898 -13.0919 124.304 303.413 10.9398 76.3575 324.631 73.8872 11.4361 9.63605 10.7813 
174.594 159.551 159.986 159.736 159.643 171.888 140.468 144.605 145.596 144.395 9.21511 294.685 46.9618 35.5949 298.758 -6.37397 63.8834 302.754 -21.1166 96.0804 303.872 -13.1279 124.074 303.325 10.8872 76.2504 324.506 73.8593 11.3594 9.64482 10.8334 
174.655 159.483 159.983 159.763 159.705 171.962 140.425 144.661 145.647 144.328 9.25017 294.452 46.8477 35.5579 298.657 -6.37635 63.8347 302.789 -21.1778 96.0051 303.886 -13.1639 123.903 303.206 10.8756 76.1522 324.396 73.8332 11.2768 9.63517 10.9222 
174.715 159.441 159.966 159.734 159.703 172.051 140.45 144.722 145.69 144.287 9.28768 294.255 46.7239 35.5345 298.533 -6.44948 63.8366 302.727 -21.2532 95.9973 303.79 -13.19 123.843 303.013 10.8949 76.0623 324.218 73.7869 11.2583 9.63524 10.9768 
174.736 159.446 159.94 159.698 159.726 172.094 140.516 144.749 145.705 144.334 9.20756 294.092 46.6668 35.4931 298.451 -6.55425 63.7979 302.639 -21.3048 95.9625 303.668 -13.2149 123.841 302.855 10.8671 75.96 323.974 73.7596 11.3161 9.64267 10.9562 
174.693 159.381 159.909 159.645 159.684 172.079 140.44 144.767 145.722 144.306 9.14164 293.949 46.617 35.4159 298.206 -6.52009 63.7308 302.559 -21.3613 95.8926 303.582 -13.2501 123.774 302.682 10.8669 75.8349 323.748 73.7329 11.3451 9.65103 11.0809 
174.58 159.241 159.821 159.575 159.607 171.988 140.287 144.757 145.708 144.156 9.12682 293.6 46.7119 35.3111 298.016 -6.44692 63.7006 302.546 -21.3893 95.8726 303.559 -13.2453 123.7 302.485 10.9592 75.7129 323.556 73.7427 11.3255 9.66559 11.2468 
174.5 159.099 159.792 159.575 159.603 171.858 140.203 144.846 145.806 144.05 9.25417 293.034 46.7392 35.1097 297.784 -6.44707 63.6647 302.434 -21.5085 95.8241 303.407 -13.3127 123.524 302.135 11.029 75.5481 323.332 73.7094 11.2357 9.64967 11.4354 
174.476 158.974 159.743 159.505 159.574 171.859 140.114 144.81 145.735 143.935 9.29486 292.39 46.7565 34.9398 297.484 -6.49866 63.6158 302.116 -21.5691 95.7423 303.01 -13.3155 123.358 301.661 11.0777 75.3537 323.077 73.6448 11.1696 9.5995 11.4844 
174.413 158.941 159.799 159.518 159.613 171.768 140.089 144.814 145.685 143.875 9.34394 291.956 46.78 34.7922 297.143 -6.52545 63.4491 301.649 -21.583 95.5264 302.464 -13.2924 123.073 301.153 11.1057 75.141 322.837 73.6106 11.0953 9.53462 11.4098 
174.372 158.823 159.738 159.348 159.561 171.735 139.828 144.577 145.351 143.595 9.34959 291.556 46.7959 34.6522 296.656 -6.37056 63.2883 301.043 -21.4283 95.2566 301.764 -13.1099 122.728 300.573 11.1965 74.921 322.553 73.577 11.014 9.43314 11.3712 
174.343 158.879 159.808 159.39 159.65 171.666 139.775 144.498 145.239 143.533 9.33079 291.196 46.9359 34.3765 296.189 -6.21932 62.9892 300.362 -21.2771 94.892 300.981 -12.9727 122.321 299.939 11.2487 74.6888 322.291 73.579 10.9357 9.34785 11.2778 
174.309 158.894 159.877 159.416 159.753 171.618 139.808 144.429 145.169 143.533 9.24886 291.019 46.943 34.1829 295.796 -6.19097 62.7816 299.6 -21.1391 94.6452 300.221 -12.8597 122.062 299.431 11.2639 74.4755 321.995 73.5571 10.9142 9.31 11.074 
174.373 159.056 160.072 159.624 159.975 171.703 140.14 144.651 145.439 143.881 8.94722 291.201 46.944 33.9919 295.342 -6.28337 62.6316 298.906 -21.1415 94.5597 299.654 -12.8849 122.04 299.13 11.2081 74.2553 321.676 73.5302 11.0098 9.37384 10.9505 
174.432 159.125 160.19 159.725 160.131 171.736 140.323 144.716 145.574 144.167 8.61193 291.479 46.9471 33.9154 294.897 -6.33086 62.4986 298.205 -21.0606 94.4789 299.179 -12.8695 122.09 299.055 11.1269 74.0561 321.389 73.5093 11.1827 9.45218 10.7535 
174.675 159.301 160.383 159.991 160.388 171.947 140.615 144.922 145.895 144.553 8.27754 291.635 47.0119 33.8226 294.62 -6.40686 62.4275 297.737 -21.0474 94.4528 298.868 -12.9028 122.109 298.969 11.0784 73.8902 321.189 73.5203 11.2602 9.50736 10.6286 
174.894 159.527 160.493 160.14 160.546 172.113 140.988 145.012 146.079 144.866 7.81938 291.817 47.0682 33.6827 294.396 -6.54836 62.2266 297.19 -20.9761 94.2414 298.474 -12.9118 121.968 298.89 10.9744 73.6731 320.992 73.5181 11.3393 9.52069 10.3586 
175.036 159.712 160.553 160.257 160.686 172.178 141.301 145.12 146.316 145.205 7.45015 292.041 47.098 33.5343 294.092 -6.63138 62.0878 296.664 -20.9236 94.1491 298.18 -12.9606 121.932 298.916 10.8538 73.4959 320.79 73.4849 11.4352 9.59742 10.2068 
175.121 159.734 160.5 160.242 160.68 172.143 141.471 145.154 146.437 145.381 7.11746 292.361 47.0678 33.402 293.8 -6.7053 61.9921 296.282 -20.901 94.0788 298.01 -13.0033 121.893 299.017 10.757 73.3197 320.592 73.4307 11.5219 9.659 10.1389 
175.117 159.809 160.492 160.324 160.751 172.029 141.753 145.327 146.741 145.746 6.79548 292.567 47.1005 33.205 293.458 -6.75322 61.8713 295.863 -20.887 93.988 297.836 -13.0861 121.825 299.068 10.6459 73.1206 320.326 73.4221 11.5868 9.73107 10.106 
175.139 159.834 160.485 160.375 160.809 171.894 141.886 145.428 146.895 145.908 6.58038 292.546 47.1618 33.0464 293.213 -6.78587 61.7631 295.509 -20.8558 93.8446 297.579 -13.084 121.647 299.025 10.6185 72.9388 320.102 73.4279 11.5843 9.71751 10.0523 
175.183 159.915 160.502 160.474 160.904 171.807 142.231 145.638 147.172 146.252 6.26626 292.445 47.1517 32.8234 292.906 -6.96628 61.5726 294.966 -20.9239 93.6441 297.191 -13.2212 121.457 298.918 10.447 72.7207 319.84 73.3671 11.6233 9.73167 9.91637 
175.095 160.075 160.565 160.585 161.038 171.607 142.556 145.883 147.488 146.662 6.05486 292.287 47.1979 32.5525 292.481 -6.99134 61.2985 294.497 -20.944 93.4315 296.93 -13.3432 121.293 298.886 10.3001 72.5182 319.615 73.349 11.6903 9.81426 9.88512 
174.884 160.045 160.472 160.523 161.009 171.247 142.695 145.959 147.597 146.755 5.95976 292.033 47.2993 32.3315 292.047 -6.97847 61.0888 293.918 -20.8889 93.1791 296.471 -13.3638 120.971 298.639 10.2436 72.3104 319.38 73.3345 11.6365 9.80301 9.82062 
174.674 160.102 160.489 160.605 161.096 170.909 143.051 146.285 147.87 147.002 5.83708 291.65 47.4505 31.9965 291.579 -7.07657 60.8541 293.436 -21.0212 92.9483 296 -13.4978 120.701 298.306 10.132 72.0975 319.135 73.2996 11.575 9.77015 9.85756 
174.481 160.111 160.386 160.546 161.066 170.642 143.064 146.352 147.895 146.984 5.70004 291.433 47.6067 31.7289 291.275 -7.01492 60.6185 293.207 -21.0418 92.6811 295.711 -13.5099 120.391 298.006 10.1285 71.9038 318.976 73.2921 11.514 9.72792 9.94672 
174.373 160.134 160.359 160.579 161.102 170.492 143.133 146.573 148.06 147.082 5.57335 291.084 47.8018 31.4896 290.974 -6.97167 60.4262 293.132 -21.1644 92.465 295.524 -13.5767 120.126 297.707 10.1289 71.7201 318.83 73.2883 11.4303 9.67218 10.1207 
174.286 160.254 160.405 160.579 161.111 170.404 143.172 146.699 148.06 147.029 5.50147 290.784 47.8834 31.2074 290.643 -6.88018 60.1317 292.978 -21.1868 92.1595 295.239 -13.5439 119.797 297.319 10.1914 71.5282 318.703 73.2938 11.3614 9.62739 10.2435 
174.089 160.29 160.286 160.396 160.95 170.186 143.09 146.573 147.818 146.789 5.42931 290.532 47.9572 30.9637 290.579 -6.87989 59.8625 292.853 -21.1572 91.8497 294.9 -13.4647 119.482 296.908 10.2598 71.3506 318.59 73.2773 11.3281 9.55654 10.2305 
173.87 160.317 160.149 160.224 160.776 169.948 143.044 146.579 147.708 146.669 5.32078 290.036 48.1693 30.7262 290.556 -6.92688 59.6613 292.916 -21.2744 91.6165 294.629 -13.4556 119.2 296.462 10.3083 71.1755 318.424 73.268 11.2455 9.45781 10.3266 
173.721 160.343 159.901 159.902 160.455 169.811 142.888 146.313 147.267 146.25 5.18159 289.707 48.1776 30.6034 290.585 -7.06628 59.5317 292.922 -21.3267 91.3811 294.268 -13.3469 118.94 295.971 10.4033 70.9811 318.203 73.1983 11.2214 9.31968 10.3108 
173.697 160.386 159.798 159.728 160.281 169.801 142.646 146.104 146.957 145.959 5.19856 289.195 48.0559 30.5181 290.441 -7.0825 59.4082 292.877 -21.3581 91.2175 293.987 -13.2636 118.773 295.526 10.5217 70.8105 317.961 73.1438 11.2252 9.26578 10.3674 
173.617 160.513 159.873 159.722 160.278 169.704 142.714 146.161 146.886 145.886 5.19324 288.862 47.9626 30.3098 290.343 -7.19234 59.2392 292.831 -21.4512 91.0381 293.704 -13.2331 118.577 295.132 10.5885 70.6177 317.74 73.1233 11.2053 9.21664 10.4142 
173.441 160.528 159.781 159.553 160.088 169.536 142.68 146.028 146.681 145.59 5.16163 288.444 47.8696 30.0608 290.208 -7.30861 59.0273 292.724 -21.522 90.8227 293.444 -13.2247 118.315 294.688 10.6461 70.4297 317.475 73.0734 11.1465 9.19498 10.4444 
173.354 160.547 159.75 159.438 159.968 169.471 142.534 145.905 146.517 145.396 5.1454 288.035 47.703 29.894 289.979 -7.32861 58.8737 292.636 -21.576 90.7013 293.28 -13.2038 118.202 294.322 10.7439 70.2543 317.178 73.0425 11.1768 9.22966 10.5518 
173.263 160.524 159.739 159.314 159.875 169.374 142.469 145.817 146.357 145.268 5.11733 287.952 47.5423 29.7666 289.787 -7.38816 58.7692 292.51 -21.6088 90.6596 293.125 -13.1612 118.256 294.121 10.8262 70.1079 316.92 73.0152 11.324 9.29128 10.6044 
173.233 160.572 159.843 159.27 159.827 169.333 142.439 145.769 146.208 145.15 5.08536 287.767 47.3684 29.6319 289.529 -7.45823 58.5998 292.303 -21.6587 90.5383 292.883 -13.1444 118.211 293.879 10.8455 69.9822 316.665 72.9651 11.4168 9.3251 10.6094 
173.234 160.583 159.887 159.197 159.752 169.335 142.404 145.698 146.031 145.018 4.97067 287.689 47.3011 29.5618 289.27 -7.47754 58.4881 292.033 -21.6128 90.4442 292.622 -13.059 118.199 293.713 10.8995 69.8712 316.436 72.9472 11.5207 9.34005 10.561 
173.334 160.64 159.966 159.185 159.734 169.44 142.389 145.619 145.915 144.982 4.77813 287.357 47.1637 29.5167 289.043 -7.58674 58.3682 291.733 -21.6106 90.3501 292.328 -13.0238 118.16 293.459 10.9253 69.7437 316.147 72.9061 11.5952 9.36831 10.4569 
173.506 160.743 160.111 159.288 159.797 169.632 142.458 145.675 145.949 145.026 4.6443 286.97 47.0136 29.4638 288.687 -7.69581 58.3151 291.34 -21.686 90.2992 291.863 -13.041 118.063 292.979 10.9231 69.6657 315.836 72.8442 11.5441 9.35563 10.431 
173.644 160.915 160.314 159.526 159.95 169.76 142.57 145.84 146.106 145.131 4.53474 286.533 46.9901 29.4025 288.319 -7.7369 58.2638 290.94 -21.7529 90.203 291.288 -13.03 117.835 292.315 10.9807 69.5762 315.574 72.8373 11.3816 9.28815 10.4404 
173.877 161.142 160.56 159.828 160.146 170.008 142.856 146.064 146.322 145.255 4.42967 286.227 46.8621 29.3657 287.878 -7.85588 58.2436 290.349 -21.8249 90.0886 290.509 -13.0075 117.536 291.484 11.0501 69.4909 315.304 72.8163 11.1608 9.1806 10.3783 
174.035 161.321 160.721 160.044 160.292 170.197 143.127 146.291 146.553 145.397 4.3253 285.827 46.7934 29.308 287.373 -7.95181 58.2395 289.791 -21.9049 90.0422 289.814 -12.9882 117.338 290.719 11.1505 69.3867 315.007 72.7894 11.0049 9.12749 10.3942 
174.106 161.408 160.768 160.2 160.416 170.259 143.242 146.395 146.703 145.477 4.28023 285.317 46.8163 29.2811 286.981 -8.01633 58.2615 289.226 -21.923 89.9902 289.098 -12.9447 117.123 289.933 11.248 69.2729 314.72 72.7678 10.8397 9.05528 10.3547 
174.167 161.573 160.945 160.482 160.685 170.306 143.503 146.654 146.996 145.718 4.24803 284.92 46.8315 29.1941 286.546 -8.06546 58.1886 288.629 -21.9391 89.8588 288.371 -12.9093 116.869 289.195 11.3226 69.1301 314.408 72.8013 10.7007 8.98803 10.2916 
174.169 161.594 160.939 160.533 160.755 170.319 143.567 146.661 147.04 145.696 4.13257 284.548 46.8429 29.0954 286.178 -8.11868 58.1143 288.085 -21.9194 89.7404 287.783 -12.8846 116.644 288.61 11.3498 68.991 314.081 72.7911 10.5903 8.94885 10.2147 
174.089 161.713 161.168 160.752 160.985 170.238 143.8 146.937 147.372 145.868 3.9004 284.194 46.816 28.6842 285.489 -8.12535 57.7219 287.299 -21.9812 89.4174 287.073 -12.9597 116.254 287.938 11.355 68.6703 313.579 72.8123 10.5314 9.00083 10.2124 
174.105 161.744 161.222 160.805 161.036 170.252 143.966 147.121 147.576 145.95 3.44008 284.286 46.771 28.4007 284.948 -8.15664 57.4535 286.861 -22.1128 89.1807 286.779 -13.1258 116.011 287.66 11.2465 68.4125 313.218 72.7502 10.5491 9.04364 10.2947 
174.157 161.754 161.185 160.836 161.023 170.358 143.976 147.107 147.629 145.905 2.90591 284.291 46.6405 28.1882 284.321 -8.19875 57.2801 286.269 -22.2116 88.9939 286.326 -13.2852 115.782 287.182 11.1243 68.1836 312.752 72.6118 10.5241 9.06025 10.3585 
174.165 161.857 161.209 160.941 161.079 170.369 144.123 147.234 147.796 145.968 2.39793 284.198 46.6396 27.8222 283.743 -8.26355 56.9982 285.782 -22.3657 88.7175 285.836 -13.4502 115.442 286.587 11.0347 67.9228 312.311 72.5128 10.4489 9.0576 10.4714 
174.238 161.945 161.31 161.147 161.23 170.421 144.353 147.506 148.078 146.119 1.94413 284.186 46.6316 27.4367 283.185 -8.35661 56.7202 285.271 -22.5768 88.405 285.201 -13.6299 115.025 285.829 10.955 67.6701 311.906 72.4282 10.3168 9.00165 10.5909 
174.354 161.982 161.368 161.283 161.311 170.474 144.512 147.661 148.254 146.181 1.58665 283.853 46.5936 27.0821 282.45 -8.40202 56.3446 284.517 -22.678 87.9473 284.365 -13.7407 114.452 284.858 10.8972 67.3838 311.409 72.3274 10.1541 8.92332 10.6107 
174.414 162.005 161.407 161.403 161.354 170.469 144.658 147.806 148.394 146.192 1.23062 283.615 46.4019 26.7354 281.782 -8.53321 56.0109 283.832 -22.8497 87.479 283.517 -13.8689 113.822 283.831 10.8487 67.0387 310.86 72.2088 9.96886 8.80474 10.6487 
174.469 162.088 161.513 161.562 161.48 170.436 144.836 148.026 148.603 146.231 0.918077 283.487 46.3252 26.4206 281.287 -8.60328 55.6933 283.366 -22.9833 87.0595 282.902 -13.9643 113.247 282.992 10.8683 66.7001 310.452 72.1602 9.81358 8.72074 10.7124 
174.405 162.082 161.547 161.655 161.574 170.291 144.894 148.186 148.805 146.314 0.680011 283.238 46.1943 26.0477 280.713 -8.58053 55.327 282.898 -23.0955 86.6364 282.428 -14.1099 112.711 282.301 10.8243 66.3197 310.038 72.0898 9.71134 8.69468 10.844 
174.315 162.121 161.618 161.777 161.705 170.158 144.881 148.313 148.948 146.388 0.474558 282.888 46.0914 25.6783 280.235 -8.48878 54.9181 282.574 -23.1449 86.146 282.076 -14.1924 112.132 281.784 10.7845 65.9121 309.737 72.0372 9.61311 8.64215 10.9673 
