154.526 166.204 167.464 167.763 165.065 148.867 161.404 161.816 162.491 159.264 -230.255 238.592 141.724 -247.886 193.674 88.2284 -240.641 177.26 77.583 -218.185 174.425 66.8891 -187.949 186.916 61.953 -176.645 250.172 111.801 6.41942 2.67169 5.3516 
154.131 166.064 167.262 167.54 164.925 148.462 161.207 161.678 162.38 159.188 -229.735 238.419 141.178 -247.409 193.604 87.6464 -240.157 177.266 77.035 -217.707 174.488 66.298 -187.564 186.881 61.5048 -176.38 250.054 111.288 6.32949 2.70853 5.36324 
153.677 165.962 167.275 167.47 164.924 148.136 161.065 161.696 162.383 159.167 -229.337 238.349 140.979 -246.945 193.587 87.0691 -239.633 177.281 76.3552 -217.105 174.543 65.6371 -187.01 186.937 61.0651 -176.141 250.115 110.856 6.21624 2.75182 5.28762 
153.239 166.012 167.284 167.387 164.868 147.718 160.958 161.631 162.297 159.061 -228.928 238.19 140.924 -246.617 193.696 86.4759 -239.317 177.532 75.7182 -216.678 174.809 64.9934 -186.523 187.153 60.5545 -175.93 250.253 110.48 6.18969 2.82261 5.2441 
153.163 166.134 167.483 167.475 164.807 147.774 160.762 161.585 162.188 158.791 -228.961 238.284 141.222 -246.398 193.617 86.1556 -239.027 177.535 75.2466 -216.237 174.813 64.5333 -185.953 187.203 60.2186 -175.803 250.512 110.038 6.14925 2.90371 5.0611 
152.716 166.257 167.749 167.627 164.709 147.616 160.38 161.44 161.991 158.365 -229.013 238.415 141.349 -246.272 193.5 85.9234 -238.879 177.443 74.8806 -216.004 174.672 64.2096 -185.508 187.091 59.9633 -175.757 250.686 109.506 6.16942 2.9504 4.85387 
152.136 166.479 167.959 167.827 164.695 147.208 160.279 161.394 161.937 158.126 -228.767 238.155 140.873 -245.927 193.254 85.1382 -238.461 177.153 74.1871 -215.598 174.419 63.6837 -185.023 186.949 59.5637 -175.638 250.714 108.823 6.14547 2.88417 4.85812 
151.665 166.708 168.136 167.957 164.554 146.814 160.335 161.4 161.915 157.923 -228.707 237.972 140.025 -245.569 192.726 84.2418 -238.055 176.656 73.427 -215.192 174.029 63.0332 -184.547 186.694 58.9935 -175.666 250.644 108.063 6.15037 2.84433 4.90328 
151.087 166.587 168.058 167.771 163.935 146.592 159.952 161.072 161.511 157.332 -228.592 237.88 139.004 -245.269 192.388 83.4434 -237.697 176.271 72.7443 -214.777 173.648 62.3029 -184.069 186.373 58.2736 -175.57 250.382 107.236 6.22073 2.92147 4.94768 
150.071 166.345 167.944 167.562 163.207 145.984 159.547 160.477 161.131 156.848 -228.049 237.901 137.001 -244.291 191.982 81.6182 -236.8 175.824 71.1742 -213.989 173.363 60.5217 -183.278 186.269 56.3601 -175.151 250.113 105.627 6.32146 2.95497 5.25842 
150.307 165.868 167.991 167.417 162.686 146.39 159.31 160.427 160.921 156.55 -228.718 238.445 136.058 -244.332 191.466 81.1321 -236.862 175.492 70.2632 -213.934 173.168 59.4473 -183.087 186.194 55.0151 -175.299 249.935 104.785 6.47593 3.02578 5.03814 
150.867 165.59 168.146 167.37 162.342 146.66 159.622 160.692 160.99 156.619 -229.194 239.069 134.438 -244.06 190.698 80.0678 -236.574 174.759 69.1581 -213.641 172.675 58.3269 -182.739 185.928 53.7137 -175.231 249.632 103.748 6.58728 2.98309 5.07901 
151.08 165.32 168.327 167.364 162.112 147.015 159.784 160.913 161.078 156.789 -229.646 239.954 133.192 -243.97 190.458 79.2279 -236.387 174.585 68.1162 -213.383 172.628 57.2105 -182.482 186.014 52.5253 -175.113 249.581 102.854 6.64753 3.02765 4.96884 
151.192 165 168.419 167.438 161.938 147.036 159.828 161.032 161.213 156.914 -229.57 240.178 131.484 -243.352 190.075 78.0817 -235.727 174.268 66.9487 -212.818 172.595 56.0582 -181.983 186.121 51.5203 -174.8 249.379 101.972 6.59929 2.97364 4.98675 
150.962 164.28 168.045 167.025 161.46 147.403 159.342 160.77 160.986 156.864 -229.946 241.196 130.666 -243.305 190.395 77.5734 -235.702 174.848 66.0077 -212.591 173.132 54.9166 -181.676 186.454 50.3666 -174.645 249.485 101.241 6.67923 3.17969 4.66741 
150.641 163.271 167.833 166.741 161.045 147.44 158.674 160.432 160.653 156.443 -230.188 242.023 129.235 -242.916 190.498 76.6519 -235.483 175.159 64.8967 -212.39 173.549 53.7682 -181.525 186.825 49.2238 -174.595 249.512 100.361 6.64515 3.16985 4.62439 
150.613 163.321 168.05 166.832 161.445 147.52 158.954 160.683 160.848 156.816 -230.549 242.575 128.025 -242.388 190.164 75.5299 -234.892 175.04 63.7471 -211.827 173.763 52.7486 -181.28 187.356 48.2831 -174.685 249.871 99.7033 6.5559 3.06817 4.66165 
150.807 163.942 168.414 167.147 162.284 147.703 159.507 161.181 161.318 157.638 -231.102 243.572 126.79 -242.23 190.11 74.6892 -235.035 175.444 62.7833 -211.968 174.246 51.7797 -181.685 187.872 47.2706 -174.854 250.302 99.0084 6.52593 3.05976 4.58634 
150.518 163.856 168.536 167.292 162.88 147.553 159.574 161.463 161.711 158.313 -231.329 244.503 125.643 -242.293 190.639 74.0569 -235.524 176.413 61.9098 -212.539 175.189 50.8286 -182.43 188.616 46.3445 -175.006 250.678 98.4688 6.4701 3.05893 4.50305 
150.237 163.915 168.436 167.122 163.107 147.296 160.043 161.829 162.154 159.127 -231.411 245.516 124.725 -242.878 191.654 73.4836 -236.477 177.884 60.9379 -213.47 176.551 49.6671 -183.362 189.682 45.1387 -175.166 251.123 98.0163 6.51431 3.14769 4.35241 
150.257 164.025 168.352 166.925 163.286 147.303 160.534 162.193 162.617 159.878 -231.75 246.562 123.908 -243.603 192.619 72.8421 -237.401 179.232 59.834 -214.337 177.8 48.5307 -184.164 190.618 44.0419 -175.447 251.563 97.5951 6.50138 3.17133 4.14002 
150.341 164.138 168.357 166.86 163.621 147.37 160.935 162.567 163.141 160.713 -232.064 247.218 123.425 -244.166 193.446 72.1891 -238.047 180.312 58.7246 -214.946 178.836 47.4212 -184.735 191.415 43.0544 -175.658 251.923 97.2098 6.47214 3.18557 3.9001 
150.086 164.253 168.388 166.811 163.845 147.366 161.212 162.837 163.483 161.278 -232.442 247.904 123.207 -244.602 194.122 71.6097 -238.416 181.178 57.7629 -215.192 179.717 46.4772 -184.941 192.2 42.255 -175.9 252.384 96.9724 6.47125 3.24213 3.666 
149.673 164.663 168.587 167.172 164.377 147.538 161.516 163.07 163.811 161.622 -232.899 248.619 123.008 -244.861 194.75 70.849 -238.557 181.943 56.8191 -215.268 180.556 45.6796 -185.08 193.076 41.6491 -176.172 253.005 96.7395 6.37816 3.19817 3.57177 
149.331 164.982 168.781 167.489 164.745 147.774 161.831 163.261 164.07 161.884 -233.394 249.528 122.75 -244.98 195.19 70.2318 -238.429 182.407 56.0713 -215.025 181.16 45.0709 -184.847 193.834 41.2009 -176.391 253.639 96.6176 6.36804 3.19179 3.45738 
148.825 165.178 168.852 167.71 165.172 148.687 161.924 163.324 164.193 162.091 -234.682 251.635 123.03 -245.669 196.459 69.7848 -238.75 183.712 55.3267 -215.061 182.353 44.4532 -184.735 195.039 40.7103 -176.871 254.889 96.5241 6.43793 3.30856 3.15579 
148.596 165.407 168.767 167.827 165.369 149.031 162.001 163.205 164.096 162.033 -235.301 252.671 123.108 -245.972 197.032 69.4248 -238.76 184.097 55.0878 -214.965 182.659 44.3685 -184.557 195.478 40.625 -177.137 255.524 96.513 6.54432 3.31594 3.16712 
148.601 165.762 168.728 167.968 165.772 149.173 162.232 163.161 164.125 162.238 -235.647 253.474 123.001 -246.269 197.67 69.021 -238.868 184.594 54.8475 -215.048 183.025 44.1991 -184.587 195.853 40.4753 -177.274 256.091 96.4524 6.61264 3.32609 3.21987 
148.967 166.216 168.737 168.12 166.214 149.292 162.436 163.15 164.138 162.468 -235.84 253.73 123.004 -246.5 198.148 68.8138 -239.123 185.096 54.7754 -215.312 183.388 44.1707 -184.908 196.226 40.3594 -177.408 256.56 96.3462 6.67048 3.31544 3.28751 
149.085 166.241 168.584 168.092 166.287 149.073 162.295 162.831 163.842 162.248 -235.698 253.631 122.824 -246.647 198.572 68.6286 -239.304 185.438 54.8273 -215.602 183.6 44.2599 -185.316 196.401 40.3289 -177.44 256.821 96.0992 6.6662 3.24579 3.44146 
149.255 166.51 168.689 168.402 166.76 148.529 162.547 163.013 164.172 162.585 -235.151 252.963 122.724 -246.592 198.923 68.4321 -239.491 186.048 54.6827 -215.954 184.274 44.0326 -185.795 197.028 40.1568 -177.41 257.202 95.977 6.54632 3.17988 3.53291 
149.472 166.73 168.824 168.666 167.127 147.948 162.694 163.184 164.44 162.838 -234.533 252.169 122.379 -246.511 199.272 68.1066 -239.674 186.583 54.4389 -216.314 184.876 43.7374 -186.301 197.59 39.9247 -177.383 257.556 95.7256 6.43811 3.10114 3.65277 
150.026 167.082 168.876 168.711 167.256 147.853 162.855 163.172 164.37 162.763 -234.34 251.385 122.097 -246.441 199.16 67.7071 -239.663 186.574 54.213 -216.372 184.943 43.5731 -186.516 197.793 39.7053 -177.435 257.759 95.3352 6.396 3.02021 3.78395 
149.977 167.365 168.962 168.785 167.439 147.255 163.165 163.287 164.47 162.83 -233.768 250.504 121.621 -246.096 199.211 66.8241 -239.396 186.658 53.728 -216.271 185.297 43.1973 -186.63 198.321 39.4543 -177.451 258.057 95.0133 6.27845 2.86331 4.13199 
149.648 167.526 168.887 168.623 167.344 146.623 163.315 163.254 164.338 162.745 -233.421 250.033 121.308 -245.941 199.268 66.0665 -239.163 186.748 53.1479 -216.031 185.579 42.7249 -186.54 198.804 38.9693 -177.531 258.333 94.671 6.30331 2.8004 4.28569 
149.18 167.386 168.673 168.382 167.117 146.057 163.196 163.062 164.077 162.534 -233.195 249.838 120.991 -245.913 199.465 65.4572 -239.026 186.949 52.5962 -215.875 185.918 42.2554 -186.509 199.29 38.4355 -177.648 258.595 94.2834 6.37554 2.76215 4.33877 
148.724 167.128 168.53 168.166 166.998 145.592 163.115 163.008 163.988 162.538 -233.126 250.048 120.624 -246.164 199.993 64.9225 -239.306 187.446 51.9886 -216.217 186.425 41.6334 -186.938 199.797 37.7696 -177.787 258.846 93.8913 6.42125 2.73042 4.33441 
148.278 166.85 168.541 168.243 167.158 145.802 163.022 162.966 163.991 162.666 -233.499 250.741 120.551 -246.299 200.434 64.4744 -239.241 187.648 51.4924 -216.176 186.609 41.1611 -186.982 200.092 37.2493 -177.885 259.182 93.5978 6.49691 2.71569 4.29565 
148.164 166.577 168.523 168.3 167.385 146.41 162.911 162.964 164.032 162.909 -234.206 251.827 120.602 -246.553 200.922 64.1222 -239.264 187.945 50.8924 -216.121 186.802 40.5545 -186.879 200.357 36.5306 -177.987 259.542 93.3187 6.6544 2.77523 4.10905 
148.334 166.299 168.631 168.48 167.692 147.018 162.76 163.061 164.211 163.209 -234.86 253.141 120.227 -246.567 201.315 63.7746 -239.174 188.226 50.3012 -215.976 187.038 39.9636 -186.707 200.597 35.9448 -178.016 259.843 93.0432 6.74878 2.82485 3.92737 
148.609 165.968 168.719 168.582 167.858 147.473 162.597 163.122 164.272 163.354 -235.375 254.101 119.812 -246.67 201.72 63.3029 -239.166 188.406 49.6735 -215.905 187.072 39.4172 -186.566 200.576 35.4017 -177.987 259.964 92.6885 6.82427 2.84389 3.81468 
148.876 165.624 168.731 168.619 167.971 147.532 162.422 163.016 164.15 163.328 -235.444 254.696 119.014 -246.84 202.746 62.4159 -239.397 189.238 48.8017 -216.157 187.672 38.6223 -186.872 200.95 34.6097 -177.888 260.4 91.9046 6.78274 2.81362 3.86391 
149.324 165.456 168.673 168.596 167.918 147.743 162.227 162.901 163.993 163.129 -235.63 254.692 118.748 -247.111 203.267 62.1317 -239.667 189.706 48.4707 -216.36 187.938 38.3696 -187.055 200.962 34.4475 -177.96 260.517 91.609 6.67675 2.83645 3.82243 
149.662 165.685 168.72 168.593 167.894 147.867 162.263 162.899 163.908 163.004 -235.77 254.8 118.301 -247.209 203.464 61.7318 -239.789 189.986 48.0102 -216.427 188.131 37.9876 -187.126 201.023 34.1537 -178.001 260.628 91.2154 6.58206 2.84248 3.76399 
149.863 165.739 168.771 168.586 167.968 148.041 162.328 162.973 163.958 163.137 -236.045 255.248 117.955 -247.489 203.952 61.4605 -239.987 190.434 47.585 -216.559 188.493 37.5247 -187.25 201.276 33.7624 -178.106 260.884 90.9739 6.56117 2.91154 3.6411 
150.901 165.444 168.623 168.54 168.141 147.947 161.985 162.779 164.006 163.321 -235.439 255.208 117.736 -247.511 204.856 61.3408 -240.139 191.336 47.4574 -216.816 189.529 37.5023 -187.398 202.345 33.7591 -178.041 261.439 91.1354 6.61657 2.77977 3.72718 
151.872 165.231 168.541 168.612 168.51 147.567 161.743 162.784 164.219 163.737 -234.898 254.872 117.659 -247.689 205.778 61.1993 -240.479 192.253 47.1864 -217.204 190.443 37.3767 -187.67 203.215 33.6555 -178.039 261.91 91.2646 6.68319 2.68071 3.7143 
152.584 165.019 168.337 168.581 168.846 146.884 161.6 162.775 164.481 164.26 -234.3 254.436 117.781 -247.953 206.796 61.1793 -240.889 193.297 46.9884 -217.647 191.461 37.1755 -187.976 204.193 33.4405 -178.032 262.43 91.437 6.79498 2.65717 3.65721 
153.029 165.029 168.328 168.799 169.303 145.991 161.685 162.974 164.92 164.858 -233.575 253.64 117.821 -248.007 207.584 60.9856 -241.173 194.096 46.7489 -218.089 192.258 37.0226 -188.385 204.926 33.3865 -178.002 262.814 91.5729 6.78696 2.52865 3.70704 
153.245 164.914 168.246 168.911 169.569 145.064 161.629 163.028 165.171 165.24 -232.785 252.825 117.992 -248.101 208.484 60.8358 -241.42 194.994 46.5317 -218.449 193.163 36.8601 -188.682 205.754 33.2894 -177.95 263.209 91.7325 6.80791 2.43676 3.74512 
153.358 164.803 168.195 169.098 169.867 144.245 161.695 163.187 165.493 165.634 -232.083 251.995 118.156 -248.042 209.135 60.5243 -241.469 195.564 46.2278 -218.581 193.722 36.7238 -188.784 206.237 33.3194 -177.876 263.479 91.7957 6.76265 2.32375 3.81058 
153.501 165.011 168.279 169.376 170.173 143.554 161.943 163.438 165.842 165.978 -231.355 251.12 118.257 -247.825 209.487 60.1886 -241.426 195.921 45.9418 -218.668 194.064 36.5918 -188.889 206.491 33.3701 -177.713 263.634 91.7583 6.63892 2.18738 3.90326 
153.458 165.08 168.274 169.593 170.402 142.887 162.156 163.608 166.155 166.29 -230.734 250.367 118.316 -247.679 209.782 59.7555 -241.359 196.172 45.5459 -218.719 194.317 36.3067 -188.96 206.687 33.2504 -177.593 263.711 91.6562 6.54299 2.07672 3.9837 
153.342 165.439 168.316 169.86 170.726 142.383 162.567 163.938 166.616 166.69 -230.172 249.657 118.367 -247.282 209.756 59.3726 -241.013 196.252 45.1026 -218.455 194.467 35.9357 -188.743 206.805 33.2145 -177.402 263.776 91.5919 6.36796 2.01353 3.94869 
153.215 165.403 168.245 169.954 170.857 142.052 162.689 164.081 166.874 166.945 -229.778 249.109 118.452 -247.193 209.847 59.1073 -240.911 196.325 44.7185 -218.412 194.535 35.5673 -188.674 206.779 32.9859 -177.281 263.732 91.4077 6.29125 1.9819 3.86956 
152.918 165.224 167.963 169.869 170.793 141.937 162.568 163.97 166.887 166.955 -229.495 248.856 118.615 -247.05 209.857 59.0698 -240.597 196.364 44.4875 -218.092 194.538 35.2997 -188.281 206.689 32.7674 -177.036 263.645 91.2164 6.29625 2.01954 3.66334 
152.691 164.983 167.768 169.832 170.735 141.964 162.373 163.855 166.886 166.929 -229.274 248.505 118.564 -246.881 209.614 59.0024 -240.329 196.153 44.2265 -217.83 194.299 35.011 -187.981 206.378 32.5026 -176.85 263.407 90.9178 6.27358 2.0388 3.48345 
152.43 164.527 167.413 169.69 170.588 142.199 161.93 163.526 166.767 166.82 -229.159 248.349 118.549 -246.785 209.388 59.0301 -240.059 195.805 44.116 -217.565 193.859 34.7861 -187.586 205.75 32.272 -176.576 263.036 90.5769 6.29375 2.11629 3.28683 
152.182 164.132 167.043 169.573 170.415 142.427 161.615 163.239 166.645 166.642 -229.053 248.234 118.387 -246.606 209.2 58.9317 -239.739 195.599 43.929 -217.25 193.63 34.5031 -187.175 205.4 32.02 -176.326 262.783 90.2568 6.28931 2.17767 3.1555 
151.748 164.106 166.915 169.583 170.34 142.508 161.586 163.179 166.642 166.55 -228.846 248.128 118.03 -246.186 208.773 58.6237 -239.235 195.202 43.6308 -216.728 193.262 34.1995 -186.618 204.996 31.8207 -176.009 262.46 89.9803 6.25103 2.2078 3.1174 
151.36 163.951 166.777 169.504 170.231 142.619 161.492 163.067 166.622 166.503 -228.683 248.165 117.695 -245.93 208.455 58.3973 -238.845 194.841 43.3483 -216.335 192.945 33.8204 -186.156 204.614 31.4832 -175.71 262.128 89.6565 6.25521 2.2697 3.03053 
151.215 163.801 166.704 169.497 170.152 143.032 161.402 163.055 166.616 166.438 -228.86 248.403 117.623 -245.72 208.125 58.2192 -238.386 194.444 43.0293 -215.727 192.628 33.473 -185.394 204.315 31.2022 -175.527 262.005 89.4432 6.28786 2.37047 2.87253 
151.491 164.043 166.83 169.677 170.254 143.378 161.706 163.295 166.839 166.546 -228.916 248.448 117.275 -245.454 207.906 57.8103 -238.002 194.276 42.6022 -215.272 192.594 33.0743 -184.893 204.31 31.0118 -175.385 262.034 89.2999 6.20202 2.40101 2.83243 
151.904 164.076 166.843 169.713 170.262 143.872 161.686 163.308 166.879 166.535 -229.095 248.564 117.034 -245.372 207.855 57.6233 -237.738 194.181 42.3496 -214.882 192.556 32.772 -184.404 204.225 30.8437 -175.257 262.078 89.1467 6.19725 2.51393 2.71352 
152.375 164.231 166.911 169.806 170.291 144.386 161.749 163.393 166.944 166.528 -229.36 248.695 116.866 -245.217 207.663 57.4723 -237.364 194 42.109 -214.352 192.466 32.5684 -183.783 204.176 30.7634 -175.169 262.16 89.0798 6.21773 2.59563 2.57379 
151.688 164.277 167.056 169.948 170.332 143.938 162.044 163.587 167.033 166.551 -229.187 248.76 115.962 -245.055 207.769 56.907 -237.107 194.03 41.4611 -213.818 192.399 32.1322 -183.27 204.131 30.4623 -175.131 262.229 88.9117 6.22726 2.65378 2.52772 
151.047 164.759 167.734 170.348 170.483 143.392 162.71 164.119 167.248 166.645 -228.905 248.587 114.826 -244.913 207.811 56.0524 -236.924 193.961 40.6534 -213.273 192.206 31.7043 -182.891 204.067 30.1863 -175.184 262.301 88.7378 6.18704 2.69482 2.61888 
151.408 165.175 168.02 170.269 170.41 143.749 162.671 164.058 167.011 166.427 -229.016 248.358 114.699 -244.802 207.518 55.9503 -236.792 193.734 40.7865 -213.131 191.985 31.8383 -182.782 203.972 30.204 -175.182 262.254 88.6096 6.22861 2.69822 2.76294 
151.159 165.214 168.311 170.277 170.278 143.662 162.754 164.088 166.812 166.163 -229.066 248.35 114.233 -244.984 207.774 55.5613 -237.042 193.837 40.4879 -213.188 191.834 31.8219 -182.873 203.783 30.1516 -175.268 262.201 88.4565 6.22074 2.71225 2.89342 
151.381 165.535 168.47 170.293 170.318 143.743 162.811 164.132 166.811 166.152 -229 248.087 114.287 -245.04 207.713 55.5169 -237.219 193.896 40.651 -213.492 191.936 31.9051 -183.231 203.931 30.1903 -175.341 262.222 88.4376 6.18947 2.65782 3.04509 
151.655 165.518 168.481 170.24 170.326 144.016 162.664 164.109 166.808 166.181 -229.064 248.071 114.459 -245.108 207.663 55.6558 -237.334 193.948 40.7743 -213.696 192.062 31.9131 -183.421 204.095 30.1135 -175.368 262.284 88.3999 6.22146 2.63742 3.02302 
151.961 165.414 168.411 170.177 170.328 144.277 162.457 164.035 166.79 166.201 -229.177 248.088 114.552 -245.146 207.532 55.8301 -237.419 193.938 40.8995 -213.895 192.153 31.9186 -183.607 204.213 30.0373 -175.413 262.328 88.319 6.2499 2.60621 2.96254 
152.303 165.246 168.271 170.119 170.336 144.588 162.213 163.936 166.769 166.209 -229.406 248.259 114.702 -245.213 207.458 56.094 -237.536 193.979 41.0757 -214.112 192.271 31.9794 -183.782 204.298 30.0391 -175.472 262.378 88.3058 6.27471 2.59009 2.86591 
152.542 165.093 168.115 170.082 170.335 144.683 162.025 163.837 166.738 166.197 -229.546 248.468 114.665 -245.206 207.318 56.2252 -237.661 193.927 41.2092 -214.382 192.27 32.0357 -184.054 204.268 30.0291 -175.482 262.345 88.2277 6.27389 2.53381 2.86076 
152.926 165.017 168.06 170.128 170.468 144.85 161.975 163.888 166.884 166.396 -229.727 248.767 114.597 -245.27 207.304 56.3311 -237.85 194.011 41.2449 -214.678 192.421 31.9671 -184.333 204.37 29.9089 -175.501 262.377 88.1459 6.29094 2.51459 2.81158 
153.181 165.074 168.086 170.255 170.653 144.925 162.062 164.053 167.133 166.677 -229.808 248.906 114.433 -245.305 207.194 56.2866 -237.955 193.944 41.1239 -214.862 192.443 31.7729 -184.515 204.393 29.7308 -175.527 262.369 88.0445 6.28758 2.50446 2.7613 
153.332 165.317 168.19 170.441 170.857 144.868 162.264 164.245 167.397 166.951 -229.693 248.948 114.026 -245.221 207.083 56.1184 -237.961 193.957 40.9116 -214.952 192.618 31.5002 -184.643 204.646 29.4549 -175.518 262.448 87.9184 6.30137 2.48226 2.75798 
152.909 165.177 168.268 170.608 171.005 144.458 162.494 164.442 167.529 167.086 -229.419 248.897 113.287 -245.139 207.242 55.6595 -237.927 194.06 40.3207 -214.873 192.606 31.118 -184.655 204.62 29.0647 -175.497 262.439 87.6566 6.28074 2.3938 2.73696 
152.477 165.473 168.501 170.752 171.18 143.918 162.991 164.842 167.742 167.323 -229.095 248.683 112.572 -244.986 207.07 55.1244 -237.812 193.981 39.5847 -214.66 192.426 30.6255 -184.6 204.506 28.6068 -175.454 262.339 87.357 6.23819 2.33068 2.6517 
152.193 165.839 168.883 170.925 171.309 143.521 163.424 165.216 167.875 167.459 -228.862 248.442 111.932 -244.866 206.925 54.5009 -237.736 193.872 38.8386 -214.47 192.2 30.1368 -184.567 204.38 28.1201 -175.421 262.251 87.0022 6.20753 2.28795 2.63079 
151.767 166.181 169.239 171.116 171.47 143.052 163.868 165.504 168.024 167.638 -228.436 248.156 111.08 -244.603 206.788 53.55 -237.516 193.596 37.9967 -214.184 191.845 29.5838 -184.487 204.11 27.64 -175.271 262.032 86.5441 6.16727 2.22653 2.76685 
150.832 166.585 169.043 170.774 171.361 142.044 163.893 165.11 167.445 167.078 -226.885 246.638 110.622 -243.841 206.322 52.7244 -236.568 193.09 37.4376 -213.306 191.406 29.2464 -184.048 203.951 27.551 -174.839 261.78 86.1419 5.97377 2.11545 2.94301 
151.06 166.515 168.506 170.065 170.962 141.417 163.486 164.367 166.453 165.907 -225.289 244.925 109.488 -242.572 205.66 51.5269 -234.688 192.35 36.2611 -211.283 190.797 28.5179 -182.391 203.602 27.3488 -174.106 261.566 85.366 5.6429 2.08146 2.85292 
151.539 167.268 168.456 169.968 170.59 141.444 164.247 164.378 166.243 165.07 -225.446 244.856 108.214 -242.475 205.619 50.2025 -234.074 191.756 35.4062 -210.636 190.062 28.0536 -182.224 202.612 27.966 -173.865 261.293 84.7425 4.92024 2.00378 3.01904 
151.861 168.096 168.336 169.696 170.108 141.615 164.739 164.101 165.735 164.247 -225.771 245.129 107.311 -242.761 206.064 49.158 -233.812 191.757 34.7362 -210.276 189.913 27.5356 -182.219 202.286 27.9852 -173.765 261.346 84.1259 4.57839 2.04238 3.22079 
150.684 168.719 168.417 169.797 170.275 142.625 165.123 164.243 165.946 164.597 -227.654 247.893 107.25 -243.64 206.835 48.6014 -234.285 192.217 34.2914 -210.629 190.27 26.8132 -182.314 202.347 27.1767 -173.834 261.427 83.6045 4.80776 2.21091 3.2241 
150.639 168.01 167.885 169.343 170.167 144.145 164.026 163.598 165.582 164.504 -228.653 249.677 107.131 -243.598 207.244 49.181 -234.061 192.875 34.4183 -210.286 190.995 26.501 -181.575 202.909 26.5029 -173.593 261.564 83.3952 5.09883 2.44414 2.85667 
150.799 167.148 167.251 168.518 169.435 144.356 162.813 162.624 164.443 163.248 -227.934 249.342 106.576 -242.514 207.152 49.1624 -232.707 193.047 34.225 -208.684 191.133 26.5845 -179.873 203.091 26.5875 -173.02 261.675 83.1896 5.11289 2.53036 2.66622 
151.114 167.287 167.276 168.06 168.687 144.49 162.95 162.436 163.806 162.157 -228.078 249.416 106.248 -242.461 207.559 48.3405 -232.363 193.241 33.7633 -208.005 191.023 26.4103 -179.409 202.883 26.9183 -172.941 261.899 82.8547 4.74846 2.71345 2.89981 
151.383 166.545 166.671 167.223 167.848 144.484 161.702 161.363 162.63 160.825 -227.373 248.552 105.982 -241.963 207.604 48.5056 -231.572 193.343 33.8707 -206.87 190.976 26.6182 -178.103 202.862 27.0254 -172.601 262.007 82.6454 4.75033 2.97021 2.90053 
