156.984 158.927 147.573 149.912 148.377 158.173 151.978 128.994 135.279 137.086 -302.183 248.532 -7.59748 -317.124 200.526 -51.1016 -298.577 173.415 -26.1837 -276.48 159.533 -31.8853 -247.868 158.318 -40.9526 -236.886 233.08 -22.8927 9.31923 4.866 32.8356 
155.798 162.327 147.714 150.133 148.391 158.576 149.424 129.654 135.648 137.351 -303.128 250.439 -7.01071 -318.016 201.01 -48.9898 -299.647 174.155 -27.3267 -277.502 160.302 -33.0076 -248.679 158.963 -41.9542 -237.425 233.678 -23.3009 9.35793 4.85178 30.0511 
155.665 160.653 147.84 150.413 148.656 158.881 143.946 130.417 136.022 137.935 -303.848 251.531 -6.73651 -318.111 200.605 -45.834 -300.727 174.772 -28.4493 -278.525 160.991 -34.0745 -249.471 159.44 -43.0434 -237.89 234.137 -23.6875 9.54129 4.80783 26.0515 
155.045 154.456 147.741 150.557 148.823 159.076 138.492 131.295 136.452 138.593 -304.477 252.953 -6.50631 -318.014 200.672 -42.4079 -302.035 175.626 -29.7023 -279.703 161.806 -35.2171 -250.314 159.927 -44.1881 -238.372 234.671 -24.0326 9.77211 4.83729 21.7294 
153.947 147.925 147.624 150.679 148.824 159.316 132.983 132.408 137.112 139.401 -305.184 254.562 -6.19507 -317.712 200.951 -38.78 -303.562 176.565 -31.254 -280.919 162.558 -36.5203 -251.032 160.268 -45.2664 -238.891 235.265 -24.3555 9.94598 5.01523 16.905 
153.902 144.125 147.468 150.84 149.022 159.846 128.99 133.493 137.819 140.383 -305.771 255.811 -6.31 -317.486 201.521 -36.0647 -305.004 177.641 -32.523 -282.147 163.406 -37.6833 -251.851 160.638 -46.3186 -239.337 235.834 -24.7085 10.172 5.19661 13.1019 
154.433 145.027 147.633 151.195 149.549 160.499 127.877 134.696 138.669 141.426 -306.351 256.77 -6.55021 -317.877 202.2 -34.9645 -306.504 178.834 -33.8078 -283.472 164.336 -38.8158 -252.82 161.094 -47.2638 -239.781 236.475 -25.0434 10.3219 5.36113 10.7206 
154.774 143.924 147.67 151.467 150.14 160.729 127.772 135.535 139.341 142.317 -306.664 257.263 -7.0062 -317.982 202.559 -35.2666 -307.499 179.635 -34.5372 -284.47 165.058 -39.5087 -253.604 161.474 -47.9236 -240.136 236.934 -25.329 10.4718 5.36883 9.99416 
154.2 143.727 147.566 151.728 150.936 160.591 127.695 136.699 140.332 143.502 -307.286 258.752 -7.60951 -318.458 203.355 -35.4738 -309.271 181.33 -35.6015 -286.19 166.585 -40.666 -255.015 162.573 -48.9492 -240.994 238.099 -25.7543 10.5869 5.46898 8.77073 
155.01 143.223 147.644 152.011 151.546 160.453 128.66 137.253 140.945 144.065 -307.389 258.799 -8.32714 -318.639 203.476 -36.774 -309.765 181.665 -35.6966 -286.868 167.012 -40.898 -255.677 162.919 -49.1728 -241.255 238.4 -26.0214 10.5348 5.3269 9.70606 
155.367 143.405 147.631 152.193 152.134 160.379 129.629 137.749 141.455 144.614 -307.554 259.039 -8.88116 -319.125 203.892 -37.5674 -310.291 182.084 -35.7838 -287.522 167.455 -41.082 -256.265 163.201 -49.3773 -241.542 238.706 -26.2028 10.5763 5.24797 10.3262 
155.678 142.643 147.315 152.166 152.598 160.205 130.784 137.954 141.701 144.986 -307.726 259.301 -9.51868 -319.897 204.736 -38.555 -310.834 182.653 -35.9221 -288.237 168.029 -41.4111 -256.941 163.637 -49.9123 -241.925 239.047 -26.4103 10.7428 5.18108 11.224 
155.782 141.389 146.983 152.118 153.013 160.071 130.823 137.99 141.882 145.304 -307.909 259.506 -9.89702 -320.171 205.259 -38.8501 -311.058 182.934 -36.0744 -288.595 168.305 -41.7493 -257.26 163.833 -50.3534 -242.159 239.3 -26.6312 10.8781 5.15937 11.4012 
155.77 139.545 146.643 152.003 153.574 160.009 130.178 138.03 142.003 145.754 -308.08 259.721 -10.1508 -320.237 205.639 -38.5979 -311.243 183.152 -36.2444 -288.909 168.526 -42.0205 -257.523 163.898 -50.815 -242.358 239.477 -26.8173 11.1064 5.11819 11.0321 
156.028 138.452 146.417 151.89 153.89 159.972 130.19 137.988 142.082 145.95 -308.151 259.812 -10.5225 -320.366 206.014 -38.9024 -311.359 183.359 -36.5038 -289.204 168.738 -42.3849 -257.829 164.04 -51.2144 -242.489 239.618 -27.0237 11.155 5.04882 11.1266 
156.101 137.68 146.177 151.708 153.914 159.909 129.502 138.085 142.357 146.172 -308.299 260.239 -11.008 -320.37 206.124 -38.7373 -311.526 183.446 -37.0799 -289.357 168.712 -43.1149 -257.754 163.896 -51.71 -242.612 239.656 -27.2315 11.2109 5.17293 10.464 
155.681 136.665 145.472 151.431 153.963 159.72 128.62 138.095 142.592 146.428 -308.398 260.904 -11.2983 -320.43 206.47 -38.423 -311.8 183.781 -37.6988 -289.61 168.854 -43.9518 -257.784 163.892 -52.3519 -242.794 239.756 -27.4037 11.2933 5.36039 9.6938 
155.267 136.818 144.785 151.138 153.847 159.615 127.502 137.975 142.644 146.584 -308.65 261.55 -11.5344 -320.388 206.5 -37.9006 -312.015 183.998 -38.1586 -289.763 168.892 -44.4984 -257.739 163.808 -52.8405 -243.035 239.859 -27.6101 11.4445 5.52602 8.76327 
155.181 137.459 144.188 150.881 153.563 159.82 126.696 138.014 142.665 146.617 -308.965 262.482 -11.6642 -320.585 206.784 -37.4743 -312.51 184.508 -38.9191 -290.049 169.043 -45.1559 -257.792 163.782 -53.3518 -243.264 239.992 -27.8239 11.572 5.78513 7.6699 
154.559 138.848 145.553 151.688 153.355 160.908 128.425 139.061 143.531 146.642 -309.685 263.646 -11.9881 -321.963 207.192 -37.6806 -313.274 184.641 -39.3866 -290.237 168.912 -45.465 -256.792 163.334 -53.9771 -243.825 240.47 -27.9502 12.6565 6.1932 7.54445 
155.156 137.966 146.698 152.311 152.661 162.056 130.366 139.809 144.229 147.007 -310.576 264.831 -12.5392 -323.511 208.084 -38.1778 -314.209 184.924 -39.5967 -290.605 168.868 -45.7573 -256.086 163.016 -54.7767 -244.47 240.94 -28.0707 13.7793 6.70388 8.0514 
155.596 136.423 146.341 151.618 152.412 162.13 129.03 140.449 144.861 147.262 -311.036 265.908 -12.7205 -323.508 208.47 -37.6145 -314.756 185.243 -40.3484 -290.835 168.777 -46.8639 -256.361 162.931 -55.159 -244.826 241.042 -28.2726 13.3652 7.17155 7.02045 
156.493 135.306 147.376 152.451 151.986 163.19 130.912 141.255 145.627 147.869 -311.809 266.871 -13.2622 -324.725 209.063 -38.1278 -315.624 185.501 -40.8782 -291.123 168.674 -47.5215 -255.861 162.712 -56.0691 -245.388 241.455 -28.3929 14.1189 7.70277 7.22016 
158.316 134.225 148.588 153.417 151.754 164.257 133.646 141.814 146.224 148.953 -312.663 267.736 -13.9078 -326.201 209.945 -39.2939 -316.51 185.855 -41.328 -291.592 168.788 -48.0388 -255.716 162.704 -57.264 -245.984 241.922 -28.556 14.9804 8.06361 8.13699 
160.662 133.579 150.052 154.704 152.308 165.654 138.146 142.875 147.075 151.21 -313.833 269.266 -14.9454 -328.457 211.462 -41.3566 -317.986 186.688 -42.4091 -292.261 169.123 -48.9424 -255.376 162.674 -59.5739 -246.827 242.678 -28.8771 16.5756 8.68708 9.42439 
162.694 134.225 150.498 155.319 153.13 166.372 141.944 143.131 147.235 152.802 -314.426 269.799 -15.6569 -329.985 212.802 -43.5241 -318.762 187.346 -42.9344 -292.612 169.461 -49.28 -255.487 162.844 -61.241 -247.29 243.037 -29.0996 17.6039 9.03106 11.1777 
162.164 134.849 151.255 154.857 152.939 165.577 141.149 143.274 147.57 151.192 -314.394 269.423 -15.742 -329.699 213.236 -44.3536 -318.253 187.175 -43.737 -292.914 169.741 -49.952 -256.477 163.179 -60.1794 -247.428 242.997 -29.3185 16.1017 8.31857 11.7854 
161.517 135.434 152.293 154.031 153.188 164.81 140.183 143.499 147.376 150.383 -314.302 268.943 -15.8635 -329.519 213.615 -44.7899 -318.114 187.096 -44.4073 -293.299 170.194 -50.2918 -257.279 163.515 -59.6689 -247.507 242.928 -29.5412 15.3389 7.66795 12.0371 
162.271 140.341 151.568 154.745 153.209 164.869 144.118 143.223 147.054 150.861 -314.567 268.563 -16.561 -330.703 213.969 -46.9878 -317.708 186.56 -44.1175 -292.846 169.934 -49.6871 -257.362 163.794 -60.1667 -247.792 243.14 -29.6799 15.6435 7.51136 14.4553 
161.277 140.932 150.632 155.123 153.693 163.895 144.236 142.893 147.332 150.193 -314.207 267.88 -16.8311 -330.578 214.38 -47.9272 -316.509 185.717 -43.9361 -292.883 169.962 -49.4689 -258.038 164.07 -59.2426 -247.786 243.076 -29.8462 14.7247 6.37912 16.2197 
160.988 143.082 151.058 154.612 154.132 163.417 143.567 142.659 147.35 149.115 -314.09 267.156 -17.0081 -330.425 214.553 -48.3495 -315.729 185.076 -43.4509 -293.311 170.376 -49.1707 -259.172 164.655 -58.0007 -247.844 243.079 -30.0507 13.5889 5.25012 17.4211 
160.851 143.214 150.759 154.225 154.906 163.098 142.809 142.517 147.44 148.84 -314.04 266.728 -17.2038 -330.415 214.822 -48.4028 -315.198 184.648 -43.0603 -293.783 170.758 -49.0111 -260.148 165.041 -57.3683 -247.925 243.055 -30.3058 12.9197 4.4283 18.2199 
160.819 143.057 150.24 153.732 155.727 162.809 142.153 142.391 147.471 148.736 -313.982 266.155 -17.3546 -330.391 214.936 -48.3849 -314.704 184.185 -42.527 -294.207 171.097 -48.8098 -261.074 165.435 -56.8668 -248.029 243.006 -30.5249 12.3331 3.79283 19.0043 
160.317 143.135 149.801 153.163 156.231 162.454 140.893 142.411 147.422 148.755 -314.108 265.99 -17.244 -330.136 214.572 -47.8031 -314.649 184.013 -42.451 -294.546 171.362 -48.8029 -261.701 165.757 -56.629 -248.234 243.037 -30.7332 11.9476 3.48072 18.5152 
159.879 148.296 149.628 153.935 156.223 162.795 143.837 141.91 146.705 148.121 -314.449 265.866 -17.4479 -331.254 214.445 -48.505 -314.906 184.3 -42.5682 -294.398 171.192 -48.3898 -261.023 165.471 -56.5256 -248.597 243.323 -30.8581 12.5688 3.61214 18.7692 
159.525 152.268 149.179 154.046 155.18 163.364 146.339 141.871 146.204 147.956 -314.967 266.323 -17.4959 -332.553 214.873 -49.1586 -315.947 185.18 -43.1654 -294.652 171.369 -48.427 -260.621 165.463 -56.9616 -249.04 243.663 -31.029 13.3309 4.11788 18.5709 
159.747 150.872 148.516 154.452 155.461 162.941 145.16 142.084 147.035 148.323 -314.985 266.482 -17.7375 -332.368 214.779 -48.8924 -315.914 185.041 -43.2587 -294.55 170.978 -48.8618 -260.596 165.226 -56.6836 -249.198 243.603 -31.2177 12.827 4.38268 18.38 
159.968 149.821 148.579 154.394 156.045 162.681 144.05 142.572 148.004 148.696 -315.045 266.236 -17.936 -332.263 214.772 -48.7527 -315.901 184.728 -43.3751 -294.809 170.84 -49.1804 -260.836 165.07 -56.3717 -249.312 243.54 -31.3733 12.4245 4.22406 18.3934 
160.248 154.225 148.388 155.22 155.581 163.056 146.545 142.21 147.859 148.666 -315.462 266.082 -18.3636 -333.419 215.088 -49.777 -316.178 184.776 -43.2325 -294.457 170.253 -48.9086 -260.719 164.998 -56.6237 -249.677 243.742 -31.4649 12.5593 4.82466 19.3571 
160.824 158.078 148.341 155.935 154.801 163.551 149.258 141.779 147.733 149.091 -316.038 266.157 -18.7749 -334.724 215.809 -51.1695 -316.697 185.002 -42.8673 -294.307 169.814 -48.5649 -260.763 165.038 -57.1609 -250.142 243.977 -31.5734 12.9628 5.52524 20.8338 
161.704 160.688 148.63 156.664 154.463 164.184 151.223 141.484 147.511 149.829 -316.756 266.587 -19.1164 -335.939 216.704 -52.2267 -317.539 185.491 -42.5545 -294.453 169.681 -48.2276 -261.006 165.145 -57.7354 -250.641 244.294 -31.6908 13.5319 6.20997 21.8748 
162.689 162.664 149.098 157.185 154.327 164.703 152.826 141.336 147.205 150.679 -317.397 267.151 -19.7362 -336.876 217.616 -53.5604 -318.447 186.009 -42.5037 -294.706 169.707 -48.076 -261.212 165.232 -58.6417 -251.084 244.595 -31.9022 14.3348 6.78896 22.8599 
163.785 164.349 149.586 157.504 154.493 165.215 154.365 141.438 146.994 151.834 -317.935 267.494 -20.2347 -337.585 218.099 -54.6214 -319.292 186.401 -42.5748 -294.945 169.707 -47.9049 -261.416 165.234 -59.5605 -251.454 244.769 -32.0429 15.1757 7.25619 23.4103 
164.806 165.486 150.038 157.661 154.988 165.698 155.33 141.363 146.645 152.897 -318.524 267.822 -20.6137 -338.181 218.596 -55.5571 -320.086 186.835 -42.6753 -295.321 169.86 -47.8139 -261.744 165.284 -60.4487 -251.848 244.96 -32.2072 15.9774 7.58717 23.8589 
165.752 167.867 149.573 157.165 154.434 166.072 156.32 141.507 146.054 151.768 -318.885 267.79 -21.031 -337.539 217.853 -57.5343 -318.835 185.381 -44.4691 -294.473 169.05 -47.1626 -261.976 164.998 -58.7474 -251.838 244.814 -32.1603 14.5875 6.70845 24.6104 
166.452 174.256 149.563 156.789 153.782 166.177 160.19 141.559 145.249 150.427 -319.012 267.564 -21.4854 -336.879 217.746 -60.968 -318.327 184.655 -45.5119 -293.7 168.473 -46.3842 -262.015 164.911 -57.1264 -251.79 244.694 -32.0766 13.4844 6.88645 26.5681 
167.082 177.555 149.942 157.353 153.528 166.315 162.524 142.228 145.957 150.203 -319.155 267.274 -21.9731 -337.172 218.256 -62.3137 -318.335 184.334 -45.9995 -293.56 168.064 -47.3041 -261.669 164.84 -57.5985 -251.92 244.712 -32.2102 13.312 6.94236 27.4823 
167.77 177.362 151.144 158.139 153.466 166.491 163.166 142.912 146.602 150.785 -319.264 267.123 -22.4205 -337.316 218.393 -62.9163 -318.539 184.061 -46.2406 -293.642 167.799 -47.9525 -261.33 164.627 -58.4688 -251.971 244.679 -32.31 13.7659 6.9509 27.7456 
168.072 175.767 152.27 159.252 153.872 166.512 163.751 143.762 147.264 152.033 -319.369 267.099 -22.9489 -337.398 218.635 -63.5355 -318.967 184.129 -46.5949 -293.799 167.731 -48.6369 -261.208 164.592 -59.6288 -252.092 244.841 -32.4169 14.3525 7.14213 27.7978 
168.751 170.474 153.831 160.927 154.662 166.666 164.213 144.909 148.157 153.8 -319.579 267.149 -23.6162 -337.717 218.851 -63.9837 -319.769 184.345 -46.9691 -294.059 167.607 -49.5587 -261.185 164.606 -61.1214 -252.296 245.01 -32.5812 15.0233 7.61174 27.5602 
168.924 165.251 154.425 162.08 155.681 166.741 163.498 145.111 148.864 154.846 -319.739 267.186 -23.8673 -338.011 219.417 -63.8937 -320.378 184.759 -47.0024 -294.54 167.714 -50.3194 -261.2 164.489 -62.1604 -252.378 245.06 -32.7862 15.5487 7.88462 27.4203 
169.022 161.39 154.483 163.097 156.531 166.717 163.025 144.887 149.472 155.587 -319.808 267.077 -24.0177 -338.268 220.104 -63.8687 -320.747 185.255 -46.713 -294.984 167.954 -50.8598 -261.419 164.58 -62.6904 -252.464 245.131 -32.8861 15.7441 8.09286 27.6515 
169.15 158.933 154.223 163.809 157.288 166.76 162.699 144.558 149.826 156.134 -319.82 266.906 -24.0266 -338.385 220.646 -64.1056 -321.143 185.856 -46.6846 -295.373 168.236 -51.3986 -261.581 164.637 -63.2527 -252.438 245.13 -33.0749 15.9497 8.37139 27.7531 
169.263 157.187 154.02 164.371 158.017 166.721 162.281 144.533 150.17 156.554 -319.856 266.68 -24.0848 -338.428 220.917 -64.2176 -321.391 186.117 -46.9551 -295.598 168.327 -51.8859 -261.599 164.604 -63.7214 -252.427 245.081 -33.2271 16.0922 8.52108 27.6274 
169.056 155.184 152.274 163.739 156.885 166.487 163.825 144.178 149.909 154.259 -319.732 266.352 -24.0366 -337.514 220.651 -66.0122 -319.898 184.88 -48.1611 -294.937 167.749 -51.6373 -261.982 164.425 -61.5512 -252.179 244.777 -33.1515 14.0789 7.46149 28.8598 
168.909 154.518 152.577 162.838 156.681 166.478 163.794 144.884 150.371 154.024 -319.787 266.207 -24.0575 -337.787 220.71 -65.7497 -319.795 184.552 -48.9574 -294.787 167.503 -52.408 -261.987 164.52 -61.7062 -252.214 244.775 -33.2929 13.5793 7.43038 28.3608 
168.826 153.869 153.001 162.573 156.66 166.43 162.955 144.99 150.728 154.048 -319.787 265.969 -24.146 -337.893 220.547 -65.1137 -319.715 184.382 -49.0263 -294.773 167.412 -52.8212 -261.891 164.491 -61.8746 -252.201 244.77 -33.4029 13.4834 7.40312 27.8595 
168.482 152.35 152.66 163.033 156.279 166.203 164.892 145.118 150.781 152.919 -319.599 265.655 -24.1518 -336.882 219.99 -66.9273 -319.109 183.631 -50.308 -294.347 166.979 -52.6899 -261.793 164.134 -60.6084 -251.915 244.482 -33.3481 12.4377 6.97358 28.3546 
168.011 152.673 152.946 162.249 155.891 166.111 163.896 145.436 150.881 152.46 -319.538 265.601 -24.1417 -337.065 219.926 -66.2005 -318.932 183.402 -50.788 -294.221 166.879 -53.3356 -261.61 164.232 -60.7528 -251.833 244.514 -33.4836 12.1484 6.87631 27.6305 
167.767 152.936 152.821 162.155 155.543 166.081 162.653 145.393 151.197 152.221 -319.448 265.57 -24.2313 -337.11 220.093 -65.5684 -318.569 183.222 -50.963 -294.067 166.744 -53.9534 -261.149 164.105 -61.1283 -251.709 244.482 -33.6733 12.1933 6.7774 27.3891 
167.624 154.304 153.112 162.702 155.405 166.003 162.222 145.684 151.767 152.511 -319.299 265.436 -24.4248 -337.25 220.512 -65.4727 -318.707 183.46 -51.1822 -294.14 166.786 -54.6695 -260.911 164.158 -61.9 -251.625 244.536 -33.8627 12.4312 6.97414 27.2833 
167.118 155.343 152.94 163.043 155.43 165.837 161.918 145.702 151.939 152.837 -319.11 265.448 -24.3661 -337.462 221.163 -65.3974 -319.149 184.147 -51.3865 -294.375 167.066 -55.2209 -260.626 164.149 -62.8304 -251.507 244.568 -34.0136 13.0351 7.35085 27.0679 
166.841 156.194 153.03 163.405 155.708 165.697 161.29 145.724 151.939 153.41 -318.982 265.395 -24.5184 -337.382 221.289 -65.4962 -319.454 184.497 -51.6422 -294.385 167.125 -55.7152 -259.975 163.852 -63.9315 -251.343 244.511 -34.2064 13.8792 7.71147 26.7712 
166.722 157.02 153.176 163.495 156.027 165.561 160.714 145.527 151.681 153.98 -318.879 265.174 -24.6918 -337.282 221.431 -65.6326 -319.688 184.845 -51.6329 -294.401 167.281 -55.8681 -259.582 163.717 -64.7093 -251.204 244.521 -34.3755 14.5827 7.96935 26.6573 
166.745 157.673 153.187 163.34 156.384 165.57 160.179 145.207 151.318 154.388 -318.807 265.048 -24.8531 -337.177 221.603 -65.8105 -319.853 185.21 -51.5505 -294.398 167.459 -55.9437 -259.318 163.618 -65.2178 -251.067 244.531 -34.5899 15.0902 8.2 26.6275 
166.562 158.438 153.632 163.206 156.57 165.432 159.829 144.823 151.112 154.857 -318.509 264.779 -25.2765 -336.627 221.703 -66.529 -319.614 185.327 -51.1042 -294.074 167.538 -55.849 -258.542 163.373 -65.8785 -250.714 244.469 -34.8994 15.9213 8.3788 27.2827 
166.264 158.764 153.209 162.542 156.752 165.173 159.713 144.295 150.407 155.219 -318.342 264.737 -25.6451 -336.558 221.985 -66.928 -319.604 185.635 -50.8311 -293.953 167.752 -55.4494 -258.346 163.319 -66.1997 -250.65 244.523 -35.1011 16.4753 8.47748 27.7516 
165.308 158.266 152.654 161.799 156.832 164.924 159.624 143.944 149.841 155.396 -318.248 265.207 -25.8296 -336.527 222.351 -67.1662 -319.936 186.343 -51.0345 -293.977 168.141 -55.4742 -258.294 163.391 -66.5813 -250.633 244.604 -35.2898 16.8222 8.78695 27.6349 
165.107 157.655 152.033 161.045 156.707 164.82 159.502 143.172 149.268 155.404 -318.202 265.372 -26.294 -336.411 222.516 -67.5306 -319.908 186.753 -50.7036 -294.09 168.604 -55.3669 -258.502 163.625 -66.7356 -250.696 244.692 -35.5148 17.0097 8.7633 28.0367 
164.64 156.884 151.473 160.285 156.683 164.709 159.257 142.788 148.757 155.479 -318.306 265.773 -26.5517 -336.492 222.749 -67.7009 -320.36 187.461 -51.0805 -294.327 169.073 -55.6261 -258.717 163.838 -67.0932 -250.834 244.806 -35.7205 17.1755 8.99632 27.6605 
164.392 156.166 151.529 159.58 156.967 164.671 158.68 142.818 148.476 155.957 -318.41 266.24 -26.7447 -336.518 222.527 -67.5171 -320.646 187.734 -51.3554 -294.436 169.353 -55.6278 -258.809 163.891 -67.3659 -250.892 244.866 -35.9021 17.4553 9.0474 27.0073 
164.174 155.612 151.522 158.817 157.146 164.668 158.382 142.955 148.233 156.076 -318.354 266.627 -26.8425 -336.636 222.501 -67.1393 -320.984 188.112 -51.7743 -294.738 169.773 -55.841 -259.048 164.087 -67.5534 -250.901 244.946 -35.9899 17.5332 9.00215 26.1887 
164.242 155.424 151.629 158.336 157.274 164.751 158.238 143.348 148.119 156.324 -318.31 267.147 -27.1311 -336.755 222.614 -67.0883 -321.379 188.513 -52.3853 -295.062 170.187 -56.1793 -259.363 164.316 -67.7424 -250.929 245.057 -36.1698 17.5161 8.97839 25.5029 
164.479 155.423 151.74 158.098 157.533 164.873 158.623 143.553 148.286 156.704 -318.331 267.724 -27.6137 -336.833 222.783 -67.3308 -321.745 188.963 -52.6763 -295.311 170.539 -56.5106 -259.759 164.626 -67.8944 -251.022 245.272 -36.3285 17.3712 9.09583 25.2228 
164.801 155.084 151.913 158.075 157.83 165.021 159.012 143.619 148.584 157.167 -318.32 268.145 -28.1432 -336.791 222.906 -67.586 -322.001 189.476 -52.6527 -295.478 170.91 -56.8062 -260.131 164.988 -67.9898 -251.106 245.527 -36.5078 17.2003 9.28056 25.1059 
164.812 155.276 152.056 158.417 158.361 165.042 159.576 143.954 148.933 157.72 -318.266 268.614 -28.5168 -336.871 223.251 -68.0341 -322.446 190.085 -53.2076 -295.689 171.245 -57.3303 -260.491 165.372 -68.3716 -251.201 245.799 -36.7008 17.069 9.53092 24.8136 
164.834 155.12 152.233 158.842 158.825 165.086 159.871 144.081 149.255 158.029 -318.226 269.034 -28.8162 -337.001 223.636 -68.2036 -322.744 190.624 -53.5076 -295.989 171.627 -57.7174 -260.989 165.775 -68.5333 -251.307 246.07 -36.9055 16.8357 9.61615 24.6001 
164.849 154.999 152.282 159.426 159.107 165.139 160.19 143.944 149.698 158.004 -318.168 269.278 -29.1354 -337.102 224.049 -68.3134 -322.93 191.249 -53.4319 -296.442 172.18 -58.0886 -261.728 166.404 -68.4079 -251.415 246.447 -37.1871 16.3555 9.59271 24.554 
164.831 155.12 151.871 161.003 159.284 165.194 160.785 143.844 150.574 157.726 -318.242 269.886 -29.4133 -337.322 224.887 -68.786 -323.184 191.961 -53.6503 -296.787 172.457 -58.9581 -262.429 167.021 -68.3023 -251.627 246.92 -37.4646 15.4602 9.90235 24.8011 
165.203 155.429 151.841 163.354 159.322 165.37 161.053 143.881 151.604 157.248 -318.357 270.193 -29.5356 -337.539 225.745 -69.1071 -323.491 192.874 -54.1735 -297.343 173.043 -60.0287 -263.352 167.889 -68.0961 -251.849 247.505 -37.7595 14.3687 10.0557 24.6334 
165.498 156.116 152.007 165.111 159.097 165.543 161.075 143.976 152.294 156.526 -318.45 270.572 -29.4993 -337.814 226.663 -69.2117 -323.733 193.704 -54.7555 -297.893 173.704 -60.925 -264.197 168.815 -67.9459 -252.033 248.084 -37.9865 13.4322 10.0303 24.3981 
165.875 157.382 152.189 165.741 158.846 165.803 160.75 143.83 152.513 155.774 -318.522 270.75 -29.3461 -337.976 227.32 -69.0614 -323.644 194.189 -54.8906 -298.281 174.262 -61.1426 -264.89 169.508 -67.4544 -252.096 248.558 -38.1566 12.7169 9.74631 24.3195 
166.155 159.005 152.158 165.837 158.154 165.916 160.677 143.542 152.304 154.694 -318.532 270.811 -29.203 -338.061 227.886 -69.1646 -323.493 194.612 -54.7941 -298.515 174.847 -60.9874 -265.365 170.192 -66.8929 -252.157 248.998 -38.3177 12.2319 9.44109 24.5754 
166.093 160.968 152.185 165.787 157.367 165.899 160.467 143.43 152.073 153.497 -318.642 271.13 -29.0772 -338.376 228.452 -69.1734 -323.762 195.293 -55.1607 -299.008 175.57 -61.2462 -266.03 171.01 -66.5408 -252.362 249.432 -38.5594 11.6586 9.25357 24.3019 
166.221 163.933 152.179 165.71 156.587 165.865 159.96 143.175 151.685 152.398 -318.653 271.293 -28.9045 -338.395 228.936 -69.4876 -323.872 196.02 -55.3689 -299.432 176.486 -61.2927 -266.582 171.943 -66.3281 -252.429 249.935 -38.7542 11.3467 8.94085 24.244 
166.353 166.576 152.158 166.001 155.964 165.852 159.289 142.815 151.465 151.791 -318.723 271.165 -28.732 -338.217 228.896 -69.7559 -323.671 196.172 -55.3734 -299.455 176.813 -61.1848 -266.488 172.235 -66.3813 -252.397 250.141 -38.9495 11.4771 8.70647 24.3479 
166.533 169.974 151.802 166.372 155.413 165.785 159.194 142.426 151.451 151.366 -318.697 270.973 -28.8141 -337.978 229.012 -70.4571 -323.298 196.295 -55.2688 -299.449 177.127 -61.1759 -266.499 172.626 -66.4279 -252.381 250.353 -39.157 11.4646 8.46058 24.9487 
166.274 173.974 151.298 167.139 154.975 165.611 159.42 141.956 151.501 151.049 -318.783 271.02 -28.9547 -337.967 229.339 -71.3084 -323.21 196.503 -55.1179 -299.575 177.306 -61.3345 -266.445 172.735 -66.7688 -252.484 250.452 -39.3707 11.6902 8.48425 25.7834 
165.953 176.518 151.06 168.329 154.628 165.404 159.525 141.814 151.738 151.157 -318.927 271.145 -29.1037 -338.083 229.647 -71.9806 -323.436 196.798 -55.3072 -299.776 177.372 -61.6582 -266.436 172.753 -67.2368 -252.619 250.562 -39.5915 11.9201 8.66006 26.131 
165.714 178.286 150.93 168.873 154.458 165.31 159.366 141.654 151.701 151.247 -319.122 271.316 -29.1062 -338.29 230.06 -72.3564 -323.725 197.114 -55.4827 -300.035 177.517 -61.797 -266.521 172.788 -67.6278 -252.786 250.655 -39.7501 12.2 8.74748 26.34 
