174.379 168.677 167.65 162.417 162.095 167.105 163.238 155.676 155.752 149.498 201.339 233.05 0.0870447 258.998 179.68 -9.78259 274.14 163.977 2.09392 297.678 168.821 27.3008 304.314 183.115 59.3693 250.008 246.8 57.313 9.02307 11.1594 3.86141 
174.319 168.878 167.812 162.466 161.984 166.963 163.548 155.983 155.855 149.572 201.724 232.937 0.299483 259.295 179.446 -9.61712 274.423 163.809 2.18762 297.836 168.751 27.3401 304.473 183.095 59.4499 250.206 246.738 57.5471 9.00152 11.0511 3.80495 
174.302 169.06 167.959 162.433 162.03 166.776 163.908 156.19 155.822 149.641 202.132 232.77 0.562098 259.616 179.176 -9.38134 274.62 163.603 2.37054 297.907 168.685 27.3031 304.732 183.085 59.4161 250.453 246.637 57.7758 9.07419 10.9173 3.78765 
174.426 169.394 168.328 162.845 162.921 167.5 164.19 156.517 156.01 150.408 202.157 232.727 0.496423 260.87 178.612 -8.4841 275.412 163.423 3.03024 298.057 168.531 27.4744 305.549 183.047 59.6654 250.884 246.483 58.0121 9.48347 10.3319 3.78186 
174.611 169.717 168.375 163.122 163.682 167.922 164.731 156.282 155.773 150.71 202.247 232.834 0.416952 262.055 178.138 -7.74599 275.939 163.366 3.79178 297.904 168.472 27.6623 306.233 183.136 60.203 251.246 246.361 58.2474 10.2148 9.71475 4.04523 
175.167 169.873 168.473 163.574 164.026 168.425 165.23 156.037 155.476 150.884 202.284 233.037 0.0859518 263.384 177.744 -7.29611 276.883 163.409 4.35894 298.094 168.439 27.9152 307.008 183.273 60.7141 251.559 246.184 58.4361 10.798 9.13227 4.23401 
176.045 170.031 167.9 164.269 164.249 169.046 165.921 155.677 155.208 151.163 202.155 233.205 -0.339229 264.374 177.158 -6.86993 277.366 163.233 4.91069 298.067 168.144 28.1374 307.558 183.222 61.0752 251.643 245.832 58.566 11.3114 8.706 4.50067 
176.778 170.148 167.101 164.783 164.342 169.496 166.388 155.297 154.997 151.324 202.127 233.172 -0.597064 265.311 176.618 -6.40491 277.868 163.082 5.37445 298.247 167.975 28.344 308.104 183.182 61.4361 251.703 245.422 58.6918 11.7106 8.444 4.71963 
177.698 170.141 165.869 165.151 164.25 169.978 166.739 154.881 154.429 151.256 202.147 233.187 -0.903589 265.858 176.053 -6.07857 277.998 162.801 5.76641 297.651 167.347 28.6235 307.889 182.721 61.9402 251.563 244.905 58.8328 12.1431 7.92039 4.89245 
178.824 170.258 164.47 166.005 164.276 170.412 167.078 154.611 154.157 151.236 202.511 233.397 -1.35648 266.393 175.211 -5.52078 278.176 162.346 6.2164 296.983 166.461 28.9227 307.63 182.069 62.3418 251.482 244.248 59.0108 12.5035 7.29195 4.94702 
179.271 170.291 163.395 166.535 164.032 170.464 167.165 154.577 153.957 151.163 202.606 233.13 -1.58869 265.987 174.358 -5.11221 277.725 161.664 6.45777 295.958 165.457 29.06 306.846 181.245 62.4361 251.198 243.646 59.0354 12.6009 6.83847 4.83575 
179.565 170.279 162.772 166.878 163.886 170.42 166.87 154.615 153.926 151.022 202.601 232.903 -1.60914 265.285 173.705 -4.72389 277.185 161.073 6.67581 295.093 164.571 29.2125 306.118 180.452 62.5222 250.993 243.175 59.0873 12.611 6.56928 4.5948 
178.111 170.378 164.549 165.299 162.702 169.269 165.807 155.504 153.919 150.426 202.891 232.293 -1.08487 263.168 173.358 -4.80999 275.625 160.194 6.57444 293.513 163.717 29.3035 303.783 178.942 62.3512 250.7 242.912 59.1687 11.6231 6.62108 4.08481 
176.374 170.212 165.843 163.945 161.544 168.054 164.969 155.894 153.743 149.97 203.236 231.281 -0.495035 261.127 173.013 -5.03659 274.015 159.342 6.46143 291.936 162.795 29.4555 301.735 177.659 62.1228 250.355 242.615 59.1994 10.8246 6.69965 3.73994 
174.768 169.974 166.614 162.831 160.512 166.888 164.271 155.935 153.446 149.588 203.27 230.18 0.262909 259.324 172.746 -5.34466 272.452 158.601 6.33467 290.639 161.95 29.6476 300.156 176.568 62.0485 250.062 242.334 59.2683 10.2751 6.93257 3.60282 
174.599 169.758 167.295 162.763 160.482 167.067 163.835 156.034 153.936 149.762 202.625 229.439 0.604732 258.873 172.279 -5.1901 271.955 158.076 6.37456 290.07 161.292 29.7191 299.32 175.864 61.9629 249.981 242.006 59.2588 9.83927 6.83257 3.59877 
174.662 169.643 167.764 162.952 160.694 167.253 163.622 155.764 154.381 150.044 202.041 229.153 0.79456 258.57 171.841 -4.90116 271.434 157.697 6.58582 289.664 160.821 29.8562 298.883 175.377 62.0691 249.866 241.754 59.3151 9.68788 6.83915 3.71046 
174.852 169.538 168.322 163.267 160.983 167.376 163.468 155.565 154.867 150.242 201.656 228.971 0.925117 258.514 171.461 -4.63692 271.284 157.362 6.76558 289.731 160.501 29.9762 298.856 175.105 62.1765 249.845 241.542 59.3679 9.5768 6.94014 3.76465 
175.368 169.44 168.766 163.585 161.241 167.692 163.312 155.257 155.108 150.145 201.231 228.99 0.949244 258.539 171.242 -4.34553 271.161 157.17 6.97667 289.713 160.337 30.1015 298.834 175.004 62.3427 249.842 241.421 59.4337 9.58097 6.96871 3.85754 
175.916 169.342 168.91 163.999 161.348 167.983 163.275 154.941 155.229 149.859 200.867 228.996 0.883005 258.447 171.043 -4.1804 270.889 157.012 7.06875 289.483 160.143 30.1157 298.61 174.875 62.4535 249.784 241.317 59.4135 9.62087 6.95778 3.94794 
175.578 169.238 168.845 163.294 160.753 167.421 163.012 155.404 154.551 149.336 200.912 228.743 1.22168 257.286 171.015 -4.40251 270.162 156.702 6.94832 288.885 159.966 30.1682 297.908 174.57 62.458 249.58 241.221 59.4306 9.51936 7.1135 3.64431 
174.769 169.045 168.628 162.714 160.104 166.819 162.86 155.584 153.958 148.62 201.053 228.394 1.44495 256.259 171.084 -4.90799 269.416 156.411 6.70525 288.283 159.699 30.2578 297.07 174.211 62.4318 249.37 241.145 59.4012 9.28531 7.31638 3.54179 
174.063 168.925 168.38 162.263 159.651 166.326 162.782 155.618 153.593 148.033 201.108 228.078 1.73982 255.402 171.191 -5.36877 268.869 156.225 6.54258 288.072 159.565 30.4341 296.585 174.016 62.5535 249.237 241.126 59.4307 9.09367 7.63895 3.52342 
173.424 168.721 168.1 161.787 159.095 165.934 162.705 155.631 153.277 147.517 201.2 227.777 1.93215 254.777 171.33 -5.84402 268.474 156.048 6.33052 287.829 159.373 30.551 295.984 173.747 62.6218 249.094 241.078 59.4108 8.84374 7.84538 3.57247 
173.018 168.676 167.918 161.438 158.66 165.669 162.791 155.71 153.077 147.035 201.144 227.52 2.22115 254.204 171.36 -6.17477 268.126 155.859 6.20632 287.633 159.201 30.6834 295.481 173.569 62.6724 248.94 241.019 59.4581 8.59121 8.00927 3.63923 
172.372 168.833 168.711 162.393 159.584 166.05 162.963 156.601 154.199 147.798 200.697 227.378 2.3878 254.29 170.868 -5.64312 268.55 155.56 6.39758 287.912 158.894 30.7068 295.344 173.383 62.4376 248.791 240.814 59.5503 8.09184 7.81731 3.354 
172.856 168.892 169.235 163.013 160.5 166.739 163.069 156.607 154.825 148.221 200.354 227.65 2.11885 255.141 170.487 -5.07361 269.265 155.572 6.69024 288.484 158.936 30.7204 295.692 173.434 62.4477 248.754 240.613 59.6024 7.96624 7.63574 3.26573 
173.942 168.993 169.594 163.781 161.278 167.588 163.397 156.423 155.263 148.352 200.045 228.146 1.59132 255.693 170.083 -4.77936 269.533 155.476 6.79916 288.64 158.786 30.5813 295.762 173.376 62.3589 248.695 240.42 59.5159 7.92116 7.46183 3.32113 
175.019 168.987 169.683 164.401 161.94 168.233 163.492 156.078 155.501 148.478 199.797 228.582 1.16765 256.3 169.954 -4.64167 269.903 155.506 6.93762 288.925 158.758 30.5432 296.025 173.384 62.3352 248.633 240.275 59.491 7.94709 7.36309 3.46791 
176.09 169.004 169.558 164.991 162.465 168.78 163.572 155.626 155.594 148.418 199.766 229.036 0.763212 256.774 169.889 -4.48538 270.05 155.548 7.05649 288.898 158.638 30.4986 296.051 173.292 62.3447 248.607 240.152 59.4779 8.01122 7.20192 3.63544 
176.019 169.058 169.267 164.314 161.741 168.368 163.385 155.728 155.034 148.118 199.93 229.1 0.870142 256.131 170.145 -4.81988 269.592 155.607 6.8082 288.679 158.796 30.4497 296.027 173.377 62.4489 248.457 240.181 59.4995 8.30885 7.4616 3.52281 
175.653 168.972 168.846 163.534 161.073 167.925 163.19 155.77 154.566 147.926 199.975 228.918 1.09554 255.427 170.345 -5.16607 269.169 155.641 6.62824 288.571 158.949 30.4788 296.048 173.495 62.464 248.322 240.234 59.5404 8.44324 7.76549 3.42423 
176.3 168.944 169.176 163.765 161.464 168.465 163.163 156.143 155.142 148.398 199.663 229.002 0.902446 255.655 170.315 -4.95019 269.444 155.689 6.70018 288.72 158.958 30.435 296.097 173.494 62.3009 248.26 240.182 59.5852 8.2849 7.65199 3.34223 
176.392 169.039 169.049 163.268 160.983 168.156 163.213 156.319 154.922 148.217 199.8 229.054 1.04132 254.985 170.39 -5.19333 269.015 155.603 6.49016 288.47 158.926 30.3995 295.875 173.465 62.2712 248.105 240.156 59.6168 8.32878 7.83385 3.22526 
176.112 169.119 168.775 162.812 160.482 167.81 163.369 156.384 154.715 148.066 199.945 228.914 1.1481 254.403 170.453 -5.61405 268.57 155.457 6.20734 288.176 158.792 30.3575 295.546 173.332 62.1874 247.86 240.072 59.6235 8.29476 8.00889 3.25639 
175.695 169.041 168.512 162.308 159.853 167.491 163.319 156.262 154.411 147.799 199.899 228.542 1.3743 253.882 170.543 -5.95462 268.139 155.336 6.01091 287.947 158.671 30.3916 295.227 173.185 62.2066 247.627 239.984 59.6364 8.24129 8.21094 3.34022 
175.152 168.97 168.369 161.909 159.345 167.086 163.249 156.218 154.061 147.467 199.876 228.014 1.70176 253.337 170.493 -6.13953 267.619 155.104 5.96037 287.425 158.421 30.4664 294.737 172.908 62.2727 247.42 239.843 59.7062 8.21143 8.22899 3.44382 
175.144 169.178 168.835 162.539 160.222 167.503 163.332 156.568 154.801 148.305 199.674 227.856 1.59415 253.814 170.181 -5.61665 267.754 154.952 6.16756 287.439 158.24 30.3847 294.778 172.75 62.025 247.336 239.677 59.726 8.04441 8.03363 3.43997 
175.433 169.328 169.53 163.018 161.115 167.862 163.471 156.564 155.426 149.029 199.518 227.947 1.41173 254.511 169.886 -5.05894 268.043 154.908 6.47982 287.649 158.25 30.3181 295.07 172.791 61.7956 247.28 239.497 59.7656 7.9646 7.8617 3.55731 
175.905 169.331 170.056 163.2 161.717 168.172 163.442 156.272 155.655 149.133 199.339 228.032 1.27261 255.315 169.762 -4.62791 268.485 155.019 6.79269 287.888 158.407 30.3834 295.256 172.814 61.9662 247.295 239.367 59.8591 8.00161 7.66919 3.73185 
176.536 169.342 170.549 163.538 162.161 168.471 163.474 155.878 155.792 149.235 199.195 228.191 1.07506 255.891 169.667 -4.29847 268.718 155.12 7.01928 287.981 158.446 30.4136 295.47 172.809 62.0947 247.294 239.28 59.9129 8.14912 7.52842 3.89518 
177.203 169.312 171.025 163.921 162.381 168.808 163.615 155.574 155.916 148.929 199.2 228.487 0.7831 256.425 169.596 -4.13202 269.017 155.23 7.11528 287.965 158.446 30.3988 295.354 172.797 62.2042 247.271 239.184 59.9226 8.17 7.29209 4.01013 
177.84 169.274 171.308 164.17 162.478 169.028 163.563 155.19 155.881 148.526 199.009 228.728 0.661302 256.78 169.66 -4.0261 269.291 155.446 7.16973 287.908 158.524 30.4184 295.242 172.826 62.38 247.233 239.173 59.9556 8.24324 7.05706 4.05024 
177.448 169.33 170.421 163.502 161.381 168.441 163.171 155.013 154.795 147.913 199.016 228.522 1.03047 256.074 169.934 -4.32788 268.988 155.688 6.88945 287.67 158.852 30.4112 295.096 172.908 62.6215 247.093 239.239 60.0183 8.54647 7.23289 3.70455 
177.889 169.262 170.284 163.541 161.566 168.776 163.038 155.272 155.024 148.311 198.815 228.639 0.913501 256.441 170.133 -4.25898 269.46 155.962 6.87446 288.033 159.089 30.3724 295.477 173.058 62.5822 247.147 239.329 60.0325 8.60348 7.1883 3.59191 
178.209 169.19 170.304 163.617 161.774 168.98 162.887 155.135 155.133 148.521 198.573 228.812 0.94619 256.873 170.407 -4.13261 269.799 156.287 6.96884 288.405 159.412 30.4325 295.972 173.316 62.7532 247.259 239.487 60.1299 8.79339 7.2176 3.65682 
178.554 169.095 170.593 163.824 161.941 169.202 162.806 154.853 155.181 148.562 198.453 229.032 0.824714 257.334 170.609 -3.87756 270.115 156.617 7.10931 288.85 159.82 30.4685 296.572 173.732 62.9004 247.361 239.66 60.1706 9.03848 7.31005 3.70778 
178.681 169.054 170.844 164.088 161.951 169.271 162.79 154.626 155.205 148.443 198.548 229.337 0.752829 257.65 170.859 -3.73322 270.323 156.894 7.16908 289.102 160.101 30.4596 296.957 174.103 62.9361 247.472 239.843 60.2188 9.1889 7.33451 3.76305 
178.786 169.013 171.045 164.258 161.854 169.35 162.74 154.426 155.185 148.301 198.643 229.618 0.732341 258.039 171.142 -3.61073 270.723 157.23 7.19476 289.501 160.49 30.4091 297.478 174.577 62.9297 247.618 240.045 60.2677 9.34897 7.33368 3.74752 
178.171 169.039 170.349 163.456 161.054 168.749 162.341 154.716 154.293 148.041 198.851 229.527 1.12405 257.236 171.413 -3.7962 270.498 157.43 7.08155 289.342 160.861 30.5169 297.467 174.895 63.0123 247.628 240.306 60.3523 9.49556 7.48857 3.28244 
177.031 168.872 169.545 162.523 160.298 168.013 162.133 154.751 153.589 147.68 199.166 229.288 1.50383 256.69 171.802 -4.13834 270.355 157.684 6.96979 289.421 161.277 30.6831 297.514 175.273 63.062 247.649 240.598 60.4404 9.48334 7.76684 3.05444 
176.014 168.744 168.973 161.665 159.592 167.371 161.975 154.831 153.112 147.699 199.38 228.997 1.93756 256.132 172.11 -4.41863 270.176 157.894 6.84339 289.56 161.639 30.7941 297.748 175.63 62.9976 247.673 240.879 60.5455 9.47734 8.0745 2.8747 
175.033 168.479 168.34 160.96 158.951 166.842 161.939 154.831 152.851 147.552 199.685 228.774 2.28169 255.861 172.508 -4.74788 270.203 158.159 6.67775 289.877 161.987 30.9316 297.811 175.941 63.027 247.636 241.136 60.6446 9.31278 8.39157 2.80004 
174.758 168.43 168.608 161.632 159.636 167.279 162.098 155.652 153.72 148.322 199.665 228.843 2.19496 256.468 172.68 -4.49415 270.989 158.383 6.70053 290.642 162.253 30.9138 298.389 176.339 62.9233 247.653 241.29 60.6778 9.21332 8.38327 2.64047 
174.709 168.35 168.878 162.2 160.356 167.605 162.301 155.902 154.151 148.557 199.642 229.118 1.98125 257.334 172.851 -4.17541 271.72 158.664 6.83913 291.316 162.644 30.9023 299.04 176.849 63.0737 247.688 241.334 60.7426 9.42964 8.34355 2.6698 
174.922 168.237 169.219 162.904 161.112 167.893 162.569 155.949 154.366 148.765 199.791 229.49 1.61784 258.103 173.022 -4.034 272.266 158.887 6.90069 291.742 162.926 30.8645 299.606 177.317 63.2835 247.642 241.368 60.7341 9.82526 8.27352 2.80327 
175.429 168.124 169.574 163.548 161.68 168.223 162.805 155.767 154.36 148.858 199.75 229.825 1.40047 258.663 173.167 -3.79984 272.582 159.088 7.08774 292 163.196 30.9373 300.111 177.8 63.6599 247.549 241.428 60.8018 10.309 8.22612 2.97872 
175.935 168.025 169.946 164.02 162.201 168.541 162.928 155.624 154.451 149.075 199.595 230.169 1.3998 259.049 173.36 -3.50752 272.911 159.379 7.22544 292.417 163.602 30.9771 300.753 178.348 64.0522 247.504 241.577 60.8835 10.7881 8.27198 3.02397 
176.389 168 170.382 164.498 162.661 168.806 163.181 155.498 154.554 149.39 199.369 230.399 1.4135 259.375 173.44 -3.22267 273.171 159.58 7.38097 292.883 164.004 31.0359 301.489 178.909 64.4507 247.455 241.7 60.9875 11.2729 8.38709 3.10727 
175.821 168.076 169.416 163.426 162.159 168.031 163.171 155.334 154.638 149.46 199.667 230.378 1.76272 258.811 173.693 -3.37572 272.908 159.804 7.25441 293.256 164.367 31.2528 301.226 179.073 64.4178 247.275 241.894 61.0371 10.7873 8.96946 2.86903 
174.58 168.226 168.742 162.657 161.345 167.092 163.124 155.303 154.739 149.228 200.1 230.038 2.32834 258.208 173.83 -3.5956 272.665 159.843 7.17447 293.557 164.491 31.5716 300.92 179.101 64.4726 247.196 242.087 61.1425 10.2447 9.44046 2.69929 
173.619 168.208 168.26 162.089 160.774 166.336 163.086 155.256 154.854 148.979 200.498 229.801 2.73603 257.751 174.209 -3.98158 272.47 159.984 6.98858 293.714 164.607 31.7941 300.454 179.076 64.5276 247.074 242.339 61.1911 9.74143 9.78377 2.67936 
173.313 168 167.728 161.46 160.337 165.899 162.777 155.026 154.745 148.845 200.618 229.662 3.15449 257.391 174.678 -4.36586 272.476 160.28 6.83816 294.033 164.833 32.0451 300.385 179.117 64.7464 247.073 242.62 61.2887 9.49802 10.1107 2.64876 
173.036 167.784 167.381 161.021 160.026 165.56 162.701 155.009 154.826 148.849 200.73 229.49 3.47115 257.063 175.127 -4.74084 272.429 160.489 6.63714 294.268 164.973 32.2395 300.185 179.103 64.8789 246.967 242.819 61.3843 9.20674 10.4183 2.69485 
173.15 167.621 167.08 160.593 159.611 165.478 162.55 154.865 154.828 148.524 200.656 229.321 3.68803 256.915 175.603 -5.12544 272.534 160.728 6.49327 294.498 165.14 32.4714 299.841 179.097 65.1071 246.884 243.033 61.4269 8.88971 10.6204 2.83265 
173.246 167.564 166.911 160.402 159.463 165.417 162.497 154.836 154.911 148.201 200.766 229.222 3.86395 256.966 176.064 -5.41308 272.828 161.063 6.34141 294.83 165.423 32.6209 299.656 179.257 65.2046 246.871 243.265 61.4931 8.59208 10.7535 2.89952 
173.499 167.591 166.8 160.247 159.432 165.407 162.455 154.753 154.919 148.161 200.69 229.169 4.04553 257.008 176.5 -5.62497 272.978 161.414 6.29168 295.105 165.743 32.7952 299.69 179.502 65.2942 246.838 243.538 61.5687 8.42889 10.9121 3.02223 
173.833 167.662 166.676 160.06 159.518 165.44 162.46 154.765 154.935 148.285 200.582 229.281 4.37433 256.784 176.953 -5.78411 273.008 161.763 6.26034 295.341 166.032 33.0314 299.786 179.702 65.4604 246.876 243.923 61.7186 8.31778 11.1271 3.08714 
174.034 167.812 166.746 159.972 159.627 165.538 162.396 154.69 154.727 148.196 200.414 229.269 4.55895 256.602 177.064 -5.68875 272.81 161.845 6.43314 295.127 166.077 33.1956 299.746 179.758 65.5923 246.963 244.133 61.7971 8.36744 11.0858 3.14853 
174.105 167.946 166.917 159.88 159.604 165.664 162.505 154.702 154.534 148.252 200.491 229.443 4.57019 256.611 177.075 -5.5442 272.664 161.862 6.62678 294.9 166.067 33.3398 299.798 179.869 65.658 247.044 244.303 61.9087 8.44389 10.9956 3.18581 
174.169 168.005 167.029 159.89 159.582 165.742 162.601 154.724 154.381 148.31 200.655 229.6 4.50196 256.797 177.091 -5.42839 272.659 161.856 6.84158 294.754 166.034 33.4982 299.873 179.958 65.7215 247.125 244.428 61.9967 8.49873 10.8821 3.26078 
174.368 168.082 167.147 159.939 159.613 165.888 162.669 154.75 154.183 148.239 200.582 229.717 4.47864 256.987 177.177 -5.39163 272.695 161.937 6.99942 294.634 166.158 33.5117 299.961 180.127 65.7161 247.232 244.598 62.0493 8.58992 10.7425 3.34415 
174.439 168.189 167.22 159.936 159.547 166.019 162.86 154.717 153.941 148.138 200.682 229.738 4.44186 257.387 177.274 -5.41746 272.729 161.989 7.17596 294.422 166.22 33.5512 299.935 180.225 65.7307 247.314 244.702 62.1439 8.65413 10.5443 3.55222 
174.581 168.254 167.255 159.924 159.426 166.164 162.969 154.712 153.742 148.047 200.757 229.923 4.35743 257.632 177.304 -5.34944 272.7 162.001 7.36406 294.165 166.212 33.6177 299.851 180.253 65.7825 247.407 244.79 62.2416 8.71383 10.3596 3.67339 
174.823 168.365 167.226 159.884 159.335 166.375 163.017 154.661 153.569 147.967 200.65 230.082 4.31686 257.896 177.273 -5.23417 272.755 162.026 7.57722 294.086 166.262 33.6731 299.942 180.329 65.8558 247.514 244.839 62.3633 8.80821 10.2288 3.75771 
175.021 168.494 167.237 159.841 159.368 166.563 163.194 154.648 153.493 148.016 200.521 230.274 4.19426 258.283 177.327 -5.18989 272.939 162.155 7.67104 294.227 166.531 33.5887 300.222 180.601 65.7758 247.584 244.913 62.4301 8.89353 10.1656 3.84403 
175.061 168.641 167.229 159.755 159.227 166.734 163.19 154.565 153.261 147.813 200.427 230.442 4.20792 258.698 177.368 -5.03837 273.165 162.279 7.87168 294.25 166.722 33.6268 300.38 180.755 65.9241 247.76 244.998 62.5921 9.01403 9.98969 3.91644 
174.884 168.802 167.369 159.802 159.07 166.865 163.43 154.7 153.172 147.44 200.693 230.724 4.17604 259.055 177.382 -4.80447 273.088 162.261 8.06309 293.846 166.658 33.6782 300.015 180.735 66.058 247.904 245.081 62.7771 9.02255 9.717 4.03165 
174.861 168.948 167.409 159.846 158.974 166.954 163.534 154.72 152.999 147.054 200.991 230.848 4.23434 259.534 177.441 -4.64357 273.244 162.334 8.21112 293.721 166.687 33.6878 299.956 180.737 66.2308 248.185 245.148 62.9515 9.12192 9.49362 4.11773 
174.807 168.994 167.399 159.953 158.871 167.028 163.547 154.788 152.778 146.681 201.263 230.869 4.25435 259.67 177.283 -4.33176 273.322 162.285 8.44744 293.471 166.603 33.7127 299.817 180.603 66.3901 248.433 245.144 63.092 9.20352 9.21133 4.03065 
174.915 169.093 167.466 159.971 158.609 167.1 163.599 154.855 152.561 146.286 201.322 230.811 4.44984 259.639 177.06 -3.9312 273.264 162.158 8.81685 293.232 166.484 33.9088 299.675 180.464 66.6855 248.655 245.093 63.3182 9.2566 9.0176 3.98947 
175.048 169.163 167.595 160.002 158.182 167.256 163.599 155.028 152.295 145.787 201.49 230.839 4.53714 259.405 176.68 -3.63668 272.944 161.795 9.13339 292.358 165.899 34.0803 298.879 179.848 67.0013 248.859 244.937 63.5005 9.22389 8.54089 3.98539 
175.065 168.999 167.612 159.724 157.378 167.348 163.288 154.928 151.869 145.585 201.632 230.735 4.56494 259.359 176.415 -3.36388 272.807 161.53 9.44513 291.834 165.449 34.2976 298.571 179.43 67.1203 249.053 244.757 63.6223 9.19591 8.23632 3.98632 
174.814 169.125 167.849 160.521 158.273 167.89 163.391 155.141 152.496 146.964 201.806 230.73 4.31606 260.234 175.832 -2.49873 273 161.091 10.0735 291.622 164.642 34.486 299.009 178.781 67.3201 249.319 244.413 63.6985 9.51753 7.79376 4.16169 
174.993 169.213 168.199 161.012 159.083 168.221 163.372 154.99 152.913 148.048 201.914 230.91 4.08119 261.045 175.344 -1.53467 273.289 160.822 10.8385 291.675 164.27 34.774 299.709 178.53 67.4856 249.569 244.172 63.7983 9.82593 7.48541 4.34935 
175.569 169.318 168.702 161.604 159.789 168.656 163.366 154.749 153.427 148.807 201.929 231.104 3.98664 261.529 174.936 -0.71295 273.299 160.534 11.4944 291.605 163.854 35.0701 300.125 178.246 67.7022 249.824 243.993 63.9227 10.0252 7.28575 4.59291 
176.177 169.47 169.371 162.251 160.562 169.045 163.457 154.738 154.163 149.693 201.72 231.45 4.02707 261.787 174.517 0.00744534 273.509 160.312 11.9987 292.069 163.656 35.3759 301.008 178.239 67.8104 250.096 243.88 64.0695 10.1819 7.35829 4.5839 
177.003 169.605 170.083 162.803 161.191 169.441 163.569 154.551 154.852 150.386 201.588 231.657 4.03646 261.742 174.105 0.65484 273.222 160.034 12.3974 291.97 163.353 35.4797 301.276 178.047 67.7916 250.173 243.699 64.2231 10.2925 7.37476 4.6652 
176.891 169.766 169.666 162.737 160.902 168.843 163.304 154.923 154.219 149.883 202.047 231.482 4.39128 260.576 173.76 0.649859 272.567 159.645 12.3358 291.125 162.982 35.4625 300.51 177.555 67.6478 250.124 243.53 64.2562 10.1893 7.2585 4.19033 
176.243 169.659 169.088 162.401 160.241 168.231 163.066 155.078 153.602 149.253 202.299 231.007 4.79186 259.362 173.468 0.523641 271.67 159.22 12.203 290.176 162.543 35.5138 299.461 177.018 67.4702 249.898 243.318 64.3068 9.8952 7.25859 3.90153 
