179.331 170.235 164.533 162.797 157.551 164.124 161.894 154.524 144.971 130.943 159.994 285.746 -57.1191 184.008 214.336 -78.8573 175.338 187.36 -63.3665 165.696 182.052 -35.482 165.535 192.759 -5.75659 180.415 260.426 5.6809 8.24181 11.2329 13.7874 
179.283 170.177 164.14 162.411 155.822 164.103 161.701 154.041 144.085 130.305 160.495 286.217 -56.7089 184.06 214.457 -78.3019 175.145 187.531 -62.5226 165.453 182.558 -34.3873 165.832 193.048 -4.7936 181.047 260.604 6.05641 7.94301 11.4463 13.9725 
179.172 170.034 163.7 161.984 154.409 164.108 161.387 153.464 143.323 129.71 161.213 286.529 -56.3798 184.476 214.717 -77.9239 175.235 187.772 -61.8871 165.544 182.999 -33.6923 166.211 193.321 -4.25828 181.757 260.674 6.37811 7.80001 11.5285 14.2261 
179.066 169.934 163.448 161.903 153.982 164.113 161.342 153.131 143.007 129.566 161.858 286.306 -56.0815 185.001 214.87 -77.6181 175.342 187.9 -61.4566 165.638 183.189 -33.3073 166.433 193.378 -4.04488 182.356 260.571 6.6764 7.76885 11.553 14.4989 
179.098 169.848 163.305 162.054 154.13 164.088 161.249 152.901 143.023 129.958 162.499 286.237 -55.7157 185.631 215.144 -77.3276 175.675 188.042 -61.0585 165.97 183.258 -33.0649 166.79 193.247 -3.95481 182.978 260.519 7.01004 7.63707 11.4718 14.6923 
179.127 169.836 163.303 162.319 154.364 164.132 161.247 152.946 143.49 130.171 163.053 285.993 -55.4366 186.002 215.067 -77.0497 175.932 187.944 -60.8164 166.29 183.075 -32.985 166.891 193.279 -3.86155 183.583 260.346 7.31014 7.93717 11.3253 14.6818 
179.075 169.894 163.32 162.437 154.365 163.93 161.3 153.034 143.863 130.11 163.656 285.853 -55.0534 186.245 214.864 -76.6188 176.113 187.812 -60.4034 166.569 183.029 -32.7377 167.034 193.52 -3.61703 184.213 260.246 7.64478 8.25066 11.1861 14.6177 
178.962 169.882 163.379 162.552 154.198 163.625 161.222 153.075 144.129 130.117 164.068 285.672 -54.5806 186.559 214.921 -76.1882 176.438 187.897 -60.0084 167.022 183.153 -32.4863 167.392 193.772 -3.32613 184.867 260.334 8.03818 8.34828 10.9897 14.4819 
178.608 169.818 163.195 162.258 153.786 163.273 161.087 152.87 143.783 129.448 164.542 285.484 -54.1128 186.985 214.939 -75.7702 176.868 187.967 -59.5081 167.487 183.421 -31.9948 167.951 194.142 -2.84996 185.595 260.461 8.36545 8.3732 10.9763 14.4404 
178.416 169.805 163.14 162.092 153.495 163.056 161.025 152.764 143.534 128.963 165.282 285.285 -53.7401 187.259 214.79 -75.2747 177.187 188.016 -58.9745 167.957 183.697 -31.5121 168.523 194.517 -2.41709 186.335 260.609 8.6517 8.3893 10.8759 14.3039 
178.174 169.791 163.076 161.94 153.247 162.846 161.029 152.722 143.4 128.75 166.159 285.254 -53.3431 187.753 214.839 -74.8355 177.657 188.096 -58.4471 168.503 183.901 -31.072 169.051 194.718 -2.01481 187.041 260.769 8.96435 8.36653 10.768 14.2495 
177.87 169.68 162.938 161.794 153.299 162.693 160.826 152.486 143.033 128.538 166.98 285.233 -52.9382 188.282 214.965 -74.354 178.179 188.292 -57.8731 169.14 184.187 -30.5424 169.77 194.863 -1.50943 187.754 260.977 9.30767 8.23684 10.7031 14.2496 
177.895 169.651 163.013 161.906 153.905 162.853 160.786 152.553 143.264 128.818 167.94 285.564 -52.6224 188.719 215.101 -73.9683 178.697 188.449 -57.5291 169.749 184.223 -30.283 170.247 194.849 -1.17584 188.422 261.089 9.67268 8.2621 10.5634 14.1142 
178.032 169.584 163.029 161.873 154.184 163.112 160.7 152.608 143.288 128.792 168.762 285.711 -52.2621 189.254 215.232 -73.6077 179.238 188.655 -57.2815 170.21 184.411 -30.0409 170.576 194.979 -0.822526 189.137 261.106 10.0946 8.34208 10.5521 13.9627 
177.995 169.36 162.839 161.689 154.105 163.098 160.328 152.309 142.982 128.41 169.583 285.556 -51.8348 189.851 215.391 -73.2058 179.816 188.968 -56.9911 170.826 184.73 -29.8463 171.187 195.188 -0.57887 189.951 261.113 10.4686 8.29958 10.4588 13.8321 
177.975 169.03 162.441 161.258 153.911 163.144 159.764 151.808 142.383 127.935 170.544 285.492 -51.5311 190.653 215.579 -72.8764 180.433 189.348 -56.7723 171.259 185.162 -29.6429 171.649 195.436 -0.417255 190.802 261.021 10.8138 8.20663 10.5138 13.7654 
178.026 168.674 162.097 161.033 153.84 163.288 159.192 151.321 141.95 127.245 171.54 285.302 -51.3536 191.447 215.487 -72.559 181.137 189.455 -56.5416 171.939 185.262 -29.4993 172.172 195.578 -0.167685 191.688 260.783 11.1035 8.36766 10.4274 13.6574 
178.06 168.55 161.952 160.876 153.871 163.381 159.043 151.246 141.739 126.901 172.431 284.989 -51.0985 192.245 215.135 -72.26 181.968 189.074 -56.1916 172.523 184.936 -28.9661 172.627 195.366 0.430991 192.462 260.44 11.4086 8.57596 10.6312 13.6345 
178.083 168.449 161.926 160.873 153.423 163.357 158.973 151.402 141.922 126.557 173.08 284.439 -50.6314 192.883 214.656 -71.8572 182.885 188.475 -55.7843 173.382 184.144 -28.3321 173.117 194.914 1.21803 193.066 260.006 11.781 8.99428 10.6841 13.4808 
178.135 168.517 162.091 161.106 153.446 163.437 158.967 151.615 142.344 126.236 174.002 284.031 -50.2779 193.734 214.235 -71.5623 183.909 187.965 -55.5649 174.415 183.323 -28.0168 173.663 194.561 1.8169 193.764 259.548 12.168 9.55696 10.6108 13.3436 
178.324 168.55 162.084 161.07 153.225 163.522 158.975 151.683 142.569 126.015 174.883 283.561 -49.908 194.227 213.492 -71.0173 184.53 187.371 -55.0558 175.276 182.667 -27.5506 174.528 194.135 2.37867 194.564 259.059 12.5726 9.61952 10.4117 13.1748 
178.541 168.746 162.278 161.23 153.498 163.79 159.395 152.093 142.879 126.015 175.658 283.394 -49.6476 194.988 212.615 -70.4873 185.519 186.436 -54.3876 176.263 181.792 -26.6872 175.423 193.509 3.3916 195.44 258.7 12.9856 9.76163 10.4773 13.0788 
178.693 168.778 162.311 161.081 153.101 163.871 159.613 152.333 142.876 125.837 176.295 282.957 -49.1603 195.571 211.498 -69.6651 186.416 185.284 -53.3561 177.252 180.781 -25.3223 176.5 192.64 4.83376 196.243 258.247 13.4954 9.72577 10.5926 12.9951 
178.715 168.459 162.017 160.891 153.165 163.852 159.099 151.777 142.357 125.77 177.274 282.394 -48.7699 196.425 210.889 -68.9105 187.38 184.849 -52.4855 178.556 180.273 -24.385 178.17 191.82 5.73802 197.224 257.911 13.9753 9.15753 10.4475 12.9851 
178.851 168.192 161.709 160.582 153.205 164.021 158.662 151.564 142.593 126.437 178.377 281.479 -48.4984 197.423 210.158 -68.4697 188.453 184.168 -52.1431 179.679 179.279 -24.1798 179.25 190.541 6.01567 198.047 257.025 14.4069 8.80205 10.2515 12.843 
179.005 168.012 161.406 160.025 153.144 164.17 158.444 151.397 142.168 126.328 179.724 280.848 -48.3979 198.513 209.097 -67.8266 189.561 183.156 -51.4996 180.524 178.314 -23.2795 180.042 189.404 6.94646 198.915 256.118 14.8395 8.65535 10.4459 12.7552 
179.282 167.953 161.414 160.073 153.245 164.275 158.466 151.517 142.486 126.865 180.673 280.143 -48.0244 199.436 208.137 -67.0738 190.823 182.114 -50.7295 181.942 177.019 -22.4088 181.352 187.975 8.04725 199.689 255.359 15.4103 8.46949 10.3376 12.5995 
179.317 167.64 161.075 159.575 152.795 164.087 158.028 151.106 142.136 126.886 181.564 279.126 -47.313 199.959 207.377 -66.1645 191.671 181.483 -49.8172 183.138 176.174 -21.4496 182.757 186.792 9.0912 200.433 254.643 16.0848 8.00448 10.1444 12.4024 
179.471 167.349 160.945 159.15 152.347 164.21 157.845 151.051 142.096 127.307 182.731 278.132 -46.8807 200.156 205.928 -65.1086 191.993 180.25 -48.751 183.765 174.981 -20.3609 183.592 185.363 10.1776 201.074 253.686 16.6492 7.62664 9.95092 12.1995 
179.701 167.073 160.939 158.918 152.285 164.249 157.525 150.822 141.982 127.519 184.016 277.853 -46.5187 200.261 204.782 -63.9815 192.289 179.401 -47.6803 184.568 174.061 -19.3249 184.584 184.177 11.3125 201.828 253.015 17.2754 7.19659 9.55694 11.8426 
179.941 166.728 160.844 158.585 152.013 164.384 157.12 150.531 141.95 127.641 185.382 277.105 -46.0327 200.207 203.588 -62.726 192.488 178.56 -46.4215 185.276 173.203 -18.2536 185.283 183.227 12.4295 202.5 252.353 17.9121 6.99128 9.07914 11.4265 
179.827 166.385 160.942 158.569 151.769 164.34 156.682 150.479 142.34 128.041 186.368 276.551 -45.3718 200.259 202.698 -61.4939 192.99 177.723 -45.251 186.25 172.162 -17.2218 186.013 182.051 13.8238 203.03 251.801 18.5951 7.01672 8.63765 10.9805 
179.884 166.004 161.013 158.606 151.608 164.272 156.316 150.394 142.605 128.279 187.423 275.957 -44.8036 200.782 201.743 -60.4835 193.825 176.717 -44.249 187.457 170.999 -16.3538 186.994 180.841 14.9761 203.578 251.188 19.1766 7.03212 8.28141 10.7317 
179.748 165.53 160.873 158.339 151.688 164.697 155.961 150.212 142.324 128.121 188.754 275.672 -44.8326 201.858 200.628 -59.9116 194.769 175.496 -43.6177 188.169 169.837 -15.6743 187.424 179.675 15.7217 204.122 250.28 19.4996 7.123 8.33516 10.7617 
179.504 165.211 160.824 158.184 151.813 165.086 155.683 150.051 142.118 127.988 190.008 275.527 -44.7896 202.669 199.748 -59.3442 195.558 174.534 -43.029 188.773 168.85 -15.0285 187.718 178.708 16.4055 204.593 249.484 19.8139 7.28585 8.38205 10.7079 
179.207 165.223 161.078 158.111 151.845 165.174 155.605 150.185 142.22 127.536 191.038 275.14 -44.5216 203.174 198.917 -58.7292 196.3 173.676 -42.3586 189.651 168.062 -14.2646 188.364 178.279 17.2314 205.258 249.011 20.0899 7.56576 8.32675 10.5462 
178.993 165.142 161.238 157.961 151.877 165.368 155.407 150.088 141.91 126.908 192.148 274.867 -44.3286 203.729 198.235 -58.1806 196.958 173.077 -41.733 190.372 167.654 -13.5622 189.002 178.162 17.8098 206.001 248.647 20.3791 7.66405 8.31198 10.4489 
178.878 165.033 161.271 157.953 152.054 165.552 155.351 150.024 141.657 126.554 193.448 274.658 -44.4586 204.793 197.631 -58.0828 197.737 172.469 -41.5791 190.89 167.244 -13.4064 189.337 177.97 17.7842 206.717 248.182 20.3781 7.79225 8.41839 10.5849 
178.5 164.801 161.079 157.644 152.372 165.998 155.179 149.743 140.814 124.775 196.079 274.208 -44.6097 207.169 196.756 -58.0783 199.421 171.498 -41.5132 191.822 166.496 -13.2711 189.836 177.635 17.8328 208.057 247.098 20.4365 8.26869 8.79083 10.9535 
178.407 164.782 160.96 157.599 152.225 165.931 155.1 149.541 140.475 123.835 197.01 274.215 -44.6026 207.929 196.791 -58.0996 199.826 171.491 -41.4135 191.995 166.613 -13.1771 189.996 178.001 17.8752 208.655 246.96 20.4957 8.43117 8.91569 11.1884 
178.375 164.967 161.09 157.737 152.501 165.913 155.162 149.547 140.342 123.276 197.828 274.166 -44.4932 208.609 196.713 -58.0012 200.378 171.455 -41.2695 192.467 166.709 -13.0373 190.522 178.301 17.9779 209.427 246.864 20.6577 8.56176 8.97708 11.2643 
178.392 165.094 161.218 157.91 152.546 165.933 155.281 149.536 140.162 122.748 198.667 274.13 -44.3747 209.374 196.61 -57.9689 200.978 171.443 -41.2163 192.98 166.809 -12.977 191.003 178.596 18.0409 210.194 246.782 20.7848 8.77934 9.04 11.3373 
178.301 165.328 161.458 158.104 152.336 165.935 155.486 149.762 140.317 122.707 199.379 274.081 -44.3001 209.909 196.567 -58.049 201.39 171.454 -41.3763 193.241 166.871 -13.1545 191.127 178.818 17.8804 210.759 246.697 20.8315 9.00533 9.07867 11.2992 
178.378 165.508 161.51 158.108 152.081 165.966 155.742 149.906 140.256 122.42 200.065 274.125 -44.2035 210.717 196.605 -58.2246 201.951 171.456 -41.6093 193.412 166.9 -13.2832 191.093 179.018 17.7438 211.214 246.503 20.9236 9.34378 9.32702 11.4125 
178.347 165.663 161.527 158.137 151.877 166.084 155.977 150.063 140.199 122.108 200.652 274.102 -44.2293 211.363 196.518 -58.3875 202.363 171.36 -41.7988 193.508 166.903 -13.3405 191.153 179.135 17.6847 211.726 246.319 20.9389 9.53518 9.5601 11.509 
178.154 165.834 161.649 158.223 151.51 166.339 156.266 150.435 140.586 122.519 201.101 273.845 -44.3212 211.874 196.219 -58.5367 202.772 171.044 -42.0179 193.687 166.602 -13.4978 191.27 178.892 17.5185 212.163 246.006 20.9198 9.61715 9.68902 11.5017 
178.15 165.982 161.734 158.297 151.32 166.352 156.41 150.641 140.853 123.061 201.477 273.697 -44.2737 212.131 196.19 -58.6062 203.076 170.99 -42.124 193.956 166.466 -13.5181 191.565 178.551 17.587 212.599 245.867 20.9949 9.493 9.70661 11.4119 
178.332 165.99 161.719 158.274 151.442 166.403 156.356 150.643 140.871 123.531 201.732 273.441 -44.3117 212.267 195.99 -58.6396 203.242 170.91 -42.2198 194.162 166.338 -13.5387 191.888 178.239 17.5244 213.027 245.657 21.017 9.35068 9.72475 11.3275 
178.459 165.97 161.729 158.224 151.358 166.248 156.392 150.724 141.031 124.088 201.832 273.101 -44.2581 212.195 195.733 -58.612 203.395 170.763 -42.2653 194.522 166.108 -13.5679 192.417 177.798 17.464 213.404 245.458 20.9645 9.17335 9.65758 11.1593 
178.466 166.044 161.817 158.245 151.261 166.081 156.469 150.809 141.144 124.4 201.85 272.76 -44.1456 212.161 195.5 -58.4582 203.588 170.682 -42.1876 194.932 166.007 -13.525 192.994 177.574 17.4327 213.714 245.353 21.0189 8.97629 9.54498 10.9778 
178.521 166.079 161.863 158.163 151.183 166.001 156.497 150.833 141.148 124.694 201.87 272.374 -44.1001 212.085 195.249 -58.374 203.673 170.564 -42.1523 195.16 165.886 -13.5197 193.346 177.326 17.3134 213.943 245.174 21.0205 8.82075 9.47852 10.8436 
178.537 166.202 161.987 158.146 151.069 165.975 156.626 150.996 141.305 125.083 202.013 272.144 -44.0987 211.922 195.03 -58.371 203.613 170.432 -42.2199 195.214 165.756 -13.6241 193.52 177.077 17.1095 214.11 244.994 20.9855 8.65403 9.40152 10.7115 
178.654 166.314 162.099 158.119 150.906 165.831 156.728 151.101 141.452 125.366 202.125 271.77 -44.048 211.642 194.805 -58.3814 203.485 170.263 -42.2638 195.272 165.53 -13.6958 193.681 176.736 16.9932 214.214 244.777 20.9553 8.49471 9.27955 10.5699 
178.851 166.363 162.081 158.05 150.892 165.659 156.697 151.016 141.39 125.591 202.277 271.527 -43.9769 211.531 194.786 -58.4777 203.407 170.246 -42.3824 195.256 165.424 -13.8604 193.712 176.434 16.7717 214.26 244.587 20.9412 8.32261 9.2065 10.5128 
179.015 166.447 162.109 158.129 151.019 165.585 156.72 151.062 141.588 125.991 202.437 271.36 -44.0098 211.449 194.812 -58.6971 203.381 170.221 -42.666 195.251 165.259 -14.232 193.669 176.119 16.412 214.296 244.404 20.8363 8.23539 9.1254 10.431 
179.169 166.557 162.136 158.2 151.266 165.47 156.718 151.079 141.734 126.151 202.713 271.262 -44.0143 211.497 194.952 -58.9168 203.405 170.322 -42.9486 195.264 165.263 -14.595 193.626 176.044 16.0836 214.402 244.328 20.7682 8.17394 9.04314 10.3746 
179.309 166.604 162.107 158.284 151.623 165.475 156.724 151.076 141.769 126.234 203.014 271.248 -44.0583 211.598 195.079 -59.1088 203.387 170.375 -43.159 195.134 165.263 -14.8301 193.469 175.99 15.8485 214.513 244.246 20.7215 8.13902 9.0582 10.402 
179.379 166.701 162.153 158.368 151.957 165.524 156.858 151.165 141.845 126.352 203.32 271.148 -44.0929 211.835 195.103 -59.2909 203.428 170.282 -43.3249 194.995 165.179 -14.9998 193.303 175.885 15.6414 214.624 244.123 20.6648 8.13437 9.13819 10.5149 
179.552 166.574 161.912 158.151 152.024 165.436 156.651 150.85 141.442 126.083 203.544 270.837 -44.1049 212.168 195.244 -59.5773 203.532 170.373 -43.6026 194.902 165.261 -15.2992 193.247 175.813 15.2993 214.758 243.923 20.559 8.03872 9.23144 10.6523 
179.741 166.367 161.592 157.892 151.904 165.355 156.38 150.465 141.036 126.092 203.828 270.583 -44.1342 212.348 195.339 -59.8303 203.452 170.455 -43.8614 194.65 165.294 -15.5708 193.078 175.56 14.9455 214.853 243.63 20.4858 7.82098 9.29546 10.7636 
179.937 166.335 161.428 157.82 152.042 165.197 156.255 150.245 140.86 126.356 204.02 270.284 -44.1771 212.32 195.359 -60.1025 203.26 170.474 -44.163 194.377 165.229 -15.8893 192.884 175.201 14.5999 214.943 243.299 20.3877 7.6221 9.30033 10.792 
179.866 166.172 161.162 157.713 152.303 165.022 156.013 149.898 140.465 126.268 203.997 270.024 -44.1298 212.337 195.451 -60.2011 203.135 170.564 -44.2383 194.193 165.303 -15.9537 192.862 175.034 14.5149 215.08 243.111 20.3878 7.43526 9.34942 10.8711 
179.647 166.041 160.85 157.547 152.501 164.94 155.833 149.59 140.083 126.262 203.924 269.848 -44.0976 212.386 195.537 -60.4078 203.055 170.552 -44.3884 193.969 165.259 -16.024 192.775 174.727 14.4356 215.21 242.841 20.3397 7.31836 9.50688 11.0051 
179.523 166.065 160.725 157.5 152.807 164.914 155.759 149.442 139.822 126.247 203.779 269.596 -44.0732 212.265 195.458 -60.5117 202.842 170.454 -44.4471 193.683 165.216 -15.9415 192.624 174.536 14.5093 215.359 242.601 20.3194 7.27836 9.64597 11.0671 
179.434 166.118 160.67 157.522 152.98 164.923 155.735 149.433 139.76 126.453 203.672 269.264 -44.0799 211.914 195.263 -60.589 202.482 170.29 -44.4962 193.327 165.11 -15.8467 192.431 174.307 14.593 215.491 242.377 20.2724 7.20558 9.73296 11.0377 
179.316 166.096 160.5 157.473 153.278 164.936 155.654 149.271 139.44 126.508 203.581 268.868 -44.0801 211.755 195.076 -60.6656 202.152 170.16 -44.5461 192.876 165.098 -15.7966 192.171 174.085 14.5523 215.618 242.088 20.2207 7.06849 9.88037 11.0994 
179.253 166.322 160.543 157.659 153.78 164.96 155.866 149.296 139.133 126.332 203.6 268.624 -44.1723 211.744 194.777 -60.7524 201.949 169.947 -44.5555 192.512 165.158 -15.6165 192.123 174.044 14.6381 215.901 241.901 20.1323 6.9394 10.1291 11.21 
179.281 166.648 160.739 157.822 154.032 164.99 156.114 149.428 138.924 126.242 203.622 268.185 -44.2078 211.451 194.345 -60.7169 201.613 169.718 -44.4743 192.179 165.225 -15.3663 192.138 174.034 14.7254 216.186 241.701 20.0934 6.76763 10.2685 11.1731 
179.3 166.884 160.926 157.956 154.16 164.886 156.258 149.474 138.61 125.825 203.703 267.66 -44.1859 211.219 193.899 -60.5977 201.365 169.552 -44.3547 192.043 165.365 -15.1362 192.376 174.13 14.8239 216.568 241.534 20.0479 6.59047 10.3255 11.0938 
179.253 166.878 160.885 157.999 154.351 164.842 156.229 149.311 138.196 125.173 203.967 267.075 -44.2828 211.193 193.51 -60.5721 201.198 169.487 -44.329 191.965 165.534 -15.1114 192.581 174.313 14.7683 216.97 241.324 19.9492 6.49416 10.3224 11.0807 
179.147 166.986 160.908 158.075 154.332 164.761 156.408 149.275 137.829 124.457 204.373 266.908 -44.4291 211.61 193.361 -60.7119 201.42 169.503 -44.4089 192.101 165.788 -15.0788 192.944 174.648 14.7567 217.468 241.315 19.8224 6.43385 10.4539 11.1713 
179.078 167.133 161.032 158.191 154.301 164.733 156.733 149.498 137.908 124.128 204.755 266.812 -44.5868 211.951 193.21 -60.9638 201.669 169.404 -44.6357 192.312 165.805 -15.2098 193.229 174.826 14.6896 217.904 241.309 19.6557 6.51655 10.5222 11.2067 
178.958 167.182 160.991 158.06 154.165 164.686 156.918 149.513 137.611 123.606 205.034 266.792 -44.8065 212.342 193.155 -61.2923 201.859 169.428 -44.9177 192.399 166.03 -15.3476 193.495 175.098 14.5355 218.296 241.334 19.4242 6.49091 10.6848 11.3366 
178.795 167.101 160.858 157.982 153.985 164.601 156.894 149.409 137.451 123.29 205.256 266.826 -45.0409 212.668 193.267 -61.6478 202.068 169.602 -45.2914 192.567 166.244 -15.6914 193.797 175.307 14.2083 218.661 241.39 19.1798 6.42892 10.736 11.3959 
178.718 167.183 160.845 157.944 153.885 164.596 157.053 149.511 137.445 123.117 205.362 266.846 -45.2686 212.727 193.318 -61.9871 202.044 169.742 -45.6764 192.497 166.478 -16.0194 193.876 175.591 13.8526 218.909 241.433 18.9463 6.42074 10.8154 11.412 
178.628 167.31 160.916 158.095 154.091 164.609 157.254 149.644 137.356 122.871 205.263 266.989 -45.4864 212.88 193.501 -62.3229 202.054 169.981 -46.0467 192.346 166.901 -16.265 193.909 176.067 13.5264 219.171 241.6 18.7355 6.42316 11.0152 11.4864 
178.44 167.44 160.988 158.319 154.238 164.625 157.539 149.833 137.381 122.893 205.291 267.351 -45.6793 213.23 193.849 -62.7783 202.107 170.268 -46.5009 192.048 167.36 -16.5647 193.725 176.51 13.1426 219.419 241.78 18.537 6.43765 11.3142 11.6636 
178.181 167.556 161.06 158.548 154.317 164.729 157.823 150.12 137.549 123.196 205.027 267.9 -45.92 213.488 194.324 -63.4016 202.015 170.615 -47.2078 191.424 167.871 -17.0581 193.127 176.951 12.6434 219.532 241.948 18.3027 6.52729 11.7197 11.8219 
178.008 167.972 161.525 159.177 154.677 164.836 158.454 150.818 138.287 123.802 204.942 268.549 -46.045 213.682 194.814 -64.0214 201.907 170.893 -47.9538 190.777 168.298 -17.6604 192.384 177.478 12.0758 219.653 242.158 18.12 6.77016 12.0575 11.9049 
177.784 168.428 161.928 159.717 155.249 164.945 159.144 151.444 138.733 124.139 205.096 269.194 -46.1418 214.135 195.418 -64.71 201.983 171.258 -48.7477 190.076 168.92 -18.1579 191.675 178.264 11.4207 219.841 242.391 17.9245 7.06015 12.6679 12.1004 
177.693 168.756 162.126 160.145 155.377 165.018 159.544 151.741 138.828 124.18 205.214 269.637 -46.172 214.694 196.247 -65.3434 202.092 171.939 -49.4774 189.441 169.831 -18.6093 191.063 179.32 10.703 220.103 242.669 17.75 7.34482 13.2622 12.3349 
177.37 169.061 162.35 160.465 155.313 165.028 160.008 152.194 139.157 124.814 205.362 269.771 -46.0818 215.032 196.847 -65.7592 202.069 172.398 -49.8853 188.774 170.593 -18.6105 190.587 180.2 10.3771 220.462 242.98 17.6523 7.60038 13.9315 12.6032 
176.865 169.218 162.363 160.626 155.097 164.902 160.352 152.402 139.272 125.377 205.649 269.676 -46.0125 215.533 197.383 -66.1973 202.079 172.846 -50.2684 188.208 171.29 -18.643 190.243 180.835 9.92897 220.837 243.152 17.4928 7.68509 14.5386 12.9678 
176.477 169.479 162.615 160.611 154.788 164.865 160.74 152.753 139.65 125.981 206.028 269.645 -46.0241 215.518 197.659 -66.5703 201.814 173.097 -50.5855 187.746 171.722 -18.7941 189.985 181.275 9.46046 221.111 243.206 17.3136 7.80117 14.8282 13.1589 
176.328 169.612 162.721 160.469 154.272 164.903 160.931 152.907 139.665 126.086 206.251 269.441 -46.0013 215.344 197.808 -66.8126 201.445 173.331 -50.7475 187.328 172.2 -18.809 189.817 181.78 9.09792 221.373 243.177 17.1577 7.9425 15.0598 13.3114 
176.157 169.681 162.791 160.24 153.368 164.809 161.047 152.974 139.486 125.707 206.211 269.133 -45.9864 215.094 197.887 -67.1159 201.026 173.511 -50.9834 186.928 172.646 -18.8366 189.629 182.354 8.86866 221.585 243.098 16.9429 8.22048 15.2834 13.4452 
176 169.806 162.975 160.113 152.448 164.753 161.223 153.148 139.67 125.467 206.087 268.898 -45.9494 214.616 197.855 -67.3076 200.46 173.606 -51.1293 186.576 172.859 -18.9741 189.413 182.778 8.67153 221.69 242.978 16.8184 8.51151 15.2367 13.4804 
176.11 169.993 163.255 160.091 151.634 164.865 161.501 153.442 139.873 125.135 206.041 268.632 -45.957 214.134 197.616 -67.4056 200.001 173.491 -51.1898 186.333 172.899 -18.9901 189.293 183.133 8.63152 221.801 242.789 16.7521 8.8684 15.1995 13.4459 
176.134 170.209 163.406 160.051 150.829 164.964 161.87 153.719 139.987 124.393 206.19 268.308 -46.0421 213.844 197.157 -67.5637 199.587 173.127 -51.2379 186.069 172.778 -18.9468 189.105 183.53 8.63551 221.925 242.445 16.5951 9.46084 15.2501 13.5443 
176.28 170.332 163.433 159.835 150.074 165.11 162.063 153.779 139.651 123.718 206.296 268.057 -46.2008 213.554 196.671 -67.6408 199.216 172.758 -51.1717 185.772 172.731 -18.6536 189.058 183.687 8.77008 222.041 242.084 16.4552 9.69624 15.4403 13.6364 
