166.655 161.661 164.229 166.506 164.385 174.725 160.413 162.969 164.449 160.323 177.969 245.52 27.1786 207.017 162.251 10.472 217.298 132.012 26.3228 219.809 121.226 57.7627 220.271 126.746 96.4971 206.095 215.218 93.7803 10.818 8.06884 9.1144 
167.756 162.322 164.624 166.244 163.991 174.956 159.878 163.073 164.063 160.06 176.82 245.313 26.8822 205.173 161.697 10.2822 217.026 131.902 26.1632 219.565 121.241 57.8671 219.962 126.651 96.309 206.068 215.201 93.7326 10.5809 8.17858 9.3224 
168.445 162.874 164.982 165.953 163.663 175.365 159.488 163.137 163.67 159.759 175.693 245.431 26.6149 203.587 161.339 10.0205 216.782 131.916 25.9706 219.354 121.366 57.8978 219.781 126.669 96.0915 206.054 215.253 93.6892 10.3886 8.26957 9.65085 
168.745 163.28 165.348 165.81 163.49 175.782 159.318 163.28 163.476 159.66 174.621 245.546 26.4442 202.179 160.981 9.82609 216.443 131.848 25.8255 219.065 121.365 57.9601 219.569 126.607 95.9469 206.014 215.264 93.6862 10.2217 8.36638 9.97068 
168.689 163.673 165.684 165.76 163.359 176.194 159.327 163.468 163.39 159.585 173.69 245.84 26.2117 201.07 160.65 9.59774 216.184 131.763 25.6768 218.792 121.333 57.9711 219.349 126.545 95.8253 205.898 215.281 93.6512 10.1006 8.43784 10.2538 
168.742 164.014 165.905 165.743 163.213 176.703 159.381 163.563 163.25 159.423 172.793 245.918 25.9979 200.195 160.308 9.42145 215.97 131.662 25.5952 218.542 121.304 57.9892 219.228 126.558 95.7181 205.779 215.296 93.6312 9.98067 8.46893 10.4727 
168.432 164.232 166.074 165.741 163.097 177.075 159.427 163.614 163.138 159.256 172.292 246.265 25.6648 199.713 160.063 9.20931 215.896 131.612 25.4312 218.368 121.278 57.8855 219.097 126.588 95.5037 205.713 215.326 93.5216 9.86014 8.48975 10.5892 
168.287 164.407 166.172 165.712 163.015 177.384 159.431 163.608 163.022 159.151 171.906 246.486 25.4447 199.265 159.823 9.12305 215.722 131.551 25.2939 218.147 121.187 57.8114 218.898 126.532 95.329 205.633 215.302 93.4635 9.74967 8.52805 10.6284 
168.21 164.661 166.218 165.662 162.95 177.587 159.498 163.572 162.88 159.052 171.5 246.728 25.3091 198.959 159.727 9.05808 215.531 131.583 25.158 217.9 121.185 57.7047 218.684 126.572 95.1461 205.571 215.35 93.3985 9.6614 8.54994 10.6124 
168.131 164.81 166.269 165.617 162.919 177.603 159.571 163.558 162.775 158.97 171.238 246.876 25.1658 198.816 159.594 9.0619 215.397 131.552 25.0619 217.737 121.13 57.6265 218.551 126.542 95.0187 205.486 215.333 93.3113 9.60902 8.57024 10.5307 
168.113 164.884 166.27 165.567 162.832 177.632 159.618 163.517 162.632 158.799 170.826 246.86 25.1628 198.636 159.461 9.17237 215.188 131.518 25.0475 217.549 121.119 57.6082 218.486 126.59 95.0047 205.398 215.316 93.2468 9.61586 8.57505 10.4158 
168.003 165.107 166.281 165.491 162.818 177.627 159.744 163.473 162.494 158.716 170.512 246.92 25.1629 198.48 159.422 9.21296 214.975 131.548 25.0272 217.395 121.216 57.5429 218.533 126.723 94.9915 205.32 215.39 93.1597 9.67403 8.54065 10.3138 
167.948 165.271 166.234 165.422 162.838 177.655 159.725 163.396 162.421 158.821 170.296 247.082 25.1269 198.172 159.426 9.21889 214.674 131.599 24.9421 217.227 121.278 57.3826 218.664 126.788 94.8719 205.22 215.457 93.0547 9.72694 8.49833 10.2545 
167.728 165.394 166.17 165.362 162.855 177.413 159.761 163.283 162.235 158.697 170.11 247.362 25.1651 198.022 159.47 9.32814 214.39 131.653 25.0701 217.053 121.387 57.4426 218.789 126.972 94.936 205.145 215.561 93.0355 9.76286 8.46453 10.1666 
167.444 165.499 166.025 165.291 162.833 177.198 159.723 163.153 162.084 158.578 170.076 247.795 25.1325 197.835 159.548 9.43609 214.149 131.765 25.1751 216.911 121.534 57.4868 218.837 127.181 94.9514 205.086 215.69 92.9542 9.77336 8.44488 10.1124 
167.093 165.433 165.897 165.275 162.946 176.823 159.612 163.021 162.065 158.728 170.253 248.391 24.9256 197.646 159.606 9.46779 213.939 131.876 25.194 216.868 121.65 57.4157 219.026 127.291 94.8049 204.994 215.82 92.7887 9.76018 8.4093 10.0619 
166.799 165.309 165.812 165.27 163.055 176.497 159.545 162.943 162.051 158.854 170.353 249 24.8542 197.533 159.726 9.56811 213.73 132.029 25.2562 216.822 121.875 57.3738 219.206 127.471 94.7031 204.946 215.987 92.7023 9.76854 8.34307 9.97458 
166.751 165.094 165.659 165.209 163.165 176.294 159.385 162.843 162.081 159.171 170.237 249.398 24.7404 197.259 159.916 9.54609 213.504 132.21 25.1777 216.763 122.077 57.1817 219.375 127.566 94.5344 204.833 216.144 92.5683 9.83767 8.27644 9.98166 
167.024 165.175 165.539 165.188 163.306 176.386 159.355 162.774 162.114 159.448 169.835 249.299 24.625 197.177 159.983 9.45091 213.449 132.284 25.1114 216.795 122.141 57.0637 219.538 127.628 94.445 204.748 216.259 92.4102 9.88518 8.25433 9.99638 
167.263 165.235 165.393 165.142 163.361 176.499 159.194 162.722 162.217 159.791 169.608 249.101 24.4319 196.988 159.951 9.35345 213.392 132.314 24.9377 216.757 122.075 56.8499 219.464 127.525 94.2179 204.587 216.261 92.2303 9.86316 8.25287 10.0241 
168.258 165.359 165.204 165.185 163.621 176.853 159.109 162.727 162.429 160.437 168.512 248.515 24.3198 196.471 160.019 9.16706 213.069 132.46 24.618 216.611 122.074 56.4908 219.483 127.535 93.8098 204.292 216.441 91.9157 9.82402 8.27516 10.0487 
169.513 165.408 165.113 165.276 163.783 177.268 159.114 162.834 162.676 160.946 167.19 247.542 24.5128 195.98 159.91 9.10218 212.739 132.43 24.416 216.437 121.944 56.2748 219.416 127.491 93.6674 204.062 216.519 91.8037 9.83901 8.28933 10.0545 
169.883 165.266 165.067 165.375 163.833 177.137 158.98 162.908 162.819 161.185 166.609 247.041 24.561 195.543 160.028 8.94894 212.553 132.473 24.2016 216.391 121.868 56.0921 219.363 127.509 93.4996 203.827 216.659 91.662 9.78845 8.34155 10.1882 
169.899 165.013 164.957 165.345 163.817 177.067 158.742 162.761 162.743 161.239 165.986 246.515 24.5693 195.164 159.932 8.83046 212.272 132.388 24.0971 216.307 121.735 55.9284 219.413 127.467 93.3141 203.614 216.691 91.4849 9.75512 8.33027 10.2327 
169.991 164.628 164.899 165.352 163.851 176.901 158.596 162.71 162.71 161.219 165.287 246.151 24.6111 194.928 159.938 8.66536 212.083 132.355 24.0271 216.31 121.708 55.8172 219.549 127.545 93.2058 203.399 216.803 91.2983 9.75377 8.31936 10.2732 
170.227 164.24 164.837 165.327 163.856 176.824 158.427 162.632 162.685 161.226 164.893 245.652 24.5338 194.676 159.86 8.47062 211.955 132.223 23.959 216.35 121.57 55.7636 219.644 127.512 93.1723 203.197 216.842 91.1019 9.76267 8.34153 10.3801 
170.366 163.736 164.78 165.24 163.803 176.746 158.152 162.552 162.588 161.124 164.622 245.271 24.3343 194.391 159.768 8.2498 211.775 132.03 23.8229 216.231 121.35 55.6656 219.474 127.374 93.0875 202.973 216.806 90.8485 9.7539 8.37364 10.499 
170.747 163.421 164.804 165.177 163.842 176.954 157.932 162.479 162.491 161.08 164.291 244.787 24.1752 194.133 159.777 7.97946 211.651 131.935 23.5661 216.163 121.22 55.4638 219.369 127.289 92.8887 202.778 216.808 90.607 9.73902 8.41171 10.61 
171.038 163.08 164.839 165.07 163.824 177.204 157.758 162.41 162.363 160.954 164.147 244.223 23.7948 194.142 159.701 7.64 211.73 131.81 23.2357 216.278 121.117 55.139 219.411 127.229 92.5665 202.626 216.768 90.3134 9.71331 8.39691 10.6532 
171.056 162.602 164.84 164.858 163.796 177.402 157.496 162.25 162.158 160.836 164.047 243.897 23.3175 194.116 159.642 7.22021 211.679 131.678 22.8192 216.277 120.975 54.7326 219.424 127.101 92.0994 202.442 216.62 89.9429 9.67543 8.40249 10.6678 
170.864 162.121 164.868 164.637 163.759 177.66 157.305 162.043 161.936 160.79 164.288 243.737 22.7401 194.414 159.566 6.88586 211.803 131.554 22.4191 216.46 120.772 54.349 219.583 126.909 91.5136 202.288 216.397 89.6164 9.52053 8.43662 10.5667 
170.608 161.581 164.864 164.428 163.684 177.606 157.068 161.815 161.744 160.76 164.533 243.941 22.1296 194.525 159.622 6.60705 211.697 131.529 22.0272 216.452 120.663 53.9239 219.519 126.77 90.8784 202.053 216.214 89.272 9.35517 8.45415 10.4556 
170.596 161.165 164.857 164.313 163.695 177.466 156.818 161.593 161.616 160.805 164.86 244.106 21.5933 194.43 159.669 6.42953 211.419 131.446 21.7326 216.329 120.51 53.6216 219.337 126.638 90.3154 201.784 216.036 88.9585 9.1542 8.49321 10.3827 
170.72 161.023 164.885 164.268 163.721 177.224 156.681 161.415 161.494 160.85 164.975 244.328 21.3474 194.116 159.8 6.28432 210.897 131.428 21.5423 215.909 120.445 53.4276 218.961 126.638 89.959 201.519 216.008 88.7345 9.03276 8.5213 10.3305 
171.136 160.979 164.889 164.245 163.778 177.116 156.491 161.221 161.39 161.015 165.08 244.24 21.1165 193.848 159.932 6.15179 210.548 131.443 21.3399 215.802 120.418 53.2302 218.973 126.683 89.5369 201.342 216.028 88.5031 8.88123 8.56963 10.3164 
171.84 161.02 164.838 164.139 163.837 176.954 156.166 160.951 161.24 161.216 164.868 243.923 20.9937 193.276 159.993 6.06967 210.073 131.448 21.1995 215.644 120.399 53.0982 219.012 126.686 89.2111 201.144 216.027 88.2984 8.78701 8.62966 10.3694 
172.811 161.089 164.812 164.136 163.738 176.767 155.584 160.56 161.124 161.504 164.464 244.044 20.5604 192.088 160.112 5.844 208.926 131.474 20.7475 214.787 120.348 52.5709 218.274 126.709 88.4142 200.653 216.098 87.8213 8.58124 8.65433 10.4055 
173.894 161.679 164.869 164.282 163.676 176.555 155.479 160.453 161.11 161.625 163.946 243.877 20.7653 191.303 160.16 5.87058 208.184 131.521 20.7493 214.113 120.456 52.4305 217.904 126.902 88.3349 200.516 216.215 87.7047 8.68977 8.57057 10.458 
174.636 161.995 164.892 164.449 163.869 176.079 155.375 160.414 161.235 161.886 163.855 243.851 20.8877 190.788 160.286 5.82822 207.814 131.644 20.7478 213.982 120.657 52.2715 218.076 127.138 88.2266 200.449 216.381 87.6282 8.80361 8.4963 10.5598 
175.253 162.385 164.907 164.571 164.029 175.719 155.295 160.385 161.337 162.201 163.492 243.656 21.0361 190.214 160.428 5.84251 207.494 131.796 20.6914 213.889 120.864 52.1028 218.187 127.354 88.0978 200.362 216.595 87.5731 8.86873 8.45002 10.67 
175.694 162.972 164.977 164.572 164.069 175.28 155.335 160.451 161.368 162.523 163.156 243.004 21.1774 189.856 160.506 5.794 207.326 131.877 20.5396 213.795 120.981 51.9237 218.175 127.467 87.9299 200.252 216.755 87.4828 8.89145 8.43037 10.743 
175.098 163.612 165.055 164.586 164.097 174.771 155.435 160.49 161.37 162.799 163.089 242.457 21.2257 189.694 160.587 5.65016 207.159 131.955 20.3637 213.537 121.075 51.704 218.012 127.589 87.7121 200.173 216.949 87.3531 8.89821 8.37706 10.7439 
174.602 164.141 165.173 164.579 164.117 174.374 155.552 160.602 161.378 162.959 162.825 242.171 21.4039 189.577 160.796 5.55552 207.08 132.133 20.2571 213.381 121.256 51.6144 217.947 127.771 87.622 200.147 217.223 87.3203 8.89688 8.36178 10.7656 
174.082 164.607 165.276 164.49 164.067 174.117 155.616 160.66 161.294 162.975 162.837 242.065 21.3785 189.491 160.888 5.54647 207.089 132.279 20.2318 213.339 121.423 51.5994 217.979 127.977 87.5857 200.102 217.48 87.2622 8.88425 8.3445 10.7653 
173.681 164.836 165.312 164.411 164.051 173.893 155.611 160.645 161.172 162.897 162.764 241.973 21.4211 189.467 160.912 5.58977 207.187 132.37 20.3198 213.391 121.557 51.6776 218.193 128.157 87.6459 200.093 217.699 87.2192 8.90062 8.31253 10.767 
173.367 164.876 165.363 164.304 164.012 173.737 155.606 160.676 161.064 162.848 162.608 241.953 21.4526 189.235 160.997 5.6292 207.104 132.479 20.3417 213.323 121.729 51.7087 218.317 128.356 87.6268 200.039 217.932 87.1632 8.9013 8.29394 10.7883 
173.402 164.839 165.35 164.093 163.879 173.824 155.511 160.582 160.855 162.717 162.398 241.992 21.4094 189.182 161.082 5.64541 207.087 132.606 20.3238 213.267 121.923 51.6375 218.351 128.545 87.4762 200.009 218.117 87.0608 8.859 8.23244 10.7478 
173.678 164.644 165.305 163.974 163.851 173.997 155.33 160.495 160.74 162.664 162.273 242.049 21.1379 189.252 161.109 5.55339 207.287 132.683 20.1924 213.424 122.076 51.4276 218.568 128.678 87.2187 199.983 218.278 86.8781 8.83235 8.1493 10.7463 
173.87 164.321 165.214 163.908 163.801 174.122 155.162 160.384 160.637 162.459 162.09 242.035 20.9277 189.197 161.172 5.50675 207.263 132.774 20.1498 213.366 122.22 51.3013 218.569 128.849 87.0583 199.926 218.406 86.6919 8.81585 8.0809 10.7266 
174.231 163.866 165.131 163.847 163.718 174.268 155.081 160.285 160.5 162.135 161.838 242.004 20.8597 189.235 161.271 5.46944 207.292 132.862 20.2352 213.341 122.368 51.2878 218.657 129.065 87.0807 199.945 218.521 86.5676 8.87102 8.00479 10.7379 
174.733 163.297 165.108 163.91 163.771 174.396 155.179 160.303 160.53 161.921 161.568 241.871 20.6942 189.328 161.367 5.3681 207.302 132.942 20.2881 213.384 122.483 51.2623 218.805 129.28 87.0961 199.881 218.615 86.4033 8.93701 7.96217 10.7086 
175.579 162.762 165.12 163.899 163.81 174.651 155.301 160.284 160.511 161.844 161.174 241.621 20.4785 189.182 161.412 5.23468 207.098 132.886 20.2859 213.249 122.391 51.2218 218.874 129.33 87.0373 199.702 218.612 86.2036 8.98012 7.96625 10.7209 
176.505 162.313 165.085 163.801 163.811 174.964 155.354 160.177 160.41 161.739 160.634 241.296 20.2878 188.949 161.457 5.08515 206.805 132.77 20.2575 213.004 122.205 51.1556 218.769 129.253 86.9567 199.469 218.508 86.0142 9.01127 7.97663 10.7757 
177.565 161.883 165.067 163.642 163.822 175.287 155.426 160.084 160.28 161.789 160.125 240.919 19.9501 188.657 161.473 4.82627 206.441 132.566 20.0744 212.648 121.911 50.9601 218.603 129.09 86.6702 199.151 218.348 85.7312 9.00122 7.99668 10.8342 
178.567 161.296 165.038 163.649 164.002 175.455 155.557 159.999 160.336 161.99 159.681 240.404 19.6566 188.512 161.495 4.4816 206.158 132.43 19.785 212.637 121.655 50.5832 218.932 128.951 86.248 198.866 218.15 85.4028 9.08892 8.02224 10.8271 
179.487 160.561 165.144 163.74 164.254 175.579 155.776 159.929 160.459 162.308 159.316 239.899 19.511 188.006 161.646 4.08289 205.34 132.326 19.3889 212.276 121.456 50.0338 218.925 128.825 85.6888 198.53 217.959 85.0676 9.1838 8.03104 10.7877 
179.924 159.373 165.217 163.935 164.403 175.46 156.187 159.756 160.62 162.504 159.047 239.505 19.2509 187.868 161.997 3.34785 204.628 132.44 18.8298 212.216 121.433 49.3232 219.317 128.899 84.9992 198.226 217.888 84.6185 9.33533 8.09792 10.6762 
179.714 158.871 165.044 164.09 164.364 175.513 156.308 159.248 160.63 162.303 158.838 239.058 18.8511 188.261 162.534 2.63921 204.383 132.83 18.2814 212.641 121.712 48.5318 219.906 129.22 84.121 198.1 217.878 84.1495 9.3419 8.13939 10.5338 
179.362 158.436 164.676 164.245 164.286 175.486 156.131 158.683 160.573 161.915 158.528 238.792 18.4931 188.238 163.11 2.20745 203.924 133.462 17.7522 212.998 122.337 47.5848 220.483 129.748 83.0814 197.974 217.98 83.6582 9.36124 8.11146 10.3198 
179.039 157.877 164.47 164.447 164.362 175.438 156.286 158.316 160.544 161.43 158.224 239.043 18.0716 188.375 163.841 1.7585 203.686 134.144 17.2965 213.318 123.088 46.7768 220.719 130.385 82.2211 197.858 218.194 83.2377 9.27946 8.05124 10.2213 
179.112 157.189 164.357 164.416 164.262 175.177 156.391 158.085 160.291 160.619 157.646 239.553 17.9102 188.189 164.487 1.72535 203.602 134.927 17.0262 213.618 124.057 46.3063 220.827 131.205 81.8051 197.754 218.552 82.966 9.23506 7.99282 10.1127 
179.009 156.496 164.193 164.599 164.387 175.132 156.478 157.909 160.255 160.109 157.112 239.911 17.7894 187.809 165.03 1.86417 203.147 135.646 16.8245 213.718 124.977 45.7685 220.774 131.969 81.212 197.589 218.904 82.7114 9.12964 7.92153 9.87665 
178.897 155.927 164.153 164.819 164.625 175.059 156.507 157.83 160.238 159.666 156.604 240.147 17.7345 187.276 165.465 2.15665 202.58 136.307 16.5691 213.703 125.918 45.1384 220.654 132.709 80.5123 197.418 219.239 82.4538 9.03047 7.81849 9.53416 
179.074 155.898 164.214 164.984 164.76 174.957 156.368 157.946 160.223 159.368 156.066 240.7 17.6604 186.478 165.807 2.45226 201.965 136.812 16.2682 213.247 126.617 44.694 220.123 133.181 80.0817 197.161 219.522 82.2583 8.99244 7.72163 9.28173 
179.432 156.087 164.253 165.018 164.811 174.821 156.025 158.015 160.143 159.186 155.451 240.645 17.7037 185.481 165.92 2.89477 201.164 137.121 16.0301 212.472 127.128 44.2984 219.298 133.463 79.7043 196.831 219.695 82.0815 8.9615 7.56944 8.99059 
179.549 156.381 164.315 164.956 164.804 174.735 155.423 158.103 160.089 159.203 154.817 240.54 17.7056 184.481 166.018 3.33033 200.562 137.324 15.748 211.808 127.425 43.9645 218.539 133.551 79.3818 196.439 219.798 81.9312 8.9247 7.47898 8.83352 
179.782 156.928 164.424 164.885 164.84 174.72 154.724 158.24 160.012 159.244 153.905 240.533 17.8719 183.294 166.089 3.7789 199.877 137.501 15.4941 211.006 127.71 43.7056 217.729 133.608 79.175 196.019 219.942 81.8207 8.95089 7.38414 8.77037 
179.92 157.565 164.572 164.8 164.871 174.772 154.108 158.461 160.031 159.436 152.844 240.226 18.1481 182.102 165.899 4.29838 199.237 137.435 15.3399 210.288 127.785 43.5349 217.092 133.545 79.0334 195.643 219.999 81.7353 8.9719 7.28327 8.76814 
179.77 158.294 164.635 164.709 164.777 174.862 153.577 158.594 159.916 159.333 151.768 240.092 18.483 181.184 165.766 4.81068 198.821 137.446 15.3694 209.869 127.946 43.5341 216.803 133.649 79.0682 195.384 220.126 81.6873 9.03104 7.20586 8.81831 
179.862 158.799 164.548 164.542 164.673 175.113 152.984 158.648 159.869 159.436 150.86 240.004 18.5817 180.42 165.703 5.15603 198.473 137.447 15.2854 209.487 128.009 43.3753 216.518 133.609 78.9295 195.146 220.16 81.5616 9.0781 7.13047 8.91812 
179.346 159.205 164.449 164.378 164.623 175.386 152.5 158.692 159.909 159.595 149.932 239.673 18.6886 179.789 165.651 5.40529 198.236 137.434 15.1791 209.326 128.007 43.2143 216.383 133.555 78.752 194.885 220.151 81.4366 9.07705 7.12349 9.05062 
178.703 159.693 164.418 164.317 164.589 175.544 152.33 158.814 160.017 159.707 148.898 239.339 18.9432 179.214 165.457 5.59756 198.09 137.331 15.1677 209.38 127.932 43.1901 216.499 133.511 78.674 194.603 220.096 81.359 9.05081 7.1668 9.18241 
177.561 160.095 164.501 164.441 164.689 175.913 152.361 159.051 160.25 159.855 147.955 238.89 19.124 178.847 165.221 5.76508 198.058 137.2 15.1632 209.608 127.851 43.1268 216.795 133.527 78.5665 194.345 220.048 81.2784 9.01576 7.19807 9.23268 
176.466 160.448 164.629 164.605 164.934 176.35 152.374 159.282 160.542 160.103 147.028 238.345 19.3348 178.512 165.163 5.83734 198.031 137.132 15.0849 209.906 127.784 42.9737 217.069 133.542 78.3903 194.129 220.06 81.1703 8.95163 7.25985 9.32329 
175.626 160.928 164.723 164.731 165.098 176.657 152.539 159.44 160.739 160.238 146.148 237.743 19.718 178.189 165.008 5.91425 197.931 137.059 15.1042 210.149 127.736 42.9371 217.347 133.605 78.3295 193.95 220.059 81.1212 8.90813 7.32981 9.34394 
175.057 161.404 164.728 164.762 165.131 176.862 152.711 159.506 160.883 160.316 145.301 237.261 20.0554 177.893 164.908 5.86744 197.841 137.037 15.0999 210.459 127.751 42.9266 217.654 133.725 78.2941 193.753 220.074 81.0178 8.88023 7.45578 9.38578 
174.727 161.71 164.614 164.679 165.144 176.933 152.876 159.516 160.915 160.344 144.474 236.704 20.333 177.594 164.761 5.75363 197.762 137.006 15.0366 210.65 127.779 42.8446 217.869 133.799 78.2075 193.474 220.025 80.9026 8.88875 7.52414 9.4359 
174.49 162.03 164.595 164.715 165.286 176.984 153.124 159.556 160.967 160.269 143.856 236.124 20.5024 177.503 164.689 5.57448 197.843 137.084 14.8723 211.037 127.886 42.6853 218.195 133.981 78.0747 193.254 220.042 80.7575 8.88164 7.62532 9.41897 
174.341 162.433 164.675 164.968 165.652 177.139 153.232 159.722 161.351 160.577 143.127 235.239 20.4348 177.25 164.807 5.14124 197.759 137.206 14.2408 211.457 127.906 42.0661 218.359 133.968 77.5495 192.811 219.986 80.4428 8.84004 7.85035 9.42133 
174.617 162.487 164.608 164.999 165.756 176.877 153.204 159.594 161.396 160.632 142.983 234.765 20.4847 177.167 164.967 4.84733 197.739 137.334 13.8651 211.779 127.917 41.7666 218.554 133.945 77.2957 192.674 219.914 80.345 8.82992 8.06123 9.453 
174.844 162.402 164.528 165.133 166.001 176.746 153.024 159.526 161.598 160.85 142.928 234.392 20.4836 177.012 165.235 4.68472 197.663 137.505 13.5151 212.057 127.933 41.4494 218.584 133.921 76.9947 192.504 219.874 80.2616 8.75811 8.28367 9.52546 
175.099 162.383 164.547 165.2 166.169 176.615 152.94 159.549 161.716 160.989 142.875 234.184 20.4439 176.89 165.457 4.46347 197.627 137.641 13.1599 212.165 127.971 41.1729 218.492 133.909 76.7793 192.365 219.87 80.1715 8.73493 8.41621 9.60441 
175.316 162.281 164.507 165.278 166.283 176.498 152.766 159.509 161.84 161.188 142.855 234.067 20.4399 176.833 165.617 4.41623 197.637 137.74 12.9696 212.413 127.952 41.0417 218.616 133.829 76.6767 192.276 219.831 80.1805 8.72161 8.59088 9.66008 
175.627 162.186 164.42 165.256 166.327 176.304 152.516 159.407 161.843 161.294 142.889 233.899 20.3254 176.738 165.729 4.39249 197.688 137.845 12.763 212.566 127.96 40.9121 218.606 133.764 76.5964 192.143 219.799 80.1666 8.71582 8.70936 9.74247 
175.892 162.06 164.304 165.184 166.325 176.178 152.245 159.255 161.803 161.388 142.956 233.887 20.2806 176.697 165.877 4.40413 197.76 137.961 12.6665 212.7 127.972 40.9113 218.642 133.696 76.6469 192.1 219.793 80.2147 8.74448 8.82381 9.83973 
176.153 162.007 164.215 165.132 166.333 176.013 152.105 159.149 161.809 161.51 143.023 233.824 20.3519 176.498 165.909 4.49345 197.726 138.027 12.6642 212.739 127.977 40.9836 218.655 133.642 76.7602 192.075 219.785 80.2883 8.78374 8.91325 9.94946 
176.414 162.089 164.158 165.087 166.316 175.849 152.075 159.065 161.792 161.579 143.081 233.707 20.4881 176.298 165.834 4.68322 197.689 138.034 12.7856 212.744 127.968 41.1624 218.643 133.627 76.9461 192.024 219.771 80.4287 8.79441 8.96732 10.0379 
176.677 162.209 164.132 165.074 166.294 175.672 152.091 158.995 161.753 161.575 143.101 233.583 20.6759 176.134 165.757 4.90113 197.697 138.08 12.9515 212.818 128.03 41.3864 218.738 133.715 77.192 192.025 219.823 80.577 8.82153 9.01622 10.1025 
176.963 162.293 164.155 165.064 166.255 175.493 152.167 158.972 161.73 161.585 143.093 233.389 20.9217 176.032 165.638 5.12466 197.738 138.079 13.1693 212.849 128.048 41.6806 218.79 133.759 77.5346 192.039 219.864 80.7567 8.86825 9.03175 10.1412 
177.241 162.4 164.223 165.047 166.18 175.332 152.353 158.999 161.687 161.515 143.048 233.088 21.2383 176.041 165.361 5.38355 197.833 137.968 13.4704 212.897 127.998 42.0495 218.885 133.771 77.9251 192.099 219.846 80.9579 8.9024 9.01117 10.1185 
