179.838 171.15 169.454 166.671 168.063 173.444 167.436 162.784 163.555 159.25 98.8986 141.789 -59.9314 155.493 102.093 -81.0528 182.397 96.7743 -74.2308 204.546 111.565 -66.2337 219.616 138.445 -45.3665 152.041 184.634 -30.5545 11.034 7.50375 4.83339 
179.856 171.238 169.623 166.803 168.157 173.425 167.651 163.024 163.645 159.451 98.9602 141.978 -59.8654 155.748 102.293 -81.1434 182.815 96.9886 -74.3802 204.838 111.793 -66.2628 219.855 138.721 -45.4319 152.119 184.764 -30.4226 11.0309 7.37711 4.90358 
179.832 171.301 169.765 166.92 168.199 173.451 167.804 163.212 163.727 159.61 98.9875 142.245 -59.8975 155.97 102.524 -81.261 183.188 97.2409 -74.5603 205.106 112.046 -66.3416 220.08 138.993 -45.4967 152.214 184.914 -30.3122 11.0374 7.28745 4.96059 
179.879 171.306 169.884 167.036 168.261 173.398 167.85 163.33 163.81 159.769 99.1 142.454 -59.9265 156.151 102.689 -81.2695 183.453 97.4149 -74.6617 205.319 112.219 -66.4037 220.228 139.136 -45.5416 152.328 185.013 -30.2115 10.9985 7.2558 4.96109 
179.922 171.325 169.98 167.151 168.297 173.326 167.948 163.431 163.863 159.847 99.2074 142.562 -59.8454 156.371 102.868 -81.3261 183.756 97.6187 -74.7593 205.578 112.415 -66.4125 220.37 139.27 -45.517 152.44 185.083 -30.0915 10.9183 7.21019 4.98895 
179.972 171.412 170.147 167.29 168.355 173.115 168.141 163.592 163.886 159.868 99.7204 142.909 -59.7152 157.03 103.392 -81.5717 184.49 98.1055 -74.949 206.102 112.844 -66.473 220.717 139.604 -45.5823 152.856 185.312 -29.8433 10.8035 7.07029 5.05695 
179.822 171.43 170.18 167.383 168.425 172.983 168.121 163.498 163.845 159.795 99.9521 142.99 -59.5245 157.174 103.652 -81.7145 184.613 98.263 -74.9184 206.254 112.968 -66.4399 220.811 139.652 -45.5065 153.079 185.426 -29.6772 10.7454 7.10067 5.1351 
179.742 171.414 170.155 167.456 168.4 172.879 168.147 163.436 163.845 159.779 100.239 143.007 -59.3655 157.324 103.837 -81.8471 184.719 98.3958 -74.9674 206.429 113.074 -66.4647 220.986 139.686 -45.4616 153.315 185.485 -29.5213 10.7384 7.1497 5.16011 
179.735 171.45 170.209 167.554 168.473 172.861 168.168 163.453 163.863 159.757 100.585 143.144 -59.1535 157.563 104.081 -81.8901 184.947 98.6046 -75.0251 206.659 113.241 -66.4743 221.237 139.783 -45.4037 153.665 185.622 -29.3386 10.7362 7.14121 5.1577 
179.637 171.419 170.174 167.471 168.392 172.818 168.076 163.356 163.778 159.671 101.001 143.08 -58.9952 157.997 104.23 -81.9146 185.336 98.7889 -75.0591 207.004 113.456 -66.495 221.604 139.951 -45.3293 154.054 185.703 -29.1538 10.7742 7.16577 5.12603 
179.564 171.318 170.092 167.311 168.283 172.759 167.914 163.249 163.665 159.567 101.53 142.965 -58.8004 158.35 104.302 -81.6332 185.588 98.8995 -74.956 207.214 113.537 -66.3733 221.882 140.014 -45.2181 154.436 185.7 -28.9515 10.8532 7.16776 4.97773 
179.455 171.313 170.075 167.178 168.178 172.611 167.921 163.231 163.631 159.429 102.111 142.901 -58.6655 158.79 104.392 -81.448 185.876 99.0186 -74.8788 207.405 113.661 -66.265 222.096 140.131 -45.0686 154.761 185.689 -28.7278 10.948 7.1738 4.82204 
179.431 171.288 170.136 167.084 168.166 172.566 167.934 163.34 163.641 159.462 102.551 142.809 -58.4062 159.033 104.348 -81.0252 186.077 99.0386 -74.778 207.496 113.668 -66.1012 222.263 140.158 -44.926 155.044 185.637 -28.4297 11.0486 7.12015 4.64409 
179.406 171.23 170.106 166.982 168.024 172.511 167.905 163.468 163.622 159.409 103.043 142.746 -58.2549 159.42 104.356 -80.7442 186.48 99.1795 -74.8534 207.726 113.805 -66.0468 222.578 140.406 -44.8661 155.327 185.6 -28.1864 11.2337 7.01553 4.49279 
179.398 171.2 170.142 166.794 167.937 172.519 167.933 163.648 163.601 159.421 103.394 142.716 -58.0139 159.659 104.214 -80.2828 186.781 99.1229 -74.7086 207.833 113.746 -65.8305 222.822 140.508 -44.7108 155.568 185.529 -27.8729 11.4139 6.88011 4.40482 
179.44 171.259 170.165 166.555 167.835 172.566 168.038 163.811 163.543 159.399 103.719 142.748 -57.8217 160.032 103.982 -79.8177 187.204 98.9968 -74.4626 208.038 113.647 -65.5808 223.155 140.577 -44.5461 155.838 185.398 -27.5635 11.5806 6.7504 4.35186 
179.486 171.362 170.237 166.327 167.717 172.639 168.217 164.004 163.474 159.36 103.859 142.76 -57.6984 160.312 103.686 -79.549 187.514 98.7279 -74.2714 208.172 113.376 -65.3088 223.389 140.45 -44.3607 156.062 185.212 -27.3211 11.6922 6.60014 4.34234 
179.574 171.413 170.21 166.107 167.539 172.719 168.348 164.14 163.377 159.25 103.974 142.705 -57.5267 160.633 103.431 -79.2612 187.868 98.5484 -74.1134 208.34 113.197 -65.1347 223.715 140.448 -44.2412 156.246 184.991 -27.0713 11.8761 6.46423 4.31838 
179.651 171.439 170.198 165.924 167.395 172.69 168.473 164.202 163.308 159.303 104.08 142.594 -57.3014 160.851 103.117 -78.8743 188.107 98.2771 -73.8027 208.473 112.937 -64.9255 224.001 140.315 -44.1522 156.408 184.715 -26.8104 12.0217 6.40905 4.30799 
179.704 171.443 170.129 165.668 167.21 172.682 168.524 164.16 163.13 159.237 104.082 142.371 -57.1647 161.024 102.784 -78.6276 188.282 97.9888 -73.5845 208.533 112.625 -64.7765 224.244 140.136 -44.0982 156.527 184.404 -26.6503 12.1943 6.33593 4.3034 
179.786 171.367 169.98 165.372 166.981 172.691 168.389 163.935 162.872 159.067 103.983 142.12 -56.9045 161.016 102.602 -78.4289 188.301 97.7707 -73.2948 208.574 112.364 -64.5397 224.419 139.87 -43.9032 156.629 184.158 -26.5113 12.2693 6.33813 4.35948 
179.811 171.287 169.893 165.257 166.902 172.641 168.225 163.723 162.694 159.004 104.022 141.925 -56.5389 160.8 102.438 -78.0893 188.088 97.5181 -72.9056 208.47 112.031 -64.2518 224.463 139.492 -43.7094 156.731 183.956 -26.3166 12.2947 6.37331 4.39636 
179.809 171.194 169.784 165.134 166.784 172.572 168.12 163.602 162.595 158.9 104.046 142.014 -56.5042 160.63 102.438 -77.9176 187.852 97.4123 -72.7173 208.237 111.819 -64.1459 224.346 139.306 -43.682 156.702 183.852 -26.2077 12.3637 6.36242 4.36721 
179.803 171.127 169.666 164.942 166.693 172.502 168.052 163.476 162.478 158.817 104.025 142.153 -56.477 160.451 102.509 -77.8079 187.555 97.3446 -72.5129 207.924 111.621 -64.0047 224.159 139.117 -43.633 156.643 183.787 -26.0881 12.4181 6.32301 4.33827 
179.763 171.087 169.528 164.773 166.6 172.46 167.948 163.277 162.321 158.649 103.925 142.36 -56.5087 160.327 102.635 -77.7787 187.288 97.3466 -72.3103 207.665 111.523 -63.8654 223.963 139.022 -43.5965 156.577 183.781 -26.0109 12.437 6.30408 4.33165 
179.775 171.034 169.443 164.755 166.549 172.473 167.849 163.153 162.296 158.595 103.741 142.523 -56.4324 160.094 102.773 -77.62 186.998 97.4405 -72.1525 207.463 111.557 -63.8135 223.833 139.067 -43.5847 156.49 183.838 -25.9268 12.4667 6.34871 4.31287 
179.841 170.986 169.376 164.866 166.521 172.525 167.799 163.071 162.389 158.557 103.422 142.697 -56.3555 159.803 102.967 -77.5573 186.677 97.5893 -72.0293 207.331 111.702 -63.8119 223.679 139.178 -43.5362 156.324 183.915 -25.8043 12.421 6.47692 4.34041 
179.979 170.957 169.432 165.158 166.704 172.687 167.752 163.09 162.635 158.683 102.968 142.904 -56.2671 159.412 103.24 -77.5141 186.406 97.8988 -72.0273 207.32 112.067 -63.9007 223.571 139.454 -43.4635 156.093 184.091 -25.6988 12.3249 6.65592 4.41423 
179.836 170.955 169.47 165.519 166.977 172.923 167.694 163.128 162.942 158.89 102.36 143.198 -56.2964 159.014 103.609 -77.6232 186.152 98.3313 -72.1987 207.347 112.577 -64.1613 223.492 139.866 -43.476 155.796 184.332 -25.6586 12.2464 6.86863 4.49031 
179.765 170.9 169.448 165.913 167.239 173.065 167.551 163.036 163.161 158.972 101.838 143.529 -56.4616 158.639 104.023 -77.8875 185.801 98.8266 -72.4943 207.339 113.167 -64.5451 223.367 140.35 -43.6683 155.523 184.645 -25.7667 12.1648 7.12265 4.51237 
179.716 170.891 169.417 166.31 167.408 173.187 167.438 162.93 163.382 158.992 101.29 143.972 -56.7015 158.355 104.509 -78.3173 185.592 99.4568 -72.9865 207.492 113.92 -65.0781 223.307 140.93 -43.9287 155.303 185.098 -25.9898 11.9879 7.38682 4.54959 
179.705 170.921 169.334 166.569 167.482 173.287 167.445 162.776 163.495 159.033 100.618 144.241 -56.9178 158.077 104.947 -78.9156 185.293 99.9496 -73.431 207.492 114.482 -65.5824 223.098 141.272 -44.2681 155.022 185.448 -26.3032 11.7505 7.60001 4.61228 
179.629 170.934 169.227 166.825 167.521 173.446 167.318 162.515 163.55 159.023 99.8085 144.608 -57.1143 157.711 105.493 -79.6279 184.938 100.464 -73.8045 207.476 115.045 -66.0236 222.882 141.607 -44.5248 154.721 185.897 -26.64 11.5029 7.83136 4.77684 
179.55 170.963 169.22 167.2 167.675 173.586 167.267 162.364 163.718 159.088 99.0407 145.135 -57.2336 157.03 106.092 -80.2614 184.283 100.943 -74.1697 207.276 115.557 -66.4764 222.537 141.889 -44.7892 154.406 186.383 -26.953 11.2951 8.12427 4.93977 
179.513 171.094 169.135 167.462 167.914 173.742 167.276 162.118 163.757 159.134 98.4493 145.791 -57.5834 156.551 106.764 -81.1405 183.599 101.412 -74.5711 206.976 116.021 -66.9335 222.146 142.169 -45.1336 154.119 186.922 -27.3339 11.1281 8.36435 5.07191 
179.431 171.222 169.095 167.745 168.015 173.889 167.282 162.022 163.867 159.22 97.9719 146.583 -57.9547 156.18 107.684 -82.1132 183.128 102.162 -75.2059 206.8 116.745 -67.4652 221.923 142.749 -45.4953 153.925 187.581 -27.6918 11.0966 8.53754 5.20371 
179.247 171.388 169.067 167.917 168.015 174.094 167.421 161.99 163.923 159.237 97.5562 147.42 -58.4726 155.963 108.664 -83.2132 182.773 102.932 -75.8949 206.599 117.451 -67.9519 221.67 143.337 -45.8333 153.746 188.253 -28.0616 11.0742 8.60533 5.35531 
179.072 171.608 168.959 167.969 167.931 174.372 167.609 161.982 163.854 159.164 97.0858 148.052 -58.7807 155.974 109.697 -84.479 182.773 103.758 -76.67 206.627 118.181 -68.3762 221.647 143.994 -46.0398 153.616 188.938 -28.3935 11.0693 8.5293 5.63297 
179.006 171.719 168.875 168.086 167.904 174.53 167.743 162.001 163.857 159.2 96.7433 148.581 -58.8316 155.854 110.601 -85.3551 182.685 104.5 -77.2468 206.621 118.867 -68.7585 221.563 144.585 -46.2861 153.48 189.584 -28.6376 10.9831 8.50558 5.85046 
178.953 171.703 168.862 168.283 167.957 174.599 167.772 162.052 163.956 159.347 96.4843 148.986 -58.6158 155.504 111.503 -85.9149 182.429 105.368 -77.7906 206.514 119.731 -69.2149 221.448 145.368 -46.6628 153.322 190.308 -28.8282 10.9293 8.53907 5.95825 
178.956 171.605 168.885 168.476 167.99 174.609 167.705 162.188 164.148 159.455 96.3625 149.677 -58.4553 155.108 112.54 -86.3273 182.248 106.441 -78.4769 206.495 120.759 -69.7321 221.417 146.278 -46.9931 153.266 191.158 -28.9566 10.8825 8.55917 5.95588 
178.936 171.458 168.873 168.592 168.051 174.614 167.542 162.211 164.318 159.644 96.226 150.542 -58.2685 154.672 113.508 -86.3275 182.004 107.495 -78.7913 206.486 121.883 -70.0669 221.474 147.349 -47.1941 153.22 192.085 -28.9853 10.9417 8.72014 5.91098 
178.84 171.293 168.741 168.586 168.022 174.727 167.33 162.079 164.377 159.789 95.9675 151.337 -58.0622 154.31 114.409 -86.3821 181.868 108.463 -78.9701 206.633 122.949 -70.2945 221.7 148.344 -47.252 153.197 192.895 -28.9584 11.0438 8.94598 5.98597 
178.836 171.054 168.629 168.52 168.01 174.773 167.101 162.041 164.426 159.988 95.7856 151.9 -57.813 153.892 115.015 -86.1504 181.701 109.203 -79.0581 206.68 123.754 -70.3976 221.812 149.092 -47.2649 153.123 193.539 -28.9057 11.0816 9.08446 5.98278 
178.971 170.664 168.395 168.294 167.908 174.772 166.696 161.856 164.32 160.05 95.624 152.355 -57.5979 153.3 115.337 -85.7492 181.243 109.638 -79.0266 206.422 124.187 -70.4128 221.702 149.438 -47.2623 153.057 194.069 -28.9153 11.0978 9.19869 5.89724 
179.177 170.275 168.152 168.089 167.928 174.674 166.248 161.609 164.194 160.069 95.5436 152.759 -57.2587 152.622 115.649 -85.1845 180.608 110.046 -78.8614 206.061 124.634 -70.4005 221.555 149.846 -47.3186 152.984 194.624 -28.8852 11.1608 9.37974 5.7747 
179.449 169.92 167.896 167.81 167.789 174.551 165.746 161.22 163.946 159.937 95.4759 153.011 -56.8191 152.042 115.898 -84.6321 179.96 110.352 -78.481 205.623 124.985 -70.2285 221.306 150.154 -47.298 152.919 195.152 -28.8348 11.176 9.53521 5.68617 
179.742 169.531 167.55 167.505 167.76 174.448 165.128 160.66 163.645 159.872 95.2446 153.442 -55.8809 151.014 116.423 -83.6512 178.797 110.902 -77.4315 204.73 125.606 -69.5505 220.758 150.804 -46.8927 152.579 196.103 -28.504 11.2863 9.76134 5.67115 
179.972 169.357 167.43 167.203 167.705 174.323 164.844 160.432 163.403 159.733 95.367 153.388 -55.5628 150.705 116.379 -83.1175 178.357 110.906 -76.9354 204.238 125.606 -69.2129 220.482 150.893 -46.7468 152.47 196.374 -28.4172 11.3773 9.73299 5.57839 
179.826 169.331 167.438 167.119 167.699 174.179 164.768 160.367 163.305 159.682 95.33 153.545 -55.2163 150.308 116.496 -82.755 177.909 111.023 -76.601 203.762 125.679 -68.9878 220.147 151.049 -46.6246 152.263 196.685 -28.2193 11.4192 9.68518 5.54767 
179.715 169.377 167.584 167.143 167.868 174.077 164.793 160.519 163.304 159.802 95.2933 153.825 -54.8957 149.792 116.698 -82.4759 177.468 111.218 -76.5188 203.267 125.752 -68.8332 219.791 151.133 -46.5101 152.073 197.015 -27.9889 11.4331 9.55324 5.52737 
179.585 169.453 167.756 167.213 168.045 173.96 164.938 160.728 163.35 159.935 95.16 154.102 -54.5154 149.263 116.868 -82.3117 177 111.386 -76.5423 202.763 125.806 -68.747 219.388 151.161 -46.4049 151.825 197.326 -27.7266 11.3832 9.41225 5.50714 
179.466 169.451 167.871 167.331 168.123 173.821 165.024 160.87 163.441 160.033 94.9227 154.31 -54.0389 148.798 117.006 -82.0954 176.599 111.561 -76.5668 202.43 125.909 -68.7229 219.1 151.205 -46.3011 151.608 197.559 -27.4539 11.317 9.37001 5.47094 
179.387 169.434 167.986 167.422 168.158 173.758 165.062 160.974 163.464 160.03 94.6092 154.442 -53.6256 148.502 117.194 -81.992 176.359 111.796 -76.6155 202.226 126.085 -68.6251 218.869 151.284 -46.0751 151.412 197.779 -27.1834 11.2112 9.30325 5.45932 
179.369 169.4 168.055 167.444 168.119 173.73 165.051 160.987 163.393 159.886 94.3629 154.749 -53.3451 148.367 117.481 -81.8251 176.181 112.102 -76.5433 202.056 126.327 -68.4132 218.621 151.393 -45.7919 151.291 198.046 -26.8934 11.0657 9.24179 5.39949 
179.353 169.283 168.13 167.481 168.063 173.714 164.892 160.96 163.297 159.645 94.1852 155.245 -53.1075 148.251 117.827 -81.4728 175.995 112.476 -76.4265 201.892 126.624 -68.1796 218.379 151.552 -45.487 151.251 198.39 -26.573 10.9266 9.2015 5.26927 
179.351 169.188 168.157 167.503 168.017 173.759 164.765 160.918 163.252 159.491 94.1068 155.721 -52.9575 148.038 118.169 -81.1581 175.718 112.781 -76.2222 201.704 126.881 -67.9308 218.183 151.706 -45.1778 151.228 198.723 -26.2663 10.8542 9.23038 5.19815 
179.321 169.131 168.141 167.519 168.002 173.757 164.679 160.859 163.251 159.39 94.087 155.984 -52.8018 147.766 118.373 -80.7734 175.337 112.934 -75.878 201.407 126.974 -67.62 217.922 151.723 -44.8457 151.177 198.911 -25.9567 10.8214 9.27898 5.125 
179.328 169.21 168.151 167.571 167.957 173.834 164.808 160.818 163.286 159.197 93.8942 156.21 -52.4579 147.672 118.68 -80.5904 175.236 113.219 -75.565 201.376 127.254 -67.3104 217.854 151.961 -44.3801 151.084 199.105 -25.5547 10.8254 9.33656 5.17067 
179.366 169.443 168.189 167.649 167.947 173.897 165.155 160.8 163.334 158.993 93.7701 156.406 -52.1725 147.764 118.998 -80.6066 175.229 113.445 -75.2219 201.412 127.504 -66.9863 217.849 152.203 -43.8766 150.99 199.213 -25.1416 10.8738 9.40726 5.241 
179.398 169.844 168.444 167.9 168.106 173.9 165.704 161.125 163.579 159.027 93.6032 156.874 -51.8154 147.914 119.601 -80.8079 175.377 113.954 -75.2117 201.46 127.977 -66.802 217.806 152.653 -43.4524 150.861 199.477 -24.5989 10.8886 9.32036 5.3257 
179.436 170.094 168.58 168.032 168.232 173.896 166.142 161.319 163.708 159.147 93.227 157.275 -51.2565 147.842 120.129 -80.8876 175.378 114.385 -75.0586 201.458 128.384 -66.5076 217.743 153.002 -43.0215 150.664 199.706 -24.0184 10.8641 9.27219 5.48756 
179.457 170.296 168.731 168.203 168.389 173.845 166.481 161.547 163.838 159.29 92.8701 157.813 -50.6394 147.646 120.67 -80.6861 175.249 114.828 -74.7796 201.281 128.765 -66.096 217.499 153.299 -42.5341 150.423 199.992 -23.3475 10.7916 9.18678 5.57982 
179.388 170.363 168.819 168.356 168.567 173.673 166.581 161.664 163.918 159.46 92.7003 158.505 -49.984 147.292 121.319 -80.2892 174.875 115.343 -74.4314 200.921 129.201 -65.7215 217.214 153.685 -42.1811 150.208 200.43 -22.6887 10.7865 9.14278 5.58118 
179.259 170.362 168.822 168.403 168.689 173.526 166.586 161.715 163.919 159.607 92.5019 158.886 -49.2809 147.003 121.872 -79.9275 174.54 115.799 -74.0664 200.521 129.601 -65.3419 216.926 154.108 -41.8557 149.96 200.812 -22.0634 10.8195 9.04545 5.59466 
179.208 170.451 168.987 168.473 168.869 173.413 166.828 162.044 164.094 159.887 92.2022 159.306 -48.5045 146.641 122.214 -79.3823 174.152 116.098 -73.6569 199.975 129.826 -64.9046 216.482 154.333 -41.448 149.651 201.121 -21.3483 10.8001 8.87827 5.54638 
179.187 170.542 169.121 168.535 169.032 173.369 167.033 162.244 164.192 160.037 91.894 159.775 -47.97 146.355 122.711 -79.1912 173.845 116.479 -73.3891 199.553 130.097 -64.501 216.129 154.552 -40.9668 149.402 201.409 -20.6715 10.8018 8.7416 5.59531 
179.174 170.555 169.17 168.577 169.164 173.408 167.162 162.334 164.241 160.139 91.4021 160.153 -47.444 145.968 123.161 -79.1153 173.586 116.802 -73.1881 199.313 130.318 -64.101 215.922 154.649 -40.3731 149.157 201.614 -20.0716 10.7978 8.68338 5.75015 
179.18 170.665 169.208 168.731 169.301 173.472 167.402 162.464 164.391 160.269 90.9361 160.461 -46.8966 145.72 123.631 -79.1644 173.505 117.14 -73.0435 199.336 130.641 -63.7701 215.867 154.826 -39.7965 148.938 201.779 -19.4545 10.7319 8.69845 5.96888 
179.191 170.699 169.191 168.854 169.378 173.619 167.542 162.505 164.435 160.349 90.4053 160.651 -46.1505 145.361 123.992 -79.0908 173.319 117.341 -72.7631 199.246 130.752 -63.343 215.773 154.818 -39.2438 148.761 201.883 -18.8678 10.6718 8.67201 6.21132 
179.249 170.765 169.169 168.993 169.464 173.748 167.712 162.559 164.497 160.44 89.9678 160.711 -45.6013 145.146 124.255 -79.019 173.175 117.533 -72.5379 199.098 130.873 -62.9944 215.59 154.854 -38.7764 148.51 201.901 -18.2914 10.6298 8.62355 6.34699 
179.312 170.82 169.178 169.139 169.486 173.807 167.897 162.657 164.611 160.565 89.6537 160.834 -45.3023 145.072 124.462 -79.0296 173.106 117.685 -72.4366 199.051 130.978 -62.782 215.452 154.828 -38.4119 148.329 201.838 -17.785 10.5539 8.62571 6.41419 
179.318 170.834 169.143 169.225 169.485 173.788 167.966 162.654 164.673 160.602 89.3395 161.054 -44.9715 144.935 124.539 -78.8359 172.916 117.681 -72.1241 198.905 130.919 -62.4707 215.226 154.599 -37.9671 148.186 201.741 -17.2496 10.4338 8.65359 6.45318 
179.282 170.8 169.064 169.28 169.462 173.728 167.898 162.485 164.633 160.507 89.1476 161.49 -44.8455 144.77 124.723 -78.6482 172.5 117.677 -71.7337 198.61 130.8 -62.1426 214.936 154.338 -37.5643 148.095 201.712 -16.7881 10.3839 8.74055 6.43342 
179.296 170.709 168.969 169.357 169.402 173.686 167.779 162.301 164.629 160.341 89.0452 161.743 -44.6183 144.625 124.778 -78.2429 172.153 117.654 -71.2487 198.473 130.774 -61.7572 214.759 154.193 -37.0672 148.061 201.695 -16.3227 10.3409 8.92553 6.36588 
179.243 170.69 168.933 169.448 169.384 173.547 167.699 162.176 164.616 160.16 89.1152 162.049 -44.2533 144.479 125 -77.858 171.696 117.623 -70.6525 198.154 130.656 -61.2747 214.434 153.995 -36.5941 148.078 201.756 -15.8076 10.2707 9.03127 6.34747 
179.208 170.632 168.905 169.508 169.319 173.373 167.601 162.105 164.653 160.014 89.2469 162.241 -43.7617 144.277 125.088 -77.1697 171.186 117.587 -69.9459 197.729 130.595 -60.7985 213.993 153.893 -36.2334 148.03 201.822 -15.2496 10.1573 9.11859 6.23852 
179.132 170.694 169.016 169.646 169.254 173.195 167.67 162.238 164.803 159.848 89.3993 162.489 -43.3262 144.244 125.236 -76.7564 171.025 117.655 -69.5452 197.534 130.652 -60.5127 213.621 153.874 -35.9498 148.019 201.923 -14.7374 9.94062 9.11712 6.18845 
179.091 170.91 169.229 169.877 169.212 172.947 168.044 162.611 165.087 159.826 89.5094 162.75 -42.7753 144.338 125.425 -76.4113 171.062 117.819 -69.2492 197.459 130.779 -60.1838 213.305 153.92 -35.5864 147.973 201.978 -14.1306 9.70851 9.02884 6.14932 
179.049 170.954 169.331 170.016 169.197 172.685 168.167 162.764 165.247 159.841 89.5409 163.069 -42.3681 144.229 125.517 -75.914 170.88 117.913 -68.9014 197.28 130.826 -59.8345 212.99 153.851 -35.1799 147.844 201.979 -13.5758 9.56931 9.03379 6.02604 
178.963 171.007 169.363 170.108 169.167 172.417 168.236 162.795 165.332 159.738 89.6698 163.437 -42.135 144.227 125.727 -75.5853 170.725 118.107 -68.6179 197.164 131.008 -59.6152 212.766 153.978 -34.9224 147.762 202.051 -13.0898 9.48483 9.09255 5.93001 
178.827 170.959 169.32 170.109 169.091 172.13 168.172 162.696 165.245 159.549 89.8022 163.68 -41.7208 144.139 125.869 -75.0912 170.4 118.178 -68.0757 196.83 131.005 -59.1384 212.405 153.961 -34.5538 147.676 202.159 -12.6128 9.40377 9.08544 5.85811 
178.688 170.781 169.155 169.97 168.931 171.926 167.863 162.433 165.055 159.326 89.836 163.747 -41.3947 143.806 125.937 -74.6453 169.838 118.172 -67.6026 196.345 130.909 -58.7738 211.97 153.801 -34.2831 147.583 202.235 -12.2795 9.34417 9.14328 5.77659 
178.561 170.709 169.06 169.91 168.815 171.686 167.733 162.275 164.959 159.118 89.9197 163.976 -40.9504 143.524 126.18 -74.2029 169.348 118.328 -67.1161 195.935 131.003 -58.4389 211.61 153.863 -34.0442 147.52 202.438 -11.9238 9.30639 9.2111 5.73554 
178.357 170.619 168.968 169.823 168.692 171.464 167.596 162.104 164.895 158.939 90.0389 164.125 -40.5914 143.285 126.51 -73.9368 168.988 118.573 -66.7827 195.681 131.213 -58.225 211.364 154.001 -33.8094 147.449 202.634 -11.621 9.2793 9.31187 5.74252 
178.197 170.558 168.966 169.79 168.64 171.212 167.483 162.013 164.873 158.786 90.1376 164.368 -40.2303 143.116 126.872 -73.6301 168.734 118.926 -66.5582 195.498 131.559 -58.1013 211.16 154.287 -33.6969 147.41 202.867 -11.3331 9.23724 9.38389 5.67898 
178.125 170.479 169.027 169.819 168.648 171.12 167.359 162.013 164.971 158.787 89.9931 164.542 -39.6725 142.839 127.203 -73.1868 168.673 119.353 -66.2859 195.527 132.054 -57.9038 211.12 154.71 -33.4276 147.298 203.116 -10.9518 9.19354 9.46966 5.68275 
178.062 170.435 169.088 169.853 168.69 171.02 167.292 162.044 165.053 158.825 89.9842 164.702 -39.2027 142.76 127.585 -72.9955 168.855 119.793 -66.1588 195.77 132.573 -57.7818 211.303 155.198 -33.2329 147.263 203.356 -10.6271 9.18201 9.50936 5.79182 
178.021 170.391 169.12 169.855 168.724 170.974 167.199 162.021 165.053 158.838 89.8253 164.949 -38.8088 142.686 127.936 -72.759 168.961 120.182 -65.9574 195.89 132.972 -57.4796 211.332 155.552 -32.8709 147.157 203.599 -10.2675 9.13915 9.48928 5.86299 
178.035 170.351 169.133 169.837 168.711 170.96 167.075 161.952 164.957 158.721 89.7009 165.349 -38.4849 142.643 128.381 -72.5447 169.045 120.609 -65.6947 195.952 133.38 -57.1192 211.346 155.952 -32.4996 147.09 203.93 -9.91912 9.12297 9.4386 5.96635 
