160.339 152.12 154.214 157.286 159.504 161.303 146.582 150.022 153.388 155.145 -210.815 162.884 -52.5818 -194.273 147.205 -125.08 -167.863 139.829 -141.171 -136.836 139.241 -137.632 -104.295 145.16 -118.642 -146.556 185.228 -55.3202 12.1017 7.50353 7.51486 
160.914 152.055 153.961 157.049 159.43 162.519 147.037 149.753 153.209 155.012 -211.738 163.432 -52.4199 -194.825 147.551 -125.109 -168.34 139.996 -141.054 -137.183 139.314 -137.565 -104.551 144.95 -118.565 -146.677 184.927 -55.2191 12.2074 7.6262 7.62497 
160.843 151.952 153.595 156.656 159.291 163.451 147.433 149.437 153.022 154.89 -212.526 163.958 -52.3699 -195.318 147.761 -125.059 -168.765 140.098 -140.905 -137.507 139.49 -137.556 -104.785 144.874 -118.538 -146.839 184.646 -55.1342 12.3228 7.73373 7.73063 
159.729 151.82 153.309 156.281 159.058 163.733 147.292 149.025 152.728 154.665 -212.99 164.397 -52.4436 -195.601 147.81 -124.942 -168.991 140.152 -140.801 -137.641 139.687 -137.588 -104.887 144.939 -118.538 -147 184.443 -55.1004 12.406 7.83729 7.81819 
159.142 151.584 153.17 156.103 158.955 163.874 147.238 148.724 152.532 154.604 -213.512 164.741 -52.352 -195.934 147.823 -124.735 -169.277 140.077 -140.616 -137.818 139.67 -137.534 -104.939 144.882 -118.572 -147.109 184.207 -55.0348 12.5394 7.94821 7.91614 
159.07 151.281 153.146 155.852 158.782 163.881 146.964 148.409 152.243 154.524 -213.965 164.936 -52.2445 -196.226 147.616 -124.462 -169.545 139.869 -140.426 -137.999 139.586 -137.478 -104.987 144.954 -118.691 -147.244 184.055 -55.0267 12.6618 8.03079 7.98769 
158.707 151.022 153.205 155.71 158.837 164.068 146.667 148.249 152.137 154.721 -214.701 165.441 -51.9859 -196.446 147.452 -124.157 -169.764 139.637 -140.207 -138.024 139.455 -137.419 -104.842 144.984 -118.779 -147.301 183.829 -54.9317 12.8415 8.20035 8.0475 
158.895 151.102 153.434 155.826 159.05 164.116 146.491 148.278 152.1 154.889 -215.06 165.675 -51.987 -196.472 147.171 -124.019 -169.83 139.342 -140.096 -138.025 139.191 -137.32 -104.817 144.968 -118.816 -147.397 183.765 -54.9029 12.8702 8.24225 8.01354 
159.049 151.185 153.775 156.073 159.277 164.354 146.397 148.399 152.135 155.135 -215.414 165.82 -52.0121 -196.419 146.847 -123.964 -169.835 138.968 -140.048 -137.956 138.815 -137.245 -104.676 144.852 -118.861 -147.434 183.672 -54.9098 12.943 8.28609 7.95794 
158.876 151.128 153.982 156.155 159.423 164.724 146.245 148.258 151.981 155.23 -215.814 166.091 -52.0391 -196.289 146.629 -123.895 -169.786 138.574 -139.853 -137.908 138.458 -137.075 -104.591 144.781 -118.871 -147.45 183.637 -54.9102 12.987 8.28586 7.88087 
157.998 151.193 154.115 156.192 159.49 165.235 146.022 148.136 151.827 155.202 -216.271 166.518 -52.0694 -196.185 146.296 -123.753 -169.76 138.182 -139.64 -137.943 138.122 -136.888 -104.638 144.671 -118.828 -147.489 183.59 -54.9006 12.9818 8.2391 7.80014 
155.456 151.178 154.206 156.236 159.578 166.471 145.816 148.132 151.772 155.215 -217.138 167.479 -51.9739 -196.093 145.973 -123.604 -169.754 137.827 -139.473 -137.989 137.783 -136.706 -104.688 144.487 -118.744 -147.508 183.537 -54.885 12.9748 8.19417 7.72065 
147.875 151.267 154.321 156.364 159.721 169.012 145.735 148.245 151.85 155.299 -218.82 169.49 -51.4527 -195.993 145.732 -123.516 -169.732 137.623 -139.413 -138.022 137.577 -136.62 -104.751 144.327 -118.673 -147.526 183.48 -54.8684 12.938 8.14446 7.64425 
145.02 151.308 154.429 156.429 159.764 169.543 145.544 148.283 151.807 155.264 -219.566 170.355 -51.1012 -195.796 145.491 -123.417 -169.636 137.4 -139.308 -137.986 137.315 -136.449 -104.775 144.143 -118.537 -147.496 183.429 -54.814 12.8742 8.08627 7.53878 
143.496 151.277 154.54 156.561 159.869 169.791 145.378 148.389 151.903 155.399 -220.197 170.923 -50.6941 -195.746 145.43 -123.363 -169.658 137.288 -139.274 -138.023 137.124 -136.379 -104.781 143.989 -118.506 -147.5 183.405 -54.7729 12.8763 8.06093 7.48153 
142.65 151.219 154.538 156.509 159.797 169.73 145.264 148.352 151.818 155.268 -220.512 171.193 -50.4534 -195.673 145.235 -123.284 -169.618 137.074 -139.168 -137.997 136.876 -136.229 -104.818 143.802 -118.372 -147.518 183.388 -54.7654 12.8172 8.04396 7.44183 
142.195 151.212 154.582 156.581 159.793 169.599 145.163 148.439 151.9 155.272 -220.747 171.403 -50.2723 -195.509 145.064 -123.233 -169.501 136.938 -139.168 -137.936 136.762 -136.228 -104.796 143.678 -118.337 -147.48 183.327 -54.7373 12.768 7.99618 7.38795 
141.873 151.215 154.695 156.754 159.868 169.466 145.173 148.643 152.109 155.395 -220.905 171.614 -50.1249 -195.423 145.002 -123.218 -169.431 136.882 -139.215 -137.886 136.724 -136.276 -104.716 143.597 -118.322 -147.433 183.287 -54.6808 12.7736 7.97319 7.36982 
142.071 150.937 154.68 156.817 159.803 169.526 144.871 148.618 152.192 155.379 -220.848 171.734 -50.2355 -195.366 144.949 -123.135 -169.385 136.778 -139.162 -137.842 136.618 -136.252 -104.597 143.497 -118.288 -147.361 183.23 -54.6911 12.8331 7.97326 7.38552 
142.582 150.726 154.659 156.886 159.751 169.682 144.766 148.61 152.295 155.376 -220.793 171.812 -50.3371 -195.324 144.927 -123.089 -169.358 136.697 -139.126 -137.803 136.551 -136.271 -104.476 143.398 -118.3 -147.236 183.114 -54.7063 12.8997 7.98715 7.40449 
142.247 150.758 154.859 157.085 159.922 169.643 145.078 148.886 152.567 155.621 -220.949 172.227 -50.3018 -195.298 144.997 -123.147 -169.312 136.697 -139.204 -137.664 136.555 -136.345 -104.26 143.298 -118.311 -147.123 183.017 -54.6484 12.9709 8.05985 7.42952 
142.458 150.715 154.92 157.182 159.984 169.722 145.163 148.988 152.759 155.753 -220.821 172.342 -50.466 -195.228 145.007 -123.16 -169.244 136.631 -139.186 -137.589 136.508 -136.365 -104.12 143.255 -118.334 -147.006 182.92 -54.6407 13.0299 8.06713 7.4438 
142.956 150.873 154.954 157.178 160.054 169.546 145.498 149.094 152.839 155.777 -220.712 172.389 -50.6172 -195.106 145.071 -123.226 -169.158 136.689 -139.188 -137.572 136.607 -136.359 -104.154 143.261 -118.304 -146.913 182.858 -54.5844 12.9907 8.01867 7.39689 
143.5 150.903 154.951 157.146 160.08 169.341 145.691 149.144 152.84 155.791 -220.438 172.332 -50.9868 -195.032 145.229 -123.386 -169.135 136.81 -139.299 -137.606 136.694 -136.414 -104.215 143.293 -118.367 -146.871 182.891 -54.6343 12.963 7.97298 7.34859 
143.589 150.821 154.916 157.129 160.158 169.259 145.899 149.254 152.948 155.884 -220.363 172.495 -51.1973 -195.054 145.543 -123.513 -169.162 137.132 -139.467 -137.665 137.002 -136.581 -104.316 143.465 -118.508 -146.891 182.996 -54.674 12.9119 7.95065 7.35077 
143.293 150.862 154.941 157.18 160.295 169.111 146.184 149.392 153.077 156.04 -220.347 172.822 -51.3595 -195.166 145.963 -123.693 -169.269 137.514 -139.644 -137.814 137.342 -136.746 -104.484 143.696 -118.667 -146.967 183.158 -54.7059 12.8745 7.91549 7.35978 
142.936 151.011 154.937 157.199 160.373 169.071 146.526 149.459 153.114 156.079 -220.313 173.052 -51.4523 -195.266 146.384 -123.867 -169.326 137.875 -139.77 -137.938 137.619 -136.832 -104.684 143.861 -118.753 -146.999 183.311 -54.7193 12.7837 7.85717 7.39584 
142.62 151.172 154.849 157.139 160.399 169.084 146.787 149.429 153.084 156.018 -220.303 173.217 -51.54 -195.401 146.741 -123.997 -169.434 138.208 -139.859 -138.118 137.924 -136.935 -104.934 144.063 -118.863 -147.061 183.462 -54.7631 12.6974 7.80225 7.4239 
142.111 151.273 154.732 157.008 160.334 169.073 146.857 149.351 152.967 155.907 -220.201 173.397 -51.6774 -195.494 146.957 -124.039 -169.514 138.426 -139.878 -138.256 138.108 -136.936 -105.107 144.2 -118.894 -147.115 183.561 -54.7688 12.6568 7.75803 7.43625 
141.797 151.361 154.614 156.781 160.212 169.01 146.875 149.232 152.775 155.679 -219.87 173.477 -51.9709 -195.477 147.068 -124.006 -169.538 138.612 -139.84 -138.354 138.297 -136.865 -105.284 144.346 -118.846 -147.135 183.648 -54.7556 12.597 7.7049 7.39556 
141.364 151.173 154.403 156.511 160.02 169.256 146.678 148.997 152.547 155.417 -219.842 173.655 -52.0025 -195.524 147.226 -123.909 -169.588 138.819 -139.77 -138.418 138.507 -136.81 -105.381 144.47 -118.773 -147.171 183.752 -54.7464 12.5861 7.70785 7.4012 
140.757 151.092 154.343 156.436 159.972 169.524 146.526 148.951 152.54 155.357 -219.947 173.872 -51.9475 -195.659 147.375 -123.865 -169.738 139.031 -139.792 -138.54 138.737 -136.867 -105.508 144.599 -118.767 -147.28 183.861 -54.76 12.5929 7.73905 7.39973 
140.175 150.965 154.331 156.444 159.94 169.717 146.472 149.011 152.611 155.343 -220.084 174.201 -51.9241 -195.862 147.633 -123.839 -169.921 139.361 -139.861 -138.644 139.067 -136.964 -105.605 144.838 -118.809 -147.42 184.037 -54.7658 12.6115 7.80502 7.43114 
139.869 150.942 154.253 156.43 159.94 169.918 146.427 149.023 152.644 155.318 -220.076 174.261 -51.9522 -196.007 147.846 -123.845 -170.043 139.693 -139.941 -138.747 139.42 -137.068 -105.756 145.109 -118.845 -147.589 184.257 -54.7887 12.5744 7.82413 7.44552 
139.496 151.117 154.285 156.511 159.995 170.056 146.522 149.146 152.725 155.327 -220.095 174.383 -51.9809 -196.116 148.041 -123.889 -170.231 140.044 -140.019 -138.989 139.802 -137.145 -106.069 145.418 -118.879 -147.778 184.478 -54.781 12.5005 7.78045 7.3609 
138.964 151.173 154.185 156.409 159.931 170.088 146.374 149.151 152.675 155.199 -220.04 174.544 -52.0503 -196.281 148.268 -123.865 -170.432 140.467 -140.068 -139.21 140.21 -137.164 -106.362 145.747 -118.864 -147.982 184.734 -54.7893 12.4411 7.76407 7.32693 
138.477 151.097 154.177 156.381 159.865 170.206 146.251 149.204 152.653 155.096 -220.118 174.608 -51.9656 -196.398 148.411 -123.851 -170.6 140.806 -140.144 -139.378 140.552 -137.2 -106.596 146.064 -118.851 -148.179 184.981 -54.8012 12.3855 7.75682 7.27924 
137.849 150.854 154.134 156.27 159.794 170.445 146.25 149.152 152.54 154.947 -220.256 174.763 -51.9133 -196.542 148.566 -123.853 -170.761 141.084 -140.186 -139.538 140.847 -137.221 -106.805 146.349 -118.853 -148.364 185.198 -54.8318 12.3497 7.7572 7.26215 
136.76 151.018 154.305 156.304 159.673 170.838 146.519 149.369 152.719 155.043 -220.354 175.042 -51.9352 -196.543 148.676 -124.062 -170.812 141.246 -140.31 -139.592 141.01 -137.295 -106.925 146.6 -118.819 -148.514 185.409 -54.8151 12.2662 7.73469 7.17043 
136.389 150.91 154.251 156.187 159.585 170.781 146.351 149.323 152.624 154.898 -220.335 175.192 -52.0513 -196.586 148.66 -123.977 -170.891 141.366 -140.277 -139.685 141.167 -137.252 -107.05 146.789 -118.775 -148.653 185.554 -54.8214 12.2587 7.72785 7.13717 
136.078 150.938 154.318 156.22 159.559 170.785 146.164 149.376 152.626 154.846 -220.43 175.331 -52.01 -196.67 148.651 -123.881 -170.993 141.468 -140.253 -139.747 141.267 -137.183 -107.144 146.895 -118.664 -148.806 185.695 -54.7951 12.2598 7.76007 7.1255 
136.27 150.858 154.307 156.099 159.438 170.607 146.013 149.246 152.437 154.68 -220.286 175.243 -52.1392 -196.788 148.651 -123.74 -171.165 141.58 -140.158 -139.919 141.377 -137.071 -107.339 147.053 -118.605 -148.947 185.87 -54.7897 12.2468 7.76185 7.09474 
136.392 150.907 154.411 156.092 159.387 170.487 145.862 149.333 152.424 154.64 -220.329 175.224 -52.1165 -196.931 148.567 -123.605 -171.322 141.66 -140.132 -140.004 141.463 -136.999 -107.461 147.189 -118.513 -149.125 186.043 -54.772 12.2328 7.81213 7.09975 
136.624 150.89 154.645 156.134 159.388 170.283 145.794 149.404 152.389 154.671 -220.365 175.284 -52.1656 -197.125 148.543 -123.47 -171.59 141.715 -140.056 -140.214 141.508 -136.895 -107.684 147.318 -118.468 -149.311 186.225 -54.7564 12.2253 7.85359 7.06262 
136.861 150.956 154.867 156.23 159.376 170.066 145.709 149.573 152.437 154.73 -220.302 175.31 -52.3333 -197.315 148.582 -123.398 -171.837 141.85 -140.066 -140.373 141.603 -136.854 -107.858 147.434 -118.4 -149.508 186.426 -54.7338 12.2205 7.91396 7.03901 
136.951 151.053 155.152 156.411 159.427 170.011 145.678 149.792 152.552 154.846 -220.434 175.376 -52.3131 -197.428 148.574 -123.321 -171.974 141.953 -140.07 -140.415 141.665 -136.794 -107.94 147.496 -118.253 -149.665 186.592 -54.6643 12.1994 7.97968 7.03771 
136.901 151.141 155.398 156.628 159.539 169.998 145.694 150.059 152.741 154.982 -220.57 175.524 -52.2446 -197.527 148.642 -123.266 -172.08 142.155 -140.11 -140.449 141.832 -136.781 -108.018 147.597 -118.116 -149.814 186.764 -54.5902 12.1763 8.03033 7.05345 
136.842 151.287 155.659 156.791 159.623 169.904 145.764 150.293 152.875 155.069 -220.844 175.58 -52.0304 -197.659 148.704 -123.244 -172.195 142.286 -140.125 -140.507 141.92 -136.713 -108.123 147.688 -117.971 -149.971 186.92 -54.5074 12.1382 8.06065 7.06509 
136.937 151.47 155.959 157.028 159.747 169.736 145.866 150.587 153.077 155.266 -221.047 175.671 -51.8829 -197.846 148.792 -123.189 -172.361 142.385 -140.098 -140.619 141.957 -136.611 -108.247 147.764 -117.851 -150.138 187.081 -54.4026 12.1267 8.08985 7.08391 
136.629 151.795 156.353 157.462 159.98 169.695 146.1 151.013 153.478 155.637 -221.408 175.905 -51.5906 -198.14 148.921 -123.151 -172.569 142.47 -140.072 -140.702 142.024 -136.568 -108.285 147.859 -117.73 -150.362 187.255 -54.2414 12.1641 8.17214 7.14033 
136.104 152.269 156.732 157.896 160.256 169.821 146.48 151.49 153.901 156 -221.77 176.1 -51.2732 -198.444 149.138 -123.183 -172.776 142.705 -140.123 -140.855 142.23 -136.582 -108.462 148.029 -117.644 -150.626 187.451 -54.0702 12.1287 8.19666 7.19546 
135.606 152.673 156.977 158.159 160.395 169.847 146.768 151.813 154.176 156.185 -222.178 176.464 -50.9761 -198.795 149.464 -123.149 -173.052 143.085 -140.132 -141.095 142.552 -136.557 -108.685 148.195 -117.503 -150.859 187.613 -53.8734 12.1447 8.21671 7.26497 
135.028 153.083 157.23 158.425 160.58 169.81 147.092 152.196 154.525 156.497 -222.581 176.975 -50.7152 -199.157 149.758 -123.036 -173.36 143.459 -140.092 -141.376 142.946 -136.544 -108.854 148.512 -117.436 -151.105 187.775 -53.6207 12.2419 8.22996 7.3242 
135.136 153.246 157.221 158.499 160.597 170.115 146.958 152.26 154.685 156.584 -222.91 177.228 -50.4808 -199.435 149.986 -122.804 -173.696 143.752 -139.866 -141.803 143.283 -136.379 -109.172 148.801 -117.281 -151.341 187.879 -53.3922 12.3427 8.16537 7.29171 
135.114 153.462 157.334 158.588 160.619 170.359 147.024 152.465 154.8 156.607 -223.11 177.483 -50.3258 -199.593 150.252 -122.603 -173.915 144.101 -139.665 -142.152 143.678 -136.161 -109.561 149.119 -117.009 -151.605 188.053 -53.0725 12.3199 8.06955 7.23964 
134.865 153.596 157.378 158.619 160.585 170.458 147.185 152.558 154.818 156.519 -223.209 177.763 -50.2652 -199.685 150.392 -122.367 -174.118 144.306 -139.379 -142.526 143.974 -135.872 -110.049 149.39 -116.708 -151.875 188.179 -52.7386 12.2235 7.94421 7.13 
134.857 153.526 157.23 158.519 160.406 170.99 146.949 152.354 154.721 156.266 -223.25 177.788 -50.1395 -199.78 150.456 -121.94 -174.311 144.447 -138.919 -142.866 144.278 -135.497 -110.486 149.738 -116.353 -152.158 188.318 -52.4153 12.1567 7.84983 7.04066 
134.934 153.456 157.011 158.247 160.166 171.333 146.585 152.091 154.466 155.864 -223.156 177.73 -50.0258 -199.935 150.497 -121.506 -174.54 144.577 -138.465 -143.211 144.503 -135.049 -110.953 150.045 -115.946 -152.484 188.478 -52.0984 12.0723 7.76814 6.97195 
134.611 153.542 156.922 158.158 160.002 171.406 146.197 151.958 154.318 155.611 -222.96 177.623 -49.8914 -200.081 150.596 -121.165 -174.755 144.763 -138.113 -143.531 144.718 -134.65 -111.407 150.336 -115.55 -152.865 188.702 -51.7755 11.962 7.68492 6.89545 
134.333 153.645 156.508 157.61 159.664 171.578 145.952 151.554 153.846 155.081 -222.708 177.347 -49.6956 -200.163 150.537 -120.805 -174.978 144.682 -137.563 -143.89 144.673 -134.038 -111.929 150.472 -115.069 -153.182 188.827 -51.4805 11.8303 7.58244 6.71612 
134.05 153.637 156.226 157.16 159.22 171.822 145.522 151.167 153.383 154.544 -222.47 176.923 -49.3903 -200.308 150.491 -120.5 -175.176 144.572 -137.123 -144.126 144.501 -133.493 -112.265 150.46 -114.576 -153.46 188.939 -51.2316 11.7674 7.54924 6.62748 
133.631 153.444 155.761 156.55 158.666 172.241 145.038 150.718 152.82 153.85 -222.018 176.299 -49.1604 -200.447 150.484 -120.15 -175.355 144.541 -136.693 -144.311 144.326 -132.903 -112.539 150.34 -114.024 -153.658 188.933 -50.9652 11.7242 7.54807 6.58182 
132.933 153.168 155.164 155.953 158.112 172.563 144.54 150.1 152.241 153.208 -221.83 176.045 -48.8598 -200.667 150.484 -119.737 -175.663 144.492 -136.212 -144.696 144.239 -132.451 -112.907 150.236 -113.69 -153.804 188.829 -50.7375 11.7388 7.50454 6.52617 
132.446 152.978 154.694 155.438 157.657 172.962 144.156 149.49 151.642 152.639 -221.6 175.729 -48.7229 -200.862 150.463 -119.393 -175.906 144.428 -135.804 -145.008 144.131 -132.06 -113.183 150.134 -113.435 -153.943 188.736 -50.5728 11.7765 7.46646 6.49963 
132.569 152.781 154.29 155.054 157.2 173.266 143.762 148.995 151.187 152.12 -221.271 175.167 -48.6271 -201.043 150.355 -119.031 -176.094 144.369 -135.457 -145.218 144.096 -131.77 -113.363 150.026 -113.179 -154.026 188.608 -50.4103 11.8108 7.46669 6.53339 
131.991 152.508 153.715 154.367 156.506 173.57 143.361 148.305 150.376 151.317 -220.83 174.581 -48.3798 -201.178 150.087 -118.439 -176.242 144.207 -134.876 -145.53 144.019 -131.227 -113.638 149.842 -112.704 -154.09 188.404 -50.0576 11.8668 7.36956 6.58759 
130.905 152.374 153.66 154.279 156.385 173.966 143.313 148.168 150.175 151.196 -220.628 174.159 -48.0412 -201.216 149.822 -118.067 -176.29 144.12 -134.646 -145.649 144.053 -131.089 -113.703 149.787 -112.589 -154.062 188.218 -49.8135 11.9016 7.32993 6.66335 
129.799 152.03 153.444 154.144 156.265 174.573 143.153 147.984 150.033 151.102 -220.563 173.872 -47.6776 -201.252 149.512 -117.664 -176.296 143.985 -134.418 -145.656 144.055 -131.001 -113.586 149.657 -112.479 -153.989 187.959 -49.6181 12.032 7.36349 6.80294 
128.832 151.652 153.224 154.004 156.172 175.09 142.963 147.765 149.895 151.041 -220.71 173.692 -47.1949 -201.277 149.167 -117.275 -176.301 143.804 -134.169 -145.673 144.06 -130.917 -113.452 149.628 -112.419 -153.912 187.695 -49.4319 12.186 7.39287 6.92235 
145.623 151.395 153.109 154.111 156.244 168.97 142.911 147.576 149.846 151.145 -223.242 165.135 -40.9866 -201.372 149.074 -117.109 -176.348 143.714 -134.053 -145.749 144.058 -130.958 -113.376 149.6 -112.504 -153.871 187.498 -49.3117 12.3071 7.39975 6.99758 
145.623 150.462 152.5 153.894 155.589 168.989 142.771 147.693 149.75 150.021 -223.357 164.925 -40.7809 -201.586 149.42 -117.191 -176.754 143.596 -133.738 -146.274 143.485 -130.295 -114.092 148.98 -112.112 -153.943 187.41 -49.2895 11.9687 7.20474 6.63401 
145.623 150.193 152.102 153.741 155.388 169.072 142.81 148.027 149.96 149.605 -223.611 164.692 -40.4493 -201.83 149.637 -117.32 -177.208 143.51 -133.591 -146.809 143.036 -129.914 -114.672 148.55 -111.983 -154.029 187.28 -49.3051 11.7791 7.08909 6.36015 
145.623 150.079 151.834 153.623 155.384 168.759 142.628 148.324 150.224 149.453 -223.916 164.493 -39.9399 -201.949 149.744 -117.286 -177.585 143.485 -133.439 -147.303 142.818 -129.68 -115.229 148.382 -111.966 -154.114 187.214 -49.2744 11.5832 6.97881 6.11927 
145.623 149.822 151.487 153.399 155.318 168.367 142.363 148.504 150.423 149.341 -224.31 164.339 -39.4245 -202.092 149.788 -117.187 -177.92 143.406 -133.268 -147.735 142.601 -129.48 -115.696 148.205 -111.955 -154.181 187.083 -49.2464 11.4483 6.90169 5.96965 
129.07 149.731 151.303 153.362 155.378 175.211 142.381 148.856 150.819 149.424 -222.277 172.993 -45.205 -202.253 149.828 -117.2 -178.19 143.356 -133.243 -148.097 142.528 -129.495 -116.098 148.125 -112.054 -154.253 186.928 -49.2421 11.323 6.82467 5.89361 
129.511 150.059 151.467 153.57 155.555 174.887 142.609 149.441 151.425 149.656 -222.157 172.786 -45.136 -202.296 149.816 -117.261 -178.286 143.419 -133.349 -148.294 142.68 -129.634 -116.38 148.224 -112.125 -154.319 186.808 -49.1793 11.1929 6.73277 5.84686 
129.323 150.394 151.756 153.863 155.861 174.732 143.024 150.134 152.105 150.068 -222.221 172.797 -44.9787 -202.428 149.845 -117.328 -178.401 143.504 -133.5 -148.434 142.806 -129.794 -116.556 148.275 -112.219 -154.382 186.68 -49.1166 11.1272 6.7013 5.87238 
129.311 150.711 152.01 153.997 156.035 174.334 143.267 150.574 152.473 150.296 -222.08 172.81 -45.0653 -202.557 149.826 -117.39 -178.539 143.535 -133.625 -148.596 142.806 -129.892 -116.772 148.213 -112.3 -154.417 186.566 -49.1084 11.0403 6.67658 5.87785 
129.123 150.927 152.226 154.151 156.191 174.038 143.528 150.958 152.836 150.531 -222.117 172.988 -45.0597 -202.682 149.904 -117.489 -178.648 143.617 -133.766 -148.708 142.885 -130.038 -116.925 148.209 -112.378 -154.459 186.517 -49.1074 10.9767 6.66787 5.90041 
129.051 151.147 152.423 154.262 156.316 173.903 143.711 151.241 153.104 150.775 -222.312 173.279 -44.983 -202.822 150.035 -117.575 -178.765 143.758 -133.912 -148.788 143.012 -130.209 -116.982 148.239 -112.494 -154.481 186.492 -49.1194 10.9854 6.68938 5.93563 
129.123 151.218 152.518 154.273 156.37 173.716 143.788 151.371 153.194 150.895 -222.515 173.512 -44.9356 -202.924 150.104 -117.579 -178.869 143.864 -133.967 -148.878 143.108 -130.273 -117.069 148.292 -112.544 -154.549 186.499 -49.1056 10.9817 6.69756 5.94284 
129.513 151.426 152.673 154.31 156.447 173.211 143.983 151.639 153.389 151.068 -222.779 173.847 -44.9553 -203.128 150.32 -117.698 -179.045 144.168 -134.166 -149.04 143.388 -130.475 -117.233 148.452 -112.68 -154.673 186.546 -49.1126 10.9665 6.70317 5.97338 
129.743 151.589 152.866 154.36 156.567 172.894 144.15 151.669 153.354 151.264 -223.072 174.042 -44.875 -203.413 150.458 -117.719 -179.277 144.336 -134.227 -149.157 143.523 -130.543 -117.266 148.559 -112.783 -154.81 186.614 -49.098 11.047 6.79043 6.0329 
129.828 151.607 152.864 154.268 156.538 172.582 144.165 151.589 153.228 151.252 -223.337 174.278 -44.7759 -203.673 150.571 -117.676 -179.485 144.519 -134.246 -149.277 143.671 -130.58 -117.365 148.662 -112.841 -154.925 186.7 -49.1017 11.0664 6.86052 6.09813 
129.968 151.807 153.01 154.371 156.655 172.22 144.284 151.663 153.347 151.42 -223.468 174.419 -44.6754 -203.842 150.622 -117.644 -179.689 144.627 -134.248 -149.457 143.853 -130.685 -117.549 148.805 -112.948 -155.037 186.771 -49.086 11.0441 6.86836 6.07785 
130.176 151.86 153.059 154.441 156.732 172.03 144.307 151.651 153.361 151.499 -223.466 174.38 -44.6579 -203.901 150.7 -117.629 -179.765 144.733 -134.244 -149.512 143.973 -130.721 -117.61 148.91 -112.97 -155.114 186.825 -49.0408 11.0411 6.88257 6.06119 
130.327 151.915 153.124 154.536 156.813 171.828 144.36 151.737 153.493 151.607 -223.555 174.474 -44.629 -203.958 150.769 -117.621 -179.813 144.873 -134.303 -149.522 144.182 -130.836 -117.631 149.065 -113.006 -155.208 186.886 -49.001 11.0442 6.90589 6.06993 
130.412 151.865 153.081 154.526 156.78 171.555 144.339 151.709 153.506 151.606 -223.605 174.52 -44.646 -204.046 150.771 -117.555 -179.927 144.942 -134.291 -149.613 144.323 -130.901 -117.756 149.208 -113.059 -155.315 186.926 -48.9639 11.0052 6.91807 6.05517 
130.59 151.476 152.805 154.291 156.618 171.493 144.004 151.428 153.306 151.505 -223.842 174.503 -44.5624 -204.094 150.836 -117.488 -180.025 144.983 -134.232 -149.677 144.358 -130.891 -117.784 149.269 -113.115 -155.373 186.908 -48.9693 11.0426 6.95105 6.0285 
131.361 151.548 152.785 154.331 156.651 171.143 144.065 151.382 153.317 151.547 -223.765 174.349 -44.6201 -204.173 150.906 -117.461 -180.152 144.985 -134.14 -149.837 144.36 -130.847 -117.938 149.246 -113.119 -155.402 186.855 -48.9078 11.0255 6.92529 5.98711 
