170.169 174.417 172.179 172.47 173.257 161.824 165.443 164.808 164.022 158.073 -111.462 189.489 49.8169 -166.284 148.782 15.8135 -189.288 143.274 20.5921 -208.897 150.347 42.0138 -215.544 162.1 74.3361 -145.551 180.279 108.045 4.71046 5.66504 1.59957 
170.792 174.612 172.171 172.356 173.517 161.895 165.537 164.961 164.138 158.463 -111.685 189.399 49.656 -166.491 148.808 15.6603 -189.34 142.973 20.5086 -208.915 150.008 41.9334 -215.615 161.714 74.3076 -145.511 180.301 107.879 4.77925 5.62835 1.51335 
170.397 174.75 172.122 172.244 173.671 161.749 165.746 165.131 164.318 158.83 -111.916 189.313 49.4995 -166.566 148.652 15.4399 -189.239 142.586 20.3177 -208.859 149.589 41.7328 -215.656 161.287 74.1538 -145.447 180.371 107.638 4.8648 5.63072 1.42858 
170.02 175.534 172.5 172.103 173.806 161.609 166.429 165.697 164.761 159.531 -111.54 189.155 49.1 -166.044 148.187 14.8229 -188.522 141.72 19.7838 -208.401 148.739 41.269 -215.496 160.592 73.8189 -145.07 180.474 107.14 5.14068 5.76789 1.41429 
168.832 176.018 172.746 172.062 173.908 161.705 167.018 166.082 165.024 159.864 -110.846 189.246 48.5421 -165.523 147.787 14.2567 -188.131 141.236 19.3126 -208.263 148.267 40.994 -215.552 160.356 73.6989 -144.831 180.5 106.756 5.41946 5.95173 1.54798 
169.017 176.314 172.946 171.985 173.93 162.107 167.573 166.361 165.201 160.092 -109.929 189.503 47.9479 -164.899 147.406 13.7655 -187.684 140.899 18.9327 -208.064 147.824 40.8316 -215.55 160.141 73.6816 -144.607 180.642 106.454 5.68243 6.11655 1.68599 
169.527 176.553 173.236 171.916 173.836 162.644 167.969 166.663 165.338 160.186 -108.863 189.812 47.4943 -164.23 147.233 13.4977 -187.192 140.661 18.7212 -207.82 147.415 40.8925 -215.562 160.003 73.9242 -144.372 180.832 106.264 6.03365 6.30852 1.828 
167.794 176.683 173.405 171.857 173.657 162.484 168.371 166.857 165.356 160.094 -108.225 190.224 47.0725 -163.76 147.113 13.1832 -186.975 140.686 18.5505 -207.664 147.262 41.0048 -215.51 159.999 74.2567 -143.989 180.916 106.034 6.34747 6.43229 2.00757 
165.416 176.817 173.564 171.817 173.573 161.977 168.784 167.086 165.465 160.295 -107.742 190.453 46.8795 -163.232 146.847 12.912 -186.638 140.558 18.3317 -207.397 147.109 40.9673 -215.403 160.035 74.3789 -143.636 181.051 105.85 6.61804 6.52814 2.13748 
164.085 176.975 173.771 171.85 173.362 161.8 169.123 167.264 165.501 160.213 -107.008 190.64 46.5874 -162.422 146.575 12.6228 -186.058 140.344 18.1543 -207.003 146.876 40.9973 -215.298 160.112 74.5818 -143.22 181.189 105.672 7.01572 6.7024 2.33299 
163.314 177.098 173.875 171.832 173.557 161.651 169.428 167.384 165.557 160.477 -106.463 190.871 46.4059 -161.705 146.509 12.4329 -185.516 140.278 18.05 -206.549 146.704 40.9961 -215.046 160.028 74.7124 -142.818 181.398 105.566 7.25463 6.7703 2.49248 
162.825 177.07 173.95 171.806 173.557 161.481 169.531 167.457 165.587 160.546 -105.947 190.987 46.3761 -160.9 146.419 12.1863 -184.858 140.039 17.8929 -206.012 146.44 40.8483 -214.756 159.915 74.6421 -142.476 181.556 105.422 7.46469 6.82328 2.63537 
161.433 176.03 173.421 170.804 171.982 160.549 168.428 166.99 164.514 160.121 -105.663 192.414 46.7583 -158.6 146.804 12.1913 -182.818 140.637 17.0045 -204.997 147.032 39.6158 -214.615 160.266 73.7792 -142.099 181.683 105.345 8.03072 7.19223 2.59807 
160.251 175.323 173.216 170.801 170.533 159.831 167.421 166.567 163.945 159.542 -105.851 193.329 46.8369 -156.72 147.382 12.1237 -181.256 141.085 16.3972 -204.139 147.289 38.7812 -214.225 160.536 72.9583 -141.702 181.759 105.235 8.21804 7.42133 2.70124 
159.46 174.922 173.159 171.161 169.558 159.2 166.961 166.42 163.891 159.285 -106.077 193.811 46.6374 -154.958 147.429 11.9118 -179.99 141.077 15.8444 -203.532 147.118 38.1313 -213.63 160.639 72.1188 -141.379 181.825 105.041 8.03412 7.68898 2.98575 
159.171 174.511 173.008 171.407 168.612 158.871 166.496 166.157 163.737 158.66 -106.377 194.302 46.3788 -153.662 147.642 11.6847 -179.162 141.24 15.4272 -203.114 147.151 37.7335 -213.101 160.909 71.6 -141.019 181.882 104.842 7.88307 7.89287 3.28273 
159.233 174.333 172.891 171.474 167.702 158.698 166.195 165.946 163.527 157.997 -106.588 194.684 45.8614 -152.792 148.031 11.2999 -178.663 141.55 14.9348 -202.889 147.264 37.4333 -212.777 161.075 71.3356 -140.649 181.845 104.581 7.86347 8.08792 3.52769 
159.434 174.277 172.921 171.559 167.084 158.671 166.122 165.881 163.438 157.57 -106.631 194.959 45.064 -152.035 148.273 10.7346 -178.305 141.824 14.3747 -202.717 147.441 37.0874 -212.497 161.396 71.0807 -140.204 181.727 104.209 7.92225 8.25988 3.80731 
159.758 174.18 173.01 171.568 166.495 158.863 166.055 165.847 163.353 157.143 -106.586 195.172 44.0831 -151.496 148.474 9.90798 -178.145 142.014 13.6669 -202.569 147.476 36.6691 -212.274 161.52 70.8884 -139.665 181.408 103.642 8.11908 8.36668 4.09022 
159.917 174.148 173.17 171.604 165.955 159.001 166.1 165.884 163.389 156.878 -106.266 195.217 43.2581 -150.497 148.385 9.02649 -177.479 141.982 12.8141 -202.004 147.332 35.9887 -211.79 161.636 70.3575 -138.97 181.061 103.024 8.34404 8.46929 4.31745 
160.627 174.171 173.505 171.956 165.911 159.501 166.296 166.149 163.692 156.93 -105.608 195.169 42.2272 -149.797 148.268 7.96089 -177.126 141.854 11.9195 -201.507 147.046 35.1598 -211.452 161.723 69.8415 -138.383 180.711 102.323 8.72143 8.38026 4.57764 
161.211 174.183 173.756 172.312 166.141 159.805 166.464 166.316 163.943 157.212 -105.074 195.186 41.3142 -148.836 148.131 6.91146 -176.543 141.778 10.952 -200.846 146.862 34.1494 -211.16 161.811 69.1384 -137.846 180.472 101.662 9.13956 8.27695 4.83276 
161.572 174.049 173.955 172.752 166.696 159.883 166.486 166.545 164.202 157.553 -104.603 195.179 40.6168 -147.896 148.289 6.09594 -175.946 141.863 10.2154 -200.057 146.884 33.2582 -210.645 161.976 68.4342 -137.213 180.301 101.149 9.39043 8.07736 5.07077 
161.918 173.719 174.103 173.104 167.339 159.99 166.236 166.677 164.379 157.867 -104.313 195.503 40.114 -146.707 148.56 5.51236 -175.085 141.9 9.65771 -199.005 146.937 32.365 -209.957 162.079 67.5686 -136.641 180.319 100.756 9.51379 7.80772 5.3149 
162.009 173.417 174.221 173.44 167.967 159.862 166.036 166.843 164.696 158.32 -104.034 195.378 39.7192 -145.273 148.633 4.94422 -174.061 141.862 8.98916 -197.849 146.984 31.3308 -209.045 162.206 66.4029 -135.97 180.336 100.268 9.45974 7.56569 5.58435 
161.993 173.146 174.257 173.627 168.308 159.886 165.885 166.93 164.992 158.459 -103.618 195.009 39.1356 -143.908 148.369 4.35817 -172.936 141.401 8.31266 -196.666 146.516 30.3848 -207.919 162.066 65.338 -135.162 180.17 99.5901 9.3926 7.41887 5.75344 
162.185 172.916 174.341 173.738 168.575 160.352 165.627 166.992 165.228 158.837 -102.525 194.123 38.5845 -142.769 148.496 3.7621 -171.906 141.199 7.70749 -195.632 146.146 29.6381 -207.153 161.719 64.5223 -134.326 180.053 98.789 9.53371 7.37707 5.88845 
163.096 172.81 174.353 173.65 168.481 161.388 165.526 166.914 165.171 158.963 -100.656 193.375 37.7922 -141.55 148.57 2.96223 -170.952 141.3 6.92963 -194.729 146.128 28.8553 -206.609 161.28 63.8091 -133.473 179.956 97.9586 9.74427 7.41209 6.08677 
163.583 172.606 174.305 173.607 168.104 162.057 165.363 166.744 165.032 158.839 -99.2668 193.155 37.5367 -139.748 148.438 2.52042 -169.744 141.362 6.40398 -193.75 146.377 28.1319 -206.228 161.096 63.11 -132.756 180.28 97.3877 10.0465 7.47029 6.47049 
164.033 172.345 174.369 173.547 167.854 162.64 165.209 166.616 164.887 158.704 -97.7821 193.472 37.1358 -138.409 148.535 2.01094 -168.742 141.719 5.81466 -192.809 146.909 27.3586 -205.748 161.126 62.3245 -132.104 180.698 96.8362 10.2188 7.43237 6.6752 
163.633 172.552 174.389 173.065 166.359 162.336 165.496 166.739 164.471 157.636 -97.382 193.728 36.7988 -136.986 148.4 1.3566 -167.283 141.673 4.95189 -191.66 147.273 26.6571 -205.058 161.511 61.6912 -131.32 180.927 96.1841 10.5662 7.6734 6.63281 
163.577 173.207 174.478 172.593 164.724 162.322 166.296 167.304 164.325 156.659 -96.614 193.727 36.2897 -135.213 148.162 0.309599 -165.655 141.321 3.74779 -190.61 147.441 25.7092 -204.398 162.29 60.8652 -130.54 181.11 95.3631 11.015 8.10962 6.73583 
164.251 172.252 172.867 170.342 164.203 162.78 165.974 166.446 162.726 153.727 -95.145 193.22 34.8733 -131.074 147.652 -1.53894 -163.198 140.316 2.16335 -189.373 146.982 24.5812 -203.598 162.424 59.1576 -129.867 180.822 93.8281 11.2503 9.00718 8.13065 
165.528 171.287 170.776 168.505 163.613 163.617 164.982 165.016 161.459 150.711 -93.1032 192.862 33.3263 -127.351 148.022 -2.53492 -160.515 140.303 0.932182 -187.571 146.74 23.3549 -202.231 162.86 57.3057 -129.061 180.671 92.5472 11.3988 9.50854 9.01856 
166.521 170.137 168.733 166.743 163.495 164.557 163.516 163.377 160.101 147.973 -90.9128 192.824 31.5417 -124.958 148.864 -3.56404 -158.553 141.108 -0.387028 -186.283 147.025 22.1195 -201.026 163.28 55.706 -128.116 180.19 91.1316 11.4557 9.98042 9.43528 
167.421 169.128 166.762 164.858 163.079 165.659 162.198 161.792 158.7 145.876 -88.6907 192.775 29.7801 -123.358 149.878 -4.73633 -157.37 142.218 -1.62691 -185.69 147.666 21.1039 -200.255 163.485 54.4811 -127.305 179.779 89.6672 11.3673 10.4955 9.84132 
169.609 166.862 165.124 163.849 162.419 167.54 160.882 161.144 158.494 146.298 -86.9443 192.732 27.9682 -123.328 151.672 -6.4587 -157.822 143.727 -2.87469 -186.129 149.057 20.3411 -200.298 164.337 53.7347 -126.709 179.497 88.2871 11.2674 10.7862 10.4206 
171.001 165.451 163.677 163.411 162.279 168.832 160.804 160.752 158.224 146.682 -85.3864 192.604 25.9949 -123.603 152.078 -8.7401 -158.617 144.69 -4.4326 -186.628 150.373 19.4145 -200.281 165.313 53.1452 -125.884 178.95 86.6875 11.3658 10.9624 10.872 
171.927 164.557 163.409 163.299 161.984 169.948 161.178 160.814 158.459 146.695 -82.9493 191.555 23.882 -123.489 150.656 -11.0095 -158.839 144.073 -6.26449 -186.271 150.034 18.1494 -199.347 164.705 52.2223 -124.522 177.461 84.7956 11.3873 10.9073 11.0872 
172.125 163.937 162.866 159.262 159.237 170.239 160.265 159.395 154.659 144.969 -79.3681 190.115 23.5479 -120.805 148.339 -11.5575 -156.43 142.478 -7.06106 -183.706 150.741 16.4921 -197.773 164.04 50.1296 -123.218 176.802 83.439 11.4496 10.7785 11.1876 
171.207 163.147 161.642 155.224 156.163 169.624 159.258 157.664 151.518 143.131 -77.0001 189.081 23.7719 -117.753 145.9 -11.3679 -153.676 140.762 -7.33658 -180.563 151.054 15.1403 -195.806 163.263 47.7883 -122.214 176.529 82.429 11.3899 10.5858 11.3613 
170.029 162.465 160.37 152.171 153.237 168.633 158.176 155.836 148.932 141.761 -76.0096 188.851 23.791 -115.739 144.445 -11.0681 -151.658 139.881 -7.36406 -178.141 151.684 14.3019 -194.299 162.282 46.1912 -121.586 176.574 81.6085 11.4215 10.568 11.3993 
169.272 162.071 159.548 151.163 151.074 168.333 157.228 154.407 147.046 140.973 -74.6416 188.889 23.461 -114.916 144.37 -11.4025 -150.693 140.199 -7.82375 -176.829 152.837 13.3038 -193.57 161.745 45.0443 -121.205 176.667 80.6473 11.8057 10.5975 11.3504 
170.561 163.805 161.892 149.256 152.251 169.53 158.159 156.197 147.418 142.758 -73.1651 188.717 22.3916 -114.806 145.143 -13.3119 -151.606 140.666 -9.36506 -177.041 154.067 12.3086 -194.196 161.79 44.3136 -120.973 176.563 79.4677 12.3478 10.7698 12.1668 
171.047 164.878 164.676 149.503 154.619 169.942 158.904 157.843 148.067 144.731 -72.1711 188.538 21.5455 -114.197 145.552 -14.7509 -151.714 140.406 -10.6534 -176.719 154.278 11.368 -194.362 161.156 43.4975 -120.627 176.541 78.5452 12.7857 10.86 12.7338 
171.234 165.442 166.706 152.631 157.832 170.299 159.707 159.386 149.696 146.57 -71.2165 188.337 20.8364 -113.424 145.602 -15.8294 -151.51 139.573 -11.4182 -176.624 153.073 10.7323 -194.486 160.108 43.2606 -120.13 176.532 77.9053 13.0349 10.815 13.2418 
170.576 164.961 167.512 155.815 156.827 170.09 159.506 159.48 150.722 147.186 -69.9311 187.324 21.4036 -112.644 145.498 -16.4019 -150.379 138.589 -11.7881 -176.089 151.312 9.91925 -194.177 159.274 42.5313 -119.857 176.939 77.2537 13.2697 10.5106 12.9697 
169.546 164.895 168.309 159.372 158.91 169.83 159.743 160.914 152.368 148.514 -70.5116 186.867 20.5706 -112.55 146.106 -17.6418 -150.803 137.844 -12.2332 -176.778 150.036 9.75684 -194.659 158.703 43.0994 -119.596 177.119 76.6914 13.4578 10.596 13.5733 
169.46 165.482 168.071 160.233 158.244 169.853 159.19 160.543 152.192 148.163 -69.0926 185.868 20.7228 -112.588 146.455 -18.272 -150.049 137.698 -12.6719 -176.436 149.284 9.28545 -194.217 158.333 42.6627 -119.273 177.324 76.0059 13.5822 10.5443 13.0435 
169.245 165.924 167.955 160.041 157.109 169.629 158.534 159.915 151.322 147.606 -68.3069 185.403 20.4321 -112.78 146.824 -19.0224 -149.607 137.792 -13.2142 -176.022 149.227 8.73931 -193.709 158.014 42.1272 -119.002 177.488 75.2335 13.7202 10.49 12.6115 
169.002 166.816 167.93 160.311 155.703 169.284 158.061 159.306 150.67 146.9 -68.0363 184.91 19.9685 -113.224 147.243 -19.9105 -149.32 138.125 -13.9126 -175.73 149.106 8.18422 -193.163 157.768 41.6662 -118.678 177.563 74.4121 13.7592 10.397 12.0953 
168.605 167.52 167.99 161.079 154.488 168.9 157.893 158.889 150.219 146.254 -68.118 184.595 19.4236 -113.6 147.525 -20.7383 -149.142 138.244 -14.4914 -175.582 148.796 7.79028 -192.67 157.416 41.3772 -118.325 177.592 73.6322 13.7255 10.3801 11.7515 
168.165 168.005 168.095 161.745 153.4 168.548 157.834 158.596 149.882 145.849 -68.4051 184.6 18.8175 -113.781 147.632 -21.4244 -148.894 138.103 -14.956 -175.343 148.337 7.44275 -192.156 156.946 41.036 -117.923 177.583 72.9009 13.63 10.3757 11.5255 
165.606 167.291 167.784 161.894 153.547 168.535 158.332 159.667 150.421 146.89 -70.2121 184.693 17.3503 -114.582 148.323 -22.5821 -149.785 137.516 -15.372 -175.647 147.776 7.56454 -192.056 155.894 41.725 -117.565 177.311 72.2371 13.542 10.4312 11.9979 
166.535 167.368 167.43 162.19 153.789 168.676 158.155 159.318 150.393 146.615 -68.7944 183.858 17.0138 -114.176 148.03 -22.922 -148.67 137.396 -16.008 -174.667 147.023 6.77539 -191.115 155.5 40.6836 -116.945 177.027 71.5384 13.4047 10.2429 11.4444 
167.378 167.556 167.179 162.245 152.745 168.654 157.819 158.886 150.944 146.57 -67.7536 183.051 16.4385 -113.694 147.701 -23.2653 -147.574 137.225 -16.6503 -173.727 145.884 5.97711 -190.111 155.115 39.6018 -116.331 176.706 70.8473 13.1473 9.98296 10.9552 
169.088 167.146 166.959 163.506 154.368 170.005 158.422 159.988 152.37 147.53 -67.8069 181.85 15.307 -113.662 148.081 -24.1521 -147.744 136.651 -17.1908 -173.862 144.859 5.73075 -189.877 154.466 39.719 -116.138 176.612 70.3032 12.9018 10.0403 11.4117 
169.726 166.352 166.999 163.736 156.019 170.848 158.467 160.712 153.421 148.309 -68.0812 180.861 14.3592 -113.724 148.497 -25.0635 -147.954 136.331 -17.9252 -173.804 143.899 5.39241 -189.63 153.998 39.6964 -115.857 176.38 69.655 12.8161 9.95819 11.7637 
170.346 165.463 166.696 163.096 157.269 171.363 158 160.91 154.1 148.989 -67.9027 179.714 13.8187 -113.302 148.606 -25.6131 -147.694 136.046 -18.5316 -173.241 142.888 4.92876 -189.021 153.551 39.0947 -115.566 176.178 69.0524 12.5328 9.73971 12.0262 
171.012 164.771 166.313 162.383 158.188 171.572 157.432 160.944 154.758 149.61 -67.2742 178.949 13.3325 -112.801 148.788 -26.2759 -147.167 135.958 -19.3182 -172.509 141.983 4.23248 -188.342 153.191 38.238 -115.244 175.954 68.3947 12.3522 9.5444 12.1198 
171.28 164.339 165.428 162.697 156.076 170.914 156.209 159.76 155.299 149.406 -65.9687 178.509 13.2353 -111.224 148.42 -25.9374 -144.94 136.031 -19.883 -170.639 141.014 2.99655 -186.979 153.271 36.1573 -114.671 175.857 67.8485 12.1797 9.24414 11.4585 
171.042 164.357 164.758 162.274 153.693 170.399 155.29 158.628 155.31 149.236 -65.1653 178.721 12.6326 -110.156 147.944 -25.9221 -143.334 135.839 -20.3596 -169.46 140.185 2.08326 -186.107 152.999 34.7033 -114.285 175.691 67.2198 12.1091 9.2705 10.9808 
170.55 164.705 164.206 161.535 151.169 169.396 154.657 157.632 155.43 149.202 -64.4254 178.805 11.4213 -108.413 146.886 -26.4218 -140.984 134.792 -21.2711 -167.755 138.371 0.738547 -184.609 151.743 32.6152 -113.631 175.174 66.043 11.8007 9.50667 10.5765 
170.327 165.214 164.349 161.265 150.492 168.577 154.58 157.267 155.418 149.487 -64.9746 179.25 10.3697 -108.01 146.208 -26.5743 -140.124 133.928 -21.4263 -167.204 137.163 0.498276 -184.115 150.396 32.082 -113.396 174.872 65.5895 11.6437 9.69249 10.3341 
170.214 165.598 164.518 161.347 150.925 168.032 154.6 157.109 155.55 150.13 -65.0353 179.544 9.33987 -107.426 145.792 -27.0039 -139.21 133.259 -21.866 -166.48 136.101 -0.0139627 -183.553 149.063 31.3206 -113.028 174.542 65.0055 11.553 9.81146 10.2146 
170.015 165.852 164.589 161.49 151.958 167.592 154.601 156.952 155.634 150.821 -64.9748 179.731 8.34401 -106.829 145.292 -27.4577 -138.309 132.523 -22.3318 -165.692 135.019 -0.57569 -182.928 147.618 30.5649 -112.57 174.037 64.4331 11.4827 9.87325 10.1134 
170.08 166.298 164.873 161.889 153.416 167.449 155.018 157.202 155.957 151.678 -64.5997 179.713 7.40628 -106.005 144.41 -27.9997 -137.349 131.464 -22.8746 -164.909 133.788 -1.23989 -182.391 146.161 29.7612 -112.105 173.518 63.8375 11.5122 9.94233 10.0875 
170.2 166.493 165.047 162.257 154.947 167.453 155.276 157.412 156.213 152.458 -64.22 179.495 6.38673 -105.325 143.646 -28.6828 -136.552 130.411 -23.5013 -164.201 132.569 -1.93069 -181.885 144.684 29.0157 -111.606 172.925 63.1475 11.5725 9.9749 10.1184 
170.423 166.836 165.447 162.716 156.509 167.593 155.833 157.861 156.556 153.267 -63.8937 179.069 5.30878 -104.666 142.673 -29.5911 -135.896 129.233 -24.2507 -163.6 131.362 -2.68332 -181.433 143.278 28.3033 -111.062 172.204 62.3834 11.6585 9.98925 10.1954 
170.596 167.105 166.02 163.244 157.831 167.745 156.551 158.504 156.942 153.883 -63.479 178.407 4.32115 -103.651 141.205 -30.5911 -135.028 127.691 -25.1155 -162.872 130.019 -3.5984 -180.934 141.922 27.483 -110.45 171.402 61.4716 11.8385 10.0152 10.3041 
170.748 167.047 166.366 163.65 158.849 167.995 156.996 158.828 157.134 154.18 -62.8736 177.403 3.11941 -102.979 139.83 -31.6954 -134.29 126.326 -26.0662 -162.18 128.759 -4.51701 -180.287 140.657 26.6894 -109.735 170.426 60.4384 11.9252 10.0345 10.2545 
171.254 166.697 166.585 164.638 160.571 168.199 157.287 159.026 157.025 154.854 -62.0279 174.852 2.56208 -100.237 136.841 -32.1871 -131.551 124.347 -27.3566 -160.107 127.676 -6.58133 -179.024 138.746 24.6442 -108.638 168.878 59.1894 12.4326 10.1021 9.8089 
171.037 166.382 166.495 165.068 161.699 167.975 157.338 158.711 156.747 155.2 -60.9182 173.312 1.77265 -97.916 134.741 -32.8992 -129.184 123.162 -28.7999 -158.193 126.724 -8.61828 -177.776 136.92 22.6306 -107.649 167.481 57.8247 12.8875 10.1743 9.42905 
170.34 165.957 166.177 165.225 162.255 167.25 157.057 157.949 156.169 155.149 -60.065 172.573 1.0055 -95.9182 133.5 -33.7894 -127.105 122.729 -30.3863 -156.426 126.297 -10.727 -176.523 135.479 20.484 -106.816 166.364 56.3615 13.262 10.2078 9.12049 
169.501 165.404 165.706 165.219 162.466 166.412 156.345 156.843 155.389 154.85 -59.326 171.805 0.30275 -94.1914 132.546 -34.4915 -125.144 122.397 -31.7897 -154.636 125.863 -12.6715 -175.047 133.994 18.3658 -106.032 165.314 54.9579 13.4489 10.1514 8.78361 
168.853 164.952 165.346 165.076 162.54 165.747 155.58 155.811 154.767 154.451 -58.2915 170.45 -0.33531 -92.8364 131.711 -35.119 -123.293 122.082 -33.1039 -152.964 125.267 -14.4353 -173.561 132.583 16.4108 -105.306 164.283 53.6367 13.5239 10.1366 8.28949 
168.256 164.64 165.198 164.972 162.401 165.246 154.872 155.062 154.355 153.986 -57.1552 169.163 -0.863313 -91.9019 131.449 -35.8124 -121.835 122.089 -34.3233 -151.657 124.819 -15.8704 -172.326 131.622 14.8166 -104.695 163.435 52.4999 13.5043 10.1842 7.84329 
167.901 164.391 165.153 164.902 162.436 164.979 154.497 154.569 154.175 153.703 -56.2974 168.225 -1.51805 -91.3679 131.305 -36.6286 -120.813 122.127 -35.4428 -150.699 124.437 -17.0447 -171.341 130.902 13.5318 -104.207 162.772 51.5011 13.39 10.2218 7.44491 
167.778 164.565 165.549 165.167 162.815 164.916 154.69 154.687 154.429 153.807 -55.4374 167.131 -2.26776 -91.0265 130.808 -37.6727 -120.216 121.879 -36.6753 -150.123 124.027 -18.2274 -170.603 130.332 12.2757 -103.685 162.023 50.4859 13.1978 10.2483 7.18727 
167.499 164.68 165.925 165.382 163.048 164.669 154.979 154.919 154.716 153.936 -54.797 166.362 -2.92453 -90.7842 130.384 -38.7017 -119.841 121.604 -37.8306 -149.689 123.776 -19.3385 -169.989 130.085 11.0936 -103.225 161.461 49.5501 12.968 10.2102 7.03672 
166.976 164.604 166.158 165.297 162.95 164.365 155.049 154.994 154.814 153.939 -53.9612 165.473 -3.58162 -90.8976 130.124 -39.9214 -119.906 121.495 -39.1022 -149.521 123.717 -20.5251 -169.56 130.124 9.88989 -102.731 160.749 48.5375 12.7295 10.0859 6.93818 
166.364 164.35 166.3 164.997 162.602 164.015 154.9 155.084 155.102 153.919 -53.1508 164.716 -4.03644 -91.1819 130.158 -41.0272 -120.12 121.367 -40.1849 -149.529 123.456 -21.5346 -169.372 130.401 8.85858 -102.408 160.284 47.6247 12.4634 9.99178 6.87981 
165.957 163.961 166.284 164.568 162.081 163.846 154.583 155.123 155.375 153.852 -52.476 164.172 -4.45363 -91.5577 130.347 -41.8996 -120.418 121.114 -40.9472 -149.615 123.035 -22.2033 -169.298 130.647 8.20203 -102.19 159.982 46.9324 12.2358 9.90241 6.89478 
166.074 163.551 166.187 164.157 161.701 163.887 154.273 155.231 155.576 153.879 -51.9206 163.651 -4.66477 -91.3805 130.02 -42.1757 -120.218 120.336 -41.211 -149.324 122.309 -22.5308 -169.084 130.548 7.75386 -101.985 159.823 46.5574 12.1182 9.8158 6.97349 
166.637 163.111 165.848 163.946 161.397 164.167 154.077 155.217 155.569 153.699 -51.5057 163.43 -5.02296 -90.734 129.388 -42.221 -119.78 119.417 -41.2627 -148.91 121.657 -22.7561 -168.833 130.379 7.38704 -101.805 159.798 46.236 12.0918 9.75539 7.20324 
167.24 162.611 165.359 163.662 160.964 164.427 153.857 155.07 155.431 153.35 -51.2394 162.95 -5.36402 -89.8758 128.373 -42.0024 -119.161 118.144 -41.0519 -148.367 120.686 -22.7496 -168.451 129.865 7.20026 -101.577 159.618 46.0162 12.0591 9.72824 7.45821 
167.789 162.216 164.95 163.467 160.667 164.713 153.823 155.039 155.393 153.144 -50.9712 162.598 -5.78218 -88.9807 127.426 -41.8828 -118.614 116.931 -40.8743 -147.938 119.705 -22.7152 -168.159 129.288 7.07994 -101.346 159.452 45.773 12.0466 9.75461 7.80207 
168.376 161.878 164.487 163.342 160.41 164.999 153.744 154.947 155.329 152.968 -50.787 162.222 -6.12696 -87.7435 126.393 -41.5933 -117.727 115.657 -40.6114 -147.202 118.64 -22.7072 -167.663 128.587 6.84369 -101.059 159.264 45.5744 12.047 9.76877 8.14725 
168.995 161.587 164.009 163.3 160.242 165.417 153.658 154.785 155.283 152.848 -50.4839 161.846 -6.58725 -86.6363 125.55 -41.4199 -116.915 114.58 -40.422 -146.537 117.615 -22.698 -167.209 127.84 6.66098 -100.755 159.026 45.3428 12.0712 9.81424 8.46271 
169.574 161.435 163.645 163.425 160.257 165.834 153.709 154.766 155.36 152.871 -50.1765 161.501 -7.07108 -85.4241 124.745 -41.3328 -116.03 113.504 -40.3195 -145.829 116.559 -22.7597 -166.742 127.033 6.4222 -100.421 158.734 45.0813 12.1201 9.88239 8.8154 
