178.496 162.6 165.178 165.898 165.573 165.581 153.5 141.991 150.181 145.946 29.036 214.868 -1.93171 39.5191 156.137 -27.6608 44.5711 137.427 -8.64416 66.8937 126.029 3.69914 92.5704 132.177 24.8174 75.9621 207.446 44.475 10.4811 7.00421 13.6935 
171.501 174.27 180 174.27 174.27 166.316 177.969 180 177.982 177.632 30.7267 214.625 -2.16929 56.1059 240.788 -49.4981 74.4013 224.072 -41.2855 81.4616 203.18 -32.6303 123.599 205.157 0.372988 81.4949 226.49 48.4145 20.861 13.4033 7.03534 
166.52 176.407 180 90.0456 173.204 155.383 178.497 179.24 47.073 173.93 58.5029 257.052 -1.22017 69.4304 281.234 -63.9985 71.7236 176.885 -12.0819 91.7358 204.915 7.81719 89.0963 153.424 -3.07427 79.6434 232.229 47.1036 37.4258 48.1792 73.4308 
167.126 158.903 179.21 165.97 167.789 165.88 146.485 122.874 160.815 153.226 106.042 174.159 28.8899 86.2901 151.478 -3.923 60.6896 157.236 5.41899 27.7255 179.01 -34.8841 15.4736 185.202 -0.863769 70.9015 227.12 43.0096 10.4391 38.9201 9.47565 
171.131 144.354 158.782 155.609 157.508 165.402 105.186 123.476 146.024 138.645 109.718 159.824 23.4647 69.2172 156.488 21.6315 53.648 151.008 1.64223 28.8893 165.733 -25.4151 16.0578 182.096 -2.9651 66.8692 220.416 34.9799 3.10644 26.9901 18.5945 
170.972 145.945 129.535 157.558 153.547 165.173 104.896 111.629 146.13 134.533 107.387 154.156 27.3364 68.7882 148.964 22.8877 55.1003 147.643 17.6312 27.9513 155.253 -22.3764 15.6548 175.21 -0.520771 64.7495 214.951 33.0167 3.92715 37.1641 8.1957 
166.14 147.419 135.479 156.949 152.211 163.359 110.683 116.467 142.294 131.636 101.13 152.877 28.8865 66.4115 144.36 23.7647 52.8952 141.136 17.998 26.7054 151.3 -17.1912 15.3745 172.815 0.438887 62.9357 213.023 31.924 2.36011 33.0641 8.44159 
163.496 151.136 137.291 158.154 152.463 162.411 116.093 125.239 140.627 133.586 96.5631 153.519 29.9998 63.1978 141.299 22.7451 49.203 136.856 10.6881 25.1817 152.815 -18.3898 13.211 174.314 -3.35008 61.5914 212.807 31.8405 0.798179 27.7401 11.0006 
163.204 157.867 142.837 159.524 153.829 161.727 123.023 136.242 142.901 135.723 94.8422 154.595 30.8822 60.4624 138.987 21.9995 44.9016 134.826 3.51791 23.6981 154.627 -21.0861 11.9602 176.035 -5.16989 60.4607 213.837 31.855 1.26907 23.6054 13.5823 
162.893 166.868 156.155 160.813 157.095 160.529 129.044 147.08 146.775 138.679 92.5105 155.674 31.3116 58.0145 138.035 19.8452 41.5199 134.575 -3.7968 22.2285 157.105 -24.1195 11.4776 177.731 -5.75362 59.6553 215.308 32.1833 3.19885 20.4197 16.0975 
162.208 172.272 153.842 159.37 156.916 159.33 131.638 151.78 148.503 138.264 93.0822 157.847 31.6494 57.7852 137.563 17.5833 39.96 136.243 -7.44993 20.5758 160.172 -25.904 9.82049 180.044 -5.00799 58.9757 216.519 33.047 4.66856 19.6331 16.2628 
160.268 164.596 157.995 160.489 158.114 157.257 135.103 158.671 152.078 142.135 90.0348 160.111 32.221 55.2628 136.422 18.6328 36.9674 135.833 -12.3622 18.5513 160.762 -26.4972 7.10251 182.322 -7.17814 56.947 216.857 34.3417 1.99323 16.6766 19.9206 
160.508 155.643 156.308 161.777 156.956 153.305 129.717 160.813 154.825 147.621 87.1059 161.742 32.2796 55.5605 135.415 20.6522 35.6895 133.07 -10.5448 17.936 159.341 -26.726 5.15326 183.511 -9.74682 56.3088 215.854 35.4576 1.85226 17.8661 19.2471 
159.833 154.214 160.784 163.568 156.29 149.69 133.029 165.402 158.35 153.108 80.8217 161.912 34.3102 53.7369 131.668 18.7967 34.2829 131.626 -13.7812 16.5112 159.111 -28.0795 4.52258 184.187 -11.5733 55.2928 214.375 36.9402 2.45051 16.664 19.0558 
155.69 153.423 159.189 163.011 157.009 147.594 130.294 167.107 158.762 157.437 80.2655 163.614 34.7825 50.2048 132.587 20.474 32.4052 131.655 -15.6938 14.4561 157.3 -27.4942 5.12164 182.688 -10.3492 53.8486 213.671 37.0883 1.98249 14.2025 22.0592 
156.276 153.93 158.004 160.824 160.212 148.67 128.098 166.447 157.395 153.647 77.6514 162.457 36.2988 46.9527 132.115 25.4721 29.1843 129.702 -14.6879 12.1572 153.555 -25.3798 3.21335 179.894 -7.7814 52.0201 212.645 36.8708 1.26277 12.2609 25.3962 
156.689 152.116 156.622 160.09 158.16 150.856 128.688 161.986 154.222 147.192 75.6239 160.194 39.6944 44.1072 133.084 30.6756 28.5764 128.598 -10.883 10.9031 151.33 -22.7116 1.20382 178.04 -6.52522 49.8437 213.167 36.1562 1.05053 12.5377 27.6529 
154.299 148.461 155.103 159.651 157.354 151.426 125.634 156.326 151.129 146.439 73.4993 160.31 40.7435 42.9229 137.047 35.558 28.0153 129.207 -6.09188 9.52312 151.084 -21.2487 -2.26444 179.628 -9.47654 48.1006 214.362 35.1974 4.98064 14.7237 29.7741 
155.993 147.867 155.425 158.264 156.182 152.982 120.976 149.69 147.769 143.89 70.037 158.952 40.2113 44.2481 141.451 37.5025 27.5888 131.225 -1.15167 9.15315 150.761 -17.9158 -3.8057 179.004 -7.79001 46.8929 215.893 34.5783 6.07973 15.758 28.9954 
156.965 148.572 160.399 158.936 156.921 154.217 120.411 148.19 146.676 142.423 71.2984 159.254 38.9258 44.3526 142.892 36.1398 27.2029 132.149 0.274531 8.56577 151.215 -15.6027 -4.5863 178.867 -5.88213 45.7351 217.054 34.5857 5.82046 15.1543 26.8713 
157.247 151.618 164.131 162.34 158.376 153.682 122.954 150.672 150.049 145.055 71.2742 161.54 38.7436 44.2972 141.968 33.9566 27.6488 131.487 -0.729365 7.98228 151.653 -16.3828 -5.60881 179.516 -5.67567 44.5095 218.212 35.5469 5.49607 15.1573 24.9051 
158.071 163.131 165.983 165.995 160.63 154.303 133.647 154.821 155.487 150.836 70.6674 163.826 41.2135 42.9055 137.938 30.0499 27.2702 131.313 -2.15632 6.68502 152.818 -17.1977 -7.30923 181.123 -5.74007 43.7037 219.721 37.5713 5.43296 14.744 20.7497 
159.142 164.796 167.162 166.6 163.088 154.527 134.651 156.721 157.16 152.77 66.6096 164.346 42.1626 40.5104 139.021 31.6008 24.9782 132.198 -3.30317 4.80057 154.4 -16.3329 -8.22933 181.725 -3.51046 42.6957 221.031 38.8111 3.89539 13.655 22.5849 
159.6 167.793 168.713 167.632 165.257 152.296 135.88 159.463 159.321 155.328 61.4197 166.877 42.4093 37.8693 140.649 30.8012 21.2844 134.284 -6.1131 2.87886 156.148 -15.8959 -9.56489 183.188 -0.672423 41.4629 222.43 39.7215 2.33366 11.6791 24.0225 
158.981 171.567 169.167 165.637 161.827 151.864 133.735 160.712 158.505 155.394 58.9954 166.11 43.5475 33.1698 143.838 31.0807 16.4673 135.815 -7.23848 -0.0972266 157.3 -12.3031 -11.7843 183.458 2.9879 39.6104 223.261 39.7419 1.2412 8.77052 25.7911 
159.974 175.65 169.353 166.152 160.013 152.484 139.866 162.168 163.673 160.266 57.0964 166.794 43.5834 29.2039 143.441 27.62 12.3523 137.025 -7.86942 -3.88593 157.812 -11.4863 -14.8347 183.969 1.7955 37.5314 224.077 39.5969 2.6226 7.65552 23.2749 
161.74 174.885 170.064 166.154 162.668 154.34 153.035 164.672 169.201 164.585 52.3778 167.69 43.8543 25.3784 140.312 22.6722 8.0334 136.901 -7.21829 -7.72051 157.812 -11.1949 -19.5571 185.141 -1.69872 35.6641 223.867 39.6927 5.83016 7.44453 18.0112 
162.312 174.852 167.382 168.456 165.362 155.12 155.35 163.316 169.166 166.832 41.6624 165.591 48.2383 18.5295 138.277 27.7264 2.82745 136.387 -3.05988 -12.9752 157.733 -9.78522 -25.6392 185.584 -0.586792 31.8653 221.64 42.4203 5.50279 8.20764 18.1578 
160.007 174.994 170.556 170.592 165.637 155.599 156.419 165.913 170.036 167.47 36.294 164.441 53.7702 18.5836 133.896 26.177 0.814793 134.439 -2.99327 -15.3789 157.514 -11.3069 -29.1413 187.254 -2.78282 30.272 218.911 45.6803 6.85197 8.2526 14.2899 
158.717 178.004 170.77 170.829 164.28 156.716 156.335 167.328 169.354 166.275 34.2084 161.517 62.21 18.3151 131.048 25.7935 0.470188 132.659 -1.32286 -15.5631 156.242 -10.4687 -27.9699 187.146 -3.43382 28.5209 217.505 49.522 6.62297 7.67754 10.509 
157.925 179.972 176.222 175.724 170.914 151.734 169.29 173.611 173.796 174.517 27.7646 163.397 63.7295 16.053 123.695 24.259 0.150369 131.221 -3.85654 -15.6689 156.962 -13.5583 -26.5706 189.862 -5.56065 26.1133 216.221 53.8353 7.1518 8.35192 10.2426 
156.124 178.795 176.476 176.754 174.193 147.303 167.637 175.242 175.906 177.337 23.1921 167.494 62.2526 11.6948 123.577 23.7923 -2.74923 131.725 -4.23185 -17.7768 156.106 -12.019 -27.0083 188.211 -4.92918 24.2853 215.478 56.6969 6.50885 6.49497 9.94239 
161.203 173.876 176.898 176.677 176.646 146.01 168.898 175.643 176.212 177.412 17.7299 163.981 59.4152 2.2698 131.436 16.537 -8.21691 133.267 -4.49739 -22.346 154.936 -9.72214 -28.9036 185.164 -3.13745 20.6773 213.73 57.7869 5.48176 3.91656 6.59681 
162.609 179.205 176.581 177.674 175.362 143.838 172.498 175.227 177.354 174.778 12.9686 161.408 59.5086 -1.49562 135.209 11.2245 -13.6265 135.859 -4.74098 -20.3913 148.822 -5.68886 -32.7699 184.349 -3.67223 18.0168 212.531 58.2824 10.7947 5.58712 5.32178 
162.595 178.473 176.914 175.073 173.142 139.828 177.032 174.431 178.319 173.121 11.4008 159.377 63.3877 -1.79304 134.517 10.4379 -18.2654 137.564 -4.13703 -16.5034 144.385 -2.41668 -35.8509 184.569 -3.06536 15.8123 211.428 58.9073 16.4294 13.2817 2.22991 
160.752 175.598 176.744 175.595 175.743 132.765 169.982 175.147 178.506 172.065 8.95914 160.213 63.956 -9.47024 141.337 8.1812 -22.4438 143.099 -2.56078 -15.4739 138.329 4.06075 -36.9731 189.573 0.427587 14.1709 212.144 61.2574 23.8209 21.1819 6.39216 
158.23 174.524 176.45 175.804 176.153 132.129 165.955 176.929 178.577 172.074 9.12744 162.908 67.453 -9.44253 136.994 17.6746 -24.7984 146.38 0.225712 -20.2001 139.648 3.79861 -37.3254 193.578 0.0396304 13.197 214.416 62.51 23.4164 20.0509 2.56258 
155.27 176.615 179.994 175.635 175.705 131.718 168.72 179.845 178.52 171.935 9.5852 167.536 68.3502 -15.1983 138.478 19.2017 -25.3124 145.949 1.55807 -24.1797 145.617 3.83802 -39.2407 197.335 -0.865521 11.8839 217.332 63.5569 22.2875 15.4195 4.59089 
155.439 177.257 176.941 175.105 174.593 133.679 171.681 174.956 178.337 167.491 14.2406 169.415 70.6089 -18.4416 137.276 20.0274 -29.8266 145.987 5.23615 -31.3325 153.243 6.62683 -45.8734 199.879 3.73694 10.3901 219.598 63.0111 19.5011 10.9251 2.5571 
159.693 175.094 177.223 164.325 172.621 142.522 170.111 167.143 168.584 162.731 11.7561 167.467 71.9756 -30.9338 147.574 18.2122 -41.7802 154.4 4.50331 -41.2362 159.582 12.3596 -51.387 204.957 6.67638 8.52525 223.177 62.2184 18.3962 14.6838 3.47133 
161.303 160.582 172.213 160.441 169.777 146.613 159.085 161.553 165.368 160.506 1.06178 169.825 70.46 -40.1156 157.315 27.1966 -50.8354 162.739 6.2886 -51.984 173.809 10.9152 -56.6025 213 10.5357 6.99113 227.217 61.962 12.097 9.45782 6.41616 
164.633 170.12 171.577 167.784 170.784 151.322 153.975 160.985 163.439 159.177 -4.53956 169.943 68.6496 -43.4347 162.133 31.0274 -51.7709 167.683 4.75188 -54.6612 185.086 5.48927 -55.2403 218.462 10.7856 7.96779 229.363 61.9155 6.38872 3.77183 10.8449 
167.522 154.956 170.48 170.7 169.994 154.045 140.17 161.891 162.847 160.747 -10.425 172.721 73.4891 -42.1279 164.419 41.7352 -52.9883 169.522 5.2606 -57.1516 189.902 4.82755 -55.5665 222.131 7.86868 6.92331 233.071 62.2394 6.85624 1.50519 16.5688 
166.033 144.066 169.658 170.077 169.436 157.84 134.798 160.309 162.142 162.939 -12.6784 174.667 77.9155 -39.7615 166.636 41.0715 -55.9737 173.341 6.43777 -59.0362 195.711 -1.04587 -57.1346 228.661 3.26418 4.66494 238.497 61.3216 7.27314 5.29008 14.3057 
166.816 142.151 167.976 165.601 169.213 160.258 138.486 163.757 163.994 164.151 -13.5287 176.042 80.9907 -38.584 165.328 37.5534 -54.1697 173.143 -0.174588 -60.543 199.729 -4.82241 -59.9489 231.941 1.13879 2.72508 241.803 60.1762 6.26508 4.53718 15.9793 
166.774 161.916 169.207 168.1 170.479 160.251 149.234 166.598 165.652 166.154 -17.4294 177.232 82.1232 -39.9878 161.615 32.4085 -55.5402 172.021 -4.3327 -63.4327 200.965 -8.38617 -63.426 233.809 0.0310183 0.124738 243.01 59.5688 6.04986 5.72923 15.1648 
164.707 170.726 171.313 170.587 172.45 158.495 157.355 168.235 168.558 168.563 -24.9985 179.205 82.2841 -44.9066 160.131 29.2079 -58.9849 170.9 -5.75752 -67.1293 200.537 -9.70004 -66.4598 233.592 0.831938 -2.31222 242.593 59.7972 5.40928 6.05095 13.5565 
163.782 176.411 172.199 171.707 173.367 159.029 166.349 168.234 168.124 168.043 -29.3042 178.743 84.5666 -51.078 159.049 27.7048 -59.9628 166.447 -3.44083 -68.2946 196.463 -8.86563 -65.8627 230.076 0.128742 -3.3735 240.636 61.092 5.35357 6.17559 10.0926 
166.489 179.44 172.193 171.805 172.892 163.441 167.807 167.2 167.227 166.01 -30.9483 176.71 85.1876 -54.3671 159.233 32.5261 -60.7913 162.159 1.55114 -66.6835 191.928 -7.637 -62.8329 226.115 -1.29993 -4.16182 237.016 62.7397 6.02068 6.74889 10.4161 
169.485 178.85 172.07 171.02 171.782 168.205 169.132 166.412 166.278 164.03 -29.6034 174.201 81.9307 -60.9044 158.042 38.6969 -62.1683 158.165 6.21316 -65.4761 186.125 -5.47131 -59.7704 219.861 -2.32016 -4.94396 232.641 64.0468 6.38173 6.43554 12.9033 
165.87 179.058 171.506 169.301 170.438 169.679 161.716 165.36 164.327 161.704 -30.9632 172.044 82.5719 -63.1817 157.851 47.6247 -64.9686 154.928 11.9011 -65.442 179.257 -1.53629 -57.7887 212.511 -2.40976 -5.65254 227.378 64.4766 7.22537 5.52138 15.6581 
165.237 177.853 171.13 167.856 169.737 170.764 161.347 163.408 162.843 160.068 -33.6892 169.816 83.2367 -67.8174 156.626 51.8348 -69.4654 154.275 18.0514 -67.4594 175.233 2.20333 -58.0932 207.137 -1.52075 -7.54829 222.473 64.4918 7.9592 6.44195 15.3288 
169.836 176.157 175.012 168.045 168.515 170.117 162.308 163.593 162.671 157.576 -38.0139 167.665 85.8314 -72.1631 155.611 59.7554 -75.6122 154.859 23.1609 -70.2092 171.837 4.97357 -60.3702 202.753 0.371308 -9.52672 217.968 64.0771 7.43169 8.85907 17.0235 
164.733 175.777 179.193 171.14 170.373 169.94 157.855 167.093 165.678 155.972 -42.2153 169.1 87.7261 -75.9677 157.307 70.5598 -80.5944 154.389 27.5031 -72.4579 168.267 5.91397 -62.6017 199.318 1.01921 -11.6829 214.644 63.5245 7.21583 12.2406 22.6112 
149.427 174.645 179.102 174.984 177.869 176.235 154.39 164.379 167.556 159.461 -41.9733 172.239 88.6832 -78.1284 157.811 77.5751 -87.3 154.991 34.7139 -74.654 162.511 8.41624 -64.869 195.665 2.55646 -14.1344 212.513 63.7185 7.44395 17.735 22.1911 
134.036 174.27 179.18 179.01 179.162 178.347 145.241 162.388 168.371 160.28 -41.0647 175.036 90.6531 -78.753 158.783 78.1396 -90.6932 154.881 39.7622 -75.8999 158.373 12.3029 -67.3952 191.741 6.74786 -16.0726 211.395 64.3773 5.6968 20.4411 19.3615 
128.318 174.27 179.12 177.34 175.977 176.638 131.775 169.264 167.867 157.136 -37.4664 172.81 90.4759 -74.9372 155.946 72.0541 -89.5789 147.562 38.7536 -75.2363 155.941 15.8487 -69.2823 189.422 11.2742 -18.0553 211.884 65.6485 4.25141 16.7244 16.3392 
144.016 174.27 179.311 176.195 171.522 161.175 132.305 168.285 167.023 153.1 -46.3494 175.838 98.3619 -74.0903 150.253 76.7393 -90.3377 146.912 40.3886 -75.1972 154.632 17.5997 -71.1185 190.195 13.5453 -20.1889 212.03 66.7621 5.26269 17.6619 16.3743 
152.738 161.259 179.732 176.75 171.783 157.637 129.274 166.99 165.499 146.24 -49.72 175.843 102.922 -77.1516 152.598 78.9461 -90.7893 147.267 41.3594 -77.0655 155.147 17.803 -72.4903 192.078 14.1614 -22.1903 211.974 67.6369 6.13768 17.1766 18.4299 
159.672 149.472 180 176.524 172.729 155.427 126.889 166.135 165.913 142.6 -53.4905 176.697 106.059 -80.0747 155.33 81.215 -91.7548 147.854 40.9859 -78.6042 155.469 16.6468 -73.7108 193.433 13.8178 -23.9575 211.447 68.5623 7.02132 17.2681 21.9249 
160.799 144.817 180 178.379 173.285 153.629 123.889 168.064 166.083 142.023 -54.0058 177.516 107.357 -80.7339 157.959 84.3477 -91.2465 146.265 39.8148 -79.6358 155.456 15.9182 -74.9266 193.734 13.8189 -25.484 211.855 69.4496 7.10218 15.9178 27.3062 
166.399 142.482 180 179.888 171.494 155.427 125.754 170.237 165.805 141.268 -54.5899 175.821 106.928 -82.0933 157.408 86.1536 -90.644 143.763 40.235 -80.333 155.64 14.7858 -75.8416 194.019 13.091 -26.9916 211.547 70.0083 7.43748 15.4988 29.6189 
166.681 139.562 178.446 179.27 172.065 156.817 126.932 170.493 166.273 141.011 -55.3626 175.107 106.079 -82.8037 156.576 87.7005 -90.9196 142.059 40.1594 -81.1406 155.035 14.3118 -76.569 193.849 12.7569 -28.3603 211.246 70.3891 7.72645 15.3756 31.2616 
166.335 137.004 176.37 178.738 173.09 158.386 129.066 170.415 167.007 140.982 -56.1923 173.97 106.287 -83.516 154.848 88.2538 -91.3412 141.05 40.2719 -82.11 154.567 13.9997 -77.7858 194.11 12.6855 -29.4639 210.758 70.6755 8.43169 15.4348 31.3473 
165.679 135.79 170.267 178.279 172.493 159.735 133.28 170.46 167.997 142.185 -57.2368 173.709 107.36 -85.0546 152.595 88.5572 -91.2466 138.499 42.0193 -83.5463 154.702 13.8425 -78.9924 194.832 12.3304 -30.6853 210.357 70.9668 9.27179 15.5829 30.7144 
162.914 134.049 173.98 177.62 173.606 161.09 134.74 169.436 168.44 142.46 -58.0618 173.421 108.839 -86.3002 151.898 87.842 -92.1126 137.981 41.8606 -85.2539 155.259 14.125 -80.3435 195.674 12.3918 -31.8042 210.206 71.26 9.83489 14.9213 30.3349 
163.328 134.41 177.788 176.85 172.028 163.557 137.868 167.51 168.949 142.477 -59.1712 172.487 111.101 -88.2609 150.6 86.6107 -93.6061 138.693 41.9313 -86.6677 156.082 14.2208 -81.8374 197.064 12.2063 -32.8916 210.122 71.5849 10.8137 14.8644 28.5069 
164.861 134.549 176.761 175.353 171.501 164.535 141.484 166.76 168.711 142.463 -60.9251 172.406 112.845 -90.1979 148.95 85.5188 -95.1356 139.163 42.1828 -88.2983 157.07 14.3743 -82.9597 198.337 11.7934 -33.8783 209.728 71.8173 11.6823 14.7443 26.6343 
162.847 131.39 175.019 173.289 170.001 165.574 143.685 166.801 168.041 141.946 -62.0823 172.937 113.831 -90.6528 147.496 84.3306 -95.76 138.9 42.3407 -89.1 157.672 14.4051 -83.1596 198.543 11.5836 -34.6875 209.569 72.2382 11.6025 14.6026 24.9543 
150.689 131.179 173.408 168.977 169.937 172.206 146.768 167.26 167.57 141.541 -62.0914 173.516 115.002 -92.1062 146.067 84.0747 -95.4424 137.816 43.4938 -89.2944 158.62 14.8313 -83.1826 198.924 11.5728 -36.1391 210.21 73.5683 11.5108 14.7967 23.7318 
152.613 136.171 172.357 165.558 173.551 173.48 150.129 169.023 167.142 142.082 -62.5212 174.771 113.305 -92.6754 144.998 84.3733 -94.4089 136.7 43.6466 -88.6705 159.218 14.7979 -83.096 198.951 11.4757 -36.565 211.008 74.081 11.161 14.9447 23.8108 
158.218 139.819 171.655 162.945 171.844 172.56 152.717 169.875 166.501 143.575 -61.6146 174.092 112.727 -92.711 144.159 85.5975 -93.8733 135.696 43.6351 -88.1248 159.401 14.548 -82.7304 198.197 11.7595 -37.0818 211.672 74.6499 10.0994 15.3399 24.5662 
166.3 143.129 170.787 161.328 168.485 172.322 153.573 169.924 165.323 144.953 -61.264 173.194 112.657 -92.8698 143.956 86.9929 -93.9299 135.359 43.3853 -88.2214 159.803 14.5877 -82.9055 198.068 11.9737 -37.4994 212.101 75.0696 9.68792 15.3746 25.6701 
172.445 145.851 170.022 161.442 166.747 172.278 154.155 170.633 164.881 146.883 -60.9759 172.233 113.209 -93.3779 144.033 88.2711 -94.4184 135.252 43.4211 -88.7919 159.858 14.7084 -83.5272 198.065 12.009 -37.8621 212.155 75.3515 9.78925 15.4283 26.6252 
177.86 148.882 169.631 162.345 164.638 172.073 155.047 170.952 165.031 149.384 -61.4007 171.756 113.892 -94.2894 144.422 89.654 -95.2962 135.593 43.5235 -89.2707 159.972 14.6616 -83.8335 198.057 11.9328 -38.2536 212.335 75.6838 9.73629 15.6465 27.5365 
173.361 152.126 168.599 163.209 164.495 171.397 156.6 172.756 165.299 151.247 -62.047 171.58 114.946 -95.2855 144.518 90.5999 -95.744 135.613 43.8514 -90.0154 160.143 14.6955 -84.5716 198.369 11.8892 -38.7321 212.454 75.9974 9.86158 15.7932 28.145 
172.593 155.392 168.755 164.011 165.59 169.643 158.503 173.95 165.548 152.126 -62.9995 172.194 115.426 -96.0043 144.877 92.036 -96.3363 135.698 44.244 -90.9091 160.536 14.8689 -85.3901 199.026 12.0147 -39.0533 212.473 76.2996 10.1472 15.9061 29.116 
176.123 159.3 168.721 164.653 168.018 167.853 160.648 175.013 165.981 152.543 -64.4551 172.919 115.536 -96.7537 144.608 93.1391 -97.2223 135.544 44.0637 -91.7979 160.546 14.8625 -86.2301 199.271 12.0648 -39.4225 212.054 76.4844 10.3562 15.7705 29.9738 
172.179 161.71 168.793 164.685 169.84 166.609 162.658 174.995 166.472 152.205 -64.8959 173.644 116.251 -97.0165 144.228 94.0054 -98.0777 135.548 43.9221 -92.349 160.536 15.0128 -86.8849 199.443 12.44 -39.6966 211.757 76.7796 10.4286 15.6261 30.4927 
168.94 163.774 168.278 164.199 169.7 166.596 163.206 174.382 166.657 151.997 -64.7928 172.799 116.711 -97.0185 143.721 94.4543 -98.7754 135.529 43.9517 -92.5947 160.234 15.1087 -87.4038 199.403 12.485 -39.858 211.076 76.8769 10.8155 15.7147 30.7092 
167.691 164.244 167.861 163.56 170.022 165.87 162.968 174.306 166.952 151.529 -64.958 172.396 116.513 -96.6769 143.314 94.6388 -98.3648 135.303 44.2333 -92.1741 159.772 15.2621 -87.6138 198.977 12.7932 -39.9841 210.686 77.0422 10.8583 15.8923 30.7833 
167.087 165.241 167.406 163.151 172.543 165.17 161.795 174.221 167.211 150.59 -64.7515 172.481 116.041 -95.9885 142.985 94.4557 -97.5559 135.14 44.6355 -91.5194 159.411 15.5033 -87.743 198.403 13.3942 -40.035 210.71 77.2418 10.5409 16.0657 30.4545 
165.739 164.522 167.651 162.973 172.952 164.79 160.639 174.016 167.324 150.611 -64.5288 172.87 115.56 -95.4758 142.819 94.2606 -96.9116 134.882 45.2788 -91.0068 159.195 15.7951 -87.7955 198.079 13.7915 -40.2125 211.1 77.5084 10.352 16.3206 29.8421 
165.262 162.895 167.623 163.002 171.471 164.742 159.93 174.11 167.468 151.518 -64.1252 172.766 115.24 -95.0655 142.797 94.0816 -96.4141 134.656 45.5699 -90.4887 159.148 15.7467 -87.7675 197.958 13.8618 -40.3602 211.507 77.7625 10.2295 16.6406 29.5183 
164.875 160.91 167.704 163.435 171.082 164.646 159.374 174.807 167.75 152.432 -64.0418 173.128 115.114 -95.3094 143.162 94.1037 -96.1185 134.332 45.474 -90.1876 159.116 15.5156 -87.5941 198.025 13.7266 -40.5003 211.871 77.9233 10.1905 16.7291 29.7978 
164.303 160.549 167.651 163.565 169.176 164.786 158.776 174.989 167.578 153.162 -63.7522 172.984 114.89 -95.9149 143.357 93.6782 -96.0172 134.018 44.8673 -89.8987 159.246 14.8921 -87.5094 198.333 13.1649 -40.8397 212.146 78.072 10.3373 16.8238 30.066 
163.805 159.161 168.217 163.468 168.25 165.254 158.942 176.043 167.076 152.867 -64.1378 172.717 115.09 -96.3706 143.209 93.1857 -95.5197 133.623 44.3514 -90.0498 159.4 14.5188 -87.6869 198.799 12.7126 -41.1382 212.142 78.0593 10.696 16.6409 30.3352 
163.026 159.227 172.148 163.449 167.945 165.592 158.986 177.362 166.763 152.301 -64.5357 172.833 115.382 -96.6623 142.967 92.7625 -94.8432 133.158 43.8834 -90.3513 159.678 14.414 -88.0043 199.438 12.4994 -41.4373 212.238 78.1005 11.12 16.2961 30.6205 
160.388 159.267 175.288 163.39 168.234 165.896 158.646 178.416 166.491 152.039 -65.278 173.15 114.94 -97.187 142.594 92.1199 -94.4709 132.591 43.0383 -90.625 159.894 14.0365 -88.0033 199.778 11.9399 -41.8057 212.146 78.0077 11.3525 15.9677 30.9071 
159.738 158.603 177.564 163.601 168.676 165.628 157.711 179.181 166.244 151.561 -66.7042 173.298 114.355 -97.9534 142.45 91.4502 -94.5925 132.26 42.2433 -91.2364 159.863 13.7206 -88.1423 199.92 11.4755 -42.1566 211.717 77.7402 11.5845 15.5837 31.1772 
