177.376 170.129 169.948 169.007 170.751 175.603 169.345 170.791 171.554 170.378 180.735 199.261 56.121 155.367 145.597 6.56844 121.301 126.802 5.13491 83.5547 129.904 16.0004 56.0469 148.641 42.7656 110.807 216.197 64.7476 13.5207 12.4119 12.2435 
179.95 170.136 169.969 168.858 170.747 174.373 169.072 170.804 171.11 170.278 180.685 198.32 55.4627 154.715 144.421 6.5841 120.821 125.995 5.23326 82.9749 129.027 16.3056 56.2558 148.151 43.3974 111.048 215.664 64.6534 13.1862 12.5281 11.9395 
179.122 170.188 170.081 168.473 170.652 172.865 168.899 170.724 170.5 169.943 180.95 197.551 55.3309 154.184 143.454 6.49731 120.499 125.29 5.32203 82.7045 128.308 16.6007 56.5672 147.633 43.9284 111.351 215.17 64.5767 12.9503 12.5384 11.6696 
179.549 170.177 170.201 167.901 170.538 171.995 168.558 170.588 170.069 169.422 181.982 197.167 55.0044 153.46 142.662 6.0098 120.135 124.632 5.2692 82.6868 127.658 16.9244 56.7176 146.988 44.4935 111.77 214.648 64.3339 13.0185 12.4 11.3586 
179.527 170.421 170.372 167.414 170.625 172.093 168.557 170.534 169.869 169.054 183.694 197.132 55.2173 153.072 142.1 5.65668 120.258 124.223 5.29297 82.9465 127.193 17.3089 56.9149 146.468 45.0831 112.304 214.302 64.1616 13.2145 12.3996 10.9665 
176.198 170.714 170.478 166.973 170.737 171.519 168.834 170.462 169.848 168.703 184.221 196.702 55.5597 152.859 141.706 5.40712 120.508 123.981 5.4559 83.2871 126.887 17.6718 57.0102 146.067 45.4756 112.704 214.022 64.1512 13.4333 12.3916 10.6517 
175.239 170.991 170.543 166.399 170.831 171.493 169.16 170.398 170.083 168.474 184.784 196.169 55.8814 152.683 141.291 5.18334 120.705 123.797 5.74792 83.6949 126.815 18.2245 57.0072 145.92 46.0581 113.251 213.985 64.1698 13.7635 12.3165 10.3768 
174.726 171.283 170.571 165.913 170.98 171.462 169.48 170.324 170.479 168.32 185.007 195.74 56.0587 152.665 140.89 5.18441 121.119 123.619 6.12129 84.2217 126.717 18.7491 57.057 145.738 46.6538 113.743 213.929 64.2721 14.1395 12.2885 10.0663 
174.597 171.55 170.68 165.256 171.063 171.634 169.772 170.237 170.835 168.016 185.083 195.658 56.0717 152.955 140.924 5.28064 121.898 123.753 6.50792 85.0322 126.98 19.1842 57.4577 145.798 47.0543 114.347 214.076 64.4143 14.4313 12.3041 9.77731 
174.258 171.819 170.855 164.533 171.226 171.798 170.031 170.256 171.507 167.823 185.107 195.665 56.0025 153.25 140.945 5.26999 122.529 123.828 6.80817 85.6811 127.117 19.6128 57.544 145.8 47.546 114.818 214.166 64.4905 14.8914 12.3404 9.60519 
174.029 171.887 170.921 164.062 171.323 172.05 170.173 170.253 172.371 167.822 185.306 195.919 55.8551 153.448 140.959 5.37424 122.905 124.022 7.11248 86.1966 127.392 19.9438 57.4927 145.97 47.9201 115.332 214.308 64.6068 15.3442 12.2869 9.48341 
173.853 171.955 171.011 164.051 171.38 172.473 170.359 170.144 172.839 167.85 184.823 196.003 55.772 153.812 140.964 5.78958 123.284 124.249 7.44863 86.4332 127.753 20.0479 57.5526 146.304 47.8459 115.686 214.407 64.8952 15.3981 12.3574 9.45088 
174.027 171.872 170.951 165.268 171.497 172.752 170.373 170.044 173.445 168.048 184.568 196.091 55.5904 154.173 140.976 6.0922 123.578 124.446 7.66536 86.7139 127.855 20.0769 57.5274 146.32 47.7954 115.964 214.396 65.1077 15.5352 12.3636 9.45648 
174.265 171.611 170.743 167.133 171.677 172.792 170.313 169.865 174.357 168.409 185.197 196.427 56.0563 155.19 141.131 6.8229 124.525 124.902 8.24164 87.7222 128.182 20.3323 58.0527 146.56 47.851 116.882 214.641 65.4535 15.7379 12.3229 9.42826 
173.678 171.455 170.685 167.677 171.787 172.983 170.245 169.723 174.607 168.763 185.178 196.815 56.3019 155.879 141.702 7.1982 125.098 125.56 8.29166 87.8213 128.676 20.123 58.3505 146.929 47.637 117.039 214.935 65.7028 15.5562 12.6206 9.49468 
172.054 171.315 170.66 167.797 171.992 173.245 170.205 169.648 174.663 169.27 185.386 196.911 56.7742 156.703 142.215 7.55164 125.885 126.074 8.3358 88.053 128.95 19.8966 58.8724 147.059 47.3025 117.212 215.054 65.895 15.2611 12.9771 9.55576 
168.317 171.119 170.571 166.974 172.222 174.086 170.063 169.561 174.279 170.071 185.278 196.994 56.8548 156.879 142.229 7.78024 126.135 126.293 8.19606 87.5976 128.956 19.6287 59.3779 147.017 47.042 117.13 214.897 65.9913 14.6211 13.4656 9.4504 
163.757 170.966 170.554 165.526 172.449 175.169 169.933 169.505 173.322 171.035 185.342 197.026 56.8537 156.861 142.119 8.02159 126.273 126.378 8.07697 86.9047 128.949 19.3966 60.1937 147.09 46.89 117.073 214.737 66.1022 13.6653 14.042 9.2775 
160.157 170.84 170.558 167.136 172.535 176.003 169.797 169.525 172.558 171.762 185.084 196.853 56.4223 156.616 141.792 8.1306 126.117 126.176 7.88621 86.1244 128.571 19.1305 60.6203 146.947 46.824 116.946 214.404 66.1312 12.9527 14.4582 9.15232 
157.66 170.604 170.474 169.162 172.438 176.756 169.588 169.495 172.266 172.256 184.536 196.409 55.7076 156.05 141.129 8.22325 125.511 125.697 7.63514 84.9594 128.005 18.6965 60.5938 146.744 46.6333 116.649 213.908 66.1031 12.3053 14.8034 9.07157 
156.331 170.497 170.5 170.359 172.421 177.006 169.514 169.664 172.179 172.698 183.74 195.885 55.1785 155.492 140.464 8.48353 124.967 125.106 7.57264 83.8965 127.42 18.5032 60.3477 146.484 46.5041 116.241 213.38 66.0832 11.8401 15.1167 9.00269 
156.671 170.395 170.468 170.949 172.248 177.538 169.395 169.781 171.948 172.886 182.895 195.023 54.6882 154.91 139.814 8.51929 124.343 124.44 7.44068 82.9931 126.752 18.3782 60.0395 146.06 46.3886 115.788 212.771 66.0002 11.4907 15.2951 9.00118 
158.856 170.261 170.281 171.079 171.974 179.291 169.269 169.85 171.756 173.006 182.552 194.114 54.3005 154.338 139.241 8.43454 123.713 123.784 7.35102 82.3842 126.058 18.3755 59.6897 145.526 46.4019 115.327 212.149 65.8782 11.3671 15.2945 9.04214 
160.334 170.207 170.289 170.856 171.725 179.671 169.206 169.939 171.463 173.107 181.783 193.2 53.8522 153.777 138.644 8.25588 123.285 123.062 7.10208 82.0366 125.192 18.2867 59.4042 144.698 46.4 114.765 211.356 65.768 11.3731 15.2498 8.96405 
162.425 170.244 170.301 170.279 171.535 178.046 169.176 170.07 171.075 173.1 180.796 192.294 53.0438 153.263 138.136 7.9331 122.884 122.402 6.79381 81.7893 124.37 18.1978 59.1065 143.85 46.4671 114.244 210.597 65.5641 11.5036 15.1668 8.92019 
169.497 170.312 170.358 169.353 171.304 174.28 169.21 170.242 170.639 173.129 179.282 191.293 52.0096 152.654 137.605 7.62606 122.344 121.729 6.57615 81.5822 123.582 18.1946 58.6178 142.985 46.4966 113.603 209.832 65.3983 11.7378 14.9627 8.91107 
174.631 170.38 170.534 168.233 171.101 173 169.293 170.453 170.088 173.119 177.871 190.369 51.4909 152.155 137.083 7.36164 121.952 121.063 6.34496 81.699 122.876 18.1714 58.2899 142.139 46.3684 113.068 209.122 65.2546 11.9894 14.6235 8.86767 
177.512 170.717 170.848 167.141 171.077 172.198 169.548 170.753 169.612 173.104 176.633 189.727 51.3664 151.867 136.805 7.21597 121.866 120.557 6.25817 82.013 122.269 18.3 57.9914 141.429 46.2909 112.614 208.594 65.1954 12.3161 14.3472 8.79772 
179.802 171.044 171.056 166.334 171.024 171.237 169.788 171.095 169.398 172.747 175.843 189.313 51.5489 151.664 136.701 7.15772 121.722 120.244 6.39541 82.478 121.972 18.5873 57.527 141.036 46.3008 112.318 208.382 65.1965 12.8201 13.9252 8.83348 
177.927 171.347 171.293 165.878 170.994 170.512 170.06 171.431 169.356 172.405 174.767 189.035 51.7718 151.476 136.637 7.23314 121.487 120.138 6.5328 82.7603 121.958 18.8632 56.6716 140.891 46.3251 112.037 208.327 65.2755 13.4913 13.5646 8.8898 
175.346 171.52 171.396 165.841 170.881 169.624 170.28 171.6 169.594 171.869 173.871 188.767 52.1115 151.397 136.8 7.20584 121.255 120.202 6.71703 83.0858 122.152 19.1249 55.677 140.798 46.4416 111.828 208.387 65.3658 14.3128 13.1885 9.06083 
172.526 171.59 171.469 166.036 170.708 168.913 170.391 171.555 169.831 171.381 172.765 188.471 52.6301 151.379 137.118 7.23158 121.094 120.534 6.89723 83.3896 122.644 19.3345 54.7456 140.856 46.6235 111.696 208.607 65.4977 15.1048 12.8827 9.19762 
169.038 171.716 171.537 166.353 170.616 167.774 170.498 171.454 169.985 170.893 170.958 188.25 53.159 151.527 137.631 7.39797 121.122 121.119 6.99951 83.629 123.327 19.4653 53.7438 141.056 46.8167 111.592 208.918 65.6901 15.9239 12.7507 9.30109 
167.243 171.809 171.671 166.935 170.628 166.846 170.51 171.273 170.225 170.572 169.237 188.178 53.28 151.683 138.157 7.58018 121.325 121.613 7.11202 84.1379 123.9 19.4979 53.1068 141.047 46.9803 111.541 209.229 65.8787 16.6214 12.5315 9.29782 
172.397 171.865 171.785 167.568 170.641 165.458 170.479 171.062 170.267 170.237 167.182 187.967 52.6212 151.683 138.507 7.62329 121.307 122.21 6.99561 84.215 124.461 19.5059 52.3318 141.121 47.3057 111.468 209.422 66.0497 17.2495 12.5021 9.26032 
177.95 172.034 172.126 168.149 170.505 163.635 170.497 170.774 169.976 169.856 164.475 188.031 51.3547 151.546 138.834 7.80637 121.419 123.03 6.74317 84.1834 125.155 19.4433 51.7168 141.457 47.3274 111.382 209.61 66.2613 17.6589 12.6484 8.97758 
170.122 172.107 172.456 168.874 170.412 161.744 170.452 170.564 169.338 169.627 161.39 187.987 49.9866 151.404 139.115 7.88886 121.653 123.738 6.2659 84.0862 125.661 19.2657 51.306 141.648 47.1767 111.221 209.687 66.4206 17.8512 12.925 8.6182 
162.135 172.287 172.721 169.561 170.558 161.166 170.341 170.414 168.283 169.526 159.516 188.263 48.7344 151.368 139.25 7.90717 121.939 124.4 5.95575 83.8096 126.054 19.5196 50.4762 141.832 47.6387 111.173 209.789 66.5801 18.3222 13.448 8.27857 
161.671 172.347 172.771 170.351 170.461 161.57 170.112 170.193 167.169 169.264 158.401 188.054 47.785 151.479 139.42 7.94262 122.541 124.736 5.83162 84.2237 126.167 19.6206 50.0986 141.675 47.7987 111.127 209.792 66.7184 18.8138 13.6224 7.91677 
161.892 172.392 172.658 171.102 170.386 162.29 169.849 169.886 165.917 168.971 157.873 188.032 47.3623 151.687 139.643 8.18806 123.042 125.166 5.91489 84.58 126.402 19.8957 49.6978 141.736 48.0413 111.184 209.93 66.9379 19.2682 13.7775 7.6765 
161.888 172.512 172.558 172.068 170.445 162.952 169.619 169.738 164.617 168.828 157.17 188.141 46.9983 151.744 139.782 8.55499 123.405 125.442 6.00149 84.8753 126.477 20.1516 49.3288 141.667 48.2593 111.116 210.035 67.178 19.6344 13.8595 7.41201 
164.638 172.693 172.304 172.992 170.566 164.026 169.488 169.706 163.541 168.718 157.486 188.256 46.9221 151.916 139.984 8.72834 123.696 125.727 6.09162 85.1072 126.545 20.5672 48.8651 141.627 48.8091 111.04 210.152 67.447 20.1263 13.973 7.30778 
165.528 172.748 172.126 173.929 170.599 164.859 169.381 169.744 162.746 168.63 157.244 188.281 46.7179 151.976 140.096 8.91999 123.832 125.756 6.16436 85.386 126.388 20.8584 48.6704 141.382 49.1372 110.889 210.156 67.7008 20.4042 13.9025 7.25418 
166.417 172.683 171.883 174.467 170.56 165.775 169.28 169.561 161.972 168.593 157.447 188.281 46.9752 151.932 140.073 9.16556 123.632 125.709 6.33426 85.3466 126.286 21.2541 48.7322 141.355 49.4293 110.726 210.186 68.0086 20.3177 13.8202 7.34587 
167.185 172.621 171.658 174.713 170.575 166.033 169.189 169.354 161.23 168.652 157.579 188.362 47.5847 151.953 140.072 9.3919 123.484 125.771 6.51583 85.0619 126.285 21.7231 48.5922 141.404 49.8289 110.582 210.241 68.3198 20.2358 13.9729 7.44312 
167.554 172.538 171.476 174.876 170.735 166.572 169.168 169.24 160.927 168.955 157.638 188.244 48.2882 151.747 139.931 9.79545 123.19 125.648 6.83259 84.7066 126.189 22.2786 48.7731 141.412 50.0772 110.384 210.257 68.6871 19.8126 14.0525 7.48018 
162.836 172.834 171.652 175.385 171.195 166.179 169.332 169.285 160.589 169.645 156.386 188.257 48.6776 151.664 139.931 10.3043 123.241 125.796 7.01878 83.9206 126.242 23.1857 48.3564 141.493 50.6814 110.268 210.359 69.0619 19.5151 14.8021 7.34534 
161.308 173.167 171.9 175.829 172.147 165.822 169.548 169.263 160.55 170.89 155.21 188.185 49.0829 151.191 139.802 10.7209 123.331 125.858 7.06901 83.2346 126.214 23.8128 48.6985 141.429 50.7695 110.074 210.296 69.4282 18.7615 15.4738 6.89595 
159.72 173.552 172.106 176.373 175.009 165.704 169.685 169.463 160.494 173.482 154.144 188.364 49.117 150.646 139.609 11.2498 123.499 125.954 7.18428 82.5177 126.157 24.6413 48.3643 141.225 50.9694 109.89 210.232 69.8181 18.4418 16.2749 6.31831 
159.934 173.791 172.196 176.801 175.138 166.05 169.711 169.586 160.55 173.837 153.51 188.381 49.2409 150.198 139.373 11.8043 123.85 126.053 7.35146 82.1275 126.158 25.337 47.6638 141.01 52.3867 109.763 210.181 70.2235 19.2497 16.9216 5.68326 
160.873 173.524 172.278 176.668 175.948 165.836 169.683 169.584 161.15 173.687 152.665 188.278 49.6255 149.308 138.863 12.6882 124.496 126.052 7.52045 81.9815 126.081 25.6595 49.2438 140.561 52.1766 109.77 210.053 70.6342 17.8602 17.4917 4.48769 
161.88 173 172.394 176.04 177.02 165.889 169.599 169.668 161.795 173.776 152.056 188.14 49.7924 148.42 138.283 13.3719 124.902 126.056 7.55586 81.7047 125.947 26.0091 50.7158 140.11 51.7676 109.843 209.955 70.9685 16.2335 18.0356 3.51023 
163.101 172.198 172.528 174.23 177.512 165.305 169.441 169.657 162.35 174.141 151.727 187.888 50.3243 147.751 137.683 14.188 125.311 126.033 7.63874 81.2949 126.015 26.5096 51.7695 140.183 50.9767 110.066 210.028 71.2354 14.615 18.6885 2.79942 
167.288 170.765 172.652 172.273 177.666 164.51 168.974 169.446 162.708 174.075 151.344 187.496 50.8185 147.062 137.171 15.3686 126.029 126.363 7.81484 81.329 126.373 26.9806 52.6042 140.518 50.5808 110.397 210.296 71.5144 13.7024 19.2429 2.35868 
174.675 169.387 172.752 170.346 177.766 163.923 168.132 169.308 162.992 173.848 151.023 186.942 51.1931 146.61 136.657 16.5436 126.778 126.756 7.90431 81.9058 126.649 27.1887 53.7339 140.806 50.1698 110.747 210.558 71.7182 13.0269 19.4067 2.82983 
173.573 168.332 172.962 167.796 177.692 162.527 167.546 169.443 163.11 173.902 150.505 186.155 51.6461 146.066 136.102 17.9104 127.94 127.227 7.91332 82.577 126.948 27.7267 55.271 141.279 49.659 111.414 210.799 71.9951 12.0106 19.9219 3.95109 
167.812 167.837 173.002 165.728 177.862 162.143 167.279 169.531 163.321 173.497 151.033 185.67 51.8858 146.421 136.02 18.3551 128.609 127.382 7.90295 83.5789 127.096 27.7028 55.9464 141.591 49.3006 111.84 210.93 72.0334 12.0764 19.6939 4.27208 
159.904 164.317 169.349 172.819 172.653 150.566 167.496 173.251 167.544 171.986 123.996 176.41 36.9721 144.15 140.49 19.4015 128.459 130.924 7.09255 87.7975 132.026 21.278 58.8329 144.547 44.495 112.768 212.317 72.4739 13.145 15.3486 3.99183 
160.357 161.129 168.958 173.895 169.9 151.901 170.195 172.899 169.991 168.424 116.849 168.341 42.0299 144.807 143.334 19.3963 131.308 135.118 6.1477 93.4604 137.864 15.4149 63.7231 149.394 40.7677 113.959 214.162 73.0457 15.0935 12.4935 4.70004 
157.698 168.815 168.444 176.107 177.864 150.65 175.154 172.409 172.84 179.126 117.833 162.638 56.7039 138.11 145.487 16.4501 131.299 139.443 4.56587 94.3607 148.12 5.58951 70.9176 168.829 28.2566 114.415 216.386 73.6616 9.03574 11.7136 8.62034 
146.513 174.458 169.113 179.165 178.137 154.172 177.774 173.378 174.205 178.632 106.462 173.669 44.6954 142.216 148.059 15.1204 134.212 142.196 3.7485 98.6742 150.937 3.18379 76.3548 171.987 28.417 115.299 217.73 73.9777 9.10165 10.7043 7.57219 
152.903 177.626 170.063 177.812 174.27 158.3 179.162 174.391 174.99 175.92 103.446 170.97 43.8842 147.957 150.271 14.8972 138.032 144.048 3.31826 102.971 152.217 2.02997 83.0187 171.876 29.6166 116.403 218.656 74.0763 9.98455 10.2046 6.05112 
173.429 174.27 171.79 176.069 174.27 160.502 177.975 175.636 176.228 175.173 100.778 170.203 40.0922 154.099 152.06 14.5132 143.131 145.081 3.15103 107.797 153.027 1.07055 91.2155 172.988 27.4232 117.494 219.077 74.0194 8.9984 10.2686 5.33162 
170.328 174.275 173.371 174.54 174.27 160.153 177.974 176.656 178.135 176.506 101.945 169.467 39.2011 160.531 151.935 17.2231 148.763 145.804 3.79901 111.583 155.353 -1.11873 98.3807 173.565 23.597 118.757 219.267 74.0852 10.7251 11.9077 3.63439 
169.848 174.27 174.922 174.502 174.27 159.965 177.971 177.814 178.12 178.916 103.193 168.372 39.8581 166.796 151.324 20.567 153.849 146.72 4.41017 116.748 156.034 -1.5984 102.072 173.614 18.0968 119.871 219.385 73.9962 8.43565 11.8212 1.58295 
168.631 174.276 176.722 174.464 174.27 158.851 177.972 178.61 178.106 177.958 105.64 168.41 39.4421 172.886 150.622 23.8874 158.21 147.405 5.07673 121.154 155.808 -1.10387 106.204 172.976 14.5092 120.95 219.176 73.9557 7.42504 11.6102 1.60005 
167.776 174.289 175.705 174.425 174.27 157.745 177.976 178.142 178.093 177.776 110.068 168.659 38.1566 178.135 149.899 26.814 161.08 147.217 5.67081 125.69 155.022 0.153675 109.076 171.95 13.4559 121.574 218.547 73.8488 6.39948 10.1054 4.15315 
160.093 174.36 174.425 174.354 174.27 156.581 178.003 176.935 178.07 178.181 114.55 168.375 38.3664 182.103 149.567 27.7856 162.806 146.066 6.22334 132.922 154.441 2.62927 108.506 170.349 15.1339 121.8 217.416 73.6402 1.68394 5.83932 5.72229 
159.17 174.742 173.246 174.308 174.27 155.054 178.14 176.026 178.055 179.121 118.8 168.873 37.0995 184.281 150.136 27.8693 164.642 144.526 7.11165 135.316 152.342 4.66206 104.456 166.204 18.8177 122.113 215.95 73.435 4.88318 5.35303 5.86869 
158.4 174.79 171.956 174.378 174.27 154.118 178.158 174.996 175.279 177.403 123.703 170.128 36.8968 184.709 150.531 25.9716 164.908 143.218 7.30695 136.555 147.774 8.87041 100.907 163.543 22.9552 122.207 214.529 73.0815 9.68962 3.44111 5.26701 
158.027 174.608 170.658 174.27 156.431 153.411 178.095 173.679 172.029 61.0943 127.806 172.714 38.1453 183.962 150.91 23.3096 163.812 141.827 7.29405 135.432 144.738 10.6493 105.108 171.897 61.2405 122.471 213.354 72.4488 39.8151 3.54206 4.37824 
162.481 174.27 170.735 174.27 174.587 155.832 177.976 173.167 178.045 70.6311 132.767 174.538 40.1871 186.066 152.889 24.3633 164.983 143.142 8.86903 134.375 148.07 6.18611 104.904 168.547 57.6387 122.707 213.6 72.9841 40.4506 6.40696 4.51287 
159.047 174.27 171.59 174.27 174.296 154.114 177.975 174.924 178.044 75.7009 137.221 176.472 42.9632 187.923 154.139 24.4585 166.562 144.804 9.52995 134.366 147.237 6.90693 104.876 166.824 56.6808 123.096 213.533 73.2513 38.9003 7.37154 4.64508 
153.848 174.27 171.743 174.27 174.27 151.844 177.976 176.932 178.041 78.1097 141.668 178.447 45.8427 189.68 155.518 24.4313 167.337 146.524 10.0288 134.136 146.458 7.61219 104.65 165.927 57.0622 123.459 213.548 73.53 38.7476 8.48833 5.23801 
151.649 174.27 178.034 174.27 174.27 150.672 177.976 179.338 178.046 78.8646 145.448 178.62 48.7307 191.188 156.426 24.3582 165.444 146.47 10.3525 132.942 145.615 8.28407 104.109 165.406 58.0605 123.777 213.412 73.6981 39.3196 8.28652 7.74635 
151.83 174.27 179.999 174.27 174.27 150.358 177.976 179.959 178.052 82.517 148.71 179.521 49.9697 192.84 157.539 24.3881 165.447 146.623 11.4716 131.964 145.214 8.9136 104.219 164.062 58.3221 124.294 213.629 73.9372 38.5729 9.23244 9.01416 
153.474 175.384 180 174.27 174.27 150.542 178.369 179.947 178.05 83.6834 151.047 178.985 50.0316 194.953 158.414 25.0439 165.608 146.533 12.3161 131.538 144.98 9.29675 104.015 163.803 57.9186 124.755 213.746 74.1337 37.2579 9.78784 10.6425 
154.806 175.101 180 174.27 174.27 150.874 178.27 179.939 178.045 85.3396 151.482 177.927 50.0047 196.335 158.93 25.9526 165.696 146.607 13.1962 130.954 144.985 9.85538 103.769 163.881 57.624 125.217 214.222 74.4273 35.8937 10.3765 11.6632 
155.217 174.27 180 174.275 174.27 151.505 177.976 179.945 178.04 177.319 145.496 174.699 49.8585 198.155 159.861 27.2259 166.834 147.559 13.2764 131.929 145.581 9.63197 97.0901 161.543 30.8688 125.612 215.128 74.8402 11.8185 10.5936 12.3091 
154.746 179.142 180 174.29 174.27 152.977 178.95 179.956 178.044 177.749 138.104 172.001 50.4393 197.201 157.762 28.8532 168.656 148.678 13.3538 135.994 148.885 8.49781 101.99 164.732 26.7087 125.921 215.954 75.3521 8.16631 8.72018 9.7128 
160.977 178.368 180 174.31 174.27 158.267 179.867 179.969 178.051 140.538 128.149 171.331 42.5238 195.753 157.642 28.8163 170.627 149.579 13.3747 142.4 154.043 6.93296 113.315 163.597 33.7967 126.321 216.553 75.6056 11.8989 6.06183 7.21479 
161.433 174.27 180 175.594 174.27 159.095 177.982 179.975 171.993 147.419 123.888 170.162 40.8861 194.276 157.645 29.0734 172.491 150.62 13.5246 149.512 154.532 11.2397 121.536 168.819 29.5214 126.879 217.463 75.8604 3.76391 0.965465 4.92774 
160.737 174.27 180 177.18 174.27 158.949 177.984 179.978 170.674 151.914 120.405 169.878 40.1527 192.93 156.721 30.712 174.573 151.841 13.854 154.63 159.773 10.2917 129.368 175.633 26.6974 127.378 218.6 76.1469 5.2679 3.46067 3.57065 
159.056 174.27 179.999 179.157 174.27 157.878 177.985 179.981 168.81 177.874 118.655 170.741 39.9704 191.453 156.237 32.0265 176.733 153.277 14.3567 158.325 162.299 11.6411 126.972 184.832 16.2396 128.04 219.887 76.3933 11.7141 4.31465 3.81234 
157.57 174.27 179.991 179.351 174.27 156.958 177.985 179.997 171.347 177.967 117.852 171.514 39.7881 190.825 155.427 33.4752 179.178 154.318 14.8481 158.988 163.799 10.6862 124.387 182.227 16.5654 128.802 220.998 76.4327 9.00145 3.86236 5.37689 
156.364 174.27 180 179.842 174.369 156.425 177.984 180 171.806 177.715 118.584 172.246 39.3823 190.477 154.457 34.629 181.488 154.984 15.1222 160.209 165.114 9.72602 125.681 181.862 14.7102 129.681 221.818 76.289 8.29396 3.90213 6.88616 
155.43 174.27 180 179.504 174.27 156.469 177.983 179.999 173.588 177.675 119.201 172.301 39.6153 190.201 153.507 35.7625 184.677 155.773 16.1003 159.797 166.372 7.11442 127.892 181.834 11.8833 130.464 222.369 76.016 6.01508 5.34472 8.31751 
170.359 174.27 180 179.952 174.27 158.28 177.983 179.998 179.981 177.674 119.203 172.845 37.6961 187.524 151.438 36.9359 185.881 155.847 15.9866 158.604 167.94 3.40544 128.189 178.773 8.63162 131.09 222.994 75.4419 5.3789 7.32467 9.33287 
170.674 174.27 180 174.491 174.468 158.28 177.986 179.994 178.114 177.767 118.014 171.956 37.5976 185.139 151.193 35.7543 185.621 155.711 14.514 155.831 168.599 0.18578 114.991 165.077 2.41748 131.482 222.738 74.7741 19.265 9.3798 9.16407 
171.173 174.27 180 174.512 178.773 158.952 177.984 179.991 178.117 178.062 118.313 171.16 37.4842 183.963 151.251 33.3791 185.248 155.772 12.7736 155.67 168.386 -2.8666 92.1307 139.122 2.30978 131.339 221.734 74.4031 35.6947 9.87275 8.30059 
