177.895 172.59 171.807 116.56 90.0456 172.799 170.078 142.225 107.201 128.967 131.771 216.027 25.2936 212.84 213.236 33.405 133.613 268.781 7.85561 168.76 282.899 36.5522 181.776 309.586 62.1396 142.741 260.439 96.0895 26.7574 24.0056 73.1579 
178.378 171.237 172.334 116.792 90.0456 173.831 168.83 134.042 105.911 125.039 131.343 217.243 25.0755 213.052 212.159 34.5602 127.483 270.796 15.9305 170.333 279.377 36.3666 182.492 308.36 62.0178 142.839 260.38 96.3528 28.0705 32.0568 79.4466 
179.071 170.949 172.867 117.66 90.0456 175.338 168.625 130.249 101.666 121.432 130.666 217.143 25.2823 213.84 212.988 35.1649 125.553 271.419 19.7925 169.39 278.208 38.1363 183.055 308.475 63.3733 142.793 260.319 96.4504 30.7611 33.9808 82.3401 
179.387 171.459 172.963 119.427 90.0456 176.765 169.136 128.864 99.4952 118.223 130.048 216.362 25.6342 214.884 214.238 35.1796 125.519 269.438 20.71 167.955 277.666 39.0289 182.888 308.367 64.4376 142.804 260.33 96.5122 32.5317 32.8559 82.5655 
179.499 172.116 172.828 121.3 90.0456 177.756 169.595 130.151 98.3814 117.072 129.46 215.199 25.7202 215.533 215.924 34.0627 126.658 266.251 18.9919 166.371 277.487 39.5499 182.847 307.806 65.2155 142.719 260.389 96.4362 33.9287 29.9029 80.341 
179.348 172.821 172.817 122.774 90.0456 177.918 170.195 131.904 98.3941 113.122 129.045 214.196 25.8724 215.559 217.5 32.6109 128.026 263.463 16.7327 164.836 277.066 39.503 181.611 306.802 66.0034 142.56 260.271 96.2251 34.0849 26.8294 77.8596 
179.68 173.457 172.945 124.722 90.0456 177.391 170.715 136.078 96.9801 112.523 128.934 213.413 25.8533 215.043 218.922 30.4993 131.678 261.238 12.2821 162.746 276.955 39.8046 181.562 306.244 66.5179 142.456 260.09 95.7254 35.8471 21.3079 73.3245 
179.945 173.832 178.307 178.154 91.4657 175.76 170.773 173.499 132.044 95.4609 130.457 211.636 26.2311 216.155 221.689 29.3582 167.382 245.153 -4.66647 174.101 277.148 20.2251 178.648 303.912 70.311 142.241 259.809 94.8987 28.8062 9.65001 46.8853 
177.613 174.391 180 178.912 123.283 174.132 170.654 179.968 130.587 93.4723 133.198 210.302 27.448 215.506 224.121 27.6386 176.387 238.936 -6.78895 170.627 279.704 20.176 178.723 305.225 68.3401 142.065 259.494 94.1065 29.4725 14.4164 40.8886 
177.314 179.462 180 174.27 134.727 169.869 172.259 179.982 109.378 106.201 135.752 211.735 36.1036 207.671 224.296 20.2371 174.377 227.692 -8.36642 170.7 283.43 28.3123 181.351 302.345 55.9278 140.162 259.103 90.7881 22.3177 26.4225 36.8396 
169.907 176.712 161.734 170.219 170.356 168.741 178.836 167.813 167.612 169.138 195.883 227.03 71.2187 183.83 210.585 -12.9584 162.03 187.489 -18.9797 130.867 179.13 -15.4262 99.872 185.548 5.15184 129.188 242.091 70.5965 8.28871 7.43766 9.74099 
170.449 168.737 169.275 171.182 170.014 167.844 165.788 165.88 166.457 164.739 198.416 219.368 71.0199 179.646 204.189 -7.71084 155.886 185.485 -19.2995 127.077 177.946 -12.1157 98.0827 181.099 10.5864 128.391 238.59 69.0583 7.94141 6.27271 7.49332 
170.387 166.446 170.057 169.722 169.115 167.43 159.734 163.595 163.846 161.302 197.162 216.827 70.9566 178.897 203.755 -5.65737 154.564 186.522 -18.641 126.183 178.586 -10.6448 97.6896 180.68 12.0928 128.163 237.75 68.6392 8.3361 6.52355 7.39777 
170.478 165.783 170.047 169.564 169.235 166.882 157.873 163.164 163.33 160.428 196.426 216.091 70.8876 178.534 203.629 -4.75072 154.178 187.123 -18.4731 125.688 179.193 -10.2545 97.5454 181.339 12.5811 128.213 237.883 68.6973 8.26605 6.74286 7.17613 
170.558 165.729 169.288 169.161 169.241 166.566 157.254 162.895 162.696 159.704 195.869 215.927 70.9293 178.196 203.237 -4.19367 154.316 187.402 -18.3784 125.524 179.814 -10.0292 97.7207 182.581 12.5796 128.34 238.463 68.7145 7.85388 6.92484 6.63683 
170.612 166.202 169.114 169.318 169.36 166.822 159.098 163.412 163.171 160.398 196.356 216.785 71.1766 178.64 203.126 -4.5115 155.203 187.248 -18.4307 126.126 179.961 -10.4538 98.4369 183.293 11.8698 128.558 238.885 68.7514 7.34454 6.87558 6.372 
170.693 166.304 168.783 169.215 169.277 167.241 159.906 163.374 163.181 160.569 196.759 217.318 71.5256 179.02 203.205 -4.64259 155.77 187.257 -18.3215 126.649 180.051 -10.5893 98.97 183.562 11.5454 128.634 239.169 68.7304 7.12258 6.81248 6.31161 
170.837 166.279 168.215 169.079 169.108 167.707 160.588 163.535 163.258 160.792 197.184 218.129 71.9201 179.031 203.401 -4.80207 155.671 187.525 -18.419 126.628 180.269 -10.7105 98.9023 183.951 11.3891 128.551 239.579 68.7549 7.06388 6.77759 6.33907 
170.847 165.914 167.88 168.787 168.559 168.346 160.806 163.303 163.148 160.889 197.828 219.028 72.1133 179.135 203.444 -5.22487 155.721 187.522 -18.7883 126.533 180.285 -11.3775 98.4807 184.027 10.5499 128.211 239.675 68.3652 7.17163 6.77213 6.40215 
170.6 164.503 166.608 167.599 166.862 168.327 159.715 161.563 161.641 159.243 197.752 218.84 72.2917 179.007 203.512 -5.69348 155.485 187.149 -18.739 126.271 179.859 -11.5659 97.874 183.6 10.1174 127.677 239.609 67.6627 7.39421 6.77901 6.71317 
169.846 162.907 164.542 165.805 164.664 167.479 158.512 159.641 159.705 157.496 197.377 218.64 72.3463 178.743 204.177 -6.42572 154.803 187.07 -18.7734 125.595 179.738 -11.6079 96.6463 183.679 9.48122 127.123 239.693 67.0559 7.75729 6.80515 7.36624 
169.477 161.98 163.462 164.539 163.447 166.563 157.924 158.222 158.101 156.14 196.335 217.898 72.1174 178.228 205.111 -7.25458 153.998 187.283 -18.8338 124.911 179.99 -11.4629 95.546 184.322 8.90257 126.674 240.037 66.6322 8.00629 6.81142 8.03954 
169.024 160.929 161.935 163.056 162.327 165.987 157.262 157.065 156.523 154.947 195.746 217.346 72.3138 177.72 205.906 -7.69579 152.759 187.721 -18.943 123.696 180.429 -11.2083 94.0549 185.238 8.52561 126.253 240.349 66.4034 8.26414 6.98098 8.80574 
169.483 160.001 159.621 160.747 159.911 166.232 156.522 156.37 155.097 153.638 195.81 216.432 73.5086 178.077 206.734 -7.69738 152.017 188.946 -19.73 122.478 180.846 -11.339 92.1192 185.967 8.10294 125.867 240.605 66.2271 8.96073 7.80251 9.33436 
169.668 158.5 157.638 158.503 157.899 166.521 155.106 155.196 153.749 152.423 195.853 215.097 75.1131 178.324 207.083 -7.25627 151.358 190.152 -20.1315 121.478 181.822 -11.6581 90.5386 186.879 7.68936 125.563 240.884 66.078 9.57922 8.21601 9.58752 
169.281 156.116 155.771 156.543 156.341 166.659 152.726 153.465 152.384 151.116 195.876 213.911 76.919 178.647 207.13 -5.9721 151.25 191.749 -20.0088 120.944 183.559 -12.1755 89.5151 188.355 6.96221 125.281 241.146 65.9248 10.0962 8.4216 9.47932 
168.465 153.889 154.834 155.12 155.048 167.036 150.047 151.237 150.759 149.205 195.897 212.489 78.4039 179.299 206.878 -4.70406 151.739 192.888 -19.8659 120.887 184.918 -12.7852 89.082 189.329 6.16625 124.951 241.183 65.3747 10.4541 8.69483 9.47118 
167.845 152.187 154.373 154.313 154.291 167.193 147.617 149.24 149.411 147.474 195.075 210.113 79.6397 179.975 206.626 -3.53903 152.742 194.005 -19.689 121.404 186.317 -13.5119 89.3224 190.288 5.24116 124.714 241.203 64.7078 10.6943 8.91169 9.25048 
168.058 151.781 155.187 154.459 154.469 167.75 145.966 148.185 149.05 147.014 195.163 209.351 80.6162 180.798 206.351 -2.26236 154.214 195.018 -19.4193 122.256 187.802 -14.2426 89.8261 191.47 4.0729 124.564 241.378 64.3117 10.8419 9.12175 8.89208 
168.511 151.989 155.641 155.143 155.421 168.379 145.159 148.447 149.693 147.858 195.382 209.18 81.7658 181.772 206.648 -1.10124 155.756 196.687 -19.5283 123.332 189.813 -15.3751 90.3503 193.061 2.51448 124.567 241.693 64.2167 11.1322 9.24704 8.70288 
168.162 151.636 154.188 154.722 155.378 168.442 144.662 148.725 149.732 148.553 195.284 209.759 83.8165 183.352 208.67 0.322697 157.597 199.9 -19.5461 124.347 193.467 -16.4753 90.0089 196.778 0.286714 124.314 242.689 64.4884 11.9946 9.68463 9.03172 
167.738 150.848 153.288 154.525 155.224 168.035 144.879 149.08 149.787 148.852 194.976 210.332 84.9676 184.18 210.625 0.857696 158.276 202.127 -19.6565 124.735 195.844 -16.9057 89.5749 199.273 -0.554872 124.16 243.643 64.9227 12.5778 9.86361 9.39519 
168.122 151.262 153.833 155.193 155.76 168.304 146.135 150.126 150.516 149.542 194.847 210.742 86.1764 184.675 212.683 0.847357 158.465 204.512 -20.0866 124.69 198.299 -17.485 88.9345 201.686 -1.10312 123.957 244.719 65.4177 13.0371 10.0306 9.72042 
168.401 151.624 154.73 155.836 156.161 168.524 147.375 150.948 151.015 150.192 194.232 210.576 86.6931 185.183 214.472 0.755675 158.47 206.447 -20.4663 124.309 200.286 -17.8679 87.9232 203.988 -1.61762 123.769 245.716 65.8296 13.528 10.3259 10.1602 
168.04 151.553 154.972 156.103 156.203 168.315 148.498 151.631 151.45 150.76 193.76 210.331 87.3 185.777 216.171 0.535145 158.36 208.074 -20.9723 123.879 201.991 -18.3506 86.8939 206.066 -2.10329 123.746 246.501 66.2036 14.0234 10.558 10.7522 
166.804 150.271 153.974 155.628 155.737 167.578 148.767 151.851 151.504 150.853 193.118 210.183 87.6345 186.372 217.561 0.683926 158.153 209.56 -21.3292 123.388 203.544 -18.9332 85.8159 207.863 -2.62669 123.656 246.796 66.4614 14.6232 10.7566 11.5168 
166.346 149.838 154.277 155.763 155.888 167.3 149.304 152.25 151.92 151.249 192.609 209.892 87.8641 186.72 218.349 0.680544 158.089 210.262 -21.558 123.064 204.44 -19.4101 85.0777 208.758 -2.90449 123.576 246.853 66.6596 15.0542 10.86 11.905 
166.028 149.325 154.49 155.772 155.993 167.077 149.477 152.335 152.175 151.56 192.314 209.675 87.9025 186.999 218.674 0.651834 158.105 210.404 -21.7067 122.867 204.775 -19.8002 84.5824 209.061 -3.14949 123.546 246.714 66.6871 15.3689 10.9244 12.167 
165.609 148.685 154.562 155.66 155.858 166.806 149.268 151.924 152.082 151.446 192 209.436 88.0149 187.011 218.432 0.844705 158.022 209.85 -21.3932 122.664 204.48 -19.7064 84.2653 208.836 -2.98779 123.472 246.417 66.7858 15.5323 10.938 12.2731 
165.748 148.311 154.804 155.664 155.811 166.937 148.915 151.318 151.831 151.165 191.898 209.25 88.1891 186.805 217.823 1.05204 157.81 208.869 -20.942 122.397 203.746 -19.4037 84.0215 208.195 -2.66878 123.35 246.078 66.8281 15.566 10.9289 12.287 
166.011 148.244 154.973 155.611 155.632 167.057 148.579 150.757 151.398 150.633 191.506 208.9 88.2233 186.387 217.009 1.25162 157.519 207.705 -20.4081 122.107 202.678 -18.8232 83.8897 207.248 -2.09827 123.152 245.77 66.8924 15.4682 10.9217 12.1605 
166.365 148.249 154.945 155.566 155.512 167.247 148.279 150.361 151.033 150.118 191.142 208.641 88.2783 185.883 216.232 1.45228 157.154 206.684 -19.9358 121.767 201.558 -18.2398 83.7794 206.067 -1.46575 122.825 245.404 66.9168 15.319 10.9422 12.0326 
166.656 148.588 154.717 155.49 155.393 167.473 148.284 150.368 150.939 149.931 190.907 208.654 88.1566 185.275 215.539 1.32278 156.708 205.792 -19.8221 121.213 200.502 -17.9169 83.4776 204.888 -0.965501 122.347 245.028 66.8789 15.1025 11.0508 11.8563 
166.635 148.746 154.15 155.203 155.172 167.432 148.265 150.57 150.899 149.851 190.701 208.925 87.9622 184.461 214.582 1.22568 155.861 204.857 -19.7658 120.278 199.487 -17.5036 82.8407 203.926 -0.282255 121.863 244.767 66.9071 14.9132 11.1307 11.7532 
166.782 148.956 154.4 155.16 155.141 167.592 147.972 150.456 150.887 149.811 190.582 209.124 87.6474 183.364 213.307 1.13171 154.89 203.699 -19.6262 119.354 198.602 -17.2367 82.2439 203.165 0.156256 121.322 244.512 66.785 14.6857 11.0313 11.5066 
166.883 149.153 154.438 155.046 155.044 167.752 147.85 150.354 150.819 149.76 190.675 209.165 87.3831 182.567 212.117 1.05951 154.031 202.508 -19.4554 118.52 197.584 -16.9081 81.6387 202.299 0.637741 120.919 244.099 66.7053 14.5627 10.9775 11.4338 
166.566 148.847 153.558 154.573 154.618 167.545 147.758 150.354 150.591 149.529 190.64 209.293 87.2191 181.829 211.316 0.978425 153.031 201.688 -19.3741 117.571 196.725 -16.5036 80.9243 201.591 1.22495 120.515 243.723 66.694 14.4829 10.982 11.5513 
166.283 148.541 152.922 154.139 154.17 167.263 147.563 150.208 150.306 149.275 190.65 209.439 87.1339 181.284 210.664 0.971318 152.285 200.933 -19.2222 116.911 196.025 -16.1035 80.4623 201.061 1.73303 120.286 243.53 66.7039 14.3841 10.9332 11.6398 
166.123 148.573 152.857 153.987 153.993 167.073 147.487 150.06 150.022 149.02 190.37 209.257 86.914 180.766 210.105 0.894503 151.666 200.164 -19.0362 116.386 195.228 -15.5744 80.1252 200.437 2.34232 120.108 243.4 66.7462 14.2749 10.8956 11.6376 
166.225 148.843 153.168 154.059 154.016 167.071 147.577 150.03 149.87 148.881 190.217 209.185 86.746 180.252 209.531 0.875537 151.094 199.446 -18.7845 115.885 194.475 -14.9753 79.8031 199.894 3.01851 119.961 243.383 66.8468 14.1654 10.879 11.5843 
166.479 149.305 153.756 154.363 154.359 167.184 147.714 150.116 149.952 149.025 190.022 209.04 86.5741 179.802 209.093 0.862152 150.727 198.9 -18.5532 115.61 193.969 -14.5567 79.6504 199.521 3.47174 119.883 243.414 66.9522 14.0798 10.8039 11.4274 
166.762 149.569 154.08 154.538 154.586 167.307 147.609 149.999 149.927 149.077 189.888 208.887 86.337 179.386 208.596 0.94627 150.488 198.401 -18.2993 115.513 193.51 -14.2686 79.6686 199.126 3.68931 119.763 243.303 67.0064 13.9564 10.6853 11.2216 
166.771 149.852 154.195 154.77 154.881 167.2 147.69 150.175 150.045 149.242 189.543 208.648 86.1894 179.091 208.34 0.961958 150.316 198.123 -18.2177 115.472 193.067 -14.0756 79.8084 198.684 3.85123 119.657 243.205 67.0705 13.7543 10.6253 11.0887 
166.733 150.048 154.187 154.985 155.137 167.096 147.683 150.354 150.177 149.362 189.242 208.404 86.0726 179.004 208.079 1.09586 150.254 197.939 -18.1812 115.543 192.646 -13.9585 80.0678 198.149 3.99787 119.605 243.083 67.1146 13.5414 10.5846 11.0609 
166.722 150.544 154.538 155.464 155.546 166.936 147.955 150.768 150.486 149.614 188.717 207.867 86.0073 179.032 207.977 1.08487 150.286 197.764 -18.3001 115.665 192.213 -13.8918 80.3854 197.659 4.16841 119.641 243.095 67.1815 13.2954 10.5731 11.053 
166.814 151.24 155.421 156.158 155.986 166.814 148.15 151.066 150.785 149.786 188.126 207.181 85.9227 179.236 207.921 1.136 150.66 197.594 -18.3698 116.155 191.744 -13.8521 81.035 197.085 4.2742 119.725 243.139 67.2176 13.0193 10.535 10.9441 
167.232 152.153 156.531 156.973 156.5 166.95 148.491 151.309 151.09 149.928 188.084 206.872 85.9169 179.369 207.817 1.10564 150.975 197.319 -18.3858 116.653 191.131 -13.7021 81.7902 196.348 4.46547 119.809 243.119 67.2745 12.6592 10.4749 10.7923 
167.376 152.633 156.995 157.401 156.688 166.968 148.518 151.289 151.15 149.888 188.015 206.544 86.0727 179.345 207.425 1.17814 151.145 196.795 -18.288 117.026 190.307 -13.4451 82.3892 195.541 4.63904 119.78 242.959 67.2596 12.3305 10.415 10.6401 
167.382 152.889 157.138 157.626 156.685 166.854 148.335 151.102 151.078 149.669 187.857 206.263 86.2522 179.079 206.79 1.46921 151.113 196.268 -17.9445 117.23 189.696 -13.0036 82.89 195.088 4.98585 119.781 242.912 67.3728 11.9826 10.2973 10.4031 
167.362 153.076 157.257 157.84 156.656 166.744 148.024 150.928 151.026 149.387 187.698 206.063 86.5064 178.696 205.96 2.00104 150.953 195.648 -17.4266 117.27 189.138 -12.4411 83.2607 194.702 5.56102 119.754 242.933 67.57 11.6515 10.1617 10.1742 
167.243 153.038 157.016 157.854 156.574 166.584 147.614 150.926 151.081 149.319 187.505 205.902 86.8409 178.346 205.087 2.64625 150.742 195.084 -17.0376 117.186 188.698 -12.0961 83.4332 194.403 5.96715 119.679 242.85 67.8139 11.3942 10.0306 10.0577 
167.034 152.912 156.607 157.723 156.451 166.328 147.161 150.983 151.176 149.425 187.23 205.843 87.2392 177.97 204.441 3.35567 150.537 194.728 -16.6376 117.045 188.508 -11.801 83.4298 194.365 6.25886 119.588 242.812 68.1829 11.2353 9.90956 9.94888 
167.211 153.008 156.569 157.665 156.352 166.416 147.067 151.07 151.218 149.317 187.358 205.978 87.4917 177.621 203.764 3.74854 150.313 194.129 -16.3495 116.864 188.04 -11.4799 83.4286 193.974 6.69043 119.449 242.622 68.4351 11.0749 9.83066 9.84099 
167.372 153.237 156.504 157.64 156.274 166.507 147.237 151.328 151.308 149.307 187.34 205.841 87.7862 177.341 202.995 4.0539 149.954 193.317 -16.0714 116.468 187.264 -10.9504 83.1996 193.403 7.39549 119.349 242.41 68.7422 10.9602 9.86265 9.85673 
167.765 153.514 156.68 157.667 156.213 166.855 147.594 151.5 151.317 149.163 187.762 206.063 88.0907 177.093 202.221 4.29024 149.579 192.352 -15.6377 116.068 186.339 -10.1476 82.9647 192.789 8.31871 119.325 242.242 69.0194 10.8824 9.92086 9.86406 
167.712 153.343 156.386 157.38 156.043 166.874 147.657 151.463 151.159 149.014 187.893 206.022 88.4535 176.94 201.655 4.63084 149.284 191.584 -15.0496 115.798 185.536 -9.27447 82.7816 192.166 9.25547 119.347 241.999 69.3339 10.8991 9.96245 9.91431 
167.567 152.986 155.72 156.839 155.695 166.87 147.604 151.359 150.835 148.812 188.289 206.367 88.8385 176.909 201.279 4.96129 148.973 191.023 -14.5649 115.475 184.719 -8.36515 82.4862 191.497 10.1583 119.381 241.755 69.6403 10.9723 10.1197 10.0995 
166.691 152.349 154.922 156.092 154.997 166.097 147.243 151.121 150.319 148.383 187.972 206.202 89.2316 176.969 200.853 5.41931 148.899 190.268 -14.0338 115.317 183.704 -7.40949 82.3725 190.725 11.0059 119.394 241.393 69.9633 10.9654 10.3226 10.2335 
166.275 152.04 154.544 155.639 154.603 165.683 147.106 151.009 150.014 148.162 187.751 206.023 89.5596 176.829 200.225 5.70879 148.621 189.2 -13.5848 115.027 182.435 -6.53309 82.1907 189.675 11.8014 119.337 240.863 70.2515 10.9002 10.4548 10.336 
165.802 151.851 154.318 155.174 154.03 165.123 147.086 150.971 149.685 147.79 187.507 205.949 89.903 176.718 199.742 5.89894 148.348 188.159 -13.2207 114.746 181.214 -5.68295 82.025 188.715 12.5977 119.25 240.327 70.5956 10.811 10.602 10.4646 
165.574 152.015 154.897 155.346 154.15 164.615 147.247 151.115 149.876 147.854 186.834 205.585 89.9996 176.685 199.557 6.18647 148.345 187.409 -12.7077 114.786 180.468 -5.09058 82.2365 188.08 13.2163 119.239 240 71.0511 10.6342 10.5497 10.4648 
165.541 152.348 155.679 155.716 154.368 164.373 147.487 151.341 150.264 147.961 186.59 205.689 90.0717 176.678 199.433 6.40247 148.37 186.658 -12.2901 114.868 179.789 -4.78671 82.5395 187.452 13.6621 119.168 239.656 71.449 10.3821 10.4203 10.5011 
165.754 152.993 156.983 156.378 154.801 164.586 147.816 151.432 150.708 148.085 187.217 206.124 90.572 177.097 198.823 7.03006 148.833 185.026 -11.3166 115.382 178.082 -3.99053 83.1431 185.807 14.5086 119.14 238.77 72.0669 10.1586 10.3014 10.6403 
166.114 153.237 157.304 156.811 155.176 164.933 147.966 151.623 150.988 148.175 187.536 206.728 90.8416 177.401 199.229 7.43941 149.045 185.129 -10.9344 115.561 177.849 -3.58011 83.3968 185.541 14.9725 119.123 238.655 72.5219 10.0608 10.436 10.8384 
166.381 153.611 157.556 157.15 155.538 165.191 148.365 152.047 151.33 148.417 187.909 206.942 91.4476 178.03 199.182 8.03007 149.583 184.913 -10.5441 115.93 177.276 -3.11313 83.637 184.938 15.4668 119.219 238.319 72.9659 10.1418 10.6537 11.0257 
166.348 153.984 157.84 157.519 156.154 164.894 148.544 152.417 151.769 148.949 187.509 206.52 91.874 178.529 199.293 8.79257 150.278 184.838 -9.82797 116.644 176.951 -2.47275 84.2204 184.425 16.0522 119.433 238.1 73.6032 10.2072 10.65 10.9777 
166.257 154.226 156.962 157.495 156.16 163.916 148.19 151.41 151.197 149.072 187.139 205.868 91.8652 178.416 198.678 9.96907 150.782 184.447 -7.83026 117.417 176.975 -0.771668 85.1162 184.593 17.1126 119.905 238.385 74.5449 10.0061 10.2755 10.3262 
166.213 155.261 157.387 158.04 156.953 163.318 148.444 151.396 151.24 149.978 186.566 205.073 91.811 178.693 197.983 11.2832 152.077 184.03 -6.09558 118.909 177.014 0.689225 86.363 184.608 17.9058 120.382 238.625 75.5958 10.0276 9.83536 9.41582 
166.485 156.286 157.914 158.399 157.675 163.521 148.894 151.592 151.185 150.801 186.658 204.754 92.3899 179.32 197.473 12.4083 153.426 183.501 -4.6254 120.526 176.609 2.13 87.3202 183.963 18.7368 120.727 238.651 76.3977 10.4523 9.49736 8.83633 
167.194 157.643 158.983 159.169 158.46 164.264 149.739 152.267 151.414 151.404 186.501 203.987 92.943 179.63 196.292 13.4372 154.218 182.537 -3.53927 121.474 175.74 3.46487 87.7604 183.038 19.7407 120.766 238.465 76.9858 10.7913 9.31186 8.39819 
167.312 158.08 159.116 159.418 158.8 164.641 150.011 152.839 151.708 151.921 186.143 203.224 93.6553 179.754 195.056 14.3807 154.531 181.43 -2.92643 121.805 174.755 4.16183 87.4935 182.067 20.3624 120.476 238.098 77.3005 11.2165 9.18562 8.30055 
167.266 158.153 159.041 159.494 158.812 164.671 149.87 152.963 151.689 151.931 185.24 201.682 94.0622 179.589 193.385 15.1703 154.557 179.897 -2.32263 121.928 173.469 4.76333 87.2648 180.95 20.9041 120.181 237.399 77.3818 11.4531 9.01348 8.18805 
167.028 157.947 158.486 159.265 158.522 164.427 149.737 153.091 151.488 151.686 184.319 200.24 94.5221 179.195 191.884 15.5894 154.055 178.398 -2.0235 121.626 172.132 5.42663 86.7798 179.866 21.5573 119.846 236.66 77.4248 11.6073 8.89886 8.26643 
166.624 157.243 157.412 158.564 157.863 163.967 149.138 152.858 150.922 151.112 183.449 199.249 94.9677 178.927 190.856 16.1221 153.35 177.389 -1.77802 121.092 171.213 6.11226 86.1957 179.183 22.1884 119.573 236.118 77.4778 11.7178 8.89361 8.64131 
166.398 156.704 156.769 158.072 157.503 163.681 148.845 152.83 150.673 150.837 182.772 198.662 95.2378 178.639 190.126 16.4653 152.694 176.661 -1.64982 120.563 170.613 6.51455 85.6718 178.767 22.6334 119.337 235.751 77.5991 11.7609 8.862 8.93484 
166.351 156.308 156.391 157.749 157.383 163.721 148.696 152.955 150.743 150.896 182.335 198.331 95.4133 178.242 189.464 16.756 151.889 176.123 -1.66329 119.785 170.261 6.56878 84.8387 178.487 22.8972 119.004 235.42 77.715 11.8872 8.81694 9.26965 
166.274 156.041 156.267 157.51 157.27 163.728 148.695 153.031 150.76 150.9 182.156 198.322 95.4213 177.927 189.226 16.7422 151.249 175.845 -1.7835 119.218 170.088 6.52361 84.3078 178.313 22.988 118.734 235.169 77.76 11.9145 8.76633 9.51531 
166.42 155.849 156.257 157.357 157.296 163.983 148.735 153.124 150.87 151.065 182.2 198.55 95.4549 177.718 189.121 16.7492 150.749 175.704 -1.91586 118.727 169.962 6.37935 83.7572 178.075 22.971 118.416 234.892 77.8275 12.01 8.74832 9.76168 
166.571 155.799 156.373 157.334 157.52 164.171 148.95 153.224 151.051 151.417 182.342 198.919 95.3292 177.507 189.173 16.6592 150.301 175.733 -2.00696 118.213 169.994 6.24268 83.2025 178.058 22.8447 118.141 234.756 77.9088 12.0967 8.77533 9.92998 
166.795 155.686 156.519 157.31 157.734 164.5 149.058 153.241 151.16 151.655 182.498 199.315 95.0824 177.169 189.342 16.4752 149.794 175.89 -2.1414 117.655 170.101 6.02271 82.7043 178.016 22.6872 117.813 234.573 77.9175 12.1128 8.81334 10.0489 
