144.539 177.08 168.432 171.655 168.995 149.056 169.544 164.137 170.248 163.522 -349.629 418.116 104.988 -367.852 373.001 60.3174 -361.151 360.886 53.4449 -341.191 358.801 47.6347 -310.089 360.436 56.0307 -302.833 419.687 107.471 4.22908 4.66863 6.42103 
144.128 175.704 167.345 169.792 168.555 150.812 169.223 163.901 168.828 162.693 -351.1 417.916 104.57 -367.121 371.992 60.3765 -360.658 359.867 53.7302 -340.452 357.664 49.1809 -309.643 360.265 57.3199 -303.335 419.867 107.681 4.18053 3.93252 6.70723 
144.632 174.763 166.155 169.652 169.579 151.003 168.873 164.117 169.378 164.266 -352.199 418.377 104.688 -366.846 371.927 60.61 -361.181 360.187 53.7873 -341.097 357.549 49.4027 -310.392 360.272 58.0388 -303.913 420.251 108.135 3.87357 3.64504 7.19782 
147.978 174.332 161.615 169.372 169.167 147.857 169.149 163.15 169.219 163.947 -353.722 419.423 105.402 -367.489 372.499 60.4773 -362.519 360.999 55.0404 -341.945 358.357 49.9445 -311.104 361.091 58.6157 -304.134 420.216 108.53 3.76601 4.0126 8.24717 
151.74 173.743 165.907 173.8 170.797 146.983 168.231 166.005 171.623 167.24 -354.501 418.739 106.405 -367.157 372.754 61.2541 -363.032 361.869 53.5657 -342.34 357.51 49.0316 -311.973 360.512 59.7853 -303.954 420.223 109.438 2.66791 3.30765 7.80464 
154.542 175.026 166.26 175.266 171.786 149.394 167.893 167.22 172.916 167.668 -354.881 419.346 105.586 -366.904 372.647 61.5859 -362.832 362.454 51.985 -341.872 357.337 47.9382 -312.104 362.207 59.7029 -304.428 420.827 110.174 1.328 2.20761 7.52107 
151.377 176.143 167.556 175.783 171.363 150.058 169.162 168.545 173.426 167.431 -357.417 419.897 107.145 -368.097 372.235 61.2955 -363.706 361.994 52.1771 -342.578 357.759 48.2781 -312.968 363.116 60.0044 -304.699 420.565 110.434 0.889187 2.23481 7.32494 
153.001 176.174 168.247 175.671 171.587 148.058 169.131 169.154 173.278 167.066 -358.8 419.536 107.789 -368.663 371.512 61.5382 -364.166 361.148 52.6877 -343.295 357.524 49.2071 -313.523 362.981 60.8383 -304.847 420.203 110.472 0.683751 2.03121 7.26494 
153.218 176.133 168.643 176.267 171.394 146.326 168.919 169.227 172.914 167.393 -358.76 417.516 109.18 -368.145 371.203 61.7383 -363.16 360.324 52.0708 -342.501 356.851 50.0238 -312.997 361.856 61.8874 -304.686 419.536 110.839 0.722612 1.56831 6.61951 
154.421 175.934 169.777 176.185 171.35 146.062 167.956 169.108 172.203 167.984 -358.737 415.9 109.709 -367.318 369.771 62.4171 -362.356 359.291 51.9115 -340.722 354.366 50.1903 -311.939 359.929 62.2935 -304.382 418.566 111.208 0.651772 1.23637 6.55874 
155.407 175.691 169.111 175.348 172.979 144.827 169.135 168.971 171.87 169.57 -358.873 414.668 109.832 -367.06 368.534 62.0037 -361.795 357.53 51.858 -339.802 352.521 50.3934 -311.389 358.494 62.3958 -304.284 417.845 111.424 0.843329 1.31128 6.28548 
157.3 175.201 167.144 175.284 173.162 144.652 168.956 167.96 171.596 169.531 -357.258 411.63 108.581 -367.18 367.122 62.5584 -361.226 355.038 52.54 -338.64 349.683 51.3809 -310.859 355.538 63.6652 -303.873 416.311 111.185 0.630479 1.68089 5.53896 
157.807 175.063 166.203 174.886 172.934 144.424 169.818 167.41 170.26 169.129 -356.163 409.64 108.483 -367.756 366.55 63.1035 -360.498 353.4 53.3326 -337.938 348.356 52.7518 -310.732 354.432 64.8102 -303.588 415.448 111.061 0.943984 1.48714 4.44961 
157.917 175.763 164.977 175.305 172.73 143.437 171.483 167.321 169.308 167.524 -355.52 408.895 108.416 -368.517 366.191 63.158 -361.128 352.2 54.7316 -338.797 347.193 54.513 -312.286 353.629 66.1102 -303.688 414.726 111.134 1.76825 1.26858 4.60119 
157.497 175.545 164.719 174.943 172.271 143.404 172.916 167.721 168.664 167.031 -354.875 408.335 107.894 -369.191 365.628 62.9447 -362.164 351.491 55.7066 -340.044 346.748 55.3724 -313.257 353.357 65.7043 -303.709 413.626 110.983 2.33977 1.05366 5.38279 
158.218 173.126 165.104 173.181 170.683 143.547 173.818 168.368 167.793 168.088 -354.906 407.709 108.342 -369.259 365.776 62.2473 -361.805 351.271 55.2129 -340.13 346.918 55.6681 -312.872 353.427 65.0808 -303.938 413.31 111.06 2.78288 0.510241 5.32366 
158.397 172.014 166.964 172.183 168.704 143.637 175.767 168.288 166.652 165.609 -355.494 407.299 108.969 -372.299 368.034 61.9524 -363.103 351.597 56.2732 -341.125 347.064 57.1866 -313.731 353.558 66.536 -304.297 413.386 111.163 2.67102 0.281709 5.49831 
158.001 171.284 171.06 172.723 168.87 143.436 176.527 168.724 166.64 165.051 -355.953 407.419 109.655 -374.215 370.111 62.2842 -364.354 353.035 56.5124 -341.827 347.824 57.3255 -313.95 353.701 66.3021 -304.394 413.25 111.126 2.57181 0.721566 5.48935 
157.428 173.168 173.288 174.294 171.423 142.349 177.46 170.164 168.502 166.662 -355.999 408.21 110.281 -374.934 370.821 62.5762 -364.867 353.753 56.44 -342.207 348.586 56.4723 -313.959 354.491 65.0028 -304.592 413.656 111.488 2.89275 0.953861 5.45244 
157.295 174.19 174.499 174.34 173.032 141.908 177.852 170.639 169.533 167.987 -356.579 408.85 111.228 -376.217 372.117 63.3139 -366.11 355.235 56.7625 -343.27 349.777 55.9977 -314.906 355.373 63.7851 -305.186 414.247 111.788 3.32158 1.33411 5.28491 
156.779 174.797 175.318 174.111 174.324 141.036 178.069 170.974 170.471 169.02 -356.103 409.494 111.581 -377.008 373.157 64.0569 -367.38 356.652 57.1017 -344.815 351.068 55.6484 -316.423 356.313 62.8759 -305.421 414.514 111.995 3.47963 1.33105 5.21601 
156.45 172.741 175.434 172.436 174.38 141.56 177.382 170.54 170.23 168.583 -356.89 409.898 111.827 -378.507 374.192 64.6286 -368.822 358.118 57.2413 -346.34 352.379 55.3954 -318.041 357.244 62.4409 -306.229 414.885 111.784 3.29121 1.36784 4.9347 
156.154 170.991 175.36 173.105 174.414 142.265 176.774 170.626 170.744 168.495 -358.667 411.705 112.151 -380.203 375.269 65.3794 -370.055 359.314 57.3848 -347.426 353.743 54.8805 -318.89 358.615 61.9063 -307.292 415.938 111.845 3.2537 1.69576 4.53001 
156.896 169.037 174.547 173.36 173.411 143.781 176.11 169.885 170.561 166.463 -360.085 412.136 112.397 -381.093 375.842 66.1699 -370.202 359.229 58.2294 -347.834 354.154 55.2797 -319.609 359.181 63.5648 -307.978 416.726 112.013 2.5497 2.0667 4.39561 
156.916 166.37 173.558 173.321 172.329 144.214 175.209 168.815 169.735 165.085 -360.556 412.671 112.511 -382.165 377.63 66.8145 -371.414 360.678 58.9459 -349.148 355.082 55.7 -320.847 359.511 64.3185 -308.395 417.116 112.058 2.23007 2.28849 4.38248 
156.534 166.398 173.514 173.38 172.162 143.682 175.219 168.69 169.558 164.889 -361.023 413.122 112.446 -382.771 378.35 66.4223 -372.59 361.455 58.6747 -350.309 355.566 55.3573 -321.983 359.716 64.25 -309.128 417.582 112.003 2.07296 2.38818 4.39885 
155.357 164.42 172.967 172.707 172.375 142.852 173.948 168.143 169.43 165.191 -361.261 414.061 112.655 -381.237 377.8 66.6028 -373.955 363.349 58.7249 -351.67 357.041 54.898 -323.215 360.617 63.4494 -309.662 418.003 112.056 2.17817 2.59725 4.77125 
154.65 168.371 173.018 172.591 172.758 142.517 172.58 168.047 169.934 165.862 -361.885 415.427 113.261 -381.1 378.567 66.6599 -374.493 364.42 59.0056 -352.228 358.413 54.4114 -323.513 361.918 62.566 -310.214 418.884 112.485 2.55841 3.01349 5.35132 
154.448 168.705 173.322 173.213 173.083 142.726 172.671 168.144 170.458 166.516 -362.259 415.937 113.738 -381.511 379.151 67.3421 -374.992 365.305 59.3822 -352.92 359.824 54.0516 -324.008 363.065 62.0487 -310.739 419.653 112.853 2.64952 3.42637 5.28889 
156.022 166.726 173.365 173.406 173.624 143.988 171.915 168.649 170.614 166.852 -362.497 415.71 113.351 -381.179 378.485 68.2746 -374.342 364.648 59.3558 -352.543 359.75 54.4471 -324.003 363.437 62.8037 -311.055 420.51 113.149 2.60123 3.36473 4.51472 
157.171 170.671 172.391 172.65 173.964 145.503 171.967 168.592 170.09 166.913 -362.446 415.052 113.258 -380.621 378.213 68.0424 -373.637 364.097 59.5632 -352.138 358.841 55.6267 -323.95 362.663 64.625 -310.914 420.892 113.399 2.52006 3.04816 4.4144 
157.63 172.831 172.98 171.858 174.256 145.118 172.683 168.761 170.016 167.02 -362.269 414.496 112.937 -380.701 378.093 67.0047 -374.166 364.09 58.9985 -352.363 358.408 55.5695 -324.685 362.494 65.0948 -311.27 421.098 113.229 2.30153 2.76544 4.8964 
158.266 174.227 173.682 171.139 174.459 145.314 173.043 168.534 169.998 167.044 -362.329 414.328 112.544 -380.545 378.242 66.207 -374.342 364.259 58.7667 -352.23 358.379 55.4369 -324.876 362.482 65.2893 -311.629 421.33 112.996 2.16721 2.83589 5.37423 
158.427 174.967 174.275 171.268 175.251 145.451 173.268 168.154 170.736 168.293 -362.232 415.748 112.068 -379.665 377.812 65.9443 -373.888 364.325 58.7374 -351.881 359.134 54.4531 -324.515 363.259 64.0635 -311.816 421.684 113.204 2.23933 3.35292 5.99747 
158.446 175.693 175.52 172.276 175.48 145.787 173.339 168.981 171.825 168.675 -362.178 415.925 112.449 -379.069 377.42 65.7115 -373.624 364.202 58.3418 -351.232 359.135 53.6143 -323.814 363.396 63.8484 -311.636 421.851 113.435 2.03146 3.79064 6.15657 
157.942 176.287 176.297 172.634 175.617 145.477 173.526 169.402 172.517 169.133 -362.68 417.339 112.764 -378.51 377.408 65.1215 -373.457 364.611 57.8193 -350.502 359.458 52.7075 -322.922 363.935 62.9119 -311.639 422.076 113.669 2.125 4.05841 6.59725 
159.264 176.519 178.666 173.727 175.408 146.945 173.28 171.036 173.503 170.236 -364.699 418.069 113.218 -377.966 376.873 64.9723 -372.865 365.203 55.8709 -349.257 359.218 51.2398 -321.715 363.631 62.6026 -311.846 422.172 113.832 1.63036 4.05603 6.13846 
159.606 176.667 178.723 174.787 176.01 146.884 173.475 172.114 174.323 171.842 -366.044 419.084 112.847 -377.155 375.98 64.2921 -371.63 364.457 54.0945 -348.284 358.992 50.1502 -320.718 363.778 61.8926 -312.25 422.388 113.924 1.61818 3.59074 5.74119 
157.944 176.755 179.085 175.044 175.156 144.917 173.755 172.654 174.27 170.946 -366.207 419.966 112.781 -376.515 375.239 63.8583 -371.431 364.287 54.1623 -347.987 359.459 50.3737 -320.213 364.812 62.0852 -312.183 422.474 114.145 1.74734 3.47697 6.35616 
157.059 176.681 177.844 174.825 174.811 145.169 173.673 172.674 173.77 170.827 -366.417 420.279 112.238 -375.62 374.427 63.5242 -370.31 363.221 53.9741 -347.548 358.895 51.0202 -319.556 364.407 62.6745 -312.135 422.367 114.299 1.7179 2.78892 6.28487 
157.44 176.941 177.572 174.805 173.34 145.781 173.951 172.168 173.318 168.692 -366.731 420.207 111.639 -375.604 373.917 63.3202 -370.426 362.134 55.091 -347.427 358.181 52.1561 -319.608 364.168 64.7844 -312.041 422.52 114.448 1.18385 3.02163 6.60321 
157.657 177.149 177.786 175.29 173.863 146.757 174.056 172.399 173.727 169.745 -367.175 420.719 111.209 -375.265 374.173 62.8613 -369.877 362.716 54.5092 -346.985 357.741 51.8983 -319.352 363.631 65.1009 -312.497 422.982 114.602 0.943908 2.83605 6.54315 
156.959 177.395 178.178 176.096 173.246 146.216 174.418 171.348 173.637 168.958 -367.045 420.865 110.638 -375.423 374.266 62.5425 -370.616 362.714 55.5073 -347.9 358.049 52.8122 -320.008 363.939 66.1893 -312.6 423.329 114.683 0.730872 2.86337 7.2816 
155.37 176.663 179.442 176.833 174.03 144.969 174.176 171.058 174.557 169.907 -367.092 422.073 110.72 -375.464 374.312 62.7841 -371.257 363.801 55.5774 -348.749 359.494 52.0026 -320.388 364.917 64.8271 -312.54 423.445 114.799 0.69515 3.07246 7.82752 
155.015 176.656 179.429 177.564 174.651 143.631 174.27 171.265 175.313 170.682 -366.78 422.55 110.707 -376.037 375.108 62.9504 -372.829 365.272 55.9655 -350.303 361.26 51.8365 -321.449 365.98 63.8898 -312.842 423.894 115.022 1.05666 3.31083 8.61901 
155.55 176.655 179.308 177.622 175.048 143.553 174.211 171.471 175.247 170.696 -366.37 422.65 110.4 -376.873 375.72 63.4871 -374.318 366.069 57.0153 -351.539 361.88 52.6814 -322.477 366.336 64.1304 -312.793 424.116 115.215 1.46755 3.54656 9.09537 
156.336 176.376 178.792 177.798 175.378 143.25 173.96 172.587 175.446 170.72 -366.437 422.927 110.583 -377.257 376.135 63.9821 -375.375 367.073 57.4921 -352.253 362.29 53.1939 -323.113 366.546 64.5166 -312.744 424.33 115.507 1.57558 3.5883 9.53894 
156.705 176.355 178.48 177.781 175.185 143.272 173.997 173.083 175.306 170.011 -366.606 422.807 110.354 -377.905 376.839 63.96 -376.177 367.935 57.9944 -353.114 362.965 53.4788 -323.697 366.653 65.1977 -313.013 424.618 115.606 1.32194 3.70923 9.80225 
158.018 176.202 177.64 177.759 175.043 143.57 173.755 173.12 174.967 169.257 -366.714 422.28 110.145 -378.235 377.157 64.4087 -376.13 367.624 59.0682 -353.446 362.96 54.5545 -323.9 366.534 66.376 -313.112 425.088 115.794 1.37736 3.80009 9.60527 
157.712 176.338 177.257 177.643 174.493 143.325 173.707 172.817 174.669 168.115 -365.752 421.953 110.666 -378.471 377.812 64.9366 -375.838 367.401 59.9844 -353.92 363.326 55.5877 -324.733 366.947 67.5812 -313.201 425.531 116.151 0.868828 3.70612 9.27606 
157.648 176.499 177.04 177.508 174.529 143.145 173.703 172.637 174.681 167.986 -364.998 421.738 111.461 -378.834 378.544 65.8269 -375.925 367.677 61.0677 -354.219 363.838 56.5638 -325.28 367.471 68.4776 -313.286 426.091 116.711 0.753378 3.86352 9.08895 
157.839 176.875 176.796 177.211 175.275 142.787 174.078 172.456 175.001 168.997 -364.285 421.663 112.601 -379.467 379.443 66.6133 -376.435 368.289 61.73 -354.523 364.286 56.9206 -325.995 368.162 68.1992 -313.553 426.592 117.149 1.15702 3.98177 8.92055 
157.898 177.741 177.203 177.718 176.289 142.527 174.328 172.928 176.213 170.477 -363.768 421.814 113.486 -380.632 380.665 67.5388 -378.385 370.155 62.0732 -356.023 365.372 56.3021 -327.52 368.231 67.4579 -313.948 426.78 117.322 0.865771 4.35904 9.20022 
157.719 178.173 177.427 177.87 176.278 143.333 173.427 173.341 176.089 169.994 -365.185 422.375 114.428 -381.839 381.423 68.7635 -379.176 371.513 62.4903 -357.063 366.184 56.5872 -328.545 368.496 68.0621 -314.154 426.713 117.276 0.371854 4.25205 8.73815 
159.895 179.735 179.947 179.13 177.356 145.621 172.958 177.48 176.203 173.01 -363.677 422.227 115.519 -381.101 381.524 69.9472 -378.073 373.451 60.4909 -355.198 364.96 55.8132 -327.206 367.431 67.3832 -314.174 427.278 118.188 0.838642 3.71542 8.32379 
159.47 178.048 179.972 179.953 177.974 145.824 174.71 176.547 175.589 173.3 -364.079 423.459 116.496 -382.002 382.893 70.232 -378.947 373.845 61.6286 -356.349 365.697 56.7015 -328.533 368.129 67.7657 -314.835 427.753 118.378 0.794204 3.57014 8.15549 
160.1 177.97 179.942 179.954 178.332 146.125 174.541 176.549 174.556 172.983 -364.495 422.359 116.944 -382.617 382.519 71.3594 -380.305 374.072 62.6688 -356.225 364.93 58.4752 -328.395 367.913 68.9898 -315.221 428.084 118.663 1.01922 4.07781 8.75072 
160.47 178.811 174.548 179.574 179.685 148.065 173.965 174.21 172.959 173.564 -364.098 420.307 116.504 -383.37 382.289 72.4469 -379.658 372.559 63.7819 -355.993 363.937 60.73 -327.521 366.967 70.9202 -315.41 428.203 118.657 1.1809 3.31832 7.4712 
161.17 179.992 176.269 177.376 179.263 148.189 173.75 172.784 170.996 172.351 -364.509 419.974 115.53 -384.256 382.192 72.1222 -380.646 372.017 64.5373 -356.587 363.868 61.7731 -327.742 367.152 71.0446 -316.091 428.009 118.299 1.50769 3.24396 7.74509 
161.462 179.727 176.093 176.318 179.457 148.117 175.383 172.906 170.614 171.686 -364.261 420.596 114.148 -385.798 383.061 71.9958 -381.288 371.824 65.0606 -356.692 364.237 62.2558 -327.595 367.72 71.1706 -316.518 427.893 118.369 1.5316 3.34941 7.24736 
161.563 179.268 176.331 175.998 179.911 148.578 177.242 173.555 170.813 170.972 -364.037 420.423 113.554 -387.473 383.635 72.6527 -382.224 371.429 65.8155 -357.48 364.334 62.965 -328.351 367.886 72.344 -316.887 427.77 118.482 0.950229 3.25499 6.66716 
161.515 178.598 176.263 175.028 179.337 148.457 177.826 173.581 171.629 171.719 -363.57 420.429 113.7 -388.696 384.562 72.8501 -383.45 372.44 65.9109 -358.51 365.333 62.3735 -329.419 368.853 71.2558 -317.245 427.826 118.653 1.07017 3.51305 6.66025 
160.798 174.594 177.119 175.142 179.28 147.484 178.095 173.973 173.162 172.57 -363.589 421.166 113.495 -389.505 386.236 71.3048 -384.471 373.142 65.9726 -359.351 366.25 61.1177 -330.428 369.413 69.7878 -317.719 427.79 118.833 1.10332 4.01328 7.79389 
159.391 174.57 177.79 176.928 179.397 146.436 178.085 175.325 175.759 173.974 -362.815 422.689 112.609 -391.351 387.441 72.2394 -386.216 374.766 65.843 -360.828 368.124 59.2807 -332.671 370.83 68.0728 -318.775 428.004 119.326 0.561404 4.74209 7.31391 
161.331 174.367 177.754 177.172 177.6 145.629 178.01 175.556 176.516 174.861 -361.547 422.508 113.793 -391.441 388.152 73.0753 -386.535 375.44 65.8789 -361.971 369.107 57.5946 -334.178 371.112 66.7643 -319.567 428.193 119.795 0.0954135 5.13143 7.15514 
159.047 177.475 174.282 174.217 177.274 141.255 174.773 172.707 175.537 176.091 -362.669 423.803 116.489 -393.107 388.467 79.1164 -388.213 376.674 68.0457 -366.106 372.418 59.0213 -338.342 373.805 65.339 -320.643 428.354 120.108 1.56993 4.68763 5.25704 
154.993 176.776 169.496 173.327 178.226 141.44 171.931 168.857 172.636 177.92 -364.881 424.342 119.917 -393.963 391.022 80.1112 -388.018 376.287 69.8308 -368.535 372.415 62.9597 -341.591 375.342 66.728 -321.144 428.503 120.426 4.50076 3.71999 4.64293 
152.863 174.519 165.662 170.97 177.865 141.97 170.3 166.674 170.015 177.36 -366.267 424.096 122.908 -394.434 393.176 81.175 -388.344 376.61 70.8758 -369.503 371.4 65.991 -343.828 375.018 69.3681 -321.269 428.649 120.626 6.04168 2.88859 3.94197 
152.787 176.636 162.98 165.498 178.785 143.26 165.964 165.128 168.045 176.697 -366.517 423.801 124.83 -395.015 393.97 84.1834 -388.107 376.619 71.3789 -369.502 370.874 68.0776 -344.317 374.472 71.4296 -321.12 429.032 121.286 6.49845 2.42817 1.36297 
151.392 174.27 161.341 166.372 179.022 145.483 164.701 164.142 168.777 176.72 -366.571 423.537 126.024 -395.984 394.204 86.9113 -388.129 376.025 71.8645 -369.781 372.644 67.5386 -344.532 376.543 71.3942 -321.539 429.647 122.015 6.2841 3.95271 0.460822 
149.958 175.332 162.145 168.645 178.081 147.907 160.835 164.718 171.054 175.895 -365.944 422.214 127.071 -395.196 393.184 89.0137 -386.97 375.291 71.4979 -368.904 372.574 66.6189 -342.341 375.197 72.0106 -321.13 429.794 122.673 4.13213 4.48591 2.17767 
154.98 171.529 162.61 167.483 176.826 148.009 158.057 163.818 169.928 174.922 -367.506 420.024 127.699 -393.953 390.657 89.762 -387.679 374.297 72.5365 -368.299 370.155 68.2791 -341.121 372.806 74.0618 -321.069 429.348 122.381 3.55815 3.25882 3.00425 
157.634 166.574 162.66 166.511 175.235 148.9 156.495 162.775 169.144 171.67 -368.964 419.045 127.645 -392.388 388.649 89.6135 -388.551 373.763 73.3644 -368.614 368.932 69.3525 -340.34 369.62 77.1392 -321.015 428.96 121.836 1.11344 3.07177 4.82554 
158.443 165.083 163.275 170.162 174.503 148.427 155.123 163.867 170.582 171.177 -369.122 419.918 126.651 -392.707 388.372 90.8915 -388.694 374.358 72.88 -368.287 369.292 67.573 -341.307 370.804 76.9035 -321.021 428.453 121.717 1.7352 3.60604 5.77974 
159.864 161.879 164.818 171.356 174.854 150.048 153.953 164.525 171.876 171.387 -369.317 419.382 125.852 -392.214 387.869 91.1003 -388.871 374.925 72.1475 -368.354 370.348 66.6109 -340.287 371.526 76.5118 -321.53 429.034 121.698 1.08282 3.66518 6.82432 
161.389 163.055 166.001 174.006 177.497 149.923 155.985 165.731 173.73 174.575 -369.007 420.5 124.778 -392.847 388.095 90.9329 -388.489 375.419 71.554 -368.181 371.858 65.4937 -340.129 373.424 74.575 -321.654 429.279 122.098 1.09525 4.15085 6.36193 
161.35 161.347 168.93 176.891 179.424 149.603 155.791 168.464 175.727 174.496 -369.237 420.071 125.229 -394.217 388.974 92.3698 -388.228 375.894 70.0288 -369.411 374.126 65.015 -340.861 374.613 74.9921 -321.579 429.138 122.119 1.26747 4.7704 7.24374 
160.618 162.961 169.456 178.33 178.66 150.756 158.473 168.931 177.411 174.769 -368.221 420.016 124.552 -394.638 388.596 91.1863 -387.958 375.964 69.8956 -368.103 374.23 63.6218 -338.977 375.356 74.212 -321.632 429.347 122.331 1.67297 4.62143 5.95506 
162.414 166.509 168.902 176.65 179.256 151.93 162.191 168.232 177.925 173.463 -367.362 419.155 123.521 -394.34 387.945 88.956 -387.522 375.079 70.3412 -367.089 373.574 63.2239 -337.792 374.905 74.3281 -321.529 429.385 122.455 2.14289 4.85131 3.91951 
163.275 173.045 169.347 176.844 177.818 154.332 167.382 168.108 177.028 169.941 -367.737 418.166 123.196 -393.799 387.703 85.5609 -387.131 374.537 69.8959 -364.608 371.5 62.9801 -336.895 373.757 76.8256 -321.693 429.843 122.382 4.61854 4.30149 2.8475 
161.874 179.16 170.032 176.825 174.317 155.344 171.565 168.252 175.87 162.815 -367.48 415.842 123.195 -393.365 387.46 82.3319 -386.651 374.057 68.7825 -363.507 370.055 64.5134 -337.249 373.544 81.9471 -322.102 430.174 122.228 8.51398 2.6225 2.95482 
163.78 176.531 170.288 173.779 171.232 156.296 174.394 167.858 173.409 162.311 -369.11 416.27 123.799 -393.76 387.371 80.8817 -386.658 373.727 69.8332 -363.184 369.143 66.7313 -336.654 373.24 82.543 -322.676 431.132 122.331 6.78772 2.17263 3.50232 
164.409 174.511 170.394 172.351 169.918 156.322 177.58 167.522 172.23 161.434 -370.265 417.115 123.846 -395.009 388.237 78.9532 -387.088 374.234 70.2915 -362.791 369.046 67.691 -336.694 373.359 83.0276 -323.501 432.098 122.505 6.19837 2.51257 4.19155 
162.529 174.898 169.655 172.486 173.041 155.972 178.201 167.278 173.064 166.317 -371.53 420.458 121.474 -393.479 388.678 75.3225 -386.305 374.676 69.7848 -362.637 370.201 66.0811 -335.491 373.763 78.9943 -324.071 432.584 122.493 3.35885 2.74926 6.86004 
160.321 174.607 168.313 173.088 173.405 151.17 178.101 166.996 173.694 169.244 -371.876 421.835 121.688 -395.116 391.379 74.6927 -387.481 377.229 70.2615 -364.904 373.188 65.7288 -336.865 375.803 77.0596 -324.408 433.04 122.575 1.78401 2.9856 7.42025 
159.914 175.23 170.113 177.295 175.967 149.927 178.327 169.195 177.405 173.058 -372.084 422.767 122.243 -397.209 392.547 74.4807 -388.72 379.466 69.7249 -366.558 376.148 63.8309 -338.397 377.774 75.0488 -324.816 433.583 123.037 1.44803 4.00691 6.75115 
160.974 175.815 172.407 179.052 178.415 148.883 178.558 171.45 179.676 176.934 -373.733 424.311 123.359 -399.227 393.175 75.0361 -389.77 381.218 69.5889 -367.598 378.309 62.9252 -339.46 379.912 73.2728 -325.368 434.638 123.546 0.584653 4.56821 5.80657 
160.632 175.907 172.259 177.728 176.606 148.998 178.59 171.403 179.297 175.72 -374.152 424.419 124.011 -399.805 394.315 74.9281 -389.787 381.496 69.1973 -367.838 379.389 62.4627 -340.081 380.223 73.1142 -325.742 435.412 123.778 1.00798 4.85968 5.61854 
159.968 176.034 172.991 175.782 176.763 148.967 178.623 172.076 178.639 175.985 -374.025 424.659 124.608 -399.498 394.573 74.0218 -389.359 381.38 68.3113 -367.4 380.061 61.5696 -339.79 381.199 71.9959 -325.89 436.162 124.006 1.00492 4.79643 6.0247 
160.301 176.008 176.879 175.597 175.952 152.323 178.595 175.017 178.494 178.354 -369.853 425.762 120.241 -398.576 394.689 73.0849 -386.011 381.007 64.2692 -365.526 379.848 58.5351 -338.607 383.33 66.6483 -325.929 436.926 124.721 1.60872 3.52774 4.65913 
