157.968 176.321 171.973 171.037 169.572 141.692 178.502 172.735 174.052 170.844 -307.846 293.741 93.0721 -307.21 249.189 39.0629 -291.182 237.218 30.0103 -269.623 241.472 29.9279 -247.004 256.685 40.5496 -257.332 310.09 92.241 3.63006 0.574476 4.89242 
157.427 175.725 172.014 171.666 169.187 142.289 178.213 172.32 173.777 170.29 -308.368 293.342 93.2342 -306.385 247.424 39.3731 -291.018 235.43 30.8112 -268.845 239.525 30.4677 -245.864 255.118 41.0051 -257.181 309.321 92.425 3.22671 0.559565 5.0516 
157.604 175.865 172.298 171.834 169.285 142.284 176.907 172.054 173.47 169.518 -308.234 292.612 93.2135 -305.119 246.122 39.4686 -290.301 233.964 31.0248 -268.007 238.176 30.7499 -245.282 253.991 41.7175 -256.881 308.54 92.6292 3.19651 0.621457 5.16155 
157.204 175.661 171.965 171.844 169.168 143.03 176.307 171.427 172.89 168.855 -309.214 291.648 93.3846 -305.089 244.657 39.9985 -290.33 232.369 31.7069 -267.3 236.575 31.1784 -244.22 252.788 41.939 -257.186 307.909 92.5596 2.93427 1.12641 5.12353 
157.586 176.295 171.777 171.432 168.798 142.992 175.451 171.143 172.424 168.498 -309.483 291.228 93.7694 -305.246 244.282 40.4353 -290.262 231.762 32.0069 -267.336 236.154 31.3749 -244.152 252.434 42.0042 -257.288 307.403 92.8397 2.84841 1.08787 5.22108 
157.294 177.488 171.706 171.107 168.475 142.628 174.322 170.792 171.776 167.555 -309.205 289.904 93.8672 -305.365 243.28 40.5427 -290.024 230.648 31.7752 -267.302 235.346 31.0284 -244.407 251.743 41.6672 -257.221 306.347 92.6184 2.99525 1.02554 5.17871 
157.138 177.162 171.642 171.21 168.564 143.097 174.826 170.591 171.543 167.377 -309.796 289.007 93.7795 -305.047 241.648 40.4888 -289.84 229.149 31.9492 -266.608 233.997 30.9379 -243.518 250.821 41.3079 -257.34 305.453 92.4132 2.98933 1.41509 5.24738 
157.135 177.229 171.37 171.158 168.905 143.428 175.376 170.29 171.197 167.133 -310.497 287.664 93.2676 -304.538 239.645 39.928 -289.264 227.198 31.9483 -265.545 232.168 30.8939 -242.227 249.378 41.1486 -257.591 304.402 92.1132 2.86439 1.76873 5.48135 
157.436 177.417 171.301 171.241 169.519 144.019 175.665 170.149 171.008 167.006 -310.934 285.95 92.5144 -303.802 237.813 39.0151 -288.401 225.283 31.6523 -264.182 230.125 30.6934 -240.715 247.327 41.1079 -257.347 302.988 91.6451 2.75154 2.13743 5.65154 
157.361 178.202 171.202 170.587 169.302 144.608 175.837 169.898 170.189 166.596 -310.424 283.034 91.4788 -302.939 235.242 37.8381 -287.659 222.369 31.5613 -263.105 226.843 31.0916 -239.15 243.761 41.0736 -256.513 300.266 90.9826 2.9777 2.22631 6.19239 
158.025 178.617 171.089 169.819 169.383 145.332 175.858 169.746 169.767 166.525 -310.716 281.635 90.5993 -302.623 233.962 37.29 -287.287 220.956 31.4825 -262.24 225.072 31.3385 -238.093 241.521 41.4222 -256.275 298.847 90.4696 2.91339 2.5335 6.22719 
159.243 178.913 171.171 169.543 169.754 146.222 175.859 169.73 169.551 166.402 -310.57 279.999 89.8156 -302.411 232.939 37.0997 -287.132 219.875 31.6375 -261.578 223.785 31.8196 -237.249 239.827 42.0692 -256.116 297.828 90.1827 2.86277 2.8592 6.17168 
160.584 179.292 171.527 169.531 169.903 146.818 175.913 169.679 169.257 166.093 -309.824 278.236 88.5991 -302.203 231.938 36.6835 -287.162 218.764 31.5447 -261.667 222.361 32.0328 -237.425 237.907 42.3764 -255.712 296.569 89.6558 2.69061 2.76607 6.1921 
162.206 179.754 171.776 169.706 170.798 147.708 176.163 169.658 169.372 166.411 -310.018 277.265 87.6799 -301.568 230.676 36.4783 -286.654 217.367 31.7009 -261.232 220.915 32.2861 -237.276 236.406 42.928 -255.673 295.861 89.4316 2.54513 2.77252 6.20407 
162.57 178.814 172.148 170.139 171.403 147.985 176.333 169.627 169.332 166.499 -309.835 276.448 87.0272 -301.296 229.862 36.3009 -286.531 216.53 31.5206 -261.338 219.883 31.9871 -237.608 235.129 42.7303 -255.37 294.938 89.1857 2.43729 2.67107 6.13924 
162.504 177.863 172.502 170.451 171.903 148.03 176.696 169.811 169.652 167.089 -309.139 275.326 86.5354 -301.051 228.952 36.0531 -286.419 215.596 31.0732 -261.462 218.866 31.2385 -237.87 233.8 41.992 -254.793 293.638 88.8664 2.41661 2.61057 6.03451 
162.858 176.906 172.539 170.43 172.412 148.512 176.838 169.515 169.765 167.597 -308.679 273.993 85.7325 -301.848 228.327 35.4795 -287.181 214.565 30.6077 -262.481 217.575 30.4817 -238.806 231.959 41.2291 -254.565 292.196 88.2256 2.50503 2.62224 6.01674 
162.325 179.857 172.51 171.121 174.884 148.168 175.394 169.774 171.272 169.49 -308.12 272.715 84.5155 -302.612 228.183 34.0151 -288.824 214.312 29.1478 -264.606 217.236 28.8359 -241.366 231.378 39.2015 -254.718 290.974 87.6204 3.34456 2.53539 6.13548 
161.883 178.37 172.749 172.009 176.543 148.242 174.44 170.28 173.122 170.156 -307.687 271.657 83.8096 -303.437 227.938 33.1938 -290.05 214.106 28.1356 -266.235 217.124 27.588 -243.077 230.657 38.1926 -254.785 289.857 87.1851 3.4251 2.64095 5.99008 
161.985 177.493 173.169 173.305 177.533 148.461 173.451 170.906 174.7 170.169 -307.703 271.043 83.7087 -303.524 227.569 33.2481 -290.406 213.999 27.5956 -266.919 217.299 26.9381 -243.66 230.177 38.0256 -254.869 289.292 87.0605 3.02502 2.78385 5.55389 
162.251 176.753 173.422 174.385 177.946 148.688 172.496 171.404 175.52 170.16 -307.843 270.328 83.5653 -302.994 226.664 33.3718 -290.155 213.508 27.3373 -266.979 217.176 26.7427 -243.6 229.993 37.9734 -255.004 288.93 87.0071 2.891 2.79586 5.30957 
162.619 176.336 173.815 175.543 178.203 148.826 172.066 172.229 176.321 170.498 -308.021 269.914 83.5895 -302.251 225.779 33.6003 -289.796 213.143 27.0696 -266.889 217.165 26.6681 -243.242 230.038 38.0508 -255.189 288.871 87.1917 2.70292 2.72681 5.08408 
162.862 176.438 174.296 176.329 178.519 149.062 172.495 172.66 176.149 169.925 -308.108 269.56 83.9503 -301.798 225.002 33.9212 -289.491 212.58 27.3622 -266.027 216.514 26.85 -242.504 229.283 38.9158 -255.073 288.576 87.2625 1.91085 2.75899 5.16369 
162.848 176.239 174.303 176.527 178.451 148.772 172.294 172.615 176.29 170.461 -308.229 269.244 84.0944 -301.257 224.06 34.2818 -289.252 211.74 27.3449 -265.92 215.774 26.8401 -242.465 229.001 38.598 -255.227 288.325 87.3085 2.24721 2.69286 5.10155 
162.446 176.026 174.273 176.357 178.162 148.245 171.965 172.407 176.08 170.71 -308.474 269.227 84.2375 -300.982 223.383 34.7134 -289.136 211.136 27.514 -266.088 215.378 26.8769 -242.702 229.099 38.0298 -255.461 288.185 87.3628 2.74164 2.62937 5.1116 
162.064 175.903 174.395 176.442 177.956 147.47 171.882 172.55 176.02 171.299 -308.736 268.835 84.5599 -300.641 222.559 34.8812 -289.282 210.55 27.4612 -266.687 215.117 26.7456 -243.277 229.396 37.2069 -255.924 288.017 87.501 3.29117 2.51628 5.33311 
161.73 175.9 174.417 176.18 177.655 147.046 171.853 172.543 175.682 171.456 -308.898 268.833 84.8532 -300.52 222.192 35.1074 -289.369 210.155 27.7551 -267.082 214.818 26.9867 -243.732 229.498 36.9374 -256.116 287.92 87.7338 3.70117 2.4204 5.54375 
161.694 175.777 174.371 175.867 177.312 146.822 171.819 172.523 175.502 171.459 -308.706 268.796 84.7414 -300.879 222.013 34.9094 -289.965 209.74 27.8191 -267.894 214.266 27.0151 -244.41 228.992 36.6237 -256.13 287.501 87.7787 3.96566 2.37883 5.79377 
161.419 175.865 174.467 175.713 177.062 146.14 171.811 172.667 175.222 171.684 -308.328 268.632 84.7403 -301.002 221.824 34.9812 -290.495 209.587 27.7355 -268.872 214.095 27.0189 -245.343 228.935 36.1309 -256.164 287.246 87.8654 4.30632 2.25844 5.94438 
160.698 175.93 174.527 175.482 176.74 145.393 171.918 172.671 174.805 171.777 -307.872 268.315 84.9948 -300.852 221.433 35.1525 -290.583 209.414 27.6867 -269.421 213.949 26.9573 -245.802 229.021 35.482 -255.96 286.826 87.9618 4.71968 2.2199 6.00364 
160.155 175.984 174.562 175.261 176.402 144.681 171.967 172.651 174.449 171.785 -307.359 267.854 85.2859 -300.825 221.228 35.2477 -290.854 209.276 27.6764 -269.927 213.72 26.9621 -246.136 228.794 35.0876 -255.804 286.405 88.0435 4.90258 2.16364 6.13915 
159.868 176.025 174.574 175.11 176.115 144.237 171.999 172.652 174.145 171.738 -306.798 267.26 85.4553 -300.697 220.831 35.3282 -291.141 208.89 27.7718 -270.34 213.148 27.1071 -246.366 228.116 34.9299 -255.432 285.775 88.1057 5.00262 2.09188 6.35017 
159.864 176.04 174.526 175.072 175.848 144.117 171.964 172.537 174.007 171.542 -305.913 266.284 85.4447 -300.786 220.531 35.378 -291.566 208.466 28.0762 -270.696 212.481 27.3665 -246.638 227.162 35.0033 -255.031 285.019 88.0566 5.00153 2.04156 6.61578 
159.497 176.113 174.396 174.893 175.701 143.832 172.136 172.446 173.832 171.537 -305.531 265.41 85.717 -300.738 220.087 35.2216 -291.672 207.927 28.2674 -270.572 211.839 27.4221 -246.357 226.506 34.8308 -254.777 284.31 87.988 5.08551 1.96486 6.89225 
159.454 176.22 174.385 174.944 175.78 143.915 172.436 172.6 174.053 171.755 -305.407 264.668 85.9636 -300.502 219.676 35.0422 -291.605 207.562 28.2696 -270.187 211.316 27.3088 -245.921 225.973 34.7228 -254.47 283.684 87.9249 5.07217 1.87145 7.08381 
159.211 176.415 174.343 174.923 175.852 143.743 172.732 172.649 174.166 171.961 -304.994 263.843 86.3171 -300.692 219.345 34.9294 -291.975 207.292 28.258 -270.235 210.842 27.0356 -245.954 225.409 34.3714 -254.059 282.912 87.7822 5.13999 1.88686 7.20685 
159.017 176.501 174.365 174.969 175.8 143.658 172.964 172.707 174.221 172.067 -304.608 262.838 86.343 -300.459 218.504 34.6116 -292.108 206.724 28.003 -270.086 210.048 26.4768 -245.69 224.547 33.7534 -253.561 281.886 87.4875 5.11496 1.90436 7.41312 
158.865 176.606 174.395 175.013 175.762 143.675 173.209 172.747 174.283 172.128 -304.405 261.928 86.3785 -299.954 217.45 34.3186 -291.928 205.938 27.8427 -269.594 209.077 25.9592 -245.198 223.674 33.218 -253.057 280.843 87.268 5.10203 1.97196 7.65923 
158.955 176.665 174.335 175.035 175.768 144.006 173.386 172.632 174.332 172.224 -304.581 261.103 86.2014 -299.845 216.527 33.8083 -292.092 205.132 27.5624 -269.428 208.016 25.3745 -245.115 222.641 32.6793 -252.817 279.835 86.8814 5.03751 2.06098 7.91304 
159.092 176.745 174.403 175.237 175.834 144.434 173.545 172.583 174.546 172.343 -304.744 260.171 86.1685 -299.75 215.622 33.5173 -292.128 204.396 27.3501 -269.147 207.181 24.9082 -244.858 221.847 32.3261 -252.743 279.054 86.6414 4.8868 2.18624 8.03208 
159.211 176.827 174.502 175.399 176.047 144.741 173.719 172.727 174.946 172.652 -305.182 259.9 86.131 -299.391 214.703 33.5254 -291.808 203.636 27.1107 -268.436 206.373 24.5795 -244.129 221.088 32.2411 -252.613 278.333 86.5275 4.72035 2.33666 7.94021 
159.182 177.056 174.537 175.598 176.356 144.716 173.953 172.66 175.381 172.986 -305.032 259.218 86.3597 -298.69 213.622 33.7584 -291.322 202.655 27.1994 -267.616 205.253 24.6064 -243.314 219.834 32.561 -252.162 277.21 86.5999 4.47751 2.48502 8.00414 
159.075 177.084 174.434 175.579 176.55 144.794 173.993 172.603 175.587 173.066 -305.356 259.206 86.5248 -298.312 213.069 34.079 -290.465 202.097 27.2289 -266.639 204.918 24.74 -242.437 219.569 32.9239 -252.087 276.798 86.7721 4.38805 2.55262 7.65057 
159.393 176.97 174.213 175.598 176.667 145.047 173.776 172.571 175.732 173.018 -305.848 259.231 86.4136 -297.745 212.262 34.4461 -289.385 201.296 27.2802 -265.583 204.445 25.1196 -241.543 219.272 33.5936 -252.235 276.653 86.9211 4.30332 2.5182 7.22319 
159.584 176.888 173.868 175.49 176.691 144.846 173.696 172.629 175.731 172.957 -305.852 259.38 86.1952 -297.102 211.615 34.6809 -288.229 200.445 27.2194 -264.749 203.982 25.5411 -240.91 218.993 34.2066 -252.274 276.559 87.1352 4.33001 2.31797 6.80886 
160.332 178.208 175.039 175.816 176.884 144.964 175.099 173.823 175.644 172.447 -304.579 259.594 84.747 -294.922 211.748 33.8787 -285.065 200.171 25.6319 -263.838 204.478 25.5679 -240.964 219.481 34.6352 -252.004 276.777 87.6126 4.24311 1.46416 6.1747 
159.865 178.113 175.24 175.805 176.743 144.478 174.976 173.758 175.625 172.612 -304.609 259.525 84.7101 -294.582 211.107 34.1137 -284.56 199.632 25.3343 -263.964 204.344 25.5505 -241.194 219.682 34.4316 -252.182 276.665 87.6811 4.45025 1.63938 5.8917 
159.596 177.975 175.304 175.7 176.62 144.045 174.965 173.758 175.551 172.76 -304.99 259.649 84.9413 -294.419 210.606 34.447 -284.224 199.282 25.3388 -263.736 204.144 25.7381 -241.019 219.917 34.4403 -252.434 276.683 87.8428 4.67218 1.59208 5.67623 
159.18 177.964 175.473 175.724 176.606 143.611 175.107 173.875 175.648 173.005 -304.823 259.542 85.5524 -294.445 210.336 34.9796 -284.192 199.118 25.7017 -263.873 204.078 26.2001 -241.021 220.066 34.6857 -252.502 276.678 88.1825 4.79489 1.63107 5.57699 
159.25 177.845 175.566 175.899 176.581 143.604 174.925 173.885 175.754 173.106 -304.483 259.098 85.5907 -294.534 209.794 35.3032 -284.506 198.726 26.0185 -264.409 203.662 26.5793 -241.466 219.707 34.9301 -252.487 276.468 88.3262 4.83293 1.73294 5.63835 
159.714 178.392 176.092 176.82 176.965 143.478 175.702 174.021 175.913 172.966 -302.824 258.866 84.54 -292.68 209.405 35.0057 -283.791 198.778 26.3769 -264.117 203.903 26.7195 -241.719 220.03 35.102 -251.869 276.459 88.9107 4.92577 2.00324 6.60207 
160.179 178.843 176.36 177.287 177.131 143.625 176.1 173.883 175.47 172.466 -301.579 258.663 84.0236 -291.673 209.137 34.8372 -283.489 198.769 26.747 -264.228 204.001 26.728 -242.075 220.091 34.9196 -251.042 276.045 89.3093 5.07534 2.30237 7.25431 
160.253 178.397 176.084 177.111 176.942 143.614 175.227 173.797 175.32 172.323 -301.078 257.954 84.1063 -291.621 208.705 34.7545 -284.544 198.577 26.9804 -265.374 203.538 26.9181 -243.206 219.626 34.9516 -250.928 275.564 89.2301 5.24821 2.34108 7.94363 
160.19 178.051 175.899 176.96 176.783 143.376 174.711 173.775 175.228 172.409 -300.688 257.209 84.4281 -291.842 208.05 34.9439 -285.445 198.332 27.3337 -266.117 203.118 27.0032 -243.787 219.317 34.7925 -250.771 275.095 89.1445 5.36664 2.24253 8.329 
159.765 177.507 175.734 176.763 176.533 142.796 174.2 173.651 175.025 172.409 -300.046 256.614 85.0702 -291.81 207.397 35.4814 -286.138 198.192 27.9486 -266.58 202.814 27.2172 -244.022 219.163 34.6719 -250.338 274.612 89.2558 5.4849 2.09992 8.73084 
159.854 177.089 175.663 176.694 176.332 142.743 173.973 173.612 174.987 172.417 -299.651 255.675 85.5031 -292.046 206.723 35.7657 -286.938 197.755 28.6032 -266.839 202.186 27.4967 -243.933 218.573 34.7368 -250.16 274.214 89.2247 5.38903 1.80565 9.14076 
159.834 176.62 175.469 176.47 176.01 142.624 173.696 173.38 174.72 172.176 -299.164 254.755 85.8661 -292.054 206.162 36.0452 -287.344 197.186 29.3504 -266.571 201.334 27.871 -243.266 217.665 34.9694 -249.718 273.626 89.1546 5.27361 1.55476 9.52129 
159.625 176.38 175.317 176.327 175.831 142.437 173.754 173.246 174.602 172.123 -299.008 254.447 86.4252 -291.927 206.078 36.3349 -287.546 197.009 30.0159 -266.1 200.966 28.2438 -242.387 217.276 35.2184 -249.417 273.377 89.2511 5.13947 1.40848 9.88729 
159.891 176.601 175.172 176.174 175.757 142.543 174.164 173.178 174.567 172.126 -298.644 253.726 86.5249 -291.678 205.809 36.1295 -287.582 196.53 30.4444 -265.468 200.31 28.4264 -241.48 216.582 35.4032 -249.01 272.962 89.2203 5.04844 1.49561 10.2971 
160.012 176.947 175.11 176.1 175.746 142.569 174.456 173.177 174.657 172.17 -298.416 253.22 86.7323 -291.544 205.637 36.0359 -287.586 196.239 30.7547 -264.934 199.936 28.5474 -240.813 216.254 35.5825 -248.793 272.727 89.2634 5.00092 1.68438 10.5387 
159.836 177.412 175.011 176.016 175.709 142.371 174.581 173.125 174.718 172.158 -298.238 252.838 87.095 -291.85 205.591 36.2493 -287.681 196.162 31.0286 -264.659 199.798 28.6282 -240.498 216.099 35.689 -248.64 272.517 89.2943 5.00957 1.89611 10.4274 
159.913 177.929 174.9 175.972 175.76 142.494 174.594 173.075 174.867 172.213 -298.119 252.494 87.3388 -292.237 205.532 36.529 -287.634 196.039 31.4273 -264.204 199.672 28.8317 -239.981 215.984 35.9714 -248.495 272.384 89.3919 5.00135 2.18089 10.1991 
159.89 177.96 174.738 175.865 175.668 142.52 174.335 172.961 174.871 172.098 -297.773 251.882 87.5836 -292.232 205.194 36.8734 -287.365 195.705 31.8413 -263.558 199.276 29.0604 -239.208 215.542 36.2666 -248.204 272.065 89.4907 4.92816 2.44992 10.0577 
159.777 177.672 174.589 175.721 175.494 142.418 173.887 172.84 174.786 172.019 -297.744 251.552 88.0367 -292.114 204.669 37.4692 -286.999 195.356 32.1897 -262.993 198.873 29.2867 -238.518 215.152 36.4768 -247.932 271.82 89.6837 4.93579 2.61519 9.76785 
159.592 177.56 174.504 175.58 175.467 142.242 173.792 172.891 174.905 172.122 -297.837 251.424 88.3895 -292.021 204.399 37.6998 -286.764 195.189 32.247 -262.524 198.706 29.2261 -238.015 215.043 36.5147 -247.859 271.619 89.8822 4.92309 2.79218 9.61781 
159.597 177.425 174.43 175.482 175.259 142.125 173.672 172.937 174.936 172.123 -298.357 251.616 88.7338 -291.96 204.06 37.9119 -286.49 194.971 32.3438 -262.152 198.546 29.3058 -237.489 214.948 36.6923 -247.996 271.615 90.1629 4.90821 2.8958 9.42415 
159.456 177.012 174.192 175.183 174.776 142.018 173.224 172.77 174.586 171.674 -299.179 252.133 89.0627 -291.573 203.445 38.338 -285.809 194.434 32.6402 -261.446 198.042 29.6942 -236.512 214.534 37.2049 -248.027 271.58 90.4826 4.86264 2.93305 9.17009 
159.353 176.639 174.141 175.066 174.509 141.782 172.953 172.738 174.408 171.488 -299.728 252.63 89.2508 -291.262 203.025 38.695 -285.278 194.03 32.8165 -261.194 197.714 29.9788 -236.269 214.334 37.5668 -248.095 271.648 90.8351 4.86266 2.80419 8.94135 
159.301 176.167 173.942 174.828 174.107 141.562 172.456 172.415 173.935 171.057 -300.237 252.8 89.2275 -291.291 202.389 39.1345 -284.875 193.313 33.2031 -261.228 197.203 30.4062 -236.399 214.02 37.8593 -248.362 271.562 91.0616 4.94358 2.6438 8.64586 
159.328 175.967 173.93 174.759 173.89 141.186 172.203 172.22 173.587 170.838 -300.609 253.009 89.3984 -291.59 201.863 39.6277 -284.932 192.7 33.5955 -261.791 196.68 30.8817 -237.003 213.61 38.0303 -248.692 271.53 91.2858 5.05768 2.40977 8.42999 
159.499 175.699 173.863 174.667 173.743 141.115 171.886 171.985 173.277 170.586 -300.865 253.11 89.4872 -291.736 201.536 39.9763 -285.041 192.235 34.0668 -262.347 196.17 31.4541 -237.583 213.038 38.3907 -248.759 271.305 91.5356 5.10166 2.21552 8.42957 
159.45 175.498 173.677 174.457 173.454 140.778 171.583 171.625 172.868 170.23 -300.508 253.046 89.6919 -291.822 201.306 40.4634 -285.177 191.876 34.609 -262.995 195.847 31.954 -238.234 212.635 38.5376 -248.583 270.999 91.784 5.184 2.08737 8.48165 
159.309 175.49 173.62 174.293 173.254 140.577 171.527 171.499 172.61 170.071 -300.171 252.834 90.097 -291.939 201.147 40.8458 -285.45 191.613 34.8841 -263.697 195.534 32.2691 -238.855 212.164 38.5295 -248.326 270.516 92.0051 5.21921 1.92 8.54381 
159.04 175.477 173.594 174.154 173.122 140.515 171.592 171.51 172.49 170.013 -299.712 252.452 90.527 -292.041 201.119 41.0666 -285.578 191.476 35.0621 -264.137 195.346 32.5318 -239.091 211.767 38.5571 -247.921 270.008 92.1763 5.24294 1.81203 8.55854 
159.084 175.478 173.798 174.294 173.249 140.63 171.686 171.683 172.587 170.145 -299.101 251.91 90.709 -291.843 200.72 41.1931 -285.551 191.033 35.1606 -264.487 194.768 32.7056 -239.533 211.115 38.6497 -247.342 269.314 92.2713 5.26626 1.76452 8.62213 
159.398 175.557 174.019 174.465 173.46 140.759 171.76 171.863 172.692 170.357 -298.418 251.208 90.6638 -291.609 200.066 41.304 -285.52 190.434 35.1867 -264.818 194.109 32.8009 -240.078 210.503 38.6075 -246.77 268.511 92.2874 5.40177 1.7789 8.67027 
159.415 175.652 174.136 174.528 173.546 140.852 171.781 171.936 172.722 170.416 -297.77 250.672 90.9017 -291.462 199.775 41.5615 -285.45 190.057 35.3919 -265.035 193.667 33.1035 -240.389 210.013 38.783 -246.138 267.838 92.3807 5.50209 1.81251 8.68122 
159.463 175.937 174.302 174.668 173.737 140.956 172.03 172.148 172.93 170.606 -297.012 250.073 91.2009 -291.134 199.63 41.8092 -285.202 189.862 35.7292 -264.935 193.483 33.5616 -240.293 209.767 39.162 -245.583 267.39 92.6484 5.54888 1.83388 8.77603 
159.778 175.961 174.337 174.694 173.828 141.303 171.95 172.143 172.915 170.489 -296.325 249.254 91.323 -290.648 199.279 42.3002 -284.606 189.496 36.3828 -264.31 193.179 34.383 -239.645 209.416 39.9616 -245.151 267.123 92.8707 5.51324 1.80822 8.79086 
159.932 175.862 174.255 174.529 173.868 141.723 171.738 172.077 172.788 170.262 -296.268 248.969 91.6486 -289.691 198.759 43.0346 -283.525 188.966 37.2327 -263.042 192.679 35.4227 -238.306 209.047 41.076 -244.869 267.152 93.2233 5.41776 1.67519 8.79089 
160.187 175.519 174.022 174.248 173.714 142.443 171.146 171.721 172.358 169.687 -296.406 248.545 91.8339 -288.811 198.346 43.7917 -282.441 188.548 38.0207 -261.803 192.223 36.4619 -237.109 208.608 42.2932 -244.601 267.19 93.4904 5.3096 1.57801 8.6852 
160.308 175.118 173.675 173.875 173.389 143.137 170.543 171.242 171.841 169.014 -296.984 248.545 92.1766 -288.238 198.185 44.554 -281.391 188.447 38.7071 -260.553 192.124 37.3737 -235.769 208.478 43.4093 -244.48 267.459 93.8565 5.18627 1.49154 8.36832 
160.306 174.747 173.247 173.47 172.979 143.492 169.885 170.645 171.284 168.361 -297.47 248.492 92.716 -288.028 198.101 45.395 -280.652 188.457 39.2764 -259.666 192.127 38.0105 -234.744 208.35 44.1515 -244.395 267.623 94.138 5.08078 1.46811 7.93643 
160.165 174.284 172.901 173.056 172.482 143.932 168.888 170.142 170.824 167.807 -298.514 249.238 93.4907 -287.983 198.34 46.6194 -280.129 188.713 40.04 -258.986 192.222 38.8756 -233.888 208.215 45.1798 -244.339 267.941 94.6274 4.9735 1.4348 7.43684 
160.132 173.926 172.515 172.675 171.971 144.148 168.265 169.673 170.385 167.399 -299.681 250.344 93.9908 -288.691 199.149 47.1662 -280.581 189.494 40.3841 -259.255 192.858 39.2487 -233.993 208.583 45.5798 -244.681 268.468 95.0068 4.9823 1.42001 7.17207 
160.01 173.847 172.342 172.471 171.657 144.029 168.145 169.569 170.293 167.41 -300.207 251.473 94.6606 -289.4 200.208 47.6325 -281.366 190.52 40.6948 -259.988 193.725 39.5022 -234.501 209.091 45.7623 -244.804 269.007 95.5477 5.00512 1.4382 7.12966 
159.812 173.946 172.293 172.404 171.466 143.528 168.506 169.671 170.421 167.55 -300.035 252.298 95.3246 -289.766 200.877 48.1553 -281.899 191.203 41.1353 -260.578 194.353 39.7945 -234.811 209.524 45.9205 -244.697 269.379 96.1337 5.03319 1.48063 7.1913 
159.876 174.427 172.53 172.601 171.591 142.943 169.297 170.13 170.846 168.016 -299.215 252.828 95.7003 -289.882 201.376 48.4466 -282.381 191.776 41.4067 -261.223 194.963 39.9209 -235.192 210.05 45.8327 -244.402 269.645 96.6614 5.11689 1.53103 7.4053 
160.056 174.828 172.665 172.674 171.667 142.673 169.874 170.476 171.066 168.247 -298.332 253.221 95.9572 -289.697 201.433 48.9113 -282.374 191.787 41.9539 -261.416 194.962 40.4684 -235.211 210.142 46.0885 -243.875 269.694 97.196 5.3125 1.5466 7.52108 
160.127 175.612 172.609 172.516 171.714 141.456 169.431 170.215 170.897 168.382 -296.115 254.273 95.9469 -288.739 201.739 50.5507 -281.704 192.356 42.6661 -260.721 195.864 40.7682 -234.093 211.234 45.8501 -243 269.98 98.1551 5.64925 1.6138 7.44749 
