165.255 163.923 175.774 171.213 170.908 164.288 156.19 168.643 165.993 163.479 -35.5766 184.354 -65.3548 -43.1491 153.621 -120.155 -45.4788 129.159 -135.538 -57.8159 100.613 -125.531 -69.2576 79.6112 -98.0985 -36.1775 120.066 -32.5025 7.71425 7.82562 7.33077 
164.896 166.054 178.177 171.63 170.947 164.623 157.959 170.158 166.584 163.428 -32.3229 184.745 -65.6273 -41.2543 154.002 -120.906 -44.1065 129.288 -136.569 -58.0031 100.701 -126.624 -71.0415 80.4941 -98.7645 -36.2914 119.781 -33.06 7.99451 8.22278 7.47376 
164.774 166.222 178.951 171.935 170.892 164.959 158.946 170.81 167.071 163.256 -30.146 185.403 -66.0585 -39.9252 154.791 -121.843 -43.7066 129.397 -137.731 -58.4453 100.923 -128.061 -72.8141 81.7306 -99.6547 -36.5427 119.63 -33.9609 8.23687 8.34777 7.67879 
165.075 167.434 178.93 172.211 170.796 164.96 161.452 170.85 167.527 163.146 -28.7887 185.55 -66.586 -37.9132 154.68 -123.908 -44.2237 128.908 -138.607 -59.2442 100.844 -129.166 -74.4127 82.8288 -100.275 -36.907 119.523 -34.6945 8.2954 8.15716 6.82824 
165.86 168.598 178.918 172.443 170.678 164.936 163.692 171.135 167.79 163.086 -28.1484 185.246 -66.9956 -35.8162 154.106 -125.707 -44.8207 128.183 -139.11 -60.2816 100.526 -129.608 -75.7297 83.3266 -100.473 -37.277 119.408 -34.9729 8.23978 8.04705 6.29034 
166.648 169.457 178.963 172.691 170.407 163.995 165.027 172.042 168.066 162.957 -29.0445 183.738 -67.3983 -32.9613 153.861 -126.655 -44.3185 127.815 -139.742 -61.4303 100.873 -130.41 -77.6763 84.6323 -101.26 -37.5483 118.611 -35.1881 8.19964 8.12628 6.63348 
167.608 169.463 179.029 172.663 170.365 163.919 165.007 172.843 167.942 162.742 -29.3871 183.027 -67.6293 -31.5425 153.373 -126.715 -43.5788 127.466 -139.917 -61.9953 101.524 -130.569 -78.5684 85.6926 -101.688 -37.638 118.121 -35.116 7.94698 8.03602 6.74041 
168.167 169.242 178.654 172.583 170.321 163.841 164.725 173.167 167.81 162.632 -29.7932 182.541 -67.8644 -30.6933 153.308 -126.548 -43.0567 127.587 -139.885 -62.5449 102.527 -130.69 -79.3768 86.8962 -102.085 -37.914 117.948 -35.0272 7.68159 7.97379 6.79821 
168.288 169.111 178.353 172.576 170.504 163.455 164.587 172.77 167.877 162.917 -30.1903 182.015 -68.0865 -30.0696 153.577 -126.402 -42.6457 128.275 -139.865 -62.9377 103.96 -131.046 -80.0021 88.2682 -102.782 -38.2223 117.846 -35.053 7.39146 7.87078 6.72574 
168.243 169.337 177.382 172.548 170.673 162.98 164.878 171.823 167.917 163.224 -30.7124 181.584 -68.2863 -29.4843 153.598 -126.568 -42.5302 129.024 -139.802 -63.3708 105.436 -131.263 -80.5018 89.5393 -103.405 -38.6042 117.914 -35.06 7.0777 7.69983 6.39364 
168.039 169.777 176.021 172.578 170.888 162.441 165.432 170.913 168.052 163.652 -31.1465 180.987 -68.5529 -28.9338 153.396 -127.006 -42.5961 129.695 -139.858 -63.7661 106.668 -131.473 -80.8045 90.5533 -104.017 -38.9757 117.936 -35.129 6.73669 7.53478 5.95495 
167.755 170.293 174.906 172.687 171.191 161.904 166.004 170.349 168.279 164.243 -31.216 180.339 -68.8643 -28.4488 153.221 -127.412 -42.6753 130.223 -140.013 -64.1712 107.733 -131.636 -80.9888 91.3987 -104.618 -39.3495 117.979 -35.1977 6.37189 7.40115 5.6562 
167.397 170.757 174.165 172.916 171.598 161.358 166.514 170.134 168.668 165.014 -31.1139 179.715 -69.1228 -27.9901 153.262 -127.671 -42.6654 130.708 -140.219 -64.4874 108.74 -131.795 -81.1566 92.2653 -105.212 -39.7276 118.107 -35.2246 6.07686 7.28155 5.54835 
166.927 171.014 173.727 173.136 171.93 160.803 166.796 170.054 169.024 165.696 -30.6501 179.021 -69.4529 -27.4472 153.169 -127.82 -42.391 131.007 -140.47 -64.6489 109.67 -131.984 -81.2734 93.1955 -105.858 -40.0652 118.189 -35.2991 5.82227 7.17494 5.47523 
166.187 171.315 173.617 173.319 172.14 159.384 167.15 170.521 169.473 166.462 -30.1133 177.291 -69.6352 -27.0101 152.585 -127.803 -41.1152 130.755 -140.952 -64.6517 110.863 -131.957 -81.2072 94.595 -106.317 -40.3383 118.206 -35.1994 5.46192 7.24195 5.32635 
165.209 171.414 173.312 173.378 172.213 158.198 167.261 170.536 169.695 166.852 -29.9783 175.985 -69.5951 -26.5282 151.952 -127.654 -39.9742 130.377 -141.19 -64.411 111.648 -131.893 -81.1801 95.6991 -106.576 -40.6166 118.171 -35.0944 5.29133 7.2863 5.38362 
164.379 171.461 173.045 173.383 172.152 157.371 167.325 170.437 169.832 166.979 -30.1479 175.214 -69.2789 -26.1179 151.49 -127.417 -39.0769 130.078 -141.283 -64.1682 112.287 -131.793 -81.3692 96.7209 -106.626 -40.8996 118.14 -34.9728 5.24842 7.31539 5.56773 
163.735 171.459 172.804 173.359 172.098 156.837 167.321 170.273 169.925 167.086 -30.3184 174.799 -68.8124 -25.6851 151.233 -127.038 -38.3051 129.923 -141.208 -63.8397 112.716 -131.667 -81.5152 97.4359 -106.627 -41.2016 118.148 -34.8051 5.30121 7.34046 5.79767 
163.271 171.425 172.64 173.338 172.06 156.548 167.276 170.14 170.008 167.176 -30.3736 174.554 -68.3562 -25.2855 151.209 -126.621 -37.6464 129.855 -141.169 -63.532 113.072 -131.66 -81.7307 98.1071 -106.703 -41.4584 118.133 -34.7226 5.38267 7.35721 6.15599 
162.979 171.352 172.545 173.353 172.117 156.449 167.115 170.04 170.149 167.385 -30.5126 174.368 -67.8917 -25.0346 151.471 -126.131 -37.0757 129.899 -141.161 -63.1775 113.349 -131.762 -81.9935 98.6271 -106.843 -41.7118 118.092 -34.6833 5.57689 7.33272 6.69368 
162.94 171.071 172.524 173.366 172.165 156.698 166.667 169.917 170.248 167.563 -30.5921 174.511 -67.4066 -24.9232 152.209 -125.452 -36.6969 130.183 -141.134 -62.8898 113.604 -131.927 -82.3615 99.046 -106.997 -41.9632 118.026 -34.6834 5.856 7.30127 7.45177 
162.979 170.648 172.551 173.441 172.296 156.976 166.056 169.809 170.407 167.868 -30.8137 174.552 -66.9994 -24.819 153.065 -124.715 -36.4526 130.468 -141.093 -62.6722 113.747 -132.092 -82.7169 99.2671 -107.185 -42.2045 117.92 -34.6708 6.148 7.27499 8.28941 
163.107 170.043 172.526 173.466 172.333 157.393 165.205 169.629 170.484 168.061 -31.1279 174.651 -66.5288 -24.6792 154.02 -123.855 -36.3061 130.792 -140.979 -62.5845 113.89 -132.215 -83.2297 99.4857 -107.303 -42.4201 117.754 -34.6374 6.48259 7.30232 9.19366 
163.239 169.421 172.533 173.544 172.431 157.844 164.395 169.586 170.651 168.372 -31.6262 174.796 -65.9422 -24.4964 155.135 -123.021 -36.2937 131.249 -140.954 -62.7234 114.177 -132.401 -83.9121 99.7446 -107.472 -42.6229 117.542 -34.6408 6.84641 7.3988 10.1208 
163.352 168.815 172.52 173.609 172.497 158.311 163.686 169.591 170.807 168.634 -32.0798 175.048 -65.2362 -24.1964 156.302 -122.207 -36.3562 131.801 -140.92 -63.0388 114.586 -132.571 -84.7326 100.102 -107.619 -42.8215 117.341 -34.6646 7.2115 7.56404 10.9962 
163.433 168.461 172.532 173.732 172.645 158.722 163.272 169.72 171.057 169.006 -32.4998 175.166 -64.5948 -23.91 157.273 -121.635 -36.5731 132.264 -140.977 -63.5234 114.943 -132.796 -85.5835 100.4 -107.817 -43.0307 117.114 -34.733 7.50603 7.73789 11.7219 
163.409 168.276 172.497 173.812 172.738 159.038 163.021 169.847 171.257 169.286 -32.7458 175.145 -64.0519 -23.454 157.848 -121.233 -36.7565 132.409 -141.028 -64.0451 115.143 -132.947 -86.4474 100.666 -107.942 -43.2523 116.895 -34.8007 7.75028 7.91138 12.3354 
163.354 168.445 172.44 173.854 172.745 159.289 163.169 169.96 171.374 169.36 -32.4676 174.878 -63.7174 -22.6642 157.828 -121.191 -36.9163 132.217 -141.122 -64.6924 115.273 -133.073 -87.4182 101.149 -108.034 -43.5001 116.62 -34.9241 7.87383 8.08952 12.6851 
163.306 169.014 172.399 173.849 172.594 159.474 163.901 170.072 171.403 169.154 -31.7899 174.503 -63.3199 -21.7265 157.222 -121.599 -37.3182 131.854 -141.16 -65.5825 115.333 -133.053 -88.584 101.669 -107.876 -43.7783 116.28 -35.0187 7.96528 8.25555 12.57 
163.19 169.95 172.396 173.808 172.354 159.575 164.837 170.149 171.344 168.746 -30.8432 173.774 -62.9047 -20.5961 156.166 -122.151 -37.5993 131.364 -141.127 -66.382 115.476 -132.928 -89.6795 102.43 -107.592 -44.0201 115.888 -35.0625 8.01068 8.38131 12.2373 
163.097 170.643 172.22 173.607 171.992 159.893 165.427 169.951 171.126 168.288 -29.2994 172.287 -62.1889 -18.6951 154.322 -122.418 -37.4834 130.475 -140.802 -66.9268 115.495 -132.615 -90.8297 103.337 -107.273 -44.5075 115.124 -34.9253 8.13617 8.51701 11.9419 
163.13 171.185 172.137 173.499 171.858 160.147 165.998 169.876 171.034 168.122 -27.7798 171.359 -61.7595 -17.4105 153.197 -122.785 -37.3784 130.296 -140.632 -67.1493 115.967 -132.43 -91.4242 104.34 -107.08 -44.7792 114.833 -34.8232 8.20994 8.52791 11.558 
163.919 170.531 172.521 173.538 172.161 161.242 165.06 170.114 170.741 168.065 -25.2949 170.604 -61.6789 -16.5006 152.959 -122.991 -37.3642 130.443 -140.579 -67.5786 116.758 -132.365 -92.187 105.628 -106.999 -45.0888 114.445 -34.9287 8.28871 8.62501 11.707 
164.587 169.619 172.759 173.333 172.173 162.059 164.099 170.129 170.324 167.792 -23.524 169.979 -61.6385 -15.9261 153.068 -122.912 -37.415 130.864 -140.379 -67.9757 117.649 -132.177 -92.8327 106.841 -106.774 -45.3637 114.141 -34.9803 8.37582 8.72563 11.879 
165.106 168.656 172.849 173.068 172.067 162.665 163.21 170.043 169.926 167.496 -22.1816 169.481 -61.4302 -15.4956 153.282 -122.601 -37.4969 131.335 -140.078 -68.3614 118.58 -131.884 -93.4506 108.036 -106.415 -45.6291 113.892 -34.9034 8.47516 8.80569 12.0766 
165.575 167.681 172.874 172.83 171.915 163.242 162.416 169.966 169.653 167.282 -20.7997 169.136 -61.067 -15.064 153.406 -122.175 -37.4785 131.674 -139.824 -68.5988 119.403 -131.657 -93.9826 109.151 -106.106 -45.8999 113.68 -34.7711 8.5986 8.8421 12.3042 
165.982 167.206 172.845 172.604 171.67 163.769 162.097 169.858 169.42 167.025 -19.4283 168.902 -60.5794 -14.6367 153.264 -121.984 -37.5465 131.953 -139.62 -68.8365 120.105 -131.47 -94.5152 110.113 -105.792 -46.1898 113.465 -34.6463 8.74533 8.84319 12.3315 
166.431 167.021 172.757 172.407 171.41 164.349 161.951 169.716 169.26 166.804 -18.0365 168.706 -59.9741 -14.3264 153.013 -121.841 -37.7459 132.056 -139.443 -69.1653 120.576 -131.283 -95.1682 110.867 -105.379 -46.4986 113.125 -34.5148 8.95155 8.84242 12.4082 
166.855 167.028 172.645 172.291 171.241 164.904 161.966 169.654 169.252 166.696 -16.8533 168.441 -59.4138 -14.2359 152.794 -121.787 -38.1277 131.984 -139.41 -69.6162 120.793 -131.162 -95.9307 111.405 -104.898 -46.826 112.709 -34.4085 9.188 8.82693 12.596 
167.168 167.246 172.496 172.079 170.896 165.3 162.259 169.499 169.115 166.41 -15.8365 168.055 -58.8615 -14.1275 152.237 -121.935 -38.6295 131.89 -139.288 -70.195 120.963 -130.9 -96.7523 111.774 -104.27 -47.1586 112.258 -34.2318 9.43213 8.83006 12.5056 
167.357 167.444 172.375 171.885 170.561 165.546 162.505 169.353 168.992 166.177 -15.1593 167.64 -58.3977 -14.0318 151.774 -121.966 -39.061 131.862 -139.11 -70.6926 121.078 -130.625 -97.4158 111.973 -103.74 -47.4587 111.843 -34.0369 9.61722 8.84946 12.4085 
167.532 167.685 172.298 171.761 170.258 165.789 162.784 169.254 168.921 165.989 -14.6506 167.286 -57.9752 -13.9763 151.438 -121.948 -39.4592 131.923 -138.931 -71.153 121.168 -130.369 -97.9977 112.029 -103.291 -47.7159 111.453 -33.8473 9.77906 8.88664 12.3076 
167.018 168.289 171.923 171.434 170.024 165.351 163.299 168.813 168.51 165.818 -15.0735 167.101 -57.1418 -13.8245 151.083 -121.806 -39.5372 132.771 -138.384 -71.063 121.958 -130.151 -98.0994 112.302 -103.273 -47.8227 111.066 -33.6421 9.93003 8.76805 11.6053 
167.173 168.659 171.795 171.366 169.837 165.543 163.625 168.771 168.569 165.789 -14.5057 166.744 -56.68 -13.6948 150.656 -121.73 -39.8159 132.66 -138.253 -71.3922 122.065 -129.908 -98.4866 112.514 -102.882 -47.9787 110.663 -33.4346 9.98725 8.75076 11.61 
167.44 168.997 171.725 171.294 169.576 165.819 163.824 168.72 168.572 165.619 -13.8598 166.475 -56.2333 -13.5163 150.366 -121.543 -39.985 132.518 -138.1 -71.6599 122.178 -129.629 -98.8725 112.81 -102.424 -48.136 110.295 -33.2424 10.0846 8.76336 11.7371 
167.3 169.516 171.319 170.926 169.314 165.686 164.15 168.321 168.167 165.297 -13.7649 166.316 -55.3856 -13.1942 150.127 -121.19 -39.6881 132.931 -137.549 -71.278 122.682 -129.377 -98.6414 113.147 -102.385 -48.1448 109.824 -33.0579 10.1099 8.67064 11.3927 
167.198 169.99 170.923 170.605 169.012 165.603 164.469 167.982 167.882 165.02 -13.6267 166.366 -54.4352 -12.993 149.986 -120.843 -39.4715 133.342 -137.034 -70.9819 123.115 -129.138 -98.4527 113.41 -102.313 -48.1612 109.355 -32.8833 10.1206 8.59875 11.0885 
167.125 170.403 170.589 170.382 168.794 165.536 164.765 167.768 167.75 164.914 -13.3995 166.39 -53.4788 -12.835 149.788 -120.487 -39.2679 133.5 -136.59 -70.7285 123.358 -128.916 -98.3114 113.586 -102.225 -48.2677 108.907 -32.6678 10.1177 8.53452 10.9067 
167.036 170.726 170.332 170.23 168.581 165.434 165.056 167.659 167.712 164.835 -13.3015 166.384 -52.5923 -12.7681 149.498 -120.213 -39.254 133.476 -136.224 -70.7062 123.449 -128.684 -98.4204 113.734 -102.013 -48.4874 108.513 -32.4173 10.1513 8.49736 10.8022 
166.985 170.942 170.104 170.076 168.36 165.355 165.344 167.574 167.682 164.732 -13.3307 166.185 -51.8965 -12.8062 148.977 -120.094 -39.5496 133.301 -135.905 -71.0397 123.326 -128.409 -98.8412 113.677 -101.668 -48.769 108.07 -32.1818 10.2232 8.51942 10.6972 
166.917 171.012 169.851 169.863 168.046 165.269 165.501 167.39 167.529 164.451 -13.5409 165.803 -51.4838 -12.9027 148.237 -120.106 -39.9522 133.002 -135.617 -71.4977 123.033 -128.121 -99.329 113.41 -101.28 -49.0569 107.584 -31.995 10.2926 8.57098 10.5274 
166.828 171.091 169.642 169.713 167.828 165.149 165.691 167.257 167.438 164.243 -13.9333 165.417 -51.1303 -12.9521 147.6 -120.096 -40.3135 132.872 -135.3 -71.9158 122.858 -127.821 -99.7339 113.22 -100.912 -49.3287 107.151 -31.801 10.3194 8.63121 10.3328 
166.805 171.191 169.511 169.644 167.716 165.112 165.796 167.198 167.435 164.146 -14.2273 165.054 -50.8924 -13.0332 147.28 -120.043 -40.6664 132.896 -135.065 -72.3386 122.87 -127.572 -100.122 113.297 -100.576 -49.5549 106.809 -31.6695 10.3202 8.69444 10.2695 
166.776 171.306 169.493 169.684 167.683 165.054 165.968 167.264 167.56 164.156 -14.4341 164.84 -50.5742 -13.0485 147.172 -119.962 -40.9427 133.115 -134.872 -72.6691 123.052 -127.383 -100.411 113.526 -100.304 -49.7495 106.584 -31.5468 10.299 8.74395 10.2297 
166.791 171.411 169.519 169.749 167.682 165.043 166.121 167.373 167.712 164.203 -14.4695 164.779 -50.262 -12.9902 147.267 -119.849 -41.0358 133.361 -134.746 -72.7808 123.207 -127.294 -100.472 113.699 -100.172 -49.8436 106.446 -31.4653 10.2479 8.7718 10.2331 
166.831 171.495 169.583 169.824 167.715 165.058 166.216 167.502 167.861 164.258 -14.4462 164.669 -49.9454 -12.9276 147.358 -119.633 -41.0888 133.497 -134.59 -72.8517 123.322 -127.15 -100.485 113.875 -99.9986 -49.9255 106.315 -31.3324 10.1796 8.78337 10.2949 
166.889 171.574 169.694 169.924 167.763 165.099 166.312 167.692 168.038 164.356 -14.2649 164.614 -49.7074 -12.8289 147.484 -119.429 -40.9801 133.501 -134.525 -72.7565 123.32 -127.098 -100.361 113.951 -99.9317 -49.9605 106.23 -31.2319 10.1137 8.78195 10.3826 
166.95 171.611 169.799 170.004 167.781 165.154 166.357 167.842 168.155 164.403 -14.0774 164.615 -49.4596 -12.7304 147.743 -119.185 -40.8505 133.672 -134.429 -72.6259 123.452 -127.052 -100.179 114.069 -99.9225 -49.9718 106.179 -31.1642 10.0305 8.77374 10.4428 
166.999 171.626 169.898 170.096 167.808 165.201 166.381 167.974 168.271 164.479 -13.8204 164.589 -49.2726 -12.6748 147.966 -118.983 -40.7485 133.821 -134.359 -72.5313 123.597 -127.019 -100.044 114.199 -99.9173 -49.9918 106.17 -31.1075 9.96319 8.7663 10.4891 
167.06 171.645 169.982 170.181 167.856 165.261 166.411 168.083 168.377 164.565 -13.5284 164.498 -49.1287 -12.5808 148.123 -118.784 -40.603 134.016 -134.263 -72.3594 123.832 -126.981 -99.8187 114.452 -99.9473 -50.0095 106.177 -31.0517 9.85903 8.72598 10.4803 
167.102 171.646 170.055 170.23 167.832 165.311 166.434 168.17 168.439 164.57 -13.1971 164.456 -48.9619 -12.474 148.306 -118.599 -40.4766 134.242 -134.16 -72.2435 124.102 -126.908 -99.6503 114.723 -99.9124 -49.9913 106.207 -31.0052 9.78338 8.7131 10.4788 
167.168 171.66 170.108 170.264 167.8 165.398 166.423 168.234 168.489 164.574 -12.7671 164.473 -48.6896 -12.3569 148.629 -118.297 -40.3007 134.562 -133.975 -72.0788 124.515 -126.758 -99.4452 115.174 -99.8162 -49.9871 106.291 -30.9018 9.69816 8.68993 10.5048 
167.232 171.675 170.132 170.251 167.709 165.486 166.448 168.28 168.499 164.512 -12.2057 164.495 -48.3427 -12.1244 148.948 -117.988 -40.0857 135.033 -133.723 -71.8759 125.107 -126.551 -99.2185 115.808 -99.6606 -49.9513 106.418 -30.7751 9.62327 8.66167 10.483 
167.478 171.765 170.062 170.101 167.401 165.78 166.467 168.211 168.36 164.207 -10.8274 164.453 -47.6741 -11.7388 149.544 -117.442 -39.834 136.001 -133.11 -71.6403 126.374 -125.961 -98.9726 117.21 -99.0785 -49.8359 106.668 -30.4769 9.56151 8.60922 10.4265 
167.657 171.776 169.946 169.938 167.139 166.005 166.444 168.081 168.194 163.944 -10.0232 164.311 -47.433 -11.6822 149.851 -117.247 -39.9179 136.611 -132.79 -71.7541 127.2 -125.611 -99.0787 118.067 -98.6861 -49.8501 106.764 -30.3983 9.57183 8.59424 10.3703 
167.771 171.76 169.814 169.781 166.863 166.192 166.403 167.964 168.08 163.759 -9.26772 164.291 -47.1373 -11.655 150.194 -117.048 -40.0047 137.13 -132.512 -71.8576 127.812 -125.335 -99.1881 118.667 -98.3662 -49.8671 106.879 -30.3152 9.60019 8.59592 10.3607 
167.838 171.696 169.705 169.658 166.621 166.32 166.387 167.874 167.995 163.613 -8.71756 164.308 -46.8927 -11.6966 150.483 -116.945 -40.2068 137.631 -132.3 -72.0844 128.356 -125.117 -99.444 119.146 -98.0844 -49.9598 107.044 -30.2542 9.66854 8.61333 10.3386 
167.855 171.66 169.639 169.584 166.487 166.373 166.361 167.803 167.94 163.545 -8.4094 164.346 -46.7507 -11.7564 150.687 -116.881 -40.3675 137.959 -132.17 -72.2626 128.712 -124.982 -99.6451 119.429 -97.9073 -50.0527 107.19 -30.2171 9.72249 8.626 10.3296 
167.874 171.648 169.594 169.542 166.414 166.408 166.362 167.749 167.897 163.498 -8.23473 164.272 -46.723 -11.8392 150.777 -116.892 -40.529 138.19 -132.095 -72.4353 128.994 -124.875 -99.818 119.669 -97.7524 -50.115 107.254 -30.206 9.75704 8.62928 10.2935 
167.856 171.643 169.571 169.511 166.371 166.399 166.354 167.703 167.854 163.475 -8.21928 164.206 -46.7332 -12.0429 150.874 -116.902 -40.746 138.379 -132.032 -72.6393 129.184 -124.794 -100.002 119.771 -97.6486 -50.2161 107.307 -30.1948 9.77462 8.62475 10.2414 
167.842 171.629 169.562 169.504 166.375 166.375 166.338 167.658 167.816 163.478 -8.29787 164.181 -46.7717 -12.2847 150.983 -116.92 -40.967 138.586 -131.975 -72.8216 129.348 -124.74 -100.152 119.813 -97.5982 -50.3191 107.374 -30.1878 9.77643 8.60917 10.1619 
167.796 171.642 169.631 169.58 166.479 166.306 166.363 167.7 167.868 163.599 -8.50861 164.131 -46.7927 -12.6054 151.05 -116.944 -41.2665 138.703 -131.962 -73.0936 129.429 -124.713 -100.398 119.786 -97.56 -50.4779 107.411 -30.1643 9.78774 8.59759 10.1086 
167.776 171.664 169.717 169.682 166.637 166.263 166.366 167.744 167.921 163.737 -8.86924 164.062 -46.8592 -12.9441 151.099 -116.903 -41.5176 138.737 -131.933 -73.3147 129.409 -124.697 -100.584 119.684 -97.5734 -50.6653 107.403 -30.126 9.76603 8.58453 10.062 
167.768 171.68 169.822 169.817 166.832 166.21 166.362 167.806 167.999 163.893 -9.31361 163.964 -46.9408 -13.2149 151.092 -116.807 -41.6283 138.685 -131.912 -73.4168 129.345 -124.712 -100.682 119.6 -97.6434 -50.8697 107.343 -30.0981 9.73342 8.57287 10.0141 
167.738 171.727 169.913 169.931 166.99 166.141 166.393 167.875 168.07 164.004 -9.678 163.821 -46.995 -13.331 151.006 -116.667 -41.5888 138.547 -131.873 -73.3897 129.243 -124.743 -100.656 119.548 -97.7551 -51.0683 107.261 -30.0717 9.66968 8.56303 9.98346 
167.765 171.771 169.994 170.025 167.072 166.132 166.441 167.993 168.148 164.013 -9.98511 163.797 -46.9836 -13.3108 151.005 -116.48 -41.4145 138.396 -131.869 -73.304 129.224 -124.783 -100.612 119.7 -97.816 -51.2591 107.195 -30.0703 9.62828 8.58211 10.0248 
167.825 171.818 170.066 170.092 167.122 166.147 166.47 168.088 168.203 163.987 -10.1855 163.699 -46.9413 -13.2577 151.003 -116.252 -41.2391 138.22 -131.827 -73.2164 129.238 -124.755 -100.559 119.931 -97.797 -51.4312 107.103 -30.0465 9.58561 8.59583 10.1104 
167.903 171.881 170.096 170.113 167.112 166.213 166.483 168.163 168.228 163.901 -10.2124 163.582 -46.8759 -13.1658 151.052 -115.971 -40.9913 137.971 -131.779 -73.0807 129.23 -124.709 -100.467 120.222 -97.7458 -51.5955 106.994 -30.0269 9.54626 8.62202 10.2697 
168.072 171.943 170.122 170.134 167.087 166.363 166.512 168.235 168.243 163.765 -10.2377 163.514 -46.8156 -13.0483 151.128 -115.718 -40.7625 137.768 -131.738 -72.9791 129.252 -124.65 -100.392 120.526 -97.674 -51.7302 106.866 -30.0349 9.51263 8.66555 10.4417 
168.249 171.984 170.128 170.136 167.021 166.509 166.54 168.281 168.251 163.605 -10.3633 163.434 -46.7455 -12.9258 151.135 -115.47 -40.5584 137.577 -131.656 -72.8827 129.247 -124.557 -100.304 120.763 -97.5669 -51.8321 106.667 -30.0391 9.48026 8.70818 10.5846 
168.355 171.989 170.141 170.14 166.915 166.629 166.611 168.331 168.273 163.449 -10.5106 163.359 -46.6173 -12.8264 151.078 -115.318 -40.5179 137.458 -131.576 -72.9627 129.249 -124.435 -100.403 120.902 -97.3828 -51.9343 106.447 -30.0365 9.50747 8.77551 10.6888 
168.407 172.005 170.128 170.104 166.798 166.69 166.704 168.323 168.236 163.271 -10.7323 163.229 -46.5088 -12.7721 150.879 -115.258 -40.6081 137.368 -131.463 -73.1425 129.24 -124.272 -100.588 120.927 -97.1649 -52.0381 106.191 -30.0275 9.54656 8.83402 10.7072 
168.352 171.961 170.086 170.041 166.632 166.674 166.761 168.285 168.186 163.1 -10.995 163.181 -46.3224 -12.7832 150.642 -115.228 -40.7878 137.235 -131.344 -73.4133 129.085 -124.11 -100.917 120.731 -96.9041 -52.1439 105.936 -29.9834 9.66046 8.91273 10.7191 
168.243 171.863 169.973 169.873 166.347 166.632 166.772 168.131 168.001 162.781 -11.1857 163.071 -46.1802 -12.7704 150.228 -115.309 -41.0612 137.108 -131.2 -73.7702 128.943 -123.896 -101.345 120.487 -96.5665 -52.2385 105.673 -29.933 9.81301 8.99074 10.6587 
168.171 171.778 169.831 169.679 166.043 166.634 166.749 167.952 167.798 162.438 -11.2485 162.922 -46.0497 -12.7518 149.799 -115.417 -41.3844 136.991 -131.058 -74.1583 128.827 -123.67 -101.807 120.307 -96.1831 -52.3253 105.424 -29.8765 9.97828 9.05506 10.6197 
168.057 171.732 169.709 169.491 165.734 166.586 166.738 167.803 167.6 162.093 -11.329 162.795 -45.9249 -12.8558 149.481 -115.515 -41.8081 136.926 -130.906 -74.6564 128.729 -123.412 -102.341 120.129 -95.7409 -52.4112 105.208 -29.8025 10.1425 9.134 10.5995 
168.013 171.703 169.607 169.37 165.501 166.593 166.744 167.699 167.497 161.883 -11.2954 162.651 -45.8091 -12.9548 149.196 -115.619 -42.1371 136.837 -130.798 -75.0203 128.568 -123.245 -102.745 119.908 -95.4209 -52.4857 105.001 -29.7378 10.2736 9.18388 10.5706 
167.973 171.703 169.527 169.284 165.352 166.578 166.774 167.633 167.439 161.789 -11.2598 162.552 -45.6815 -13.0569 149.038 -115.695 -42.4074 136.853 -130.699 -75.3192 128.486 -123.115 -103.072 119.731 -95.1962 -52.5449 104.845 -29.6846 10.3696 9.22827 10.5325 
167.912 171.701 169.423 169.169 165.202 166.541 166.768 167.506 167.319 161.648 -11.2949 162.467 -45.5876 -13.2096 148.904 -115.745 -42.6852 136.891 -130.557 -75.5897 128.356 -122.976 -103.328 119.424 -95.0174 -52.5773 104.679 -29.6305 10.426 9.25989 10.4628 
167.855 171.697 169.336 169.112 165.135 166.503 166.744 167.409 167.266 161.644 -11.3007 162.39 -45.4764 -13.3579 148.852 -115.707 -42.8122 136.905 -130.41 -75.7011 128.174 -122.883 -103.419 119.053 -94.9549 -52.5759 104.518 -29.5605 10.4375 9.28474 10.3823 
