159.222 162.702 166.641 166.818 166.652 162.667 158.968 162.598 165.149 165.648 225.218 242.922 42.8948 257.166 176.103 33.5402 254.898 145.471 37.4166 235.195 123.439 55.5151 206.857 117.29 78.739 174.388 196.483 73.2348 11.3368 10.9867 8.87155 
159.145 162.395 166.422 166.642 166.484 162.528 158.584 162.358 164.932 165.418 225.055 242.868 42.9941 257.017 176.201 33.7408 254.873 145.671 37.524 235.235 123.606 55.631 206.943 117.394 78.7779 174.221 196.391 73.1651 11.3092 10.9953 8.84578 
159.18 162.078 166.242 166.477 166.295 162.41 158.25 162.125 164.697 165.148 224.787 242.8 43.0383 256.878 176.289 33.9254 254.928 145.899 37.7422 235.406 123.824 55.8569 207.16 117.523 78.9104 174.006 196.208 73.056 11.2714 10.9641 8.75597 
159.07 161.533 165.893 166.155 166.002 162.131 157.712 161.71 164.293 164.757 224.707 242.634 43.1891 256.613 176.247 34.0726 254.804 146.037 37.9243 235.408 124.035 56.0773 207.28 117.734 79.0794 173.81 196.105 72.9734 11.2062 10.9144 8.66695 
158.853 160.944 165.502 165.809 165.686 161.786 157.157 161.274 163.872 164.342 224.531 242.503 43.215 256.245 176.141 34.1398 254.565 146.137 38.0232 235.276 124.238 56.1836 207.256 117.961 79.1233 173.578 196.046 72.8743 11.1375 10.8519 8.54767 
158.707 160.523 165.179 165.572 165.487 161.519 156.683 160.902 163.538 164.036 224.494 242.378 43.3492 256.071 176.188 34.3516 254.465 146.294 38.21 235.249 124.447 56.3485 207.328 118.183 79.2372 173.46 196.03 72.841 11.0805 10.8235 8.52974 
158.495 160.295 164.99 165.459 165.362 161.249 156.465 160.701 163.348 163.829 224.354 242.216 43.3688 255.865 176.091 34.4825 254.331 146.36 38.3283 235.186 124.579 56.4115 207.361 118.374 79.2652 173.331 196.024 72.8142 10.9975 10.7772 8.45172 
158.062 159.903 164.757 165.297 165.19 160.785 156.279 160.518 163.167 163.636 224.168 242.098 43.3421 255.57 175.9 34.561 254.086 146.347 38.4024 234.982 124.694 56.4205 207.264 118.601 79.2211 173.204 196.126 72.7886 10.8996 10.7115 8.34822 
157.911 159.705 164.615 165.214 165.083 160.648 156.145 160.377 163.054 163.506 224.038 242.146 43.1597 255.469 175.858 34.6762 253.997 146.404 38.4859 234.893 124.788 56.4424 207.256 118.769 79.2288 173.189 196.242 72.8073 10.8355 10.7044 8.30992 
157.73 159.499 164.583 165.163 165.001 160.429 156.003 160.281 162.917 163.368 223.872 242.025 43.0418 255.266 175.742 34.8796 253.86 146.47 38.5597 234.818 124.983 56.4866 207.241 119.021 79.2518 173.084 196.344 72.8386 10.7848 10.6258 8.24597 
157.547 159.314 164.674 165.27 165.075 160.224 155.979 160.364 162.967 163.403 223.714 241.88 43.0461 255.096 175.694 34.9768 253.722 146.472 38.4946 234.692 125.052 56.3817 207.134 119.125 79.1349 172.971 196.401 72.8367 10.7572 10.5841 8.26376 
157.534 159.495 164.909 165.447 165.193 160.157 156.173 160.529 163.068 163.473 223.464 241.618 42.8897 254.986 175.568 35.1092 253.675 146.494 38.488 234.665 125.128 56.3561 207.111 119.231 79.0554 172.822 196.396 72.8256 10.7054 10.5365 8.20414 
157.46 159.72 165.115 165.571 165.251 160.012 156.37 160.706 163.175 163.537 223.166 241.389 42.7884 254.83 175.438 35.0959 253.593 146.443 38.4557 234.619 125.143 56.3178 207.068 119.252 78.9825 172.639 196.318 72.7707 10.6701 10.4766 8.14213 
157.354 159.739 165.132 165.542 165.209 159.848 156.287 160.69 163.123 163.492 222.873 241.096 42.8427 254.614 175.491 35.2043 253.43 146.517 38.4766 234.519 125.248 56.3381 207.005 119.348 78.9866 172.37 196.249 72.7255 10.6325 10.4401 8.191 
157.435 159.838 165.279 165.663 165.327 159.872 156.249 160.772 163.218 163.573 222.609 240.72 42.9257 254.393 175.569 35.2739 253.252 146.513 38.417 234.396 125.228 56.3118 206.953 119.325 78.9823 172.064 196.08 72.6377 10.5841 10.4414 8.33554 
157.459 159.805 165.312 165.66 165.294 159.942 156.21 160.765 163.197 163.513 222.247 240.587 42.7621 254.16 175.569 35.3098 253.061 146.533 38.4247 234.262 125.281 56.3542 206.888 119.397 79.0537 171.803 195.996 72.6087 10.5445 10.423 8.37544 
157.513 159.952 165.28 165.642 165.269 159.995 156.355 160.77 163.185 163.473 222.089 240.688 42.6039 254.045 175.484 35.0902 252.963 146.551 38.4233 234.214 125.386 56.3635 206.868 119.515 79.0993 171.707 196.037 72.5998 10.5342 10.3621 8.23114 
157.604 160.064 165.287 165.731 165.337 160.151 156.481 160.842 163.303 163.593 222.022 241.001 42.643 254.096 175.717 35.0746 252.986 146.717 38.4594 234.211 125.468 56.3581 206.826 119.557 79.1303 171.691 196.166 72.6732 10.5751 10.4075 8.25558 
157.787 160.139 165.312 165.812 165.392 160.409 156.645 160.955 163.43 163.728 221.841 241.383 42.6928 254.099 175.967 35.034 252.952 146.859 38.5028 234.103 125.486 56.3425 206.608 119.484 79.0797 171.57 196.254 72.7193 10.6334 10.4596 8.24352 
157.997 160.656 165.542 166.023 165.568 160.679 157.072 161.216 163.688 163.956 221.714 241.625 42.6828 254.098 176.1 34.9018 252.904 146.935 38.4915 234.03 125.527 56.3322 206.514 119.522 79.1144 171.482 196.393 72.7824 10.6366 10.4691 8.21892 
158.295 161.301 165.947 166.379 165.853 161.042 157.666 161.655 164.091 164.282 221.516 241.871 42.7046 254.096 176.213 34.7539 252.89 146.974 38.4594 233.989 125.525 56.3197 206.403 119.474 79.1234 171.33 196.447 72.8233 10.6479 10.4562 8.16351 
158.62 161.926 166.187 166.634 166.098 161.378 158.113 161.949 164.402 164.568 221.455 242.312 42.8622 254.202 176.581 34.6377 252.99 147.24 38.4912 234.061 125.667 56.3506 206.39 119.505 79.1722 171.252 196.59 72.8719 10.7049 10.4969 8.14694 
158.903 162.409 166.387 166.788 166.253 161.696 158.497 162.208 164.62 164.78 221.183 242.743 42.9743 254.253 176.932 34.6426 253.029 147.469 38.5443 234.039 125.736 56.3572 206.201 119.401 79.1246 171.056 196.62 72.9307 10.7948 10.5419 8.15107 
159.002 162.832 166.609 166.978 166.426 161.853 158.992 162.508 164.899 165.034 220.926 243.118 43.0261 254.174 177.092 34.4131 252.936 147.561 38.4775 233.921 125.751 56.2929 205.999 119.348 79.0762 170.887 196.712 72.985 10.8399 10.5566 8.09351 
159.019 163.098 166.762 167.11 166.582 161.922 159.307 162.749 165.113 165.273 220.631 243.356 42.9664 254.039 177.199 34.2825 252.721 147.532 38.3444 233.642 125.67 56.1699 205.641 119.243 78.983 170.689 196.791 73.02 10.9009 10.5907 8.16489 
158.884 163.426 166.868 167.153 166.664 161.865 159.661 162.946 165.268 165.448 220.378 243.523 42.7506 253.908 177.194 34.0708 252.53 147.518 38.133 233.453 125.685 56.0059 205.461 119.282 78.9059 170.601 196.932 73.0349 10.9297 10.5846 8.17305 
158.872 163.848 167.09 167.303 166.818 161.82 160.078 163.209 165.494 165.693 220.214 243.605 42.7108 253.837 177.276 34.0041 252.436 147.599 38.0163 233.374 125.779 55.9415 205.403 119.383 78.8892 170.499 197.067 73.0674 10.9283 10.5784 8.19252 
159.073 164.169 167.245 167.411 166.938 162.043 160.362 163.407 165.661 165.863 219.964 243.894 42.6947 253.849 177.587 34.009 252.432 147.777 38.0791 233.379 125.9 55.9944 205.376 119.415 78.9681 170.383 197.143 73.1398 10.9668 10.5786 8.25248 
159.233 164.485 167.344 167.457 166.982 162.171 160.626 163.524 165.748 165.944 219.772 244.035 42.6953 253.736 177.662 33.8646 252.334 147.882 38.1 233.344 126.052 56.0634 205.352 119.524 79.0738 170.228 197.21 73.1843 10.9785 10.5252 8.1826 
159.411 164.852 167.46 167.519 167.072 162.303 160.855 163.667 165.865 166.075 219.638 244.231 42.8419 253.617 177.834 33.863 252.207 148.055 38.1601 233.264 126.285 56.1429 205.285 119.721 79.2008 170.053 197.379 73.2806 10.9871 10.4637 8.15972 
159.585 165.182 167.559 167.588 167.195 162.447 161.121 163.826 166.032 166.287 219.699 244.598 43.1384 253.535 178.049 33.8052 252.048 148.208 38.1666 233.105 126.487 56.1529 205.131 119.921 79.2997 169.976 197.695 73.4481 11.0095 10.4241 8.1731 
159.635 165.374 167.529 167.556 167.242 162.544 161.286 163.862 166.08 166.411 219.823 245.175 43.3971 253.444 178.325 33.7316 251.87 148.43 38.2389 232.883 126.742 56.2267 204.872 120.183 79.4408 169.984 198.156 73.6906 11.0637 10.4139 8.14514 
159.564 165.37 167.495 167.496 167.293 162.582 161.339 163.904 166.123 166.59 219.999 245.842 43.6794 253.514 178.859 33.7934 251.842 148.821 38.2652 232.808 127.105 56.2206 204.76 120.514 79.5267 170.093 198.709 73.9461 11.1365 10.4346 8.24154 
159.265 165.228 167.419 167.43 167.307 162.518 161.359 163.932 166.166 166.709 220.136 246.618 43.9958 253.611 179.442 33.8396 251.846 149.226 38.2959 232.733 127.451 56.173 204.623 120.816 79.5603 170.259 199.27 74.2248 11.2176 10.4708 8.33736 
159.194 165.157 167.429 167.426 167.4 162.64 161.378 164.004 166.261 166.896 220.284 247.522 44.4482 253.73 180.198 33.9516 251.882 149.783 38.3559 232.67 127.872 56.1804 204.452 121.123 79.6265 170.379 199.855 74.5528 11.3332 10.5455 8.44503 
159.513 165.46 167.579 167.537 167.614 163.022 161.658 164.262 166.528 167.229 220.364 248.542 44.8444 253.926 180.982 33.9985 251.992 150.262 38.4105 232.691 128.168 56.2285 204.338 121.274 79.729 170.462 200.349 74.8264 11.4532 10.6285 8.60375 
159.926 165.814 167.727 167.619 167.759 163.364 161.91 164.457 166.693 167.438 220.278 249.097 45.2215 254.105 181.737 34.2289 252.179 150.782 38.6195 232.889 128.531 56.4718 204.433 121.451 79.9448 170.4 200.599 75.0129 11.5275 10.667 8.74628 
160.181 166.157 167.926 167.716 167.896 163.549 162.182 164.668 166.842 167.612 220.16 249.314 45.378 254.098 182.125 34.2558 252.208 151.039 38.5926 232.993 128.77 56.5714 204.533 121.629 80.1078 170.307 200.76 75.1092 11.5467 10.646 8.83357 
160.344 166.46 168.079 167.804 168.012 163.704 162.402 164.857 166.988 167.765 220.017 249.527 45.3848 254.056 182.459 34.2699 252.195 151.24 38.5281 233.038 128.966 56.6253 204.616 121.815 80.2593 170.241 200.946 75.196 11.5444 10.6365 8.93531 
160.451 166.635 168.121 167.809 168.047 163.768 162.403 164.902 167.003 167.763 219.753 249.475 45.4143 253.869 182.627 34.4586 252.051 151.355 38.5296 232.935 129.058 56.7237 204.577 121.915 80.416 170.043 200.981 75.2887 11.5176 10.6503 9.01388 
160.534 166.618 168.092 167.798 168.075 163.88 162.22 164.849 166.945 167.705 219.45 249.369 45.3691 253.613 182.712 34.7096 251.799 151.336 38.5405 232.736 129.034 56.8018 204.438 121.894 80.5068 169.782 200.912 75.3342 11.4873 10.6534 9.16122 
160.48 166.325 167.948 167.664 167.946 163.817 161.926 164.703 166.766 167.472 218.919 249.165 45.4072 253.241 182.743 35.0177 251.508 151.328 38.7574 232.521 129.032 57.0116 204.252 121.82 80.6189 169.37 200.654 75.3518 11.4649 10.6214 9.22413 
160.526 166.036 167.801 167.54 167.836 163.813 161.583 164.512 166.58 167.252 218.474 248.987 45.3423 252.842 182.738 35.2837 251.197 151.32 39.001 232.289 129.056 57.2797 204.101 121.816 80.8298 168.988 200.464 75.3491 11.4295 10.5983 9.26538 
160.544 165.561 167.575 167.352 167.667 163.803 161.115 164.231 166.325 167.005 218.105 248.787 45.5946 252.373 182.747 35.6366 250.777 151.29 39.3201 231.892 129.034 57.5384 203.717 121.709 80.9938 168.517 200.218 75.3733 11.4433 10.5841 9.32523 
160.549 164.851 167.306 167.107 167.402 163.849 160.554 163.912 166.013 166.672 217.637 248.796 45.565 251.986 182.793 35.949 250.51 151.338 39.6907 231.651 129.088 57.8476 203.462 121.634 81.2013 168.109 199.968 75.3674 11.4877 10.5672 9.32463 
160.498 164.292 167.043 166.888 167.122 163.766 160.187 163.626 165.735 166.306 217.176 248.587 45.5241 251.434 182.384 36.008 250.068 151.08 40.031 231.291 128.984 58.1376 203.13 121.506 81.3523 167.659 199.612 75.3084 11.4605 10.4563 9.1571 
160.557 163.838 166.704 166.66 166.792 163.757 159.771 163.247 165.394 165.9 216.88 248.613 45.7608 251.005 182.192 36.2828 249.733 151.12 40.5615 231.012 129.138 58.5493 202.84 121.594 81.5998 167.244 199.475 75.3667 11.4518 10.3577 8.93939 
160.61 163.58 166.58 166.579 166.57 163.69 159.609 163.051 165.216 165.633 216.589 248.45 45.7725 250.413 181.61 36.2441 249.198 150.782 40.836 230.556 129.028 58.8043 202.46 121.585 81.7995 166.813 199.298 75.3682 11.3759 10.2182 8.69633 
160.635 163.008 166.113 166.286 166.112 163.574 159.29 162.56 164.816 165.091 216.11 248.492 45.9341 249.418 180.821 36.2309 248.217 150.418 41.3579 229.646 128.947 59.2437 201.639 121.673 82.1317 166.105 199.225 75.4758 11.268 10.0495 8.27842 
160.679 162.511 165.789 166.092 165.861 163.561 158.886 162.184 164.548 164.867 215.895 248.928 46.2416 248.916 180.846 36.2853 247.661 150.485 41.6087 229.056 128.986 59.4323 200.999 121.708 82.2809 165.699 199.394 75.6041 11.3123 10.0789 8.21644 
160.844 162.155 165.506 165.876 165.641 163.644 158.394 161.788 164.247 164.652 215.615 249.073 46.3317 248.365 180.833 36.1926 247.106 150.518 41.7159 228.554 129.03 59.5461 200.52 121.736 82.4377 165.255 199.424 75.593 11.3551 10.0821 8.1848 
160.875 161.918 165.171 165.597 165.295 163.603 158.013 161.407 163.902 164.292 215.292 249.158 46.276 247.723 180.636 36.1335 246.419 150.448 41.8976 227.872 129.083 59.781 199.881 121.906 82.6802 164.79 199.528 75.6277 11.3396 10.0543 8.08387 
160.891 161.971 165.149 165.658 165.316 163.701 157.914 161.314 163.869 164.354 215.117 249.543 46.3524 247.308 180.832 36.1037 245.864 150.57 41.8363 227.218 129.182 59.6662 199.189 122.072 82.6129 164.474 199.95 75.7718 11.3744 10.1038 8.14286 
160.73 162.069 165.014 165.549 165.159 163.654 157.906 161.133 163.713 164.196 214.842 250.008 46.131 246.997 181.071 35.8948 245.497 150.945 41.7959 226.814 129.598 59.6052 198.817 122.516 82.61 164.311 200.459 75.8876 11.3897 10.1043 8.01804 
160.796 162.37 165.033 165.516 165.072 163.717 158.016 161.083 163.632 164.1 214.474 250.713 45.9899 246.995 181.887 35.8145 245.624 151.9 41.9007 226.996 130.487 59.7173 198.963 123.244 82.7849 164.171 201.013 75.9707 11.4598 10.1043 7.88749 
160.717 162.752 165.175 165.587 165.072 163.698 158.311 161.145 163.635 164.062 214.128 251.148 45.7339 246.858 182.417 35.4856 245.536 152.559 41.7612 226.982 131.193 59.6527 198.995 123.945 82.8697 164.042 201.55 76.0276 11.4669 10.0636 7.78141 
160.633 163.651 165.684 165.961 165.404 163.731 159.249 161.665 164.026 164.436 213.704 251.635 45.4996 246.882 182.761 35.1142 245.544 152.934 41.516 226.968 131.544 59.4181 198.879 124.247 82.7172 163.888 201.924 76.0635 11.5015 10.0321 7.69734 
160.703 164.286 166.122 166.27 165.749 163.893 159.839 162.127 164.402 164.854 213.397 252.084 45.6624 246.925 183.519 34.897 245.596 153.627 41.1499 226.994 132.096 59.0173 198.806 124.671 82.4109 163.676 202.37 76.0699 11.548 10.0583 7.72805 
160.817 164.736 166.423 166.439 165.967 164.27 160.342 162.421 164.624 165.222 213.354 253.175 45.7994 247.2 184.501 34.5915 245.85 154.446 40.822 227.156 132.698 58.6868 198.776 125.083 82.2034 163.717 202.975 76.1632 11.6993 10.1496 7.80894 
160.771 165.16 166.688 166.533 166.132 164.536 160.887 162.718 164.811 165.533 213.252 254.134 45.7946 247.338 185.082 34.2559 245.992 155 40.5264 227.247 133.178 58.3994 198.724 125.466 82.054 163.712 203.494 76.2006 11.8001 10.156 7.77321 
160.915 165.479 166.856 166.582 166.304 165.006 161.256 162.934 164.977 165.86 213.361 255.67 45.9498 247.75 186.229 33.9861 246.416 155.925 40.3357 227.651 133.926 58.2321 198.983 126.008 82.0956 163.951 204.235 76.3542 11.9753 10.2102 7.89891 
161.158 165.779 167.031 166.614 166.384 165.337 161.589 163.144 165.089 165.987 213.247 256.787 46.2927 248.119 187.315 33.8881 246.972 156.933 40.364 228.349 134.823 58.3204 199.572 126.629 82.2392 164.031 204.685 76.3992 12.0654 10.1597 7.90548 
161.489 165.858 167.114 166.621 166.497 165.747 161.681 163.226 165.131 166.092 213.131 257.806 46.7614 248.376 188.444 33.8478 247.392 157.89 40.3665 228.912 135.596 58.374 200.038 127.104 82.3084 164.034 205.076 76.4357 12.1511 10.1542 7.99557 
161.781 165.838 167.133 166.563 166.546 166.026 161.648 163.22 165.113 166.144 213.023 258.713 47.3912 248.435 189.593 33.8322 247.608 158.895 40.3811 229.254 136.421 58.433 200.317 127.642 82.3629 163.942 205.554 76.5391 12.2287 10.1698 8.0755 
162.34 165.732 167.127 166.438 166.571 166.53 161.429 163.136 164.981 166.142 212.918 259.836 48.1858 248.658 191.151 34.0787 248.019 160.226 40.5258 229.781 137.463 58.6233 200.709 128.259 82.5139 163.832 206.1 76.664 12.3606 10.2235 8.2099 
162.718 165.629 167.117 166.399 166.666 166.874 161.318 163.083 164.94 166.218 212.812 260.613 48.5752 248.563 191.998 34.1643 247.982 160.909 40.5802 229.843 138.031 58.714 200.774 128.637 82.6596 163.693 206.58 76.788 12.4326 10.2376 8.31706 
163.12 165.729 167.181 166.404 166.75 167.128 161.306 163.096 164.903 166.262 212.803 261.118 49.0768 248.687 192.788 34.3715 248.269 161.671 40.7761 230.327 138.747 58.9372 201.275 129.117 82.8845 163.634 206.897 76.8175 12.4614 10.1612 8.31485 
163.432 166.043 167.4 166.519 166.978 167.462 161.679 163.302 164.997 166.466 212.743 261.841 49.1175 248.638 193.066 34.2944 248.258 161.946 40.7173 230.467 139.136 58.9656 201.413 129.427 82.9627 163.58 207.299 76.8916 12.4662 10.0227 8.25634 
163.582 166.361 167.514 166.611 167.116 167.696 162.054 163.456 165.066 166.609 212.728 262.71 49.236 248.649 193.519 34.3069 248.226 162.394 40.7946 230.559 139.717 59.0923 201.523 129.972 83.1233 163.623 207.926 77.0972 12.4661 9.89453 8.23128 
163.839 166.557 167.652 166.714 167.262 167.876 162.297 163.624 165.122 166.723 212.689 263.398 49.598 248.669 194.092 34.452 248.288 162.953 40.8967 230.759 140.378 59.2318 201.724 130.516 83.2722 163.568 208.392 77.2118 12.4825 9.76534 8.21039 
163.945 166.673 167.708 166.764 167.378 167.88 162.4 163.702 165.102 166.777 212.734 263.381 49.8136 248.523 194.19 34.4658 248.144 163.083 40.8642 230.845 140.769 59.3375 201.932 130.958 83.497 163.454 208.619 77.2314 12.4299 9.56922 8.18529 
164.142 166.931 167.869 166.87 167.523 167.86 162.626 163.908 165.181 166.869 212.691 263.112 49.8142 248.317 193.992 34.335 247.974 162.959 40.6749 230.929 140.938 59.287 202.185 131.243 83.6139 163.299 208.654 77.1687 12.324 9.34861 8.1201 
164.375 167.118 168.019 166.99 167.661 167.819 162.729 164.088 165.274 166.94 212.669 262.722 50.1573 248.128 193.957 34.4802 247.845 163.013 40.633 230.942 141.123 59.2648 202.315 131.483 83.6186 163.054 208.638 77.1641 12.2048 9.22128 8.04577 
164.573 167.214 168.031 167.056 167.736 167.842 162.44 164.069 165.271 166.864 212.582 262.007 50.1076 247.891 194 34.6174 247.684 163.102 40.454 230.985 141.275 59.162 202.638 131.744 83.6503 162.814 208.463 77.0613 12.0384 9.15995 8.07723 
164.855 167.446 168.082 167.144 167.834 167.849 162.22 164.038 165.274 166.787 212.34 260.886 50.2087 247.543 193.837 35.0263 247.436 163.101 40.4157 230.878 141.259 59.0937 202.778 131.789 83.5546 162.335 208.03 76.9141 11.8307 9.126 8.03779 
165.173 167.692 168.147 167.252 167.946 167.858 162.08 164.022 165.324 166.775 212.307 259.739 50.6146 247.344 193.703 35.5748 247.326 163.16 40.4569 230.815 141.189 58.9943 202.92 131.744 83.3881 161.96 207.589 76.8284 11.6399 9.15455 7.9954 
165.409 167.712 167.989 167.202 167.992 167.948 161.523 163.704 165.19 166.61 212.423 258.407 50.7064 246.859 193.339 36.2382 246.742 162.983 40.4139 230.3 140.971 58.8382 202.836 131.805 83.3444 161.566 207.27 76.8101 11.374 9.21028 8.13132 
165.642 167.563 167.749 167.034 167.931 168.063 160.893 163.271 164.959 166.388 212.486 257.439 51.121 246.494 193.272 37.1081 246.259 162.952 40.5195 229.771 140.708 58.7497 202.625 131.693 83.2829 161.178 206.893 76.8616 11.1949 9.39063 8.44333 
165.855 167.337 167.539 166.864 167.856 168.096 160.326 162.828 164.696 166.124 212.622 256.362 51.4729 246.136 193.047 38.1729 245.719 162.811 40.621 229.209 140.437 58.6776 202.439 131.651 83.2649 160.827 206.544 76.9551 10.974 9.53163 8.87274 
166.288 167.203 167.562 166.838 167.859 168.428 159.931 162.645 164.608 166.034 212.592 255.914 52.2046 246.063 193.456 39.3815 245.565 162.997 40.9754 228.989 140.353 58.7973 202.392 131.52 83.4325 160.505 206.216 77.1953 10.914 9.69182 9.43062 
166.668 167.236 167.555 166.792 167.72 168.599 159.661 162.515 164.403 165.663 212.454 255.611 52.4068 245.591 192.776 40.17 245.062 162.627 41.4481 228.74 140.507 59.2154 202.481 131.994 84.0736 160.237 206.139 77.5948 10.6967 9.3474 9.4564 
166.916 166.983 167.408 166.571 167.475 168.866 159.35 162.298 164.144 165.315 212.061 255.73 52.6831 245.169 192.423 40.8945 244.6 162.37 42.1031 228.308 140.457 59.6564 202.152 131.989 84.5244 159.894 205.959 78.0466 10.6393 9.19275 9.44619 
166.714 166.967 167.379 166.511 167.33 168.826 159.42 162.2 164.006 165.059 211.887 255.712 53.0832 244.586 191.591 41.3678 243.997 161.955 42.8677 227.678 140.395 60.2822 201.578 132.121 85.0615 159.644 206.115 78.7492 10.5041 8.9745 8.98711 
166.425 167.097 167.358 166.45 167.16 168.938 160.172 162.177 163.901 164.803 211.66 256.333 53.2049 244.021 190.517 41.2558 243.398 161.387 43.7536 227.043 140.282 61.0671 200.866 132.2 85.7183 159.46 206.37 79.5347 10.4215 8.67711 8.11696 
166.559 167.623 167.585 166.655 167.256 169.366 161.636 162.682 164.281 165.098 211.433 257.29 53.4726 244.016 189.835 40.8226 243.277 160.868 44.4612 226.713 139.949 61.6708 200.279 131.908 86.2282 159.512 206.595 80.3014 10.4872 8.55202 7.43094 
166.407 167.387 167.492 166.637 167.231 169.591 162.083 162.861 164.461 165.368 211.561 258.281 54.2222 244.154 189.885 40.775 243.208 160.692 44.9734 226.338 139.736 62.0587 199.566 131.534 86.6244 159.656 206.888 81.0371 10.7647 8.59778 7.3108 
166.136 167.378 167.655 166.771 167.338 169.423 162.554 163.229 164.762 165.691 211.507 258.685 55.223 244.286 190.043 40.8189 243.348 160.717 45.4228 226.145 139.599 62.4198 198.923 131.05 86.8229 159.665 206.958 81.6193 11.0672 8.68788 7.14201 
165.363 166.979 167.512 166.652 167.219 168.908 162.642 163.144 164.613 165.606 211.347 258.706 55.643 243.891 189.253 40.6808 242.887 159.965 45.8473 225.472 139.015 62.9087 197.861 130.351 87.0718 159.477 206.717 82.0689 11.283 8.62475 6.91103 
165.057 166.793 167.528 166.684 167.269 168.653 162.659 163.115 164.539 165.586 211.327 258.499 55.8038 243.308 188.24 40.4506 242.145 159.062 46.1355 224.641 138.485 63.4046 196.795 129.897 87.4814 159.273 206.659 82.4984 11.4338 8.47301 6.72227 
164.785 166.008 167.437 166.633 167.308 168.749 162.117 163.061 164.502 165.722 211.476 258.868 56.3551 243.279 188.113 40.8831 241.88 158.47 46.8258 224.151 137.93 64.2473 195.876 129.167 88.1633 159.302 206.579 83.1245 11.7597 8.52269 7.01827 
