165.041 164.298 167.433 167.392 167.252 162.981 158.803 161.415 162.618 162.819 246.458 263.553 53.4793 277.108 212.255 18.8568 275.917 188.898 14.448 254.59 168.806 13.0214 220.735 157.983 15.608 187.356 235.92 22.2107 9.33625 6.23647 1.07973 
165.094 164.205 167.272 167.265 167.105 162.979 158.819 161.384 162.514 162.633 246.037 263.036 53.0453 276.689 211.612 18.2826 275.368 188.125 13.813 253.976 168.153 12.4341 220.099 157.54 14.9833 186.977 235.427 21.7048 9.27153 6.18464 1.15353 
165.116 164.438 167.434 167.429 167.234 162.835 159.264 161.695 162.768 162.741 245.476 262.749 52.6935 276.497 211.267 17.7948 275.198 187.834 13.4277 253.909 167.95 12.0622 220.123 157.432 14.4453 186.638 234.993 21.3166 9.10514 6.05051 1.01496 
165.155 164.649 167.561 167.529 167.304 162.756 159.587 161.898 162.894 162.758 245.201 262.691 52.1918 276.437 210.99 17.1424 275.089 187.585 12.92 253.788 167.778 11.6001 220.033 157.402 13.9868 186.422 234.779 20.8324 8.97392 5.99133 0.930271 
165.116 164.61 167.396 167.322 167.063 162.729 159.597 161.771 162.703 162.533 244.984 262.534 51.8655 276.187 210.439 16.8042 274.644 186.997 12.5572 253.249 167.284 11.1417 219.456 157.081 13.4355 186.155 234.477 20.4596 8.9568 6.00259 0.988582 
165.321 164.625 167.217 167.121 166.867 163.026 159.509 161.525 162.452 162.342 245.06 262.394 51.528 275.916 209.666 16.5997 274.126 186.183 12.3437 252.572 166.524 10.8261 218.675 156.432 13.0998 185.95 234.211 20.0323 9.04719 6.07983 1.06446 
165.632 164.47 166.959 166.843 166.653 163.531 159.215 161.16 162.095 162.124 245.192 262.613 50.902 275.689 209.322 16.2065 273.757 185.705 11.9711 252.064 165.901 10.5881 218.065 155.716 13.0383 185.748 233.901 19.4905 9.22739 6.23508 1.22666 
165.783 164.196 166.619 166.532 166.391 163.859 158.801 160.732 161.721 161.87 245.384 262.845 50.3325 275.635 209.159 15.9325 273.532 185.336 11.6305 251.654 165.304 10.4181 217.558 155.072 13.0329 185.718 233.648 18.9966 9.40391 6.45912 1.4938 
165.978 163.861 166.223 166.143 165.997 164.263 158.295 160.156 161.147 161.359 245.708 262.891 49.6441 275.703 208.938 15.342 273.426 184.941 11.1453 251.4 164.687 10.2577 217.234 154.377 13.0805 185.729 233.143 18.4064 9.55844 6.64365 1.69864 
165.762 163.667 165.961 165.895 165.67 164.215 158.064 159.907 160.884 161.063 245.543 262.671 49.1426 275.444 208.546 14.9517 273.073 184.49 10.7264 250.982 164.255 9.89398 216.761 154.004 12.6338 185.523 232.806 17.9772 9.61433 6.66579 1.76958 
165.652 163.734 165.93 165.893 165.59 164.151 158.142 159.924 160.902 160.988 245.134 262.069 48.5492 274.936 207.74 14.4917 272.496 183.698 10.3449 250.365 163.491 9.56109 216.103 153.356 12.248 185.033 232.221 17.5909 9.59731 6.66215 1.73047 
165.477 164.004 166.152 166.105 165.694 163.866 158.466 160.218 161.154 161.052 244.737 261.415 47.9974 274.624 207.016 14.0915 272.167 183.08 10.0272 250.078 163.03 9.22994 215.873 153.101 11.7985 184.724 231.789 17.2267 9.44299 6.54822 1.61009 
165.661 164.585 166.706 166.679 166.167 163.747 159.106 160.934 161.858 161.496 244.269 260.727 47.7604 274.371 206.329 14.0683 272.06 182.519 9.88761 250.107 162.623 8.89632 216.021 152.85 11.2691 184.428 231.239 16.9444 9.20273 6.38671 1.48872 
165.77 165.118 167.147 167.127 166.558 163.54 159.782 161.569 162.469 161.926 243.715 259.857 47.4347 273.919 205.349 13.916 271.611 181.619 9.67737 249.718 161.944 8.45179 215.672 152.393 10.5781 183.974 230.689 16.6722 9.02864 6.23348 1.37314 
165.555 165.713 167.66 167.609 166.971 163.06 160.521 162.256 163.13 162.371 243.265 259.069 47.0044 273.606 204.454 13.6727 271.373 180.983 9.42832 249.638 161.654 7.92511 215.747 152.387 9.78253 183.757 230.375 16.4568 8.7373 5.97802 1.09531 
165.406 166.196 168.062 167.971 167.288 162.614 161.224 162.853 163.657 162.742 242.793 258.287 46.6027 273.303 203.421 13.3589 271.119 180.201 9.2478 249.481 161.157 7.55451 215.683 152.145 9.19837 183.491 229.906 16.2488 8.50765 5.77648 0.812057 
165.241 166.418 168.259 168.103 167.407 162.302 161.558 163.161 163.927 162.925 242.491 258.048 46.2279 273.043 202.943 13.1846 270.84 179.79 8.98545 249.217 160.958 7.09706 215.455 152.142 8.65479 183.293 229.821 16.0615 8.38415 5.67723 0.752369 
165.178 166.709 168.464 168.29 167.524 162.052 161.957 163.455 164.189 163.029 242.168 257.608 45.9555 272.759 202.175 13.1198 270.485 179.118 8.88274 248.884 160.509 6.82735 215.169 151.947 8.24819 183.052 229.501 15.8839 8.22939 5.56504 0.684755 
165.13 166.671 168.438 168.244 167.471 162.046 161.921 163.408 164.111 162.927 242.014 257.372 45.6991 272.518 201.672 12.9596 270.204 178.588 8.72673 248.619 160.016 6.74944 214.922 151.492 8.22417 182.849 229.091 15.6504 8.20116 5.53247 0.711026 
165.209 166.564 168.292 168.121 167.346 162.194 161.813 163.288 163.951 162.751 242.075 257.385 45.41 272.353 201.264 12.7763 269.881 178.069 8.36938 248.202 159.535 6.48644 214.456 151.108 8.11941 182.735 228.861 15.4254 8.22189 5.55752 0.874552 
165.186 166.409 168.129 167.999 167.201 162.268 161.587 163.09 163.75 162.518 242.005 257.057 45.1348 272.06 200.737 12.6406 269.532 177.51 8.14501 247.826 158.995 6.40709 214.08 150.636 8.15369 182.534 228.417 15.2001 8.21711 5.55931 0.966623 
165.092 165.94 167.667 167.583 166.835 162.489 160.877 162.473 163.145 162.071 242.347 256.839 45.0392 271.796 200.399 12.4869 269.14 177.022 7.82151 247.247 158.447 6.27517 213.337 150.051 8.24707 182.522 228.268 14.9742 8.45755 5.69702 1.20876 
164.8 165.43 167.202 167.149 166.439 162.492 160.231 161.911 162.564 161.59 242.347 256.533 44.9308 271.437 200.156 12.2717 268.65 176.657 7.43787 246.599 158.071 6.07873 212.592 149.697 8.23869 182.365 228.088 14.8265 8.61311 5.79223 1.44059 
164.433 164.803 166.646 166.613 165.951 162.433 159.466 161.219 161.871 161.033 242.395 256.211 44.7624 271.06 199.916 12.2096 268.152 176.329 7.33785 245.963 157.746 6.11921 211.88 149.397 8.34063 182.261 227.973 14.7335 8.7758 5.88373 1.59147 
164.092 164.389 166.272 166.257 165.614 162.271 158.959 160.735 161.369 160.579 242.178 255.84 44.4848 270.623 199.591 12.1758 267.625 176.021 7.34861 245.35 157.468 6.27532 211.268 149.202 8.50781 182.022 227.771 14.6581 8.82418 5.9236 1.63544 
163.781 163.967 165.939 165.934 165.35 162.138 158.442 160.285 160.927 160.227 242.058 255.489 44.4032 270.341 199.431 12.1291 267.28 175.804 7.3272 244.91 157.231 6.41012 210.806 148.984 8.70126 181.883 227.603 14.6171 8.90556 5.98944 1.72397 
163.618 163.683 165.716 165.707 165.214 162.063 158.085 159.962 160.619 160.021 242.041 255.434 44.5622 270.38 199.706 12.0507 267.272 176.011 7.31476 244.83 157.357 6.51951 210.72 149.047 8.84003 181.941 227.683 14.576 8.9841 6.06758 1.77599 
163.77 163.522 165.529 165.545 165.119 162.337 157.86 159.736 160.415 159.936 242.277 255.718 44.8351 270.511 199.82 12.1293 267.285 175.951 7.38384 244.748 157.221 6.64336 210.525 148.85 8.99864 182.048 227.766 14.573 9.13033 6.15568 1.91205 
163.738 163.376 165.376 165.404 165.012 162.419 157.662 159.54 160.234 159.812 242.515 255.871 44.7965 270.654 199.796 12.221 267.302 175.841 7.46932 244.716 157.124 6.71375 210.427 148.772 9.01839 182.212 227.848 14.5408 9.2078 6.18318 1.99175 
163.784 163.277 165.312 165.342 164.995 162.56 157.503 159.409 160.125 159.769 242.897 256.098 44.7349 270.949 199.991 12.1106 267.532 175.945 7.39378 244.895 157.184 6.70064 210.557 148.808 9.05394 182.501 228.027 14.4426 9.27655 6.2348 2.06015 
163.709 163.169 165.261 165.288 164.998 162.601 157.4 159.349 160.085 159.801 243.205 256.319 44.6862 271.223 200.257 11.9679 267.717 176.115 7.2168 245.003 157.312 6.53575 210.603 148.929 8.93457 182.776 228.296 14.3982 9.3565 6.30465 2.15145 
163.555 162.889 165.069 165.095 164.854 162.585 157.102 159.076 159.835 159.621 243.585 256.616 44.5922 271.583 200.721 11.7379 267.963 176.483 6.98446 245.15 157.61 6.34698 210.686 149.199 8.82176 183.102 228.652 14.3257 9.45455 6.40083 2.25437 
163.57 162.724 164.914 164.963 164.786 162.731 156.983 158.881 159.674 159.572 244.209 257.055 44.3587 272.019 200.959 11.2123 268.178 176.523 6.51997 245.166 157.568 6.04239 210.546 149.183 8.71333 183.482 228.976 14.1789 9.61747 6.54762 2.41354 
163.765 163.091 165.133 165.199 164.959 162.752 157.574 159.253 159.993 159.78 244.438 256.953 43.9336 272.216 200.41 10.68 268.233 176.018 6.12135 245.159 157.172 5.66005 210.473 148.952 8.35214 183.589 228.848 14.0443 9.57691 6.50324 2.30723 
163.909 163.307 165.26 165.352 165.071 162.789 157.958 159.515 160.235 159.989 244.623 256.738 43.6452 272.31 199.784 10.3708 268.197 175.335 5.93103 245.078 156.578 5.49188 210.324 148.511 8.20683 183.641 228.595 13.9676 9.55336 6.46962 2.29409 
164.048 163.562 165.428 165.527 165.191 162.76 158.367 159.85 160.52 160.211 244.614 256.222 43.6708 272.205 198.923 10.3275 267.951 174.458 5.80947 244.764 155.875 5.29468 209.946 148.029 7.92845 183.578 228.253 13.959 9.52143 6.4113 2.31385 
164.277 163.721 165.499 165.618 165.27 162.97 158.641 160.098 160.721 160.451 244.756 255.954 43.7091 272.065 198.095 10.1766 267.635 173.513 5.49914 244.333 155.057 4.97329 209.373 147.361 7.64901 183.499 227.924 13.9315 9.59608 6.40516 2.44065 
164.228 163.832 165.551 165.661 165.329 162.886 158.899 160.231 160.819 160.563 244.679 255.611 43.609 271.882 197.369 9.98145 267.34 172.807 5.41344 243.979 154.468 4.90462 208.98 146.919 7.5146 183.379 227.622 13.9118 9.58471 6.3691 2.38156 
164.327 163.822 165.53 165.649 165.328 162.928 158.903 160.232 160.827 160.609 244.538 255.126 43.8753 271.638 196.82 10.0683 267.044 172.217 5.43243 243.624 153.913 4.90475 208.562 146.42 7.51222 183.201 227.268 13.9368 9.62439 6.38285 2.42475 
164.257 163.832 165.536 165.65 165.329 162.898 158.971 160.274 160.851 160.615 244.413 254.695 43.8676 271.455 196.215 10.0925 266.799 171.605 5.42598 243.338 153.352 4.87731 208.248 145.944 7.43305 183.068 226.87 13.9455 9.62208 6.37777 2.43376 
164.046 163.811 165.528 165.636 165.35 162.734 159.046 160.274 160.837 160.561 244.118 254.254 43.8667 271.294 195.757 10.0963 266.646 171.2 5.5556 243.205 152.953 5.03093 208.174 145.575 7.48618 182.896 226.397 13.9581 9.5563 6.35272 2.35394 
163.931 163.896 165.597 165.69 165.387 162.57 159.183 160.354 160.871 160.456 243.685 253.547 43.9122 270.969 195.004 10.3126 266.42 170.668 5.87211 243.072 152.518 5.29832 208.156 145.204 7.58824 182.624 225.736 14.0211 9.4137 6.24572 2.14233 
163.801 164.093 165.729 165.79 165.481 162.369 159.453 160.577 161.035 160.546 243.413 253.055 43.7494 270.744 194.209 10.4209 266.19 170.011 6.00441 242.875 151.98 5.32643 208.007 144.769 7.4735 182.443 225.216 14.0792 9.32612 6.16647 2.02021 
163.787 164.154 165.774 165.812 165.487 162.328 159.525 160.663 161.085 160.554 243.325 252.804 43.6484 270.578 193.505 10.753 265.991 169.369 6.29777 242.693 151.449 5.44753 207.833 144.322 7.42077 182.348 224.792 14.178 9.29034 6.11003 1.97303 
163.689 164.213 165.81 165.821 165.466 162.184 159.577 160.701 161.1 160.483 243.355 252.744 43.3503 270.608 193.082 10.9775 266.047 169.051 6.58963 242.83 151.199 5.65579 208.025 144.109 7.50345 182.386 224.48 14.2386 9.21119 6.0333 1.87458 
163.754 164.102 165.745 165.737 165.332 162.274 159.361 160.561 160.962 160.268 243.551 252.846 43.3203 270.889 193.161 11.3309 266.441 169.15 6.8989 243.313 151.267 5.91276 208.518 144.051 7.73855 182.581 224.242 14.3128 9.21518 5.9998 1.86161 
163.804 164.115 165.811 165.768 165.304 162.265 159.266 160.503 160.905 160.088 243.542 252.853 43.3307 271.168 193.294 11.6177 266.977 169.455 7.28295 244.02 151.492 6.30605 209.354 144.099 8.12443 182.701 223.901 14.386 9.09519 5.93113 1.68579 
163.756 164.132 165.894 165.805 165.292 162.2 159.196 160.585 160.955 160.038 243.715 253.141 43.3285 271.676 193.713 12.0415 267.689 169.947 7.5662 244.883 151.909 6.51752 210.326 144.343 8.31048 183.072 223.8 14.5095 9.01998 5.88677 1.65401 
163.817 164.451 166.34 166.164 165.551 162.041 159.515 161.021 161.364 160.183 244.145 253.438 43.3011 272.717 194.372 12.5476 269.058 170.808 7.98057 246.509 152.725 6.78062 212.156 144.977 8.52942 183.822 223.74 14.7519 8.80643 5.76774 1.51519 
164.142 164.635 166.662 166.435 165.757 162.169 159.632 161.316 161.722 160.471 244.364 253.711 43.8856 273.32 195.245 13.1596 269.956 171.717 8.39448 247.618 153.545 6.95736 213.395 145.557 8.63931 184.257 223.964 14.9539 8.71753 5.71885 1.52702 
164.456 164.825 166.894 166.632 165.929 162.302 159.784 161.49 161.944 160.693 244.515 253.724 44.2642 273.791 195.725 13.5449 270.621 172.252 8.78271 248.441 153.965 7.24604 214.347 145.787 8.90117 184.556 223.938 15.081 8.62768 5.70051 1.48513 
164.69 165.135 167.177 166.886 166.092 162.291 160.099 161.783 162.256 160.901 244.137 253.105 44.6173 273.712 195.482 13.9154 270.791 172.207 9.21765 248.822 153.92 7.5014 214.887 145.646 9.01797 184.412 223.433 15.2186 8.47235 5.60275 1.28415 
165.053 165.659 167.63 167.356 166.572 162.446 160.64 162.314 162.865 161.49 244.202 252.838 44.9532 273.962 195.38 14.0638 271.221 172.167 9.43435 249.378 153.815 7.64338 215.529 145.466 9.18035 184.565 223.202 15.3789 8.36265 5.56518 1.15638 
165.46 166.061 168.083 167.818 167.051 162.619 161.013 162.732 163.379 161.986 244.522 252.515 45.1933 274.469 195.62 14.1047 271.985 172.497 9.63519 250.298 154.024 7.87526 216.583 145.511 9.53162 184.955 223.064 15.4702 8.24014 5.5338 0.998379 
165.798 166.391 168.42 168.137 167.391 162.843 161.335 163.055 163.758 162.403 244.753 252.546 45.6265 274.922 195.979 14.2462 272.677 172.938 9.92706 251.124 154.334 8.1289 217.476 145.604 9.84486 185.257 223.067 15.6424 8.20133 5.52445 0.840132 
165.991 166.747 168.753 168.461 167.76 163.02 161.82 163.466 164.215 162.932 245.186 252.893 45.7775 275.5 196.343 14.1726 273.42 173.374 10.1403 251.988 154.641 8.36383 218.378 145.719 10.1158 185.72 223.274 15.8705 8.1995 5.51277 0.61973 
166.245 167.081 169.096 168.795 168.123 163.235 162.21 163.831 164.611 163.368 245.831 253.563 45.8928 276.307 196.968 14.1899 274.345 174.039 10.3853 252.993 155.175 8.6448 219.431 146.088 10.4736 186.364 223.701 16.118 8.17696 5.51902 0.50542 
166.253 167.052 169.035 168.718 168.091 163.405 162.146 163.727 164.518 163.388 246.408 254.446 46.1032 276.894 197.721 14.4089 275.002 174.801 10.7053 253.685 155.82 8.9398 220.121 146.544 10.7495 186.951 224.27 16.4234 8.26144 5.55893 0.479103 
166.275 166.994 168.963 168.66 168.065 163.564 162.109 163.711 164.516 163.487 246.949 255.267 46.3295 277.359 198.229 14.6895 275.433 175.228 10.9199 254.103 156.204 9.07558 220.475 146.831 10.8684 187.406 224.789 16.8052 8.3642 5.59682 0.547173 
166.175 166.805 168.725 168.446 167.952 163.562 162.029 163.591 164.354 163.479 247.526 255.957 46.5918 277.812 198.576 14.6091 275.704 175.453 10.8619 254.265 156.468 9.09269 220.518 147.096 10.9662 187.856 225.344 17.266 8.49099 5.62033 0.686487 
166.113 166.537 168.411 168.211 167.806 163.73 161.881 163.419 164.167 163.494 247.859 256.876 46.7244 278.143 199.039 14.5101 275.891 175.753 10.8508 254.38 156.66 9.29301 220.496 147.087 11.3946 188.051 225.682 17.7848 8.70933 5.6919 0.851888 
166.141 166.246 168.112 167.992 167.798 163.898 161.675 163.268 164.019 163.7 248 257.74 46.992 278.158 199.752 14.4274 275.798 176.313 10.7748 254.142 157.133 9.40043 220.116 147.397 11.8314 188.062 226.363 18.4335 8.97018 5.8225 0.955046 
166.249 166.234 168.24 168.198 168.159 164.007 161.822 163.615 164.384 164.312 247.901 258.565 47.0847 278.189 200.296 14.2061 276.052 176.867 10.6281 254.428 157.545 9.65928 220.427 147.645 12.5358 188.05 226.665 19.078 9.05132 5.86899 0.845504 
166.598 166.763 169.219 169.199 169.277 164.16 162.694 165.045 165.782 165.89 246.753 259.84 47.1876 277.868 201.177 13.8826 276.429 177.946 10.0717 255.029 158.236 9.79561 221.177 147.932 13.2602 187.406 226.711 19.8708 9.02302 5.87653 0.690881 
166.109 167.025 170.324 170.157 170.456 163.539 163.69 166.48 167.191 167.488 246.001 262.204 46.5395 278.361 203.291 13.3337 277.474 179.848 9.54581 256.407 159.895 9.80598 222.737 148.989 13.9309 187.413 227.549 20.6785 9.04883 5.77891 0.802567 
165.911 167.01 171.136 171.026 171.352 162.722 164.34 167.699 168.462 168.701 244.986 264.425 45.6133 278.398 205.376 12.8297 277.835 181.215 8.89103 257.002 161.161 9.54978 223.517 149.89 14.4429 187.031 228.362 21.3998 8.98983 5.67833 1.26184 
166.412 167.156 171.477 171.487 171.611 162.463 164.734 168.416 169.201 169.16 243.655 265.082 44.5609 277.399 205.638 12.7012 276.754 180.925 8.49661 255.876 161.042 9.25097 222.416 150.08 14.5961 185.852 228.547 21.9821 8.80071 5.61335 1.70903 
166.307 167.135 171.333 171.598 171.541 161.805 164.936 168.665 169.447 169.244 241.87 265.219 43.182 276.017 205.44 12.4549 275.152 180.142 8.32483 254.27 160.3 9.19592 220.867 149.484 14.9298 184.27 228.052 22.397 8.72423 5.62151 2.10905 
166.166 167.178 171.184 171.489 171.374 161.473 165.011 168.809 169.437 169.283 241.154 264.712 42.1678 274.844 204.171 12.2751 273.43 178.386 8.09724 252.263 158.896 9.03872 218.699 148.585 14.9955 183.272 227.757 22.7918 8.77207 5.62871 2.51279 
165.94 167.156 171.096 171.363 171.224 161.553 164.922 168.965 169.48 169.424 241.549 265.224 41.6194 274.789 204.012 12.4681 272.8 177.576 8.1701 251.325 158.276 9.23494 217.542 148.313 15.4718 183.34 228.215 23.2259 8.96086 5.73291 3.09746 
165.826 166.809 171.022 171.22 171.153 161.988 164.209 168.91 169.508 169.686 241.996 265.557 41.5112 274.777 204.04 13.5986 272.579 177.114 8.83882 250.851 157.782 9.7947 216.939 148.036 16.2327 183.466 228.467 23.7004 9.09819 5.96534 3.69374 
165.615 166.243 171.37 171.175 171.182 162.632 162.723 168.742 169.547 170.102 242.966 266.858 41.8922 275.765 206.067 15.5648 274.267 178.892 9.91238 252.646 159.167 10.6856 218.752 148.95 17.5476 184.557 229.095 24.1558 9.33183 6.26984 4.45024 
165.667 166.019 171.61 171.23 171.344 163.385 161.686 168.517 169.552 170.585 243.277 268.312 41.4431 276.693 209.239 16.5574 276.135 181.58 10.5844 254.716 161.088 11.6372 220.913 149.915 19.2584 185.276 229.413 24.6104 9.74459 6.69836 5.26961 
166.032 164.65 170.729 170.229 170.465 165.515 159.962 167.003 168.575 169.709 242.991 271.458 40.5084 277.623 214.049 16.4101 277.362 185.002 10.8277 255.601 162.43 12.381 221.683 149.598 21.2657 185.463 229.1 25.099 10.8531 8.06035 6.37547 
166.142 164.124 170.021 169.121 169.359 166.721 158.303 165.324 167.27 168.549 240.997 272.302 40.1674 276.123 215.98 17.0199 276.142 186.288 11.4301 254.328 162.452 13.3896 220.33 148.425 22.9864 183.893 227.807 25.7354 11.7901 8.92216 7.25106 
166.595 163.834 169.679 168.493 168.786 167.856 156.095 163.984 166.43 167.826 240.741 272.187 40.7672 274.412 216.548 18.5688 274.225 186.377 12.4467 251.945 161.949 14.2882 217.902 147.774 24.2073 182.78 227.727 26.5186 12.2638 9.69089 8.17163 
166.644 163.197 169.091 167.734 168.162 168.437 153.812 162.494 165.331 166.968 240.551 272.467 41.3123 273.169 217.632 20.1245 273.08 187.006 13.6801 250.671 162.135 15.533 216.577 147.664 25.6427 182.14 227.892 27.2612 12.6893 10.167 8.92617 
166.675 161.992 168.301 166.889 167.582 168.928 151.028 160.787 164.007 165.897 240.955 272.098 41.4751 272.56 218.07 21.6208 272.821 187.017 15.1646 250.537 161.877 17.2288 216.559 147.318 27.3464 182.265 227.384 27.7077 12.8223 10.3951 9.53849 
166.971 161.063 167.748 166.584 167.447 169.61 149.071 159.708 163.338 165.422 241.749 271.191 41.8478 272.44 217.829 23.1568 272.71 186.015 16.4756 250.239 160.513 18.5009 216.161 146.026 28.5418 182.543 226.551 28.1342 12.9725 10.7794 10.3537 
166.882 161.023 167.647 166.633 167.444 169.527 148.368 159.228 163.009 164.943 242.325 268.613 42.832 272.04 215.616 24.7249 271.982 183.544 17.9767 249.054 158.156 19.7868 214.768 144.23 29.3793 182.424 225.276 28.7082 12.9049 10.9413 10.5734 
166.813 160.999 167.347 166.856 167.363 168.85 150.519 158.985 163.083 164.347 243.409 264.886 44.1687 271.704 210.844 24.1552 269.778 179.381 18.4902 245.884 154.781 19.9873 211.187 142.639 28.6949 181.831 224.496 29.5905 12.3528 10.8731 9.3392 
167.15 162.653 168.023 167.435 167.84 168.741 151.885 159.67 163.556 164.804 244.378 263.968 45.7597 271.895 209.157 25.5969 269.267 177.785 20.1331 244.785 153.734 21.3538 209.827 142.208 29.6204 182.034 224.966 30.6883 12.2793 10.7961 9.04121 
166.932 162.509 168.511 167.726 168.056 168.585 152.148 160.27 163.84 165.216 245.203 264.745 46.2535 272.614 209.696 26.5882 269.966 177.741 21.4421 245.512 153.841 23.0893 210.306 142.224 31.5246 182.807 225.541 31.6263 12.5187 10.6507 9.32944 
166.576 161.384 168.675 167.939 168.245 168.36 151.04 160.416 163.928 165.235 245.332 264.047 46.7498 272.463 209.638 28.5114 270.474 177.35 23.0957 246.27 153.566 24.9477 211.157 141.981 33.3656 183.148 225.062 32.2181 12.4074 10.4749 9.74805 
166.279 160.606 169.057 168.348 168.624 168.07 151.404 161.099 164.464 165.701 244.933 263.369 48.0872 272.398 209.469 30.0973 270.358 176.458 24.6762 246.008 152.785 26.4562 210.688 141.227 34.7122 182.851 224.734 33.2186 12.4495 10.415 10.1605 
165.346 159.354 169.848 169.107 168.71 166.543 152.628 162.335 165.145 165.812 244.645 260.272 51.0115 271.576 206.558 31.1615 268.607 172.958 25.6258 244.047 150.649 27.2532 208.689 140.496 34.8338 181.882 224.236 34.3294 11.7637 9.69924 10.3802 
164.084 159.845 170.699 169.586 169.064 165.399 152.561 162.614 165.373 166.131 245.23 259.343 52.1017 271.661 206.328 33.243 269.544 173.329 27.4245 245.187 151.085 28.9097 209.925 140.971 36.5616 182.629 224.551 35.1935 11.6534 9.6652 10.1708 
163.15 158.682 170.266 169.31 169.002 164.778 151.949 162.422 165.137 166.108 245.465 260.102 52.6493 272.337 207.515 34.7657 270.774 174.405 29.1185 246.676 151.837 30.8391 211.417 141.283 38.56 183.42 224.839 36.0785 11.8036 9.71395 10.2898 
162.514 157.568 169.745 169.068 168.74 164.15 151.023 162.067 164.825 165.85 244.515 261.016 53.1828 272.346 209.285 36.6804 272.025 176.422 30.8108 248.402 153.184 32.6561 213.257 141.781 40.4339 183.461 224.542 36.9375 11.9977 9.88 10.4706 
162.377 156.813 169.354 169.2 168.765 163.992 149.967 161.937 164.892 165.896 243.36 260.719 54.5235 271.23 210.255 38.8088 271.646 177.105 31.8607 248.092 153.351 33.43 212.953 141.69 41.3455 182.61 224.173 37.8889 12.0877 10.2169 11.3868 
