152.529 167.233 170.871 173.797 171.159 152.319 161.181 164.057 168.497 168.512 81.5567 162.709 60.3223 97.302 114.917 7.17693 81.1149 80.478 0.829474 56.4494 66.9129 3.8275 25.5598 63.3168 16.3179 17.4828 139.527 58.2998 8.04034 5.42625 13.078 
161.097 163.79 168.007 168.664 168.055 156.491 160.881 165.28 168.504 167.473 82.2635 162.268 61.9275 96.6754 116.199 8.8019 85.409 86.6067 1.2449 57.3456 68.345 3.23852 26.5752 62.6951 16.3432 15.5525 138.186 58.8077 8.30986 9.3022 8.37049 
164.563 166.552 162.953 163.062 166.156 156.946 159.797 162.168 166.295 167.923 77.3436 164.472 65.0414 94.1492 121.005 12.4542 88.0511 93.1247 6.23089 61.952 72.5076 6.1293 30.1052 64.1164 17.7117 12.0986 137.759 61.2474 9.59192 9.57506 5.89657 
154.796 171.822 178.09 171.256 165.957 161.281 171.222 166.005 168.968 168.913 77.1672 157.271 81.0696 92.4129 122.498 10.4883 90.6356 100.764 11.266 71.441 87.5483 6.82516 40.9032 73.4547 20.3508 10.4727 139.283 63.523 8.913 7.5542 5.59365 
152.18 174.27 180 173.776 165.488 166.616 178.702 161.501 172.84 168.24 76.3004 156.414 89.1353 95.6259 129.47 13.712 97.3072 109.083 19.138 75.7862 94.259 5.7882 46.9571 78.7713 19.2512 10.3197 138.468 65.278 7.08605 13.0865 9.81894 
152.648 174.359 159.657 174.332 165.663 171.868 178.186 168.711 176.383 168.539 75.4924 158.387 94.3089 99.4415 133.208 19.7585 95.7074 120.523 13.0406 74.3675 96.7928 3.23596 46.3877 80.1282 18.2954 9.61495 137.544 67.8844 6.71657 11.4209 3.8154 
159.929 174.678 175.1 176.232 166.543 171.13 178.606 168.213 178.48 171.133 73.8481 160.134 96.5984 96.1725 136.656 19.7414 94.7933 126.732 14.6617 74.72 102.4 1.72158 49.1187 81.7794 16.8778 8.26349 137.355 69.9765 7.65564 12.3699 6.59633 
158.018 174.281 178.563 179.708 165.88 162.982 178.615 175.701 179.9 171.401 70.2488 158.661 95.8919 92.6041 138.992 20.8054 92.6575 126.62 12.2185 74.6221 106.519 1.26046 49.3888 83.9741 14.9733 7.02547 136.244 71.3123 8.12714 8.6973 4.7677 
152.644 175.959 174.328 171.52 162.457 155.773 172.309 176.025 177.022 169.084 67.163 155.796 96.3703 91.9049 135.01 25.2041 89.7009 122.528 12.9783 73.2249 105.902 4.26099 47.5333 84.4432 14.64 6.42735 134.325 72.8167 7.42522 5.68885 3.53684 
154.523 172.652 172.458 175.695 162.596 160.748 166.471 174.487 179.308 167.388 63.6977 160.704 96.7677 88.5605 134.334 27.6248 89.0447 121.471 15.4322 70.7453 105.977 4.03953 46.8346 85.7502 15.0005 4.96734 132.82 74.7486 5.82432 7.492 3.91659 
153.925 171.165 158.287 179.802 162.816 163.23 160.073 167.281 173.161 164.998 62.0489 161.929 94.1957 85.6593 137.311 29.2274 88.9019 121.037 18.2466 70.0732 102.154 6.74444 45.3346 84.36 15.6113 4.00536 131.635 75.9873 4.72564 8.49306 3.59525 
151.935 164.659 153.643 172.857 162.441 165.465 151.581 161.169 167.365 163.043 60.3364 164.502 93.0749 84.4502 139.619 31.8778 87.5817 121.129 19.5367 69.0146 97.7329 8.69063 43.7326 80.049 16.732 3.2981 130.649 76.5599 5.89832 9.51764 1.61597 
151.164 160.496 148.39 169.004 161.76 167.023 146.633 155.837 164.173 161.367 58.7601 166.55 93.2725 83.6188 141.848 33.847 85.9354 120.797 21.0043 67.4307 95.4742 9.56345 41.7595 76.5613 17.6976 2.6608 129.961 77.3539 7.22002 10.7387 1.82569 
157.555 158.681 145.616 167.454 161.539 167.335 144.979 153.783 163.096 160.161 58.5299 167.272 94.9499 83.0339 143.862 35.1958 84.2788 122.602 20.7942 65.3469 95.6239 9.13473 39.7264 75.1918 18.2674 2.24131 129.805 78.4058 8.1893 11.8001 2.32376 
166.978 157.689 144.913 166.129 162.535 165.217 144.892 154.282 163.586 159.7 59.4433 165.883 97.0864 82.9772 145.843 36.1703 83.5731 125.201 19.7138 63.9021 97.1217 8.01935 38.4712 74.8492 18.2382 2.28697 129.897 79.1778 9.26418 12.5544 3.11738 
165.361 157.058 146.253 165.071 164.673 163.747 145.879 156.991 165.214 160.07 59.68 163.69 99.701 83.3741 148.087 38.0318 83.5749 128.874 18.7004 63.4049 99.8771 6.97864 38.1562 76.0225 17.4799 2.35301 130.029 79.8605 10.1041 12.9915 4.50421 
156.97 156.979 148.255 162.606 167.813 163.155 148.265 159.124 166.296 162.192 60.1741 160.714 102.61 83.802 149.117 39.5421 84.2586 131.994 18.8665 64.1587 102.18 6.60209 39.0704 77.4994 15.9799 2.49957 129.984 80.3144 10.3646 13.3598 5.08993 
149.553 158.113 150.52 162.607 169.51 162.869 152.34 160.729 167.197 164.486 60.4438 158.393 105.736 84.0359 149.693 40.2255 84.9292 134.443 19.5571 65.1494 103.612 6.41632 40.4572 78.5843 14.9137 2.57387 129.769 80.8273 10.1567 13.8845 5.0954 
144.982 158.033 153.752 164.731 170.544 162.578 156.523 162.655 168.697 166.776 60.6934 156.234 109.067 84.4604 149.785 41.6092 86.3743 136.07 20.4549 67.5388 104.616 6.32518 42.8475 78.8001 14.0448 2.88862 128.861 81.3032 10.1657 13.9521 5.40237 
149.018 159.899 156.644 166.781 169.851 163.15 158.41 163.773 168.602 166.534 61.2243 155.701 109.045 84.4426 149.606 41.4801 86.9985 135.086 20.0452 69.0909 104.696 6.50077 45.1034 79.3834 14.3644 3.02044 127.802 81.1375 9.12976 12.7775 5.04348 
152.365 160.695 158.78 167.26 169.327 163.001 158.99 165.051 168.48 166.226 61.6474 154.837 108.757 84.4505 149.559 41.8975 87.5825 134.28 19.4629 70.4733 105.19 6.7243 47.2046 80.5055 14.3212 3.24018 126.733 80.816 8.10769 11.4815 5.26767 
154.44 161.086 160.324 167.121 168.434 162.911 158.385 165.623 167.904 165.575 61.5474 153.633 108.776 84.5414 149.254 42.8698 88.1681 133.446 19.3659 71.7088 105.55 7.34022 48.7464 81.2876 14.2597 3.28575 125.593 80.4715 7.5034 10.3224 5.70004 
155.541 160.952 160.704 166.381 167.426 162.053 157.556 165.954 167.462 164.859 61.4643 151.808 108.635 84.9061 147.838 43.3815 88.3237 131.576 18.7406 71.961 104.638 7.45753 48.9994 80.7804 14.4363 3.32261 124.335 80.0806 7.12624 9.50114 6.44509 
156.27 160.492 160.003 165.39 165.571 160.811 156.864 165.519 166.749 163.588 61.7061 150.591 107.821 85.4094 145.797 42.3565 88.0237 129.036 17.4874 71.5087 102.74 7.02402 48.2566 79.4901 14.7545 3.49891 123.093 79.4558 6.81729 8.97121 6.75371 
157.105 158.853 158.942 164.389 163.546 160.159 156.503 165.302 166.41 162.63 61.9639 149.537 107.173 85.8993 143.637 41.1282 87.277 126.474 15.9121 70.0813 100.407 6.16578 46.1977 77.3532 14.9191 3.50545 121.834 79 7.07329 8.88762 7.24066 
158.416 154.343 156.981 163.687 163.078 160.031 155.188 164.533 166.148 162.707 62.072 148.626 106.927 86.1887 142.43 40.5946 87.1273 124.701 15.0944 69.3633 98.1854 5.13841 45.277 75.3196 14.4219 3.67432 120.719 78.5527 7.20616 9.40488 7.5227 
159.298 150.49 155.671 163.922 162.663 159.552 153.803 164.141 166.278 163.017 61.992 146.688 106.253 86.5313 140.607 40.406 87.0068 122.461 14.3855 68.2398 95.4231 3.96385 43.8789 72.8765 13.9428 3.77378 119.534 78.1459 7.36456 10.2262 8.02451 
159.544 146.683 155.938 165.052 161.897 158.522 152.451 164.352 166.736 163.284 62.2513 143.63 105.561 86.843 137.906 40.2747 86.7048 119.613 13.3366 66.661 91.7143 2.55072 42.0137 69.9257 13.7509 3.91319 118.355 77.8297 7.31581 11.2472 8.75651 
159.803 143.863 157.31 164.592 161.518 157.355 150.811 164.714 166.858 163.759 62.5809 140.241 105.079 86.9645 135.166 40.5019 86.4663 116.876 12.4989 65.33 88.3571 1.80397 40.4461 67.3568 13.5703 4.02529 117.275 77.5879 7.25719 11.909 9.48054 
160.874 145.209 158.023 163.061 160.476 157.518 148.786 163.375 165.277 163.039 63.2527 136.778 104.726 86.9837 132.464 40.3909 86.2661 113.994 12.2183 64.4524 86.0058 1.68827 39.571 65.681 13.2623 4.02243 115.853 77.1753 7.00883 11.873 9.55921 
160.594 147.541 157.635 161.824 158.188 157.48 146.872 161.196 163.672 161.412 64.539 132.298 105.321 86.82 129.23 40.2115 85.7201 110.743 12.3627 63.1043 83.5646 1.41994 38.5171 64.2767 13.2717 3.87623 114.29 76.7719 6.35761 12.0037 9.33521 
161.007 151.942 157.015 161.212 156.453 158.9 146.746 159.496 162.666 159.569 66.0001 129 104.7 86.6231 126.392 39.0402 84.8823 107.942 12.0474 61.6323 81.9823 0.770691 37.916 63.5809 13.238 3.65766 112.565 76.2495 5.51858 11.893 8.73109 
160.012 158.68 156.346 159.788 155.936 157.603 152.207 159.94 162.152 158.024 67.1123 128.32 100.294 86.5916 121.441 31.137 82.7829 103.435 8.10786 59.1133 78.7543 -0.341253 34.8527 61.1996 12.7291 3.70462 110.697 74.9809 5.52601 10.7174 6.33473 
160.34 162.88 156.195 159.851 155.804 160.24 156.014 160.513 161.98 156.638 67.1207 131.686 91.739 85.3532 116.82 24.0375 80.2349 99.468 3.50431 58.3286 77.2594 -2.22477 33.099 59.3102 11.0236 3.915 108.121 72.9047 6.16902 8.12317 4.90503 
161.087 166.141 155.226 160.274 156.044 164.219 158.354 161.233 160.729 156.297 66.2613 136.851 84.46 84.4473 113.252 19.062 78.6777 96.0253 -0.588741 58.343 74.6596 -3.85776 32.4378 56.7641 9.16822 4.10015 105.252 70.539 6.45289 6.27351 4.46202 
158.409 168.704 155.848 161.026 157.475 162.631 159.152 162.013 159.607 156.859 65.5848 136.048 81.0837 83.3986 110.994 15.7953 78.3656 94.9988 -3.69484 59.3301 73.5416 -5.02737 32.5751 55.0688 6.9085 4.0719 102.192 68.2722 7.09015 5.14373 4.02239 
160.05 170.919 166.11 169.626 162.302 159.217 162.791 164.347 159.169 155.959 63.1674 133.086 75.9756 82.7876 110.197 11.2068 80.6389 92.5552 -6.5723 63.3617 71.3704 -5.89809 38.0483 53.889 5.65201 4.58826 99.2818 65.244 5.18654 3.77766 1.74584 
153.852 174.236 171.399 173.381 162.985 156.467 166.042 167.755 163.643 159.427 59.3095 133.841 71.1272 83.9035 107.031 5.2952 82.3382 90.3659 -11.6219 64.5804 68.7421 -10.3901 40.3661 49.8166 2.65895 5.63322 96.2511 61.1669 5.78065 4.07059 1.06947 
144.543 173.498 172.632 178.153 166.336 146.536 165.986 166.682 164.958 162.317 55.1042 133.641 58.9939 86.3723 97.3772 1.4043 85.2596 81.9996 -13.5442 64.9491 63.9521 -15.0777 40.3873 45.3662 -1.30366 8.06715 93.4147 56.4282 6.93816 3.78637 1.52076 
142.297 177.174 174.216 178.017 168.304 139.299 170.393 167.457 168.913 162.19 53.2192 131.099 48.2126 87.1087 92.8709 -7.06841 85.7158 75.275 -18.2689 65.6396 60.805 -20.2545 40.2615 41.6509 -4.01902 10.9627 94.1034 52.3683 8.44226 3.85695 2.92187 
149.589 175.278 165.479 174.066 176.822 137.313 171.634 165.486 169.273 163.808 57.8918 129.639 45.5592 95.3643 83.0589 -8.77596 90.0075 65.6985 -18.4842 68.0191 53.8631 -22.3354 36.8274 37.8105 -8.13835 16.0773 94.8608 48.6249 10.3199 4.24832 3.36628 
139.522 174.971 157.595 175.034 168.103 128.516 169.89 162.05 165.719 166.908 62.5378 118.831 51.2315 101.518 79.8779 -5.3138 93.754 64.2753 -17.281 73.2391 47.343 -21.5247 37.5566 36.3528 -16.1729 20.0899 96.1828 46.7126 11.8693 4.39737 1.49372 
147.12 172.575 160.457 168.06 147.877 125.298 166.918 163.48 163.496 161.067 67.6189 110.823 54.312 104.544 78.3751 -3.11945 96.5532 67.3223 -17.5967 76.339 45.7637 -21.2952 41.0895 39.8851 -20.5334 22.829 98.3112 45.1445 10.4692 7.56935 1.49268 
110.2 168.935 158.522 159.714 174.571 122.839 166.445 155.953 153.216 170.342 69.2445 97.7659 60.5553 105.545 71.2422 -3.13683 91.8932 63.0225 -22.3789 74.5456 48.0824 -18.3221 27.4951 48.7579 -33.2913 24.5398 99.5568 42.6211 23.241 12.1352 3.38539 
129.086 166.144 162.885 161.958 139.15 117.054 166.99 153.317 157.184 144.555 60.7145 91.2859 40.1994 106.368 69.3887 -6.48839 89.1419 67.3517 -27.5365 68.7541 51.4899 -26.1036 31.2697 62.8092 -28.4209 24.989 102.414 40.9463 9.8042 14.7659 5.86879 
142 165.121 164.267 170.611 161.12 135.671 164.066 148.014 167.978 153.758 26.85 63.8147 15.9218 105.161 65.6838 -11.0179 89.3727 72.9563 -33.2256 65.7289 54.8439 -39.6045 32.5285 77.7891 -35.9097 26.6827 106.2 38.6776 6.96466 17.2493 6.36905 
160.431 167.035 159.018 178.694 177.33 160.384 165.2 148.537 176.257 164.037 20.9457 50.4382 3.51436 106.654 68.2439 -16.0043 92.0513 77.5871 -35.4237 68.7903 68.4366 -51.39 37.6824 96.1081 -41.4517 30.1984 112.271 35.7885 5.98985 12.8131 6.07331 
160.134 164.338 161.788 175.685 174.27 169.785 170.955 153.655 178.537 167.628 29.6849 64.2268 4.31588 118.059 82.6474 -12.7917 100.455 84.7249 -34.6886 78.0632 82.8856 -52.6028 40.6713 110.39 -44.8889 37.3979 123.645 36.0659 11.6643 7.75451 9.04841 
169.827 162.423 168.685 174.786 158.956 149.857 169.296 161.814 178.225 166.499 57.4702 78.6544 31.2608 126.694 101.335 -12.3258 112.217 101.574 -36.6452 85.9604 100.573 -50.25 47.805 126.623 -46.6181 49.2985 143.471 35.9375 16.628 7.03433 5.54307 
164.507 166.156 169.623 168.74 164.051 154.695 165.33 163.21 173.532 160.109 113.497 127.93 47.8003 126.116 108.589 -21.7162 111.529 106.638 -45.2909 82.1303 107.635 -56.2929 48.9312 128.678 -49.3524 58.0856 159.247 32.0658 11.3357 7.21338 4.04413 
173.614 168.033 167.38 166.744 165.095 158.348 161.955 160.085 165.651 157.151 133.841 147.6 46.2607 119.764 108.925 -24.6234 105.023 104.74 -45.6418 75.9385 106.58 -53.9586 47.7523 126.522 -45.6796 61.377 165.179 31.8042 8.92138 6.47242 2.55087 
177.869 167.773 167.587 164.385 165.6 157.224 159.285 160.622 160.587 155.325 137.97 152.945 41.2659 115.09 108.098 -26.3589 101.088 104.802 -47.9014 72.33 106.872 -51.4734 47.33 123.412 -41.5734 62.5779 166.828 31.3487 6.10825 5.33942 3.70466 
177.874 167.241 166.939 162.382 164.762 156.624 157.424 159.23 155.275 152.714 135.64 152.919 36.0517 114.031 111.075 -27.9345 98.6484 107.459 -49.4011 71.1134 109.107 -49.3854 47.6179 122.186 -38.2635 63.3285 167.987 30.9944 4.03644 4.14359 4.31946 
176.394 166.108 165.651 161.007 164.399 158.389 156.432 158.064 150.807 149.715 134.31 155.104 33.9326 113.943 117.574 -28.902 96.6912 114.211 -50.0691 69.6694 114.653 -47.1357 45.7873 124.327 -34.2899 63.9193 170.445 31.9223 2.15384 3.99273 4.92232 
175.316 167.05 165.409 161.54 164.914 160.032 158.43 158.658 149.402 149.203 133.509 157.47 31.788 114.453 125.314 -31.5485 95.0754 122.023 -51.6178 68.0138 121.069 -47.024 43.5654 128.123 -32.3857 64.6744 173.255 33.0323 2.28018 4.60995 4.83507 
165.091 162.821 161.731 159.699 162.072 154.943 156.171 156.812 147.241 147.778 130.297 157.323 29.5233 115.456 130.908 -33.3096 95.0843 128.468 -53.421 68.6393 126.466 -48.5671 43.6981 132.138 -33.7585 65.1051 174.47 32.5748 2.8258 4.6651 5.38413 
161.825 159.467 158.819 159.443 160.37 153.223 153.648 154.886 147.043 147.96 129.504 157.989 29.1851 116.659 135.893 -33.9203 95.2362 133.923 -53.9789 69.0703 131.493 -49.7889 43.5947 136.301 -34.8297 65.5678 175.798 32.9358 3.37955 4.62064 5.80143 
160.479 156.587 156.87 159.396 159.19 152.465 150.073 152.835 147.565 148.507 129.501 158.472 29.1212 117.83 139.468 -33.7163 95.9345 138.231 -54.2899 69.7213 135.747 -51.2553 43.5168 139.989 -36.3385 65.9375 177.001 33.1135 4.0019 4.49171 6.45184 
159.638 156.365 156.938 160.498 159.766 150.746 147.921 153.029 150.73 151.613 128.056 157.731 28.5557 119.18 143.262 -33.4823 97.5787 143.756 -55.3362 71.2493 141.665 -54.0803 44.1327 145.446 -39.4173 66.2252 177.961 33.5387 4.6069 4.2141 7.31957 
159.156 156.988 158.115 161.863 160.923 149.971 147.097 153.778 153.777 154.275 127.546 157.914 28.2927 120.171 145.768 -33.5061 98.6743 147.452 -56.2838 72.0984 146.092 -56.3013 44.422 149.871 -41.7144 66.4649 178.794 33.7947 5.07401 4.23685 8.00015 
159.096 158.173 159.826 163.015 161.785 150.599 147.126 154.158 155.847 155.435 128.605 160.216 28.7535 121.386 148.552 -33.6281 99.3743 150.83 -56.7399 72.1467 150.321 -57.5845 44.0622 154.329 -42.6528 66.8874 180.055 34.5784 5.52536 4.71468 8.38562 
160.116 159.458 161.456 163.614 162.474 151.207 147.927 154.486 156.501 155.486 128.902 160.346 29.001 121.486 148.677 -33.859 99.3175 150.739 -56.823 71.6087 150.417 -57.6647 43.4291 154.93 -42.498 66.8913 180.485 34.886 5.69346 5.02999 8.25559 
161.247 160.216 162.281 163.735 162.608 152.261 148.731 154.653 156.713 155.116 129.516 160.219 29.6971 121.699 148.725 -33.7913 99.1284 150.511 -56.5367 70.9971 150.376 -57.2804 42.7274 155.182 -41.8173 67.0067 180.816 35.4294 5.83341 5.30289 8.19923 
161.621 160.332 162.525 163.404 162.229 153.255 148.97 154.438 156.381 154.254 130.214 159.781 30.8632 121.893 148.59 -33.2637 98.8856 150.195 -55.8469 70.3888 150.238 -56.4056 41.997 155.314 -40.7037 67.1845 181.194 36.1163 6.02362 5.54168 8.27221 
162.085 160.403 162.634 162.992 161.738 154.382 149.384 154.244 155.98 153.424 131.015 159.735 31.9373 121.955 148.132 -32.8327 98.4263 149.526 -55.1795 69.6485 149.791 -55.5145 41.1975 155.244 -39.6428 67.2801 181.368 36.7319 6.17978 5.72155 8.35314 
163.154 160.581 162.597 162.64 161.477 155.495 149.945 154.109 155.705 153.057 131.804 159.536 32.7747 121.835 147.407 -32.5895 97.8917 148.484 -54.607 68.9427 149.002 -54.7938 40.5146 154.956 -38.9123 67.3387 181.246 37.1975 6.28817 5.83451 8.3232 
163.693 160.357 162.339 162.154 161.019 156.047 150.07 153.686 155.142 152.416 132.186 159.192 33.3628 121.322 146.063 -32.2512 97.0108 146.85 -53.9397 67.9752 147.703 -53.972 39.764 154.299 -38.1423 67.2532 180.963 37.5233 6.26133 5.89635 8.31314 
164.614 160.453 162.183 161.874 160.873 156.591 150.47 153.566 154.914 152.199 132.41 158.771 33.7677 120.803 144.804 -32.0169 96.2352 145.415 -53.4334 67.135 146.595 -53.3608 39.1088 153.744 -37.5723 67.1438 180.69 37.8176 6.2347 5.93971 8.29052 
165.321 160.442 162.116 161.738 160.769 156.991 150.602 153.447 154.706 151.979 132.441 158.032 33.9918 120.147 143.432 -31.7782 95.4918 144.032 -53.0485 66.4012 145.476 -52.8902 38.5755 153.057 -37.1355 66.9585 180.343 38.0186 6.13979 5.92775 8.24809 
165.507 160.123 161.894 161.347 160.476 156.924 150.659 153.297 154.365 151.392 132.107 156.933 34.0841 119.449 142.057 -31.6045 94.8553 142.752 -52.7867 65.8468 144.493 -52.5681 38.2166 152.469 -36.8542 66.7662 179.85 38.111 6.06377 5.86071 8.14768 
164.509 159.608 161.43 160.891 160.052 155.943 150.499 153.115 154.065 150.835 131.002 155.345 34.2547 118.955 140.933 -31.1495 94.4471 141.904 -52.4322 65.4979 143.819 -52.1872 37.9814 152.053 -36.5074 66.5393 179.378 38.3285 6.02038 5.82024 8.17692 
163.169 159.149 161.066 160.622 159.809 155.259 150.215 153.018 153.921 150.547 130.365 154.293 34.6291 118.508 139.811 -30.6537 94.1391 141.107 -52.1602 65.1981 143.106 -51.9229 37.7031 151.453 -36.2675 66.327 178.906 38.5116 6.02602 5.81516 8.25856 
163.233 158.821 160.848 160.429 159.699 155.358 149.618 152.804 153.514 149.945 130.071 153.437 34.7919 117.792 138.726 -30.1199 93.7633 140.57 -51.898 64.9081 142.472 -51.5106 37.5629 150.673 -35.745 66.1256 178.585 38.6721 5.83574 5.74773 8.32217 
163.38 158.779 160.696 160.244 159.575 155.418 149.637 152.78 153.247 149.446 129.678 152.845 34.9726 117.329 138.188 -29.7744 93.362 140.294 -51.6639 64.512 141.993 -51.0817 37.2985 149.993 -35.131 65.8192 178.384 38.9015 5.65045 5.73911 8.41571 
164.492 159.167 160.752 160.223 159.658 155.996 150.26 152.863 153.043 149.163 129.362 152.467 35.0278 117.087 137.989 -29.6858 92.9634 139.856 -51.3758 64.0576 141.289 -50.6059 36.9234 149.205 -34.5556 65.4069 178.079 39.1302 5.5394 5.78393 8.35189 
165.394 157.761 158.945 158.403 157.86 158.137 149.507 150.706 149.917 145.754 131.248 153.656 36.4246 116.039 136.779 -29.0028 91.2034 137.814 -49.7196 62.203 139.058 -48.0491 35.5809 147.741 -32.1132 65.0997 178.239 39.2718 5.39378 5.98442 8.24102 
166.167 155.937 156.749 156.824 156.393 158.153 147.639 147.757 146.63 142.773 131.113 152.923 36.6841 113.661 134.445 -28.2281 88.7197 134.934 -47.7815 59.8311 136.526 -45.6401 33.8205 146.527 -30.2693 64.2907 177.857 39.1958 5.29801 6.05672 7.81181 
165.809 155.369 156.042 156.341 155.956 157.503 146.548 146.624 145.738 142.13 130.548 152.549 36.4531 112.584 133.254 -27.7601 88.0526 133.688 -46.9827 59.3181 135.549 -44.9762 33.4073 146.13 -30.0185 63.8517 177.485 39.0863 5.36721 5.95292 7.45563 
165.575 155.291 155.887 156.318 155.917 157.195 145.896 146.233 145.655 142.248 130.212 152.261 36.3596 111.659 132.012 -27.4766 87.603 132.541 -46.6755 58.9517 134.646 -44.9224 32.9931 145.59 -30.241 63.3786 176.978 38.869 5.49637 5.8643 7.18224 
165.316 155.297 155.843 156.344 155.96 156.863 145.372 146.13 145.94 142.731 129.7 151.67 36.1522 110.982 130.918 -27.2467 87.4844 131.552 -46.587 58.8636 133.833 -45.1961 32.7111 144.897 -30.7183 62.9065 176.259 38.6508 5.69604 5.79473 6.95369 
165.915 156.593 157.205 157.775 157.818 157.264 147.487 148.247 148.517 145.362 130.449 152.947 36.2287 110.252 130.251 -27.9153 86.7486 130.76 -47.3506 58.1815 133.398 -46.1623 31.9572 144.308 -31.2532 62.3935 175.473 38.9996 5.82481 5.6551 6.898 
166.899 158.464 158.494 159.079 159.409 157.968 149.947 150.31 150.864 147.665 130.875 153.422 36.4783 109.768 129.936 -28.6713 86.0433 130.077 -47.9098 57.4083 132.869 -46.724 31.0562 143.508 -31.2784 61.9747 174.99 39.4503 5.91695 5.6499 6.81604 
168.68 160.247 159.574 160.016 160.612 159.072 152.066 152.034 152.365 149.062 131.052 153.223 36.6524 109.214 129.694 -29.3847 85.2971 129.544 -48.3542 56.5541 132.019 -46.7694 30.1561 142.159 -30.7365 61.6097 174.567 39.8496 5.84013 5.6732 6.71769 
170.421 161.72 160.52 160.766 161.662 160.207 153.757 153.508 153.348 150.043 131.064 152.783 36.5453 108.524 129.166 -29.9534 84.4942 128.851 -48.7093 55.6796 130.701 -46.4893 29.4036 140.312 -29.9301 61.2842 174.071 40.151 5.62875 5.69159 6.63663 
172.223 163.17 161.515 161.515 162.7 161.571 155.295 154.893 154.101 150.903 131.421 152.795 36.4203 107.575 128.367 -30.5304 83.5306 127.983 -49.0501 54.6988 129.076 -46.0233 28.7048 138.266 -28.9916 61.0094 173.568 40.3665 5.35048 5.73691 6.50423 
173.651 164.073 162.117 161.989 163.461 162.613 156.117 155.81 154.414 151.415 131.78 152.858 36.1524 106.326 127.058 -30.782 82.5266 126.86 -49.1368 53.8236 127.255 -45.2886 28.2526 136.248 -27.963 60.8204 173.066 40.4774 5.01664 5.76393 6.33657 
174.944 164.96 162.946 162.704 164.35 163.299 156.918 156.871 154.969 152.247 132.203 153.052 35.9045 105.006 125.605 -30.9887 81.7292 125.638 -49.2641 53.2652 125.362 -44.6588 28.1381 134.305 -27.1464 60.6709 172.567 40.523 4.64808 5.76021 6.10031 
175.943 165.431 163.597 163.359 165.098 163.499 157.244 157.697 155.49 153.082 132.546 153.019 35.5106 103.708 123.754 -31.0218 81.3338 124.093 -49.3593 53.1418 123.244 -44.162 28.433 132.322 -26.6437 60.625 171.926 40.4255 4.26972 5.73948 5.85559 
176.845 165.575 164.039 163.801 165.675 163.859 157.178 158.257 155.814 153.775 133.277 153.241 35.2644 102.807 121.794 -30.8853 81.5015 122.308 -49.4069 53.5106 120.708 -43.6515 29.0664 129.767 -26.1843 60.6636 171.087 40.1499 3.96824 5.81248 5.76088 
177.484 165.494 164.489 164.232 166.215 164.272 156.773 158.726 156.171 154.493 134.546 153.995 35.4003 102.752 120.376 -30.534 82.4297 120.889 -49.4498 54.6446 118.339 -43.2421 30.1872 127.087 -25.7967 60.9521 170.331 39.8085 3.86698 5.87053 6.03021 
