178.146 165.918 165.101 164.776 166.635 164.358 157.073 159.298 156.855 155.455 135.566 154.646 35.5936 103.47 119.834 -30.5905 83.6764 119.546 -49.417 56.1518 115.887 -42.8688 31.4686 124.233 -25.4863 61.2578 169.516 39.6117 3.95005 5.87881 5.95987 
179.154 166.665 165.8 165.266 166.626 164.668 157.611 159.513 157.292 156.079 136.265 154.796 34.912 104.57 118.786 -31.3866 85.0111 116.589 -49.3812 57.7581 111.914 -42.638 32.9205 120.191 -25.6 61.3569 167.963 39.0396 4.00024 5.82859 5.11579 
179.727 167.989 166.591 165.91 166.905 165.134 158.609 159.865 157.831 157.006 136.746 154.581 34.13 105.343 117.946 -32.4785 85.9697 113.587 -49.1736 58.9163 108.173 -42.2034 34.0532 116.732 -25.7477 61.3924 166.727 38.403 4.16368 5.7942 3.92107 
179.807 168.734 167.084 166.237 167.104 165.919 159.009 159.849 158.053 157.569 137.601 154.899 33.6611 106.948 118.096 -33.6407 87.7678 111.702 -49.333 60.8356 105.558 -42.4172 35.7511 113.914 -26.4674 61.6666 165.795 37.4286 4.35412 5.76247 2.94526 
179.392 168.837 167.24 166.348 167.169 166.835 158.543 159.385 158.17 157.744 138.797 156.269 33.9277 109.423 119.27 -34.4684 90.5076 111.244 -49.758 63.4828 104.527 -43.4499 37.9741 112.03 -27.7412 62.1344 165.075 36.2937 4.40269 5.71562 2.41327 
178.249 168.991 167.277 166.36 166.949 167.152 158.013 158.697 158.303 157.6 139.877 158.441 34.4307 112.148 121.085 -35.1912 93.5422 111.432 -49.949 66.3569 104.396 -44.4797 40.218 110.878 -28.8283 62.8882 164.599 35.4072 4.56586 5.62061 2.01442 
176.834 167.48 166.692 165.119 165.738 166.309 156.818 158.049 156.983 155.858 140.411 161.15 35.0861 114.627 125.357 -35.7428 96.7211 114.066 -49.554 69.513 105.595 -43.8177 43.0308 111.139 -28.5721 63.8777 165.197 35.2636 4.58196 6.17391 1.87227 
174.854 165.666 166.345 164.364 164.985 165.742 157.291 157.23 156.058 154.554 141.662 165.552 36.0278 117.722 129.916 -35.9268 99.98 116.19 -48.1324 72.3004 107.32 -42.8333 45.0742 112.456 -27.9901 65.1383 166.273 35.5484 5.05826 6.48784 3.59144 
174.152 164.08 165.699 163.822 163.771 165.998 157.338 155.915 155.104 152.753 143.773 169.995 37.4837 120.838 133.434 -35.4354 103.148 117.932 -46.4022 74.9757 109.112 -41.829 46.5419 113.696 -26.9071 66.335 167.163 35.8707 5.94946 6.58669 5.1264 
172.64 163.4 166.064 163.682 162.653 165.432 157.556 156.148 155.468 152.666 144.741 172.348 38.3305 123.005 133.803 -34.5401 105.393 117.602 -45.3012 76.9411 109.099 -41.3957 47.3561 113.317 -26.4649 67.1549 166.788 35.9911 6.97079 6.48948 5.4679 
170.9 163.836 166.899 164.6 162.298 164.087 158.721 157.055 156.53 153.78 144.294 172.337 38.0365 124.917 132.756 -34.2895 107.4 115.069 -44.3945 78.9153 106.526 -40.8861 48.7496 110.515 -26.1637 67.6858 165.447 35.6786 7.40839 6.39563 6.23353 
169.963 163.838 167.045 164.642 161.945 162.92 159.187 157.285 156.52 153.588 144.219 171.896 37.8139 126.658 131.416 -33.8619 108.772 111.926 -42.9907 80.075 103.375 -39.6062 49.7047 107.354 -25.1737 68.3263 164.016 35.6014 7.624 6.50758 7.47479 
169.272 163.902 167.044 164.994 162.009 161.681 159.669 157.79 156.873 153.504 144.116 171.483 37.2666 128.288 130.013 -33.5067 110.051 109.155 -42.002 81.2001 100.543 -38.7108 50.9006 104.445 -24.2366 68.9871 162.932 35.3423 7.48449 6.60732 8.35381 
168.597 163.649 166.554 165.134 161.954 160.965 159.668 157.747 156.71 152.933 144.324 171.756 36.7857 129.806 129.064 -33.3522 111.192 107.091 -41.3201 82.3384 98.2974 -37.9337 52.0865 102.079 -23.3704 69.6713 162.174 34.8846 7.35471 6.67254 9.14423 
168.269 163.464 166.169 165.253 161.949 160.356 159.69 157.702 156.493 152.358 144.427 172.054 36.2472 130.751 128.539 -33.2317 111.799 105.764 -40.7727 82.9428 96.8444 -37.1287 52.8386 100.613 -22.358 70.2136 161.932 34.6572 7.19148 6.74029 9.74405 
168.595 163.178 165.703 165.19 161.82 160.757 159.451 157.341 155.894 151.53 145.136 172.677 35.9879 131.417 127.962 -33.1411 111.955 104.601 -40.2875 82.9586 95.5858 -36.201 52.8015 99.4738 -21.2261 70.6888 161.809 34.4898 7.29342 6.92518 10.3053 
168.998 162.962 165.296 164.944 161.655 161.452 159.048 157.053 155.367 150.839 146.338 173.697 35.8745 132.423 127.481 -32.9514 112.407 103.795 -40.0299 83.178 94.5982 -35.5356 52.8004 98.4504 -20.2671 71.3399 161.811 34.2315 7.58314 7.19171 10.6127 
169.367 163.155 165.145 164.965 161.909 162.045 158.684 157.053 155.409 150.934 147.576 174.436 35.6288 133.525 126.385 -32.788 113.143 102.741 -40.0578 83.7664 93.5455 -35.5921 53.1726 97.2539 -20.1604 72.0065 161.55 33.6851 7.80296 7.28066 10.5346 
169.697 163.857 165.494 165.52 162.643 162 158.739 157.688 156.297 151.918 148.397 174.271 34.6772 134.47 124.766 -32.8063 114.02 101.502 -40.4511 84.6527 92.5166 -36.2847 54.0406 96.1148 -20.6655 72.7266 161.203 32.9915 7.76955 7.14871 10.0279 
169.227 164.561 165.835 166.043 163.292 161.032 159.016 158.234 156.951 152.811 148.647 173.476 33.1676 135.707 123.92 -33.2234 115.592 100.878 -41.0853 86.4888 91.8159 -37.0427 56.0603 95.1672 -21.4325 73.5878 160.961 32.0939 7.47337 6.9384 9.5291 
169.35 164.873 165.879 166.327 163.42 160.8 159.4 158.469 157.161 153.175 149.277 173.171 32.1916 137.433 123.844 -33.7262 117.574 100.613 -41.661 88.7808 91.219 -37.544 58.4233 94.3443 -22.0596 74.617 160.85 31.1634 7.22821 6.80981 9.46818 
170.133 165.01 165.882 166.515 163.47 161.285 159.872 158.638 157.236 153.342 150.431 173.332 31.969 139.382 124.227 -34.0651 119.584 100.774 -42.1289 91.0124 91.0635 -37.9044 60.583 94.055 -22.6036 75.7377 161.021 30.3674 7.11591 6.77177 9.59551 
170.184 165.067 165.923 166.653 163.615 161.165 160.187 158.718 157.445 153.77 151.321 173.227 32.1884 141.116 124.797 -33.9834 121.671 101.173 -42.0536 93.2579 91.34 -38.1097 62.6958 94.2939 -23.2918 76.7755 161.414 29.952 7.01034 6.66453 9.60541 
169.654 165.261 166.046 166.803 163.841 160.526 160.476 158.879 157.826 154.55 152.106 172.658 32.317 142.847 125.25 -34.1046 124.029 101.54 -42.1111 95.8198 91.5799 -38.5993 65.33 94.499 -24.4428 77.8771 161.738 29.3274 6.70363 6.50312 9.45352 
169.531 165.382 165.96 166.882 164.096 160.401 160.632 158.837 158.024 155.23 153.074 172.453 32.15 144.474 125.351 -34.3766 126.185 101.484 -42.177 98.1257 91.3105 -39.0381 67.9257 94.3104 -25.5889 78.9791 161.825 28.5391 6.25982 6.42506 9.42225 
169.549 165.166 165.426 166.618 163.849 160.687 160.386 158.263 157.549 155.116 154.449 172.816 31.5891 146.021 124.89 -34.7427 128.001 100.757 -41.9306 100.078 90.4317 -38.7243 69.962 93.6897 -25.9668 80.2083 161.709 27.5197 6.11589 6.40734 9.60224 
169.123 165.058 164.792 165.151 163.316 162.71 159.451 157.204 155.5 153.725 156.915 173.114 31.7236 146.999 123.47 -34.7996 129.275 99.5296 -41.119 100.972 88.5969 -36.8775 70.1884 92.1011 -24.562 81.0118 161.251 26.4098 6.7739 7.00275 9.47731 
168.814 165.457 164.171 164.377 163.107 162.242 159.913 156.208 154.352 152.843 157.872 173.385 32.0768 148.693 124.302 -34.3804 130.958 100.043 -39.9648 102.775 88.6578 -35.0551 71.7588 92.2896 -23.1229 82.2784 162.165 26.4112 6.9511 7.23731 9.8448 
164.488 166.638 163.327 164.297 163.782 161.343 161.285 155.919 154.058 153.048 158.813 175.75 31.6833 150.527 125.107 -33.5823 132.95 100.274 -38.0226 104.714 88.2487 -32.5404 73.6153 91.8624 -21.0382 83.2031 162.873 26.4611 6.91959 7.66078 10.5077 
162.334 168.11 162.273 163.793 163.459 160.863 162.678 155.847 153.884 152.938 159.641 177.347 31.2053 151.561 124.537 -33.3128 133.896 99.2919 -36.5805 105.364 86.96 -30.6965 74.0558 90.7734 -19.5088 83.6095 162.688 26.3264 7.06004 8.0585 11.1326 
162.175 168.952 161.568 163.241 163.298 160.828 163.427 155.896 153.874 152.938 160.878 179.118 30.4328 152.812 124.579 -33.1976 135.153 99.0052 -35.616 106.242 86.3026 -29.3214 74.9183 90.1446 -18.1103 84.2691 162.897 26.1261 7.0834 8.46269 11.46 
161.814 169.358 161.585 163.31 163.48 160.739 163.896 156.505 154.455 153.472 162.16 181.04 30.0072 154.226 124.842 -32.7618 136.619 99.1911 -35.1286 107.061 85.9826 -28.5521 75.6724 89.7853 -17.0297 85.1269 163.433 26.1388 7.18665 8.98507 11.2474 
163.027 169.441 161.593 163.383 163.619 160.576 163.969 156.94 154.851 153.644 163.339 182.272 29.2449 155.006 124.561 -32.5417 137.408 99.0686 -34.7532 107.587 85.6986 -27.7476 76.1584 89.6969 -15.9012 86.0031 163.953 26.0985 7.26577 9.2416 10.9824 
164.374 169.358 161.698 163.546 163.777 160.432 163.874 157.3 155.259 153.81 164.581 183.151 28.6034 155.876 124.476 -32.3649 138.328 99.1114 -34.5235 108.315 85.6345 -27.1984 76.8534 89.7805 -15.0123 86.9929 164.511 26.0565 7.33797 9.41036 10.7031 
165.876 169.028 161.749 163.709 163.846 160.317 163.62 157.601 155.668 153.95 165.546 183.696 27.9367 156.354 124.182 -32.1866 138.876 99.0428 -34.3183 108.824 85.6986 -26.7874 77.2176 89.9019 -14.1865 87.8692 164.927 26.1507 7.5452 9.39212 10.3783 
167.112 168.854 161.893 163.946 163.866 160.316 163.503 157.97 156.013 153.962 166.387 184.141 27.5488 157.174 124.162 -31.9659 139.755 99.2563 -34.2635 109.682 85.9819 -26.619 77.9324 90.1088 -13.6207 88.8685 165.299 26.2004 7.73265 9.38805 10.06 
168.247 168.649 162.071 164.311 163.82 160.648 163.549 158.253 156.345 153.963 167.06 184.826 27.0546 157.987 123.796 -31.7859 140.659 99.2152 -34.3022 110.727 86.0775 -26.701 78.8273 90.0412 -13.3815 89.8677 165.37 26.1222 7.91177 9.23734 9.67231 
169.913 167.41 161.231 164.346 162.962 160.605 163.209 157.793 155.873 153.131 168.011 185.811 25.9121 159.535 124.926 -32.4623 142.487 100.168 -34.3211 112.955 86.7959 -26.6939 81.2456 90.1224 -13.1157 91.31 165.511 25.5545 7.88419 9.1128 9.92383 
170.904 165.773 160.559 164.307 162.341 160.179 162.041 156.946 155.401 152.685 169.161 186.067 24.3731 160.64 124.949 -33.1923 143.843 100.231 -34.4429 114.407 86.7906 -26.854 82.893 89.9097 -13.1976 92.828 165.267 24.7554 7.8832 9.11811 10.083 
171.293 166.76 160.374 163.836 162.114 160.723 162.185 156.775 155.39 152.625 170.087 186.219 23.5469 160.724 124.21 -33.2384 143.965 99.8437 -34.459 114.242 86.7433 -26.9997 82.6409 89.7836 -12.9319 93.7517 165.108 24.8723 8.24339 9.1329 9.7932 
171.094 165.271 160.098 163.911 161.732 160.477 160.779 156.008 154.836 151.968 171.155 185.646 22.7928 161.504 124.104 -33.4132 144.685 100.156 -34.5149 114.909 87.1347 -27.1079 83.3796 90.1251 -12.8832 95.0487 165.008 24.5962 8.38275 9.2156 9.75008 
170.826 164.015 159.931 164.118 161.247 160.175 159.334 155.253 154.257 151.132 172.437 185.429 22.7181 162.802 124.398 -33.3427 146.02 100.61 -34.3514 116.286 87.6743 -27.1756 84.8718 90.5568 -12.7653 96.5354 165.033 24.3597 8.38361 9.19543 9.86802 
170.38 162.578 159.389 163.818 160.785 159.936 157.788 154.272 153.365 150.38 173.862 185.523 22.7606 163.914 124.514 -33.1952 146.969 100.698 -33.9482 117.269 88.1849 -27.0375 85.6813 91.0802 -12.7736 98.015 165.091 24.2704 8.6182 9.07528 10.2854 
170.14 161.447 158.969 163.528 160.652 160.145 156.449 153.288 152.435 149.731 175.344 185.543 22.734 164.745 124.498 -32.9356 147.544 100.66 -33.3864 117.882 88.7185 -26.624 86.0333 91.7281 -12.5891 99.4069 165.279 24.3618 8.95548 8.92381 10.7252 
170.327 160.783 159.121 163.727 160.983 160.739 155.744 152.664 151.895 149.344 176.556 185.246 22.048 165.09 124.045 -32.6042 147.56 100.286 -32.6929 117.97 89.1254 -25.9956 86.0596 92.4971 -12.044 100.712 165.654 24.601 9.14567 8.67689 11.0338 
169.377 162.542 160.331 164.001 162.542 160.755 156.266 152.034 151.578 149.755 176.01 183.435 20.488 163.85 122.586 -32.088 146.248 99.711 -32.0369 116.855 89.4251 -25.0987 85.2441 93.198 -10.6966 101.619 166.227 25.141 9.22908 8.36083 10.4283 
167.39 163.621 161.273 163.926 163.294 161.067 157.217 153.096 152.098 150.366 175.757 182.866 20.4172 163.999 122.348 -30.3604 146.086 100.133 -31.1718 116.501 90.1471 -23.9665 85.299 94.3963 -9.63216 102.344 167.322 26.5643 8.87662 8.44251 9.62355 
165.789 164.642 162.069 163.71 164.144 159.625 156.755 152.102 151.347 150.385 174.798 181.213 19.6484 163.969 122.793 -29.2575 146.043 101.231 -30.1423 116.488 91.598 -22.6633 85.6445 95.877 -8.14155 103.309 168.693 27.3808 8.82383 8.37808 8.97415 
167.363 165.818 163.436 164.641 165.211 159.912 157.62 152.377 151.379 150.292 174.561 180.576 21.2144 165.692 125.545 -27.8197 148.223 104.027 -28.6017 119.356 94.3936 -21.4648 88.8385 98.5795 -7.01187 104.814 171.366 28.8493 8.2606 7.80592 8.7856 
169.754 166.118 163.886 164.814 165.72 159.685 157.785 152.13 150.708 149.58 175.029 181.003 23.0996 167.084 128.252 -26.4552 149.801 106.917 -27.2449 121.695 97.5684 -20.2403 91.5838 101.682 -5.93417 106.177 174.176 30.2714 7.69664 7.15456 8.53775 
170.876 166.427 164.522 165.106 166.209 159.148 158.014 152.219 150.698 149.492 175.967 182.193 25.2816 168.512 131.345 -24.9842 151.458 110.253 -26.0581 124.204 101.172 -19.3633 94.533 105.065 -5.09123 107.521 177.257 31.7914 7.10258 6.39237 8.07809 
169.931 166.396 164.757 164.982 166.255 157.943 157.893 152.259 150.481 148.779 176.529 183.973 27.2384 170.552 134.715 -23.3186 154.148 113.942 -25.0632 128.157 105.055 -18.8843 98.7202 108.578 -4.65378 109.185 180.302 33.0206 6.50249 5.38388 7.45971 
168.611 165.797 164.427 164.323 165.568 156.968 157.17 151.645 149.569 147.16 177.415 186.519 28.9769 172.483 138.177 -21.7344 156.701 117.791 -23.928 131.639 109.004 -18.0076 102.358 112.191 -3.79344 110.775 183.316 34.1036 6.08194 4.71971 7.00673 
167.228 165.225 164.098 163.81 165.134 156.381 156.761 151.212 148.917 145.843 178.402 188.934 30.4951 174.026 141.347 -20.6114 158.714 121.18 -22.927 134.34 112.493 -17.1037 105.261 115.551 -2.81629 112.249 186.148 35.1605 5.69993 4.26989 6.87275 
165.975 164.522 163.573 163.124 164.33 156.02 156.349 150.803 148.257 144.586 179.725 191.973 31.8012 175.619 144.321 -19.5574 160.708 124.244 -21.9842 136.836 115.564 -16.1731 107.919 118.488 -1.90056 113.644 188.712 36.0386 5.39815 3.99035 6.77913 
165.235 164.147 163.566 163.075 164.297 156.068 156.498 151.081 148.249 144.109 181.012 195.135 33.2835 177.02 147.248 -18.565 162.421 127.267 -21.228 138.807 118.591 -15.428 109.946 121.388 -1.15032 114.904 191.265 37.0431 5.25073 3.86127 6.66119 
161.695 163.251 162.825 162.62 163.457 156.691 156.165 150.778 148.465 144.516 182.757 200.098 34.1642 178.652 150.715 -17.3316 164.85 130.448 -19.7425 141.445 121.349 -14.4707 112.241 124.124 -1.3577 116.525 193.726 37.9054 5.20012 3.86413 7.17356 
159.816 162.044 161.921 162.058 162.706 156.21 155.715 150.373 148.477 144.82 183.895 204.084 35.1091 180.078 154.324 -16.1559 166.739 133.666 -18.2533 143.33 124.099 -13.2478 113.86 126.819 -1.08032 117.813 196.262 38.8903 5.32273 4.03581 7.71678 
158.975 161.288 161.6 162.056 162.461 155.527 155.921 150.56 149.056 145.684 184.901 207.222 35.9911 181.963 157.7 -15.1029 169.003 136.637 -17.0955 145.626 126.569 -12.4446 115.998 129.127 -1.13634 119.151 198.489 39.6164 5.4107 4.12975 8.04119 
159.442 160.817 161.584 162.237 162.569 155.294 156.297 151.059 149.716 146.589 186.123 210.084 36.8991 183.823 160.663 -14.0555 171.102 139.286 -16.1787 147.708 128.926 -11.8096 117.976 131.441 -1.27395 120.423 200.64 40.3286 5.47775 4.19578 8.20331 
159.923 160.797 161.88 162.599 162.97 155.228 156.986 151.718 150.358 147.318 187.238 212.912 38.0951 185.331 163.461 -13.0377 172.681 141.805 -15.2132 149.215 131.316 -10.9735 119.378 133.906 -1.02781 121.537 202.839 41.2866 5.57105 4.29748 8.4645 
160.202 161.038 162.324 163.123 163.512 154.93 157.804 152.415 150.961 147.737 188.15 214.999 39.4139 186.849 165.931 -12.259 174.219 144.054 -14.453 150.7 133.467 -10.2454 120.911 136.142 -0.575359 122.56 204.829 42.048 5.41432 4.41482 8.7261 
160.63 161.252 162.657 163.557 163.985 154.358 158.077 152.697 151.29 147.968 189.197 216.869 40.5624 188.478 168.111 -11.465 175.951 146.087 -13.7656 152.461 135.453 -9.67309 122.776 138.202 -0.320743 123.72 206.517 42.4658 5.1853 4.45264 8.8906 
160.869 161.978 163.238 164.263 164.815 153.714 158.623 152.93 151.62 148.323 189.932 218.333 41.6091 189.89 169.976 -10.6192 177.459 147.798 -12.7313 154.027 137.171 -8.69367 124.488 140.059 0.332085 124.768 208.174 43.025 4.92233 4.46754 9.17884 
160.895 162.275 163.174 164.405 165.059 153.24 158.628 152.492 151.108 147.801 190.811 220.02 42.8522 191.366 171.864 -9.56807 179.058 149.472 -11.3321 155.739 138.865 -7.34737 126.302 141.876 1.22602 125.807 209.705 43.6387 4.67178 4.49628 9.66843 
160.476 162.698 163.527 164.66 165.276 152.281 158.734 152.49 150.869 147.26 191.273 221.478 44.3629 192.943 174.07 -8.37737 181.033 151.596 -9.9983 157.824 140.956 -6.04944 128.531 144.053 2.30317 126.883 211.383 44.5177 4.23303 4.56858 10.0332 
159.76 163.111 163.897 164.858 165.372 151.659 158.877 152.649 150.78 146.905 191.854 223.22 45.9163 194.438 176.413 -7.26977 182.976 153.827 -8.80407 159.856 143.047 -4.82537 130.656 146.117 3.42374 127.918 213.089 45.4004 3.86216 4.70205 10.3422 
158.987 163.496 164.206 164.92 165.37 151.2 158.864 152.806 150.657 146.525 192.666 225.262 47.8658 196.049 178.999 -5.78057 185.031 156.447 -7.46858 161.971 145.548 -3.49329 132.818 148.531 4.68153 129.012 215.08 46.5079 3.54598 4.81689 10.4148 
158.61 163.762 164.463 164.895 165.118 151.176 158.835 153.026 150.5 146.162 193.676 227.826 49.5532 197.736 181.523 -4.26594 187.253 159.06 -6.18716 164.244 147.979 -2.2337 135.137 150.807 5.78528 130.113 216.943 47.5307 3.27084 4.93721 10.3804 
158.595 164.126 164.931 165.214 165.278 151.036 159.147 153.589 150.935 146.513 194.18 229.873 51.0307 199.1 183.69 -2.7038 189.174 161.393 -4.91515 166.293 150.159 -1.19225 137.234 152.751 6.67813 130.88 218.511 48.6085 3.04738 4.86699 10.1867 
158.334 164.545 165.441 165.522 165.479 150.819 159.371 154.246 151.57 147.254 194.842 231.588 52.766 200.37 185.696 -1.12461 190.898 163.67 -3.84443 168.17 152.348 -0.438049 139.154 154.718 7.32562 131.679 220.099 49.824 2.88065 4.72656 9.83492 
158.151 165.029 165.875 165.839 165.831 150.715 159.54 154.836 152.232 148.222 195.553 233.205 54.5499 201.387 187.825 0.340062 192.282 166.068 -2.92983 169.703 154.634 0.231085 140.676 156.722 7.92087 132.363 221.827 51.1221 2.8726 4.57836 9.39867 
157.899 165.074 165.862 165.682 165.664 151.21 159.39 155.11 152.382 148.604 196.909 235.075 56.4378 202.652 189.443 1.86302 193.602 167.842 -2.04828 171.035 156.279 0.954703 141.938 158.222 8.42954 133.227 223.179 52.2167 2.99098 4.57122 8.94012 
158.359 165.159 165.941 165.693 165.872 151.965 159.412 155.592 152.857 149.393 198.239 236.8 58.5648 203.439 190.503 3.28261 194.199 168.989 -1.24756 171.503 157.436 1.55548 142.193 159.299 8.89989 133.91 224.334 53.5145 3.34483 4.54015 8.53078 
160.397 165.107 166.017 165.727 165.915 153.972 159.372 155.924 153.407 150.262 200.054 238.638 60.5443 204.428 191.123 4.77436 194.871 169.731 -0.536961 172.077 158.044 1.97726 142.438 159.621 9.27312 134.494 225.056 54.6533 3.88824 4.42368 7.76336 
160.981 164.893 165.846 165.475 165.627 154.92 158.991 156.079 153.524 150.677 201.464 240.311 62.3781 205.813 191.998 6.28833 196.079 170.566 0.294345 173.218 158.576 2.68946 143.409 159.858 9.80914 135.326 225.551 55.6866 4.18672 4.52491 7.30127 
161.151 164.546 165.963 165.55 165.671 155.389 158.843 156.638 154.147 151.51 202.477 241.762 64.0971 207.112 192.779 8.04564 197.273 171.428 1.21896 174.359 159.3 3.27324 144.379 160.354 10.2052 136.209 226.04 56.9018 4.47725 4.48929 6.7552 
161.315 164.091 165.845 165.592 165.808 155.617 158.687 157.24 154.99 152.543 203.298 242.725 65.6778 208.401 193.086 9.86075 198.532 171.956 2.17752 175.489 159.714 3.68202 145.265 160.497 10.4727 137.036 226.181 58.0223 4.81358 4.4268 6.13062 
161.464 163.651 165.691 165.381 165.723 156.148 158.258 157.41 155.093 152.839 204.474 243.709 66.9746 209.477 192.872 11.4043 199.21 171.758 3.10194 175.901 159.413 4.52338 145.563 160.2 11.2639 137.93 226.18 59.0123 5.05986 4.5856 5.72478 
162.225 163.178 165.472 165.201 165.779 156.706 157.808 157.442 155.086 153.082 205.769 243.835 67.97 210.078 191.874 12.5235 199.253 170.667 3.91561 175.613 158.349 5.46479 145.234 159.329 12.2946 138.745 225.852 59.8594 5.26253 4.77445 5.54541 
162.779 162.927 165.677 165.394 165.914 156.744 157.783 157.921 155.452 153.444 206.643 243.956 68.9201 211.174 191.635 13.7224 200.311 170.538 4.67455 176.519 158.164 6.08752 146.118 159.098 12.884 139.667 225.566 60.7327 5.31931 4.85513 5.28919 
163.296 162.79 165.717 165.384 165.829 157.194 157.658 158.27 155.824 154.003 207.527 244.245 69.9038 212.053 191.124 14.9243 200.89 169.985 5.42363 176.989 157.612 6.58933 146.438 158.44 13.3224 140.338 225.113 61.652 5.59434 4.84016 5.07366 
163.923 162.62 165.309 165.009 165.618 157.634 157.236 157.945 155.58 154.059 208.585 243.979 70.4085 212.369 189.674 15.889 200.555 168.441 6.29112 176.492 156.394 7.36191 145.835 157.451 14.0336 140.957 224.465 62.4889 5.91911 4.76562 5.08517 
164.135 162.712 165.049 164.77 165.447 157.432 156.954 157.501 155.125 153.734 209.252 242.332 70.4483 212.587 187.677 16.4631 200.296 166.378 7.08599 176.179 154.604 8.33379 145.608 155.955 15.094 141.533 223.364 63.0213 5.90136 4.7239 5.21679 
163.979 162.912 164.87 164.589 165.405 157.079 156.633 157.094 154.691 153.447 210.035 240.768 70.6285 213.094 186.01 17.0158 200.637 164.721 7.93012 176.497 153.086 9.37594 146.006 154.604 16.1809 142.311 222.381 63.4858 5.85345 4.71786 5.27577 
163.947 162.988 164.933 164.679 165.297 157.215 156.841 157.312 154.866 153.476 211.041 240.292 71.356 214.288 185.056 17.8354 201.755 163.729 8.70955 177.505 152.059 10.0574 146.955 153.525 16.9329 143.273 221.525 64.0949 5.84861 4.78499 5.31122 
164.531 163.481 165.338 165.052 165.524 157.172 157.439 157.436 154.936 153.286 211.961 239.292 71.5187 215.403 183.726 18.1387 203.106 162.403 9.55816 178.94 150.896 10.9417 148.465 152.498 17.8479 144.385 220.554 64.5515 5.60596 4.69022 5.5462 
165.086 163.933 165.575 165.298 165.676 157.145 157.737 157.521 155.132 153.445 212.976 237.97 71.0036 216.688 182.126 18.3518 204.455 160.78 10.1709 180.44 149.312 11.5195 150.142 150.879 18.5092 145.583 219.301 64.6454 5.42214 4.53025 5.53796 
165.165 164.094 165.22 164.963 165.46 157.047 157.818 157.108 154.763 153.071 214.109 237.366 70.8591 218.224 180.978 18.9341 205.906 159.592 11.24 181.937 148.149 12.4427 151.785 149.727 19.2554 146.879 218.294 64.8848 5.34977 4.45199 5.69411 
165.259 163.98 164.25 164.33 164.986 157.224 157.119 156.069 154.098 152.615 215.201 237.045 70.4193 220.108 180.469 19.5479 207.988 158.983 12.3997 184.152 147.195 13.3308 154.014 148.312 19.9651 148.13 217.281 64.9141 5.43587 4.41246 5.75094 
