173.835 167.849 168.114 167.282 167.819 170.478 152.357 159.431 161.873 162.025 101.033 196.461 -2.27768 93.1879 146.054 -49.6097 87.2762 113.691 -53.411 76.2112 92.933 -34.6556 63.6411 84.4303 0.94977 40.4356 167.12 26.0573 10.2269 6.69998 8.41853 
176.024 167.36 168.042 166.96 167.494 170.873 152.052 159.527 161.854 162.093 102.552 196.927 -1.85316 94.5339 146.059 -49.1424 88.9736 113.973 -53.1296 77.7835 93.3675 -34.5021 64.804 84.3153 1.11858 41.2611 167.121 26.1153 10.5413 6.60129 8.1576 
177.638 166.698 167.805 166.675 166.931 171.003 151.966 159.439 161.724 161.809 104.037 197.424 -1.4481 95.9826 145.712 -48.7812 90.7841 114.052 -52.6356 79.5321 93.6629 -34.0876 66.1225 84.3891 1.52709 42.2359 167.325 26.2567 10.6863 6.44921 7.70063 
178.802 166.243 167.683 166.481 166.516 171.278 151.986 159.569 161.783 161.69 105.56 197.095 -1.34701 97.6222 144.579 -48.4022 92.6397 113.298 -52.1052 81.3027 93.2685 -33.533 67.4336 84.1286 2.00973 43.3887 167.259 26.1898 10.6852 6.27389 7.32855 
179.198 165.967 167.498 166.283 166.205 171.109 152.227 159.647 161.759 161.558 107.119 196.542 -1.4678 98.9789 143.133 -48.4677 94.2614 112.293 -51.7325 83.0097 92.5923 -33.0175 68.7859 83.6565 2.50403 44.6711 167.083 26.0324 10.6911 6.10446 6.83926 
178.076 165.747 167.303 166.089 165.905 170.462 152.236 159.673 161.691 161.434 108.659 195.854 -1.41743 100.508 142.055 -48.2855 95.9797 111.544 -51.2814 84.9277 92.1616 -32.4306 70.3699 83.4424 2.94772 46.0003 167.009 25.9086 10.6133 5.9139 6.53779 
175.823 165.349 167.061 165.778 165.337 169.481 151.851 159.469 161.387 160.923 110.067 194.525 -1.35144 102.114 140.927 -47.9204 97.8224 110.72 -50.7047 86.9718 91.6421 -31.7292 72.1507 83.1705 3.40123 47.2382 166.618 25.6893 10.4638 5.74175 6.31196 
173.442 165.036 166.945 165.596 165.012 168.444 151.197 159.386 161.241 160.625 111.148 192.377 -1.64186 103.757 139.54 -47.6005 99.5959 109.38 -50.3532 88.7893 90.5864 -31.3178 73.8631 82.364 3.66055 48.3713 165.657 25.1979 10.3669 5.6492 6.39318 
169.596 164.651 166.808 165.613 164.999 167.074 150.277 159.298 161.364 160.599 112.046 191.647 -1.75348 105.765 139.513 -47.2295 101.857 108.951 -50.0814 91.034 90.0715 -31.0739 76.2122 81.8575 4.00652 49.4988 165.049 24.7152 10.4359 5.74896 6.78072 
166.165 164.328 166.585 165.604 165.035 166.226 149.396 159.193 161.462 160.587 112.758 190.983 -2.3348 107.399 139.26 -46.9635 103.491 108.153 -49.9607 92.5203 89.219 -31.0127 77.8704 81.0241 4.29275 50.5046 164.32 24.1966 10.5894 5.882 7.32123 
164.057 164.525 166.646 165.982 165.609 165.995 148.894 159.552 162.074 161.158 113.517 190.182 -2.86208 109.117 139.345 -46.6632 104.861 107.409 -50.1085 93.533 88.3611 -31.3237 79.0763 80.2442 4.27369 51.5172 163.854 23.7736 10.703 6.09021 8.18178 
162.415 164.619 166.636 166.231 165.971 165.821 148.183 159.731 162.428 161.44 114.278 189.423 -3.19253 110.603 139.538 -46.1442 106.047 106.921 -50.1104 94.4688 87.6648 -31.4288 80.1865 79.625 4.34856 52.3439 163.488 23.5125 10.7417 6.31404 8.96209 
159.335 164.028 166.133 166.178 166.008 164.976 146.387 159.503 162.57 161.471 115.567 188.604 -3.05979 113.477 139.673 -44.8185 108.958 106.213 -49.6856 97.0841 86.4751 -31.2923 82.8615 78.2835 4.59006 53.8565 162.223 23.2286 10.8286 6.66401 9.96311 
157.988 163.367 165.693 165.953 165.927 164.511 145.385 159.238 162.428 161.368 115.907 188.466 -3.50156 114.405 139.454 -44.1312 109.816 105.734 -49.4757 97.7183 85.9172 -31.2045 83.5825 77.7483 4.70022 54.4897 161.714 23.109 10.8525 6.81923 10.4114 
156.988 162.695 165.418 165.879 165.997 164.008 144.234 159.087 162.429 161.421 116.307 188.37 -3.91476 115.473 139.408 -43.4122 110.787 105.28 -49.4718 98.3927 85.3343 -31.376 84.3958 77.1307 4.66179 55.2198 161.171 22.9704 10.9296 7.03805 11.0552 
156.12 162.153 165.288 165.993 166.189 164.109 142.753 159.079 162.587 161.593 116.906 188.155 -4.47169 116.593 139.651 -42.616 111.671 104.788 -49.6987 98.9273 84.6426 -31.7202 85.1427 76.4486 4.59083 55.9694 160.671 22.6924 11.0613 7.34881 12.0939 
155.361 162.824 165.039 165.997 166.239 164.12 141.789 158.876 162.601 161.575 117.566 188.792 -4.80856 117.727 140.389 -42.0975 112.858 105.109 -49.8478 100.04 84.5679 -31.8964 86.452 76.2608 4.7152 56.7497 160.528 22.4976 11.2411 7.64766 12.7786 
155.005 163.392 164.814 165.967 166.249 164.351 140.569 158.6 162.582 161.557 118.178 189.482 -5.07958 118.836 141.659 -41.4693 114.186 105.949 -50.118 101.276 84.8433 -32.2957 87.902 76.2232 4.54189 57.4731 160.363 22.2456 11.4406 8.0302 13.5671 
154.707 163.28 164.496 165.861 166.18 164.585 139.052 158.295 162.529 161.51 118.739 190.086 -5.14366 119.849 142.963 -40.6954 115.419 106.79 -50.3197 102.435 85.1384 -32.6296 89.1872 76.206 4.36112 58.082 160.233 22.0326 11.6042 8.36442 14.3701 
154.385 162.941 164.077 165.649 166.012 164.664 138.201 157.932 162.35 161.308 119.233 190.576 -5.11685 120.842 143.602 -40.2872 116.698 107.23 -50.339 103.697 85.1491 -32.7857 90.4561 75.9326 4.28749 58.6093 159.838 21.7962 11.7391 8.5798 14.7221 
153.918 162.295 163.64 165.422 165.802 164.782 137.556 157.56 162.124 161.062 119.673 191.189 -5.13805 121.772 143.984 -39.9928 117.855 107.468 -50.2952 104.821 85.045 -32.8512 91.5485 75.612 4.31035 59.1579 159.496 21.6362 11.8567 8.7496 14.9305 
153.563 161.84 163.325 165.262 165.661 164.976 137.766 157.422 162.013 160.914 120.089 191.712 -5.32612 122.556 143.565 -40.3279 118.809 107.11 -50.3999 105.858 84.5273 -32.9522 92.5317 74.9828 4.35701 59.7585 159.001 21.4368 11.964 8.76524 14.7126 
153.364 161.922 163.166 165.161 165.541 165.404 138.215 157.306 161.889 160.749 120.492 192.196 -5.65976 123.4 143.013 -40.7662 119.775 106.704 -50.5236 106.851 83.9811 -33.1102 93.4268 74.2928 4.34398 60.3836 158.467 21.2452 12.0803 8.77664 14.4042 
153.247 161.751 162.911 165.046 165.406 165.838 138.333 157.067 161.698 160.533 120.85 192.633 -6.1535 124.231 142.564 -41.0589 120.82 106.399 -50.5651 107.892 83.4935 -33.2055 94.2979 73.6827 4.29279 61.0491 157.964 21.0154 12.1579 8.84616 14.1514 
153.656 161.591 162.816 165 165.334 166.233 138.391 156.925 161.552 160.383 121.29 192.618 -6.71543 124.824 141.97 -41.348 121.568 105.952 -50.5997 108.688 82.9934 -33.2065 94.9633 73.1525 4.26439 61.7121 157.492 20.8435 12.1862 8.86364 13.9246 
153.923 161.538 162.728 165.064 165.429 166.736 138.299 156.88 161.596 160.438 121.812 192.756 -7.13683 125.719 141.732 -41.4491 122.588 105.67 -50.6995 109.737 82.5516 -33.3473 95.8904 72.6603 4.10225 62.4423 157.082 20.5862 12.1938 8.92574 13.9431 
154.288 161.3 162.646 165.118 165.537 167.341 138.236 156.887 161.67 160.564 122.243 192.99 -7.44805 126.594 141.487 -41.4719 123.574 105.34 -50.7493 110.706 82.0374 -33.4561 96.7357 72.0518 3.9855 63.1007 156.636 20.4107 12.2174 9.00494 13.9737 
154.884 160.743 162.649 165.196 165.631 167.897 137.826 156.837 161.662 160.572 122.615 192.716 -7.78911 127.278 141.114 -41.1753 124.289 104.853 -50.6805 111.337 81.4545 -33.4592 97.2441 71.4453 3.93229 63.5709 156.12 20.2984 12.2081 9.07199 14.1507 
155.477 160.17 162.625 165.248 165.654 168.43 137.476 156.698 161.567 160.449 122.96 192.29 -8.04963 127.846 140.595 -40.8715 124.971 104.41 -50.4781 112.019 80.9678 -33.3296 97.7355 70.9689 3.92176 63.9618 155.604 20.22 12.1463 9.07342 14.1471 
155.764 159.619 162.407 165.14 165.457 168.652 137.254 156.413 161.308 160.142 123.264 192.034 -8.29114 128.303 140.044 -40.7569 125.587 104.069 -50.1915 112.733 80.6412 -33.0703 98.185 70.6846 3.97476 64.3608 155.248 20.1732 12.0544 9.01276 13.9251 
155.978 159.211 162.096 164.972 165.166 168.687 137.378 156.024 160.978 159.747 123.484 192.277 -8.53793 128.719 139.619 -40.9823 126.288 103.975 -49.8682 113.588 80.5205 -32.7395 98.7743 70.5307 4.14949 64.7786 154.997 20.1393 12.0364 8.95855 13.4317 
156.024 158.889 161.801 164.79 164.866 168.641 137.406 155.687 160.672 159.392 123.64 192.556 -8.8503 129.115 139.212 -41.22 126.904 103.777 -49.6564 114.379 80.3342 -32.4969 99.3934 70.2758 4.34993 65.1913 154.676 20.088 12.084 8.8941 13.0859 
156.22 158.805 161.623 164.73 164.681 168.744 137.4 155.401 160.462 159.131 123.82 192.797 -9.1382 129.556 139.051 -41.3456 127.529 103.76 -49.4305 115.198 80.2878 -32.2711 100.11 70.1368 4.52426 65.6055 154.424 20.0818 12.1139 8.85011 12.8638 
156.54 158.681 161.504 164.71 164.553 168.799 137.351 155.21 160.29 158.907 124.031 192.789 -9.45848 129.975 138.723 -41.3701 128.064 103.512 -49.1606 115.915 80.1058 -31.9452 100.718 69.947 4.77966 65.981 154.134 20.0787 12.1183 8.7761 12.7298 
156.978 158.521 161.425 164.699 164.433 168.989 137.224 155.073 160.13 158.697 124.229 192.684 -9.79104 130.402 138.364 -41.3261 128.543 103.127 -48.8992 116.555 79.8229 -31.6076 101.232 69.6774 5.0351 66.3062 153.773 20.0543 12.1183 8.69197 12.7128 
157.518 158.627 161.457 164.765 164.431 169.19 137.35 155.063 160.086 158.634 124.462 192.773 -9.90278 130.922 138.186 -41.2054 129.076 102.909 -48.5513 117.216 79.6874 -31.1799 101.773 69.5275 5.42919 66.6293 153.589 20.1296 12.1544 8.62182 12.704 
158.15 158.639 161.56 164.871 164.478 169.596 137.529 155.234 160.134 158.668 124.69 192.858 -10.0732 131.408 137.822 -41.1901 129.495 102.372 -48.3154 117.749 79.318 -30.797 102.233 69.1756 5.88562 66.939 153.31 20.1802 12.2313 8.51489 12.7642 
159.054 158.836 161.758 164.978 164.579 170.131 137.745 155.45 160.225 158.763 124.924 192.87 -10.2604 131.81 137.567 -41.1574 129.754 101.895 -48.17 118.04 78.948 -30.5163 102.521 68.8121 6.28627 67.1751 153.06 20.211 12.3355 8.47393 12.9278 
160.086 159.034 162.004 165.122 164.718 170.773 137.98 155.72 160.38 158.931 125.094 192.883 -10.358 132.101 137.249 -41.0843 129.904 101.402 -48.061 118.168 78.5391 -30.3205 102.683 68.3902 6.65364 67.3372 152.767 20.2972 12.4595 8.45502 13.0753 
161.122 159.148 162.208 165.182 164.795 171.24 138.101 155.903 160.448 159.021 125.189 192.725 -10.5245 132.173 136.857 -41.0036 129.819 100.851 -47.9481 118.066 78.0722 -30.0861 102.674 67.9398 7.08139 67.4024 152.427 20.4302 12.5911 8.4612 13.2415 
161.847 159.158 162.333 165.134 164.8 171.568 138.135 156.006 160.419 159.027 125.411 192.255 -10.5424 132.209 136.182 -40.8112 129.665 100.049 -47.702 117.863 77.4072 -29.7149 102.498 67.3564 7.59098 67.4217 151.977 20.5806 12.6911 8.44274 13.378 
162.348 159.087 162.459 165.059 164.792 171.843 137.966 156.096 160.343 158.973 125.627 191.18 -10.6453 132.126 135.163 -40.471 129.302 98.883 -47.4757 117.383 76.4443 -29.3914 102.096 66.5508 8.05981 67.3386 151.283 20.6782 12.7728 8.42824 13.6405 
162.389 158.826 162.445 164.935 164.742 171.942 137.532 156.043 160.216 158.88 125.832 190.2 -10.6519 132.019 134.495 -40.0627 128.96 97.9966 -47.2385 116.94 75.6824 -29.0897 101.735 65.936 8.45157 67.2644 150.728 20.7685 12.8257 8.4568 13.9863 
162.248 158.644 162.48 164.825 164.705 171.922 137.247 156.04 160.101 158.774 126.047 189.105 -10.5865 131.808 133.66 -39.8196 128.54 97.057 -47.1039 116.476 74.8987 -28.8404 101.381 65.335 8.76679 67.1634 150.133 20.8476 12.8359 8.44827 14.2056 
161.83 158.417 162.437 164.69 164.647 171.827 136.874 155.974 159.978 158.657 126.19 188.213 -10.532 131.635 133.119 -39.5722 128.222 96.3352 -46.9701 116.081 74.2427 -28.6383 101.097 64.8191 9.04107 67.0497 149.602 20.8913 12.8601 8.49455 14.4715 
161.158 158.242 162.344 164.557 164.583 171.543 136.626 155.907 159.891 158.576 126.311 187.643 -10.3747 131.469 132.704 -39.4872 127.994 95.8018 -46.9247 115.844 73.7373 -28.5329 100.959 64.42 9.20372 66.9659 149.174 20.9265 12.8621 8.52046 14.618 
160.495 158.203 162.315 164.514 164.582 171.289 136.694 155.912 159.878 158.553 126.381 187.249 -10.135 131.305 132.275 -39.5691 127.839 95.3724 -46.917 115.733 73.3212 -28.4772 100.941 64.0831 9.3064 66.8771 148.793 20.985 12.8372 8.50989 14.5773 
159.691 158.201 162.192 164.408 164.512 170.855 136.864 155.844 159.823 158.508 126.397 187.231 -9.84667 131.173 132.002 -39.8088 127.777 95.1225 -46.9592 115.755 73.0275 -28.4843 101.035 63.7982 9.35113 66.8319 148.481 21.0566 12.8294 8.50296 14.4422 
159.044 158.252 162.154 164.397 164.539 170.534 137.196 155.916 159.869 158.576 126.358 187.144 -9.52329 131.038 131.688 -40.0642 127.718 94.8411 -47.016 115.872 72.7435 -28.4866 101.241 63.5242 9.37884 66.7835 148.165 21.194 12.7788 8.43558 14.2799 
158.485 158.346 162.131 164.368 164.553 170.264 137.724 155.986 159.874 158.609 126.206 186.956 -9.27157 130.749 131.019 -40.4393 127.559 94.3186 -46.978 115.97 72.3133 -28.3314 101.432 63.157 9.54905 66.6771 147.727 21.4137 12.7007 8.30218 13.9402 
157.856 158.437 162.11 164.296 164.509 169.896 138.239 156.08 159.845 158.616 125.987 186.773 -8.99119 130.389 130.18 -40.7463 127.266 93.5828 -46.8179 115.958 71.7638 -27.9679 101.451 62.7295 9.9254 66.5508 147.301 21.7575 12.6261 8.1238 13.6075 
157.263 158.566 162.174 164.252 164.466 169.545 138.758 156.248 159.824 158.623 125.676 186.277 -8.86414 129.797 129.082 -41.1074 126.668 92.5614 -46.7012 115.69 71.0493 -27.5661 101.305 62.2445 10.3646 66.368 146.821 22.166 12.5204 7.90244 13.3128 
156.668 158.824 162.284 164.275 164.43 169.24 139.421 156.452 159.854 158.648 125.429 185.822 -8.63163 129.297 127.944 -41.4223 126.154 91.5218 -46.4475 115.504 70.3268 -26.988 101.201 61.8106 10.9737 66.2644 146.429 22.6764 12.3989 7.68256 12.9653 
156.349 159.145 162.521 164.361 164.453 169.149 140.078 156.799 159.958 158.715 125.247 185.078 -8.46675 128.832 126.559 -41.6056 125.557 90.2273 -46.2007 115.169 69.4396 -26.388 100.945 61.2844 11.6301 66.1587 145.976 23.1623 12.2853 7.44869 12.6972 
156.186 159.489 162.73 164.438 164.479 169.157 140.516 157.115 160.076 158.813 125.178 184.576 -8.23956 128.667 125.708 -41.5515 125.141 89.261 -45.9771 114.926 68.8162 -25.8864 100.823 60.9423 12.2448 66.1754 145.657 23.6108 12.2459 7.28197 12.7426 
156.276 159.781 162.903 164.487 164.497 169.351 140.719 157.346 160.142 158.875 125.085 184.239 -8.14874 128.701 125.248 -41.3618 124.886 88.5122 -45.8108 114.789 68.3098 -25.534 100.849 60.6017 12.7167 66.1986 145.291 23.949 12.2456 7.1764 13.0261 
156.519 160.125 163.108 164.587 164.565 169.692 140.852 157.6 160.25 159 124.95 183.944 -8.13059 128.812 125.05 -41.1131 124.685 87.938 -45.7494 114.679 67.9084 -25.3661 100.935 60.2755 13.0258 66.1967 144.92 24.2173 12.2743 7.10356 13.4537 
156.785 160.459 163.315 164.663 164.619 170.026 140.887 157.828 160.33 159.087 124.785 183.451 -8.19876 128.857 124.691 -40.8338 124.366 87.2019 -45.7898 114.465 67.3595 -25.3123 100.965 59.8335 13.2077 66.1273 144.404 24.4141 12.2705 7.02161 13.9472 
157.061 160.769 163.476 164.721 164.634 170.308 140.855 157.996 160.374 159.119 124.616 183.13 -8.26368 128.964 124.394 -40.5272 124.169 86.5489 -45.8557 114.41 66.8635 -25.286 101.144 59.4382 13.3412 66.0887 143.855 24.578 12.2514 6.94239 14.4395 
157.323 161.077 163.673 164.815 164.665 170.588 140.876 158.169 160.454 159.188 124.387 182.991 -8.31696 129.017 124.243 -40.3118 123.961 86.061 -46.0008 114.363 66.453 -25.3614 101.343 59.0932 13.3631 66.0373 143.373 24.7307 12.2229 6.89049 14.8956 
157.519 161.326 163.906 164.937 164.742 170.837 140.985 158.442 160.613 159.357 124.225 182.83 -8.25409 129.028 123.935 -40.1733 123.736 85.4605 -46.18 114.354 65.9674 -25.4517 101.558 58.7171 13.3696 66.0185 142.923 24.883 12.1703 6.79917 15.2645 
157.676 161.497 164.093 165.03 164.804 171.113 141.064 158.69 160.753 159.517 124.134 182.519 -8.07545 128.983 123.384 -39.9565 123.45 84.7185 -46.2235 114.285 65.3654 -25.3873 101.651 58.2618 13.5099 66.0209 142.462 25.1256 12.1128 6.69888 15.5353 
157.85 161.627 164.363 165.195 164.946 171.491 141.245 159.044 161.008 159.786 124.17 182.002 -7.77476 128.942 122.583 -39.7206 123.163 83.8148 -46.1958 114.225 64.6137 -25.2314 101.691 57.7118 13.7528 66.0555 142.001 25.4109 12.0493 6.58729 15.7013 
157.955 161.769 164.672 165.396 165.125 171.895 141.437 159.398 161.28 160.084 124.394 181.132 -7.35974 128.885 121.675 -39.3882 122.75 82.77 -46.0104 113.97 63.7529 -24.9279 101.491 57.086 14.1297 66.114 141.593 25.7643 11.9935 6.48062 15.8911 
158.091 161.907 165.004 165.63 165.367 172.308 141.58 159.745 161.561 160.414 124.734 180.025 -6.8996 128.904 120.794 -39.0094 122.394 81.7098 -45.7743 113.751 62.8365 -24.5486 101.306 56.3781 14.5592 66.2144 141.127 26.0949 11.9566 6.41505 16.1369 
158.172 162.082 165.294 165.906 165.648 172.617 141.84 160.075 161.873 160.741 125.226 178.835 -6.29657 129.119 120.004 -38.5868 122.27 80.8404 -45.4906 113.73 62.0692 -24.1643 101.24 55.7849 14.9494 66.3982 140.746 26.3923 11.912 6.3566 16.3046 
158.152 162.444 165.533 166.175 165.932 172.689 142.177 160.391 162.184 161.056 125.639 177.916 -5.71224 129.393 119.684 -38.2339 122.187 80.3691 -45.3291 113.84 61.6543 -23.8892 101.406 55.4872 15.2154 66.6303 140.516 26.6812 11.8579 6.31298 16.5927 
158.109 162.881 165.669 166.396 166.146 172.62 142.45 160.644 162.433 161.292 125.971 177.182 -5.17359 129.778 119.691 -37.7922 122.19 80.1874 -45.2201 114.055 61.5344 -23.7083 101.706 55.4482 15.3802 66.8492 140.411 26.9521 11.7977 6.25579 17.0006 
158.083 163.304 165.762 166.573 166.325 172.532 142.583 160.809 162.6 161.457 126.265 176.609 -4.8752 130.293 119.907 -37.3615 122.322 80.0542 -45.1886 114.458 61.4728 -23.5973 102.247 55.4467 15.4765 67.0843 140.244 27.1119 11.736 6.19021 17.5703 
158.192 163.724 165.856 166.722 166.477 172.572 142.565 160.92 162.709 161.569 126.523 176.104 -4.59026 130.819 120.298 -36.7494 122.394 79.9983 -45.1725 114.725 61.4501 -23.5175 102.662 55.4349 15.5678 67.2304 140.051 27.2712 11.7142 6.16111 18.3128 
158.468 164.098 165.904 166.856 166.621 172.702 142.541 161.012 162.792 161.643 126.746 175.894 -4.36577 131.437 120.789 -36.2034 122.804 80.1065 -45.1129 115.361 61.5828 -23.434 103.436 55.5063 15.7089 67.433 139.811 27.4144 11.7349 6.10673 18.8932 
159.243 164.506 166.003 166.96 166.766 173.314 142.191 161.236 162.93 161.843 126.882 175.931 -4.13374 132.325 121.109 -35.2418 123.377 79.6189 -44.9035 116.279 61.1088 -23.0882 104.538 54.9862 16.1902 67.7461 138.974 27.7967 11.7903 6.06558 19.8705 
159.289 164.654 165.895 166.896 166.732 173.461 141.681 161.263 162.919 161.867 127.095 175.941 -4.21933 132.699 121.217 -34.8024 123.395 79.3324 -45.0552 116.338 60.8276 -23.1786 104.667 54.6692 16.2908 67.9506 138.687 27.8013 11.9259 6.07122 20.4719 
159.186 164.72 165.729 166.8 166.667 173.451 141.219 161.223 162.858 161.814 127.455 175.938 -4.19354 133.223 121.191 -34.3111 123.64 79.0523 -45.0228 116.538 60.5652 -23.112 104.865 54.3822 16.5058 68.282 138.407 27.858 12.057 6.08274 20.9266 
159.017 164.785 165.549 166.734 166.621 173.385 140.976 161.089 162.781 161.728 127.876 175.741 -4.07164 133.69 121.308 -33.9625 123.868 79.0411 -45.0566 116.709 60.5145 -23.1718 105.027 54.2873 16.5209 68.5439 138.245 27.8248 12.1411 6.10539 21.2791 
158.831 164.73 165.383 166.651 166.549 173.195 140.698 160.902 162.634 161.547 128.262 175.423 -4.08194 134.126 121.378 -33.5574 124.088 79.0356 -45.0531 116.919 60.5394 -23.175 105.224 54.3018 16.5237 68.7404 138.066 27.7125 12.1853 6.09889 21.6522 
158.702 164.666 165.158 166.57 166.449 172.887 140.808 160.588 162.426 161.261 128.768 175.14 -3.99412 134.678 121.579 -33.3866 124.655 79.4298 -45.0858 117.454 60.9032 -23.3403 105.684 54.5745 16.3197 68.9792 137.984 27.493 12.209 6.07715 21.7175 
158.503 164.56 164.883 166.435 166.289 172.449 140.949 160.226 162.171 160.914 129.122 175.043 -3.86729 135.087 121.822 -33.327 125.257 79.9957 -45.0844 118.068 61.4215 -23.4612 106.219 54.9966 16.1286 69.1507 137.972 27.3021 12.2053 6.05936 21.5939 
158.287 164.458 164.573 166.271 166.067 171.981 141.233 159.854 161.905 160.546 129.47 174.957 -3.86587 135.452 121.988 -33.4839 125.89 80.5677 -45.138 118.731 61.9765 -23.6473 106.8 55.489 15.8601 69.369 138.023 27.0598 12.1705 6.0219 21.3214 
158.063 164.323 164.278 166.116 165.841 171.47 141.581 159.393 161.621 160.134 129.888 174.753 -3.84201 135.852 122.19 -33.745 126.689 81.3307 -45.211 119.393 62.587 -23.9623 107.327 55.9725 15.3879 69.5808 138.063 26.7096 12.1138 6.05922 20.8855 
157.841 164.156 164.044 165.956 165.623 170.983 141.821 158.973 161.342 159.749 130.337 174.448 -3.90057 136.178 122.413 -34.0911 127.365 82.0717 -45.4028 119.867 63.1698 -24.4209 107.694 56.4219 14.7659 69.7807 138.151 26.2557 12.0587 6.11729 20.5014 
157.547 163.908 163.74 165.683 165.288 170.483 141.868 158.564 160.987 159.291 130.772 174.1 -4.0941 136.489 122.429 -34.485 127.938 82.5317 -45.6124 120.195 63.5504 -24.8569 107.835 56.7193 14.1648 69.9659 138.206 25.6993 12.0172 6.15797 20.1477 
157.265 163.68 163.426 165.422 164.937 170.083 141.908 158.13 160.627 158.806 131.252 173.798 -4.22275 136.806 122.508 -34.9177 128.522 83.1051 -45.829 120.493 64.0133 -25.3406 107.918 57.0599 13.558 70.1425 138.366 25.1236 12.0163 6.20773 19.7179 
157.047 163.517 163.141 165.223 164.653 169.761 141.952 157.629 160.248 158.311 131.613 173.503 -4.44737 137.036 122.585 -35.3891 129.128 83.8098 -45.97 120.824 64.5739 -25.7944 108.04 57.4401 12.9795 70.2308 138.535 24.5372 12.0342 6.26722 19.1371 
157.235 163.557 162.902 165.079 164.517 169.69 142.23 157.238 160.026 158.078 131.792 173.902 -4.94683 137.293 122.856 -36.3036 129.987 84.6393 -46.3033 121.508 65.1324 -26.4165 108.542 57.6959 12.3101 70.3671 138.644 23.8256 12.1194 6.37158 18.3846 
157.45 163.645 162.84 165.029 164.529 169.591 142.635 157.092 160.01 158.081 131.772 175.068 -5.55512 137.341 123.514 -37.4949 130.678 85.7616 -46.8875 122.103 65.9476 -27.2179 109.12 58.2156 11.5215 70.5133 139.072 23.151 12.199 6.50064 17.6392 
157.6 164.271 162.875 165.03 164.595 169.371 143.286 156.919 160.014 158.105 132.068 175.814 -6.21712 137.248 123.841 -38.872 131.075 86.7392 -47.4327 122.135 66.6695 -28.0495 109.036 58.656 10.7232 70.6624 139.733 22.3919 12.3533 6.66712 16.6897 
157.554 164.598 162.789 164.856 164.474 168.998 143.38 156.573 159.784 157.953 132.316 175.824 -7.09661 136.858 123.944 -40.1044 130.918 87.3572 -47.9925 121.595 67.1687 -28.822 108.4 59.0135 9.91156 70.685 140.399 21.5698 12.4589 6.82493 16.0193 
157.46 164.478 162.729 164.732 164.412 168.64 143.416 156.252 159.577 157.836 132.115 176.514 -8.14188 136.485 124.245 -41.44 131.039 88.1878 -48.6209 121.573 67.8664 -29.6251 108.27 59.4768 9.01418 70.6402 140.945 20.7567 12.5122 6.90946 15.2398 
157.514 164.033 162.654 164.637 164.377 168.366 143.256 155.945 159.372 157.704 131.814 177.523 -9.26751 136.154 124.859 -42.5665 131.242 89.269 -49.1834 121.696 68.8089 -30.3268 108.327 60.1932 8.16039 70.6054 141.642 19.9979 12.518 6.99076 14.5684 
