138.002 177.698 174.931 175.055 170.197 130.315 173.67 170.625 170.188 167.311 -22.0085 169.898 55.1615 -6.31829 175.634 -29.6874 -12.7309 191.072 -42.2464 -22.5131 217.143 -34.8662 -32.1648 245.355 -9.75168 -25.539 223.923 66.2077 7.88768 3.92829 1.41458 
140.047 177.062 176.903 175.554 170.338 129.477 173.882 173.223 170.53 167.76 -24.8369 171.484 56.8863 -6.66421 172.705 -30.0252 -12.8967 195.037 -42.065 -21.592 216.104 -34.2034 -33.9596 243.405 -8.7497 -26.5562 224.552 67.5874 5.41761 1.1172 3.87048 
141.706 176.82 178.414 175.518 170.511 129.606 173.867 174.475 170.166 168.72 -26.3493 170.909 59.8499 -7.33178 169.433 -30.0395 -12.6446 196.609 -41.324 -21.2523 215.237 -34.0313 -36.1948 243.176 -8.31289 -27.6857 225.112 68.5482 5.5647 1.29133 6.3594 
143.237 176.563 178.682 175.928 170.679 132.415 173.511 174.82 170.359 169.706 -27.2597 169.23 62.9522 -8.94257 165.227 -28.905 -12.6574 196.688 -40.1068 -21.3413 213.594 -34.4414 -37.8114 243.013 -8.36551 -28.7916 224.966 69.2472 6.88635 1.99889 8.67792 
143.91 176.3 178.759 175.034 171.479 131.408 173.121 175.255 169.443 170.154 -28.7227 169.036 64.1819 -10.0699 162.534 -27.8111 -14.5926 196.603 -40.0341 -23.9358 213.515 -34.5997 -40.1779 243.684 -8.68229 -29.6254 226.211 69.2552 7.43357 1.93894 10.3608 
146.243 175.588 178.661 174.169 172.529 133.604 172.272 174.958 168.272 168.778 -28.8607 166.128 65.6929 -12.212 158.291 -25.9341 -17.0862 196.441 -39.7426 -27.6869 213.685 -35.219 -44.4365 245.04 -8.59081 -31.2446 227.929 69.0471 8.62464 1.79906 12.68 
143.757 175.644 178.504 175.009 172.584 133.493 172.084 174.222 168.353 166.833 -28.2897 168.298 64.6471 -12.6227 161.271 -25.5975 -15.424 197.061 -38.3381 -26.7057 215.007 -34.5061 -45.4828 245.254 -8.94137 -31.9026 228.685 69.5944 8.85652 1.21313 11.1136 
142.1 175.447 178.546 176.019 173.802 133.432 171.375 174.286 169.034 164.052 -28.3373 170.445 64.4116 -12.5053 164.017 -25.9709 -13.9711 197.978 -37.9622 -25.5698 214.041 -34.9536 -47.8979 249.36 -9.96521 -32.1812 228.25 69.8082 14.6285 1.78367 10.232 
141.991 175.366 178.129 177.033 174.267 134.993 170.965 173.474 169.773 159.981 -29.7004 170.075 65.3879 -11.5635 163.046 -25.9208 -12.7201 199.48 -37.3693 -24.0509 215.782 -34.6617 -44.6359 250.505 -9.73825 -32.4459 228.718 70.1184 13.4385 1.59283 11.2599 
150.152 174.27 179.974 174.979 174.583 154.799 177.946 179.7 178.271 177.84 -22.0419 161.588 73.7768 -0.724231 183.782 -24.7426 -16.2625 217.23 -44.2758 -12.0766 199.297 -29.6771 -13.8176 233.851 6.20081 -28.492 233.368 71.2221 38.7815 1.34391 35.7479 
145.751 176.825 176.139 172.746 161.31 129.159 170.129 171.428 166.702 161.027 -40.293 178.353 68.4836 -11.9903 152.451 -15.9136 -15.8141 194.656 -34.9056 -26.1219 224.661 -32.0252 -51.811 276.522 -8.0045 -34.0273 230.236 72.2288 30.0132 6.2959 15.3451 
149.966 174.27 179.97 174.699 174.27 153.78 177.944 179.677 178.167 177.725 -21.5946 161.8 72.1522 2.10635 180.211 -22.1192 -17.9792 218.334 -45.9868 -12.7961 210.184 -35.4022 -18.5434 235.357 3.50822 -29.6649 234.054 70.675 32.7813 5.0852 39.376 
145.623 174.27 179.961 174.733 177.697 140.609 177.962 179.79 178.179 175.656 -54.8672 170.143 75.815 -40.4311 187.85 -27.6168 -29.9195 214.624 -43.7044 -15.0661 221.703 -33.8634 -9.74702 254.814 5.6406 -35.8699 236.43 70.4996 29.5624 8.85074 21.3064 
145.623 174.27 179.995 174.611 174.27 148.874 177.951 179.826 178.137 177.712 -35.4633 166.5 69.6088 -9.80676 182.443 -22.5788 -21.4159 218.564 -45.7182 -23.0976 213.13 -34.5103 -21.754 223.346 0.956207 -29.7607 234.211 71.5984 21.3664 7.57981 36.8801 
145.623 174.27 179.917 174.707 178.242 151.659 177.95 179.472 178.176 178.416 -45.2987 168.756 76.6155 -17.6589 176.825 -20.4188 -24.5166 218.176 -47.0267 -20.2346 211.312 -33.0715 -16.5188 234.658 1.52652 -31.11 235.008 70.7403 30.6241 6.0337 39.9935 
158.558 169.628 179.924 174.895 179.266 144.036 176.3 179.579 178.242 152.042 -48.6767 176.406 69.0415 -38.5389 194.444 -28.7076 -27.3456 212.286 -44.6052 -17.2671 205.777 -31.2218 4.6292 226.527 10.1957 -32.6739 236.987 70.5447 30.43 5.87356 22.6864 
151.061 177.873 180 175.239 174.6 141.285 172.725 179.998 178.377 134.886 -50.6851 228.939 38.5983 -60.3176 245.095 -39.7393 -20.953 231.98 -42.4532 -2.47271 229.102 -25.0229 11.9236 250.736 17.0829 -33.2837 239.898 72.3338 29.4412 6.41272 14.4031 
128.33 174.27 180 175.226 171.921 146.609 152.146 180 178.411 146.284 -24.3944 286.125 53.0812 -38.5351 275.07 -20.8762 -21.5852 228.186 -41.0569 -12.5279 219.917 -25.9638 12.734 208.577 6.52101 -31.5375 237.068 72.3205 16.3935 4.72552 22.653 
147.721 174.27 179.995 175.128 177.239 161.606 139.501 179.988 178.335 173.835 -6.19783 292.669 55.5529 -22.2513 269.492 -14.0713 -19.5243 225.495 -41.6137 -12.9456 214.703 -30.0672 2.60831 184.026 -2.75677 -31.1244 235.437 71.4301 15.0332 4.03144 19.755 
149.983 174.27 179.994 175.046 174.27 146.628 178.905 179.976 178.3 177.74 -7.52679 291.922 57.8034 -29.3466 258.861 -22.489 -17.6913 223.958 -42.2321 -13.1093 212.501 -32.9078 -1.25753 177.441 -6.36003 -31.3985 234.686 70.8132 16.237 4.14222 10.4673 
151.155 174.711 179.992 175.076 174.27 139.08 178.117 179.963 178.307 177.742 -8.3543 289.072 60.1591 -26.9983 257.355 -27.0739 -17.0887 223.187 -42.863 -13.6231 210.814 -34.9134 -3.28037 180.138 -10.9643 -31.7724 233.964 70.2226 12.4286 4.07877 9.58415 
140.328 174.27 179.991 175.076 174.27 141.511 177.953 179.947 178.305 177.739 -7.75822 284.85 62.0534 -24.4203 255.271 -30.1525 -16.0093 224.341 -43.6007 -14.0998 211.428 -36.8543 -3.89842 185.283 -14.9269 -32.0307 233.282 69.4724 9.00143 4.49554 7.29443 
139.861 174.393 179.991 174.987 174.27 142.958 178.001 179.952 178.274 177.733 -7.75968 284.442 62.8122 -22.8917 254.437 -28.8778 -14.8717 224.992 -44.1826 -12.8634 212.655 -36.8459 -3.39552 187.928 -13.6033 -31.7133 232.612 69.1195 8.08678 4.65561 6.1117 
137.681 174.363 179.993 174.984 174.27 144.911 177.996 179.963 178.275 177.736 -7.08293 284.655 63.1711 -24.0105 253.555 -28.3883 -15.2176 226.247 -44.3572 -12.6194 213.099 -36.8509 -2.61 187.899 -14.264 -31.7859 232.093 68.7578 8.44279 4.07052 4.79652 
141.401 174.27 180 175.122 174.27 137.987 177.974 180 178.323 177.738 -8.32781 280.57 59.2731 -27.6382 244.312 -27.6777 -15.9352 224.5 -44.2479 -11.8332 211.297 -36.5399 -4.74028 184.617 -14.4287 -31.8208 231.728 68.733 8.50761 3.53351 3.10934 
144.375 174.27 179.995 175.107 174.27 133.632 177.973 179.976 178.317 177.738 -10.5299 279.077 57.6277 -26.9249 247.908 -27.0317 -15.674 223.099 -44.0439 -9.96229 209.288 -35.7608 -3.08602 183.745 -12.8687 -31.6943 231.988 69.0198 8.10532 2.99328 3.70527 
143.085 174.27 179.996 175.119 174.27 136.851 177.974 179.984 178.322 177.737 -9.63421 280.629 58.1149 -24.3898 248.108 -25.8608 -14.3399 223.401 -43.4851 -8.1888 209.263 -35.4542 -1.68918 179.995 -11.4222 -31.7217 232.077 68.9728 10.4866 2.81579 2.70184 
141.396 174.27 179.996 175.062 174.27 141.054 177.974 179.982 178.302 177.732 -9.82861 283.252 59.6044 -23.2833 247.493 -25.7201 -13.7666 223.4 -43.4856 -8.01208 210.112 -35.7772 -1.6765 180.968 -11.6877 -31.7565 231.739 68.5562 10.3671 3.38154 2.03897 
139.687 174.397 179.996 175.076 174.27 144.584 178.02 179.983 178.309 177.73 -8.83267 285.878 62.2719 -23.1961 249.601 -25.6037 -13.9453 224.892 -43.8851 -8.80452 211.172 -36.3362 -2.38068 182.907 -12.7589 -31.8945 231.833 68.1028 9.71587 3.14739 2.41712 
138.804 174.474 179.996 175.094 174.27 145.493 178.046 179.983 178.315 177.73 -8.09811 286.504 63.7194 -23.0553 250.55 -26.1414 -13.9042 227.173 -44.367 -9.0254 212.479 -37.0208 -2.57405 185.121 -13.9221 -32.1312 232.295 67.7027 9.01932 2.60536 1.65668 
139.046 174.671 179.996 175.126 174.27 147.521 178.116 179.982 178.327 177.736 -7.75039 286.547 62.9293 -24.2384 254.996 -26.6167 -14.8008 229.944 -45.2205 -10.12 213.71 -37.7563 -1.66651 186.435 -15.8873 -32.414 232.813 67.2638 9.16232 1.7875 3.28866 
145.051 174.704 179.995 175.165 174.27 149.247 178.132 179.977 178.339 177.739 -8.57512 288.814 60.8727 -26.143 257.595 -27.358 -15.9123 232.338 -45.8223 -11.2606 214.237 -38.2978 -0.774184 187.818 -17.1161 -32.6915 233.486 66.8688 9.1433 1.3147 3.93183 
139.801 174.767 179.997 175.171 174.27 148.821 178.232 179.984 178.342 177.739 -8.9372 290.388 61.9344 -26.8586 257.292 -27.497 -16.1236 234.159 -46.0329 -11.6116 214.266 -38.5508 -0.24608 188.23 -16.7434 -32.9784 234.256 66.6308 9.43409 1.69035 2.66517 
138.506 174.531 179.997 175.14 174.27 140.867 178.065 179.986 178.329 177.737 -11.7772 289.097 59.705 -27.5651 254.59 -28.7396 -15.6246 231.022 -46.2287 -11.2856 212.514 -38.3451 -2.19576 186.482 -14.8395 -33.1123 235.291 66.6638 9.20372 0.979485 3.49827 
147.485 174.27 179.997 175.188 174.27 137.679 177.971 179.988 178.344 177.741 -11.6117 287.201 56.6417 -27.938 255.877 -29.7492 -16.106 229.515 -46.675 -10.7966 211.444 -38.3053 -2.98061 185.805 -14.6343 -33.4804 236.741 66.7868 8.79933 0.253874 4.8265 
150.82 174.384 179.999 175.235 174.27 139.347 178.014 179.993 178.36 177.743 -11.2772 291.128 55.6746 -28.758 260.063 -29.4572 -17.5207 228.334 -46.5528 -11.011 209.933 -37.4729 -3.2827 182.543 -12.7666 -33.7958 237.814 66.9238 10.1451 0.823357 7.97085 
154.011 174.95 179.999 175.265 174.27 139.107 178.24 179.993 178.371 177.745 -11.291 292.203 54.9398 -29.2593 264.578 -28.7747 -18.079 227.352 -46.0324 -11.2362 208.609 -36.7005 -4.21525 181.35 -11.6239 -34.2106 239.218 67.2512 10.1387 1.17515 11.7104 
147.904 174.634 180 175.255 174.27 142.446 178.102 179.997 178.369 177.735 -11.6616 292.821 56.2551 -22.8445 253.821 -27.2532 -14.7915 229.358 -44.1743 -9.52021 209.363 -34.7367 -2.97952 184.204 -8.05645 -35.1409 241.331 67.634 9.44002 1.17575 1.33425 
144.476 174.425 180 175.267 174.27 145.957 178.029 179.997 178.375 177.727 -10.9954 295.448 57.7754 -22.4185 251.741 -26.4371 -14.6022 230.411 -44.0364 -11.129 210.953 -34.8803 -4.86985 186.166 -7.25806 -35.3801 241.448 67.654 9.35472 0.833572 1.09047 
145.709 174.27 179.999 175.28 174.27 148.497 177.974 179.998 178.38 177.723 -10.9573 297.453 58.052 -23.8023 252.67 -27.5961 -15.8706 231.914 -45.248 -12.7869 212.843 -35.7534 -6.72104 186.861 -7.667 -35.7689 241.593 67.2023 10.0246 0.885663 1.25871 
145.022 174.27 179.999 175.33 174.27 147.455 177.973 179.999 178.398 177.721 -11.9283 297.513 57.7736 -25.6487 254.279 -28.4758 -17.1353 233.595 -46.493 -14.3925 214.109 -37.1395 -8.412 187.231 -9.03836 -36.0121 241.496 66.597 10.3652 1.18668 1.45654 
143.36 174.27 180 175.33 174.27 144.936 177.97 180 178.399 177.717 -13.1024 296.082 57.2971 -26.7502 256.391 -29.4359 -17.8118 235.584 -47.0058 -15.1482 215.233 -38.0103 -10.392 188.483 -9.72992 -36.3861 241.478 66.1628 9.95103 1.56878 1.5566 
142.801 174.429 180 175.275 174.27 144.627 178.024 180 178.379 177.71 -14.7551 295.465 56.8245 -28.719 258.672 -30.2038 -19.1761 236.887 -47.5385 -15.9152 216.1 -38.9653 -13.0336 190.097 -10.0745 -36.7403 241.74 65.7344 9.29873 1.50232 2.1527 
141.915 174.57 179.998 175.195 174.27 144.654 178.073 179.997 178.351 177.704 -15.9234 294.659 57.0384 -30.5205 259.745 -30.6248 -20.5013 237.147 -47.8361 -16.506 217.122 -39.6106 -15.7802 192.343 -10.1254 -37.0825 241.928 65.5247 8.57006 0.84958 2.77714 
138.139 174.739 179.998 175.058 174.27 150.106 178.134 179.995 178.302 177.696 -17.8839 297.41 58.9134 -31.0316 260.319 -30.6066 -21.1965 237.065 -48.0964 -16.8879 218.447 -39.9462 -18.8512 196.106 -10.1383 -37.4266 242.479 65.3423 7.62456 0.299291 2.7935 
130.948 175.124 179.998 174.964 174.27 147.731 178.272 179.991 178.268 177.684 -20.2533 297.582 59.6852 -28.9251 258.631 -29.5993 -22.5911 235.667 -48.8165 -18.5581 219.235 -40.4203 -26.7751 207.493 -9.79627 -37.5953 242.786 65.0005 10.2088 1.58285 0.491709 
131.054 174.986 179.998 174.93 174.43 147.827 178.223 179.992 178.255 177.743 -20.5767 299.128 59.6034 -27.64 256.11 -29.7119 -24.4924 234.415 -50.3173 -20.0588 219.301 -40.8901 -32.88 218.114 -8.48633 -37.8683 243.401 64.4977 18.857 2.22574 2.69124 
131.793 174.622 179.997 174.911 174.27 147.566 178.092 179.99 178.248 177.678 -20.2393 299.66 58.829 -26.7766 253.474 -30.558 -25.3358 233.406 -51.54 -20.5456 219.777 -41.5357 -36.3947 228.491 -7.7068 -38.1031 243.851 63.7466 26.916 3.04202 4.4529 
132.497 174.27 179.997 174.897 174.27 148.377 177.966 179.989 178.243 177.678 -19.4081 301.367 58.5009 -28.4933 254.721 -32.7965 -25.8925 232.966 -52.5201 -20.5498 220.614 -42.0494 -37.7894 234.943 -6.85145 -38.3202 244.131 62.9741 31.5122 3.72703 3.1906 
132.304 174.27 179.996 174.901 174.27 147.918 177.964 179.966 178.244 177.682 -20.8974 302.219 58.1797 -30.5678 256.296 -34.9479 -25.7418 233.291 -53.098 -20.1457 221.847 -42.804 -37.9697 241.926 -7.14657 -38.3315 244.321 62.2545 35.3814 4.27765 1.57629 
131.959 174.27 180 174.924 174.27 150.609 177.961 180 178.252 177.68 -20.9578 303.692 57.5392 -33.0744 258.845 -37.9342 -25.9789 233.675 -53.6049 -19.2125 222.568 -43.2802 -35.3058 244.473 -7.58673 -38.4346 244.317 61.5285 35.7533 4.46433 2.76011 
126.732 174.27 180 175.018 174.01 156.402 177.959 180 178.287 177.57 -22.7205 304.717 58.2509 -36.5007 260.626 -40.3855 -26.3857 233.57 -54.1819 -18.3265 221.781 -43.6821 -28.3739 240.369 -10.3614 -38.7027 244.122 61.1293 30.3917 3.98124 4.79692 
126.292 174.27 180 175.142 174.027 159.148 177.959 180 178.33 177.578 -25.5176 304.608 57.2533 -36.359 260.405 -39.5606 -26.0833 234.203 -54.4006 -19.0031 221.378 -44.9565 -29.6751 239.853 -9.86291 -38.6845 244.344 60.8753 30.7813 3.21577 4.18264 
121.108 174.27 180 175.166 174.027 164.034 177.963 179.99 178.338 177.605 -33.5809 306.635 55.9637 -33.6175 248.686 -41.0055 -26.6064 230.239 -54.687 -20.0866 217.654 -44.8334 -26.9827 239.17 -12.0819 -38.8272 244.779 61.2253 29.3862 2.99399 1.8841 
154.712 173.536 172.986 172.539 170.534 148.251 169.762 169.403 167.909 163.287 -29.7355 179.869 47.4368 -23.3904 186.355 -35.9141 -32.6146 202.846 -47.0627 -44.0955 231.352 -40.7949 -55.1222 260.03 -17.8599 -38.3951 240.738 60.5681 8.94413 6.14845 1.35953 
158.482 170.181 170.973 169.335 166.777 149.486 165.982 165.766 163.615 158.177 -23.6612 175.216 46.199 -22.3614 187.91 -34.6672 -31.062 207.297 -47.8769 -43.5718 235.339 -41.1617 -57.4739 264.364 -18.0878 -37.6077 240.827 58.1317 10.1294 6.08764 2.94275 
159.989 170.804 172.47 170.202 166.392 150.36 166.151 166.757 164.714 159.282 -19.8196 175.453 46.6672 -21.5773 188.398 -33.2888 -30.6658 209.411 -47.8124 -43.1142 237.339 -40.9496 -57.7329 265.007 -18.0647 -37.3817 241.023 57.809 9.8282 6.32882 4.39643 
159.952 170.896 173.155 170.712 165.663 150.357 165.898 167.045 164.877 158.716 -17.9031 175.997 46.4144 -21.8709 188.692 -33.2205 -31.0574 209.578 -48.1652 -43.4854 237.199 -41.3023 -58.7596 264.301 -18.4392 -37.1107 240.874 57.1225 9.73197 6.2977 4.51072 
159.62 171.075 173.569 171.15 165.723 150.185 165.86 167.469 165.315 158.903 -17.28 176.24 45.7456 -22.2953 189.187 -33.7769 -31.1426 209.471 -48.7597 -43.6066 237.067 -41.7827 -59.2925 263.786 -18.8023 -36.9863 240.676 56.6319 9.59348 6.34267 4.15532 
159.43 171.31 173.837 171.583 165.983 149.958 166.017 167.791 165.653 159.142 -17.0856 177.063 44.7087 -22.6627 190.241 -34.7185 -31.2512 210.107 -49.4268 -43.6148 237.656 -42.3044 -59.3417 263.983 -19.2699 -36.9046 240.943 56.0477 9.40559 6.38574 3.84888 
159.153 171.176 173.691 171.557 165.613 149.899 166.121 167.812 165.594 159.211 -17.0047 177.047 43.9437 -22.4139 191.383 -35.6748 -31.039 211.42 -50.1723 -43.6322 239.091 -42.7146 -59.2989 265.329 -19.4556 -36.8693 241.173 55.6176 9.63437 6.51088 3.87287 
160.159 171.007 173.245 171.134 164.855 150.765 166.238 167.663 165.584 159.615 -16.5173 176.471 43.7152 -21.3647 192.493 -36.2292 -30.3552 213.289 -50.6789 -43.3798 241.102 -42.9583 -59.2142 267.283 -19.4335 -36.8055 241.57 55.3539 10.0135 6.6848 4.29929 
160.671 170.586 172.599 170.925 164.685 151.4 165.755 167.369 165.581 159.437 -15.5945 177.089 42.2825 -20.5908 193.806 -36.9273 -29.5816 215.458 -51.6103 -42.9559 243.343 -43.7623 -59.1103 268.811 -19.9064 -36.3496 242.15 54.4879 9.93622 6.92403 4.92159 
160.704 170.873 172.609 171.24 165.502 151.493 166.094 167.507 166.049 159.775 -15.0627 178.038 41.2377 -20.5481 194.303 -37.7086 -29.7158 215.998 -52.3079 -43.0701 243.851 -44.5539 -59.1716 268.831 -20.5932 -36.1726 242.572 53.9699 9.46537 6.94906 4.94881 
161.636 170.862 172.415 171.119 165.667 152.307 165.949 167.381 166.036 159.802 -14.9814 177.456 40.8473 -20.5459 194.009 -37.9323 -29.7939 215.941 -52.7417 -43.2986 243.908 -45.0983 -59.4437 268.698 -21.1261 -35.9677 242.653 53.5115 9.30807 7.06415 5.18466 
162.403 170.831 172.289 171.038 165.934 153.029 165.654 167.221 165.93 159.652 -14.9509 177.127 40.125 -21.0176 193.669 -37.9942 -30.1185 215.665 -53.0236 -43.6719 243.674 -45.5074 -59.8131 268.165 -21.5627 -35.7989 242.545 53.0255 9.04578 7.14432 5.32441 
162.591 170.965 172.441 171.165 166.194 153.313 165.696 167.355 166.125 160.245 -15.065 176.937 39.4583 -21.3425 193.478 -38.142 -30.4322 215.509 -53.3226 -43.9588 243.416 -45.951 -59.894 267.761 -22.1406 -35.677 242.386 52.6099 8.85403 7.13216 5.42972 
162.359 171.242 172.749 171.544 166.801 152.807 165.902 167.672 166.52 160.85 -15.2421 177.269 38.7127 -21.6336 193.393 -38.5183 -30.4646 215.377 -53.7219 -43.8532 243.22 -46.419 -59.5398 267.276 -22.6681 -35.5615 242.35 52.2107 8.47676 7.11614 5.44885 
162.629 171.391 172.913 171.742 167.017 152.68 166.143 167.865 166.775 161.118 -14.9344 177.111 38.4208 -21.5106 193.064 -38.9645 -30.3893 215.165 -54.1127 -43.7875 243.103 -46.8286 -59.3981 267.009 -23.0554 -35.4118 242.308 51.9035 8.29258 7.18281 5.52667 
162.469 171.566 173.188 172.006 167.319 152.284 166.428 168.176 167.123 161.545 -14.5894 177.127 38.0974 -21.261 192.909 -39.4643 -30.1 215.151 -54.5627 -43.3813 243.045 -47.2435 -58.8814 266.797 -23.466 -35.2029 242.227 51.6218 8.0932 7.14392 5.59618 
162.828 171.561 173.264 172.085 167.476 152.122 166.609 168.266 167.226 161.57 -13.9405 176.995 37.8544 -20.7893 192.534 -39.9143 -29.7894 214.892 -54.8965 -43.0465 242.872 -47.5552 -58.5259 266.577 -23.7453 -34.9565 242.075 51.372 7.99878 7.17449 5.62166 
163.021 171.65 173.345 172.205 167.528 152.127 166.998 168.455 167.386 161.661 -13.2324 176.4 38.2089 -20.123 191.999 -40.59 -29.5143 214.469 -55.4369 -42.846 242.547 -48.014 -58.314 266.408 -24.1496 -34.7023 242.071 51.1426 8.00255 7.15428 5.62246 
163.583 171.873 173.413 172.274 167.709 152.396 167.321 168.591 167.583 161.983 -12.4071 176.311 38.4549 -19.3095 191.874 -40.8149 -29.0252 214.493 -55.5617 -42.5391 242.545 -48.1877 -58.1352 266.529 -24.3589 -34.4057 242.245 51.0802 8.08307 7.12685 5.69841 
164.094 172.05 173.462 172.391 167.86 153.123 167.667 168.77 167.853 162.431 -11.6593 176.136 38.5786 -18.3673 191.68 -41.0054 -28.5904 214.552 -55.8421 -42.3697 242.461 -48.5603 -58.1834 266.625 -24.8063 -34.0412 242.463 50.9137 8.2395 7.04414 5.92456 
163.879 172.332 173.61 172.655 168.14 153.468 167.964 169.026 168.264 162.914 -11.2052 176.936 37.8947 -17.8692 192.131 -41.4689 -28.355 214.761 -56.278 -42.2165 242.594 -49.1347 -58.0667 266.776 -25.3769 -33.5924 242.875 50.4968 8.27737 7.05146 5.83064 
164.668 172.645 173.705 172.922 168.666 154.338 168.293 169.234 168.665 163.376 -10.3349 177.872 36.6206 -17.2562 192.888 -42.105 -28.0911 215.115 -56.7678 -42.1555 242.846 -49.7764 -58.0992 266.845 -25.8994 -33.0778 243.238 49.9173 8.23599 7.11077 5.64037 
165.561 173.043 174.059 173.381 169.577 155.361 168.628 169.59 169.205 163.94 -9.27436 179.002 34.7952 -16.9353 193.918 -42.7954 -27.9145 215.476 -57.4136 -42.0731 242.878 -50.6097 -58.2055 266.523 -26.6698 -32.5538 243.594 49.1082 8.05231 7.04709 5.29823 
167.149 173.184 174.19 173.576 169.928 156.897 168.511 169.641 169.454 164.224 -7.67736 180.154 32.8166 -16.2939 195.216 -42.9978 -27.3494 216.635 -57.7644 -41.9482 243.574 -51.1329 -58.5373 266.612 -27.1521 -32.0416 243.896 48.3437 7.95444 7.03534 5.37462 
169.631 172.051 173.465 172.975 169.482 159.144 166.561 168.423 168.666 163.265 -4.79749 182.559 28.9294 -15.629 197.958 -43.3387 -26.7793 219.491 -58.2624 -42.5375 246.126 -51.7996 -59.9169 267.836 -27.5099 -31.102 244.957 46.883 7.91105 7.48358 5.81804 
172.318 171.136 173.763 173.773 169.626 162.215 165.272 166.55 166.561 159.821 -2.75039 184.655 24.0461 -16.2992 201.901 -45.0366 -28.0145 221.38 -58.8289 -43.8189 246.381 -52.3054 -61.5262 267.336 -27.9593 -30.5521 245.937 44.8699 7.64128 6.73303 4.41274 
173.585 170.715 172.763 172.906 169.207 164.573 164.23 165.077 165.124 158.483 -1.13708 185.966 19.4847 -17.394 204.765 -46.912 -28.5657 223.176 -59.9714 -44.3096 247.276 -53.1849 -62.0654 267.906 -28.7141 -29.887 246.609 42.8855 7.75419 6.4125 3.7734 
174.372 171.159 172.025 172.508 169.094 166.504 163.938 164.05 164.358 158.001 -0.386137 187.118 16.4748 -18.6456 206.737 -47.8536 -28.8923 223.908 -60.6052 -44.4592 247.676 -53.7971 -62.1228 268.257 -29.435 -29.4409 247.505 41.4618 7.82821 6.41917 3.51437 
174.341 171.785 171.728 172.357 169.265 167.352 163.895 163.485 163.878 157.764 -0.135951 188.827 14.3248 -19.9726 208.031 -47.9173 -29.1161 224.224 -60.8351 -44.4812 247.674 -54.0661 -61.9489 268.191 -29.9329 -29.1188 248.512 40.5171 7.72968 6.41867 4.04532 
173.557 170.99 171.53 172.226 169.456 167.349 164.709 163.363 163.698 157.959 -0.247405 190.31 13.1868 -20.7221 209.584 -48.0848 -29.2893 224.541 -60.9757 -44.592 247.57 -54.198 -61.8053 268.155 -30.336 -28.9441 249.636 39.9806 7.62321 6.27269 4.28098 
172.624 168.88 171.52 172.159 169.738 166.687 165.566 163.496 163.671 158.047 0.104743 191.728 12.3295 -21.0714 211.183 -48.7325 -29.1655 225.077 -61.486 -44.6029 247.707 -54.5795 -61.644 268.262 -30.8531 -28.7795 250.743 39.2142 7.54418 6.14667 4.62288 
171.904 168.206 171.576 172.215 170.078 166.304 164.899 163.914 164.05 158.617 0.357777 192.711 12.2245 -21.7366 211.356 -48.1669 -28.7602 225.36 -61.9411 -44.3247 247.761 -55.0296 -61.4979 268.43 -31.4596 -28.7062 251.836 38.6338 7.6428 6.10848 5.87594 
171.435 169.088 171.861 172.539 170.695 165.787 164.752 164.766 164.858 159.556 0.449823 193.982 11.9913 -22.1691 211.034 -47.5182 -28.3238 225.429 -62.618 -44.0225 247.614 -55.684 -61.3827 268.326 -32.2304 -28.6383 252.816 38.0714 7.62324 6.03041 7.07533 
171.277 170.207 172.105 172.827 171.01 165.609 164.541 165.593 165.75 160.561 0.743094 194.789 11.8518 -22.5065 210.837 -46.9211 -28.0014 225.81 -63.3911 -43.9641 247.943 -56.3636 -61.5258 268.738 -32.877 -28.6948 253.631 37.6598 7.71667 6.022 8.12299 
171.188 171.461 172.272 172.979 171.141 165.378 163.539 166.191 166.435 161.196 0.994001 195.465 11.7651 -22.6985 210.788 -46.3464 -27.7128 226.549 -64.0212 -44.0141 248.579 -56.8582 -61.7422 269.277 -33.2759 -28.7632 254.403 37.4098 7.69627 5.97959 9.06153 
171.199 173.43 172.121 172.772 170.884 165.645 162.192 166.13 166.521 161.213 1.00303 195.721 11.5968 -23.318 210.456 -45.2092 -27.6319 227.227 -64.3511 -44.1374 249.369 -57.1917 -62.1742 269.983 -33.5396 -28.8787 255.134 37.1678 7.79637 6.12349 10.4354 
