160.514 127.816 158.521 160.434 163.996 162.79 117.441 150.916 156.431 157.874 -126.76 223.007 147.182 -158.067 202.828 133.817 -186.699 177.742 112.054 -175.563 146.417 104.715 -147.805 120.651 101.043 -89.0918 179.973 101.692 13.3025 11.2917 27.1125 
160.251 128.749 157.877 159.876 163.763 162.523 116.778 150.638 156.149 157.764 -126.719 222.588 147.192 -158.041 202.602 133.972 -186.761 177.439 112.015 -175.574 146.015 104.701 -147.804 120.17 100.906 -89.2249 179.682 101.738 13.4443 11.3546 27.3488 
160.186 129.876 157.695 159.664 163.573 162.385 116.304 150.543 155.952 157.59 -126.908 222.23 147.149 -158.105 202.284 134.148 -186.933 177.102 112.015 -175.689 145.695 104.752 -147.915 119.9 100.924 -89.4283 179.471 101.757 13.4551 11.3458 27.5938 
160.12 130.635 157.473 159.419 163.333 162.223 116.06 150.395 155.714 157.377 -127.36 221.926 147.26 -158.592 201.955 134.263 -187.234 176.714 112.171 -175.887 145.414 104.942 -148.071 119.78 101.031 -89.7749 179.467 101.896 13.4225 11.2884 27.4939 
160.152 131.84 157.433 159.344 163.312 162.058 116.135 150.311 155.61 157.289 -127.924 221.227 147.372 -159.06 201.19 134.414 -187.454 176.092 112.292 -176.015 144.969 105.056 -148.154 119.622 101.047 -90.0431 179.333 101.911 13.2839 11.197 27.3808 
160.176 132.485 157.558 159.367 163.288 162.091 116.264 150.4 155.63 157.183 -128.465 220.865 147.372 -159.411 200.542 134.516 -187.725 175.595 112.354 -176.191 144.632 105.131 -148.287 119.57 101.162 -90.2932 179.266 101.934 13.1048 11.1154 27.3703 
160.103 132.485 157.531 159.226 163.172 162.033 116.19 150.446 155.59 157.03 -129.044 220.872 147.343 -159.913 200.429 134.39 -188.082 175.3 112.366 -176.411 144.512 105.224 -148.441 119.664 101.299 -90.6198 179.448 102.03 12.9909 10.9985 27.2068 
160.105 132.696 157.693 159.262 163.217 162.037 116.068 150.527 155.627 156.985 -129.617 220.928 147.358 -160.199 200.39 134.45 -188.385 175.086 112.436 -176.6 144.405 105.357 -148.574 119.761 101.473 -90.9152 179.628 102.137 12.8748 10.9283 27.2607 
160.063 133.217 157.657 159.132 163.035 161.984 115.932 150.463 155.499 156.796 -130.18 221.357 147.413 -160.789 200.8 134.425 -188.756 175.115 112.513 -176.861 144.488 105.49 -148.757 119.901 101.655 -91.3057 179.976 102.343 12.8789 10.8886 27.0977 
160.176 135.66 157.667 159.151 162.986 162.059 116.279 150.458 155.487 156.772 -130.741 221.681 147.617 -161.626 201.154 134.601 -189.159 175.298 112.651 -177.212 144.661 105.577 -149.053 120.101 101.707 -91.7224 180.308 102.517 12.8852 10.9024 26.8349 
160.224 138.853 157.376 159.168 162.992 162.165 116.501 150.35 155.518 156.838 -131.2 221.833 147.94 -162.265 201.342 135.002 -189.503 175.676 112.791 -177.567 144.832 105.571 -149.341 120.202 101.631 -92.125 180.578 102.66 12.9659 11.0742 26.797 
160.344 141.654 156.602 159.234 163.184 162.325 116.475 150.206 155.692 157.102 -131.539 222.025 148.334 -162.407 201.599 135.719 -189.816 176.522 112.954 -178.002 145.15 105.515 -149.712 120.354 101.554 -92.509 180.86 102.755 13.0926 11.4834 27.267 
160.482 143.902 155.575 159.445 163.441 162.558 116.447 150.129 155.98 157.42 -131.816 222.392 148.767 -162.515 202.042 136.453 -190.185 177.678 113.193 -178.545 145.706 105.516 -150.211 120.708 101.624 -92.923 181.281 102.913 13.2046 11.9497 27.7442 
160.552 145.529 154.341 159.677 163.7 162.712 116.423 149.906 156.198 157.728 -131.958 222.798 149.177 -162.613 202.499 136.947 -190.45 178.864 113.401 -179.016 146.252 105.503 -150.651 121 101.619 -93.2606 181.628 103.017 13.3529 12.4263 28.0057 
160.666 146.729 153.396 159.888 164.006 162.764 116.427 149.861 156.482 158.073 -132.101 223.094 149.448 -162.836 202.928 137.202 -190.832 179.782 113.473 -179.59 146.815 105.461 -151.262 121.419 101.597 -93.6428 181.937 103.04 13.3783 12.6651 28.1553 
160.731 147.685 152.586 160.073 164.286 162.878 116.42 149.893 156.7 158.353 -132.208 223.543 149.683 -163.076 203.508 137.448 -191.194 180.674 113.569 -180.09 147.439 105.469 -151.777 121.846 101.683 -93.961 182.3 103.138 13.44 12.8355 28.2395 
160.646 148.261 151.817 160.226 164.39 162.889 116.155 149.799 156.716 158.395 -132.244 224.101 149.879 -163.306 204.126 137.57 -191.476 181.474 113.72 -180.507 148.045 105.574 -152.243 122.268 101.857 -94.2551 182.606 103.291 13.4996 12.9577 28.1923 
160.439 148.645 151.037 160.192 164.419 162.694 116.058 149.662 156.664 158.377 -132.216 224.779 150.03 -163.813 204.963 137.398 -191.745 182.228 113.763 -180.878 148.714 105.651 -152.671 122.849 101.975 -94.541 183.07 103.433 13.5133 12.9876 27.8437 
160.573 146.1 153.298 159.854 163.12 162.701 117.233 150.654 156.111 157.704 -131.585 225.744 150.82 -164.602 205.372 136.773 -192.618 183.29 113.117 -181.605 150.159 105.574 -153.527 123.777 102.32 -94.7131 183.601 103.507 13.6167 12.4086 27.3059 
160.623 143.917 155.103 159.176 161.824 162.475 117.568 151.299 155.47 156.998 -130.894 226.7 151.502 -164.998 205.971 136.401 -193.359 184.695 112.594 -182.277 151.81 105.557 -154.33 124.733 102.631 -94.8574 184.133 103.684 13.8703 11.9361 27.0319 
160.493 141.498 156.496 158.626 160.803 162.245 117.864 151.954 155.112 156.573 -130.255 227.52 152.246 -165.324 206.574 136.163 -194.014 186.006 112.194 -182.866 153.283 105.538 -154.982 125.561 102.853 -94.9912 184.683 103.89 14.1575 11.5805 26.8305 
160.165 138.795 157.8 158.432 160.059 161.985 118.523 152.63 154.985 156.297 -129.912 228.12 152.987 -165.906 207.074 135.975 -194.714 186.969 111.907 -183.468 154.495 105.51 -155.598 126.368 102.989 -95.214 185.257 104.128 14.3118 11.2178 26.501 
159.791 134.626 159.804 158.696 159.61 161.91 119.65 153.706 155.185 156.386 -129.58 229.129 154.346 -166.619 207.973 136.166 -195.87 188.651 111.648 -184.553 156.458 105.497 -156.691 127.798 103.228 -95.6581 186.383 104.549 14.4753 10.7898 26.4708 
159.194 131.34 161.215 159.454 159.777 161.859 120.622 154.47 155.614 156.639 -129.569 229.389 155.04 -167.088 208.45 136.398 -196.558 189.324 111.835 -185.261 157.315 105.701 -157.392 128.562 103.433 -96.0199 186.9 104.739 14.4181 10.5671 26.3596 
158.724 130.737 161.865 159.612 159.353 161.372 122.342 154.676 155.531 156.341 -129.798 229.939 154.982 -168.64 209.092 135.816 -197.011 189.647 111.928 -185.686 157.852 105.934 -157.829 129.14 103.572 -96.3704 187.321 104.92 14.3497 10.3351 25.0054 
158.379 129.759 162.142 159.634 158.983 160.949 123.735 154.776 155.446 156.11 -130.158 230.478 154.905 -170.004 209.667 135.26 -197.439 189.875 112.016 -186.083 158.253 106.127 -158.224 129.617 103.64 -96.7663 187.766 105.068 14.2938 10.1602 23.8454 
158.057 128.707 162.399 159.761 158.838 160.651 124.263 154.775 155.382 155.927 -130.582 230.819 154.835 -170.608 210.209 135.151 -197.813 190.192 112.072 -186.5 158.654 106.259 -158.668 130.055 103.711 -97.181 188.115 105.109 14.2488 10.0702 23.5755 
157.876 128.03 162.61 159.927 158.769 160.459 124.687 154.763 155.323 155.756 -130.911 231.277 154.875 -171.131 210.9 135.102 -198.209 190.733 112.12 -186.988 159.281 106.401 -159.204 130.688 103.929 -97.602 188.535 105.149 14.1815 9.97056 23.4298 
157.867 127.616 162.48 159.899 158.467 160.276 124.325 154.391 154.993 155.285 -131.129 231.475 154.608 -171.121 211.237 135.12 -198.296 191.043 112.078 -187.188 159.581 106.422 -159.453 130.952 104.007 -97.8701 188.607 104.973 14.1832 9.96834 23.6381 
157.659 127.185 162.555 160.23 158.744 160.595 124.624 154.403 155.156 155.397 -131.242 231.189 154.44 -170.873 211.408 135.393 -198.439 191.071 111.854 -187.469 159.559 106.109 -159.759 130.87 103.817 -98.073 188.371 104.617 14.1759 10.0294 24.3549 
157.736 127.351 162.533 160.404 158.928 160.871 124.424 154.356 155.244 155.478 -131.423 231.378 154.24 -170.811 211.603 135.404 -198.66 191.12 111.643 -187.744 159.601 105.789 -160.029 130.891 103.638 -98.3101 188.374 104.361 14.1717 10.0755 24.7472 
157.865 127.851 162.322 160.437 159.03 161.22 124.367 154.192 155.272 155.559 -131.647 231.621 154.07 -170.912 211.671 135.36 -198.919 191.164 111.537 -188.1 159.68 105.492 -160.414 130.929 103.471 -98.61 188.327 104.065 14.161 10.1102 24.9453 
157.974 128.435 162.088 160.587 159.347 161.722 124.563 154.038 155.423 155.818 -131.921 231.508 153.928 -170.925 211.434 135.539 -199.188 191.19 111.551 -188.535 159.72 105.167 -160.911 130.894 103.247 -98.9191 188.14 103.665 14.1314 10.1873 25.2657 
158.135 129.71 162.105 160.981 159.831 162.43 125.29 153.858 155.694 156.259 -132.58 230.995 153.806 -171.075 210.914 135.941 -199.497 190.901 111.752 -188.982 159.515 104.907 -161.396 130.791 103.051 -99.3689 187.942 103.243 14.0076 10.3053 25.7101 
158.544 131.571 162.278 161.447 160.442 163.414 125.828 153.859 156.128 156.974 -133.319 230.653 153.943 -171.109 210.736 136.64 -199.973 190.761 111.871 -189.534 159.388 104.53 -161.921 130.73 102.724 -99.8925 187.986 102.961 13.9504 10.4947 26.5558 
158.97 133.481 162.463 161.78 160.907 164.348 126.215 154.056 156.581 157.634 -133.971 230.463 154.143 -171.422 210.513 137.034 -200.571 190.39 111.794 -190.062 159.017 104.058 -162.342 130.427 102.298 -100.419 187.994 102.751 13.9454 10.6598 27.1322 
159.368 134.804 162.629 161.97 161.283 165.202 126.654 154.264 156.987 158.293 -134.42 230.311 154.338 -171.712 210.297 137.321 -201.109 190.061 111.709 -190.531 158.614 103.671 -162.71 130.068 101.883 -100.896 187.997 102.515 13.9763 10.8421 27.6307 
159.784 136.089 162.755 162.1 161.675 165.938 126.699 154.601 157.401 158.97 -134.69 230.059 154.496 -171.785 210.093 137.576 -201.674 189.58 111.488 -190.987 158.06 103.289 -163.07 129.562 101.521 -101.319 187.853 102.25 13.996 10.9735 28.3239 
160.396 138.697 162.547 162.376 162.446 167.036 127.022 154.618 157.812 159.895 -134.783 229.447 154.607 -171.141 209.813 138.477 -202.033 189.527 111.579 -191.612 157.771 102.869 -163.745 129.079 101.013 -101.756 187.543 101.666 14.1105 11.3371 29.7129 
160.669 140.224 162.017 162.305 162.615 167.211 126.813 154.449 157.787 160.004 -135.039 228.872 154.481 -170.665 209.493 138.891 -202.192 189.431 111.62 -191.99 157.555 102.731 -164.195 128.771 100.745 -102.125 187.191 101.273 14.1723 11.5125 30.5762 
160.689 141.335 161.349 161.926 162.274 166.809 125.3 154.19 157.462 159.618 -134.977 228.599 154.31 -169.767 209.53 139.115 -202.221 189.295 111.341 -192.13 157.333 102.506 -164.417 128.492 100.397 -102.334 186.863 100.959 14.2392 11.5717 31.6718 
160.508 141.569 160.634 161.437 161.983 166.289 123.609 153.998 157.107 159.221 -135.037 228.212 154.155 -169.193 209.229 139.067 -202.326 188.58 110.981 -192.155 156.665 102.205 -164.455 127.964 99.8719 -102.537 186.501 100.72 14.2335 11.5339 32.4147 
160.215 141.396 160.079 161.1 161.759 166.006 122.499 153.817 156.78 158.859 -134.826 227.747 153.993 -168.703 208.864 138.889 -202.365 187.786 110.69 -192.182 155.967 101.968 -164.512 127.342 99.4195 -102.661 185.923 100.37 14.2366 11.4561 32.9135 
159.875 140.294 159.329 160.42 161.303 165.748 121.173 153.448 156.199 158.276 -134.694 227.875 153.768 -168.849 208.645 138.356 -202.486 187.061 110.476 -192.208 155.442 101.899 -164.582 126.92 99.1509 -102.867 185.607 100.195 14.2393 11.2816 32.7026 
159.817 138.933 159.003 160.096 161.152 165.976 120.945 153.369 155.943 158.032 -134.617 227.759 153.819 -169.094 208.389 138.064 -202.712 186.564 110.349 -192.387 155.152 101.82 -164.799 126.704 98.9119 -103.097 185.365 100.045 14.2118 11.1304 32.5828 
159.744 137.667 158.534 159.497 160.853 166.154 120.707 153.199 155.582 157.765 -134.481 228.072 154.069 -169.592 208.473 137.761 -202.968 186.376 110.282 -192.556 155.141 101.855 -165.001 126.74 98.8312 -103.348 185.442 100.096 14.2184 10.9834 32.2517 
159.821 136.924 158.307 159.202 160.748 166.421 121.355 153.135 155.409 157.667 -134.385 228.171 154.267 -170.256 208.546 137.48 -203.243 186.277 110.332 -192.832 155.188 101.953 -165.362 126.794 98.8009 -103.624 185.377 100.05 14.2038 10.8681 31.7638 
159.882 136.448 158.129 158.99 160.717 166.597 121.641 153.121 155.346 157.679 -134.42 228.4 154.384 -170.914 208.545 137.209 -203.589 186.159 110.392 -193.163 155.186 102.039 -165.728 126.818 98.8078 -103.934 185.402 100.058 14.1913 10.7836 31.3063 
160.078 136.016 158.259 159.068 160.887 166.829 122.337 153.263 155.463 157.87 -134.764 228.646 154.47 -171.777 208.673 137.067 -204.104 186.172 110.564 -193.654 155.256 102.235 -166.218 126.894 98.989 -104.395 185.54 100.115 14.1936 10.7483 30.8744 
160.352 136.23 158.614 159.27 161.232 167.214 123.232 153.642 155.863 158.363 -135.107 229.033 155.015 -172.503 209.343 137.435 -204.818 186.728 110.778 -194.383 155.812 102.356 -166.922 127.35 99.1404 -104.939 186.022 100.375 14.2334 10.7693 30.9194 
160.669 136.223 158.951 159.44 161.489 167.567 123.654 153.877 156.089 158.727 -135.675 229.396 155.563 -173.018 209.986 137.893 -205.458 187.229 111.019 -194.992 156.27 102.514 -167.473 127.746 99.3097 -105.503 186.563 100.64 14.2984 10.8329 31.1673 
160.714 136.032 159.298 159.65 161.785 167.83 123.88 154.175 156.327 159.063 -136.166 229.783 155.91 -173.359 210.753 138.261 -206.083 187.731 111.094 -195.582 156.653 102.604 -167.99 127.987 99.4554 -106.014 186.97 100.848 14.4192 10.9005 31.5589 
160.783 136.02 159.548 159.839 161.974 167.984 124.056 154.36 156.432 159.187 -136.617 229.836 155.995 -173.505 211.159 138.534 -206.495 187.978 111.17 -195.987 156.823 102.727 -168.345 128.063 99.6093 -106.404 187.098 100.863 14.4998 10.9383 31.9227 
160.588 136.019 159.661 159.939 162.049 167.794 123.911 154.583 156.53 159.209 -137.011 229.995 155.911 -173.992 211.295 138.426 -206.903 187.946 111.096 -196.309 156.815 102.761 -168.576 128.094 99.6542 -106.731 187.233 100.928 14.5178 10.8881 31.8329 
160.195 136.128 159.746 159.973 162.143 167.456 123.451 154.847 156.66 159.289 -137.242 230.256 155.635 -174.331 211.461 138.191 -207.24 187.982 110.811 -196.575 156.75 102.647 -168.758 127.997 99.6024 -106.963 187.313 100.938 14.5776 10.8855 31.8167 
159.923 136.24 159.897 160.047 162.261 167.19 122.795 155.146 156.786 159.388 -137.35 230.402 155.383 -174.347 211.671 138.074 -207.561 188.022 110.49 -196.858 156.68 102.531 -168.994 127.84 99.5533 -107.167 187.25 100.868 14.6491 10.8693 32.1008 
159.842 136.239 160.227 160.333 162.505 167.133 122.27 155.604 157.066 159.61 -137.471 230.396 155.202 -174.121 211.871 138.13 -207.918 188.053 110.204 -197.206 156.642 102.45 -169.318 127.744 99.5896 -107.395 187.156 100.727 14.6635 10.8324 32.6976 
159.824 136.445 160.429 160.614 162.642 167.044 122.491 155.894 157.227 159.614 -137.71 230.135 155.072 -174.339 211.766 138.09 -208.178 187.887 110.061 -197.484 156.535 102.432 -169.582 127.711 99.5904 -107.636 186.972 100.576 14.5906 10.7442 32.805 
159.917 136.865 160.735 160.993 162.944 167.171 123.044 156.31 157.541 159.839 -137.743 229.719 154.977 -174.133 211.77 138.282 -208.384 187.8 109.819 -197.772 156.456 102.263 -169.897 127.609 99.4795 -107.762 186.631 100.331 14.5399 10.6978 33.3699 
159.802 137.152 160.919 161.206 163.074 167.048 123.348 156.606 157.729 159.884 -137.797 229.445 154.841 -174.353 211.671 138.13 -208.562 187.667 109.59 -197.972 156.399 102.102 -170.103 127.607 99.3218 -107.874 186.425 100.195 14.4639 10.6085 33.346 
159.831 137.578 161.169 161.499 163.243 167.002 124.152 156.875 157.931 159.941 -138.06 228.962 154.55 -174.753 211.336 137.912 -208.733 187.313 109.38 -198.145 156.134 101.943 -170.275 127.449 99.1763 -108.025 186.066 99.9611 14.362 10.5334 33.1989 
159.621 137.994 161.242 161.544 163.192 166.777 124.592 156.9 157.88 159.722 -138.434 228.802 154.071 -175.336 211.183 137.454 -208.854 187.093 109.156 -198.24 155.967 101.876 -170.364 127.384 99.179 -108.21 185.891 99.7994 14.2919 10.4681 32.8085 
159.633 138.495 161.321 161.665 163.227 166.648 125.198 156.943 157.907 159.6 -138.863 228.482 153.832 -175.819 210.881 137.286 -208.993 186.817 109.069 -198.375 155.81 101.822 -170.491 127.384 99.1027 -108.407 185.781 99.6719 14.1772 10.3878 32.5663 
159.332 139.035 161.317 161.726 163 166.233 125.856 156.801 157.712 159.054 -139.291 227.96 153.166 -176.637 210.182 136.605 -208.956 186.212 108.878 -198.361 155.446 101.714 -170.551 127.304 98.9146 -108.547 185.404 99.3836 13.9505 10.2023 31.7026 
159.232 139.703 161.13 161.574 162.769 165.982 126.237 156.44 157.392 158.596 -139.603 227.801 152.647 -177.2 209.827 136.194 -208.951 185.997 108.922 -198.427 155.349 101.824 -170.717 127.341 98.9438 -108.717 185.233 99.1809 13.8179 10.0963 31.0522 
158.916 140.071 160.873 161.251 162.479 165.803 126.361 156.106 157.066 158.198 -139.806 227.85 152.139 -177.531 209.847 135.833 -208.993 185.995 108.849 -198.512 155.345 101.847 -170.897 127.395 98.9723 -108.907 185.129 99.0219 13.7539 10.0771 30.7494 
158.542 139.932 160.697 160.972 162.264 165.566 126.381 156.016 156.942 157.974 -139.945 228.087 151.701 -178.131 209.732 135.212 -209.166 185.817 108.538 -198.617 155.219 101.608 -171.004 127.346 98.7588 -109.06 185.109 98.9361 13.7109 10.0126 30.2029 
158.272 139.732 160.56 160.832 162.135 165.384 126.673 155.963 156.848 157.771 -140.031 227.77 151.224 -178.586 209.163 134.564 -209.225 185.029 108.124 -198.569 154.547 101.228 -170.93 126.857 98.3224 -109.123 184.66 98.6242 13.6198 9.92536 29.7804 
157.974 139.54 160.297 160.522 161.909 165.188 126.932 155.729 156.586 157.463 -140.28 227.767 150.665 -179.377 208.672 133.8 -209.383 184.326 107.841 -198.587 153.922 100.998 -170.912 126.382 98.0512 -109.322 184.332 98.4225 13.589 9.8801 29.0818 
157.669 139.171 160.149 160.242 161.666 165.094 127.754 155.641 156.464 157.342 -140.472 228.041 150.056 -180.443 208.657 132.873 -209.702 184.104 107.492 -198.838 153.711 100.743 -171.177 126.17 97.7937 -109.602 184.123 98.2257 13.6123 9.84877 28.1994 
157.725 139.138 160.216 160.241 161.722 165.249 128.965 155.735 156.628 157.619 -140.809 228.272 149.903 -181.533 208.988 132.364 -210.277 184.07 107.265 -199.368 153.633 100.444 -171.679 126.012 97.4946 -110.067 184.07 98.1159 13.6844 9.89293 27.6658 
157.695 140.048 160.218 160.217 161.655 165.195 130.744 155.72 156.685 157.746 -141.301 228.61 149.68 -183.379 209.289 131.481 -210.927 183.946 107.15 -199.938 153.546 100.261 -172.197 125.916 97.2134 -110.634 184.14 98.062 13.7321 9.86845 26.3514 
157.959 141.875 160.386 160.313 161.779 165.495 132.754 155.746 156.863 158.097 -141.977 229.219 149.725 -185.367 210.132 130.886 -211.83 184.302 107.195 -200.832 153.867 100.136 -173.08 126.098 97.0383 -111.436 184.457 98.0989 13.8244 9.91303 25.2245 
157.896 143.144 160.285 160.087 161.567 165.362 135.689 155.538 156.737 158.079 -142.756 230.088 149.24 -188.715 210.491 129.149 -212.71 184.308 107.034 -201.587 153.819 99.9341 -173.776 125.983 96.7313 -112.268 184.709 98.1077 13.9462 9.92406 22.6114 
157.771 144.052 160.173 159.842 161.33 165.421 138.049 155.376 156.612 158.039 -143.803 231.19 148.848 -192.257 210.808 127.429 -213.89 184.347 106.823 -202.6 153.794 99.6786 -174.701 125.954 96.3845 -113.411 185.173 98.2159 14.0458 9.94459 20.1596 
157.344 145.419 160.155 159.821 161.304 165.349 139.674 155.3 156.488 157.979 -144.748 231.665 148.352 -194.972 210.926 126.005 -214.991 183.749 106.632 -203.511 153.143 99.4832 -175.518 125.389 95.9396 -114.488 185.181 98.1322 14.1008 9.92885 18.4631 
157.176 146.822 159.825 159.595 161.262 165.096 140.1 155.02 156.122 157.775 -145.81 231.957 147.789 -196.84 210.795 125.124 -216.019 182.962 106.394 -204.375 152.31 99.2011 -176.329 124.604 95.3214 -115.577 184.986 97.8948 14.2017 9.93953 17.6586 
157.297 148.058 159.505 159.415 161.415 164.844 140.645 154.896 155.883 157.787 -146.463 231.926 147.874 -198.246 210.212 125.178 -217.02 182.441 106.114 -205.273 151.643 98.7317 -177.182 123.827 94.3763 -116.575 184.766 97.643 14.422 10.0383 17.5172 
157.513 148.262 159.348 159.444 161.789 164.836 140.059 154.784 155.844 158.138 -147.753 231.268 147.743 -199.303 208.173 125.672 -218.061 181.146 105.833 -206.01 150.064 98.0261 -177.692 122.352 93.1007 -117.666 184.39 97.148 14.6572 10.3584 17.713 
157.77 145.883 159.131 159.511 161.977 164.48 137.541 154.41 155.684 158.401 -149.53 230.288 146.6 -199.841 204.276 125.458 -218.752 177.471 104.931 -205.794 146.274 96.5379 -176.804 119.136 91.0204 -118.512 183.467 96.2608 14.9939 10.7699 18.0815 
158.331 144.241 158.705 159.201 161.967 164.462 135.338 153.924 155.289 158.319 -150.165 229.163 146.415 -199.226 202.209 125.721 -218.806 175.467 104.446 -205.404 144.251 95.7727 -176.103 117.308 90.0871 -118.713 182.73 95.7351 15.2061 10.9714 18.9071 
158.879 142.528 158.356 158.943 161.974 164.479 133.117 153.638 155.01 158.286 -150.807 228.493 146.035 -198.723 200.905 125.694 -219.009 174.083 103.904 -205.3 142.826 95.2565 -175.758 115.935 89.6554 -119.012 182.195 95.2863 15.3795 11.0826 19.6746 
159.183 140.985 157.923 158.654 161.838 164.545 131.476 153.378 154.719 158.111 -151.534 227.971 145.59 -198.389 199.962 125.544 -219.307 173.094 103.362 -205.421 141.853 94.7815 -175.708 115.022 89.2868 -119.414 181.776 94.8256 15.4735 11.1288 20.3647 
159.066 139.982 157.485 158.197 161.506 164.433 130.285 153.095 154.313 157.811 -151.858 227.663 145.313 -198.489 199.99 125.166 -219.792 172.753 102.878 -205.888 141.524 94.3482 -176.169 114.571 88.7982 -119.922 181.425 94.4222 15.5975 11.1079 20.6775 
158.668 139.248 156.796 157.816 161.228 164.155 129.219 152.787 154.052 157.53 -152.389 227.803 144.783 -198.933 200.523 124.71 -220.595 172.845 102.408 -206.858 141.585 93.8798 -177.144 114.46 88.3895 -120.783 181.262 94.0301 15.7174 11.1263 21.0153 
158.598 138.122 156.63 157.88 161.259 164.339 127.88 153.066 154.286 157.606 -152.567 227.845 144.472 -198.706 201.015 124.373 -221.299 173.135 101.42 -207.667 141.81 92.8856 -177.872 114.383 87.6735 -121.317 181.099 93.5836 15.8938 11.1667 21.9598 
158.368 137.089 156.354 157.724 161.152 164.265 126.841 153.051 154.322 157.546 -152.849 227.39 144.529 -198.756 201.256 124.001 -221.918 173.073 100.614 -208.405 141.905 91.8511 -178.576 114.354 86.768 -121.904 180.973 93.1526 15.9495 11.1214 22.5602 
158.187 136.16 155.721 157.166 160.704 164.178 126.018 152.761 154.053 157.227 -153.262 227.254 144.606 -198.911 201.497 123.632 -222.34 173.101 100.018 -208.885 142.204 90.9161 -179.084 114.632 85.7095 -122.403 181.062 92.8626 15.9849 11.0502 22.8377 
157.706 135.55 155.445 157.353 160.576 163.954 125.909 152.719 154.09 156.995 -154.096 226.485 144.183 -198.962 200.943 123.493 -222.661 173.131 99.4655 -209.363 142.669 90.218 -179.628 115.278 85.0438 -122.825 181.136 92.4635 15.801 10.8424 23.2563 
157.488 135.799 155.3 157.437 160.295 163.44 125.485 152.547 153.937 156.528 -155.17 225.675 143.684 -199.018 200.694 123.39 -223.186 173.401 99.0002 -210.099 143.337 89.9292 -180.53 116.146 84.9821 -123.475 181.22 92.0483 15.5079 10.5651 23.8765 
