169.979 159.926 164.943 166.533 169.279 173.66 137.43 156.506 160.359 161.076 -30.2022 205.383 13.8963 -52.5418 248.284 -15.791 -45.904 270.286 -42.3921 -18.5404 277.491 -59.4731 18.5658 274.745 -66.48 33.7867 244.435 7.64717 13.7105 10.5823 14.8199 
170.464 160.624 164.857 166.309 169.13 173.457 139.218 156.105 159.542 160.398 -29.5215 204.989 14.5183 -52.4869 248.976 -15.5188 -45.2915 268.914 -42.201 -18.0082 275.626 -59.4398 19.0029 273.526 -66.2823 34.2396 244.035 8.14753 13.7451 10.3343 13.2604 
170.901 161.303 164.911 166.298 169.1 173.275 140.717 155.863 158.977 159.774 -28.7998 204.426 15.1643 -52.2868 249.183 -15.3986 -44.636 267.61 -42.043 -17.3592 273.901 -59.3875 19.5615 272.18 -66.0873 34.7065 243.5 8.61735 13.7217 10.1615 12.1482 
171.338 161.513 164.859 166.2 169.106 173.172 141.669 155.363 158.199 159.192 -28.298 204.056 15.7013 -51.9712 249.286 -15.5023 -44.0088 266.315 -41.9815 -16.7263 272.27 -59.3852 20.1519 271.088 -65.9351 35.0794 243.003 8.99878 13.828 10.0353 11.111 
171.588 161.785 164.872 166.302 169.218 173.044 142.301 154.992 157.825 158.911 -27.8169 203.715 16.1649 -51.6014 249.026 -15.6236 -43.4094 265.178 -41.9926 -16.091 271.084 -59.4017 20.7477 270.246 -65.7701 35.44 242.604 9.37117 13.8617 10.0261 10.5 
171.579 161.425 164.475 166.09 169.087 172.897 141.604 154.048 157.148 158.384 -27.4034 203.473 16.3922 -51.0026 248.16 -15.65 -42.8488 263.919 -41.9376 -15.5902 270.141 -59.3113 21.2028 269.661 -65.5703 35.7521 242.394 9.66895 13.9109 10.1052 10.2562 
171.441 160.705 164.097 166.076 169.202 172.71 140.787 153.153 157.036 158.545 -27.0217 203.214 16.5082 -50.4428 247.082 -15.6219 -42.3093 262.533 -41.8891 -15.0677 269.699 -59.1986 21.8997 269.614 -65.3654 36.0441 242.064 9.94556 14.2134 10.4636 10.1103 
171.203 159.864 163.587 165.836 169.161 172.433 139.983 152.119 156.78 158.583 -26.567 203.073 16.7115 -49.8145 246.244 -15.4968 -41.6863 261.115 -41.7298 -14.5047 269.278 -58.9728 22.5903 269.676 -65.0385 36.3883 241.794 10.2667 14.5249 10.86 9.78145 
171.077 159.219 163.093 165.54 169.121 172.186 139.524 151.012 156.255 158.51 -26.0905 203.04 17.0375 -49.2104 245.723 -15.3674 -40.9959 259.611 -41.5608 -13.8961 268.585 -58.7827 23.2617 269.642 -64.7241 36.7724 241.628 10.5875 14.8737 11.2132 9.23842 
171.057 158.715 162.631 165.175 169.015 171.965 139.367 149.921 155.412 158.245 -25.6144 203.239 17.4908 -48.5788 245.614 -15.2563 -40.2078 258.269 -41.3717 -13.1984 267.722 -58.6068 23.9502 269.6 -64.3686 37.2276 241.616 10.9623 15.2411 11.4313 8.56819 
170.965 158.918 162.167 164.897 168.795 171.607 140.723 149.255 154.915 157.917 -24.9991 203.278 17.9247 -48.4191 246.288 -14.9601 -39.4349 257.196 -41.1574 -12.5115 267.017 -58.4118 24.587 269.533 -63.9906 37.6743 241.489 11.3243 15.45 11.5587 7.89902 
170.982 158.92 161.995 164.664 168.589 171.386 141.299 148.987 154.311 157.327 -24.4902 203.216 18.2757 -47.9624 246.585 -14.8873 -38.7075 256.739 -41.0093 -11.844 266.371 -58.1899 25.0986 269.311 -63.6001 38.1178 241.418 11.6684 15.4491 11.3704 7.60507 
171.034 158.904 162.223 164.651 168.557 171.273 142.063 149.326 154.168 157.163 -24.0202 203.168 18.6331 -47.634 246.939 -14.7206 -38.1423 256.733 -40.8715 -11.2517 266.03 -57.9655 25.6542 269.303 -63.2434 38.5215 241.287 11.9924 15.5167 11.1327 7.5468 
171.055 158.999 163.026 164.975 168.714 171.271 142.671 150.416 154.695 157.427 -23.5122 202.704 19.0205 -47.311 246.864 -14.4297 -37.8115 257.07 -40.7068 -10.8029 265.99 -57.6674 26.1238 269.297 -62.8258 38.9306 240.993 12.339 15.4614 10.8866 7.71972 
171.053 159.185 163.649 165.333 168.889 171.314 142.9 151.627 155.54 157.869 -23.0637 202.206 19.4043 -46.9311 246.659 -14.1732 -37.536 257.738 -40.547 -10.3645 266.383 -57.3833 26.6354 269.397 -62.4639 39.3536 240.73 12.6638 15.3183 10.7362 7.99963 
171.195 159.47 164.184 165.789 169.138 171.537 143.128 152.614 156.502 158.443 -22.7838 201.813 19.8207 -46.5756 246.504 -13.9315 -37.2639 258.338 -40.3461 -9.95864 267.025 -57.0644 27.1154 269.661 -62.0549 39.7574 240.441 12.9787 15.1409 10.7321 8.2368 
171.436 159.768 164.444 166.063 169.325 171.912 142.438 152.945 156.967 158.683 -22.4906 201.459 20.2705 -45.9374 245.684 -13.7333 -36.8588 258.536 -40.0792 -9.45818 267.404 -56.7269 27.6497 269.704 -61.6973 40.2326 240.375 13.3121 14.9993 10.8339 8.59672 
171.34 159.368 164.389 166.056 169.341 172.157 140.88 152.95 157.301 158.999 -22.0002 201.078 20.6281 -45.1205 244.291 -13.3143 -36.5371 258.532 -39.627 -9.10835 267.93 -56.2293 28.1281 270.123 -61.2428 40.746 240.513 13.7269 15.035 11.0678 9.24297 
171.05 158.053 164.057 165.91 169.32 172.118 139.278 152.604 157.443 159.314 -21.4572 200.874 20.8357 -44.2588 243.059 -12.8993 -36.1042 258.164 -39.2104 -8.6541 268.205 -55.8165 28.6822 270.437 -60.8339 41.2517 240.567 14.1124 15.1609 11.411 9.75325 
170.468 156.738 163.409 165.147 168.899 171.772 137.309 151.355 156.63 158.749 -20.4753 200.929 21.5018 -42.7828 241.84 -12.328 -35.0802 257.151 -38.3938 -7.75936 267.882 -55.0014 29.504 270.38 -60.0749 42.0679 240.752 14.7698 15.3288 11.7681 9.85354 
170.102 155.977 162.57 164.567 168.559 171.5 136.331 150.156 155.581 158.141 -19.9 200.956 21.6267 -41.891 241.051 -12.2271 -34.4513 256.124 -37.9983 -7.30319 267.221 -54.5817 29.8924 270.243 -59.6838 42.4897 240.886 15.1266 15.5353 11.8918 9.62273 
169.732 155.353 161.998 164.114 168.248 171.128 135.648 149.227 154.778 157.581 -19.3366 201.046 21.6775 -41.0359 240.268 -12.1795 -33.7915 255.203 -37.6733 -6.75759 266.663 -54.2367 30.3375 270.062 -59.3011 42.925 240.96 15.4686 15.624 12.0391 9.46808 
169.558 155.249 161.682 163.964 168.074 170.913 135.618 148.825 154.48 157.263 -18.748 200.949 21.8566 -40.4493 239.574 -12.0052 -33.2409 254.49 -37.3596 -6.24469 266.281 -53.9051 30.8421 269.848 -58.9594 43.3787 240.899 15.8355 15.6543 12.174 9.42756 
169.321 155.012 161.568 164.016 168.048 170.802 135.224 149.037 154.819 157.464 -18.004 200.422 22.1271 -39.7532 238.455 -11.5221 -32.7786 254.157 -36.9439 -5.68591 266.254 -53.4949 31.5339 269.801 -58.5451 43.9417 240.687 16.3038 15.7159 12.3538 10.006 
169.531 154.728 161.698 164.462 168.303 171.094 134.555 149.282 155.472 157.95 -17.5231 199.946 22.4707 -38.938 237.067 -11.1467 -32.3235 253.781 -36.6572 -5.14267 266.445 -53.186 32.2402 269.849 -58.2048 44.4646 240.432 16.6847 15.729 12.6714 10.7813 
169.827 154.759 161.966 164.935 168.665 171.502 133.678 149.437 156.072 158.469 -17.195 199.411 22.9278 -38.0172 235.419 -10.754 -31.9469 253.325 -36.2844 -4.70818 266.504 -52.8537 32.7592 269.63 -57.9252 44.9407 240.202 17.0423 15.6625 13.0187 11.7879 
169.848 154.509 162.064 165.308 168.962 171.685 132.841 149.558 156.972 159.182 -16.7605 199.124 23.5161 -37.119 233.745 -10.3257 -31.5045 252.727 -35.9265 -4.23623 266.821 -52.5056 33.3328 269.657 -57.5771 45.4272 239.996 17.4197 15.6111 13.5808 12.7715 
169.823 154.853 162.251 165.512 169.19 171.678 132.936 150.018 157.65 159.749 -16.1466 198.831 24.0357 -36.6286 233.053 -9.96783 -31.02 252.456 -35.6841 -3.72168 266.833 -52.2046 33.8907 269.603 -57.209 45.9227 239.758 17.796 15.6007 13.7217 13.1362 
169.724 155.174 162.181 165.475 169.237 171.497 133.422 149.989 157.819 159.989 -15.6019 198.794 24.4799 -36.3852 233.192 -9.68185 -30.4154 252.039 -35.4695 -3.12134 266.626 -51.9622 34.5163 269.491 -56.8882 46.3641 239.518 18.124 15.7109 13.85 12.7206 
169.513 155.195 162.037 165.223 169.124 171.21 133.86 149.522 157.426 159.923 -14.9993 198.798 24.8695 -36.1544 233.598 -9.34503 -29.8591 251.347 -35.1312 -2.64989 266.12 -51.6461 35.0229 269.362 -56.5415 46.7957 239.397 18.4715 15.9709 13.9578 11.8986 
169.338 155.621 162.005 164.979 169.005 170.996 133.813 148.786 156.804 159.721 -14.5242 199.033 25.2395 -35.7246 233.701 -8.93072 -29.3176 250.575 -34.6666 -2.23083 265.594 -51.2478 35.443 269.197 -56.1902 47.219 239.424 18.8317 16.2337 14.1396 11.331 
169.142 156.253 161.952 164.873 168.906 170.731 134.466 148.182 156.609 159.744 -13.9648 199.162 25.5107 -35.5455 233.942 -8.65469 -28.8051 249.675 -34.2689 -1.84259 265.418 -50.8948 35.8866 269.34 -55.8184 47.6413 239.445 19.1744 16.4524 14.5627 10.4954 
169.089 157.054 162.135 165.192 169.035 170.663 135.373 148.591 157.199 160.05 -13.3314 199.124 25.9276 -35.2665 233.717 -8.3992 -28.4238 249.502 -33.9722 -1.43669 265.556 -50.574 36.377 269.32 -55.491 48.1636 239.419 19.5705 16.3599 14.7083 10.4933 
169.174 158.05 162.279 165.359 169.084 170.599 136.145 148.647 157.467 160.145 -12.818 199.195 26.2776 -34.9401 233.578 -8.19481 -27.9224 249.2 -33.6768 -0.894396 265.593 -50.2894 36.9615 269.196 -55.203 48.6955 239.376 19.9589 16.2732 14.9226 10.3546 
169.103 158.419 162.227 165.366 169.042 170.497 136.208 148.743 157.865 160.267 -12.2635 199.1 26.5688 -34.3374 233.039 -7.90547 -27.3341 249.148 -33.3877 -0.224386 265.878 -49.9583 37.6523 269.19 -54.8356 49.2575 239.25 20.3444 16.1405 15.1482 10.7217 
169.139 159.031 162.195 165.279 169.015 170.464 136.319 148.61 158.089 160.379 -11.2706 199.075 27.1327 -33.2472 232.36 -7.47652 -26.2447 248.721 -32.9633 0.934829 266.02 -49.5364 38.8454 269.271 -54.3399 50.276 239.229 20.8761 16.132 15.5252 10.953 
169.25 159.465 162.327 165.336 169.084 170.555 136.145 148.417 158.195 160.425 -10.8262 199.168 27.3446 -32.4598 231.857 -7.42923 -25.5937 248.581 -32.7745 1.59918 266.344 -49.3146 39.4661 269.391 -54.0837 50.8655 239.421 21.1492 15.9986 15.8472 11.2409 
169.225 159.487 162.464 165.346 169.114 170.642 135.676 148.348 158.242 160.498 -10.3606 199.298 27.5002 -31.5338 231.068 -7.37472 -25.0192 248.479 -32.6443 2.18069 266.567 -49.1219 40.0509 269.506 -53.8909 51.4249 239.596 21.3856 15.9359 16.0531 11.8005 
169.263 159.778 162.764 165.457 169.195 170.701 135.841 148.411 158.44 160.641 -9.88318 199.346 27.6678 -30.9652 230.685 -7.26542 -24.4933 248.365 -32.5435 2.73824 266.785 -48.9613 40.6218 269.565 -53.7355 51.9562 239.733 21.6107 15.861 16.2674 12.0544 
169.336 159.989 162.948 165.648 169.344 170.794 136.109 148.573 158.727 160.899 -9.45756 199.517 27.8593 -30.4612 230.587 -7.22671 -23.9482 248.422 -32.5236 3.28799 267.083 -48.8205 41.222 269.778 -53.5619 52.4799 239.884 21.8136 15.8363 16.3868 12.1884 
169.347 160.017 163.146 165.861 169.504 170.891 136.067 148.764 159.098 161.266 -9.14686 199.75 28.0469 -29.9004 230.28 -7.11049 -23.545 248.563 -32.4668 3.71144 267.501 -48.6915 41.6954 270.035 -53.4253 52.9347 240.046 21.9851 15.7858 16.5598 12.5874 
169.449 160.098 163.293 165.812 169.539 170.906 136.163 148.632 158.866 161.284 -8.80345 200.086 28.1739 -29.4709 230.597 -7.03441 -23.0094 248.518 -32.4162 4.19532 267.493 -48.5982 42.2 270.302 -53.296 53.3769 240.264 22.116 15.9209 16.551 12.3206 
169.516 160.215 163.374 165.778 169.54 170.813 136.463 148.357 158.588 161.248 -8.40685 200.415 28.322 -29.1393 231.16 -6.96011 -22.373 248.303 -32.3398 4.75504 267.306 -48.5254 42.7069 270.435 -53.1454 53.8136 240.429 22.2556 16.0469 16.5615 11.7487 
169.664 160.552 163.56 165.951 169.661 170.816 137.34 148.544 158.676 161.421 -7.98563 200.592 28.4705 -28.9295 231.738 -7.12139 -21.751 248.259 -32.5004 5.37374 267.207 -48.5823 43.3322 270.567 -53.0569 54.2899 240.527 22.3718 16.1152 16.4619 11.2388 
169.708 161.113 164.021 165.933 169.622 170.669 138.23 148.346 158.296 161.341 -7.59562 200.789 28.5353 -28.7754 232.399 -7.26505 -21.1273 247.775 -32.5714 5.94639 266.8 -48.6185 43.8765 270.541 -52.9801 54.7119 240.624 22.4944 16.2675 16.4882 10.3994 
169.549 161.379 164.316 165.828 169.508 170.45 138.713 148.157 158.145 161.299 -7.2361 200.935 28.5533 -28.6661 232.669 -7.33102 -20.7316 247.289 -32.5753 6.3273 266.625 -48.6663 44.2927 270.551 -52.9809 55.0192 240.611 22.5241 16.3967 16.705 9.86895 
169.463 161.536 164.243 165.735 169.386 170.385 139.027 147.74 157.752 161.043 -6.77467 200.822 28.5718 -28.3291 232.744 -7.42435 -20.2364 246.795 -32.5113 6.74691 266.303 -48.5936 44.7597 270.456 -52.9075 55.3986 240.642 22.6382 16.5322 16.7865 9.43014 
169.348 161.448 163.852 165.674 169.301 170.341 139.099 147.664 157.601 160.834 -6.31145 200.602 28.533 -27.9384 232.751 -7.5395 -19.8326 246.839 -32.5026 7.17379 266.193 -48.5378 45.2388 270.288 -52.879 55.7543 240.641 22.7354 16.5378 16.6746 9.38768 
169.317 161.476 163.84 165.733 169.295 170.335 139.54 147.983 157.736 160.771 -5.77361 200.21 28.5061 -27.6735 232.768 -7.61237 -19.5004 246.996 -32.5395 7.58702 266.134 -48.5099 45.6885 270.064 -52.859 56.149 240.567 22.8396 16.4291 16.4946 9.41663 
169.331 161.538 164.065 165.828 169.374 170.327 139.711 147.976 157.905 160.881 -5.36871 200.128 28.55 -27.3603 232.811 -7.54755 -19.0953 246.867 -32.4767 8.01815 266.174 -48.4344 46.1548 269.993 -52.7803 56.5033 240.462 22.9458 16.4099 16.614 9.30302 
169.354 161.705 164.014 166.051 169.512 170.301 140.288 148.151 158.424 161.143 -4.9937 200.099 28.6189 -27.1977 233.197 -7.60086 -18.6364 247.01 -32.5507 8.54265 266.496 -48.4149 46.7257 270.062 -52.6761 56.8577 240.28 23.0423 16.3117 16.7131 9.12174 
169.367 161.966 164.118 166.022 169.53 170.244 140.472 148.046 158.3 161.079 -4.70415 200.281 28.6681 -26.8677 233.505 -7.62511 -18.1602 247.023 -32.5029 9.02475 266.483 -48.3245 47.2122 270.116 -52.5354 57.1986 240.233 23.1473 16.3668 16.6983 8.90174 
169.355 162.191 164.174 165.995 169.561 170.141 140.578 147.933 158.12 160.877 -4.36229 200.404 28.7198 -26.4896 233.686 -7.57901 -17.7205 246.923 -32.384 9.39203 266.227 -48.1781 47.4882 269.825 -52.3971 57.5265 240.174 23.2722 16.2768 16.5851 8.70141 
169.329 162.358 164.311 165.996 169.612 170.023 140.518 147.798 158.052 160.919 -4.04892 200.524 28.78 -26.1369 233.834 -7.45186 -17.3022 246.655 -32.2319 9.75922 266.076 -48.0272 47.8579 269.759 -52.2414 57.8285 240.092 23.3983 16.3643 16.681 8.45375 
169.227 162.458 164.516 166.016 169.636 169.866 140.547 147.773 158.098 161.003 -3.69951 200.585 28.7885 -25.8087 233.907 -7.33906 -16.932 246.478 -32.0971 10.078 266.01 -47.8835 48.1313 269.718 -52.0633 58.1288 240.018 23.5422 16.3456 16.754 8.30031 
169.517 162.853 164.199 165.834 169.638 169.939 141.174 147.489 157.993 161.19 -3.49918 200.606 28.9332 -25.661 234.316 -7.34727 -16.489 246.246 -31.9998 10.4458 265.766 -47.804 48.3904 269.577 -51.9272 58.4913 239.885 23.7341 16.2182 16.6858 7.8517 
169.644 163.17 164.21 165.76 169.516 169.866 141.806 147.075 157.318 160.655 -3.08303 200.507 28.9785 -25.459 234.79 -7.39045 -15.9352 245.706 -31.9441 10.8799 265.146 -47.7216 48.708 269.376 -51.7642 58.8816 239.826 23.8434 16.2794 16.5535 7.27344 
169.691 163.417 164.176 165.684 169.437 169.804 142.346 146.729 157.01 160.4 -2.69479 200.347 29.0398 -25.3442 235.031 -7.33151 -15.4908 245.12 -31.8787 11.2555 264.783 -47.6405 49.0816 269.287 -51.604 59.1993 239.689 23.9723 16.3783 16.648 6.93022 
169.744 163.502 163.709 165.632 169.375 169.864 142.589 146.62 156.731 160.189 -2.29777 199.853 29.1296 -25.1513 235.057 -7.19396 -15.1473 244.904 -31.7819 11.6217 264.327 -47.5317 49.4842 269.1 -51.432 59.5121 239.496 24.1517 16.5252 16.4603 6.8762 
169.869 163.564 163.431 165.645 169.378 170.017 143.004 146.839 156.836 160.113 -1.85654 199.195 29.256 -24.9977 234.952 -7.07033 -14.8304 244.884 -31.7483 12.0195 264.129 -47.4255 49.9264 268.888 -51.2541 59.8392 239.194 24.3373 16.4927 16.2847 6.98624 
170.009 163.683 163.395 165.691 169.428 170.215 143.343 147.015 156.861 160.043 -1.45784 198.627 29.392 -24.7729 234.712 -6.99417 -14.4903 244.739 -31.6986 12.4236 263.84 -47.2973 50.3463 268.686 -51.0355 60.173 238.871 24.5176 16.4907 16.1287 7.05353 
170.247 163.939 163.498 165.846 169.567 170.456 143.757 147.134 156.993 160.188 -1.14974 198.249 29.5934 -24.5105 234.489 -6.94055 -14.1135 244.521 -31.6101 12.861 263.687 -47.1503 50.8228 268.64 -50.7775 60.5338 238.576 24.7297 16.545 16.1387 7.05278 
170.359 164.131 163.791 165.923 169.71 170.649 143.832 147.185 157.294 160.524 -0.950773 197.979 29.8123 -24.2394 233.926 -6.82784 -13.8542 244.162 -31.4463 13.171 263.74 -46.9496 51.2127 268.706 -50.501 60.7804 238.266 24.9369 16.6338 16.4185 7.10916 
170.294 164.38 164.312 165.919 169.776 170.713 143.556 147.172 157.396 160.842 -0.774084 197.957 30.0134 -23.8686 233.295 -6.60984 -13.636 243.665 -31.1397 13.4062 263.823 -46.6641 51.5446 268.916 -50.183 61.0177 238.105 25.1725 16.8376 16.8536 7.10164 
170.189 164.222 164.521 165.944 169.811 170.733 142.981 147.116 157.555 161.038 -0.511573 197.8 30.2201 -23.3892 232.522 -6.33932 -13.4482 243.322 -30.8318 13.5656 263.815 -46.3651 51.7604 268.805 -49.9294 61.2691 237.974 25.4576 16.8511 17.1057 7.23177 
169.905 163.903 164.758 166.065 169.876 170.543 142.489 147.275 158.058 161.458 -0.207655 197.86 30.3744 -22.9681 231.884 -6.09946 -13.2094 243.054 -30.6009 13.7965 264.041 -46.1094 52.0401 268.757 -49.6949 61.5278 237.816 25.7155 16.7777 17.4735 7.414 
169.62 163.644 165.149 166.202 169.963 170.344 142.243 147.477 158.618 161.936 0.0792341 197.93 30.504 -22.651 231.286 -5.92402 -12.9974 242.709 -30.4169 13.9941 264.34 -45.8895 52.3016 268.847 -49.4725 61.7529 237.725 25.9451 16.7292 17.9193 7.5504 
169.429 163.539 165.555 166.292 170.017 170.114 142.069 147.336 158.659 162.069 0.329998 198.21 30.6471 -22.3194 230.969 -5.76778 -12.6977 242.179 -30.1785 14.2175 264.202 -45.654 52.5241 268.727 -49.2354 61.9761 237.681 26.1896 16.7562 18.206 7.4206 
169.306 163.482 165.74 166.276 170.025 169.922 142.043 146.983 158.574 162.044 0.577195 198.377 30.7844 -22.0568 230.716 -5.66567 -12.324 241.52 -30.0191 14.4906 263.951 -45.4641 52.8302 268.481 -49.0716 62.1709 237.599 26.3879 16.8236 18.4997 7.23585 
168.998 163.267 164.962 165.659 169.853 170.069 140.985 147.098 157.845 161.477 1.13229 198.355 30.9932 -21.5687 229.621 -5.13406 -12.386 241.579 -29.6922 14.4386 263.089 -45.1907 52.7764 267.917 -48.887 62.4102 237.471 26.6422 16.9413 17.8658 7.937 
168.657 162.503 164.521 165.149 169.57 170.126 139.304 147.165 156.928 160.766 1.73646 198.292 31.0367 -20.8827 228.404 -4.52468 -12.4619 241.564 -29.2958 14.3802 262.065 -44.9017 52.7222 267.253 -48.7524 62.6455 237.356 26.8691 17.127 17.2113 8.76339 
168.388 161.22 164.033 164.777 169.311 170.228 137.763 147.306 156.2 160.014 2.23156 198.14 31.0683 -20.2023 227.136 -4.00878 -12.494 241.541 -29.0322 14.4001 261.082 -44.6916 52.6648 266.369 -48.6593 62.8686 237.203 27.0812 17.0747 16.5899 9.73643 
168.091 159.787 163.766 164.312 168.883 170.243 136.302 147.225 155.486 159.272 2.76293 197.799 30.9573 -19.6529 226.154 -3.45021 -12.4503 241.36 -28.7786 14.4698 260.265 -44.5023 52.6838 265.722 -48.5644 63.0504 237.037 27.2635 17.0949 16.1772 10.4617 
167.799 158.443 163.541 163.887 168.446 170.18 135.241 147.028 154.737 158.48 3.28193 197.4 30.8538 -19.1402 225.394 -3.06189 -12.2793 240.965 -28.5477 14.6533 259.402 -44.3105 52.8131 265.104 -48.4261 63.2553 236.786 27.4548 17.1406 15.8544 10.8034 
167.684 157.52 163.527 163.609 168.095 170.148 134.607 146.848 154.182 157.767 3.6223 197.149 30.8194 -18.7726 224.772 -2.85931 -12.0802 240.531 -28.4242 14.8707 258.626 -44.2071 52.889 264.354 -48.3384 63.3864 236.522 27.591 17.0059 15.6301 10.9991 
167.714 156.902 163.952 163.502 167.848 170.19 134.111 146.929 153.896 157.179 3.91784 196.85 30.8257 -18.3988 224.124 -2.62705 -11.9139 240.239 -28.2935 15.0979 258.04 -44.088 52.952 263.506 -48.2547 63.5399 236.29 27.7521 16.6906 15.4569 11.3355 
167.715 156.448 164.645 163.36 167.584 170.186 133.629 147.067 153.561 156.627 4.19374 196.611 30.8391 -18.0113 223.543 -2.40847 -11.7355 239.976 -28.1589 15.3442 257.5 -43.9424 53.0352 262.798 -48.1197 63.6966 236.11 27.9368 16.4451 15.2969 11.6455 
167.666 156.238 165.33 163.438 167.385 170.166 133.414 147.311 153.643 156.229 4.38958 196.502 30.9258 -17.6353 222.856 -2.27717 -11.5442 239.87 -28.084 15.6107 257.213 -43.8382 53.1096 261.921 -48.0219 63.8625 235.923 28.1204 15.9366 15.2158 12.1618 
167.743 156.247 165.847 163.523 167.333 170.222 133.446 147.511 153.572 155.909 4.56265 196.361 31.0614 -17.2596 222.293 -2.20105 -11.3058 239.59 -27.9691 15.8946 256.681 -43.6955 53.208 261.104 -47.8709 64.0682 235.723 28.3195 15.5919 15.0672 12.4109 
167.831 156.463 166.676 163.853 167.4 170.301 133.685 147.991 153.877 155.846 4.6152 196.226 31.3199 -17.0034 221.755 -2.14675 -11.164 239.442 -27.8938 16.1067 256.343 -43.5702 53.2531 260.173 -47.75 64.2432 235.446 28.5212 15.1143 14.9808 12.7519 
167.838 156.525 167.697 164.16 167.425 170.271 133.997 148.5 154.299 155.853 4.72371 196.055 31.6257 -16.8485 221.284 -1.9781 -11.0579 239.359 -27.7851 16.2848 256.018 -43.4243 53.2488 259.161 -47.5992 64.3985 235.077 28.763 14.6013 14.8771 13.1123 
167.701 156.386 168.419 164.343 167.42 170.153 134.159 148.86 154.683 155.974 4.97071 195.715 31.9677 -16.6878 220.904 -1.66898 -10.925 239.307 -27.6221 16.4705 255.781 -43.2506 53.3141 258.479 -47.4043 64.5846 234.771 29.0597 14.2696 14.7931 13.432 
167.518 156.3 169.388 164.569 167.496 169.914 134.408 149.35 155.145 156.24 5.19763 195.563 32.3336 -16.6564 220.705 -1.33342 -10.8523 239.351 -27.4844 16.6008 255.613 -43.1166 53.3579 257.944 -47.2294 64.7196 234.5 29.3614 14.0202 14.696 13.6842 
167.394 156.328 170.424 164.904 167.652 169.762 135.002 149.958 155.836 156.729 5.41886 195.342 32.6724 -16.7451 220.752 -1.16045 -10.7573 239.493 -27.4606 16.8003 255.702 -43.0579 53.5429 257.673 -47.0724 64.8806 234.276 29.6366 13.83 14.6977 13.7683 
167.174 156.34 171.174 165.015 167.707 169.405 135.802 150.332 156.38 157.063 5.6069 195.246 32.9656 -17.0204 221.167 -1.0806 -10.6109 239.63 -27.4635 17.0682 255.781 -43.0252 53.7453 257.402 -46.9034 64.9701 233.976 29.8871 13.642 14.7191 13.5272 
166.912 156.556 171.967 164.949 167.624 168.955 136.582 150.586 156.609 157.059 5.83544 195.366 33.3027 -17.2232 221.74 -1.02805 -10.3709 239.826 -27.4183 17.4407 255.857 -42.9366 54.0227 257.162 -46.6763 65.1076 233.839 30.1767 13.4494 14.7058 13.2025 
166.678 156.729 172.375 164.699 167.453 168.558 137.069 150.587 156.365 156.77 5.98843 195.766 33.5457 -17.2951 222.322 -0.970561 -10.0755 239.887 -27.3028 17.8348 255.763 -42.794 54.3303 257.005 -46.4114 65.2352 233.861 30.469 13.388 14.6725 12.7976 
166.567 157.005 173.033 164.479 167.336 168.301 137.533 150.636 156.104 156.451 5.98333 196.252 33.732 -17.3843 222.933 -0.991996 -9.79761 240.036 -27.2404 18.2076 255.674 -42.652 54.6108 256.859 -46.1483 65.2816 233.855 30.704 13.3371 14.5775 12.4345 
166.279 157.081 173.311 164.187 167.15 167.974 137.442 150.372 155.636 155.932 6.06002 196.91 33.8924 -17.1981 223.343 -0.898937 -9.51363 240.108 -27.03 18.5171 255.406 -42.4089 54.8036 256.521 -45.8494 65.3628 233.972 30.9513 13.2818 14.4456 12.227 
165.983 156.892 172.971 163.747 166.789 167.648 137.042 149.764 154.872 155.037 6.03712 197.486 33.9284 -16.978 223.649 -0.768735 -9.22578 240.108 -26.7907 18.7941 254.993 -42.1448 54.9235 255.894 -45.5707 65.3906 234.047 31.1795 13.1492 14.2922 12.0913 
