171.086 170.012 171.67 171.73 171.575 167.662 166.576 168.877 169.072 167.774 152.563 211.719 12.0645 171.724 200.712 -66.6724 155.131 198.394 -92.1255 124.419 196.074 -101.254 80.5658 189.912 -95.8118 95.2445 165.184 -11.2358 15.8514 7.4335 6.31291 
171.106 170.01 171.63 171.652 171.579 167.66 166.541 168.794 168.955 167.741 152.567 211.591 12.3316 171.674 200.613 -66.3222 155.068 198.417 -91.6799 124.365 196.107 -100.779 80.6304 189.74 -95.4403 95.2689 165.08 -10.8712 15.788 7.42994 6.25802 
171.17 169.967 171.551 171.528 171.559 167.729 166.43 168.643 168.767 167.648 152.51 211.574 12.4664 171.618 200.543 -65.9504 155.012 198.453 -91.1928 124.298 196.167 -100.254 80.6451 189.551 -95.0699 95.3134 164.922 -10.5479 15.7772 7.44112 6.19483 
171.241 169.892 171.471 171.46 171.549 167.82 166.305 168.53 168.681 167.628 152.524 211.495 12.6509 171.662 200.408 -65.5241 155.023 198.326 -90.743 124.304 195.985 -99.8271 80.6239 189.271 -94.7333 95.3702 164.754 -10.2088 15.8393 7.45419 6.20625 
171.313 169.771 171.36 171.339 171.502 167.922 166.101 168.344 168.503 167.524 152.565 211.508 12.6904 171.668 200.347 -65.1443 155.025 198.256 -90.2879 124.292 195.878 -99.3499 80.6281 189.007 -94.3539 95.4752 164.62 -9.87311 15.8824 7.46507 6.17818 
171.399 169.705 171.312 171.316 171.524 168.034 165.957 168.247 168.453 167.533 152.646 211.495 12.7204 171.744 200.355 -64.7108 155.1 198.242 -89.8175 124.363 195.794 -98.9036 80.7372 188.834 -93.9565 95.6262 164.515 -9.5043 15.8782 7.47438 6.16729 
171.528 169.724 171.343 171.393 171.628 168.195 165.914 168.249 168.515 167.655 152.904 211.307 12.774 171.858 200.387 -64.3441 155.19 198.27 -89.4289 124.418 195.788 -98.5321 80.8443 188.774 -93.5951 95.7918 164.419 -9.16029 15.8434 7.49684 6.16729 
171.634 169.711 171.364 171.466 171.725 168.303 165.833 168.241 168.581 167.78 153.118 211.207 12.7271 171.969 200.498 -63.9353 155.318 198.359 -89.0047 124.533 195.769 -98.1465 81.0488 188.691 -93.2174 95.9899 164.365 -8.7864 15.773 7.50468 6.15182 
171.799 169.746 171.474 171.657 171.904 168.478 165.813 168.347 168.792 168.034 153.589 210.963 12.653 172.166 200.735 -63.5554 155.521 198.525 -88.6864 124.718 195.811 -97.8948 81.3666 188.767 -92.8953 96.2503 164.397 -8.45253 15.6335 7.51628 6.1818 
171.908 169.807 171.592 171.834 172.062 168.567 165.86 168.484 169.006 168.266 154.025 210.795 12.6992 172.39 201.058 -63.1495 155.727 198.806 -88.3566 124.917 195.965 -97.6199 81.7181 188.932 -92.5468 96.5171 164.522 -8.09447 15.4782 7.5227 6.22717 
171.956 169.886 171.711 171.989 172.195 168.606 165.949 168.637 169.214 168.466 154.494 210.583 12.9206 172.666 201.299 -62.7414 155.991 199.052 -88.0257 125.199 196.133 -97.3339 82.1352 189.169 -92.1794 96.7937 164.648 -7.7455 15.3265 7.51294 6.26639 
171.951 169.975 171.854 172.148 172.304 168.555 166.077 168.85 169.458 168.654 154.89 210.592 13.2731 172.941 201.697 -62.3269 156.314 199.38 -87.7145 125.573 196.42 -97.0448 82.6359 189.617 -91.7671 97.1004 164.896 -7.37671 15.1611 7.4752 6.29972 
171.973 170.141 172.042 172.338 172.437 168.499 166.297 169.114 169.728 168.855 155.182 210.693 13.5858 173.193 202.173 -62.0109 156.623 199.771 -87.4818 125.935 196.762 -96.8384 83.1465 190.085 -91.4375 97.4008 165.168 -7.0671 14.977 7.43927 6.31716 
171.91 170.232 172.127 172.433 172.498 168.333 166.395 169.231 169.848 168.924 155.298 210.923 13.7774 173.388 202.68 -61.6749 156.901 200.253 -87.1817 126.281 197.234 -96.546 83.6838 190.649 -91.0614 97.7069 165.444 -6.77363 14.7753 7.39157 6.29585 
171.868 170.284 172.145 172.455 172.503 168.225 166.482 169.289 169.899 168.933 155.479 211.274 14.082 173.68 203.305 -61.2863 157.26 200.851 -86.822 126.702 197.775 -96.2231 84.2387 191.201 -90.7429 98.0497 165.787 -6.52811 14.6453 7.36064 6.28551 
171.927 170.345 172.111 172.419 172.483 168.224 166.537 169.233 169.826 168.867 155.537 211.816 14.4047 173.985 203.985 -60.8045 157.613 201.579 -86.2774 127.091 198.425 -95.7519 84.7576 191.694 -90.4131 98.3903 166.119 -6.25857 14.5581 7.36164 6.23259 
171.965 170.4 172.086 172.394 172.454 168.2 166.594 169.2 169.782 168.782 155.492 212.391 14.8098 174.272 204.541 -60.3596 157.933 202.123 -85.8056 127.47 198.894 -95.3622 85.1548 192.08 -90.1303 98.6803 166.397 -6.01786 14.5575 7.35443 6.21312 
172.055 170.459 172.064 172.359 172.413 168.246 166.647 169.151 169.711 168.679 155.485 213.045 15.0828 174.567 204.97 -60.0242 158.212 202.588 -85.3979 127.792 199.324 -94.9941 85.4508 192.437 -89.8673 98.9663 166.682 -5.78415 14.6003 7.3452 6.185 
172.08 170.401 171.94 172.24 172.285 168.258 166.578 168.984 169.537 168.451 155.461 213.728 15.4809 174.785 205.377 -59.6689 158.371 203.034 -84.9974 128.001 199.698 -94.6266 85.58 192.746 -89.5766 99.2061 166.996 -5.53641 14.7082 7.33614 6.19476 
172.161 170.445 171.938 172.233 172.262 168.346 166.64 168.996 169.552 168.412 155.507 214.461 15.8482 175.17 205.8 -59.306 158.671 203.395 -84.6661 128.317 199.981 -94.3531 85.671 193.057 -89.3579 99.4756 167.362 -5.28416 14.9146 7.34962 6.26792 
172.182 170.404 171.918 172.215 172.225 168.378 166.608 168.984 169.566 168.362 155.48 215.146 16.3116 175.495 206.07 -58.8715 158.874 203.575 -84.358 128.547 200.002 -94.1268 85.6559 193.173 -89.1065 99.6738 167.706 -4.94702 15.1352 7.36372 6.4076 
172.114 170.423 171.981 172.266 172.248 168.329 166.716 169.118 169.728 168.447 155.522 216.27 17.2309 176.277 206.517 -58.0368 159.411 203.955 -83.7887 129.109 200.156 -93.6918 85.8557 193.479 -88.6337 100.119 168.313 -4.28303 15.4386 7.38977 6.67357 
171.975 170.458 172.09 172.381 172.349 168.234 166.783 169.263 169.93 168.653 155.392 216.766 17.6888 176.689 206.677 -57.6145 159.745 204.058 -83.5549 129.464 200.084 -93.5706 85.8955 193.465 -88.5442 100.271 168.549 -3.96641 15.6803 7.40191 6.81496 
171.804 170.501 172.168 172.444 172.407 168.063 166.871 169.374 170.059 168.796 155.201 217.319 17.9324 177.146 206.817 -57.2249 160.09 204.229 -83.2807 129.789 200.193 -93.3561 85.9857 193.635 -88.3304 100.49 168.837 -3.60187 15.8604 7.42553 6.92412 
171.573 170.547 172.241 172.506 172.448 167.832 166.963 169.471 170.165 168.897 155.09 217.661 18.1329 177.598 206.821 -56.9252 160.487 204.302 -83.0578 130.162 200.316 -93.1714 86.1067 193.871 -88.1601 100.684 169.071 -3.31337 16.0408 7.43843 6.98298 
171.352 170.559 172.259 172.518 172.451 167.645 166.998 169.476 170.18 168.915 155.013 218.003 18.3937 178.019 206.994 -56.5481 160.908 204.542 -82.7119 130.563 200.582 -92.9043 86.2949 194.139 -87.9934 100.883 169.299 -3.06022 16.2042 7.4633 6.99948 
171.118 170.493 172.208 172.468 172.406 167.442 166.913 169.376 170.101 168.853 154.984 218.256 18.5506 178.334 207.154 -56.233 161.232 204.797 -82.4112 130.895 200.858 -92.6635 86.5073 194.408 -87.833 101.071 169.494 -2.87502 16.2983 7.46962 7.00146 
170.909 170.367 172.092 172.363 172.314 167.309 166.766 169.191 169.943 168.737 155.14 218.436 18.7258 178.617 207.367 -55.9764 161.507 205.171 -82.1251 131.182 201.243 -92.4217 86.76 194.693 -87.6875 101.291 169.722 -2.7139 16.3329 7.47117 6.98146 
170.681 170.235 171.955 172.223 172.178 167.139 166.597 168.97 169.719 168.511 155.333 218.548 18.8242 178.774 207.507 -55.8397 161.676 205.476 -81.8927 131.372 201.622 -92.1675 87.0136 195.014 -87.4628 101.497 169.94 -2.57277 16.2948 7.45147 6.91692 
170.442 170.113 171.815 172.073 172.057 166.974 166.449 168.768 169.505 168.321 155.58 218.632 18.9581 178.958 207.726 -55.673 161.893 205.804 -81.6409 131.605 201.967 -91.9236 87.2903 195.243 -87.2839 101.728 170.172 -2.43771 16.2824 7.44744 6.85471 
170.254 169.962 171.627 171.859 171.89 166.91 166.266 168.504 169.207 168.055 155.898 218.734 19.2444 179.152 207.933 -55.4575 162.127 206.106 -81.3295 131.854 202.315 -91.6363 87.5692 195.426 -87.1314 101.962 170.372 -2.32747 16.3015 7.45176 6.79246 
170.077 169.839 171.444 171.653 171.733 166.847 166.128 168.263 168.932 167.825 156.08 218.94 19.5358 179.371 208.168 -55.1882 162.361 206.49 -80.967 132.089 202.752 -91.3044 87.8664 195.662 -86.955 102.197 170.577 -2.19345 16.296 7.46751 6.74071 
170.004 169.757 171.315 171.478 171.623 166.896 166.047 168.108 168.723 167.683 156.411 219.012 19.9283 179.598 208.403 -54.9055 162.631 206.808 -80.617 132.34 203.126 -90.9944 88.1661 195.846 -86.8141 102.421 170.761 -2.06561 16.3014 7.49769 6.69368 
169.967 169.672 171.176 171.287 171.504 166.957 165.925 167.91 168.459 167.488 156.657 219.118 20.2583 179.713 208.721 -54.6216 162.829 207.211 -80.2241 132.524 203.618 -90.6126 88.4699 196.107 -86.6054 102.622 170.95 -1.92317 16.2565 7.51689 6.60637 
169.972 169.588 171.044 171.096 171.41 167.079 165.798 167.715 168.195 167.306 157.041 219.012 20.611 179.772 208.93 -54.3651 162.955 207.475 -79.8567 132.631 203.927 -90.2502 88.7236 196.169 -86.401 102.794 171.053 -1.77973 16.2044 7.54213 6.52681 
170.072 169.586 170.994 170.982 171.401 167.276 165.747 167.619 168.035 167.259 157.554 218.733 21.053 179.79 209.215 -54.0971 163.064 207.772 -79.487 132.718 204.233 -89.8902 88.9896 196.21 -86.2046 102.928 171.13 -1.63203 16.1199 7.56657 6.4396 
170.188 169.552 170.908 170.854 171.374 167.449 165.676 167.501 167.863 167.178 158.021 218.542 21.6376 179.794 209.46 -53.7712 163.139 208.01 -79.0798 132.798 204.452 -89.4894 89.2001 196.171 -85.9491 103.055 171.21 -1.40497 16.0819 7.57652 6.37307 
170.362 169.536 170.849 170.758 171.365 167.664 165.633 167.422 167.726 167.132 158.509 218.332 22.176 179.769 209.689 -53.5158 163.186 208.215 -78.7466 132.837 204.638 -89.1478 89.3654 196.117 -85.7182 103.158 171.32 -1.18047 16.0436 7.5877 6.30448 
170.502 169.529 170.796 170.639 171.352 167.83 165.619 167.374 167.59 167.1 158.854 218.185 22.7998 179.7 209.844 -53.2566 163.203 208.317 -78.4069 132.847 204.728 -88.7824 89.4395 195.936 -85.4837 103.207 171.392 -0.918161 16.0702 7.59362 6.22983 
170.719 169.564 170.799 170.584 171.389 168.062 165.637 167.377 167.522 167.134 159.232 218.099 23.3513 179.675 210.055 -52.9866 163.259 208.451 -78.0792 132.892 204.836 -88.4357 89.5235 195.798 -85.2635 103.275 171.5 -0.653565 16.1099 7.60107 6.16899 
170.943 169.601 170.872 170.632 171.486 168.286 165.675 167.478 167.597 167.285 159.623 217.963 23.9344 179.711 210.276 -52.6499 163.37 208.51 -77.7949 133.005 204.763 -88.1848 89.6111 195.588 -85.0816 103.328 171.607 -0.376119 16.1704 7.61007 6.17179 
171.151 169.702 171.015 170.766 171.641 168.472 165.809 167.68 167.79 167.516 159.851 217.842 24.5618 179.815 210.44 -52.3028 163.529 208.517 -77.5727 133.156 204.643 -88.0261 89.6796 195.405 -84.972 103.345 171.661 -0.138916 16.2454 7.629 6.22212 
171.305 169.783 171.138 170.878 171.76 168.564 165.905 167.848 167.942 167.712 159.895 217.978 24.9976 179.9 210.639 -51.9926 163.739 208.571 -77.327 133.377 204.596 -87.8194 89.83 195.26 -84.8466 103.396 171.746 0.106338 16.3125 7.62704 6.20761 
171.404 169.877 171.281 170.995 171.884 168.581 166.038 168.054 168.117 167.928 159.852 218.178 25.4772 180.018 210.841 -51.6078 163.998 208.616 -77.0097 133.645 204.534 -87.5498 90.0078 195.079 -84.6841 103.447 171.831 0.396483 16.4001 7.62956 6.19223 
171.543 169.971 171.412 171.078 171.982 168.675 166.144 168.218 168.236 168.065 159.94 218.335 26.0389 180.103 211.085 -51.2469 164.234 208.666 -76.7053 133.901 204.477 -87.2816 90.1762 194.905 -84.5093 103.52 171.91 0.676199 16.4866 7.62429 6.17256 
171.68 170.035 171.514 171.126 172.06 168.784 166.228 168.349 168.303 168.163 160.117 218.491 26.6004 180.188 211.259 -50.949 164.461 208.684 -76.4209 134.126 204.454 -86.9856 90.3542 194.733 -84.3056 103.634 172.006 0.963688 16.5604 7.62138 6.13145 
171.818 170.197 171.692 171.254 172.214 168.843 166.423 168.571 168.463 168.385 160.239 218.612 27.1166 180.339 211.435 -50.6069 164.764 208.785 -76.0664 134.412 204.564 -86.6238 90.621 194.656 -84.0963 103.755 172.089 1.27165 16.6079 7.62113 6.06267 
171.935 170.322 171.805 171.317 172.316 168.89 166.549 168.704 168.535 168.536 160.169 219.048 27.4403 180.505 211.735 -50.2057 165.101 208.998 -75.6233 134.737 204.75 -86.1882 90.9205 194.584 -83.8807 103.92 172.216 1.5801 16.6943 7.62606 5.9769 
171.981 170.402 171.873 171.357 172.383 168.885 166.65 168.801 168.599 168.652 160.006 219.397 27.8821 180.662 212.109 -49.7153 165.377 209.29 -75.148 135.021 204.937 -85.7899 91.1412 194.516 -83.6543 104.062 172.321 1.89859 16.8041 7.64381 5.94792 
172.12 170.537 171.956 171.37 172.461 168.965 166.775 168.872 168.602 168.747 160.084 219.472 28.2938 180.749 212.533 -49.3411 165.62 209.65 -74.6964 135.268 205.28 -85.352 91.4179 194.455 -83.4585 104.226 172.394 2.15721 16.8818 7.64594 5.85043 
172.231 170.664 172.038 171.431 172.559 169.023 166.911 168.967 168.676 168.917 160.189 219.505 28.623 180.993 212.913 -48.875 165.954 209.978 -74.2206 135.611 205.529 -84.959 91.7484 194.396 -83.3 104.409 172.481 2.41223 16.9734 7.66114 5.82056 
172.374 170.774 172.072 171.427 172.6 169.118 166.998 168.972 168.637 168.966 160.336 219.485 28.8667 181.193 213.216 -48.509 166.232 210.276 -73.7838 135.892 205.937 -84.4839 92.096 194.479 -83.095 104.609 172.536 2.62159 17.0271 7.64518 5.7587 
172.54 170.911 172.103 171.474 172.656 169.225 167.131 168.977 168.663 169.061 160.582 219.445 29.0047 181.562 213.452 -48.1067 166.57 210.608 -73.3159 136.25 206.338 -83.9911 92.5057 194.517 -82.9307 104.88 172.611 2.82658 17.1225 7.6243 5.73381 
172.728 170.996 172.122 171.544 172.711 169.367 167.185 168.967 168.698 169.133 161.015 219.287 29.099 181.942 213.762 -47.6801 166.914 210.907 -72.8871 136.622 206.614 -83.586 92.8886 194.575 -82.7397 105.178 172.723 3.01808 17.2134 7.6139 5.76347 
172.956 171.157 172.163 171.692 172.796 169.556 167.328 168.976 168.827 169.266 161.246 219.437 29.1759 182.482 214.072 -47.2088 167.334 211.276 -72.4253 137.095 206.976 -83.1207 93.3515 194.708 -82.5887 105.517 172.859 3.21335 17.3283 7.57662 5.82722 
173.126 171.328 172.244 171.833 172.885 169.587 167.461 169.017 168.914 169.355 161.757 219.212 29.0908 182.881 214.214 -47.011 167.653 211.463 -72.1705 137.466 207.231 -82.7729 93.8547 194.803 -82.4172 105.845 172.961 3.37477 17.2976 7.51165 5.83116 
173.171 171.431 172.288 171.97 172.932 169.478 167.517 169.027 169.002 169.406 162.165 219.078 28.9685 183.216 214.409 -46.7772 167.946 211.653 -71.8913 137.812 207.476 -82.402 94.3083 194.917 -82.2021 106.144 173.093 3.568 17.2786 7.44833 5.83023 
173.143 171.543 172.329 172.2 172.985 169.304 167.567 169.014 169.218 169.447 162.448 218.977 28.677 183.563 214.51 -46.5899 168.227 211.76 -71.6628 138.186 207.658 -82.0243 94.7901 194.99 -82.0397 106.439 173.162 3.72461 17.2692 7.33981 5.8412 
173.049 171.644 172.385 172.466 173.028 169.07 167.609 169.028 169.45 169.457 162.846 218.763 28.2786 183.872 214.561 -46.5849 168.494 211.777 -71.6143 138.511 207.864 -81.7294 95.269 195.156 -81.9106 106.754 173.22 3.80186 17.2026 7.22727 5.84031 
172.85 171.692 172.416 172.678 173.057 168.743 167.562 168.994 169.557 169.42 162.984 218.673 27.7704 184.149 214.422 -46.5708 168.753 211.612 -71.5511 138.831 207.901 -81.4647 95.7018 195.266 -81.7557 107.02 173.157 3.87188 17.1258 7.12708 5.82551 
172.623 171.715 172.423 172.911 173.046 168.41 167.463 168.908 169.695 169.294 163.215 218.459 27.2708 184.258 214.318 -46.6606 168.885 211.482 -71.5321 139.039 207.945 -81.2031 96.072 195.371 -81.5719 107.264 173.038 3.91329 17.0135 7.01054 5.75857 
172.433 171.667 172.356 173.185 172.963 168.178 167.307 168.73 169.882 169.036 163.606 218.168 26.9748 184.395 214.06 -46.7675 168.98 211.254 -71.5177 139.148 207.957 -80.8818 96.3378 195.493 -81.3201 107.5 172.893 3.96023 16.9202 6.92618 5.70938 
172.273 171.555 172.238 173.49 172.837 168.022 167.095 168.503 169.93 168.714 163.925 217.898 26.7682 184.556 213.589 -46.8555 169.065 210.86 -71.5172 139.183 207.875 -80.5505 96.5066 195.542 -81.0692 107.706 172.662 4.00388 16.8633 6.8879 5.68983 
172.096 171.406 172.097 173.795 172.681 167.88 166.818 168.263 169.962 168.391 164.03 217.823 26.524 184.664 213.182 -46.8354 169.189 210.438 -71.4781 139.216 207.868 -80.0548 96.6448 195.571 -80.8413 107.873 172.407 4.05826 16.9095 6.85712 5.67761 
171.86 171.167 171.891 173.859 172.483 167.664 166.498 168.019 169.544 168.051 164.106 217.706 26.4614 184.745 212.714 -46.7921 169.376 209.966 -71.4054 139.235 207.921 -79.5749 96.7154 195.608 -80.6076 108.009 172.157 4.12649 17.0021 6.92597 5.621 
171.722 170.936 171.708 173.511 172.314 167.582 166.233 167.851 168.932 167.803 164.299 217.62 26.6173 184.931 212.163 -46.7152 169.663 209.432 -71.335 139.332 208.02 -79.0952 96.7835 195.705 -80.395 108.149 171.973 4.23206 17.1542 7.04381 5.5843 
171.661 170.672 171.492 172.89 172.118 167.588 165.958 167.644 168.183 167.524 164.439 217.637 26.924 185.074 211.742 -46.5848 169.889 209.07 -71.2091 139.34 208.189 -78.6576 96.7547 195.791 -80.1838 108.272 171.843 4.36663 17.322 7.21546 5.54816 
171.636 170.495 171.347 172.227 171.98 167.592 165.807 167.545 167.496 167.344 164.278 217.874 27.2219 185.185 211.358 -46.4204 170.083 208.733 -71.0719 139.323 208.362 -78.2552 96.6532 195.882 -79.992 108.315 171.733 4.53469 17.4968 7.41032 5.52338 
171.622 170.363 171.247 171.672 171.894 167.629 165.723 167.507 166.904 167.257 164.172 218.135 27.5858 185.315 211.143 -46.2205 170.271 208.54 -70.9437 139.283 208.638 -77.8365 96.5524 195.999 -79.8545 108.375 171.714 4.7138 17.6968 7.62435 5.53456 
171.631 170.253 171.186 171.117 171.834 167.679 165.645 167.482 166.368 167.215 163.987 218.425 27.93 185.383 211.032 -46.0137 170.421 208.436 -70.7917 139.256 208.833 -77.526 96.4554 196.02 -79.7485 108.394 171.711 4.88206 17.8717 7.7937 5.52902 
171.647 170.157 171.15 170.689 171.786 167.746 165.561 167.467 166.02 167.185 164.022 218.637 28.2705 185.422 211.054 -45.8347 170.561 208.384 -70.6464 139.319 208.906 -77.3442 96.3824 196.011 -79.6335 108.443 171.783 5.06008 18.0246 7.87074 5.51692 
171.662 170.087 171.132 170.327 171.762 167.793 165.484 167.455 165.712 167.176 163.953 218.997 28.5042 185.426 211.194 -45.6964 170.685 208.451 -70.5315 139.378 209.072 -77.1624 96.3553 196.025 -79.5693 108.492 171.916 5.20405 18.1698 7.93178 5.49051 
171.66 170.021 171.104 170.016 171.734 167.83 165.394 167.407 165.445 167.149 163.868 219.38 28.6951 185.447 211.456 -45.5042 170.819 208.671 -70.3474 139.464 209.296 -76.9835 96.4046 196.067 -79.515 108.561 172.083 5.33293 18.2813 7.97095 5.45559 
171.635 169.989 171.126 169.813 171.75 167.825 165.352 167.436 165.358 167.193 163.733 219.698 28.9112 185.465 211.749 -45.2327 170.98 208.847 -70.0983 139.626 209.354 -76.8894 96.4337 196.062 -79.4339 108.596 172.227 5.49049 18.3843 7.95957 5.43537 
171.611 169.989 171.163 169.724 171.778 167.827 165.357 167.485 165.37 167.25 163.639 219.927 29.0533 185.503 211.954 -45.0213 171.08 208.946 -69.9266 139.738 209.354 -76.8195 96.401 196.02 -79.3747 108.613 172.346 5.62743 18.4985 7.94195 5.45595 
171.557 169.986 171.183 169.713 171.788 167.787 165.365 167.507 165.439 167.284 163.406 220.208 29.2006 185.513 212.214 -44.7839 171.143 209.159 -69.7029 139.825 209.394 -76.7804 96.3788 195.999 -79.3075 108.616 172.46 5.76149 18.5697 7.91571 5.45424 
171.475 170.029 171.238 169.754 171.825 167.696 165.431 167.583 165.575 167.348 163.237 220.412 29.3983 185.51 212.487 -44.5648 171.226 209.35 -69.4751 139.965 209.375 -76.7708 96.4299 195.962 -79.2148 108.621 172.592 5.92132 18.5879 7.86745 5.43152 
171.396 170.119 171.325 169.854 171.891 167.602 165.527 167.685 165.737 167.41 163.196 220.457 29.6327 185.421 212.836 -44.3799 171.222 209.555 -69.3138 140.012 209.466 -76.638 96.457 195.989 -79.1147 108.606 172.721 6.07107 18.616 7.8245 5.43949 
171.294 170.225 171.432 170.026 171.959 167.465 165.647 167.803 165.959 167.486 162.928 220.659 29.7041 185.305 213.263 -44.1693 171.178 209.844 -69.1551 139.977 209.721 -76.3297 96.5216 196.013 -79.0033 108.578 172.85 6.23169 18.6567 7.80756 5.46529 
171.173 170.333 171.523 170.138 172.019 167.3 165.795 167.911 166.105 167.557 162.916 220.677 29.8508 185.219 213.589 -44.0783 171.117 210.156 -69.0049 139.957 209.917 -76.2314 96.5805 196.171 -78.8249 108.569 173.024 6.38722 18.565 7.7759 5.41851 
170.993 170.486 171.637 170.297 172.069 167.046 165.981 168.027 166.304 167.577 162.949 220.777 29.9424 185.041 214.026 -44.0489 170.943 210.584 -68.8849 139.828 210.317 -75.9727 96.6367 196.463 -78.5357 108.563 173.328 6.61704 18.4417 7.74668 5.35233 
170.882 170.564 171.682 170.464 172.085 166.906 166.062 168.059 166.454 167.57 162.918 220.892 30.0126 184.939 214.323 -43.9529 170.794 210.904 -68.7552 139.745 210.554 -75.8248 96.6953 196.722 -78.2831 108.569 173.518 6.78165 18.2874 7.70333 5.33886 
170.768 170.633 171.723 170.58 172.107 166.8 166.146 168.109 166.587 167.584 162.982 220.944 30.025 184.863 214.577 -43.9528 170.69 211.119 -68.7303 139.697 210.7 -75.8084 96.7223 196.915 -78.1473 108.6 173.692 6.8749 18.1752 7.67092 5.33687 
170.913 170.948 172.007 171.091 172.295 166.944 166.522 168.468 167.299 167.932 163.412 220.477 29.8293 184.597 214.777 -44.2444 170.279 211.447 -68.9639 139.475 210.777 -76.0813 96.8151 196.907 -78.1474 108.61 173.817 6.95265 17.8693 7.49813 5.31059 
171.075 171.212 172.25 171.901 172.473 167.033 166.84 168.773 168.129 168.253 163.658 220.108 29.6736 184.412 214.951 -44.3751 170 211.733 -69.0637 139.395 210.715 -76.3319 96.9093 196.857 -78.1488 108.608 173.884 7.02518 17.6436 7.30625 5.29405 
171.194 171.452 172.456 172.788 172.611 167.077 167.173 169.065 168.922 168.502 163.88 219.837 29.651 184.309 215.103 -44.4798 169.812 211.986 -69.1604 139.363 210.709 -76.5522 97.0239 196.895 -78.1451 108.624 173.982 7.09929 17.4259 7.17068 5.28772 
171.27 171.631 172.611 173.655 172.705 167.081 167.418 169.287 169.6 168.68 164.195 219.509 29.6782 184.209 215.236 -44.5809 169.668 212.173 -69.244 139.362 210.678 -76.7306 97.1911 196.946 -78.1107 108.654 174.077 7.1685 17.1943 7.0479 5.27319 
171.387 171.781 172.732 174.465 172.777 167.159 167.621 169.455 170.186 168.807 164.477 219.296 29.7655 184.131 215.289 -44.6697 169.527 212.29 -69.3109 139.332 210.608 -76.8643 97.2639 196.953 -78.0705 108.678 174.16 7.25358 17.0364 6.95229 5.26309 
171.456 171.944 172.853 175.276 172.851 167.133 167.85 169.635 170.755 168.952 164.562 219.319 29.7801 184.143 215.395 -44.6901 169.51 212.479 -69.2975 139.451 210.62 -76.9555 97.4746 197.049 -78.0244 108.728 174.296 7.34287 16.8716 6.85142 5.23253 
171.496 171.995 172.908 175.94 172.867 167.093 167.9 169.691 171.21 168.979 164.487 219.385 29.8023 184.146 215.484 -44.5781 169.516 212.575 -69.2026 139.566 210.555 -76.9716 97.5488 197.162 -77.8965 108.75 174.335 7.4473 16.7844 6.76981 5.23766 
