160.385 148.287 161.468 163.522 164.549 158.169 99.5987 150.682 155.273 151.734 -22.4154 166.104 10.4235 -25.3194 173.544 15.3341 18.5838 190.174 -43.3407 43.797 200.038 -26.3741 57.1969 202.725 8.59013 -13.6339 223.454 41.3384 10.7498 10.7432 65.1151 
160.323 148.23 161.478 163.57 164.539 158.182 99.6361 150.75 155.362 151.865 -22.3647 166.199 10.3122 -25.2008 173.553 15.1589 18.6788 190.171 -43.4001 43.8706 199.982 -26.458 57.2701 202.651 8.4925 -13.5208 223.458 41.3023 10.7205 10.6943 64.946 
160.368 148.204 161.515 163.623 164.532 158.26 99.8633 150.769 155.401 151.953 -22.1531 166.157 10.246 -24.9727 173.391 15.0864 18.7618 189.954 -43.3161 43.9113 199.805 -26.447 57.3521 202.568 8.44739 -13.4009 223.411 41.2838 10.7004 10.6631 64.6685 
160.337 148.207 161.604 163.712 164.565 158.245 99.9894 150.855 155.442 151.876 -21.973 166.255 10.1259 -24.8032 173.414 15.0043 18.8987 189.993 -43.3797 44.0037 199.759 -26.5052 57.3927 202.451 8.39689 -13.2825 223.445 41.2097 10.6599 10.5916 64.5999 
160.32 148.195 161.645 163.765 164.565 158.268 100.121 150.887 155.462 151.824 -21.8073 166.262 10.0309 -24.6531 173.366 14.9045 18.9988 189.881 -43.3937 44.077 199.602 -26.5361 57.4148 202.247 8.35392 -13.1566 223.445 41.1462 10.6006 10.5378 64.4328 
160.281 148.221 161.71 163.841 164.573 158.2 100.264 150.935 155.492 151.852 -21.56 166.34 9.94173 -24.5204 173.387 14.9117 19.1385 189.869 -43.4019 44.1669 199.549 -26.5608 57.5153 202.188 8.28713 -13.0413 223.455 41.0889 10.5868 10.5054 64.4241 
160.294 148.266 161.715 163.859 164.538 158.195 100.578 150.927 155.501 151.898 -21.3427 166.347 9.89937 -24.4248 173.263 14.7802 19.1881 189.768 -43.4059 44.2233 199.511 -26.6293 57.6524 202.186 8.19208 -12.9273 223.448 41.0203 10.6297 10.5421 64.2325 
160.252 148.331 161.58 163.745 164.404 158.143 100.832 150.775 155.392 151.857 -21.2349 166.272 9.83508 -24.2974 173.103 14.5215 19.2421 189.649 -43.3947 44.285 199.486 -26.7036 57.8132 202.181 8.08821 -12.8137 223.379 40.9234 10.6967 10.6029 63.95 
160.264 148.295 161.492 163.684 164.316 158.063 101.009 150.719 155.4 151.904 -21.1438 166.209 9.85471 -24.2291 172.955 14.3709 19.3298 189.536 -43.4044 44.3864 199.493 -26.7795 57.9601 202.186 7.99417 -12.717 223.318 40.8552 10.731 10.6801 63.8201 
160.338 148.236 161.506 163.701 164.31 158.08 101.078 150.747 155.477 152.002 -21.0051 166.091 9.83563 -24.0696 172.833 14.3864 19.4989 189.432 -43.4197 44.5718 199.547 -26.8302 58.1732 202.289 7.96311 -12.5902 223.263 40.8018 10.7754 10.7608 63.8524 
160.359 148.302 161.486 163.703 164.286 158.084 101.128 150.703 155.44 152.029 -20.8158 166.114 9.76259 -23.8932 172.84 14.3067 19.6063 189.433 -43.4235 44.666 199.611 -26.8655 58.3367 202.426 7.88455 -12.4561 223.281 40.755 10.802 10.7842 63.7632 
160.402 148.332 161.484 163.69 164.273 158.114 101.2 150.738 155.499 152.131 -20.7071 166.059 9.76073 -23.7353 172.768 14.1565 19.6891 189.483 -43.4936 44.781 199.79 -26.9298 58.5147 202.641 7.83948 -12.3422 223.278 40.7452 10.8577 10.8579 63.6589 
160.349 148.396 161.44 163.657 164.242 158.052 101.073 150.714 155.502 152.135 -20.4834 166.035 9.77175 -23.604 172.879 14.1679 19.8348 189.672 -43.575 44.8949 200.027 -27.0203 58.6305 202.87 7.74354 -12.223 223.312 40.7058 10.8511 10.8713 63.8311 
160.369 148.416 161.397 163.637 164.268 158.064 100.989 150.707 155.54 152.23 -20.2381 165.986 9.6941 -23.3995 172.889 14.1109 19.9537 189.796 -43.6737 44.9895 200.269 -27.1341 58.7915 203.185 7.60654 -12.091 223.288 40.6637 10.8767 10.9151 63.9015 
160.411 148.426 161.31 163.59 164.273 158.062 100.913 150.669 155.635 152.455 -20.0234 165.877 9.75331 -23.2439 172.817 14.1027 20.049 189.803 -43.7379 45.1094 200.51 -27.2578 59.0212 203.557 7.48622 -11.9761 223.253 40.6279 10.9588 11.0323 63.9855 
160.42 148.473 161.258 163.545 164.279 158.018 100.75 150.618 155.658 152.543 -19.9788 165.855 9.80698 -23.1925 172.874 14.1116 20.0962 189.895 -43.8174 45.1666 200.74 -27.363 59.1709 203.86 7.40304 -11.8889 223.266 40.6249 11.0372 11.1099 64.1115 
160.461 148.409 161.251 163.577 164.32 157.981 100.577 150.673 155.797 152.669 -19.9022 165.853 9.85368 -23.166 172.915 14.2533 20.2473 189.992 -43.924 45.3731 201.023 -27.483 59.4101 204.144 7.36975 -11.7934 223.278 40.6023 11.1267 11.2391 64.4336 
160.379 148.498 161.146 163.495 164.284 157.85 100.451 150.636 155.818 152.748 -19.8624 165.873 9.93845 -23.1877 172.964 14.3904 20.3407 190.156 -44.0445 45.5418 201.268 -27.5775 59.6533 204.388 7.33268 -11.706 223.304 40.5544 11.2438 11.3349 64.8089 
160.413 148.506 161.098 163.476 164.309 157.841 100.327 150.627 155.863 152.837 -19.7362 165.84 9.94934 -23.076 172.972 14.5009 20.4835 190.248 -44.1462 45.7262 201.483 -27.6603 59.8933 204.644 7.29928 -11.5796 223.318 40.5142 11.3261 11.4124 65.0718 
160.392 148.555 160.982 163.399 164.26 157.779 100.217 150.529 155.832 152.821 -19.6246 165.763 10.0252 -22.971 172.964 14.5916 20.6178 190.291 -44.2086 45.878 201.602 -27.7335 60.0671 204.775 7.26695 -11.4788 223.334 40.4403 11.3792 11.4484 65.2899 
160.368 148.781 160.851 163.265 164.165 157.768 100.177 150.383 155.754 152.773 -19.4491 165.737 10.0677 -22.8946 172.982 14.5395 20.7174 190.516 -44.3309 46.0363 201.931 -27.823 60.3128 205.078 7.25955 -11.367 223.387 40.3773 11.5152 11.5401 65.459 
160.371 148.975 160.783 163.154 164.104 157.788 100.111 150.259 155.664 152.714 -19.2444 165.692 10.0138 -22.7451 173.048 14.3913 20.8559 190.716 -44.4745 46.2018 202.172 -27.941 60.518 205.278 7.19256 -11.2269 223.444 40.2693 11.5831 11.5796 65.5262 
160.362 149.25 160.547 162.924 163.945 157.828 100.064 149.97 155.47 152.54 -19.1757 165.764 9.97724 -22.6598 173.169 14.1588 20.9375 191.059 -44.5248 46.3482 202.552 -27.9567 60.7139 205.543 7.24349 -11.1101 223.569 40.234 11.6808 11.6535 65.4934 
160.421 149.56 160.432 162.806 163.854 157.872 100.042 149.861 155.311 152.368 -19.1047 165.954 9.80332 -22.492 173.364 13.7587 21.1218 191.571 -44.731 46.5633 202.95 -28.0207 60.9228 205.786 7.26017 -10.991 223.747 40.1647 11.7432 11.6337 65.4011 
160.59 149.78 160.392 162.757 163.787 158.069 99.8318 149.757 155.205 152.111 -18.789 166.33 9.65894 -22.1101 173.855 13.397 21.5156 192.413 -44.9381 46.9989 203.778 -28.0905 61.3017 206.392 7.34614 -10.7121 224.198 40.0985 11.8106 11.638 65.3765 
160.697 149.864 160.462 162.826 163.856 158.233 99.7902 149.764 155.08 151.825 -18.633 166.551 9.5344 -21.894 174.141 13.3813 21.6629 192.783 -45.0134 47.1185 203.926 -28.0784 61.3012 206.426 7.3463 -10.5667 224.474 40.0671 11.693 11.4845 65.4115 
160.792 149.923 160.588 162.937 163.934 158.296 99.9395 149.832 155.017 151.672 -18.4444 166.882 9.30135 -21.647 174.467 13.2855 21.8544 193.222 -45.1382 47.2969 204.149 -28.1217 61.3873 206.553 7.2581 -10.3723 224.796 40.0061 11.5821 11.3698 65.3817 
160.778 150.009 160.628 162.938 163.898 158.356 100.305 149.754 154.853 151.42 -18.0592 167.172 9.10169 -21.3261 174.677 13.1084 22.0016 193.527 -45.1371 47.4034 204.35 -28.1475 61.4667 206.714 7.15566 -10.1502 225.081 39.9171 11.5064 11.304 65.1378 
160.72 149.984 160.732 163.004 163.935 158.334 100.637 149.77 154.831 151.386 -17.5601 167.375 9.07538 -20.9629 174.825 13.096 22.2313 193.663 -45.0862 47.5661 204.524 -28.193 61.6537 206.952 7.02242 -9.88929 225.324 39.8385 11.4616 11.2818 64.9861 
160.672 149.947 160.793 163.037 163.949 158.368 100.875 149.686 154.706 151.24 -17.1696 167.628 9.0652 -20.5584 175.038 13.2288 22.5003 193.71 -44.916 47.755 204.606 -28.1269 61.8735 207.199 6.979 -9.59088 225.626 39.7856 11.4183 11.2408 64.872 
160.703 149.816 160.869 163.137 164.035 158.525 101.082 149.744 154.742 151.199 -16.8646 167.857 9.0996 -20.1277 175.231 13.411 22.8793 193.834 -44.6988 48.0315 204.852 -28.0205 62.1503 207.606 7.01654 -9.27746 225.934 39.8322 11.3743 11.2151 64.7888 
160.633 149.715 160.826 163.138 163.998 158.57 101.253 149.724 154.766 151.251 -16.4721 168.145 9.13343 -19.6657 175.429 13.4542 23.3094 193.942 -44.5264 48.3723 205.161 -28.0017 62.549 208.082 6.95763 -8.90743 226.229 39.823 11.3788 11.2551 64.6267 
160.587 149.716 160.613 163.011 163.83 158.581 101.37 149.628 154.733 151.347 -15.8732 168.221 9.23917 -19.0893 175.45 13.316 23.8172 194.032 -44.4372 48.8279 205.46 -27.9988 63.078 208.519 6.88698 -8.50377 226.362 39.7875 11.4159 11.3319 64.417 
160.514 149.711 160.211 162.756 163.565 158.555 101.428 149.422 154.738 151.451 -15.306 167.969 9.27583 -18.345 175.15 13.0465 24.3774 193.981 -44.4673 49.3952 205.765 -28.1436 63.7153 208.908 6.72284 -8.0502 226.205 39.6542 11.4896 11.5095 64.2512 
160.468 150.274 159.675 162.317 163.198 158.515 101.627 148.85 154.272 151.224 -14.7338 167.882 9.19503 -17.5523 174.996 12.3972 24.9143 194.149 -44.5081 49.9891 206.023 -28.1735 64.4953 209.25 6.70633 -7.50255 226.186 39.4898 11.705 11.61 63.7852 
160.513 150.641 159.482 162.219 163.129 158.577 101.94 148.531 154.029 151.19 -13.9256 167.867 8.95708 -16.7726 174.914 11.931 25.4397 194.32 -44.5832 50.5459 206.306 -28.261 65.2494 209.697 6.58404 -6.94508 226.192 39.3228 11.8887 11.7124 63.4396 
160.584 150.971 159.577 162.356 163.138 158.689 102.373 148.206 153.655 150.83 -13.1223 168.115 8.68865 -15.9656 175.044 11.5384 25.9716 194.451 -44.4948 51.0754 206.424 -28.1705 65.8925 209.977 6.64154 -6.33681 226.429 39.2151 12.0032 11.7251 62.8863 
160.574 151.176 159.768 162.6 163.285 158.8 102.793 148.077 153.391 150.533 -12.4105 168.653 8.43925 -15.334 175.433 11.3123 26.4182 194.615 -44.3502 51.445 206.375 -28.0514 66.2839 210.065 6.65048 -5.79865 226.853 39.1632 11.9643 11.593 62.358 
160.53 151.119 159.939 162.763 163.445 158.906 103.269 148.152 153.362 150.579 -11.5807 169.097 8.32207 -14.6387 175.635 11.169 26.8956 194.597 -44.1528 51.8326 206.339 -27.9437 66.752 210.26 6.63435 -5.27948 227.171 39.1856 11.9624 11.5381 61.7688 
160.468 151.265 159.73 162.617 163.282 158.895 103.695 148.075 153.251 150.482 -10.8158 169.179 8.22349 -14.0474 175.527 10.6508 27.4779 194.53 -44.1139 52.3797 206.127 -27.9104 67.2402 209.92 6.65666 -4.73183 227.149 39.1349 11.9152 11.4963 61.2004 
160.496 151.264 159.448 162.383 163.1 158.87 103.829 148.052 153.175 150.264 -10.3313 168.915 8.25688 -13.3832 175.25 10.2083 28.1809 194.4 -44.1091 53.1177 205.88 -27.7834 67.8214 209.417 6.8946 -4.17397 226.92 39.1706 11.8705 11.4767 60.8125 
160.569 151.266 159.211 162.153 162.942 158.799 104.144 147.967 153.141 150.327 -9.7152 168.411 8.34447 -12.7864 174.707 9.81937 28.8106 194.041 -44.0709 53.857 205.599 -27.6967 68.579 209.019 7.0656 -3.63033 226.459 39.1922 11.9924 11.6382 60.4778 
160.663 151.349 159.217 162.1 162.938 158.779 104.497 147.937 153.047 150.322 -9.10631 168.107 8.37512 -12.18 174.288 9.61853 29.3279 193.778 -44.075 54.4494 205.351 -27.6097 69.2571 208.834 7.19538 -3.1412 226.153 39.2099 12.1342 11.7143 60.2674 
160.875 151.319 159.479 162.375 163.093 158.913 104.986 147.916 153.02 150.348 -8.42942 167.724 8.32972 -11.4534 173.784 9.61714 29.827 193.106 -43.8637 54.9739 204.789 -27.4174 69.8274 208.468 7.37553 -2.62511 225.861 39.2509 12.1877 11.7742 59.8382 
161.05 151.259 159.891 162.779 163.274 159.062 105.368 148.115 153.048 150.276 -7.78629 167.513 8.35781 -10.7382 173.468 9.7575 30.4681 192.51 -43.6047 55.5038 204.06 -27.0998 70.2346 207.872 7.66087 -2.14528 225.727 39.3065 12.0878 11.6055 59.4975 
161.059 151.291 160.121 163.015 163.421 159.085 105.702 148.218 152.991 150.207 -7.06759 167.369 8.28689 -10.1679 173.212 9.67395 31.0019 191.94 -43.4686 55.9151 203.213 -26.9287 70.5412 207.065 7.74793 -1.65178 225.517 39.2754 11.9519 11.4079 59.1201 
161.056 151.126 160.153 162.984 163.411 159.034 105.962 148.413 153.069 150.254 -6.50804 166.843 8.332 -9.45282 172.555 9.60507 31.6351 191.255 -43.4336 56.4689 202.43 -26.7937 70.9899 206.282 7.84967 -1.17929 224.997 39.2232 11.8744 11.3119 58.9433 
161.089 151.095 159.867 162.652 163.269 158.979 106.282 148.427 153.15 150.447 -5.93306 165.94 8.53781 -8.82249 171.49 9.52947 32.1371 190.427 -43.4754 57.0553 201.784 -26.7994 71.5975 205.656 7.87617 -0.744016 224.184 39.1824 11.9437 11.4496 58.9029 
161.146 151.404 159.786 162.587 163.249 158.96 106.597 148.398 153.086 150.502 -5.39272 165.132 8.54667 -8.37378 170.604 9.33607 32.4503 189.678 -43.6897 57.4248 200.964 -26.919 72.09 204.909 7.75578 -0.319864 223.458 39.0337 12.0498 11.4591 58.8824 
161.203 151.602 159.874 162.654 163.312 159.028 106.873 148.481 153.05 150.341 -4.99025 164.426 8.46475 -7.8679 169.863 9.15485 32.8454 189.002 -43.8852 57.8348 200.128 -26.9747 72.4416 204.02 7.77157 0.120849 222.86 38.9063 12.034 11.3828 58.8189 
161.261 151.87 160.074 162.852 163.446 159.089 107.102 148.575 152.948 150.109 -4.71828 163.937 8.20687 -7.43718 169.428 9.00665 33.3305 188.576 -44.0532 58.2791 199.357 -26.9225 72.7714 203.168 7.88871 0.518238 222.438 38.7972 11.9998 11.2188 58.8128 
161.302 151.957 160.321 163.276 163.685 159.203 107.2 148.649 152.846 149.883 -4.51293 163.705 7.76373 -7.16716 169.271 8.79497 33.6864 188.053 -44.1533 58.5282 198.315 -26.8979 72.8637 202.053 7.87564 0.882875 222.138 38.6536 11.8371 10.9406 58.6024 
161.288 151.983 160.486 163.464 163.803 159.28 107.518 148.805 152.873 149.91 -4.25264 163.186 7.39911 -6.83186 168.67 8.58075 33.9949 187.255 -44.3301 58.7371 197.23 -27.0376 73.1058 201.083 7.66902 1.2469 221.557 38.4485 11.8178 10.7753 58.4318 
161.34 152.111 160.543 163.63 163.814 159.349 107.8 148.759 152.764 149.785 -3.8697 162.582 7.046 -6.30033 168.019 8.20603 34.3618 186.403 -44.4472 58.9916 196.263 -27.1606 73.4 200.353 7.46081 1.59947 220.985 38.1816 11.8177 10.6569 58.0398 
161.402 152.216 160.551 163.694 163.787 159.334 108.049 148.741 152.704 149.836 -3.43241 161.947 6.81061 -5.8868 167.407 7.82804 34.5791 185.647 -44.6486 59.1482 195.409 -27.3965 73.6464 199.703 7.08337 1.88792 220.413 37.9103 11.8117 10.5834 57.724 
161.465 152.455 160.512 163.675 163.738 159.344 108.293 148.693 152.614 149.843 -3.04794 161.502 6.55193 -5.51911 166.985 7.32445 34.7588 185.155 -44.9134 59.2891 194.784 -27.703 73.8507 199.17 6.64165 2.1829 220.01 37.6453 11.7625 10.5069 57.3715 
161.51 152.403 160.422 163.566 163.66 159.339 108.481 148.654 152.544 149.807 -2.75153 160.901 6.43524 -5.08071 166.423 6.94595 34.9399 184.491 -45.0751 59.3986 194.105 -27.9525 73.984 198.614 6.27885 2.41989 219.535 37.4061 11.693 10.4361 57.0103 
161.566 152.305 160.379 163.49 163.602 159.267 108.426 148.664 152.489 149.754 -2.37003 160.56 6.11616 -4.69856 166.178 6.4265 35.1661 184.262 -45.3937 59.5615 193.73 -28.2885 74.084 198.203 5.81949 2.63818 219.148 37.1937 11.5318 10.331 56.7304 
161.625 152.219 160.346 163.376 163.518 159.219 108.494 148.783 152.457 149.689 -2.12673 160.316 5.85185 -4.34723 165.935 5.88428 35.3355 184.225 -45.7878 59.6825 193.488 -28.6428 74.1337 197.915 5.33304 2.82231 218.86 37.0233 11.3396 10.1855 56.4886 
161.796 151.798 160.581 163.342 163.602 159.249 108.677 149.152 152.745 149.907 -1.75829 159.88 5.76081 -3.87924 165.44 5.48136 35.4412 183.862 -46.1036 59.7484 193.276 -29.0474 74.0846 197.773 4.78088 2.92195 218.475 36.9102 11.0747 10.1564 56.1374 
162.055 151.036 160.908 163.507 163.877 159.417 108.475 149.561 153.217 150.156 -1.33264 159.463 5.45236 -3.60256 165.169 5.38515 35.3069 183.513 -46.5175 59.5595 193.233 -29.8072 73.6506 197.624 3.81486 2.91279 218.093 36.7454 10.5685 10.1711 56.0647 
162.274 150.167 161.174 163.656 164.14 159.615 107.73 149.878 153.533 150.177 -0.91084 159.355 4.92713 -3.37308 165.388 5.67133 35.3184 183.424 -46.8728 59.3366 193.362 -30.572 73.1063 197.625 2.77752 2.94646 217.947 36.5223 9.95367 10.039 56.3752 
162.529 149.151 161.496 163.913 164.507 159.869 107.184 150.306 154.044 150.353 -0.508134 159.147 4.47159 -3.23978 165.337 6.07037 35.0841 182.9 -47.1948 58.883 193.246 -31.4528 72.3541 197.515 1.58524 2.97934 217.7 36.246 9.29835 10.0005 56.6503 
162.786 148.03 161.871 164.314 164.891 160.047 106.739 150.829 154.683 150.491 -0.257209 159.05 4.09171 -3.03097 165.203 6.64244 34.8926 182.293 -47.4723 58.4599 193.046 -32.2651 71.5184 197.304 0.495432 3.05176 217.501 36.0002 8.55912 9.95557 57.0303 
163.079 147.091 162.377 164.893 165.365 160.242 106.745 151.547 155.557 150.944 0.11377 159.018 3.71283 -2.781 164.931 7.14727 34.7536 181.813 -47.811 58.1493 193.028 -33.1209 70.8561 197.284 -0.582993 3.16909 217.313 35.8087 7.91793 10.0038 57.3818 
163.288 146.19 162.745 165.358 165.791 160.313 106.653 152.087 156.274 151.369 0.321404 159.331 3.216 -2.66271 164.962 7.73588 34.6288 181.607 -48.1311 57.9008 193.151 -33.9241 70.3219 197.32 -1.59613 3.37272 217.279 35.6309 7.37073 10.0992 57.9476 
163.366 145.55 162.908 165.569 166.007 160.298 106.597 152.395 156.724 151.577 0.621002 159.412 2.76151 -2.46985 164.82 8.17576 34.5677 181.221 -48.395 57.6807 193.016 -34.6317 69.8697 197.074 -2.49674 3.65913 217.084 35.3887 6.90025 10.1746 58.3967 
163.356 145.206 163.053 165.638 166.074 160.233 106.404 152.512 156.753 151.179 0.935749 159.696 2.23828 -2.27962 164.937 8.71533 34.6688 180.883 -48.4512 57.5337 192.574 -34.9775 69.4047 196.393 -3.0029 4.05113 217 35.1718 6.4067 10.0295 58.8548 
163.25 144.984 163.172 165.683 166.119 160.115 106.277 152.591 156.707 150.716 1.42611 160.051 1.60723 -2.10723 165.105 9.11784 34.8308 180.573 -48.5337 57.4291 192.017 -35.2969 69.003 195.56 -3.46645 4.48959 216.91 34.8802 5.96992 9.83127 59.249 
163.218 144.529 163.39 165.895 166.333 160.027 106.092 152.752 156.819 150.538 1.94214 160.323 1.2543 -1.9222 165.21 9.72637 35.021 179.891 -48.3729 57.4115 191.183 -35.4081 68.7364 194.665 -3.76771 4.9465 216.808 34.6881 5.58221 9.69434 59.5379 
163.209 144.253 163.576 166.09 166.531 160.024 106.005 152.854 156.961 150.461 2.56332 160.35 1.02633 -1.76618 165.103 10.199 35.2948 178.998 -48.1089 57.5425 190.213 -35.403 68.7001 193.637 -3.90434 5.42089 216.535 34.5158 5.33716 9.66056 59.6521 
163.307 144.067 163.809 166.375 166.82 160.131 106.228 153.081 157.292 150.717 3.12444 160.094 1.04247 -1.5041 164.639 10.5933 35.5526 177.914 -47.8471 57.7761 189.198 -35.3507 68.8496 192.718 -3.95191 5.84972 216.166 34.4125 5.19862 9.72214 59.6098 
163.382 144.198 164.017 166.544 166.923 160.249 106.599 153.26 157.407 150.602 3.74489 159.858 0.99291 -1.19172 164.155 10.7885 35.9799 177.135 -47.6022 58.076 188.275 -35.1493 68.9594 191.68 -3.78112 6.25265 215.767 34.3735 5.05751 9.61973 59.4993 
163.496 144.467 164.041 166.583 166.973 160.346 107.282 153.318 157.483 150.719 4.07814 159.394 1.14175 -0.700149 163.364 10.7278 36.3311 176.276 -47.3239 58.4006 187.334 -34.8787 69.2304 190.811 -3.57267 6.64292 215.348 34.3964 5.0075 9.55855 59.0498 
163.669 144.779 164.188 166.642 166.989 160.475 107.858 153.445 157.463 150.604 4.35039 159.252 1.2953 -0.167001 162.902 10.6711 36.8118 175.755 -46.9467 58.729 186.491 -34.3669 69.3472 189.916 -3.11001 7.00719 215.15 34.5771 4.87084 9.29051 58.5462 
163.797 145.053 164.321 166.676 166.941 160.576 108.279 153.624 157.432 150.416 4.48493 159.35 1.40485 0.268114 162.677 10.659 37.3539 175.435 -46.6227 59.0757 185.676 -33.8287 69.3936 188.913 -2.56938 7.38988 215.097 34.7964 4.72843 8.91361 58.1759 
163.875 145.148 164.463 166.73 166.947 160.705 108.378 153.704 157.338 150.284 4.85199 159.571 1.27249 0.632631 162.737 10.8016 37.8411 175.126 -46.2931 59.3862 184.917 -33.3774 69.4887 188.034 -2.19641 7.83181 215.073 34.9488 4.58351 8.61127 57.9534 
163.937 144.997 164.695 166.932 167.052 160.825 108.198 153.885 157.463 150.341 5.35078 159.778 1.27793 0.966152 162.911 11.2238 38.4001 174.842 -45.9683 59.8745 184.412 -32.9922 69.8373 187.507 -1.81852 8.31671 215.068 35.1466 4.51765 8.47939 58.0257 
163.941 144.629 164.875 167.193 167.256 160.83 108.067 154.105 157.946 150.999 5.99816 159.639 1.58362 1.32411 162.761 11.775 38.8665 174.42 -45.772 60.5066 184.259 -32.8828 70.5523 187.534 -1.68196 8.77682 214.897 35.3398 4.55688 8.72746 58.3265 
163.899 144.364 164.946 167.329 167.349 160.768 108.012 154.339 158.391 151.581 6.74097 159.474 2.04128 1.80251 162.522 12.2555 39.4277 174.208 -45.6547 61.2712 184.35 -32.7651 71.413 187.783 -1.48384 9.27257 214.738 35.5629 4.66455 8.98217 58.6905 
163.92 144.062 165.025 167.495 167.457 160.81 108.112 154.704 158.853 151.934 7.42233 159.07 2.43408 2.37164 162.098 12.7262 40.2089 174.004 -45.547 62.0746 184.444 -32.6504 72.1274 187.882 -1.23854 9.70808 214.472 35.7365 4.71391 9.153 59.1238 
163.852 143.895 164.971 167.58 167.453 160.734 108.159 154.939 159.186 152.157 7.97668 158.751 2.85144 2.89519 161.747 13.1175 40.924 174.116 -45.5547 62.8608 184.761 -32.5737 72.8226 188.102 -1.02821 10.116 214.257 35.9096 4.77508 9.29156 59.6815 
163.815 143.76 164.922 167.687 167.462 160.704 108.259 155.115 159.405 152.272 8.39656 158.542 3.16162 3.3364 161.524 13.4459 41.5442 174.281 -45.5317 63.4985 185.051 -32.4724 73.4104 188.34 -0.805973 10.4706 214.139 36.0739 4.84205 9.3751 60.1402 
163.659 143.541 164.936 167.752 167.387 160.566 107.661 155.216 159.431 152.111 9.335 158.864 3.39062 3.84159 162.054 14.2059 42.4817 174.728 -45.4744 64.4655 185.276 -32.2248 74.2605 188.401 -0.465866 11.2817 214.292 36.3258 4.84844 9.29473 61.0555 
163.649 143.678 164.811 167.66 167.288 160.56 107.509 155.119 159.27 151.866 9.36411 158.854 3.43093 3.81225 162.222 14.2501 42.595 175.023 -45.5764 64.6115 185.444 -32.1884 74.3879 188.465 -0.345796 11.4044 214.39 36.3608 4.90146 9.24519 61.3204 
163.641 143.685 164.977 167.833 167.365 160.503 107.279 155.312 159.379 151.841 9.74609 159.28 3.30547 3.93479 162.588 14.5648 42.9943 175.589 -45.7989 65.0345 185.836 -32.2359 74.7027 188.675 -0.284311 11.6986 214.559 36.5011 4.89012 9.17533 61.9288 
163.665 143.677 165.126 167.979 167.433 160.577 107.158 155.512 159.494 151.841 10.1113 159.714 3.03124 3.99476 162.978 14.7193 43.3059 176.049 -46.029 65.364 186.127 -32.3561 74.9795 188.8 -0.312855 11.978 214.777 36.4935 4.91443 9.11726 62.3552 
163.671 143.868 165.197 168.012 167.436 160.613 107.222 155.703 159.582 151.881 10.6613 159.992 3.09145 4.30623 163.134 14.7668 43.7681 176.602 -46.1344 65.8434 186.547 -32.2512 75.4014 189.079 -0.110307 12.2593 214.942 36.642 4.97013 9.04553 62.5854 
163.709 143.972 165.304 168.106 167.551 160.672 107.412 155.906 159.793 152.241 11.0499 160.242 3.17359 4.5974 163.229 14.6679 44.0849 176.996 -46.2116 66.2437 186.996 -32.23 75.899 189.609 -0.0631948 12.4691 215.145 36.7518 5.04206 9.10601 62.547 
163.702 144.031 165.334 168.108 167.56 160.67 107.656 156.113 160 152.571 11.3751 160.369 3.40169 4.99819 163.189 14.5467 44.4742 177.359 -46.2166 66.6906 187.468 -32.1354 76.4192 190.141 0.0720191 12.6621 215.284 36.9274 5.12713 9.17655 62.4212 
