164.037 153.642 173.455 176.478 172.375 155.806 109.59 169.63 175.836 167.47 138.734 186.591 -57.379 130.72 189.015 -54.5065 184.145 197.451 -128.192 204.625 221.742 -117.457 208.986 238.169 -86.5218 135.521 249.739 -56.2195 6.57814 13.8463 80.3441 
164.586 153.112 173.199 175.436 171.604 156.228 110.386 170.057 174.857 167.711 136.838 185.464 -58.1284 129.298 188.081 -54.8221 183.157 196.014 -127.952 203.365 219.913 -117.365 207.848 236.663 -86.6581 134.472 249.043 -56.2447 6.82205 13.7208 79.6017 
164.858 152.643 173.298 174.578 170.99 156.394 110.98 170.243 173.871 167.759 134.991 184.431 -58.4462 127.591 187.169 -55.1184 181.984 194.516 -127.512 202.064 217.919 -116.816 206.648 234.882 -86.3165 133.277 248.316 -56.1518 7.01371 13.5267 78.8669 
165.097 152.43 173.552 173.852 170.383 156.791 112.091 169.848 173.038 167.73 132.615 182.929 -58.5792 125.536 185.46 -55.1398 180.072 192.35 -127.229 200.553 215.576 -116.241 205.303 232.802 -85.8697 131.837 247.247 -56.0181 7.20654 13.5495 78.1059 
165.308 152.437 173.456 173.175 169.755 157.291 112.848 169.118 172.099 167.233 130.172 181.466 -58.6275 123.763 183.854 -54.9809 177.999 190.336 -127.217 198.936 213.444 -115.818 203.896 231.009 -85.6052 130.403 246.184 -55.9274 7.36274 13.4856 77.6219 
165.459 152.596 173.458 172.632 169.447 157.659 113.401 168.634 171.491 166.885 127.898 180.249 -58.577 121.927 182.5 -54.5999 175.786 188.27 -126.893 197.091 211.609 -115.653 202.314 229.572 -85.6319 128.849 245.223 -55.913 7.52669 13.6699 77.1457 
165.436 152.473 173.528 172.279 169.376 157.693 113.653 168.155 171.236 166.877 125.685 179.305 -58.2884 119.97 181.405 -53.9889 173.436 186.149 -126.249 195.373 210.118 -115.461 200.768 228.388 -85.5934 127.24 244.338 -55.8087 7.60695 14.2198 76.6845 
165.536 152.215 173.478 171.989 169.251 157.912 113.715 167.738 171.094 166.889 123.057 178.37 -58.0259 117.853 180.42 -53.6344 171.011 184.554 -125.817 193.51 209.117 -115.517 199.203 227.714 -85.7388 125.597 243.601 -55.7061 7.8382 14.7582 76.3543 
165.314 151.375 173.149 171.732 170.279 158.135 112.592 167.641 171.212 167.697 121.024 177.327 -57.4639 116.357 180.685 -52.0768 168.302 182.857 -125.327 191.568 207.414 -115.938 198.187 226.385 -86.4203 123.989 242.841 -55.6917 8.12336 14.9757 76.9776 
165.199 150.982 172.853 171.74 171.043 158.262 111.479 167.37 171.089 167.982 119.256 176.614 -57.3988 115.012 181.173 -51.1507 165.554 181.275 -125.278 189.584 205.43 -116.728 197.132 224.58 -87.2592 122.67 242.291 -55.9953 8.28288 15.0024 77.3932 
165.024 150.19 172.649 171.904 171.553 158.343 110.473 166.983 170.792 167.78 117.735 176.181 -57.5197 113.802 181.83 -50.468 163.021 179.837 -125.199 187.728 203.651 -117.551 196.099 222.987 -88.0933 121.519 241.917 -56.3993 8.47683 15.1221 77.6553 
164.541 149.652 172.25 172.087 171.702 158.221 109.439 166.128 170.265 167.161 116.536 175.869 -57.3393 112.898 182.548 -49.9911 160.716 178.845 -125.165 185.891 202.247 -118.083 194.913 221.803 -88.6379 120.459 241.659 -56.6952 8.64998 15.0798 77.9126 
164.013 149.37 171.827 172.209 171.938 158.046 108.612 165.834 170.121 167.081 115.411 175.257 -57.1899 111.682 182.939 -49.4806 158.671 178.104 -125.625 184.05 201.214 -118.598 193.559 220.833 -89.2028 119.289 241.157 -56.893 8.7394 14.9014 78.7004 
163.646 148.945 171.505 172.271 172.064 158.01 108.017 165.483 170.095 167.147 114.279 174.591 -57.2377 110.623 183.02 -49.3261 156.865 177.439 -126.149 182.657 200.372 -119.14 192.465 219.961 -89.6958 118.297 240.634 -57.2087 8.7649 14.8984 79.2947 
163.387 148.58 171.354 172.489 172.188 157.862 107.39 165.552 170.353 167.417 113.258 174.153 -57.1096 109.578 183.129 -49.0006 155.497 176.766 -126.563 181.335 199.635 -119.676 191.286 219.24 -90.3481 117.357 240.165 -57.4246 8.66801 14.806 79.9925 
163.229 148.463 171.584 172.587 172.263 157.725 107.115 165.745 170.439 167.449 112.396 173.89 -57.6103 108.434 183.163 -49.2104 154.447 176.584 -127.333 180.189 199.194 -120.256 190.1 218.667 -91.0036 116.57 239.82 -57.8089 8.49235 14.5814 80.6411 
163.098 148.108 171.524 172.739 172.261 157.602 106.86 165.495 170.46 167.333 111.533 173.788 -57.8199 107.463 183.126 -49.2986 153.057 175.95 -127.154 179.033 198.682 -120.377 188.991 218.171 -91.247 115.783 239.581 -58.0166 8.42651 14.8069 80.4524 
163.034 147.873 171.347 172.704 172.133 157.474 106.368 165.141 170.307 167.048 111.147 174.056 -58.248 107.011 183.512 -49.5422 152.287 176.161 -127.289 178.213 198.849 -120.612 188.136 218.39 -91.6063 115.104 239.657 -58.2807 8.37108 14.76 80.5184 
162.817 147.605 170.939 172.608 171.908 157.484 105.607 164.928 170.23 166.952 109.614 173.757 -58.7189 105.899 183.952 -49.5527 150.676 176.075 -127.662 176.875 198.969 -121.226 186.99 218.643 -92.0793 113.697 239.498 -58.7287 8.55566 14.9483 81.0343 
163.072 147.55 170.866 172.674 171.894 157.647 105.587 165 170.376 167.121 109.034 173.533 -58.7297 105.488 183.844 -49.5244 150.039 175.89 -127.758 176.517 199.049 -121.376 186.79 218.696 -92.058 113.284 239.447 -58.7439 8.68512 15.189 80.9598 
163.21 147.264 171.236 172.776 171.756 157.833 105.641 165.61 170.51 167.254 107.837 173.374 -58.8648 104.477 183.529 -49.7039 149.233 175.412 -128.366 175.782 198.76 -121.714 186.334 218.422 -92.167 112.647 239.345 -58.9211 8.8904 15.2002 80.9887 
163.131 147.141 171.379 172.968 171.608 157.936 105.59 165.857 170.421 167.236 106.448 173.156 -58.5891 103.236 183.34 -49.6923 148.152 174.904 -128.779 174.913 198.393 -121.661 185.852 218.168 -91.8557 111.908 239.218 -58.9304 9.25989 15.235 81.1743 
163.162 146.969 171.307 173.069 171.484 158.042 105.384 165.783 170.278 167.028 105.3 173.062 -58.9887 101.994 183.35 -50.088 147.173 174.667 -129.439 174.137 198.051 -121.81 185.316 217.654 -91.7205 111.294 239.12 -59.0855 9.42268 15.2029 81.3816 
163.032 146.907 171.104 173.17 171.123 157.968 104.858 165.613 169.959 166.569 104.119 173.217 -59.0728 100.677 183.987 -50.1639 146.091 174.307 -129.515 173.353 197.684 -121.651 184.739 217.237 -91.3415 110.683 239.231 -59.187 9.60168 15.327 81.663 
162.968 146.758 171.182 173.385 171.023 157.964 104.214 165.654 169.779 166.142 103.073 173.35 -59.5566 99.2022 184.591 -50.5795 144.966 173.887 -129.623 172.521 197.334 -121.493 183.964 216.702 -90.9466 109.975 239.293 -59.3072 9.67584 15.5386 81.6602 
162.852 147.163 171.021 173.424 170.627 157.882 103.535 165.755 169.428 165.648 101.632 173.373 -59.6194 97.3451 185.151 -50.6075 143.409 173.014 -129.249 171.33 196.521 -120.979 182.903 215.869 -90.2996 109.109 239.264 -59.2468 9.79568 15.7768 81.6098 
162.912 147.823 170.483 173.142 170.046 158.061 103.035 166.025 168.888 165.243 100.325 173.443 -59.902 95.7212 185.574 -50.792 142.109 172.408 -128.951 170.489 196.096 -120.523 182.294 215.472 -89.6435 108.38 239.341 -59.24 10.0839 16.1093 81.4209 
162.943 147.416 169.885 172.893 169.593 158.093 102.578 166.09 168.412 164.959 99.0505 173.362 -59.7522 94.4067 185.685 -51.0103 140.428 171.179 -128.364 169.378 195.073 -120.161 181.567 214.635 -89.2215 107.661 239.271 -59.3149 10.3755 16.5062 80.696 
162.848 147.551 169.27 172.665 169.201 158.067 102.073 165.966 167.954 164.611 98.4137 173.188 -59.9327 93.2609 185.911 -51.4115 139.117 170.321 -128.066 168.414 194.226 -119.995 180.845 213.819 -89.0362 107.054 239.059 -59.5563 10.5606 16.7762 80.3362 
162.875 147.425 168.938 172.636 169.206 158.065 101.685 165.179 167.668 164.35 97.8815 173.127 -60.2709 92.2843 186.307 -51.8389 137.634 169.465 -127.733 167.367 193.356 -120.157 180.066 212.935 -89.1469 106.482 238.943 -59.8911 10.6994 17.1639 79.8478 
163.082 147.217 168.845 172.767 169.446 158.259 101.517 164.32 167.603 164.244 97.0734 173.053 -60.5846 91.4215 186.54 -52.0824 135.922 168.408 -127.094 166.234 192.485 -120.31 179.207 212.186 -89.311 105.847 238.892 -60.1612 10.8273 17.728 79.0295 
163.342 146.829 168.807 172.907 169.906 158.458 101.468 163.626 167.625 164.103 96.0516 172.972 -60.8177 90.3763 186.7 -52.2651 133.938 167.255 -126.176 164.677 191.304 -120.201 177.82 211.054 -89.3473 105.078 238.854 -60.2977 10.7501 18.1282 77.9233 
163.557 146.465 168.986 172.976 170.088 158.664 101.351 163.309 167.658 164.088 94.9868 172.959 -60.6053 89.3466 186.786 -52.257 132.124 166.277 -125.413 163.068 190.24 -120.026 176.527 210.21 -89.3143 104.235 238.89 -60.3339 10.8153 18.2652 77.0628 
163.77 146.355 169.081 172.945 170.231 158.859 101.284 162.799 167.697 164.158 94.2074 173.143 -60.8635 88.4486 187.081 -52.4844 130.642 165.771 -124.96 161.8 189.659 -120.194 175.505 209.679 -89.528 103.487 239.063 -60.5429 10.8619 18.4884 76.352 
163.83 146.683 169.255 173.022 170.406 158.932 101.339 162.4 167.685 163.766 92.8808 173.02 -61.8931 86.2657 187.406 -53.0568 128.143 164.533 -124.638 159.254 188.032 -120.445 172.966 207.83 -89.971 101.98 238.83 -61.2197 10.5489 18.5348 75.606 
163.768 146.542 169.299 172.865 170.306 158.884 101.51 162.153 167.456 163.328 92.2838 172.889 -61.9983 85.5794 187.469 -53.091 126.924 164.01 -124.26 157.904 186.923 -120.151 171.611 206.666 -89.8222 101.311 238.646 -61.4267 10.3704 18.2881 75.2666 
163.782 146.469 169.229 172.814 170.348 158.898 101.794 161.798 167.522 163.365 91.2818 172.427 -62.1131 84.5417 187.162 -53.1373 125.242 163.029 -123.754 156.296 185.65 -120.202 170.157 205.371 -90.0048 100.388 238.219 -61.7333 10.2996 18.3886 74.691 
163.732 146.367 169.167 172.708 170.264 158.846 101.986 161.624 167.762 163.669 90.2057 172 -61.7048 83.4605 186.583 -53.0569 123.955 162.276 -123.291 155.134 185.128 -120.501 169.216 204.806 -90.1554 99.4187 237.801 -61.8048 10.4272 18.777 74.2453 
163.725 146.402 169.05 172.605 170.204 158.892 102.049 161.28 167.76 163.637 89.1154 171.731 -61.6202 82.5624 186.312 -53.1071 122.71 161.758 -123.005 153.998 184.551 -120.653 168.151 204.147 -90.3113 98.5937 237.523 -61.9941 10.3722 18.9471 73.9482 
163.696 146.253 168.981 172.495 170.152 158.95 101.842 160.983 167.65 163.519 88.0258 171.491 -61.9137 81.9193 186.297 -53.3445 121.683 161.724 -123.181 152.856 184.202 -120.865 167.055 203.753 -90.5854 97.8516 237.336 -62.2047 10.3014 18.7927 73.9865 
163.67 146.141 168.943 172.47 170.176 158.982 101.676 160.597 167.468 163.205 87.0379 171.232 -62.2193 81.2155 186.286 -53.5049 120.573 161.569 -122.966 151.575 183.724 -120.762 165.668 203.233 -90.6954 97.054 237.125 -62.3426 10.0754 18.6606 73.809 
163.657 145.993 168.947 172.387 170.096 159.002 101.637 160.708 167.227 162.79 86.1378 171.198 -62.907 80.423 186.295 -54.0754 119.802 161.658 -123.515 150.469 183.335 -120.898 164.407 202.666 -90.9376 96.3774 237.056 -62.6774 9.81434 18.2235 73.7805 
163.631 145.98 169.069 172.442 170.168 159.201 101.85 160.99 167.22 162.743 85.1595 170.888 -63.4034 79.5118 186.052 -54.5582 118.915 161.476 -124.136 149.324 182.687 -121.181 163.238 201.87 -91.362 95.5969 236.758 -63.0102 9.66519 17.8512 73.7962 
163.592 146.378 168.984 172.541 170.181 159.435 102.04 161.381 167.156 162.743 84.1856 170.447 -63.6684 78.4804 185.769 -54.7183 118.005 161.25 -124.715 148.307 182.126 -121.29 162.263 201.336 -91.6334 94.7744 236.358 -63.2404 9.68656 17.5538 74.1757 
163.565 146.392 168.793 172.519 170.233 159.632 101.913 161.326 167.055 162.632 83.3508 170.169 -63.8527 77.941 185.671 -54.9872 117.123 160.954 -124.842 147.361 181.756 -121.576 161.315 200.955 -92.0518 94.1135 236.126 -63.5572 9.60202 17.5645 74.1315 
163.54 146.626 168.195 172.466 170.334 159.581 101.388 161.306 166.781 162.229 82.2944 169.835 -64.0725 77.2141 185.485 -55.2459 116.316 160.584 -124.906 146.765 181.597 -121.725 160.8 200.775 -92.1559 93.4256 235.782 -63.7801 9.70019 17.7548 74.1327 
163.586 146.39 168.171 172.46 170.513 159.817 101.218 160.776 166.738 162.185 81.2484 169.471 -64.3507 76.9337 185.127 -55.6643 115.317 160.396 -124.718 145.867 181.382 -122.046 159.906 200.566 -92.5735 92.7971 235.546 -63.9998 9.6033 17.9653 73.5836 
163.544 146.11 167.87 172.43 170.514 159.681 101.016 160.407 166.551 161.929 80.2297 169.467 -64.5912 76.3968 185.118 -55.9897 114.297 160.363 -124.465 144.875 181.298 -122.144 158.952 200.544 -92.8601 92.2993 235.549 -64.1724 9.54144 18.1169 73.1527 
163.487 146.207 167.188 172.224 170.223 159.527 101.101 160.719 166.179 161.301 79.3948 169.468 -64.9699 75.4826 185.049 -56.306 113.316 160.11 -124.471 143.5 180.623 -121.939 157.503 199.79 -92.9305 91.7666 235.476 -64.382 9.2524 17.7276 72.8516 
163.5 146.462 166.608 172.025 170.091 159.434 101.23 161.406 166.001 161.055 78.5881 169.166 -65.1821 74.6486 184.737 -56.474 112.512 159.699 -124.662 142.409 179.886 -121.785 156.425 199.051 -92.9411 91.2902 235.205 -64.5722 9.1061 17.3359 72.815 
163.594 146.597 167.615 171.633 169.826 159.463 101.585 161.432 165.878 160.885 77.5188 168.721 -65.0314 73.5931 184.245 -56.1334 111.568 158.994 -124.432 141.197 178.941 -121.408 155.286 198.181 -92.7177 90.7031 234.823 -64.6045 8.982 16.9997 72.8796 
163.71 146.765 168.968 171.38 169.729 159.538 101.912 161.182 165.974 161.064 76.7254 168.479 -64.6723 72.864 183.775 -55.7214 110.866 158.534 -124.209 140.336 178.39 -121.184 154.581 197.821 -92.6313 90.2306 234.608 -64.5671 8.99285 16.7875 72.9534 
163.657 146.628 168.525 171.064 169.64 159.446 102.124 160.333 166.091 161.366 75.9704 168.281 -64.5062 71.9854 183.324 -55.5374 110.113 158.094 -124.221 139.511 177.873 -121.239 153.931 197.382 -92.8038 89.757 234.296 -64.6088 9.03666 16.6983 73.0867 
163.684 146.461 168.167 170.985 169.585 159.452 102.228 159.918 166.193 161.452 75.6033 168.034 -64.8094 71.4447 183.036 -55.4639 109.833 157.806 -124.576 138.962 177.499 -121.397 153.357 196.989 -93.0348 89.3928 233.959 -64.7491 8.94535 16.4515 73.4773 
163.684 146.24 167.745 170.719 169.426 159.525 102.381 159.75 166.161 161.442 75.0398 167.782 -65.0531 71.0824 182.672 -55.5146 109.68 157.707 -125.171 138.498 177.181 -121.463 152.894 196.648 -93.1949 89.1216 233.688 -64.8936 8.86253 15.9935 73.8648 
163.594 145.936 167.634 170.604 169.32 159.469 102.416 159.708 166.106 161.314 74.7324 167.845 -65.5143 70.8236 182.688 -55.7425 109.637 157.889 -125.933 138.003 177.042 -121.578 152.339 196.416 -93.412 88.9247 233.634 -65.1073 8.70444 15.4202 74.3012 
163.539 145.612 167.578 170.574 169.29 159.472 102.288 159.686 166.068 161.138 74.3601 167.938 -66.2406 70.6513 182.853 -56.081 109.754 158.215 -126.625 137.686 177.054 -121.757 151.886 196.301 -93.6655 88.762 233.623 -65.3279 8.52 14.9332 74.6849 
163.56 145.268 167.574 170.615 169.344 159.571 102.279 159.624 166.061 161.045 74.1248 167.945 -66.8198 70.4384 182.971 -56.3549 109.67 158.323 -127.002 137.307 176.881 -121.855 151.463 196.042 -93.8947 88.6126 233.582 -65.5282 8.4015 14.6083 74.8066 
163.557 144.952 167.632 170.701 169.395 159.633 102.146 159.635 166.084 160.89 73.8983 168.045 -67.1584 70.1607 183.327 -56.5179 109.495 158.354 -127.27 136.889 176.643 -121.939 150.993 195.711 -94.042 88.4934 233.623 -65.7292 8.25446 14.3357 75.0273 
163.607 144.562 167.663 170.789 169.532 159.791 102.093 159.807 166.28 161.055 73.6391 167.815 -67.269 69.9743 183.151 -56.7759 109.357 158.226 -127.613 136.675 176.385 -122.098 150.8 195.405 -94.1909 88.3573 233.443 -65.844 8.24011 14.1856 75.0384 
163.616 144.244 167.711 170.883 169.575 159.863 101.931 159.858 166.338 160.991 73.5402 167.763 -67.5381 69.8453 183.211 -56.9977 109.315 158.099 -127.815 136.536 176.142 -122.199 150.629 195.101 -94.2938 88.2518 233.337 -66.022 8.18553 14.065 75.0932 
163.623 144.075 167.775 171.009 169.669 159.886 101.893 159.879 166.347 160.897 73.521 167.802 -67.9369 69.8351 183.368 -57.211 109.323 158.095 -128.066 136.462 176.013 -122.336 150.507 194.922 -94.4603 88.2552 233.327 -66.2338 8.11921 13.9552 75.1694 
163.628 144.06 167.891 171.154 169.693 159.934 101.612 160.005 166.375 160.699 73.5311 167.836 -68.3187 69.858 183.674 -57.3049 109.405 158.058 -128.284 136.43 175.807 -122.415 150.329 194.636 -94.5291 88.2908 233.294 -66.417 7.9402 13.7827 75.4597 
163.699 144.052 167.97 171.262 169.765 160.078 101.402 160.159 166.441 160.689 73.3544 167.665 -68.475 69.8862 183.756 -57.3759 109.297 157.904 -128.485 136.313 175.546 -122.506 150.222 194.382 -94.6425 88.2686 233.188 -66.5703 7.90045 13.667 75.6333 
163.708 144.051 168.113 171.407 169.815 160.104 101.097 160.286 166.428 160.513 73.5432 167.65 -68.92 70.0149 184.047 -57.5473 109.408 157.905 -128.742 136.267 175.365 -122.616 150.058 194.147 -94.7733 88.2903 233.134 -66.7575 7.76544 13.483 75.8732 
163.731 144.035 168.178 171.473 169.822 160.187 100.877 160.443 166.457 160.497 73.5338 167.524 -69.2896 70.1686 184.168 -57.7451 109.543 157.879 -129.053 136.326 175.214 -122.769 150.102 193.998 -94.9187 88.3202 233.046 -66.9465 7.76656 13.3494 76.0559 
163.736 143.97 168.241 171.551 169.853 160.214 100.766 160.589 166.49 160.464 73.5093 167.486 -69.4643 70.2423 184.204 -57.9394 109.548 157.893 -129.288 136.272 175.057 -122.837 150 193.767 -94.975 88.3223 233.009 -67.0665 7.68478 13.1995 76.0943 
163.771 143.751 168.269 171.608 169.879 160.246 100.529 160.676 166.524 160.463 73.2535 167.461 -69.7179 70.2284 184.242 -58.174 109.401 157.773 -129.386 136.093 174.807 -122.917 149.807 193.446 -95.0533 88.2812 232.949 -67.1502 7.60655 13.1236 75.9863 
163.828 143.777 168.247 171.647 169.897 160.501 100.2 160.628 166.47 160.4 73.0581 167.336 -69.9556 70.2443 184.383 -58.2192 109.428 157.654 -129.407 136.063 174.54 -122.909 149.686 193.089 -95.0313 88.1406 232.834 -67.213 7.50614 13.0209 76.1582 
163.937 143.673 168.189 171.649 169.924 160.823 100.002 160.566 166.425 160.391 72.707 167.007 -69.885 70.2408 184.121 -58.2941 109.311 157.412 -129.312 135.963 174.204 -122.791 149.558 192.722 -94.9012 87.937 232.612 -67.1732 7.46116 12.9522 76.0394 
164.001 143.495 168.109 171.636 169.937 161.041 99.7598 160.463 166.358 160.406 72.3342 166.686 -69.8839 70.1973 183.849 -58.4051 109.141 157.074 -129.199 135.841 173.785 -122.677 149.448 192.291 -94.7872 87.7559 232.339 -67.1674 7.45086 12.9159 75.9092 
164.019 143.24 168.097 171.653 169.941 160.957 99.6132 160.431 166.331 160.331 71.8047 166.571 -70.0121 69.9833 183.712 -58.5283 108.754 156.764 -129.072 135.509 173.365 -122.541 149.172 191.834 -94.6536 87.6324 232.157 -67.1936 7.43944 12.8975 75.7299 
164.013 143.068 168.05 171.692 169.977 161.052 99.4735 160.242 166.226 160.184 71.4792 166.407 -70.0683 69.7637 183.603 -58.6277 108.345 156.392 -128.798 135.137 172.835 -122.296 148.797 191.241 -94.4152 87.4238 231.952 -67.2315 7.38609 12.8831 75.5393 
163.935 142.382 168.045 171.706 170.014 160.797 99.3554 160.255 166.235 160.064 70.9255 166.305 -70.1367 69.3282 183.364 -58.8489 107.685 155.87 -128.456 134.482 172.125 -121.994 148.12 190.412 -94.1628 87.2054 231.675 -67.2221 7.24323 12.8587 75.0821 
163.931 141.412 168.013 171.658 170.049 160.629 99.5515 160.325 166.247 160.032 70.0818 166.128 -69.9315 68.7049 182.796 -59.1789 106.721 155.312 -128.173 133.56 171.264 -121.621 147.267 189.399 -93.8404 86.8828 231.381 -67.1748 7.13118 12.7611 74.3454 
164.003 140.418 168.045 171.673 170.131 160.574 99.7205 160.423 166.349 160.124 69.1295 165.827 -69.6345 67.9154 182.202 -59.3699 105.643 154.54 -127.617 132.555 170.315 -121.125 146.344 188.339 -93.4064 86.4196 231.009 -67.0296 7.04971 12.7683 73.5458 
164.022 139.681 167.957 171.589 170.062 160.468 99.7774 160.37 166.258 159.947 68.1039 165.507 -69.6816 67.073 181.721 -59.6291 104.591 153.89 -127.331 131.446 169.333 -120.71 145.168 187.135 -93.0164 85.8588 230.573 -66.9614 6.83491 12.6218 73.0052 
164.026 138.848 167.915 171.548 170.104 160.378 100.034 160.421 166.269 159.925 67.1102 165.159 -69.4814 66.0363 181.067 -59.7808 103.439 153.255 -127.026 130.253 168.407 -120.317 143.91 185.952 -92.6441 85.1695 230.075 -66.7879 6.62985 12.5234 72.4796 
164.004 138.241 167.737 171.426 170.02 160.31 100.078 160.324 166.163 159.789 65.8148 164.711 -69.3142 64.9296 180.48 -59.924 102.262 152.68 -126.788 129.048 167.54 -120 142.669 184.825 -92.3254 84.406 229.508 -66.605 6.47144 12.4355 72.1254 
163.899 137.934 167.55 171.325 169.862 160.15 99.9025 160.229 165.97 159.484 64.6505 164.369 -69.4813 63.9003 180.094 -60.1692 101.371 152.314 -126.898 127.981 166.847 -119.924 141.454 183.813 -92.1759 83.6039 228.959 -66.5104 6.2671 12.2473 72.079 
163.964 137.658 167.447 171.203 169.608 160.253 99.9435 160.135 165.548 158.706 63.6049 164.255 -70.1971 63.0329 179.909 -60.7013 100.642 152.37 -127.241 126.932 166.331 -119.754 140.072 182.846 -91.8502 82.8796 228.656 -66.4967 5.90282 11.8248 71.8843 
164.016 137.743 167.354 171.047 169.311 160.401 100.103 160.059 165.103 157.791 62.6017 164.296 -71.0474 62.0742 179.807 -61.2891 99.9403 152.669 -127.691 125.908 166.029 -119.63 138.596 182.016 -91.4345 82.1097 228.523 -66.5036 5.47701 11.3738 71.6733 
163.998 137.444 167.196 170.868 169.051 160.415 100.252 160.082 164.78 157.007 61.4239 164.06 -71.2561 61.0577 179.323 -61.6374 98.9422 152.345 -127.824 124.671 165.176 -119.29 136.945 180.749 -90.8438 81.2683 228.14 -66.508 5.05804 10.9272 71.3429 
163.974 137.073 166.973 170.687 168.814 160.419 100.341 159.948 164.455 156.353 60.2483 163.602 -71.3018 59.9003 178.62 -61.907 97.8843 151.731 -127.667 123.354 164.177 -118.926 135.276 179.457 -90.3693 80.291 227.547 -66.4566 4.70996 10.5967 70.8978 
164.074 136.734 166.913 170.669 168.888 160.527 100.612 160.098 164.589 156.564 58.8695 162.863 -70.6912 58.6733 177.546 -61.6612 96.7085 150.794 -127.481 122.223 163.267 -118.816 134.178 178.599 -90.2405 79.1368 226.819 -66.2866 4.71733 10.5551 70.7062 
164.128 137.259 166.85 170.609 168.87 160.623 100.51 160.049 164.386 156.306 57.5215 162.623 -70.7932 57.2591 177.331 -61.5587 95.4431 150.381 -127.91 121.008 162.617 -119.059 133.023 177.884 -90.3447 78.0995 226.398 -66.3756 4.77068 10.4253 71.2045 
164.041 138.295 166.617 170.331 168.723 160.531 100.137 159.893 163.846 155.356 56.2167 162.398 -71.1166 55.9097 177.383 -61.4679 94.3034 150.198 -128.591 119.723 161.962 -119.236 131.411 176.805 -90.1212 77.066 225.962 -66.572 4.63363 10.0302 72.0936 
164.069 139.075 166.45 170.129 168.573 160.5 99.7571 159.723 163.421 154.522 54.9749 161.965 -71.0095 54.7012 177.436 -61.0137 93.0997 149.729 -128.782 118.446 161.249 -119.179 129.929 175.994 -89.8556 75.9784 225.52 -66.7052 4.58233 9.77238 72.9415 
164.023 140.3 166.183 169.915 168.528 160.521 99.1107 159.204 162.899 153.776 53.8207 161.641 -70.6695 53.6067 177.586 -60.7007 91.9272 149.205 -128.61 117.298 160.602 -118.97 128.66 175.344 -89.4307 74.9367 225.218 -66.915 4.70133 9.61391 73.5387 
163.882 141.149 165.976 169.615 168.475 160.419 98.2848 158.678 162.267 152.955 52.7277 161.825 -71.0063 52.5422 178.086 -61.0941 90.8809 149.401 -128.915 116.077 160.462 -118.993 127.11 174.95 -89.2055 73.915 225.262 -67.1401 4.70198 9.30183 73.8528 
