155.798 135.691 168.03 169.57 170.831 152.921 106.717 160.948 163.632 157.122 -36.4458 209.873 -46.5386 -29.7475 204.591 -41.7063 7.66658 186.63 -111.531 33.8781 189.191 -101.068 47.8048 192.192 -67.2999 8.84193 253.524 -36.3996 8.40555 8.13038 67.8784 
155.743 135.363 168.207 169.675 170.997 152.667 106.679 161.396 163.815 157.828 -37.1635 209.67 -46.0738 -30.6473 204.512 -41.0309 6.91472 186.426 -111.373 32.9947 188.728 -100.937 47.1555 191.521 -67.4139 8.22058 252.962 -35.8896 8.18924 8.07901 68.4725 
156.371 135.979 168.895 170.11 171.42 153.847 107.375 161.34 164.418 159.22 -37.9144 209.683 -46.5597 -31.7602 203.953 -41.0251 5.28637 185.373 -110.683 31.926 188.25 -100.873 46.5988 190.832 -67.3218 7.45063 252.512 -35.291 8.25974 8.79025 67.3437 
156.581 135.888 169.058 170.194 171.354 153.702 107.088 161.924 164.726 159.845 -38.8096 209.762 -45.9701 -32.8188 204.635 -40.4902 4.51966 185.851 -110.786 31.1859 188.486 -100.913 45.9835 190.819 -67.5483 6.76517 252.437 -34.7174 8.00005 8.88865 68.1082 
156.466 135.424 169.154 170.206 171.351 153.621 106.734 162.31 164.94 159.993 -39.4906 209.44 -45.1683 -33.3973 204.558 -39.7237 4.24424 185.669 -110.379 30.843 188.275 -100.445 45.4807 190.467 -66.9826 6.16726 252.158 -34.1548 8.09993 8.81611 68.5839 
156.994 135.952 169.505 170.602 171.5 154.642 107.799 162.728 165.655 160.912 -40.2032 209.13 -45.178 -34.1306 203.075 -38.8759 3.25716 183.797 -109.34 29.9694 186.793 -99.7317 44.7824 189.183 -66.2565 5.47188 251.297 -33.6277 8.18324 8.97417 67.9488 
157.709 136.349 169.71 170.877 171.412 155.543 108.092 162.597 165.795 161.178 -40.9391 208.886 -45.408 -34.9394 202.386 -38.4826 2.47181 182.494 -108.712 29.2459 185.49 -99.0819 43.8936 188.062 -65.4007 4.67744 250.724 -33.2209 8.28749 8.94313 67.5655 
158.328 136.131 169.997 171.022 171.29 156.106 108.161 162.711 165.721 161.402 -41.6619 208.605 -45.3912 -35.8674 201.911 -37.9863 1.46459 181.578 -108.238 28.1615 184.392 -98.5069 43.0115 187.206 -64.9281 3.79701 250.177 -32.7528 8.20317 8.75226 67.4803 
158.763 135.388 170.51 171.239 171.257 156.367 107.66 162.853 165.665 161.949 -42.351 208.696 -45.2776 -36.7051 202.064 -37.4593 0.345987 181.215 -107.742 26.9725 184.034 -98.1577 42.4958 187.281 -65.1158 2.87436 250.022 -32.25 7.84777 8.6542 67.4917 
158.879 134.972 170.651 171.43 171.297 156.584 107.335 163.101 165.883 162.407 -43.4237 209.302 -45.3791 -37.6363 202.52 -36.8961 -0.521326 181.112 -107.379 25.9143 183.833 -97.8616 41.5136 187.396 -65.2111 2.07386 250.033 -32.0008 7.48285 8.46649 67.8378 
158.943 134.585 170.734 171.565 171.348 156.458 106.515 163.137 165.777 162.393 -44.0128 209.051 -45.2594 -38.2197 202.489 -36.4566 -1.12239 180.657 -107.154 24.9725 183.145 -97.3753 40.3603 186.892 -64.805 1.1827 249.507 -31.633 7.25851 8.13692 68.3992 
159.185 134.291 170.867 171.78 171.482 156.451 106.225 163.456 165.979 162.643 -44.931 209.528 -45.4066 -39.3602 203.097 -36.2276 -1.82659 180.815 -107.121 23.9938 182.878 -96.99 38.9273 186.503 -64.4213 0.346929 249.455 -31.327 7.0692 7.87537 68.9555 
159.367 133.565 171.185 172.016 171.621 156.42 105.829 163.938 166.223 163.034 -45.8838 210.143 -45.4415 -40.4638 203.831 -35.9731 -2.55776 181.019 -106.916 23.0988 182.945 -96.6338 37.9722 186.632 -64.299 -0.497784 249.627 -31.0227 6.82084 7.75195 69.358 
159.349 134.253 171.057 172.403 172.28 156.126 105.523 164.138 166.678 163.895 -47.885 210.884 -45.3623 -43.5053 205.338 -35.989 -4.34942 181.447 -106.924 21.1112 182.789 -96.1967 35.249 186.255 -63.7456 -2.36441 249.737 -30.5104 6.48768 7.69161 70.1676 
159.498 135.31 170.781 172.696 172.917 155.933 105.114 163.746 166.71 164.144 -49.029 211.647 -45.9452 -44.9949 206.321 -36.6287 -4.78259 181.604 -107.121 20.4455 182.532 -96.0416 33.8954 185.654 -63.118 -3.04485 249.622 -30.2212 6.47639 7.72438 70.4969 
159.749 135.277 170.808 172.941 173.255 155.987 104.847 163.752 166.862 164.392 -50.0358 211.585 -45.5596 -46.0546 206.514 -36.2863 -5.70799 180.949 -106.298 19.5063 181.902 -95.3032 32.657 184.962 -62.314 -3.81363 249.339 -29.851 6.46519 7.86296 70.5466 
160.101 135.14 170.694 173.091 173.432 156.13 104.63 163.492 166.829 164.436 -51.0372 211.51 -45.4236 -46.9755 206.138 -36.2504 -6.31265 180.089 -105.319 18.9821 181.424 -94.621 32.0267 184.516 -61.4984 -4.60256 248.955 -29.3581 6.52229 8.16639 69.9896 
159.865 135.939 170.295 173.13 173.703 155.979 104.74 163.159 166.882 164.566 -51.9498 211.698 -45.3887 -48.1849 206.259 -36.4299 -6.97806 180.001 -105.054 18.4735 181.387 -94.3084 31.1712 184.342 -61.0142 -5.30846 248.842 -29.2037 6.59131 8.37527 69.9398 
159.559 136.93 169.877 173.236 174.338 155.678 104.754 162.934 167.04 164.875 -52.7574 211.672 -45.1951 -49.3546 206.56 -36.5812 -7.61523 180.03 -105.1 17.8934 181.291 -94.1356 30.1612 184.177 -60.7183 -5.99649 248.693 -29.1578 6.5259 8.4711 70.3113 
159.447 138.011 169.186 173.469 175.023 155.256 104.673 162.432 167.184 165.312 -53.4334 211.603 -45.376 -50.5708 206.994 -37.2913 -7.879 180.024 -105.436 17.4055 180.964 -94.1614 29.1804 183.583 -60.3918 -6.69899 248.375 -29.0145 6.50298 8.52404 70.6259 
159.661 138.67 168.983 173.672 175.544 155.077 104.624 161.952 167.181 165.556 -53.882 211.206 -45.5758 -51.2887 206.784 -37.838 -7.93665 179.437 -105.131 17.1372 180.441 -93.8353 28.5226 183.055 -59.9288 -7.34668 247.937 -28.8121 6.37292 8.65935 70.3572 
160.111 138.814 168.874 173.728 175.57 155.065 104.745 161.617 167.149 165.741 -54.4015 210.933 -45.5734 -51.8289 206.215 -38.0836 -8.01055 178.521 -104.201 16.9368 179.79 -92.9912 28.0818 182.595 -59.1151 -8.00218 247.657 -28.4319 6.2251 8.83639 69.636 
160.266 139.553 168.649 173.489 175.296 154.978 105.475 161.357 166.944 165.92 -55.1711 210.834 -45.2152 -52.8365 205.794 -38.4208 -8.69493 178.245 -103.91 16.3192 179.58 -92.6314 27.6546 182.424 -58.8134 -8.77989 247.676 -28.1899 6.19373 8.98837 68.8936 
160.045 140.399 168.567 173.327 175.468 154.997 106.01 161.293 166.844 166.136 -55.498 210.382 -44.7384 -53.8797 205.694 -38.7879 -9.26862 178.303 -104.194 15.6456 179.437 -92.3445 26.8262 182.273 -58.562 -9.45119 247.683 -28.2036 6.13467 8.82507 68.8438 
160.089 141.075 168.424 173.212 175.831 155.046 106.371 161.212 166.858 166.576 -56.0285 210.1 -44.4762 -54.9146 205.756 -39.0749 -9.77288 178.409 -104.446 15.0031 179.309 -92.1395 26.0224 182.106 -58.3787 -10.1331 247.618 -28.2177 6.06805 8.68988 69.0673 
160.571 142.012 169.056 172.729 175.791 154.523 107.047 161.867 166.416 166.505 -57.3031 210.063 -44.049 -56.1947 206.503 -38.0798 -10.1286 179.379 -105.299 14.2959 179.479 -92.454 25.6018 182.414 -59.3078 -10.9709 247.814 -28.2073 5.59178 8.19776 70.8099 
161.609 142.632 169.752 172.321 175.49 154.454 107.369 162.572 166.135 166.456 -58.7318 210.338 -43.7305 -57.3134 206.968 -37.0552 -10.6355 179.92 -105.507 13.7003 179.446 -92.3669 25.2352 182.707 -59.7618 -11.7738 248.146 -28.0544 5.22044 7.90046 71.8209 
161.67 143.352 170.416 171.968 175.182 154.353 107.858 163.264 165.934 166.458 -60.3073 210.908 -43.6102 -58.6184 207.442 -36.1396 -11.4091 180.396 -105.834 12.9988 179.299 -92.4257 24.6504 182.641 -60.0974 -12.5559 248.376 -27.8365 5.04754 7.78557 72.655 
161.08 143.275 170.382 172.251 175.478 154.682 108.312 163.194 166.225 166.865 -61.0298 210.92 -43.2526 -59.2714 206.979 -35.4276 -12.7665 179.795 -105.202 12.1325 179.095 -92.2793 24.12 182.576 -59.9608 -13.233 248.297 -27.6839 5.1454 8.21346 72.3301 
161.104 144.163 170.831 171.691 175.147 154.199 108.162 163.991 166.003 166.953 -62.8343 210.571 -43.1075 -60.7531 206.531 -34.2655 -13.5168 179.424 -105.702 11.2986 178.182 -92.2799 23.0257 181.905 -60.1979 -14.8488 247.763 -27.5056 4.86418 7.91656 73.7497 
160.04 144.33 171.336 171.387 174.7 154.026 107.902 164.517 165.74 166.62 -63.68 210.601 -43.0299 -61.6064 206.644 -33.8464 -13.8517 179.331 -105.788 10.7296 177.588 -91.8591 22.3387 181.461 -59.968 -15.5822 247.556 -27.2662 4.70101 7.62874 74.352 
160.405 144.108 170.532 171.761 175.253 154.675 108.21 164.065 166.285 167.662 -64.3297 210.782 -43.0504 -62.7215 206.843 -33.5564 -14.7014 178.9 -105.026 9.79915 177.302 -91.1513 21.6267 181.4 -59.3468 -16.3296 247.452 -26.8106 4.69412 7.77157 74.3616 
160.627 144.353 169.884 172.271 176.179 155.024 108.149 163.536 166.671 168.728 -64.9581 210.852 -42.952 -63.6671 207.027 -33.4955 -15.5015 178.826 -104.601 8.94489 177.256 -90.563 20.8443 181.505 -58.8785 -17.1187 247.36 -26.3726 4.63107 7.88091 74.4183 
160.805 144.804 169.359 172.809 176.836 155.417 107.903 163.181 167.051 169.903 -65.783 210.596 -42.7338 -64.6333 207.167 -33.5831 -16.1101 178.78 -104.5 8.28049 177.18 -90.2035 20.2649 181.549 -58.8289 -17.8954 247.066 -26.0299 4.53016 7.95572 74.7157 
160.986 145.598 168.95 173.281 176.645 155.642 107.749 162.878 167.371 170.578 -66.5201 210.511 -42.8304 -65.7942 207.707 -34.2488 -16.3673 179.021 -104.688 7.80671 177.147 -89.8567 19.535 181.389 -58.5681 -18.5734 246.833 -25.7241 4.47716 7.98322 75.0747 
161.934 146.011 169.344 172.875 176.476 154.749 107.864 163.541 167.044 170.583 -67.6504 210.426 -42.0857 -67.0104 208.131 -34.2863 -16.6442 179.881 -105.228 7.19742 177.266 -89.7081 18.6536 181.447 -58.537 -19.5732 246.964 -25.321 4.34404 7.71023 75.629 
162.708 146.57 169.817 172.361 176.146 154.348 108.183 164.346 166.835 170.499 -68.7122 210.33 -41.4373 -68.2164 208.544 -33.8194 -17.2795 180.39 -105.662 6.59265 176.965 -89.4883 17.7878 180.973 -58.2352 -20.343 246.98 -25.1225 4.31269 7.65818 76.5717 
162.63 146.76 170.229 171.83 175.764 154.042 108.092 164.871 166.499 170.184 -69.6089 209.896 -40.5727 -69.1234 208.519 -33.4121 -17.7714 180.688 -105.702 6.12969 176.665 -88.9522 17.1358 180.492 -57.6044 -21.0929 246.831 -24.8561 4.34934 7.62552 77.186 
163.038 146.79 170.523 171.344 175.35 153.654 107.762 165.244 166.131 169.789 -70.3722 209.545 -40.2017 -69.8282 208.655 -33.3082 -18.1561 181.465 -106.239 5.68387 176.727 -88.951 16.4208 180.146 -57.4953 -21.7808 246.586 -24.6802 4.34859 7.59244 77.9582 
163.888 147.135 170.874 170.868 174.853 153.331 107.622 165.627 165.837 169.399 -70.8419 209.026 -39.7927 -70.5116 208.786 -33.0912 -18.3196 181.992 -106.546 5.35422 176.643 -88.6977 15.8553 179.638 -56.9666 -22.3958 246.354 -24.441 4.53107 7.54051 78.7488 
164.587 147.096 171.318 170.539 174.467 153.105 107.645 165.941 165.683 168.966 -71.2668 208.512 -39.532 -71.1587 208.614 -32.9534 -18.6629 182.278 -106.596 4.94644 176.611 -88.5358 15.3647 179.417 -56.7095 -22.9881 246.1 -24.2388 4.60298 7.50871 79.0621 
165.402 147.096 171.741 170.386 174.265 153.146 107.847 166.276 165.696 168.736 -71.8234 208.011 -39.4127 -71.8794 208.39 -32.7872 -19.1376 182.477 -106.569 4.55678 176.587 -88.4131 14.8702 179.219 -56.5379 -23.5774 245.867 -24.0397 4.63346 7.56888 79.2157 
166.059 147.321 172.046 170.266 174.108 153.277 108.04 166.625 165.753 168.738 -72.4305 207.966 -39.6078 -72.5326 208.402 -32.6081 -19.2126 182.723 -106.486 4.4538 176.51 -87.9882 14.4943 178.975 -55.9636 -24.091 245.726 -23.6963 4.69196 7.66617 79.5415 
165.469 147.583 171.675 170.819 174.476 152.411 108.271 166.363 166.322 168.658 -72.9058 208.021 -40.0149 -73.7034 208.75 -31.8315 -19.3967 183.247 -106.554 4.24923 176.75 -88.0431 13.8801 178.673 -55.8856 -24.6477 245.156 -23.4719 4.73219 7.83875 81.1343 
165.802 147.674 171.773 170.678 174.397 152.813 108.374 166.433 166.13 168.815 -73.6214 207.993 -40.0882 -74.5432 208.83 -31.8079 -19.5988 183.663 -106.7 4.1289 176.954 -87.8933 13.665 178.794 -55.7763 -25.1746 245.066 -23.2055 4.70149 7.98077 81.4843 
165.748 147.699 171.682 170.482 174.21 152.985 108.258 166.371 165.948 168.655 -73.9951 207.715 -40.2852 -74.9897 208.515 -32.0218 -19.6505 183.965 -106.819 4.08801 177.085 -87.7577 13.4194 178.653 -55.5103 -25.6257 244.764 -22.9848 4.79201 8.05363 81.5385 
164.779 147.518 171.239 171.002 174.278 152.1 108.4 165.97 166.585 168.527 -74.0068 207.491 -40.7531 -75.8053 208.569 -32.1361 -19.8858 184.651 -107.118 3.68491 177.627 -88.2645 12.7211 178.51 -55.8929 -26.1605 244.13 -22.9109 4.867 8.05701 82.3502 
163.927 147.077 170.655 172 174.689 151.305 108.569 165.535 167.44 168.504 -74.0157 207.32 -41.4389 -76.535 208.587 -32.4938 -19.8323 185.186 -107.358 3.54724 178.283 -88.7472 12.2571 178.594 -56.2892 -26.6222 243.519 -22.8902 4.877 8.042 83.0452 
164.482 146.61 170.879 171.859 174.785 151.816 108.802 165.719 167.408 168.981 -74.7232 207.222 -41.5301 -77.0961 207.943 -32.7773 -19.8405 185.117 -107.316 3.60491 178.435 -88.5713 12.3482 178.973 -56.1775 -27.2049 243.467 -22.5094 4.76304 8.06996 82.4653 
164.054 146.386 170.489 172.355 174.997 151.213 109.205 165.656 168.294 169.532 -74.8385 206.796 -41.8561 -77.8043 207.491 -32.8394 -19.9622 184.875 -107.178 3.37394 178.521 -88.8655 11.8314 178.578 -56.3279 -27.6935 242.785 -22.369 4.83265 8.05819 82.6991 
165.139 146.423 170.945 172.204 175.208 151.574 109.323 166.045 168.229 170.205 -75.321 206.418 -41.7024 -78.2631 206.852 -32.7854 -20.1154 184.436 -106.879 3.30032 178.25 -88.4219 11.6778 178.599 -56.0069 -28.2781 242.624 -21.8965 4.6401 8.11909 82.1882 
164.586 146.305 170.513 172.601 175.462 150.98 109.594 165.932 168.906 170.576 -75.5032 206.157 -41.8107 -78.9779 206.561 -32.6025 -20.5477 184.132 -106.618 2.88696 178.284 -88.5728 11.0791 178.228 -56.0641 -28.8024 242.103 -21.7265 4.71227 8.18814 82.3905 
165.442 145.981 170.959 172.339 175.619 151.363 109.447 166.281 168.748 170.891 -76.2281 206.161 -41.6932 -79.3868 206.192 -32.4628 -21.0244 184.107 -106.429 2.66096 178.51 -88.4808 10.8463 178.642 -56.1335 -29.4625 242.121 -21.2678 4.49702 8.2954 81.9063 
164.961 146.067 170.655 172.67 175.634 150.873 110.038 166.364 169.593 171.302 -76.5264 206.298 -41.8313 -80.3882 206.287 -32.2539 -21.4216 184.639 -106.495 2.34836 179.217 -88.9477 10.242 178.548 -56.1595 -30.0668 241.852 -20.9371 4.8345 8.44521 82.3846 
166.002 145.86 171.073 172.416 175.665 151.594 110.331 166.932 169.609 172.018 -77.4452 206.191 -41.7353 -81.0888 205.755 -32.3565 -21.8371 184.688 -106.593 2.14013 179.311 -88.8913 10.0012 178.666 -56.1196 -30.7532 241.742 -20.388 4.75541 8.56073 81.8632 
165.659 146.018 170.708 172.449 175.686 151.433 111.088 167.196 170.335 172.602 -77.9268 205.667 -41.5699 -81.9389 205.119 -31.8064 -22.1175 184.262 -106.182 1.72385 179.12 -88.7637 9.39745 177.862 -55.499 -31.3506 241.084 -19.8984 5.19451 8.59245 82.2293 
167.305 144.03 172.03 173.958 176.452 151.865 110.226 168.472 170.268 171.729 -76.9761 204.461 -41.5306 -81.2315 203.851 -30.9753 -21.8096 182.745 -105.745 1.62296 176.256 -86.9627 9.00934 176.424 -53.3226 -31.8877 240.589 -19.0052 4.95632 8.25958 81.7874 
167.131 143.811 172.69 173.825 176.089 151.248 109.785 169.371 170.303 171.862 -77.8822 203.937 -40.344 -81.6124 203.957 -30.5039 -22.4709 183.691 -106.252 1.0211 177.068 -87.2406 8.70466 176.532 -52.8694 -32.7032 240.611 -18.3889 5.68754 8.3402 82.366 
167.865 144.37 173.387 173.123 175.864 151.768 110.217 170.053 170.258 172.583 -78.667 203.464 -39.5153 -82.4687 203.172 -30.055 -23.1779 183.228 -105.679 0.527974 176.703 -86.5535 8.10559 176.041 -52.2756 -33.4182 240.172 -17.6209 5.66209 8.47282 82.0739 
167.008 145.476 173.125 172.749 175.605 151.507 110.8 169.961 170.465 172.966 -79.5355 203.04 -39.1473 -83.7774 202.956 -29.6905 -23.8186 182.896 -105.202 -0.243442 176.337 -86.2536 7.0684 174.854 -51.6238 -34.0964 239.294 -17.0378 6.06372 8.53019 82.5423 
168.064 144.573 173.64 173.908 176.334 152.46 110.436 170.579 170.931 173.024 -79.3657 202.345 -38.8596 -83.7189 201.947 -28.9458 -23.5985 181.236 -104.295 -0.451339 174.158 -84.3627 6.75428 173.865 -49.4275 -34.8186 238.964 -15.9707 5.91817 8.34384 81.9187 
168.657 144.329 173.975 174.227 176.773 153.029 110.194 170.96 171.25 173.044 -79.2109 201.56 -38.0798 -83.6715 200.796 -28.1186 -23.6826 179.351 -103.076 -0.723572 171.828 -82.2624 6.34039 172.188 -46.9622 -35.5039 238.424 -14.7432 6.06742 8.40609 81.0581 
169.048 143.956 174.035 174.288 176.878 153.435 109.163 171.144 171.284 172.7 -78.9456 200.663 -37.0646 -83.2889 199.936 -27.6995 -23.5343 177.678 -101.782 -0.970945 169.836 -80.1099 5.84748 170.519 -44.3396 -36.13 237.971 -13.5918 6.3955 8.38081 80.1556 
169.231 143.82 173.981 174.188 176.857 153.694 108.295 171.194 171.271 172.499 -78.7132 199.718 -35.9851 -83.1476 199.318 -27.5529 -23.5183 176.071 -100.507 -1.46906 167.85 -78.0119 5.10424 168.759 -41.8493 -36.7224 237.393 -12.5139 6.68805 8.37898 79.2852 
169.162 143.347 173.876 173.943 176.627 153.88 107.378 171.098 170.994 172.04 -78.7058 199.222 -34.9728 -83.1039 199.133 -27.2205 -24.1443 175.346 -99.4907 -2.39701 166.717 -76.4905 4.24489 167.65 -40.1283 -37.4059 237.055 -11.496 6.92576 8.42281 78.5581 
168.819 143.549 173.794 173.617 176.42 153.983 106.71 170.94 170.677 171.62 -78.9505 199.02 -33.8056 -83.2861 199.398 -26.732 -24.8383 175.251 -98.6467 -3.48058 166.214 -75.2203 3.24786 167.166 -38.7946 -38.164 237.151 -10.6105 7.04854 8.3963 78.1553 
168.805 143.964 173.784 173.447 176.332 154.414 106.644 170.994 170.746 171.671 -79.4674 198.5 -32.626 -83.6321 198.883 -26.2056 -25.3216 174.676 -97.7284 -4.0962 165.519 -73.9909 2.63507 166.347 -37.3532 -38.8325 236.854 -9.61718 7.29117 8.44103 77.6461 
168.893 144.277 173.722 173.427 176.389 154.83 106.476 171.04 170.868 171.717 -79.7364 197.478 -31.3806 -83.6179 197.576 -25.6722 -25.4283 173.131 -96.4366 -4.56631 164.174 -72.3767 2.06904 165.118 -35.5123 -39.4196 236.205 -8.69228 7.50391 8.29142 76.8999 
168.84 144.398 173.655 173.301 176.206 155.08 106.105 171.039 170.75 171.49 -80.0156 196.759 -30.351 -83.5785 196.743 -25.4122 -25.5699 172.086 -95.3585 -5.16711 163.143 -70.989 1.45521 164.191 -33.9603 -40.0128 235.742 -7.82827 7.67307 8.13394 76.1773 
168.643 145.022 173.544 173.05 176.001 154.887 105.463 170.93 170.475 171.074 -80.1105 196.076 -29.1926 -83.8021 196.793 -25.1822 -25.6168 171.708 -94.561 -5.75102 162.359 -69.798 0.693908 163.285 -32.6353 -40.4415 235.365 -7.05981 7.81677 8.0897 76.126 
168.352 146.268 173.416 172.772 175.706 154.991 105.124 170.684 170.197 170.649 -80.6382 195.978 -28.1975 -84.351 197.528 -25.0862 -25.6603 171.99 -93.7855 -6.35509 162.228 -68.6592 -0.272988 163.057 -31.4449 -41.0117 235.563 -6.2402 7.81494 8.06749 76.1077 
168.188 147.756 173.271 172.484 175.59 155.473 105.171 170.465 169.852 170.485 -81.832 195.197 -26.2309 -85.3942 196.913 -23.649 -26.7405 171.341 -92.1357 -7.60799 161.241 -66.7883 -1.40998 162.121 -29.5237 -42.1539 235.064 -4.63542 7.91562 8.13009 75.904 
168.201 148.464 173.188 172.479 175.613 155.933 105.405 170.327 170.001 170.762 -82.6466 194.957 -25.6714 -85.8719 196.689 -23.3511 -26.6784 171.098 -91.3639 -7.4559 160.961 -66.0165 -1.41212 161.862 -28.7688 -42.4922 234.862 -3.94972 7.88655 8.21511 75.8227 
168.161 148.872 173.197 172.325 175.457 156.021 105.428 170.228 169.737 170.61 -83.0673 194.411 -24.7234 -86.179 196.41 -22.9453 -27.0387 171.098 -90.8214 -7.88779 160.817 -65.4393 -1.66257 161.81 -28.3265 -42.963 234.743 -3.28271 7.81545 8.2084 75.5859 
167.996 149.31 173.174 172.038 175.165 155.946 105.654 170.001 169.269 170.188 -83.4733 194.067 -23.9793 -86.5782 196.356 -22.913 -27.5606 171.638 -90.796 -8.5021 160.935 -65.3999 -2.06674 161.784 -28.4507 -43.335 234.632 -2.74196 7.73314 8.23467 75.2841 
167.856 150.268 173.206 172.003 174.998 155.918 106.105 169.875 169.145 169.919 -83.888 193.825 -23.3711 -87.0521 196.321 -22.9198 -27.766 171.984 -90.5798 -8.98164 160.86 -65.1457 -2.68686 161.454 -28.2438 -43.6536 234.403 -2.03001 7.65607 8.21431 75.0345 
167.888 150.63 173.132 172.162 174.899 155.943 106.005 169.716 169.247 169.655 -83.894 193.14 -22.8052 -87.0032 195.979 -22.944 -27.4027 171.621 -89.9056 -8.96235 160.392 -64.3979 -3.16921 160.781 -27.43 -43.8205 233.931 -1.3688 7.62128 8.13001 74.7357 
167.951 151.189 173.148 172.34 174.873 156.098 105.893 169.7 169.433 169.626 -83.9953 192.641 -22.1755 -87.3038 196.064 -22.8055 -27.1215 171.364 -89.4144 -8.89971 159.987 -63.8535 -3.50193 160.248 -26.753 -43.9899 233.63 -0.73422 7.62316 8.0996 74.8124 
167.891 151.672 173.203 172.532 174.929 156.228 106.196 169.711 169.647 169.732 -84.189 192.567 -21.5589 -87.6243 196.075 -22.4169 -26.8551 171.351 -88.7925 -8.83903 159.761 -63.1499 -3.76202 159.882 -26.0025 -44.1227 233.44 0.143413 7.58256 8.10383 74.8141 
167.861 152.241 173.21 172.492 174.805 156.273 106.167 169.626 169.574 169.653 -84.4692 192.679 -20.714 -88.0431 196.904 -21.9666 -26.9488 172.152 -88.5391 -9.02127 160.182 -62.9088 -3.96776 160.012 -25.7398 -44.1983 233.629 0.945238 7.59477 8.14417 75.0433 
167.936 152.564 173.26 172.609 174.855 156.294 106.549 169.687 169.695 169.728 -84.2234 192.083 -19.6908 -88.092 196.723 -21.3428 -26.5843 172.348 -88.1053 -8.7633 160.286 -62.4574 -3.85406 159.893 -25.2003 -44.1651 233.491 1.77115 7.63521 8.11214 75.1281 
168.092 152.517 173.196 172.747 174.887 156.535 106.607 169.654 169.817 169.707 -83.9491 191.358 -18.8623 -87.8075 196.401 -21.1387 -26.0078 172.176 -87.664 -8.41699 160.001 -61.9273 -3.82341 159.338 -24.5282 -43.9463 233.153 2.45906 7.71873 8.06869 74.9443 
168.361 152.17 173.213 172.919 174.96 156.92 106.728 169.724 169.967 169.749 -83.5789 190.732 -18.0955 -87.2101 195.753 -20.9328 -25.2529 171.727 -87.0776 -7.92243 159.482 -61.1916 -3.62802 158.714 -23.6932 -43.6084 232.784 3.2054 7.75174 8.02541 74.5082 
168.504 151.83 173.285 173.059 175.009 157.205 107.013 169.851 170.164 169.908 -83.1309 190.355 -17.4325 -86.5665 195.043 -20.6148 -24.5595 171.374 -86.5964 -7.26722 159.138 -60.6656 -3.05764 158.363 -23.0643 -43.2042 232.503 3.95538 7.7722 7.99888 74.0458 
168.493 151.327 173.368 173.054 174.921 157.296 107.589 169.925 170.129 169.782 -82.3926 189.758 -16.5665 -85.9255 193.981 -19.6152 -24.1611 170.958 -85.8719 -6.57925 159.022 -60.0169 -2.21945 158.515 -22.389 -42.7837 232.341 4.68093 7.72686 7.97028 73.6969 
168.267 151.042 173.502 173.021 174.823 156.921 107.989 169.932 170.106 169.658 -81.5335 189.018 -15.5809 -85.5118 192.963 -18.1274 -24.1248 170.387 -85.0871 -5.88306 159.01 -59.5935 -1.19127 158.852 -22.0325 -42.2936 232.044 5.31849 7.61992 7.92413 73.7387 
168.325 150.399 173.646 173.084 174.846 156.949 108.352 169.929 170.201 169.732 -80.7569 188.243 -14.8934 -85.0071 191.7 -16.6208 -24.1324 169.271 -84.0838 -5.10937 158.666 -59.0188 -0.0335953 159.119 -21.6141 -41.7088 231.603 5.86509 7.41623 7.89692 73.6565 
168.609 149.625 173.639 173.076 174.89 157.245 108.101 169.76 170.233 169.85 -80.2814 187.771 -14.7415 -84.2877 190.853 -15.688 -23.9003 168.139 -82.8861 -4.43295 158.165 -58.2044 0.858734 159.004 -21.0397 -41.0207 230.969 6.45037 7.22002 7.84025 73.4072 
169.159 148.899 173.593 173.131 174.948 157.756 107.864 169.699 170.407 170.065 -80.1049 187.563 -14.4863 -83.5391 190.606 -15.4387 -23.1869 167.648 -81.9973 -3.73722 157.962 -57.406 1.48295 158.904 -20.3271 -40.3216 230.664 7.12582 7.12138 7.77717 73.0863 
169.561 147.748 173.439 172.967 174.8 158.104 107.356 169.495 170.256 169.93 -79.8211 187.679 -14.283 -82.786 191.082 -15.207 -22.515 168.293 -81.4453 -2.97708 158.62 -56.9408 2.18425 159.464 -19.8667 -39.6886 230.822 7.81528 7.07865 7.82577 72.9671 
