162.503 144.242 172.872 174.402 173.609 156.617 103.229 166.466 171.292 164.734 145.404 202.556 -58.3817 147.122 207.541 -57.8106 174.68 153.159 -103.871 202.8 158.192 -93.5813 219.191 177.736 -69.9561 184.532 249.181 -72.0961 5.11045 9.57458 64.1558 
162.462 143.875 172.969 174.531 173.657 156.504 103.507 166.666 171.565 165.117 145.075 202.837 -57.8629 146.74 207.188 -57.5033 174.159 152.712 -103.151 202.41 157.825 -93.1091 219.045 177.462 -69.6702 184.313 249.071 -71.9516 5.2077 9.65628 63.7125 
162.4 143.606 173.084 174.685 173.707 156.341 103.585 166.854 171.863 165.444 144.809 203.16 -57.4328 146.485 207.009 -57.1647 173.765 152.29 -102.422 202.103 157.512 -92.6641 218.887 177.245 -69.4211 184.146 248.979 -71.8541 5.22738 9.71202 63.4414 
162.337 143.819 173.24 174.869 173.773 156.187 103.506 167.011 172.181 165.753 144.694 203.319 -56.9106 146.2 207.173 -56.6846 173.445 151.825 -101.74 201.922 157.188 -92.4389 218.794 177.016 -69.3062 184.002 248.823 -71.8308 5.24284 9.8655 63.6326 
162.227 143.869 173.366 174.994 173.824 156.049 103.63 167.159 172.511 166.172 144.787 203.388 -56.1299 145.944 207.054 -56.0977 173.248 151.35 -100.993 201.967 156.941 -92.2716 219.045 176.881 -69.3265 183.848 248.653 -71.6985 5.34555 10.1181 63.6408 
162.05 143.276 173.534 175.204 173.986 155.77 104.1 167.381 173.056 166.979 144.802 203.478 -54.8961 145.627 206.122 -55.3088 172.906 150.385 -99.6088 202.054 156.408 -91.8991 219.571 176.565 -69.3856 183.617 248.21 -71.4781 5.56011 10.5618 62.9899 
161.929 143.015 173.618 175.255 174.008 155.609 104.43 167.429 173.318 167.36 144.956 203.44 -54.2307 145.363 205.486 -54.9242 172.853 149.892 -99.011 202.365 156.278 -91.9675 220.064 176.564 -69.6169 183.442 247.956 -71.3721 5.70701 10.9493 62.6668 
161.839 143.123 173.721 175.37 174.139 155.509 104.334 167.615 173.649 167.739 144.939 203.284 -53.6944 145.166 205.384 -54.306 172.697 149.378 -98.4954 202.418 156.002 -91.9439 220.303 176.42 -69.783 183.204 247.648 -71.2819 5.82318 11.1836 62.9919 
161.851 143.27 173.851 175.504 174.255 155.535 104.202 167.824 173.987 168.115 144.697 203.089 -53.1975 144.923 205.308 -53.5315 172.333 148.752 -97.8236 202.235 155.541 -91.6912 220.301 176.075 -69.7132 182.93 247.273 -71.1247 5.90285 11.3473 63.3418 
161.791 143.395 173.96 175.616 174.349 155.477 103.978 167.942 174.256 168.381 144.674 202.859 -52.8143 144.739 205.244 -53.0424 172.146 148.245 -97.2655 202.173 155.17 -91.4392 220.302 175.791 -69.5827 182.725 246.929 -70.9912 5.93924 11.4936 63.6049 
161.776 143.566 174.008 175.654 174.41 155.33 103.657 167.949 174.439 168.664 144.409 202.635 -52.5975 144.445 205.21 -52.5913 171.834 147.765 -96.7954 202.028 154.799 -91.2387 220.306 175.474 -69.4784 182.449 246.524 -70.8325 6.07459 11.6873 63.9852 
161.78 143.483 174.034 175.684 174.523 155.241 103.777 167.993 174.673 169.021 144.264 202.377 -52.4495 144.068 204.75 -52.3468 171.651 147.333 -96.525 201.991 154.494 -91.1543 220.359 175.238 -69.4714 182.189 246.128 -70.6918 6.18427 11.8589 64.0253 
161.802 143.506 174.109 175.721 174.582 155.179 103.945 168.075 174.833 169.254 144.032 202.113 -52.0955 143.639 204.314 -51.9232 171.288 146.84 -96.0594 201.675 154.069 -90.8002 220.09 174.878 -69.1992 181.85 245.726 -70.4835 6.20127 11.8984 64.0292 
161.921 143.351 174.112 175.675 174.523 155.263 104.57 168.113 174.958 169.601 143.534 201.793 -51.4899 143.045 203.337 -51.252 170.913 146.296 -95.5291 201.531 153.712 -90.5251 220.248 174.648 -69.0976 181.361 245.301 -70.0913 6.45314 12.0539 63.7267 
162.016 143.218 174.091 175.642 174.499 155.344 104.79 168.138 174.997 169.782 142.934 201.721 -50.9002 142.528 202.935 -50.5852 170.487 145.914 -95.0439 201.264 153.422 -90.0753 220.284 174.47 -68.826 180.984 244.998 -69.769 6.68152 12.0818 63.8438 
162.099 143.114 174.1 175.634 174.495 155.395 104.981 168.179 174.995 169.884 142.32 201.658 -50.4112 142.129 202.5 -49.8228 170.027 145.476 -94.409 200.952 153.056 -89.5481 220.321 174.225 -68.5583 180.627 244.683 -69.4398 6.90074 12.086 63.8579 
162.167 143.114 174.069 175.609 174.506 155.341 105.179 168.301 175.006 169.981 141.691 201.733 -50.1093 141.608 202.205 -49.305 169.532 145.115 -93.971 200.349 152.66 -88.9817 219.789 173.855 -68.0862 180.26 244.427 -69.1746 6.8714 11.8962 63.9057 
162.227 143.127 174.008 175.547 174.49 155.25 105.038 168.463 174.964 169.998 140.755 202.101 -49.9123 141.177 202.443 -48.6142 168.937 144.795 -93.4405 199.552 152.221 -88.1745 219.051 173.429 -67.3779 179.941 244.269 -68.9011 6.78003 11.5676 64.3418 
162.169 143.221 173.935 175.549 174.573 155.206 104.839 168.614 174.964 170.264 140.016 202.343 -49.7187 140.784 202.666 -48.0165 168.421 144.424 -92.9244 198.827 151.749 -87.3875 218.359 172.974 -66.622 179.655 244.074 -68.6732 6.69504 11.2444 64.7587 
162.206 143.216 173.926 175.619 174.646 155.216 104.653 168.733 174.946 170.345 139.166 202.601 -49.766 140.467 202.735 -47.5613 167.932 144.057 -92.4604 198.183 151.277 -86.6664 217.741 172.524 -65.9104 179.402 243.885 -68.4495 6.62921 10.9681 64.9765 
162.259 143.626 173.967 175.773 174.827 155.234 104.506 168.861 175.025 170.518 138.559 202.99 -49.8018 139.987 203.345 -47.0456 167.498 143.926 -92.0201 197.618 151.011 -86.1308 217.14 172.247 -65.3951 179.175 243.857 -68.2921 6.53913 10.8153 65.5708 
162.328 143.899 174.039 175.916 175.006 155.261 104.284 168.992 175.116 170.751 138.075 203.371 -49.8639 139.602 203.957 -46.7552 167.225 143.832 -91.736 197.162 150.812 -85.8012 216.572 172.044 -65.0255 178.979 243.87 -68.2028 6.42125 10.682 66.1252 
162.345 143.869 174.041 175.994 175.175 155.287 103.953 169.085 175.215 171.018 137.498 203.637 -49.8147 139.225 204.235 -46.6179 166.86 143.63 -91.4518 196.703 150.581 -85.4758 216.002 171.831 -64.6112 178.7 243.823 -68.0803 6.33247 10.5954 66.3633 
162.369 144.028 173.983 175.955 175.21 155.361 103.856 168.947 175.146 171.122 136.934 203.686 -49.5508 138.725 204.3 -46.4543 166.415 143.407 -91.2574 196.352 150.332 -85.2608 215.631 171.602 -64.3053 178.416 243.659 -67.997 6.34909 10.6328 66.544 
162.348 144.029 173.915 175.937 175.266 155.369 103.753 168.842 175.128 171.184 136.475 203.632 -49.1754 138.264 204.154 -46.2759 165.982 143.149 -91.0501 196.009 150.104 -85.1607 215.341 171.383 -64.2053 178.057 243.463 -67.8482 6.39407 10.7037 66.5723 
162.388 144.138 173.875 175.891 175.27 155.364 103.598 168.622 175.002 171.132 136.004 203.516 -48.9448 137.891 204.138 -46.0167 165.547 142.94 -90.8804 195.75 149.94 -85.2016 215.2 171.234 -64.2926 177.712 243.266 -67.718 6.48659 10.8691 66.768 
162.367 144.306 173.834 175.83 175.347 155.341 103.504 168.351 174.812 171.219 135.642 203.298 -48.633 137.481 204.018 -45.832 165.18 142.725 -90.8494 195.605 149.8 -85.3029 215.163 171.13 -64.3927 177.337 243.055 -67.606 6.62018 11.051 66.9556 
162.334 144.495 173.712 175.677 175.3 155.308 103.436 167.97 174.479 171.015 135.356 203.006 -48.4975 137.24 203.674 -45.905 164.928 142.558 -90.9932 195.55 149.689 -85.5123 215.2 171.016 -64.5732 177.054 242.822 -67.5755 6.75941 11.2178 66.9016 
162.38 144.411 173.592 175.525 175.062 155.344 103.376 167.663 174.171 170.607 134.844 202.896 -48.3855 136.969 203.348 -45.8633 164.557 142.428 -90.9331 195.445 149.621 -85.5352 215.263 170.977 -64.6122 176.748 242.681 -67.4632 6.95185 11.402 66.7086 
162.363 144.475 173.476 175.395 175.004 155.423 103.375 167.449 173.916 170.576 134.426 202.956 -48.3161 136.758 203.258 -45.9274 164.275 142.474 -91.0099 195.411 149.704 -85.5386 215.415 171.061 -64.5424 176.543 242.697 -67.4549 7.20016 11.5439 66.6236 
162.29 144.706 173.35 175.227 174.871 155.429 103.133 167.166 173.565 170.304 134.064 203.072 -48.1555 136.68 203.464 -45.8996 164.119 142.58 -91.0105 195.488 149.819 -85.4133 215.629 171.163 -64.2422 176.389 242.756 -67.3756 7.46984 11.6791 66.7835 
162.051 145.14 173.275 175.196 174.852 155.358 102.781 166.589 173.078 169.853 134.026 202.958 -47.6707 136.792 203.325 -45.7872 164.077 142.684 -90.9374 195.545 149.996 -85.1996 215.728 171.412 -63.8507 176.201 242.796 -67.3022 7.60972 11.6278 66.6842 
161.773 145.663 173.132 175.13 174.639 155.208 102.357 166.021 172.565 169.117 133.866 203.083 -47.4192 136.942 203.332 -45.8018 164.027 142.896 -90.8154 195.465 150.209 -84.8961 215.604 171.652 -63.3749 176.087 242.94 -67.257 7.65652 11.4996 66.5007 
161.589 146.31 173.078 175.137 174.625 155.056 101.954 165.607 172.229 168.963 133.752 203.328 -47.0242 137.025 203.838 -45.4515 163.777 143.116 -90.4357 195.153 150.337 -84.4167 215.403 171.769 -62.8732 175.98 243.101 -67.1528 7.74555 11.3751 66.7639 
161.32 146.704 173.054 175.219 174.854 154.898 101.416 165.354 172.106 168.911 133.641 203.671 -46.668 137.005 204.462 -45.167 163.382 143.281 -89.8041 194.574 150.358 -83.7002 214.861 171.794 -62.2144 175.825 243.258 -67.0117 7.7158 11.1923 66.9584 
161.16 147.128 173.144 175.405 175.238 154.725 100.87 165.221 172.112 169.078 133.528 204.127 -46.5734 136.983 205.581 -44.8255 163.016 143.517 -89.2558 193.959 150.401 -83.1034 214.284 171.795 -61.6824 175.727 243.509 -66.9255 7.65858 11.0066 67.5812 
161.085 147.618 173.305 175.624 175.795 154.634 100.389 165.184 172.184 169.276 133.331 204.683 -46.3864 137.019 206.605 -44.3416 162.76 143.704 -88.6911 193.571 150.475 -82.5657 214.043 171.918 -61.2483 175.686 243.774 -66.7749 7.70073 10.8885 68.23 
161.056 148.121 173.455 175.842 176.342 154.568 99.9322 165.178 172.278 169.443 133.048 205.183 -46.1751 137.055 207.462 -43.8547 162.457 143.815 -88.1076 193.172 150.527 -82.0089 213.768 172.025 -60.7964 175.574 244 -66.6141 7.73264 10.7903 68.7652 
161.208 148.154 173.642 176.01 176.327 154.569 99.9488 165.141 172.322 169.088 132.539 205.442 -45.8407 136.976 207.578 -43.1808 162.204 143.652 -87.4151 193.117 150.441 -81.6395 213.896 172.117 -60.6605 175.396 244.009 -66.3907 7.81467 10.929 68.8685 
161.344 148.356 173.803 176.162 176.367 154.69 99.7729 165.147 172.445 169.323 132.093 205.722 -45.6154 137.034 208.026 -42.6097 162.101 143.622 -86.8352 193.112 150.442 -81.2566 214.135 172.247 -60.4393 175.267 244.113 -66.201 7.99646 10.9992 69.2125 
161.45 148.32 173.955 176.31 176.531 154.712 99.7779 165.21 172.583 169.633 131.595 206.168 -45.6781 137.124 208.234 -42.2441 162.099 143.619 -86.4807 193.255 150.496 -81.0206 214.531 172.457 -60.3063 175.262 244.291 -66.0945 8.21155 11.0805 69.295 
161.53 148.257 174.053 176.433 176.695 154.723 99.6607 165.3 172.734 169.841 131.218 206.581 -45.747 137.219 208.299 -42.017 162.176 143.537 -86.2445 193.435 150.519 -80.9141 214.843 172.642 -60.2976 175.238 244.441 -66.0229 8.31985 11.1339 69.2932 
161.645 148.424 174.096 176.497 176.727 154.874 99.5913 165.414 172.9 169.978 130.86 206.698 -45.7732 137.399 208.311 -41.7414 162.236 143.402 -86.0578 193.662 150.455 -80.8504 215.136 172.724 -60.281 175.226 244.485 -65.9671 8.38431 11.2274 69.3574 
161.829 148.646 174.152 176.552 176.642 155.058 99.5065 165.484 173.05 169.994 130.425 206.865 -45.738 137.511 208.536 -41.387 162.165 143.35 -85.6764 193.755 150.44 -80.6874 215.257 172.803 -60.1566 175.176 244.555 -65.8938 8.41115 11.3613 69.5076 
161.895 148.622 174.249 176.638 176.691 155.189 99.3509 165.589 173.183 170.383 130.311 207.024 -45.8878 137.609 208.707 -41.3553 162.263 143.421 -85.5271 193.882 150.574 -80.642 215.452 173.038 -60.1642 175.136 244.736 -65.8961 8.48165 11.3997 69.5037 
161.884 148.723 174.388 176.752 177.174 155.289 99.2869 165.757 173.358 171.515 130.503 207.19 -45.8214 137.818 208.942 -41.2545 162.576 143.495 -85.323 194.082 150.7 -80.4773 215.92 173.323 -60.1453 175.194 244.957 -65.8855 8.70307 11.334 69.5789 
161.799 148.647 174.455 176.818 178.255 155.33 99.1853 165.85 173.504 172.626 130.781 207.006 -45.6976 137.834 208.769 -41.3089 162.854 143.353 -85.2328 194.328 150.666 -80.4194 216.441 173.45 -60.0259 175.143 244.922 -65.8264 9.05218 11.3639 69.5256 
161.728 148.908 174.504 176.92 179.742 155.388 99.0235 165.923 173.67 174.282 131.056 207.003 -45.5257 137.87 209.041 -41.437 163.181 143.464 -85.3808 194.719 150.878 -80.5072 217.361 173.782 -59.8163 175.195 245.095 -65.8086 9.72959 11.4665 69.7935 
161.59 148.987 174.58 176.996 178.927 155.365 98.8942 165.953 173.752 175.872 131.671 206.777 -45.4287 137.834 209.102 -41.6802 163.556 143.454 -85.3205 195.043 150.959 -80.3764 218.105 174.07 -59.5331 175.219 245.161 -65.7687 10.2921 11.521 69.8133 
161.473 148.937 174.667 177.036 177.22 155.323 98.9296 165.991 173.849 177.129 132.228 206.643 -45.2029 137.727 209.147 -41.7719 163.825 143.504 -85.1417 195.386 151.093 -80.2272 218.784 174.404 -59.2684 175.228 245.24 -65.656 10.7781 11.6836 69.7929 
161.376 148.857 174.792 177.127 178.76 155.298 98.9559 166.14 173.982 178.277 132.388 206.811 -45.19 137.509 209.328 -41.7747 164 143.47 -84.8138 195.429 151.048 -79.6847 219.027 174.559 -58.7526 175.175 245.333 -65.4996 11.0624 11.6171 69.8814 
161.334 148.525 174.883 177.179 177.387 155.307 99.1761 166.249 174.06 179.051 132.465 206.951 -44.7618 137.168 209.106 -41.5047 164.055 143.311 -84.2613 195.463 150.955 -79.0839 219.869 174.856 -58.8627 175.013 245.317 -65.2073 11.7613 11.6143 69.6995 
161.192 148.076 174.997 177.298 174.654 155.34 99.3245 166.533 174.265 177.911 132.734 207.431 -44.4171 137.309 209.144 -41.2349 164.392 143.482 -83.7659 195.734 151.16 -78.5019 220.194 175.297 -58.833 175.108 245.655 -65.0187 11.745 11.4967 69.4342 
161.058 147.639 175.097 177.325 174.27 155.327 99.4683 166.698 174.319 177.738 132.64 207.814 -44.1966 137.445 208.914 -40.7804 164.458 143.528 -83.0386 195.854 151.271 -77.8222 220.136 175.469 -58.4613 175.102 245.858 -64.7519 11.4809 11.4579 68.9643 
160.878 147.348 175.124 177.288 174.27 155.29 99.7212 166.846 174.378 177.73 132.526 208.211 -43.8301 137.55 208.611 -40.1624 164.514 143.445 -82.049 195.951 151.295 -76.9955 219.634 175.558 -58.3302 175.05 246.013 -64.4682 10.7517 11.4179 68.38 
160.619 147.185 175.143 177.231 174.27 155.224 99.9197 166.975 174.413 177.724 132.508 208.447 -43.6117 137.48 208.302 -39.5914 164.515 143.219 -80.9816 195.831 151.133 -76.0587 219.105 175.586 -58.1468 174.818 246.055 -64.1825 10.2297 11.276 67.8566 
160.397 147.069 175.212 177.186 174.27 155.386 100.049 167.237 174.528 177.712 132.482 208.763 -43.2799 137.601 208.117 -39.0397 164.69 142.996 -79.9099 195.767 150.946 -75.0592 218.738 175.686 -57.9028 174.712 246.196 -63.9188 9.81417 11.0264 67.3542 
160.325 146.923 175.243 177.125 174.27 155.68 100.229 167.444 174.635 177.696 132.316 209.133 -43.1384 137.74 208.095 -38.5909 164.859 142.952 -78.8998 195.717 150.888 -74.1171 218.322 175.813 -57.5072 174.671 246.442 -63.7351 9.34994 10.8017 66.8299 
160.342 146.412 175.302 177.069 174.27 156.13 100.275 167.687 174.874 177.687 131.953 209.487 -43.2309 137.745 207.971 -38.3276 165.113 142.855 -77.882 195.75 150.809 -73.0877 217.76 175.968 -56.6462 174.631 246.674 -63.5449 8.72988 10.5708 66.1969 
160.506 146.078 175.341 177.009 174.27 156.599 100.238 167.884 175.047 177.677 131.378 209.839 -43.4 137.783 208.098 -37.9589 165.24 142.731 -76.882 195.712 150.665 -72.1834 217.174 175.989 -55.8275 174.583 246.868 -63.417 8.13086 10.3997 65.8626 
160.597 145.321 175.397 176.932 174.27 157.036 100.339 167.949 175.079 177.675 130.891 210.062 -43.488 137.857 207.864 -37.7311 165.406 142.643 -76.0134 195.829 150.577 -71.458 216.941 176.069 -55.1952 174.608 247.008 -63.278 7.7596 10.3385 65.24 
160.86 144.845 175.39 176.804 174.27 157.405 100.263 167.953 175.064 177.675 130.082 210.389 -43.6978 137.879 207.993 -37.539 165.372 142.715 -75.4192 195.929 150.668 -70.9701 216.923 176.257 -54.6801 174.645 247.243 -63.2172 7.62706 10.3847 64.9545 
161.043 144.05 175.364 176.644 174.27 157.722 100.433 167.9 174.923 177.675 129.214 210.715 -43.713 137.862 207.779 -37.4056 165.12 142.821 -75.0167 195.863 150.788 -70.7541 217.137 176.471 -54.5952 174.549 247.444 -63.2026 7.83045 10.4726 64.3966 
161.21 142.861 175.314 176.401 174.27 157.946 100.621 167.754 174.677 177.676 128.398 210.877 -43.5832 137.799 207.284 -37.416 164.778 142.78 -74.6874 195.794 150.814 -70.673 217.517 176.564 -54.6788 174.446 247.474 -63.2178 8.1997 10.6483 63.6835 
161.648 141.647 175.284 176.106 174.27 158.352 100.666 167.656 174.475 177.677 127.283 211.216 -43.5053 137.708 207.183 -37.5018 164.273 142.829 -74.5697 195.605 150.881 -70.6367 217.709 176.715 -54.6299 174.284 247.649 -63.3117 8.52799 10.8154 63.2974 
161.786 141.132 175.247 175.888 174.27 158.423 100.725 167.574 174.288 177.678 126.933 211.206 -43.3214 137.742 207.063 -37.5235 164.019 142.76 -74.6569 195.506 150.874 -70.8008 217.88 176.744 -54.8063 174.109 247.653 -63.4004 8.78013 10.9136 63.1926 
161.951 140.715 175.226 175.642 174.29 158.458 100.977 167.492 174.001 177.686 126.555 211.369 -43.3069 137.665 207.152 -37.6848 163.602 142.904 -74.9792 195.211 150.973 -71.0047 218.073 176.842 -55.0395 174.021 247.78 -63.5888 9.21422 10.9686 63.1714 
162.1 140.773 175.228 175.331 174.317 158.555 101.367 167.405 173.609 177.697 126.472 211.625 -43.2344 137.659 207.433 -37.8627 163.377 143.188 -75.5185 194.904 151.185 -71.3789 218.235 177.1 -55.541 173.953 248.049 -63.8721 9.6242 10.8921 63.3267 
161.999 141.405 175.13 174.965 174.344 158.402 101.637 167.255 173.152 177.708 126.379 211.838 -42.908 137.454 207.476 -38.0255 163.077 143.297 -75.9702 194.515 151.283 -71.6612 218.313 177.287 -55.9276 173.754 248.147 -64.0947 10.0677 10.8196 63.4345 
161.946 141.764 175.004 174.696 174.373 158.196 101.782 167.055 172.838 177.72 126.232 212.217 -42.5261 137.163 207.666 -38.3266 162.852 143.655 -76.6348 194.356 151.68 -72.187 218.59 177.684 -56.3066 173.639 248.413 -64.3298 10.5251 10.8565 63.5731 
161.661 141.745 174.876 174.422 174.42 157.876 101.965 166.947 172.632 177.738 126.146 212.763 -42.3184 136.64 207.651 -38.7858 162.668 143.898 -77.2047 194.152 151.986 -72.5949 218.699 178.022 -56.5598 173.495 248.658 -64.5311 10.8833 10.8422 63.4726 
161.355 141.728 174.74 174.249 174.846 157.526 102.046 166.82 172.446 177.91 125.953 213.139 -42.3802 136.172 207.735 -39.2469 162.513 144.156 -77.8425 194.023 152.326 -73.0013 218.884 178.346 -56.613 173.319 248.925 -64.7114 11.2714 10.8517 63.4775 
161.103 141.98 174.574 174.07 176.146 157.388 102.336 166.612 172.206 178.439 125.955 213.329 -42.5709 135.734 207.498 -39.7133 162.547 144.367 -78.3244 194.044 152.64 -73.2854 218.95 178.599 -56.6792 173.193 249.135 -64.8643 11.4163 10.8511 63.1403 
160.849 142.164 174.435 173.94 176.81 157.232 102.371 166.428 172.023 178.714 125.98 213.318 -42.4793 135.361 207.238 -40.0671 162.588 144.434 -78.7215 194.083 152.826 -73.5921 218.946 178.809 -56.7552 172.963 249.212 -64.9273 11.4966 10.8799 62.9803 
160.641 142.275 174.373 173.895 176.457 157.028 102.223 166.366 171.95 178.574 126.341 213.466 -42.6068 135.125 207.388 -40.6338 162.74 144.633 -79.1083 194.156 153.075 -73.7957 218.921 179.164 -56.7864 172.94 249.476 -65.1413 11.5095 10.8308 62.889 
160.42 142.48 174.275 173.82 176.206 156.919 102.088 166.359 171.969 178.476 126.252 213.666 -42.9675 134.79 207.571 -41.0168 162.78 144.809 -79.4357 194.145 153.315 -73.9457 218.818 179.45 -56.7161 172.822 249.703 -65.293 11.522 10.7923 62.9238 
160.287 143.234 174.211 173.847 176.053 156.85 101.866 166.382 172.026 178.413 126.145 213.899 -42.9601 134.584 208.139 -41.0645 162.716 144.945 -79.6255 194.003 153.445 -74.0615 218.597 179.602 -56.7402 172.726 249.891 -65.4699 11.4644 10.7348 63.4002 
160.21 144.115 174.196 173.966 175.613 156.896 101.7 166.507 172.141 178.233 126.293 214.281 -42.8879 134.452 208.639 -41.1091 162.983 145.152 -79.6662 194.017 153.712 -73.9783 218.403 179.98 -56.7601 172.699 250.241 -65.5962 11.2725 10.5247 63.6398 
159.997 144.409 174.164 174.066 175.806 156.76 101.682 166.563 172.147 178.311 126.504 214.526 -42.9673 134.252 208.834 -41.4564 163.199 145.356 -80.0075 194.127 153.971 -74.1384 218.217 180.26 -56.9286 172.636 250.523 -65.8546 11.0392 10.42 63.676 
159.717 144.535 174.181 174.082 175.576 156.477 101.695 166.578 172.12 178.221 126.772 214.838 -43.1702 133.951 208.982 -41.8384 163.267 145.517 -80.1554 194.097 154.193 -74.2437 218.029 180.558 -57.0915 172.576 250.773 -66.1749 10.9091 10.3418 63.5513 
159.607 144.585 174.186 174.144 175.515 156.271 101.754 166.531 172.035 178.198 126.808 214.943 -43.3875 133.719 208.903 -42.191 163.314 145.593 -80.4287 194.276 154.318 -74.5823 218.068 180.745 -57.4019 172.435 250.886 -66.4929 10.8473 10.4391 63.4046 
159.305 144.109 174.306 174.239 174.485 156.081 101.747 166.651 172.126 177.774 127.187 215.12 -43.1505 133.957 208.677 -42.275 163.589 145.485 -80.4834 194.488 154.277 -75.0571 218.269 180.938 -58.0752 172.359 250.951 -66.8357 10.8029 10.4273 63.207 
159.001 143.339 174.401 174.274 174.507 155.819 101.619 166.525 172.083 177.788 127.408 215.119 -43.0875 133.982 208.291 -42.6856 163.583 145.561 -80.6806 194.646 154.507 -75.7907 218.665 181.269 -58.6472 172.11 250.99 -67.1967 11.1075 10.6653 62.7726 
158.896 143.277 174.54 174.386 174.512 155.747 101.344 166.619 172.303 177.792 127.565 215.146 -43.2342 133.92 208.542 -43.1569 163.551 145.577 -81.0587 194.568 154.543 -76.3625 218.527 181.436 -59.0857 171.896 251.069 -67.6484 11.1184 10.7137 62.9703 
158.97 142.848 174.652 174.619 174.515 155.726 101.274 166.693 172.522 177.795 127.415 215.356 -43.3501 133.758 208.998 -43.3558 163.052 145.795 -81.249 194.098 154.687 -76.7612 218.236 181.572 -59.5557 171.651 251.231 -68.053 11.2057 10.767 63.1667 
159.046 142.867 174.78 174.97 174.526 155.796 101.254 166.844 172.778 177.805 127.227 215.529 -43.4293 133.684 209.708 -43.3676 162.619 146.088 -81.6004 193.657 154.942 -77.2166 218.027 181.901 -60.3219 171.315 251.472 -68.4608 11.3538 10.7662 63.7244 
159.177 143.041 174.803 175.298 176.536 155.913 101.085 166.929 173.011 178.645 126.979 215.732 -43.6395 133.33 210.328 -43.5581 162.165 146.35 -81.892 193.137 155.19 -77.5933 217.536 182.051 -60.7582 170.898 251.678 -68.8157 11.3448 10.7522 64.123 
159.059 143.957 174.806 175.676 178.489 155.823 100.333 166.985 173.279 179.479 126.988 216.118 -44.4873 132.899 211.277 -44.1675 161.788 146.667 -82.3079 192.45 155.368 -77.9124 216.496 182.053 -61.0935 170.588 251.949 -69.25 10.9561 10.5828 64.6856 
159.12 144.525 174.711 175.939 179.261 155.772 99.8184 166.955 173.409 179.45 126.739 216.469 -45.4573 132.374 211.828 -44.9233 161.423 147.103 -82.9894 191.823 155.743 -78.2676 215.436 182.205 -61.3064 170.201 252.266 -69.6034 10.5696 10.4086 64.9344 
158.547 146.256 174.526 176.211 178.097 154.98 98.6347 167.108 173.756 178.936 126.38 217.207 -47.0695 130.606 212.321 -46.4211 160.751 147.238 -83.7926 190.497 155.935 -78.5004 212.98 182.256 -61.2823 169.163 252.517 -70.248 9.61149 9.9719 65.1287 
