158.536 146.777 174.387 176.321 177.656 154.751 98.3152 167.096 173.869 178.749 125.985 217.428 -47.6041 129.84 212.237 -46.9868 160.381 147.278 -84.1294 190.08 156.056 -78.7585 211.94 182.283 -61.3253 168.686 252.594 -70.4743 9.08324 9.95615 64.9518 
158.561 147.154 174.418 176.505 177.354 154.737 97.9409 167.221 174.073 178.622 125.949 217.751 -48.1637 129.326 212.584 -47.4916 160.177 147.429 -84.371 189.725 156.263 -79.1255 211.083 182.416 -61.6279 168.32 252.822 -70.7913 8.61619 9.92075 65.0138 
158.775 147.555 174.546 176.693 178.207 154.937 97.7189 167.292 174.167 178.974 125.873 217.946 -48.3496 129.273 212.933 -47.6313 160.192 147.759 -84.7464 189.795 156.661 -79.8351 211.01 182.833 -62.3886 168.085 253.135 -71.1541 8.45654 10.0011 65.2168 
158.938 147.851 174.592 176.787 178.371 154.951 97.5348 167.405 174.267 179.034 125.698 218.123 -48.5939 128.994 213.067 -47.9479 160.142 147.921 -85.2125 189.794 156.877 -80.3587 210.826 183.047 -62.9034 167.792 253.324 -71.4802 8.32683 10.0399 65.3193 
159.242 148.401 174.608 176.891 178.461 155.192 97.3208 167.468 174.396 179.064 125.327 218.484 -48.6637 128.702 213.471 -48.2152 159.879 148.248 -85.7006 189.636 157.207 -80.997 210.6 183.354 -63.5117 167.514 253.665 -71.8735 8.2377 10.1076 65.4927 
159.539 149.21 174.525 176.946 176.784 155.301 97.0098 167.354 174.33 178.361 124.843 218.679 -48.84 128.322 213.989 -48.5912 159.557 148.547 -86.4147 189.394 157.48 -81.6307 210.136 183.453 -63.8331 167.142 253.932 -72.2351 8.07871 10.1411 65.9178 
159.786 150.242 174.401 176.941 174.758 155.385 96.3387 167.347 174.354 177.495 124.479 219.031 -49.128 127.724 214.663 -49.4016 159.376 148.907 -87.3468 189.107 157.839 -82.0942 209.324 183.698 -63.854 166.803 254.312 -72.5872 7.73485 10.0089 66.4077 
159.879 151.534 174.288 176.888 173.743 155.388 95.0308 167.428 174.396 177.094 123.888 219.004 -49.4671 127.07 215.609 -49.9636 159.274 148.83 -88.0827 188.877 157.831 -82.4231 208.528 183.701 -63.8036 166.372 254.368 -72.8537 7.3734 9.84929 67.5375 
160.137 152.541 174.182 176.832 173.301 155.534 93.9135 167.444 174.474 176.953 122.973 218.803 -49.6763 126.394 216.532 -50.234 158.727 148.729 -88.6189 188.393 157.725 -82.7087 207.562 183.49 -63.6043 165.778 254.248 -73.1024 7.10962 9.85121 68.7694 
159.867 153.28 174.093 176.807 173.16 155.112 93.0887 167.494 174.584 176.946 122.685 218.7 -50.3027 125.743 217.006 -50.9738 158.495 148.607 -89.3713 188.028 157.649 -82.9695 206.658 183.359 -63.4966 165.286 254.154 -73.3947 6.84047 9.72696 69.4918 
159.63 153.323 174.028 176.784 173.684 154.694 92.7032 167.552 174.696 177.168 122.629 218.76 -50.8268 125.218 217.153 -51.4574 158.36 148.636 -89.9263 187.764 157.816 -83.251 206.329 183.449 -63.8174 164.849 254.228 -73.6038 6.82011 9.62065 69.7166 
159.591 153.32 174.08 176.875 174.231 154.548 92.5726 167.671 174.865 177.382 122.842 219.172 -51.1788 124.889 217.734 -51.9613 158.283 149.139 -90.5774 187.476 158.352 -83.6748 206.225 183.971 -64.4528 164.634 254.699 -73.9229 6.90675 9.45526 69.9573 
159.481 153.537 174.199 177.01 174.821 154.553 92.6306 167.866 175.107 177.618 123.459 219.361 -51.7658 124.677 218.188 -52.6921 158.505 149.649 -91.4041 187.52 158.92 -84.304 206.21 184.52 -65.184 164.497 255.15 -74.3654 6.89856 9.38743 70.1508 
159.483 153.714 174.179 177.055 175.112 154.48 92.7075 167.963 175.321 177.739 123.451 219.318 -51.9597 124.342 218.483 -53.0417 158.337 149.865 -91.9812 187.449 159.18 -84.8198 205.958 184.663 -65.6203 164.155 255.269 -74.6719 6.83208 9.51269 70.5191 
159.531 153.128 174.127 177.051 175.066 154.246 93.1845 167.954 175.341 177.71 123.061 219.417 -52.1765 123.812 218.601 -53.182 157.748 150.012 -92.3755 186.98 159.281 -85.1159 205.566 184.581 -65.9184 163.769 255.309 -74.9451 6.8966 9.60283 70.6714 
159.57 152.805 174.085 177.029 174.393 154.17 93.524 168.012 175.331 177.41 122.792 219.283 -52.1959 123.134 218.539 -53.2969 157.297 149.875 -92.708 186.468 159.125 -85.2629 204.946 184.328 -66.1888 163.227 255.171 -75.1596 6.78532 9.54792 70.9084 
159.663 152.017 174.014 176.929 174.999 154.043 94.1187 167.916 175.175 177.659 122.392 219.311 -52.1093 122.526 218.098 -53.369 156.846 150.012 -92.921 186.148 159.333 -85.5874 204.958 184.43 -66.7336 162.746 255.218 -75.3456 7.03759 9.6423 70.4497 
159.925 151.144 173.981 176.843 175.57 154.11 94.8915 167.815 175.122 177.891 121.794 219.39 -52.0078 121.995 217.797 -53.1766 156.108 150.33 -92.7875 185.697 159.716 -85.8356 205.02 184.657 -67.2313 162.312 255.336 -75.468 7.40287 9.88318 69.8954 
160.362 149.859 173.937 176.79 176.036 154.339 95.8082 167.506 174.908 178.074 121.031 219.245 -51.8499 121.616 217.353 -53.0425 155.462 150.682 -92.8946 185.538 160.158 -86.4604 205.551 184.938 -67.9552 162.007 255.43 -75.6738 7.98294 10.2929 69.2767 
160.69 149.406 173.805 176.607 175.3 154.6 96.3345 167.205 174.687 177.745 120.117 219.138 -51.8326 121.259 216.983 -52.8273 154.725 150.871 -92.7788 185.249 160.401 -86.7527 205.671 185.011 -68.1205 161.621 255.4 -75.8589 8.33336 10.624 68.8089 
160.931 149.001 173.796 176.573 174.888 154.778 96.8105 167.005 174.578 177.564 119.469 219.204 -52.2134 120.853 216.994 -52.9368 153.973 151.173 -92.8597 184.769 160.662 -87.0687 205.441 185.127 -68.3532 161.331 255.533 -76.1544 8.52315 10.8529 68.5017 
161.044 148.931 173.775 176.572 174.702 154.849 97.2908 166.86 174.43 177.488 118.906 219.374 -52.8506 120.551 217.285 -53.033 153.42 151.565 -93.0606 184.424 160.941 -87.3592 205.457 185.295 -68.5557 161.162 255.779 -76.4986 8.82531 10.9967 68.403 
161.003 148.669 173.777 176.628 173.829 154.709 97.4389 166.827 174.413 177.105 118.684 219.661 -53.5071 120.257 217.849 -53.3296 152.971 151.893 -93.3325 183.964 161.16 -87.6264 205.116 185.522 -68.8861 160.868 256.067 -76.9262 8.90043 10.9825 68.5738 
160.902 148.87 173.808 176.701 173.371 154.528 97.4783 166.869 174.449 176.905 118.312 220.124 -54.1878 119.85 218.612 -53.5973 152.53 152.187 -93.6249 183.467 161.364 -87.867 204.672 185.721 -69.082 160.596 256.443 -77.3325 8.91395 10.9229 68.8885 
160.924 149.481 173.864 176.744 172.158 154.599 97.1555 166.98 174.555 176.376 117.713 220.309 -54.6237 119.377 219.212 -53.8975 152.047 152.176 -93.9187 182.777 161.29 -88.0869 203.672 185.702 -69.1946 160.126 256.547 -77.6902 8.61941 10.7703 69.4082 
160.895 150.746 174.008 176.898 171.36 154.579 96.4688 167.227 174.819 176.046 117.699 220.517 -55.1793 118.942 220.029 -54.6964 151.865 152.164 -94.4877 182.17 161.192 -88.3235 202.366 185.655 -69.1623 159.805 256.728 -78.1191 8.04884 10.4803 70.0858 
160.868 152.29 174.067 177.021 171.635 154.635 95.6488 167.491 175.005 176.231 117.485 220.417 -55.7897 118.564 220.864 -55.3841 151.732 151.977 -94.9823 181.508 160.887 -88.3519 200.905 185.532 -69.0123 159.328 256.727 -78.518 7.4218 10.1063 71.0513 
160.867 153.629 174.083 177.11 170.69 154.705 95.6153 167.63 175.026 175.843 117.289 220.025 -56.5999 118.173 221.359 -55.8414 151.551 151.976 -95.4706 180.889 160.775 -88.5863 199.665 185.415 -68.9734 158.864 256.725 -78.879 6.96475 9.84005 71.6194 
160.929 154.244 174.044 177.163 170.284 154.782 95.6701 167.725 175.078 175.711 116.696 219.569 -57.4262 117.586 221.534 -56.3065 151.192 151.914 -95.9132 180.219 160.635 -88.7816 198.404 185.217 -68.7587 158.275 256.6 -79.1449 6.62244 9.67383 71.9766 
160.908 154.325 173.983 177.052 170.482 154.715 95.978 167.598 174.923 175.802 116.206 219.374 -57.8869 117.095 221.15 -56.4955 150.891 152.091 -96.099 179.813 160.898 -89.0543 198.022 185.394 -69.137 157.678 256.643 -79.2896 6.63333 9.65566 71.5701 
160.888 154.568 173.938 176.977 170.55 154.723 96.1036 167.391 174.793 175.82 115.642 218.91 -57.9844 116.512 220.718 -56.4239 150.338 152.132 -96.1382 179.366 161.065 -89.3737 197.948 185.471 -69.6248 156.914 256.451 -79.3956 6.93489 9.78871 71.3849 
160.885 154.666 173.711 176.795 170.403 154.725 96.681 167.013 174.47 175.72 114.923 218.512 -58.1405 116.077 220.368 -56.4603 149.721 152.466 -96.5308 178.98 161.389 -89.8422 198.097 185.6 -70.0397 156.273 256.403 -79.6219 7.46125 9.97266 71.1263 
160.927 154.855 173.529 176.693 170.419 154.574 97.7142 166.737 174.242 175.641 114.302 218.464 -59.0774 115.151 220.482 -57.1594 148.719 153.2 -97.4509 178.029 161.956 -90.7386 197.61 185.952 -71.2679 155.394 256.759 -80.5724 7.757 10.0062 70.7411 
160.874 154.784 173.505 176.729 170.309 154.531 98.319 166.616 174.141 175.618 114.32 218.312 -59.4243 114.744 220.352 -57.5074 148.244 153.473 -97.7268 177.603 162.114 -91.0654 197.611 185.977 -71.9067 155.062 256.774 -80.9396 8.06114 10.0839 70.4251 
160.744 154.92 173.485 176.763 169.893 154.364 98.6273 166.49 174.04 175.414 114.276 218.162 -59.9431 114.361 220.445 -58.0341 147.724 153.649 -98.1184 177.06 162.148 -91.3995 197.269 185.902 -72.2941 154.736 256.775 -81.3512 8.23239 10.1212 70.3435 
160.623 154.048 173.331 176.593 169.645 154.284 98.6311 166.298 173.819 174.958 113.343 218.428 -60.2383 113.823 220.161 -58.5177 146.996 153.763 -98.2482 176.349 162.182 -91.4413 196.802 185.849 -72.2816 154.32 256.799 -81.5532 8.4289 10.1141 69.8187 
160.586 153.897 173.239 176.428 169.935 154.245 98.9045 166.093 173.558 174.584 112.52 218.536 -60.3314 113.121 220.121 -58.5892 146.084 153.8 -98.284 175.557 162.087 -91.4179 196.298 185.628 -72.0717 153.841 256.745 -81.6147 8.68794 10.1883 69.6808 
160.632 153.667 173.079 176.257 170.568 154.382 99.3034 165.922 173.349 174.301 111.493 218.745 -60.2836 112.564 220.14 -58.4515 145.038 153.841 -98.2556 174.732 161.992 -91.3834 195.825 185.436 -71.8788 153.433 256.744 -81.7294 8.93368 10.2771 69.5694 
160.567 153.11 173.111 176.177 170.64 154.396 99.4319 165.876 173.229 174.138 110.74 219.074 -59.8794 111.924 220.186 -58.1447 144.182 153.896 -97.9064 174.004 162.049 -91.1611 195.375 185.517 -71.6525 152.957 256.821 -81.6209 9.10916 10.3247 69.4416 
160.349 153.399 173.109 176.111 170.085 154.22 99.2836 165.822 173.079 173.584 110.502 219.236 -59.9175 111.605 220.441 -58.1291 143.893 153.949 -97.7175 173.556 162.062 -90.8574 194.824 185.504 -71.3755 152.714 256.89 -81.5893 8.98779 10.1879 69.5059 
160.155 153.692 173.052 176.032 169.574 154.123 99.3719 165.739 172.925 173.247 110.405 219.258 -59.9875 111.298 220.516 -58.2106 143.715 153.984 -97.7036 173.281 162.062 -90.7806 194.456 185.504 -71.2527 152.47 256.915 -81.6834 8.9285 10.1175 69.4958 
159.929 153.783 172.959 175.956 169.338 154.032 99.2873 165.659 172.774 172.986 110.212 219.063 -59.8597 110.93 220.314 -58.1636 143.527 153.79 -97.6255 173.096 161.918 -90.6804 194.19 185.41 -71.1066 152.107 256.753 -81.6581 8.90444 10.1038 69.485 
159.758 153.709 172.888 175.929 169.632 153.997 99.3967 165.541 172.67 172.778 109.937 218.986 -59.9046 110.492 220.222 -58.3197 143.18 153.788 -97.6279 172.805 161.891 -90.5557 193.891 185.371 -70.8544 151.777 256.695 -81.7228 8.98152 10.134 69.358 
159.612 154.003 172.871 175.953 170.351 153.969 99.4682 165.52 172.669 172.75 109.971 219.009 -60.0347 110.291 220.368 -58.4669 142.983 153.941 -97.7173 172.694 162.003 -90.6776 193.823 185.468 -70.8999 151.629 256.761 -81.8847 9.06208 10.2061 69.3535 
159.615 153.519 172.908 175.985 171.467 154.063 99.5406 165.528 172.652 172.757 109.804 219.209 -60.12 110.145 220.427 -58.6387 142.747 154.195 -97.8527 172.6 162.233 -90.8626 193.887 185.676 -71.045 151.576 256.954 -82.0437 9.18575 10.2762 69.1443 
159.516 153.409 172.94 176.085 172.728 154.083 99.6236 165.63 172.815 172.849 110.097 219.582 -60.2173 110.14 220.643 -58.9644 142.746 154.574 -98.092 172.632 162.567 -91.0186 193.995 185.965 -71.1574 151.705 257.287 -82.2369 9.25605 10.2772 68.9513 
159.533 152.966 172.916 176.108 174.563 154.172 99.7461 165.696 172.867 172.74 110.121 219.868 -60.2191 110.305 220.505 -59.051 142.744 154.783 -98.2466 172.714 162.763 -91.2123 194.187 186.192 -71.4198 151.82 257.48 -82.4506 9.28524 10.258 68.6035 
159.484 152.893 172.94 176.163 176.212 154.258 99.8629 165.831 172.909 172.696 110.486 220.28 -60.3908 110.687 220.656 -59.2061 142.951 155.228 -98.6324 172.905 163.172 -91.5218 194.492 186.614 -71.7534 152.09 257.92 -82.7375 9.31707 10.1427 68.3446 
159.643 152.696 172.893 176.118 177.884 154.435 100.196 165.812 172.828 172.389 110.46 220.517 -60.6654 110.972 220.673 -59.2962 142.846 155.583 -98.8514 172.906 163.417 -91.741 194.565 186.829 -71.9721 152.277 258.173 -83.0174 9.31902 10.1549 68.0282 
159.739 152.222 172.89 176.077 179.114 154.536 100.359 165.807 172.743 172.126 110.729 220.499 -60.8688 111.258 220.308 -59.4832 142.818 155.683 -98.9824 172.913 163.489 -91.8954 194.593 186.925 -72.2116 152.427 258.234 -83.2319 9.26476 10.135 67.4924 
159.922 151.905 172.911 176.004 179.815 154.701 100.433 165.671 172.568 171.897 110.656 220.376 -60.6496 111.56 220.041 -59.3863 142.539 155.663 -98.9463 172.751 163.449 -92.0188 194.557 186.891 -72.3795 152.497 258.119 -83.3463 9.2893 10.1947 67.2605 
160.024 151.604 172.902 175.886 178.885 154.779 100.686 165.515 172.305 171.538 110.709 220.234 -60.5533 111.955 219.582 -59.2665 142.432 155.691 -99.0605 172.739 163.474 -92.2866 194.59 186.9 -72.7725 152.581 258.044 -83.4431 9.21919 10.2322 66.8992 
160.009 151.54 172.92 175.861 178.251 154.772 100.841 165.486 172.169 171.308 110.887 220.282 -60.79 112.53 219.41 -59.3891 142.674 155.913 -99.3335 172.911 163.679 -92.5348 194.733 187.101 -73.1083 152.82 258.198 -83.5886 9.11648 10.1405 66.6316 
160.177 151.653 172.894 175.79 177.944 154.897 100.799 165.395 171.991 170.867 110.666 220.258 -61.0055 113.02 219.437 -59.4157 142.569 156.034 -99.5341 172.84 163.715 -92.6776 194.6 187.082 -73.2005 152.999 258.206 -83.6866 9.00932 10.1336 66.6515 
160.303 151.954 172.985 175.828 177.964 154.971 100.806 165.451 172.001 170.583 110.525 220.423 -61.4199 113.444 219.869 -59.3841 142.527 156.235 -99.6349 172.75 163.82 -92.7728 194.373 187.116 -73.1956 153.216 258.35 -83.7735 8.85262 10.1056 66.9158 
160.471 152.332 173.094 175.901 178.098 155.074 100.596 165.504 172.03 170.429 110.451 220.463 -61.8644 113.876 220.561 -59.3372 142.6 156.374 -99.7249 172.678 163.847 -92.9058 194.136 187.018 -73.221 153.418 258.408 -83.8678 8.68296 10.0472 67.5243 
160.555 152.741 173.121 175.92 178.315 155.162 100.644 165.51 172.001 170.117 110.534 220.505 -62.3049 114.207 221.11 -59.395 142.697 156.56 -99.8201 172.642 163.884 -92.8575 193.838 186.942 -73.0503 153.694 258.491 -83.9456 8.45972 9.96777 67.9025 
160.721 153.073 173.19 175.958 178.599 155.291 100.64 165.528 172.002 169.856 110.699 220.32 -62.5049 114.562 221.446 -59.2111 142.692 156.577 -99.6592 172.517 163.784 -92.7238 193.437 186.748 -72.9009 153.906 258.406 -83.9397 8.16438 9.90423 68.2063 
160.784 153.401 173.228 176.035 178.894 155.367 100.411 165.582 172.106 169.749 111.247 219.936 -62.7577 114.946 221.948 -59.2009 142.956 156.56 -99.5452 172.634 163.679 -92.6254 193.164 186.547 -72.691 154.162 258.276 -83.9165 7.87092 9.8801 68.7048 
160.863 153.678 173.283 176.121 179.002 155.375 100.384 165.664 172.213 169.858 111.966 219.819 -63.0251 115.446 222.385 -59.418 143.406 156.721 -99.5721 172.863 163.71 -92.481 193.142 186.515 -72.4981 154.643 258.323 -84.0006 7.67486 9.77183 68.9449 
160.877 153.778 173.295 176.156 178.939 155.377 100.426 165.654 172.203 169.926 112.51 219.802 -63.0705 116.036 222.402 -59.4316 143.818 156.773 -99.4439 173.138 163.689 -92.2512 193.352 186.483 -72.3353 155.191 258.307 -83.9994 7.5607 9.66017 68.8579 
160.947 153.509 173.323 176.187 178.6 155.483 100.51 165.586 172.132 170.172 112.986 219.536 -62.8432 116.547 222.061 -59.4426 144.181 156.625 -99.3184 173.445 163.509 -92.0888 193.685 186.317 -72.222 155.627 258.095 -83.9491 7.55132 9.62539 68.6564 
160.899 152.959 173.317 176.202 177.97 155.426 100.701 165.586 172.145 170.529 113.697 219.479 -62.7811 116.972 221.682 -59.6521 144.754 156.556 -99.25 173.926 163.406 -91.9216 194.284 186.227 -72.1523 156.168 258 -83.9473 7.63078 9.57304 68.2526 
160.727 152.2 173.211 176.135 177.8 155.302 100.8 165.583 172.218 170.754 114.432 219.242 -62.6356 117.232 221.136 -59.9815 145.344 156.275 -99.3157 174.494 163.134 -91.7641 194.813 185.965 -71.8638 156.63 257.734 -83.8451 7.72223 9.5941 67.9401 
160.614 151.943 173.106 176.088 177.919 155.171 100.774 165.618 172.343 170.761 114.934 219.223 -62.5778 117.67 220.981 -60.0379 146.027 156.078 -99.2078 175.222 162.998 -91.6357 195.531 185.913 -71.6757 157.195 257.587 -83.762 7.80339 9.65428 67.936 
160.519 151.779 173.112 176.122 178.172 155.064 100.633 165.744 172.489 170.986 115.304 219.255 -62.6874 118.253 220.977 -59.9569 146.755 155.844 -98.9911 175.886 162.766 -91.28 196.294 185.737 -71.3036 157.857 257.421 -83.6082 7.92826 9.58255 68.0768 
160.437 151.632 173.119 176.162 178.372 154.962 100.793 165.835 172.587 171.597 115.825 219.371 -62.7757 118.716 220.831 -60.2028 147.652 155.777 -99.0564 176.636 162.702 -91.0987 197.096 185.637 -70.9487 158.584 257.379 -83.5172 8.09916 9.50992 68.0135 
160.388 152.139 173.042 176.152 178.561 154.979 100.53 165.81 172.642 172.154 116.723 219.11 -62.6519 119.483 220.78 -60.3415 148.698 155.595 -99.1275 177.576 162.571 -90.9971 198.006 185.467 -70.6401 159.342 257.239 -83.352 8.21613 9.47071 68.2037 
160.245 152.525 173.038 176.218 179.958 154.798 100.339 165.937 172.768 172.684 117.981 219.195 -62.584 120.193 221.043 -60.6547 149.948 155.572 -99.3598 178.556 162.56 -90.9067 198.746 185.373 -70.3685 160.19 257.317 -83.2789 8.14899 9.31523 68.5113 
160 152.699 172.992 176.254 179.041 154.514 99.8378 166.075 173.023 173.422 119.079 219.264 -62.4374 120.893 221.449 -60.9058 151.253 155.562 -99.5786 179.653 162.618 -90.915 199.678 185.384 -70.0699 160.912 257.394 -83.1037 8.24272 9.257 69.0561 
159.962 153.182 172.939 176.345 177.984 154.304 99.0899 166.131 173.273 174.012 119.859 219.343 -61.9856 121.627 222.216 -60.8239 152.185 155.417 -99.5704 180.488 162.463 -90.8065 200.473 185.241 -69.6583 161.621 257.364 -82.8557 8.38176 9.25169 70.0036 
159.99 153.392 172.867 176.378 178.348 154.109 98.3351 166 173.319 174.319 120.258 219.225 -61.4306 122.427 222.765 -60.4144 152.846 155.176 -99.3396 181.229 162.246 -90.7003 201.429 185.086 -69.3491 162.225 257.163 -82.5341 8.66647 9.34377 70.8705 
159.98 152.746 172.932 176.456 178.787 153.882 98.1175 165.942 173.418 175.079 120.735 219.11 -60.8038 122.982 222.264 -60.0302 153.583 154.891 -98.8844 182.075 162.16 -90.5125 202.719 185.244 -69.1735 162.733 256.989 -82.0637 9.09141 9.46271 70.6454 
160 152.573 172.916 176.443 179.117 153.812 98.2065 165.723 173.299 175.193 121.485 218.563 -60.394 123.669 221.799 -59.7099 154.353 154.751 -98.7778 182.968 162.12 -90.6265 203.722 185.26 -69.2425 163.29 256.739 -81.7474 9.24128 9.61931 70.5652 
160.11 152.015 172.875 176.491 177.785 153.964 98.4826 165.732 173.438 175.91 123.476 218.434 -59.7406 125.084 221.146 -59.5054 156.273 154.964 -98.6083 184.95 162.535 -90.5754 205.791 185.677 -69.2716 164.825 256.859 -81.1957 9.36184 9.75067 69.9922 
160.066 151.822 172.862 176.532 177.066 154.068 98.8003 165.824 173.564 176.03 124.473 218.91 -60.0945 125.967 221.352 -59.6661 157.189 155.621 -98.7497 185.922 163.165 -90.6986 206.712 186.164 -69.5412 165.737 257.37 -81.2337 9.27588 9.80854 69.6464 
160.15 151.548 172.911 176.509 176.75 154.122 99.2821 165.78 173.575 176.039 125.139 218.737 -59.6559 126.36 220.823 -59.3126 157.564 155.455 -98.4268 186.475 163.015 -90.5419 207.333 185.969 -69.5441 166.282 257.138 -80.9837 9.27355 9.95821 69.2923 
160.221 151.005 172.873 176.346 178.008 154.254 99.8312 165.528 173.334 175.511 125.353 218.442 -58.7343 126.657 220.043 -58.5965 157.607 155.253 -98.0922 187.021 162.954 -90.5239 208.153 185.936 -69.5856 166.604 256.863 -80.5988 9.484 10.2941 68.9014 
160.252 150.646 172.795 176.245 178.905 154.403 100.214 165.462 173.258 175.405 126.027 218.029 -58.5841 127.35 219.431 -58.3965 158.354 155.27 -98.08 187.954 163.047 -90.5499 209.102 185.977 -69.6046 167.227 256.729 -80.3288 9.55005 10.4518 68.54 
160.211 150.372 172.747 176.188 179.295 154.505 100.481 165.5 173.227 175.189 126.754 217.856 -58.7058 128.008 218.89 -58.5533 159.191 155.331 -98.2168 188.796 163.183 -90.557 209.718 186.06 -69.5272 167.893 256.751 -80.1893 9.41684 10.4564 68.03 
160.14 150.293 172.741 176.174 179.976 154.494 100.54 165.657 173.361 175.122 127.651 217.675 -58.9926 128.757 218.836 -58.7081 160.074 155.395 -98.3428 189.716 163.256 -90.4693 210.323 186.034 -69.1832 168.573 256.787 -80.111 9.30318 10.497 67.9486 
160.048 150.16 172.748 176.244 179.889 154.42 100.649 165.978 173.681 175.245 128.527 218.113 -59.3899 129.464 219.039 -58.9758 161.137 155.734 -98.4173 190.601 163.633 -90.3302 210.847 186.305 -68.9334 169.375 257.18 -80.077 9.07991 10.402 67.7922 
159.87 150.4 172.705 176.309 178.326 154.271 100.468 166.283 173.948 175.066 129.449 218.6 -59.9312 130.113 219.569 -59.5337 162.242 156.028 -98.6879 191.341 163.875 -90.1661 210.862 186.366 -68.6247 170.208 257.565 -80.1329 8.54743 10.1766 67.94 
159.672 150.361 172.683 176.284 176.814 154.042 100.439 166.389 174.065 175.552 130.297 219.165 -60.0946 130.613 219.963 -59.9313 163.211 156.419 -99.1031 192.203 164.297 -90.3486 211.545 186.717 -68.7449 170.832 257.991 -80.1345 8.50249 10.1621 68.0906 
159.723 150.108 172.672 176.284 176.09 153.966 100.331 166.467 174.261 175.915 130.953 219.476 -60.137 131.248 219.893 -60.1629 164.119 156.511 -99.1943 193.075 164.485 -90.4854 212.341 186.932 -68.98 171.45 258.17 -80.1243 8.4547 10.187 67.9282 
159.911 149.651 172.704 176.297 176.663 154.026 100.55 166.545 174.408 175.917 131.36 219.768 -60.2464 131.863 219.635 -60.1242 164.799 156.665 -99.121 193.812 164.681 -90.5888 213.132 187.14 -69.1254 172.044 258.355 -80.0938 8.48049 10.2285 67.5023 
160.266 148.568 172.798 176.349 177.636 154.277 100.918 166.552 174.49 175.79 131.699 219.854 -60.0565 132.577 218.88 -60.1759 165.398 156.762 -99.0186 194.566 164.875 -90.7787 214.098 187.416 -69.3282 172.656 258.471 -80.0273 8.63752 10.3381 66.5702 
160.823 147.398 172.889 176.206 178.282 154.605 101.613 166.748 174.526 174.932 131.963 219.798 -59.5707 133.07 218.184 -60.2946 165.867 156.823 -99.0232 195.311 165.032 -91.0795 214.848 187.694 -69.8032 173.197 258.555 -80.0064 8.6054 10.594 65.7309 
161.296 146.978 173.009 176.112 178.399 154.93 102.156 166.854 174.574 173.995 132.437 219.815 -59.0993 133.819 217.958 -60.4715 166.428 157.06 -99.0557 196.177 165.318 -91.4088 215.59 188.075 -70.2175 173.945 258.754 -80.1165 8.49988 10.8932 65.1589 
161.494 146.83 173.061 176.014 178.189 155.114 102.465 166.853 174.561 173.074 133.641 219.635 -58.7081 134.751 218.051 -60.9522 167.317 157.482 -99.4593 197.198 165.709 -91.8486 216.265 188.472 -70.5765 174.825 259.031 -80.3253 8.29115 11.0859 64.8744 
