157.567 148.368 170.291 174.908 174.27 152.246 105.434 165.836 178.413 152.317 132.716 145.055 40.4588 115.974 148.218 43.7874 159.66 132.377 -28.8651 188.078 139.92 -18.1058 175.369 135.481 22.1206 153.538 192.208 53.3618 26.4368 13.4715 72.2885 
157.537 148.173 170.379 175.749 174.27 152.271 105.618 166.045 178.671 150.456 132.972 145.095 40.3665 116.253 148.119 43.7104 160.046 132.535 -28.9335 188.403 139.806 -17.8403 174.89 135.433 22.8309 153.702 192.183 53.5375 27.2346 13.3109 72.2073 
157.549 147.985 170.333 176.153 174.27 152.289 105.865 166.081 178.794 148.339 133.167 144.983 40.4704 116.437 147.962 43.9033 160.228 132.64 -28.8495 188.684 139.928 -17.7175 174.952 135.669 23.1856 153.836 192.146 53.7461 27.4002 13.385 72.2066 
157.542 147.699 170.339 176.286 174.27 152.329 106.04 166.239 178.831 147.422 133.347 144.759 40.4707 116.553 147.736 43.9923 160.331 132.57 -28.7999 188.86 139.866 -17.6222 175.179 135.686 23.412 153.898 191.978 53.9063 27.2802 13.4567 72.1487 
157.346 148.051 170.355 175.677 174.27 152.342 105.972 166.178 178.649 146.454 133.704 144.718 40.5846 116.757 147.673 44.3277 160.689 132.525 -28.4276 189.414 139.858 -17.0851 175.475 135.635 24.3204 154.098 191.918 54.138 27.8756 13.5069 72.2802 
157.203 148.381 170.331 175.451 174.27 152.275 106.023 166.021 178.588 145.336 133.989 144.695 40.805 116.892 147.537 44.667 160.978 132.487 -28.0794 189.987 139.88 -16.583 175.898 135.533 25.2698 154.276 191.868 54.3797 28.419 13.6112 72.3903 
157.046 148.534 170.367 175.524 174.27 152.187 106.126 166.066 178.618 144.913 134.338 144.904 41.1579 117.047 147.531 45.0283 161.141 132.416 -27.5814 190.239 139.745 -15.9278 176.031 135.411 26.2958 154.512 191.934 54.7157 28.9782 13.5508 72.2846 
156.918 148.693 170.341 175.687 174.27 152.11 106.113 165.997 178.675 144.438 134.347 144.972 41.4848 117.024 147.446 45.4502 161.034 132.141 -27.0686 190.226 139.452 -15.3976 176.093 135.09 27.0913 154.598 191.836 55.0101 29.2768 13.544 72.2403 
156.834 148.842 170.366 175.971 174.27 151.99 106.222 165.828 178.768 144.671 134.415 145.155 42.1861 117.076 147.358 46.0728 160.897 131.887 -26.3565 190.253 139.338 -14.8574 176.767 134.934 27.6301 154.805 191.941 55.416 28.9653 13.5993 72.0496 
156.688 148.889 170.371 176.571 174.27 151.831 106.073 165.733 178.956 145.43 134.352 145.309 42.8467 117.044 147.405 46.6812 160.715 131.606 -25.7305 190.165 139.078 -14.3197 177.222 134.64 28.0219 154.921 191.959 55.8057 28.6075 13.5992 72.0181 
156.535 148.946 170.291 177.18 174.27 151.667 106.089 165.62 179.143 146.294 134.292 145.309 43.4861 117 147.161 47.2446 160.519 131.242 -25.163 190.095 138.834 -13.9 177.741 134.394 28.215 154.971 191.848 56.1646 28.1491 13.6606 71.9276 
156.402 148.714 170.258 177.344 174.27 151.473 105.931 165.662 179.093 147.76 134.33 145.321 43.8723 117.052 147.042 47.5623 160.485 130.994 -24.8706 189.357 137.961 -13.3425 177.998 133.995 28.3259 154.99 191.704 56.445 27.1482 12.888 71.9162 
156.279 148.462 170.13 178.47 174.27 151.313 105.98 165.635 179.533 149.137 134.119 145.01 44.3345 116.893 146.602 47.8899 160.347 130.638 -24.6069 190.13 138.113 -13.2256 178.392 133.556 28.2598 154.849 191.356 56.7056 27.3855 13.6514 71.9533 
156.188 148.309 169.997 178.328 174.27 151.264 106.094 165.403 179.487 150.803 134.038 144.545 44.6739 116.897 145.924 48.1685 160.344 130.418 -24.3705 188.796 138.951 -14.131 179.501 133.461 27.7981 154.684 191.028 56.9215 26.0486 13.5087 71.9166 
156.127 148.297 169.954 178.686 174.27 151.269 106.283 165.345 179.595 153.203 134.043 144.222 45.0692 116.906 145.393 48.3797 160.559 130.38 -24.0915 189.323 139.209 -13.919 180.739 133.647 27.256 154.565 190.833 57.2612 25.0135 13.753 71.8207 
156.197 148.264 169.891 179.304 174.27 151.312 106.647 165.261 179.784 156.408 133.78 144.064 45.4692 116.827 144.981 48.5728 160.56 130.398 -23.7955 189.577 139.358 -13.6702 181.926 133.705 26.7075 154.479 190.734 57.6041 23.8388 13.9134 71.6239 
156.298 148.329 169.654 179.26 174.27 151.469 107.418 164.978 179.747 163.32 133.212 143.785 46.6323 116.538 144.197 49.3593 160.192 130.233 -22.896 189.73 139.232 -12.9634 184.393 133.887 25.4518 154.36 190.606 58.3393 20.9436 14.0854 71.2561 
156.439 148.575 169.584 177.336 174.27 151.642 107.858 164.816 179.089 174.599 132.89 143.637 47.2896 116.422 143.886 50.0769 159.841 130.164 -22.6271 189.513 139.075 -12.9121 187.577 133.914 24.04 154.359 190.638 58.6282 17.7103 14.0007 71.3225 
156.587 148.858 169.528 175.403 174.27 151.811 107.906 164.683 178.429 177.344 132.573 143.472 47.7424 116.338 143.796 50.6229 159.803 130.368 -22.573 189.591 138.978 -12.8105 189.3 134.284 23.3207 154.283 190.633 58.8774 15.851 13.8483 71.6999 
156.756 149.017 169.404 173.011 174.27 151.951 107.782 164.582 177.612 178.081 132.278 143.238 48.0806 116.38 143.663 51.131 159.829 130.613 -22.5662 189.587 138.816 -12.6727 190.842 134.827 22.6353 154.176 190.561 59.1105 14.0152 13.5498 72.1308 
157.133 148.593 169.485 172.062 174.27 152.227 107.577 164.66 176.886 177.658 131.982 143.012 48.2643 116.515 143.414 51.3459 159.953 130.892 -22.776 189.823 138.754 -12.7332 191.893 135.617 21.6743 154.088 190.475 59.3653 12.3354 13.369 72.3708 
157.286 148.322 169.519 172.607 174.27 152.38 107.361 164.905 176.479 177.659 131.693 142.626 48.4843 116.497 143.158 51.613 159.958 131.003 -22.9686 189.82 138.611 -12.7711 192.362 135.629 21.5019 153.914 190.253 59.6014 11.7317 13.1911 72.7065 
157.577 148.004 169.589 173.152 174.27 152.546 107.461 165.108 175.989 177.66 131.278 142.133 48.8313 116.405 142.668 51.9583 159.909 131.016 -23.0772 189.872 138.418 -12.792 193.148 135.767 21.1024 153.7 189.989 59.8776 10.7453 13.071 72.9646 
157.895 147.737 169.612 173.475 174.27 152.603 107.437 165.183 175.41 177.662 130.798 141.739 49.1481 116.275 142.296 52.3331 159.727 130.922 -23.1367 189.741 138.136 -12.838 193.816 135.753 20.7265 153.511 189.724 60.1268 9.86281 12.9443 73.198 
158.185 147.254 169.6 173.689 174.27 152.679 107.537 165.276 174.884 177.664 130.332 141.282 49.7159 116.146 141.684 52.8127 159.376 130.646 -22.9747 189.486 137.843 -12.8119 194.576 135.864 20.316 153.264 189.463 60.4364 8.88156 12.8675 73.1974 
158.369 146.993 169.717 173.869 174.27 152.656 107.45 165.433 174.475 177.666 130.061 141.03 50.1608 115.99 141.478 53.1733 159.136 130.519 -22.9329 189.234 137.579 -12.7841 195.026 135.871 20.1022 153.102 189.314 60.671 8.25304 12.7218 73.3296 
158.465 146.891 169.866 173.978 174.27 152.649 107.442 165.585 174.104 177.667 129.983 140.68 50.6658 115.966 141.203 53.6353 159.014 130.325 -22.8113 188.95 137.227 -12.6621 195.308 135.913 20.0309 153.013 189.151 60.921 7.71995 12.467 73.4783 
158.46 147.049 170.087 173.995 174.27 152.622 107.274 165.772 173.765 177.667 130.037 140.459 51.1122 115.885 141.246 54.0545 158.978 130.124 -22.6421 188.622 136.751 -12.4018 195.337 135.789 20.2318 152.977 189.027 61.1296 7.35715 12.1516 73.7461 
158.356 147.317 170.274 173.923 174.27 152.461 107.185 166.011 173.591 177.667 130.293 140.408 51.6017 115.794 141.476 54.3831 158.964 130.01 -22.497 188.248 136.302 -12.0883 194.999 135.542 20.5755 153.003 189.003 61.3038 7.2553 11.8188 73.9746 
158.316 147.488 170.449 173.984 174.27 152.384 107.293 166.227 173.409 177.667 130.452 140.256 52.1476 115.725 141.471 54.9464 158.744 129.757 -22.1752 187.793 135.822 -11.7806 195.064 135.59 20.6274 152.996 188.964 61.4857 6.65788 11.5628 74.1278 
158.235 147.759 170.679 173.942 174.27 152.27 107.165 166.315 173.275 177.667 130.674 140.229 52.5411 115.799 141.707 55.3653 158.707 129.59 -21.9008 187.509 135.402 -11.425 194.991 135.57 20.8661 153.064 188.993 61.6264 6.3113 11.3204 74.2961 
158.144 148.01 170.918 173.89 174.27 152.171 107.105 166.405 173.276 177.667 130.982 140.26 52.8819 115.838 141.969 55.7315 158.68 129.465 -21.647 187.265 135.137 -11.1136 194.838 135.534 21.1676 153.131 189.08 61.7695 6.1776 11.1425 74.4064 
157.868 148.271 171.092 173.767 174.27 152.043 107.045 166.504 173.424 177.668 131.329 140.227 53.0247 115.896 142.216 56.0508 158.618 129.34 -21.4905 186.973 134.934 -10.9441 194.702 135.263 21.5056 153.19 189.118 61.8177 6.30735 11.0052 74.5474 
157.604 148.606 171.287 173.709 174.27 151.903 106.846 166.59 173.598 177.668 131.793 140.339 53.1757 115.935 142.755 56.3505 158.66 129.313 -21.2803 186.782 134.874 -10.7343 194.517 135.017 21.9837 153.291 189.264 61.9059 6.58354 10.9222 74.7424 
157.166 148.967 171.279 173.439 174.27 151.686 107.079 166.532 173.657 177.666 132.149 140.583 53.2832 115.917 143.191 56.5975 158.728 129.264 -20.8725 186.624 134.809 -10.3003 194.122 134.688 22.7619 153.389 189.405 61.9684 7.10081 10.8959 74.7925 
156.713 149.434 171.267 173.141 174.27 151.416 107.288 166.437 173.675 177.664 132.506 140.807 53.4134 115.836 143.696 56.7814 158.742 129.19 -20.4981 186.31 134.701 -9.91644 193.367 134.289 23.574 153.455 189.553 61.993 7.77072 10.8258 74.8298 
156.286 149.832 171.332 172.941 174.27 151.119 107.319 166.399 173.624 177.662 132.891 141.068 53.6542 115.821 144.254 56.917 158.781 129.117 -20.1124 185.982 134.534 -9.48696 192.516 134.03 24.3998 153.553 189.738 62.0615 8.37047 10.689 74.8077 
155.911 150.151 171.453 172.742 174.27 150.867 107.266 166.43 173.552 177.661 133.326 141.405 53.7897 115.883 144.793 56.9549 158.979 129.119 -19.8519 185.856 134.463 -9.09981 191.578 133.691 25.2573 153.649 189.944 62.1554 9.2378 10.5706 74.7726 
155.56 150.49 171.601 172.551 174.27 150.667 107.109 166.484 173.427 177.66 133.811 141.759 53.8672 116.023 145.37 56.9813 159.191 129.157 -19.6481 185.745 134.343 -8.71485 190.633 133.44 26.118 153.765 190.195 62.2301 10.108 10.3809 74.7416 
155.238 150.76 171.651 172.228 174.27 150.452 106.937 166.558 173.258 177.659 134.329 142.078 53.9479 116.166 145.824 56.9252 159.382 129.251 -19.542 185.656 134.212 -8.40813 189.706 133.14 26.8803 153.838 190.426 62.2722 11.0247 10.1624 74.6723 
154.93 150.769 171.658 171.958 174.27 150.254 106.984 166.488 173.122 177.659 134.657 142.169 54.3203 116.156 145.909 56.8387 159.377 129.242 -19.335 185.52 134.123 -8.13237 188.962 133.08 27.2816 153.789 190.564 62.3808 11.5013 10.0699 74.3924 
154.757 150.806 171.714 171.857 174.27 150.18 107.027 166.453 173.075 177.659 134.859 142.222 54.5191 116.154 146.042 56.7307 159.464 129.38 -19.2423 185.518 134.216 -8.00021 188.421 133.199 27.4822 153.752 190.71 62.4741 11.8302 10.0324 74.2432 
154.624 150.772 171.747 171.844 174.27 150.148 107.012 166.432 172.935 177.659 135.031 142.292 54.6052 116.271 146.088 56.6119 159.523 129.589 -19.2164 185.531 134.368 -7.96244 188.262 133.437 27.4745 153.728 190.863 62.5554 11.8352 9.97913 74.061 
154.509 150.648 171.789 171.821 174.27 150.106 106.962 166.455 172.848 177.659 135.055 142.409 54.7516 116.268 146.158 56.474 159.535 129.753 -19.1846 185.489 134.516 -7.90844 187.977 133.656 27.5598 153.663 190.992 62.6762 11.9139 9.95824 73.8933 
154.433 150.569 171.792 171.779 174.27 150.074 106.922 166.434 172.859 177.66 134.918 142.594 54.7794 116.193 146.312 56.3342 159.535 129.918 -19.1512 185.465 134.711 -7.90208 187.772 133.747 27.4939 153.604 191.107 62.7586 11.9431 10.003 73.7898 
154.52 150.466 171.752 171.843 174.27 150.184 106.981 166.452 173.001 177.66 134.674 142.963 54.7969 116.087 146.622 56.2434 159.588 130.234 -19.0188 185.468 135.023 -7.79667 187.604 133.9 27.5308 153.641 191.354 62.9606 11.9727 10.0419 73.6472 
154.595 150.236 171.727 171.975 174.27 150.316 107.09 166.434 173.218 177.66 134.379 143.33 54.7041 115.982 146.846 56.2003 159.558 130.429 -18.836 185.473 135.305 -7.70328 187.524 134.01 27.5119 153.699 191.542 63.1241 11.9546 10.1699 73.4781 
154.708 150.102 171.699 172.112 174.27 150.406 107.092 166.466 173.396 177.661 134.139 143.602 54.5752 115.96 147.029 56.2099 159.641 130.716 -18.802 185.625 135.626 -7.71666 187.76 134.199 27.338 153.725 191.712 63.2424 11.7558 10.2531 73.4868 
154.849 149.991 171.716 172.354 174.27 150.499 107.124 166.462 173.449 177.662 133.976 143.709 54.5863 115.987 147.086 56.3042 159.779 130.971 -18.827 185.852 135.89 -7.73949 188.192 134.411 27.1806 153.748 191.818 63.3974 11.4334 10.3049 73.5756 
154.969 149.966 171.761 172.492 174.27 150.619 107.006 166.512 173.476 177.662 133.831 143.845 54.4161 116.113 147.192 56.3899 160.026 131.22 -18.9172 186.127 136.178 -7.77904 188.585 134.654 27.1188 153.792 191.904 63.489 11.2573 10.3281 73.7763 
155.084 149.964 171.778 172.573 174.27 150.753 106.975 166.447 173.413 177.662 133.561 143.942 54.2712 116.171 147.133 56.5702 160.182 131.434 -18.9278 186.423 136.485 -7.77656 189.098 134.959 27.0905 153.765 191.941 63.651 11.0139 10.4161 73.9295 
155.171 149.905 171.721 172.48 174.27 150.812 106.871 166.466 173.332 177.662 133.261 144.162 54.1712 116.167 147.214 56.7177 160.275 131.661 -18.9057 186.545 136.694 -7.65754 189.326 135.102 27.3037 153.706 192.002 63.8483 10.9696 10.41 74.0534 
155.257 149.911 171.622 172.235 174.27 150.852 106.864 166.466 173.23 177.662 132.93 144.388 54.2791 116.131 147.242 56.9717 160.294 131.856 -18.8049 186.549 136.84 -7.42234 189.35 135.144 27.734 153.649 192.082 64.1039 11.1199 10.3518 74.1744 
155.323 149.946 171.528 172.045 174.27 150.918 106.83 166.498 173.197 177.662 132.588 144.677 54.567 116.139 147.319 57.348 160.424 132.078 -18.5548 186.66 137.037 -7.0371 189.529 135.27 28.1712 153.639 192.238 64.4613 11.1695 10.2785 74.3062 
155.523 150.028 171.457 171.871 174.27 150.984 106.9 166.548 173.028 177.662 132.229 144.928 54.992 116.069 147.422 57.9032 160.36 132.219 -18.3297 186.508 137.072 -6.69729 189.448 135.31 28.6131 153.592 192.417 64.8522 11.2212 10.1217 74.4772 
155.71 149.975 171.383 171.804 174.27 151.083 107.112 166.621 172.988 177.663 132.015 144.931 55.5083 116.058 147.28 58.5274 160.228 132.29 -18.0704 186.442 137.137 -6.41183 189.593 135.356 28.8035 153.514 192.522 65.2189 11.091 10.0739 74.5976 
155.798 149.796 171.314 171.683 174.27 151.102 107.292 166.772 172.941 177.664 132.028 144.716 56.2267 116.039 147.018 59.1085 160.113 132.239 -17.8181 186.335 137.081 -6.12902 189.657 135.338 29.0728 153.361 192.54 65.5749 11.0224 9.98405 74.6802 
155.816 149.776 171.314 171.546 174.27 151.071 107.52 166.945 172.912 177.664 132.154 144.404 56.8412 115.877 146.746 59.6162 160 132.05 -17.6616 186.094 136.821 -5.88433 189.333 135.102 29.6276 153.153 192.445 65.8384 11.3168 9.81691 74.833 
155.769 149.611 171.263 171.013 174.27 151.085 107.601 167.077 172.887 177.664 132.038 144.296 57.3941 115.5 146.461 60.414 159.711 131.814 -17.3194 185.748 136.573 -5.43765 188.673 134.658 30.4832 152.693 192.256 66.3944 11.8513 9.7283 75.0989 
155.551 149.457 171.311 170.499 174.27 150.978 107.471 167.097 173.111 177.663 132.132 144.064 57.6176 115.255 146.33 60.6636 159.612 131.599 -17.1878 185.724 136.489 -5.27269 188.342 134.41 30.7501 152.463 192.022 66.5901 12.1274 9.8355 75.2622 
155.491 149.144 171.227 169.845 174.27 150.926 107.531 166.904 173.284 177.664 131.974 143.957 57.9663 114.908 146.187 61.026 159.232 131.479 -16.8482 185.593 136.597 -5.07616 188.137 134.3 30.7333 152.2 191.875 66.8784 12.1128 10.1047 75.2736 
155.464 148.635 171.175 169.409 174.27 150.893 107.654 166.84 173.47 177.665 131.827 143.925 58.6065 114.715 146.048 61.4519 159.081 131.477 -16.4828 185.568 136.802 -4.81989 188.169 134.291 30.7512 152.042 191.838 67.3195 11.9563 10.2753 75.2995 
155.52 147.971 170.949 168.89 174.27 150.889 107.926 166.731 173.635 177.666 131.521 143.903 59.3588 114.563 145.715 61.9077 158.797 131.461 -16.0471 185.476 137.002 -4.53544 188.208 134.239 30.6393 151.873 191.819 67.7756 11.774 10.4479 75.1652 
155.565 147.215 170.739 168.501 174.27 150.847 108.187 166.692 173.669 177.668 131.379 143.707 60.2993 114.51 145.218 62.5332 158.455 131.208 -15.5028 185.252 136.946 -4.16519 188.253 134.094 30.6063 151.714 191.74 68.2377 11.5674 10.5027 74.9781 
155.639 146.624 170.663 168.392 174.27 150.824 108.424 166.871 173.741 177.669 131.4 143.6 60.9903 114.438 144.966 62.9939 158.411 131.182 -15.1344 185.138 136.937 -3.8775 188.245 134.079 30.5642 151.588 191.746 68.6819 11.3442 10.4153 74.8744 
155.625 146.267 170.634 168.466 174.27 150.77 108.575 167.216 173.795 177.67 131.507 143.428 61.3301 114.2 144.928 63.1783 158.364 131.096 -15.0511 184.8 136.753 -3.80684 187.9 133.755 30.5111 151.446 191.632 68.8801 11.2766 10.2547 74.9301 
155.437 146.152 170.711 168.44 174.27 150.692 108.559 167.584 173.924 177.67 131.709 143.428 61.3836 114.008 145.11 63.2537 158.524 131.083 -15.0554 184.617 136.698 -3.7667 187.404 133.391 30.6943 151.397 191.543 69.0489 11.5679 10.1293 75.1035 
155.351 145.982 170.7 168.312 174.27 150.64 108.562 167.779 173.969 177.671 131.852 143.286 61.6092 114.006 145.055 63.5663 158.568 130.974 -14.9011 184.533 136.564 -3.68474 187.458 133.293 30.5712 151.406 191.436 69.1984 11.3625 10.0459 75.247 
155.16 145.965 170.626 168.321 174.27 150.568 108.469 168.108 174.15 177.67 132 143.198 61.4418 113.879 145.189 63.5146 158.727 130.867 -14.8632 184.325 136.381 -3.63289 186.838 132.863 30.9304 151.414 191.245 69.1998 11.8882 9.90409 75.4018 
154.882 146.045 170.697 168.31 174.27 150.497 108.305 168.39 174.303 177.668 132.207 143.169 61.1517 113.84 145.372 63.3317 158.983 130.756 -14.9171 184.207 136.195 -3.57693 185.99 132.295 31.6605 151.478 191.052 69.1667 12.8605 9.7795 75.5433 
154.654 146.077 170.69 168.231 174.27 150.465 108.244 168.556 174.426 177.667 132.311 143.155 60.9861 113.894 145.477 63.2436 159.131 130.704 -14.8207 184.063 136.019 -3.46904 185.497 132.168 32.0864 151.563 190.95 69.1584 13.2857 9.63014 75.5546 
154.467 145.976 170.612 168.331 174.27 150.513 108.209 168.782 174.485 177.665 132.338 143.216 60.9554 114.106 145.505 63.2305 159.181 130.629 -14.5614 183.878 135.797 -3.23386 185.309 132.272 32.4918 151.725 190.952 69.2002 13.4064 9.43442 75.3792 
154.399 145.99 170.619 168.92 174.27 150.638 108.096 169.05 174.48 177.664 132.335 143.295 60.8557 114.449 145.56 63.222 159.35 130.666 -14.3662 183.842 135.639 -3.01304 185.391 132.602 32.88 151.91 191.038 69.2295 13.3785 9.18962 75.2412 
154.417 145.897 170.633 169.823 174.27 150.697 108.017 169.225 174.379 177.664 132.331 143.348 60.9678 114.716 145.555 63.3205 159.317 130.637 -14.182 183.709 135.329 -2.84073 185.641 132.886 33.0102 152.038 191.145 69.2816 12.9909 8.93259 75.0655 
154.456 145.675 170.648 171.047 174.27 150.741 107.99 169.578 174.335 177.664 132.227 143.584 61.1061 114.983 145.66 63.4457 159.307 130.621 -13.8888 183.505 134.961 -2.56813 185.804 133.292 33.1054 152.217 191.365 69.3613 12.4956 8.58678 74.8352 
154.523 145.829 170.75 172.068 174.27 150.7 108.056 169.664 174.261 177.664 132.251 143.649 61.0582 115.001 145.824 63.393 159.356 130.779 -13.9433 183.467 134.897 -2.66092 186.005 133.654 32.7012 152.267 191.497 69.2959 11.926 8.44815 74.8531 
154.571 145.929 170.814 172.901 174.27 150.685 108.081 169.729 174.254 177.665 132.337 143.693 61.1445 115.055 146.006 63.4012 159.419 130.958 -13.8936 183.43 134.888 -2.6186 186.073 134.03 32.4754 152.35 191.651 69.3149 11.5457 8.30351 74.838 
154.629 145.96 170.812 173.584 174.27 150.665 108.143 169.654 174.181 177.666 132.334 143.804 61.2513 115.143 146.19 63.4934 159.426 131.238 -13.8647 183.464 135.103 -2.70149 186.572 134.493 31.9205 152.451 191.88 69.3174 10.8592 8.27183 74.8758 
154.718 145.759 170.826 174.107 174.27 150.652 108.121 169.501 174.12 177.666 132.301 143.873 61.4562 115.242 146.244 63.6016 159.235 131.323 -13.7357 183.404 135.294 -2.7958 187.229 134.994 31.2503 152.511 192.096 69.2849 10.0161 8.336 74.7378 
154.734 145.622 170.925 174.482 174.27 150.555 108.101 169.24 173.952 177.667 132.411 143.931 61.8175 115.385 146.363 63.7412 159.139 131.482 -13.6405 183.432 135.566 -2.88213 187.821 135.556 30.8216 152.608 192.368 69.2609 9.41738 8.39607 74.6799 
154.691 145.357 170.997 174.757 174.27 150.451 108.017 168.994 173.826 177.667 132.547 143.95 62.2569 115.499 146.441 63.7881 158.953 131.599 -13.5735 183.363 135.773 -2.93747 188.318 135.971 30.4932 152.653 192.613 69.217 8.92308 8.42929 74.5538 
154.56 145.235 171.104 174.976 174.27 150.363 108.07 168.779 173.784 177.667 132.659 143.982 62.4488 115.527 146.535 63.4725 158.973 131.836 -13.7222 183.479 136.081 -3.08301 188.704 136.398 30.2606 152.718 192.82 69.0688 8.63432 8.50104 74.4189 
154.543 145.179 171.183 175.088 174.27 150.318 108.235 168.598 173.756 177.666 132.609 144.199 62.5036 115.497 146.782 63.1092 159.061 132.278 -13.9588 183.652 136.503 -3.25601 189.093 136.801 29.9909 152.824 193.117 68.9504 8.36928 8.55463 74.3358 
154.597 145.471 171.279 175.081 174.27 150.283 108.258 168.571 173.76 177.666 132.815 144.588 62.334 115.668 147.244 62.6663 159.395 132.896 -14.2442 183.968 137.026 -3.35259 189.336 137.258 30.0897 153.042 193.537 68.8319 8.47768 8.51824 74.2598 
154.671 145.885 171.458 175.072 174.27 150.294 108.119 168.566 173.796 177.665 133.045 145.006 61.9406 116.008 147.753 62.3073 159.842 133.543 -14.5891 184.46 137.672 -3.53952 189.802 137.836 30.0603 153.306 193.975 68.6647 8.52118 8.54688 74.3141 
154.856 146.101 171.554 175.02 174.27 150.414 107.983 168.587 173.839 177.665 133.043 145.51 61.422 116.318 148.188 61.8526 160.231 134.127 -14.8751 184.946 138.261 -3.66218 190.425 138.339 30.0116 153.567 194.402 68.5188 8.44133 8.59513 74.2205 
154.995 146.241 171.702 174.949 174.27 150.505 107.809 168.642 173.975 177.664 133.086 146.182 60.8646 116.569 148.875 61.3358 160.732 134.803 -15.1535 185.488 138.925 -3.75957 190.817 138.742 30.1754 153.885 194.907 68.3883 8.68936 8.65727 74.1592 
155.172 146.557 171.803 174.839 174.27 150.615 107.553 168.688 174.103 177.663 132.896 146.926 60.2866 116.793 149.642 60.845 161.24 135.458 -15.4024 185.963 139.526 -3.79449 191.052 139.107 30.4909 154.241 195.402 68.2936 9.02243 8.67492 74.1854 
155.364 146.906 171.993 174.765 174.27 150.784 107.253 168.574 174.207 177.662 133.02 147.482 59.7664 117.181 150.198 60.5499 161.939 136.101 -15.5371 186.803 140.379 -3.87551 191.825 139.791 30.5464 154.58 195.873 68.2842 9.07056 8.86574 74.2404 
155.593 147.403 172.15 174.67 174.27 151.002 107.163 168.4 174.176 177.662 133.008 147.915 59.4919 117.494 150.548 60.6487 162.399 136.518 -15.4204 187.443 141.058 -3.80235 192.687 140.516 30.6641 154.834 196.315 68.381 8.90912 9.04735 74.2809 
