155.989 147.833 172.121 174.435 174.27 151.229 107.397 168.079 174.073 177.663 132.527 148.538 59.1604 117.502 150.812 60.6299 162.268 137.025 -15.314 187.75 141.916 -3.91413 193.654 141.348 30.1798 154.902 196.885 68.4095 8.31688 9.42146 73.9907 
156.171 148.155 171.994 174.131 174.27 151.301 107.701 167.943 174.025 177.664 132.259 148.743 59.0821 117.271 150.842 60.7475 162.07 137.157 -15.1864 187.813 142.309 -3.93581 194.008 141.696 29.9233 154.801 197.038 68.534 7.96509 9.7071 73.8576 
156.389 148.214 171.955 173.972 174.27 151.36 107.97 167.724 173.995 177.665 131.954 148.746 59.2388 117.026 150.693 60.9196 161.64 137.163 -14.9673 187.735 142.555 -3.95013 194.459 141.96 29.5759 154.602 197.131 68.6674 7.49061 10.0026 73.6051 
156.557 148.349 171.922 173.835 174.27 151.4 108.014 167.657 174.017 177.665 131.662 148.794 59.3671 116.775 150.82 61.1983 161.337 137.198 -14.818 187.581 142.614 -3.85613 194.376 142.032 29.6594 154.395 197.2 68.8372 7.37412 10.1274 73.6502 
156.699 148.567 171.818 173.69 174.27 151.405 108.015 167.549 174.003 177.666 131.292 148.816 59.5746 116.531 150.891 61.6447 161.008 137.174 -14.6028 187.352 142.642 -3.7059 194.119 141.984 29.8559 154.179 197.2 69.078 7.39876 10.2402 73.8076 
156.81 148.752 171.743 173.634 174.27 151.407 107.904 167.581 174.062 177.666 130.987 148.75 59.8311 116.34 151.004 62.2284 160.83 137.191 -14.3888 187.264 142.663 -3.49449 193.917 141.942 30.1793 153.966 197.154 69.4049 7.46864 10.3111 74.1669 
156.86 149.001 171.711 173.586 174.27 151.376 107.892 167.633 174.023 177.666 130.836 148.671 60.1908 116.138 151.128 62.7707 160.669 137.179 -14.1872 187.059 142.45 -3.16625 193.305 141.589 30.7817 153.796 197.063 69.7719 7.79447 10.249 74.5014 
156.929 148.887 171.667 173.576 174.27 151.298 108.124 167.532 173.904 177.666 130.66 148.458 60.7415 115.818 150.928 63.1977 160.363 136.987 -13.9071 186.787 142.119 -2.85961 192.871 141.187 31.1178 153.582 196.819 70.1711 7.79525 10.2774 74.587 
156.756 148.435 171.602 173.478 174.27 151.2 108.293 167.545 173.825 177.667 130.904 148.03 61.4787 115.628 150.439 63.4997 160.341 136.739 -13.537 186.792 141.919 -2.45917 192.626 140.935 31.509 153.36 196.485 70.6865 7.84303 10.3202 74.467 
156.672 148.023 171.542 173.512 174.27 151.212 108.281 167.619 173.9 177.668 131.091 147.503 62.0341 115.749 149.676 64.024 160.495 136.37 -12.9766 187.052 141.723 -2.01343 192.986 140.855 31.7747 153.185 196.067 71.2089 7.67806 10.3685 74.3945 
156.511 147.558 171.452 173.472 174.27 151.135 108.116 167.852 174.104 177.667 131.326 147.075 62.4756 115.854 149.009 64.2888 160.688 135.952 -12.4138 187.243 141.467 -1.47295 192.901 140.608 32.3229 153.015 195.615 71.6504 7.8755 10.3939 74.2002 
156.333 147.031 171.316 173.397 174.27 151.106 108.138 168.134 174.272 177.667 131.673 146.564 62.9861 116.02 148.229 64.6509 160.768 135.595 -11.8736 187.42 141.317 -0.97187 192.934 140.496 32.6498 152.825 195.196 72.1385 7.90479 10.4621 73.9071 
156.142 146.549 171.181 173.293 174.27 151.095 108.45 168.525 174.355 177.667 131.943 145.941 63.5255 116.219 147.074 64.8106 160.772 135.11 -11.408 187.401 141.002 -0.538294 192.747 140.361 32.9757 152.592 194.678 72.6013 7.96889 10.4073 73.3411 
156.118 146.077 171.176 173.398 174.27 151.272 108.788 168.753 174.363 177.668 132.172 145.086 64.2353 116.575 145.725 65.0853 160.791 134.667 -10.8449 187.527 140.751 -0.102964 193.23 140.626 33.04 152.346 194.185 73.108 7.44961 10.376 72.756 
156.22 145.719 171.223 173.656 174.27 151.272 108.707 169 174.481 177.669 131.911 144.457 64.8869 116.69 144.772 65.6626 160.492 134.034 -10.3043 187.292 140.228 0.232644 193.212 140.512 33.0616 152.115 193.68 73.5843 7.15426 10.2966 72.4925 
156.15 145.474 171.258 173.84 174.27 151.544 108.974 169.237 174.592 177.67 131.75 143.89 65.3049 116.801 143.982 66.116 160.311 133.643 -9.73709 187.291 139.977 0.602999 193.494 140.519 33.0688 151.902 193.287 73.9601 6.77053 10.389 72.2379 
156.116 145.23 171.184 173.965 174.27 151.781 109.165 169.467 174.699 177.67 131.429 143.508 65.6261 116.73 143.509 66.5828 159.989 133.18 -9.06627 187.042 139.588 1.05291 193.312 140.285 33.2802 151.728 192.956 74.2932 6.65206 10.4571 72.0085 
155.97 145.217 171.219 174.075 174.27 152.051 109.298 169.704 174.732 177.67 131.258 143.174 65.977 116.754 143.09 66.8053 159.945 132.969 -8.55791 187.015 139.468 1.50867 193.133 140.242 33.7528 151.624 192.721 74.6883 6.74043 10.5018 71.7588 
155.999 145.12 171.391 174.222 174.27 152.425 109.598 169.838 174.696 177.669 131.292 142.813 66.4838 117.121 142.439 67.104 160.172 132.866 -8.03196 187.3 139.562 1.96764 193.556 140.701 34.1033 151.597 192.621 75.1586 6.48603 10.5205 71.4026 
156.02 145.059 171.576 174.323 174.27 152.705 109.906 169.93 174.585 177.67 131.586 142.511 67.1549 117.604 141.933 67.5824 160.421 132.892 -7.50589 187.612 139.727 2.39695 194.226 141.325 34.2267 151.676 192.675 75.6703 5.99032 10.4816 71.0869 
156.165 145.249 171.856 174.501 174.27 152.961 110.281 170.052 174.554 177.671 131.943 142.143 67.8659 118.138 141.524 68.2525 160.748 133.01 -6.99867 187.932 139.999 2.7476 194.939 141.962 34.2922 151.776 192.788 76.1822 5.51501 10.431 70.9659 
156.654 145.273 172.055 174.716 174.27 153.037 110.122 170.018 174.545 177.673 131.854 142.005 68.5562 118.395 141.476 68.8489 160.501 132.966 -6.56042 187.836 139.962 2.95967 195.352 142.38 34.0948 151.868 192.914 76.6077 4.90026 10.4225 70.7842 
156.855 145.705 172.245 174.935 174.27 153.195 110.211 169.972 174.485 177.674 131.91 142.063 69.0197 118.497 141.762 69.3044 160.489 133.246 -6.16503 187.87 140.111 3.23619 195.754 142.728 34.1683 152.043 193.192 76.9924 4.50639 10.3899 70.7344 
156.77 146.14 172.273 174.981 174.27 153.17 110.169 170.014 174.439 177.674 131.888 142.363 69.3621 118.339 142.38 69.6224 160.283 133.544 -5.96928 187.534 140.079 3.41941 195.51 142.712 34.3333 152.211 193.469 77.2656 4.38972 10.25 70.8522 
156.449 146.63 172.263 174.971 174.27 153.02 110.114 170.091 174.394 177.674 132.091 142.541 69.7076 118.063 142.974 69.9097 160.101 133.717 -5.84573 187.108 139.93 3.58447 194.904 142.432 34.7485 152.334 193.627 77.4528 4.64497 10.073 71.0713 
156.196 147.058 172.248 175.015 174.27 152.838 110.086 170.08 174.318 177.673 132.24 142.665 70.1072 117.818 143.449 70.3569 159.773 133.688 -5.62129 186.58 139.63 3.76189 194.314 142.135 35.059 152.428 193.744 77.608 4.78636 9.91409 71.2796 
155.981 147.442 172.293 175.164 174.27 152.658 109.992 170.132 174.326 177.673 132.424 142.781 70.5294 117.619 144.001 70.7888 159.583 133.639 -5.38756 186.162 139.312 3.9761 193.65 141.681 35.5355 152.591 193.885 77.7357 5.19359 9.74084 71.5426 
155.666 147.859 172.372 175.299 174.27 152.42 109.869 170.243 174.263 177.672 132.762 142.947 70.7824 117.503 144.601 71.063 159.723 133.735 -5.39578 185.903 139.046 4.11509 192.919 141.169 36.1456 152.785 194.029 77.7805 5.84559 9.43725 71.9495 
155.433 148.284 172.391 175.37 174.27 152.302 109.82 170.275 174.095 177.672 132.99 143.045 70.9716 117.491 144.93 71.3149 159.77 133.704 -5.41329 185.631 138.737 4.17515 192.422 140.863 36.4121 152.942 194.092 77.7906 6.11573 9.17814 72.2478 
155.233 148.552 172.386 175.481 174.27 152.154 109.645 170.318 173.983 177.672 133.161 143.407 71.0916 117.376 145.56 71.4919 159.807 133.791 -5.32326 185.352 138.473 4.3662 191.863 140.494 36.8273 153.149 194.28 77.8624 6.47196 8.92323 72.4719 
155.035 148.69 172.47 175.554 174.27 152.123 109.478 170.359 173.861 177.672 133.346 143.747 71.1644 117.436 146.071 71.6742 160.129 133.95 -5.1564 185.41 138.498 4.59175 191.822 140.579 37.0146 153.366 194.495 78.002 6.45703 8.76623 72.6606 
154.829 148.695 172.526 175.557 174.27 152.011 109.358 170.352 173.657 177.672 133.465 143.969 71.3687 117.398 146.39 71.85 160.18 134.005 -5.10347 185.292 138.474 4.70411 191.802 140.582 37.0263 153.45 194.613 78.1164 6.29196 8.66812 72.8112 
154.725 148.728 172.664 175.544 174.27 152.007 109.209 170.337 173.545 177.672 133.655 144.104 71.4904 117.567 146.608 72.0592 160.544 134.169 -5.03795 185.541 138.661 4.83081 192.147 140.705 37.134 153.563 194.74 78.2749 6.19672 8.61377 73.0124 
154.61 148.743 172.742 175.528 174.27 152.06 109.177 170.27 173.436 177.672 133.748 144.105 71.7329 117.668 146.648 72.2738 160.698 134.203 -4.84833 185.732 138.791 5.05438 192.448 140.905 37.2933 153.616 194.806 78.4735 6.03432 8.65996 73.0407 
154.361 148.715 172.763 175.459 174.27 152.042 109.084 170.21 173.291 177.672 133.929 143.997 72.0042 117.681 146.614 72.4766 160.74 134.127 -4.63231 185.741 138.738 5.32905 192.493 140.933 37.6231 153.56 194.754 78.6846 5.99273 8.64374 73.0524 
154.191 148.601 172.741 175.357 174.27 152.016 108.978 170.068 173.058 177.671 133.87 143.885 72.2385 117.535 146.457 72.7239 160.549 133.921 -4.39753 185.56 138.524 5.59897 192.311 140.853 37.9632 153.337 194.617 78.8863 5.98284 8.62805 73.0506 
154.114 148.471 172.658 175.238 174.27 151.97 108.915 169.866 172.783 177.671 133.845 143.689 72.7714 117.466 146.134 73.0555 160.287 133.768 -4.09453 185.315 138.364 5.89145 192.041 140.838 38.3152 153.051 194.508 79.1823 6.03929 8.57431 72.9486 
154.167 148.087 172.524 175.208 174.27 151.981 108.851 169.692 172.565 177.671 133.634 143.65 73.4094 117.244 145.894 73.2799 159.84 133.622 -3.7537 184.915 138.213 6.23024 191.714 140.824 38.6246 152.79 194.455 79.5586 5.96985 8.55322 72.6849 
154.28 148.062 172.5 175.252 174.27 152.094 109.024 169.432 172.426 177.671 133.595 143.479 74.0851 117.049 145.466 73.4783 159.45 133.513 -3.46306 184.678 138.178 6.49634 191.63 140.936 39.0004 152.564 194.411 79.9708 5.87177 8.6129 72.3599 
154.413 147.969 172.428 175.36 174.27 152.182 109.137 169.239 172.538 177.671 133.558 143.417 74.6948 116.754 145.271 73.6486 159.011 133.416 -3.00701 184.459 138.092 6.88586 191.467 140.876 39.4173 152.368 194.414 80.3963 5.83761 8.73522 71.9658 
154.609 147.913 172.449 175.475 174.27 152.371 109.122 169.043 172.66 177.672 133.615 143.284 75.2146 116.68 145.013 73.967 158.809 133.348 -2.52158 184.541 138.185 7.21909 191.76 141.016 39.6606 152.216 194.405 80.8528 5.63464 8.92565 71.6952 
154.678 148.057 172.56 175.721 174.27 152.453 109.101 169.06 172.95 177.672 133.727 143.154 76.0044 116.63 145.015 74.5601 158.793 133.295 -2.01397 184.59 138.139 7.72923 191.342 140.54 40.7707 152.205 194.488 81.3675 6.50796 8.93676 71.7645 
154.83 148.168 172.571 176.002 174.27 152.654 109.183 168.795 172.901 177.672 133.803 142.5 77.9546 116.511 144.132 75.8528 158.34 132.62 -0.996728 184.485 137.623 8.6933 191.078 140.251 42.1732 151.959 194.213 82.5044 6.81539 9.03951 71.6228 
154.974 148.212 172.468 176.058 174.27 152.826 109.482 168.462 172.731 177.672 133.522 141.982 78.6982 116.161 143.331 76.324 158.035 132.014 -0.670428 184.386 137.147 9.0614 190.944 139.969 42.5755 151.764 193.829 82.9055 6.74512 9.14091 71.5421 
155.138 148.327 172.434 176.179 174.27 153.026 109.866 168.199 172.796 177.672 133.31 141.432 79.2513 115.807 142.521 76.4795 157.981 131.667 -0.341132 184.547 136.867 9.43964 191.102 139.756 42.9854 151.55 193.457 83.3203 6.6461 9.25312 71.3232 
155.138 148.465 172.554 176.436 174.27 153.134 109.965 168.213 173.053 177.672 133.264 141.124 79.6884 115.461 142.157 76.5236 158.316 131.543 -0.21745 184.935 136.682 9.854 190.624 138.944 44.1935 151.453 193.229 83.7167 7.80054 9.2387 71.3758 
155.044 148.598 172.648 176.778 174.27 153.212 110.001 168.196 173.444 177.671 133.237 140.827 80.0614 114.965 141.981 76.6297 158.264 131.155 0.0612345 185.032 136.213 10.3291 189.579 137.396 45.6004 151.378 192.97 84.0178 9.54534 9.309 71.3268 
154.878 148.589 172.766 177.082 174.27 153.168 109.959 168.224 173.701 177.67 133.242 140.639 80.537 114.569 141.76 76.8524 158.186 130.613 0.331652 185.09 135.6 10.8427 188.189 135.914 47.1995 151.327 192.735 84.2601 11.5698 9.32506 71.3194 
154.825 148.514 172.793 177.272 174.27 153.248 109.996 168.129 173.817 177.668 133.197 140.449 81.0541 114.302 141.439 77.1523 158.015 130.11 0.679787 185.103 135.05 11.3273 187.006 135.06 48.6324 151.271 192.534 84.4927 13.1699 9.36852 71.2455 
154.731 148.393 172.873 177.439 174.27 153.25 110.244 168.053 173.892 177.665 133.126 140.354 81.6066 113.921 141.156 77.4456 157.808 129.657 1.05503 185.052 134.548 11.8679 185.642 134.689 49.9924 151.221 192.415 84.7267 14.6424 9.40524 71.0931 
154.579 148.34 173.031 177.589 174.27 153.254 110.46 167.934 173.915 177.662 133.239 140.226 81.9333 113.708 140.864 77.5433 157.793 129.38 1.40221 185.178 134.352 12.2805 184.82 135.095 50.7753 151.202 192.314 84.9029 15.4078 9.49948 70.8607 
154.546 148.254 173.059 177.62 174.27 153.165 110.722 167.879 173.855 177.66 133.109 140.432 82.2632 113.385 140.976 77.7241 157.542 129.339 1.71094 184.945 134.178 12.6427 184.253 135.652 51.2829 151.279 192.423 85.1169 15.5533 9.47534 70.7266 
154.371 148.15 172.981 177.673 174.27 152.954 110.827 167.964 173.675 169.586 133.103 140.887 82.3536 113.06 141.437 77.6007 157.441 129.668 1.60338 184.755 134.23 12.8502 180.285 134.127 54.2935 151.324 192.623 85.2714 20.474 9.39013 70.7558 
154.149 148.015 172.917 177.766 174.27 152.642 110.856 168.14 173.663 154.413 133.254 141.304 82.3715 112.756 141.866 77.3057 157.531 129.938 1.48378 184.674 134.206 13.061 175.149 133.446 57.8139 151.341 192.762 85.3557 26.4038 9.25933 70.7563 
153.891 147.927 172.9 177.821 174.27 152.261 110.892 168.278 173.632 137.08 133.537 141.713 82.3057 112.627 142.306 76.9778 157.718 130.29 1.39047 184.688 134.268 13.2387 168.987 133.962 62.2192 151.367 192.939 85.3589 33.8623 9.11586 70.7071 
153.607 147.847 172.834 177.89 174.27 151.864 110.827 168.347 173.671 126.487 133.656 142.019 82.3932 112.432 142.627 76.8259 157.692 130.488 1.47975 184.553 134.216 13.4438 164.658 135.336 65.6903 151.287 193.062 85.391 39.4299 8.99982 70.6533 
153.374 147.923 172.906 178.058 174.27 151.544 110.709 168.498 173.717 120.059 133.839 142.231 82.261 112.275 142.971 76.5636 157.851 130.806 1.37674 184.527 134.287 13.5065 162.337 136.811 68.1637 151.204 193.142 85.4031 43.0401 8.86137 70.7242 
153.138 147.998 173.008 178.287 174.27 151.227 110.484 168.751 173.851 117.285 134.018 142.507 82.2103 112.201 143.385 76.3752 158.04 131.115 1.28382 184.412 134.353 13.5557 161.059 137.308 69.983 151.166 193.263 85.4518 45.2793 8.64791 70.8611 
152.97 147.997 173.151 178.544 174.27 151.044 110.432 168.972 173.981 115.858 134.075 142.652 82.2034 112.095 143.601 76.146 158.146 131.25 1.23087 184.238 134.289 13.5987 160.363 137.338 71.3306 151.093 193.312 85.4612 46.6472 8.46033 70.8645 
152.928 148.018 173.189 178.67 174.27 150.854 110.41 169.088 174.01 115.469 134.233 142.823 82.2935 112.031 143.829 75.9782 158.278 131.456 1.11855 184.154 134.249 13.6142 160.11 137.11 72.2654 151.112 193.405 85.4975 47.4096 8.27785 70.9059 
152.891 148.061 173.256 178.79 177.316 150.606 110.452 169.23 174.005 115.266 134.42 142.938 82.4471 112.054 143.98 75.8744 158.4 131.634 0.990265 184.071 134.206 13.5656 159.964 136.96 73.0778 151.152 193.504 85.5043 48.0657 8.09168 70.9458 
152.8 148.218 173.269 178.878 163.435 150.338 110.54 169.295 173.963 112.933 134.592 143.046 82.5731 112.056 144.088 75.8289 158.51 131.75 0.915512 184.004 134.131 13.553 159.753 137.599 74.5628 151.214 193.584 85.4985 49.4993 7.92584 71.0037 
152.684 148.421 173.247 178.985 154.439 150.086 110.505 169.345 173.922 111.763 134.671 143.216 82.7622 112.029 144.321 75.874 158.5 131.827 0.870882 183.862 134.023 13.5448 159.664 138.067 75.4851 151.311 193.683 85.4873 50.3234 7.8036 71.1357 
152.545 148.673 173.246 179.077 148.727 149.899 110.459 169.372 173.899 111.145 134.856 143.27 82.8635 112.103 144.422 75.9074 158.633 131.861 0.854398 183.914 134.009 13.5459 159.846 138.345 76.0113 151.397 193.709 85.4892 50.688 7.7588 71.2486 
152.398 148.911 173.217 179.101 145.563 149.674 110.231 169.401 173.784 111.1 134.919 143.428 82.7388 112.176 144.729 75.834 158.847 131.964 0.716794 183.901 134.014 13.5221 159.498 138.472 76.37 151.462 193.72 85.4268 51.2259 7.65368 71.5156 
152.21 149.25 173.167 179.09 143.993 149.54 110.037 169.411 173.651 111.472 134.891 143.544 82.526 112.188 145.038 75.7679 159.029 132.028 0.522365 183.861 133.949 13.4912 159.049 138.378 76.5188 151.514 193.663 85.3456 51.5591 7.56323 71.8619 
152.143 149.535 173.042 179.027 143.308 149.441 109.89 169.397 173.506 112.173 134.841 143.73 82.409 112.245 145.418 75.8852 159.18 132.159 0.405453 183.826 133.946 13.478 158.839 138.301 76.4186 151.613 193.71 85.3239 51.4286 7.48811 72.2639 
152.106 149.836 173.029 178.999 143.283 149.244 109.595 169.469 173.387 112.679 134.785 144.022 82.2034 112.337 145.974 76.0291 159.45 132.389 0.235163 183.796 133.956 13.4696 158.466 138.307 76.3737 151.723 193.81 85.2976 51.4865 7.31944 72.7881 
152.136 150.089 172.947 178.892 143.538 149.191 109.358 169.455 173.243 112.69 134.781 144.135 81.991 112.521 146.276 76.2008 159.703 132.558 0.102427 183.924 133.999 13.4073 158.727 138.286 76.3699 151.82 193.882 85.2603 51.3139 7.22371 73.1796 
152.091 150.37 172.879 178.767 143.673 149.099 109.03 169.407 173.087 112.707 134.753 144.22 81.764 112.683 146.543 76.3578 159.997 132.752 -0.0308108 184.085 134.096 13.3765 158.972 138.278 76.3555 151.852 193.926 85.2191 51.1865 7.12011 73.6131 
152.084 150.56 172.911 178.71 143.967 149.131 108.665 169.375 173.027 112.749 134.752 144.261 81.5822 112.877 146.759 76.4924 160.383 132.926 -0.07586 184.446 134.272 13.382 159.548 138.258 76.2315 151.887 193.984 85.2393 50.8235 7.0958 73.9436 
152.064 150.705 172.942 178.633 144.914 149.078 108.322 169.443 172.964 112.712 134.785 144.291 81.4774 113.069 146.956 76.7537 160.601 132.912 -0.0110617 184.575 134.307 13.4111 159.55 138.393 76.2745 151.911 194.02 85.2502 50.9149 7.04422 74.2196 
152.138 150.782 172.895 178.51 146.71 149.122 108.047 169.453 172.924 112.503 134.765 144.252 81.3676 113.309 147.023 77.0088 160.757 132.967 0.0180569 184.753 134.42 13.3516 160.089 138.412 76.1688 151.917 194.069 85.2584 50.5571 7.03643 74.4297 
152.277 150.721 172.855 178.393 149.064 149.109 107.87 169.498 172.883 112.619 134.673 144.211 81.3593 113.428 147.084 77.1846 160.854 133.046 -0.0323105 184.786 134.475 13.2635 160.259 138.373 75.9241 151.907 194.096 85.3122 50.1942 6.97208 74.6128 
152.304 150.701 172.89 178.31 150.926 149.164 107.618 169.543 172.837 112.767 134.652 144.205 81.2709 113.491 147.223 77.1755 161.031 133.167 -0.159173 184.916 134.619 13.149 160.391 138.411 75.5698 151.873 194.133 85.3093 49.8651 6.94913 74.7803 
152.321 150.684 172.824 178.177 153.023 149.152 107.393 169.513 172.753 113.157 134.581 144.185 81.252 113.542 147.327 77.2344 161.04 133.25 -0.19046 184.874 134.676 13.1003 160.527 138.261 75.227 151.84 194.145 85.3256 49.4042 6.90866 74.9039 
152.292 150.525 172.873 178.086 154.845 149.294 107.374 169.517 172.663 114.109 134.514 144.207 81.2194 113.527 147.38 77.0151 161.011 133.323 -0.172854 184.777 134.744 13.1472 160.524 138.05 74.7556 151.825 194.178 85.3525 48.8399 6.88794 74.7084 
152.281 150.571 172.939 178 156.592 149.395 107.368 169.535 172.548 114.52 134.543 144.251 81.0753 113.524 147.534 76.7961 161.136 133.422 -0.260148 184.727 134.808 13.1258 160.323 137.984 74.5187 151.843 194.214 85.3208 48.7043 6.8113 74.6745 
152.253 150.474 172.932 177.893 158.09 149.486 107.402 169.527 172.448 115.131 134.647 144.269 81.136 113.556 147.578 76.6886 161.159 133.457 -0.207068 184.677 134.838 13.2149 160.314 137.864 74.2534 151.852 194.248 85.3767 48.3413 6.78538 74.5348 
152.286 150.282 172.902 177.854 159.66 149.503 107.562 169.49 172.396 115.458 134.662 144.232 81.3629 113.511 147.537 76.6789 160.926 133.409 -0.0261998 184.424 134.793 13.3217 160.207 137.867 74.0623 151.853 194.289 85.45 48.0607 6.77723 74.2616 
152.248 150.338 172.819 177.883 161.396 149.559 107.578 169.405 172.423 115.375 134.597 144.152 81.5183 113.491 147.536 76.7782 160.654 133.249 0.213395 184.171 134.671 13.4281 160.087 137.959 73.9181 151.857 194.274 85.4504 47.8654 6.81314 74.1384 
152.335 150.393 172.758 177.953 162.473 149.738 107.617 169.276 172.492 114.608 134.535 144.041 81.7019 113.522 147.41 76.9233 160.437 133.147 0.473919 184.109 134.662 13.5134 160.296 138.124 74.1059 151.85 194.291 85.5164 47.8401 6.92081 73.9656 
152.382 150.379 172.723 177.96 163.472 149.865 107.635 169.172 172.484 114.518 134.654 143.924 81.9091 113.601 147.347 77.0093 160.39 133.131 0.701144 184.183 134.699 13.6361 160.653 138.119 74.0231 151.904 194.312 85.6266 47.4951 7.00124 73.8032 
152.233 150.451 172.691 177.988 163.395 149.806 107.631 169.133 172.5 114.615 134.803 143.894 81.9927 113.662 147.347 76.998 160.545 133.159 0.773944 184.312 134.729 13.773 160.431 138.246 74.0183 151.949 194.297 85.6629 47.6826 6.99871 73.8285 
152.103 150.533 172.697 178.035 163.358 149.882 107.752 169.144 172.528 114.683 135.111 143.906 82.1663 113.901 147.382 76.9454 160.883 133.34 0.888663 184.597 134.865 14.0556 160.255 138.452 74.1769 152.145 194.36 85.8022 47.9534 6.98244 73.7658 
152.09 150.544 172.608 178.034 162.686 149.843 107.953 169.147 172.55 115.19 135.137 144.096 82.3138 113.923 147.453 77.0202 160.872 133.356 1.15801 184.532 134.804 14.3792 159.932 138.421 74.3892 152.282 194.441 85.9687 48.1269 6.94629 73.5901 
152.046 150.598 172.497 178.066 161.9 149.814 108.123 169.161 172.549 115.604 135.219 144.371 82.3832 113.875 147.587 77.0016 160.895 133.444 1.25568 184.519 134.764 14.5568 159.669 138.41 74.5213 152.411 194.56 86.0921 48.2736 6.89874 73.4584 
151.916 150.612 172.394 178.108 160.896 149.752 108.263 169.144 172.52 115.9 135.313 144.616 82.4557 113.897 147.662 77.0421 160.918 133.513 1.4095 184.526 134.727 14.7306 159.654 138.457 74.6574 152.566 194.682 86.1987 48.3069 6.83996 73.319 
151.655 150.477 172.346 178.131 159.603 149.569 108.456 169.09 172.401 116.536 135.448 144.791 82.5887 113.821 147.554 76.9166 160.892 133.505 1.52512 184.475 134.622 14.9436 159.527 138.404 74.7312 152.619 194.702 86.289 48.3386 6.76493 73.0678 
151.472 150.376 172.232 178.114 158.867 149.494 108.793 169.001 172.298 117.347 135.502 144.955 82.6747 113.726 147.367 76.8038 160.72 133.431 1.69138 184.329 134.481 15.1177 159.577 138.238 74.7082 152.672 194.735 86.3661 48.074 6.72784 72.6937 
