162.083 149.916 171.747 175.2 179.185 154.212 100.995 168.344 174.12 179.672 34.7662 168.107 -6.69105 33.6016 172.167 -7.3827 74.3514 112.952 -68.0596 103.054 129.737 -67.5355 117.759 155.799 -46.023 58.5787 217.37 -35.8367 6.28938 11.7509 75.1985 
161.971 149.82 171.767 175.29 178.555 154.028 100.785 168.445 174.175 179.419 35.8177 167.955 -7.20656 33.8813 172.111 -7.79936 74.8193 112.704 -68.3232 103.445 129.431 -67.5329 117.586 155.576 -45.8196 58.862 217.281 -36.0512 5.95439 11.6266 75.1418 
161.903 149.418 171.785 175.349 177.899 153.736 100.635 168.513 174.17 179.155 36.8059 167.866 -7.83398 34.0428 171.841 -8.3639 75.2023 112.527 -68.5881 103.754 129.132 -67.4352 117.67 155.286 -45.6197 59.1313 217.144 -36.2457 5.85229 11.4895 74.8968 
161.787 148.545 171.829 175.498 177.928 153.426 100.631 168.664 174.318 179.079 37.565 167.855 -8.0035 34.3619 171.328 -8.63015 75.6293 112.312 -68.3747 104.095 128.905 -67.2227 117.795 155.08 -45.655 59.4228 216.946 -36.3341 5.63655 11.4483 74.3914 
161.681 147.755 171.848 175.603 178.281 153.109 100.646 168.715 174.418 179.309 38.3613 167.934 -8.15419 34.6058 170.837 -8.95597 76.0824 112.178 -68.2113 104.5 128.797 -67.0545 118.079 154.995 -45.7445 59.7393 216.849 -36.3838 5.50802 11.4513 73.8372 
161.653 146.928 171.9 175.681 178.964 153.005 100.844 168.809 174.51 179.583 38.9895 167.9 -8.33008 34.9398 170.302 -9.06534 76.4948 111.955 -67.8856 104.867 128.62 -66.8699 118.444 154.823 -46.041 60.0683 216.68 -36.4113 5.39442 11.4788 73.2726 
161.734 146.38 171.883 175.709 179.174 152.98 101.253 168.778 174.567 179.668 39.5198 167.861 -8.3778 35.3794 169.761 -9.12351 76.9805 111.896 -67.6858 105.42 128.673 -66.8991 119.078 154.867 -46.6328 60.4443 216.624 -36.4689 5.36998 11.6144 72.7012 
161.824 145.78 171.864 175.702 178.917 153.013 101.528 168.711 174.638 179.565 40.0312 167.979 -8.70169 35.5418 169.494 -9.36828 77.265 112.005 -67.7135 105.944 128.931 -67.084 119.728 154.983 -46.9464 60.8187 216.702 -36.5508 5.47004 11.8747 72.3189 
162.12 144.955 171.837 175.689 179.054 153.079 101.796 168.671 174.696 179.62 40.1756 168.091 -9.11723 35.5236 169.161 -9.69856 77.3962 111.988 -67.6067 106.288 129 -67.0487 120.168 154.963 -46.9825 61.1502 216.743 -36.6596 5.54953 12.073 71.7949 
162.339 144.073 171.78 175.634 179.034 152.931 101.898 168.576 174.632 179.612 40.6795 167.995 -9.66999 35.5566 168.604 -10.3179 77.6812 111.927 -67.7732 106.648 128.983 -67.0817 120.441 154.836 -46.9311 61.3789 216.633 -36.7707 5.52779 12.1331 71.2121 
162.463 143.424 171.7 175.556 178.614 152.746 102.085 168.444 174.542 179.443 40.9878 167.724 -9.954 35.7134 167.861 -10.7581 78.0485 111.667 -67.9046 107.002 128.763 -67.0902 120.737 154.54 -46.773 61.58 216.306 -36.8422 5.54906 12.1395 70.7492 
162.602 142.802 171.629 175.505 178.136 152.648 102.439 168.347 174.446 179.251 41.0199 167.453 -9.98621 35.8959 167.036 -10.9561 78.281 111.283 -67.7511 107.17 128.362 -66.8962 120.899 154.197 -46.5975 61.7134 215.997 -36.8678 5.55785 12.0722 70.115 
162.768 141.99 171.565 175.426 177.594 152.533 102.823 168.227 174.33 179.034 41.1922 166.99 -9.94494 36.0469 165.985 -11.2315 78.508 110.839 -67.6416 107.403 127.995 -66.8301 121.041 153.789 -46.4791 61.7713 215.55 -36.8883 5.51271 12.1002 69.396 
162.991 141.874 171.508 175.328 177.038 152.457 103.171 168.118 174.173 178.811 41.2045 166.364 -9.92647 36.1102 165.108 -11.4275 78.6014 110.384 -67.6697 107.417 127.487 -66.7857 121.024 153.208 -46.5119 61.7706 214.983 -36.9403 5.46963 12.0405 69.0412 
163.022 142.247 171.452 175.242 177.041 152.334 103.418 168.018 174.061 178.749 41.2045 165.937 -9.78276 36.1411 164.631 -11.4578 78.5963 110.048 -67.6727 107.397 127.106 -66.8393 121.076 152.781 -46.7722 61.798 214.555 -36.9907 5.47887 12.0606 68.9674 
163.165 142.513 171.413 175.192 176.707 152.221 103.637 167.939 173.958 178.581 41.4614 165.622 -9.63216 36.26 164.224 -11.4417 78.6036 109.81 -67.5998 107.433 126.852 -66.8711 121.176 152.537 -47.0913 61.821 214.236 -37.0207 5.48766 12.1103 68.8399 
163.234 143.175 171.375 175.092 176.76 152.041 104.017 167.872 173.894 178.612 41.7644 165.328 -9.55804 36.1562 163.964 -11.4313 78.5081 109.509 -67.6386 107.399 126.511 -66.9572 121.234 152.134 -47.3887 61.8691 213.906 -37.1393 5.53144 12.1902 68.9009 
163.311 143.597 171.329 175.053 176.834 151.811 104.199 167.852 173.901 178.653 42.0873 165.048 -9.5261 36.2176 163.656 -11.3495 78.5059 109.195 -67.5278 107.359 126.14 -66.9039 121.284 151.77 -47.6291 61.9082 213.524 -37.2103 5.5693 12.1852 68.9149 
163.368 144.47 171.293 175.082 176.815 151.738 104.181 167.835 173.932 178.649 42.2763 164.899 -9.37968 36.2218 163.822 -11.1101 78.4281 109.048 -67.4544 107.243 125.869 -66.9571 121.271 151.611 -48.0328 61.9223 213.292 -37.2891 5.64069 12.1902 69.3231 
163.371 145.285 171.272 175.113 176.451 151.697 104.335 167.83 173.964 178.468 42.4382 164.879 -9.17321 36.1807 163.98 -10.8148 78.3089 108.939 -67.3507 107.097 125.667 -67.0119 121.243 151.495 -48.2831 61.9348 213.171 -37.3322 5.71565 12.2124 69.6325 
163.38 146.087 171.225 175.123 176.237 151.721 104.393 167.772 173.977 178.357 42.3946 164.831 -9.14469 36.0481 164.161 -10.6119 78.166 108.887 -67.3904 106.987 125.55 -67.1289 121.226 151.403 -48.4824 61.9279 213.053 -37.3932 5.78713 12.2613 70.0409 
163.708 146.264 171.223 175.159 176.004 152.048 104.367 167.752 174.031 178.238 42.1619 164.725 -9.20725 36.1367 164.304 -10.4178 78.0965 108.89 -67.2172 106.952 125.581 -67.1794 121.281 151.542 -48.7355 61.9573 213.056 -37.4096 5.86113 12.3519 70.1724 
163.851 146.491 171.208 175.191 175.505 152.079 104.391 167.771 174.079 177.984 42.1648 164.707 -9.21492 36.1384 164.36 -10.2676 78.0032 108.676 -67.0374 106.855 125.341 -67.1715 121.239 151.416 -48.8288 61.9691 212.956 -37.4781 5.90277 12.3968 70.2746 
163.859 146.951 171.245 175.272 175.114 152.159 104.503 167.876 174.199 177.781 42.2837 164.8 -9.19625 36.2205 164.49 -9.98634 78.0836 108.515 -66.8036 106.941 125.195 -67.2157 121.273 151.387 -49.0213 62.0464 212.958 -37.5493 5.8486 12.4629 70.3756 
163.886 147.19 171.257 175.351 174.702 152.288 104.347 167.928 174.306 177.563 42.3644 164.734 -9.5021 36.3571 164.654 -9.99315 78.2296 108.455 -66.7793 107.051 125.133 -67.3719 121.33 151.352 -49.2103 62.1585 212.917 -37.6727 5.79749 12.5087 70.5314 
163.948 147.571 171.258 175.399 174.207 152.426 104.279 167.941 174.334 177.299 42.4763 164.703 -9.65723 36.4628 164.779 -9.95324 78.2623 108.325 -66.7948 107.084 124.998 -67.5237 121.4 151.296 -49.4228 62.2581 212.889 -37.7783 5.81378 12.539 70.6607 
164.001 147.472 171.246 175.435 173.553 152.483 103.985 167.937 174.341 176.949 42.7933 164.625 -9.85806 36.7418 164.789 -10.035 78.486 108.203 -66.8507 107.344 124.939 -67.7541 121.544 151.269 -49.6842 62.429 212.822 -37.8789 5.70875 12.6063 70.7068 
164.061 147.023 171.253 175.491 172.962 152.487 103.908 167.977 174.374 176.632 43.0324 164.684 -9.9284 37.0007 164.646 -10.1341 78.7997 108.16 -66.8501 107.627 124.919 -67.8392 121.776 151.346 -49.9004 62.6228 212.808 -37.9576 5.68438 12.5994 70.5785 
164.059 146.547 171.268 175.521 172.364 152.36 103.719 167.999 174.419 176.333 43.4877 164.574 -10.0774 37.3311 164.31 -10.2823 79.1259 107.991 -66.61 107.862 124.781 -67.7225 121.945 151.224 -49.8657 62.8368 212.605 -38.0083 5.61172 12.5869 70.2779 
164.037 146.013 171.256 175.545 172.238 152.341 103.771 167.965 174.456 176.268 43.5985 164.557 -9.95304 37.6533 164.02 -10.2581 79.2899 107.946 -66.4035 108.089 124.776 -67.5783 122.245 151.243 -49.8176 63.0498 212.519 -37.9859 5.65037 12.6123 70.0025 
164.133 145.677 171.301 175.572 172.578 152.249 103.864 168.015 174.529 176.449 43.9764 164.591 -9.89887 38.0048 163.825 -10.2426 79.5078 107.839 -66.157 108.351 124.691 -67.3613 122.575 151.165 -49.6391 63.3451 212.458 -37.9898 5.6843 12.6237 69.7359 
164.045 145.139 171.357 175.542 172.788 152.006 103.953 168.072 174.534 176.568 44.5241 164.626 -9.70859 38.2853 163.531 -10.3289 79.7064 107.704 -65.943 108.583 124.565 -67.2129 122.872 151.003 -49.5362 63.6379 212.333 -37.9685 5.70304 12.6487 69.3838 
163.955 144.764 171.44 175.558 173.167 152 104.089 168.142 174.585 176.768 44.8426 164.67 -9.59668 38.6908 163.38 -10.2904 80.0115 107.685 -65.7445 108.893 124.531 -67.084 123.287 151.014 -49.4865 64.0334 212.31 -37.9065 5.77509 12.6514 69.1542 
163.949 144.014 171.473 175.622 173.228 152.078 104.216 168.173 174.677 176.807 44.7297 164.707 -9.40478 38.9952 163.121 -10.2281 80.1085 107.554 -65.3634 108.966 124.289 -66.8054 123.381 150.846 -49.369 64.4275 212.251 -37.8039 5.73988 12.6226 68.7462 
163.895 143.544 171.503 175.641 172.878 152.005 104.233 168.205 174.705 176.633 44.9465 164.661 -9.37924 39.3283 162.862 -10.1922 80.2636 107.245 -64.8623 109.008 123.851 -66.3712 123.401 150.437 -48.9787 64.8663 212.086 -37.6938 5.64131 12.5478 68.3275 
163.745 142.409 171.518 175.702 172.355 151.62 103.923 168.216 174.71 176.352 46.3691 164.244 -9.61286 40.2312 162.408 -10.5954 81.3275 106.963 -64.609 109.97 123.474 -65.8283 124.183 149.78 -48.0313 65.9554 211.666 -37.3773 5.47761 12.493 67.9733 
163.719 141.852 171.529 175.733 172.278 151.332 103.626 168.273 174.731 176.303 47.4404 164.227 -9.74791 40.8315 162.521 -10.7636 81.9311 106.87 -64.623 110.457 123.326 -65.775 124.621 149.544 -47.773 66.4991 211.571 -37.2758 5.43815 12.4567 68.0574 
163.747 141.599 171.483 175.781 172.673 151.155 103.273 168.325 174.78 176.5 47.932 164.367 -9.65517 41.4973 162.937 -10.7051 82.6267 106.867 -64.5335 110.935 123.108 -65.5238 125.019 149.278 -47.445 67.2697 211.657 -37.0704 5.31801 12.2636 68.3135 
163.632 141.713 171.328 175.815 173.46 150.93 103.193 168.168 174.734 176.895 48.6396 164.435 -9.29849 42.1392 163.008 -10.5716 83.4597 106.904 -64.7848 111.773 123.035 -65.4447 125.556 149.151 -46.9861 67.9788 211.788 -36.7309 5.08641 12.1145 68.4708 
163.473 142.279 171.205 175.811 174.443 150.46 102.925 168.019 174.651 177.375 49.8485 164.268 -9.17957 42.9223 163.098 -10.5254 84.592 106.865 -65.2336 112.888 122.961 -65.5312 126.268 148.939 -46.657 68.7219 211.813 -36.3597 4.83933 12.0021 68.7692 
163.373 142.101 171.204 175.883 175.811 150.191 102.954 168.053 174.72 178.04 51.2042 164.119 -8.55983 43.6647 163.162 -10.3643 85.6567 106.898 -65.5795 114.078 123.092 -65.6296 127.117 148.932 -46.5187 69.4455 211.872 -35.9776 4.68259 12.0501 69.0283 
163.48 141.765 171.331 176.03 177.693 150.391 102.928 168.231 174.934 179.074 52.7011 164.304 -7.51798 44.5985 163.477 -9.90025 86.5197 106.925 -65.1872 115.126 123.305 -65.5744 128.087 149.232 -46.4499 70.4054 212.14 -35.6222 4.66208 12.2875 69.047 
163.605 141.88 171.391 176.206 178.506 150.692 102.933 168.319 175.151 179.401 53.6878 164.187 -6.59362 45.422 163.612 -9.28633 87.2103 106.869 -64.765 116.028 123.383 -65.5695 128.967 149.218 -46.2881 71.3267 212.162 -35.2306 4.61045 12.5613 69.1893 
163.423 142.466 171.459 176.37 175.575 150.62 103.127 168.431 175.388 178.224 54.8959 163.924 -5.65237 46.5469 163.584 -8.66235 88.2795 106.649 -64.4736 117.119 123.258 -65.4583 129.952 149.025 -46.0558 72.4022 211.946 -34.8694 4.53915 12.676 69.4684 
163.4 141.981 171.655 176.593 174.175 150.704 103.227 168.646 175.604 177.663 56.397 163.721 -4.6641 47.321 163.574 -8.48181 89.2523 106.459 -63.8746 118.165 123.115 -64.9571 131.066 148.935 -45.4128 73.3139 211.795 -34.5679 4.71669 12.8316 69.4367 
163.486 142.574 171.678 176.848 174.294 150.707 102.918 168.744 175.721 177.711 57.9702 162.955 -3.75914 48.1965 163.025 -8.38621 91.0564 105.972 -63.7895 119.732 122.585 -64.4891 132.134 148.466 -44.2559 74.1295 211.233 -34.1766 4.60741 12.6603 69.7471 
163.351 143.476 171.807 177.125 174.437 150.789 102.458 168.917 175.62 177.769 59.8557 162.04 -2.83678 49.4382 162.47 -8.21037 93.4058 105.514 -64.07 121.367 121.85 -64.0945 133.228 148.318 -43.1807 74.8419 210.633 -33.6321 4.62811 12.0563 70.3569 
163.114 143.128 171.988 177.153 174.627 150.986 102.493 169.111 175.361 177.844 61.0014 161.586 -1.70229 49.9006 162.241 -8.08157 94.9385 105.16 -64.0965 122.415 120.924 -63.1107 133.496 147.834 -41.186 75.4755 210.309 -33.0703 4.49737 11.4436 70.8381 
162.969 142.35 172.166 177.415 174.751 151.318 102.842 169.277 175.28 177.893 62.2857 161.524 -0.603643 50.6604 162.198 -7.51448 96.1954 105.006 -63.5829 123.545 120.397 -62.034 134.074 147.508 -39.5675 76.3078 210.195 -32.6315 4.38663 11.1301 71.1315 
162.826 142.027 172.415 177.745 174.87 151.536 103.137 169.518 175.464 177.94 64.1926 161.519 0.224505 51.8227 161.968 -6.78555 97.815 105.064 -62.898 125.227 120.492 -61.0922 134.836 147.667 -38.3069 77.0996 210.104 -32.2679 4.05178 11.0131 71.2633 
162.647 141.374 172.578 177.989 174.943 151.479 103.898 169.608 175.619 177.968 65.8539 161.4 1.20984 52.856 161.238 -5.90667 99.1196 104.789 -62.1722 126.701 120.335 -60.2237 135.369 147.482 -36.9281 77.8065 209.698 -31.9337 3.88905 11.024 71.2328 
162.722 140.972 172.732 178.092 174.989 151.784 104.369 169.692 175.785 177.986 66.042 161.48 1.9423 53.4911 161.313 -4.8365 99.9158 104.617 -61.4054 127.825 120.234 -59.508 135.588 147.117 -35.7639 78.5198 209.608 -31.5108 3.80104 11.1682 71.6631 
163.015 141.05 173.025 178.327 175.054 152.248 104.636 169.831 176.002 178.012 66.3956 161.689 2.44152 53.8549 161.634 -4.22873 101.053 104.722 -60.9905 129.311 120.482 -58.6975 135.825 147.186 -34.1924 79.2988 209.871 -31.1451 4.06184 11.2314 72.1641 
162.737 140.948 173.289 178.634 175.2 152.164 104.772 169.958 176.215 178.07 67.8041 161.927 2.57162 54.4342 161.547 -4.24189 102.929 104.946 -61.243 131.481 120.876 -58.0442 136.052 147.177 -32.473 80.1227 210.105 -30.8686 4.76995 11.1551 72.5048 
162.236 140.787 173.518 178.992 175.451 151.796 104.958 170.014 176.353 178.178 69.6576 162.079 2.58213 55.1442 161.026 -4.4547 104.906 104.962 -61.4373 133.614 120.965 -57.1968 136.033 146.535 -30.4012 80.9938 210.106 -30.6769 6.14504 10.9589 72.5286 
161.915 140.407 173.706 179.226 175.741 151.521 105.232 169.936 176.395 178.339 70.9723 162.118 2.55328 55.9482 160.425 -4.61047 106.856 105.053 -61.6653 135.686 121.067 -56.5601 136.225 145.648 -28.4165 81.7443 210.137 -30.4181 7.79975 10.7627 72.46 
161.532 139.862 173.858 179.414 175.991 151.244 105.623 169.866 176.436 178.509 71.8411 162.049 2.28389 56.5417 159.695 -5.11393 108.691 105.232 -62.0965 137.496 121.199 -55.9696 136.484 144.7 -26.4745 82.4511 210.173 -30.157 9.29381 10.5345 72.2504 
161.251 139.412 174.039 179.569 176.234 151.054 106.393 169.755 176.402 178.676 71.9642 161.579 2.18582 57.0459 158.666 -5.18815 109.972 105.037 -62.2894 138.823 121.044 -55.4481 136.883 143.632 -24.6503 82.9944 209.845 -29.8172 10.5289 10.4516 72.0733 
160.707 138.785 174.227 179.69 176.398 150.519 106.954 169.644 176.42 178.844 72.4732 161.384 2.19269 57.4918 157.866 -5.34285 111.049 104.783 -62.3369 139.842 120.838 -54.9364 136.73 142.641 -22.7696 83.4394 209.589 -29.4931 11.8629 10.359 71.8061 
160.05 138.631 174.399 179.839 176.543 149.767 107.298 169.464 176.454 179.008 73.0146 161.069 2.43005 58.1813 156.918 -5.10462 112.017 104.306 -62.2296 140.793 120.559 -54.3023 136.775 141.694 -20.8263 83.7453 209.043 -29.1515 13.1114 10.3163 71.6855 
159.712 138.027 174.638 179.947 176.745 149.385 107.401 169.358 176.566 179.198 73.0124 160.415 2.59601 59.2163 155.852 -4.81133 112.781 103.796 -62.0153 141.652 120.376 -53.7216 137.232 140.524 -19.17 83.9777 208.405 -28.8157 14.0812 10.388 71.3579 
159.252 136.413 174.854 179.707 176.836 148.775 107.569 169.315 176.667 179.31 73.3215 160.008 2.96737 60.3313 154.786 -4.59859 113.261 103.315 -61.6567 142.136 120.165 -53.1287 137.455 139.667 -17.6778 84.0855 207.71 -28.5168 14.918 10.4331 70.8777 
159.08 134.748 175.067 179.508 176.871 148.629 108.055 169.317 176.766 179.359 73.1861 159.586 3.31154 61.4071 154.005 -4.28895 113.62 103.21 -61.2921 142.584 120.367 -52.7259 138.128 139.453 -16.8083 84.2047 207.317 -28.2136 15.285 10.5653 70.3987 
158.983 133.057 175.089 179.393 176.849 148.517 108.402 169.27 176.863 179.373 72.7441 159.104 3.19888 62.1408 153.284 -4.15082 113.712 102.976 -60.8238 142.819 120.263 -52.1796 138.177 139.113 -15.6417 84.2292 206.894 -27.9456 15.8975 10.6917 69.8421 
158.997 131.744 175.102 179.247 176.789 148.448 108.868 169.198 176.953 179.337 72.5056 158.584 2.76364 62.6079 152.603 -4.26311 113.758 102.864 -60.6018 143.055 120.222 -51.8743 138.489 138.946 -14.9145 84.2703 206.499 -27.7577 16.1985 10.8751 69.3675 
159.274 131.834 174.991 179.209 176.678 148.464 108.761 169.003 176.864 179.236 72.2629 158.32 2.68503 62.4915 152.814 -4.22538 113.401 102.913 -60.5951 142.827 120.104 -51.8187 138.65 139.028 -14.7811 84.3373 206.348 -27.6295 16.0623 11.0042 69.6662 
159.525 131.756 174.905 179.218 176.636 148.564 108.596 168.88 176.727 179.198 72.1273 158.011 2.70951 62.5636 152.912 -4.17223 113.198 102.816 -60.533 142.615 119.708 -51.6004 138.498 138.724 -14.486 84.3741 206.179 -27.5052 16.0357 10.9546 69.7966 
159.663 132.056 174.86 179.374 176.556 148.573 108.391 168.793 176.438 179.14 72.0173 157.733 2.68246 62.6344 153.093 -4.07022 113.065 102.714 -60.3156 142.247 119.245 -51.2717 138.335 138.729 -14.2948 84.4329 206.004 -27.4356 15.8537 10.7445 69.9563 
159.735 133.026 174.794 179.556 176.492 148.649 107.949 168.729 176.171 179.104 72.0374 157.274 2.72853 62.6282 153.347 -3.81004 112.896 102.482 -60.0777 141.799 118.606 -50.925 137.965 138.5 -13.9537 84.4371 205.662 -27.3827 15.8346 10.4901 70.3691 
159.938 134.51 174.688 179.767 176.413 148.873 107.347 168.566 175.924 179.041 71.5714 156.804 2.6491 62.4102 153.968 -3.55865 112.61 102.326 -60.0743 141.305 118.069 -50.9204 137.578 138.357 -14.1144 84.4049 205.404 -27.3511 15.5996 10.3293 71.2053 
160.014 135.189 174.528 179.934 176.336 149.009 106.699 168.45 175.776 178.972 71.0509 156.503 2.49991 62.4187 154.462 -3.37368 112.384 102.153 -59.8382 140.941 117.655 -50.7132 137.513 138.331 -14.226 84.4167 205.197 -27.327 15.2778 10.2241 71.6947 
159.876 135.605 174.394 179.977 176.273 148.927 105.78 168.371 175.697 178.917 70.9136 156.373 2.63572 62.5172 155.108 -3.28014 112.293 102.014 -59.7411 140.539 117.242 -50.5563 137.327 138.214 -14.3811 84.4391 205.006 -27.2937 14.9814 9.9973 72.3343 
159.594 136.443 174.303 179.911 176.256 148.835 105.39 168.328 175.655 178.891 70.9313 156.397 2.84045 62.4507 155.534 -3.0541 112.097 101.951 -59.5748 140.093 117.003 -50.4284 137.28 137.983 -14.6909 84.3973 204.864 -27.2668 14.5867 9.83372 72.8061 
159.543 137.307 174.143 179.731 176.227 148.815 105.256 168.232 175.488 178.851 70.7194 156.445 2.84933 62.1295 156.014 -2.88293 111.75 101.923 -59.3783 139.539 116.71 -50.3104 137.345 137.888 -15.1677 84.3823 204.824 -27.2529 13.9482 9.69809 73.2153 
159.373 138.132 174.033 179.565 176.213 148.574 104.991 168.171 175.342 178.832 70.8094 156.547 2.71567 61.7352 156.445 -2.93434 111.579 101.825 -59.3694 139.08 116.392 -50.3009 137.145 137.719 -15.6019 84.3166 204.757 -27.3139 13.4752 9.52326 73.6324 
159.069 139.17 173.998 179.442 176.179 148.27 104.623 168.132 175.276 178.809 71.1005 156.621 2.52402 61.3253 156.907 -3.02124 111.666 101.749 -59.4455 138.911 116.167 -50.2521 136.9 137.621 -15.8787 84.2942 204.666 -27.3343 13.1678 9.37134 74.2146 
159.004 140.52 173.927 179.355 176.162 148.188 104.471 168.096 175.259 178.788 71.3422 156.6 2.60846 60.9689 157.261 -2.65522 111.546 101.681 -59.236 138.817 116.155 -50.1783 137.028 137.605 -16.186 84.2218 204.554 -27.2925 12.8538 9.42432 74.7523 
159.076 142.109 173.83 179.225 176.137 148.133 104.214 167.987 175.193 178.761 71.6363 156.603 2.65235 60.6125 157.657 -2.35531 111.636 101.782 -59.009 138.954 116.388 -50.1875 137.484 137.871 -16.5477 84.197 204.548 -27.2518 12.5163 9.52496 75.2686 
159.194 143.364 173.689 179.096 176.112 148.025 103.889 167.847 175.086 178.734 71.6486 156.583 2.69101 60.0481 157.911 -2.32913 111.565 101.769 -59.007 138.827 116.32 -50.2789 137.527 137.886 -16.8963 84.1205 204.492 -27.2352 12.2206 9.51974 75.7356 
159.263 144.59 173.621 179.018 176.082 147.986 103.662 167.772 175.057 178.706 71.6301 156.438 2.55326 59.6087 158.042 -2.28966 111.64 101.803 -59.0711 138.934 116.421 -50.3876 137.798 138.055 -17.2271 84.06 204.426 -27.2159 11.9626 9.57718 76.1506 
159.434 145.284 173.638 179.043 176.032 148.193 103.577 167.784 175.121 178.667 71.5066 156.321 2.31795 59.4148 158.074 -2.11872 111.609 101.893 -58.9043 139.085 116.663 -50.4194 138.07 138.433 -17.384 83.9422 204.452 -27.1992 11.8744 9.72781 76.2166 
159.411 145.546 173.584 179.042 175.994 148.295 103.661 167.738 175.112 178.635 71.6472 156.323 2.41373 59.2896 157.871 -1.86045 111.601 101.89 -58.7416 139.312 116.895 -50.518 138.302 138.833 -17.6628 83.788 204.446 -27.1455 11.7668 9.9144 76.1458 
159.326 145.777 173.59 179.041 175.983 148.382 104.069 167.698 175.121 178.621 71.6385 156.306 2.32842 59.1344 157.427 -1.72436 111.564 101.951 -58.793 139.556 117.195 -50.7341 138.748 139.234 -17.9365 83.6264 204.459 -27.1459 11.6595 10.1297 75.9125 
159.396 145.843 173.608 179.084 175.948 148.606 104.428 167.693 175.134 178.589 71.545 156.222 2.21814 59.0932 157.027 -1.62749 111.526 101.977 -58.8807 139.704 117.364 -51.0824 139.08 139.624 -18.3118 83.4556 204.462 -27.1809 11.5611 10.2782 75.661 
159.536 145.769 173.575 179.094 175.909 148.9 104.655 167.658 175.165 178.554 71.4071 156.004 2.07274 59.072 156.589 -1.60363 111.466 102.005 -59.0384 139.913 117.598 -51.5904 139.433 140.002 -18.7467 83.2561 204.402 -27.2253 11.5292 10.5207 75.4428 
159.818 145.474 173.498 179.045 175.847 149.245 104.9 167.662 175.142 178.503 70.98 155.749 1.8108 59.0256 156.187 -1.5955 111.452 102.022 -59.2435 140.109 117.727 -52.0326 139.776 140.457 -19.2675 83.0606 204.365 -27.264 11.357 10.6754 75.2643 
159.86 144.873 173.546 179.091 175.832 149.312 105.155 167.782 175.244 178.485 71.036 155.648 1.64712 59.2373 155.563 -1.64069 111.698 102.012 -59.4191 140.517 117.993 -52.3767 140.219 140.841 -19.734 82.8894 204.313 -27.3004 11.2493 10.8008 74.8538 
160.133 144.328 173.583 179.078 175.834 149.521 105.537 167.892 175.291 178.472 70.9515 155.494 1.59181 59.4859 154.946 -1.62751 111.899 102.067 -59.6717 140.919 118.331 -52.8561 140.966 141.37 -20.4098 82.7463 204.329 -27.3257 10.9752 10.9618 74.4477 
160.201 143.359 173.526 179.129 175.814 149.507 106.064 167.949 175.384 178.452 71.0762 155.501 1.49678 59.6608 154.152 -1.75611 112.019 102.019 -59.7041 141.288 118.462 -53.0283 141.319 141.713 -20.7001 82.6386 204.288 -27.3464 10.8673 11.1235 73.7701 
160.325 142.244 173.483 179.202 175.776 149.521 106.625 167.99 175.539 178.425 71.1686 155.553 1.71019 59.9419 153.338 -1.83209 112.21 102.022 -59.6786 141.699 118.734 -53.157 141.488 142.119 -20.8843 82.5595 204.306 -27.3304 10.904 11.2823 73.0319 
