160.354 140.721 173.541 179.322 175.788 149.547 107.333 168.102 175.735 178.427 71.4982 155.636 1.97252 60.365 152.398 -1.96151 112.499 102.005 -59.7005 142.16 119.024 -53.2669 141.653 142.323 -21.0685 82.4935 204.334 -27.2766 10.9653 11.3956 72.1351 
160.573 139.349 173.485 179.389 175.814 149.768 108.253 168.124 175.823 178.437 71.4484 155.709 2.22145 60.6721 151.659 -2.01882 112.588 102.028 -59.7995 142.468 119.204 -53.354 141.779 142.467 -21.199 82.4646 204.459 -27.2264 10.9887 11.4916 71.3989 
160.232 142.977 173.51 179.322 175.565 151.575 114.03 168.178 176.046 178.338 70.5786 155.849 1.98305 58.9801 149.014 -2.09751 111.298 101.376 -60.3892 141.918 119.204 -53.6739 138.091 142.564 -20.1068 82.4811 204.679 -27.1825 12.4537 12.2919 69.6953 
159.949 145.14 173.516 179.346 175.498 153.016 117.249 168.228 176.32 178.318 69.8342 155.888 1.54856 58.0596 147.617 -2.34762 110.339 101.151 -61.0323 141.508 119.098 -53.9117 135.214 141.986 -19.7401 82.5107 204.735 -27.1496 13.4848 12.8195 69.0139 
159.669 147.455 173.485 179.437 175.589 154.617 120.526 168.302 176.81 178.365 69.415 155.911 0.955764 57.3165 146.012 -2.86408 109.504 101.168 -62.2314 141.421 119.229 -54.4987 133.314 140.715 -19.4513 82.5418 204.744 -27.1574 14.6194 13.4338 68.4357 
160.033 149.939 173.546 179.408 175.853 154.464 121.25 168.281 176.669 178.543 69.8555 155.77 1.25355 57.6563 145.108 -2.50107 110.309 100.901 -61.3899 141.985 119.357 -53.8849 133.738 140.314 -18.1865 82.5668 204.719 -27.0705 15.6434 13.1668 67.5263 
160.383 152.287 173.486 179.315 176.026 154.078 121.412 168.1 176.295 178.691 70.1304 155.624 1.47599 57.62 144.736 -2.22473 111.032 101.056 -60.9884 142.45 119.596 -53.6401 134.691 140.149 -16.9381 82.6112 204.783 -26.9813 16.3855 12.9048 67.2669 
160.494 153.979 173.387 179.262 176.111 153.519 120.962 167.934 175.945 178.774 70.4336 155.518 1.29093 57.5469 144.743 -2.26362 111.817 101.298 -60.9519 142.844 119.624 -53.547 135.468 140.228 -16.2233 82.707 204.825 -26.9967 16.7191 12.5291 67.3843 
160.606 153.732 173.362 179.229 176.051 154.616 121.088 168.071 176.16 178.712 69.8657 155.474 0.891097 57.3216 145.009 -2.53868 111.192 101.164 -61.5706 142.437 119.341 -53.5438 134.273 139.537 -15.898 82.7836 204.822 -27.0092 16.9235 12.7874 67.7446 
160.663 154.741 173.394 179.183 176.126 154.2 120.734 167.983 176.054 178.792 70.0708 155.493 0.902128 57.2992 145.317 -2.30975 111.716 101.175 -61.2632 142.898 119.385 -52.9682 134.697 139.523 -15.0303 82.9423 204.928 -26.9674 17.2758 12.6341 67.9098 
160.265 152.881 173.447 179.159 176.071 154.76 119.584 168.164 176.211 178.744 69.923 155.631 0.539762 57.3039 146.615 -2.3386 111.299 101.009 -61.7738 142.529 118.952 -52.8828 133.599 138.903 -14.7322 83.1368 204.884 -26.9838 17.4072 12.7513 69.0859 
159.745 153.15 173.533 179.166 175.987 155.217 119.129 168.372 176.465 178.679 69.9926 155.767 0.196569 57.1562 147.298 -2.49224 110.913 100.928 -62.1828 142.274 118.583 -52.7349 132.611 138.307 -14.4367 83.3787 204.771 -27.0106 17.6126 12.9039 69.8563 
159.145 153.04 173.63 179.234 175.918 155.427 118.831 168.528 176.64 178.635 70.2956 156.11 0.408665 57.0784 148.099 -2.36859 110.481 100.799 -62.326 141.759 118.133 -52.5016 131.492 137.783 -14.1435 83.7081 204.744 -27.0159 17.8358 12.8906 70.5956 
158.635 153.386 173.674 179.281 175.92 155.542 118.589 168.588 176.704 178.638 70.5792 156.36 0.541289 56.9713 148.701 -2.46998 110.151 100.772 -62.4962 141.194 117.62 -52.2288 130.593 137.105 -13.9403 84.0799 204.716 -27.0253 17.8704 12.7305 71.1194 
158.328 152.416 173.916 179.254 176.098 154.241 116.987 168.766 176.599 178.811 71.7813 156.79 1.27342 57.746 149.781 -2.42281 110.939 100.662 -61.5475 141.232 117.347 -51.1268 130.59 137.018 -13.1267 84.486 204.895 -27.0653 18.0622 12.0562 71.1232 
158.167 150.874 174.096 179.265 176.256 152.679 115.056 168.795 176.326 179.006 72.8785 157.216 1.5767 58.6378 150.922 -2.69671 111.935 100.703 -60.8666 141.275 117.003 -50.1282 129.935 136.826 -12.4093 84.9256 205.056 -27.1414 18.5008 11.2326 71.2246 
158.07 148.046 174.302 179.446 176.334 151.45 112.851 168.932 176.485 179.117 73.9789 157.688 2.07603 60.0229 152.142 -2.79963 112.985 100.914 -60.0477 141.781 117.135 -49.1224 129.476 136.951 -11.6285 85.4293 205.293 -27.1188 19.2454 10.7238 71.3059 
157.939 144.883 174.518 179.662 176.332 150.305 110.611 169.059 176.657 179.148 75.0352 158.14 2.38787 61.4758 153.365 -3.08747 114.027 101.266 -59.3288 142.215 117.335 -48.2705 128.667 137.164 -11.0666 85.8952 205.5 -27.1493 20.1067 10.2245 71.4004 
158.178 141.745 174.777 179.745 176.146 149.641 107.996 169.138 176.784 179.003 75.5897 158.244 2.12167 63.3806 154.617 -3.29525 115.527 101.954 -58.7234 143.253 118.124 -47.7239 128.742 138.201 -10.7859 86.5152 205.766 -27.1247 20.9566 9.87885 71.6597 
158.402 139.464 174.919 179.892 176.006 148.974 105.85 169.148 176.876 178.883 76.0272 158.267 1.95585 64.8201 155.57 -3.66599 116.731 102.611 -58.4607 144.134 118.608 -47.3315 128.458 138.797 -10.6719 87.0788 205.947 -27.0583 21.7336 9.61123 71.9424 
158.799 138.162 174.997 179.999 175.936 148.425 104.422 169.087 176.868 178.796 76.1347 158.057 1.36153 65.7355 155.818 -4.4483 117.521 103.067 -58.4391 144.742 118.767 -47.1064 128.038 138.659 -10.5448 87.6186 205.91 -27.0769 22.4425 9.47383 71.8409 
158.885 135.069 174.956 179.998 175.881 147.574 102.153 169.113 176.731 178.754 76.4402 158.339 0.619459 66.2341 157.211 -5.69335 118.22 103.658 -58.735 144.873 118.662 -46.8954 127.219 138.488 -10.8422 88.2104 206.149 -27.096 22.6419 9.07697 72.46 
159.009 133.651 174.861 179.962 175.706 146.911 100.368 169.129 176.776 178.624 76.6776 158.714 0.219279 66.7794 158.41 -6.40334 118.968 104.353 -58.7423 145.214 119.004 -46.684 126.664 138.811 -11.1381 88.7749 206.48 -27.0199 23.026 8.8433 73.0067 
158.751 133.403 174.679 179.817 177.563 146.196 98.4829 169.188 176.896 179.345 77.0789 159.263 -0.118068 67.1784 159.753 -7.05782 119.82 104.916 -58.6672 145.505 118.937 -46.1105 124.757 138.759 -10.1939 89.3069 206.752 -26.9338 24.7064 8.43986 73.7863 
158.751 132.238 174.5 179.799 177.903 145.645 96.5211 169.242 176.989 176.992 77.3516 159.668 -0.28512 67.6955 160.862 -7.63121 120.537 105.234 -58.236 145.859 118.829 -45.5208 121.871 138.536 -8.14253 89.7744 206.928 -26.773 27.6965 8.18696 74.2637 
158.451 131.259 174.479 179.744 178.3 144.984 94.8368 169.416 177.158 172.919 77.529 160.158 -0.313924 67.9995 161.699 -8.23404 121.085 105.297 -57.7011 145.954 118.335 -44.5468 117.273 138.586 -5.06553 90.1147 206.951 -26.6182 32.0161 7.84755 74.5721 
158.35 129.709 174.412 179.709 178.544 144.861 93.4762 169.611 177.456 169.597 77.735 160.356 -0.151514 68.6291 162.08 -8.46515 121.691 105.373 -56.766 146.342 118.114 -43.4273 114.055 139.328 -1.89589 90.3583 206.924 -26.3831 35.764 7.65282 74.3748 
157.939 128.153 174.419 179.603 178.703 144.84 92.8825 169.858 177.758 166.866 77.8166 160.371 -0.101691 69.0832 161.723 -8.81111 122.222 105.277 -56.0027 146.523 117.705 -42.2412 111.587 140.014 0.964127 90.5587 206.738 -26.1267 38.6642 7.39131 73.6786 
157.557 128.95 175.165 179.727 178.453 146.522 94.2167 170.454 177.608 164.759 77.4755 160.386 -0.498179 67.5294 161.336 -9.53922 121.936 104.389 -56.3276 145.56 117.02 -41.9679 109.536 140.067 1.39401 90.8227 206.376 -26.0968 39.5741 7.42182 74.2098 
157.446 132.07 175.018 179.745 178.416 146.795 95.562 170.383 178.122 163.118 77.7173 160.147 0.194074 67.4487 160.692 -8.20293 121.852 104.083 -55.5307 146.17 116.981 -40.9085 109.603 140.65 3.2855 90.8633 206.088 -25.7755 40.6881 7.84216 74.1735 
157.19 134.569 175.009 179.743 178.367 146.73 95.4863 170.305 178.459 163.085 77.9498 159.636 0.826811 67.749 160.151 -7.1725 122.137 103.802 -54.9118 146.747 116.804 -40.1129 110.693 140.459 4.36937 90.8159 205.526 -25.4229 40.6495 7.95945 74.3959 
156.555 137.901 174.872 179.847 178.352 147.002 95.7022 170.005 178.615 162.351 78.4359 158.994 1.67387 68.3459 159.552 -5.84063 122.522 103.991 -54.5204 147.671 117.537 -40.1268 112.8 140.669 5.24413 90.7717 205.136 -25.056 40.4969 8.31985 74.6316 
155.151 140.892 174.651 179.783 177.915 147.064 95.9321 169.612 178.693 163.073 78.9656 158.463 2.32824 68.5258 159.291 -4.59317 122.85 104.152 -54.2233 148.399 118.193 -39.9505 115.421 140.905 4.86052 90.7487 204.754 -24.666 39.191 8.64739 75.3092 
154.258 143.302 174.574 179.586 177.59 147.172 96.6026 169.191 178.683 165.106 79.09 158.008 3.01508 68.7264 159.189 -3.18435 122.991 104.454 -53.8957 149.132 119.14 -40.0096 118.73 140.79 3.74661 90.8781 204.563 -24.2839 37.0366 9.14101 76.0025 
153.005 145.39 174.474 179.325 177.37 147.115 97.3113 168.892 178.736 168.263 78.9611 157.862 3.22099 68.3621 159.265 -2.37838 122.98 104.776 -53.8293 149.425 119.851 -40.0146 121.57 140.309 2.32764 91.0042 204.521 -23.9965 34.5262 9.48776 76.6802 
152.222 146.995 174.227 178.944 177.341 147.229 98.5277 168.55 178.778 170.427 78.8388 157.854 3.62267 67.9972 159.212 -1.43484 122.923 104.957 -53.3801 149.751 120.435 -39.7829 123.538 140.114 1.38905 91.2138 204.686 -23.6777 32.7987 9.83184 76.8216 
154.392 149.431 173.87 179.57 177.205 148.198 102.117 168.086 178.092 171.43 78.1995 157.711 3.36838 65.6769 158.911 -0.922095 121.683 103.72 -53.4117 148.564 119.359 -39.2184 121.736 139.15 0.302391 91.5925 204.541 -23.4888 31.9806 10.2094 77.3424 
154.74 150.621 173.685 179.702 176.964 148.012 103.237 168.074 178.154 173.467 78.2353 157.508 3.40976 65.1243 158.627 -0.492916 122.039 103.568 -53.0473 149.023 119.107 -38.184 121.929 139.331 0.0838368 91.893 204.508 -23.2236 31.5936 10.2353 77.3496 
155.254 152.82 173.685 179.899 176.508 148.829 106.958 168.181 178.149 173.411 77.9639 157.328 2.98806 63.3979 157.357 -0.235525 121.873 102.797 -53.0846 148.896 118.509 -37.6982 120.648 139.587 0.109043 92.2818 204.397 -22.9379 32.0011 10.5263 76.9234 
155.208 154.094 173.773 179.956 175.866 149.365 109.091 168.465 178.199 173.606 78.3896 157.471 2.93774 62.635 156.808 -0.206107 122.248 102.421 -53.1565 148.989 118.158 -37.1363 119.916 140.185 0.0914357 92.7233 204.353 -22.6949 32.1976 10.5893 76.9329 
155.207 154.884 173.963 179.955 175.103 149.839 110.62 168.767 178.209 173.044 78.9045 157.385 3.25205 62.2312 156.306 0.288013 122.755 101.923 -52.9209 149.339 117.692 -36.4935 119.566 140.732 0.427248 93.0863 204.098 -22.3977 32.4908 10.6448 77.1726 
155.342 155.075 174.257 179.708 174.27 150.246 111.679 169.164 178.266 171.838 79.4337 157.422 3.68109 62.2657 155.789 0.620317 123.608 102.103 -52.7898 150.196 118.158 -36.0433 120.296 141.691 1.21893 93.4457 204.169 -22.0433 32.6967 10.8192 77.209 
155.521 155.367 174.663 179.614 174.27 150.654 112.387 169.575 178.322 171.879 79.7348 157.599 4.28667 62.1209 155.644 1.23251 124.176 102.265 -52.3493 150.571 118.352 -35.5595 121.304 142.115 1.64915 93.7251 204.244 -21.6833 32.1573 10.7373 77.4902 
155.905 155.184 174.712 179.346 174.27 151.117 112.866 169.677 178.25 171.886 79.6784 157.724 4.54659 62.0373 155.549 1.6427 124.643 102.67 -51.8754 151.007 118.837 -35.1321 122.638 142.688 2.05737 93.9481 204.48 -21.3008 31.4081 10.7706 77.5257 
156.001 155.084 174.606 179.093 174.27 151.233 113.109 169.522 178.078 172.784 79.7166 157.907 4.57917 62.0731 155.548 1.7501 125.059 103.142 -51.4949 151.332 119.223 -34.6338 123.822 142.646 2.10396 94.1306 204.675 -20.9937 30.3454 10.7793 77.4974 
156.143 155.008 174.168 178.836 174.744 151.313 112.989 169.166 177.88 174.702 79.7965 157.973 4.62372 62.0884 155.555 1.67726 125.29 103.638 -51.2443 151.651 119.701 -34.3593 124.814 142.002 1.70002 94.1791 204.799 -20.7306 29.2264 10.9267 77.4813 
156.093 155.319 173.448 178.478 175.245 151.196 113.386 168.663 177.239 173.696 79.8201 158.315 4.81141 61.6402 155.377 1.7544 124.985 103.812 -50.9136 151.133 119.33 -33.3531 123.382 141.061 1.98616 94.0902 204.836 -20.204 29.2811 10.8383 77.3389 
156.218 155.534 173.136 178.376 175.49 151.133 113.124 168.194 176.766 172.454 79.3343 158.424 4.7975 61.3769 155.765 1.78763 124.506 103.638 -50.8303 150.359 118.417 -32.9026 121.243 140.349 2.20185 93.9301 204.772 -20.0546 30.0338 10.5743 77.6257 
156.502 155.832 172.977 178.257 175.808 151.192 112.995 167.871 176.57 171.655 78.8976 158.475 4.83275 61.1769 156.13 2.01272 124.163 103.67 -50.782 150.052 118.134 -32.7129 120.151 139.905 2.67823 93.8232 204.862 -19.8694 30.6032 10.5537 77.8976 
156.657 156.067 173.059 178.18 176.2 151.14 113.054 167.699 176.363 170.911 78.5649 158.685 4.79429 61.1585 156.446 2.21466 124.01 103.84 -50.8338 149.809 117.877 -32.5424 118.931 139.513 3.06791 93.7519 205.064 -19.7246 31.232 10.4371 78.0657 
156.877 156.098 173.276 178.154 176.511 151.068 112.827 167.648 176.293 171.093 78.1682 158.884 4.73918 61.2909 157.018 2.50246 123.83 103.944 -50.8934 149.556 117.648 -32.4843 118.503 139.174 3.26485 93.6521 205.284 -19.5992 31.2111 10.3136 78.3836 
156.776 156.177 173.496 178.125 176.74 150.81 112.503 167.749 176.125 171.02 77.9952 159.217 4.58059 61.4832 157.663 2.615 123.826 104.058 -51.2025 149.165 117.354 -32.4975 117.805 138.931 3.29338 93.5659 205.5 -19.517 31.2609 10.0091 78.8335 
156.669 156.246 173.703 178.12 176.996 150.537 112.182 167.869 176.007 171.301 77.7538 159.479 4.30791 61.4838 158.265 2.50142 123.686 104.147 -51.5154 148.776 117.098 -32.6568 117.275 138.442 3.17136 93.4655 205.642 -19.5107 31.1678 9.81852 79.2233 
156.941 156.467 173.941 178.074 177.041 150.712 112.189 167.918 175.893 171.259 77.2174 159.497 4.14433 61.3048 158.764 2.85731 123.351 104.211 -51.4625 148.501 117.052 -32.7993 117.124 138.535 3.33211 93.3568 205.844 -19.4247 31.1934 9.76381 79.4737 
156.896 156.577 174.065 178.047 177.105 150.56 112.058 167.951 175.687 170.498 76.9053 159.551 3.80921 60.9363 159.041 2.53307 123.061 104.126 -51.7123 147.892 116.611 -32.8924 115.734 138.321 3.44265 93.2031 205.832 -19.4449 31.7925 9.5513 79.6522 
156.881 156.731 174.188 177.955 176.99 150.39 111.752 167.989 175.449 169.48 76.7058 159.47 3.80434 60.7284 159.503 2.64703 122.864 103.902 -51.8284 147.362 116.129 -33.096 115.024 138.443 3.63829 93.0645 205.714 -19.4318 32.1189 9.2644 80.161 
156.955 156.989 174.459 177.943 177.045 150.378 111.895 168.111 175.323 169.16 76.5378 159.357 3.95155 60.4635 159.771 2.95466 122.639 103.739 -51.8513 146.863 115.811 -33.2599 114.565 138.364 3.65683 92.9013 205.652 -19.4408 32.1829 9.01356 80.482 
157.073 157.199 174.538 177.94 176.894 150.473 111.896 168.162 175.27 169.224 76.2398 159.187 4.16857 60.2862 160.011 3.26302 122.267 103.586 -51.8713 146.466 115.682 -33.5759 114.956 138.558 3.49539 92.7548 205.62 -19.4304 31.7523 8.9198 80.7136 
156.956 157.386 174.583 177.958 176.835 150.438 111.588 168.128 175.165 169.868 75.8908 159.158 4.25657 60.0495 160.525 3.23738 121.873 103.485 -52.0667 145.823 115.421 -33.976 115.158 138.49 2.90286 92.5866 205.618 -19.5114 31.0318 8.69965 81.1056 
157.063 157.837 174.562 177.895 176.811 150.533 111.725 168.011 175.073 170.568 75.5099 159.104 4.32877 59.8001 160.854 3.59374 121.44 103.504 -52.0098 145.48 115.433 -34.289 115.675 138.547 2.51338 92.4562 205.697 -19.5524 30.4297 8.67041 81.3001 
157.134 158.418 174.305 177.895 176.745 150.575 111.786 167.725 174.975 170.5 75.0179 159.151 4.2686 59.4543 161.456 3.79445 120.899 103.491 -51.8505 144.904 115.263 -34.2608 114.902 138.855 2.29895 92.3475 205.852 -19.6006 30.6307 8.58521 81.54 
157.228 158.681 173.894 177.934 176.504 150.582 111.848 167.451 175.034 169.629 74.5723 159.186 4.44281 59.1812 161.489 3.95541 120.096 103.327 -51.6388 144.403 115.105 -34.1625 113.967 139.458 2.55685 92.1974 205.892 -19.6192 31.3426 8.71395 81.3248 
157.344 158.536 173.445 178.061 176.42 150.794 111.795 167.068 175.206 168.24 74.2142 158.645 4.94013 58.9482 160.426 4.19338 118.758 102.811 -51.4492 143.975 114.875 -34.5092 112.311 139.764 2.70786 91.4909 205.463 -19.7286 32.8758 9.15979 80.5039 
157.45 158.425 173.213 178.063 175.992 151.153 111.412 166.836 175.524 167.373 74.3078 158.03 5.42835 59.422 159.939 5.18417 118.286 102.808 -51.1477 144.577 115.827 -34.779 114.291 140.517 3.29942 91.1895 205.197 -19.7216 32.72 9.82287 80.4644 
157.541 158.331 173.077 178.294 175.6 151.342 110.916 166.64 176.01 167.973 74.0998 157.57 5.61006 59.5082 159.444 5.72691 117.737 102.788 -50.9625 144.961 116.548 -35.1689 116.187 140.935 3.19711 90.698 204.917 -19.8224 32.0667 10.412 80.3879 
157.539 157.675 173.081 178.488 175.149 151.59 110.482 166.542 176.443 168.05 73.8385 157.215 5.76494 59.6331 158.843 6.11275 117.227 102.985 -50.8893 145.371 117.57 -35.7862 118.027 141.642 2.82147 90.1597 204.799 -19.8932 31.4447 11.0349 80.0729 
158.008 156.077 173.264 178.746 174.772 151.094 108.451 166.958 176.812 168.395 74.2347 156.912 6.23546 60.9357 158.398 6.30938 117.534 103.124 -49.7891 146.303 119.006 -36.1467 120.862 142.94 2.8872 89.3661 204.794 -20.1358 31.0168 11.3269 78.7824 
157.822 154.625 173.257 178.94 174.659 150.261 106.743 167.044 177.102 168.095 73.958 156.905 6.26698 61.5447 158.229 5.98472 117.352 103.543 -49.3896 146.598 120.019 -36.6824 122.736 143.73 2.65323 88.6261 204.957 -20.3526 30.4194 11.5426 77.747 
157.2 152.984 173.239 179.201 174.27 149.579 105.339 167.139 177.338 166.124 73.1987 157.061 6.15123 61.6017 158.15 5.38174 116.956 103.819 -49.1592 146.512 120.537 -37.3462 123.605 145.098 2.64959 87.9144 205.21 -20.6302 30.4569 11.6225 76.7828 
155.596 151.392 173.163 179.451 174.27 149.035 103.89 167.235 177.521 164.21 72.6197 157.139 6.33989 61.7342 158.124 4.87718 116.789 104 -49.308 146.475 120.782 -38.1155 124.218 146.369 2.59549 87.2314 205.361 -20.8291 30.5542 11.5576 76.2424 
154.005 149.532 173.147 179.724 174.27 148.475 102.785 167.417 177.892 158.892 72.3567 157.026 6.61908 61.9012 157.57 4.17033 117.008 104.078 -49.5478 146.809 121.148 -39.029 123.683 148.644 3.70853 86.667 205.324 -21.0733 32.7411 11.5957 75.5226 
152.308 147.334 173.301 179.91 174.27 148.127 102.071 167.734 178.302 156.488 72.1344 157.003 6.97028 61.898 156.809 3.1988 117.191 104.083 -49.8203 146.848 121.275 -39.8191 123.083 150.164 4.35789 86.2518 205.321 -21.331 34.337 11.4716 74.5189 
150.838 145.51 173.432 179.677 174.27 147.724 101.669 167.991 178.375 154.599 72.0106 157.016 7.13816 61.8168 156.216 2.29792 117.106 103.887 -50.2134 146.412 120.918 -40.5604 121.785 151.169 4.91232 85.8819 205.223 -21.6918 36.0159 11.1573 73.7207 
149.951 144.075 173.608 179.597 174.27 147.35 101.532 168.28 178.353 153.004 71.6043 157.155 7.11481 61.6502 155.84 1.41751 116.85 103.613 -50.7368 145.846 120.449 -41.0908 120.871 151.311 4.88794 85.6376 205.253 -22.0303 36.5768 10.8468 73.0139 
149.628 143.432 173.743 179.693 174.27 147.048 101.88 168.478 178.229 152.193 71.2125 157.303 7.00227 61.0754 155.488 0.576193 116.515 103.243 -51.3535 145.226 119.847 -41.522 118.956 151.057 4.34259 85.4506 205.307 -22.403 37.2834 10.5617 72.5034 
149.954 143.966 173.823 179.859 174.27 146.838 102.585 168.563 178.047 154.748 70.8081 157.711 6.71647 60.3079 156.019 0.198664 115.719 103.088 -52.0663 144.329 119.49 -42.078 118.325 150.04 3.77986 85.2826 205.652 -22.7705 36.715 10.4609 72.7022 
150.499 144.426 173.918 179.961 174.27 146.804 102.91 168.56 177.927 156.709 70.3544 157.763 6.55822 59.7827 156.432 0.187831 115.145 102.963 -52.7612 143.92 119.405 -42.8073 118.079 149.315 3.48931 84.961 205.789 -22.9927 36.5007 10.5748 73.2009 
151.238 145.327 173.973 179.77 174.27 147.244 102.899 168.54 177.744 159.679 69.746 157.635 6.09827 59.6171 156.802 0.455611 114.93 102.997 -53.2911 143.799 119.707 -43.7215 118.829 148.349 2.93252 84.6151 205.96 -23.1528 35.7856 10.663 73.687 
152.328 146.611 174.026 179.62 174.27 147.416 103.259 168.548 177.533 160.953 69.1339 157.746 5.74374 59.1925 157.332 1.03127 114.579 103.164 -53.394 143.526 120.114 -44.3379 119.277 148.01 2.30612 84.2175 206.208 -23.2986 35.2484 10.7479 74.2292 
152.989 147.55 174.126 179.643 174.367 147.924 103.435 168.574 177.346 162.218 68.6026 157.523 5.40124 59.3344 157.51 1.75709 114.305 103.392 -53.4657 143.262 120.671 -44.959 120.194 147.139 1.47324 83.7424 206.245 -23.4284 34.2727 10.8246 74.5446 
153.919 146.887 174.099 179.646 174.471 148.34 103.545 168.593 177.195 162.165 68.1826 157.311 5.41721 59.4495 157.451 2.27643 113.77 103.598 -53.1078 142.738 121.267 -45.3857 120.723 147.281 0.779815 83.1334 206.216 -23.5307 33.7095 10.9945 74.4345 
154.607 146.622 173.947 179.654 175.022 148.603 104.12 168.57 176.981 161.063 67.623 157.451 5.52067 59.2787 157.649 2.67561 112.778 103.766 -52.9372 141.611 121.451 -45.5541 120.412 147.059 0.237054 82.5619 206.355 -23.7185 33.1159 10.9742 74.3285 
155.111 146.315 173.778 179.529 175.336 148.668 104.459 168.514 176.587 159.238 67.08 157.556 5.70203 58.8434 157.743 2.72428 111.919 103.824 -53.0759 140.457 121.432 -45.783 119.98 146.993 -0.461123 82.012 206.445 -23.9195 32.4301 10.8077 74.2891 
155.84 146.827 173.705 179.363 175.67 148.896 104.641 168.5 176.245 157.278 66.1857 157.51 5.59626 57.8119 158.116 2.55502 110.631 103.832 -53.2192 139.038 121.108 -45.9592 119.42 146.704 -1.21356 81.4074 206.506 -24.1319 31.4815 10.7115 74.4501 
155.706 147.228 173.529 179.168 176.083 149.061 104.873 168.519 175.992 156.392 65.5734 157.544 5.61037 56.8082 158.471 2.28392 109.527 103.814 -53.5044 137.789 120.843 -46.0976 119.015 146.232 -2.41434 80.8384 206.582 -24.38 30.1258 10.6052 74.6036 
155.168 147.539 173.508 179.192 175.811 149.194 104.711 168.681 176.03 154.83 65.3602 157.535 5.70658 56.0306 158.608 2.0019 108.906 103.526 -53.6959 137.052 120.481 -46.148 118.503 146.422 -3.34515 80.3183 206.493 -24.6636 29.4231 10.4789 74.7219 
154.949 147.701 173.508 179.185 175.775 149.278 104.33 168.774 176.094 155.042 65.0416 157.649 5.84894 55.4734 158.815 1.81802 108.131 103.094 -53.7328 136.346 120.011 -46.1864 118.481 146.408 -3.53507 79.8595 206.449 -24.9441 28.9446 10.4354 74.7265 
154.727 147.841 173.484 179.094 176.394 149.283 104.27 168.874 176.069 156.358 64.651 157.885 6.29636 54.8479 158.972 1.57659 107.168 102.658 -54.0146 135.345 119.471 -46.2613 118.09 145.801 -3.61906 79.3549 206.516 -25.2329 28.4693 10.2926 74.6165 
155.26 147.973 173.501 179.092 176.957 149.562 104.239 168.981 176.172 158.433 63.6205 158.181 6.61266 54.0083 159.294 1.307 105.879 102.394 -54.2956 134.258 119.162 -46.6653 117.922 145.07 -4.16914 78.8947 206.809 -25.464 27.6553 10.3829 74.4613 
155.756 148.13 173.553 179.074 177.043 149.468 103.901 169.078 176.227 161.635 63.4435 158.306 6.70306 53.301 159.016 0.719681 105.128 101.911 -54.8325 133.433 118.876 -47.3001 118.088 144.489 -4.90604 78.3682 206.894 -25.6664 26.7703 10.3466 74.0176 
