155.76 148.953 173.583 179.02 177.153 149.061 103.712 169.05 176.262 164.54 63.9168 158.655 7.0111 53.0237 158.776 0.613787 104.511 101.57 -55.4032 132.877 118.939 -48.2502 118.971 143.984 -6.25093 77.8004 206.901 -25.8313 25.5448 10.4551 73.8634 
156.319 149.423 173.736 179.046 177.154 149.211 103.691 169.11 176.512 166.988 64.0585 158.906 7.12588 53.0224 158.513 0.601847 104.112 101.473 -55.8767 132.762 119.449 -49.2539 120.11 144.023 -7.74655 77.3104 207.127 -25.9543 24.4368 10.7437 73.4926 
157.06 149.068 173.919 179.049 177.305 149.743 103.722 169.233 176.653 169.064 63.6136 159.171 7.4873 53.1209 158.33 0.628181 103.61 101.757 -56.1819 132.636 120.279 -50.0626 121.546 144.248 -9.24369 76.865 207.59 -26.0715 23.1667 11.0777 72.9136 
157.567 148.311 174.144 179.1 177.268 150.07 103.701 169.326 176.699 170.974 63.0836 159.593 7.70791 53.1567 158.201 0.472713 103.016 102.113 -56.5271 132.309 121.092 -50.9995 122.724 144.67 -10.8457 76.3935 208.067 -26.2167 21.9569 11.3926 72.2995 
157.822 147.647 174.29 179.021 177.265 150.218 104.118 169.357 176.518 171.957 62.5243 160.001 7.74164 52.7928 158.118 0.40224 102.486 102.467 -56.8569 131.815 121.614 -51.6618 123.018 144.902 -11.9751 75.9552 208.459 -26.3457 21.246 11.4875 71.9563 
158.024 147.345 174.28 178.654 177.343 150.216 104.364 169.396 176.115 172.534 61.9835 160.195 7.33737 52.1031 157.877 -0.100431 102.026 102.617 -57.629 131.145 121.727 -52.5093 122.258 144.672 -12.9195 75.3924 208.692 -26.5577 21.0286 11.3792 71.7094 
158.101 147.342 174.161 178.247 177.269 150.223 104.471 169.412 175.683 173.132 61.6655 160.219 6.86981 51.6697 157.465 -0.53127 101.914 102.814 -58.4692 130.847 121.989 -53.4804 122.243 144.865 -13.7985 74.8773 208.782 -26.7145 20.7682 11.3276 71.5771 
158.155 146.551 174.06 177.82 177.169 150.585 104.474 169.465 175.359 173.155 61.1772 159.978 6.29037 51.3806 156.89 -1.01646 101.872 103.105 -59.1403 130.716 122.382 -54.4509 122.074 145.167 -14.3475 74.3518 208.764 -26.8442 20.9547 11.3966 71.3197 
158.45 145.14 174.011 177.422 177.103 151.363 104.295 169.599 175.209 172.239 60.1686 159.494 5.75488 51.09 156.388 -1.6043 101.574 103.347 -59.6027 130.367 122.668 -55.2021 121.563 145.447 -14.5159 73.8516 208.76 -26.9721 21.4094 11.474 70.889 
159.218 144.007 174.106 177.579 176.709 153.237 107.938 169.906 175.759 172.505 59.4454 159.328 5.09663 49.49 154.306 -2.1926 100.701 103.451 -60.5301 130.102 123.083 -56.0511 121.695 146.081 -15.5142 73.5057 208.852 -27.112 20.5892 12.1277 69.721 
159.695 142.7 174.244 177.638 176.458 154.7 109.811 170.156 176.388 172.47 58.8836 159.373 4.90394 48.478 153.206 -2.54317 99.6939 103.348 -61.1491 129.57 123.369 -56.7462 121.315 146.414 -15.9739 73.0846 208.875 -27.1997 20.36 12.6844 69.1638 
159.916 141.474 174.29 177.459 176.409 155.978 111.163 170.307 176.84 172.468 58.0012 159.442 4.58557 47.6618 152.575 -2.84605 98.7619 103.33 -61.7816 128.658 123.612 -57.6831 121.208 146.616 -16.4757 72.726 208.993 -27.2312 20.0319 12.9884 68.8679 
160.026 141.009 174.297 177.265 176.389 156.887 112.016 170.422 177.306 172.89 57.5178 159.873 4.31522 47.1169 152.321 -3.04062 98.0711 103.471 -62.2473 127.227 124.106 -59.4809 121.621 147 -17.1586 72.4341 209.247 -27.3292 19.9236 13.2114 68.6744 
160.275 140.867 174.246 177.925 176.409 157.678 112.168 170.473 178.849 173.158 57.1838 160.403 4.22278 46.9411 152.55 -2.9989 97.5048 103.634 -62.6864 126.519 124.492 -59.9624 122.165 147.501 -17.8212 72.1763 209.595 -27.3996 19.3761 13.1922 68.7488 
161.216 140.385 174.038 178.844 176.646 159.35 112.087 170.353 179.364 174.381 55.7396 160.637 3.33408 46.008 153.114 -3.89283 95.8995 104.14 -63.6847 125.297 125.31 -61.137 122.989 147.879 -19.7276 71.4822 210.196 -27.7641 18.0501 13.5596 68.6252 
161.824 141.023 173.985 177.155 177.221 159.161 111.149 170.278 177.136 174.957 55.41 161.08 3.64691 46.4019 154.44 -3.56388 95.7935 104.858 -62.878 125.934 125.494 -60.7119 124.305 147.892 -21.2716 71.2786 210.988 -28.0156 16.7425 13.498 68.3174 
162.211 141.034 173.956 177.296 177.578 158.55 110.027 170.352 176.829 172.692 54.6142 161.875 3.28843 45.9709 156.033 -3.7431 95.5047 105.741 -62.2963 126.059 125.953 -60.3875 123.947 148.078 -21.1947 70.9203 211.885 -28.3562 17.1293 13.4646 68.21 
162.134 141.077 173.878 177.436 177.742 157.782 108.447 170.345 176.771 170.909 53.9611 162.528 2.39822 45.3124 157.648 -4.36467 94.904 106.441 -61.9015 125.656 126.375 -60.2719 122.994 148.203 -21.6982 70.5047 212.536 -28.7638 17.1416 13.512 68.2304 
161.82 141.678 173.627 177.598 177.78 157.017 106.321 170.147 176.638 170.101 53.0163 162.94 0.938713 44.1358 159.558 -5.66038 94.1307 107.164 -61.8618 124.784 126.615 -59.9029 121.628 148.19 -22.7262 69.9978 213.123 -29.1816 16.3227 13.3518 68.5553 
161.429 143.152 173.295 177.804 177.798 156.267 104.049 169.91 176.572 170.513 52.0632 163.277 -0.530321 42.8649 161.37 -6.81447 93.3357 107.645 -61.8783 123.677 126.662 -60.0157 121.251 148.15 -24.4415 69.4071 213.466 -29.61 14.8055 13.2414 69.196 
161.068 144.507 173.084 177.842 177.794 155.783 102.79 169.768 176.344 171.938 50.8088 163.685 -1.69133 41.1742 162.811 -7.7504 92.182 107.822 -62.0017 122.161 126.237 -60.1968 121.368 148.036 -26.3843 68.8031 213.805 -29.9156 12.6692 13.057 69.7194 
160.44 145.214 172.911 177.766 177.568 155.169 101.509 169.601 176.023 174.325 49.6911 163.768 -3.12294 39.6638 163.749 -8.9598 90.9798 107.491 -62.1853 120.474 125.164 -60.1843 121.797 147.769 -28.4689 68.2369 213.644 -30.3372 10.1042 12.7223 70.1276 
159.875 146.295 172.697 177.557 177.207 154.589 100.632 169.359 175.71 178.345 48.5047 164.092 -4.39956 38.5691 164.825 -9.62063 89.7658 107.551 -62.4551 119.058 124.618 -60.4213 123.636 148.162 -31.4288 67.7518 213.653 -30.7258 7.02406 12.6132 70.7867 
159.466 148.39 172.465 177.413 174.604 154.27 98.9974 169.126 175.489 177.836 47.3226 164.398 -5.60576 37.8977 166.62 -9.85978 88.8848 107.798 -62.8825 118.025 124.41 -60.8561 126.655 149.01 -33.3478 67.3835 213.798 -31.0905 6.34307 12.5093 72.2419 
159.031 149.801 172.228 177.181 174.607 154.021 97.8697 168.919 175.207 177.841 46.1702 164.559 -6.49364 37.1884 167.692 -10.0238 87.8799 107.676 -63.2824 116.787 123.905 -61.2436 126.683 148.681 -33.5497 66.8252 213.748 -31.3773 6.91865 12.3211 73.2348 
159.108 150.329 171.994 177.011 174.614 154.001 97.4816 168.753 175.078 177.845 44.6499 164.302 -6.56552 36.7625 167.786 -9.44066 86.8176 107.143 -63.1559 115.778 123.36 -61.7598 126.557 148.367 -34.1614 66.2073 213.438 -31.4887 7.23795 12.4388 73.6072 
159.449 149.946 171.809 176.888 174.603 154.184 97.7897 168.627 175.002 177.841 43.0928 163.769 -6.21178 36.7145 166.906 -8.54084 85.7728 106.491 -62.8524 114.912 122.938 -62.2387 125.757 148.176 -35.379 65.5394 212.994 -31.5358 6.82099 12.6222 73.202 
160.28 148.691 171.646 176.756 174.502 154.694 98.9452 168.495 174.914 177.801 41.2546 163.124 -5.99391 36.5819 165.321 -7.86468 84.6131 105.855 -62.3633 113.999 122.49 -62.4569 124.912 147.998 -36.6138 64.9021 212.521 -31.5565 6.25022 12.8658 71.9785 
160.7 147.182 171.47 176.693 174.359 154.855 99.6966 168.376 174.922 177.744 39.8717 162.685 -5.94382 36.259 164.075 -7.79601 83.4746 105.517 -62.1904 113.188 122.33 -62.7584 124.828 148.075 -37.1206 64.3122 212.177 -31.6865 6.54882 13.1761 70.9127 
161.025 145.789 171.204 176.536 174.27 154.894 100.493 168.117 174.875 177.708 38.6971 162.161 -5.8575 35.9449 163.012 -7.61879 82.3434 105.346 -62.13 112.428 122.395 -63.0658 125.061 148.119 -37.6713 63.7711 211.752 -31.7421 7.01305 13.5551 70.2442 
161.157 146.29 170.815 176.22 175.507 154.505 100.715 167.736 174.672 178.202 36.9408 161.58 -5.89087 34.6917 162.762 -7.41817 80.4168 105.122 -62.8561 110.696 122.351 -63.7025 124.506 148.286 -40.0421 62.5821 211.138 -32.0577 6.97543 13.7772 70.8382 
161.188 146.625 170.762 176.143 178.045 154.374 101.342 167.741 174.659 179.217 36.7688 161.5 -5.61033 34.1363 162.478 -7.5402 79.7865 105.476 -63.3246 110.135 122.774 -63.6432 124.326 148.701 -40.51 62.3206 211.202 -32.1187 7.08191 13.7151 70.6823 
161.234 146.955 170.749 176.001 178.067 154.332 101.945 167.738 174.569 179.226 36.3134 161.532 -5.55033 33.3432 162.521 -7.70739 78.9849 105.88 -63.9115 109.452 123.172 -63.6901 124.067 149.037 -40.9556 61.8508 211.432 -32.2213 7.26141 13.648 70.6835 
161.231 146.521 170.709 175.853 176.957 154.429 102.796 167.651 174.515 178.782 35.5501 161.732 -5.46144 32.5038 162.287 -7.88838 78.106 106.164 -64.2662 108.921 123.473 -63.7234 123.933 149.246 -40.9625 61.3958 211.659 -32.2618 7.55835 13.7812 70.3844 
161.327 146.173 170.683 175.765 175.783 154.677 103.234 167.596 174.532 178.312 34.7721 161.765 -5.75862 31.7297 161.989 -8.32613 77.6108 106.347 -64.7541 108.684 123.718 -63.862 123.682 149.315 -40.6925 60.9097 211.833 -32.3156 7.68044 13.9009 70.1128 
161.715 146.496 170.725 175.685 175.148 154.991 103.616 167.622 174.45 177.67 34.022 161.593 -6.05962 31.1837 161.79 -8.61701 77.6199 106.506 -65.3842 108.598 123.837 -63.7736 123.351 149.271 -40.3481 60.4177 211.903 -32.3634 7.62577 13.6975 70.2385 
162.138 147.136 170.82 175.645 174.266 155.251 103.601 167.771 174.389 177.165 33.2706 161.614 -6.41113 30.5864 162.08 -8.87233 77.6523 106.641 -65.795 108.314 123.885 -63.4497 122.666 149.267 -39.8016 59.928 212.065 -32.4882 7.47616 13.3589 70.5998 
162.472 147.672 170.892 175.547 173.747 155.367 103.632 167.856 174.259 176.855 32.8502 161.63 -6.87482 29.6766 162.293 -9.35283 77.3859 106.707 -66.4736 107.807 123.839 -63.4082 121.793 148.896 -39.4569 59.3714 212.092 -32.5977 7.30291 13.1179 70.975 
162.751 147.864 171.004 175.481 173.276 155.424 103.624 167.987 174.157 176.556 32.5337 161.538 -7.02528 28.8528 162.361 -9.63961 77.0523 106.557 -66.7782 107.153 123.637 -63.2802 120.541 148.444 -39.2359 58.7376 211.991 -32.6839 6.88778 12.8732 71.2155 
162.933 148.496 171.075 175.445 172.921 155.654 103.493 168.057 174.045 176.033 31.9273 161.638 -6.7251 28.3064 162.79 -9.39909 76.6762 106.674 -66.7835 106.513 123.696 -63.1898 119.148 148.425 -39.0737 58.0794 212.134 -32.7413 6.35612 12.644 71.6409 
163.126 149.08 171.176 175.431 172.899 155.897 103.269 168.213 173.999 175.726 31.1292 161.856 -6.5469 27.8701 163.332 -9.03277 76.5244 106.731 -66.7925 106.05 123.693 -63.1676 117.461 148.486 -38.8295 57.4584 212.364 -32.813 5.61431 12.3593 72.1219 
163.288 149.49 171.288 175.444 172.997 156.072 102.825 168.376 173.95 175.686 30.832 162.082 -6.76399 27.7395 163.723 -9.08029 76.5905 106.917 -66.9084 105.629 123.76 -63.1337 115.971 148.58 -38.4405 56.9472 212.528 -33.0267 5.14034 11.9827 72.3991 
163.637 149.544 171.319 175.379 172.939 156.221 102.014 168.481 173.888 175.901 30.3775 162.063 -7.0452 27.5669 163.958 -9.17797 76.4604 106.811 -67.1632 105.081 123.543 -63.3265 114.549 148.327 -38.0767 56.3911 212.489 -33.1675 4.96589 11.6342 72.6866 
163.651 149.71 171.371 175.3 172.875 156.093 101.286 168.517 173.784 176.006 30.5673 162.116 -7.33992 27.4623 164.355 -9.25301 76.1198 106.705 -67.3923 104.428 123.422 -63.6196 113.365 148.09 -37.8828 55.8282 212.373 -33.4142 5.04994 11.4262 73.1479 
163.919 149.598 171.404 175.095 175.251 156.337 100.882 168.554 173.665 177.466 29.8421 162.02 -6.97448 27.2817 164.476 -8.85678 75.2915 106.304 -67.22 103.558 122.981 -63.5571 112.462 147.569 -37.3142 55.2146 212.173 -33.5627 5.53889 11.2438 73.3828 
164.183 148.816 171.43 174.968 177.76 156.611 100.958 168.512 173.544 178.809 28.6601 161.756 -6.34099 27.0255 164.022 -8.20386 74.1128 105.812 -66.6677 102.458 122.511 -63.3884 111.752 147.361 -36.6381 54.4804 211.775 -33.6288 6.2574 11.1859 73.227 
164.267 148.501 171.491 174.893 174.587 156.727 101.238 168.509 173.463 177.825 27.8174 161.6 -5.72663 26.6553 163.66 -7.55234 72.7624 105.502 -66.1184 101.062 122.201 -63.282 111.584 147.8 -36.7394 53.6 211.448 -33.7465 6.76038 11.0884 73.0306 
164.059 149.008 171.479 174.743 174.55 156.395 101.455 168.431 173.335 177.808 27.0089 161.516 -5.49251 26.0369 163.508 -7.19892 71.3522 105.225 -66.0516 99.464 121.889 -63.4898 110.193 147.612 -36.9288 52.7266 211.041 -34.0127 6.90803 10.9837 73.1933 
163.698 149.592 171.399 174.536 174.381 156.118 101.525 168.236 173.236 177.736 25.7918 161.101 -5.36306 25.6821 163.218 -6.76815 69.8559 105.16 -65.9818 97.9551 121.916 -63.7183 109.59 147.981 -37.6222 51.8168 210.479 -34.3094 7.13569 10.9661 73.4334 
163.357 151.008 171.331 174.169 175.756 155.947 101.447 168.01 172.942 178.288 24.0901 160.845 -5.36232 24.854 163.675 -6.40229 68.2146 105.374 -66.2417 96.3527 122.07 -64.0449 108.71 148.172 -37.9596 50.8565 210.122 -34.5699 7.55453 10.9254 74.3735 
163.185 152.135 171.174 173.804 175.197 155.887 101.259 167.72 172.614 179.542 22.0633 160.447 -5.34612 23.9739 164.063 -6.16686 66.6576 105.521 -66.9602 94.8157 122.142 -64.6525 106.924 148.093 -37.9734 49.7088 209.776 -34.6534 7.83184 10.8237 75.3761 
163.132 153.685 171.003 173.395 175.298 155.62 100.716 167.413 172.123 175.41 20.0898 160.137 -5.54661 22.5128 165.029 -6.25786 64.7686 105.69 -68.1153 92.9074 122.085 -65.3096 104.171 147.687 -37.6283 48.547 209.541 -34.8317 8.12468 10.6139 76.8752 
163.306 155.096 170.988 173.178 174.962 155.615 100.662 167.19 171.705 171.561 18.2605 160.014 -5.58739 20.9436 165.894 -6.32125 63.0804 105.935 -69.0984 91.4195 122.194 -65.9141 102.058 147.764 -36.2563 47.397 209.574 -34.9155 9.49633 10.5855 78.0353 
163.408 157.085 170.896 173.03 174.27 155.345 100.776 166.849 171.273 166.906 17.5627 159.419 -5.61077 19.9073 166.602 -6.2703 61.9266 106.268 -70.3475 90.2767 122.55 -67.0898 99.6955 147.782 -35.822 46.323 209.531 -35.1102 10.5881 10.5528 79.2375 
163.137 158.986 170.737 172.825 174.27 154.786 100.79 166.482 170.658 162.911 17.1047 158.113 -5.91641 19.0323 166.642 -6.55862 61.0293 106.259 -72.2629 89.2451 122.404 -68.5005 97.9849 147.303 -35.2353 45.2236 208.938 -35.3957 12.1598 10.3035 80.5613 
163.393 160.195 170.642 172.796 175.688 155.061 100.809 166.191 170.258 160.51 15.8887 157.075 -5.87211 18.2668 166.854 -6.47606 59.8852 106.188 -73.4671 88.2297 122.197 -69.4091 97.2658 146.986 -34.6252 44.27 208.528 -35.6085 13.5122 10.204 81.7418 
163.612 160.687 170.674 172.87 179.555 155.526 100.777 166.087 170.005 158.871 14.65 156.69 -5.49471 17.5911 167.343 -6.18464 58.6748 106.514 -74.3154 87.2955 122.468 -70.0241 96.7296 146.972 -34.3166 43.4152 208.636 -35.6277 14.4088 10.1741 82.6135 
163.809 161.311 170.652 172.816 176.263 155.873 101.048 165.871 169.656 157.449 13.4935 156.33 -5.10579 16.7545 167.802 -5.6485 57.4372 106.509 -74.6122 86.2121 122.345 -70.1405 95.8542 146.668 -34.1362 42.6496 208.536 -35.6497 14.7918 10.101 83.4709 
163.812 161.992 170.63 172.782 174.721 155.847 101.347 165.637 169.375 156.933 13.0198 155.94 -4.96007 16.1098 168.192 -5.03039 56.3385 106.235 -74.7299 85.1412 121.967 -70.3359 95.2576 146.208 -34.4671 42.0307 208.189 -35.8324 14.8567 10.0242 84.3965 
163.879 162.753 170.667 172.788 173.289 155.91 101.563 165.519 169.174 156.774 12.4048 155.421 -4.91477 15.5478 168.469 -4.21966 55.4549 105.744 -74.6633 84.1992 121.421 -70.5264 94.8918 145.777 -35.063 41.4239 207.637 -35.9847 14.7263 9.93288 85.4779 
163.954 162.97 170.711 172.843 173.164 156.096 101.731 165.31 169.029 158.812 11.9288 155.224 -4.5675 15.171 168.554 -3.30305 54.3284 105.396 -73.9295 83.1758 121.141 -70.6507 95.7441 145.721 -36.8867 40.8673 207.258 -36.1772 13.8236 10.0637 85.8629 
164.099 162.632 170.777 172.863 173.293 156.385 101.688 165.152 168.928 159.801 11.5944 154.983 -4.42271 15.0236 168.347 -2.56197 53.3454 105.265 -72.9863 82.2219 121.174 -70.6635 96.1598 145.903 -38.2182 40.2653 206.916 -36.3166 13.4269 10.2194 85.7896 
164.13 161.295 170.725 172.717 173.77 156.492 101.459 164.71 168.629 160.58 11.6478 154.829 -4.62348 14.64 167.592 -2.62619 52.3779 105.53 -72.0947 81.2409 121.601 -70.7206 96.3308 146.286 -39.6447 39.6323 206.68 -36.5207 12.9496 10.4948 84.8349 
164.194 159.896 170.61 172.624 173.971 156.59 101.297 164.147 168.381 161.805 11.2056 155.048 -5.0871 13.851 166.954 -3.05869 51.0224 105.987 -71.2569 80.0174 122.102 -70.9405 96.4269 146.704 -41.4587 38.9656 206.676 -36.8128 12.2825 10.9797 83.6098 
164.122 158.705 170.405 172.55 173.634 156.57 101.063 163.552 168.244 162.795 10.745 155.179 -5.78971 13.0586 166.122 -3.77355 49.847 106.417 -70.6775 78.9646 122.577 -71.3387 96.4208 146.955 -43.3067 38.347 206.595 -37.1866 11.683 11.526 82.3281 
163.713 158.451 170.301 172.553 172.751 156.245 100.931 163.373 168.358 163.43 10.4855 155.211 -6.70696 12.5446 165.571 -4.36331 49.1621 106.645 -70.723 78.151 122.923 -71.9308 96.091 146.903 -44.8053 37.6585 206.44 -37.6034 11.2595 11.7976 81.7197 
162.138 159.264 170.485 172.17 172.601 156.055 104.877 163.98 168.519 165.015 10.8303 155.37 -6.12116 12.5014 162.991 -3.61124 47.581 106.233 -70.4583 77.0216 122.351 -71.8589 96.2285 147.236 -46.2571 37.0158 206.452 -38.0441 11.1309 11.7898 79.2506 
160.367 160.308 170.398 171.733 173.32 155.903 107.807 164.294 168.55 166.661 11.2427 155.737 -5.55324 12.5781 161.52 -3.13122 46.1561 106.453 -70.2637 76.053 122.359 -71.8419 96.4519 148.064 -47.5359 36.3842 206.8 -38.4001 11.2871 11.858 77.5177 
159.067 161.385 170.177 171.494 173.958 156.11 109.786 164.465 168.665 167.972 10.7888 155.77 -5.55639 12.4059 160.695 -3.08487 44.8557 106.673 -70.4768 75.198 122.32 -72.0486 96.4779 148.535 -48.672 35.7474 207.004 -38.7658 11.4716 11.9835 76.5669 
157.913 162.32 170.017 171.435 174.612 156.048 111.088 164.678 168.815 168.96 10.4182 155.712 -5.71089 12.3261 160.292 -3.13275 43.842 106.749 -70.9053 74.4495 122.205 -72.4557 96.3007 148.722 -49.668 35.1896 207.099 -39.121 11.6053 12.0398 76.1613 
157.456 162.961 169.867 171.34 175.206 156.256 112.254 164.857 168.785 169.232 10.1053 155.336 -5.74768 12.174 159.807 -3.23452 43.0633 106.521 -71.6016 73.6302 121.835 -72.9532 95.5118 148.51 -50.2968 34.6866 206.941 -39.5118 11.5037 11.8749 76.0582 
157.309 163.028 169.82 171.341 175.524 156.563 113.013 165.198 168.851 169.306 9.81686 154.675 -5.38973 11.951 159.064 -3.03813 42.5679 105.955 -72.1778 73.0107 121.255 -73.1262 94.7295 148.1 -50.5174 34.1093 206.478 -39.5764 11.3476 11.5797 76.1946 
157.031 163.185 169.882 171.387 176.118 157.171 114.199 165.687 168.942 169.7 9.44213 153.901 -4.53824 11.5786 157.852 -2.38835 41.6285 105.178 -72.006 71.7385 120.51 -72.8759 93.4936 147.765 -50.8493 32.9899 205.931 -39.4115 11.1792 11.1844 75.7276 
157.176 163.352 169.814 171.369 176.04 157.66 114.298 165.586 168.846 169.598 9.59302 153.286 -4.02397 11.6756 157.323 -2.20973 41.6843 104.655 -71.6587 71.5006 120.02 -72.6132 93.1469 147.43 -50.9185 32.8228 205.52 -39.2572 10.9829 10.9898 75.4389 
157.273 163.271 169.706 171.302 175.992 158.196 114.197 165.375 168.663 169.567 9.48404 152.733 -3.67562 11.598 156.852 -2.28657 41.5754 104.286 -71.3615 71.152 119.585 -72.2174 92.7658 147.083 -50.8714 32.6122 205.168 -39.1749 10.8405 10.7848 75.0892 
157.139 163.554 169.638 171.249 175.918 158.528 114.142 165.228 168.56 169.578 9.36488 152.405 -3.30952 11.62 156.591 -2.17004 41.5715 103.928 -70.9278 70.987 119.166 -71.7779 92.6196 146.82 -50.8387 32.5784 204.92 -39.0666 10.7286 10.6243 74.8277 
156.962 163.764 169.574 171.19 175.798 158.807 114.09 165.067 168.459 169.517 9.30306 152.1 -2.97334 11.6329 156.317 -2.06421 41.5564 103.529 -70.4711 70.8299 118.715 -71.3981 92.4967 146.454 -50.8382 32.6059 204.636 -39.0097 10.621 10.508 74.5512 
156.928 163.98 169.524 171.171 175.707 159.008 114.029 164.914 168.373 169.44 9.24049 151.69 -2.58331 11.6868 156.049 -1.79174 41.5422 103.027 -69.9313 70.6392 118.128 -70.9314 92.2975 145.904 -50.6951 32.6289 204.216 -38.9019 10.4922 10.369 74.433 
157.011 164.18 169.472 171.131 175.518 159.132 114.03 164.774 168.308 169.34 8.97179 151.392 -2.01418 11.7167 155.749 -1.28474 41.5106 102.416 -69.1653 70.6038 117.444 -70.3237 92.3373 145.371 -50.4044 32.7722 203.768 -38.685 10.4646 10.3402 74.3269 
157.036 164.838 169.453 171.125 175.399 158.958 114.113 164.636 168.255 169.171 8.92422 151.257 -1.55626 11.8604 155.726 -0.753366 41.7222 102.008 -68.4807 70.8618 116.988 -69.7186 92.5278 145.004 -49.861 33.0832 203.487 -38.4161 10.4166 10.3618 74.3919 
157.043 165.523 169.393 171.083 175.287 158.791 114.176 164.413 168.204 169.105 8.89643 151.373 -1.25613 12.0654 155.811 -0.423238 42.09 101.847 -67.6733 71.3485 116.832 -69.112 92.9551 144.923 -49.2608 33.5086 203.45 -38.1523 10.4169 10.5354 74.2057 
157.139 166.197 169.334 171.014 175.17 158.361 113.948 164.198 168.15 169.006 8.93411 151.772 -1.06733 12.1959 156.357 -0.244315 42.4915 101.91 -66.9859 71.9298 116.869 -68.5738 93.3956 144.945 -48.537 34.0049 203.639 -37.9261 10.3947 10.7527 74.2208 
157.482 166.365 169.277 170.897 175.042 157.971 113.434 164.022 168.097 168.957 8.84355 152.189 -0.968596 12.2989 156.933 -0.235049 42.9146 102.104 -66.4923 72.5441 117.072 -68.2411 93.832 145.112 -47.8209 34.4996 203.938 -37.6428 10.3981 11.0064 74.2335 
157.83 166.573 169.184 170.818 175.025 157.655 112.906 163.935 168.135 168.958 8.80842 152.55 -0.973042 12.551 157.453 -0.161983 43.5118 102.407 -66.3084 73.3314 117.372 -67.9949 94.323 145.321 -47.0762 35.0755 204.238 -37.3053 10.3632 11.1426 74.4503 
158.688 166.387 168.974 170.569 175.013 157.838 112.504 163.751 168.018 168.723 8.63219 152.437 -0.638481 12.9348 157.297 0.147336 44.2502 102.353 -66.1847 74.0684 117.37 -67.7398 94.6766 145.215 -46.1496 35.6136 204.084 -36.8641 10.3668 11.1509 74.7216 
159.345 165.874 168.831 170.352 174.928 157.905 112.284 163.661 167.934 168.493 8.30753 152.146 -0.352727 13.4989 156.953 0.679079 44.8751 102.157 -66.0097 74.7313 117.224 -67.3783 95.1196 145.053 -45.2719 36.1104 203.75 -36.3259 10.4771 11.1305 75.0468 
159.751 165.645 168.754 170.209 174.657 157.715 111.952 163.62 167.911 167.859 8.00758 151.96 -0.124564 14.1991 157.319 1.32049 45.5685 102.037 -66.0613 75.4193 117.066 -67.0302 95.3917 144.757 -44.2298 36.6899 203.498 -35.8943 10.5154 10.9945 76.0168 
161.62 164.166 169.414 170.338 174.489 156.992 108.949 163.466 167.496 166.307 8.77287 151.95 -0.592472 14.2719 158.877 1.43852 46.8856 102.353 -65.5121 75.9551 117.591 -66.4327 95.1553 144.876 -43.0497 37.0205 203.582 -34.9908 10.2409 10.7303 77.2964 
162.732 163.297 169.8 170.531 174.352 156.395 106.745 163.528 167.513 165.363 9.08257 152.185 -1.31378 13.7337 160.067 1.31388 48.3678 102.692 -65.2328 76.8086 118.146 -65.9768 95.0466 144.915 -41.653 37.4057 203.711 -34.1724 10.0602 10.6104 78.4194 
163.867 161.691 169.841 170.617 174.202 156.354 104.142 163.451 167.666 164.992 8.81968 152.315 -1.7806 13.1226 160.731 0.931297 49.6515 102.834 -64.8478 77.8824 118.51 -65.629 95.5422 145.003 -40.5977 37.8528 203.641 -33.378 10.0928 10.7752 79.2396 
