161.853 139.682 169.967 170.297 171.043 154.542 97.0202 161.002 164.707 160.252 1.46714 164.479 -31.8724 -1.64339 180.084 -25.4546 25.1026 145.378 -96.9516 51.4108 159.221 -96.0125 69.1153 177.3 -71.7473 17.669 227.373 -39.1492 5.09679 10.405 72.2807 
161.889 140.526 169.958 170.198 170.988 154.658 96.6419 160.803 164.512 160.161 3.23504 164.147 -31.09 -0.305219 180.198 -24.9941 26.8406 145.169 -96.0704 53.1967 158.845 -94.8171 70.8021 176.643 -70.2797 19.2458 227.156 -38.5402 5.18668 10.3181 72.3744 
161.905 143.825 170.274 170.482 171.274 154.704 95.594 160.869 164.374 160.402 6.76655 164.499 -30.6129 2.70626 182.218 -23.5454 30.7724 145.687 -94.867 57.0743 158.692 -92.524 74.3028 176.07 -67.5801 22.724 227.522 -37.2709 5.17016 9.81731 73.9402 
162.078 144.347 170.592 170.802 171.48 155.203 95.7902 160.913 164.459 160.389 7.69757 164.959 -30.6433 3.99695 183.021 -22.9586 32.8089 146.587 -93.4836 58.6773 159.312 -90.6526 75.5554 176.644 -65.7639 24.0324 228.158 -36.3348 5.00043 9.52082 73.733 
162.268 144.095 170.767 171.113 171.713 155.531 95.893 161.284 164.782 160.623 8.92587 165.224 -30.7521 5.5492 183.346 -22.4204 35.0197 147.181 -92.5259 60.4401 159.695 -89.1685 76.985 177.086 -64.3884 25.3868 228.479 -35.3437 4.79877 9.18772 73.564 
162.54 143.072 170.72 171.341 171.764 155.979 95.9413 161.733 165.093 160.72 9.96437 165.427 -30.6565 7.20918 183.118 -22.027 37.1142 147.378 -91.4296 62.1773 159.515 -87.2583 78.3289 176.926 -62.5244 26.7641 228.588 -34.3412 4.6072 8.66444 72.9897 
162.675 142.643 170.719 171.64 171.891 156.146 95.6199 162.172 165.438 160.733 11.1322 165.865 -30.9005 9.03702 183.411 -21.5333 39.4349 147.643 -90.4315 64.0971 159.486 -85.4919 79.6456 176.955 -60.7317 28.1775 228.802 -33.4481 4.29499 8.16973 72.8985 
162.874 141.765 170.644 171.797 171.986 156.451 95.7889 162.481 165.696 160.73 12.3502 165.952 -31.0274 10.7092 182.976 -21.3335 41.3752 147.497 -89.3794 65.7161 159.009 -83.7779 80.7715 176.394 -58.8744 29.5325 228.692 -32.7188 4.11211 7.76009 72.1763 
163.141 140.854 170.649 171.979 172.104 156.837 95.5161 162.921 166.128 160.921 13.201 165.943 -30.9013 12.0541 182.662 -21.076 43.1343 147.154 -88.4737 67.2604 158.479 -82.3883 81.9453 175.848 -57.2607 30.7561 228.522 -31.9514 4.05997 7.47007 71.7216 
163.136 139.964 170.54 171.972 172.189 156.853 95.4195 163.09 166.354 161.041 14.3204 165.221 -30.0224 13.4866 181.626 -20.3104 44.7817 146.174 -87.0655 68.6935 157.618 -80.9496 83.0793 175.052 -55.7296 31.7987 227.71 -31.0737 4.03801 7.41444 71.3571 
163.016 139.182 170.489 172.011 172.365 156.676 95.4465 163.257 166.626 161.31 15.2326 164.799 -29.5301 14.765 180.784 -19.7613 46.1414 145.315 -85.863 69.8799 156.878 -79.7995 84.0821 174.366 -54.5846 32.8215 227.039 -30.413 3.98723 7.44892 70.9721 
163.005 138.751 170.534 172.069 172.48 156.596 95.3816 163.454 166.939 161.609 16.2989 164.369 -29.1953 15.8091 180.097 -19.3555 47.3745 144.688 -85.2001 71.0672 156.44 -79.2353 85.1996 173.974 -53.8495 33.7517 226.47 -29.8139 4.05684 7.59008 70.8202 
162.983 138.428 170.463 172.039 172.517 156.547 95.5479 163.384 167.06 161.637 17.2189 164.085 -29.0157 16.6352 179.426 -19.1768 48.4707 144.496 -84.6402 72.1838 156.487 -78.8568 86.2013 173.874 -53.1874 34.5514 226.087 -29.263 4.16898 7.8524 70.4388 
163.032 137.838 170.483 172.031 172.555 156.582 95.7771 163.472 167.278 161.917 17.875 163.934 -28.3119 17.4696 178.796 -18.7519 49.4057 144.315 -83.8301 73.1416 156.612 -78.2996 87.2363 174.016 -52.5622 35.2864 225.897 -28.557 4.28608 8.0914 69.948 
163.027 137.154 170.57 172.069 172.617 156.446 95.9655 163.729 167.757 162.541 18.574 163.537 -27.2847 18.0678 178.109 -18.1591 50.1188 143.726 -83.0935 73.9426 156.442 -78.01 88.2669 173.963 -52.235 35.8967 225.494 -27.9693 4.45979 8.48734 69.7767 
162.972 136.858 170.726 172.204 172.728 156.225 95.9274 164.024 168.299 163.185 19.1527 163.344 -26.6466 18.4835 177.829 -17.6048 50.6953 143.463 -82.8908 74.6552 156.501 -78.1359 89.1594 174.045 -52.1957 36.4655 225.2 -27.4057 4.59999 8.88531 70.1329 
162.898 137.074 170.858 172.309 172.714 156.029 95.8331 164.32 168.723 163.647 19.7785 163.131 -25.9988 18.6239 177.634 -17.0955 51.1151 143.236 -82.9807 75.3033 156.422 -78.2954 89.9356 173.883 -52.0827 36.9329 224.883 -26.893 4.77336 9.16078 70.6939 
162.939 137.035 170.956 172.458 172.764 156.067 95.7799 164.57 169.097 164.025 20.2041 163.07 -25.498 18.8848 177.494 -16.4378 51.496 142.91 -82.5865 75.915 156.257 -78.0487 90.5998 173.682 -51.7732 37.4193 224.663 -26.3885 4.83697 9.40023 71.0112 
163.048 136.815 170.945 172.532 172.743 156.261 95.8691 164.686 169.208 164.076 20.3253 163.037 -25.0409 19.366 177.238 -15.906 51.9087 142.637 -81.9662 76.4657 156.045 -77.4524 91.1753 173.473 -51.217 37.927 224.537 -25.9078 4.86376 9.46778 70.8862 
163.17 136.468 170.964 172.58 172.759 156.334 95.8874 164.841 169.388 164.307 20.19 162.981 -24.3821 19.6692 177.002 -15.1905 52.192 142.201 -81.2133 76.8619 155.715 -76.8715 91.6685 173.235 -50.7686 38.349 224.35 -25.3723 4.87905 9.59077 70.9017 
163.298 136.127 171.055 172.718 172.784 156.444 95.888 165.111 169.674 164.582 20.1374 162.836 -23.7864 19.8928 176.682 -14.5145 52.4111 141.545 -80.5466 77.204 155.094 -76.3076 92.1259 172.671 -50.2881 38.7688 224.03 -24.891 4.92535 9.66143 70.912 
163.461 135.635 171.037 172.764 172.777 156.547 95.9999 165.265 169.9 164.881 20.2156 162.277 -23.2419 20.0488 175.95 -14.1564 52.7346 140.923 -80.3247 77.6301 154.547 -76.096 92.6658 172.114 -50.0071 39.1361 223.46 -24.4176 5.03002 9.78278 70.9024 
163.466 136.018 171.052 172.801 172.765 156.418 95.8797 165.332 170.052 165.078 20.5505 161.994 -22.6309 20.1628 175.735 -13.6042 53.1988 140.674 -80.2215 78.1446 154.365 -76.0022 93.2276 171.84 -49.7324 39.524 223.089 -23.8659 5.12385 9.93371 71.4258 
163.352 136.172 171.099 172.882 172.883 156.237 95.8512 165.438 170.184 165.376 21.2394 161.889 -22.1858 20.4709 175.527 -13.2426 53.8168 140.533 -80.1185 78.7347 154.238 -75.7912 93.723 171.509 -49.3224 40.0086 222.852 -23.407 5.12664 9.95967 71.6997 
163.205 136.208 171.139 172.913 172.925 155.99 95.9579 165.538 170.261 165.554 21.9984 161.829 -21.5325 21.0392 175.161 -12.728 54.5091 140.278 -79.7296 79.385 154.045 -75.3714 94.2889 171.276 -48.8934 40.5134 222.615 -22.9759 5.09051 9.95857 71.7933 
163.217 135.72 171.114 172.887 172.87 155.98 96.5411 165.581 170.266 165.566 22.8208 161.398 -21.0926 21.8268 174.093 -12.5459 55.1611 139.783 -79.4952 80.0761 153.589 -75.0097 94.9852 170.829 -48.4991 41.1141 222.112 -22.6547 5.136 9.95486 71.3504 
163.126 135.143 170.991 172.778 172.685 155.813 96.7982 165.575 170.198 165.459 23.4253 161.033 -20.5881 22.6853 173.053 -12.4721 55.9609 139.318 -79.4701 80.9453 153.12 -74.6938 95.8178 170.354 -48.0443 41.7569 221.554 -22.3443 5.21771 9.87482 71.0994 
163.081 134.681 170.827 172.634 172.504 155.645 96.8187 165.456 169.982 165.189 24.051 160.355 -20.0058 23.6307 172.017 -12.3596 56.7654 138.796 -79.363 81.7462 152.604 -74.3433 96.5745 169.827 -47.5636 42.383 220.839 -21.9511 5.27675 9.79197 70.9442 
163.007 134.458 170.739 172.56 172.459 155.484 97.111 165.415 169.802 164.992 24.7429 160.151 -19.8187 24.4529 171.415 -12.3337 57.4789 138.592 -79.2805 82.4134 152.183 -73.8846 97.1159 169.294 -47.063 43.0996 220.492 -21.6725 5.20472 9.58478 70.7255 
163.072 134.363 170.684 172.483 172.394 155.575 97.7226 165.38 169.639 164.777 25.5433 159.52 -19.2266 25.4171 170.425 -12.0137 58.1203 138.004 -78.8921 83.0657 151.476 -73.2748 97.761 168.567 -46.3917 43.834 219.935 -21.3238 5.25117 9.42965 70.3213 
163.233 133.817 170.737 172.516 172.315 155.649 98.2615 165.486 169.783 164.834 26.3557 158.844 -18.5229 26.3357 169.285 -11.6427 58.9196 137.185 -78.2941 83.9059 150.792 -72.7065 98.5748 168.01 -45.8029 44.4968 219.293 -20.9365 5.29964 9.47757 69.844 
163.369 133.335 170.872 172.627 172.225 155.641 98.4872 165.74 170.051 164.89 27.0568 158.254 -17.6402 27.278 168.349 -11.1964 59.9685 136.413 -77.7488 84.891 150.208 -72.2292 99.5254 167.616 -45.2582 45.1259 218.676 -20.4962 5.37735 9.51597 69.6386 
163.505 133.675 170.97 172.843 172.252 155.761 98.1375 165.771 170.33 164.815 27.9778 157.564 -17.2413 28.0098 168.069 -10.729 60.9499 135.596 -77.1225 85.6861 149.423 -71.679 100.127 166.845 -44.6795 45.8127 218.022 -20.2155 5.28745 9.51416 69.8657 
163.619 133.969 171.013 172.99 172.235 155.819 98.0223 165.797 170.518 164.743 28.9259 156.937 -16.5681 28.8856 167.602 -10.1413 61.8451 134.74 -76.3402 86.4341 148.571 -70.927 100.742 166.086 -44.0049 46.5156 217.39 -19.8346 5.19702 9.4546 69.899 
163.621 134.475 171.144 173.2 172.334 155.784 97.5744 165.833 170.749 164.66 30.2386 156.47 -16.4736 29.6008 167.603 -9.91929 62.9848 134.1 -75.9363 87.3531 147.89 -70.4432 101.327 165.355 -43.4451 47.2279 216.852 -19.6991 5.04508 9.41459 70.237 
163.67 135.266 171.315 173.351 172.481 155.868 97.5492 165.921 170.92 164.685 31.4725 156.434 -16.0115 30.2196 167.854 -9.46593 63.99 133.686 -75.1712 88.1175 147.384 -69.6741 101.805 164.78 -42.6708 48.0074 216.743 -19.4959 4.89254 9.34349 70.3867 
163.667 135.977 171.418 173.453 172.66 156.048 97.5887 165.983 171.007 164.469 32.6525 156.674 -16.1448 30.8892 168.357 -9.37641 65.0581 133.618 -74.5737 88.8337 147.07 -68.9745 102.221 164.341 -41.9983 48.9014 216.879 -19.4905 4.70395 9.17115 70.3301 
163.654 136.656 171.489 173.573 172.767 156.239 97.6487 166.064 171.154 164.657 33.7908 156.639 -15.7377 31.4396 168.738 -8.83139 65.8007 133.34 -73.671 89.2712 146.612 -68.1445 102.514 163.8 -41.3744 49.6633 216.879 -19.2399 4.50502 9.04147 70.3657 
163.67 137.202 171.529 173.666 172.947 156.551 97.9935 165.864 170.763 164.117 34.9148 156.514 -15.0878 31.8614 168.46 -8.4183 66.3489 132.876 -72.6682 89.6406 146.031 -67.0851 102.584 163.248 -40.3393 50.2849 216.712 -18.7888 4.29894 8.97481 69.9513 
163.554 137.343 171.432 173.549 173.008 156.559 98.6053 165.722 170.671 164.15 36.038 156.092 -13.8916 32.6459 167.616 -8.05476 67.0027 132.172 -71.9001 90.3726 145.464 -66.5207 103.286 162.817 -39.6876 50.9944 216.358 -18.5451 4.38386 9.12321 69.438 
163.493 137.667 171.393 173.45 173.069 156.571 99.2189 165.641 170.713 164.304 37.1887 155.492 -12.8327 33.2379 166.66 -7.70346 67.7006 131.429 -71.4101 91.1922 144.964 -66.33 104.112 162.378 -39.2902 51.6217 215.806 -18.3737 4.545 9.42598 69.2241 
163.314 137.756 171.404 173.468 173.247 156.361 99.6569 165.544 170.783 164.45 38.3061 155.538 -12.0147 33.749 166.319 -7.4695 68.3351 131.109 -70.8875 91.8654 144.815 -66.1267 104.752 162.263 -38.9658 52.2546 215.68 -18.2135 4.59046 9.71099 69.0147 
163.111 137.836 171.407 173.48 173.411 156.125 100.012 165.387 170.847 164.624 39.4802 155.504 -11.675 34.1858 166.014 -7.47667 69.1127 131.072 -70.9158 92.6848 144.919 -66.2929 105.434 162.263 -38.8291 52.7948 215.515 -18.069 4.65133 9.98647 69.0395 
162.943 137.84 171.42 173.531 173.585 155.918 99.9949 165.354 171.003 164.986 40.3867 155.401 -11.2329 34.7042 165.884 -7.18637 70.0046 130.981 -70.9591 93.7039 145.082 -66.4473 106.321 162.389 -38.622 53.2769 215.336 -17.8478 4.80148 10.2546 69.4746 
162.822 138.349 171.437 173.581 173.932 155.761 99.7347 165.104 170.994 165.478 41.8369 154.987 -10.2675 35.5936 165.547 -6.55705 71.5325 130.558 -71.0309 95.5366 145.127 -66.767 108.093 162.446 -38.2623 54.334 214.819 -17.4075 5.16016 10.776 70.4314 
162.642 139.118 171.415 173.662 174.158 155.529 99.1258 164.853 171.015 165.854 42.0715 155.325 -10.0348 35.4546 166.385 -6.04325 71.9014 130.832 -71.1356 96.1708 145.739 -67.1633 108.74 163.015 -38.3961 54.5173 215 -17.2697 5.30633 11.2114 71.5994 
162.544 140.444 171.459 173.79 174.353 155.531 98.5003 164.53 170.955 165.877 42.5151 155.764 -10.3293 35.3932 167.793 -5.5661 72.3422 131.216 -70.9878 96.8414 146.335 -67.3732 109.267 163.421 -38.4061 55.0165 215.395 -17.1961 5.29562 11.6787 72.7054 
162.426 141.358 171.508 173.934 174.49 155.538 98.2229 164.412 170.977 166.092 43.4322 156.08 -10.6842 35.6184 168.634 -5.5179 72.9944 131.593 -71.1547 97.6073 146.786 -67.5952 109.817 163.668 -38.4541 55.5366 215.68 -17.2089 5.24138 11.9199 73.3133 
162.376 142.003 171.542 174.066 174.499 155.502 98.1102 164.467 171.091 166.13 44.1474 156.522 -11.196 35.8412 169.471 -5.56882 73.7181 132.108 -71.4408 98.3414 147.213 -67.7602 110.264 163.876 -38.4596 56.0447 216.053 -17.2281 5.13795 11.9813 73.8223 
162.39 142.694 171.529 174.105 174.337 155.53 98.0273 164.46 171.099 165.917 44.9387 156.62 -11.6944 36.2132 170.062 -5.58876 74.4493 132.468 -71.8245 99.0253 147.451 -67.9808 110.724 163.96 -38.6145 56.5363 216.212 -17.3001 5.01992 11.9478 74.3277 
162.559 143.64 171.568 174.188 174.312 155.731 97.8925 164.302 170.783 165.457 45.5961 156.559 -12.1869 36.418 170.407 -5.62227 74.9961 132.418 -71.9505 99.4896 147.241 -67.8618 110.985 163.717 -38.4183 57.0345 216.14 -17.3426 4.91769 11.8697 74.7741 
162.631 143.939 171.646 174.252 174.181 155.892 97.5075 164.367 170.872 165.63 46.3652 156.272 -12.5086 37.0864 170.653 -5.59621 75.7672 132.224 -72.0437 100.231 147.044 -67.8402 111.575 163.48 -38.4214 57.4682 215.968 -17.4156 4.86965 11.8043 75.1223 
162.822 144.285 171.783 174.354 174.078 156.156 97.2101 164.627 171.074 165.885 46.8745 155.809 -12.6704 37.7411 170.689 -5.47983 76.5497 131.823 -72.1451 101.058 146.645 -67.83 112.299 163.089 -38.3149 57.9 215.674 -17.4593 4.93806 11.7461 75.4956 
162.98 144.521 171.906 174.431 173.993 156.426 96.8202 164.831 171.127 165.888 47.4175 155.376 -12.9545 38.5402 170.737 -5.55248 77.2895 131.52 -72.3971 101.826 146.316 -67.8282 112.988 162.816 -38.2235 58.354 215.423 -17.5562 5.00091 11.6199 75.7575 
163.097 144.494 172.027 174.522 173.941 156.647 96.6303 165.094 171.251 165.961 47.6493 155.12 -13.2521 39.1794 170.691 -5.64304 77.8646 131.124 -72.3756 102.37 145.846 -67.6672 113.485 162.367 -38.0107 58.8158 215.227 -17.627 5.05085 11.5056 75.7044 
163.256 144.35 172.146 174.551 173.879 156.823 96.8035 165.31 171.307 165.879 47.9612 155.123 -13.7615 39.6679 170.614 -5.97078 78.3439 130.999 -72.4067 102.773 145.471 -67.4384 113.792 161.918 -37.7293 59.2891 215.198 -17.7773 5.0707 11.3189 75.3364 
163.277 144.506 172.181 174.534 173.771 156.876 96.8984 165.343 171.227 165.726 48.3027 155.25 -14.1978 40.1066 170.811 -6.24026 78.7962 130.979 -72.4313 103.12 145.17 -67.1707 113.991 161.467 -37.3889 59.7798 215.281 -17.9452 5.08861 11.0934 75.1212 
163.249 144.658 172.163 174.439 173.657 156.911 97.2419 165.393 171.191 165.711 48.4756 155.044 -13.9932 40.3693 170.554 -6.18902 78.9774 130.662 -72.2115 103.313 144.692 -66.8656 114.184 160.908 -37.0098 60.1095 215.124 -17.9928 5.20436 10.9968 74.8682 
163.241 144.717 172.116 174.315 173.634 156.985 97.6597 165.334 171.11 165.728 48.6942 154.661 -13.5259 40.5917 170.005 -6.03089 79.0959 130.264 -71.8253 103.565 144.321 -66.5613 114.491 160.541 -36.6482 60.3552 214.847 -17.9729 5.35377 11.0662 74.5333 
163.305 144.608 172.085 174.23 173.731 157.141 97.8544 165.319 171.073 165.887 48.7955 154.252 -13.1237 40.9425 169.456 -5.96181 79.2993 129.957 -71.6819 103.974 144.173 -66.5045 115.085 160.498 -36.4395 60.5682 214.602 -17.9638 5.61904 11.1903 74.2976 
163.355 144.954 172.111 174.232 174.145 157.586 98.0238 165.052 170.696 165.981 48.8801 153.567 -12.6376 41.3402 168.403 -5.81056 79.5592 129.33 -71.3659 104.426 143.869 -66.3391 115.81 160.434 -35.8973 60.8895 214.129 -17.9026 6.11762 11.3532 74.0155 
163.458 144.938 172.131 174.253 174.201 157.617 98.0737 165.138 170.904 166.128 49.1452 153.378 -12.7638 41.4928 168.189 -5.98033 79.8054 129.471 -71.7554 104.856 144.171 -66.7473 116.189 160.653 -36.1129 60.9556 214.04 -17.947 6.20948 11.5268 74.0846 
163.547 145.04 172.159 174.299 174.233 157.589 98.1074 165.283 171.167 166.3 49.4319 153.345 -12.8091 41.5122 168.284 -6.09247 79.8531 129.597 -72.0995 105.091 144.385 -67.1157 116.412 160.781 -36.3475 60.9909 214.074 -18.0392 6.26783 11.6771 74.2231 
163.535 145.592 172.2 174.391 174.507 157.73 97.712 165.123 170.888 166.263 49.3343 153.406 -12.9531 41.4447 168.497 -6.10106 79.8364 129.652 -72.1977 105.076 144.465 -67.0996 116.427 160.876 -36.1056 61.0708 214.135 -18.0288 6.4455 11.6373 74.5472 
163.615 145.67 172.178 174.369 174.486 157.717 97.6933 165.209 171.038 166.225 49.4361 153.45 -13.0916 41.4686 168.688 -6.19782 79.8333 129.776 -72.3783 105.174 144.582 -67.2709 116.519 160.929 -36.2201 61.1311 214.203 -18.1221 6.47095 11.6994 74.6513 
163.606 145.465 172.14 174.349 174.387 157.655 97.7338 165.32 171.206 166.259 49.4266 153.443 -13.0829 41.5198 168.636 -6.31274 79.8545 129.782 -72.4569 105.265 144.606 -67.3612 116.629 160.918 -36.2963 61.1404 214.204 -18.1691 6.4957 11.7439 74.5351 
163.631 145.271 172.165 174.367 174.329 157.612 97.6258 165.427 171.341 166.313 49.4717 153.512 -13.1783 41.6148 168.781 -6.49019 79.9357 129.914 -72.5914 105.382 144.719 -67.4744 116.793 161.012 -36.4393 61.1816 214.287 -18.242 6.49821 11.753 74.4908 
163.671 145.189 172.176 174.367 174.263 157.648 97.6761 165.522 171.451 166.359 49.5507 153.525 -13.2654 41.6576 168.856 -6.64349 79.9553 129.97 -72.7318 105.461 144.759 -67.581 116.895 161.032 -36.5489 61.235 214.349 -18.338 6.50429 11.7683 74.4237 
163.716 145.092 172.232 174.395 174.25 157.678 97.8178 165.664 171.557 166.469 49.7142 153.615 -13.2847 41.7032 168.915 -6.76403 79.9939 130.028 -72.9003 105.548 144.778 -67.7038 117.04 161.056 -36.6728 61.3038 214.449 -18.4324 6.52268 11.76 74.3421 
163.821 145.068 172.247 174.418 174.231 157.797 97.9874 165.771 171.643 166.59 49.8584 153.621 -13.3972 41.7696 168.958 -6.84432 79.9496 130.019 -73.0572 105.579 144.708 -67.8096 117.153 161.03 -36.8241 61.3864 214.518 -18.5706 6.52635 11.7388 74.2772 
163.887 144.716 172.295 174.443 174.153 157.921 98.143 165.923 171.765 166.627 49.8852 153.614 -13.5561 41.9409 168.836 -7.06841 79.9844 130.011 -73.2414 105.64 144.666 -67.9033 117.292 161.015 -36.9025 61.4663 214.562 -18.6913 6.57847 11.6925 74.0197 
164.01 144.442 172.328 174.441 174.065 158.14 98.4364 166.041 171.808 166.551 49.8445 153.613 -13.8934 42.0989 168.634 -7.38062 80.1095 130.066 -73.5116 105.776 144.698 -68.0602 117.475 161.075 -36.9885 61.5595 214.644 -18.8582 6.65587 11.6381 73.6916 
164.167 144.048 172.393 174.462 173.975 158.367 98.6636 166.213 171.918 166.529 49.5837 153.617 -14.2725 42.2957 168.475 -7.63054 80.2758 130.114 -73.7822 105.938 144.779 -68.287 117.735 161.218 -37.153 61.6406 214.728 -18.9989 6.74507 11.6116 73.4519 
164.304 143.944 172.444 174.493 173.87 158.594 98.6501 166.315 171.966 166.421 49.3552 153.563 -14.8054 42.4888 168.528 -7.89178 80.4474 130.187 -74.1613 106.058 144.828 -68.579 117.886 161.276 -37.3674 61.7351 214.78 -19.1828 6.79368 11.5373 73.4518 
164.563 143.956 172.491 174.545 173.743 158.89 98.5804 166.434 171.984 166.28 49.1703 153.515 -15.4572 42.6659 168.691 -8.2224 80.653 130.345 -74.7434 106.232 144.927 -68.9699 118.097 161.411 -37.6482 61.827 214.884 -19.4244 6.85542 11.4333 73.5727 
164.777 143.76 172.547 174.637 173.633 159.07 98.3001 166.59 172.021 166.166 48.9982 153.478 -16.1332 42.9416 168.869 -8.55987 80.8254 130.44 -75.3999 106.318 144.934 -69.4037 118.218 161.525 -38.0609 61.8686 214.937 -19.6975 6.84163 11.2622 73.784 
164.964 143.711 172.604 174.716 173.54 159.24 98.043 166.731 172.043 166.143 48.935 153.415 -16.6326 43.167 169.045 -8.7734 80.9526 130.473 -75.9205 106.399 144.932 -69.774 118.359 161.658 -38.4588 61.8945 214.965 -19.9489 6.82358 11.1481 74.0479 
165.032 143.672 172.664 174.807 173.546 159.245 97.8573 166.827 172.073 166.165 48.9868 153.449 -17.0848 43.3007 169.275 -8.97116 80.9617 130.584 -76.4536 106.316 144.957 -70.1634 118.305 161.795 -38.945 61.8704 215.027 -20.211 6.72569 11.006 74.3465 
165.113 143.549 172.673 174.858 173.586 159.244 97.6342 166.881 172.053 166.125 48.7996 153.445 -17.5305 43.3008 169.469 -9.17787 80.8283 130.681 -76.8633 106.072 145.001 -70.5433 118.074 161.926 -39.4217 61.741 215.069 -20.4593 6.61816 10.914 74.5826 
165.126 143.631 172.609 174.875 173.579 159.137 97.3328 166.841 171.973 166.04 48.3314 153.445 -17.7318 43.1807 169.762 -9.11012 80.5926 130.724 -77.101 105.731 145.046 -70.8414 117.806 162.115 -39.8848 61.5479 215.096 -20.6172 6.50611 10.8545 75.0499 
165.077 143.576 172.551 174.862 173.659 159.043 96.9579 166.726 171.888 166.192 47.7892 153.522 -17.8909 43.0117 170.094 -9.02437 80.1991 130.722 -77.0054 105.271 145.081 -70.9393 117.416 162.251 -40.2233 61.3258 215.168 -20.7576 6.38039 10.8485 75.3298 
165.026 143.501 172.457 174.809 173.703 158.918 96.7467 166.587 171.793 166.122 47.0563 153.568 -18.0893 42.7058 170.345 -8.978 79.6486 130.756 -76.9653 104.641 145.061 -71.0548 116.834 162.267 -40.5511 61.0919 215.224 -20.9027 6.23227 10.8188 75.5592 
164.957 143.479 172.313 174.687 173.697 158.767 96.6681 166.342 171.615 165.94 46.306 153.595 -18.4528 42.3852 170.438 -9.06084 79.1766 130.823 -76.9223 104.065 145.007 -71.1039 116.248 162.162 -40.8139 60.8904 215.224 -21.1084 6.07705 10.7529 75.626 
164.864 143.602 172.172 174.534 173.684 158.643 96.4744 166.035 171.382 165.784 45.7011 153.615 -18.9094 42.0228 170.714 -9.1692 78.6537 130.931 -76.9056 103.463 144.939 -71.1166 115.64 161.988 -41.0194 60.6923 215.228 -21.3376 5.94438 10.6655 75.7853 
164.727 143.558 172.07 174.396 173.703 158.467 96.2748 165.787 171.177 165.601 45.258 153.754 -19.5912 41.7944 170.965 -9.4711 78.3266 131.173 -77.0242 102.956 144.957 -71.1751 115.052 161.859 -41.2199 60.5331 215.272 -21.5916 5.799 10.5009 75.8168 
164.624 143.518 171.978 174.167 173.72 158.484 96.2285 165.492 170.859 165.2 44.3967 153.75 -21.2014 41.2807 171.193 -10.3721 77.8311 131.673 -77.7776 102.133 144.935 -71.572 114.029 161.48 -41.626 60.2122 215.276 -22.2134 5.65673 10.1205 75.7875 
164.632 143.545 171.969 174.049 173.688 158.543 96.484 165.407 170.668 164.636 44.2889 153.867 -22.1444 41.1064 171.452 -10.7931 77.835 132.067 -78.1881 101.901 144.949 -71.6795 113.554 161.237 -41.6021 60.2387 215.386 -22.5192 5.61263 9.84259 75.7782 
164.522 143.382 171.97 173.981 173.585 158.548 96.9356 165.43 170.594 164.223 44.2408 153.931 -22.6471 41.0015 171.451 -11.0856 77.7588 132.264 -78.4499 101.631 144.888 -71.7237 113.111 161.041 -41.6102 60.2106 215.472 -22.7422 5.54759 9.61573 75.5619 
164.422 143.247 171.995 173.94 173.47 158.458 97.0959 165.484 170.544 163.855 44.2737 154.064 -23.1986 40.943 171.543 -11.4744 77.8918 132.486 -78.7076 101.49 144.854 -71.7693 112.723 160.835 -41.5972 60.1994 215.544 -22.9531 5.48053 9.37221 75.4076 
164.386 143.236 172.011 173.93 173.338 158.396 97.2066 165.498 170.474 163.544 44.2552 154.104 -23.5457 40.8028 171.674 -11.6158 77.9308 132.541 -78.8293 101.33 144.738 -71.7871 112.401 160.645 -41.5861 60.1718 215.541 -23.0909 5.42579 9.21437 75.4539 
