165.995 151.039 163.11 169.188 170.245 168.315 101.571 152.067 155.414 146.463 -78.9523 183.449 -61.3459 -70.2742 188.403 -50.8223 -54.9759 224.591 -115.791 -30.7627 224.927 -106.723 -8.88946 218.692 -80.9732 -52.7895 232.563 -21.072 6.92296 3.83847 68.3647 
166.154 151.016 162.693 168.778 169.712 168.411 101.717 151.615 155.067 146.134 -79.044 183.096 -61.1801 -70.6184 188.297 -51.8723 -54.6717 223.343 -115.645 -30.4554 223.646 -106.426 -8.61928 217.606 -80.5317 -52.7259 232.634 -21.149 7.05816 3.84051 66.6826 
166.309 151.184 162.437 168.572 169.488 168.514 101.916 151.081 154.4 145.422 -79.1516 182.75 -61.0276 -70.8615 188.177 -52.5894 -54.3529 222.188 -115.574 -30.1911 222.304 -106.2 -8.48493 216.418 -80.2008 -52.7323 232.675 -21.3934 7.16047 3.76272 65.5483 
166.382 151.465 162.405 168.411 169.258 168.59 102.281 150.763 153.909 144.887 -79.1092 182.298 -60.8413 -71.0642 187.935 -53.113 -54.1843 221.111 -115.577 -30.0075 221.143 -106.093 -8.35581 215.409 -79.9988 -52.727 232.666 -21.6519 7.25768 3.76612 64.7155 
166.553 151.724 162.595 168.179 168.876 168.695 102.758 151.03 154.19 145.309 -79.0475 181.79 -60.6697 -71.4442 187.58 -53.7239 -54.211 220.057 -115.765 -29.9005 220.203 -106.168 -8.14759 214.649 -79.9349 -52.7041 232.723 -21.8014 7.38998 3.88871 63.768 
167.462 150.334 162.937 166.702 166.991 168.703 102.226 151.793 153.904 145.869 -79.2711 180.141 -59.8359 -72.2311 187.236 -52.7035 -53.9975 216.844 -116.218 -29.4309 217.637 -106.335 -7.62491 212.831 -79.8717 -52.7267 232.735 -22.3419 7.4069 4.27437 63.6994 
167.972 149.473 163.247 166.005 165.553 168.47 101.347 152.536 154.033 146.371 -79.2038 178.954 -59.071 -72.3726 186.784 -50.5981 -53.7218 214.192 -116.506 -28.8428 215.609 -106.526 -7.2933 211.369 -79.8107 -52.8876 232.481 -22.5799 7.24334 4.69125 65.0208 
168.499 149.297 163.892 166.105 163.65 168.462 102.71 153.769 153.886 145.553 -79.1176 178.241 -58.9167 -72.5816 186.044 -49.4902 -53.4777 213.155 -116.866 -28.1972 213.514 -106.252 -7.54665 208.292 -78.7463 -52.8441 232.53 -22.9155 7.84376 4.70816 66.1474 
168.778 149.493 164.344 166.088 163.312 168.376 104.002 154.737 153.84 145.982 -79.0188 177.475 -58.591 -72.6736 185.296 -48.504 -53.2229 212.09 -117.062 -27.8315 211.62 -105.96 -7.78375 206.314 -78.1855 -52.8267 232.542 -23.2114 7.94693 4.69726 67.07 
168.705 149.99 164.525 165.797 162.953 167.989 104.692 154.846 153.336 145.972 -78.6269 176.699 -58.1604 -72.4481 184.533 -47.7382 -52.9087 210.892 -117.058 -27.3714 210.053 -105.718 -7.76565 204.935 -77.7601 -52.843 232.222 -23.3669 7.88551 4.81556 67.6823 
168.758 150.242 164.602 165.556 162.723 167.875 105.529 155.12 153.024 146.047 -78.5203 176.274 -57.8915 -72.4653 184.037 -47.4333 -52.6627 210.177 -117.109 -27.1141 208.819 -105.411 -7.95967 203.75 -77.2836 -52.8627 232.247 -23.6001 7.95348 4.86231 67.9439 
168.682 150.288 164.611 165.233 162.578 167.732 106.129 155.257 152.7 146.165 -78.5484 176.044 -57.7676 -72.4299 183.745 -47.1927 -52.5533 209.757 -117.185 -27.0258 208.052 -105.242 -8.14062 203.124 -77.0943 -52.9064 232.314 -23.8551 7.91308 4.89908 68.2338 
168.591 150.283 164.533 164.959 162.535 167.588 106.459 155.333 152.483 146.312 -78.5036 175.86 -57.5307 -72.3791 183.604 -47.068 -52.4172 209.489 -117.286 -26.9006 207.657 -105.138 -8.1933 202.943 -76.9532 -52.9958 232.505 -24.083 7.86587 4.94437 68.4525 
168.479 150.226 164.426 164.801 162.574 167.488 106.729 155.399 152.424 146.402 -78.4579 175.834 -57.3544 -72.3711 183.563 -46.9661 -52.3228 209.356 -117.351 -26.8753 207.539 -105.12 -8.32552 202.893 -76.8438 -53.0707 232.744 -24.287 7.91856 4.91978 68.6329 
168.416 150.144 164.395 164.719 162.728 167.418 106.911 155.356 152.336 146.514 -78.5062 175.932 -57.2954 -72.4117 183.655 -47.1609 -52.2698 209.219 -117.415 -26.8947 207.467 -105.117 -8.43294 203.007 -76.8241 -53.1911 233.057 -24.5298 7.86806 4.88992 68.4935 
168.363 150.031 164.327 164.59 162.845 167.352 106.847 155.211 152.198 146.518 -78.6777 176.184 -57.3376 -72.4207 183.909 -47.2744 -52.1614 209.057 -117.491 -26.838 207.389 -105.125 -8.49727 203.149 -76.8195 -53.3068 233.43 -24.8194 7.79132 4.87843 68.4352 
168.441 149.989 164.298 164.597 163.021 167.414 106.819 155.141 152.133 146.565 -78.8351 176.374 -57.5137 -72.499 184.137 -47.4879 -52.1705 208.874 -117.602 -26.8926 207.165 -105.152 -8.63262 203.17 -76.8698 -53.4778 233.758 -25.1401 7.70624 4.879 68.2636 
168.586 149.85 164.342 164.646 163.143 167.594 106.597 155.116 152.125 146.439 -79.1373 176.647 -57.7625 -72.4986 184.431 -47.5546 -52.1146 208.657 -117.747 -26.882 207.011 -105.204 -8.76978 203.22 -76.8148 -53.6714 234.118 -25.4845 7.72682 4.8752 68.2416 
168.66 149.575 164.306 164.656 163.179 167.771 106.231 154.996 152.073 146.173 -79.4584 176.983 -58.0629 -72.6577 184.853 -47.618 -52.0632 208.649 -117.893 -26.9389 207.181 -105.339 -8.95091 203.401 -76.763 -53.8796 234.476 -25.7961 7.87759 4.79725 68.287 
168.543 149.074 164.207 164.725 163.243 167.823 105.735 154.996 152.27 146.133 -79.7744 177.37 -58.3566 -72.8852 185.372 -47.5823 -52.2424 209.016 -118.195 -27.1637 207.902 -105.799 -9.18113 204.027 -77.0527 -54.1479 234.835 -26.0963 8.01962 4.71603 68.6527 
168.39 148.722 164.138 164.829 163.305 167.853 105.389 155.032 152.542 146.072 -80.0814 177.857 -58.6252 -73.1295 185.912 -47.4975 -52.6763 209.661 -118.537 -27.592 208.992 -106.394 -9.53718 204.923 -77.4737 -54.4553 235.252 -26.359 8.20073 4.66263 69.1454 
167.949 148.451 163.618 164.597 162.991 167.778 104.841 154.602 152.497 145.35 -80.7047 178.684 -59.1018 -73.948 187.044 -48.0548 -53.6688 211.279 -119.249 -28.5799 211.287 -107.524 -10.4301 206.602 -78.1866 -55.1699 236.214 -26.9782 8.80045 4.62472 69.5718 
167.706 148.074 163.364 164.647 163.048 167.747 104.443 154.494 152.671 145.227 -80.7392 179.004 -59.2892 -74.2651 187.56 -48.3135 -54.1472 212.027 -119.62 -29.0436 212.551 -108.213 -10.7058 207.659 -78.8026 -55.4271 236.591 -27.2622 8.9349 4.64767 69.8061 
167.679 148.024 163.102 164.577 162.89 167.829 104.189 154.29 152.547 144.794 -80.9704 179.41 -59.7237 -74.6767 188.09 -48.8415 -54.5717 212.848 -120.085 -29.4801 213.386 -108.727 -11.1135 208.149 -79.1767 -55.7469 237.001 -27.6661 9.26199 4.62653 69.9083 
167.697 147.951 162.864 164.403 162.64 167.902 104.101 154.106 152.251 144.23 -81.341 179.798 -60.1553 -75.0571 188.431 -49.4982 -54.8522 213.562 -120.48 -29.8389 213.767 -108.997 -11.526 208.209 -79.3098 -56.0379 237.284 -27.9867 9.60923 4.52771 69.7945 
167.686 148.012 162.624 164.25 162.483 167.897 104.119 153.931 151.987 143.817 -81.5773 179.988 -60.3811 -75.3449 188.624 -49.9892 -55.0937 213.9 -120.795 -30.1274 213.896 -109.204 -11.8476 208.191 -79.4279 -56.3352 237.535 -28.3592 9.85772 4.48503 69.756 
167.679 148.227 162.44 164.118 162.372 167.846 104.215 153.727 151.684 143.548 -81.9075 180.337 -60.5843 -75.5641 188.885 -50.4413 -55.2695 214.278 -121.016 -30.335 214.007 -109.277 -12.1078 208.316 -79.527 -56.6659 237.903 -28.6671 9.93613 4.47077 69.645 
167.778 148.179 162.603 164.242 162.564 167.83 104.382 153.833 151.693 143.752 -82.2217 180.707 -60.8968 -75.837 189.153 -50.7627 -55.4951 214.336 -121.269 -30.5887 213.879 -109.437 -12.3948 208.43 -79.8412 -57.0119 238.281 -29.0242 9.76465 4.45978 69.4646 
167.916 148.057 162.886 164.617 162.956 167.836 104.585 154.261 152.136 144.373 -82.3925 180.987 -61.1333 -75.97 189.332 -50.8453 -55.5704 214.352 -121.555 -30.7409 213.832 -109.692 -12.5826 208.641 -80.2553 -57.2754 238.58 -29.3004 9.508 4.40546 69.5062 
168.03 148.024 163.069 164.832 163.187 167.887 104.766 154.638 152.553 144.761 -82.5718 181.185 -61.3505 -75.9169 189.333 -50.8461 -55.6743 214.414 -121.869 -30.8492 214.046 -110.032 -12.7074 208.991 -80.6018 -57.516 238.777 -29.5634 9.43839 4.39371 69.7296 
168.103 148.082 163.237 164.938 163.372 167.884 104.773 154.795 152.723 145.055 -82.7469 181.518 -61.7203 -75.8779 189.553 -50.9221 -55.8425 214.651 -122.137 -31.052 214.374 -110.327 -12.8892 209.508 -81.0377 -57.7723 239.021 -29.8219 9.24728 4.35898 69.8743 
168.041 148.097 163.313 165.037 163.595 167.754 104.804 154.935 153.071 145.424 -82.7985 181.719 -61.9106 -75.8342 189.686 -50.903 -56.1597 214.798 -122.4 -31.3614 214.963 -110.8 -13.1139 210.292 -81.5985 -58.0483 239.264 -30.0678 9.03369 4.34418 70.0964 
168.153 148.16 163.369 165.078 163.707 167.825 104.714 155.029 153.266 145.623 -83.0035 182.012 -62.271 -75.9087 189.962 -51.023 -56.4303 215.155 -122.739 -31.5655 215.598 -111.243 -13.2724 211.021 -82.0577 -58.3475 239.575 -30.3456 8.94576 4.39545 70.2941 
168.162 148.132 163.395 165.036 163.786 167.823 104.591 154.893 153.271 145.71 -83.3481 182.38 -62.6735 -76.0521 190.265 -51.4131 -56.8153 215.365 -122.976 -31.9615 216.206 -111.67 -13.5836 211.816 -82.6002 -58.6343 239.848 -30.6329 8.71877 4.40518 70.0948 
168.287 147.978 163.531 165.081 163.777 167.927 104.465 154.773 153.173 145.689 -83.7012 182.769 -63.0562 -76.2856 190.606 -51.8376 -57.194 215.403 -123.101 -32.3553 216.482 -111.89 -13.9188 212.332 -82.9406 -58.9559 240.175 -30.9139 8.55019 4.40772 69.6706 
168.356 147.872 163.582 165.021 163.754 167.954 104.471 154.632 152.985 145.719 -84.0515 183.069 -63.3332 -76.4875 190.788 -52.2419 -57.5312 215.138 -123.185 -32.7408 216.27 -111.991 -14.2711 212.517 -83.2337 -59.2821 240.454 -31.2559 8.30296 4.36541 69.201 
168.43 147.9 163.476 164.8 163.558 168.053 104.39 154.279 152.531 145.359 -84.4272 183.288 -63.6482 -76.823 191.023 -52.6805 -57.8685 215.018 -123.306 -33.1335 216.043 -112.025 -14.6723 212.434 -83.2944 -59.6377 240.708 -31.644 8.3411 4.31164 68.8541 
168.613 147.783 163.439 164.638 163.505 168.23 104.389 154.182 152.27 145.19 -84.8158 183.423 -63.8218 -77.087 191.082 -53.0161 -57.9971 214.862 -123.435 -33.3424 215.715 -112 -14.9079 212.239 -83.2325 -59.9423 240.859 -31.8949 8.41622 4.23799 68.5699 
168.613 147.804 163.371 164.434 163.185 168.193 104.335 153.845 151.729 144.565 -85.2702 183.758 -63.8829 -77.6456 191.378 -53.3933 -58.144 214.841 -123.569 -33.5633 215.287 -111.881 -15.2764 211.703 -82.8879 -60.3173 241.219 -32.2253 8.77802 4.19224 68.3291 
168.462 147.593 163.317 164.359 163.166 168.036 104.287 153.845 151.695 144.417 -85.5418 183.998 -63.8245 -78.0992 191.567 -53.4473 -58.2947 214.723 -123.734 -33.773 215.145 -111.972 -15.5972 211.49 -82.7939 -60.6905 241.488 -32.5214 9.01427 4.16739 68.4324 
168.373 147.107 163.303 164.31 163.178 167.934 104.147 153.875 151.668 144.293 -85.9481 184.247 -63.7948 -78.3877 191.73 -53.3403 -58.3638 214.399 -123.778 -33.9167 214.846 -111.957 -15.852 211.227 -82.6121 -61.0063 241.677 -32.7373 9.17432 4.13084 68.5253 
168.336 146.725 163.314 164.356 163.237 167.833 103.999 154.06 151.768 144.217 -86.5176 184.69 -63.8729 -78.6942 192.024 -53.2172 -58.3547 214.354 -124.007 -33.9915 214.725 -112.057 -16.1419 211.018 -82.4528 -61.313 241.977 -32.9828 9.41564 4.09374 68.8278 
168.239 146.279 163.407 164.435 163.271 167.721 103.908 154.322 151.943 144.234 -87.0162 185.211 -64.0317 -79.031 192.337 -53.0662 -58.388 214.31 -124.219 -34.0997 214.595 -112.178 -16.4596 210.806 -82.3675 -61.6073 242.281 -33.249 9.61163 4.06103 69.1472 
168.027 145.851 163.443 164.468 163.36 167.515 104.155 154.435 152.08 144.368 -87.5555 185.777 -64.278 -79.3014 192.538 -53.0886 -58.5675 214.339 -124.358 -34.3883 214.685 -112.395 -16.8395 210.885 -82.5266 -61.8588 242.53 -33.4434 9.60018 3.97041 69.1837 
167.754 145.211 163.484 164.534 163.511 167.298 104.489 154.495 152.277 144.732 -88.0235 186.19 -64.4603 -79.6512 192.593 -53.2861 -58.7191 214.113 -124.357 -34.7164 214.693 -112.576 -17.1775 211.065 -82.7953 -62.1209 242.672 -33.6006 9.34367 3.83349 68.883 
167.598 144.351 163.584 164.705 163.891 167.166 104.771 154.527 152.71 145.478 -88.4026 186.256 -64.2959 -79.9365 192.431 -53.1901 -58.9515 213.127 -124.072 -35.0723 214.394 -112.687 -17.4179 211.31 -83.1231 -62.4503 242.727 -33.7207 8.84029 3.79124 68.4204 
167.383 143.509 163.629 164.787 164.224 166.968 104.907 154.599 153.11 146.199 -88.6416 186.018 -63.8127 -80.2416 192.018 -52.9267 -58.9755 211.787 -123.671 -35.2141 213.723 -112.577 -17.4447 211.248 -83.214 -62.7635 242.588 -33.7704 8.37828 3.84496 68.0613 
167.241 142.512 163.711 164.979 164.652 166.878 104.942 154.693 153.551 147.059 -88.8541 185.603 -63.2963 -80.7131 191.623 -52.7359 -59.1346 210.28 -123.237 -35.4495 212.91 -112.476 -17.4822 211.124 -83.4024 -63.1223 242.404 -33.8718 7.85773 4.01061 67.5973 
167.274 141.788 163.824 165.221 165.112 166.938 104.9 154.66 153.849 147.872 -89.1372 185.236 -62.8877 -81.1091 191.278 -52.5947 -59.3888 208.801 -122.771 -35.7331 211.95 -112.278 -17.5208 210.896 -83.5638 -63.5125 242.231 -34.019 7.39645 4.18352 67.0761 
167.291 141.266 163.809 165.37 165.536 166.836 105.068 154.616 154.14 148.602 -89.406 185.111 -62.5047 -81.6006 191.099 -52.6675 -59.7048 207.824 -122.468 -36.0912 211.36 -112.204 -17.7045 210.848 -83.771 -63.9375 242.289 -34.1628 7.03538 4.33656 66.5358 
167.368 141.002 163.859 165.534 165.691 166.822 105.15 154.656 154.274 148.898 -89.7937 185.501 -62.5576 -82.0353 191.367 -52.7752 -59.9842 207.654 -122.523 -36.3961 211.284 -112.309 -17.9751 211.013 -83.9821 -64.3308 242.705 -34.4586 6.93484 4.35075 66.3884 
167.597 141.324 163.825 165.598 165.806 166.894 105.017 154.461 154.159 148.699 -89.8666 185.651 -62.6933 -82.1071 191.47 -52.8696 -60.2547 207.558 -122.815 -36.4874 211.335 -112.668 -18.0537 211.241 -84.3746 -64.7039 242.89 -34.7976 6.89182 4.48969 66.5386 
167.684 141.619 163.567 165.442 165.69 166.935 104.97 154.353 153.896 148.468 -90.1061 185.902 -62.8809 -82.2472 191.782 -53.2085 -60.4052 208.066 -123.244 -36.629 211.663 -112.894 -18.1893 211.504 -84.5154 -64.9473 243.335 -35.183 7.10098 4.36167 66.6947 
167.654 141.744 163.493 165.348 165.553 166.823 104.949 154.464 153.848 148.303 -90.0935 186.084 -62.8964 -82.4761 192.094 -53.5321 -60.3829 208.447 -123.673 -36.5543 211.894 -113.073 -18.2147 211.621 -84.4583 -65.1594 243.843 -35.5709 7.39039 4.30372 66.843 
167.447 141.768 163.396 165.185 165.312 166.571 104.793 154.502 153.77 148.027 -90.051 186.256 -62.8125 -82.6052 192.427 -53.6881 -60.2875 208.639 -123.999 -36.4078 212.075 -113.222 -18.1758 211.808 -84.4025 -65.3253 244.315 -35.9051 7.5825 4.30508 67.0027 
167.32 141.735 163.319 165.073 165.184 166.348 104.57 154.508 153.705 147.803 -90.0572 186.517 -62.7971 -82.7252 192.834 -53.7751 -60.1553 208.719 -124.272 -36.2507 212.121 -113.329 -18.203 211.893 -84.346 -65.4593 244.794 -36.2553 7.69299 4.29843 67.1735 
167.31 141.667 163.409 165.114 165.117 166.251 104.378 154.589 153.666 147.606 -90.1424 186.906 -63.0814 -82.8252 193.295 -53.9515 -60.0231 208.706 -124.592 -36.1325 211.91 -113.422 -18.3251 211.724 -84.3054 -65.5925 245.255 -36.7075 7.78866 4.22419 67.2566 
167.262 141.425 163.55 165.176 165.197 166.187 104.236 154.606 153.629 147.634 -90.2529 187.147 -63.2171 -82.8767 193.597 -54.0218 -59.8604 208.346 -124.689 -36.0312 211.48 -113.365 -18.4183 211.569 -84.2656 -65.6978 245.605 -37.0948 7.68516 4.1603 67.2196 
167.244 140.98 163.813 165.333 165.42 166.115 104.025 154.708 153.735 147.863 -90.367 187.429 -63.3929 -82.9591 193.915 -54.0676 -59.5562 207.77 -124.696 -35.8252 210.92 -113.256 -18.4127 211.427 -84.2613 -65.778 245.916 -37.4737 7.42384 4.11017 67.1016 
167.232 140.702 164.077 165.596 165.693 166.033 103.995 154.893 154.019 148.346 -90.5209 187.737 -63.4825 -83.1622 194.149 -54.1774 -59.3627 207.168 -124.744 -35.6747 210.333 -113.231 -18.4157 211.271 -84.3787 -65.8757 246.246 -37.8427 7.1144 4.10114 66.8897 
167.166 140.35 164.332 165.795 165.914 165.917 103.921 155.011 154.21 148.742 -90.6956 187.955 -63.4962 -83.3477 194.393 -54.2404 -59.1683 206.413 -124.701 -35.5376 209.625 -113.115 -18.3871 211.072 -84.399 -65.9852 246.575 -38.2126 6.82631 4.08254 66.6066 
167.11 140.029 164.587 166.042 166.138 165.738 103.76 155.23 154.534 148.997 -90.8525 188.226 -63.4344 -83.434 194.625 -54.0711 -58.9266 205.585 -124.61 -35.3192 209.044 -113.025 -18.3621 210.959 -84.3003 -66.1163 246.951 -38.587 6.67556 4.11834 66.5025 
166.903 139.317 164.918 166.325 166.515 165.527 103.614 155.489 155.002 149.627 -91.0213 188.428 -63.2451 -83.7171 194.791 -53.9636 -58.7698 204.354 -124.387 -35.1649 208.156 -112.906 -18.2865 210.726 -84.3234 -66.2558 247.26 -39.0249 6.36506 4.21699 66.1965 
166.203 137.488 165.597 166.728 167.16 164.984 103.206 155.561 155.589 150.393 -91.2719 188.197 -62.53 -84.3922 194.29 -53.7385 -58.4039 200.731 -123.298 -34.9463 205.509 -112.207 -18.2543 209.435 -83.8338 -66.7033 247.08 -39.8234 5.90197 4.46 65.1858 
165.371 136.149 166.124 166.841 167.793 164.133 103.118 156.05 156.367 151.48 -91.7271 187.942 -61.2364 -85.05 193.419 -52.9403 -58.3646 197.52 -122.144 -34.8978 203.24 -111.49 -18.2247 208.254 -83.4588 -67.1251 246.568 -40.0003 5.43969 4.8551 64.6212 
164.333 134.969 166.573 167.055 168.262 162.785 103.143 156.347 156.872 152.411 -92.4487 187.949 -60.288 -85.692 192.716 -52.3085 -58.4264 194.544 -121.083 -35.0082 200.868 -110.763 -18.3696 206.984 -83.2159 -67.6528 246.067 -40.2811 4.90862 5.14747 64.105 
163.687 133.932 167.163 167.39 168.63 161.816 103.317 156.932 157.393 153.199 -93.1197 187.856 -59.4273 -86.3094 192.065 -51.7807 -58.5901 191.805 -120.123 -35.2071 198.537 -109.953 -18.6117 205.812 -82.8227 -68.2452 245.814 -40.6276 4.56523 5.25079 63.4552 
163.169 133.294 167.696 167.735 168.992 160.94 103.314 157.597 158.055 154.091 -93.8871 187.572 -58.9373 -86.8832 191.575 -51.2254 -58.9454 189.223 -119.59 -35.4838 196.369 -109.672 -18.8533 204.643 -82.9152 -68.788 245.452 -41.2167 4.35691 5.43441 63.2513 
162.507 132.724 167.987 167.849 169.035 159.713 103.28 157.978 158.329 154.185 -94.7749 187.787 -58.8145 -87.4752 191.454 -50.9294 -59.4732 187.534 -119.401 -35.92 195.082 -109.733 -19.3553 203.919 -83.0835 -69.3522 245.359 -41.8812 4.27477 5.62326 63.1835 
161.956 131.977 168.226 168.007 169.025 158.544 103.08 158.275 158.495 154.229 -95.5258 188.151 -58.8982 -87.7227 191.554 -50.6328 -59.8923 186.176 -119.137 -36.4175 194.198 -109.8 -19.9145 203.718 -83.4298 -69.9251 245.416 -42.5159 4.08513 5.73703 63.0868 
161.335 131.317 168.268 167.99 168.823 157.885 103.034 158.314 158.456 154.129 -96.1691 188.694 -58.9724 -88.0909 191.816 -50.5312 -60.5742 185.546 -118.914 -37.1403 194.021 -109.93 -20.6131 204.015 -83.793 -70.596 245.719 -42.9949 3.98193 5.89113 62.8856 
160.73 129.121 168.185 167.863 170.515 157.188 103.705 158.381 158.862 155.625 -95.4601 187.991 -57.8393 -88.4423 190.863 -50.3879 -61.1113 183.923 -118.326 -37.2311 193.286 -109.751 -20.8095 204.563 -84.2289 -71.1969 245.75 -43.3801 3.70319 6.30399 62.0608 
160.433 127.19 168.016 167.773 172.024 156.915 104.338 158.288 159.046 156.476 -94.8532 187.372 -57.2218 -88.7457 190.155 -50.6347 -61.707 182.784 -117.908 -37.5198 192.812 -109.676 -21.2668 205.108 -84.6326 -71.8611 245.875 -43.8543 3.48547 6.5874 61.0909 
160.078 127.648 168.008 167.858 171.466 156.85 104.65 158.143 158.89 156.381 -95.7116 187.708 -57.5813 -89.5437 190.738 -51.1458 -62.8733 183.004 -118.149 -38.7511 192.938 -110.091 -22.31 205.338 -85.3626 -72.6444 246.362 -44.339 3.49447 6.57495 60.6908 
160.087 128.14 168.109 168.036 170.944 157.169 104.854 158.194 158.881 156.233 -96.8586 188.04 -58.0667 -90.4217 191.346 -51.5549 -64.113 183.091 -118.461 -40.1076 192.871 -110.567 -23.5094 205.303 -86.0274 -73.4859 246.876 -44.9412 3.49123 6.47541 60.407 
159.779 128.4 168.208 168.217 170.484 156.932 105.142 158.336 158.936 156.016 -97.9677 188.494 -58.545 -91.2781 191.669 -51.9538 -65.3483 183.088 -118.844 -41.4524 192.711 -111.075 -24.6943 205.063 -86.6169 -74.2392 247.148 -45.5163 3.49748 6.41044 60.2351 
159.251 128.391 168.208 168.301 170.058 156.557 105.143 158.366 158.863 155.516 -99.0621 189.119 -59.1091 -92.0504 192.032 -52.3099 -66.4671 183.35 -119.271 -42.6457 192.863 -111.579 -25.8741 205.001 -87.0395 -74.9475 247.388 -45.9971 3.40126 6.35751 60.2625 
159.296 125.857 168.148 168.496 170.389 156.677 106.101 159.031 159.417 155.939 -98.9546 188.785 -58.5812 -92.6702 190.892 -52.6683 -67.2066 182.362 -119.463 -42.7637 192.172 -111.604 -26.2103 204.815 -86.9062 -75.6015 247.34 -46.4611 3.35575 6.48578 59.6721 
159.405 124.326 168.264 168.421 170.897 156.803 106.893 159.377 159.652 156.087 -98.4277 188.185 -58.1261 -92.9043 189.811 -52.8643 -67.8075 181.404 -119.518 -42.9015 191.696 -111.677 -26.5684 205.002 -87.0161 -76.2146 247.229 -46.9752 3.26158 6.69567 59.2045 
159.647 123.321 168.387 168.314 170.723 157.028 108.073 159.579 159.822 155.898 -98.6611 187.797 -58.5213 -93.8502 189.173 -53.8392 -69.5041 181.071 -120.393 -44.2469 191.94 -112.844 -27.9423 205.747 -88.2 -77.6392 247.709 -48.3152 3.26356 6.92531 58.5554 
159.901 123.082 168.167 168.055 170.415 157.267 108.548 159.308 159.795 155.699 -98.46 187.801 -58.5833 -93.759 189.049 -54.0109 -70.0747 180.907 -120.351 -44.7818 192.318 -113.301 -28.4142 206.416 -88.8083 -78.1577 248.149 -48.9174 3.29256 7.13393 58.1337 
159.971 123.232 167.698 167.732 170.246 157.407 108.847 158.864 159.702 155.626 -98.8065 187.993 -58.7078 -94.2338 189.181 -54.2293 -70.9764 181.071 -120.482 -45.692 192.935 -113.993 -29.1518 207.12 -89.551 -78.9008 248.622 -49.4506 3.39621 7.38781 57.9158 
160.087 122.91 167.236 167.692 170.276 157.52 108.85 158.642 159.894 155.906 -99.4006 188.344 -58.9058 -94.895 189.535 -54.5555 -71.6937 181.291 -120.908 -46.4337 193.518 -114.823 -29.6752 207.757 -90.3265 -79.5804 249.112 -49.9374 3.57753 7.60437 57.8713 
160.094 122.445 166.871 167.706 170.345 157.369 108.917 158.48 160.099 156.189 -100.011 189.073 -59.2402 -95.5349 189.943 -55.039 -72.4522 181.749 -121.371 -47.1241 194.264 -115.595 -30.1611 208.545 -91.059 -80.234 249.665 -50.289 3.73483 7.85305 57.7163 
160.205 122.47 166.646 167.822 171.056 157.477 109.115 158.459 160.486 156.98 -100.323 189.55 -59.5395 -95.9395 190.198 -55.2907 -72.9872 181.949 -121.676 -47.6765 194.825 -116.305 -30.6432 209.245 -91.8548 -80.801 250.113 -50.7175 3.75509 8.09281 57.6431 
160.324 123.1 166.461 167.869 171.761 157.582 108.981 158.251 160.593 157.517 -100.537 190.124 -59.9515 -96.2458 190.821 -55.3788 -73.3761 182.409 -121.831 -48.1214 195.509 -116.733 -31.2026 209.965 -92.4089 -81.3215 250.705 -51.1067 3.62363 8.23651 57.7547 
160.334 123.697 166.348 167.902 172.615 157.537 108.682 157.978 160.539 157.968 -100.798 190.625 -60.5424 -96.5872 191.631 -55.5777 -73.7965 182.969 -122.098 -48.6204 196.121 -117.17 -31.8177 210.6 -93.1148 -81.738 251.225 -51.5675 3.42193 8.29946 57.9688 
160.269 124.286 166.212 167.855 173.522 157.57 108.278 157.585 160.326 158.38 -101.082 191.023 -60.8429 -96.8651 192.506 -55.6225 -74.1527 183.505 -122.116 -49.1074 196.71 -117.363 -32.445 211.295 -93.7016 -82.1687 251.807 -52.0003 3.19743 8.30654 58.1676 
160.325 124.972 166.102 167.775 174.296 157.767 108.031 157.25 160.084 158.864 -101.395 191.367 -61.1129 -97.1191 193.269 -55.7871 -74.3375 184.07 -122.201 -49.3958 197.248 -117.451 -32.8943 211.971 -94.1789 -82.5052 252.399 -52.394 3.0068 8.25018 58.2838 
160.437 125.551 166.073 167.742 175.167 157.944 107.685 157.099 159.95 159.388 -101.987 191.739 -61.3754 -97.6207 194.139 -55.9463 -74.6843 184.72 -122.521 -49.7786 197.778 -117.677 -33.3758 212.618 -94.7251 -82.9132 253.019 -52.7332 2.90825 8.1612 58.545 
