151.064 145.021 156.112 160.458 160.996 158.823 97.2896 139.029 156.956 154.338 96.8523 235.497 -20.0593 88.5779 228.491 -32.8992 93.4721 209.565 -94.0543 57.9875 207.029 -116.349 23.5475 198.358 -98.5448 36.5379 258.181 -43.2083 14.286 25.3745 58.4708 
151.235 144.758 155.879 160.913 160.975 158.962 97.4759 138.805 156.949 154.064 97.2395 235.213 -19.8387 88.992 228.207 -32.8795 93.8465 209.375 -93.8976 58.5642 206.936 -116.229 24.0286 198.385 -98.5415 37.0147 258.202 -43.2432 14.2935 25.2505 58.2511 
151.467 144.597 155.346 160.911 161.035 159.039 97.51 138.624 157.037 154.305 97.5622 234.892 -19.6936 89.3834 228.077 -32.8198 94.145 209.035 -93.5971 58.9303 206.617 -116.134 24.3336 198.108 -98.4944 37.3814 258.013 -43.2021 14.3455 25.3761 58.0554 
151.214 144.518 155.18 160.654 160.975 158.876 97.2447 138.162 157.013 154.504 97.6308 234.343 -19.7292 89.7935 227.815 -33.1145 94.4803 208.675 -93.2254 59.2349 206.324 -116.199 24.5659 197.817 -98.5734 37.7492 257.742 -43.2105 14.4137 25.7109 57.5068 
151.237 144.27 155.058 160.621 161.016 158.894 97.0294 137.883 157.04 154.682 97.9201 234.016 -19.8076 90.311 227.73 -33.4822 94.9146 208.486 -92.9232 59.6655 206.139 -116.265 24.9388 197.563 -98.6668 38.1114 257.53 -43.2336 14.4787 25.9839 56.8779 
151.099 143.713 154.89 160.587 160.942 158.775 96.9563 137.567 157.15 154.922 98.19 233.726 -19.887 90.9136 227.435 -34.0034 95.3914 208.251 -92.5572 60.0059 205.968 -116.412 25.2653 197.321 -98.7881 38.4539 257.238 -43.2551 14.5098 26.4294 55.9886 
151.236 143.514 155.093 160.663 161.019 158.945 97.1994 137.469 157.319 155.15 98.6661 233.466 -19.8328 91.3716 227.089 -34.0917 95.9732 207.957 -92.1969 60.5161 205.782 -116.509 25.737 197.053 -98.9005 38.8075 256.938 -43.2706 14.5245 26.7795 55.5221 
151.575 143.052 155.358 160.954 161.029 159.08 97.5121 137.228 157.444 154.932 99.3383 232.644 -19.6532 92.3124 226.45 -34.3281 96.7206 207.404 -91.8707 61.3739 205.48 -116.448 26.6693 196.687 -98.7756 39.5789 256.543 -43.2658 14.4434 26.9393 54.835 
151.802 142.757 154.977 160.772 160.866 159.169 97.5297 137.158 157.381 154.749 99.5173 232.379 -19.4681 92.7105 226.251 -34.554 96.7663 207.271 -91.9561 61.4348 205.342 -116.268 26.8002 196.522 -98.5655 39.7652 256.399 -43.2301 14.441 26.8032 54.6284 
152.09 142.344 154.644 161.267 161.046 159.298 97.535 137.368 157.462 154.656 99.975 232.427 -19.4038 93.1137 226.109 -34.7189 97.2343 207.143 -91.6376 61.8777 205.108 -116.138 27.2423 196.367 -98.4564 40.0785 256.302 -43.2015 14.3905 26.9044 54.1514 
152.14 142.055 154.541 161.479 161.048 159.374 97.8382 137.478 157.475 154.707 100.379 232.422 -19.2112 93.6206 225.84 -34.8242 97.6403 207.091 -91.6879 62.2856 205.03 -116.051 27.5861 196.32 -98.505 40.3862 256.177 -43.1716 14.4275 26.7981 53.925 
152.266 141.758 154.101 161.909 161.117 159.447 97.8239 137.706 157.557 154.641 100.483 232.108 -19.2509 93.7929 225.62 -34.8678 97.8781 206.941 -91.8047 62.6267 204.855 -115.966 27.8794 196.241 -98.5336 40.6419 256.065 -43.2099 14.4202 26.5707 53.9629 
152.357 141.503 153.653 162.062 161.211 159.587 97.7996 138.023 157.589 154.669 100.887 232.206 -19.348 94.0463 225.522 -34.8884 98.1649 206.741 -91.8528 62.9312 204.509 -115.836 28.1646 195.985 -98.4539 40.9127 255.941 -43.2541 14.4239 26.4181 53.9875 
152.543 141.48 153.719 162.147 161.395 159.661 97.9418 138.302 157.667 154.885 101.176 232.266 -19.4112 94.3086 225.475 -34.8632 98.4641 206.642 -91.8759 63.1614 204.389 -115.875 28.3674 195.929 -98.4931 41.1345 255.982 -43.2942 14.4087 26.4137 53.9442 
152.678 141.553 154.082 162.213 161.582 159.718 98.3662 138.504 157.761 155.221 101.482 232.184 -19.5005 94.6477 225.261 -34.804 98.8687 206.502 -91.868 63.4848 204.336 -116.042 28.6369 195.911 -98.7204 41.3946 255.954 -43.3437 14.3986 26.5213 53.8132 
152.863 141.57 155.432 162.272 161.791 159.854 99.2405 139.04 158.013 155.741 102.162 232.058 -19.7943 95.4517 224.787 -34.9192 99.6235 206.192 -92.3589 64.1214 204.216 -116.505 29.2686 195.735 -99.1952 41.9138 255.788 -43.5974 14.336 26.4892 53.7558 
152.88 141.723 156.608 162.22 161.844 159.895 99.8882 139.632 158.218 156.158 102.417 231.893 -19.8566 95.795 224.451 -34.8281 100.012 206.133 -93.0056 64.4354 204.219 -116.809 29.5539 195.646 -99.5775 42.101 255.625 -43.7314 14.3272 26.2295 54.1657 
152.951 141.966 157.642 161.986 161.796 159.842 100.426 140.205 158.296 156.395 102.297 231.391 -19.9582 96.1346 224.247 -34.7393 100.215 206.109 -93.7738 64.5221 204.195 -117.011 29.6366 195.54 -99.736 42.2338 255.521 -43.8277 14.3498 25.8769 54.7266 
152.992 141.937 158.562 161.965 161.759 159.801 100.95 141.007 158.381 156.508 102.312 231.009 -20.0142 96.4396 223.872 -34.7469 100.382 205.985 -94.6556 64.686 204.076 -117.172 29.8352 195.403 -99.8802 42.3911 255.377 -43.9234 14.2939 25.3386 55.2342 
152.961 141.881 159.283 161.91 161.776 159.77 101.151 141.5 158.483 156.675 102.449 230.918 -20.1181 96.6984 223.746 -34.8969 100.557 205.955 -95.2755 64.8008 203.998 -117.342 29.9208 195.346 -100.048 42.5485 255.342 -44.0287 14.3013 25.0187 55.5003 
152.743 141.733 159.603 161.777 161.654 159.587 101.218 141.751 158.482 156.714 102.415 230.655 -20.2578 97.0394 223.694 -35.148 100.811 206.046 -95.7419 65.0582 204.07 -117.556 30.1743 195.372 -100.311 42.7357 255.258 -44.1465 14.2953 24.8276 55.5746 
152.733 141.528 159.846 161.693 161.643 159.558 101.208 141.925 158.624 156.913 102.589 230.72 -20.4144 97.3528 223.821 -35.449 101.131 206.25 -95.9663 65.2511 204.288 -117.902 30.3747 195.474 -100.629 42.8745 255.223 -44.2751 14.3082 24.9771 55.4769 
152.71 141.309 159.859 161.582 161.638 159.565 101.264 141.98 158.777 157.167 102.945 230.952 -20.5399 97.6587 223.826 -35.7685 101.421 206.391 -96.087 65.3907 204.514 -118.271 30.4808 195.667 -101.031 43.0396 255.178 -44.4149 14.3438 25.2351 55.2753 
152.733 141.359 159.735 161.402 161.604 159.634 101.475 142.138 158.924 157.434 103.174 231.035 -20.6314 97.8949 223.763 -35.8776 101.608 206.612 -96.5433 65.5069 204.835 -118.628 30.5523 195.904 -101.447 43.1715 255.11 -44.5369 14.4073 25.2312 55.5352 
152.486 141.248 159.347 161.383 161.395 159.499 101.081 142.038 159.067 158.179 103.121 230.727 -20.787 97.9116 223.457 -35.9977 101.742 206.435 -96.6383 65.5175 204.707 -118.801 30.351 195.874 -101.791 43.2098 254.893 -44.6391 14.4672 25.2135 55.6166 
152.513 141.227 159.017 161.359 161.427 159.585 100.885 142.099 159.106 158.252 103.347 230.866 -21.0487 97.9788 223.423 -36.2204 101.992 206.49 -96.7616 65.6608 204.897 -119.161 30.449 196.071 -102.223 43.3568 254.827 -44.8143 14.4958 25.4333 55.5888 
152.454 141.339 158.565 161.295 161.482 159.512 100.572 142.146 159.181 158.373 103.276 230.61 -21.3058 98.0644 223.424 -36.5367 102.29 206.473 -96.7233 65.8046 204.985 -119.542 30.5317 196.131 -102.621 43.5106 254.73 -45.0131 14.5594 25.8107 55.3768 
152.279 141.27 158.136 161.163 161.545 159.43 100.065 142.054 159.334 158.541 103.37 230.629 -21.5363 98.1769 223.557 -36.9344 102.527 206.486 -96.7288 65.9607 205.068 -119.952 30.6316 196.179 -103.054 43.6731 254.632 -45.2562 14.6305 26.1518 55.1738 
151.994 141.04 157.591 161.298 161.675 159.153 99.7074 142.042 159.556 158.731 103.654 230.975 -21.6442 98.365 223.644 -37.2849 102.793 206.315 -96.5542 66.0891 204.899 -120.257 30.7021 196.074 -103.339 43.8338 254.542 -45.4525 14.6826 26.5508 54.7788 
151.849 141 157.231 161.359 161.768 159.073 99.247 141.962 159.648 158.791 103.877 231.277 -21.8234 98.3702 223.723 -37.582 102.916 206.185 -96.3964 66.1323 204.808 -120.508 30.7215 196.106 -103.593 43.97 254.548 -45.665 14.6891 26.8733 54.518 
151.764 141 156.883 161.825 161.889 159.056 99.0622 142.111 159.811 158.643 104.058 231.315 -21.9921 98.3454 223.577 -37.7442 103.072 205.997 -96.4468 66.3837 204.71 -120.672 30.9227 196.102 -103.837 44.1293 254.501 -45.8793 14.6843 26.8831 54.4393 
151.672 141.046 156.726 162.508 161.913 159.065 99.1847 142.183 159.878 158.208 104.321 231.274 -22.2973 98.3774 223.122 -37.9248 103.187 205.735 -96.885 66.8339 204.633 -120.964 31.3483 196.238 -104.284 44.4486 254.493 -46.2704 14.5803 26.5586 54.5817 
151.732 141.126 156.641 163.035 161.935 159.195 99.6221 142.124 159.828 157.865 104.397 231.097 -22.3901 98.4429 222.759 -37.9128 103.215 205.683 -97.1923 67.1585 204.63 -121.043 31.6652 196.329 -104.517 44.61 254.508 -46.4849 14.5149 26.2105 54.7215 
151.795 141.288 156.885 163.459 162.04 159.393 100.18 142.201 159.798 157.692 104.453 230.798 -22.4938 98.5853 222.382 -37.8874 103.386 205.66 -97.554 67.4982 204.716 -121.235 31.962 196.467 -104.859 44.823 254.543 -46.7142 14.4824 25.9524 54.8953 
151.831 141.601 157.626 163.669 162.27 159.475 100.731 142.638 159.917 157.837 104.353 230.398 -22.7286 98.7046 222.111 -37.7098 103.561 205.531 -98.1184 67.7538 204.679 -121.502 32.2034 196.475 -105.2 45.0077 254.526 -46.9516 14.4352 25.6581 55.4006 
151.933 141.839 157.986 163.71 162.424 159.544 101.165 142.89 159.96 157.929 104.257 229.997 -22.8727 98.827 221.834 -37.5861 103.741 205.372 -98.4389 68.0433 204.632 -121.718 32.5055 196.424 -105.427 45.1791 254.493 -47.1186 14.3619 25.4891 55.667 
151.973 141.973 158.191 163.641 162.577 159.548 101.506 143.054 160.025 158.173 104.308 229.776 -23.0382 99.0183 221.671 -37.5791 103.976 205.251 -98.5901 68.2923 204.544 -121.97 32.7726 196.269 -105.651 45.35 254.422 -47.2543 14.3211 25.5169 55.7168 
152.04 142.245 158.381 163.484 162.638 159.608 101.989 143.242 160.065 158.355 104.361 229.469 -23.1644 99.3215 221.504 -37.5521 104.158 205.227 -98.9979 68.4905 204.551 -122.195 33.0169 196.189 -105.838 45.5312 254.369 -47.3811 14.2828 25.3778 55.9457 
152.13 142.466 158.659 163.303 162.606 159.697 102.352 143.587 160.077 158.342 104.429 229.161 -23.2379 99.4802 221.282 -37.3906 104.22 205.119 -99.5799 68.615 204.454 -122.324 33.2363 196.033 -105.864 45.6881 254.265 -47.4742 14.2033 25.031 56.495 
152.138 142.527 158.71 163.182 162.593 159.766 102.631 143.79 160.128 158.35 104.653 228.964 -23.3261 99.6786 220.983 -37.3825 104.323 204.927 -99.9811 68.7627 204.254 -122.492 33.4707 195.807 -105.942 45.859 254.065 -47.5886 14.1219 24.8378 56.7679 
152.235 142.618 159.134 163.114 162.527 159.883 102.833 144.262 160.167 158.284 104.968 228.808 -23.3239 99.8652 220.795 -37.2687 104.482 204.901 -100.731 68.9723 204.129 -122.59 33.7618 195.585 -105.955 46.0475 253.875 -47.6759 14.0701 24.357 57.4606 
152.193 142.551 159.216 163.08 162.29 159.903 102.406 144.293 160.213 158.792 105.168 228.466 -23.3237 100.053 220.584 -37.4007 104.688 204.812 -101.015 69.0651 203.86 -122.597 33.7705 195.293 -105.993 46.1513 253.612 -47.727 14.0839 24.1 57.688 
152.298 142.532 159.435 162.761 162.117 159.995 102.034 144.313 160.192 158.739 105.474 228.261 -23.2611 100.353 220.665 -37.663 105.104 204.954 -101.236 69.3644 203.853 -122.718 34.0857 195.097 -106.017 46.3975 253.376 -47.8221 14.1538 24.1318 57.8288 
152.402 142.381 159.35 162.34 161.864 160.085 101.5 144.193 160.182 158.763 105.825 228.148 -23.1519 100.58 220.693 -38.0028 105.442 204.984 -101.259 69.5094 203.783 -122.857 34.2053 194.86 -106.059 46.5961 253.054 -47.887 14.2884 24.3787 57.7835 
152.516 142.259 159.179 162.209 161.714 160.174 101.023 144.135 160.139 158.674 106.098 227.949 -22.996 100.642 220.506 -38.2307 105.811 204.848 -101.065 69.7022 203.632 -122.931 34.2999 194.68 -106.106 46.7784 252.741 -47.9341 14.411 24.6717 57.6315 
152.657 142.192 158.504 162.073 161.546 160.228 100.283 144.047 160.166 158.672 106.361 227.765 -22.8662 100.694 220.478 -38.4412 106.229 204.638 -100.781 69.9245 203.358 -122.961 34.4303 194.349 -106.103 46.9628 252.363 -48.022 14.5579 25.0384 57.5251 
152.853 142.176 158.183 162.026 161.436 160.316 99.7468 143.869 160.258 158.658 106.625 227.729 -22.7894 100.696 220.398 -38.5332 106.359 204.37 -100.675 69.9837 203.1 -122.955 34.4061 194.134 -106.081 47.0935 252.102 -48.0866 14.6684 25.1911 57.575 
153.163 142.269 157.947 162.097 161.347 160.569 99.6047 144.046 160.396 158.598 107.124 227.672 -22.7836 100.763 220.084 -38.3556 106.622 203.998 -101.003 70.2759 202.767 -122.997 34.5322 193.914 -106.224 47.3516 251.762 -48.2544 14.8034 25.0011 58.1501 
153.286 142.411 157.62 162.271 161.52 160.673 99.2767 144.206 160.537 158.705 107.338 227.669 -22.8575 100.664 219.996 -38.3136 106.767 203.759 -100.993 70.4098 202.514 -123.086 34.5609 193.784 -106.403 47.4851 251.627 -48.3855 14.8633 25.0415 58.3297 
153.397 142.492 157.43 162.62 161.633 160.758 98.9776 144.3 160.593 158.573 107.508 227.546 -22.9701 100.571 219.878 -38.2629 106.909 203.56 -101.115 70.7246 202.3 -123.128 34.7835 193.7 -106.589 47.6519 251.505 -48.5443 14.8747 24.8525 58.5878 
153.419 142.547 157.345 163.042 161.73 160.703 98.748 144.384 160.594 158.456 107.482 227.28 -23.1917 100.545 219.797 -38.3906 107.096 203.542 -101.297 71.0293 202.225 -123.257 35.0074 193.716 -106.851 47.8264 251.508 -48.7426 14.8792 24.6882 58.6763 
153.413 142.512 157.397 163.453 161.856 160.644 98.6073 144.479 160.59 158.265 107.397 227.009 -23.4678 100.59 219.771 -38.61 107.238 203.597 -101.558 71.3136 202.248 -123.419 35.2986 193.806 -107.119 48.0147 251.603 -48.9727 14.8101 24.484 58.6881 
153.377 142.447 157.305 163.719 161.959 160.62 98.3701 144.524 160.55 158.142 107.254 226.72 -23.744 100.568 219.772 -38.8395 107.323 203.592 -101.722 71.5376 202.252 -123.579 35.4722 193.891 -107.429 48.1536 251.677 -49.2027 14.8009 24.355 58.6257 
153.35 142.498 157.29 163.801 161.997 160.568 98.168 144.424 160.392 158.008 107.051 226.196 -24.0028 100.609 219.745 -39.1617 107.383 203.593 -101.947 71.7318 202.163 -123.722 35.608 193.856 -107.713 48.3232 251.7 -49.4746 14.8364 24.1974 58.5738 
153.14 142.504 156.914 163.87 162.032 160.304 97.6443 144.7 160.236 157.911 106.764 225.788 -24.3044 100.554 219.934 -39.5694 107.515 203.666 -102.161 71.8936 202.092 -123.9 35.7752 193.804 -107.981 48.4467 251.764 -49.7628 14.8265 24.1162 58.5037 
152.947 142.445 156.658 164.002 162.076 160.005 97.3346 144.643 160.115 157.841 106.29 225.116 -24.6746 100.588 219.996 -40.0211 107.702 203.681 -102.262 72.1177 202.068 -124.132 35.9839 193.746 -108.284 48.5772 251.791 -50.0875 14.8308 24.16 58.2502 
152.869 142.301 156.665 164.219 162.168 159.813 97.6205 144.505 160.083 157.852 106.067 224.808 -25.0103 100.941 219.959 -40.5135 107.852 203.812 -102.575 72.2989 202.106 -124.369 36.1684 193.753 -108.546 48.7002 251.898 -50.3596 14.8253 24.0698 57.8727 
152.741 142.134 156.854 164.067 162.261 159.562 97.6903 144.3 159.968 157.917 105.79 224.49 -25.4229 101.257 220.038 -41.1241 107.981 203.964 -102.828 72.4258 202.171 -124.696 36.3553 193.709 -108.811 48.8034 251.986 -50.6584 14.7959 24.1212 57.4428 
152.744 142.034 157.103 163.926 162.3 159.428 97.9998 144.303 159.988 157.942 105.557 224.124 -25.6698 101.508 219.95 -41.5022 107.99 203.977 -103.171 72.4425 202.185 -124.971 36.4973 193.604 -108.924 48.8793 252.014 -50.8977 14.7236 24.0893 57.2731 
152.671 141.826 157.439 163.77 162.372 159.332 98.1982 144.412 160.145 158.072 105.601 224.092 -25.9131 101.757 219.986 -41.8202 108.04 204.02 -103.632 72.534 202.17 -125.306 36.7107 193.41 -109.096 48.9556 251.964 -51.1404 14.6695 24.0003 57.3052 
152.67 141.774 157.756 163.905 162.456 159.4 98.6665 144.633 160.274 158.071 105.709 224.014 -26.0889 101.954 219.833 -41.9967 108.149 204.132 -104.189 72.7161 202.26 -125.61 36.9197 193.399 -109.374 49.0397 251.933 -51.3916 14.6529 23.7786 57.497 
152.616 141.819 158.136 163.819 162.476 159.471 99.0694 144.793 160.304 158.133 105.859 224.087 -26.2347 102.081 219.749 -42.168 108.237 204.298 -104.749 72.8371 202.361 -125.895 37.0259 193.434 -109.685 49.0958 251.923 -51.6462 14.6793 23.5721 57.764 
152.53 141.773 158.542 163.677 162.407 159.539 99.3047 145.042 160.282 158.108 105.984 224.031 -26.3995 102.105 219.552 -42.2344 108.35 204.341 -105.322 73.0173 202.445 -126.174 37.1776 193.509 -110.063 49.1851 251.822 -51.8778 14.6786 23.3118 58.1602 
152.339 141.656 158.605 163.773 162.33 159.495 99.6969 145.113 160.182 157.974 106.084 223.965 -26.6661 102.171 219.242 -42.6175 108.63 204.258 -105.728 73.4207 202.434 -126.574 37.4503 193.566 -110.671 49.2659 251.716 -52.3769 14.7149 23.2158 58.0766 
152.198 141.576 158.297 163.509 162.175 159.473 99.5818 144.991 160.069 157.964 106.05 223.938 -26.8599 102.132 219.175 -42.8685 108.772 204.184 -105.689 73.582 202.479 -126.856 37.5263 193.579 -111.063 49.2634 251.567 -52.6426 14.7844 23.4389 57.8966 
151.971 141.396 157.691 163.154 161.97 159.226 99.1918 144.74 159.902 157.845 105.768 223.647 -27.1572 102.015 219.167 -43.2712 108.839 204.175 -105.682 73.6836 202.6 -127.197 37.6079 193.593 -111.436 49.2346 251.387 -52.91 14.821 23.6955 57.6944 
151.886 141.313 157.283 163.359 161.944 159.244 99.107 144.495 159.845 157.579 105.591 223.317 -27.5247 101.845 219.038 -43.6085 108.92 204.319 -105.953 73.8851 202.84 -127.58 37.7211 193.77 -111.972 49.241 251.3 -53.2672 14.8781 23.6969 57.7285 
151.772 141.306 156.764 163.58 161.859 159.079 99.0461 144.284 159.916 157.374 105.062 222.627 -27.7982 101.609 218.706 -43.8671 108.687 204.107 -106.266 73.7255 202.73 -127.826 37.5527 193.717 -112.208 49.1727 251.13 -53.5248 14.8746 23.6246 57.8377 
151.656 141.453 156.273 163.562 161.668 158.845 99.1401 143.986 159.791 157.189 104.563 222.106 -28.1124 101.587 218.502 -44.2863 108.524 204.156 -106.663 73.5994 202.818 -128.131 37.3949 193.807 -112.503 49.1224 251.117 -53.826 14.9166 23.5594 57.7815 
151.433 141.601 156.291 163.685 161.615 158.609 99.3255 143.73 159.683 157.044 104.267 221.977 -28.563 101.607 218.472 -44.7822 108.472 204.412 -107.156 73.6063 203.134 -128.532 37.3597 194.106 -112.948 49.0971 251.262 -54.1736 14.9435 23.477 57.6991 
151.531 141.736 156.334 163.884 161.655 158.672 99.7122 143.844 159.793 156.963 104.211 221.866 -28.9366 101.603 218.31 -45.0094 108.314 204.466 -107.926 73.5617 203.209 -128.907 37.2953 194.18 -113.285 49.075 251.266 -54.5123 14.9628 23.1596 58.0683 
151.596 142.008 156.484 163.896 161.762 158.848 100.073 144.02 159.853 157.028 104.333 222.098 -29.3091 101.411 218.18 -44.9965 108.09 204.376 -108.463 73.4078 203.24 -129.28 37.1663 194.318 -113.64 49.0174 251.34 -54.8309 14.9003 23.0095 58.5109 
151.702 142.274 156.344 163.601 161.735 159.025 100.353 144.141 159.908 157.086 104.308 222.043 -29.6466 101.289 218.017 -45.036 107.795 204.307 -109.092 73.1387 203.203 -129.625 36.9379 194.318 -113.91 48.9438 251.271 -55.1011 14.886 22.8287 59.0224 
151.73 142.729 156.947 163.537 161.79 159.145 100.775 144.672 159.917 157.099 104.227 221.818 -29.9568 101.087 217.689 -44.9042 107.711 204.277 -110.068 73.0789 203.225 -130.051 36.858 194.433 -114.356 48.9505 251.22 -55.4354 14.8477 22.3936 59.9459 
151.955 142.916 157.324 163.63 161.943 159.504 101.291 145.076 160.014 157.152 104.61 222.071 -30.2238 100.82 217.353 -44.681 107.632 204.141 -110.736 73.0487 203.179 -130.457 36.8761 194.474 -114.766 48.9478 251.166 -55.7641 14.7424 22.1462 60.6934 
152.053 143.008 157.279 163.764 162.014 159.764 101.565 145.334 160.171 157.224 104.861 222.184 -30.5309 100.511 217.032 -44.6006 107.551 204.028 -111.367 73.0566 203.147 -130.839 36.8911 194.551 -115.207 48.9644 251.085 -56.0996 14.6721 21.8879 61.3473 
152.052 143.005 157.077 163.834 161.999 159.935 101.759 145.482 160.191 157.213 105.043 222.298 -30.9278 100.28 216.816 -44.6931 107.507 204.171 -111.949 73.0659 203.235 -131.243 36.9269 194.633 -115.694 48.9308 250.959 -56.4265 14.6353 21.709 61.839 
152.161 143.132 157.074 163.941 162.055 160.006 101.839 145.819 160.272 157.265 104.909 221.907 -31.1823 100.035 216.653 -44.6965 107.504 204.234 -112.598 73.1216 203.164 -131.563 36.9317 194.578 -116.111 48.8943 250.808 -56.7514 14.6544 21.406 62.4832 
152.421 143.2 157.008 164.186 162.176 160.132 101.916 146.027 160.313 157.185 104.887 221.66 -31.4269 99.7955 216.578 -44.7375 107.535 204.415 -113.161 73.2448 203.251 -131.837 37.03 194.644 -116.474 48.8754 250.775 -57.0595 14.6504 21.1214 63.0126 
152.464 143.333 156.655 164.191 162.119 160.082 101.897 146.176 160.266 157.066 104.682 221.325 -31.7042 99.6052 216.506 -44.8315 107.613 204.756 -113.737 73.3901 203.443 -132.111 37.1847 194.744 -116.813 48.8533 250.712 -57.3221 14.6376 20.8413 63.5381 
152.472 143.473 156.513 164.106 162.066 159.94 101.798 146.335 160.227 157 104.293 220.767 -31.865 99.3707 216.478 -44.7962 107.571 204.819 -114.276 73.3985 203.469 -132.299 37.1352 194.833 -117.063 48.8898 250.72 -57.5665 14.6716 20.5493 64.1633 
152.25 143.741 156.506 164.073 161.938 159.685 101.664 146.348 160.004 156.789 103.814 220.214 -32.0777 99.1543 216.359 -44.8314 107.528 204.817 -114.737 73.4427 203.484 -132.467 37.1227 194.974 -117.336 48.9306 250.733 -57.8093 14.6651 20.2731 64.6232 
151.877 143.881 156.46 163.831 161.811 159.311 101.511 146.305 159.834 156.784 103.45 220.07 -32.3956 98.9831 216.429 -44.9472 107.504 204.827 -114.911 73.3835 203.572 -132.743 37.0659 195.103 -117.635 48.9069 250.78 -58.0405 14.6459 20.3644 64.7836 
151.614 144.005 156.46 163.837 161.743 159.035 101.281 146.219 159.763 156.784 103.132 219.944 -32.7046 98.6967 216.567 -44.9648 107.506 204.812 -115.038 73.4111 203.708 -133.015 37.0427 195.292 -118 48.9046 250.866 -58.2902 14.6583 20.4447 65.0306 
151.332 144.235 156.554 163.826 161.668 158.884 101.249 146.188 159.64 156.6 102.92 219.843 -33.0691 98.4643 216.518 -45.0879 107.47 204.94 -115.501 73.4707 203.981 -133.318 37.0888 195.641 -118.446 48.8967 250.919 -58.5751 14.6221 20.2913 65.3746 
151.278 144.498 156.693 163.799 161.664 158.928 101.258 146.421 159.485 156.378 102.777 219.62 -33.4305 98.1653 216.408 -45.1468 107.367 205.094 -116.208 73.5262 204.197 -133.578 37.1353 195.984 -118.867 48.9066 250.963 -58.8352 14.5633 19.8826 65.9569 
151.135 144.774 156.64 163.698 161.632 158.842 101.363 146.435 159.288 156.253 102.545 219.296 -33.781 97.9928 216.277 -45.3261 107.401 205.316 -116.713 73.6427 204.518 -133.939 37.2281 196.397 -119.408 48.9579 251.036 -59.1295 14.5225 19.7103 66.2449 
150.915 144.9 156.706 163.706 161.641 158.678 101.144 146.423 159.116 156.038 102.305 219.128 -34.077 97.6093 216.376 -45.3986 107.32 205.443 -117.097 73.6637 204.765 -134.215 37.2735 196.799 -119.805 49.0039 251.241 -59.3956 14.4253 19.5435 66.646 
150.669 145.305 156.749 163.425 161.568 158.353 101.045 146.495 158.904 155.899 101.737 218.635 -34.4924 97.0512 216.454 -45.3601 107.199 205.559 -117.672 73.6375 205.011 -134.642 37.2762 197.168 -120.311 49.0182 251.408 -59.7629 14.3347 19.3692 67.3866 
150.655 145.391 156.642 163.659 161.676 158.367 101.028 146.388 158.766 155.698 101.553 218.369 -34.7384 96.885 216.387 -45.6117 107.153 205.581 -117.821 73.6557 205.14 -134.88 37.338 197.436 -120.63 49.0711 251.555 -60.0177 14.2277 19.3581 67.3165 
