147.136 147.228 153.197 156.434 157.468 149.238 98.0144 138.852 148.382 142.022 53.885 194.161 -12.2502 48.6944 196.625 -16.0125 68.2201 194.877 -85.1558 44.8794 210.427 -101.454 12.7204 217.599 -92.2078 27.2264 249.158 -23.4506 7.58531 15.6233 66.7484 
147.275 147.108 153.239 156.473 157.249 149.616 97.9727 138.786 148.191 141.896 54.3616 194.008 -12.1126 49.4064 196.633 -16.1822 68.9184 195.179 -85.0645 45.6901 210.624 -101.17 13.4538 217.946 -92.1147 27.8795 249.3 -23.3123 7.69659 15.4017 66.517 
147.326 147.084 153.006 156.247 157.048 149.703 97.9085 138.915 148.377 142.091 55.1119 193.903 -11.7533 50.3206 196.673 -15.9027 69.8995 195.468 -85.1876 46.6124 210.693 -101.117 14.3013 217.821 -92.0573 28.6064 249.223 -23.1783 7.7281 15.2166 66.9582 
147.132 147.116 152.439 155.793 156.655 149.501 97.7421 138.973 148.466 142.094 55.8431 193.753 -11.716 51.1662 196.637 -15.9066 70.8472 195.881 -85.6865 47.547 210.911 -101.369 15.1355 217.81 -92.314 29.2899 248.997 -23.2228 7.79589 15.0187 67.5519 
146.897 147.189 152.246 155.678 156.517 149.427 97.3727 138.773 148.179 141.947 56.5983 193.872 -11.7773 51.7552 196.9 -16.0387 71.5563 196.135 -85.7402 48.3351 211.178 -101.372 15.8652 218.356 -92.5939 29.9731 249.116 -23.2829 7.97313 14.9513 67.6509 
146.767 147.289 151.958 155.458 156.284 149.486 97.1858 138.48 147.766 141.715 57.313 193.709 -11.9974 52.4831 196.811 -16.4078 72.2151 196.245 -85.7878 49.0674 211.185 -101.306 16.6124 218.524 -92.6921 30.6417 249.034 -23.363 8.02713 14.8118 67.4 
146.651 147.415 151.819 155.425 156.08 149.783 96.8083 137.911 147.051 141.186 57.8552 193.359 -12.325 53.1736 196.828 -16.967 72.6388 196.322 -85.6195 49.672 211.043 -100.936 17.2714 218.69 -92.6072 31.2326 248.968 -23.4035 8.10574 14.5476 66.7778 
146.769 147.439 152.119 155.527 156.048 150.151 96.8084 137.69 146.656 141.015 58.4778 193.293 -12.3383 53.7028 196.925 -17.1503 73.1274 196.318 -85.2928 50.2338 210.874 -100.52 17.9491 218.879 -92.4561 31.8513 249.137 -23.3755 8.12634 14.3381 66.3038 
146.491 147.474 151.915 155.176 155.612 150.136 96.6102 137.374 146.586 141.053 59.033 193.279 -12.3699 54.3118 196.976 -17.2523 73.7134 196.236 -85.0233 50.9995 211.02 -100.452 18.7768 219.294 -92.6426 32.4825 249.142 -23.4167 8.22118 14.5469 66.024 
146.526 147.465 151.935 155.215 155.619 150.188 96.5773 137.384 146.803 141.272 59.648 193.301 -12.1669 54.8213 197.04 -17.0103 74.2534 195.978 -84.8358 51.624 210.89 -100.457 19.4406 219.289 -92.7345 33.1117 249.171 -23.436 8.23732 14.6875 66.0669 
146.308 147.538 151.593 154.92 155.483 150.058 96.3939 137.235 146.762 141.266 60.1984 193.255 -12.049 55.4003 196.983 -16.8958 74.7604 195.758 -84.7395 52.206 210.636 -100.414 20.0247 219.064 -92.798 33.6681 249.01 -23.467 8.28371 14.692 66.1028 
146.234 147.679 151.313 154.664 155.516 150.061 96.3279 137.058 146.652 141.077 60.632 193.02 -11.9136 55.8824 196.777 -16.8334 75.2003 195.46 -84.6103 52.7152 210.344 -100.307 20.568 218.725 -92.668 34.2323 248.809 -23.4813 8.21591 14.689 66.1022 
146.192 147.624 151.291 154.514 155.655 150.182 96.3181 136.893 146.419 140.819 61.0518 192.902 -11.8733 56.4047 196.581 -17.1019 75.5662 195.354 -84.4953 53.1178 210.3 -100.159 21.034 218.648 -92.4405 34.7246 248.804 -23.476 8.08583 14.6699 65.6849 
146.218 147.685 151.257 154.472 155.529 150.368 96.4134 136.831 146.149 140.355 61.3416 192.768 -11.7053 56.9954 196.46 -17.2549 76.0112 195.341 -84.3537 53.6026 210.046 -99.7843 21.5626 218.406 -91.9928 35.2419 248.889 -23.4318 7.94319 14.3536 65.3357 
146.156 147.72 151.404 154.569 155.364 150.512 96.4704 136.891 145.937 140.082 61.7017 192.596 -11.7258 57.4286 196.35 -17.4802 76.4501 195.292 -84.352 54.0658 209.73 -99.5199 22.0803 218.266 -91.8087 35.7279 248.883 -23.46 7.9067 14.0027 65.1008 
146.206 147.691 151.476 154.526 155.274 150.651 96.5623 136.88 145.892 140.106 62.1674 192.595 -11.6289 58.1556 196.368 -17.5149 77.049 195.255 -84.1791 54.6561 209.524 -99.3212 22.7062 218.117 -91.6875 36.2688 248.974 -23.4866 7.87844 13.8926 64.8155 
146.233 147.729 151.397 154.485 155.079 150.671 96.6233 136.879 146.018 140.34 62.5315 192.333 -11.3591 58.695 196.31 -17.1137 77.6521 194.912 -83.9696 55.3143 208.965 -99.1442 23.3597 217.612 -91.6875 36.7948 248.759 -23.5178 7.94588 13.8133 65.0662 
146.033 147.878 151.227 154.287 154.77 150.385 96.3475 136.763 145.772 140.114 63.0422 192.475 -11.2893 59.1668 196.699 -16.844 78.2195 195.117 -84.0642 55.8251 208.858 -99.0739 23.8989 217.51 -91.7352 37.2857 248.782 -23.5744 7.99193 13.5845 65.5815 
145.956 147.944 150.784 153.775 154.233 150.53 96.1042 136.529 145.559 140.016 63.9924 192.025 -11.2727 60.3801 196.555 -17.0508 79.3886 195.136 -84.1845 57.0389 208.845 -99.1598 24.9636 217.505 -92.0413 38.3039 248.493 -23.6956 8.2468 13.5774 65.612 
145.925 147.963 150.707 153.771 154.011 150.666 96.0105 136.303 145.294 139.82 64.3295 191.712 -11.5214 60.8539 196.393 -17.4501 79.7663 195.234 -84.3298 57.4782 208.871 -99.203 25.2875 217.508 -92.1994 38.5469 248.257 -23.7734 8.40478 13.5276 65.3979 
145.84 147.972 150.709 153.844 154.034 150.759 95.8589 136.117 144.99 139.77 64.7238 191.375 -11.6445 61.4264 196.197 -17.7363 80.234 195.102 -84.2384 57.9851 208.58 -99.015 25.7733 217.354 -92.2031 38.9689 248.042 -23.7484 8.50955 13.3755 65.0123 
145.76 148.081 150.533 153.606 154.013 150.779 95.7391 136.022 144.75 139.695 64.9692 191.005 -11.7113 61.954 196.022 -17.9717 80.7172 195.078 -84.3083 58.4179 208.391 -98.9248 26.222 217.181 -92.1696 39.3815 247.868 -23.7702 8.49749 13.1848 64.8588 
145.763 148.087 150.743 153.802 154.138 150.794 95.8314 136.175 144.863 139.815 65.3673 190.974 -11.7314 62.2925 195.978 -18.0588 81.1769 195.123 -84.327 58.9214 208.45 -98.9087 26.7738 217.342 -92.1701 39.8192 247.921 -23.7396 8.44619 13.1263 64.7943 
145.703 148.107 150.815 153.83 154.168 150.718 95.8361 136.035 144.867 140.091 65.8209 191.147 -11.6839 62.8426 196.215 -17.9104 81.6489 195.153 -84.1028 59.4267 208.446 -98.8353 27.3066 217.489 -92.3189 40.2763 248.06 -23.7515 8.57347 13.2039 64.6913 
145.643 148.13 150.695 153.805 154.094 150.61 95.8529 136.14 145.183 140.514 66.1897 191.125 -11.5763 63.3015 196.342 -17.5696 82.1817 195.16 -84.1772 59.9403 208.361 -98.9795 27.7886 217.374 -92.5641 40.7385 247.973 -23.8011 8.68371 13.2278 65.1502 
145.591 148.194 150.507 153.69 153.932 150.509 95.8507 136.125 145.361 140.767 66.5677 190.966 -11.4708 63.7324 196.192 -17.3768 82.7018 194.997 -84.1394 60.5085 208.352 -99.1477 28.272 217.388 -92.8576 41.1742 247.778 -23.8061 8.8431 13.4279 65.3252 
145.362 148.195 150.119 153.276 153.747 150.236 95.7936 136.099 145.452 140.838 66.8955 190.823 -11.474 64.221 195.934 -17.3749 83.1439 194.889 -84.3209 60.9303 208.414 -99.4093 28.609 217.303 -93.0678 41.544 247.492 -23.8328 8.90569 13.6101 65.5034 
145.173 148.252 149.611 152.869 153.586 150.114 95.5973 135.71 145.125 140.527 67.1113 190.589 -11.5318 64.5865 195.664 -17.5927 83.3311 194.565 -84.2805 61.2235 208.212 -99.4521 28.9265 217.167 -93.1656 41.92 247.255 -23.9652 8.94405 13.7223 65.3066 
145.056 148.175 149.463 152.759 153.537 150.084 95.5475 135.549 144.975 140.317 67.359 190.43 -11.5982 64.9773 195.287 -17.9284 83.4588 194.254 -84.2555 61.405 208.095 -99.4685 29.114 217.162 -93.1367 42.2517 247.085 -23.9661 8.97659 13.8422 64.8451 
145.055 148.176 149.387 152.742 153.359 150.045 95.6127 135.569 144.898 140.104 67.6382 190.33 -11.5522 65.4258 194.978 -18.0713 83.7724 194.084 -84.2722 61.6451 207.918 -99.4299 29.3403 216.958 -92.9508 42.5877 246.958 -23.9204 8.92196 13.8147 64.6275 
145.059 148.122 149.476 152.802 153.242 149.975 95.6943 135.594 144.838 139.915 67.9889 190.282 -11.443 65.8581 194.692 -18.0704 84.0825 193.784 -84.1789 61.875 207.577 -99.334 29.5931 216.534 -92.7017 42.8938 246.787 -23.8611 8.80816 13.8123 64.4218 
145.062 148.059 149.608 152.964 153.223 150.06 95.7086 135.549 144.732 139.771 68.4186 190.161 -11.4268 66.3184 194.578 -18.1147 84.4519 193.695 -84.1097 62.2353 207.377 -99.2008 29.9726 216.268 -92.5279 43.2319 246.653 -23.8026 8.75246 13.7446 64.2645 
145.058 147.934 149.758 153.109 153.174 150.049 95.8095 135.688 144.844 139.791 68.9115 190.188 -11.3828 66.6692 194.523 -17.9773 84.8746 193.729 -84.1627 62.6011 207.334 -99.1979 30.3553 216.102 -92.4355 43.5556 246.555 -23.7431 8.67266 13.6984 64.4599 
144.84 147.89 149.532 152.976 153.041 149.97 95.8152 135.652 145.002 139.816 69.4286 190.21 -11.3877 67.0805 194.492 -17.8704 85.2557 193.899 -84.272 63.0086 207.531 -99.3242 30.7702 216.111 -92.4717 43.9381 246.405 -23.6638 8.62284 13.7563 64.707 
144.363 148.034 148.708 152.361 152.571 149.408 95.4741 135.192 144.718 139.547 70.6439 190.526 -11.1642 68.3122 194.73 -17.5767 86.2899 194.119 -84.241 64.0297 207.561 -99.3514 31.77 215.958 -92.5667 44.9258 246.306 -23.674 8.68692 13.7541 65.0573 
144.072 148.134 148.176 151.845 152.375 149.093 95.1578 134.795 144.244 139.045 70.9717 190.599 -11.0658 68.6768 194.841 -17.457 86.5651 193.996 -84.1283 64.2514 207.228 -99.2097 32.0609 215.579 -92.4533 45.2768 246.224 -23.7826 8.63318 13.6382 65.1935 
143.858 148.191 147.606 151.324 151.864 148.89 94.9206 134.414 144.079 138.821 71.146 190.407 -10.8388 68.9032 194.502 -17.4898 86.7013 193.489 -83.8202 64.4892 207.027 -99.1768 32.3141 215.606 -92.5039 45.6835 246.049 -23.7612 8.72111 13.8923 64.8863 
143.89 148.056 147.861 151.603 152.052 148.943 94.9492 134.303 143.876 138.604 71.525 190.458 -10.7953 69.0863 194.395 -17.5343 86.8871 193.118 -83.5211 64.7928 206.698 -98.9071 32.7234 215.536 -92.3112 46.0829 246.104 -23.773 8.66924 13.8566 64.5503 
143.824 148.071 147.801 151.498 151.858 148.896 94.877 134.055 143.506 138.235 71.9948 190.525 -10.9647 69.5709 194.491 -17.657 87.2875 193.251 -83.4839 65.1444 206.649 -98.7601 33.1396 215.435 -92.1439 46.4826 246.135 -23.793 8.58832 13.7236 64.4214 
143.953 147.893 148.156 151.865 152.094 148.929 95.1019 134.264 143.672 138.355 72.4942 190.69 -10.9334 69.8965 194.458 -17.5218 87.6199 193.179 -83.3646 65.4667 206.543 -98.6418 33.5393 215.279 -91.9118 46.8608 246.212 -23.6746 8.42262 13.6891 64.3277 
144.173 147.812 148.624 152.333 152.551 149.109 95.375 134.494 143.825 138.642 72.9962 190.94 -10.8415 70.2859 194.614 -17.2445 88.0248 193.17 -83.2068 65.8267 206.336 -98.4412 33.9613 215.075 -91.7228 47.2771 246.409 -23.6006 8.3386 13.5466 64.3456 
144.134 147.643 148.837 152.509 152.728 149.321 95.3873 134.713 143.973 138.908 73.6881 191.08 -10.8483 70.7467 194.733 -17.2221 88.518 193.387 -83.2525 66.2668 206.386 -98.3676 34.3946 215.083 -91.7019 47.6509 246.441 -23.5037 8.35981 13.4004 64.3696 
144.15 147.495 149.165 152.864 153.073 149.437 95.409 135.021 144.116 139.257 74.367 191.296 -10.7698 71.1582 194.987 -17.0626 89.0303 193.585 -83.311 66.7053 206.298 -98.2331 34.8689 215.013 -91.6668 48.0622 246.566 -23.4639 8.35642 13.1333 64.5876 
144.021 147.468 149.257 152.981 153.241 149.304 95.4066 135.088 144.251 139.685 75.0977 191.54 -10.7626 71.6205 195.263 -16.7932 89.6255 193.71 -83.2682 67.2905 206.337 -98.2707 35.434 215.106 -91.9229 48.5175 246.607 -23.4727 8.50433 13.1618 64.8776 
143.816 147.458 149.19 153.001 153.398 149.265 95.331 134.887 144.112 139.877 75.6803 191.544 -10.8153 72.205 195.328 -16.7651 90.1785 193.66 -83.058 67.9407 206.199 -98.1563 36.0407 215.069 -92.1312 48.9441 246.505 -23.5038 8.70935 13.1909 64.7199 
143.723 147.512 149.094 152.998 153.551 149.179 95.2017 134.744 144.105 140.125 76.1592 191.541 -10.8563 72.6202 195.515 -16.5587 90.7525 193.678 -82.9558 68.5886 206.178 -98.1571 36.6528 215.059 -92.3452 49.395 246.44 -23.5317 8.83142 13.2385 64.9633 
143.569 147.625 148.939 152.73 153.505 149.113 95.0668 134.419 143.729 139.799 76.484 191.525 -10.8366 73.0072 195.498 -16.6743 91.0696 193.528 -82.7129 69.008 206.127 -97.985 37.0957 215.177 -92.324 49.8231 246.473 -23.5561 8.90753 13.2994 64.6416 
143.526 147.691 148.776 152.465 153.384 149.165 95.001 134.191 143.377 139.418 76.7522 191.381 -10.7913 73.3379 195.293 -16.7854 91.3086 193.309 -82.5437 69.2513 205.913 -97.7888 37.3489 215.035 -92.142 50.1827 246.391 -23.5227 8.90548 13.2621 64.3623 
143.723 147.816 148.628 152.208 153.189 149.381 95.0336 134.028 143.055 139.066 77.1353 191.309 -10.7206 73.9639 195.248 -16.9023 91.7861 193.449 -82.5495 69.5867 205.842 -97.6556 37.5911 214.811 -91.9369 50.5678 246.428 -23.5065 8.8986 13.0996 64.208 
143.908 147.825 148.702 152.184 153.133 149.531 95.0676 134.127 143.068 138.99 77.5169 191.305 -10.6522 74.3894 195.331 -16.809 92.2202 193.551 -82.587 69.909 205.825 -97.5953 37.8447 214.683 -91.7738 50.964 246.509 -23.4495 8.87393 12.9896 64.3235 
144.174 147.693 148.755 152.278 153.317 149.901 95.0887 134.334 143.09 138.936 78.6278 191.262 -10.3776 75.3163 195.418 -16.5467 93.2244 193.609 -82.5465 70.8085 205.45 -97.2849 38.8023 214.049 -91.3541 51.8749 246.5 -23.356 8.62991 12.595 64.5666 
144.337 147.551 148.868 152.46 153.433 150.162 95.2099 134.528 143.32 139.108 79.2547 191.383 -10.3173 75.5866 195.663 -16.2765 93.6805 193.881 -82.5761 71.2658 205.543 -97.2646 39.2683 213.943 -91.3189 52.1734 246.552 -23.3206 8.54358 12.4914 64.9484 
144.351 147.454 149.038 152.686 153.484 150.219 95.3164 134.672 143.529 139.292 79.9818 191.692 -10.2186 75.9055 195.919 -15.9664 94.3033 194.091 -82.4186 71.9446 205.751 -97.2151 39.95 214.123 -91.3685 52.6084 246.693 -23.2484 8.53981 12.5414 65.2066 
144.364 147.442 148.917 152.746 153.478 150.132 95.4955 134.65 143.915 139.645 80.3713 191.738 -10.0772 76.2677 196.003 -15.4776 94.8592 193.971 -82.1282 72.6198 205.79 -97.278 40.5627 214.061 -91.4939 53.033 246.628 -23.2199 8.59446 12.867 65.5303 
144.468 147.409 149.22 153.13 153.787 150.163 95.6577 134.696 144.222 140.007 80.7404 191.762 -9.951 76.5115 196.046 -15.0069 95.3966 193.679 -81.6755 73.2952 205.731 -97.1846 41.2277 214.071 -91.528 53.465 246.604 -23.119 8.64032 13.1899 65.6636 
144.6 147.434 149.516 153.485 154.124 150.172 95.7544 134.787 144.302 140.21 81.1627 191.943 -9.64748 76.8856 196.156 -14.5676 95.8932 193.376 -81.2405 73.8105 205.366 -96.8894 41.6957 213.82 -91.3558 53.8855 246.712 -23.0392 8.70653 13.2174 65.6721 
144.626 147.484 149.582 153.549 154.269 150.264 95.7698 134.858 144.254 140.218 81.3925 191.902 -9.48259 77.2757 196.147 -14.4432 96.2016 193.272 -81.0839 74.0413 205.11 -96.6395 41.8845 213.553 -91.0925 54.1668 246.71 -22.9179 8.73632 13.1126 65.5841 
144.568 147.569 149.377 153.286 154.148 150.209 95.5946 134.666 144.019 140.144 81.5939 191.817 -9.27909 77.9 196.09 -14.4269 96.528 193.222 -80.9169 74.2344 204.913 -96.4228 41.9767 213.252 -90.8633 54.4064 246.603 -22.7704 8.84476 13.0947 65.3473 
144.681 147.588 149.467 153.288 154.219 150.171 95.6363 134.782 144.085 140.341 81.8266 191.911 -9.01762 78.3905 196.09 -14.1357 96.9185 193.196 -80.8181 74.462 204.745 -96.2577 42.1036 212.968 -90.6308 54.6637 246.606 -22.6102 8.90032 13.0442 65.4595 
144.856 147.538 149.728 153.605 154.51 150.229 95.6657 134.948 144.089 140.427 81.9925 191.915 -8.68715 78.6226 196.149 -13.61 97.1194 192.98 -80.5297 74.5113 204.208 -95.8045 42.1782 212.407 -90.1377 54.8833 246.572 -22.3457 8.85741 12.8146 65.6717 
145.009 147.555 149.88 153.697 154.605 150.203 95.7092 135.015 144.006 140.479 82.1083 191.849 -8.43898 78.8725 196.183 -13.1661 97.3691 192.86 -80.2725 74.5934 203.834 -95.4337 42.2427 211.979 -89.7672 55.0609 246.501 -22.1062 8.87671 12.6672 65.8508 
145.257 147.535 150.105 153.86 154.798 150.117 95.9249 135.206 144.223 140.753 82.3491 192.068 -8.02324 79.1675 196.392 -12.482 97.7319 193.063 -80.0248 74.7954 203.967 -95.2078 42.3928 211.911 -89.4118 55.2408 246.633 -21.727 8.85186 12.7117 66.235 
145.293 147.403 150.335 153.971 155.063 150.073 96.0353 135.481 144.538 141.132 82.5425 192.262 -7.71367 79.4404 196.579 -11.9383 98.0217 193.266 -79.8949 74.9384 204.182 -95.0794 42.4752 211.912 -89.152 55.3704 246.702 -21.3775 8.85764 12.8033 66.5958 
145.322 147.396 150.327 153.963 155.187 150.014 96.1377 135.757 144.944 141.504 82.6807 192.389 -7.27499 79.7636 196.735 -11.3262 98.4226 193.65 -79.8663 75.1811 204.547 -95.0292 42.6052 211.907 -88.9042 55.4404 246.691 -20.9737 8.8543 12.8911 67.1663 
145.375 147.437 150.242 153.914 155.292 149.954 96.1907 135.896 145.251 141.851 82.7166 192.528 -6.76103 80.1154 196.866 -10.8691 98.7737 194.102 -79.7439 75.3831 205.057 -95.0079 42.6346 212.107 -88.7688 55.4228 246.757 -20.5884 8.95326 13.0778 67.4626 
145.494 147.449 150.417 154.121 155.602 150.031 96.1351 135.993 145.401 142.198 82.8192 192.665 -6.44938 80.2326 197.067 -10.5817 98.8203 194.343 -79.5289 75.3412 205.334 -94.8976 42.5128 212.335 -88.6812 55.3288 246.879 -20.2614 9.06533 13.2116 67.4582 
145.426 147.467 150.534 154.327 155.734 149.95 96.0376 135.94 145.284 142.209 82.6864 192.797 -6.26748 80.248 197.231 -10.4686 98.6739 194.573 -79.2273 75.1671 205.503 -94.5713 42.3279 212.562 -88.4226 55.183 247.026 -19.9087 9.14728 13.199 67.1796 
145.352 147.608 150.402 154.28 155.635 149.735 95.8091 135.751 144.896 141.897 82.4207 192.822 -6.04477 80.1663 197.486 -10.3134 98.4481 194.906 -78.9775 74.841 205.606 -94.1518 42.0334 212.634 -88.004 54.9797 247.138 -19.5246 9.16409 13.0421 67.0855 
145.041 147.732 150.304 154.233 155.395 149.234 95.5244 135.737 144.613 141.536 82.0634 193.052 -5.81637 79.8616 197.758 -9.98728 98.1715 195.154 -78.787 74.4628 205.642 -93.7672 41.6871 212.631 -87.5619 54.6867 247.216 -19.1446 9.13774 12.8637 67.2774 
144.689 147.797 150.36 154.174 155.23 148.843 95.3844 135.929 144.419 141.194 81.6358 193.398 -5.47331 79.5275 198.076 -9.46688 97.9027 195.519 -78.6327 74.0065 205.653 -93.2513 41.2751 212.511 -86.9172 54.2886 247.34 -18.7032 9.04543 12.5376 67.6952 
144.46 147.791 150.532 154.203 155.07 148.432 95.5448 136.321 144.587 141.025 81.0575 193.697 -5.07263 78.9122 198.326 -8.66197 97.5372 195.802 -78.5618 73.4656 205.774 -92.9728 40.7328 212.34 -86.3713 53.7164 247.373 -18.2663 8.91273 12.4156 68.4825 
144.348 147.79 150.758 154.374 154.991 148.237 95.7861 136.549 144.651 140.723 80.3198 193.797 -4.61127 77.9607 198.374 -7.90752 96.8258 195.786 -78.2221 72.6927 205.586 -92.4709 40.0593 212.064 -85.7007 53.0081 247.344 -17.8204 8.74019 12.2464 68.9705 
144.323 147.749 151.019 154.664 155.061 148.051 96.0044 136.607 144.505 140.418 79.4821 194.029 -4.30987 76.9314 198.494 -7.30747 95.8509 195.796 -77.8095 71.7042 205.322 -91.8622 39.1505 211.832 -85.0596 52.1342 247.425 -17.415 8.65892 11.9982 69.1483 
144.397 147.624 151.444 154.949 155.254 147.812 96.0723 136.723 144.61 140.467 78.6734 194.486 -3.90092 75.802 198.635 -6.67675 94.6647 195.42 -77.1803 70.5036 205.141 -91.4372 38.0299 211.805 -84.5637 51.1789 247.612 -17.0193 8.60711 12.2166 69.0393 
144.172 147.708 151.289 154.739 155.074 147.461 95.987 136.533 144.471 140.046 77.614 194.88 -3.53117 74.5277 198.845 -6.23688 93.3519 195.369 -76.8038 69.2229 205.278 -91.1412 36.8123 211.969 -84.1305 50.1532 247.823 -16.739 8.5264 12.339 69.164 
143.769 147.712 150.973 154.481 154.795 147.01 95.7465 136.399 144.428 139.888 76.5048 195.09 -3.12193 73.226 198.959 -5.76666 92.0157 195.267 -76.5293 67.9152 205.126 -90.8345 35.6207 211.786 -83.7667 48.9851 247.741 -16.4823 8.43094 12.3152 69.4808 
143.733 147.691 151.189 154.642 154.946 146.822 95.6404 136.314 144.349 139.832 75.076 195.161 -2.90796 71.3382 198.837 -5.39837 90.1136 194.606 -75.9361 66.1225 204.643 -90.3556 34.0468 211.744 -83.3531 47.7161 247.766 -16.2054 8.34481 12.3497 69.2981 
143.618 147.826 150.884 154.249 154.58 146.501 95.3601 135.995 143.988 139.22 73.5096 195.468 -2.75071 69.5163 198.973 -5.2538 88.1116 194.44 -75.6377 64.2139 204.62 -89.9952 32.2943 211.971 -82.9219 46.3443 248.006 -16.0329 8.25358 12.2995 69.2291 
143.477 147.975 150.632 153.973 154.421 146.112 95.1314 135.588 143.562 138.751 72.1061 196.007 -2.57081 68.0404 199.344 -5.11688 86.373 194.509 -75.2071 62.587 204.588 -89.5024 30.8945 212.098 -82.4489 45.0079 248.398 -15.8849 8.07642 12.1628 68.9457 
143.723 147.974 150.963 154.112 154.495 146.16 95.2946 135.595 143.505 138.531 70.3401 196.118 -2.46285 66.0303 199.273 -5.08781 84.2664 194.206 -74.8562 60.5881 204.411 -89.1179 29.0581 212.191 -81.9585 43.4339 248.678 -15.73 7.91219 12.1011 68.5423 
143.829 147.945 150.989 153.97 154.301 145.676 95.4746 135.32 143.606 138.062 68.7452 196.569 -2.42271 63.9272 199.275 -4.84034 82.2148 193.855 -74.4283 58.688 204.506 -89.08 27.3843 212.237 -81.5983 41.8405 248.866 -15.6794 7.54488 12.48 68.4147 
143.835 148.005 151.349 154.265 154.322 145.606 95.5782 134.97 143.172 137.592 67.0085 196.927 -2.62695 61.6597 199.286 -4.99634 79.8016 193.607 -73.8734 56.4656 204.4 -88.5774 25.484 212.662 -81.1958 40.1622 249.222 -15.518 7.37887 12.4402 67.6494 
143.5 148.06 150.935 153.51 153.524 145.066 95.4887 134.426 142.846 136.752 65.3037 197.268 -2.65052 59.7558 199.044 -5.14935 77.6152 193.378 -73.5075 54.3763 204.565 -88.4639 23.5422 212.712 -80.7942 38.346 249.176 -15.3751 7.14511 12.794 67.0787 
143.38 148.06 151.158 153.503 153.423 144.973 95.5637 134.211 142.477 136.22 63.2771 197.463 -2.90972 57.7471 199.125 -5.57817 75.3758 193.575 -73.4041 52.2712 204.966 -88.2376 21.6337 213.395 -80.5266 36.5519 249.538 -15.2689 7.01594 12.7664 66.4548 
143.288 147.996 151.082 152.892 152.625 144.775 95.6476 133.921 142.463 135.332 61.2584 197.469 -3.05701 55.6111 198.784 -5.91964 73.1385 193.577 -73.295 50.1598 205.725 -88.3844 19.5976 213.975 -80.174 34.6514 249.572 -15.0729 6.74343 13.2797 65.9672 
143.387 148.027 151.45 152.831 152.466 144.837 95.7942 133.806 142.354 135.11 59.0944 197.549 -2.96341 53.5543 198.844 -6.00783 71.0952 193.516 -72.8294 48.1618 205.989 -88.0386 17.7336 214.514 -79.8198 32.7961 249.923 -14.9199 6.63765 13.4643 65.4231 
143.569 148.064 151.786 152.802 152.041 144.782 96.0719 133.913 142.55 134.695 57.0699 197.786 -2.82224 51.3353 198.774 -6.04853 68.9691 193.709 -72.6908 46.029 206.747 -88.0853 15.6394 215.253 -79.4977 30.852 250.261 -14.6512 6.46944 13.8073 65.1618 
143.851 147.892 152.446 153.235 152.491 144.915 96.1511 134.413 142.812 135.021 55.2179 198.209 -2.60809 49.3341 199.151 -5.92056 67.1285 193.921 -72.5369 44.1101 207.014 -87.8248 13.7789 215.711 -79.2606 28.8644 250.746 -14.4526 6.4092 13.7398 65.0456 
143.974 147.962 152.461 152.894 152.173 144.855 96.2228 134.485 142.905 134.508 53.3717 198.409 -2.76405 47.3506 199.063 -6.31585 65.1151 194.326 -72.8259 41.9326 207.797 -88.1597 11.6146 216.121 -79.0585 26.7943 250.905 -14.3413 6.17651 13.9999 64.8006 
144.232 147.806 153.003 153.286 152.517 144.829 96.5058 134.812 143.276 134.974 51.4225 198.799 -2.81978 45.237 199.197 -6.31947 63.177 194.23 -72.5888 40.0437 207.998 -88.1705 9.82208 216.603 -79.1713 24.8276 251.248 -14.3572 6.12175 14.2483 64.4967 
