151.656 144.271 165.936 170.912 176.53 156.892 110.064 162.223 171.68 173.406 91.1518 124.477 52.2483 90.0434 131.074 41.9893 158.781 144.211 -5.06966 157.754 178.433 -13.7199 132.414 204.555 -12.369 102.425 190.569 62.122 9.78706 16.5624 74.5668 
151.626 144.116 166.026 170.909 176.501 157.071 109.944 162.351 171.747 173.5 90.7644 124.603 52.1036 89.7343 131.311 41.71 158.56 144.54 -5.14958 157.497 178.876 -13.7025 132.166 205.118 -12.2955 102.069 190.712 62.1359 9.87858 16.5532 74.5493 
151.685 144.163 166.21 170.899 176.56 157.292 110.025 162.615 171.774 173.533 90.4171 124.723 52.0487 89.5097 131.487 41.5881 158.581 145.057 -5.17285 157.178 179.27 -13.6757 131.776 205.538 -12.268 101.7 190.892 62.1408 9.9544 16.3398 74.7293 
151.683 144.09 166.504 170.94 176.651 157.337 110.199 163.048 171.91 173.63 90.1828 125.089 51.958 89.4418 131.766 41.3612 158.711 145.854 -5.26693 156.912 179.985 -13.6882 131.42 206.234 -12.2021 101.413 191.246 62.1647 10.0034 16.1358 74.8419 
151.597 143.977 166.833 171.021 176.713 157.174 110.484 163.515 172.128 173.814 89.907 125.586 51.8872 89.2019 132.099 41.0894 158.752 146.56 -5.45385 156.727 180.674 -13.7853 131.218 206.941 -12.1977 101.152 191.669 62.1628 10.0194 15.9985 74.9321 
151.424 143.88 167.023 171.094 176.734 156.936 110.602 163.789 172.39 174.054 89.5894 126.065 51.7165 88.7598 132.478 40.9121 158.627 147.051 -5.70099 156.667 181.352 -13.9673 131.115 207.639 -12.3143 100.888 192.021 62.0417 10.0419 16.0968 75.1876 
151.242 143.708 167.078 171.057 176.619 156.655 110.558 163.804 172.447 174.053 89.4633 126.728 51.5588 88.5186 133.05 40.7477 158.335 147.511 -5.88937 156.487 181.987 -14.1562 130.986 208.272 -12.4245 100.711 192.54 61.9035 10.0212 16.2338 75.1687 
151.161 143.422 167.166 171.022 176.501 156.572 110.542 163.861 172.464 174.096 89.3972 127.451 51.4398 88.3317 133.713 40.4692 158.031 147.996 -6.08067 156.254 182.6 -14.336 130.862 209.011 -12.5493 100.551 193.195 61.7707 10.0739 16.2986 74.9601 
151.131 143.165 167.109 170.848 176.353 156.544 110.454 163.685 172.257 173.945 89.5088 128.126 51.2465 88.1137 134.521 40.311 157.634 148.36 -6.29043 155.878 183.022 -14.6406 130.607 209.539 -12.817 100.438 193.845 61.5404 10.129 16.3476 74.8322 
151.114 142.876 167.089 170.742 176.312 156.514 110.305 163.573 172.234 173.927 89.5012 128.654 51.0513 87.9011 135.109 40.0911 157.277 148.674 -6.53899 155.626 183.574 -15.0216 130.383 210.092 -13.1673 100.257 194.359 61.2108 10.1384 16.5522 74.771 
150.995 142.574 167.18 170.666 176.258 156.278 110.119 163.689 172.287 173.901 89.5442 129.312 50.9757 87.7994 135.749 39.889 157.154 149.283 -6.87928 155.387 184.224 -15.4703 130.147 210.635 -13.5713 100.137 194.95 60.8631 10.0708 16.5541 74.8876 
150.975 142.406 167.328 170.702 176.195 155.94 110.072 163.843 172.41 173.931 89.6406 130.143 50.6937 87.6254 136.372 39.6326 157.057 149.97 -7.31472 155.247 185.086 -15.9766 129.986 211.328 -13.965 100.013 195.593 60.5446 9.93935 16.6519 74.996 
150.878 141.918 167.666 170.844 176.178 155.632 109.817 164.391 172.685 174.181 89.695 131.272 49.95 87.2144 137.502 38.6264 156.958 151.164 -8.45321 154.915 186.361 -17.1838 129.712 212.469 -14.9985 99.6375 196.631 59.6283 9.77591 16.5605 75.1852 
150.908 141.47 167.841 170.861 176.03 155.524 109.504 164.622 172.718 174.249 89.97 131.879 49.8211 87.1553 138.191 38.3757 156.952 151.648 -8.83077 154.822 186.86 -17.6499 129.774 212.987 -15.3518 99.6428 197.233 59.4034 9.694 16.478 75.148 
150.762 140.978 167.838 170.8 175.813 155.254 109.045 164.73 172.734 174.215 89.9696 132.533 49.3085 86.7971 138.965 37.9099 156.695 152.143 -9.38132 154.578 187.436 -18.2739 129.709 213.537 -15.8454 99.4439 197.735 58.9254 9.58796 16.4772 75.315 
150.714 140.582 167.838 170.698 175.481 155.242 108.663 164.766 172.65 174.127 90.1109 133.189 48.9712 86.5316 139.755 37.5245 156.374 152.548 -9.88422 154.316 187.917 -18.8417 129.643 214.153 -16.3053 99.3184 198.372 58.5198 9.59347 16.4768 75.2567 
150.767 140.202 167.779 170.696 175.168 155.284 108.217 164.716 172.637 174.117 90.1229 133.903 48.5226 85.9827 140.663 37.1265 155.804 152.723 -10.4295 154.099 188.416 -19.4705 129.63 214.8 -16.8384 99.1531 199.044 58.081 9.55223 16.6885 75.1863 
150.592 139.807 167.776 170.856 175.098 154.853 107.813 164.774 172.759 174.191 90.3815 134.758 48.1829 85.6746 141.48 36.8444 155.501 153.121 -10.9294 154.016 189.024 -20.1331 129.663 215.272 -17.3793 99.0215 199.684 57.6204 9.34578 16.8707 75.2704 
150.372 139.518 167.908 170.925 174.982 154.328 107.49 164.923 172.869 174.264 90.835 135.728 47.7901 85.5278 142.357 36.4645 155.514 153.807 -11.4704 154.026 189.89 -20.7987 129.761 216.019 -17.9282 98.9508 200.398 57.1244 9.21169 16.9689 75.4674 
150.28 139.509 168.03 170.966 174.938 154.026 107.348 165.096 173.032 174.391 91.123 136.572 47.281 85.4985 143.146 36.0849 155.756 154.719 -12.0045 154.04 190.96 -21.4778 129.697 216.897 -18.5234 98.8918 201.086 56.5932 9.11039 17.0287 75.8643 
150.205 139.397 167.995 170.959 174.818 153.988 107.044 165.044 173.047 174.393 91.1917 137.357 46.712 85.3834 144.09 35.6267 155.6 155.412 -12.5022 153.922 191.8 -22.0946 129.609 217.747 -19.0949 98.802 201.849 56.055 9.10276 17.1312 75.9568 
150.252 139.273 168.041 171.07 174.737 154.129 106.806 165.108 173.197 174.572 91.0234 138.115 46.2718 85.0295 144.943 35.1178 155.184 155.842 -13.0218 153.782 192.533 -22.715 129.548 218.652 -19.6809 98.6382 202.64 55.5416 9.14835 17.3415 75.8979 
150.325 139.435 167.935 171.214 174.716 154.169 106.733 164.984 173.369 174.765 90.5879 138.917 45.6496 84.5813 145.712 34.6044 154.453 156.135 -13.467 153.55 193.233 -23.2775 129.419 219.444 -20.1908 98.3794 203.4 55.0758 9.11753 17.7185 75.6258 
150.554 139.832 167.771 171.29 174.69 154.296 106.819 164.675 173.323 174.782 90.0803 139.653 44.9002 84.1188 146.419 34.1739 153.667 156.263 -13.8725 153.217 193.663 -23.8416 129.196 219.989 -20.764 98.139 204.081 54.6149 9.11498 18.0411 75.3296 
150.761 140.116 167.724 171.346 174.636 154.367 106.962 164.546 173.241 174.749 89.5735 140.165 43.8058 83.611 147.079 33.4504 153.237 156.54 -14.4911 152.99 194.127 -24.5251 129.04 220.554 -21.4356 97.8751 204.546 53.982 9.13592 18.1875 75.3452 
150.997 140.521 167.616 171.244 174.432 154.284 106.923 164.141 172.946 174.489 89.3462 140.921 42.994 83.0976 148.037 33.2568 152.612 156.607 -14.907 152.767 194.507 -25.2354 128.962 221.028 -22.1403 97.8318 205.236 53.4337 9.1213 18.5245 75.4161 
151.185 140.97 167.573 171.198 174.345 154.354 106.95 163.952 172.842 174.431 89.0736 141.553 42.2077 82.784 148.778 32.8072 152.21 157.098 -15.4486 152.541 195.202 -25.8601 128.738 221.805 -22.7637 97.6877 205.908 52.9173 9.17771 18.7175 75.3912 
151.363 141.468 167.443 171.124 174.257 154.522 106.945 163.562 172.686 174.332 88.8743 141.973 41.3017 82.6708 149.268 32.2288 151.691 157.485 -15.9388 152.235 195.817 -26.4142 128.412 222.425 -23.3082 97.4314 206.372 52.407 9.22935 18.9977 75.0551 
151.511 141.899 167.339 171.097 174.2 154.837 106.956 163.292 172.671 174.375 88.457 142.413 40.4171 82.4381 149.785 31.5862 151.084 157.901 -16.5461 151.934 196.498 -26.994 128.065 223.191 -23.8807 97.1923 206.876 51.8893 9.31925 19.2807 74.7732 
151.628 142.394 167.288 171.182 174.296 154.977 107.185 163.038 172.746 174.466 88.1541 143.192 39.8953 82.4487 150.354 31.3582 150.602 158.541 -16.8557 151.72 197.339 -27.3834 127.678 223.931 -24.3017 97.0326 207.646 51.5544 9.31963 19.6073 74.4597 
151.935 142.792 167.133 171.215 174.311 155.31 107.254 162.643 172.796 174.452 87.6779 143.672 39.574 82.3069 150.856 31.2395 149.847 158.714 -17.0828 151.392 197.813 -27.8014 127.179 224.364 -24.7984 96.8778 208.291 51.1599 9.33793 20.0559 74.1538 
152.11 143.018 166.79 171.117 174.25 155.423 107.131 162.017 172.74 174.295 87.0927 144.039 39.2932 81.8686 151.345 31.2648 148.754 158.558 -17.3027 150.936 197.981 -28.3056 126.627 224.438 -25.3557 96.6829 208.712 50.6802 9.27905 20.6102 74.0632 
152.412 143.323 166.569 170.971 174.149 155.731 107.14 161.433 172.573 174.062 86.5525 144.258 38.9976 81.5252 151.735 31.2305 147.787 158.546 -17.4857 150.27 198.152 -28.6494 125.895 224.548 -25.7303 96.4009 209.077 50.3635 9.28208 20.9565 73.8339 
152.654 143.564 166.275 170.763 173.917 155.998 106.991 160.733 172.367 173.729 86.0959 144.439 38.7634 81.0956 152.141 31.1805 146.528 158.329 -17.656 149.662 198.257 -28.9508 125.284 224.578 -26.0515 96.1017 209.441 50.0682 9.20626 21.4804 73.3553 
152.907 143.653 165.92 170.588 173.695 156.259 106.828 159.908 172.137 173.334 85.5301 144.694 38.7303 80.59 152.605 31.4837 145.083 157.938 -17.497 148.931 198.081 -29.0905 124.626 224.316 -26.2292 95.8028 209.806 49.9135 9.09713 22.0168 72.9138 
153.285 143.915 165.579 170.41 173.528 156.668 106.479 159.056 171.916 172.973 85.1941 144.836 38.5785 80.2612 153.122 31.903 143.809 157.649 -17.3002 148.413 198.039 -29.1349 124.075 224.11 -26.3523 95.5376 210.176 49.7866 8.9692 22.6214 72.5021 
153.566 143.983 165.241 170.337 173.397 157.067 106.188 158.24 171.771 172.711 84.7324 144.761 38.5915 79.7846 153.37 32.1163 142.292 157.068 -17.0525 147.785 197.754 -29.0675 123.483 223.782 -26.3966 95.086 210.348 49.7338 8.90251 23.263 71.7549 
153.837 144.103 164.85 170.23 173.259 157.453 106.05 157.368 171.648 172.423 84.059 144.574 38.4891 79.1819 153.55 32.4326 140.901 156.498 -16.7434 147.225 197.442 -28.9991 122.871 223.36 -26.4442 94.6503 210.365 49.6416 8.80771 23.8871 71.3974 
154.11 144.247 164.674 170.184 173.113 157.683 105.972 156.707 171.6 172.199 83.4007 144.535 38.5398 78.4383 153.842 32.8386 139.647 156.031 -16.524 146.749 197.274 -29.0131 122.315 223.107 -26.5576 94.2399 210.499 49.5824 8.70924 24.4605 71.2585 
154.34 144.537 164.587 170.152 173.013 157.775 106.148 156.144 171.497 171.954 82.717 144.509 38.663 77.7269 153.947 33.309 138.466 155.562 -16.2179 146.111 196.923 -28.9731 121.648 222.654 -26.5923 93.7875 210.555 49.584 8.61043 24.876 71.1103 
154.503 144.831 164.327 170.106 172.851 157.964 106.172 155.545 171.543 171.821 81.8707 144.252 38.7502 76.832 153.845 33.5537 137.097 154.907 -16.0124 145.633 196.6 -29.0329 121.028 222.251 -26.7341 93.2161 210.385 49.4843 8.52751 25.5194 70.9496 
154.631 144.791 164.357 170.017 172.651 158.311 106.089 155.428 171.484 171.694 81.3221 144.158 38.9873 76.2089 153.973 33.6847 136.284 154.85 -15.8597 145.054 196.634 -28.898 120.415 222.37 -26.6567 92.641 210.509 49.5677 8.59441 25.6706 70.7933 
154.722 144.873 164.225 170.002 172.512 158.521 105.845 155.106 171.508 171.605 80.6597 143.861 38.9948 75.395 153.977 33.8404 135.123 154.421 -15.6944 144.53 196.343 -28.8579 119.841 222.081 -26.7172 91.9845 210.325 49.4996 8.58656 26.0662 70.6875 
154.765 144.848 164.422 169.977 172.275 158.656 105.49 154.992 171.385 171.401 80.3341 143.904 39.0269 74.8105 154.276 33.9558 134.179 154.264 -15.6432 143.983 196.226 -28.7641 119.285 222.035 -26.7659 91.4513 210.467 49.5077 8.62844 26.2535 70.4144 
154.768 145.009 164.659 169.991 172.182 158.599 105.452 154.888 171.346 171.281 80.0115 144.103 38.9674 74.3222 154.466 34.0547 133.405 154.328 -15.547 143.427 196.297 -28.6592 118.763 222.048 -26.6908 90.8978 210.662 49.5355 8.57544 26.3974 70.1599 
154.905 145.253 164.835 170.055 172.174 158.685 105.699 155.04 171.402 171.272 79.3246 144.133 39.028 73.5608 154.37 34.1331 132.563 154.155 -15.5222 142.711 196.107 -28.6888 118.091 221.856 -26.7065 90.2751 210.719 49.5514 8.51352 26.4308 70.0225 
154.948 145.356 164.975 170.122 172.211 158.78 105.731 155.378 171.519 171.383 78.422 144.038 39.0646 72.6661 154.124 34.0304 131.701 153.982 -15.5545 141.895 195.93 -28.7587 117.308 221.76 -26.7503 89.4651 210.619 49.5505 8.52545 26.3996 69.954 
155.006 145.426 165.133 170.239 172.286 158.773 105.872 155.483 171.563 171.402 77.7976 144.04 38.8631 71.9503 153.989 33.9857 130.867 153.941 -15.6047 141.172 195.854 -28.7726 116.537 221.627 -26.7754 88.7124 210.553 49.5418 8.49636 26.4531 69.793 
155.013 145.565 165.447 170.294 172.287 158.671 105.768 155.732 171.565 171.417 77.4647 144.019 38.7 71.4393 153.934 33.9323 130.319 153.954 -15.7712 140.604 195.856 -28.862 115.919 221.559 -26.908 88.0653 210.52 49.4568 8.47777 26.449 69.7187 
155.126 145.668 165.595 170.403 172.416 158.801 105.975 155.941 171.526 171.434 76.9164 143.996 38.672 70.9169 153.712 33.8858 129.806 153.947 -15.8781 139.654 195.713 -28.9305 114.984 221.467 -26.9882 87.3136 210.554 49.4226 8.55383 26.1981 69.5514 
155.361 145.632 165.638 170.511 172.507 158.935 106.395 156.005 171.523 171.414 76.2675 143.957 38.7466 70.2263 153.476 33.9294 129.051 153.819 -15.8713 138.652 195.54 -28.9542 113.986 221.269 -26.9816 86.5615 210.571 49.4892 8.53873 26.087 69.3279 
155.491 145.564 165.613 170.533 172.588 159.107 106.515 156.147 171.616 171.508 75.2942 143.941 38.7692 69.4554 153.214 33.8381 128.27 153.88 -15.8695 137.637 195.654 -29.021 112.917 221.433 -26.994 85.6813 210.563 49.4974 8.61704 26.0378 69.2735 
155.372 145.144 165.668 170.541 172.508 158.896 106.133 156.108 171.671 171.505 74.5966 143.927 38.9054 68.6202 153.209 33.9313 127.186 153.691 -15.8304 136.669 195.553 -29.1001 111.97 221.292 -27.0463 84.8551 210.42 49.5033 8.59147 26.1742 69.2541 
155.255 145.01 165.844 170.692 172.612 158.717 105.926 156.221 171.698 171.48 74.2779 143.944 38.8868 68.1933 153.09 33.9821 126.654 153.835 -15.8692 135.625 195.568 -29.0608 110.909 221.178 -26.9689 84.0381 210.318 49.5569 8.58704 25.9654 69.2287 
155.583 145.03 166.228 170.84 172.839 158.965 106.217 156.777 171.756 171.45 73.2024 143.662 39.6429 67.3309 152.193 34.6641 125.609 153.933 -15.38 133.392 195.397 -28.5701 108.501 220.665 -26.3182 82.2883 210.081 50.1781 8.50112 25.4907 69.0027 
155.75 144.954 166.407 170.928 173.078 159.034 106.517 157.111 171.79 171.444 72.8217 143.174 40.1938 67.1107 151.398 35.135 125.439 153.868 -15.0775 132.382 195.032 -28.2942 107.435 220.024 -25.8979 81.5926 209.615 50.5559 8.39185 25.0975 69.1302 
155.733 144.53 166.47 171.074 173.269 158.916 106.636 157.182 171.812 171.356 72.1121 142.792 40.9465 66.2974 150.894 35.8577 124.592 153.497 -14.6713 130.955 194.304 -27.9433 106.138 219.174 -25.4317 80.7193 209.121 51.0302 8.31476 24.7374 69.3503 
155.871 144.099 166.547 171.165 173.356 158.973 106.846 156.954 171.768 171.192 71.4403 142.484 41.7579 65.4199 150.587 36.678 123.424 152.931 -14.0097 129.641 193.539 -27.4307 104.99 218.359 -24.8865 79.913 208.771 51.5593 8.27848 24.6782 69.2934 
155.99 143.884 166.776 171.228 173.46 159.063 106.987 157.244 171.7 171.139 70.6153 142.141 42.5012 64.4796 150.2 37.3285 122.687 152.503 -13.4734 128.484 192.78 -26.9088 103.958 217.689 -24.3788 79.0648 208.418 52.1142 8.31369 24.2965 69.4573 
156.003 143.884 167.042 171.315 173.497 159.02 106.936 157.345 171.667 171.075 69.7849 141.799 43.1533 63.6417 149.729 37.8606 121.642 151.783 -12.8991 127.391 191.891 -26.3849 103.052 216.811 -23.8652 78.1981 208.043 52.6137 8.23235 24.1666 69.1496 
155.922 143.767 167.355 171.364 173.539 159.055 106.874 157.873 171.592 171.1 68.8746 141.21 43.5894 62.8792 148.95 38.0882 121.119 151.249 -12.5059 126.3 190.971 -25.8993 102.098 216.016 -23.3927 77.1988 207.411 53.0458 8.2991 23.6493 69.1092 
155.926 143.421 167.603 171.361 173.526 159.247 106.948 158.14 171.49 171.133 67.8018 140.767 44.0564 62.017 148.295 38.0486 120.159 150.69 -11.9773 125.244 190.283 -25.2863 101.256 215.63 -22.8044 76.157 207.013 53.5554 8.44527 23.419 68.5015 
155.951 143.261 167.782 171.302 173.555 159.595 107.312 158.607 171.317 171.178 66.8242 140.437 44.3517 61.4121 147.574 37.8377 119.683 150.656 -11.5987 124.256 189.984 -24.6214 100.367 215.604 -22.1453 75.084 206.745 54.1138 8.65162 22.9336 67.9229 
155.774 143.195 167.861 171.191 173.509 159.393 107.552 158.898 171.043 171.11 66.1319 140.175 44.5346 60.9131 146.939 37.6941 119.258 150.661 -11.3927 123.299 189.689 -24.1939 99.484 215.378 -21.6793 74.0547 206.424 54.518 8.73143 22.4906 67.4718 
155.448 143.079 168.103 171.187 173.603 159.059 107.681 159.397 170.977 171.243 65.5501 139.94 44.6166 60.486 146.386 37.4214 119.073 150.884 -11.3511 122.506 189.561 -23.9331 98.6709 215.271 -21.3764 73.0458 206.099 54.7737 8.81072 22.0087 67.2806 
155.286 142.697 168.247 171.197 173.662 159.058 107.957 160.018 170.956 171.434 64.5832 139.816 44.8792 59.9217 145.831 36.9249 118.69 151.07 -11.2991 121.512 189.447 -23.6505 97.726 215.444 -21.1001 71.9488 205.991 55.0344 9.03335 21.4672 66.8206 
155.151 142.537 168.333 171.112 173.618 158.862 108.258 160.2 170.955 171.544 63.6998 139.85 45.055 59.1811 145.526 36.5741 117.898 151.194 -11.1978 120.708 189.694 -23.4848 96.9068 215.811 -20.9121 70.8588 206.029 55.2106 9.1343 21.482 66.3067 
154.884 142.655 168.266 171.123 173.604 158.308 108.253 159.809 171.034 171.676 63.1916 140.039 44.831 58.5192 145.501 36.2464 116.704 151.097 -11.2789 120.049 190.023 -23.6513 96.195 216.035 -21.0519 69.8691 206.06 55.0937 9.10282 22.0126 65.6512 
154.907 142.645 168.534 171.166 173.671 158.22 108.658 160.082 171.041 171.797 62.5368 140.634 44.7547 57.8872 145.768 36.0321 116.026 151.578 -11.3737 119.14 190.393 -23.7708 95.2893 216.43 -21.1644 68.9636 206.646 55.0193 9.12846 21.8662 65.2976 
155.16 142.948 168.817 171.183 173.771 158.486 109.02 160.44 171.075 171.921 61.6049 140.775 44.2337 57.1045 145.758 35.502 115.352 152.003 -11.7979 118.208 190.75 -24.0939 94.2655 216.783 -21.4806 67.8843 206.912 54.707 9.16694 21.7192 65.1227 
155.592 143.43 169.006 171.183 173.784 158.532 109.412 160.094 171.116 172.046 60.0636 142.406 43.6166 55.5633 146.974 34.8986 112.748 152.507 -12.2732 116.36 191.56 -25.1423 92.4987 217.544 -22.6139 66.1938 208.613 53.7698 9.0433 22.3282 63.9791 
156.327 144.043 169.14 170.874 173.696 158.586 109.699 159.808 170.779 172.002 59.5606 143.206 42.9757 54.768 147.607 34.8546 110.957 152.199 -12.6845 115.687 192.003 -26.2731 91.8167 217.588 -23.7224 65.6152 209.402 52.9756 8.68038 23.4101 63.3259 
156.894 144.868 168.939 170.783 173.686 158.956 110.165 159.005 170.812 171.932 59.0358 143.957 41.8442 54.172 148.275 34.4117 109.64 152.621 -13.282 115.072 193.082 -27.1624 90.8981 218.177 -24.6807 64.8741 210.187 52.1011 8.45187 24.3253 62.8792 
157.02 144.949 168.707 170.704 173.665 158.689 110.473 158.371 170.794 171.88 58.8588 145.027 40.6348 54.0306 148.968 33.357 108.747 153.414 -14.1962 114.51 194.498 -28.3079 90.1568 219.122 -25.7916 64.2419 211.112 51.0506 8.23681 25.0378 62.1921 
157.064 145.131 168.742 170.711 173.711 158.554 110.565 158 170.875 171.818 58.2849 146.143 39.2021 53.5071 149.978 32.2661 107.671 154.239 -15.2732 113.708 195.711 -29.5213 89.3014 219.967 -26.937 63.6167 212.045 49.896 8.01893 25.5306 61.8895 
156.96 145.545 168.69 170.569 173.601 158.466 110.796 157.753 170.894 171.49 57.5699 147.071 37.4334 53.0806 150.797 31.0389 107.363 155.824 -16.6023 112.88 197.423 -30.7364 88.1712 221.188 -28.0439 62.8793 212.758 48.6759 7.88505 25.5981 62.3612 
157.094 145.68 168.815 170.526 173.492 158.638 111.247 157.998 170.996 171.182 56.7073 148.12 35.8519 52.2206 151.972 29.8973 107.195 157.752 -18.1618 111.837 199.395 -32.0476 86.8754 222.776 -29.149 62.1456 213.82 47.5069 7.76034 25.357 63.3226 
156.798 146.037 168.522 170.509 173.27 159.206 110.495 157.625 170.582 170.596 56.7459 149.359 34.2627 52.9709 153.648 28.7323 107.394 159.758 -19.5095 110.098 200.498 -33.7132 85.1182 223.78 -30.7709 61.6862 215.086 46.1506 7.93389 24.3622 63.4908 
156.839 145.58 168.558 170.305 172.807 159.918 110.486 157.723 170.266 170.132 56.6059 150.524 32.2537 53.5261 154.983 27.2837 107.859 162.162 -21.0462 108.644 202.049 -35.0783 83.2954 225.26 -32.1886 60.9652 216.253 44.9036 8.26837 23.3767 63.821 
156.815 144.38 168.692 170.266 172.589 160.142 110.501 157.885 170.117 170.003 55.9085 151.866 30.4854 53.0257 156.402 26.0182 107.177 163.776 -22.4794 107.061 203.097 -36.4376 81.7576 226.457 -33.4993 60.0544 217.439 43.7986 8.45466 22.7513 63.8588 
157.02 143.249 169.352 170.547 172.629 160.765 110.852 158.633 170.305 170.168 54.2408 152.747 29.3964 51.3736 157.496 25.1331 105.863 164.761 -23.8947 105.017 203.433 -37.5854 79.8961 227.24 -34.6392 58.7797 218.473 42.8789 8.678 21.9185 64.2788 
157.249 142.197 170.044 170.854 172.658 161.401 111.404 159.438 170.355 170.287 52.7018 153.976 28.2492 49.8722 158.823 24.2111 104.834 166.177 -25.3229 103.257 204.183 -38.7261 78.233 228.452 -35.885 57.5993 219.863 41.8719 8.96562 21.0929 64.7765 
157.394 141.07 170.493 171.246 172.897 161.602 111.887 159.876 170.594 170.533 50.9682 155.102 27.2727 47.8209 160.115 23.6043 102.93 166.795 -26.3647 101.313 204.418 -39.7104 76.6069 229.019 -36.8879 56.2899 221.042 41.0063 8.99291 20.6847 64.9743 
157.085 139.784 171.15 171.744 173.098 161.471 111.715 160.801 170.627 170.823 48.9877 156.172 26.5734 45.8246 161.373 22.5443 101.521 168.491 -27.9432 99.4585 205.558 -40.9626 74.877 230.561 -38.0457 54.6341 222.198 40.0815 9.17205 19.9548 65.769 
157.012 138.008 171.661 172.132 173.313 161.187 112.265 161.5 170.988 171.305 46.5298 157.261 26.6049 43.2744 162.137 22.198 99.0573 168.583 -28.5794 97.2619 205.398 -41.8111 73.0867 230.855 -38.9881 52.7829 223.247 39.4352 9.18597 19.6688 65.6825 
157.102 134.606 172.433 172.665 173.796 160.906 112.886 162.684 171.365 171.994 44.0911 158.11 26.4871 40.989 162.96 21.1884 97.167 169.089 -29.7126 95.4799 205.555 -43.0881 71.6538 231.524 -40.3658 51.0778 224.267 38.4067 9.25699 19.2244 65.9015 
157.344 132.115 173.024 173.082 174.263 160.339 113.668 163.357 171.845 172.683 42.6606 159.303 25.9683 39.5906 163.875 20.279 95.6245 169.33 -30.4853 94.0444 205.663 -44.3124 70.5128 231.807 -41.897 49.7573 225.405 37.2437 9.24428 19.1527 65.4641 
157.56 129.878 173.587 174.045 175.194 159.909 114.318 163.659 172.61 173.874 40.3412 160.472 24.9654 38.5037 164.139 17.6008 93.3818 169.671 -31.8413 92.7369 206.525 -45.7168 69.4769 233.634 -43.5155 48.1086 226.52 35.8171 9.8953 19.6116 63.3808 
157.477 129.829 174.074 174.35 175.445 159.534 114.06 163.566 172.957 174.35 38.5445 161.473 23.7645 37.3194 164.91 15.7749 91.2177 170.076 -32.9137 91.6084 207.468 -47.097 68.4611 234.982 -45.076 46.6447 227.513 34.3039 10.2061 20.3586 62.2564 
157.339 130.614 173.641 174.295 175.489 159.192 114.449 163.881 173.146 174.519 36.5954 162.604 22.7534 35.9491 165.493 14.2296 88.9844 169.877 -33.672 90.4231 207.992 -48.411 67.289 235.807 -46.7433 45.2601 228.572 32.708 10.4615 21.31 61.0747 
