160.679 143.219 173.902 175.321 176.816 161.273 115.692 177.648 174.026 175.626 -61.4355 223.927 -62.03 -70.7586 226.433 -67.3218 -26.3507 240.669 -131.304 -30.2561 276.681 -138.555 -56.42 300.14 -126.96 -57.7342 289.76 -46.9656 7.43147 16.9096 62.0881 
160.527 143.094 176.55 175.497 177.124 161.148 115.717 178.666 174.399 176.574 -62.0716 223.77 -62.2024 -71.8791 226.32 -67.1894 -26.8942 240.322 -131.807 -30.9216 276.264 -139.109 -56.8307 300.139 -127.771 -58.3047 289.525 -47.4353 7.67503 16.7429 62.9176 
160.587 142.661 176.604 175.544 177.411 161.086 115.859 178.692 174.371 176.564 -62.735 223.927 -62.3385 -72.6633 226.336 -67.105 -27.8397 240.144 -131.976 -31.7496 275.945 -139.299 -57.3829 300.094 -128.261 -58.9022 289.617 -47.7384 7.81212 16.673 62.9936 
160.539 141.963 170.513 175 175.401 160.449 115.209 176.526 174.996 176.112 -62.9359 224.391 -63.3347 -72.8802 226.837 -66.753 -28.3445 240.589 -131.749 -32.2157 276.664 -139.86 -58.1221 299.516 -128.363 -59.2724 290.004 -48.4573 6.81922 17.181 63.6355 
161.041 140.203 169.352 175.233 176.228 160.68 114.731 175.927 174.924 175.537 -63.338 224.657 -63.4699 -73.4442 227.409 -66.5998 -29.1333 241.059 -132.056 -33.358 276.999 -140.134 -59.1383 300.104 -129.005 -60.018 290.4 -48.6145 7.16083 16.9998 63.8658 
161.322 139.205 171.519 175.502 176.333 161.092 113.904 175.341 174.642 175.235 -63.8695 224.698 -63.6409 -74.346 228.154 -66.8951 -29.809 241.742 -132.67 -34.2561 277.486 -140.465 -59.7812 301.19 -129.726 -60.7583 290.64 -48.7643 7.7193 16.7087 64.2746 
161.518 138.817 173.119 175.686 176.473 161.366 113.686 175.117 174.597 175.685 -64.212 224.498 -63.831 -74.951 228.259 -67.1714 -30.3568 242.223 -133.162 -35.0289 278.101 -140.769 -60.5221 302.145 -129.938 -61.3751 290.592 -48.8214 8.11837 16.7053 64.4849 
161.742 138.071 174.588 175.832 176.825 161.714 113.579 174.818 174.62 176.041 -64.9119 224.128 -63.7199 -75.5896 228.148 -67.8711 -30.9281 242.288 -133.468 -35.8733 278.209 -140.867 -61.3165 302.829 -130.115 -62.0724 290.351 -48.7385 8.66471 16.5464 64.1726 
161.744 137.769 175.806 175.987 177.182 161.694 113.693 175.086 174.599 176.225 -65.7622 224.003 -63.9748 -76.0351 227.819 -68.3784 -31.3105 242.325 -133.889 -36.5553 278.029 -141.022 -61.9667 302.88 -130.294 -62.6102 290.023 -48.7354 8.89258 16.2411 64.0216 
161.574 138.158 176.5 176.153 177.339 161.602 113.881 175.203 174.391 176.027 -66.6096 224.255 -64.2318 -76.3811 227.637 -68.5039 -31.9041 242.592 -134.09 -37.4249 278.133 -141.008 -62.9532 302.975 -130.298 -63.2419 289.982 -48.7112 9.04047 16.0963 63.9304 
161.416 138.269 176.05 176.164 177.381 161.552 113.801 175.218 174.227 175.594 -67.3009 224.341 -64.1404 -76.7567 227.536 -68.4249 -32.5159 242.393 -134.05 -38.1152 277.713 -140.916 -63.4345 302.482 -130.32 -63.8474 290.001 -48.6689 8.87553 15.9413 63.7322 
161.285 137.951 175.315 176.175 177.137 161.335 113.612 175.826 174.082 174.935 -68.0392 224.622 -64.5205 -77.1862 227.773 -68.8994 -32.894 242.967 -134.82 -38.9188 277.863 -141.148 -64.088 302.292 -130.272 -64.4508 290.157 -48.8669 8.4799 15.4303 63.8154 
161.308 137.672 175.361 176.071 176.851 161.277 113.48 175.947 173.911 174.619 -68.6414 224.821 -64.8381 -77.5561 228.019 -69.3747 -33.2657 243.627 -135.427 -39.7892 278.194 -141.312 -64.9333 302.545 -130.176 -65.084 290.345 -49.0301 8.41015 15.0231 63.8715 
161.337 137.768 174.441 176.245 176.637 161.41 112.885 176.459 173.64 173.989 -68.9294 224.764 -65.1929 -77.8295 228.04 -69.7935 -33.4915 244.239 -136.313 -40.2617 278.768 -141.757 -65.3997 302.93 -130.264 -65.6237 290.159 -49.1381 8.34449 14.8678 64.0829 
160.983 138.105 174.001 176.29 176.833 161.089 112.767 176.359 173.783 174.226 -69.6752 224.938 -65.7879 -78.2268 228.05 -70.1487 -34.1257 244.552 -136.679 -40.5937 279.204 -142.112 -65.7108 303.16 -130.365 -66.0383 290.104 -49.4935 8.17541 15.072 64.1777 
160.656 138.471 173.295 176.277 176.811 160.685 113.336 176.164 173.89 174.762 -70.4617 225.116 -66.2315 -78.4938 227.795 -70.5487 -34.4489 244.757 -136.758 -40.7702 279.429 -142.172 -65.9837 303.474 -130.386 -66.479 290.077 -49.6615 8.32171 15.1922 64.002 
160.081 138.971 172.296 176.208 176.887 160.116 113.726 175.563 173.929 175.15 -71.5099 225.386 -66.6138 -78.9393 227.656 -70.7909 -35.116 244.306 -136.565 -40.8357 279.356 -142.177 -65.8742 303.608 -130.699 -66.8677 290.038 -49.8811 8.46957 15.6635 63.6228 
159.888 138.884 171.78 176.269 177.234 159.999 113.887 175.737 173.985 175.36 -72.1823 225.481 -66.8313 -79.3089 227.541 -71.0163 -35.3367 244.161 -136.541 -40.9687 279.074 -142.113 -65.917 303.583 -130.992 -67.0791 289.905 -49.9864 8.67405 15.5646 63.6002 
159.409 139.326 171.825 176.245 177.368 159.383 113.955 174.814 173.961 175.709 -72.9676 225.53 -66.9346 -79.9576 227.204 -70.5196 -36.3228 243.063 -136.086 -40.992 278.651 -142.223 -65.9594 303.184 -131.372 -67.5386 289.646 -50.1455 8.70953 16.4245 63.4849 
159.241 139.487 171.489 176.334 177.694 159.151 113.733 174.213 173.949 175.668 -73.7361 225.89 -67.0466 -80.7192 227.383 -70.0078 -37.5671 242.258 -135.573 -41.39 278.393 -142.323 -66.3469 302.82 -131.741 -68.1199 289.772 -50.3157 8.59426 17.1581 63.2527 
159.396 139.761 171.546 176.554 178.136 159.586 113.609 173.47 173.608 174.94 -74.2645 226.291 -67.2054 -81.2641 227.435 -70.0877 -38.5637 241.871 -135.143 -42.0764 278.162 -142.351 -66.8483 302.641 -132.013 -68.8016 290.032 -50.3349 8.56639 17.4246 62.4655 
159.855 139.554 172.014 176.578 178.255 160.024 113.59 173.144 173.391 174.552 -74.9075 226.917 -67.5425 -82.0571 228.061 -70.3297 -39.3151 242.278 -135.101 -43.1013 278.181 -142.302 -67.7784 302.719 -132.048 -69.4942 290.643 -50.4853 8.496 17.0614 62.2825 
160.207 139.271 174.406 176.601 177.955 160.417 113.534 173.625 173.191 174.287 -75.4042 227.302 -68.0133 -82.676 228.679 -71.035 -39.4681 243.376 -135.879 -43.9849 278.803 -142.62 -68.7827 303.424 -132.285 -70.163 291.174 -50.7943 8.62769 16.4434 62.5654 
160.384 139.198 174.137 176.552 177.81 160.643 113.373 174.438 173.213 174.446 -75.9683 227.599 -68.4978 -83.4021 229.212 -71.6362 -39.507 244.474 -136.832 -44.8365 279.243 -143.038 -69.6466 304.003 -132.658 -70.7725 291.55 -51.157 8.75645 15.6453 63.1934 
160.522 139.24 172.655 176.601 177.519 160.905 113.458 174.559 172.961 174.21 -76.5333 227.94 -68.9641 -84.1407 229.85 -72.0594 -39.7425 245.617 -137.466 -45.5938 280.089 -143.386 -70.5038 304.969 -132.983 -71.4115 292.052 -51.4718 8.98301 15.2887 63.7382 
160.555 139.182 171.784 176.784 177.402 161.03 113.719 174.724 172.801 174.37 -76.894 228.066 -69.2952 -84.6694 230.063 -72.2009 -39.802 246.606 -138.025 -46.1959 280.926 -143.762 -71.3901 305.865 -133.406 -71.98 292.301 -51.7191 9.31241 15.1058 64.4801 
160.6 138.963 171.193 176.823 177.197 161.134 114.033 174.969 172.679 174.39 -77.6072 227.883 -69.682 -85.4856 230.089 -72.5416 -39.8604 247.38 -138.661 -46.7678 281.309 -144.169 -72.1605 306.373 -133.883 -72.5831 292.267 -51.9999 9.58395 14.712 65.2943 
160.9 138.873 171.354 176.855 177.283 161.616 114.275 175.436 172.665 174.561 -78.2943 227.931 -69.9533 -86.2785 230.121 -72.8598 -39.9836 248.203 -139.371 -47.6988 281.534 -144.449 -73.231 306.796 -134.165 -73.2851 292.371 -52.1591 9.83259 14.0087 65.955 
161.087 138.814 171.432 176.819 177.221 161.853 114.121 175.349 172.627 174.509 -78.8179 227.763 -70.3638 -87.2878 230.363 -73.0712 -40.6037 248.251 -139.933 -48.4226 281.452 -144.877 -73.8665 306.726 -134.527 -73.883 292.312 -52.4775 9.76345 13.8268 66.4249 
161.459 138.496 171.66 176.637 177.256 162.385 113.629 175.093 172.482 174.232 -79.2347 227.539 -70.5399 -88.2206 230.742 -73.4892 -41.3954 248.238 -140.327 -49.3937 281.235 -145.178 -74.6005 306.588 -134.758 -74.5624 292.372 -52.7409 9.63709 13.5303 66.4766 
161.414 138.181 171.493 176.547 177.018 162.417 113.002 174.686 172.415 173.948 -79.7558 227.545 -70.9745 -89.0972 231.329 -73.7921 -42.4682 248.184 -140.652 -50.2586 281.423 -145.598 -75.1992 306.635 -134.944 -75.1139 292.393 -53.0746 9.38907 13.7214 66.5477 
161.38 137.494 171.687 176.654 176.964 162.396 112.025 174.704 172.41 173.762 -80.415 227.591 -71.7376 -89.8538 232.161 -74.2976 -43.3554 249.038 -141.533 -51.3793 282.11 -146.218 -76.1789 307.173 -135.201 -75.6391 292.424 -53.5169 9.26785 13.5019 67.1315 
161.385 137.304 172.022 176.68 176.973 162.349 111.4 174.422 172.347 173.674 -81.1149 227.804 -72.3399 -90.6421 232.909 -74.6276 -44.248 249.694 -142.053 -52.3444 282.741 -146.696 -77.1693 307.751 -135.495 -76.2028 292.634 -53.8661 9.28429 13.4706 67.5053 
161.326 136.858 172.682 176.702 176.92 162.258 110.846 173.938 172.396 173.611 -81.8638 227.973 -72.6771 -91.3645 233.352 -74.7536 -45.2958 249.636 -142.286 -53.1181 282.913 -147.133 -78.0087 307.951 -135.932 -76.7928 292.748 -54.1789 9.34697 13.7313 67.5569 
161.416 136.644 173.423 176.745 176.867 162.203 110.543 173.003 172.345 173.535 -82.4436 228.202 -73.067 -91.956 233.718 -74.8289 -46.4243 249.538 -142.39 -53.808 283.345 -147.656 -78.8915 308.421 -136.452 -77.4716 293.05 -54.557 9.49647 14.3182 67.3928 
161.781 136.548 173.498 176.54 176.705 162.631 110.485 171.745 172.042 173.25 -82.9843 228.652 -73.5415 -92.3474 234.115 -75.1678 -47.2633 250.171 -142.539 -54.8225 284.082 -147.991 -80.1484 309.299 -136.681 -78.1801 293.574 -54.7705 9.77882 14.4495 67.1658 
162.284 136.376 173.408 176.219 176.631 163.302 110.363 170.739 171.627 172.74 -83.7578 229.478 -74.0747 -92.7418 234.846 -75.9708 -48.1051 251.024 -142.748 -55.9228 284.906 -148.188 -81.3674 310.263 -136.794 -79.056 294.496 -55.0322 9.9402 14.3859 66.472 
162.581 136.152 173.255 175.925 176.441 163.828 110.457 170.129 171.443 172.622 -84.4804 230.085 -74.6027 -93.101 235.283 -76.6725 -48.6566 251.619 -142.911 -56.6774 285.526 -148.342 -82.1966 310.901 -136.958 -79.7958 295.123 -55.2372 10.0092 14.3892 65.9098 
162.705 135.7 173.058 175.735 176.277 164.164 110.265 169.651 171.35 172.463 -85.328 230.443 -75.2944 -93.6944 235.78 -77.3511 -49.4322 251.959 -143.217 -57.3748 285.962 -148.698 -82.8214 311.322 -137.321 -80.4232 295.482 -55.5954 9.97358 14.4811 65.5927 
162.74 135.574 172.672 175.619 176.101 164.436 110.209 169.182 171.345 172.594 -86.1075 230.609 -75.8708 -94.2048 235.959 -77.7666 -50.0067 252.083 -143.435 -57.9986 286.297 -148.979 -83.5925 311.66 -137.635 -81.0279 295.592 -55.8581 10.1023 14.6695 65.4897 
162.622 135.66 172.191 175.492 175.952 164.586 110.178 168.848 171.114 172.388 -86.882 231.026 -76.4558 -95.0329 236.446 -78.0879 -50.786 252.392 -143.732 -58.6137 286.637 -149.36 -84.1703 311.955 -138.147 -81.5996 295.894 -56.2893 10.0719 14.7525 65.6584 
162.514 136.043 171.966 175.386 175.828 164.607 110.177 168.196 170.967 172.36 -87.5089 231.609 -76.9069 -95.589 236.859 -78.0545 -51.8317 252.243 -143.528 -59.0183 287.131 -149.495 -84.764 312.273 -138.459 -82.2232 296.271 -56.5252 10.0802 15.4868 65.3317 
162.609 136.237 171.503 175.223 175.85 164.801 110.614 167.537 170.767 172.278 -88.3948 232.189 -77.0978 -96.2942 236.992 -78.0517 -52.7447 252.022 -143.214 -59.6869 287.083 -149.626 -85.4582 312.386 -138.8 -82.9249 296.775 -56.7208 10.1624 15.736 64.9112 
162.843 136.409 171.15 174.992 175.884 165.06 111.076 167.263 170.434 172.097 -89.4991 233.062 -77.4303 -97.0427 237.274 -78.3752 -53.753 252.247 -143.214 -60.7034 287.135 -149.759 -86.3384 312.699 -139.034 -83.7707 297.545 -56.9306 10.2141 15.5901 64.2936 
163.07 136.582 170.934 174.739 175.877 165.455 111.479 167.422 170.277 172.063 -90.5512 233.759 -77.6751 -97.7122 237.612 -78.9922 -54.2454 252.42 -143.43 -61.5416 286.855 -149.91 -87.0535 312.814 -139.375 -84.5584 298.279 -57.2224 10.3256 15.0824 63.7562 
163.116 136.397 170.651 174.44 175.62 165.518 111.897 167.64 170.296 171.979 -91.5849 233.808 -77.7955 -98.3503 237.523 -79.8462 -54.4779 252.34 -143.878 -62.3245 286.196 -150.304 -87.7849 312.462 -139.872 -85.3231 298.51 -57.6083 10.397 14.461 63.3954 
162.978 136.568 170.132 174.261 175.39 165.509 112.565 167.791 170.281 171.955 -92.3386 233.653 -78.0561 -99.1626 237.198 -80.3779 -54.7573 252.048 -144.211 -62.8522 285.563 -150.686 -88.31 311.922 -140.404 -85.9299 298.323 -57.9845 10.4151 14.1654 63.449 
163.065 136.764 170.082 174.383 175.421 165.564 113.323 167.915 170.083 171.708 -92.954 233.648 -79.0294 -100.44 237.358 -81.5344 -55.3743 252.887 -145.287 -63.7525 286.107 -151.397 -89.2387 312.4 -140.935 -86.5979 298.246 -58.5427 10.4235 13.8183 63.8345 
163.288 137.274 169.731 174.363 175.624 165.588 113.555 167.757 169.752 171.396 -93.3577 233.614 -79.4743 -102.05 237.859 -81.9969 -56.5407 253.467 -145.774 -64.7098 286.555 -151.697 -90.0699 312.74 -141.09 -87.2748 298.25 -58.7606 10.3016 13.7152 64.2638 
163.627 137.746 169.76 174.185 175.665 166.005 113.47 167.875 169.568 171.209 -95.0331 233.564 -80.0352 -104.044 238.166 -82.8171 -58.1334 253.816 -146.709 -67.058 286.321 -152.373 -92.5522 312.615 -141.687 -89.1252 298.399 -59.3845 10.3944 13.069 64.5304 
163.637 138.155 169.774 174.115 175.628 165.94 113.754 168.162 169.549 171.211 -95.5984 233.457 -80.0437 -104.223 237.674 -82.9188 -58.3836 253.585 -146.753 -67.8495 285.668 -152.288 -93.5075 311.884 -141.621 -89.7057 298.215 -59.4042 10.3983 12.7145 64.3797 
163.609 138.57 169.88 174.102 175.544 165.936 113.968 168.127 169.359 170.804 -96.4205 233.552 -80.0886 -104.675 237.552 -83.1076 -59.1436 253.585 -146.817 -68.9735 285.258 -152.276 -94.8527 311.263 -141.635 -90.5179 298.251 -59.5182 10.3476 12.4486 64.1481 
163.624 138.839 169.828 174.162 175.505 165.826 114.079 167.878 169.139 170.388 -97.1026 233.819 -80.2854 -105.622 237.797 -83.1784 -60.4478 253.755 -147.027 -70.1157 285.272 -152.57 -96.0769 311.067 -141.859 -91.3089 298.459 -59.7888 10.2269 12.4574 64.1237 
163.909 138.707 169.925 173.987 175.658 165.989 113.726 167.568 168.492 169.832 -97.8034 234.154 -80.8346 -106.976 238.525 -83.3038 -62.0389 254.404 -147.459 -71.7188 285.706 -152.785 -97.5528 311.456 -141.862 -92.1378 298.702 -59.9781 10.1792 12.2692 64.4023 
164.159 138.564 169.991 173.812 175.814 166.234 113.792 167.498 168.253 169.675 -98.613 234.361 -81.1423 -108.258 239.137 -84.1174 -63.1283 254.918 -147.905 -73.1573 286.005 -152.97 -98.7734 312.046 -141.839 -92.9973 298.993 -60.1021 10.2813 11.9215 64.1951 
164.239 138.384 170.237 173.696 175.81 166.424 114.026 167.765 168.199 169.737 -99.4415 234.073 -81.1753 -109.361 239.206 -84.7934 -63.8771 255.01 -148.396 -74.383 285.809 -153.179 -99.9084 312.17 -141.949 -93.8398 298.94 -60.2604 10.4578 11.5074 64.1542 
164.325 138.345 170.436 173.648 175.803 166.459 114.484 168.062 168.358 170.041 -100.403 233.4 -81.2099 -110.196 238.63 -85.4182 -64.5027 254.501 -148.733 -75.3543 285.008 -153.37 -100.84 311.716 -142.086 -94.5979 298.482 -60.3435 10.6321 11.1505 63.8686 
164.291 138.449 170.482 173.675 175.765 166.397 114.563 168.192 168.433 170.071 -101.512 232.744 -81.3682 -110.956 238.163 -86.1522 -65.2322 253.735 -149.093 -76.2213 283.995 -153.677 -101.63 310.989 -142.437 -95.3352 298.024 -60.6416 10.7303 10.8974 63.4793 
164.259 138.579 170.492 173.703 175.893 166.298 114.528 168.157 168.026 169.728 -102.341 232.499 -81.5719 -111.89 238.153 -86.7378 -66.3181 253.351 -149.549 -77.28 283.276 -154.065 -102.407 310.544 -142.881 -96.0249 297.914 -61.1272 10.7511 10.6114 63.2783 
164.294 138.584 170.518 173.52 176.071 166.294 114.16 168.027 167.386 169.273 -103.202 232.815 -82.0119 -112.85 238.699 -87.057 -67.7349 253.364 -150.034 -78.5387 283.007 -154.529 -103.371 310.387 -143.467 -96.7646 298.247 -61.7785 10.6895 10.4261 63.2169 
164.393 138.239 170.489 172.976 176.215 166.249 113.636 168.11 167.092 169.339 -103.944 232.736 -82.1493 -113.585 238.786 -86.854 -68.8819 252.583 -150.078 -79.404 281.976 -154.707 -103.916 309.658 -143.812 -97.3307 298.147 -62.0791 10.6946 10.2995 63.1286 
164.44 137.663 170.402 172.475 176.304 166.119 112.937 168.112 166.996 169.515 -104.785 232.432 -82.3747 -114.534 238.792 -86.5368 -70.1686 251.569 -150.071 -80.1467 280.757 -154.945 -104.261 308.764 -144.198 -97.8719 297.754 -62.3514 10.6696 10.2642 63.1767 
164.905 140.998 170.058 172.412 176.682 166.281 114.981 168.733 167.77 171.103 -105.936 231.887 -82.9287 -115.616 237.371 -87.1544 -70.9327 251.869 -151.161 -79.9994 280.567 -155.894 -104.25 309.385 -145.061 -98.539 297.375 -62.6979 11.3098 10.1892 63.1984 
165.208 142.97 170.596 172.656 177.065 166.321 116.422 170.003 168.683 172.432 -107 231.136 -83.2405 -116.562 235.722 -86.8943 -71.1655 251.998 -152.494 -79.916 280.129 -156.839 -104.447 309.369 -145.923 -99.1521 296.658 -63.0263 11.7496 9.92851 64.3031 
165.464 143.768 171.957 173.099 177.087 166.123 117.123 172.044 169.582 173.236 -108.016 230.351 -83.4309 -117.397 234.431 -86.517 -71.4356 252.482 -154.242 -79.8768 279.978 -157.768 -104.546 309.451 -146.646 -99.7532 296.049 -63.3082 11.9506 9.49502 65.559 
165.649 144.247 172.674 173.436 176.893 165.973 117.297 173.404 170.382 173.689 -108.982 229.557 -83.2809 -118.127 233.431 -85.8871 -71.9863 252.268 -155.374 -80.0775 279.586 -158.492 -104.84 309.08 -147.264 -100.37 295.524 -63.5722 11.9632 9.44842 66.4829 
165.814 144.419 172.876 173.824 176.696 165.958 117.003 174.476 171.035 173.894 -109.843 229.257 -83.3052 -118.78 233.067 -85.4733 -72.3745 252.376 -156.491 -80.3867 279.653 -159.097 -105.24 309.126 -147.734 -101.041 295.347 -63.8737 11.936 9.33718 67.3794 
165.994 144.52 172.725 174.032 176.307 165.992 116.981 174.847 171.501 173.814 -110.726 229.169 -83.6794 -119.336 232.685 -85.0782 -73.3464 252.53 -157.188 -81.1322 279.821 -159.491 -106.116 308.826 -147.877 -101.734 295.088 -64.041 11.6457 9.43562 67.8433 
166.117 144.466 173.238 174.485 176.499 165.908 117.156 175.5 172.045 174.042 -111.68 228.791 -83.9413 -120.197 232.109 -84.9551 -73.908 252.632 -158.178 -82.0287 279.946 -159.957 -107.107 308.638 -148.119 -102.452 294.589 -64.234 11.4973 9.24908 68.6158 
166.317 144.415 173.632 175.011 176.711 166.14 117.062 175.457 172.593 174.26 -112.341 227.835 -83.727 -120.875 231.531 -84.9166 -74.6627 252.407 -158.436 -83.3787 280.173 -160.05 -108.558 308.433 -147.993 -103.284 293.954 -64.1624 11.3636 9.32653 68.8882 
166.512 144.619 173.772 175.268 176.797 166.47 117.152 175.381 172.816 174.287 -113.098 227.277 -83.384 -121.469 230.974 -84.5045 -75.6688 252.124 -158.252 -84.7675 280.082 -159.989 -110.032 307.979 -147.946 -104.163 293.62 -64.0932 11.2604 9.43329 69.0035 
166.636 144.938 173.93 175.436 176.77 166.72 117.427 175.283 173.039 174.251 -114.107 227.096 -83.2321 -122.19 230.557 -84.0465 -76.6256 251.723 -158.009 -85.9276 279.882 -159.955 -111.406 307.431 -147.983 -105.138 293.443 -64.1549 11.179 9.64968 69.1692 
166.723 144.73 173.802 175.491 176.563 166.859 116.953 175.365 173.225 174.075 -115.324 227.14 -83.3541 -123.389 230.728 -83.6302 -77.9544 251.268 -158.139 -87.0223 279.49 -160.152 -112.461 306.942 -148.236 -106.154 293.399 -64.427 11.0501 9.75646 69.4995 
166.987 144.692 174.771 175.805 176.676 167.153 117.072 175.498 173.357 173.992 -116.311 226.678 -83.4054 -124.336 230.174 -83.6227 -78.6849 251.15 -158.409 -88.4578 279.533 -160.262 -114.292 306.765 -148.279 -107.258 293.002 -64.4884 11.1636 9.68964 69.8959 
167.226 144.623 175.207 176.128 176.913 167.684 117.055 175.1 173.464 173.981 -117.485 226.064 -83.0811 -125.395 229.859 -84.291 -79.5187 250.577 -158.335 -89.8698 279.507 -160.267 -115.821 306.815 -148.259 -108.361 292.746 -64.4531 11.3181 9.83623 69.4138 
167.292 144.438 175.379 176.341 177.009 168.065 117.018 174.746 173.511 173.901 -118.79 225.669 -83.0546 -126.471 229.543 -84.6749 -80.6052 250.242 -158.313 -91.0879 279.564 -160.319 -117.088 306.924 -148.246 -109.405 292.44 -64.4324 11.4353 10.0616 69.1556 
167.539 144.283 175.436 176.558 177.023 168.514 117.036 174.386 173.505 173.834 -119.834 224.807 -83.0393 -127.579 229.029 -85.1044 -81.6244 249.81 -158.389 -92.3273 279.435 -160.393 -118.436 306.854 -148.212 -110.464 291.901 -64.4004 11.5785 10.2083 68.9934 
167.687 143.973 175.488 176.836 176.989 168.71 117.215 174.094 173.456 173.618 -120.725 224.465 -83.1941 -128.584 228.769 -85.7775 -82.9542 249.783 -158.648 -93.9143 279.668 -160.477 -120.124 306.999 -148.059 -111.478 291.573 -64.3382 11.6497 10.3009 68.5429 
167.755 143.877 175.431 176.948 176.932 168.962 117.51 173.796 173.342 173.487 -121.796 224.089 -83.5176 -129.569 228.347 -86.3844 -84.008 249.745 -159.03 -95.3637 279.746 -160.705 -121.807 307.007 -148.138 -112.507 291.192 -64.5153 11.8114 10.332 68.4572 
167.77 143.971 175.16 176.848 176.749 169.11 117.755 173.323 173.07 173.288 -122.77 223.77 -83.6326 -130.239 227.717 -86.4439 -85.0024 249.296 -158.912 -96.5855 279.376 -160.736 -123.236 306.5 -148.128 -113.428 290.751 -64.5565 11.8885 10.4769 68.3152 
167.826 144.032 174.862 176.746 176.616 169.179 118.15 172.853 172.736 173.064 -123.736 223.377 -83.8736 -131.091 227.15 -86.5521 -86.0537 249.055 -158.833 -97.7068 279.142 -160.756 -124.407 306.193 -148.101 -114.306 290.31 -64.6172 11.9437 10.5803 68.2665 
167.8 143.807 174.737 176.77 176.375 169.174 118.031 172.709 172.46 172.797 -124.627 223.134 -84.1245 -132.053 226.967 -86.7272 -87.3719 248.956 -159.051 -98.8729 279.077 -160.864 -125.528 306.132 -148.138 -115.21 290.003 -64.7508 11.9909 10.6469 68.2269 
167.977 143.89 174.884 176.855 176.366 169.406 118.216 172.795 172.449 172.806 -125.338 222.705 -84.0432 -132.83 226.557 -87.1299 -88.2087 248.749 -159.273 -100.115 278.744 -160.988 -126.904 305.806 -148.255 -116.167 289.763 -64.8487 12.0817 10.4899 68.0395 
168.044 143.797 174.786 176.767 176.328 169.554 118.068 172.629 172.286 172.675 -126.158 222.392 -83.9477 -133.587 226.388 -87.2371 -89.2471 248.733 -159.476 -101.564 278.572 -161.102 -128.515 305.543 -148.315 -117.167 289.65 -64.9953 12.1578 10.3711 68.1098 
168.124 143.735 174.572 176.627 176.254 169.747 117.983 172.48 172.201 172.521 -127.023 221.989 -83.8801 -134.518 226.261 -87.389 -90.3068 248.618 -159.658 -102.745 278.381 -161.241 -129.689 305.338 -148.41 -118.138 289.53 -65.1878 12.1673 10.3212 68.16 
168.318 143.607 174.333 176.535 176.056 170.039 117.832 172.283 172.04 172.266 -127.614 221.364 -83.7422 -135.561 226.263 -87.5862 -91.2882 248.813 -159.903 -103.888 278.533 -161.357 -130.858 305.441 -148.399 -119.086 289.42 -65.3574 12.1932 10.2707 68.4278 
168.551 143.364 174.225 176.517 175.91 170.3 117.581 172.255 171.934 172.059 -128.291 220.866 -83.8051 -136.679 226.472 -88.0771 -92.3073 249.239 -160.4 -105.03 278.978 -161.538 -131.895 305.911 -148.367 -119.963 289.341 -65.5036 12.2095 10.1756 68.605 
168.672 143.537 174.319 176.436 175.86 170.416 117.787 172.443 171.873 172.12 -129.162 220.45 -83.9376 -137.593 226.101 -88.3871 -93.0204 249.467 -160.936 -106.085 279.007 -161.719 -132.985 305.957 -148.432 -120.779 289.044 -65.6057 12.2894 9.93392 68.8674 
168.69 143.541 174.564 176.381 176.016 170.397 117.669 172.811 171.981 172.367 -130.04 219.868 -83.8444 -138.406 225.65 -88.4303 -93.6461 249.09 -161.367 -107.029 278.417 -161.895 -133.971 305.399 -148.603 -121.532 288.555 -65.7167 12.3298 9.68506 69.18 
168.622 143.447 174.785 176.314 176.184 170.229 117.41 173.123 172.04 172.532 -130.74 219.231 -83.9092 -139.088 225.262 -88.2921 -94.1054 248.456 -161.71 -107.602 277.568 -162.102 -134.562 304.56 -148.912 -122.129 287.969 -65.9528 12.3221 9.49125 69.6242 
