169.068 156.972 179.309 167.251 171.334 164.818 109.947 174.914 174.05 176.503 -169.317 205.743 -95.8498 -187.756 221.535 -93.3826 -154.774 244.115 -177.721 -160.56 270.687 -179.771 -180.21 296.452 -164.974 -161.956 275.177 -83.0005 9.72236 9.85046 79.5239 
168.834 158.143 178.292 167.157 171.833 164.819 110.184 174.323 174.12 176.711 -169.644 205.93 -95.9604 -188.015 221.399 -93.568 -154.901 243.959 -177.496 -160.627 271.081 -179.85 -180.305 296.928 -164.995 -162.16 275.252 -83.0048 9.83535 10.246 79.2374 
168.951 159.812 176.944 167.25 172.124 164.9 110.802 173.689 174.212 176.83 -169.77 205.906 -95.9321 -188.521 221.164 -93.7495 -154.864 243.366 -177.06 -160.517 271.282 -179.84 -180.162 297.346 -165.047 -162.363 275.316 -83.0077 9.99497 10.7742 78.828 
169.036 161.32 175.805 167.317 172.083 165.04 111.276 173.207 174.315 176.815 -170.022 205.944 -95.9808 -188.905 220.978 -94.1093 -154.635 243.039 -176.886 -160.532 271.502 -179.84 -180.114 297.772 -165.084 -162.587 275.399 -83.0522 10.133 10.9703 78.5554 
168.715 162.352 175.146 167.355 171.932 164.811 111.464 173.085 174.469 176.754 -170.387 206.086 -96.0623 -189.37 221.108 -94.4559 -154.497 242.623 -177.018 -160.408 271.643 -179.811 -179.953 298.028 -164.999 -162.714 275.347 -82.9932 10.1918 11.1944 78.3444 
168.459 163.492 175.411 167.285 171.875 164.562 111.436 173.374 174.515 176.732 -170.634 206.041 -96.0306 -189.694 221.068 -94.5369 -154.727 242.647 -176.984 -160.372 271.772 -179.809 -179.844 298.228 -164.955 -162.834 275.184 -82.9318 10.2253 11.317 78.323 
168.298 164.949 175.03 167.264 172.366 164.499 111.383 173.365 174.588 176.93 -170.832 205.911 -96.0162 -189.787 220.738 -94.6908 -154.931 242.838 -177.074 -160.759 271.998 -179.848 -180.108 298.383 -164.902 -163.039 275.065 -82.9146 10.1652 11.2419 78.3236 
167.984 165.423 174.456 167.463 172.829 164.388 111.126 173.455 174.589 177.117 -170.866 205.654 -95.9292 -189.594 220.43 -94.8169 -155.068 243.23 -177.293 -161.209 272.155 -179.975 -180.651 298.257 -164.848 -163.231 274.922 -82.9346 10.0266 11.0334 78.492 
167.714 164.551 173.012 167.753 172.724 164.332 110.653 173.64 174.274 177.074 -170.935 205.39 -95.9093 -189.717 220.699 -95.3798 -155.26 243.918 -177.828 -161.901 272.137 -180.014 -181.175 297.929 -164.8 -163.509 274.846 -83.0167 9.75336 10.3595 78.6125 
167.575 164.596 173.265 167.793 172.514 164.319 110.142 174.161 174.155 176.989 -170.977 205.035 -95.742 -189.484 220.711 -95.863 -155.823 244.632 -178.149 -162.547 272.048 -179.98 -181.821 297.559 -164.684 -163.741 274.771 -83.0563 9.57717 9.86468 78.3944 
167.581 164.73 176.247 167.93 171.937 164.468 109.594 175.491 174.025 176.755 -171.074 204.652 -95.6501 -189.161 220.714 -96.7287 -156.222 245.689 -178.85 -163.473 271.886 -180.032 -182.791 297.007 -164.628 -164.072 274.736 -83.1976 9.33338 8.933 78.1726 
167.758 163.535 176.764 167.854 171.036 164.753 109.331 176.61 173.978 176.389 -171.146 204.495 -95.5512 -188.922 220.681 -97.1019 -155.991 246.003 -179.293 -164.32 271.628 -179.947 -183.772 296.455 -164.607 -164.446 274.86 -83.3098 9.17581 8.19054 78.2887 
167.794 161.668 174.989 167.585 170.573 164.789 108.687 177.822 173.898 176.19 -171.5 204.416 -95.7232 -188.581 220.506 -96.954 -155.657 246.301 -179.858 -165.01 271.569 -179.908 -184.537 296.028 -164.537 -164.714 274.768 -83.3808 8.95606 7.57125 79.0509 
167.781 160.226 176.237 167.495 170.666 164.809 108.285 178.733 173.959 175.958 -171.752 204.339 -95.7713 -188.379 220.313 -96.7471 -156.108 246.784 -180.476 -165.528 271.258 -179.881 -185.176 295.425 -164.542 -164.951 274.671 -83.4362 8.76989 6.99464 79.4329 
167.772 158.865 178.784 167.406 171.692 164.763 107.78 179.59 174.083 175.929 -172.011 204.279 -95.7072 -188.546 220.5 -96.5471 -156.458 246.999 -180.902 -165.88 270.963 -179.861 -185.638 294.971 -164.621 -165.228 274.6 -83.4656 8.66331 6.62425 79.8339 
167.818 158.777 179.999 167.42 172.627 164.661 107.381 179.995 174.18 175.999 -172.169 204.29 -95.779 -188.634 220.513 -96.0878 -157.116 247.498 -181.478 -166.097 270.738 -179.932 -186.036 294.667 -164.813 -165.473 274.554 -83.5873 8.65802 6.32469 80.4465 
168.026 159.678 180 167.318 173.052 164.771 107.858 179.995 174.182 176.151 -172.233 204.137 -95.8245 -189.132 220.213 -95.638 -157.694 246.911 -181.669 -166.311 270.283 -180.1 -186.248 294.33 -165.072 -165.709 274.421 -83.7204 8.71172 6.54272 80.613 
168.1 159.9 180 167.073 172.964 164.801 108.074 179.997 174.039 176.315 -172.241 203.902 -95.877 -189.395 219.894 -94.8351 -158.104 246.542 -181.949 -166.411 269.82 -180.286 -186.26 294.007 -165.339 -165.747 274.178 -83.82 8.76022 6.59265 81.2516 
168.369 159.288 180 166.872 172.253 164.883 108.089 179.997 174.022 176.484 -172.422 203.94 -95.9097 -189.762 219.918 -94.3177 -158.114 245.972 -181.957 -166.518 269.4 -180.278 -186.293 293.886 -165.453 -165.916 274.062 -83.8666 8.93036 6.57946 81.7187 
168.599 159.25 179.999 166.784 172.152 164.966 108.543 179.997 174.132 176.824 -172.568 203.979 -96.0965 -190.318 219.81 -94.148 -157.943 245.262 -181.891 -166.379 269.114 -180.381 -186.126 293.97 -165.666 -166 273.903 -83.98 9.1766 6.75855 81.9294 
168.867 159.312 180 166.821 172.693 165.201 109.152 179.998 174.196 177.052 -172.564 203.922 -96.2154 -190.81 219.645 -94.1339 -157.411 244.663 -181.766 -166.276 268.835 -180.422 -185.92 293.974 -165.825 -166.031 273.822 -84.0933 9.32558 6.7247 82.1333 
169.061 159.415 180 166.845 172.712 165.419 109.591 179.998 174.159 177.063 -172.599 203.923 -96.266 -191.079 219.531 -94.2708 -156.88 244.283 -181.561 -166.285 268.65 -180.409 -185.79 294.006 -165.919 -166.065 273.853 -84.1805 9.4224 6.61902 82.1644 
169.28 160.325 179.998 166.919 172.888 165.519 109.664 179.996 174.264 177.135 -172.564 203.848 -96.2665 -191.204 219.63 -94.7626 -156.626 244.092 -181.391 -166.243 268.625 -180.385 -185.661 294.107 -165.952 -165.997 273.832 -84.2476 9.48304 6.62495 81.853 
169.504 160.423 180 166.838 172.934 165.703 109.57 179.514 174.183 177.154 -172.411 203.704 -96.2836 -191.075 219.643 -95.1721 -156.744 244.209 -181.284 -166.261 268.681 -180.331 -185.479 294.261 -165.952 -165.926 273.823 -84.2955 9.51287 6.61238 81.4448 
169.817 160.928 180 166.887 173.009 165.929 109.283 179.103 174.199 177.185 -172.201 203.493 -96.2182 -191.088 219.887 -95.7436 -156.958 244.324 -181.142 -166.193 268.88 -180.218 -185.195 294.564 -165.865 -165.827 273.822 -84.2731 9.53422 6.71445 80.8596 
170.12 160.578 180 166.631 173.343 166.05 108.786 179.022 174.294 177.32 -171.889 203.203 -96.1287 -190.895 220.171 -95.917 -156.917 244.302 -181.066 -165.89 268.933 -180.251 -184.817 294.623 -165.874 -165.58 273.711 -84.2686 9.50257 6.83422 80.7305 
170.324 160.065 180 166.345 173.731 166.141 108.11 178.686 174.3 177.477 -171.472 202.869 -95.9969 -190.395 220.423 -96.1008 -156.78 244.423 -181.038 -165.563 268.999 -180.251 -184.382 294.585 -165.793 -165.232 273.593 -84.2255 9.37997 6.85395 80.5999 
170.716 159.615 180 165.947 173.191 166.433 106.999 177.87 174.436 177.256 -170.399 202.282 -95.6511 -189.06 220.674 -96.5388 -156.16 244.76 -181.177 -165.546 268.843 -180.172 -184.105 293.95 -165.698 -164.599 273.592 -84.2804 8.92696 6.31721 80.3416 
170.974 158.41 180 165.869 172.594 166.831 106.592 177.217 174.289 176.999 -169.428 201.566 -95.3392 -188.252 220.802 -97.085 -155.63 244.859 -181.316 -165.234 268.462 -180.198 -183.616 293.424 -165.83 -164.025 273.483 -84.3561 8.72782 5.92243 79.9526 
171.694 157.599 180 165.546 171.96 167.485 106.665 176.488 174.014 176.71 -168.49 200.935 -95.2394 -188.192 221.12 -97.433 -155.424 244.968 -181.402 -164.53 268.52 -180.359 -182.568 293.389 -166.049 -163.441 273.398 -84.4328 8.48229 5.98598 79.7233 
172.431 154.986 180 165.596 171.386 168.053 106.714 175.955 173.621 176.379 -167.676 200.65 -95.3365 -188.084 221.566 -97.9627 -155.037 245.553 -181.714 -163.834 268.955 -180.624 -181.702 293.576 -166.141 -162.884 273.421 -84.5095 8.17849 5.92308 79.6443 
172.991 152.721 178.787 165.285 172.061 168.509 107.229 175.677 173.424 176.194 -167.125 200.89 -95.6878 -188.143 221.958 -98.6322 -154.965 245.403 -181.787 -163.477 269.608 -180.782 -180.876 294.179 -166.3 -162.408 273.675 -84.6799 7.99703 6.38973 78.9136 
173.312 149.655 176.383 165.019 172.824 168.862 107.808 174.793 173.375 176.255 -166.654 201.274 -96.0142 -187.971 222.316 -99.4614 -154.258 244.962 -181.894 -162.773 270.258 -180.858 -179.755 295.169 -166.387 -161.896 274.014 -84.8073 8.14847 6.88097 78.0917 
173.328 146.378 174.334 164.798 173.462 169.133 108.928 173.955 173.301 176.244 -166.146 201.77 -96.405 -187.581 222.695 -101.134 -152.879 244.316 -181.914 -161.76 270.679 -180.964 -178.51 295.972 -166.553 -161.278 274.43 -85.0439 8.3606 7.31908 76.6983 
172.741 145.075 173.113 163.873 173.936 169.154 108.705 173.497 172.292 175.781 -165.347 201.839 -96.5614 -186.531 222.976 -101.787 -150.671 244.336 -181.945 -160.678 270.672 -180.547 -177.591 296.075 -166.338 -160.609 274.502 -84.9325 8.49989 6.97099 77.0241 
171.908 146.264 172.873 163.803 174.679 168.86 108.362 173.423 172.145 175.595 -164.528 201.812 -96.7407 -185.702 223.369 -101.6 -149.286 244.397 -182.021 -159.468 270.331 -180.511 -176.466 295.66 -166.381 -159.717 274.486 -84.962 8.42479 6.67359 77.5815 
171.621 147.618 172.42 163.956 174.996 168.91 107.802 173.314 171.534 175.201 -163.486 201.778 -96.8364 -184.785 223.778 -101.501 -148.327 244.817 -182.226 -158.271 270.342 -180.716 -175.444 295.636 -166.597 -158.836 274.656 -85.125 8.37588 6.44763 77.919 
171.932 148.786 172.985 164.035 175.064 169.26 108.49 173.461 171.272 174.83 -162.741 201.893 -97.074 -184.672 224.023 -101.951 -147.289 244.6 -182.585 -157.004 270.778 -181.17 -174.015 295.985 -167.03 -157.995 274.857 -85.3815 8.16445 6.80592 77.7754 
172.772 147.882 172.701 163.982 174.722 169.777 109.645 173.28 171.316 174.257 -162.005 202.407 -97.2434 -183.773 223.924 -102.933 -146.325 245.121 -182.718 -156.364 272.082 -181.213 -173.25 296.957 -166.844 -157.2 275.437 -85.3645 7.87055 7.14984 76.697 
173.602 147.849 171.927 163.648 174.021 170.326 110.211 173.293 171.421 174.014 -161.023 202.488 -96.9421 -182.325 223.604 -103.536 -145.353 245.476 -182.425 -155.757 272.515 -181.191 -172.627 297.365 -166.834 -156.381 275.907 -85.4115 7.86469 7.18491 75.7728 
173.549 147.762 171.194 163.797 173.585 170.317 109.959 173.196 171.462 173.69 -159.984 202.604 -96.8349 -180.779 223.932 -104.067 -144.405 246.285 -182.322 -155.274 272.715 -181.128 -172.417 297.33 -166.658 -155.508 276.243 -85.3984 7.79766 6.81493 75.2695 
173.889 146.038 171.129 164.208 173.271 170.354 109.097 173.139 171.399 173.311 -158.745 202.513 -96.7024 -179.108 224.105 -103.721 -143.323 246.692 -182.25 -154.264 272.835 -181.086 -171.763 297.249 -166.429 -154.528 276.345 -85.2641 7.76163 6.71347 75.4725 
174.675 144.295 171.808 164.059 173.161 170.678 108.641 173.427 171.69 172.987 -157.828 202.531 -96.8254 -178.112 224.28 -103.849 -141.974 246.816 -182.587 -153.023 273.511 -181.378 -170.553 297.664 -166.494 -153.544 276.434 -85.2632 7.52441 6.9902 75.613 
175.378 143.661 172.313 164.24 172.875 170.975 109.197 173.62 171.684 172.739 -156.952 202.801 -96.6689 -177.036 223.997 -103.88 -140.721 246.926 -182.55 -151.834 274.04 -181.358 -169.372 298.176 -166.42 -152.643 276.804 -85.1612 7.47717 7.21156 75.3497 
175.517 144.21 172.94 164.806 172.584 170.94 109.539 173.798 171.698 172.561 -155.743 203.02 -96.5616 -175.445 223.643 -103.55 -139.246 246.926 -182.379 -150.597 274.003 -181.19 -168.389 298.055 -166.207 -151.559 277.04 -84.9884 7.47402 7.20323 75.2914 
175.26 144.203 173.998 165.971 172.567 170.462 109.379 174.326 171.86 172.495 -154.477 203.168 -96.5857 -173.897 223.632 -103.206 -137.775 247.033 -182.498 -149.088 273.833 -181.153 -167.385 297.703 -166.053 -150.503 277.158 -84.8666 7.48019 7.09942 75.4879 
174.566 142.439 174.93 166.145 172.401 170.016 108.567 174.758 171.859 172.322 -153.627 203.389 -96.8432 -172.48 224.028 -102.976 -136.497 247.341 -182.857 -147.531 274.126 -181.289 -166.211 297.865 -166.02 -149.399 277.248 -84.8666 7.50751 7.14021 75.837 
174.139 140.005 175.612 166.302 172.391 169.815 108.898 175.176 171.771 172.228 -152.739 203.686 -97.1913 -171.111 223.867 -103.105 -135.343 247.744 -183.106 -145.982 274.711 -181.228 -164.847 298.422 -165.754 -148.241 277.348 -84.7167 7.57762 7.29664 75.5988 
173.713 138.212 175.865 167.215 172.415 169.735 109.728 175.444 171.826 172.27 -151.475 204.004 -97.3137 -169.418 223.322 -102.973 -134.14 247.753 -183.045 -144.662 274.797 -181.128 -163.871 298.44 -165.596 -147.151 277.545 -84.5658 7.66833 7.46569 75.1769 
172.649 135.78 176.045 168.593 172.225 169.196 109.179 175.571 171.977 172.172 -150.435 204.183 -97.4 -167.415 223.22 -102.5 -132.674 247.396 -182.882 -143.051 274.429 -180.961 -162.865 297.99 -165.366 -145.961 277.488 -84.3892 7.8208 7.61776 75.2229 
171.699 132.862 176.075 169.129 172.053 168.554 108.41 175.918 172.234 172.063 -149.547 204.516 -97.5957 -166.032 223.54 -101.888 -131.711 247.553 -183.052 -141.51 274.633 -181.203 -161.699 297.982 -165.337 -144.811 277.498 -84.3429 7.76451 7.82271 75.704 
171.361 130.997 175.352 169.748 172.168 168.033 108.796 176.356 172.585 172.334 -148.52 204.681 -97.5759 -164.693 223.236 -101.428 -130.786 247.334 -183.151 -139.818 274.674 -181.427 -160.23 298.004 -165.478 -143.561 277.518 -84.3052 7.7802 8.19242 75.6986 
171.174 129.123 174.719 170.595 172.07 167.925 109.948 176.265 172.821 172.06 -147.311 205.015 -97.0764 -163.084 222.668 -101.166 -129.465 246.961 -182.851 -138.872 274.438 -181.29 -159.564 297.477 -165.36 -142.567 277.989 -84.1277 7.60018 8.22041 75.1007 
170.464 128.031 173.442 171.532 172.161 167.691 110.759 176.283 172.609 171.879 -146.09 205.156 -96.7475 -161.312 222.115 -100.805 -127.763 246.044 -182.188 -136.813 273.37 -180.735 -158.077 296.76 -165.193 -141.287 278.12 -83.8062 7.96906 8.30139 74.3938 
169.876 125.563 172.68 172.239 172.121 167.322 110.86 176.146 172.26 171.609 -144.92 205.37 -97.1394 -159.77 222.201 -100.651 -126.624 245.814 -181.819 -134.865 273.381 -180.346 -156.207 296.85 -164.927 -139.809 278.032 -83.6013 8.0574 8.71764 73.9798 
169.921 124.846 172.667 172.76 172.049 167.56 111.036 176.35 171.861 171.368 -143.59 205.521 -97.2055 -158.495 222.258 -100.519 -125.224 245.908 -181.884 -133.423 273.372 -180.017 -154.697 297.112 -164.749 -138.473 278.16 -83.4322 8.22517 8.58318 73.9237 
170.12 124.099 172.158 172.964 171.722 167.952 111.166 175.93 171.429 170.966 -142.346 205.745 -96.8502 -157.186 222.68 -100.515 -123.646 245.252 -181.307 -132.119 272.977 -179.455 -153.146 297.002 -164.462 -137.111 278.485 -83.1764 8.28072 8.59718 73.2732 
170.341 122.813 171.925 172.885 171.714 167.96 111.004 175.838 170.854 170.973 -140.869 205.551 -96.7145 -155.604 222.74 -99.9956 -121.93 244.757 -180.842 -130.151 272.355 -178.929 -151.025 296.8 -164.183 -135.446 278.205 -82.8522 8.50843 8.56679 73.3677 
170.673 122.715 171.748 173.128 171.569 167.857 111.464 176.008 170.503 170.979 -139.518 205.569 -96.7791 -154.162 222.386 -99.7768 -120.578 244.965 -180.68 -128.25 272.591 -178.611 -149.054 297.162 -163.936 -133.767 277.976 -82.5999 8.62293 8.72929 73.4052 
171.025 122.679 171.508 173.32 171.262 167.947 111.697 175.971 170.448 170.829 -138.004 205.627 -96.3287 -152.998 222.677 -99.5619 -119.089 244.477 -180.174 -126.626 272.349 -178.343 -147.13 297.004 -163.886 -132.286 278.141 -82.4663 8.51837 8.89728 73.1539 
171.707 123.19 171.212 173.128 170.717 168.37 111.853 175.789 170.047 170.409 -136.448 205.911 -95.8216 -151.925 223.412 -99.3301 -117.598 244.359 -179.5 -124.971 272.417 -177.893 -145.256 297.211 -163.756 -130.949 278.739 -82.3056 8.48361 9.0395 72.8379 
171.854 124.84 171.546 173.162 170.45 168.42 111.936 175.906 169.829 170.179 -134.66 205.798 -95.4101 -150.379 223.308 -98.9153 -115.632 244.367 -179.023 -123.154 272.123 -177.382 -143.614 296.938 -163.332 -129.384 278.712 -81.9164 8.55764 8.87337 73.0074 
172.148 125.961 171.409 173.058 170.253 168.821 110.831 175.785 169.661 169.908 -133.223 205.621 -95.0779 -149.564 224.265 -98.2785 -113.952 243.893 -178.527 -121.349 271.987 -177.02 -141.358 296.921 -163.081 -127.753 278.741 -81.6758 8.41128 8.99705 73.5305 
172.717 128.817 171.251 173.042 170.229 169.21 110.086 175.787 169.598 169.648 -131.494 205.512 -94.3271 -148.525 225.064 -97.606 -112.166 243.405 -177.762 -119.279 271.391 -176.605 -139.22 296.61 -162.955 -126.225 279.068 -81.4563 8.45245 8.99776 73.7342 
172.852 131.486 171.842 172.876 170.306 169.444 109.59 175.652 169.335 169.388 -129.561 205.448 -94.189 -146.895 225.066 -96.9636 -110.134 243.448 -177.352 -117.33 271.252 -176.269 -137.57 296.523 -162.671 -124.589 279.114 -81.1847 8.58007 8.93258 74.1945 
172.637 133.638 171.826 172.769 170.427 169.631 108.98 175.607 169.346 169.234 -128.19 205.556 -94.1542 -145.75 225.501 -96.3525 -108.263 243.217 -176.757 -115.017 271.075 -175.997 -135.319 296.626 -162.521 -122.984 279.238 -80.9346 8.71522 9.12627 74.5252 
172.345 136.502 172.295 173.094 170.583 169.617 108.548 175.633 169.589 169.12 -126.487 205.745 -93.7967 -144.204 225.676 -95.7262 -106.142 242.59 -175.899 -112.666 270.354 -175.718 -133.331 296.11 -162.462 -121.434 279.462 -80.7095 8.85523 9.28758 74.5617 
172.058 138.092 173.176 172.969 170.532 169.634 108.282 175.572 169.48 168.866 -124.836 206.09 -93.4647 -142.622 225.852 -94.97 -104.167 242.375 -175.222 -111.034 269.935 -175.281 -131.903 295.752 -162.135 -119.906 279.695 -80.3622 8.93017 9.14559 74.8847 
171.931 139.897 173.529 173.529 171.108 169.778 108.581 176.056 170.026 169.183 -123.259 206.409 -93.6262 -141.028 225.406 -94.1674 -102.15 242.166 -174.925 -108.525 269.571 -175.404 -129.978 295.508 -162.349 -118.364 279.702 -80.264 9.17487 9.47422 75.3553 
171.29 140.669 174.483 173.697 171.506 169.53 108.574 175.778 170.009 169.191 -122.026 207.174 -93.6702 -139.321 225.487 -93.8546 -99.9764 241.881 -174.084 -106.519 269.383 -174.969 -128.184 295.568 -162.048 -116.816 280.024 -79.8633 9.39885 9.58516 75.062 
170.787 140.844 175.328 173.919 172.009 169.267 108.605 176.026 170.143 169.371 -120.752 207.938 -94.0386 -137.64 225.465 -93.5695 -98.1856 241.927 -173.894 -104.641 269.245 -174.861 -126.553 295.596 -162.022 -115.261 280.219 -79.7426 9.58445 9.58104 75.1041 
170.19 140.741 174.556 174.197 172.571 168.827 108.69 176.581 170.627 169.802 -119.962 208.881 -94.8368 -136.229 225.708 -93.237 -96.9181 242.458 -174.063 -102.369 269.63 -175.146 -124.5 296.26 -162.304 -113.716 280.573 -79.7875 9.80712 9.9439 75.2447 
169.346 141.244 175.17 174.43 173.01 168.447 108.46 176.666 170.915 169.963 -119.16 210.053 -95.1375 -134.498 226.03 -93.1844 -95.0006 242.328 -173.858 -100.866 269.552 -175.122 -123.183 296.348 -162.363 -112.334 281.185 -79.7666 9.92937 9.83171 75.0106 
168.779 141.08 175.188 174.611 173.29 167.995 108.572 177.211 171.212 170.241 -118.01 210.705 -96.0341 -132.555 225.752 -92.8829 -93.1555 242.49 -174.047 -98.6359 269.571 -175.282 -121.343 296.387 -162.429 -110.539 281.075 -79.7399 10.0706 9.99507 75.3083 
168.204 140.906 175.175 174.59 173.326 167.34 108.786 177.799 171.482 170.389 -116.921 211.572 -96.7949 -130.53 225.486 -92.6393 -91.7379 242.809 -174.107 -96.903 269.631 -175.387 -119.916 296.315 -162.412 -108.879 281.176 -79.6498 10.0759 10.1079 75.1682 
167.571 140.633 176.231 174.438 173.412 166.657 109.093 178.372 171.6 170.598 -115.848 212.654 -97.1122 -128.763 225.628 -92.5374 -90.2828 243.051 -173.905 -95.367 269.442 -175.364 -118.344 296.189 -162.556 -107.322 281.65 -79.7136 10.0499 9.9664 74.9001 
167.189 140.362 177.968 174.371 173.675 166.01 109.532 179.117 171.7 170.876 -114.779 213.568 -97.907 -127.167 225.582 -92.5389 -88.7114 243.794 -174.167 -93.6143 269.702 -175.414 -116.497 296.529 -162.579 -105.659 281.841 -79.7368 10.0495 9.74686 75.0533 
166.847 140.629 178.086 174.278 173.804 165.751 110.07 179.164 171.625 170.8 -113.542 214.649 -98.404 -125.289 225.677 -92.951 -86.804 244.663 -174.222 -92.4046 270.413 -175.309 -115.224 297.136 -162.335 -104.064 282.454 -79.648 9.96581 9.30411 74.6962 
166.575 141.327 178.808 174.295 173.928 165.417 111.081 179.478 171.88 171.139 -112.027 215.233 -98.1373 -123.129 224.997 -92.6157 -84.3977 244.412 -173.516 -90.3196 270.1 -174.933 -113.382 296.757 -162.083 -102.381 282.66 -79.2271 9.95167 9.24996 74.2758 
166.525 141.775 179.308 174.425 174.268 165.356 111.855 179.437 171.945 171.222 -110.45 215.896 -98.2435 -121.284 224.731 -93.1214 -82.0861 244.665 -173.345 -88.5665 270.456 -174.781 -111.76 297.088 -161.862 -100.76 283.08 -78.9497 9.95757 9.07161 73.6178 
166.095 141.82 179.89 174.394 174.425 164.92 112.283 179.244 171.871 171.244 -109.002 216.575 -98.0764 -119.235 224.566 -93.1226 -79.8675 244.33 -172.937 -86.5262 270.361 -174.677 -109.989 296.926 -161.811 -99.0873 283.399 -78.7827 9.96011 9.23868 73.1649 
166.361 142.221 179.783 174.286 174.424 165.201 112.397 178.833 171.846 171.172 -107.466 217.141 -97.6554 -117.488 224.844 -93.0833 -78.1197 244.091 -172.213 -84.6448 270.476 -174.283 -108.074 297.16 -161.495 -97.5161 284.033 -78.4007 9.93518 9.50221 72.3339 
166.175 141.944 179.2 174.413 174.407 164.919 112.465 178.628 171.979 171.203 -105.872 217.872 -98.1948 -115.663 225.144 -93.4616 -76.2756 244.796 -172.274 -82.4123 271.663 -174.303 -105.974 298.26 -161.155 -95.7287 284.406 -78.1326 9.93543 9.94572 71.9361 
166.017 142.297 178.798 174.493 174.596 164.916 113.021 178.05 172.065 171.397 -104.552 218.758 -98.1562 -113.993 225.176 -93.8339 -74.135 244.866 -172.085 -80.378 272.089 -173.979 -104.009 298.788 -160.773 -94.0853 284.874 -77.7868 9.98898 10.0457 71.2974 
166.237 142.372 178.404 174.367 174.598 165.099 113.052 177.471 171.931 171.368 -102.706 219.136 -98.1816 -112.256 225.458 -94.0485 -72.2466 244.725 -171.733 -78.4281 272.312 -173.711 -102 299.113 -160.532 -92.3794 285.265 -77.5456 9.99083 10.2419 70.6682 
165.946 142.12 177.038 174.423 174.597 164.884 113.28 176.997 171.951 171.49 -101.231 219.538 -97.9128 -110.833 225.643 -94.2923 -70.5106 244.438 -171.42 -76.0041 272.596 -173.564 -99.6026 299.625 -160.409 -90.6168 285.519 -77.2942 10.0716 10.7426 70.0246 
165.433 141.981 174.728 174.591 174.776 164.095 113.2 176.793 172.35 172.092 -97.4824 220.358 -97.3744 -107.513 226.477 -93.6809 -66.4306 244.118 -170.792 -71.4649 273.146 -173.495 -95.2216 300.126 -160.426 -86.9513 286.155 -77.0783 10.023 11.4716 70.1642 
165.064 141.838 173.155 174.701 174.797 163.638 113.137 176.519 172.853 172.607 -95.9303 220.397 -96.3921 -105.705 226.095 -92.8721 -64.5661 242.974 -169.662 -69.001 272.756 -173.122 -92.9275 299.517 -160.114 -85.3055 285.901 -76.4691 9.83566 12.2412 69.7599 
165.294 141.995 172.49 174.466 174.741 163.924 112.848 175.987 172.605 172.563 -93.9337 220.741 -95.6502 -103.797 226.494 -92.3675 -62.8617 242.678 -168.722 -67.3313 272.653 -172.38 -91.0783 299.469 -159.557 -83.5428 286.361 -75.9398 9.76371 12.3213 69.2367 
165.098 142.232 171.631 174.489 174.953 163.909 113.083 175.667 172.729 172.939 -92.2822 221.269 -94.9293 -101.737 226.618 -92.2148 -60.6779 242.403 -167.729 -65.1794 273.042 -171.948 -89.1185 299.821 -159.257 -81.8919 286.881 -75.468 9.81388 12.824 68.4905 
