149.571 141.812 151.035 176.907 174.814 141.828 83.3215 127.511 173.253 171.081 -118.342 180.426 -12.9487 -118.799 190.69 -13.2889 -104.428 162.741 -46.2518 -108.209 177.522 -105.142 -136.87 193.171 -101.56 -136.137 234.564 -32.1004 7.33783 45.4158 44.8645 
149.723 142.246 147.927 176.901 174.855 141.745 83.5387 125.977 173.408 171.278 -118.264 180.233 -12.6418 -118.449 191.005 -12.4111 -104.948 163.208 -44.5221 -107.453 177.655 -104.983 -136.049 193.321 -101.413 -135.496 234.577 -31.8945 7.31862 47.0342 44.1702 
149.747 143.151 145.956 176.92 174.775 141.656 83.6859 123.908 173.522 171.311 -118.096 179.969 -12.3504 -118.272 191.159 -11.8268 -105.331 163.903 -43.082 -106.802 178.004 -104.868 -135.37 193.652 -101.405 -134.829 234.613 -31.6223 7.32128 48.4385 43.552 
149.854 143.815 149.212 177.03 174.866 141.866 84.0781 124.017 173.682 171.361 -117.976 179.575 -11.9847 -117.87 191.175 -11.2609 -104.753 163.732 -42.241 -106.014 178.241 -104.534 -134.648 193.794 -101.068 -134.108 234.681 -31.2459 7.2159 48.893 43.4427 
149.889 143.697 139.143 177.117 174.93 141.962 83.7701 118.82 173.903 171.511 -117.669 179.194 -11.7481 -117.418 191.265 -11.0991 -106.535 165.665 -39.3506 -105.292 178.738 -104.487 -133.961 194.283 -100.908 -133.387 234.749 -30.8038 7.07952 52.0326 40.5724 
149.893 143.994 120.078 177.052 174.895 142.164 83.4429 110.641 173.998 171.589 -117.195 178.841 -11.6035 -117.266 191.359 -11.0599 -108.955 169.478 -36.1419 -104.567 178.885 -104.462 -133.229 194.606 -101.013 -132.67 234.792 -30.6228 7.03229 55.9707 37.044 
149.876 144.16 118.104 176.895 174.886 142.246 83.1836 104.707 173.993 171.593 -116.644 178.427 -11.7147 -116.576 191.324 -11.0441 -110.184 172.067 -32.8777 -103.583 179.169 -104.452 -132.167 194.871 -101.058 -131.622 234.693 -30.4879 6.91307 60.059 33.6486 
150.035 144.18 119.776 176.634 174.852 142.621 83.6244 100.232 173.665 171.162 -116.017 178.184 -11.6193 -115.837 191.099 -10.8634 -111.662 173.964 -29.6386 -102.68 179.384 -104.052 -131.207 195.004 -100.612 -130.692 234.774 -30.1412 6.72408 63.9405 29.7161 
150.236 143.826 124.119 176.443 174.815 143.245 83.9118 99.6351 173.389 170.911 -115.824 178.247 -11.5043 -115.436 191.062 -11.027 -112.089 174.392 -28.3294 -102.238 180.107 -103.791 -130.585 195.925 -100.436 -129.955 235.336 -29.7394 6.71001 65.1629 28.0184 
150.174 143.546 126.851 176.233 174.75 143.657 83.6853 97.8452 173.129 170.727 -115.987 178.785 -11.773 -115.583 191.395 -11.7582 -112.854 175.883 -27.2631 -102.369 181.276 -103.865 -130.341 197.556 -100.725 -129.509 236.242 -29.555 6.8493 66.5914 26.485 
150.174 143.385 128.807 175.878 174.946 143.904 83.8494 96.9961 172.679 170.642 -116.299 179.532 -11.6713 -115.254 191.893 -11.9011 -113.458 177.013 -26.5616 -102.128 182.279 -103.623 -129.864 198.901 -100.468 -128.917 237.2 -29.288 6.92625 67.4799 25.1126 
150.008 143.161 133.715 175.218 175.908 144.063 83.8675 95.6103 172.038 171.354 -115.998 179.846 -11.5067 -113.802 192.124 -12.1619 -115.043 178.651 -23.9916 -100.889 183.693 -103.97 -128.616 201.116 -100.326 -127.147 238.057 -28.8389 7.16719 71.5385 21.132 
149.889 143.05 133.306 175.001 176.523 144.192 83.6851 95.3381 171.849 172.064 -116.293 180.092 -12.0345 -113.686 192.548 -12.9937 -115.506 179.676 -24.512 -100.908 186.085 -105.163 -128.958 203.802 -100.555 -126.679 238.962 -28.4673 7.10519 72.4985 20.5743 
150.009 142.971 131.35 174.466 176.917 144.437 83.4405 95.1084 171.384 172.713 -116.508 180.333 -12.4275 -113.584 192.915 -13.6469 -115.817 180.428 -25.5007 -100.763 187.859 -105.898 -129.02 206.068 -100.731 -126.136 239.79 -28.0136 7.22137 72.406 20.3573 
149.928 142.804 127.805 174.048 176.954 144.835 83.2705 95.5988 170.745 173.041 -116.916 181.007 -12.6612 -113.87 193.321 -14.2022 -115.593 180.87 -26.9493 -101.025 189.121 -106.038 -129.038 208.323 -100.884 -125.62 240.842 -27.5823 7.61484 70.7245 21.1935 
149.635 142.727 130.174 173.651 176.651 144.734 83.2141 95.6009 170.02 173.04 -117.25 181.757 -12.9768 -114.04 193.844 -14.6698 -115.904 181.596 -27.0408 -100.586 190.209 -106.071 -128.326 210.436 -101.419 -124.904 241.786 -27.4687 8.26118 70.7738 20.9937 
149.277 142.79 129.74 173.184 176.28 144.748 82.8123 94.3442 169.28 173.054 -117.299 181.589 -13.3582 -114.161 193.657 -15.3078 -116.322 182.361 -27.2869 -100.154 191.307 -106.429 -127.726 212.474 -102.13 -123.875 241.957 -27.0859 8.92431 71.4472 20.6375 
149.078 142.544 126.556 172.632 175.953 144.97 82.5001 94.6495 168.728 173.068 -117.001 181.451 -14.2912 -113.942 193.35 -16.2606 -115.477 182.237 -28.5404 -99.8467 192.384 -106.992 -127.168 214.195 -102.678 -122.903 242.027 -26.8266 9.28592 70.5844 21.4349 
149.041 142.939 125.795 172.12 175.77 145.28 82.5701 96.2745 168.108 173.001 -116.66 181.596 -14.9559 -113.904 193.337 -16.998 -114.115 181.496 -30.1674 -99.6193 193.479 -107.37 -126.872 216.088 -103.203 -122.061 242.424 -26.5354 9.87994 68.6314 23.1552 
148.869 143.361 127.235 171.641 175.567 145.397 82.707 97.7348 167.536 172.782 -115.947 181.731 -15.2827 -113.486 193.408 -17.3297 -113.071 180.754 -31.3458 -98.9884 194.17 -107.454 -126.109 217.237 -103.475 -121.111 242.689 -26.3129 10.2675 67.2295 24.1439 
148.907 143.541 129.725 171.238 175.506 145.562 82.8294 97.5978 167.147 172.508 -114.996 181.884 -15.6365 -112.895 193.791 -17.4485 -112.73 181.139 -31.3907 -98.3939 194.875 -107.349 -125.285 218.185 -103.619 -120.169 243.053 -26.1461 10.5362 67.2811 23.9258 
149.083 143.826 133.267 170.512 175.439 146.025 83.0962 99.5601 166.651 172.135 -114.009 181.527 -16.799 -112.33 193.551 -17.864 -111.201 179.743 -33.3229 -98.0113 195.225 -107.446 -124.638 218.799 -103.896 -119.12 242.851 -26.1479 10.7927 65.1037 25.561 
149.257 144.192 135.455 169.763 175.265 146.216 83.1946 100.026 166.196 171.819 -113.262 181.229 -17.6767 -112.049 193.391 -18.0798 -110.151 179.049 -34.9586 -97.425 195.387 -107.412 -123.82 219.335 -104.074 -118.165 242.645 -26.1207 11.0197 63.4323 26.9883 
149.574 144.062 138.592 168.809 174.858 146.26 83.9058 101.013 165.778 171.39 -112.566 181.503 -18.0135 -111.706 193.454 -17.7783 -109.005 178.396 -36.3662 -96.9944 195.299 -107.112 -123.207 219.688 -103.952 -117.43 242.838 -26.0712 11.3442 61.5096 28.4427 
149.822 143.956 140.847 167.719 174.622 146.22 84.204 99.9021 165.169 171.086 -111.85 181.79 -18.0384 -111.14 193.658 -17.489 -109.35 178.959 -35.424 -96.483 195.126 -106.629 -122.606 219.728 -103.659 -116.773 243.018 -25.9895 11.5907 62.4091 27.3528 
150.137 143.683 139.724 166.201 174.413 146.715 84.5815 101.322 164.616 170.78 -111.707 182.503 -18.1867 -111.058 194.161 -17.6557 -108.269 179.049 -36.6349 -96.6837 195.637 -106.248 -122.696 220.62 -103.475 -116.471 243.86 -25.8679 11.8894 60.4028 28.58 
150.255 143.484 140.218 164.969 174.305 147.164 84.8563 104.373 163.978 170.63 -111.449 183.326 -18.419 -110.941 194.74 -18.0587 -107.138 178.48 -38.8452 -96.7477 196.451 -106.101 -122.806 221.655 -103.636 -116.254 244.82 -25.8711 12.1537 57.7076 30.1306 
150.984 143.487 176.425 165.043 173.466 148.363 85.2638 109.834 164.183 169.936 -110.868 183.817 -18.7001 -111.449 195.32 -18.5244 -107.999 176.234 -44.8665 -96.2908 198.982 -106.956 -122.793 224.215 -103.907 -115.829 246.06 -25.7576 11.8042 53.7571 32.4625 
151.231 143.237 167.3 165.289 173.238 148.346 84.6549 106.095 165.564 170.051 -110.972 184.232 -18.8969 -112.151 196.036 -18.6449 -110.704 179.021 -46.3876 -95.9899 201.476 -107.963 -122.749 226.301 -104.093 -115.861 246.797 -25.7161 11.101 54.8609 31.7313 
151.596 143.254 143.298 167.494 172.491 148.99 84.3122 100.514 167.27 170.231 -110.822 184.259 -18.5861 -112.373 196.24 -18.634 -112.288 182.622 -45.4 -95.3699 203.393 -108.848 -122.268 227.712 -104.185 -115.528 247.234 -25.4796 10.3414 57.5757 29.722 
152.03 143.462 123.396 169.047 171.945 149.648 84.3937 92.9023 167.907 169.88 -110.52 184.133 -18.3187 -112.064 196.083 -18.369 -112.235 187.15 -43.5218 -94.8537 204.22 -109.054 -121.682 228.047 -103.927 -114.991 247.396 -25.1696 9.67993 59.9589 27.6344 
152.412 143.355 120.442 170.166 171.376 150.03 84.2601 89.683 168.44 169.552 -110.345 184.401 -17.9969 -111.664 196.294 -18.0305 -111.892 189.104 -43.2525 -94.2501 204.997 -109.009 -120.762 228.46 -103.664 -114.467 247.826 -24.9114 9.09964 60.3737 27.132 
152.794 143.868 119.125 171.11 171.314 150.473 84.3288 90.528 169.102 169.373 -110.367 184.708 -17.9193 -111.485 196.546 -17.9133 -110.851 189.131 -44.3741 -93.312 205.917 -109.363 -119.913 229.154 -103.723 -113.858 248.343 -24.7128 8.65354 59.2064 28.4693 
152.944 143.909 119.009 171.717 171.492 150.648 83.9796 90.8682 169.569 169.411 -110.3 184.755 -17.865 -111.042 196.556 -18.0797 -110.356 189.126 -45.2854 -92.1804 206.517 -109.929 -118.933 229.669 -104.168 -113.064 248.549 -24.6194 8.35811 58.7177 28.8254 
153.118 144.887 117.644 172.408 171.575 151.343 84.5719 96.3315 169.928 169.33 -110.17 184.776 -17.6312 -111.226 196.436 -18.3674 -108.076 186.875 -48.6983 -91.5231 207.157 -110.208 -118.261 230.54 -104.537 -112.406 248.925 -24.4577 8.37689 54.6957 32.6341 
153.33 146.368 113.03 172.778 171.693 152.19 84.412 98.3998 169.877 169.217 -109.915 184.567 -17.4839 -111.223 196.469 -18.7983 -105.975 186.835 -52.2964 -90.8691 207.627 -110.406 -117.627 231.453 -104.971 -111.621 249.145 -24.2757 8.61308 50.7161 36.0307 
153.818 146.917 121.435 172.761 171.71 153.038 84.2836 118.839 169.437 168.808 -109.401 184.632 -17.3851 -110.947 196.877 -19.2577 -100.127 178.67 -60.7928 -90.2094 208.014 -110.425 -117.024 232.276 -105.282 -110.862 249.659 -24.1953 8.8642 42.5987 43.7839 
153.899 147.038 119.53 172.786 171.787 153.447 84.4814 121.533 169.21 168.711 -108.551 184.663 -17.2046 -110.177 197.045 -19.5494 -97.1831 178.884 -63.8645 -88.7708 208.58 -110.728 -115.853 233.079 -105.817 -109.878 250.054 -24.1681 9.12158 39.8616 46.1804 
154.02 147.623 110.561 172.972 172.008 153.714 84.486 127.518 169.282 168.754 -107.581 184.704 -17.3258 -109.523 197.377 -19.8051 -92.4089 180.568 -68.5679 -87.2468 209.349 -111.054 -114.465 234.047 -106.228 -108.792 250.364 -24.0778 9.26373 35.0612 51.1046 
154.564 147.204 122.534 172.87 172.103 154.668 84.2125 152.983 168.984 168.51 -106.577 184.584 -17.5228 -108.911 197.773 -20.5466 -81.5418 181.951 -83.4676 -86.3288 209.869 -110.977 -113.646 234.985 -106.327 -107.853 250.708 -23.9451 9.57839 21.8846 63.2425 
155.142 147.198 157.158 172.864 172.301 155.48 84.398 162.069 168.825 168.463 -105.404 184.642 -17.5198 -108.372 198.199 -21.0299 -75.4857 182.057 -89.7211 -85.2639 210.281 -110.898 -112.895 235.795 -106.39 -106.943 251.184 -23.7964 9.93035 17.212 67.64 
154.477 147.77 174.433 172.49 172.207 155.789 84.739 166.237 167.645 167.288 -103.427 184.643 -17.3023 -107.693 198.618 -21.0196 -71.4872 182.046 -91.143 -83.2877 209.511 -109.415 -110.493 235.204 -105.877 -105.629 251.051 -23.5463 10.1773 15.0591 69.8262 
153.969 148.291 178.862 172.253 171.802 156.052 84.9713 167.897 166.659 166.096 -101.688 184.632 -17.0227 -106.862 198.783 -21.2118 -69.5312 181.225 -90.6 -81.7729 208.905 -108.159 -108.328 234.668 -105.266 -104.39 250.952 -23.1721 10.1767 14.7211 69.6268 
154.193 147.875 178.871 172.136 171.661 155.773 84.6183 169.389 166.032 166.212 -100.618 185.453 -16.976 -105.562 199.722 -21.0821 -67.7986 181.401 -89.4741 -80.1766 209.149 -107.426 -107.068 235.523 -104.864 -103.408 251.705 -22.8181 10.7206 14.8301 69.2205 
154.005 147.913 176.631 171.695 171.576 154.616 84.2504 169.396 165.209 166.46 -99.6113 186.849 -17.301 -104.035 201.166 -20.8155 -67.8878 181.066 -86.9172 -77.9975 209.758 -106.934 -104.981 236.568 -104.809 -102.246 252.713 -22.8279 11.1865 16.7488 67.4119 
153.208 147.333 175.296 171.336 171.868 153.468 84.323 172.406 164.907 167.069 -98.4831 188.286 -17.75 -102.316 201.803 -20.3784 -66.0685 181.713 -85.9833 -76.2251 209.799 -106.646 -103.366 236.844 -104.753 -101.102 253.427 -22.8876 11.4532 16.7904 67.3127 
152.197 146.75 173.982 171.265 172.199 152.108 84.1242 176.016 164.932 167.694 -97.5037 189.945 -18.1279 -100.809 202.686 -20.022 -64.746 182.738 -85.1202 -74.5226 210.321 -106.621 -101.674 237.559 -104.794 -100.124 254.33 -22.8931 11.574 17.0456 67.1603 
151.15 146.147 180 171.254 172.548 150.545 83.7427 179.991 165.233 168.363 -96.464 191.661 -18.1569 -99.076 203.697 -19.65 -64.1854 183.444 -84.009 -72.484 211.378 -106.783 -99.6768 238.354 -104.831 -99.1076 255.311 -22.9789 11.4074 18.266 66.2898 
150.277 144.132 180 171.123 173.037 148.727 83.3731 179.997 165.773 168.971 -95.0768 193.618 -18.2721 -96.5597 204.521 -19.2242 -65.9025 177.648 -81.5404 -70.233 212.066 -106.631 -97.1352 238.298 -104.495 -97.9716 256.187 -23.0662 10.771 23.1446 61.0181 
149.448 141.652 180 171.096 173.714 146.629 83.4907 179.993 166.659 169.802 -92.8862 195.069 -18.2099 -93.346 204.46 -18.5432 -68.33 169.177 -76.3729 -67.498 212.287 -106.879 -94.5465 236.921 -104 -96.5912 256.312 -23.3421 9.57059 30.3301 54.1821 
148.89 139.354 180 171.385 174.732 145.211 84.5147 179.989 167.696 171.008 -90.7002 196.405 -18.535 -90.2304 203.706 -18.256 -70.1297 161.712 -71.3718 -65.172 212.439 -107.043 -91.9295 236.087 -103.718 -95.1613 256.309 -23.5683 8.84186 36.1117 47.8951 
148.403 137.428 180 171.313 175.804 143.941 84.962 179.986 168.655 172.168 -88.9127 197.72 -18.5142 -86.7873 203.266 -17.5076 -71.9317 156.428 -63.6364 -62.4067 212.259 -107.056 -89.4626 234.533 -102.791 -93.7005 256.291 -23.6194 7.70259 42.2976 41.6185 
147.575 134.284 180 171.512 176.947 141.759 85.4068 179.995 170.2 173.144 -85.6221 199.923 -18.5266 -80.9815 203.519 -16.4301 -72.2335 161.162 -49.459 -57.4738 211.714 -106.307 -84.63 232.162 -101.218 -90.6469 256.872 -23.7803 6.29457 50.3268 33.3963 
147.399 132.885 180 171.758 176.89 141.2 85.6499 179.996 171.342 173.23 -84.4121 199.726 -18.2189 -78.5249 202.731 -16.4139 -71.0948 171.185 -44.5664 -55.5047 210.42 -105.93 -82.0493 230.129 -100.895 -88.9292 256.506 -24.1391 5.83907 52.6714 30.8563 
147.92 131.304 179.999 171.683 176.287 141.522 86.8283 179.997 171.235 173.657 -82.6104 199.535 -18.157 -75.9329 201.566 -16.0911 -69.9072 177.907 -43.6112 -54.184 208.552 -104.604 -80.5603 228.039 -99.9628 -87.248 255.918 -23.9155 5.96605 52.2276 29.3223 
148.169 129.926 90.0457 171.446 176.081 141.299 87.253 153.333 171.866 174.22 -81.4188 199.276 -17.9485 -73.9237 200.918 -15.6487 -74.921 185.194 -32.8416 -52.5778 207.016 -103.504 -78.9923 226.22 -99.1298 -85.7926 255.223 -23.7443 5.84722 62.229 19.7661 
148.432 129.631 90.0456 171.342 177.405 141.439 87.328 108.923 172.835 174.726 -80.5712 198.745 -18.0324 -72.8672 200.436 -15.9398 -77.472 194.768 -27.2701 -51.9407 207.18 -103.195 -77.8479 226.373 -99.0743 -84.6327 254.783 -23.412 6.01014 70.1598 14.0166 
148.753 130.317 110.877 171.466 176.726 141.724 87.385 93.8629 173.692 175.493 -79.9447 198.338 -17.4318 -72.0105 200.292 -15.6452 -80.1457 198.47 -22.5998 -51.3956 207.061 -102.614 -77.1675 226.565 -99.316 -83.496 254.616 -22.9782 6.57148 76.9844 11.1144 
148.763 131.243 125.239 171.81 174.104 141.699 87.3182 88.4415 173.761 175.804 -79.0011 197.992 -16.9442 -70.8221 200.386 -14.9846 -81.431 201.154 -18.6003 -50.083 206.639 -101.388 -74.8798 226.556 -99.0987 -82.0198 254.454 -22.8374 7.32043 82.3842 11.7495 
148.581 133.134 132.673 172.218 173.302 141.488 86.0698 86.6325 173.835 176.354 -77.7773 197.429 -16.6527 -69.9128 201.251 -14.0496 -81.8638 202.971 -16.055 -48.4447 206.618 -100.52 -72.5631 227.063 -99.3727 -80.5575 254.236 -22.8775 8.30632 86.221 12.7111 
149.016 134.208 135.825 172.702 172.489 141.819 86.2736 84.4183 173.321 176.208 -76.7771 197.1 -16.2964 -69.0054 201.493 -13.6172 -80.8781 204.633 -14.8014 -47.7214 206.567 -99.5197 -71.3993 227.15 -98.9927 -79.3782 254.32 -22.6406 8.78331 87.5666 13.9245 
148.922 134.494 140.223 173.08 171.279 141.663 86.2781 82.1938 172.924 175.857 -75.9768 196.51 -15.6485 -68.4736 201.526 -12.4772 -80.5117 206.119 -13.3258 -46.7734 205.06 -97.9539 -69.5244 226.069 -98.4729 -77.927 253.811 -22.5314 9.43121 89.2314 14.7101 
148.282 134.512 140.976 173.491 170.516 141.34 85.8057 80.9872 173.842 175.754 -75.1998 196.044 -15.2469 -67.7219 201.56 -11.7191 -79.1887 206.471 -12.8931 -45.6468 204.492 -97.3917 -67.839 225.461 -98.4983 -76.4527 253.275 -22.5155 9.58729 89.9158 14.7843 
148.556 135.167 138.094 174.231 169.77 141.629 86.506 82.3779 173.317 174.985 -73.7923 195.785 -15.0042 -66.7446 201.369 -11.3028 -76.4515 204.277 -14.2328 -44.5715 203.411 -96.3308 -66.3325 224.441 -97.8944 -75.0768 253.11 -22.5068 9.77827 85.909 13.4299 
148.587 134.893 141.279 174.96 170.072 142.14 86.6308 80.2566 173.3 174.931 -73.1952 195.188 -15.0261 -66.582 200.94 -11.5533 -75.7927 205.232 -14.029 -44.1129 203.017 -95.8284 -65.1671 224.466 -97.8841 -73.8795 252.789 -22.3815 10.0916 86.5045 14.4426 
148.136 134.954 143.587 175.57 171.256 142.337 86.4804 79.1784 173.758 174.183 -72.3332 194.618 -14.7721 -66.2322 200.839 -11.4123 -75.1389 205.512 -14.1708 -43.2297 202.115 -95.4602 -63.9892 223.985 -97.6286 -72.5243 252.422 -22.3745 10.1395 86.4356 14.469 
148.126 134.639 144.845 176.715 172.035 142.461 86.5121 79.4368 174.379 173.73 -71.2886 195.084 -15.0396 -65.2246 201.368 -11.3889 -74.0342 205.457 -14.564 -42.41 201.71 -95.3815 -63.1319 224.016 -97.1029 -71.2669 252.801 -22.3306 10.1066 85.19 14.0324 
148.455 134.115 144.607 177.712 173.421 142.811 86.7021 78.8563 174.435 172.513 -69.9225 195.091 -15.0006 -64.711 201.519 -11.5777 -72.7146 205.283 -15.6791 -41.6865 200.753 -94.9576 -62.2852 223.419 -96.488 -70.0914 252.953 -22.3993 9.91289 83.0544 13.7009 
148.342 134.367 147.669 178.215 174.427 143.148 87.3751 80.2991 173.898 170.831 -67.6748 194.718 -14.5037 -63.0282 201.091 -11.2481 -70.5218 203.654 -15.6698 -39.7645 199.065 -93.9206 -59.9717 221.94 -95.5436 -67.4137 252.64 -22.306 9.7084 81.0425 13.6509 
148.572 134.792 146.432 176.085 173.805 143.593 87.5885 80.1342 172.131 169.234 -66.534 194.258 -14.0056 -62.4972 200.957 -11.7697 -69.4256 203.496 -16.5426 -38.7751 199.647 -94.5357 -59.6229 222.186 -95.7346 -66.4592 252.81 -22.2935 8.94466 80.4577 13.765 
148.649 134.921 145.801 175.462 173.459 144.161 87.6721 79.138 171.134 168.086 -65.4052 193.912 -13.5348 -61.9003 200.933 -12.0702 -68.1232 203.647 -17.5465 -37.6311 199.832 -94.4303 -58.9944 222.206 -95.5979 -65.3447 252.942 -22.1888 8.41064 79.4101 13.7771 
148.592 135.427 146.858 174.945 173.211 144.571 88.0764 79.6132 170.293 167.275 -64.156 193.717 -13.1526 -60.9678 200.723 -12.0117 -66.7578 202.941 -17.8101 -36.2192 199.468 -94.1197 -57.952 221.812 -95.4089 -64.1048 252.917 -22.2318 8.1706 78.4967 13.8742 
148.534 135.963 147.724 174.581 173.241 144.619 88.4902 79.7133 169.747 166.706 -62.8815 193.448 -13.1184 -59.6194 200.384 -11.9045 -65.4777 202.544 -18.0872 -34.4821 199.094 -93.9568 -56.6087 221.159 -95.1643 -62.6825 252.675 -22.4192 7.82004 78.34 13.4916 
148.669 136.363 148.361 174.511 173.137 144.467 89.2297 80.2308 169.592 166.549 -61.1382 193.492 -13.3353 -58.3401 200.339 -12.0328 -64.4692 202.607 -18.325 -32.6195 199.617 -94.3518 -55.0828 221.273 -95.4645 -61.3078 252.796 -22.7793 7.54338 78.9606 13.077 
148.795 136.529 149.531 174.03 173.217 144.51 89.6678 80.3223 169.51 166.62 -59.8606 193.235 -13.4856 -57.4371 200.01 -12.0551 -63.3966 202.525 -17.9475 -30.782 199.248 -94.6571 -53.4713 220.866 -95.5052 -59.9875 252.553 -22.9703 7.19598 79.6975 13.4259 
148.951 137.038 150.241 173.181 173.308 144.562 90.1439 81.3759 169.162 166.617 -58.7511 192.697 -13.4607 -56.3838 199.395 -11.9403 -61.8828 201.243 -18.0211 -29.0369 198.675 -94.943 -52.0479 220.25 -95.3584 -58.6393 252.108 -23.0649 6.8033 79.2485 13.6461 
148.858 136.332 150.537 173.242 173.663 144.263 89.9715 79.9061 169.961 167.234 -57.7941 192.665 -13.5664 -55.1937 199.403 -11.9523 -60.9115 202.835 -16.6341 -27.3759 199.217 -95.4766 -50.6184 220.355 -95.3505 -57.4585 252.002 -23.1217 6.32718 82.2302 14.4718 
148.775 135.843 149.853 173.09 174.419 144.075 89.5674 78.8671 170.516 168.074 -57.042 192.375 -13.4484 -54.1366 199.292 -11.6386 -60.4021 203.622 -16.1798 -25.8089 198.93 -95.8938 -49.3224 219.923 -95.2445 -56.2158 251.617 -23.1472 5.88821 84.126 14.2386 
148.763 135.662 149.427 172.921 174.513 144.032 89.5253 79.1209 170.849 168.548 -56.3256 191.977 -13.2473 -53.1843 198.877 -11.4796 -59.6218 203.021 -16.3662 -24.2686 198.512 -96.351 -48.1138 219.504 -95.3763 -55.017 251.22 -23.2136 5.58342 84.4618 13.7958 
148.957 136.017 149.555 172.899 174.795 143.74 89.8049 80.1758 171.083 168.778 -54.9805 192.001 -13.4677 -51.6615 198.961 -11.3062 -58.5384 202.755 -16.1488 -22.4536 199.06 -96.9931 -46.7734 219.618 -95.4054 -53.782 251.252 -23.3043 5.20118 85.2638 13.4538 
148.858 135.846 149.715 172.922 174.858 143.501 90.0567 80.6535 171.366 169.271 -53.5558 191.502 -13.5458 -50.2401 198.449 -11.4091 -57.3847 202.467 -15.8353 -20.5058 199.118 -97.7261 -45.0807 219.364 -95.8519 -52.3953 250.791 -23.5927 4.97559 86.5961 13.5877 
148.596 135.122 149.098 172.94 174.846 143.382 89.9179 80.5469 171.661 169.74 -52.8107 190.945 -13.1993 -49.3912 197.83 -11.1535 -56.3312 201.703 -16.0401 -19.0907 198.366 -97.8629 -43.5963 218.767 -95.9949 -51.1238 250.138 -23.641 4.88662 86.6098 13.3372 
148.677 135.35 148.952 172.862 175.473 143.403 90.191 81.0239 171.95 170.05 -51.6383 190.666 -13.0701 -48.071 197.659 -10.8701 -54.8404 200.997 -16.2876 -17.5348 198.807 -98.38 -42.4628 218.903 -95.9983 -49.942 249.953 -23.6687 4.57983 86.6326 12.9734 
148.605 135.595 148.637 173.216 175.798 143.144 89.6413 79.421 172.501 170.403 -50.4197 190.379 -13.1461 -46.8053 197.906 -10.7237 -53.7626 202.762 -15.2159 -15.7766 199.808 -99.1368 -40.9491 219.457 -96.3065 -48.7517 249.762 -23.7564 4.30833 89.9079 13.7178 
148.522 135.3 146.456 173.291 175.579 143.091 89.5556 79.0096 172.736 170.9 -47.9837 189.652 -12.5706 -44.5235 197.099 -10.7379 -51.4377 202.427 -15.3287 -12.8263 199.969 -99.7416 -38.1496 219.528 -96.7552 -46.385 249.127 -23.6997 4.2583 90.9511 13.7024 
148.64 135.607 145.979 173.874 176.084 143.316 89.5542 79.4308 172.781 171.141 -46.762 189.274 -12.265 -43.4763 196.996 -10.5072 -50.4835 201.854 -15.567 -11.8205 199.645 -99.6192 -37.1981 219.36 -96.6503 -45.4784 248.924 -23.6224 4.42172 90.3673 13.178 
148.561 135.92 144.989 174.074 176.205 143.537 89.411 79.4664 172.772 171.043 -45.7494 189.094 -11.8316 -42.5389 196.983 -10.4684 -49.1937 201.353 -16.0864 -10.7093 199.557 -99.5513 -36.1152 219.411 -96.5844 -44.4867 248.923 -23.5665 4.45141 89.4483 12.9509 
148.725 136.565 145.618 173.829 175.511 144.321 90.2198 79.7291 172.28 170.481 -44.7043 188.321 -11.3648 -41.6381 196.065 -10.5182 -45.7022 199.255 -16.7428 -9.55486 199.243 -99.2759 -35.1695 219.288 -96.6438 -43.4817 248.575 -23.4356 4.6725 86.3574 14.6024 
149.007 137.23 145.777 173.848 174.949 144.77 90.9513 80.7475 171.747 170.168 -43.5813 187.688 -11.117 -40.6672 195.285 -10.5323 -44.6673 197.713 -17.9819 -8.42319 198.373 -98.9171 -33.9684 218.772 -96.7568 -42.3016 248.217 -23.5081 4.99995 84.318 13.8392 
149.214 137.666 148.97 173.698 174.926 145.086 92.0843 82.8873 171.6 169.937 -42.4235 187.671 -10.9065 -39.7274 194.854 -10.5777 -42.9412 195.565 -19.205 -7.45661 198.432 -98.7966 -33.0172 218.841 -96.6689 -41.4069 248.376 -23.4469 5.05357 81.4723 14.1641 
