152.21 153.68 158.607 160.678 165.974 162.861 94.2932 157.765 157.069 159.51 136.66 191.474 49.6034 115.646 194.295 39.4523 175.365 171.221 -23.3539 150.029 163.603 -41.9838 111.665 162.802 -51.9976 97.4691 222.902 3.57886 15.1864 9.67517 87.504 
152.991 153.375 159.875 161.039 166.204 163.592 94.4099 158.338 157.327 160.07 136.486 193.579 52.8493 116.237 195.599 42.5112 174.352 172.643 -20.5392 148.706 164.55 -38.6978 110.188 163.272 -48.3294 95.9783 224.081 6.66859 15.2657 9.71252 85.7992 
153.401 153.203 159.565 162.061 166.82 162.405 94.5685 159.3 157.514 160.423 135.824 195.611 56.1607 116.692 196.292 46.3545 172.495 173.489 -17.9625 146.049 164.748 -35.2961 107.948 163.53 -44.0879 94.1236 225.138 10.4488 14.7962 9.76818 83.966 
154.738 153.269 160.43 163.376 167.119 161.986 92.7896 160.83 157.602 160.929 135.666 198.44 60.5694 116.651 197.902 50.3074 169.956 173.756 -14.4086 142.757 163.755 -30.6006 105.402 162.711 -38.6704 91.9698 225.98 14.7353 14.2591 9.86408 82.4631 
154.74 149.881 160.843 163.968 167.323 162.02 91.9596 162.254 157.863 161.37 134.98 200.693 65.0054 117.504 198.293 53.1194 168.121 175.149 -10.1771 139.998 163.825 -25.8051 103.042 162.682 -32.9776 89.9091 227.248 19.4345 13.7988 10.4287 78.9098 
156.128 150.568 161.071 164.554 167.34 162.264 94.032 164.944 158.223 161.775 133.178 201.818 69.7054 118.239 197.692 57.0007 166.092 176.545 -6.68833 136.653 163.175 -20.3358 100.029 162.004 -26.5395 87.4504 228.217 24.4403 13.3684 10.7419 76.0291 
158.145 149.218 161.596 165.205 167.824 163.542 93.5866 167.797 159.216 162.841 131.084 202.866 75.113 118.445 198.559 61.1596 163.408 177.573 -2.77314 132.878 162.072 -13.9633 96.3187 160.37 -19.0586 84.1236 228.611 30.0994 13.1806 11.135 74.0013 
160.257 154.09 164.638 166.434 168.801 164.733 96.3448 168.277 161.781 164.598 127.914 204.854 82.1043 117.971 199.608 67.3779 160.425 179.616 2.00174 129.053 162.572 -7.55185 92.5806 159.564 -10.1442 79.4839 229.667 36.7704 12.2027 11.6011 71.8753 
161.034 156.766 165.501 166.256 168.912 165.196 97.3272 168.077 162.698 165.691 124.971 207.708 89.0169 118.913 200.928 72.683 158.115 181.925 8.37284 127.601 163.328 0.423066 91.1154 159.171 -1.33708 75.9127 230.572 43.7465 12.0923 11.2737 68.0286 
161.938 158.356 165.875 166.546 169.078 165.033 97.3623 167.668 163.275 166.708 120.235 210.174 96.9062 119.645 202.867 77.9516 154.705 184.357 16.205 125.463 164.957 9.36033 89.002 160.34 7.5784 71.9287 232.505 51.3685 12.016 10.623 62.6287 
163.093 157.092 165.294 166.354 168.957 164.87 97.7718 167.942 164.379 167.457 115.406 212.651 104.35 120.708 205.787 82.9419 151.461 187.055 24.6626 124.047 167.419 18.7221 87.3714 161.954 16.6708 68.0129 234.551 59.1908 12.1992 9.49468 56.3662 
164.78 153.71 162.111 160.516 167.964 164.419 101.112 165.423 162.038 166.5 110.004 214.459 112.793 121.765 207.635 87.6037 147.666 190.536 35.6883 120.924 170.385 31.9955 85.2275 163.495 28.0951 63.9139 236.793 67.5544 12.6347 9.01212 47.9458 
164.663 146.643 159.892 158.988 165.205 164.899 108.284 162.783 161.139 162.573 103.995 215.443 119.692 120.74 209.816 94.4231 144.03 192.775 47.9234 117.071 171.444 45.5595 83.5744 164.412 41.5915 59.1614 238.194 75.0887 10.7974 9.63723 41.9195 
164.877 153.062 161.785 159.606 163.814 164.534 114.878 162.597 158.209 158.67 95.5991 212.274 125.407 111.221 208.106 108.447 138.705 191.662 58.7048 112.07 171.667 60.4789 76.7384 163.798 54.6845 53.2163 238.652 82.9844 12.4631 9.08395 46.8943 
163.22 155.658 162.455 160.219 164.94 162.032 117.498 159.349 157.212 158.523 85.5262 208.601 131.176 99.9936 207.802 120.68 131.38 189.45 72.2179 105.82 169.053 73.274 71.3163 161.011 65.8028 45.3727 235.82 90.0518 12.5615 8.57669 49.3176 
159.592 155.912 162.448 164.057 165.9 161.137 122.831 159.256 159.294 158.82 74.7089 206.583 137.47 88.6247 207.543 132.133 121.924 185.365 83.3817 97.3606 165.787 83.2796 63.0641 157.922 75.4905 35.8276 232.648 96.9142 12.3984 7.35293 51.1194 
160.576 155.738 163.977 165.077 168.114 162.149 122.467 156.967 158.331 160.245 67.009 204.782 146.84 78.2204 207.453 143.382 112.822 180.685 97.2744 89.8003 161.479 94.2141 56.3472 153.935 86.1154 27.0315 227.936 103.896 11.5448 6.41932 50.9696 
159.012 151.972 162.356 166.139 168.105 162.564 123.098 155.576 159.115 158.089 59.0175 204.106 155.864 65.8556 206.457 155.917 104.197 178.602 112.955 84.6927 158.544 106.84 52.7068 150.734 101.616 18.4976 222.297 110.68 7.60353 6.20493 51.7126 
158.534 147.847 163.143 166.408 169.495 164.508 118.678 155.287 159.35 158.124 50.4492 205.706 167.315 51.5037 208.084 167.45 94.2114 177.368 129.431 78.2744 158.769 119.71 47.4018 149.726 115.43 9.06697 219.108 119.144 6.04864 6.65789 52.5015 
158.743 143.568 163.538 169.142 169.903 163.506 118.213 157.34 158.508 158.657 40.3321 207.253 179.362 39.9634 208.524 178.27 81.6512 174.879 143.68 68.3028 158.905 133.205 39.251 149.565 127.555 -0.690059 218.829 128.407 5.86301 6.4082 50.3974 
158.497 142.148 167.074 169.1 169.393 163.516 114.298 161.58 159.426 159.563 28.1072 208.008 190.689 26.8957 207.801 187.731 69.1438 173.556 156.984 57.0404 156.809 144.836 28.7503 147.96 138.858 -11.6222 218.229 137.184 5.07831 7.29766 49.0688 
158.81 143.249 176.959 167.444 169.62 162.798 111.111 165.284 159.36 160.981 14.8671 205.387 200.758 14.3808 205.21 197.017 58.2827 171.627 169.052 44.066 152.932 155.9 15.621 144.192 148.043 -23.3554 215.648 145.715 5.60285 7.43733 48.1603 
159.925 143.385 170.024 168.263 172.049 162.903 111.463 163.114 161.95 162.963 0.593813 201.308 211.168 2.40521 201.064 206.498 43.6617 165.173 180.595 29.5835 147.825 162.673 0.492132 141.118 155.39 -36.4147 213.513 154.231 4.18398 9.47505 44.5461 
162.016 144.481 167.101 167.704 171.17 163.02 111.729 162.698 159.827 163.021 -10.8597 194.108 219.029 -9.46635 193.356 212.733 30.4171 156.597 189.477 15.5423 142.163 171.484 -13.2286 137.142 160.274 -48.0481 209.301 161.662 5.60898 8.44958 42.1135 
172.222 137.636 167.774 170.564 173.791 155.611 109.502 164.187 164.431 166.961 -28.0732 184.322 222.779 -25.6556 187.254 215.526 17.3721 151.097 197.554 3.72688 136.492 177.687 -24.471 131.096 168.948 -61.7606 204.292 167.536 4.27366 9.85604 42.3273 
176.27 138.307 167.392 173.982 177.52 151.094 103.156 162.836 168.602 168.56 -43.8988 177.08 227.485 -39.3035 180.609 217.506 2.13752 145.61 204.852 -9.55158 130.222 184.35 -37.061 127.347 177.456 -75.4091 198.292 172.767 1.91433 10.9701 40.0326 
178.613 144.236 172.735 175.809 178.847 145.105 118.468 167.094 171.766 164.832 -61.3811 169.961 236.014 -58.3068 169.093 227.782 -12.2628 133.603 214.375 -23.4334 121.325 193.534 -51.607 121.666 190.885 -89.0094 190.643 179.995 2.51689 10.9852 43.9197 
175.553 142.366 173.506 177.246 178.915 146.322 125.78 171.689 176.557 163.342 -76.1944 161.01 245.917 -78.5865 156.789 237.59 -25.5349 119.311 223.321 -34.8077 109.383 198.192 -66.1146 109.77 197.931 -100.4 180.484 187.609 4.90754 13.4734 51.1819 
173.838 145.531 177.012 176.527 174.902 154.368 125.338 168.771 178.254 160.226 -88.4491 154.421 252.674 -94.3434 147.612 244.858 -46.8532 104.749 230.899 -51.7045 94.1453 203.307 -85.7925 96.0221 201.306 -111.853 169.577 191.601 6.98213 15.9127 51.2683 
170.338 140.906 179.317 175.868 177.654 160.656 117.904 170.637 179.54 163.914 -108.697 146.435 260.216 -114.875 136.481 251.948 -69.6302 89.0293 239.38 -75.0637 80.6812 216.571 -109.932 86.0241 209.202 -129.038 158.263 198.728 6.7258 12.3743 52.5459 
105.189 174.27 180 173.161 176.065 161.543 177.982 166.181 174.56 145.308 -131.714 131.309 269.887 -102.692 88.5308 261.198 -86.311 73.0578 249.296 -98.4886 65.7871 231.215 -133.589 77.5338 221.622 -143.775 142.393 209.559 11.3125 5.58379 19.7799 
132.882 152.978 180 174.27 90.0456 158.675 170.548 167.764 179.469 122.606 -148.756 120.781 279.973 -124.068 75.4043 280.103 -108.707 60.8261 266.09 -121.573 54.6149 251.208 -159.714 74.1295 235.203 -157.861 128.763 219.32 20.5282 1.6094 18.4216 
121.456 146.963 180 176.301 90.0456 155.679 167.324 116.129 92.4583 119.28 -178.408 111.079 285.986 -152.345 71.6786 300.178 -163.945 60.9334 286.086 -184.499 80.723 268.816 -180.314 64.3729 241.808 -173.35 117.241 226.265 24.711 25.9465 5.36772 
115.006 161.58 180 175.549 90.0456 148.471 163.809 105.179 84.1839 120.154 -210.926 101.271 283.5 -168.653 64.4958 304.623 -195.982 58.1235 286.448 -222.862 84.2348 253.501 -203.903 57.5497 239.216 -190.645 110.662 229.684 41.386 41.4977 23.7092 
153.775 169.498 180 174.27 127.389 147.513 151.242 74.5785 95.4055 132.556 -233.548 92.3267 283.044 -183.039 60.2897 308.232 -217.196 64.379 275.252 -235.926 65.1582 257.15 -224.052 49.5602 234.543 -209.903 107.015 230.145 20.4306 19.0566 41.6025 
117.848 176.461 146.866 169.629 174.27 141.164 133.661 49.5568 59.2612 101.325 -249.654 79.3492 272.34 -224.216 39.3639 302.975 -239.953 67.9173 249.218 -242.885 65.5997 239.151 -241.171 55.497 227.22 -229.161 100.783 235.274 14.0485 18.3275 56.1264 
99.7859 90 121.1 174.27 175.443 172.768 121.801 94.3469 179.411 98.0114 -247.464 118.677 191.684 -214.121 128.258 209.395 -178.27 91.4746 201.205 -173.782 78.2118 244.443 -191.526 92.1983 254.065 -254.247 88.4804 229.268 22.4352 26.4079 62.2821 
154.621 165.398 160.324 130.59 177.924 135.805 106.377 162.212 147.834 175.804 -272.272 29.4766 214.387 -233.638 17.4792 254.458 -206.191 10.3887 248.136 -210.326 5.34084 244.752 -184.159 7.31211 192.505 -271.535 75.0004 225.908 32.033 10.9279 19.1901 
163.477 174.156 180 130.458 174.27 158.694 177.933 180 149.33 178.074 -266.834 -12.7777 240.111 -193.6 14.6729 242.664 -179.663 24.7207 227.062 -222.707 1.85501 180.377 -245.08 24.0187 165.356 -289.312 49.4816 215.926 3.67003 39.189 0.848198 
0 0 0 0 0 0 0 0 0 0 0 0 0 0 0 0 0 0 0 0 0 0 0 0 0 0 0 0 0 0 0 
0 0 0 0 0 0 0 0 0 0 0 0 0 0 0 0 0 0 0 0 0 0 0 0 0 0 0 0 0 0 0 
0 0 0 0 0 0 0 0 0 0 0 0 0 0 0 0 0 0 0 0 0 0 0 0 0 0 0 0 0 0 0 
0 0 0 0 0 0 0 0 0 0 0 0 0 0 0 0 0 0 0 0 0 0 0 0 0 0 0 0 0 0 0 
0 0 0 0 0 0 0 0 0 0 0 0 0 0 0 0 0 0 0 0 0 0 0 0 0 0 0 0 0 0 0 
0 0 0 0 0 0 0 0 0 0 0 0 0 0 0 0 0 0 0 0 0 0 0 0 0 0 0 0 0 0 0 
0 0 0 0 0 0 0 0 0 0 0 0 0 0 0 0 0 0 0 0 0 0 0 0 0 0 0 0 0 0 0 
0 0 0 0 0 0 0 0 0 0 0 0 0 0 0 0 0 0 0 0 0 0 0 0 0 0 0 0 0 0 0 
0 0 0 0 0 0 0 0 0 0 0 0 0 0 0 0 0 0 0 0 0 0 0 0 0 0 0 0 0 0 0 
0 0 0 0 0 0 0 0 0 0 0 0 0 0 0 0 0 0 0 0 0 0 0 0 0 0 0 0 0 0 0 
0 0 0 0 0 0 0 0 0 0 0 0 0 0 0 0 0 0 0 0 0 0 0 0 0 0 0 0 0 0 0 
0 0 0 0 0 0 0 0 0 0 0 0 0 0 0 0 0 0 0 0 0 0 0 0 0 0 0 0 0 0 0 
0 0 0 0 0 0 0 0 0 0 0 0 0 0 0 0 0 0 0 0 0 0 0 0 0 0 0 0 0 0 0 
0 0 0 0 0 0 0 0 0 0 0 0 0 0 0 0 0 0 0 0 0 0 0 0 0 0 0 0 0 0 0 
0 0 0 0 0 0 0 0 0 0 0 0 0 0 0 0 0 0 0 0 0 0 0 0 0 0 0 0 0 0 0 
0 0 0 0 0 0 0 0 0 0 0 0 0 0 0 0 0 0 0 0 0 0 0 0 0 0 0 0 0 0 0 
0 0 0 0 0 0 0 0 0 0 0 0 0 0 0 0 0 0 0 0 0 0 0 0 0 0 0 0 0 0 0 
0 0 0 0 0 0 0 0 0 0 0 0 0 0 0 0 0 0 0 0 0 0 0 0 0 0 0 0 0 0 0 
0 0 0 0 0 0 0 0 0 0 0 0 0 0 0 0 0 0 0 0 0 0 0 0 0 0 0 0 0 0 0 
0 0 0 0 0 0 0 0 0 0 0 0 0 0 0 0 0 0 0 0 0 0 0 0 0 0 0 0 0 0 0 
0 0 0 0 0 0 0 0 0 0 0 0 0 0 0 0 0 0 0 0 0 0 0 0 0 0 0 0 0 0 0 
0 0 0 0 0 0 0 0 0 0 0 0 0 0 0 0 0 0 0 0 0 0 0 0 0 0 0 0 0 0 0 
0 0 0 0 0 0 0 0 0 0 0 0 0 0 0 0 0 0 0 0 0 0 0 0 0 0 0 0 0 0 0 
0 0 0 0 0 0 0 0 0 0 0 0 0 0 0 0 0 0 0 0 0 0 0 0 0 0 0 0 0 0 0 
0 0 0 0 0 0 0 0 0 0 0 0 0 0 0 0 0 0 0 0 0 0 0 0 0 0 0 0 0 0 0 
0 0 0 0 0 0 0 0 0 0 0 0 0 0 0 0 0 0 0 0 0 0 0 0 0 0 0 0 0 0 0 
0 0 0 0 0 0 0 0 0 0 0 0 0 0 0 0 0 0 0 0 0 0 0 0 0 0 0 0 0 0 0 
0 0 0 0 0 0 0 0 0 0 0 0 0 0 0 0 0 0 0 0 0 0 0 0 0 0 0 0 0 0 0 
0 0 0 0 0 0 0 0 0 0 0 0 0 0 0 0 0 0 0 0 0 0 0 0 0 0 0 0 0 0 0 
0 0 0 0 0 0 0 0 0 0 0 0 0 0 0 0 0 0 0 0 0 0 0 0 0 0 0 0 0 0 0 
0 0 0 0 0 0 0 0 0 0 0 0 0 0 0 0 0 0 0 0 0 0 0 0 0 0 0 0 0 0 0 
0 0 0 0 0 0 0 0 0 0 0 0 0 0 0 0 0 0 0 0 0 0 0 0 0 0 0 0 0 0 0 
0 0 0 0 0 0 0 0 0 0 0 0 0 0 0 0 0 0 0 0 0 0 0 0 0 0 0 0 0 0 0 
0 0 0 0 0 0 0 0 0 0 0 0 0 0 0 0 0 0 0 0 0 0 0 0 0 0 0 0 0 0 0 
0 0 0 0 0 0 0 0 0 0 0 0 0 0 0 0 0 0 0 0 0 0 0 0 0 0 0 0 0 0 0 
0 0 0 0 0 0 0 0 0 0 0 0 0 0 0 0 0 0 0 0 0 0 0 0 0 0 0 0 0 0 0 
0 0 0 0 0 0 0 0 0 0 0 0 0 0 0 0 0 0 0 0 0 0 0 0 0 0 0 0 0 0 0 
0 0 0 0 0 0 0 0 0 0 0 0 0 0 0 0 0 0 0 0 0 0 0 0 0 0 0 0 0 0 0 
0 0 0 0 0 0 0 0 0 0 0 0 0 0 0 0 0 0 0 0 0 0 0 0 0 0 0 0 0 0 0 
0 0 0 0 0 0 0 0 0 0 0 0 0 0 0 0 0 0 0 0 0 0 0 0 0 0 0 0 0 0 0 
0 0 0 0 0 0 0 0 0 0 0 0 0 0 0 0 0 0 0 0 0 0 0 0 0 0 0 0 0 0 0 
0 0 0 0 0 0 0 0 0 0 0 0 0 0 0 0 0 0 0 0 0 0 0 0 0 0 0 0 0 0 0 
0 0 0 0 0 0 0 0 0 0 0 0 0 0 0 0 0 0 0 0 0 0 0 0 0 0 0 0 0 0 0 
0 0 0 0 0 0 0 0 0 0 0 0 0 0 0 0 0 0 0 0 0 0 0 0 0 0 0 0 0 0 0 
0 0 0 0 0 0 0 0 0 0 0 0 0 0 0 0 0 0 0 0 0 0 0 0 0 0 0 0 0 0 0 
0 0 0 0 0 0 0 0 0 0 0 0 0 0 0 0 0 0 0 0 0 0 0 0 0 0 0 0 0 0 0 
0 0 0 0 0 0 0 0 0 0 0 0 0 0 0 0 0 0 0 0 0 0 0 0 0 0 0 0 0 0 0 
0 0 0 0 0 0 0 0 0 0 0 0 0 0 0 0 0 0 0 0 0 0 0 0 0 0 0 0 0 0 0 
0 0 0 0 0 0 0 0 0 0 0 0 0 0 0 0 0 0 0 0 0 0 0 0 0 0 0 0 0 0 0 
0 0 0 0 0 0 0 0 0 0 0 0 0 0 0 0 0 0 0 0 0 0 0 0 0 0 0 0 0 0 0 
0 0 0 0 0 0 0 0 0 0 0 0 0 0 0 0 0 0 0 0 0 0 0 0 0 0 0 0 0 0 0 
