148.953 147.985 168.42 165.107 167.88 156.189 117.268 158.42 158.624 161.375 -65.7028 114.773 -5.37448 -62.232 113.476 -3.90519 -26.3084 114.044 -75.8533 0.348673 112.214 -64.8338 20.6927 109.528 -34.7142 -22.5253 161.597 11.2543 9.0933 8.1988 67.2353 
148.677 148.001 168.549 165.171 167.921 156.291 117.349 158.508 158.653 161.5 -65.8887 114.63 -5.12046 -62.6479 113.552 -4.11143 -26.6211 113.807 -75.6952 0.00942302 111.981 -64.7443 20.4292 109.342 -34.7011 -22.649 161.527 11.3401 9.0929 8.22167 66.8698 
148.55 148.191 168.669 165.239 167.949 156.437 117.516 158.631 158.734 161.664 -66.1719 114.586 -4.96152 -63.1622 113.713 -4.35847 -26.9363 113.821 -75.6908 -0.320285 111.95 -64.791 20.1703 109.236 -34.7762 -22.7795 161.491 11.4329 9.12805 8.25321 66.6083 
148.604 148.433 168.843 165.368 168.033 156.607 117.762 158.836 158.89 161.887 -66.4781 114.603 -4.83276 -63.6517 113.866 -4.57975 -27.226 113.782 -75.6766 -0.615824 111.877 -64.8098 19.9372 109.14 -34.8131 -22.9128 161.524 11.512 9.15745 8.28468 66.3156 
148.776 148.853 169.006 165.499 168.114 156.85 118.102 159.067 159.068 162.126 -66.8597 114.708 -4.69024 -64.2167 114.068 -4.82111 -27.487 113.856 -75.7217 -0.865873 111.847 -64.825 19.7214 109.045 -34.805 -23.0506 161.627 11.6159 9.20247 8.31208 66.053 
149.047 149.342 169.199 165.663 168.234 157.064 118.535 159.329 159.271 162.406 -67.2379 114.893 -4.64717 -64.7597 114.25 -5.07202 -27.7273 113.97 -75.8304 -1.09159 111.834 -64.8943 19.5316 108.977 -34.8495 -23.1835 161.762 11.6832 9.2475 8.33297 65.8035 
149.394 149.934 169.411 165.856 168.367 157.292 119.028 159.626 159.507 162.741 -67.605 115.083 -4.55738 -65.299 114.385 -5.18538 -28.0129 114.039 -75.9497 -1.32517 111.752 -64.9685 19.3554 108.871 -34.9013 -23.3112 161.905 11.7496 9.29817 8.36152 65.6376 
149.75 150.52 169.613 166.088 168.529 157.506 119.508 159.901 159.746 163.07 -67.9052 115.244 -4.51365 -65.7967 114.494 -5.292 -28.3084 114.094 -76.0686 -1.57323 111.662 -65.0638 19.1814 108.758 -34.9682 -23.4321 162.02 11.7929 9.36073 8.39015 65.4758 
150.163 151.02 169.783 166.271 168.674 157.708 119.958 160.11 159.914 163.321 -68.1772 115.37 -4.44713 -66.1866 114.534 -5.38163 -28.57 114.109 -76.133 -1.78134 111.558 -65.0994 19.0568 108.675 -34.9899 -23.5342 162.151 11.8385 9.41701 8.40975 65.2721 
150.525 151.501 169.95 166.447 168.81 157.799 120.33 160.34 160.106 163.567 -68.3174 115.472 -4.30411 -66.5506 114.591 -5.34648 -28.8002 114.097 -76.1653 -1.9598 111.431 -65.0981 18.934 108.559 -34.9567 -23.6341 162.264 11.9007 9.46785 8.43223 65.1867 
151.013 151.885 170.081 166.587 168.927 157.833 120.612 160.52 160.244 163.752 -68.4864 115.582 -4.19072 -66.8712 114.651 -5.27103 -29.0176 114.116 -76.2049 -2.13821 111.34 -65.0927 18.7924 108.475 -34.9284 -23.7513 162.389 11.944 9.5017 8.4369 65.1659 
151.555 152.268 170.189 166.701 169.018 157.837 120.883 160.686 160.375 163.923 -68.6493 115.668 -4.08148 -67.1728 114.68 -5.14847 -29.1923 114.157 -76.2449 -2.27477 111.256 -65.0745 18.6832 108.356 -34.868 -23.8518 162.458 12.0162 9.5497 8.44659 65.2188 
152.148 152.54 170.282 166.811 169.124 157.82 121.08 160.791 160.441 164.038 -68.773 115.814 -3.94414 -67.4087 114.791 -4.98971 -29.3465 114.268 -76.1815 -2.41268 111.278 -64.9713 18.5801 108.377 -34.739 -23.9507 162.627 12.1262 9.58915 8.44365 65.2345 
152.659 152.764 170.351 166.911 169.208 157.792 121.275 160.872 160.494 164.149 -68.916 115.97 -3.80547 -67.6623 114.918 -4.78061 -29.6069 114.434 -76.1348 -2.62011 111.35 -64.9194 18.437 108.446 -34.678 -24.0612 162.794 12.2368 9.62921 8.46144 65.2809 
153.137 152.878 170.39 166.999 169.295 157.747 121.347 160.892 160.505 164.204 -69.0613 116.126 -3.64933 -67.8173 115.038 -4.52514 -29.787 114.619 -76.0323 -2.77064 111.473 -64.8183 18.3389 108.59 -34.5738 -24.1681 162.963 12.3861 9.65422 8.46215 65.3555 
153.641 152.857 170.413 167.072 169.389 157.695 121.385 160.906 160.505 164.227 -69.1123 116.216 -3.51908 -67.8263 115.084 -4.2582 -29.8756 114.727 -75.8422 -2.84519 111.577 -64.6392 18.2917 108.783 -34.4257 -24.2528 163.126 12.5323 9.64126 8.45279 65.3745 
154.195 152.874 170.439 167.122 169.464 157.653 121.459 160.908 160.477 164.252 -69.2273 116.368 -3.41657 -67.8967 115.163 -3.99146 -29.9853 114.936 -75.6803 -2.96044 111.704 -64.45 18.2011 108.934 -34.2597 -24.3504 163.275 12.7258 9.64365 8.4257 65.4269 
154.767 152.878 170.437 167.125 169.52 157.523 121.42 160.851 160.385 164.206 -69.2617 116.499 -3.26307 -67.915 115.282 -3.63476 -30.0495 115.046 -75.4023 -3.05011 111.725 -64.1154 18.115 109.022 -33.9636 -24.4426 163.431 12.9329 9.6345 8.38492 65.5095 
155.284 152.887 170.436 167.125 169.561 157.41 121.355 160.805 160.287 164.171 -69.3102 116.586 -3.03888 -67.98 115.416 -3.16629 -30.2139 115.187 -75.147 -3.20473 111.733 -63.801 17.9985 109.088 -33.6844 -24.5568 163.569 13.1783 9.64324 8.35559 65.6812 
155.612 152.724 170.401 167.088 169.572 157.259 121.226 160.714 160.162 164.046 -69.2828 116.639 -2.75359 -67.9512 115.477 -2.66794 -30.3945 115.206 -74.7852 -3.34697 111.715 -63.4375 17.9018 109.19 -33.3789 -24.673 163.705 13.4345 9.63084 8.34841 65.7557 
155.89 152.491 170.333 167.007 169.558 157.178 121.084 160.584 160.006 163.882 -69.2489 116.64 -2.4574 -67.8364 115.457 -2.20506 -30.4753 115.163 -74.3662 -3.41196 111.653 -62.993 17.8547 109.249 -32.9913 -24.7733 163.812 13.714 9.60876 8.32378 65.7699 
156.127 152.15 170.249 166.892 169.53 157.13 120.911 160.434 159.837 163.677 -69.1732 116.61 -2.12373 -67.6447 115.335 -1.76153 -30.4092 115.019 -73.8295 -3.36869 111.537 -62.412 17.8917 109.262 -32.447 -24.8541 163.877 14.0401 9.5909 8.27396 65.7165 
156.28 151.772 170.193 166.76 169.485 157.054 120.648 160.301 159.667 163.465 -68.9722 116.468 -1.81554 -67.2991 115.09 -1.33498 -30.2213 114.683 -73.2697 -3.21799 111.222 -61.7656 18.0031 109.125 -31.8533 -24.8912 163.846 14.3312 9.54959 8.207 65.6521 
156.427 151.426 170.127 166.634 169.453 157.084 120.421 160.22 159.569 163.319 -68.8351 116.314 -1.53566 -66.9741 114.856 -0.943044 -29.9279 114.479 -72.8473 -2.96843 111.019 -61.219 18.174 109.002 -31.2946 -24.8963 163.798 14.6129 9.52188 8.1388 65.7251 
156.488 151.147 170.069 166.518 169.413 157.102 120.123 160.129 159.469 163.184 -68.7385 116.239 -1.27771 -66.7505 114.839 -0.574888 -29.6763 114.461 -72.5091 -2.77476 110.916 -60.7391 18.2746 108.868 -30.7861 -24.8793 163.778 14.8812 9.5092 8.07075 65.9092 
156.451 150.931 170 166.381 169.363 157.177 119.872 160.057 159.366 163.057 -68.5985 116.101 -1.07138 -66.5323 114.806 -0.384471 -29.3501 114.526 -72.291 -2.52269 110.828 -60.3236 18.4168 108.667 -30.2984 -24.8118 163.695 15.1261 9.5257 8.00019 66.0845 
156.275 150.866 169.98 166.284 169.319 157.282 119.749 160.052 159.339 163.033 -68.5088 115.947 -0.776412 -66.4542 114.783 -0.182601 -29.156 114.684 -72.161 -2.372 110.802 -60.0347 18.4994 108.439 -29.9129 -24.7298 163.577 15.3885 9.57922 7.95965 66.3149 
155.975 151.012 170.002 166.224 169.321 157.447 119.761 160.162 159.39 163.117 -68.4134 115.734 -0.458278 -66.5164 114.76 -0.0406713 -28.9994 114.868 -72.1639 -2.26878 110.718 -59.8453 18.5227 108.074 -29.5881 -24.6397 163.399 15.6345 9.65458 7.92386 66.6005 
155.641 151.316 170.056 166.225 169.353 157.634 119.924 160.323 159.489 163.262 -68.2847 115.48 -0.0409241 -66.6448 114.752 0.115745 -28.8804 115.002 -72.1593 -2.2236 110.571 -59.6763 18.5085 107.641 -29.2879 -24.5219 163.237 15.8781 9.7396 7.88446 66.8547 
155.304 151.76 170.138 166.285 169.425 157.805 120.156 160.539 159.615 163.438 -68.1505 115.237 0.384562 -66.7972 114.833 0.331568 -28.8309 115.181 -72.2013 -2.2664 110.455 -59.593 18.4364 107.247 -29.1096 -24.3784 163.123 16.1003 9.81155 7.83516 67.144 
155.01 152.223 170.232 166.358 169.479 157.921 120.439 160.796 159.751 163.602 -68.0425 115.053 0.858031 -66.9259 114.935 0.596623 -28.8337 115.384 -72.2847 -2.34419 110.383 -59.5882 18.3479 106.943 -29.0399 -24.2157 163.065 16.3081 9.85517 7.79051 67.4507 
154.58 152.829 170.33 166.482 169.565 157.937 120.789 161.05 159.868 163.764 -67.9104 114.99 1.35032 -67.0717 115.177 0.881524 -28.8758 115.679 -72.3524 -2.49372 110.378 -59.5859 18.178 106.722 -29.0122 -24.0619 163.107 16.5218 9.86975 7.73443 67.7336 
153.953 153.352 170.522 166.53 169.525 157.699 120.793 161.02 159.736 163.828 -67.8047 115.005 1.87414 -67.011 115.371 1.20649 -28.957 115.947 -72.3371 -2.67174 110.402 -59.5263 17.9853 106.63 -28.9605 -23.8509 163.158 16.7736 9.82097 7.64339 68.0115 
153.282 153.899 170.561 166.657 169.565 157.71 121.199 161.208 159.794 163.879 -67.827 115.206 2.29564 -67.0844 115.77 1.39744 -29.0888 116.63 -72.4791 -2.8313 110.896 -59.7383 17.8711 106.948 -29.1976 -23.6944 163.432 16.9989 9.80882 7.6306 68.159 
152.091 154.655 170.624 166.766 169.618 157.592 121.693 161.418 159.791 163.857 -67.7053 115.603 3.21955 -67.0185 116.443 2.04938 -29.3331 117.903 -72.4625 -3.04842 111.984 -59.8982 17.7876 107.822 -29.448 -23.4658 164.003 17.5774 9.78168 7.63148 68.4549 
151.167 154.769 170.725 166.917 169.699 157.628 121.995 161.688 159.929 163.907 -67.7443 115.77 3.66331 -67.0001 116.607 2.39614 -29.7529 118.322 -72.5197 -3.35222 112.503 -60.2255 17.6571 108.421 -29.8933 -23.4698 164.28 17.7702 9.71775 7.66728 68.4315 
150.406 154.845 170.84 167.072 169.806 157.542 122.299 161.922 160.047 163.974 -67.7944 115.94 4.18991 -66.9118 116.615 2.90427 -30.115 118.552 -72.4322 -3.6253 112.779 -60.3495 17.5514 108.817 -30.1353 -23.4368 164.449 18.0627 9.65812 7.68114 68.4312 
149.735 154.979 170.972 167.248 169.966 157.569 122.569 162.198 160.201 164.083 -67.7725 115.961 4.71864 -66.787 116.49 3.41494 -30.2639 118.492 -72.2651 -3.75902 112.696 -60.2617 17.5032 108.92 -30.1164 -23.408 164.537 18.3714 9.58665 7.64229 68.4207 
149.269 155.127 171.101 167.398 170.087 157.549 122.886 162.433 160.33 164.174 -67.8037 115.974 5.1934 -66.7104 116.292 3.82537 -30.398 118.381 -72.0689 -3.89134 112.513 -60.0941 17.4232 108.905 -29.9978 -23.4299 164.593 18.6723 9.52548 7.599 68.3413 
149 155.361 171.209 167.543 170.208 157.519 123.225 162.634 160.458 164.28 -67.8849 115.951 5.58786 -66.6958 116.086 4.09613 -30.4508 118.242 -71.8723 -3.99388 112.221 -59.852 17.3202 108.741 -29.7841 -23.4897 164.608 18.9538 9.47292 7.53466 68.2219 
148.817 155.717 171.303 167.667 170.318 157.654 123.555 162.841 160.585 164.387 -68.0165 115.852 5.93754 -66.7122 115.866 4.34654 -30.3936 118.019 -71.6838 -4.03165 111.761 -59.5285 17.2351 108.391 -29.4568 -23.5467 164.57 19.2079 9.42788 7.44677 68.173 
148.841 156.215 171.378 167.758 170.375 157.863 123.884 162.953 160.641 164.446 -68.1736 115.737 6.19727 -66.8215 115.745 4.48029 -30.3282 117.89 -71.5121 -4.04394 111.348 -59.1829 17.169 108.037 -29.0796 -23.612 164.541 19.4405 9.4188 7.39404 68.1212 
149.005 156.795 171.43 167.835 170.447 158.149 124.286 163.05 160.701 164.525 -68.401 115.56 6.46965 -66.9964 115.521 4.58729 -30.2657 117.64 -71.2865 -4.0799 110.813 -58.786 17.0779 107.566 -28.6578 -23.6914 164.45 19.6745 9.40957 7.33268 68.0107 
149.061 157.615 171.576 167.784 170.359 158.149 124.47 162.808 160.432 164.379 -68.5628 115.375 6.55367 -67.1257 115.221 4.53938 -30.1592 117.178 -70.9584 -4.11115 110.078 -58.2679 16.907 106.933 -28.1016 -23.7449 164.18 19.8609 9.35359 7.26043 67.8587 
149.246 158.357 171.715 167.775 170.29 158.166 124.615 162.533 160.158 164.194 -68.8768 115.25 6.59567 -67.3752 115 4.56934 -30.1645 116.787 -70.6302 -4.25438 109.407 -57.7524 16.6302 106.385 -27.5801 -23.868 163.938 20.0618 9.27528 7.19073 67.7688 
149.694 158.789 171.671 167.843 170.335 158.393 124.901 162.539 160.156 164.184 -69.2356 115.098 6.5658 -67.7827 114.927 4.56913 -30.1983 116.582 -70.45 -4.40866 108.892 -57.3626 16.4347 105.919 -27.2106 -24.054 163.826 20.1903 9.27977 7.1495 67.6753 
150.273 158.968 171.64 167.898 170.384 158.611 125.073 162.561 160.151 164.168 -69.5987 114.935 6.55576 -68.1148 114.772 4.70266 -30.2158 116.241 -70.1306 -4.51283 108.362 -56.8454 16.3228 105.513 -26.7391 -24.275 163.731 20.3455 9.29334 7.12081 67.5599 
150.808 159.16 171.611 167.923 170.421 158.745 125.151 162.549 160.12 164.156 -70.0076 114.851 6.5343 -68.5484 114.748 4.88011 -30.341 115.969 -69.8511 -4.7173 107.845 -56.3483 16.1209 105.081 -26.2935 -24.5316 163.643 20.47 9.32185 7.11334 67.5544 
151.26 158.84 171.558 167.899 170.454 158.948 124.872 162.451 160.026 164.06 -70.3459 114.603 6.62808 -68.7572 114.518 5.29636 -30.4227 115.281 -69.3037 -4.86156 107.136 -55.61 15.9933 104.612 -25.6297 -24.8311 163.507 20.6017 9.33248 7.08466 67.5095 
151.796 158.337 171.537 167.867 170.496 159.135 124.62 162.325 159.896 163.935 -70.7186 114.313 6.73992 -68.8707 114.046 5.66208 -30.5222 114.222 -68.5872 -5.00507 106.145 -54.7001 15.879 104.052 -24.8603 -25.1626 163.326 20.7072 9.30031 7.04996 67.1999 
152.459 157.844 171.517 167.867 170.564 159.46 124.466 162.196 159.738 163.821 -71.6438 113.981 7.00247 -69.538 113.518 6.28397 -31.1325 113.198 -67.6902 -5.61653 105.072 -53.5135 15.2764 103.513 -23.8299 -26.0239 163.231 20.9778 9.22827 7.04781 66.8974 
152.682 157.332 171.48 167.87 170.553 159.614 124.405 162.179 159.739 163.795 -72.1811 114.058 6.90081 -69.8583 113.454 6.34828 -31.7084 113.222 -67.6446 -6.05644 105.164 -53.5333 14.8825 103.768 -23.9036 -26.4857 163.38 20.9815 9.17693 7.08837 66.7113 
152.753 157.064 171.478 167.971 170.513 159.834 124.697 162.27 159.95 163.921 -72.9774 114.13 6.65038 -70.4422 113.365 6.13976 -32.7529 113.788 -68.1596 -6.78673 105.825 -54.3741 14.3182 104.266 -24.6719 -27.0015 163.414 20.9743 9.21105 7.20565 66.5608 
152.926 156.979 171.608 168.145 170.524 160.336 125.201 162.464 160.163 164.04 -73.9554 114.187 6.31441 -71.2129 113.435 5.92419 -34.0203 114.677 -68.8724 -7.68683 106.705 -55.4434 13.6819 104.778 -25.6527 -27.5034 163.389 20.8746 9.32985 7.37068 66.5799 
152.603 157.545 171.836 168.291 170.36 160.289 125.325 162.334 160.097 163.941 -74.9468 114.175 6.06177 -72.0474 113.493 5.73795 -35.3619 115.079 -69.5867 -8.79218 107.067 -56.5791 12.7708 104.862 -26.7651 -27.9002 162.986 20.788 9.33068 7.4563 66.7094 
152.713 158.087 171.893 168.35 170.375 160.764 125.727 162.453 160.098 163.943 -76.0025 114.174 5.87623 -72.9296 113.785 5.48392 -36.3126 115.644 -70.0924 -9.73342 107.233 -57.066 11.987 104.649 -27.2266 -28.3313 162.819 20.699 9.44747 7.48821 66.7913 
152.983 158.647 171.864 168.383 170.432 161.244 126.058 162.527 160.061 163.951 -76.9933 114.033 5.82566 -73.7129 114.004 5.32177 -36.9583 115.855 -70.2735 -10.5468 106.97 -57.1166 11.2746 104.096 -27.2971 -28.7585 162.631 20.6339 9.55866 7.43981 66.8056 
153.278 159.029 171.789 168.39 170.502 161.532 126.212 162.572 160 163.932 -77.8751 113.818 6.15627 -74.4325 114.104 5.58873 -37.3294 115.656 -70.0835 -11.1389 106.403 -56.6899 10.684 103.406 -26.8454 -29.2243 162.481 20.6808 9.6414 7.37438 67.0113 
153.527 159.13 171.722 168.388 170.572 161.807 126.152 162.66 159.975 163.93 -78.6382 113.559 6.6928 -75.1229 114.089 6.31679 -37.6981 115.108 -69.6479 -11.6915 105.661 -56.0219 10.1539 102.679 -26.1637 -29.731 162.365 20.7697 9.72025 7.30903 67.3978 
153.6 159.053 171.634 168.349 170.633 161.978 125.815 162.646 159.87 163.82 -79.2437 113.275 7.36701 -75.6231 114.054 7.25139 -38.0068 114.422 -68.9706 -12.1654 104.948 -55.1072 9.67089 102.152 -25.279 -30.2948 162.363 20.9137 9.74001 7.22983 67.7996 
153.558 158.826 171.605 168.287 170.696 162.201 125.463 162.617 159.769 163.751 -79.8547 113.203 7.88707 -76.1185 114.059 8.02978 -38.4459 113.76 -68.3289 -12.6711 104.279 -54.2367 9.1691 101.755 -24.4862 -30.8818 162.454 21.0259 9.72358 7.20661 68.0036 
153.371 158.772 171.661 168.25 170.707 162.348 125.284 162.78 159.84 163.906 -80.7441 113.425 8.23056 -76.9126 114.206 8.52718 -39.1956 113.458 -68.1074 -13.3627 103.896 -53.9227 8.48444 101.62 -24.2713 -31.4739 162.607 21.1926 9.62862 7.24224 68.0726 
153.22 158.864 171.717 168.322 170.69 162.506 125.502 162.949 160.033 164.094 -81.7566 113.755 8.29092 -77.8485 114.366 8.67574 -40.3318 113.846 -68.4922 -14.3251 104.161 -54.5053 7.65397 101.825 -24.8647 -32.0639 162.725 21.2825 9.60389 7.30059 68.1413 
153.376 159.209 171.85 168.471 170.738 162.947 126.155 163.196 160.303 164.29 -82.9795 114.15 8.11146 -79.0672 114.733 8.75872 -41.8329 114.959 -69.308 -15.5248 105.006 -55.6441 6.6985 102.237 -25.9046 -32.7123 162.819 21.3102 9.71267 7.44528 68.4295 
153.808 159.783 171.961 168.56 170.816 163.409 126.694 163.466 160.537 164.454 -84.1595 114.307 7.98122 -80.0776 115.029 8.82718 -43.2667 115.965 -70.2564 -16.7582 105.596 -56.8276 5.70309 102.383 -27.0136 -33.2824 162.778 21.208 9.80894 7.55716 68.8272 
154.678 160.431 172.079 168.645 170.937 164.009 127.074 163.743 160.706 164.587 -85.3334 114.279 7.99798 -80.984 115.212 8.99318 -44.3772 116.456 -70.9258 -17.8912 105.537 -57.4807 4.76673 102.004 -27.6007 -33.7927 162.63 21.137 9.91337 7.59727 69.1903 
155.573 160.828 172.203 168.741 171.031 164.469 127.228 164.059 160.853 164.642 -86.1756 113.934 8.24942 -81.5351 115.015 9.48427 -44.8886 116.149 -71.1598 -18.563 104.829 -57.4913 4.1599 101.294 -27.5235 -34.2731 162.393 21.1527 9.95307 7.57311 69.6215 
156.712 160.944 172.293 168.78 171.087 165.037 127.248 164.269 160.935 164.683 -86.8603 113.419 8.6735 -81.9278 114.579 10.0678 -45.1233 115.181 -70.8568 -18.9391 103.68 -56.9376 3.80469 100.352 -26.8932 -34.7359 162.115 21.2653 9.99459 7.55818 69.7862 
157.922 160.938 172.379 168.817 171.135 165.651 127.361 164.432 160.999 164.732 -87.4767 112.928 9.16921 -82.3127 113.968 10.6536 -45.3134 114.03 -70.2468 -19.1477 102.554 -56.1931 3.62178 99.6128 -26.1105 -35.2306 161.883 21.4507 10.0163 7.5754 69.7395 
159.198 160.958 172.429 168.793 171.195 166.182 127.492 164.463 160.96 164.703 -87.9588 112.526 9.62596 -82.5413 113.406 11.0733 -45.3991 112.979 -69.4892 -19.24 101.562 -55.3038 3.52597 99.141 -25.2914 -35.6847 161.78 21.6785 9.97242 7.59716 69.4617 
160.168 161.028 172.455 168.819 171.245 166.567 127.525 164.41 160.936 164.604 -88.5368 112.531 9.92101 -82.8194 113.222 11.3191 -45.7389 112.667 -68.9391 -19.5492 101.265 -54.7517 3.25839 99.1745 -24.8081 -36.1504 161.884 21.9696 9.9388 7.61695 69.1706 
160.912 161.176 172.472 168.853 171.273 166.853 127.614 164.365 160.931 164.52 -89.2357 112.904 10.0251 -83.1441 113.348 11.4216 -46.1697 113.027 -68.7217 -19.9814 101.481 -54.5491 2.89609 99.5313 -24.6636 -36.589 162.167 22.2475 9.92295 7.63764 69.0049 
161.707 161.404 172.513 168.928 171.306 167.155 127.818 164.401 161.043 164.559 -90.0402 113.372 10.1289 -83.5654 113.488 11.6066 -46.6993 113.548 -68.6827 -20.3834 101.878 -54.6245 2.56021 99.92 -24.7165 -36.9868 162.431 22.524 9.92581 7.7058 68.9783 
162.824 162.184 172.946 169.055 171.235 167.968 127.902 165.231 161.597 164.459 -91.3867 113.717 9.87969 -84.0764 113.933 12.5345 -47.7102 113.812 -69.516 -21.2933 101.626 -55.4198 1.47657 99.5939 -25.6895 -37.1853 162.553 22.3684 9.51671 7.78281 69.7802 
164.106 162.198 173.231 168.962 170.792 168.849 127.77 165.839 161.925 164.251 -92.9407 114.265 9.58939 -84.7209 114.554 13.4998 -48.8974 114.275 -70.244 -22.0969 101.696 -56.1844 0.468081 99.3264 -26.6665 -37.3459 162.588 22.2211 9.17128 8.01124 70.6708 
166.15 161.784 173.497 168.993 170.244 170.064 127.566 166.483 162.349 163.929 -95.2497 114.975 9.44849 -85.7122 115.21 14.7226 -50.7474 114.887 -70.987 -23.2546 101.879 -57.0949 -0.902934 99.0555 -27.7 -37.7358 162.515 22.243 8.82585 8.38267 71.6224 
167.232 160.97 173.561 168.933 169.746 170.649 127.024 166.709 162.451 163.594 -96.4156 115.557 9.16183 -85.8849 115.671 15.2315 -51.6887 115.42 -71.4797 -23.6472 102.248 -57.6365 -1.46481 99.1355 -28.312 -37.7834 162.498 22.1591 8.6356 8.68189 72.1903 
168.3 160.149 173.58 168.845 169.371 171.121 126.474 166.817 162.458 163.278 -97.4327 116.042 8.8968 -85.8685 115.951 15.5181 -52.5047 115.914 -71.7884 -23.9887 102.584 -57.9898 -1.88706 99.3482 -28.7772 -37.8936 162.503 22.1495 8.48411 8.95063 72.4844 
169.226 159.468 173.582 168.78 169.108 171.476 126.049 166.878 162.433 163.036 -98.2892 116.541 8.71019 -85.8153 116.237 15.7289 -53.1688 116.432 -72.0178 -24.2766 102.9 -58.2109 -2.21077 99.5862 -29.0982 -37.9816 162.584 22.1913 8.37961 9.19293 72.7027 
170.041 158.984 173.56 168.663 168.867 171.721 125.696 166.867 162.371 162.828 -99.0468 117.089 8.52045 -85.779 116.597 15.7965 -53.7317 117.012 -72.111 -24.5488 103.284 -58.3101 -2.50131 99.9177 -29.3269 -38.0824 162.748 22.2815 8.29118 9.39313 72.7461 
170.707 158.998 173.548 168.534 168.688 171.862 125.762 166.89 162.31 162.694 -99.5969 117.475 8.42562 -85.7953 116.729 15.5565 -54.1505 117.437 -72.1986 -24.7996 103.453 -58.3358 -2.79317 100.013 -29.4423 -38.1377 162.83 22.3996 8.21949 9.55483 72.5115 
171.088 159.271 173.525 168.384 168.556 171.853 125.873 166.909 162.277 162.624 -99.9777 117.741 8.55839 -85.7979 116.767 15.4289 -54.4568 117.66 -72.1965 -25.0075 103.509 -58.261 -3.03465 99.9978 -29.425 -38.1785 162.87 22.5682 8.17778 9.6604 72.3297 
171.255 159.58 173.468 168.094 168.387 171.718 125.856 166.839 162.163 162.511 -100.188 117.938 8.76185 -85.698 116.86 15.3428 -54.5001 117.799 -72.0052 -25.1093 103.566 -57.9271 -3.18808 100.089 -29.1564 -38.2215 162.998 22.7872 8.13168 9.68156 72.1413 
171.296 159.931 173.364 167.811 168.31 171.553 125.792 166.722 162.054 162.47 -100.268 118.002 8.99329 -85.596 116.955 15.2908 -54.4792 118.006 -71.8326 -25.223 103.701 -57.6152 -3.28483 100.208 -28.9029 -38.2902 163.108 23.0426 8.14387 9.6574 72.0327 
171.101 160.657 173.237 167.364 168.219 171.307 125.924 166.523 161.837 162.362 -100.226 118.086 9.15913 -85.5793 117.094 15.0316 -54.3382 118.058 -71.4334 -25.2968 103.746 -57.0686 -3.34959 100.383 -28.4411 -38.3798 163.32 23.3271 8.13488 9.58472 71.5856 
170.883 161.804 173.104 166.847 168.175 170.942 126.402 166.286 161.583 162.264 -100.063 118.142 9.37693 -85.6648 117.321 14.6811 -54.1189 118.329 -71.0157 -25.4646 103.836 -56.4122 -3.45364 100.651 -27.8936 -38.5089 163.678 23.693 8.14369 9.4846 71.0206 
170.784 163.043 172.963 166.303 168.154 170.619 127.003 166 161.304 162.16 -100.057 118.258 9.56143 -85.8974 117.617 14.2236 -53.9689 118.667 -70.5726 -25.7598 103.901 -55.7696 -3.62297 100.905 -27.3899 -38.6923 164.053 24.0596 8.17921 9.37856 70.3199 
170.929 164.052 172.812 165.823 168.155 170.287 127.504 165.625 161.03 162.019 -100.163 118.509 9.84208 -86.2256 117.973 13.9663 -53.9487 119.041 -69.9613 -26.0234 104.193 -54.9804 -3.68003 101.218 -26.6051 -38.9615 164.482 24.5614 8.36033 9.29589 69.6166 
171.19 164.682 172.66 165.405 168.124 170.086 127.806 165.301 160.792 161.83 -100.203 118.637 10.1389 -86.4066 118.255 13.8075 -53.7509 119.235 -69.2938 -26.1079 104.382 -54.0646 -3.6013 101.456 -25.5779 -39.2379 164.904 25.1126 8.55489 9.20819 68.9518 
171.421 165.22 172.567 165.138 168.203 169.97 128.392 165.085 160.671 161.766 -100.148 118.543 10.608 -86.6631 118.227 13.6371 -53.646 118.995 -68.3971 -26.1989 104.371 -53.0524 -3.48508 101.583 -24.4377 -39.5498 165.283 25.7129 8.76702 9.05993 67.9586 
