162.976 169.372 172.765 168.685 173.26 165.415 128.618 165.638 164.364 168.642 -111.316 113.615 25.0545 -98.027 109.032 21.3279 -63.1521 113.074 -61.7562 -31.7923 98.1638 -46.0436 -9.93326 92.3163 -14.1211 -50.001 156.122 35.9855 10.8657 11.8367 70.5933 
163.113 169.874 172.705 168.788 173.314 165.406 129.062 165.691 164.527 168.726 -111.034 113.272 25.2959 -98.0756 108.851 21.4147 -63.3221 113.084 -61.7692 -31.8832 98.2289 -46.258 -10.1801 92.2497 -14.3248 -49.989 156.128 36.1497 10.7443 11.8144 70.4426 
163.145 170.102 172.71 168.899 173.341 165.41 129.488 165.789 164.685 168.795 -110.743 112.92 25.5315 -98.0545 108.605 21.6975 -63.5221 113.121 -61.8337 -32.082 98.3775 -46.5501 -10.4209 92.2873 -14.6503 -50.0018 156.14 36.297 10.6575 11.7142 70.4446 
163.155 170.194 172.793 168.979 173.37 165.465 129.943 165.939 164.841 168.876 -110.421 112.584 25.789 -98.0211 108.353 21.9476 -63.7275 113.119 -61.9149 -32.3139 98.5137 -46.8355 -10.6212 92.3277 -14.9902 -50.0172 156.163 36.4226 10.6091 11.5929 70.4108 
163.248 169.017 173.104 168.909 173.375 166.265 130.359 166.54 164.889 168.953 -109.147 111.537 25.5508 -97.5347 108.035 23.2092 -63.9025 112.898 -62.2288 -33.159 98.2093 -47.1159 -10.3595 92.4532 -15.6244 -50.0584 156.073 36.4491 10.9345 11.0796 71.2358 
163.389 167.834 173.318 168.936 173.399 166.928 130.222 166.946 165.024 169.042 -108.136 110.696 25.2986 -96.8719 107.862 24.2677 -64.0925 112.62 -62.4096 -33.9432 98.0245 -47.3541 -10.1155 92.5462 -16.3038 -50.0532 155.977 36.4019 11.2796 10.6037 71.9147 
163.566 166.716 173.485 168.942 173.403 167.469 129.801 167.242 165.087 169.121 -107.392 110.096 25.1251 -96.1754 107.825 25.2037 -64.1783 112.403 -62.4667 -34.5953 97.8899 -47.3904 -9.90541 92.6279 -16.8005 -50.0346 155.91 36.3886 11.5952 10.1932 72.5695 
163.677 165.698 173.605 168.945 173.378 167.898 129.357 167.446 165.143 169.154 -106.892 109.725 24.9152 -95.587 107.863 25.8141 -64.1813 112.254 -62.5206 -35.1428 97.8082 -47.399 -9.74741 92.6643 -17.2154 -49.9953 155.845 36.3529 11.8834 9.82447 73.0406 
163.003 166.25 173.764 168.894 173.283 167.191 130.02 167.465 165.03 169.041 -106.649 109.952 25.0915 -95.8599 107.769 25.3069 -63.68 112.096 -62.5288 -34.6395 97.6432 -47.1984 -9.80977 92.4748 -16.8644 -49.8868 155.889 36.4408 11.6117 9.86555 72.5782 
163.152 165.521 173.838 168.859 173.255 167.634 129.62 167.645 165.004 168.961 -106.312 109.666 24.9159 -95.3978 107.766 25.8902 -63.597 111.976 -62.5819 -34.74 97.3268 -47.0621 -9.5873 92.4644 -16.9121 -49.8458 155.852 36.4172 11.6906 9.80757 73.0477 
163.341 164.606 173.872 168.794 173.255 167.98 129.046 167.727 164.959 168.973 -106.028 109.476 24.6857 -94.9267 107.887 26.3636 -63.5882 111.937 -62.621 -34.9698 97.2146 -46.9987 -9.42322 92.5095 -17.1363 -49.822 155.82 36.3597 11.8337 9.69075 73.4868 
163.454 163.894 173.881 168.709 173.236 168.195 128.659 167.751 164.926 168.974 -105.893 109.43 24.4826 -94.5857 108.049 26.4698 -63.5207 111.95 -62.6559 -35.2224 97.1525 -46.9134 -9.31847 92.5498 -17.3337 -49.801 155.828 36.3006 11.9848 9.54282 73.656 
163.557 163.288 173.867 168.62 173.209 168.328 128.436 167.757 164.904 168.988 -105.784 109.385 24.3505 -94.3363 108.115 26.5298 -63.4592 111.896 -62.666 -35.4596 97.1169 -46.8428 -9.22942 92.5532 -17.4623 -49.7971 155.847 36.2465 12.1468 9.37802 73.7385 
163.634 162.831 173.829 168.502 173.181 168.41 128.272 167.737 164.856 169.029 -105.657 109.309 24.2738 -94.116 108.113 26.5989 -63.3532 111.84 -62.6642 -35.6178 97.1223 -46.7566 -9.10743 92.541 -17.4896 -49.7715 155.847 36.2103 12.3161 9.22688 73.8399 
163.676 162.428 173.793 168.457 173.163 168.482 128.02 167.705 164.828 169.062 -105.538 109.28 24.2287 -93.9171 108.174 26.6141 -63.1396 111.833 -62.6486 -35.6533 97.1774 -46.6168 -9.00643 92.576 -17.382 -49.7613 155.896 36.1988 12.4242 9.10105 73.9583 
162.885 163.975 174.085 168.39 173.098 167.516 128.984 167.849 164.628 168.917 -105.491 109.762 24.4467 -94.6545 108.171 25.5465 -62.3435 111.804 -62.7186 -34.7558 97.1084 -46.3075 -9.13112 92.4348 -16.6417 -49.7073 156.048 36.2842 11.9634 9.2601 73.199 
162.891 163.782 174.036 168.238 173.06 167.662 128.798 167.808 164.501 168.791 -105.512 109.742 24.349 -94.6391 108.296 25.5276 -62.2329 111.829 -62.743 -34.6798 96.8888 -46.1353 -9.01927 92.3671 -16.3588 -49.7437 156.122 36.2441 11.9922 9.35433 73.2558 
163.007 163.329 173.963 168.11 173.054 167.765 128.609 167.704 164.418 168.755 -105.643 109.76 24.2543 -94.5864 108.456 25.312 -62.3496 112.006 -62.7515 -34.8704 96.9524 -46.0963 -9.0205 92.4635 -16.3344 -49.8176 156.21 36.1843 12.1048 9.36319 73.1483 
163.105 163.015 173.877 168.01 173.037 167.808 128.474 167.615 164.385 168.749 -105.744 109.723 24.2506 -94.5895 108.527 25.2193 -62.5471 112.035 -62.7097 -35.1597 97.0072 -46.0958 -9.07926 92.5013 -16.3693 -49.9018 156.249 36.1302 12.2409 9.30164 73.0688 
162.544 164.621 173.99 168.083 173.03 166.867 129.355 167.738 164.303 168.697 -105.955 110.212 24.5912 -95.4565 108.65 24.117 -62.187 112.124 -62.6942 -34.5912 97.0864 -45.8635 -9.39778 92.4767 -15.791 -49.9614 156.428 36.2002 11.8508 9.4853 72.253 
162.191 166.233 174.126 168.133 173.013 166.132 129.947 167.714 164.297 168.639 -106.284 110.6 25.0085 -96.2711 108.84 23.2939 -62.162 112.359 -62.62 -34.2039 97.3524 -45.7158 -9.78667 92.589 -15.3698 -50.0553 156.648 36.3109 11.5017 9.71203 71.587 
162.446 165.997 174.007 168.042 172.966 166.457 129.654 167.596 164.258 168.511 -106.167 110.377 25.0325 -96.2653 108.98 23.6284 -62.2833 112.374 -62.4083 -34.4531 97.3638 -45.5103 -9.78377 92.7667 -15.0607 -50.1988 156.807 36.3529 11.641 9.64667 71.7329 
162.711 165.549 173.87 167.991 172.925 166.749 129.281 167.419 164.267 168.428 -106.133 110.196 25.0034 -96.1385 109.145 23.8477 -62.4392 112.38 -62.1461 -34.7877 97.5489 -45.3991 -9.73998 93.0424 -14.9473 -50.3299 156.962 36.3762 11.853 9.47374 71.7425 
162.965 164.961 173.727 168.012 172.877 167.022 128.7 167.248 164.327 168.377 -106.074 110.011 25.0113 -95.9388 109.305 24.3228 -62.6183 112.419 -61.9021 -35.1129 97.8303 -45.3386 -9.68136 93.3572 -14.915 -50.4428 157.083 36.4204 12.0719 9.2911 71.9888 
163.252 164.434 173.596 168.057 172.846 167.293 128.123 167.073 164.404 168.358 -105.971 109.813 25.0292 -95.7077 109.457 24.7996 -62.7901 112.425 -61.6157 -35.3746 98.1205 -45.2844 -9.61024 93.6753 -14.9019 -50.5308 157.201 36.4896 12.2591 9.12082 72.1997 
163.557 163.971 173.478 168.124 172.83 167.559 127.604 166.928 164.494 168.373 -105.792 109.586 25.0988 -95.4381 109.534 25.3067 -62.884 112.366 -61.3289 -35.5507 98.3793 -45.2174 -9.48752 93.9649 -14.8556 -50.6066 157.313 36.6052 12.4278 8.94548 72.4033 
163.825 163.412 173.381 168.244 172.806 167.818 127.09 166.828 164.624 168.386 -105.646 109.401 25.1825 -95.145 109.602 25.964 -63.0194 112.386 -61.0914 -35.7338 98.7383 -45.264 -9.40155 94.3362 -14.9328 -50.6666 157.425 36.7275 12.5587 8.76673 72.7411 
164.012 162.903 173.304 168.395 172.799 168.047 126.713 166.747 164.776 168.417 -105.584 109.314 25.2993 -94.914 109.655 26.5489 -63.2198 112.431 -60.9105 -35.923 99.1212 -45.4207 -9.35009 94.6776 -15.0848 -50.7027 157.539 36.8255 12.6757 8.61201 73.0081 
164.057 162.329 173.162 168.573 172.688 168.29 126.242 166.532 164.933 168.321 -105.677 109.585 25.493 -94.74 110.1 27.1817 -63.3936 113.113 -60.65 -36.0542 100.135 -45.628 -9.25533 95.5076 -15.2507 -50.7085 157.894 37.0826 12.7913 8.46064 73.3356 
164.071 162.067 173.083 168.662 172.573 168.331 126.187 166.393 165.036 168.206 -105.837 109.824 25.538 -94.6 110.286 27.3102 -63.5203 113.651 -60.5898 -36.0529 100.808 -45.8917 -9.12382 95.9996 -15.5193 -50.6481 158.065 37.1987 12.8492 8.43814 73.3526 
164.054 161.853 172.975 168.694 172.424 168.326 126.095 166.209 165.092 168.022 -106.005 110.134 25.5964 -94.4478 110.543 27.3012 -63.5406 114.223 -60.4516 -35.9972 101.462 -46.0238 -8.96343 96.513 -15.6519 -50.5543 158.276 37.3476 12.8979 8.41577 73.2426 
164.066 161.729 172.868 168.685 172.255 168.371 126.096 166.03 165.104 167.804 -106.211 110.485 25.7015 -94.2801 110.775 27.278 -63.6062 114.808 -60.2874 -36.0167 102.086 -46.1122 -8.86482 97.0008 -15.7726 -50.4303 158.497 37.4904 12.9393 8.38684 73.086 
164.196 161.747 172.726 168.635 172.004 168.493 126.291 165.802 165.063 167.428 -106.525 110.986 25.7071 -94.1346 111.179 27.086 -63.6522 115.836 -60.2251 -36.1158 102.886 -46.2207 -8.83653 97.6298 -15.9638 -50.2553 158.821 37.6401 12.9671 8.36763 72.8984 
164.614 161.795 172.583 168.539 171.727 168.665 126.496 165.568 164.959 166.994 -106.649 111.365 25.6396 -93.9167 111.574 26.7817 -63.4229 116.826 -60.0991 -36.0436 103.653 -46.1353 -8.73598 98.3011 -15.9604 -50.0217 159.213 37.825 12.935 8.30946 72.6093 
165.031 161.971 172.482 168.428 171.479 168.726 126.648 165.42 164.8 166.567 -106.675 111.751 25.5274 -93.5165 111.918 26.6105 -62.8277 117.55 -59.8864 -35.7362 104.203 -45.7744 -8.52561 98.937 -15.6741 -49.7323 159.665 38.0479 12.8185 8.19923 72.38 
165.608 162.076 172.432 168.402 171.228 168.869 126.581 165.361 164.555 166.145 -106.607 112.064 25.3941 -92.9629 112.176 26.7651 -62.0767 118.082 -59.5928 -35.2122 104.595 -45.2051 -8.27766 99.4932 -15.1522 -49.4 160.091 38.2927 12.5982 8.15129 72.3904 
166.27 162.038 172.419 168.458 170.923 169.109 126.41 165.357 164.318 165.716 -106.406 112.35 25.1875 -92.4046 112.396 26.9225 -61.1384 118.646 -59.3349 -34.3675 105.049 -44.5597 -7.97479 100.134 -14.403 -49.1221 160.541 38.5695 12.2623 8.21138 72.5096 
166.686 162.138 172.49 168.61 170.715 169.292 126.537 165.522 164.211 165.502 -106.012 112.498 25.0024 -92.018 112.326 27.1555 -60.3483 118.876 -59.1807 -33.4703 105.29 -44.1193 -7.62958 100.45 -13.8097 -48.8132 160.78 38.7718 11.9559 8.33277 72.6608 
166.788 162.199 172.511 168.638 170.465 169.288 126.497 165.535 164.067 165.282 -105.448 112.582 24.8929 -91.6446 112.31 27.1405 -59.5636 119.049 -58.9715 -32.559 105.533 -43.6359 -7.16479 100.821 -13.1939 -48.5017 161.021 38.9395 11.728 8.45922 72.6355 
166.689 162.287 172.527 168.652 170.284 169.19 126.688 165.509 163.975 165.188 -104.785 112.65 24.847 -91.4548 112.286 26.8656 -58.9964 119.417 -58.8617 -31.8229 105.928 -43.413 -6.61744 101.153 -12.8442 -48.145 161.149 39.1197 11.6925 8.58331 72.4453 
166.55 162.282 172.493 168.649 170.166 169.061 126.896 165.449 163.925 165.157 -103.887 112.453 24.9995 -91.2202 112.2 26.6861 -58.6302 119.662 -58.6167 -31.212 106.357 -43.2613 -5.9694 101.565 -12.5757 -47.8167 161.333 39.3396 11.7747 8.66165 72.1145 
166.35 162.29 172.46 168.746 170.1 168.936 127.23 165.39 163.99 165.178 -103.119 112.386 25.0835 -91.0651 112.127 26.3982 -58.4136 119.923 -58.4228 -30.6281 106.952 -43.3972 -5.31562 102.024 -12.5644 -47.4797 161.48 39.5629 11.8789 8.72053 71.6263 
166.188 162.186 172.399 168.845 170.059 168.825 127.415 165.299 164.048 165.203 -102.526 112.378 25.0122 -90.984 112.167 26.1858 -58.4225 120.249 -58.2558 -30.2085 107.662 -43.7164 -4.78511 102.567 -12.7977 -47.1983 161.594 39.7513 11.9694 8.78734 71.1723 
166.154 161.915 172.341 168.933 170.072 168.74 127.443 165.224 164.069 165.24 -102.036 112.384 24.8756 -90.9342 112.3 26.0258 -58.5649 120.403 -58.0072 -29.9144 108.22 -44.0174 -4.44146 103.062 -13.0983 -46.9877 161.725 39.8774 11.9698 8.87275 70.6529 
166.156 161.505 172.33 168.974 170.074 168.66 127.288 165.174 164.062 165.257 -101.659 112.496 24.6953 -90.8895 112.537 25.9659 -58.6631 120.528 -57.7906 -29.6266 108.649 -44.2457 -4.21575 103.426 -13.3519 -46.8021 161.834 39.9807 11.8985 8.9883 70.2865 
166.026 161.104 172.419 168.912 169.965 168.354 126.903 164.916 163.799 165.132 -101.366 112.681 24.5269 -90.8398 112.757 26.0311 -58.9417 120.309 -57.3881 -29.5736 108.771 -44.2723 -4.3185 103.697 -13.5885 -46.6178 161.766 40.0832 11.6689 9.08696 69.9675 
166.052 160.814 172.386 168.836 169.898 168.259 126.645 164.811 163.695 165.042 -101.038 112.939 24.3376 -90.8478 113.276 25.7693 -58.7452 120.54 -57.0689 -29.1823 109.075 -44.1888 -4.12095 104.029 -13.5271 -46.429 161.985 40.2638 11.5386 9.19458 69.4937 
166.146 160.552 172.347 168.727 169.802 168.221 126.316 164.736 163.611 164.957 -100.901 113.402 24.175 -90.937 113.933 25.6908 -58.5231 120.877 -56.6974 -28.8061 109.402 -43.9651 -4.01925 104.338 -13.3146 -46.2756 162.263 40.5045 11.3762 9.30463 69.1815 
166.443 160.311 172.309 168.565 169.68 168.228 125.873 164.667 163.48 164.869 -100.752 113.838 24.0735 -90.9208 114.523 25.8099 -58.0103 121.013 -56.2069 -28.2412 109.531 -43.4868 -3.87405 104.53 -12.846 -46.1023 162.524 40.7631 11.1402 9.37552 69.0523 
166.841 160.128 172.28 168.359 169.551 168.258 125.44 164.589 163.319 164.757 -100.587 114.207 24.0146 -90.8319 115.003 25.9893 -57.3061 120.947 -55.6229 -27.6187 109.436 -42.8368 -3.71015 104.592 -12.2094 -45.9231 162.748 41.0389 10.877 9.37673 68.9443 
166.356 160.346 172.455 168.268 170.34 167.705 124.711 164.286 162.77 164.494 -99.7143 115.055 23.7126 -90.0978 115.675 24.9571 -54.9538 120.994 -54.7959 -26.446 108.891 -41.3695 -3.22986 104.99 -10.8293 -45.6705 163.181 41.6087 10.4335 8.92421 68.1009 
166.394 160.791 172.654 168.34 170.714 167.256 124.41 163.896 162.191 163.992 -98.9623 115.765 23.4873 -89.4889 116.087 23.8905 -52.9603 121.254 -53.9757 -25.4569 108.56 -39.9337 -2.6517 105.367 -9.26592 -45.48 163.58 42.1735 10.2671 8.59818 67.1848 
166.574 161.224 172.884 168.518 170.916 167.026 124.098 163.574 161.695 163.566 -98.4553 116.508 23.2967 -89.0377 116.625 22.8687 -51.3858 121.825 -53.4066 -24.7609 108.523 -38.8096 -2.16253 105.764 -7.95888 -45.2801 163.914 42.6848 10.2761 8.37281 66.4674 
167.018 161.67 173.082 168.747 171.071 167.045 123.747 163.305 161.305 163.297 -98.1931 117.158 23.2868 -88.7683 117.241 22.321 -50.2607 122.501 -52.9852 -24.3495 108.655 -37.9849 -1.81091 106.115 -6.94273 -45.0757 164.202 43.1719 10.376 8.22272 66.1718 
167.598 162.195 173.326 169.002 171.185 167.243 123.474 163.148 161.051 163.152 -98.1305 117.704 23.3246 -88.5989 117.771 22.0208 -49.6034 123.2 -52.743 -24.1554 108.925 -37.5254 -1.55776 106.425 -6.29257 -44.8515 164.391 43.5925 10.5172 8.14855 66.0454 
168.342 162.788 173.588 169.265 171.294 167.584 123.365 163.095 160.937 163.169 -98.2664 118.094 23.4171 -88.5609 118.199 21.9367 -49.4741 123.877 -52.7129 -24.2738 109.222 -37.4515 -1.42962 106.565 -6.05211 -44.6024 164.44 43.924 10.7446 8.1339 66.0536 
169.03 163.433 173.912 169.57 171.405 167.95 123.448 163.226 161.008 163.296 -98.5664 118.363 23.5896 -88.7001 118.486 22.1891 -49.9318 124.526 -52.8919 -24.7114 109.709 -37.8459 -1.54686 106.696 -6.28619 -44.4153 164.405 44.1382 10.9605 8.12238 66.279 
169.909 164.13 173.596 169.309 171.716 168.78 125.184 163.833 161.491 163.854 -99.3371 117.996 24.1001 -89.4358 117.812 23.4225 -50.8894 124.667 -53.242 -25.2849 109.836 -38.2513 -2.23639 106.175 -6.99956 -44.2758 164.161 44.1107 10.6891 8.2633 67.0823 
170.739 164.456 173.426 169.022 171.573 169.585 126.315 164.382 161.801 164.395 -100.045 117.549 24.6266 -90.0574 117.294 24.6822 -51.7883 124.382 -53.4972 -25.7379 109.682 -38.6592 -2.69555 105.583 -7.75104 -44.0279 163.814 43.9653 10.4988 8.38583 67.8904 
171.39 164.347 173.278 168.606 171.222 170.109 126.884 164.802 161.988 164.751 -100.467 117.158 25.1163 -90.3417 116.93 26.0577 -52.5375 124.076 -53.6425 -26.0633 109.543 -38.9367 -2.95697 105.12 -8.35706 -43.7272 163.483 43.8653 10.3844 8.50306 68.7912 
171.808 163.797 173.098 168.117 170.806 170.448 126.984 165.079 162.118 164.999 -100.737 116.933 25.6372 -90.3531 116.761 27.4437 -53.0319 123.827 -53.5897 -26.1228 109.569 -38.9808 -2.96461 104.917 -8.63797 -43.441 163.309 43.8981 10.3277 8.6221 69.6606 
172.038 162.925 172.893 167.638 170.4 170.652 126.847 165.247 162.258 165.2 -100.702 116.656 26.1756 -90.1186 116.588 28.618 -53.3897 123.631 -53.4114 -26.0014 109.796 -38.9481 -2.71473 105.001 -8.78883 -43.1457 163.228 43.9944 10.3491 8.73587 70.3191 
172.047 162.013 172.667 167.238 170.033 170.702 126.698 165.297 162.45 165.384 -100.357 116.234 26.8006 -89.6812 116.292 29.5004 -53.5474 123.297 -53.0182 -25.6705 110.078 -38.7556 -2.18472 105.218 -8.68899 -42.8439 163.223 44.1982 10.4623 8.82266 70.5723 
171.944 161.109 172.463 167.015 169.749 170.658 126.615 165.246 162.685 165.559 -99.9261 115.895 27.3817 -89.2013 116.013 29.9602 -53.6712 123.151 -52.6096 -25.3204 110.587 -38.6426 -1.56819 105.655 -8.62876 -42.5577 163.311 44.4195 10.6334 8.90455 70.4698 
171.8 160.363 172.301 167.053 169.676 170.52 126.706 165.172 163.006 165.789 -99.3354 115.502 27.8528 -88.606 115.628 30.141 -53.8044 122.915 -52.1942 -25.0405 111.09 -38.6893 -0.914888 106.129 -8.70593 -42.2574 163.397 44.6252 10.8531 8.93318 70.0136 
171.653 159.777 172.151 167.213 169.686 170.341 126.872 165.034 163.299 166.007 -98.6469 115.114 28.217 -87.9827 115.243 30.0037 -53.7043 122.803 -51.8164 -24.6778 111.641 -38.6932 -0.193737 106.636 -8.70879 -41.9502 163.472 44.8469 11.0996 8.93834 69.4221 
171.433 159.353 172.012 167.417 169.775 170.12 126.981 164.874 163.538 166.179 -97.8909 114.604 28.5771 -87.305 114.791 29.8567 -53.3762 122.591 -51.406 -24.2219 112.009 -38.5635 0.561706 107.006 -8.52033 -41.6675 163.511 45.0794 11.3365 8.91526 68.8854 
171.232 159.177 171.935 167.631 169.941 169.903 127.238 164.752 163.723 166.32 -97.1526 114.139 28.7882 -86.6709 114.361 29.6559 -52.9017 122.464 -51.152 -23.7794 112.258 -38.4679 1.25946 107.204 -8.34013 -41.3917 163.505 45.2626 11.5725 8.84786 68.4814 
171.023 159.213 171.922 167.796 170.149 169.755 127.593 164.703 163.876 166.459 -96.4486 113.609 29.0392 -86.1118 113.812 29.5135 -52.301 122.012 -50.9013 -23.248 112.038 -38.2292 1.93605 106.988 -7.97326 -41.0966 163.367 45.3945 11.7654 8.80339 68.1574 
170.849 159.458 171.957 167.936 170.408 169.654 127.997 164.685 163.959 166.557 -95.951 113.223 29.2086 -85.6295 113.385 29.4094 -51.6558 121.502 -50.71 -22.7575 111.555 -37.9323 2.50491 106.535 -7.57924 -40.8065 163.186 45.4731 11.9196 8.74981 67.9505 
168.497 161.191 172.231 167.946 171.011 168.921 129.294 164.049 163.132 166.005 -93.6066 113.083 29.1474 -84.2946 112.757 26.7786 -48.6179 120.747 -49.7813 -20.6413 110.002 -35.8992 4.00041 105.999 -5.62222 -40.0766 163.012 46.0608 11.7542 8.59892 65.8157 
166.971 162.708 172.499 168.05 171.016 168.237 129.861 163.382 162.204 165.333 -92.3519 113.373 28.7898 -83.8495 112.79 25.055 -46.9581 120.663 -49.335 -19.6902 108.95 -34.716 4.77474 105.676 -4.42699 -39.7571 162.978 46.2342 11.8767 8.58322 64.8131 
166.199 163.869 172.72 168.048 170.957 167.701 130.18 162.808 161.37 164.833 -91.3944 113.505 28.7553 -83.1666 112.696 23.7401 -45.4884 120.437 -48.7051 -18.794 108.049 -33.4501 5.6474 105.541 -3.19233 -39.4112 163.006 46.4751 12.0623 8.59007 63.8793 
165.724 164.791 172.972 167.888 170.892 167.289 130.261 162.352 160.599 164.477 -90.8194 113.659 28.7899 -82.5474 112.668 22.6339 -44.57 120.337 -48.1921 -18.1904 107.407 -32.4482 6.35538 105.478 -2.30751 -39.1058 163.044 46.6306 12.28 8.70224 63.0449 
165.434 165.529 173.186 167.608 170.828 166.941 130.371 161.993 159.881 164.17 -90.1473 113.666 28.9525 -81.8965 112.515 21.6532 -43.6702 119.938 -47.5411 -17.5543 106.736 -31.3109 6.97503 105.385 -1.31051 -38.8107 163.099 46.7932 12.3854 8.78488 62.1057 
165.058 165.966 173.267 167.202 170.767 166.592 130.429 161.663 159.265 163.978 -89.4547 113.55 29.2012 -81.3614 112.31 20.9421 -43.087 119.421 -46.914 -17.0982 106.096 -30.3092 7.38737 105.226 -0.488052 -38.6027 163.153 46.9071 12.4163 8.87846 61.2501 
164.563 166.3 173.222 166.812 170.702 166.152 130.529 161.377 158.786 163.834 -88.6101 113.281 29.5537 -80.8399 112.009 20.4927 -42.5941 118.775 -46.266 -16.6547 105.521 -29.3592 7.71435 105.076 0.307451 -38.4362 163.21 47.0161 12.3686 8.9412 60.4865 
164.177 166.667 173.094 166.534 170.695 165.829 130.782 161.233 158.536 163.858 -87.7616 112.938 29.9233 -80.5775 111.548 20.5378 -42.3527 117.919 -45.6024 -16.333 104.98 -28.6413 7.91963 104.92 0.911242 -38.3469 163.252 47.0887 12.2844 8.94553 59.9652 
163.737 166.593 172.814 166.27 170.698 165.447 130.989 161.076 158.368 163.983 -86.9147 112.46 30.3598 -80.4626 111.092 20.6729 -42.2952 117.074 -45.0065 -16.1044 104.506 -28.1438 8.11175 104.77 1.29883 -38.316 163.254 47.1202 12.2413 8.94923 59.5175 
163.332 165.926 172.503 166.514 171.27 165.356 131.064 161.962 159.927 164.599 -85.3423 110.73 31.6805 -79.9376 109.825 22.093 -42.5644 115.553 -45.27 -15.6225 103.384 -28.2439 8.64408 104.415 1.62207 -38.3018 163.077 47.1087 12.0874 9.23461 60.0926 
162.944 164.902 172.458 166.717 171.704 165.04 130.929 162.575 161.087 165.022 -83.8841 109.266 32.6861 -79.4823 108.745 23.6728 -42.7867 114.195 -45.3604 -15.002 102.778 -28.5544 8.96707 104.172 1.78836 -38.4301 162.919 47.0254 11.7758 9.43884 60.7427 
162.424 163.808 172.384 166.872 172.011 164.456 130.461 163.078 162.049 165.396 -82.535 108.109 33.5163 -78.935 107.908 25.4057 -42.7635 112.988 -45.507 -14.2346 102.287 -28.8211 9.29111 103.91 1.97327 -38.5663 162.768 46.9273 11.4477 9.65132 61.6899 
161.931 162.579 172.303 167.052 172.228 163.836 129.751 163.457 162.859 165.677 -81.3926 107.22 34.1157 -78.4245 107.437 26.849 -42.6352 112.03 -45.6987 -13.531 101.841 -29.0485 9.5601 103.674 2.13691 -38.6698 162.644 46.7898 11.176 9.85425 62.6197 
161.462 161.648 172.231 167.324 172.392 163.23 129.046 163.816 163.552 165.905 -80.4613 106.478 34.7376 -77.8255 106.975 28.2163 -42.441 111.137 -45.8572 -12.8658 101.41 -29.1777 9.75277 103.457 2.32505 -38.773 162.53 46.6742 10.8804 10.0268 63.5173 
161.107 160.911 172.189 167.576 172.518 162.723 128.397 164.119 164.153 166.121 -79.6997 105.933 35.2102 -77.2893 106.725 29.2595 -42.2548 110.41 -45.9897 -12.3214 101.033 -29.3013 9.89787 103.255 2.45286 -38.8423 162.461 46.5376 10.6394 10.1632 64.2344 
160.845 160.237 172.136 167.842 172.614 162.327 127.65 164.364 164.634 166.287 -78.9925 105.435 35.5892 -76.6645 106.525 30.142 -41.9852 109.654 -46.0293 -11.8195 100.62 -29.3253 10.0037 103.034 2.60162 -38.8752 162.384 46.3528 10.4001 10.2422 64.8444 
160.544 159.211 171.996 168.255 172.748 161.749 126.533 164.637 165.282 166.563 -77.8788 104.689 36.1273 -75.6711 106.126 31.2671 -41.6022 108.378 -45.9646 -11.077 99.9472 -29.2723 10.1024 102.737 2.7323 -38.9222 162.273 45.9456 9.96766 10.3687 65.5572 
160.52 158.786 171.926 168.511 172.765 161.592 125.751 164.702 165.472 166.668 -77.5508 104.323 36.187 -75.1645 105.995 31.7191 -41.1726 107.651 -45.8368 -10.6601 99.4825 -29.0981 10.13 102.452 2.85282 -38.9126 162.093 45.666 9.72471 10.3556 65.9776 
160.563 158.441 171.82 168.734 172.779 161.518 125.044 164.68 165.607 166.756 -77.3321 103.999 36.2339 -74.7538 105.862 32.0347 -40.8093 107.003 -45.6715 -10.3468 99.1228 -28.9302 10.0748 102.261 2.93446 -38.9448 161.95 45.344 9.48589 10.3198 66.3209 
160.615 158.261 171.756 168.892 172.798 161.502 124.522 164.671 165.696 166.848 -77.2352 103.706 36.2425 -74.4893 105.808 32.2823 -40.5542 106.565 -45.6653 -10.1794 98.8585 -28.9504 9.98988 102.069 2.84958 -38.9376 161.801 45.0193 9.32006 10.2654 66.7245 
