162.28 146.578 168.381 178.424 175.473 157.896 109.221 162.141 172.008 169.621 129.638 162.398 -57.1549 125.869 166.926 -53.501 158.532 151.578 -125.713 191.347 168.642 -122.892 209.844 183.184 -95.52 149.695 224.596 -57.3612 8.215 16.0214 67.45 
162.181 146.381 168.47 177.753 174.503 157.679 108.905 162.208 171.75 169.024 128.599 162.893 -56.7142 124.68 167.622 -52.9806 157.304 151.646 -125.381 190.011 168.438 -122.415 208.532 182.898 -94.991 148.796 224.861 -57.1315 8.15121 15.8036 67.7661 
162.129 146.338 168.593 177.146 173.668 157.616 108.595 162.239 171.499 168.377 127.572 163.255 -56.694 123.455 168.283 -52.7812 155.991 151.994 -125.458 188.702 168.435 -122.182 207.17 182.72 -94.658 147.816 225.098 -57.0429 8.04929 15.5917 68.14 
162.186 146.246 168.771 176.598 173.022 157.61 108.1 162.274 171.413 167.924 126.536 163.744 -57.1605 122.259 169.156 -52.8426 154.803 152.359 -125.694 187.434 168.438 -122.037 205.719 182.477 -94.3647 146.893 225.391 -57.0565 7.84898 15.3433 68.4465 
162.252 146.247 168.971 176.261 172.455 157.648 107.632 162.324 171.14 167.15 125.643 164.482 -57.6306 121.169 170.408 -52.9785 153.594 153.11 -126.099 186.07 168.685 -121.907 204.211 182.53 -94.0794 145.981 226.003 -57.1296 7.67974 14.9618 68.8243 
162.35 145.95 169.138 175.631 171.813 157.737 107.993 162.468 170.938 166.605 124.156 165.201 -57.7534 119.599 171.312 -52.8606 151.767 153.594 -126.025 184.199 168.511 -121.516 202.337 182.138 -93.6468 144.886 226.549 -57.0843 7.5497 14.6672 68.8318 
162.392 146.188 169.102 175.115 171.301 157.866 108.09 162.311 170.767 165.824 123.122 165.894 -58.4334 118.367 172.322 -53.2 150.389 154.369 -126.221 182.71 168.707 -121.485 200.447 181.894 -93.4769 143.945 227.142 -57.3512 7.12257 14.4242 68.8168 
162.433 146.476 169.201 174.706 170.894 157.929 107.826 162.211 170.443 164.594 122.523 166.691 -59.413 117.481 173.845 -53.641 149.288 155.28 -126.619 181.217 168.848 -121.445 198.266 181.488 -93.1975 143.191 227.894 -57.8258 6.4715 13.904 69.0403 
162.52 146.33 169.383 174.277 169.95 158.058 108.201 162.357 170.209 163.484 121.404 167.353 -59.9555 116.196 174.945 -53.805 147.669 155.84 -126.731 179.224 168.714 -121.32 195.851 180.886 -92.8326 142.218 228.495 -58.0857 6.05058 13.4752 68.9759 
162.782 146.305 169.323 173.49 168.881 158.483 108.732 162.302 169.679 162.493 120.198 167.653 -60.1994 115.186 175.339 -53.8497 146.205 156.111 -126.599 177.588 168.652 -121.208 194.156 180.765 -92.7026 141.242 228.954 -58.2854 5.9204 13.2498 68.5944 
162.954 146.549 169.204 172.774 167.994 158.718 108.915 162.07 169.074 161.582 119.388 167.863 -60.4857 114.308 175.851 -53.9247 145.099 156.51 -126.665 176.295 168.764 -121.2 192.769 180.84 -92.6394 140.344 229.36 -58.5754 5.83343 13.0196 68.5863 
163.141 146.667 169.179 172.237 167.314 158.926 109.119 162.034 168.626 160.899 118.593 167.828 -60.7755 113.435 176.027 -54.015 143.919 156.803 -126.933 174.984 168.856 -121.313 191.413 180.921 -92.6961 139.312 229.545 -58.7381 5.7759 12.8186 68.5951 
163.18 146.693 169.104 171.843 166.785 158.992 109.489 161.937 168.377 160.298 117.654 168.093 -61.039 112.522 176.266 -54.1377 142.607 157.101 -126.958 173.635 169.038 -121.462 189.884 180.964 -92.759 138.313 229.844 -58.9095 5.6245 12.8007 68.3651 
163.089 146.549 168.899 171.461 166.299 159.124 109.471 161.764 168.07 160.136 116.365 168.438 -61.0175 111.858 176.54 -54.3065 141.692 157.611 -127.035 172.793 169.68 -121.722 189.251 181.702 -93.0621 137.459 230.277 -59.0391 5.75093 12.9234 68.2364 
163.172 146.577 168.752 171.409 166.018 159.142 109.424 161.497 167.884 159.75 115.455 169.097 -61.6516 111.173 177.153 -54.8763 140.822 158.405 -127.52 171.984 170.404 -122.294 188.438 182.299 -93.5265 136.82 230.867 -59.4502 5.75865 13.0092 68.1598 
163.188 146.367 168.653 171.303 165.711 158.931 109.142 161.214 167.683 159.251 114.517 169.706 -62.3388 110.178 178.207 -55.1485 139.584 159.006 -127.737 170.518 170.688 -122.619 186.786 182.256 -93.8066 136.109 231.318 -59.8069 5.52888 12.895 68.3351 
163.089 146.302 168.491 171.061 165.2 158.727 109.064 160.876 167.398 158.7 113.445 170.173 -62.7646 109.099 179.023 -55.3747 138.209 159.521 -127.716 168.81 170.835 -122.735 184.927 182.053 -93.9606 135.321 231.655 -60.0759 5.29378 12.7292 68.3304 
162.819 146.304 168.335 170.711 164.648 158.334 108.572 160.704 167.002 158.21 112.351 170.686 -63.1454 108.367 179.921 -55.4395 137.458 160.244 -128.093 167.729 171.328 -123 183.745 182.397 -94.2597 134.6 231.998 -60.315 5.14106 12.5125 68.9485 
162.558 146.303 168.133 170.356 163.997 157.916 107.323 160.5 166.557 157.611 111.37 171.148 -63.6509 107.781 181.198 -55.5458 136.957 161.262 -128.706 166.774 172.065 -123.281 182.514 182.919 -94.5544 133.96 232.304 -60.5204 4.85866 12.1913 70.0794 
162.435 146.508 167.962 170.227 163.939 157.68 106.436 160.278 166.149 157.184 110.369 171.952 -64.5248 107.223 182.639 -55.8322 136.526 162.597 -129.392 165.85 173.005 -123.57 181.464 183.634 -94.9759 133.451 232.891 -60.7454 4.60532 11.8017 70.98 
162.493 146.572 167.942 170.196 164.314 157.741 105.743 160.038 165.769 156.56 109.412 172.815 -65.5433 106.619 184.043 -56.4712 135.844 164.008 -129.796 164.516 173.799 -123.506 179.641 183.993 -94.8894 132.926 233.6 -60.8629 4.19591 11.254 71.179 
162.516 146.223 167.922 170.207 164.493 157.946 105.235 160.037 165.721 156.55 108.078 173.3 -66.3826 106.05 184.981 -57.0928 135.085 165.1 -130.343 163.385 174.464 -123.758 178.492 184.364 -95.2094 132.368 234.059 -61.0135 4.05113 10.9425 71.3306 
162.464 146.052 167.968 170.178 164.904 157.999 104.304 160.052 165.502 156.305 106.802 173.918 -67.1075 105.468 186.246 -57.5132 134.426 166.183 -130.826 162.284 175.028 -123.822 177.168 184.639 -95.2388 131.828 234.537 -61.107 3.85774 10.5171 71.8239 
162.47 146.013 167.928 170.157 165.12 158.033 103.231 160.147 165.244 155.8 105.814 174.816 -68.1127 105.131 187.756 -58.0283 134.24 167.486 -131.601 161.646 175.736 -124.019 176.034 184.989 -95.2056 131.442 235.18 -61.2678 3.69584 10.0218 72.5155 
162.501 146.172 167.943 170.207 165.692 158.004 102.013 159.933 164.753 155.063 105.166 175.995 -69.5157 104.961 189.712 -58.6202 134.065 168.639 -131.928 160.807 176.196 -123.928 174.527 185.15 -94.9199 131.226 236.009 -61.5945 3.55121 9.43938 72.8896 
162.344 145.946 167.827 170.159 166.008 157.817 101.179 159.524 164.248 154.338 104.663 176.847 -70.5727 104.63 191.072 -59.3198 133.594 169.492 -131.847 159.808 176.461 -123.586 172.978 185.189 -94.5567 130.865 236.602 -61.8292 3.5111 8.98512 72.6178 
162.25 145.412 167.718 170.11 166.475 157.761 100.841 159.191 163.882 154.25 103.849 177.484 -71.2175 104.116 191.822 -60.16 132.679 170.022 -131.556 158.61 176.544 -123.166 171.716 185.198 -94.3627 130.363 237.093 -61.9729 3.39114 8.72658 71.6849 
162.133 144.879 167.746 170.089 166.854 157.551 100.348 159.153 163.735 154.442 103.044 178.056 -71.5134 103.557 192.564 -60.5274 131.953 170.405 -131.317 157.592 176.581 -122.832 170.636 185.21 -94.1726 129.78 237.482 -61.9005 3.25907 8.48489 71.2659 
162.034 144.186 167.69 169.996 166.788 157.324 99.9695 159.27 163.785 154.568 102.046 178.526 -71.7063 102.905 192.819 -61.0551 131.193 170.666 -131.453 156.832 176.539 -122.813 169.751 185.046 -94.0905 129.139 237.651 -61.7937 3.26016 8.38728 70.8096 
161.932 143.919 167.697 169.941 166.992 157.054 99.3743 159.333 163.712 154.732 101.305 179.22 -71.8646 102.277 193.528 -61.446 130.564 171.17 -131.553 156.08 176.722 -122.702 168.867 185.172 -93.9779 128.572 238.027 -61.6594 3.17107 8.21899 70.6153 
161.927 144.324 167.587 169.931 167.806 156.863 98.4731 159.033 163 154.204 101.14 180.144 -72.9778 101.903 194.759 -62.2369 130.451 172.016 -131.831 155.299 176.879 -122.339 167.375 185.279 -93.5815 128.228 238.565 -61.8186 3.19948 7.56574 70.4905 
161.881 144.438 167.616 169.996 168.516 156.641 97.8765 158.91 162.397 153.261 100.925 181.28 -74.2019 101.463 196.047 -63.013 130.376 172.807 -132.02 154.367 176.839 -121.808 165.432 185.105 -92.8299 127.944 239.178 -62.0012 3.73215 6.75004 70.223 
161.913 144.364 167.607 169.95 168.739 156.62 97.8196 158.969 162.197 152.915 100.386 181.971 -75.0031 100.918 196.668 -63.6346 130.218 173.339 -132.243 153.726 176.821 -121.53 164.213 184.986 -92.2943 127.548 239.605 -62.1371 4.1923 6.2553 69.884 
161.893 144.024 167.683 169.864 168.394 156.532 97.8021 159.222 162.406 153.274 99.5431 182.181 -75.2449 100.125 196.983 -63.5839 129.713 173.343 -132.346 153.087 176.667 -121.633 163.6 184.79 -92.3459 126.919 239.674 -62.2013 4.15411 6.1688 70.0934 
161.714 143.818 167.643 169.664 168.215 156.339 97.7625 159.358 162.606 153.382 98.8139 182.34 -75.1983 99.314 197.235 -63.4536 129.317 173.428 -132.509 152.812 176.751 -121.849 163.124 184.735 -92.2774 126.349 239.717 -62.2816 4.42498 6.29023 70.5325 
161.705 143.501 167.706 169.674 168.255 156.327 98.0453 159.567 162.948 154.513 97.6579 182.577 -75.0563 97.8603 197.508 -63.3694 128.221 173.449 -132.683 151.861 176.706 -122.169 162.7 184.584 -92.7847 125.62 239.746 -62.3277 3.93949 6.48756 70.8207 
161.785 143.686 167.536 169.591 168.729 156.406 98.4282 159.452 162.813 154.779 96.5955 182.919 -75.1569 96.6334 197.723 -63.5142 127.325 173.675 -132.935 150.953 176.661 -122.27 161.963 184.445 -92.8992 125.081 239.885 -62.4276 3.84977 6.42561 70.8763 
161.86 143.843 167.388 169.557 169.285 156.328 99.0004 159.197 162.479 154.26 95.7878 183.205 -75.3107 95.4909 197.626 -63.5861 126.337 173.572 -132.726 149.831 176.348 -121.952 160.536 184.101 -92.3611 124.431 239.965 -62.5073 4.31643 6.2552 70.5078 
161.952 144.125 167.252 169.513 169.233 156.431 99.3893 158.983 162.398 154.318 94.8587 183.179 -75.1048 94.3144 197.424 -63.1534 125.344 173.342 -132.283 148.81 176.041 -121.589 159.491 183.825 -91.9627 123.554 239.941 -62.3036 4.42857 6.19908 70.5128 
162.002 143.777 167.306 169.538 168.978 156.461 99.5857 159.15 162.693 154.759 93.493 183.217 -74.7246 93.1868 197.367 -62.6255 124.289 173.186 -132.184 147.975 175.998 -121.693 158.98 183.815 -92.1757 122.701 239.897 -62.2141 4.21655 6.37905 70.9101 
162.024 143.744 167.327 169.519 169.051 156.504 99.6176 159.242 162.817 155.11 92.2337 183.495 -74.5246 92.056 197.579 -62.4441 123.369 173.438 -132.403 147.132 176.319 -121.989 158.305 184.099 -92.5369 121.912 240.049 -62.1685 4.03807 6.47023 71.2788 
162.11 144.064 167.378 169.548 169.608 156.568 99.7828 159.21 162.595 154.774 91.2957 184.018 -74.9209 91.0208 198.036 -62.6149 122.651 174.054 -132.84 146.181 176.684 -122.169 157.117 184.332 -92.6036 121.279 240.359 -62.2589 4.1945 6.2518 71.5269 
162.173 144.728 167.127 169.375 169.912 156.743 99.4926 158.935 162.166 154.233 90.3053 184.377 -75.3055 90.0333 198.578 -62.5535 122.071 174.55 -133.079 145.348 176.954 -122.194 155.911 184.515 -92.3532 120.495 240.66 -62.2712 4.60163 5.96561 72.0061 
162.221 144.928 166.948 169.324 169.695 156.884 99.5984 158.746 162.051 154.146 89.1778 184.457 -75.0337 89.0045 198.498 -62.3205 121.077 174.753 -132.971 144.356 177.144 -122.105 155.023 184.697 -92.2633 119.56 240.814 -62.0404 4.59114 5.90811 72.03 
162.154 144.932 166.85 169.324 169.238 156.881 99.5966 158.58 162.26 154.793 88.0373 184.537 -74.5134 87.9286 198.608 -61.9655 119.904 174.792 -132.732 143.474 177.429 -122.313 154.705 185.01 -92.6996 118.622 240.956 -61.8805 4.12072 6.24487 72.1564 
162.192 145.026 167.085 169.61 170.054 156.79 100.03 158.62 162.38 155.304 86.881 185.284 -74.4745 86.4698 199.257 -62.0805 118.477 175.319 -132.846 141.974 177.748 -122.531 153.425 185.231 -93.1449 117.858 241.395 -61.9061 3.80315 6.27176 72.0276 
162.189 145.366 166.918 169.486 170.195 156.885 100.219 158.364 162.223 155.264 85.8851 185.404 -74.3042 85.1684 199.469 -61.9202 117.363 175.76 -132.949 140.902 178.165 -122.701 152.441 185.562 -93.3596 116.89 241.561 -61.771 3.66094 6.34039 72.2764 
162.162 145.128 166.752 169.411 169.932 156.962 99.8046 158.263 162.208 155.305 84.8654 185.245 -73.6043 84.2345 199.308 -61.6722 116.423 175.801 -132.817 140.067 178.438 -122.661 151.843 185.942 -93.3764 115.805 241.583 -61.4152 3.4789 6.41648 72.3687 
162.28 144.533 167.014 169.662 170.346 157.097 99.362 158.462 162.361 155.317 83.5644 185.427 -73.067 83.4334 199.552 -61.37 115.234 175.634 -132.562 138.954 178.434 -122.49 150.951 186.206 -93.3287 114.958 241.789 -61.3173 3.35773 6.43461 72.3724 
162.402 144.531 167.255 169.907 170.912 157.318 98.9953 158.58 162.382 155.244 82.5488 185.862 -73.2774 82.6374 200.065 -61.353 114.359 175.889 -132.694 137.936 178.575 -122.408 149.65 186.511 -93.2452 114.14 242.154 -61.3198 3.44927 6.20818 72.5277 
162.382 144.639 167.167 169.79 171.078 157.409 98.7002 158.468 162.215 154.709 81.5488 186.19 -73.3382 81.7265 200.546 -61.2908 113.403 176.21 -132.902 137.019 178.858 -122.533 148.452 186.764 -93.1773 113.303 242.44 -61.3942 3.74377 6.17285 72.8538 
162.303 143.938 167.294 169.895 171.146 157.273 98.3153 158.512 162.173 154.834 79.5161 186.64 -73.0126 79.9394 200.815 -61.3618 111.187 176.371 -132.693 134.777 178.977 -122.229 146.344 187.079 -92.9947 111.311 242.866 -61.1665 3.63197 6.03437 72.3733 
162.273 143.521 167.551 170.041 171.418 157.087 98.0643 158.83 162.441 154.698 78.6363 187.078 -73.0253 79.3222 201.419 -60.9419 110.345 176.552 -132.698 133.942 179.224 -122.263 145.25 187.339 -92.9836 110.634 243.053 -61.118 3.78791 6.07798 72.8502 
162.35 143.524 167.569 170.022 171.362 157.24 97.9084 158.832 162.413 154.778 77.6282 187.289 -73.1565 78.4197 201.815 -60.696 109.399 176.793 -132.769 132.932 179.508 -122.367 144.334 187.675 -93.2277 109.698 243.237 -61.0608 3.59457 6.05158 73.1949 
162.381 142.942 167.346 169.824 170.782 157.346 97.9102 158.788 162.417 154.88 76.2405 187.237 -72.668 77.4849 201.442 -60.4743 108.302 176.774 -132.684 132.145 179.69 -122.466 143.95 187.801 -93.3501 108.633 243.199 -60.8008 3.41037 6.26382 73.1091 
162.469 142.608 167.195 169.589 170.848 157.513 96.8552 158.472 161.763 153.706 74.9839 187.655 -72.2994 76.871 201.613 -60.3032 107.552 176.858 -132.427 131.393 179.687 -122.01 143.146 188.017 -92.8215 107.613 243.37 -60.4865 3.46235 6.10575 73.271 
162.332 142.724 167.224 169.594 171.295 157.365 96.9127 158.417 161.625 153.654 73.7635 188.113 -72.3965 75.9781 201.977 -60.1803 106.667 177.279 -132.439 130.201 179.998 -121.83 141.88 188.29 -92.8934 106.797 243.509 -60.4581 3.33417 5.90329 73.5731 
162.251 142.823 167.138 169.469 171.655 157.311 97.0495 158.408 161.526 153.555 72.5518 188.775 -72.5897 74.8572 202.567 -60.2708 105.889 178.106 -132.871 129.291 180.649 -122.012 140.767 188.647 -93.0119 106.053 243.814 -60.4759 3.46988 5.8093 74.0038 
162.213 142.856 166.902 169.284 171.601 157.432 97.2509 158.363 161.546 153.831 71.2933 189.108 -72.3424 73.6924 202.653 -60.2185 105.008 178.678 -133.022 128.57 181.173 -122.111 140.129 188.945 -92.9976 105.129 244.062 -60.2404 3.51045 5.87861 74.0982 
162.223 142.828 166.804 169.195 172.055 157.497 97.0625 158.233 161.315 154.041 70.3121 189.842 -72.3994 73.0551 203.027 -60.3503 104.556 179.141 -132.866 127.985 181.478 -121.675 139.372 189.28 -92.5846 104.432 244.578 -60.1115 3.6814 5.64553 73.8946 
162.202 142.332 166.837 169.185 172.302 157.45 96.8593 158.375 161.308 154.133 69.206 190.385 -72.4835 72.5062 203.381 -60.3451 103.959 179.473 -132.735 127.215 181.724 -121.316 138.54 189.628 -92.406 103.667 244.873 -60.037 3.62016 5.46249 73.8968 
162.105 142.137 166.755 169.073 172.581 157.333 96.6131 158.405 161.24 154.333 68.0058 190.812 -72.5739 71.6347 203.785 -60.3271 103.229 179.945 -132.893 126.327 182.085 -121.305 137.664 189.954 -92.6091 102.81 245.015 -59.9781 3.42942 5.33428 74.2343 
162.029 142.099 166.72 169.024 172.353 157.253 96.7386 158.471 161.3 154.613 67.2236 191.259 -72.8988 70.4789 203.976 -60.6153 102.462 180.57 -133.226 125.549 182.536 -121.489 136.871 190.195 -92.75 101.853 245.25 -59.7917 3.34319 5.30162 74.1256 
161.875 141.958 166.564 168.881 172.757 157.093 96.9601 158.308 161.105 154.564 66.0985 191.98 -72.9647 69.4483 204.291 -60.7938 101.581 181.072 -133.263 124.711 182.852 -121.323 135.795 190.364 -92.4969 101.061 245.608 -59.7342 3.60339 5.27141 73.9349 
161.821 141.532 166.526 168.909 173.488 157.064 97.0073 158.465 161.245 155.08 64.9267 192.305 -72.6532 68.5415 204.293 -60.7278 100.663 181.131 -133.148 123.888 182.901 -121.037 134.972 190.569 -92.3807 100.235 245.761 -59.6167 3.49904 5.27313 73.8665 
161.674 141.515 166.398 168.961 174.805 157.022 96.6655 158.386 161.162 155.999 63.9805 192.856 -72.8136 67.6252 204.665 -61.084 100.106 181.685 -133.273 123.22 183.316 -120.871 134.191 191.05 -92.6311 99.4256 246.037 -59.5507 3.22269 5.16054 73.8714 
161.246 141.526 166.3 169.025 175.12 156.808 96.4956 158.288 161.035 156.505 62.9822 193.779 -73.3691 66.1993 205.383 -61.7954 99.4425 182.45 -133.666 122.351 183.658 -120.892 132.875 191.095 -92.6326 98.6016 246.317 -59.5412 3.41613 5.03207 73.8103 
161.07 141.639 166.239 169.034 175.117 156.869 96.3531 157.988 160.57 156.443 62.0676 194.525 -74.2536 65.021 206.014 -62.5734 98.7492 182.847 -133.894 121.418 183.529 -120.571 131.396 190.82 -92.1752 97.8694 246.568 -59.7031 3.91826 4.78592 73.4483 
160.757 142.104 165.858 168.678 174.177 156.856 95.9957 157.726 160.313 156.718 61.2626 194.95 -74.0505 63.846 206.347 -62.9098 98.2287 183.368 -134.076 121 183.68 -120.169 130.466 190.88 -91.6413 96.9918 246.863 -59.539 4.22631 4.80164 73.6458 
160.186 142.356 165.618 168.54 172.391 156.452 96.2252 157.735 160.353 156.907 60.1674 195.314 -73.6873 62.5428 206.331 -63.0254 97.373 183.624 -134.304 120.161 183.588 -119.993 129.118 190.61 -91.2578 96.0775 246.884 -59.4781 4.68122 4.80656 73.9134 
159.8 142.902 165.232 168.4 170.691 156.175 96.3143 157.528 160.28 156.478 59.1621 195.66 -73.5724 61.2489 206.386 -63.102 96.5299 183.806 -134.536 119.367 183.41 -119.817 127.485 190.045 -90.4228 95.182 246.866 -59.4178 5.69291 4.85084 74.2806 
159.429 143.104 165.221 168.415 170.226 155.894 96.6853 157.156 160.11 156.153 58.5607 195.994 -73.8416 59.8609 206.623 -63.4338 95.4139 183.851 -134.524 118.219 183.228 -119.744 125.91 189.547 -89.9872 94.3019 246.945 -59.5638 6.26349 4.87853 74.0729 
158.989 142.878 165.314 168.475 170.886 155.482 97.3964 157.031 160.291 156.022 57.84 196.569 -73.8204 58.2093 206.671 -64.0061 94.044 183.852 -134.545 117.146 183.19 -119.898 124.461 189.164 -89.5067 93.4253 247.153 -59.6228 6.87834 5.15969 73.3384 
158.472 142.834 165.215 168.408 173.656 154.95 97.9449 157.223 160.708 156.202 57.0255 196.609 -73.0534 56.6175 206.325 -63.9226 92.6951 183.492 -134.441 116.098 183.097 -120.066 123.473 188.872 -89.37 92.383 247.016 -59.4819 6.87577 5.47202 73.2343 
158.009 143.021 165.207 168.726 175.037 154.439 98.1784 157.177 161.041 155.839 56.4264 196.81 -73.1356 55.5117 206.29 -63.812 91.7335 183.401 -134.578 115.194 183.075 -120.382 122.217 188.482 -89.1803 91.4899 246.867 -59.5862 7.40125 5.6036 73.6149 
157.894 142.936 165.364 169.021 176.341 154.123 98.6499 157.066 161.2 155.474 55.5757 197.033 -73.1914 54.1822 206.331 -63.8493 90.4786 183.106 -134.417 113.933 182.785 -120.45 120.7 187.936 -88.8202 90.5848 246.839 -59.712 7.8813 5.68191 73.4684 
157.86 142.677 165.611 169.197 177.956 153.969 99.2423 156.921 161.201 155.156 54.6685 197.559 -73.3923 52.6755 206.73 -64.2866 89.2664 183.211 -134.328 112.689 182.777 -120.532 119.222 187.618 -88.4552 89.7893 247.083 -59.8221 8.30753 5.7723 72.9972 
157.717 142.803 165.836 169.303 179.906 153.742 99.6101 157.102 161.535 154.532 53.8385 197.868 -73.3724 51.3992 207.035 -64.1144 88.3104 183.317 -134.429 111.971 182.934 -120.747 117.837 187.373 -87.7898 88.9443 247.23 -59.8319 9.33092 6.01722 73.2967 
157.563 142.931 165.81 169.365 179.347 153.529 99.7509 157.15 161.696 153.549 53.0238 198.081 -73.1373 50.3315 207.2 -63.9471 87.3616 183.325 -134.51 111.194 182.977 -120.873 116.543 187.04 -87.0035 88.1667 247.334 -59.8869 10.3862 6.16101 73.5824 
157.595 142.905 165.841 169.394 178.711 153.484 100.052 157.052 161.664 152.941 51.8832 198.177 -73.0426 49.1751 207.291 -63.9828 86.0502 183.19 -134.521 109.925 182.812 -120.974 115.33 186.706 -86.7568 87.392 247.344 -60.0157 10.6457 6.22394 73.504 
157.819 142.57 165.965 169.34 178.749 153.578 100.241 157.013 161.538 152.374 50.5568 198.463 -73.0472 48.1463 207.499 -63.9847 84.7763 183.096 -134.346 108.716 182.685 -120.894 114.319 186.574 -86.5044 86.6167 247.514 -60.057 10.6862 6.27036 73.2392 
157.754 142.431 166.117 169.24 179.113 153.472 100.492 156.976 161.456 151.601 49.517 198.785 -73.0207 47.0674 207.862 -64.0454 83.6771 183.285 -134.323 107.597 182.865 -120.993 113.143 186.63 -86.2704 85.8329 247.738 -60.0757 10.9368 6.31464 73.1218 
157.619 142.584 166.073 169.066 179.861 153.341 100.795 156.678 161.174 150.322 48.7732 198.995 -72.7701 46.0496 208.217 -64.0236 82.6647 183.577 -134.187 106.645 183.17 -120.921 111.848 186.656 -85.5033 85.0872 248.081 -60.0877 11.7731 6.39035 72.9956 
157.411 142.687 165.892 168.983 178.924 153.148 101.224 156.479 161.123 149.981 47.7848 199.031 -72.1633 44.9518 208.322 -63.7071 81.2287 183.467 -133.93 105.293 183.06 -120.868 110.818 186.482 -85.2923 84.2686 248.193 -60.1448 11.804 6.47794 72.9547 
157.29 142.392 165.774 168.884 177.626 153.003 101.402 156.322 160.975 149.864 46.4244 199.271 -71.7303 43.7891 208.592 -63.5878 79.8205 183.188 -133.53 103.823 182.679 -120.576 109.684 186.113 -85.0305 83.4428 248.251 -60.1548 11.6326 6.47497 72.7639 
156.998 142.386 165.798 168.688 176.285 152.674 101.566 156.171 160.737 149.446 45.2766 199.675 -71.6107 42.9188 208.933 -63.4441 78.7006 183.225 -133.198 102.627 182.57 -120.292 108.691 186.016 -84.764 82.6931 248.388 -60.1303 11.5116 6.46096 72.6979 
156.725 142.634 165.715 168.479 175.473 152.538 101.58 155.917 160.3 148.36 44.4934 200.2 -71.7963 42.2399 209.468 -63.455 78.0589 183.65 -133.204 101.899 182.716 -120.044 107.521 186.042 -84.0246 82.0806 248.747 -60.2249 12.2435 6.34397 72.8564 
156.442 142.834 165.858 168.527 174.272 152.415 101.711 155.885 160.177 147.726 43.6505 200.64 -72.1839 41.3281 210.122 -63.4415 77.2683 183.953 -133.204 100.892 182.658 -119.925 106.149 185.732 -83.4526 81.3755 248.926 -60.3144 12.8261 6.21848 73.0857 
156.097 142.745 165.88 168.533 172.837 152.256 101.693 155.96 160.221 147.484 42.6846 201.037 -72.231 40.5208 210.563 -63.3035 76.272 184.038 -133.133 99.8315 182.487 -119.824 105.121 185.518 -83.2005 80.6549 249.063 -60.3754 12.9614 6.15574 73.2228 
155.846 142.504 165.916 168.583 171.329 151.965 101.727 155.972 160.305 147.697 41.496 201.831 -71.8917 39.4007 211.249 -63.1129 74.777 183.935 -132.581 98.3296 182.203 -119.481 104.083 185.323 -83.1287 79.8548 249.342 -60.3295 12.4548 6.22965 73.0084 
