165.074 159.295 172.284 172.313 174.48 153.978 115.757 167.413 168.248 169.136 -110.207 182.685 -19.4361 -112.496 187.563 -35.333 -56.0399 165.404 -97.3366 -41.0897 151.135 -71.2239 -31.4612 151.646 -35.7048 -65.8505 226.402 -7.52362 7.80428 7.78294 67.2168 
165.306 159.109 172.582 172.391 174.577 154.191 115.941 167.647 168.282 169.287 -109.294 182.875 -19.3382 -111.854 187.716 -35.272 -55.3087 165.479 -97.0807 -40.0835 151.496 -70.9985 -30.3499 152.367 -35.525 -65.1463 226.947 -7.52531 7.77673 7.76702 66.9946 
165.918 159.095 173.096 172.654 174.802 154.826 116.491 168.076 168.775 169.888 -108.231 182.995 -19.47 -111.297 187.61 -34.6953 -54.6302 165.14 -96.6678 -38.734 151.717 -70.9909 -28.9909 152.957 -35.4341 -64.4869 227.387 -7.53296 7.79982 7.65177 67.0605 
166.708 159.25 173.511 172.925 175.082 155.34 116.37 168.446 169.358 170.539 -106.868 182.609 -19.2865 -110.713 187.543 -33.2721 -53.96 164.304 -96.1477 -37.1761 151.498 -70.8133 -27.5569 153.15 -35.1114 -63.734 227.523 -7.52536 7.80624 7.69466 67.8815 
167.153 159.087 173.835 173.132 175.193 155.625 116.441 168.682 169.676 170.876 -105.744 182.318 -19.2511 -109.888 187.463 -32.8484 -53.2784 163.92 -95.9567 -35.7926 151.452 -70.8927 -26.2526 153.339 -35.1014 -62.9832 227.662 -7.5124 7.80353 7.80652 67.9018 
167.324 158.877 173.951 173.267 175.331 155.862 116.652 168.92 169.984 171.289 -105.069 182.263 -19.1928 -109.297 187.478 -32.5083 -52.7554 163.786 -96.2036 -34.727 151.466 -71.3573 -25.1654 153.41 -35.5333 -62.271 227.765 -7.53845 7.80396 7.91692 68.0726 
167.778 158.689 174.919 173.601 175.543 156.552 117.329 169.821 170.482 171.829 -103.124 181.983 -18.9776 -108.016 187.044 -31.5544 -51.5846 162.751 -95.9038 -32.5818 151.029 -71.8123 -23.162 153.498 -35.9114 -60.7777 227.863 -7.38067 7.60488 7.94886 68.0588 
167.866 158.782 175.693 173.696 175.606 156.738 117.174 170.849 170.605 172.012 -102.6 181.97 -19.2022 -108.051 187.462 -30.696 -51.279 161.885 -96.1375 -31.8421 150.577 -72.3298 -22.4396 153.213 -36.5046 -60.1324 227.612 -7.37077 7.45353 7.92817 68.8177 
167.707 158.179 176.208 173.551 175.471 156.401 116.716 171.205 170.414 171.879 -102.293 182.322 -19.3612 -107.512 187.977 -30.357 -51.1144 161.999 -96.4218 -31.2987 150.732 -72.9225 -21.6915 153.207 -37.2323 -59.3507 227.569 -7.37804 7.43102 7.98156 69.0407 
167.145 157.861 176.428 173.493 175.347 156.005 116.351 171.595 170.325 171.814 -102.216 182.869 -19.746 -107.082 188.273 -30.1477 -51.174 162.225 -96.7628 -30.8139 150.85 -73.7523 -20.9791 153 -38.1917 -58.6222 227.293 -7.36868 7.42442 8.11825 69.1832 
166.592 157.611 176.513 173.45 175.196 155.745 116.141 172.002 170.207 171.633 -102.076 183.474 -20.0987 -106.388 188.303 -29.9138 -50.7503 162.425 -96.6137 -30.0675 151.095 -73.9391 -20.1005 153.101 -38.5028 -57.906 227.209 -7.19986 7.39878 8.17081 69.1339 
166.247 157.505 176.042 173.483 175.148 155.765 116.325 172.466 170.197 171.554 -101.678 183.841 -20.5089 -105.813 188.016 -29.4928 -50.4071 162.065 -96.3756 -29.4746 151.087 -74.0783 -19.3419 153.236 -38.8466 -57.2021 227.034 -7.11424 7.28525 8.10165 69.0595 
166.187 157.325 175.631 173.543 175.207 155.972 116.246 172.797 170.265 171.6 -101.126 184.023 -20.6162 -105.286 187.975 -28.6731 -49.9179 161.46 -95.9341 -28.6496 150.895 -73.8894 -18.4435 153.289 -38.7445 -56.5436 227.039 -6.97591 7.21031 8.11394 69.3246 
166.37 157.121 175.321 173.609 175.208 156.139 116.069 173.115 170.331 171.533 -100.399 183.881 -20.6443 -104.479 187.736 -28.1674 -49.1784 160.697 -95.4103 -27.7462 150.405 -73.4535 -17.6843 153.015 -38.3852 -55.7705 226.865 -6.8635 7.0676 8.13205 69.3913 
166.217 156.761 175.177 173.547 175.118 156.133 115.692 172.963 170.31 171.411 -100.003 183.878 -20.5499 -103.806 187.62 -27.7342 -48.5147 160.244 -94.8423 -26.7986 150.067 -72.8901 -16.7396 152.657 -37.8079 -55.0076 226.637 -6.64666 7.11584 8.28783 69.5209 
165.68 156.206 175.367 173.45 175.026 156.082 115.268 172.371 170.238 171.251 -99.5986 184.005 -20.4403 -102.929 187.493 -27.35 -47.7913 160.226 -94.3796 -25.965 150.09 -72.4087 -15.8363 152.621 -37.3315 -54.2996 226.617 -6.46655 7.18821 8.35274 69.6442 
165.17 156.322 175.741 173.43 175.025 156.031 115.632 172.366 170.21 171.212 -98.9461 184.288 -20.4677 -102.154 187.259 -27.2715 -47.1109 160.386 -94.1042 -25.3206 150.29 -72.2542 -15.1806 152.773 -37.2211 -53.6118 226.686 -6.28675 7.17433 8.3046 69.4293 
164.891 156.17 175.698 173.479 175.065 156.086 116.044 172.519 170.181 171.141 -98.3792 184.707 -20.5767 -101.395 187.111 -27.1721 -46.416 160.342 -93.7755 -24.8786 150.31 -72.0298 -14.7692 152.899 -37.075 -52.8836 226.817 -6.09183 7.06505 8.10874 69.1224 
164.672 156.081 175.286 173.546 175.09 156.223 116.251 172.63 170.228 171.118 -97.6827 184.669 -20.5588 -100.759 186.817 -26.8728 -45.7918 159.77 -93.5267 -24.3676 149.788 -71.8877 -14.287 152.53 -37.0096 -52.1195 226.622 -5.99027 6.93316 7.96953 69.067 
164.062 155.626 175.046 173.437 175.045 156.223 116.022 172.49 170.179 171.074 -97.3114 184.677 -20.4623 -100.113 186.603 -26.8139 -45.3208 159.435 -93.2498 -23.7837 149.353 -71.6327 -13.659 151.961 -36.7956 -51.3391 226.262 -5.82531 6.95703 8.0474 68.9345 
163.102 155.831 175.248 173.372 174.921 156.441 116.146 172.067 170.098 170.929 -96.9969 184.814 -20.3082 -99.551 186.397 -26.7424 -44.7845 159.4 -92.8661 -23.3133 149.266 -71.2273 -13.0596 151.832 -36.4151 -50.6984 226.185 -5.55621 7.01896 8.01885 68.723 
162.283 156.196 175.606 173.346 174.865 156.908 116.606 171.802 170.111 170.887 -96.6226 185.102 -20.1039 -99.1754 186.344 -26.5826 -44.3259 159.434 -92.451 -22.7765 149.33 -70.8647 -12.4473 151.961 -35.9995 -50.1097 226.407 -5.28588 7.07188 8.04351 68.4842 
161.116 156.402 176.215 173.417 174.901 157.646 117.154 171.917 170.103 170.814 -95.7972 185.631 -19.7934 -98.0312 186.601 -26.2506 -43.5548 159.688 -92.1068 -22.2357 149.5 -70.763 -11.7108 152.3 -35.9422 -48.8033 226.9 -4.99807 7.01217 7.82232 68.1214 
160.73 156.295 176.362 173.562 175.066 158.166 117.194 172.108 170.298 170.941 -95.2954 185.464 -19.7096 -97.6531 186.612 -25.9079 -43.0786 159.536 -91.8557 -21.6447 149.323 -70.4029 -11.2342 152.234 -35.5187 -48.343 226.922 -4.86678 6.98855 7.92205 68.2651 
160.401 156.255 176.39 173.591 175.091 158.436 117.2 172.045 170.416 171.05 -94.6565 185.331 -19.4895 -96.9862 186.603 -25.9634 -42.483 159.659 -91.7268 -20.8651 149.292 -70.1715 -10.4507 152.105 -35.2053 -47.6495 226.903 -4.71354 7.09404 8.11007 68.1444 
159.825 156.471 175.423 173.561 175.083 158.819 117.446 171.993 170.495 171.152 -94.1048 185.537 -19.4728 -96.4275 186.562 -26.0622 -41.6415 159.909 -91.7056 -19.9268 149.454 -70.047 -9.52796 152.177 -34.944 -47.0164 227.015 -4.55771 7.21568 8.22893 68.1202 
159.285 156.839 174.703 173.584 175.115 159.412 117.85 172.039 170.582 171.27 -93.5085 185.794 -19.4487 -96.0984 186.84 -26.0457 -40.9751 160.304 -91.796 -19.2544 149.742 -70.1996 -8.80884 152.299 -35.0221 -46.3368 227.194 -4.40387 7.29865 8.24515 68.221 
159.125 156.769 174.245 173.673 175.147 159.838 117.822 172.132 170.661 171.288 -92.9437 186.052 -19.4854 -95.4195 187.022 -26.0085 -40.178 160.495 -91.7169 -18.6294 149.857 -70.1882 -8.24268 152.26 -35.0172 -45.5275 227.244 -4.26315 7.2677 8.14393 68.2354 
158.727 156.439 173.851 173.726 175.158 159.975 117.337 172.265 170.766 171.325 -92.4544 186.291 -19.4255 -94.7783 187.489 -25.9188 -39.586 160.902 -91.7873 -18.0282 150.129 -70.3855 -7.71706 152.164 -35.1827 -44.7635 227.16 -4.10663 7.27419 8.15167 68.4785 
158.004 155.89 173.403 173.696 175.106 159.837 116.617 172.336 170.728 171.247 -91.952 186.332 -19.4315 -94.009 187.761 -26.0383 -38.8546 161.401 -91.9396 -17.289 150.396 -70.6005 -7.03408 151.967 -35.349 -44.0091 226.846 -3.94782 7.33859 8.20373 68.6775 
157.492 155.401 173.102 173.671 175.029 159.824 116.089 172.325 170.774 171.219 -91.3773 186.282 -19.1845 -93.2893 187.772 -25.9005 -37.7963 161.636 -91.7102 -16.2185 150.747 -70.3371 -5.97537 152.117 -34.9917 -43.4331 226.778 -3.65419 7.45768 8.21152 68.9014 
157.046 155.236 172.789 173.61 174.943 160.051 115.617 172.319 170.73 171.148 -90.6971 185.949 -18.9322 -92.555 187.722 -25.6304 -36.8123 161.579 -91.3916 -15.2101 150.817 -70.0129 -4.96201 152.112 -34.6222 -42.7773 226.648 -3.43395 7.52851 8.20353 69.1294 
156.901 155.453 172.627 173.549 174.903 160.284 115.703 172.227 170.646 171.12 -90.0188 186.016 -18.9229 -91.9311 187.912 -25.9137 -36.0558 161.679 -91.47 -14.5377 150.789 -70.1587 -4.36824 151.978 -34.7141 -42.0298 226.598 -3.34321 7.53447 8.18807 69.012 
156.747 155.236 172.573 173.505 174.824 160.101 115.627 172.22 170.51 170.978 -89.4318 185.877 -18.7086 -91.2411 187.697 -25.8121 -35.6756 161.287 -91.2537 -14.1941 150.443 -70.0359 -3.91311 151.72 -34.6949 -41.2843 226.306 -3.23668 7.47249 8.1175 68.8075 
156.604 154.882 172.465 173.458 174.764 159.997 115.354 172.182 170.436 170.922 -88.9179 185.825 -18.6682 -90.6639 187.707 -25.4712 -35.4085 161.023 -91.0677 -13.7264 150.151 -70.071 -3.26889 151.429 -34.878 -40.5448 225.974 -3.14905 7.43816 8.16925 68.8955 
156.556 154.225 172.428 173.423 174.695 159.854 114.896 172.161 170.426 170.856 -88.3279 185.794 -18.5951 -89.8698 187.714 -25.1456 -34.662 160.799 -90.8367 -12.8244 150.066 -69.8109 -2.31182 151.328 -34.6318 -39.8017 225.732 -2.95434 7.47057 8.24038 69.1087 
156.526 153.609 172.331 173.357 174.628 159.96 114.449 172.175 170.382 170.742 -87.7478 185.696 -18.5685 -88.9755 187.372 -24.8705 -33.611 160.077 -90.2241 -11.6343 149.605 -68.9562 -1.20734 151.13 -33.7598 -39.0528 225.5 -2.78665 7.46193 8.33663 69.1815 
156.447 153.327 172.298 173.242 174.52 160.197 113.984 172.059 170.253 170.628 -87.2863 185.737 -18.5758 -88.3895 187.457 -24.4551 -33.088 159.516 -89.7317 -10.8758 149.256 -68.4434 -0.256862 151.06 -33.2645 -38.3108 225.374 -2.69816 7.51621 8.43041 69.3528 
156.659 153.231 172.406 173.251 174.568 160.4 113.939 172.107 170.321 170.703 -86.5909 185.698 -18.4529 -87.7416 187.49 -23.798 -32.3281 159.118 -89.6264 -9.99826 148.966 -68.3307 0.60224 150.979 -33.0905 -37.5334 225.319 -2.60194 7.48858 8.47022 69.8568 
156.75 153.119 172.569 173.254 174.644 160.565 113.855 172.23 170.342 170.788 -85.9128 185.5 -18.1143 -87.1429 187.609 -23.1126 -31.7353 158.727 -89.4907 -9.26253 148.576 -68.2447 1.38872 150.756 -33.0369 -36.6808 225.201 -2.52244 7.44017 8.52125 70.3295 
156.965 152.45 172.55 173.227 174.586 160.47 113.431 172.343 170.326 170.655 -84.8794 185.112 -17.9917 -85.981 187.22 -22.7264 -30.2893 158.169 -88.9053 -7.78777 148.155 -67.4399 2.67965 150.675 -32.2731 -35.7766 225.01 -2.32468 7.34246 8.57364 70.5175 
157.015 151.801 172.439 173.195 174.507 160.479 113.007 172.388 170.337 170.555 -83.9124 184.818 -17.9024 -84.8992 186.735 -22.4235 -29.0642 157.631 -88.2922 -6.45026 147.913 -66.7107 4.00446 150.777 -31.5323 -34.9075 224.823 -2.16941 7.32755 8.61047 70.559 
157.339 151.152 172.947 173.119 174.424 160.268 112.615 171.88 170.263 170.425 -82.8623 184.747 -17.8964 -83.611 186.441 -22.2795 -27.9133 157.504 -87.9646 -5.38508 148.123 -66.2909 5.06145 151.153 -31.0375 -34.097 224.927 -2.009 7.36215 8.53324 70.4101 
157.6 150.913 173.326 173.111 174.475 160.16 112.718 171.756 170.258 170.482 -81.7608 184.531 -17.9546 -82.7186 186.27 -22.3862 -27.2663 157.427 -88.1908 -4.62319 147.994 -66.5707 5.87203 151.074 -31.2548 -33.1526 224.757 -2.03572 7.36471 8.59316 70.272 
157.994 150.258 173.973 173.119 174.399 160.016 112.339 171.646 170.248 170.265 -80.575 184.138 -17.8293 -81.451 185.901 -22.2605 -26.0289 157.016 -87.6447 -3.33004 147.764 -65.8675 7.00118 151.19 -30.6324 -32.1984 224.737 -1.93188 7.22623 8.63299 70.0711 
158.415 149.719 174.298 173.073 174.322 160.014 112.064 171.533 170.187 170.047 -79.543 184.071 -18.0185 -80.4415 185.754 -22.4306 -24.78 156.697 -86.9526 -2.09118 147.55 -64.9546 7.97938 151.278 -29.7528 -31.3264 224.761 -1.69594 7.10992 8.70136 69.684 
158.961 149.24 174.936 173.032 174.32 160.074 111.748 171.357 170.179 170.056 -78.7454 184.062 -18.2059 -79.6214 185.742 -22.4356 -24.1894 156.381 -86.72 -1.23259 147.269 -64.6985 8.84266 151.147 -29.4582 -30.4429 224.593 -1.58269 7.12103 8.88458 69.5073 
159.243 148.745 175.632 172.961 174.309 160.128 111.538 171.116 170.102 170.002 -77.8465 183.758 -18.2131 -78.6091 185.391 -22.5077 -23.4769 156.039 -86.6466 -0.34354 146.871 -64.5155 9.71124 150.807 -29.1795 -29.5271 224.296 -1.53061 7.16309 9.03397 69.2914 
159.405 147.931 176.099 172.911 174.262 160.154 111.328 171.035 170.048 169.834 -76.8981 183.735 -18.5212 -77.5792 185.129 -22.8874 -22.201 155.909 -86.2874 0.963812 146.671 -63.8214 10.7303 150.664 -28.3684 -28.6258 224.115 -1.3323 7.16545 9.20191 68.9928 
159.934 147.393 176.358 172.892 174.275 160.177 111.198 171.024 170.074 169.82 -76.0038 183.976 -19.0052 -76.7792 185.35 -23.2718 -21.2173 156.303 -86.1359 2.11715 146.896 -63.5089 11.6428 150.861 -27.9664 -27.8188 224.144 -1.08611 7.13834 9.41993 68.7413 
160.462 146.867 176.649 172.754 174.188 160.259 111.015 170.791 169.952 169.737 -75.4148 184.219 -19.2989 -76.0926 185.598 -23.5521 -20.6133 156.888 -86.2644 2.92664 147.276 -63.5312 12.4493 151.084 -27.8323 -27.12 224.27 -0.962265 7.25028 9.619 68.5654 
160.656 146.431 176.69 172.591 174.111 160.272 110.814 170.409 169.757 169.633 -74.8894 184.506 -19.6517 -75.2627 185.715 -23.7826 -20.2558 157.414 -86.6235 3.57297 147.523 -63.8716 13.2189 151.132 -28.0094 -26.3541 224.245 -0.947382 7.39874 9.84607 68.3681 
160.746 145.887 176.544 172.509 174.066 160.37 110.302 169.904 169.642 169.522 -74.3732 184.587 -19.871 -74.4415 185.895 -23.8051 -19.9422 157.653 -86.5399 4.23295 147.557 -63.7778 13.8652 151.001 -27.8069 -25.6569 224.112 -0.814297 7.48925 10.1256 68.2427 
161.04 145.622 176.306 172.429 174.058 160.553 110.191 169.529 169.557 169.547 -73.9527 184.906 -20.2349 -73.9331 186.366 -23.959 -19.8029 158.279 -86.8031 4.77095 147.884 -64.1699 14.5064 151.116 -28.1316 -25.0004 224.2 -0.795512 7.57035 10.3832 68.1423 
161.418 145.498 175.902 172.433 174.098 160.636 110.335 169.205 169.579 169.597 -73.233 184.927 -20.4764 -73.4405 186.521 -23.8733 -19.619 158.673 -86.8467 5.38238 148.076 -64.3804 15.0886 151.147 -28.2947 -24.3533 224.159 -0.669095 7.57223 10.6489 68.0475 
161.594 145.621 175.272 172.373 174.067 160.426 110.288 168.757 169.507 169.579 -72.5053 185.11 -20.7776 -72.8113 186.824 -23.916 -19.3023 159.171 -86.9969 5.92325 148.339 -64.6689 15.5979 151.176 -28.5487 -23.7083 224.138 -0.594555 7.59493 10.828 68.0027 
161.35 145.802 174.344 172.316 174.052 160.312 110.172 168.228 169.504 169.666 -71.8168 185.086 -20.957 -72.2304 186.971 -23.9606 -18.9685 159.472 -87.3041 6.50075 148.517 -65.1738 16.1291 151.045 -28.918 -23.0814 223.958 -0.646342 7.68021 10.9966 68.1352 
161.043 146.038 173.565 172.288 174.063 160.346 109.984 167.716 169.53 169.758 -71.3715 185.396 -21.0646 -71.7758 187.439 -23.8236 -18.5738 159.731 -87.2895 7.08485 148.755 -65.34 16.6573 151.063 -28.979 -22.4855 224.034 -0.61535 7.76036 11.1249 68.3616 
161.006 145.929 172.874 172.243 174.097 160.507 109.819 167.307 169.507 169.801 -70.8042 185.51 -21.3276 -71.1115 187.641 -23.541 -18.0759 159.607 -87.1361 7.59622 148.749 -65.3405 17.1478 150.993 -28.934 -21.8468 224.046 -0.628227 7.79323 11.106 68.5274 
161.321 145.615 172.38 172.2 174.109 160.709 109.662 167.063 169.502 169.854 -70.2815 185.677 -21.6757 -70.4987 187.89 -23.4421 -17.6494 159.613 -87.1905 8.11589 148.886 -65.5587 17.6738 151.054 -29.1343 -21.2725 224.087 -0.659295 7.80499 11.1195 68.5905 
161.917 145.314 172.076 172.163 174.107 161.169 109.355 166.966 169.468 169.863 -69.8152 185.836 -21.9612 -69.9075 188.13 -23.0946 -17.2086 159.512 -87.1077 8.67974 148.977 -65.594 18.3136 151.235 -29.1843 -20.7118 224.219 -0.648548 7.80353 11.1286 68.7556 
162.312 145.534 171.928 172.176 174.129 161.508 109.334 166.971 169.542 169.837 -69.359 185.803 -21.9346 -69.4241 188.196 -22.5466 -16.8642 159.088 -86.8711 9.18505 148.772 -65.4077 18.7454 151.133 -29.0285 -20.1539 224.2 -0.842528 7.75681 11.2158 69.1939 
162.886 145.806 171.929 172.229 174.158 161.767 109.121 167.041 169.669 169.761 -69.1057 186.041 -21.855 -68.9917 188.562 -21.8451 -16.1391 158.615 -86.4678 9.77361 148.589 -64.8993 19.1046 151.039 -28.4622 -19.6361 224.309 -0.917218 7.72678 11.1605 69.9536 
162.703 147.701 171.765 172.181 174.29 162.421 110.216 166.746 169.626 169.632 -69.8763 186.592 -22.4011 -69.5086 188.669 -21.2454 -14.8983 157.757 -86.0454 10.0775 148.333 -64.5607 19.5408 150.307 -28.0471 -18.9166 223.895 -1.07782 7.98429 10.5075 71.268 
164.478 147.408 171.351 172.013 174.152 163.073 109.554 166.517 169.441 169.447 -69.2342 187.393 -23.8597 -68.2114 189.553 -21.5991 -13.117 157.955 -86.2722 11.327 148.623 -64.7539 20.497 150.317 -28.136 -17.7396 223.879 -1.00135 8.00492 10.2709 71.604 
165.621 147.4 171.461 172.08 174.126 163.647 109.581 166.719 169.509 169.311 -69.0076 187.545 -24.1662 -67.9083 189.89 -21.5113 -12.9521 157.929 -86.1712 11.5923 148.715 -64.6633 20.6366 150.462 -28.0471 -17.4002 224.005 -1.03298 7.93905 10.3524 71.5989 
166.679 147.336 171.648 172.145 174.142 164.062 109.781 166.962 169.599 169.197 -68.5538 187.434 -24.2556 -67.4744 189.732 -21.2429 -12.6537 157.565 -85.8886 12.1009 148.614 -64.4182 21.1199 150.633 -27.8014 -16.9634 224.048 -1.05902 7.86508 10.435 71.5042 
166.364 148.035 171.752 172.08 174.259 164.42 110.316 166.951 169.46 168.986 -69.1263 187.931 -24.653 -67.6827 189.677 -20.9243 -11.5454 156.928 -85.4867 12.462 148.383 -63.9618 21.6049 150.148 -27.3092 -16.418 223.695 -1.16734 8.03696 9.8857 72.4192 
167.401 147.684 171.616 172.068 174.17 164.576 109.317 167.017 169.468 169.035 -68.9475 187.935 -24.7583 -66.8338 189.539 -21.0498 -10.7966 156.535 -85.3521 13.1211 148.059 -63.6145 22.1369 150.206 -26.9445 -16.085 223.68 -1.01896 7.94779 9.86099 72.2282 
166.738 147.926 171.319 171.997 174.234 164.766 109.541 166.452 169.213 168.794 -68.9705 188.189 -25.2555 -66.4418 189.507 -21.2127 -9.71968 156.257 -84.9331 13.4344 147.938 -63.2061 22.379 149.647 -26.4596 -15.5234 223.36 -1.11168 8.15362 9.4417 72.6416 
167.374 146.697 171.099 172.064 174.163 164.762 108.438 166.671 169.35 168.94 -68.4891 188.423 -25.6138 -65.1938 189.636 -21.5831 -8.65699 156.357 -85.1123 14.2077 147.968 -63.0908 22.7572 149.855 -26.1946 -15.1773 223.51 -0.921361 8.07215 9.39563 72.4692 
166.601 146.976 170.841 172.043 174.187 164.876 109.215 166.158 169.192 168.858 -68.4225 188.636 -26.0668 -65.1223 189.655 -21.9923 -7.9649 156.509 -85.1506 14.6241 148.144 -63.24 23.1246 149.423 -26.1691 -14.6274 223.265 -1.01569 8.33231 9.259 72.6332 
167.202 146.041 170.629 172.068 174.138 164.782 108.939 166.388 169.329 169.029 -67.647 188.862 -26.5063 -64.1377 189.679 -22.4728 -7.1517 157.024 -85.7008 15.3455 148.414 -63.5616 23.5681 149.742 -26.4005 -14.2403 223.421 -0.880528 8.23342 9.3135 72.299 
167.027 145.864 170.664 172.091 174.114 164.704 109.141 166.583 169.402 169.053 -66.7728 188.67 -26.3011 -63.4607 189.461 -22.5125 -7.03421 157.234 -85.9212 15.7181 148.466 -63.757 23.8399 149.901 -26.648 -13.8081 223.472 -0.949198 8.10648 9.52459 71.9898 
166.803 145.427 170.761 172.06 174.046 164.409 108.905 166.754 169.343 168.897 -65.7857 188.224 -25.8609 -62.6149 189.412 -22.3732 -6.93857 157.289 -85.9899 16.0527 148.459 -63.7765 24.1626 150.164 -26.7229 -13.3566 223.61 -1.05728 7.98393 9.69943 71.7963 
166.354 144.667 170.86 171.991 173.971 163.959 108.319 166.904 169.267 168.767 -64.7987 187.861 -25.4115 -61.676 189.602 -22.1135 -6.74056 157.361 -85.9341 16.4022 148.422 -63.6987 24.4862 150.313 -26.7677 -12.8514 223.687 -1.10733 7.84693 9.82487 71.8048 
165.279 145.412 170.634 171.834 174.02 163.925 108.857 166.592 169.081 168.654 -64.8126 188.146 -25.6065 -61.6419 189.501 -22.0167 -5.7629 157.159 -85.5433 16.8891 148.323 -63.3587 25.0389 149.892 -26.4416 -12.2547 223.412 -1.11188 7.98811 9.49294 72.324 
165.747 144.053 170.478 171.814 173.932 163.764 107.859 166.808 169.082 168.747 -63.866 188.19 -25.721 -60.2577 189.227 -22.1012 -4.72008 157.113 -85.4798 17.7088 148.202 -63.0762 25.6586 150.153 -26.1634 -11.8141 223.526 -0.856228 7.83483 9.42389 71.9898 
165.107 144.697 170.463 171.799 173.912 164.058 108.818 166.507 169.008 168.644 -63.8845 188.526 -25.829 -60.2235 188.876 -22.1711 -3.84001 157.016 -85.189 18.345 148.378 -62.8257 26.3004 149.969 -25.7282 -11.2653 223.481 -0.748106 8.07406 9.22571 72.0533 
164.488 145.373 170.427 171.795 173.882 164.198 109.783 166.03 168.879 168.419 -63.4489 188.595 -26.0636 -59.7367 188.184 -22.5765 -2.81697 156.922 -84.8239 18.9437 148.467 -62.5128 26.8014 149.53 -25.1691 -10.6208 223.231 -0.705617 8.38937 8.99108 71.7941 
164.095 145.888 170.286 171.658 173.716 164.309 110.771 165.295 168.553 168.08 -62.9194 188.548 -26.2921 -59.2001 187.418 -23.3256 -2.11041 156.86 -84.2869 19.5766 148.509 -61.9828 27.472 149.143 -24.3808 -9.9688 222.962 -0.605547 8.77482 8.98451 70.9622 
163.603 146.613 170.22 171.44 173.463 164.254 111.724 164.611 168.057 167.713 -62.4883 188.535 -26.4266 -58.621 186.69 -24.0402 -1.52361 156.939 -83.9919 20.2066 148.613 -61.6107 28.29 148.928 -23.813 -9.29035 222.809 -0.613981 9.13752 9.01743 70.1273 
163.193 147.774 170.216 171.23 173.302 164.069 112.94 164.098 167.693 167.488 -62.0174 188.581 -26.6766 -58.1998 185.892 -24.7689 -1.12331 156.789 -83.7704 20.7065 148.465 -61.3972 28.9467 148.556 -23.4836 -8.66994 222.554 -0.676717 9.39054 9.07291 69.2574 
162.989 148.763 170.208 170.997 173.075 163.976 113.941 163.768 167.408 167.232 -61.7643 188.921 -26.9762 -57.6506 185.093 -25.4566 -0.456802 156.62 -83.3894 21.4324 148.336 -60.9282 29.7144 148.266 -22.9509 -8.05175 222.322 -0.614587 9.58246 9.12345 68.4379 
162.999 150.445 170.189 170.871 172.882 163.923 114.941 163.517 167.257 166.991 -61.5335 189.235 -27.2333 -57.1346 184.439 -26.0087 0.434487 156.567 -83.0117 22.2142 148.322 -60.387 30.3045 148.147 -22.2599 -7.51895 222.253 -0.467668 9.72769 9.11415 67.85 
162.992 152.175 170.158 170.791 172.774 164.064 115.67 163.289 167.181 166.878 -61.1586 189.282 -27.3678 -56.5614 183.706 -26.4183 1.24852 156.373 -82.5355 22.8658 148.186 -59.789 30.8009 147.898 -21.5354 -7.03551 222.085 -0.259505 9.87952 9.07474 67.2633 
162.755 153.993 170.05 170.627 172.638 164.108 116.316 162.905 166.958 166.775 -60.624 189.105 -27.3085 -56.0969 183.241 -26.8389 1.78277 156.475 -82.3474 23.4248 148.226 -59.5086 31.3895 147.772 -21.1819 -6.54673 221.983 -0.117335 10.0349 9.14463 66.7424 
162.643 155.352 169.983 170.449 172.547 164.101 116.78 162.654 166.74 166.731 -60.1134 188.624 -26.971 -55.6973 182.634 -26.772 2.09605 156.423 -82.0618 23.9328 148.194 -59.2047 32.1772 147.774 -20.9402 -6.10283 221.862 0.029419 10.1185 9.23207 66.3768 
163.301 155.311 170.116 169.914 172.471 163.474 117.315 162.71 166.246 167.06 -59.3197 187.512 -25.6678 -55.0534 180.761 -26.2427 1.67756 155.123 -80.7292 24.2928 147.931 -57.8417 33.2151 147.755 -20.0331 -5.76305 221.39 0.309063 10.2343 9.49977 65.1718 
163.902 155.719 170.096 169.074 172.55 162.937 117.762 162.377 165.746 167.469 -58.6109 186.772 -24.6709 -54.5314 179.358 -25.8239 1.24879 153.907 -79.1446 24.6751 147.918 -56.5728 34.1828 147.883 -19.1929 -5.40142 220.995 0.613757 10.359 9.78763 63.973 
