163.076 149.944 173.765 173.893 175.377 155.217 112.173 170.926 173.365 173.29 -36.7131 187.52 -44.4419 -39.2625 194.326 -37.7313 19.6174 164.206 -109.406 37.1476 146.039 -88.3052 39.5998 134.964 -51.9591 16.6909 206.863 -12.6429 9.02794 9.76247 81.7926 
161.954 149.891 173.806 173.867 175.301 155.433 112.72 170.981 173.293 173.184 -37.0176 188.659 -44.4895 -39.6859 194.98 -37.6165 18.9787 165.663 -109.655 36.7283 147.173 -88.7421 39.2858 135.772 -52.4695 16.5432 207.298 -12.4204 9.03637 9.91486 81.566 
160.781 150.032 173.933 173.875 175.285 155.452 113.291 171.111 173.299 173.149 -37.3114 189.616 -44.2019 -40.1401 195.656 -37.408 18.5615 167.053 -109.844 36.3913 148.412 -89.0317 39.0058 136.749 -52.7786 16.3696 207.911 -12.1192 9.04353 9.93713 81.4533 
159.719 150.278 174.02 173.929 175.292 155.503 113.899 171.218 173.307 173.095 -37.5301 190.67 -43.9081 -40.5457 196.577 -37.2888 18.3934 168.445 -109.975 36.1358 149.641 -89.1634 38.6631 137.718 -52.8826 16.2484 208.664 -11.7976 9.08711 9.92434 81.3952 
158.786 150.417 174.068 174.018 175.285 155.399 114.397 171.321 173.31 172.999 -37.6144 191.621 -43.3622 -40.8948 197.435 -37.1072 18.2421 169.696 -109.879 35.8195 150.731 -89.0496 38.2818 138.621 -52.7409 16.1265 209.44 -11.3453 9.11857 9.87711 81.2444 
158.197 150.564 174.075 174.091 175.289 155.575 114.945 171.355 173.274 172.93 -37.5676 192.571 -43.0434 -41.0987 198.366 -37.0824 18.4687 170.538 -109.659 35.7055 151.363 -88.6822 37.913 139.083 -52.2843 16.1066 210.086 -10.8331 9.20566 9.82979 81.0909 
157.795 150.688 174.095 174.139 175.282 155.956 115.464 171.375 173.291 172.914 -37.5588 193.546 -42.8583 -41.2713 199.306 -37.1329 18.6629 171.376 -109.476 35.6041 151.934 -88.3594 37.5459 139.418 -51.9255 16.1358 210.567 -10.3278 9.29383 9.83355 80.9036 
157.36 150.931 174.165 174.201 175.284 156.156 116.054 171.434 173.324 172.902 -37.4804 194.276 -42.5415 -41.4188 199.886 -37.0901 18.7948 172.265 -109.335 35.5409 152.677 -88.1918 37.3263 139.927 -51.776 16.1931 210.998 -9.86056 9.3346 9.78911 80.6864 
157.022 151.102 174.174 174.23 175.252 156.315 116.425 171.439 173.33 172.843 -37.4428 194.974 -42.2468 -41.4406 200.473 -37.0205 18.9175 173.34 -109.189 35.6346 153.665 -88.095 37.3322 140.647 -51.7287 16.2771 211.472 -9.4209 9.36765 9.78906 80.46 
156.698 151.247 174.118 174.217 175.181 156.357 116.512 171.353 173.243 172.683 -37.3491 195.703 -41.9465 -41.2779 201.176 -36.8825 19.0648 174.646 -109.01 35.7708 154.881 -88.0086 37.436 141.607 -51.7544 16.388 212.065 -9.00117 9.36052 9.78293 80.2724 
156.612 151.205 174.054 174.225 175.118 156.447 116.559 171.241 173.146 172.522 -37.2667 196.409 -41.6768 -41.1336 201.769 -36.6414 19.0273 175.767 -108.694 35.8151 155.943 -87.8374 37.5216 142.491 -51.6917 16.4857 212.643 -8.57726 9.33893 9.80509 80.0232 
156.588 151.235 174.045 174.284 175.094 156.702 116.956 171.202 173.112 172.414 -37.2126 197.454 -41.5435 -41.1912 202.614 -36.4976 18.9853 177.028 -108.425 35.7746 157.08 -87.7089 37.3952 143.327 -51.6514 16.5522 213.197 -8.0748 9.36078 9.83468 79.7329 
156.641 151.273 174.023 174.34 175.087 156.964 117.411 171.151 173.067 172.324 -37.1648 198.298 -41.4996 -41.2985 203.223 -36.257 18.7962 177.976 -108.139 35.6252 157.965 -87.5794 37.1904 143.983 -51.6273 16.5941 213.641 -7.66674 9.36021 9.85931 79.4658 
156.655 151.326 174.001 174.382 175.07 157.2 117.803 171.08 173.019 172.241 -37.1137 199.124 -41.3618 -41.412 203.777 -35.89 18.5157 178.852 -107.697 35.4237 158.796 -87.3152 37.0042 144.603 -51.5031 16.6053 213.981 -7.14909 9.3418 9.90608 79.1838 
156.589 151.511 173.997 174.38 175.03 157.273 118.058 171.028 172.935 172.114 -37.0796 199.947 -41.0516 -41.4995 204.376 -35.6807 18.5159 179.794 -107.24 35.2736 159.662 -86.8828 36.7999 145.285 -51.1695 16.5688 214.456 -6.63171 9.35653 9.86385 78.9886 
156.517 151.624 173.963 174.384 174.987 157.218 118.187 170.959 172.89 171.981 -37.1078 200.728 -40.6135 -41.5842 205.063 -35.4034 18.4161 180.999 -106.757 35.2175 160.76 -86.4806 36.7383 146.206 -50.8911 16.4991 215.02 -6.06784 9.33381 9.9139 78.772 
156.573 151.604 173.917 174.346 174.944 157.27 118.207 170.871 172.825 171.859 -37.2763 201.734 -40.2044 -41.6771 205.839 -34.9673 18.2653 182.231 -106.221 35.1915 161.783 -86.0304 36.7061 147.033 -50.5216 16.4449 215.587 -5.46563 9.35551 10.0489 78.6602 
156.839 151.607 173.91 174.35 174.908 157.435 118.455 170.816 172.794 171.743 -37.6379 202.94 -39.9494 -41.9471 206.689 -34.6247 17.955 183.646 -105.938 35.0496 162.946 -85.8741 36.6226 147.926 -50.4682 16.3621 216.15 -4.97194 9.38061 10.1877 78.5176 
156.999 151.646 173.904 174.341 174.917 157.506 118.623 170.782 172.757 171.709 -37.8174 203.725 -39.6674 -42.1606 207.322 -34.2556 17.7619 184.744 -105.747 34.8534 163.832 -85.7711 36.4698 148.639 -50.466 16.2568 216.626 -4.56718 9.36383 10.2173 78.5058 
157.075 151.565 173.873 174.317 174.915 157.494 118.629 170.733 172.73 171.711 -37.9543 204.259 -39.3552 -42.3419 207.816 -33.9702 17.5398 185.554 -105.552 34.6704 164.51 -85.6256 36.4068 149.254 -50.3946 16.0884 217.088 -4.25915 9.34487 10.2579 78.4786 
157.009 151.656 173.82 174.318 174.904 157.334 118.491 170.658 172.646 171.657 -38.0833 204.788 -38.9288 -42.4305 208.572 -33.7549 17.393 186.437 -105.31 34.3725 165.191 -85.3575 36.1223 149.845 -50.1832 15.9152 217.576 -3.90305 9.34974 10.2673 78.4758 
156.909 151.847 173.738 174.308 174.9 157.132 118.007 170.567 172.595 171.638 -38.2358 205.456 -38.5416 -42.37 209.362 -33.4102 17.3368 187.371 -105.044 34.192 165.972 -85.097 35.9521 150.547 -49.9844 15.7485 218.138 -3.5639 9.34575 10.2649 78.6419 
156.699 152.013 173.591 174.264 174.853 156.935 117.555 170.434 172.485 171.571 -38.3622 206.175 -38.1508 -42.3079 210.329 -33.2133 17.3137 188.248 -104.737 33.9708 166.596 -84.7216 35.6882 151.15 -49.6278 15.56 218.822 -3.23609 9.36313 10.2982 78.7048 
156.621 152.14 173.447 174.203 174.795 156.836 116.966 170.292 172.383 171.532 -38.622 206.888 -37.6916 -42.2759 211.261 -32.7151 17.0779 188.832 -104.316 33.6645 166.991 -84.2249 35.3915 151.639 -49.1048 15.3381 219.54 -2.87584 9.37126 10.3778 78.8743 
156.611 152.177 173.368 174.205 174.742 156.801 116.48 170.203 172.358 171.494 -38.9896 207.614 -37.1996 -42.3338 212.142 -32.1347 16.7319 189.367 -103.927 33.2991 167.427 -83.7714 35.0726 152.125 -48.6089 15.1346 220.235 -2.51126 9.40384 10.428 79.0388 
156.577 152.225 173.287 174.213 174.716 156.88 116.21 170.107 172.366 171.503 -39.2689 208.258 -36.778 -42.4886 213.047 -31.8082 16.3221 190.039 -103.677 32.864 167.943 -83.5308 34.6803 152.611 -48.3552 14.9354 220.829 -2.17036 9.42593 10.4662 78.9766 
156.622 152.46 173.246 174.267 174.696 156.973 115.857 170.069 172.402 171.493 -39.6202 208.921 -36.4297 -42.6366 213.935 -31.4541 15.8597 190.862 -103.568 32.2677 168.657 -83.4867 34.1545 153.224 -48.3582 14.7111 221.368 -1.87725 9.41725 10.3923 78.9799 
156.425 152.852 173.151 174.252 174.656 156.959 115.67 169.981 172.349 171.464 -39.8053 209.305 -36.0766 -42.8178 214.59 -31.3051 15.6357 191.388 -103.432 31.746 169.016 -83.3012 33.6399 153.541 -48.1892 14.4522 221.774 -1.61601 9.43025 10.3069 78.962 
156.299 153.323 173.079 174.217 174.609 156.989 115.48 169.891 172.27 171.413 -40.0751 209.704 -35.7957 -43.0474 215.201 -30.8801 15.2656 191.91 -103.256 31.1503 169.353 -83.1115 33.0823 153.831 -48.0471 14.1534 222.124 -1.37901 9.43678 10.2653 79.1482 
156.167 153.799 173.059 174.195 174.611 157.038 115.429 169.887 172.259 171.454 -40.4683 209.975 -35.4338 -43.4477 215.653 -30.4659 14.8532 192.09 -103.088 30.5637 169.363 -82.8835 32.512 153.816 -47.7947 13.8071 222.343 -1.16099 9.48662 10.251 79.3651 
156.096 154.185 173.019 174.193 174.63 157.05 115.223 169.891 172.285 171.517 -40.9732 210.403 -35.1413 -43.8336 216.17 -29.8456 14.2891 192.372 -102.804 29.9313 169.509 -82.5891 31.9217 153.944 -47.5184 13.3957 222.627 -0.919307 9.51786 10.2843 79.6846 
156.142 154.446 173.015 174.186 174.673 157.1 115.207 169.933 172.34 171.606 -41.5502 210.916 -34.834 -44.3196 216.616 -29.1718 13.6833 192.895 -102.597 29.4385 169.895 -82.4675 31.494 154.26 -47.4404 13.0018 222.942 -0.667073 9.52525 10.3636 80.0028 
156.249 154.352 173.056 174.237 174.737 157.132 114.939 170.04 172.491 171.759 -42.0993 211.092 -34.5067 -44.8045 216.776 -28.6187 12.9077 193.065 -102.409 28.9329 170.166 -82.3445 31.1721 154.612 -47.3003 12.5461 223.289 -0.50404 9.506 10.4046 80.1633 
156.452 154.196 173.051 174.262 174.731 157.339 114.676 170.035 172.549 171.813 -42.7544 211.56 -34.3117 -45.2701 217.184 -28.2695 12.1059 193.371 -102.269 28.407 170.538 -82.2924 30.8249 154.986 -47.2291 12.1075 223.66 -0.37534 9.53168 10.4812 80.1844 
156.531 154.095 173.007 174.258 174.705 157.543 114.523 169.952 172.519 171.82 -43.2798 211.92 -34.113 -45.6982 217.565 -28.1408 11.4955 193.529 -102.036 27.9232 170.799 -82.0622 30.4502 155.301 -46.9628 11.6557 224.07 -0.213755 9.56253 10.5143 80.056 
156.546 154.115 172.975 174.273 174.7 157.747 114.394 169.887 172.492 171.834 -43.7484 212.405 -33.9285 -46.1345 218.092 -27.9247 10.855 193.779 -101.802 27.2967 171.027 -81.7767 29.8938 155.577 -46.6494 11.2057 224.535 -0.0291665 9.59717 10.5568 79.98 
156.271 154.327 172.935 174.301 174.719 157.924 114.255 169.835 172.484 171.863 -44.1205 212.811 -33.7468 -46.5406 218.518 -27.7924 10.3288 194.028 -101.629 26.649 171.233 -81.5707 29.289 155.831 -46.4439 10.7621 224.943 0.0755345 9.6066 10.5245 79.9643 
156.232 154.364 172.918 174.307 174.717 158.073 114.277 169.841 172.507 171.92 -44.7037 213.284 -33.4834 -47.142 218.68 -27.5664 9.67522 194.342 -101.291 26.1502 171.351 -81.2616 28.8921 155.984 -46.08 10.2495 225.297 0.260214 9.67185 10.6767 79.9204 
156.285 154.114 172.944 174.389 174.843 158.168 114.111 170.006 172.704 172.182 -45.8285 213.395 -32.7875 -48.4389 218.557 -26.872 8.20711 194.237 -100.74 24.9339 171.153 -80.7248 27.9037 155.912 -45.3999 9.09357 225.575 0.715975 9.748 10.7959 79.9185 
156.429 154.283 173.024 174.427 174.888 158.249 114.782 170.211 172.775 172.273 -46.0785 213.653 -32.7374 -49.1105 218.282 -27.0713 7.96679 194.294 -100.792 24.5155 171.16 -80.7535 27.6379 155.877 -45.4337 8.73352 225.566 0.885367 9.77406 10.6877 79.6143 
156.311 154.557 173.052 174.488 174.96 158.348 115.178 170.311 172.798 172.365 -46.4879 213.749 -32.6225 -49.8047 218.035 -27.1464 7.52515 194.307 -100.858 23.7408 171.183 -80.801 27.0094 155.818 -45.5229 8.19755 225.483 1.02192 9.79995 10.4794 79.4525 
156.036 155.127 172.974 174.518 174.938 158.476 115.679 170.152 172.566 172.159 -47.0553 214.214 -32.5948 -50.4925 217.8 -27.0982 7.25225 194.548 -100.818 23.0968 171.373 -80.8555 26.523 155.893 -45.7054 7.61746 225.558 1.08009 9.8199 10.2608 79.6025 
156.587 156.4 173.703 175.104 175.374 159.091 116.961 170.632 172.687 172.146 -46.9928 213.843 -32.1561 -51.5623 217.069 -26.8973 6.7127 194.175 -100.734 22.5399 171.006 -80.911 26.2472 155.555 -45.6689 7.11791 225.447 1.40078 9.86532 10.1573 79.3327 
157.099 157.555 174.217 175.33 175.7 159.485 118.33 170.682 172.63 172.146 -47.0382 213.422 -31.6665 -52.6888 216.508 -27.0111 6.25759 193.644 -100.532 22.0372 170.394 -80.7197 25.9854 155.153 -45.525 6.58863 225.355 1.77763 9.78084 10.1243 78.8101 
156.851 158.108 174.109 175.219 175.582 159.506 118.956 170.496 172.458 172.093 -47.8636 214.244 -31.5803 -53.5315 216.701 -26.9349 5.74919 194.061 -100.151 21.5604 170.595 -80.4592 25.5877 155.306 -45.3039 5.9792 225.626 1.9192 9.85203 10.254 78.8815 
157.241 158.436 174.52 175.281 175.71 159.908 119.742 170.343 172.338 172.117 -48.2781 214.31 -31.1957 -54.456 216.609 -26.9078 4.77119 193.938 -99.923 20.7392 170.463 -80.3634 25.0329 155.225 -45.3491 5.42969 225.526 2.25302 9.79777 10.3043 78.3048 
157.758 158.856 174.829 175.274 175.84 160.081 120.474 170.176 172.152 172.037 -48.6758 214.171 -30.9364 -55.3045 216.279 -26.9742 3.98724 193.399 -99.7235 19.8757 170.078 -80.1381 24.4401 154.994 -45.3339 4.89695 225.326 2.4867 9.69071 10.198 77.7898 
157.792 159.26 175.088 175.198 175.876 160.072 120.856 170.085 171.957 171.865 -48.9933 213.796 -30.5722 -55.9263 216.106 -26.9955 3.44855 193.133 -99.6971 19.081 169.955 -80.0184 23.8601 155.007 -45.4513 4.37337 225.226 2.6889 9.54021 9.99156 77.4859 
157.954 159.441 175.281 175.118 175.79 160.238 120.937 169.969 171.809 171.652 -49.472 213.344 -30.3599 -56.427 215.644 -26.6863 2.62563 192.68 -99.5996 18.2512 169.817 -79.9087 23.2579 155.033 -45.5184 3.80838 225.205 2.76335 9.40422 9.79693 77.3024 
158.15 159.407 175.39 175.051 175.748 160.345 120.726 169.861 171.771 171.598 -50.1954 213.152 -30.1141 -56.926 215.284 -26.178 1.83377 192.202 -99.3078 17.5528 169.551 -79.598 22.7 154.953 -45.2993 3.17347 225.228 2.91129 9.30807 9.71826 77.3312 
158.603 159.244 175.442 174.97 175.707 160.6 120.645 169.759 171.778 171.605 -51.002 213.014 -29.9069 -57.5101 214.904 -25.6071 1.02782 191.485 -98.8008 17.0001 169 -79.0171 22.1895 154.594 -44.7096 2.5141 225.171 3.20764 9.27693 9.78839 77.2862 
158.881 159.132 175.395 174.847 175.625 160.74 120.71 169.692 171.752 171.637 -51.7799 212.808 -29.5719 -58.2199 214.576 -25.2158 0.236089 190.814 -98.3967 16.2215 168.304 -78.4201 21.4012 154.063 -44.1752 1.81241 224.855 3.57428 9.21284 9.85906 77.2167 
158.985 159.322 175.431 174.719 175.381 160.824 120.868 169.768 171.56 171.454 -52.5555 212.542 -29.1218 -58.8756 214.358 -25.1021 -0.578063 190.763 -98.5008 14.9449 168.149 -78.3992 20.299 153.891 -44.397 1.16051 224.545 3.79728 9.09564 9.63293 77.0289 
158.974 159.442 175.343 174.569 175.119 160.935 120.827 169.725 171.346 171.332 -53.5754 212.405 -28.6596 -59.5416 214.218 -24.9457 -1.60657 190.799 -98.5322 13.5279 167.884 -78.2834 19.1367 153.63 -44.4598 0.440035 224.283 3.9701 9.05619 9.554 76.8946 
158.955 159.412 175.2 174.394 174.827 160.944 120.649 169.653 171.161 171.207 -54.5375 212.091 -28.1496 -60.1513 213.717 -24.584 -2.47949 190.523 -98.2824 12.3988 167.458 -77.8111 18.2078 153.364 -44.0676 -0.30904 224.128 4.1917 9.00633 9.50531 76.8742 
159.038 159.289 175.041 174.247 174.587 160.93 120.407 169.562 170.948 171.076 -55.2668 211.835 -27.7354 -60.5674 213.361 -24.4925 -3.19864 190.277 -98.0423 11.363 167.169 -77.2993 17.3503 153.283 -43.6359 -0.94077 224.061 4.42206 8.93267 9.41203 76.6327 
159.08 159.288 174.815 174.065 174.291 160.8 120.083 169.287 170.592 170.8 -55.9347 211.474 -27.4449 -60.8457 213.089 -24.3245 -3.92866 190.054 -97.6894 10.3721 166.769 -76.7705 16.443 153.09 -43.2327 -1.51202 223.858 4.6241 8.81929 9.42048 76.4322 
158.932 159.466 174.73 173.84 174.019 160.683 119.991 169.197 170.213 170.599 -56.6842 211.15 -27.1 -61.2521 212.798 -24.3348 -4.66362 189.911 -97.6341 9.13606 166.38 -76.5932 15.475 152.778 -43.1573 -2.05752 223.564 4.71605 8.80854 9.31878 76.2219 
158.816 159.641 174.72 173.635 173.859 160.592 120.204 169.231 169.962 170.537 -57.5006 210.832 -26.8262 -61.9058 212.299 -24.4086 -5.40668 189.791 -97.7578 8.04316 166.033 -76.6548 14.7196 152.372 -43.267 -2.63461 223.181 4.71312 8.9004 9.25273 76.0657 
158.847 159.754 174.654 173.484 173.748 160.543 120.275 169.223 169.808 170.446 -58.3352 210.636 -26.6767 -62.5701 211.819 -24.1771 -6.26167 189.562 -97.7968 7.0405 165.637 -76.6769 13.9256 151.954 -43.2376 -3.17951 222.862 4.67198 8.95931 9.23602 76.1095 
158.837 159.741 174.573 173.354 173.71 160.426 120.261 169.187 169.76 170.491 -59.1487 210.621 -26.6443 -63.18 211.406 -23.858 -7.10462 189.473 -97.8124 6.35612 165.369 -76.7713 13.4276 151.602 -43.3356 -3.70541 222.483 4.65989 9.02473 9.33713 76.2286 
158.876 159.821 174.555 173.217 173.695 160.283 120.184 169.227 169.73 170.543 -59.8615 210.728 -26.7762 -63.7786 211.029 -23.4989 -7.74805 189.35 -97.8498 5.81769 165.162 -76.8665 13.0558 151.317 -43.3907 -4.22604 222.163 4.63149 9.10791 9.37487 76.5009 
158.745 159.986 174.52 173.137 173.694 160.157 120.256 169.206 169.64 170.516 -60.5533 210.796 -26.765 -64.4402 210.809 -23.2422 -8.49611 189.264 -97.7916 5.01452 165.016 -76.8755 12.4553 151.044 -43.3466 -4.75075 221.85 4.66752 9.24236 9.34814 76.6094 
158.436 160.123 174.435 173.095 173.704 159.979 120.163 169.141 169.617 170.498 -61.1784 210.397 -26.5228 -65.0595 210.581 -22.8657 -9.19939 188.575 -97.4976 4.41879 164.307 -76.5495 11.8896 150.412 -42.8251 -5.29702 221.585 4.73002 9.35187 9.42704 76.7613 
158.302 160.262 174.383 173.139 173.805 159.759 120.295 169.223 169.764 170.63 -61.6651 209.937 -26.1816 -65.7956 210.32 -22.5307 -9.9084 187.818 -97.3452 3.78895 163.562 -76.3338 11.2958 149.753 -42.3741 -5.81826 221.36 4.76826 9.46291 9.47322 76.9144 
158.387 160.522 174.302 173.076 173.868 159.723 120.53 169.271 169.818 170.732 -62.3068 209.818 -25.9902 -66.5738 210.085 -22.3251 -10.6158 187.242 -97.2501 3.08032 162.831 -76.1383 10.6884 149.108 -41.9621 -6.35294 221.162 4.78462 9.59082 9.57381 77.012 
158.567 160.464 174.169 172.989 173.923 159.622 120.21 169.109 169.855 170.816 -63.0533 209.867 -26.0206 -67.0884 209.932 -21.7115 -11.7386 186.683 -97.0381 2.53115 162.33 -76.0576 10.1903 148.72 -41.7589 -6.82242 220.926 4.69446 9.62142 9.74904 77.24 
158.53 160.284 174.073 172.914 173.976 159.521 120.157 169.077 169.958 171.007 -63.704 209.906 -26.1314 -67.72 209.625 -21.0864 -12.6914 186.243 -96.9548 2.15642 161.879 -76.1539 9.89092 148.267 -41.7775 -7.31548 220.488 4.6506 9.68234 9.9499 77.5977 
158.188 160.172 174.034 172.889 174.003 159.335 120.226 169.095 170.023 171.094 -64.1909 209.956 -26.1585 -68.3454 209.385 -20.6576 -13.4483 186.157 -96.988 1.69602 161.77 -76.3496 9.49858 148.16 -41.9427 -7.81371 220.273 4.60345 9.67851 10.0254 77.8702 
157.836 160.258 173.997 172.905 174.079 159.213 120.439 169.183 170.118 171.237 -64.6312 209.928 -26.2222 -68.9803 209.132 -20.6076 -13.8213 186.079 -97.163 1.36462 161.627 -76.544 9.21629 148.065 -42.0856 -8.31401 220.191 4.5014 9.68154 10.0514 78.0664 
157.349 160.505 174.029 172.987 174.168 159.097 120.801 169.307 170.241 171.372 -64.9072 209.515 -26.1163 -69.6505 208.687 -20.7062 -14.1172 185.469 -97.2017 1.00189 161.115 -76.5191 8.9353 147.695 -41.9382 -8.7911 220.051 4.45211 9.71043 9.97439 78.0372 
157.089 160.735 174.073 173.091 174.283 159.019 121.026 169.453 170.397 171.555 -65.155 209.314 -25.9864 -70.2011 208.394 -20.5317 -14.2549 184.701 -97.1039 0.816063 160.427 -76.2738 8.73021 147.269 -41.5282 -9.24139 220.095 4.44959 9.71521 9.95815 78.2606 
156.983 160.993 174.067 173.084 174.35 158.832 121.434 169.556 170.476 171.677 -65.4407 209.062 -25.8811 -70.8311 208.105 -20.3965 -14.7403 184.349 -97.1866 0.466471 160.006 -76.4133 8.36166 146.939 -41.6228 -9.62341 219.938 4.33832 9.68492 10.0311 78.3807 
156.971 161.248 174.003 173.037 174.383 158.623 121.741 169.58 170.496 171.721 -65.6691 208.681 -25.7817 -71.2934 207.751 -20.1591 -15.1912 183.833 -97.1427 0.0729897 159.442 -76.3922 7.91926 146.498 -41.5765 -9.92049 219.686 4.23719 9.6367 10.0837 78.5377 
157.09 161.448 173.972 172.996 174.389 158.56 121.954 169.526 170.487 171.721 -66.0968 208.594 -25.8997 -71.7343 207.486 -19.8263 -15.8166 183.547 -97.2007 -0.301666 159.106 -76.6159 7.4764 146.173 -41.8079 -10.2246 219.375 4.08288 9.58053 10.1736 78.7583 
157.251 161.549 173.934 172.986 174.418 158.562 122.066 169.446 170.555 171.772 -66.5957 208.69 -26.148 -72.1561 207.249 -19.2799 -16.616 183.297 -97.2244 -0.542425 158.862 -76.9502 7.08805 145.932 -42.1596 -10.5224 219.046 3.87827 9.4758 10.3404 79.0983 
157.232 161.466 173.9 173.01 174.435 158.709 122.13 169.362 170.609 171.808 -67.177 208.966 -26.4199 -72.6295 207.148 -18.9332 -17.3819 183.401 -97.3385 -0.808113 158.971 -77.3665 6.75194 145.932 -42.6199 -10.871 218.848 3.69852 9.42576 10.4825 79.3317 
156.951 161.249 173.827 173.036 174.431 158.881 122.063 169.317 170.675 171.83 -67.6551 209.052 -26.5951 -73.0235 206.991 -18.7766 -17.6932 183.533 -97.4608 -0.828604 159.104 -77.5632 6.61009 146.047 -42.8341 -11.2585 218.814 3.59474 9.36233 10.5852 79.6043 
156.628 161.193 173.944 173.151 174.513 159.022 122.113 169.464 170.853 172.013 -68.1196 209.099 -26.6906 -73.5163 206.69 -18.881 -17.9852 183.455 -97.7486 -1.01867 159.047 -77.8623 6.47152 145.981 -43.1247 -11.7344 218.785 3.4707 9.3629 10.5794 79.6953 
156.178 161.33 174.085 173.297 174.608 159.061 122.376 169.615 171.036 172.19 -68.4916 209.251 -26.7604 -74.1358 206.702 -19.0221 -18.4491 183.574 -98.1125 -1.57044 159.146 -78.3006 5.95983 146.01 -43.5487 -12.2151 218.787 3.35599 9.3628 10.4964 79.7251 
155.848 161.679 174.26 173.323 174.659 159.122 123.184 169.725 171.091 172.269 -69.3703 209.641 -26.9828 -75.3712 206.581 -18.8725 -19.5258 183.398 -98.2334 -2.59575 158.673 -78.4475 4.79112 145.509 -43.635 -13.069 218.507 3.25996 9.36378 10.6683 79.868 
155.589 161.958 174.324 173.166 174.536 159.108 123.367 169.643 170.885 172.063 -69.5675 209.821 -27.0905 -75.5594 206.629 -18.9582 -19.5415 183.495 -98.1887 -2.94948 158.58 -78.2344 4.31106 145.409 -43.4618 -13.2301 218.374 3.29968 9.33578 10.6692 79.9326 
155.174 161.99 174.32 173.063 174.498 159.168 123.324 169.52 170.787 172.001 -70.0506 209.676 -27.0843 -75.9346 206.693 -18.9406 -20.034 183.508 -98.195 -3.30553 158.589 -78.242 3.78077 145.425 -43.4294 -13.5935 218.273 3.21133 9.30119 10.7577 80.0168 
154.758 161.948 174.297 173.005 174.512 158.953 123.309 169.456 170.776 172.005 -70.5027 209.492 -26.9885 -76.3383 206.71 -18.9437 -20.4565 183.639 -98.3337 -3.62179 158.699 -78.3699 3.23967 145.559 -43.515 -13.9828 218.18 3.12755 9.21541 10.8283 80.1566 
154.397 161.764 174.309 173.055 174.546 158.735 123.332 169.45 170.796 171.975 -70.9223 209.223 -26.7802 -76.8181 206.651 -19.0242 -20.8048 183.669 -98.398 -4.00632 158.857 -78.3358 2.77155 145.781 -43.3796 -14.4612 218.344 3.11522 9.19892 10.7637 80.1291 
153.973 161.619 174.375 173.104 174.554 158.662 123.227 169.448 170.793 171.936 -71.3299 209.112 -26.6241 -77.263 206.923 -19.1998 -21.0992 183.72 -98.4234 -4.48968 159.104 -78.2593 2.21471 146.099 -43.2007 -14.9311 218.648 3.0739 9.19612 10.6097 80.1114 
153.48 161.613 174.519 173.148 174.523 158.526 123.23 169.537 170.753 171.866 -71.6649 208.969 -26.4456 -77.7484 207.135 -19.4492 -21.4917 184.009 -98.648 -5.1864 159.482 -78.4767 1.58433 146.503 -43.4119 -15.4196 218.928 3.00714 9.15764 10.4012 79.9849 
153.184 161.488 174.714 173.279 174.593 158.465 123.294 169.695 170.799 171.878 -71.7878 208.758 -26.317 -78.1308 207.422 -19.7008 -21.8032 184.176 -98.8099 -5.80377 159.798 -78.6342 0.992785 146.817 -43.5557 -15.7909 219.197 3.00297 9.13665 10.1782 79.7668 
153.241 161.403 174.829 173.398 174.664 158.49 123.253 169.745 170.764 171.824 -71.9092 208.392 -26.2009 -78.3793 207.578 -19.8258 -22.2527 184.029 -98.7794 -6.36513 159.786 -78.5761 0.506095 146.868 -43.5199 -16.0951 219.343 3.04376 9.11783 10.0705 79.4437 
153.496 161.515 174.902 173.416 174.615 158.528 123.266 169.701 170.606 171.594 -72.0059 208.137 -26.2277 -78.5656 207.71 -20.0338 -22.5186 183.898 -98.6422 -6.95941 159.765 -78.3457 -0.0711207 146.923 -43.3118 -16.3367 219.409 3.10721 9.08688 9.90901 79.1198 
