160.793 138.747 160.722 162.103 165.983 157.275 97.6516 148.126 155.055 153.663 -38.3987 118.333 8.56811 -33.9534 125.825 14.5406 11.4488 131.147 -42.0818 34.4738 135.931 -26.5558 45.7351 138.224 5.10914 -15.998 172.137 39.254 6.79584 8.93577 65.5645 
160.895 138.475 160.608 162.065 165.936 157.155 97.879 148.17 155.079 153.685 -37.3802 118.152 8.53853 -33.2189 125.454 14.5331 11.9758 131.063 -42.0976 35.0143 136.126 -26.6724 46.3002 138.562 4.9365 -15.5243 171.971 39.3123 6.75192 9.01874 65.3867 
160.948 138.245 160.543 162.079 166.008 157.164 97.8467 148.276 155.039 153.652 -36.5363 118.142 8.38258 -32.5558 125.414 14.4707 12.5611 131.27 -42.1907 35.5915 136.364 -26.743 46.8022 138.809 4.80999 -15.0445 171.921 39.418 6.62219 8.97923 65.2813 
161.028 137.721 160.526 162.128 166.16 157.329 97.8322 148.45 155.063 153.674 -36.0281 118.144 8.19959 -31.9295 125.383 14.1802 13.137 131.26 -42.1916 36.15 136.306 -26.7115 47.2672 138.727 4.80159 -14.5547 171.859 39.522 6.49922 8.91464 64.8272 
161.163 137.082 160.509 162.142 166.291 157.616 97.7121 148.539 154.993 153.588 -35.7905 118.064 8.10337 -31.3144 125.376 13.8267 13.6779 131.042 -42.0301 36.6487 135.996 -26.5021 47.676 138.415 4.99441 -14.0705 171.797 39.6444 6.40444 8.82172 64.1727 
161.244 136.734 160.543 162.189 166.44 157.888 97.5508 148.571 154.911 153.49 -35.7337 117.969 8.01582 -30.8013 125.333 13.6552 14.1903 130.627 -41.7943 37.1164 135.439 -26.2248 48.0513 137.854 5.26659 -13.5998 171.665 39.7251 6.33638 8.72659 63.7132 
161.267 136.788 160.633 162.266 166.578 158.068 97.4168 148.605 154.935 153.454 -35.7153 117.792 7.97389 -30.3958 125.173 13.696 14.7435 130.058 -41.4969 37.6176 134.722 -25.8982 48.4348 137.108 5.62185 -13.1448 171.408 39.7806 6.29869 8.65592 63.5597 
161.288 136.829 160.718 162.323 166.663 158.176 97.3571 148.658 155.048 153.47 -35.8657 117.575 8.14919 -30.1621 124.888 13.9823 15.184 129.267 -41.0816 38.0282 133.879 -25.4878 48.7402 136.287 6.06967 -12.7779 171.121 39.8584 6.28669 8.63926 63.5877 
161.307 136.864 160.839 162.379 166.729 158.222 97.4305 148.686 155.129 153.465 -36.0605 117.434 8.21974 -29.9974 124.551 14.2377 15.5053 128.541 -40.7247 38.334 133.105 -25.1338 48.9907 135.543 6.44649 -12.4842 170.8 39.9258 6.31395 8.65184 63.6286 
161.32 136.955 160.891 162.39 166.754 158.292 97.5124 148.612 155.159 153.377 -36.3318 117.272 8.3396 -29.8853 124.162 14.5379 15.7289 127.741 -40.3211 38.5581 132.274 -24.7441 49.173 134.741 6.85436 -12.2172 170.463 39.9945 6.34496 8.67838 63.6718 
161.366 136.964 160.94 162.372 166.726 158.332 97.655 148.54 155.202 153.314 -36.5427 117.095 8.54666 -29.7996 123.716 14.9535 15.7833 126.922 -39.9067 38.6601 131.539 -24.3919 49.3275 134.134 7.20326 -12.0033 170.155 40.0836 6.414 8.75722 63.7244 
161.418 136.872 160.972 162.336 166.668 158.321 97.8595 148.491 155.266 153.314 -36.7392 116.908 8.78871 -29.7285 123.227 15.3261 15.7626 126.1 -39.5572 38.6996 130.831 -24.1207 49.4567 133.59 7.44231 -11.8261 169.862 40.1377 6.48507 8.84472 63.733 
161.501 136.776 160.932 162.251 166.583 158.318 97.9967 148.335 155.177 153.165 -36.787 116.723 8.97617 -29.4907 122.803 15.6528 15.7952 125.485 -39.2386 38.744 130.345 -23.879 49.5919 133.297 7.62345 -11.6411 169.642 40.1879 6.52389 8.88317 63.6965 
161.56 136.707 160.866 162.174 166.523 158.285 98.0983 148.183 155.091 153.036 -36.7712 116.631 9.12204 -29.2661 122.467 15.8417 15.8571 125.002 -38.9746 38.7909 129.953 -23.6713 49.6909 133.07 7.75869 -11.4607 169.474 40.2311 6.52278 8.89477 63.5988 
161.614 136.583 160.779 162.098 166.465 158.256 98.182 148.023 154.972 152.88 -36.6925 116.583 9.13874 -29.0254 122.195 15.9567 15.9119 124.68 -38.8422 38.8306 129.693 -23.5995 49.7834 132.928 7.7526 -11.2489 169.325 40.2476 6.49627 8.89021 63.5185 
161.615 136.587 160.745 162.082 166.45 158.174 98.2331 147.958 154.929 152.814 -36.5671 116.66 9.01692 -28.8645 122.078 15.9659 16.0024 124.593 -38.8985 38.9165 129.606 -23.6886 49.8939 132.873 7.60835 -11.0324 169.224 40.2284 6.46034 8.88718 63.5486 
161.601 136.557 160.676 162.058 166.411 158.069 98.3042 147.914 154.895 152.727 -36.2481 116.665 8.89336 -28.6361 121.972 15.9302 16.1925 124.674 -38.9872 39.0953 129.704 -23.8206 50.0853 132.949 7.44389 -10.7893 169.101 40.251 6.42926 8.89521 63.5769 
161.547 136.548 160.61 162.075 166.362 157.906 98.3539 147.928 154.938 152.705 -35.8192 116.691 8.72064 -28.4243 121.95 15.813 16.4419 124.915 -39.1819 39.3593 130.006 -24.0769 50.369 133.189 7.19747 -10.5174 169.015 40.2582 6.42619 8.94833 63.6394 
161.561 136.349 160.57 162.137 166.335 157.802 98.5228 148.037 155.077 152.75 -35.2549 116.555 8.61906 -28.0667 121.813 15.7054 16.7944 125.19 -39.3583 39.7451 130.451 -24.3448 50.7743 133.597 6.97207 -10.2319 168.93 40.3111 6.43379 9.03319 63.6157 
161.594 136.104 160.474 162.185 166.344 157.751 98.6788 148.142 155.202 152.78 -34.4958 116.272 8.46813 -27.5653 121.634 15.5512 17.3042 125.493 -39.5663 40.2791 130.937 -24.63 51.2638 134.011 6.7406 -9.88927 168.81 40.3269 6.3964 9.11164 63.5899 
161.561 135.754 160.466 162.221 166.297 157.496 98.5286 148.422 155.604 153.483 -33.3965 115.774 8.36622 -26.8711 121.372 15.5084 18.1688 125.787 -39.6976 41.1793 131.542 -24.777 52.0779 134.585 6.60919 -9.39967 168.652 40.4181 6.28039 9.16209 63.7317 
161.66 135.13 160.426 162.314 166.444 157.566 98.6241 148.639 155.727 153.513 -32.3825 115.347 8.27349 -25.971 121.135 15.3482 19.0149 126.033 -39.8359 42.0066 132.066 -24.9593 52.782 135.095 6.49581 -8.95917 168.543 40.4319 6.20234 9.214 63.5837 
161.769 134.636 160.513 162.482 166.688 157.678 98.633 148.935 155.863 153.518 -31.5271 115.15 8.2773 -25.0922 121.131 15.2983 19.8662 126.353 -39.8844 42.7986 132.578 -25.0154 53.4244 135.599 6.50371 -8.54488 168.598 40.5003 6.11141 9.2035 63.4677 
161.906 134.142 160.575 162.573 166.913 157.869 98.6906 149.169 155.913 153.487 -30.8485 115.028 8.31518 -24.224 121.184 15.1825 20.666 126.576 -39.8508 43.551 132.888 -24.9376 54.023 135.855 6.64708 -8.09603 168.709 40.5951 6.03271 9.17342 63.1864 
162.018 133.85 160.715 162.695 167.144 158.046 99.0018 149.347 155.963 153.516 -30.3178 115.208 8.25246 -23.4511 121.271 15.0385 21.3323 126.7 -39.7327 44.1836 132.979 -24.7685 54.5627 135.923 6.82889 -7.6351 168.89 40.664 5.99931 9.13613 62.7899 
162.072 133.935 160.913 162.827 167.336 158.17 99.2109 149.441 156.007 153.556 -30.0083 115.573 8.1858 -22.9467 121.52 15.0522 21.7623 126.819 -39.5827 44.6045 132.93 -24.5611 54.9422 135.84 7.02897 -7.19471 169.111 40.7652 5.98895 9.08673 62.5827 
162.015 134.097 161.01 162.848 167.376 158.149 99.3622 149.368 156.007 153.544 -29.897 116.003 8.1922 -22.6603 121.718 15.2275 22.0114 126.732 -39.3549 44.8873 132.67 -24.3324 55.2686 135.563 7.24629 -6.77065 169.248 40.8352 6.05705 9.09551 62.5656 
161.924 134.195 160.982 162.767 167.321 158.041 99.4351 149.173 155.919 153.41 -29.7154 116.303 8.36009 -22.3268 121.772 15.5723 22.2582 126.498 -38.999 45.1415 132.319 -23.9834 55.5629 135.266 7.54769 -6.344 169.296 40.941 6.09642 9.09014 62.6404 
161.805 134.321 160.944 162.678 167.262 157.836 99.3729 148.893 155.761 153.203 -29.396 116.575 8.50263 -21.9895 121.845 15.9135 22.5232 126.286 -38.6058 45.3671 132.002 -23.615 55.8046 135.013 7.83217 -5.94548 169.304 41.0502 6.09263 9.05646 62.7235 
161.672 134.324 160.789 162.511 167.066 157.53 99.3589 148.581 155.573 152.957 -28.8622 116.669 8.77906 -21.567 121.77 16.1219 22.7973 126.132 -38.2857 45.6457 131.866 -23.3313 56.1389 134.96 8.06821 -5.55193 169.27 41.1656 6.13283 9.0849 62.7032 
161.571 134.358 160.644 162.371 166.921 157.236 99.3815 148.259 155.358 152.655 -28.0285 116.604 8.98347 -21.0019 121.644 16.1941 23.1803 126.062 -38.0545 46.0049 131.892 -23.1683 56.5013 135.053 8.17958 -5.1405 169.225 41.1935 6.11469 9.11535 62.606 
161.515 134.545 160.503 162.291 166.846 157.011 99.4325 147.986 155.104 152.307 -27.0547 116.507 9.13324 -20.3035 121.609 16.1611 23.727 126.304 -37.8644 46.4925 132.239 -23.0258 56.9184 135.431 8.27994 -4.73892 169.292 41.2594 6.02885 9.09325 62.4151 
161.496 134.706 160.367 162.249 166.804 156.882 99.6277 147.825 154.899 152.052 -26.1367 116.456 9.11267 -19.6405 121.603 15.862 24.2894 126.757 -37.8475 47.0148 132.766 -23.0337 57.36 135.892 8.26813 -4.3749 169.387 41.3015 5.95521 9.08037 62.0851 
161.54 134.82 160.248 162.231 166.794 156.858 99.9366 147.778 154.707 151.831 -25.1791 116.338 8.98814 -18.8689 121.493 15.46 24.9232 127.252 -37.9367 47.5988 133.344 -23.116 57.8327 136.39 8.18158 -4.01489 169.446 41.3212 5.84478 9.0361 61.6699 
161.655 134.809 160.269 162.344 166.897 156.89 100.23 147.915 154.695 151.789 -24.15 116.244 8.86875 -18.075 121.354 15.1978 25.6023 127.611 -38.0087 48.2283 133.85 -23.2009 58.3454 136.891 8.09708 -3.66091 169.508 41.3446 5.73265 9.00201 61.3152 
161.752 134.804 160.369 162.478 167.02 156.936 100.554 148.107 154.712 151.79 -23.2776 116.337 8.6719 -17.4026 121.331 14.9344 26.1992 127.996 -38.1546 48.8057 134.338 -23.3343 58.8249 137.361 7.97722 -3.32874 169.653 41.3346 5.65034 8.9813 61.0099 
161.85 134.596 160.611 162.695 167.188 156.968 100.856 148.483 154.931 152.05 -22.5286 116.44 8.65936 -16.856 121.305 14.8585 26.7082 128.149 -38.273 49.3465 134.624 -23.4307 59.306 137.717 7.9093 -3.00352 169.814 41.3497 5.61162 9.00778 60.8351 
161.896 134.488 160.912 162.945 167.398 156.997 101.003 148.865 155.123 152.246 -21.9042 116.694 8.48458 -16.4163 121.456 14.832 27.1824 128.405 -38.4611 49.8207 134.875 -23.5348 59.7041 137.984 7.84645 -2.69216 169.982 41.356 5.57258 8.98322 60.8473 
161.929 134.411 161.213 163.19 167.605 157.044 101.165 149.227 155.286 152.425 -21.4814 117.066 8.36151 -16.0078 121.651 14.9396 27.5538 128.553 -38.5287 50.1758 134.949 -23.5193 60.0174 138.126 7.87209 -2.38393 170.225 41.395 5.53468 8.90485 60.8345 
161.915 134.397 161.549 163.428 167.793 157.129 101.15 149.563 155.513 152.549 -21.0934 117.836 8.07728 -15.4004 122.196 15.1831 28.1909 128.884 -38.5807 50.823 135.072 -23.5164 60.6514 138.171 7.9464 -1.68861 170.602 41.4765 5.5641 8.8506 61.0349 
161.882 134.234 161.694 163.451 167.809 157.236 101.088 149.696 155.634 152.588 -21.3969 118.169 7.84986 -15.2955 122.38 15.3692 28.3186 128.942 -38.6184 50.9896 135.026 -23.5154 60.8421 138.033 8.02583 -1.4882 170.671 41.5118 5.6437 8.87603 61.2733 
161.825 134.24 161.809 163.437 167.832 157.296 100.859 149.728 155.736 152.616 -21.5406 118.485 7.67595 -15.1571 122.608 15.7069 28.5491 128.935 -38.5494 51.2214 134.892 -23.45 61.0808 137.777 8.13157 -1.16878 170.684 41.5639 5.68857 8.88339 61.6628 
161.815 134.073 161.923 163.429 167.812 157.365 100.659 149.747 155.855 152.635 -21.5888 118.647 7.61608 -14.9045 122.687 16.0913 28.8194 128.822 -38.3932 51.4871 134.761 -23.3318 61.3836 137.611 8.28242 -0.856281 170.646 41.6436 5.75156 8.90817 61.9885 
161.8 134.132 161.941 163.388 167.764 157.426 100.326 149.636 155.815 152.485 -21.4707 118.742 7.45998 -14.6393 122.852 16.3813 29.1038 128.861 -38.3514 51.7391 134.734 -23.3045 61.6494 137.527 8.32632 -0.531595 170.625 41.6342 5.77607 8.88577 62.3769 
161.776 134.126 161.902 163.304 167.681 157.428 100.075 149.451 155.779 152.355 -21.2912 118.67 7.49695 -14.4537 122.888 16.7123 29.3031 128.76 -38.1989 51.9298 134.689 -23.2407 61.8777 137.461 8.39294 -0.259174 170.561 41.6495 5.807 8.9279 62.7012 
161.775 134.134 161.821 163.214 167.593 157.409 99.8757 149.259 155.708 152.195 -20.9215 118.521 7.57594 -14.2227 122.888 16.9253 29.5086 128.715 -38.1218 52.1379 134.732 -23.2479 62.1092 137.489 8.38386 0.0306065 170.52 41.6271 5.8068 8.96749 62.9394 
161.844 134.089 161.742 163.189 167.5 157.354 99.8972 149.134 155.703 152.11 -20.2377 118.202 7.74896 -13.8063 122.7 16.9767 29.7445 128.671 -38.1017 52.3882 134.95 -23.3533 62.4316 137.789 8.28925 0.317836 170.497 41.5757 5.8311 9.05612 62.9306 
161.924 134.2 161.654 163.147 167.424 157.282 100.013 148.975 155.636 151.981 -19.2911 117.835 7.90762 -13.3511 122.491 16.9174 30.0269 128.721 -38.1364 52.6942 135.292 -23.5031 62.7856 138.193 8.15293 0.607711 170.487 41.4979 5.84272 9.16688 62.8493 
162.002 134.401 161.551 163.097 167.364 157.181 100.258 148.822 155.518 151.835 -18.1987 117.467 8.04313 -12.8612 122.258 16.7745 30.3256 128.848 -38.2265 53.0094 135.713 -23.7209 63.1539 138.674 7.92888 0.902177 170.494 41.3951 5.84118 9.27219 62.69 
162.104 134.722 161.442 163.068 167.344 157.107 100.612 148.705 155.377 151.675 -17.0931 117.16 8.11215 -12.369 122.006 16.5083 30.6376 129.036 -38.3717 53.3218 136.132 -23.9469 63.4814 139.124 7.70241 1.16506 170.507 41.2905 5.81575 9.33743 62.4255 
162.195 135.055 161.399 163.091 167.369 157.006 101.015 148.659 155.253 151.561 -15.9221 116.973 8.09535 -11.9014 121.823 16.1549 30.9602 129.265 -38.6062 53.6293 136.508 -24.2242 63.7702 139.523 7.41424 1.42372 170.565 41.1357 5.75768 9.35456 62.1333 
162.216 135.406 161.4 163.136 167.407 156.844 101.433 148.68 155.177 151.498 -14.7546 116.931 7.98048 -11.4482 121.712 15.7337 31.3508 129.605 -38.9365 53.9869 136.917 -24.5497 64.0623 139.883 7.09872 1.69534 170.625 40.9738 5.68465 9.35022 61.8993 
162.186 135.771 161.404 163.18 167.439 156.676 101.769 148.744 155.116 151.435 -13.7512 117.033 7.80752 -11.1095 121.724 15.3261 31.6769 130.018 -39.3436 54.2841 137.361 -24.9395 64.2917 140.256 6.72485 1.931 170.742 40.7815 5.60798 9.33586 61.7709 
162.163 136.083 161.423 163.241 167.466 156.535 102.145 148.857 155.11 151.468 -12.8636 117.154 7.73073 -10.8201 121.721 15.004 31.8854 130.296 -39.6877 54.4886 137.706 -25.2969 64.4907 140.602 6.3641 2.15629 170.89 40.6163 5.5598 9.34939 61.6072 
162.157 136.311 161.481 163.342 167.511 156.433 102.524 149.046 155.207 151.589 -12.0203 117.196 7.65828 -10.501 121.638 14.7471 32.1034 130.397 -39.986 54.7044 137.911 -25.6265 64.7084 140.854 6.02937 2.37491 170.999 40.4156 5.52151 9.36413 61.4367 
162.145 136.789 161.627 163.529 167.519 156.336 102.903 149.407 155.344 151.671 -10.5903 117.404 7.28217 -9.81004 121.731 14.2804 32.5933 131.006 -40.8316 55.2014 138.486 -26.3375 65.1835 141.403 5.39223 2.86587 171.252 40.0071 5.47572 9.28313 61.524 
162.14 137.009 161.68 163.678 167.567 156.362 103.11 149.594 155.41 151.749 -10.1334 117.55 7.0822 -9.50495 121.797 14.1425 32.707 131.261 -41.1412 55.3014 138.665 -26.5218 65.2807 141.639 5.23111 2.97641 171.415 39.874 5.45867 9.18737 61.5038 
162.159 137.159 161.681 163.743 167.528 156.416 103.28 149.759 155.486 151.801 -9.72354 117.589 6.9281 -9.18493 121.815 13.9737 32.8753 131.464 -41.4763 55.4827 138.809 -26.7447 65.4659 141.794 5.06521 3.16103 171.532 39.707 5.47056 9.1262 61.5265 
162.209 137.23 161.682 163.822 167.508 156.526 103.428 149.887 155.557 151.856 -9.43781 117.592 6.72536 -8.83693 121.828 13.834 33.0231 131.574 -41.7435 55.6328 138.911 -26.948 65.6499 141.957 4.89253 3.3371 171.646 39.5266 5.49191 9.08139 61.4969 
162.249 137.346 161.682 163.854 167.471 156.621 103.469 149.983 155.583 151.848 -9.11578 117.59 6.49933 -8.46649 121.943 13.6776 33.2325 131.791 -42.0137 55.8115 139.068 -27.1298 65.825 142.115 4.74682 3.53006 171.77 39.3393 5.49626 9.00966 61.5319 
162.313 137.376 161.615 163.843 167.398 156.756 103.481 150.053 155.583 151.766 -8.93651 117.531 6.25117 -8.08119 122.032 13.5296 33.4289 131.991 -42.2484 55.9757 139.218 -27.2852 65.9824 142.248 4.62853 3.70067 171.86 39.1581 5.50347 8.9422 61.5557 
162.378 137.392 161.595 163.862 167.357 156.887 103.432 150.141 155.6 151.685 -8.82857 117.625 6.00525 -7.70424 122.221 13.4618 33.6625 132.235 -42.3987 56.1503 139.396 -27.3645 66.1302 142.425 4.57524 3.85715 172.03 39.024 5.49537 8.84723 61.5925 
162.467 137.399 161.558 163.865 167.318 157.039 103.408 150.236 155.606 151.59 -8.77416 117.709 5.78567 -7.36267 122.387 13.3855 33.8648 132.446 -42.5317 56.3033 139.517 -27.4196 66.2574 142.538 4.54168 4.00247 172.201 38.9072 5.48807 8.74473 61.5897 
162.526 137.353 161.492 163.852 167.271 157.163 103.318 150.268 155.572 151.439 -8.70774 117.831 5.50561 -7.05614 122.605 13.2898 34.0767 132.641 -42.6451 56.4618 139.626 -27.4844 66.3811 142.623 4.48489 4.15873 172.36 38.7654 5.47303 8.65799 61.5832 
162.575 137.364 161.395 163.795 167.204 157.255 103.301 150.246 155.499 151.264 -8.67983 117.938 5.2829 -6.74804 122.768 13.1548 34.298 132.819 -42.7114 56.6231 139.7 -27.5089 66.4957 142.652 4.45852 4.31132 172.503 38.6398 5.45266 8.56743 61.5145 
162.639 137.252 161.286 163.72 167.116 157.351 103.308 150.212 155.476 151.13 -8.79714 117.966 5.16739 -6.52463 122.837 13.0859 34.4356 132.899 -42.7225 56.7457 139.789 -27.5438 66.6202 142.712 4.43104 4.43478 172.605 38.546 5.46954 8.55302 61.4661 
162.688 137.178 161.167 163.618 167.011 157.412 103.305 150.161 155.452 150.966 -8.80275 117.937 5.12906 -6.3253 122.866 13.0477 34.6011 132.984 -42.7306 56.9272 139.938 -27.5797 66.7996 142.823 4.42122 4.55193 172.677 38.4501 5.50619 8.58207 61.4851 
162.729 137.113 161.065 163.528 166.932 157.439 103.322 150.049 155.435 150.806 -8.79878 118.01 5.03205 -6.15755 122.947 12.9993 34.768 133.133 -42.7314 57.1386 140.212 -27.6524 67.0239 143.037 4.37555 4.6925 172.788 38.3511 5.55753 8.67606 61.5164 
162.772 136.976 160.971 163.46 166.859 157.478 103.389 149.943 155.466 150.694 -8.72844 118.06 4.92012 -5.94494 122.95 12.9788 34.9664 133.261 -42.7263 57.3858 140.537 -27.7557 67.2993 143.314 4.30136 4.84375 172.856 38.2571 5.61834 8.80516 61.5639 
162.792 136.806 160.866 163.379 166.796 157.478 103.435 149.783 155.494 150.568 -8.56734 118.084 4.86239 -5.76425 122.944 13.0401 35.1804 133.357 -42.682 57.6626 140.869 -27.8468 67.6019 143.589 4.24156 5.01409 172.907 38.1615 5.68487 8.97166 61.6956 
162.783 136.729 160.778 163.295 166.767 157.443 103.47 149.58 155.486 150.432 -8.35908 118.251 4.76792 -5.62579 123.051 13.0549 35.393 133.519 -42.6111 57.9317 141.229 -27.9089 67.8811 143.868 4.19225 5.2077 173.025 38.0779 5.72956 9.1313 61.7755 
162.785 136.745 160.717 163.235 166.724 157.436 103.62 149.413 155.507 150.35 -8.18678 118.462 4.67019 -5.49743 123.106 13.0525 35.6098 133.697 -42.5458 58.2152 141.624 -27.9822 68.2034 144.202 4.14234 5.39111 173.158 38.0241 5.80135 9.30766 61.8162 
162.762 136.706 160.681 163.196 166.724 157.398 103.754 149.223 155.555 150.305 -7.92752 118.63 4.57824 -5.45984 123.154 13.0841 35.7816 133.781 -42.4776 58.4668 141.966 -28.1025 68.4929 144.479 4.04404 5.56746 173.262 37.9366 5.86619 9.52625 61.8863 
162.773 136.77 160.719 163.204 166.743 157.375 103.988 149.1 155.651 150.327 -7.54193 118.692 4.60206 -5.37438 123.085 13.1012 35.9479 133.783 -42.4072 58.7205 142.26 -28.2065 68.8045 144.745 3.97292 5.73999 173.326 37.877 5.94746 9.75654 61.8774 
162.788 136.937 160.768 163.207 166.783 157.371 104.34 148.948 155.681 150.331 -7.10433 118.846 4.50917 -5.21971 123.031 13.0415 36.1381 133.797 -42.3075 58.9719 142.55 -28.2975 69.1289 145.041 3.88407 5.9284 173.429 37.7928 6.02565 9.97747 61.7335 
162.805 137.136 160.765 163.158 166.773 157.369 104.714 148.771 155.658 150.271 -6.63302 118.904 4.48294 -4.97544 122.883 12.9632 36.3681 133.724 -42.1712 59.249 142.762 -28.3404 69.4693 145.277 3.85116 6.12108 173.484 37.7093 6.10994 10.1887 61.5165 
162.818 137.398 160.791 163.116 166.773 157.381 105.089 148.577 155.563 150.184 -6.12134 118.96 4.37521 -4.71857 122.739 12.8458 36.5682 133.619 -42.0755 59.4841 142.891 -28.4103 69.7906 145.464 3.76879 6.32793 173.523 37.5783 6.19362 10.3715 61.277 
162.855 137.791 160.785 163.047 166.726 157.442 105.492 148.35 155.395 149.994 -5.52446 119.03 4.19928 -4.3616 122.579 12.6591 36.8189 133.532 -41.9755 59.7435 143.027 -28.4551 70.1258 145.67 3.71964 6.5564 173.565 37.4365 6.27663 10.5287 60.9439 
162.913 138.241 160.83 163.005 166.708 157.536 105.858 148.159 155.191 149.796 -4.95868 119.189 3.97845 -3.99718 122.531 12.4334 37.0509 133.516 -41.9094 59.9601 143.16 -28.512 70.4125 145.882 3.6438 6.77775 173.683 37.2863 6.3393 10.6292 60.5704 
162.95 138.688 160.847 162.983 166.663 157.651 106.106 148.039 154.993 149.601 -4.36345 119.396 3.65451 -3.57017 122.538 12.1155 37.3087 133.569 -41.9608 60.1655 143.271 -28.6297 70.6568 146.061 3.4985 6.99451 173.794 37.1043 6.36098 10.6425 60.1863 
162.957 139.165 160.824 162.957 166.567 157.713 106.208 147.982 154.83 149.424 -3.77715 119.672 3.35812 -3.15254 122.635 11.7486 37.6066 133.751 -42.1211 60.3991 143.44 -28.8057 70.8762 146.22 3.31183 7.22133 173.931 36.9216 6.34229 10.6028 59.8867 
162.935 139.657 160.75 162.899 166.431 157.781 106.136 147.934 154.628 149.168 -3.16421 119.929 3.01856 -2.75252 122.821 11.2984 37.9175 134.038 -42.4149 60.6302 143.628 -29.0537 71.0391 146.322 3.06351 7.44777 174.059 36.6882 6.28077 10.5002 59.6692 
162.865 140.163 160.69 162.862 166.281 157.765 105.928 147.923 154.438 148.911 -2.57576 120.298 2.8102 -2.46906 123.211 10.9796 38.2054 134.496 -42.729 60.8347 143.92 -29.3028 71.1465 146.485 2.79828 7.67714 174.309 36.5079 6.17641 10.3578 59.6346 
162.72 140.558 160.631 162.854 166.134 157.689 105.59 147.944 154.265 148.657 -1.90203 120.678 2.51557 -2.31197 123.724 10.7097 38.4596 135.008 -43.1732 61.0086 144.172 -29.64 71.2055 146.559 2.44773 7.93021 174.551 36.259 6.05519 10.1807 59.811 
162.542 141.027 160.54 162.819 165.984 157.603 105.146 147.944 154.031 148.37 -1.30374 121.136 2.23627 -2.24951 124.39 10.5135 38.6662 135.648 -43.6467 61.1345 144.416 -29.9493 71.1899 146.575 2.11658 8.18894 174.869 36.0309 5.90838 9.92446 60.117 
162.36 141.561 160.394 162.793 165.786 157.527 104.679 147.932 153.787 148.095 -0.806867 121.542 1.98088 -2.24994 125.056 10.3127 38.7851 136.311 -44.1787 61.2122 144.651 -30.2822 71.1761 146.588 1.77964 8.45128 175.189 35.8049 5.80703 9.66882 60.4756 
162.214 141.975 160.358 162.858 165.672 157.486 104.213 147.981 153.624 147.933 -0.400548 122.01 1.66824 -2.28727 125.777 10.1557 38.8524 136.987 -44.6835 61.2455 144.921 -30.6009 71.1331 146.671 1.44347 8.69429 175.551 35.6144 5.70147 9.42475 60.8205 
162.042 142.469 160.332 162.906 165.546 157.452 103.842 148.089 153.493 147.841 -0.179835 122.537 1.34144 -2.3775 126.53 9.98931 38.8569 137.779 -45.2636 61.2281 145.218 -30.9554 71.0575 146.743 1.07436 8.94298 175.968 35.4356 5.60744 9.14449 61.2178 
161.921 142.929 160.309 162.93 165.424 157.479 103.619 148.227 153.422 147.811 -0.0639515 122.927 1.05111 -2.41369 127.11 9.76583 38.8731 138.444 -45.7727 61.2425 145.441 -31.2441 71.0251 146.763 0.791829 9.1707 176.306 35.2899 5.5522 8.91312 61.4812 
161.826 143.291 160.332 162.948 165.34 157.514 103.46 148.404 153.385 147.788 -0.0943012 123.376 0.782309 -2.44669 127.711 9.50626 38.904 139.167 -46.2577 61.2745 145.707 -31.4964 70.9829 146.786 0.564249 9.39728 176.69 35.189 5.50401 8.68315 61.6882 
