166.716 143.762 180 174.27 90.0456 162.884 88.5862 179.995 179.216 147.453 179.537 220.855 -91.2541 184.595 223.212 -102.204 231.716 227.82 -141.513 243.936 248.876 -125.114 228.907 258.213 -87.3859 170.079 280.066 -85.2483 19.2402 7.45902 49.953 
166.233 144.198 180 174.27 90.0456 162.437 87.3941 179.98 179.004 147.541 179.645 221.201 -91.3251 184.512 224.201 -102.387 232.373 229.621 -141.56 244.81 249.413 -125.324 227.731 258.113 -86.4992 169.99 280.356 -85.1491 21.2484 6.94702 50.7114 
165.996 147.859 180 174.27 90.0456 162.083 87.2312 177.077 178.922 147.62 179.877 221.584 -91.5895 184.883 224.772 -102.387 232.01 229.225 -140.774 245.268 249.613 -125.209 226.375 257.981 -85.6742 170.061 280.709 -85.1916 23.1788 7.85634 49.8813 
165.723 158.067 180 174.27 90.0456 161.488 87.5822 169.245 178.833 147.44 180.266 221.827 -91.7197 184.747 225.127 -101.573 230.95 226.879 -139.002 245.759 249.455 -125.182 225.168 257.843 -85.3006 170.311 281.096 -85.3648 24.5207 10.2716 48.8646 
165.531 166.463 180 174.27 90.0457 161.084 88.2242 162.917 178.78 147.006 180.686 222.193 -92.025 184.238 225.706 -100.764 230.003 225.283 -137.415 246.054 249.251 -125.051 224.514 258.041 -84.9911 170.567 281.568 -85.6405 24.9721 12.1557 48.5698 
165.53 165.606 180 174.27 90.0456 160.962 88.4344 158.516 178.741 145.789 181.035 222.513 -92.406 184.617 226.593 -100.77 229.2 224.239 -136.114 246.359 249.224 -124.895 225.081 259.225 -83.9333 170.83 282.02 -85.8768 24.4152 13.6679 47.2838 
165.583 166.106 180 174.27 174.27 160.919 88.8359 155.03 178.715 108.124 181.386 222.795 -92.4363 184.505 227.234 -100.188 228.785 223.833 -135.081 246.68 249.594 -124.856 221.695 258.069 -85.3411 170.937 282.283 -86.1465 26.4281 14.8074 47.2424 
165.972 164.712 180 174.27 174.27 161.067 89.8776 152.753 178.638 115.748 181.435 222.83 -92.3147 184.485 227.476 -99.6208 228.471 223.552 -134.283 247.128 250.071 -124.978 224.361 258.18 -87.3347 171.088 282.674 -86.1263 23.0669 15.8473 47.1079 
166.162 165.065 180 174.27 174.27 161.108 90.8267 151.379 178.589 135.909 181.458 223.03 -92.1291 183.688 227.671 -98.9849 228.395 223.844 -133.791 247.339 250.449 -124.929 230.411 260.98 -90.269 171.091 283.171 -86.1401 14.9043 16.2373 47.8375 
166.354 164.07 180 174.27 175.986 161.182 91.9946 150.903 178.58 178.339 181.487 223.162 -91.8773 182.891 227.679 -98.0116 228.502 224.533 -133.781 247.382 251.067 -124.898 238.603 267.273 -92.0199 171.056 283.576 -86.0462 5.46178 16.2199 49.3065 
166.551 158.521 180 174.27 137.755 161.745 94.4346 153.468 178.655 162.892 180.969 222.503 -90.8543 181.631 227.029 -96.4024 229.362 226.524 -135.746 248.147 255.005 -126.922 237.425 268.548 -93.9875 170.545 283.457 -85.7112 5.3689 17.3221 53.0739 
166.418 156.102 180 177.106 146.969 161.973 96.0685 158.337 179.014 152.938 180.644 222.162 -90.2332 180.591 226.272 -95.8114 230.303 229.437 -138.904 247.723 255.675 -127.734 237.108 268.532 -94.8362 170.025 283.364 -85.3974 5.03661 14.7661 56.8587 
166.184 154.597 180 171.046 159.016 162.034 97.6253 165.098 176.951 146.754 180.464 221.911 -89.6103 179.402 225.713 -94.8848 231.141 233.054 -142.724 247.362 255.846 -128.266 236.664 268.152 -95.7303 169.645 283.355 -85.2342 4.92574 11.4673 61.8185 
166.016 153.787 180 168.453 165.516 162.102 99.0059 174.189 176.069 142.982 180.219 221.713 -89.0944 178.757 225.241 -94.3988 231.685 237.794 -147.299 246.887 256.275 -128.908 236.036 267.776 -96.3535 169.314 283.444 -85.125 5.5014 8.11146 66.9599 
166.037 153.272 180 166.434 163.011 162.282 100.359 177.91 175.152 141.304 179.795 221.303 -88.508 178.492 224.601 -93.9572 231.828 239.792 -149.04 246.395 256.712 -129.489 235.543 267.722 -96.7621 168.944 283.458 -84.9258 5.97411 6.94113 68.8307 
166.103 154.162 173.166 166.739 157.047 162.488 101.784 177.701 175.482 141.044 179.132 220.688 -87.9853 178.511 223.623 -93.9913 231.686 239.708 -149.064 246.47 257.587 -130.023 235.188 267.461 -96.9972 168.5 283.353 -84.6555 7.10749 7.41703 68.0883 
166.139 154.746 174.102 167.344 151.462 162.692 102.959 178.014 175.685 141.772 178.47 220.154 -87.4363 178.41 222.646 -94.0564 232.162 240.317 -148.929 246.159 258.088 -130.579 235.012 267.635 -97.1863 167.966 283.193 -84.3446 7.38195 6.83094 67.7303 
166.137 155.275 175.183 168.781 145.804 162.772 103.563 178.378 176.172 142.077 177.767 219.758 -87.0076 178.175 221.963 -93.9177 231.49 240.044 -149.054 245.693 258.265 -130.939 234.508 267.576 -97.0797 167.453 282.992 -84.0256 7.7645 7.08779 67.4157 
166.088 155.601 176.776 170.543 143.844 162.82 103.559 178.914 176.771 142.058 177.166 219.474 -86.7284 177.881 221.582 -93.9948 230.82 239.961 -149.279 245.138 258.329 -131.22 233.819 267.245 -96.913 166.968 282.774 -83.7542 8.29659 7.18565 67.2578 
166.099 156.441 177.159 171.722 139.501 162.913 103.382 179.043 177.173 141.167 176.572 219.227 -86.4155 177.348 221.426 -93.3834 229.933 239.611 -149.247 244.516 258.307 -131.096 232.676 267.058 -96.2787 166.439 282.559 -83.4194 8.86575 7.4719 67.5822 
166.131 156.561 177.943 173.061 135.939 163.056 102.935 179.307 177.629 142.721 175.674 218.72 -86.1856 176.651 221.242 -92.7689 229.19 239.392 -149.348 243.852 258.418 -131.19 232.383 267.444 -96.1736 165.894 282.285 -83.1095 8.50545 7.65372 68.1801 
166.328 157.022 178.004 173.213 132.629 163.225 102.61 179.327 177.681 144.409 174.775 218.199 -85.9964 175.963 220.887 -92.2913 228.443 239.091 -149.221 243.207 258.53 -131.201 232.29 267.972 -96.0918 165.286 281.965 -82.8126 7.96888 7.87598 68.4726 
166.356 157.325 177.796 174.199 132.772 163.249 102.288 179.257 178.018 146.499 173.993 217.726 -85.6698 175.253 220.583 -91.6735 227.729 238.865 -148.983 242.564 258.53 -131.095 232.381 268.305 -96.1167 164.679 281.63 -82.4987 7.3657 8.00315 68.9155 
166.179 157.006 177.913 174.17 141.151 162.782 101.393 179.296 178.008 152.281 172.861 217.183 -85.278 174.082 220.356 -92.0949 226.892 239.455 -149.659 241.428 258.574 -131.724 233.6 269.32 -97.5827 163.723 281.119 -82.2816 5.18308 7.61861 69.5885 
166.158 156.646 177.473 174.047 153.48 162.517 100.645 179.148 177.966 156.713 172.088 217.035 -85.3573 173.33 220.533 -92.5729 226.464 240.034 -149.969 240.791 258.666 -131.943 234.745 270.384 -98.6584 163.133 280.851 -82.1865 3.63959 7.37061 70.0114 
165.946 156.884 176.143 172.978 161.77 161.929 100.204 178.7 177.601 160.481 171.43 216.934 -85.1984 172.311 220.495 -92.2065 225.947 240.539 -150.22 240.29 258.96 -132.025 235.758 271.943 -99.4512 162.544 280.528 -81.9915 3.16033 7.33968 71.1839 
165.764 156.172 174.427 171.56 167.247 161.432 99.5949 178.122 177.118 163.245 170.69 216.87 -84.9867 171.42 220.544 -91.9383 225.448 240.981 -150.302 239.928 259.294 -132.005 236.343 273.559 -100.052 161.892 280.265 -81.7635 3.76733 7.37103 71.993 
165.602 156.568 172.073 170.629 170.891 160.888 99.4729 177.33 176.638 165.348 169.906 216.976 -84.5266 170.099 220.454 -91.4028 224.778 241.277 -150.261 239.445 259.546 -132.076 236.575 274.676 -100.449 161.245 280.165 -81.4844 4.64494 7.45344 72.9868 
165.402 156.005 169.985 170.702 173.814 160.42 99.7676 176.628 176.455 167.005 169.315 217.385 -84.2742 168.915 220.574 -91.1351 223.943 241.239 -150.412 238.653 259.303 -132.269 236.563 275.096 -100.819 160.626 280.143 -81.4012 5.56641 7.46519 73.5504 
165.239 155.36 168.337 170.919 176.188 160.017 100.548 176.074 176.239 167.728 168.731 217.509 -83.967 168.069 220.293 -90.4985 223.163 241.018 -150.413 238.058 259.264 -132.34 236.428 275.813 -100.982 160.028 280.016 -81.2713 6.45692 7.68629 74.0083 
164.954 155.049 168.342 170.95 177.369 159.535 100.83 175.677 176.205 168.776 168.3 217.635 -83.8155 166.822 220.285 -89.9298 222.267 240.958 -150.676 237.407 259.196 -132.465 236.207 276.051 -101.094 159.46 279.859 -81.2047 7.06092 7.89083 75.0128 
164.777 153.805 169.673 171.029 178.442 159.209 100.73 175.468 176.457 169.831 167.604 217.674 -83.5657 166.075 220.428 -90.0561 221.323 240.71 -150.867 236.597 258.939 -132.473 235.709 275.893 -101.09 158.795 279.707 -81.0693 7.3918 8.04665 74.9533 
164.681 153.396 171.155 171.316 179.878 159.045 100.913 175.114 176.623 169.681 166.89 217.603 -83.4483 165.128 220.371 -89.8118 220.188 240.22 -150.933 235.766 258.567 -132.33 235.02 275.46 -100.882 158.08 279.486 -80.8531 7.52878 8.34033 75.0645 
164.747 153.809 172.412 171.774 178.477 158.98 101.578 174.392 176.617 169.135 165.87 217.4 -83.2549 163.964 220.078 -89.6292 218.934 239.504 -150.805 234.889 257.991 -132.183 234.17 274.63 -100.59 157.263 279.347 -80.5984 7.4385 8.66957 74.8205 
164.776 155.672 172.794 172.469 177.617 158.803 102.483 173.019 176.144 168.035 164.66 217.188 -82.8453 161.978 219.689 -88.6208 217.458 238.452 -150.298 233.972 257.503 -132.025 233.079 274.073 -100.491 156.291 279.24 -80.2454 7.32494 9.27918 75.166 
164.799 156.341 172.757 173.087 177.568 158.716 103.223 171.394 175.548 166.529 163.451 217.045 -82.4866 160.355 219.326 -87.7371 215.808 237.222 -149.712 233.108 257.161 -131.874 232.08 273.772 -100.342 155.321 279.185 -79.8622 7.26278 10.1049 74.9794 
164.824 155.35 172.873 173.421 178.146 158.677 103.975 169.855 175 165.19 162.218 216.741 -82.1645 158.865 218.67 -87.2443 213.997 235.57 -149.049 232.039 256.402 -131.751 231.011 273.042 -100.166 154.298 279.053 -79.499 7.12217 10.8809 74.0417 
164.657 154.546 173.751 173.603 178.696 158.426 104.105 168.41 174.73 163.95 161.191 216.713 -82.1265 157.431 218.448 -87.0633 212.466 234.162 -148.471 231.116 255.709 -131.723 230.006 272.009 -99.9524 153.471 279.007 -79.2762 6.74666 11.568 73.2367 
164.581 154.501 174.771 173.86 178.756 158.301 104.255 167.167 174.615 162.927 160.124 216.771 -82.1768 155.897 218.542 -86.6445 210.997 233.016 -148.041 230.198 255.109 -131.823 228.925 270.944 -99.9451 152.784 279.118 -79.1513 6.23505 12.1798 72.9829 
164.726 154.061 175.71 174.299 178.428 158.461 104.374 166.195 174.644 162.071 159.056 216.785 -82.1141 154.537 218.857 -86.385 209.531 232.118 -147.556 229.192 254.523 -131.785 227.656 269.869 -99.8975 152.096 279.388 -78.9916 5.62172 12.6487 72.5308 
164.88 154.354 176.686 174.538 178.421 158.582 104.503 165.706 174.606 160.886 158.188 216.928 -82.1079 153.773 219.199 -86.3331 208.335 231.735 -147.195 228.247 254.406 -131.684 226.423 269.492 -99.7125 151.376 279.692 -78.7926 5.24897 12.974 71.8721 
165.087 154.337 177.275 174.58 178.48 158.823 104.285 165.587 174.695 160.549 157.286 216.915 -81.9114 152.81 219.422 -86.075 207.176 231.427 -146.866 227.207 254.286 -131.443 224.98 268.98 -99.5531 150.487 279.962 -78.4015 4.4668 13.0574 71.4595 
165.347 153.974 177.328 174.595 178.662 159.11 104.075 165.739 175.086 160.744 156.409 216.783 -81.9287 151.95 219.482 -85.6581 206.222 231.318 -146.619 226.263 254.396 -131.387 223.655 268.871 -99.478 149.698 280.127 -78.0109 3.86627 13.0907 71.3963 
165.446 153.986 177.157 174.646 179.031 159.226 104.025 165.918 175.424 160.962 155.31 216.575 -82.0179 150.667 219.362 -85.2544 205.298 231.316 -146.442 225.363 254.522 -131.295 222.519 268.677 -99.2465 148.83 280.147 -77.6247 3.44705 13.1277 71.682 
165.48 153.168 176.635 174.686 178.997 159.473 103.889 166.031 175.391 160.99 153.914 216.228 -81.9522 149.443 219.124 -85.1281 204.362 231.459 -146.486 224.49 254.826 -131.298 221.872 268.898 -99.0345 147.997 280.178 -77.2454 3.54091 13.1571 71.8599 
165.593 152.59 175.971 174.697 177.016 159.766 103.54 165.875 175.192 160.941 152.475 216.004 -81.9594 148.341 218.984 -85.1432 203.46 231.459 -146.477 223.657 255.174 -131.245 221.434 269.389 -98.715 147.262 280.272 -76.9262 3.94986 13.3107 71.8315 
165.67 153.482 175.476 174.672 174.678 159.776 103.731 165.84 174.892 160.569 150.926 215.924 -81.6907 146.945 218.798 -84.5521 202.472 231.13 -146.235 222.705 255.077 -131.149 220.76 269.42 -98.3851 146.491 280.402 -76.544 4.17861 13.3846 72.0864 
165.832 153.927 175.261 174.56 173.038 159.983 103.446 165.903 174.601 160.099 149.613 216.173 -81.8505 145.493 219.209 -84.2825 201.59 231.365 -146.333 221.746 255.166 -131.199 219.959 269.468 -98.2732 145.846 280.792 -76.3506 4.22071 13.2373 72.6193 
165.798 154.061 175.043 174.322 171.156 159.908 103.324 165.987 174.313 159.736 148.632 216.47 -81.9608 144.116 219.538 -83.8161 200.849 231.604 -146.499 220.98 255.296 -131.287 219.429 269.545 -98.1701 145.299 281.055 -76.1863 4.36426 13.1376 73.4204 
165.708 153.882 175.103 174.062 169.653 159.791 103.136 166.277 174.038 159.599 147.91 216.771 -81.8449 143.014 219.859 -83.1097 200.195 231.936 -146.636 220.227 255.593 -131.381 218.914 269.941 -98.1998 144.723 281.268 -75.9575 4.51177 12.9983 74.2944 
165.516 153.964 175.185 173.878 168.959 159.478 103.388 166.323 173.856 159.353 147.309 217.316 -82.0121 141.663 220.403 -82.6085 199.312 232.255 -147.032 219.439 255.762 -131.712 218.323 270.028 -98.4769 144.142 281.507 -75.9194 4.62152 13.0467 75.2123 
165.554 153.872 175.25 173.722 167.902 159.506 103.604 166.147 173.662 159.369 146.769 217.727 -82.1982 140.609 220.834 -81.9584 198.548 232.675 -147.161 218.807 256.202 -131.925 218.005 270.514 -98.7038 143.719 281.898 -75.8391 4.77083 13.0972 76.0043 
165.501 153.601 175.432 173.634 167.699 159.473 103.84 166.013 173.401 159.313 146.207 218.233 -82.3825 139.596 221.384 -81.5364 197.767 232.911 -147.342 218.125 256.507 -132.097 217.712 270.923 -98.8551 143.36 282.273 -75.7841 5.09196 13.2703 76.5732 
165.445 153.354 175.804 173.606 168.04 159.334 103.808 165.829 173.448 159.727 145.603 218.643 -82.571 138.644 221.984 -81.0506 196.96 232.903 -147.405 217.493 256.524 -132.253 217.293 271.008 -99.098 143.15 282.662 -75.7453 5.11138 13.3802 77.1071 
165.444 153.129 175.936 173.567 168.269 159.327 103.515 165.914 173.357 159.795 145.081 219.192 -82.4453 137.917 222.662 -80.4857 196.316 233.176 -147.312 216.774 256.787 -132.266 216.741 271.458 -99.2519 142.788 283.103 -75.5377 5.14923 13.3213 77.5846 
165.315 152.743 176.214 173.551 168.574 159.125 103.141 165.829 173.414 160.009 144.55 219.654 -82.5061 136.967 223.459 -80.0209 195.565 233.499 -147.304 216.111 256.99 -132.356 216.137 271.536 -99.3415 142.396 283.456 -75.3896 5.0561 13.3345 78.2355 
164.994 152.737 176.392 173.581 169.191 158.782 102.937 165.724 173.344 159.796 144.024 220.279 -82.7319 136.082 224.464 -79.8724 194.77 234.027 -147.598 215.445 257.206 -132.586 215.537 271.364 -99.5026 142.064 283.887 -75.4076 4.93882 13.3648 78.8218 
164.817 152.427 176.783 173.653 169.765 158.518 102.604 165.931 173.415 160.194 143.548 220.681 -82.8023 135.471 225.116 -79.8584 194.306 234.664 -147.852 214.922 257.638 -132.717 215.042 271.437 -99.5614 141.759 284.277 -75.3292 4.76395 13.2687 79.214 
164.345 151.407 177.325 173.809 170.605 158.085 102.651 165.789 173.55 160.846 142.991 221.302 -83.097 134.312 226.118 -79.9677 193.559 235.104 -148.026 214.28 257.808 -132.852 214.478 271.071 -99.6776 141.514 284.764 -75.3981 4.5931 13.3897 79.6657 
164.054 150.317 177.969 173.746 170.695 157.679 102.708 165.493 173.451 161.515 142.556 221.601 -82.9476 133.665 226.696 -79.6532 192.911 235.162 -147.797 213.808 257.923 -132.735 214.399 271.183 -99.4952 141.301 285.098 -75.3713 4.86913 13.5683 79.8797 
163.827 148.963 178.339 173.814 171.194 157.239 102.666 165.355 173.471 162.158 142.119 221.844 -82.6336 133.191 227.108 -79.3851 192.338 235.299 -147.703 213.253 258.181 -132.761 214.032 271.413 -99.4898 140.962 285.385 -75.3311 4.93105 13.6532 80.044 
163.705 148.568 178.705 173.74 170.654 156.99 102.399 165.128 173.354 162.856 141.665 222.056 -82.2946 132.81 227.508 -78.9802 191.642 235.189 -147.309 212.652 258.471 -132.697 213.84 272.06 -99.4647 140.57 285.662 -75.1713 5.26412 13.8764 79.9741 
163.579 148.764 178.524 173.639 170.157 156.81 102.095 164.826 173.157 163.084 141.371 222.511 -82.0282 132.502 228.066 -78.6906 190.971 235.698 -147.301 212.052 259.077 -132.804 213.576 272.996 -99.5576 140.206 286.109 -75.1028 5.56735 13.8819 80.2237 
163.638 148.653 178.508 173.631 169.916 156.85 102.046 164.448 172.946 163.119 140.989 223.04 -81.7396 132.018 228.571 -78.2776 190.062 235.93 -147.23 211.35 259.493 -132.894 213.191 273.793 -99.6298 139.86 286.618 -75.006 5.83654 13.9895 80.3814 
163.566 149.028 178.123 173.354 168.866 156.865 101.89 163.938 172.389 162.614 140.856 223.582 -81.5852 131.844 229.1 -78.2772 189.364 236.757 -147.422 210.761 260.223 -133.011 212.97 274.743 -99.6294 139.53 287.198 -75.0021 6.17354 13.8938 80.4513 
163.348 148.565 178.511 172.988 168.588 156.567 101.827 162.989 171.762 162.403 140.197 224.813 -81.3348 130.86 230.569 -78.0124 187.597 237.615 -147.203 209.4 261.249 -133.023 212.149 276.104 -99.6136 138.706 288.382 -74.954 6.62771 14.1778 80.374 
163.37 149.184 178.689 172.806 169.231 156.498 102.157 162.87 171.672 162.6 139.805 225.407 -81.2771 130.244 231.144 -77.7719 186.831 238.264 -147.229 208.65 261.829 -133.113 211.454 276.602 -99.6872 138.235 288.975 -74.877 6.57812 14.1883 80.5272 
163.231 149.085 178.967 172.495 169.62 156.3 102.566 162.795 171.524 162.793 139.298 225.921 -81.2548 129.527 231.568 -77.7209 186.107 238.806 -147.18 208.024 262.433 -133.108 210.842 277.013 -99.5912 137.773 289.479 -74.7237 6.52909 14.3408 80.4831 
163.36 149.089 178.863 172.243 169.154 156.462 102.328 162.776 171.448 163.004 139.003 226.515 -81.3434 129.299 232.135 -77.8467 185.609 239.39 -147.049 207.491 263.229 -133.119 210.416 277.967 -99.5788 137.325 290.007 -74.5386 6.68726 14.4629 80.1648 
163.365 149.527 178.511 171.866 168.36 156.483 102.186 162.547 171.191 163.17 138.935 227.123 -81.3433 129.304 232.584 -77.9785 185.313 240.009 -146.891 207.156 264.019 -133.056 210.325 279.059 -99.5429 136.985 290.536 -74.4064 7.02006 14.5297 79.7718 
163.363 150.087 178.142 171.593 167.651 156.464 102.292 162.589 171.005 163.254 138.767 227.727 -81.3985 129.308 232.847 -78.132 185.069 240.759 -146.951 206.85 264.909 -133.085 210.178 280.166 -99.535 136.566 291.028 -74.2482 7.2897 14.5441 79.42 
163.568 150.528 177.995 171.713 167.32 156.651 102.394 163.003 171.255 163.828 138.279 227.777 -81.4994 129.189 232.679 -78.0847 184.839 241.242 -147.14 206.55 265.555 -133.31 210.004 280.913 -99.6603 136.136 291.128 -74.0147 7.45751 14.5477 79.3754 
162.983 151.343 176.183 171.338 167.833 156.051 103.439 163.928 171.303 165.011 137.626 227.299 -80.0298 128.612 232.177 -77.284 183.721 241.164 -147.336 205.97 265.435 -133.106 209.962 280.906 -99.9736 135.518 290.911 -73.6508 7.69025 14.6972 79.785 
162.832 152.106 174.778 171.192 168.036 155.86 104.389 164.257 171.011 165.708 136.917 226.707 -78.8417 127.997 231.669 -76.2854 182.507 240.68 -147.068 205.375 265.03 -132.753 209.892 280.736 -99.9892 134.886 290.592 -73.2617 8.02264 14.9781 80.0209 
162.575 152.621 174.65 171.383 168.252 156.062 103.61 164.285 170.732 165.368 136.495 226.783 -78.5536 127.464 232.051 -75.6589 182.109 240.831 -146.623 204.811 265.295 -132.476 209.705 281.308 -99.6165 134.536 290.776 -72.9018 8.37032 14.8909 80.4075 
162.232 152.872 174.911 171.489 168.706 156.263 102.848 164.526 170.75 165.414 136.215 227.217 -78.3934 127.053 232.649 -75.1093 182.225 241.406 -146.365 204.612 265.945 -132.197 209.628 282.224 -99.1621 134.373 291.178 -72.5792 8.63111 14.7099 81.0651 
162.134 152.955 174.994 171.341 168.459 156.535 102.341 164.575 170.738 165.21 135.863 227.646 -78.4912 126.851 232.971 -75.0552 182.41 241.941 -146.264 204.559 266.542 -132.001 209.498 282.986 -98.8023 134.333 291.615 -72.331 8.71752 14.5591 81.1669 
162.408 153 175.169 171.257 168.383 156.999 101.87 164.631 170.853 164.906 135.49 228.113 -78.9739 126.72 233.363 -75.2337 182.613 242.729 -146.299 204.516 267.199 -131.866 209.209 283.509 -98.4957 134.258 292.06 -72.0701 8.56403 14.3444 81.1698 
162.751 152.692 175.878 171.276 168.605 157.295 101.578 164.766 171.138 164.762 135.157 228.711 -79.3634 126.388 233.968 -75.1952 182.717 243.395 -146.138 204.489 267.733 -131.597 208.858 283.904 -98.1215 134.182 292.527 -71.7957 8.37584 14.2468 81.3483 
162.743 152.486 174.707 170.995 168.539 156.94 102.175 165.314 171.171 165.085 135.075 228.888 -78.4258 126.267 234.104 -74.8841 182.446 243.88 -146.143 204.429 267.949 -131.196 208.957 284.022 -98.0588 133.969 292.703 -71.4428 8.40801 14.2291 81.515 
162.583 152.196 175.15 171.27 167.992 157.047 101.738 165.519 171.022 164.843 134.985 229.379 -78.3639 126.1 234.678 -74.5234 182.651 244.486 -145.733 204.32 268.449 -130.879 208.991 284.755 -97.6173 133.914 293.097 -71.0554 8.69166 14.0359 81.7853 
162.755 152.233 175.508 171.034 166.768 157.751 101.186 165.583 170.56 164.903 135.054 230.122 -78.326 126.277 235.139 -74.1423 183.303 245.533 -145.165 204.635 269.514 -130.284 209.662 286.335 -96.9256 133.916 293.728 -70.4046 9.2543 13.788 81.8249 
163.278 152.541 176.148 170.67 165.899 158.206 101.405 165.321 170.325 165.004 135.029 230.564 -78.3658 126.323 235.179 -73.7948 183.513 245.783 -144.63 204.941 270.095 -129.891 210.135 287.229 -96.3393 133.909 294.057 -69.9681 9.64857 13.9831 81.5825 
163.132 152.378 175.236 170.556 166.344 157.755 102.8 165.721 170.578 165.897 134.592 230.477 -77.1543 125.924 234.785 -72.9527 182.881 245.616 -144.207 205.131 270.245 -129.414 210.48 287.17 -96.0995 133.688 294.107 -69.5221 9.62988 14.5625 81.595 
163.308 152.198 174.553 170.522 166.689 157.724 104.028 165.889 170.496 166.38 134.026 230.304 -76.2971 125.721 234.329 -72.5145 182.376 245.456 -143.613 205.116 270.182 -128.861 210.656 286.995 -95.7254 133.409 294.132 -69.0329 9.6809 14.89 81.0855 
163.615 152.2 174.025 170.629 166.957 157.903 105.081 166.085 170.48 166.765 133.384 230.064 -75.6795 125.633 233.804 -72.0524 181.918 245.211 -143.166 204.982 270.108 -128.532 210.715 286.917 -95.5446 133.155 294.136 -68.6357 9.72744 15.1283 80.6189 
163.821 152.593 173.573 170.762 167.233 158.042 105.863 166.169 170.471 167.049 132.845 229.883 -75.1214 125.485 233.497 -71.6313 181.488 245.358 -143.003 204.763 270.109 -128.239 210.673 286.829 -95.3406 132.925 294.17 -68.2804 9.74821 15.1329 80.5893 
163.985 153.052 173.27 170.821 167.352 158.155 106.429 166.131 170.402 167.033 132.432 229.796 -74.5964 125.474 233.398 -71.1953 181.203 245.545 -142.566 204.637 270.246 -127.8 210.581 286.882 -94.9851 132.708 294.283 -67.9422 9.71148 15.1815 80.481 
164.005 153.672 173.05 170.941 167.591 158.092 106.95 166.114 170.407 167.059 132.068 229.833 -74.2515 125.197 233.527 -70.6816 180.848 245.802 -142.32 204.302 270.276 -127.64 210.239 286.624 -94.8933 132.47 294.401 -67.6859 9.51961 15.1208 80.6938 
163.886 154.071 172.863 171.034 167.884 157.918 107.34 165.874 170.363 167.029 131.744 229.767 -73.7554 124.746 233.728 -70.1083 180.217 245.597 -141.967 203.771 269.867 -127.403 209.731 286.027 -94.7438 132.192 294.424 -67.4833 9.37153 15.1215 80.8245 
