162.303 141.042 169.95 172.439 171.266 157.353 96.2784 158.938 165.786 161.25 119.268 234.917 -84.3833 118.413 247.615 -81.7462 165.623 240.636 -147.963 193.29 258.843 -133.67 204.346 271.138 -100.195 134.437 298.713 -73.7043 10.1713 15.8837 74.7892 
163.107 140.35 170.629 172.791 171.157 158.591 96.5669 160.366 167.228 162.87 118.95 233.787 -84.8549 118.828 246.219 -81.5159 166.311 241.207 -149.582 194.384 260.729 -135.254 205.646 273.242 -101.433 134.572 298.047 -73.8959 10.5258 16.4568 76.2537 
163.559 140.053 171.028 172.643 170.695 159.391 96.7846 161.103 167.586 163.209 118.666 232.978 -84.8229 119.039 245.266 -81.191 166.551 241.472 -150.253 194.668 261.602 -135.775 206.139 274.379 -101.838 134.587 297.605 -73.8478 10.7834 16.5723 77.0339 
163.885 139.899 171.217 172.384 170.136 159.982 96.6977 161.284 167.403 163.015 118.816 232.557 -85.0385 119.424 244.696 -81.0588 166.719 241.594 -150.742 194.79 262.034 -136.2 206.454 275.027 -102.223 134.679 297.318 -73.9196 10.9383 16.5354 77.4714 
164.035 139.863 171.296 172.216 169.718 160.369 96.4779 161.366 167.311 162.958 119.069 232.162 -85.1534 119.706 244.347 -80.9697 166.719 241.494 -151.146 194.89 262.196 -136.64 206.75 275.326 -102.644 134.771 297.044 -74.0335 11.059 16.5972 77.7709 
164.243 139.772 171.248 171.927 169.379 160.79 96.4923 161.332 167.085 162.913 119.318 231.856 -85.0703 120.078 243.922 -80.8308 166.65 241.253 -151.434 195.023 262.189 -136.967 207.173 275.593 -102.987 134.892 296.898 -74.1374 11.2537 16.655 77.7943 
164.428 139.494 171.14 171.753 169.188 161.13 96.6989 161.426 167.14 163.262 119.372 231.453 -84.9443 120.303 243.342 -80.75 166.607 240.934 -151.716 195.299 262.228 -137.321 207.74 275.877 -103.299 134.956 296.693 -74.2297 11.4995 16.8465 77.7173 
164.468 139.633 171.071 171.654 169.069 161.229 96.9688 161.415 167.028 163.316 119.752 231.22 -84.91 120.557 242.957 -80.6094 166.698 240.734 -152.022 195.493 262.195 -137.681 208.101 276.067 -103.685 135.075 296.554 -74.3714 11.6218 16.8774 77.8285 
164.561 139.813 171.135 171.781 169.065 161.332 97.1861 161.416 166.95 163.219 120.339 231.156 -84.8512 120.761 242.825 -80.3896 166.822 240.555 -152.148 195.553 262.175 -137.975 208.189 276.292 -104.075 135.191 296.558 -74.4734 11.6153 16.852 77.9228 
164.611 140.084 171.203 171.902 169.078 161.354 97.4997 161.404 166.794 163.063 120.982 231.155 -84.8552 120.956 242.801 -80.1035 166.957 240.435 -152.362 195.501 262.17 -138.317 208.181 276.579 -104.561 135.298 296.637 -74.6303 11.6212 16.7506 78.1161 
164.755 140.213 171.291 172.137 169.265 161.467 97.7956 161.626 167.036 163.296 121.617 231.081 -84.6528 121.154 242.726 -79.8539 167.091 240.292 -152.521 195.52 262.339 -138.725 208.232 277.057 -105.105 135.394 296.766 -74.729 11.6076 16.7633 78.1378 
164.957 140.516 171.31 172.205 169.313 161.63 98.2185 161.955 167.384 163.673 122.223 230.954 -84.4791 121.349 242.492 -79.4675 167.363 240.194 -152.873 195.707 262.644 -139.23 208.411 277.612 -105.667 135.467 296.848 -74.8513 11.585 16.8003 78.3954 
165.201 140.883 171.271 172.256 169.378 161.883 98.6278 162.244 167.542 163.881 122.764 230.878 -84.6017 121.528 242.324 -79.096 167.626 240.144 -153.26 195.762 262.828 -139.711 208.497 278.159 -106.298 135.539 296.922 -75.0157 11.5989 16.6869 78.7083 
165.259 141.531 171.354 172.391 169.472 161.856 99.2051 162.627 167.866 164.225 123.566 230.876 -84.6071 121.697 242.204 -78.7461 168.06 240.477 -153.9 195.919 263.371 -140.355 208.648 278.85 -106.999 135.657 297.027 -75.1973 11.5877 16.5743 79.3013 
165.591 141.933 171.416 172.53 169.61 162.196 99.5653 163.034 168.206 164.573 124.11 230.778 -84.5673 122.084 242.118 -78.2921 168.304 240.442 -154.244 195.98 263.677 -140.917 208.794 279.487 -107.693 135.783 297.186 -75.3366 11.5926 16.5119 79.5582 
165.787 142.404 171.567 172.643 169.687 162.415 99.8424 163.463 168.627 164.973 124.639 230.797 -84.544 122.541 242.158 -77.825 168.789 240.772 -154.637 196.251 264.379 -141.435 209.047 280.342 -108.236 135.923 297.389 -75.4658 11.5593 16.4829 80.0982 
165.859 142.981 171.601 172.677 169.765 162.407 100.365 163.872 168.922 165.465 125.485 230.92 -84.5247 123.146 242.125 -77.3464 169.38 241.034 -154.967 196.617 264.908 -141.896 209.415 281.107 -108.834 136.128 297.605 -75.6341 11.5167 16.3768 80.4865 
165.634 143.353 171.656 172.714 169.809 162.036 100.801 164.415 169.562 166.37 126.129 230.812 -84.306 123.377 241.798 -76.8877 169.806 240.887 -155.19 196.93 265.214 -142.36 209.713 281.587 -109.322 136.195 297.467 -75.7928 11.5269 16.4758 80.9021 
165.275 143.536 171.729 172.662 169.784 161.481 101.018 164.938 170.108 167.073 126.701 230.728 -83.9131 123.702 241.385 -76.4858 170.466 240.654 -155.206 197.42 265.468 -142.628 210.021 282.068 -109.665 136.324 297.223 -75.9414 11.4725 16.5757 81.3088 
164.781 144.251 171.784 172.445 169.535 160.834 101.006 165.383 170.498 167.569 127.786 230.659 -83.803 124.206 241.068 -76.2369 171.669 240.812 -155.579 198.3 265.908 -142.995 210.569 282.561 -110.088 136.608 296.867 -76.3168 11.3197 16.507 82.2619 
164.383 145.245 171.798 171.998 169.12 160.217 101.659 166.219 171.381 168.519 128.946 230.212 -83.8563 124.797 239.958 -76.0905 173.402 241.4 -156.535 199.759 266.822 -143.69 211.391 283.252 -110.709 136.978 296.151 -76.7903 10.9746 16.4656 83.6643 
163.98 146.219 171.684 171.545 168.747 159.475 102.668 166.767 172.037 169.236 130.284 229.819 -83.7962 125.573 238.444 -76.1388 175.033 242.135 -157.282 201.165 267.728 -144.306 212.079 283.826 -111.279 137.314 295.388 -77.2185 10.5092 16.3854 84.6318 
163.839 147.023 171.68 171.252 168.473 158.937 103.991 167.169 172.334 169.555 131.425 229.667 -84.026 126.679 236.741 -76.7581 176.511 243.126 -157.981 202.244 268.697 -145.002 212.6 284.625 -112.069 137.673 294.93 -77.6885 10.1184 16.1244 84.7318 
163.975 148.104 172.05 171.092 168.103 158.833 105.179 167.531 172.237 169.322 132.634 229.669 -84.6398 128.268 235.361 -77.8158 178.088 244.727 -158.575 203.179 270.03 -145.517 213.022 285.856 -112.716 138.063 294.841 -78.1142 9.78416 15.626 84.3224 
164.296 149.114 172.128 170.969 167.949 158.793 106.183 167.6 171.887 168.844 134.016 229.769 -85.3314 130.291 234.343 -78.9857 179.714 246.075 -159.02 203.897 271.188 -146.027 213.271 286.972 -113.548 138.538 294.988 -78.5723 9.35579 15.0502 83.3678 
164.722 150.116 171.967 170.722 167.824 158.861 107.093 167.432 171.292 168.135 135.343 229.871 -86.1914 132.302 233.628 -80.3946 181.09 247.303 -159.346 204.342 272.162 -146.436 213.277 287.928 -114.359 138.944 295.231 -79.028 8.93691 14.4897 82.017 
165.167 150.97 171.878 170.554 167.711 158.942 107.96 167.32 170.711 167.381 136.737 230.301 -87.0231 134.355 233.179 -82.1336 182.469 248.592 -159.659 204.778 273.214 -146.998 213.338 289.039 -115.303 139.532 295.756 -79.5099 8.57685 13.969 80.3026 
165.494 151.685 171.83 170.37 167.563 158.95 108.781 166.996 170.147 166.654 138.303 230.981 -87.8828 136.157 233.059 -83.8393 183.569 249.753 -160.104 205.266 274.186 -147.639 213.527 290.023 -116.165 140.18 296.409 -80.0465 8.30609 13.6416 78.7105 
165.582 152.164 171.91 170.502 167.544 158.732 109.289 166.783 169.891 166.373 139.892 231.672 -88.4559 137.931 233.056 -85.2652 184.506 250.789 -160.58 205.795 275.212 -148.239 213.79 291.237 -117 140.829 296.963 -80.5173 8.17512 13.4657 77.4688 
165.486 152.591 171.869 170.696 167.664 158.359 109.474 166.344 169.557 166.027 141.649 232.465 -89.1068 139.69 233.38 -86.5255 185.24 251.655 -161.094 206.131 276.024 -148.869 213.856 292.351 -118.028 141.502 297.488 -81.0371 8.04237 13.2599 76.4164 
166.039 150.098 172.451 171.163 169.199 158.865 107.336 166.352 170.155 166.575 143.661 233.541 -90.4662 141.844 234.588 -88.075 186.224 252.445 -161.877 206.929 277.245 -149.474 214.224 294.078 -118.874 142.386 298.158 -81.6069 7.93164 13.2173 75.4498 
166.051 149.527 172.424 171.762 169.676 158.479 107.347 166.691 170.355 166.942 145.209 233.78 -90.6103 143.631 234.648 -88.6131 186.726 252.474 -162.314 206.939 277.221 -150.166 214.179 294.824 -120.127 142.986 298.29 -82.1563 8.07229 12.863 74.7453 
165.77 149.725 172.467 172.056 169.673 157.963 106.976 166.322 170.092 166.514 146.896 234.05 -90.8163 145.244 234.912 -89.2181 187.019 252.524 -162.651 207.012 277.017 -150.701 213.996 295.069 -121.149 143.506 298.275 -82.8217 8.00374 12.534 74.2473 
166.06 148.669 172.803 172.421 170.691 158.366 105.714 166.303 170.57 166.912 148.718 234.623 -91.6419 147.254 235.636 -90.067 187.798 253.388 -163.023 207.52 277.756 -150.877 214.174 296.029 -121.422 143.946 298.523 -83.379 7.82086 12.1319 73.774 
166.374 148.201 173.127 172.753 172.292 158.771 104.894 166.682 171.19 167.031 150.247 235.081 -92.24 149.038 236.102 -90.622 188.702 254.207 -163.176 208.137 278.258 -150.79 214.441 296.516 -121.11 144.315 298.73 -83.8116 7.46653 11.5917 73.3805 
166.631 148.41 173.343 173.005 173.589 159.231 104.337 167.249 171.859 166.313 151.343 235.123 -92.6308 150.253 236.227 -90.6361 189.574 254.555 -163.037 208.75 278.373 -150.563 214.499 296.484 -120.456 144.471 298.682 -84.1397 6.9606 11.1415 73.2544 
166.939 149.454 173.375 173.613 173.625 159.087 105.3 167.275 171.923 165.774 152.132 234.445 -92.2032 151.07 235.458 -90.178 189.425 253.664 -162.701 208.411 277.409 -150.555 214.108 295.571 -120.334 144.433 298.103 -84.3698 6.79389 10.9786 72.9596 
166.786 150.734 173.583 173.519 172.87 158.82 106.436 167.044 171.327 165.035 152.614 233.523 -91.4298 151.829 234.265 -89.8501 189.283 252.846 -162.233 208.214 276.087 -150.119 213.899 294.267 -119.911 144.286 297.342 -84.4524 6.64116 10.5595 72.5093 
166.693 151.978 173.984 173.042 171.919 158.883 107.612 167.381 170.508 164.665 152.875 232.661 -90.91 152.358 233.196 -89.6259 189.264 252.784 -162.485 207.818 274.925 -149.473 213.853 293.178 -119.422 144.174 296.747 -84.5177 6.75933 9.57413 72.6956 
166.48 153.001 174.609 171.678 171.346 158.918 108.241 167.959 169.661 165.043 153.108 232.066 -90.5237 152.817 232.575 -89.4995 189.535 253.171 -162.933 207.361 273.914 -148.364 213.995 292.517 -118.757 144.137 296.366 -84.6258 7.20758 8.26524 73.222 
166.453 153.646 175.233 170.106 170.115 159.19 109.153 168.969 169.271 165.035 153.042 231.06 -89.7537 153.116 231.606 -88.6812 189.531 253.392 -163.166 207.137 273.668 -148.26 213.851 292.069 -118.642 143.933 295.787 -84.5942 7.09467 7.79365 74.162 
166.618 154.348 175.524 169.281 168.808 159.517 109.856 169.448 168.554 164.775 153.103 230.304 -89.3589 153.059 230.742 -88.0967 189.426 253.01 -163.762 206.561 272.691 -148.16 213.774 291.36 -118.819 143.871 295.32 -84.8053 7.35695 7.12017 74.9516 
167.849 154.938 176.637 170.235 164.771 160.762 110.11 169.896 169.187 167.933 152.968 229.902 -90.2211 152.83 230.051 -87.5624 190.292 253.054 -163.962 206.237 273.602 -148.418 214.513 292.447 -119.113 144.099 295.251 -85.1198 8.21737 7.05932 75.61 
168.076 154.751 176.125 174.983 164.548 160.859 110.296 170.434 170.208 168.576 153.051 229.512 -90.0955 153.044 229.859 -87.1545 190.428 252.585 -164.46 206.397 273.973 -148.784 214.705 293.011 -119.718 144.277 295.091 -85.5101 8.32496 7.49651 76.1896 
168.768 154.605 176.698 175.394 161.812 161.775 110.456 171.089 170.872 171.971 153.091 229.486 -90.9866 153.58 229.776 -87.0876 191.345 252.807 -164.403 206.418 275.384 -149.316 215.431 295.133 -120.396 144.548 295.299 -85.8731 9.30729 7.89601 76.1199 
168.967 154.348 177.328 173.606 168.156 162.4 110.611 171.725 171.951 175.173 153.263 229.405 -91.7736 154.033 229.551 -86.8866 192.313 252.671 -164.22 206.778 276.836 -150.328 215.998 296.819 -121.204 144.714 295.287 -86.2338 9.73244 8.83188 76.0071 
168.606 154.723 178.465 173.363 174.27 162.408 110.45 171.733 172.815 178.989 153.431 229.613 -92.7283 153.649 229.534 -86.9747 193.234 252.946 -164.076 207.215 277.765 -151.267 216.986 298.951 -121.779 144.845 295.323 -86.7325 11.1479 9.3919 76.3048 
168.447 154.435 178.746 172.542 174.27 162.622 110.085 171.405 173.895 178.774 153.544 229.927 -93.682 153.725 229.89 -87.2597 193.838 252.785 -163.922 207.624 278.692 -152.306 217.339 298.675 -122.078 145.003 295.497 -87.2363 10.5726 10.3347 76.045 
168.795 154.355 178.664 173.132 175.491 163.715 108.67 172.234 175.675 178.093 153.359 229.743 -94.3654 154.219 230.412 -87.4869 194.96 253.241 -163.669 208.622 279.642 -152.494 217.022 300.059 -123.015 145.08 295.66 -87.531 9.86479 10.4545 75.955 
169.167 154.331 178.94 173.212 170.079 164.609 106.996 172.874 177.339 175.96 153.269 229.608 -95.186 154.841 231.103 -87.7438 195.844 253.428 -163.707 209.639 280.515 -152.992 217.08 300.985 -123.751 145.138 295.725 -87.9689 9.31579 10.7502 75.9348 
169.654 154.914 179.307 175.027 165.989 165.435 105.48 173.327 178.305 174.303 152.976 229.523 -95.9719 154.769 231.724 -87.8462 196.374 253.569 -164.052 210.446 281.21 -153.962 217.022 301.639 -124.624 145.139 295.792 -88.503 8.82437 11.0773 76.497 
170.053 155.542 179.726 174.999 162.054 166.107 104.734 173.497 178.295 172.478 152.786 229.448 -96.6938 154.62 231.975 -88.0232 196.573 254.022 -164.817 210.819 281.55 -154.979 217.043 302.389 -125.611 145.122 295.878 -89.1429 8.88585 10.8997 77.2743 
170.791 155.705 179.291 174.959 163.694 166.934 104.38 173.206 177.861 171.081 152.368 229.019 -97.167 155.057 232.122 -87.8016 196.591 253.748 -165.225 210.567 282.012 -156.775 216.983 303.58 -127.029 145.077 295.862 -89.6803 9.43479 11.3671 77.546 
171.571 155.43 178.182 174.133 164.708 167.821 104.198 172.581 177.544 170.281 151.746 228.53 -97.4257 156.014 232.344 -87.8011 196.536 253.199 -165.493 210.787 282.573 -158.06 216.971 304.848 -128.593 145.088 296.056 -90.1983 9.54137 12.0489 77.0091 
171.935 155.186 177.397 173.976 165.254 168.156 104.252 172.438 177.71 170.221 151.526 228.428 -97.9483 156.511 232.603 -87.9043 196.407 253.092 -165.86 211.075 283.25 -159.183 216.859 306.058 -130.002 145.097 296.332 -90.8618 9.5471 12.5743 76.8516 
172.032 154.771 176.538 174.155 165.599 168.204 104.295 172.558 177.781 169.856 151.794 228.601 -98.5508 157.391 233.102 -88.3323 196.439 252.87 -166.185 210.983 283.398 -160.042 216.549 306.844 -131.055 145.185 296.684 -91.6431 9.71865 12.7301 76.2517 
171.963 154.265 176.183 174.008 166.012 168.044 104.717 172.75 177.369 169.535 152.047 228.817 -99.2087 158.384 233.563 -88.8905 196.528 252.861 -166.721 210.886 283.411 -160.721 216.323 307.353 -131.901 145.206 297.074 -92.3597 9.8355 12.595 75.5541 
172.03 154.103 174.306 173.706 166.404 168.107 104.478 173.125 177.257 169.58 152.336 229.033 -100.068 159.185 234.272 -89.6807 196.776 253.13 -167.548 210.968 283.848 -161.314 216.209 308.146 -132.842 145.358 297.511 -93.1948 9.8755 12.504 75.2379 
171.882 154.127 173.134 173.569 166.522 167.886 104.314 173.474 177.378 169.921 152.458 229.462 -100.878 159.412 234.881 -90.4505 197.017 253.793 -168.582 211.109 284.358 -162.173 216.255 308.644 -133.591 145.483 297.946 -93.9399 9.83193 12.32 75.4658 
171.687 154.234 172.833 173.203 166.9 167.579 104.604 173.684 177.226 170.306 152.63 229.819 -101.442 159.472 235.304 -90.8162 197.149 254.309 -169.612 211.363 284.792 -163.033 216.473 309.101 -134.574 145.6 298.349 -94.7069 9.80095 12.249 75.988 
171.733 153.991 173.162 172.784 168.123 167.472 105.136 173.484 176.726 170.914 152.579 230.243 -102.509 160.112 236.193 -91.0423 196.94 254.135 -170.732 211.464 285.325 -164.831 216.453 310.096 -136.763 145.581 298.946 -96.0275 9.84381 12.7557 76.1111 
171.795 153.523 173.854 172.683 168.206 167.386 105.549 173.075 176.167 170.906 152.945 230.354 -102.846 160.443 236.424 -91.1931 196.408 253.776 -171.458 211.18 285.389 -165.756 216.122 310.188 -137.797 145.341 298.985 -96.5556 9.71568 13.0399 76.0233 
171.838 152.666 174.722 172.488 168.321 167.476 106.14 172.188 174.985 170.161 153.197 230.586 -103.028 161.094 236.816 -91.5666 195.667 253.256 -171.95 210.556 285.018 -166.418 215.688 310.035 -138.521 145.002 299.251 -96.9626 9.70731 13.0647 75.2367 
171.643 151.988 175.465 172.131 168.326 167.309 106.516 171.297 174.196 169.748 153.254 230.987 -103.277 161.476 237.357 -92.0208 194.917 252.797 -172.505 210.25 284.838 -167.083 215.655 309.807 -139.114 144.821 299.666 -97.4039 9.61615 13.2852 74.6816 
171.523 151.631 176.094 171.867 167.922 167.146 106.601 170.637 173.449 169.282 153.399 231.5 -103.778 161.409 237.961 -92.4334 194.324 252.373 -172.608 209.823 284.415 -167.353 215.35 309.495 -139.331 144.549 300.007 -97.8457 9.62484 13.3313 74.1704 
171.261 151.339 176.452 171.714 167.712 166.9 106.937 169.965 172.73 168.528 153.968 232.169 -104.381 161.72 238.607 -93.0728 193.843 252.469 -173.08 209.424 284.405 -167.846 215.057 309.491 -139.663 144.344 300.443 -98.4 9.61253 13.2667 73.7082 
171.109 151.535 176.22 171.893 167.598 166.678 107.276 169.465 172.653 168.522 154.668 232.936 -105.094 161.724 239.049 -93.4946 193.675 252.695 -173.597 209.203 284.635 -168.599 214.835 309.669 -140.29 144.307 300.815 -99.0485 9.55363 13.3376 73.7228 
171.327 151.556 175.729 172.148 167.776 166.85 107.75 169.508 172.714 168.557 155.154 233.266 -105.484 161.946 239.23 -93.7424 193.705 252.989 -173.861 208.858 284.945 -168.934 214.252 310.058 -140.818 144.09 300.973 -99.5101 9.45418 13.2783 73.6321 
171.451 151.743 175.22 172.276 168.16 166.923 108.258 169.596 172.986 169.038 155.211 233.386 -105.703 161.852 239.37 -93.3839 193.717 253.275 -174.221 208.45 285.452 -169.591 213.711 310.49 -141.669 143.852 301.015 -99.901 9.29251 13.3912 74.2455 
171.662 151.501 174.317 172.071 168.455 167.24 108.912 169.14 172.466 168.826 155.368 233.227 -105.94 162.635 239.372 -93.7972 193.618 253.459 -174.668 208.221 285.621 -170.188 213.531 310.7 -142.465 143.655 301.101 -100.32 9.21913 13.3045 73.7794 
171.782 151.223 173.536 171.926 168.791 167.42 109.314 168.988 172.03 168.671 155.384 233.046 -106.236 163.078 239.387 -94.3624 193.766 253.472 -174.919 208.14 285.492 -170.413 213.387 310.686 -142.831 143.431 301.189 -100.706 9.1756 13.0872 73.1207 
171.917 150.733 172.665 171.703 169.107 167.688 109.727 169.014 171.812 168.857 155.328 232.663 -106.457 163.673 239.169 -95.1294 193.921 253.842 -175.261 207.894 285.82 -170.821 213.035 311.064 -143.551 143.165 301.119 -101.037 9.10078 12.9394 72.4148 
172.085 150.468 171.548 171.385 169.194 167.963 110.114 168.666 171.356 169.039 154.986 232.58 -106.767 164.004 238.837 -95.8512 194.05 254.026 -175.486 207.603 286.112 -171.277 212.703 311.489 -144.362 142.795 301.114 -101.336 9.08466 12.9015 71.5343 
172.34 149.801 170.771 171.258 169.009 168.28 110.251 168.521 171.024 168.895 154.556 232.431 -107.132 164.465 238.636 -96.7229 194.167 253.986 -175.541 207.244 286.151 -171.514 212.285 311.811 -144.971 142.412 301.061 -101.65 9.15554 12.8099 70.391 
172.399 149.795 170.172 171.281 168.976 168.339 110.539 168.302 171.014 169.039 153.808 232.241 -107.301 164.12 238.319 -97.0382 193.944 253.598 -175.447 206.685 285.941 -171.998 211.783 311.719 -145.62 142.003 300.993 -101.958 9.17138 12.9943 69.8172 
172.111 150.225 169.661 171.288 168.96 167.99 110.967 168.141 170.987 169.06 153.217 232.008 -107.285 163.145 237.691 -96.9593 193.435 253.347 -175.47 206.022 285.801 -172.471 211.166 311.368 -146.178 141.429 300.728 -102.165 9.01847 13.2112 69.9005 
172.384 149.645 168.864 171.004 168.229 168.423 111.003 167.795 170.133 168.161 152.225 231.789 -107.573 162.846 237.728 -97.5859 192.53 252.994 -175.324 204.604 285.563 -172.853 209.565 311.454 -147.23 140.318 300.618 -102.675 8.9565 13.2468 68.9242 
172.278 149.677 168.499 170.873 167.951 168.336 110.6 167.523 170.315 168.042 151.743 232.07 -107.724 162.095 237.756 -98.0972 191.866 253.197 -175.569 203.933 285.868 -173.42 209.006 311.759 -147.65 139.882 300.802 -102.946 9.01189 13.4014 68.8256 
172.277 149.813 168.038 170.884 167.909 168.441 110.386 167.439 170.713 167.969 151.35 232.136 -108.258 161.866 237.903 -98.9756 191.317 253.587 -176.049 203.375 286.24 -174.074 208.527 312.225 -148.028 139.559 300.972 -103.419 9.17302 13.443 68.6336 
172.443 150.035 168.112 171.163 168.021 168.635 109.732 167.715 171.309 167.915 150.763 231.93 -108.998 161.523 238.092 -100.021 190.666 253.702 -176.86 203.241 286.338 -174.497 208.483 312.314 -148.267 139.444 301.092 -104.061 9.29287 13.4119 68.68 
172.314 150.617 168.638 171.45 168.004 168.409 109.528 168.069 171.758 167.919 150.1 231.876 -109.616 160.407 237.927 -100.388 189.815 253.431 -177.644 203.029 286.135 -174.852 208.251 311.995 -148.426 139.142 301.037 -104.642 9.30344 13.4979 69.3574 
172.272 150.936 168.838 171.387 167.837 168.349 109.436 167.935 171.847 168.094 149.906 231.843 -110.435 159.972 237.848 -100.924 189.424 253.639 -178.604 202.796 286.422 -175.561 208.008 312.127 -148.915 138.874 300.904 -105.17 9.3135 13.5666 69.8594 
172.253 151.283 168.95 171.413 168.121 168.408 109.194 168.145 172.067 168.361 149.572 231.326 -110.879 159.539 237.826 -101.064 189.105 253.799 -179.5 202.651 286.597 -176.181 207.891 312.171 -149.463 138.645 300.663 -105.686 9.31915 13.5636 70.76 
172.33 151.24 169.34 171.422 168.074 168.519 108.996 168.295 172.055 168.469 148.987 230.981 -111.388 159.298 237.931 -101.404 188.755 253.401 -180.163 202.625 286.322 -176.691 207.964 311.866 -150.058 138.525 300.574 -106.296 9.32952 13.6707 71.0423 
172.217 151.594 170.207 171.797 168.08 168.335 108.835 168.729 172.629 168.85 148.919 230.984 -111.87 158.37 237.771 -101.223 188.203 252.992 -180.937 202.307 286.081 -177.303 207.663 311.453 -150.592 138.293 300.251 -106.781 9.26017 13.8304 72.1313 
172.264 151.706 170.596 171.853 168.273 168.358 109.05 168.883 172.882 169.248 148.741 230.85 -112.21 157.868 237.64 -100.776 187.869 252.7 -181.487 201.954 286.069 -178.108 207.344 311.437 -151.343 138.023 299.986 -107.162 9.27077 14.0561 73.0144 
172.285 151.488 171.069 171.792 168.402 168.389 108.822 168.947 172.785 169.145 148.842 230.788 -112.526 157.736 237.723 -100.912 187.609 252.413 -181.952 201.716 285.768 -178.536 207.115 311.182 -151.816 137.821 299.827 -107.559 9.24989 13.9965 73.2475 
172.236 151.299 171.69 171.874 168.492 168.233 108.695 169.117 173.025 169.364 148.752 230.839 -112.799 157.369 237.683 -101.012 187.285 252.33 -182.453 201.567 285.802 -178.994 206.96 311.079 -152.166 137.657 299.717 -107.842 9.18491 14.1048 73.6645 
172.258 151.306 173.207 172.251 168.555 168.174 108.528 169.812 173.672 169.282 148.953 231.318 -113.265 156.718 237.708 -101.322 186.884 252.5 -183.35 201.067 285.914 -179.442 206.359 311.013 -152.629 137.507 299.768 -108.246 9.03505 13.9831 74.2967 
172.248 151.341 174.325 172.486 168.43 168.081 108.086 170.582 174.193 169.386 149.02 231.686 -113.906 156.122 237.693 -101.806 187.353 252.858 -183.871 200.945 285.938 -179.697 206.141 310.933 -152.754 137.456 299.78 -108.636 8.99532 13.6577 74.5749 
