168.636 153.557 178.211 165.957 162.079 163.162 106.369 173.02 172.109 170.313 142.513 200.281 -82.1894 146.986 202.855 -76.1578 188.11 213.393 -148.107 201.736 246.593 -139.492 207.286 269.991 -113.853 133.312 266.308 -80.5702 9.00264 13.7777 69.4156 
168.607 152.148 178.535 165.949 160.242 163.658 106.171 172.214 172.093 170.774 142.916 200.443 -82.3046 148.25 202.838 -76.5615 188.709 213.142 -146.516 202.024 246.586 -138.942 207.416 270.213 -113.159 133.309 266.323 -80.2407 9.05841 14.0269 67.3749 
168.476 150.758 178.465 165.909 160.646 164.033 106.091 171.571 172.286 172.137 143.336 200.608 -82.2481 149.72 202.661 -77.3354 189.554 213.078 -144.842 202.56 246.735 -138.359 207.76 270.757 -112.554 133.375 266.425 -79.9664 9.20385 14.243 64.8381 
168.408 148.684 178.051 165.628 165.622 164.377 105.782 170.907 172.629 174.155 143.513 200.499 -81.9791 150.94 202.524 -77.8141 190.381 212.618 -142.926 202.877 246.048 -137.471 208.234 270.684 -111.974 133.413 266.318 -79.6107 9.49658 14.1105 62.4568 
168.527 146.322 177.31 165.433 168.95 164.807 105.619 169.798 172.345 175.506 143.429 200.301 -81.8257 152.083 202.444 -78.3146 191.062 212.107 -141.126 202.969 245.474 -136.789 208.384 270.685 -111.577 133.345 266.186 -79.272 9.73813 14.1401 60.0329 
169.344 143.853 175.09 165.576 159.419 164.972 105.752 168.506 171.392 170.957 141.995 198.849 -80.5368 151.526 202.298 -76.9742 190.604 211.155 -139.812 202.943 244.332 -135.629 208.304 269.637 -110.412 132.949 265.505 -78.4574 9.79931 14.0902 60.1639 
169.457 144.447 172.702 165.68 161.284 164.778 105.238 168.547 170.24 168.167 140.696 197.567 -79.3013 149.665 201.812 -75.4463 189.093 210.046 -139.97 202.937 243.3 -134.838 208.277 268.759 -110.022 132.595 264.721 -77.9582 9.9264 14.1997 62.1878 
169.234 146.574 171.494 165.935 161.626 164.418 104.388 169.292 169.772 166.614 139.864 196.795 -78.2638 147.835 201.361 -74.038 187.643 208.982 -140.288 202.991 242.357 -133.728 208.342 268.027 -109.173 132.405 264.054 -77.4684 10.2325 14.3495 64.3091 
168.626 149.694 172.073 166.328 159.744 163.753 104.09 170.39 169.782 166.388 139.211 196.504 -77.3478 145.491 200.889 -72.4445 186.304 208.138 -140.953 202.973 241.318 -132.656 208.449 267.136 -108.27 132.264 263.554 -76.9935 10.569 14.3646 67.0586 
167.925 151.622 173.172 166.681 157.632 163.024 103.935 171.176 170.136 166.907 138.579 196.032 -76.2241 143.733 200.505 -70.9598 185.03 206.963 -141.082 202.677 239.966 -131.86 208.573 266.198 -107.649 132.069 262.906 -76.4576 11.1436 14.4931 69.0289 
167.41 153.738 174.527 168.061 157.594 162.435 103.989 171.75 170.208 166.725 138.16 195.648 -75.3349 142.048 200.233 -69.6203 184.43 206.45 -141.305 202.487 238.965 -131.208 208.701 265.406 -106.941 132.001 262.48 -76.0088 11.5585 14.2819 71.0598 
167.048 155.638 175.755 169.815 158.022 162.072 104.222 172.148 169.975 165.995 137.885 195.316 -74.5431 140.817 199.79 -68.5501 184.327 205.976 -141.182 202.384 238.141 -130.601 208.712 264.564 -106.116 131.924 262.073 -75.499 11.6993 14.0513 72.2947 
166.982 157.531 177.158 172.146 159.533 161.97 104.511 172.641 169.603 165.025 137.897 195.026 -73.7898 139.962 199.387 -67.4203 184.546 205.786 -141.153 202.52 237.713 -130.141 208.779 264.235 -105.512 131.92 261.742 -74.9864 11.8225 13.8234 73.5449 
166.978 158.248 178.446 174.738 161.114 161.877 104.671 173.195 169.079 163.824 137.786 194.648 -73.0529 139.373 198.921 -66.5977 184.759 205.663 -141.386 202.847 237.384 -129.942 208.964 263.975 -105.076 131.931 261.372 -74.4839 11.8927 13.6759 74.5855 
166.988 158.69 179.168 176.567 162.388 161.911 104.847 173.666 168.384 162.696 137.841 194.524 -72.5114 138.839 198.585 -65.9408 184.962 205.603 -141.629 203.189 237.246 -129.606 209.092 263.786 -104.711 131.961 261.128 -74.0467 11.8366 13.6189 75.4439 
166.954 158.769 179.03 178.404 163.254 162.059 104.907 173.788 167.881 162.067 137.874 194.316 -72.0109 138.56 198.275 -65.3634 185.296 205.391 -141.51 203.486 237.104 -129.145 209.303 263.657 -104.36 132.098 260.91 -73.6592 11.851 13.6162 75.926 
166.976 158.732 178.71 179.936 163.893 162.24 105.03 173.621 167.704 161.477 137.806 194.09 -71.6541 138.306 197.887 -65.019 185.407 205.316 -141.206 203.738 237.072 -128.761 209.464 263.588 -103.971 132.216 260.684 -73.2422 11.8987 13.7503 76.1491 
168.691 158.051 179.888 176.252 164.537 163.882 105.04 173.791 168.776 162.884 137.552 194.178 -71.7911 139.086 197.345 -64.7666 185.993 206.427 -140.47 204.207 237.621 -128.685 209.254 263.78 -104.204 132.335 260.871 -72.6643 10.9817 13.3176 75.7348 
168.851 158.067 179.876 174.099 165.234 164.11 105.068 173.911 168.788 162.762 137.474 193.735 -71.4003 139.222 197.068 -64.1386 186.192 206.458 -139.587 204.411 237.919 -128.077 209.281 263.696 -103.661 132.318 260.628 -72.1161 10.631 13.5428 75.6584 
168.738 158.136 180 171.915 166.086 163.988 105.679 173.09 168.493 162.702 137.215 193.262 -70.7886 138.862 196.493 -63.3961 185.601 205.638 -138.249 204.675 237.497 -127.726 209.478 263.223 -103.309 132.202 260.233 -71.5733 10.563 14.2678 75.2375 
168.467 158.24 179.571 171.251 166.762 163.666 106.004 172.518 168.221 162.308 137.047 193.069 -70.1793 138.55 196.245 -62.7594 185.219 205.028 -137.532 204.88 237.079 -127.204 209.671 262.79 -102.63 132.11 259.953 -70.9719 10.6288 14.6766 75.1573 
167.857 158.394 177.754 170.705 167.31 163.181 106.829 171.444 168.193 162.188 137.073 192.537 -68.7369 137.771 195.241 -61.167 184.83 203.428 -135.866 205.222 236.058 -126.126 209.94 261.629 -101.179 131.968 259.16 -69.7436 10.5794 15.4168 75.0421 
167.422 158.351 177.111 171.25 167.314 162.877 106.935 170.949 168.227 162.006 137.33 192.345 -68.0515 137.863 195.039 -60.3849 185.085 202.767 -135.243 205.485 236.056 -125.756 210.095 261.694 -100.584 131.992 258.785 -69.1823 10.7073 15.8533 75.0811 
167.249 158.123 176.647 171.77 167.695 162.85 107.019 170.617 168.27 161.567 137.521 192.157 -67.2472 138.201 194.626 -59.7009 185.321 201.877 -134.252 205.691 235.738 -125.054 210.295 261.355 -99.8813 132.082 258.474 -68.5306 10.6499 16.1767 74.4862 
167.071 157.865 176.479 172.042 168.134 162.817 106.815 170.158 168.137 160.878 137.849 192.148 -66.5188 138.743 194.614 -58.7912 185.529 200.946 -133.13 205.836 235.411 -124.436 210.463 261.153 -99.3638 132.203 258.258 -67.9755 10.6571 16.495 73.9613 
167.062 157.801 176.539 172.456 168.431 162.796 106.809 169.988 167.959 160.692 138.029 191.993 -65.8803 139.174 194.45 -58.1821 185.743 200.218 -132.344 206.05 235.039 -123.702 210.671 260.725 -98.6517 132.316 258.052 -67.3932 10.545 16.657 73.4905 
167.095 157.91 176.516 172.812 168.523 162.704 106.755 169.808 167.668 160.604 138.347 191.988 -65.438 139.408 194.485 -57.5894 185.959 199.559 -131.714 206.193 234.576 -123.127 210.799 260.352 -98.2622 132.505 257.921 -66.9529 10.5112 16.6988 73.2887 
166.956 158.045 176.693 173.52 168.696 162.523 106.798 170.11 167.709 160.546 138.588 191.914 -64.7795 139.513 194.322 -56.8428 186.336 198.849 -131.06 206.348 233.78 -122.396 210.993 259.611 -97.5904 132.694 257.701 -66.5145 10.4662 16.4808 73.2527 
166.703 158.525 177.059 174.485 168.712 162.334 107.098 170.539 167.992 160.761 138.514 191.612 -64.2012 138.971 193.784 -56.1562 186.524 198.344 -130.517 206.457 232.967 -121.573 211.122 258.763 -96.6515 132.793 257.323 -66.0129 10.5068 16.2587 73.601 
166.52 158.819 177.689 175.314 168.375 162.163 107.48 171.059 168.173 160.946 138.427 191.428 -63.753 138.493 193.111 -55.8009 186.787 198.06 -130.31 206.807 232.299 -120.847 211.495 258.012 -95.6686 132.969 256.945 -65.4773 10.5968 16.0553 73.9213 
166.459 159.047 177.689 175.753 168.159 162.126 107.659 170.666 168.411 161.175 138.556 191.385 -63.2928 138.2 192.783 -55.2073 186.863 197.641 -129.873 207.26 231.929 -120.517 212.022 257.652 -94.9582 133.179 256.683 -64.9665 10.7371 16.2693 74.2073 
166.532 159.978 177.581 176.903 167.95 162.088 108.785 170.218 168.789 160.407 138.918 191.308 -62.9574 138.127 192.516 -54.5446 186.864 197.221 -129.247 207.909 232.016 -120.447 212.724 257.767 -94.3996 133.614 256.267 -64.7536 11.1973 17.1204 74.6756 
166.332 160.122 177.353 176.858 167.877 161.967 108.951 169.817 168.989 160.428 138.732 191.208 -62.1632 137.748 192.315 -53.7658 186.793 196.608 -128.177 208.164 231.486 -119.664 213.047 257.227 -93.4046 133.806 256.054 -64.1468 11.3514 17.4206 74.7287 
166.129 159.893 177.629 176.624 167.744 161.798 108.86 169.878 169.023 160.523 138.949 191.154 -61.1616 137.904 192.201 -52.9255 187.245 196.218 -127.305 208.492 230.953 -118.828 213.353 256.752 -92.572 134.083 255.906 -63.4861 11.3354 17.2551 74.7477 
166.017 159.874 177.928 177.087 167.684 161.805 108.691 169.692 168.924 160.037 139.683 191.32 -60.5829 138.486 192.245 -52.2201 187.999 195.997 -126.582 208.936 230.914 -118.062 213.636 256.589 -91.8119 134.487 255.881 -62.9463 11.1301 17.1781 74.6495 
166.08 159.76 178.787 178.371 167.902 161.95 108.574 169.875 168.62 159.37 140.724 191.652 -60.0924 139.345 192.182 -51.9679 188.939 196.397 -126.449 209.467 231.293 -117.335 214.051 256.894 -91.1186 134.978 256.03 -62.4261 11.0183 16.8657 74.5163 
165.97 159.83 178.962 178.453 167.802 161.802 108.914 169.828 168.278 158.832 141.602 192.085 -59.6022 140.104 191.987 -51.8231 189.592 196.677 -126.271 210.027 231.238 -116.64 214.575 256.549 -90.073 135.495 256.259 -61.8909 10.78 16.5063 74.1355 
165.997 160.041 179.336 177.913 167.75 161.847 109.307 170.331 168.001 158.963 142.212 192.151 -59.1344 140.774 191.582 -51.8028 190.358 197.113 -126.279 210.613 230.732 -115.66 215.161 255.995 -88.912 136.023 256.38 -61.3561 10.7183 15.7092 73.9053 
165.987 160.251 179.279 177.035 167.646 161.771 109.693 170.548 167.676 159.172 143.023 192.245 -58.6757 141.27 191.161 -51.7883 191.085 197.715 -126.324 211.194 230.406 -114.81 215.759 255.779 -87.7417 136.512 256.424 -60.777 10.891 15.0191 73.8902 
165.981 160.838 178.559 175.784 167.591 161.705 111.003 170.217 166.857 157.99 143.717 192.172 -58.345 141.504 190.516 -51.8803 191.444 197.628 -125.794 211.788 229.339 -113.701 216.406 255.018 -86.386 137.152 256.088 -60.4891 11.4431 14.6925 73.6869 
166.12 161.23 178.392 174.224 167.191 161.885 111.472 170.183 166.143 157.718 144.207 192.011 -57.7372 141.776 189.753 -51.8703 191.861 197.524 -125.057 212.091 228.208 -112.329 216.796 254.329 -85.0188 137.575 255.93 -59.7965 11.7826 14.0054 73.0239 
166.064 161.341 178.622 172.761 166.758 161.948 111.595 170.376 165.609 157.827 144.696 191.886 -56.9932 142.354 189.331 -51.3742 192.687 197.399 -124.304 212.639 227.118 -111.051 217.515 253.737 -83.7353 138.208 255.843 -59.137 12.1105 13.2418 72.7922 
166.027 161.545 178.765 171.531 165.498 161.793 112.605 170.247 164.669 156.726 145.589 191.95 -56.2739 142.966 189.002 -50.8879 193.347 197.14 -123.595 213.311 226.313 -109.975 218.371 253.416 -82.6386 139.039 255.663 -58.8046 12.6945 13.0096 72.7832 
167.043 162.491 179.886 170.045 164.479 162.835 111.876 170.056 164.861 157.518 146.69 192.102 -55.9034 145.091 189.892 -49.7136 194.999 198.039 -121.377 213.91 226.26 -109.045 219.023 253.316 -81.7933 139.755 255.975 -58.3053 12.5158 12.0529 71.9845 
167.872 162.985 178.425 168.5 161.736 162.842 112.604 169.789 167.213 161.76 147.181 191.365 -54.9116 144.87 189.281 -49.4323 194.206 196.935 -120.849 213.773 224.636 -109.127 219.351 251.387 -81.6167 140.364 255.583 -57.9533 12.4576 12.1809 71.523 
168.633 163.521 178.164 168.144 161.653 163.397 112.245 169.432 170.237 164.296 148.285 191.494 -54.9108 145.912 189.631 -49.0414 195.553 197.39 -118.802 215.008 225.405 -108.684 220.438 250.992 -80.6066 141.14 255.696 -57.4778 11.7965 12.6811 70.6386 
169.014 164.078 178.279 167.601 160.56 163.664 111.45 168.953 171.242 165.152 149.213 191.692 -54.9444 146.69 190.29 -48.6979 196.91 198.177 -116.174 216.073 225.543 -107.008 221.09 249.991 -78.754 141.852 255.83 -56.9184 10.9975 12.5843 69.8138 
169.641 163.843 179.452 166.338 159.668 164.098 110.356 169.027 172.939 166.845 149.866 191.815 -54.5236 147.586 191.218 -48.0396 198.212 198.852 -114.324 217.335 226.143 -105.845 222.147 249.939 -77.6149 142.591 256.101 -56.2951 10.5495 12.7612 69.4968 
170.319 162.793 180 165.193 159.235 164.298 109.053 168.499 174.007 168.144 150.259 191.526 -54.0794 148.878 192.211 -46.9125 199.041 198.882 -112.163 218.384 226.301 -104.665 223.001 249.782 -76.7652 143.224 256.089 -55.6093 10.1196 13.142 69.0343 
170.569 161.439 180 164.567 159.193 164.306 107.638 167.725 174.736 169.11 151.186 191.582 -53.1675 150.55 193.474 -45.8419 199.809 198.805 -110.189 219.259 226.476 -103.309 223.705 249.805 -75.7561 143.787 256.186 -54.8661 9.78777 13.437 68.3586 
170.574 159.853 180 167.273 158.796 164.146 107.193 167.229 175.657 169.72 152.097 191.906 -52.5207 151.9 193.949 -45.4805 200.971 198.794 -108.688 220.554 226.564 -102.153 224.454 249.363 -74.4385 144.472 256.314 -54.2444 9.27987 13.6354 67.4047 
170.375 159.195 180 170.374 158.095 163.648 106.509 166.888 176.714 169.865 153.191 192.756 -52.1755 152.512 194.911 -45.5146 202.327 199.391 -107.7 222.008 227.137 -101.254 225.273 249.006 -73.0432 145.333 256.738 -53.7623 8.77044 13.8806 67.2195 
169.554 158.839 180 170.436 156.963 162.95 105.979 166.516 176.736 169.805 154.141 193.172 -51.6185 153.297 195.457 -45.2592 203.669 199.57 -106.314 223.334 227.126 -99.928 225.952 248.365 -71.4766 146.219 256.867 -53.2056 8.32524 13.9463 66.8903 
169.915 158.788 180 174.4 160.947 162.572 107.517 168.699 178.087 170.692 154.231 192.252 -51.2701 152.702 193.987 -45.3293 203.255 198.43 -107.82 222.615 224.779 -100.9 226.305 245.703 -71.8458 147.074 255.729 -53.0336 8.77142 13.4315 68.3165 
168.31 158.439 180 173.64 166.127 161.709 107.104 168.392 177.828 168.894 155.102 192.152 -49.99 153.747 194.139 -44.0607 203.995 198.086 -106 223.403 224.47 -100.128 227.088 245.164 -71.0539 147.76 255.379 -52.2716 8.62903 13.7521 68.202 
166.715 157.994 180 175.874 170.451 160.889 106.676 168.061 177.431 167.234 155.91 192.277 -48.8028 155.03 194.454 -43.0998 204.867 197.939 -104.638 224.337 224.465 -99.164 227.915 244.878 -70.341 148.442 255.366 -51.4719 8.24901 13.854 67.8486 
165.378 158.106 178.222 178.932 173.365 159.817 106.995 167.841 176.707 164.123 156.764 192.103 -47.5318 155.945 194.45 -42.4249 205.376 197.532 -102.965 224.285 223.926 -97.9379 228.324 243.986 -69.3285 149.13 254.923 -50.9844 8.29113 13.9868 67.4226 
164.411 157.8 175.921 178.94 174.795 159.158 106.885 168.112 176.451 162.266 158.164 192.864 -46.7507 156.966 194.691 -42.353 206.613 197.556 -101.649 224.664 223.25 -96.7998 228.824 243.123 -67.7737 149.991 255.103 -50.3559 8.44032 13.4142 66.634 
163.549 157.235 173.844 174.27 175.91 158.583 106.266 167.841 174.863 160.701 159.545 193.591 -46.0823 157.476 195.192 -42.2313 207.593 197.424 -100.242 224.91 222.735 -96.1483 229.156 242.052 -66.2777 150.827 255.397 -49.7838 8.68053 13.3621 65.9763 
163.027 156.646 171.98 174.27 176.31 158.362 106.154 168.126 173.759 159.319 160.895 194.189 -45.5397 158.26 195.354 -42.2112 208.662 197.359 -99.0371 225.586 221.973 -94.5773 229.513 241.207 -64.963 151.77 255.762 -49.2201 8.30702 12.7082 65.0519 
162.764 155.513 169.669 174.27 176.084 158.266 105.956 168.273 171.095 157.931 161.485 194.218 -44.7571 159.225 195.247 -41.5619 209.245 196.998 -97.4977 225.752 220.822 -93.0568 229.836 240.63 -63.9167 152.383 255.855 -48.3204 8.20067 12.0203 64.0017 
162.377 154.24 167.95 174.27 173.824 157.995 105.564 168.696 168.482 156.714 161.859 194.341 -43.7212 160.048 195.467 -40.8647 209.828 196.888 -96.6827 226.23 219.912 -91.4203 230.257 240.187 -63.1312 152.918 256.076 -47.5278 7.7638 11.0168 63.602 
161.956 153.453 166.923 174.27 172.51 157.475 105.624 169.378 166.171 155.38 162.262 194.627 -43.1116 160.641 195.276 -41.0383 210.516 196.893 -96.4593 226.509 218.81 -90.0728 230.642 239.151 -61.9765 153.659 256.261 -46.9322 7.64807 9.86337 63.1501 
161.597 152.646 165.358 174.27 171.302 157.188 106.495 170.062 163.982 154.431 163.728 195.269 -41.9516 162.569 194.683 -41.0652 212.336 196.946 -95.1609 227.835 217.893 -87.7684 232.321 238.482 -59.7332 155.487 256.774 -45.6602 7.87305 8.76813 61.6375 
161.607 153.653 165.04 174.27 170.243 157.077 106.677 170.957 162.841 153.511 164.909 195.859 -42.0922 163.267 194.646 -41.551 213.51 197.296 -95.1678 228.464 217.535 -86.4936 232.998 238.234 -58.5847 156.444 257.117 -45.5409 7.93373 7.7926 61.4338 
161.853 154.413 164.743 174.27 170.512 157.156 107.119 171.975 162.631 153.595 165.956 196.385 -42.0257 164.311 194.608 -41.4376 214.588 197.534 -94.6712 229.341 217.395 -85.6638 233.958 238.266 -57.687 157.502 257.489 -45.0497 8.06793 7.461 61.011 
161.998 154.158 164.107 174.27 170.405 157.155 106.99 172.8 162.475 153.358 166.574 196.6 -41.4658 165.109 194.753 -40.9312 215.189 197.45 -93.7205 229.948 217.017 -85.1889 234.587 238.078 -56.8809 158.209 257.689 -44.4501 8.26313 7.4788 60.5495 
162.148 153.855 163.535 176.176 169.528 157.143 106.862 173.883 161.682 153.178 167.251 197.024 -40.7832 165.865 195.138 -40.3697 215.829 197.499 -93.0344 230.504 216.546 -84.3499 235.212 237.999 -56.193 158.882 258.065 -43.8683 8.27357 7.05775 60.2779 
162.105 154.571 165.146 179.931 168.404 156.909 107.045 175.018 160.492 153.194 167.966 197.598 -40.3832 166.659 195.502 -40.1285 217.033 198.05 -92.9499 231.141 216.27 -83.6638 236.029 238.174 -55.5907 159.728 258.607 -43.4831 8.43217 6.21826 60.4111 
162.171 156.178 166.079 179.85 167.658 156.905 107.868 175.329 161.115 153.87 169.131 198.082 -40.0387 167.649 195.65 -39.5938 217.951 198.4 -92.8674 232.39 216.708 -82.9412 237.205 238.624 -55.3666 160.69 259.1 -43.2329 8.15364 6.07956 60.5698 
162.391 157.39 166.705 179.517 167.32 157.071 108.574 175.539 160.915 154.256 170.338 198.591 -39.7495 168.68 195.663 -39.437 218.875 198.888 -92.7182 233.443 217.157 -82.0744 238.5 239.293 -55.0094 161.729 259.695 -43.0003 8.1798 5.83182 60.345 
162.474 159.032 167.454 179.812 167.498 157.046 109.087 175.788 160.874 154.625 171.578 199.229 -39.6612 169.724 196.037 -39.1597 219.963 199.527 -92.6967 234.47 217.741 -81.4434 239.68 240.047 -54.7143 162.746 260.321 -42.872 8.23718 5.59182 60.4579 
162.448 160.945 171.87 179.931 167.664 156.725 110.071 177.268 160.594 154.285 172.659 199.749 -39.7212 170.497 196.194 -39.4796 220.965 200.321 -93.0741 235.435 218.111 -80.8951 240.693 240.33 -54.0556 163.845 260.72 -42.9834 8.42898 5.31754 60.7969 
162.471 161.956 174.428 179.343 168.163 156.723 110.105 178.127 160.53 154.471 173.383 200.122 -39.9125 171.142 196.484 -39.7705 222.116 200.864 -93.0991 236.294 218.151 -80.575 241.521 240.29 -53.3802 164.829 261.059 -42.907 8.58945 5.0057 60.9746 
162.621 162.426 175.994 179.348 168.834 156.903 110.304 178.654 160.887 154.594 174.465 200.637 -40.0731 171.955 196.833 -39.9495 223.132 201.491 -93.0221 237.254 218.541 -80.112 242.369 240.601 -52.9666 165.779 261.521 -42.8198 8.51635 4.86019 60.986 
162.837 162.696 176.585 179.862 169.037 157.143 110.296 178.852 160.924 154.845 175.151 201.029 -40.3028 172.757 197.326 -39.9661 224.142 202.09 -92.8679 238.153 219.109 -80.0248 243.263 241.258 -52.7707 166.604 261.994 -42.6357 8.64298 4.89642 61.0156 
163.038 163.264 177.135 177.727 168.973 157.41 110.367 179.037 161.412 155.261 175.287 201.351 -40.2028 173.413 197.796 -39.874 224.825 202.604 -92.8053 239.028 219.649 -80.2203 243.78 241.666 -52.6091 167.209 262.479 -42.3045 8.51028 5.11305 61.0202 
163.251 163.624 175.875 176.068 168.884 157.686 110.353 178.612 161.82 155.724 175.387 201.331 -39.6906 174.439 198.053 -39.2928 225.348 202.824 -92.5315 239.742 220.083 -80.4397 244.231 242.254 -52.6941 167.631 262.77 -41.8217 8.4046 5.34183 60.7949 
163.339 164.416 174.598 175.572 169.107 157.676 110.216 178.183 161.763 155.939 175.492 201.448 -39.3472 175.429 198.386 -38.9541 225.807 203.082 -92.2461 240.105 220.19 -80.3933 244.42 242.64 -52.5742 167.909 262.977 -41.4053 8.38539 5.19911 60.4738 
163.682 165.673 174.928 174.322 169.479 157.845 110.344 178.293 160.864 156.051 176.243 201.362 -38.7654 177.257 198.58 -38.3732 226.678 203.069 -91.7743 240.433 219.371 -79.6674 244.858 242.801 -52.3127 168.631 263.123 -40.901 8.5141 4.27376 59.828 
163.932 166.564 174.515 173.71 169.708 158.037 110.847 178.154 160.2 156.062 176.366 201.476 -38.5642 178.073 198.557 -38.3596 226.788 203.056 -91.4351 240.337 218.92 -79.0717 244.862 243.018 -52.116 168.834 263.392 -40.6183 8.63061 3.75987 58.951 
164.151 167.402 173.94 174.487 170.092 158.175 111.214 177.96 159.684 156.183 176.539 201.68 -38.6082 178.948 198.737 -38.3392 227.16 203.219 -91.1144 240.404 218.809 -78.5595 245.112 243.361 -51.9543 169.18 263.753 -40.4198 8.76319 3.35365 58.2827 
164.377 168.016 172.869 174.309 169.998 158.291 111.559 177.6 159.143 156.136 176.882 201.908 -38.7646 179.824 198.94 -38.6064 227.683 203.734 -91.1807 240.694 219.054 -78.3332 245.498 243.818 -51.9078 169.629 264.156 -40.294 8.84242 3.01307 57.8115 
164.317 168.539 172.047 173.17 169.659 158.146 111.629 177.323 159.167 156.122 177.275 202.303 -38.7932 180.656 199.141 -39.0166 228.404 204.478 -91.4206 241.509 219.801 -78.5204 245.916 244.41 -51.8564 170.113 264.558 -40.1408 8.65702 3.07124 57.5036 
164.164 168.848 171.481 173.181 169.31 157.871 111.691 177.133 159 155.718 177.832 202.827 -38.869 181.281 199.381 -39.7336 229.132 205.174 -91.7471 241.987 220.129 -78.5081 246.042 244.551 -51.4842 170.629 264.956 -40.085 8.50877 2.78331 57.2126 
164.035 168.945 170.229 172.689 169.308 157.684 111.495 176.711 158.886 155.73 178.549 203.308 -38.9556 182.154 199.762 -40.2275 230.051 206.035 -91.9921 242.757 220.914 -78.7411 246.7 245.234 -51.34 171.181 265.316 -39.9844 8.63318 2.76579 57.0766 
164.283 169.701 170.329 174.65 168.731 158.27 111.866 169.945 159.954 156.295 179.896 203.996 -38.6728 184.064 200.007 -41.1771 231.272 207.942 -93.1155 245.609 223.947 -78.6639 248.263 248.231 -51.2209 171.969 266.003 -39.8567 8.36165 3.96972 57.0584 
164.829 169.808 172.332 173.206 168.384 158.891 112.374 167.029 159.658 157.316 180.832 204.651 -38.4196 186.194 200.344 -42.0961 232.345 209.435 -94.1979 247.587 226.413 -78.2826 249.817 251.369 -51.1925 172.749 266.778 -39.6747 8.77968 5.03617 56.6604 
165.413 169.249 173.275 171.115 167.637 159.62 113.184 165.612 159.808 157.958 181.609 205.281 -38.2796 188.448 200.664 -43.1158 233.424 210.542 -94.9671 249.233 228.922 -78.3853 251.239 254.158 -51.0968 173.615 267.616 -39.4668 9.24279 6.12604 55.7283 
165.814 167.902 174.242 169.837 167.077 160.273 114.308 165.141 160.858 158.403 182.265 205.781 -38.3669 190.478 200.69 -44.3515 234.505 211.579 -95.7562 250.63 231.369 -78.9377 252.417 256.436 -50.8953 174.408 268.296 -39.2739 9.62257 7.05747 54.7514 
