148.586 163.56 161.89 161.767 159.048 135.446 156.898 152.168 152.703 146.066 72.2344 172.194 47.1748 17.281 199.631 -16.5362 43.3468 196.537 -29.0659 73.5574 198.185 -25.3143 102.332 196.715 -3.45682 64.9501 217.27 66.1695 8.63133 7.04007 6.07779 
148.661 163.606 162.014 161.834 159.12 135.703 156.676 151.841 152.377 145.508 71.9152 172.571 46.7785 16.8105 199.515 -16.5032 42.7704 196.254 -28.881 72.9457 197.932 -25.1924 101.524 196.511 -3.32446 64.4987 217.541 66.0309 8.43293 7.0403 5.99553 
148.746 163.746 162.131 162.046 159.208 136.011 156.76 151.879 152.338 144.944 71.5567 172.698 46.4498 16.3368 199.322 -16.5652 42.3032 196.035 -28.9048 72.424 197.516 -25.1792 100.616 195.904 -3.11555 64.0466 217.705 65.8521 8.12634 6.95383 5.98574 
148.827 164.018 162.418 162.42 159.473 136.226 157.187 152.358 152.693 144.898 71.1908 172.665 46.2315 15.8391 199.136 -16.7034 41.834 195.946 -29.1025 71.9073 197.244 -25.3338 99.851 195.513 -3.11717 63.58 217.746 65.7133 7.92829 6.8446 5.99673 
148.971 164.298 162.736 162.763 159.777 136.413 157.68 153.076 153.281 145.347 70.7555 172.527 45.9942 15.3378 198.992 -16.9406 41.3421 196.046 -29.4974 71.4217 197.192 -25.67 99.2459 195.334 -3.35574 63.1016 217.685 65.5618 7.83743 6.78247 5.98404 
148.949 164.288 162.701 162.742 159.749 136.381 157.879 153.456 153.567 145.595 70.3588 172.314 45.8821 14.8892 198.928 -17.0886 40.8921 196.292 -29.7998 70.982 197.376 -25.9427 98.82 195.433 -3.61381 62.6709 217.556 65.4392 7.85173 6.75551 5.97406 
148.889 164.155 162.498 162.539 159.568 136.249 157.8 153.417 153.511 145.54 69.9287 172.241 45.8917 14.4748 198.997 -17.1392 40.4415 196.516 -29.8877 70.5539 197.601 -26.0195 98.4474 195.662 -3.71041 62.2766 217.565 65.3772 7.89104 6.75759 5.95195 
148.803 163.846 162.2 162.144 159.168 136.196 157.262 152.837 152.969 144.994 69.6858 172.373 45.821 14.2301 198.938 -17.0106 40.1267 196.46 -29.6423 70.2302 197.611 -25.7824 98.0973 195.771 -3.52086 61.9542 217.706 65.3443 7.87161 6.7693 5.89931 
148.777 163.724 162.013 161.857 158.933 136.179 156.985 152.31 152.485 144.527 69.424 172.597 45.7578 13.8913 198.893 -16.9491 39.7371 196.221 -29.3952 69.8643 197.496 -25.587 97.7643 195.822 -3.37607 61.6228 217.944 65.2811 7.89388 6.8079 5.8732 
148.79 163.667 161.972 161.724 158.806 136.295 156.712 151.817 151.963 143.792 69.2056 172.885 45.6593 13.5685 198.928 -16.8332 39.3848 195.874 -29.0667 69.4537 197.078 -25.2813 97.1734 195.463 -3.04563 61.2988 218.243 65.2409 7.76436 6.75621 5.88091 
148.886 163.719 161.969 161.81 158.871 136.547 156.632 151.59 151.733 143.142 68.8659 173.081 45.498 13.2338 198.864 -16.7215 39.0594 195.526 -28.8426 69.0449 196.583 -25.069 96.4544 194.869 -2.6945 60.9514 218.519 65.1715 7.59283 6.66688 5.91696 
149.083 164.028 162.266 162.249 159.277 136.872 156.963 151.979 152.072 143.064 68.3438 172.963 45.5108 12.9002 198.573 -16.5878 38.7815 195.085 -28.7438 68.6923 195.935 -24.9508 95.7787 194.054 -2.35783 60.627 218.622 65.199 7.46794 6.55622 5.97491 
149.211 164.205 162.436 162.564 159.492 137.054 157.337 152.491 152.468 143.003 67.8396 172.777 45.5368 12.548 198.3 -16.555 38.4985 194.838 -28.8138 68.3326 195.48 -24.9627 95.105 193.422 -2.1211 60.276 218.65 65.1608 7.39637 6.43809 6.03569 
149.246 164.424 162.636 162.86 159.61 137.066 157.76 153.197 152.975 142.997 67.6211 172.684 45.6691 12.1923 198.307 -16.6182 38.2684 195.132 -29.1111 68.0792 195.444 -25.1269 94.5418 192.997 -1.9703 59.9333 218.642 65.1453 7.43748 6.35909 6.10268 
149.206 164.521 162.721 162.97 159.672 136.972 158.007 153.576 153.291 143.174 67.4717 172.696 45.6615 11.8434 198.329 -16.7414 37.9558 195.44 -29.3607 67.8017 195.681 -25.329 94.2156 193.09 -2.0775 59.6036 218.638 65.0916 7.48429 6.36585 6.10672 
149.098 164.464 162.658 162.873 159.594 136.832 158.012 153.683 153.368 143.333 67.2702 172.73 45.6135 11.544 198.48 -16.8689 37.6499 195.795 -29.5607 67.4927 195.991 -25.4957 93.9566 193.362 -2.29352 59.2875 218.64 65.0073 7.49344 6.35863 6.08914 
148.975 164.337 162.508 162.637 159.496 136.687 157.909 153.522 153.245 143.598 67.0611 172.765 45.6762 11.232 198.76 -16.9177 37.3409 196.021 -29.5706 67.1556 196.24 -25.5094 93.8289 193.796 -2.52731 58.9725 218.706 64.9873 7.49444 6.34322 6.10456 
148.87 164.153 162.334 162.347 159.324 136.679 157.646 153.132 152.906 143.57 66.8925 172.801 45.6695 10.9566 198.88 -16.8585 37.0423 195.997 -29.3924 66.8437 196.249 -25.3444 93.6297 194.023 -2.5505 58.6659 218.78 64.9837 7.47205 6.34344 6.10714 
148.776 164.093 162.195 162.158 159.213 136.714 157.413 152.714 152.557 143.412 66.5949 173.033 45.6031 10.6099 199.111 -16.8372 36.6393 196.017 -29.2283 66.4333 196.308 -25.2144 93.2949 194.224 -2.53719 58.359 219.022 64.9591 7.45431 6.34615 6.0897 
148.758 164.106 162.069 162.008 159.175 136.801 157.313 152.287 152.155 143.148 66.3513 173.293 45.5377 10.2705 199.328 -16.8127 36.3035 195.872 -28.9919 66.0623 196.123 -24.9834 92.8981 194.187 -2.38629 58.0648 219.281 64.9661 7.39463 6.31698 6.14081 
148.932 164.132 161.926 161.963 159.06 136.985 157.512 152.284 152.014 142.483 65.6 173.119 45.6295 9.52537 199.165 -16.7567 35.5485 195.305 -28.8104 65.158 195.169 -24.7085 91.5525 192.977 -1.80472 57.3046 219.336 64.9378 7.33537 6.16884 6.18991 
149.101 164.409 162.169 162.372 159.425 137.098 157.912 152.628 152.304 142.391 65.3448 173.117 45.7146 9.26248 199.315 -16.822 35.3589 195.176 -28.8654 64.914 194.773 -24.7064 91.0608 192.309 -1.53934 57.1158 219.371 64.9764 7.38437 6.10528 6.28952 
149.141 164.619 162.381 162.705 159.653 137.101 158.326 153.185 152.733 142.528 64.9913 173.049 45.806 8.90118 199.232 -16.8831 35.029 195.266 -29.0631 64.5939 194.674 -24.8158 90.6122 191.973 -1.42045 56.7357 219.294 65.0332 7.49602 6.09234 6.27049 
149.098 164.763 162.515 162.765 159.766 137.031 158.604 153.405 152.889 142.389 64.5807 172.892 46.058 8.55867 199.175 -16.9146 34.7998 195.307 -29.2118 64.3699 194.704 -24.9362 90.3465 191.816 -1.41976 56.3974 219.191 65.0891 7.58284 6.09407 6.3095 
149.038 164.769 162.51 162.785 159.814 137.008 158.62 153.511 152.925 142.473 64.3689 172.789 46.0493 8.27039 199.052 -16.9469 34.5494 195.328 -29.2943 64.1162 194.668 -24.9672 90.0719 191.845 -1.47633 56.0774 219.047 65.0882 7.54399 6.08711 6.32663 
148.948 164.722 162.432 162.696 159.776 136.888 158.519 153.52 152.923 142.767 64.1544 172.83 46.1016 7.95848 199.171 -16.919 34.2196 195.668 -29.3498 63.8132 194.975 -25.009 89.9159 192.281 -1.69826 55.7827 219.035 65.1256 7.48193 6.10641 6.29516 
148.85 164.703 162.364 162.604 159.747 136.787 158.459 153.492 152.921 143.131 63.7829 172.805 46.1908 7.59097 199.313 -16.8542 33.7956 195.887 -29.2957 63.4371 195.225 -24.9789 89.7325 192.76 -1.90992 55.5071 219.037 65.196 7.39103 6.1397 6.26553 
148.742 164.553 162.158 162.34 159.568 136.74 158.18 153.213 152.688 143.289 63.3765 172.716 46.1078 7.22415 199.306 -16.8062 33.3987 195.894 -29.2174 63.0612 195.262 -24.9247 89.52 193.073 -2.1123 55.222 218.993 65.1523 7.29342 6.16014 6.25967 
148.688 164.488 162.058 162.197 159.501 136.794 157.94 152.981 152.476 143.399 63.0011 172.705 45.959 6.93812 199.256 -16.788 33.0528 195.855 -29.1358 62.7154 195.224 -24.8378 89.2615 193.256 -2.21427 54.9625 218.991 65.1301 7.19658 6.16131 6.21595 
148.701 164.438 161.969 162.095 159.438 136.88 157.728 152.681 152.163 143.108 62.5586 172.696 45.8629 6.58645 199.129 -16.7159 32.6882 195.513 -28.9476 62.3303 194.794 -24.6335 88.8011 192.931 -2.04811 54.6919 218.996 65.1084 7.10517 6.14683 6.23901 
148.759 164.407 161.878 162.025 159.452 137.013 157.639 152.437 151.924 142.989 62.167 172.554 45.7803 6.25031 198.858 -16.6927 32.3517 194.932 -28.7729 61.951 194.159 -24.4616 88.3853 192.475 -1.96018 54.3916 218.943 65.0442 7.01956 6.11611 6.28734 
148.834 164.297 161.719 161.907 159.407 137.107 157.51 152.12 151.578 142.632 61.8383 172.383 45.7978 5.98412 198.52 -16.6158 32.1304 194.238 -28.5256 61.6485 193.423 -24.1903 87.9766 191.881 -1.69706 54.0986 218.871 65.0012 6.95635 6.06121 6.38763 
148.932 164.326 161.711 161.991 159.54 137.23 157.593 152.05 151.458 142.476 61.4513 172.136 45.8855 5.69212 198.235 -16.5489 31.9158 193.508 -28.3145 61.3444 192.535 -23.9314 87.5224 191.06 -1.39203 53.7988 218.748 64.999 6.91473 5.9981 6.54348 
148.998 164.258 161.593 161.997 159.492 137.223 157.589 152.09 151.365 142.067 61.0636 171.82 46.1029 5.40587 197.886 -16.4496 31.6609 193.045 -28.2416 61.0512 191.839 -23.773 87.0635 190.182 -1.01479 53.5215 218.587 64.9921 7.02413 5.97721 6.58979 
149.115 164.268 161.568 162.104 159.539 137.244 157.685 152.262 151.429 141.78 60.6888 171.557 46.3549 5.12752 197.789 -16.4125 31.455 192.844 -28.2579 60.7958 191.364 -23.6846 86.6188 189.394 -0.64763 53.2412 218.418 65.0575 7.18412 5.95601 6.66148 
149.271 164.24 161.493 162.179 159.584 137.335 157.745 152.407 151.5 141.479 60.2227 171.252 46.4318 4.81184 197.736 -16.4488 31.2451 192.74 -28.3648 60.5539 190.99 -23.6923 86.1486 188.672 -0.362186 52.977 218.232 65.0503 7.36615 5.95582 6.75515 
149.331 164.227 161.467 162.239 159.617 137.262 157.903 152.567 151.594 141.259 59.9033 171.088 46.5637 4.46046 198.031 -16.562 31.02 192.848 -28.5061 60.3062 190.828 -23.7442 85.7065 188.19 -0.17844 52.7073 218.075 65.0636 7.51467 5.96766 6.90783 
149.419 164.332 161.659 162.434 159.789 137.328 157.995 152.954 151.933 141.516 59.6215 170.89 46.6602 4.08703 197.926 -16.5704 30.7049 193.009 -28.7267 60.048 190.866 -23.9187 85.3933 188.043 -0.254004 52.4259 217.936 65.0688 7.58966 6.01941 6.88418 
149.404 164.342 161.784 162.509 159.843 137.284 158.08 153.17 152.102 141.659 59.4454 170.786 46.6536 3.81459 198.005 -16.6712 30.422 193.219 -28.9318 59.8112 191.007 -24.0964 85.1903 188.11 -0.423086 52.182 217.809 65.041 7.60602 6.05753 6.85569 
149.267 164.194 161.689 162.329 159.639 137.129 158.012 153.208 152.066 141.619 59.2136 170.688 46.6675 3.52506 198.064 -16.7219 30.1064 193.576 -29.1 59.5858 191.331 -24.2258 85.099 188.426 -0.594739 51.9077 217.678 65.0178 7.6335 6.13312 6.79449 
149.18 164.114 161.705 162.23 159.578 137.083 157.828 153.147 152.012 141.817 58.9816 170.73 46.4761 3.29862 198.031 -16.7559 29.7762 193.824 -29.1875 59.3056 191.667 -24.3292 84.9976 188.945 -0.899012 51.6313 217.62 64.9806 7.52168 6.16058 6.67449 
148.981 164.077 161.723 162.115 159.488 136.944 157.824 153.045 151.92 141.997 58.8451 170.827 46.3823 2.98471 198.195 -16.8393 29.3839 194.024 -29.2132 58.9898 192.011 -24.4015 84.9361 189.563 -1.21327 51.3373 217.612 64.9531 7.4291 6.20203 6.63963 
148.814 164.017 161.67 161.921 159.345 136.826 157.572 152.756 151.605 141.979 58.5337 170.965 46.2478 2.64975 198.281 -16.8543 28.9613 194.115 -29.165 58.6171 192.125 -24.3604 84.7152 189.944 -1.3887 51.0275 217.693 64.9 7.32549 6.23768 6.58969 
148.743 164.032 161.686 161.845 159.296 136.815 157.404 152.49 151.38 141.951 58.1369 171.066 46.0999 2.29511 198.301 -16.8504 28.5458 193.979 -29.0662 58.221 192.088 -24.3198 84.3985 190.13 -1.50107 50.709 217.787 64.8512 7.23207 6.23717 6.58635 
148.701 163.96 161.596 161.654 159.248 136.792 157.321 152.17 151.072 142.056 57.833 171.133 46.013 1.95113 198.326 -16.8224 28.2137 193.658 -28.8708 57.8454 191.881 -24.1762 84.1632 190.31 -1.65356 50.363 217.873 64.7941 7.10316 6.19813 6.69019 
148.747 163.901 161.477 161.58 159.213 136.804 157.373 152.066 150.918 142.029 57.511 171.044 46.0502 1.57778 198.19 -16.8344 27.9274 193.231 -28.7716 57.4612 191.389 -24.0382 83.734 190.009 -1.59248 49.9621 217.846 64.7401 7.01861 6.13981 6.82914 
148.771 163.85 161.38 161.509 159.188 136.774 157.409 151.935 150.785 141.972 57.3065 171.004 46.1277 1.2316 198.262 -16.8619 27.6295 192.998 -28.6667 57.0541 191.064 -23.8942 83.2749 189.736 -1.49513 49.542 217.815 64.7148 6.9723 6.07713 6.94204 
148.783 163.709 161.116 161.339 159.055 136.671 157.417 151.773 150.517 141.671 57.0806 170.973 46.245 0.760545 198.614 -16.9325 27.2832 193.073 -28.6601 56.5924 190.882 -23.7733 82.7152 189.493 -1.368 49.0683 217.76 64.7167 6.94571 6.03516 7.12549 
148.827 163.67 161.005 161.304 158.977 136.63 157.488 151.987 150.546 141.543 56.72 170.944 46.4176 0.219985 198.895 -16.9296 26.8036 193.457 -28.8025 56.1232 190.951 -23.8037 82.1849 189.32 -1.28997 48.6162 217.741 64.7512 7.028 6.09089 7.14073 
148.851 163.597 160.905 161.203 158.89 136.684 157.396 151.919 150.45 141.498 56.1836 170.901 46.3812 -0.308367 199.055 -16.9137 26.3023 193.728 -28.8636 55.6305 191.145 -23.8442 81.7438 189.489 -1.38525 48.139 217.732 64.7769 7.04065 6.11035 7.14054 
148.75 163.492 160.829 161.063 158.735 136.651 157.25 151.784 150.304 141.395 55.7464 171.071 46.2498 -0.880281 199.38 -16.9353 25.7262 194.129 -28.9297 55.0609 191.574 -23.9308 81.2525 189.974 -1.57149 47.6306 217.838 64.7556 7.00963 6.10995 7.14559 
148.687 163.438 160.738 160.923 158.553 136.569 156.936 151.597 150.154 141.318 55.1823 171.137 46.2002 -1.51523 199.392 -16.8444 25.0538 194.322 -28.9235 54.4579 191.849 -23.9801 80.7547 190.286 -1.6873 47.0696 217.917 64.7418 7.03188 6.14318 7.07617 
148.756 163.566 160.861 161.022 158.663 136.704 156.893 151.466 150.107 141.363 54.678 171.241 46.1 -2.20251 199.366 -16.7688 24.4658 194.062 -28.7798 53.8554 191.751 -23.9333 80.1378 190.338 -1.71443 46.4981 218.048 64.7311 6.95061 6.10312 7.21651 
148.912 163.554 160.681 160.967 158.664 136.817 156.958 151.416 150.057 141.212 54.1037 171.093 46.2994 -2.90762 199.368 -16.6415 23.9546 193.821 -28.6312 53.2584 191.372 -23.746 79.3786 189.859 -1.44192 45.8991 218.076 64.7743 6.95388 6.07048 7.42576 
149.041 163.45 160.441 160.856 158.611 136.831 156.88 151.413 149.895 140.921 53.6116 171.039 46.4568 -3.64442 199.519 -16.5092 23.343 193.955 -28.5931 52.5858 191.143 -23.5745 78.5547 189.456 -1.18837 45.2825 218.092 64.8136 6.98479 6.09986 7.52782 
149.141 163.366 160.219 160.715 158.534 136.889 156.787 151.56 149.912 140.959 53.0102 170.84 46.629 -4.49273 199.594 -16.3324 22.5934 194.308 -28.685 51.8682 191.278 -23.6125 77.8727 189.467 -1.25868 44.6858 218.101 64.8177 7.04735 6.17125 7.54983 
149.137 163.259 160.154 160.574 158.416 136.918 156.465 151.568 149.88 141.113 52.4491 170.757 46.5608 -5.29596 199.619 -16.2256 21.7852 194.701 -28.8312 51.1365 191.662 -23.7924 77.3172 189.887 -1.59478 44.0723 218.138 64.7401 7.06672 6.22698 7.48762 
149.086 163.144 160.015 160.379 158.203 136.831 156.19 151.376 149.785 141.138 51.8414 170.844 46.4688 -6.0831 199.761 -16.2109 20.9798 195.003 -28.9199 50.4219 192.128 -23.9865 76.7856 190.411 -1.89973 43.4722 218.269 64.6386 7.09952 6.25498 7.47222 
149.151 163.15 160.082 160.336 158.151 136.819 156.06 151.252 149.771 141.294 51.3483 171.017 46.3353 -6.89066 199.985 -16.2716 20.2015 195.127 -29.0006 49.6959 192.375 -24.1716 76.1966 190.744 -2.18996 42.8546 218.45 64.5135 7.09251 6.25561 7.53139 
149.247 163.068 159.99 160.194 158.046 136.834 156.087 151.282 149.749 141.389 50.9413 171.025 46.4474 -7.50392 200.153 -16.2984 19.6522 195.279 -29.0614 49.1343 192.451 -24.1949 75.6676 190.83 -2.25293 42.2524 218.566 64.4781 7.10945 6.26521 7.58407 
149.339 162.79 159.691 159.873 157.738 136.848 155.789 151.252 149.548 141.052 50.5583 170.898 46.4388 -8.14654 200.022 -16.2687 19.0005 195.539 -29.2302 48.5292 192.48 -24.2628 74.9931 190.651 -2.2292 41.6061 218.528 64.3445 7.20361 6.35841 7.50004 
149.323 162.649 159.636 159.726 157.613 136.816 155.396 151.172 149.521 141.026 50.1011 170.873 46.3622 -8.77979 199.778 -16.1382 18.2414 195.752 -29.3103 47.8383 192.863 -24.4381 74.4036 191.016 -2.47609 41.0004 218.533 64.2376 7.23875 6.37439 7.34092 
149.289 162.547 159.728 159.583 157.542 136.74 154.882 151 149.617 141.595 48.7959 171.144 46.3655 -10.4912 200.211 -15.829 16.3659 196.411 -29.2893 46.1505 193.85 -24.7593 73.176 192.154 -3.18396 39.7344 218.948 64.167 7.28647 6.41973 7.2427 
149.384 162.719 159.975 159.702 157.693 136.794 155.037 151.24 150.043 142.441 48.3014 171.192 46.4055 -11.2806 200.575 -15.7247 15.4977 196.71 -29.3389 45.4066 194.34 -25.0598 72.7802 192.755 -3.75978 39.3258 219.171 64.1514 7.34768 6.45086 7.2281 
149.439 162.727 160.015 159.68 157.651 136.843 155.201 151.533 150.289 142.875 47.7733 170.986 46.5203 -12.0603 200.687 -15.7246 14.7676 196.842 -29.4811 44.7447 194.354 -25.2155 72.2397 192.747 -3.98742 38.7292 219.135 64.1244 7.40797 6.50633 7.28224 
149.517 162.717 160.024 159.684 157.665 136.964 155.28 151.833 150.419 142.947 47.303 170.741 46.559 -12.6894 200.692 -15.7631 14.2275 196.943 -29.6501 44.2 194.12 -25.2616 71.6098 192.365 -3.97997 38.1767 219.043 64.0389 7.41554 6.5562 7.34882 
149.472 162.776 160.109 159.755 157.715 136.967 155.144 151.952 150.629 143.169 46.8236 170.819 46.3614 -13.2711 200.736 -15.8085 13.626 197.309 -29.8557 43.6355 194.568 -25.5313 71.0737 192.753 -4.27849 37.6386 219.094 63.9044 7.41214 6.5673 7.31025 
149.413 162.76 160.135 159.701 157.654 136.874 154.953 151.967 150.747 143.403 46.2099 170.95 46.3172 -13.9165 201.036 -15.7381 12.8977 197.85 -29.964 43.0036 195.237 -25.7676 70.6012 193.411 -4.62907 37.1513 219.254 63.8577 7.44847 6.60677 7.25569 
149.356 162.704 160.186 159.634 157.571 136.808 154.862 152.033 150.919 143.74 45.5782 171.038 46.2395 -14.6209 201.348 -15.679 12.0523 198.31 -30.0431 42.2494 195.922 -26.0188 70.1063 194.185 -5.05044 36.6717 219.41 63.8105 7.51494 6.63076 7.18163 
149.334 162.688 160.275 159.645 157.595 136.853 154.8 152.173 151.168 144.273 44.8434 171.04 46.241 -15.3325 201.596 -15.5922 11.2302 198.608 -30.0851 41.4918 196.375 -26.2216 69.604 194.761 -5.4435 36.1962 219.577 63.7872 7.58507 6.64757 7.13814 
149.396 162.715 160.387 159.629 157.545 137.053 154.635 152.146 151.251 144.53 44.1655 170.914 46.2136 -16.0064 201.547 -15.4263 10.4549 198.538 -29.9996 40.7753 196.437 -26.2861 69.0738 194.864 -5.62247 35.7 219.672 63.7588 7.67895 6.67043 7.09082 
149.526 162.68 160.369 159.566 157.487 137.191 154.682 152.315 151.381 144.786 43.6209 170.628 46.3835 -16.6189 201.468 -15.2886 9.84073 198.446 -29.9739 40.1866 196.255 -26.2961 68.6209 194.671 -5.69737 35.2441 219.648 63.7794 7.77971 6.69066 7.1155 
149.591 162.736 160.348 159.522 157.407 137.193 155.008 152.567 151.42 144.75 43.311 170.53 46.5592 -17.2784 201.948 -15.3201 9.40634 198.785 -30.0794 39.8296 196.174 -26.2857 68.259 194.389 -5.61801 34.8485 219.588 63.8491 7.85159 6.78781 7.32244 
149.731 162.865 160.41 159.502 157.411 137.343 155.236 152.752 151.491 144.834 42.8448 170.433 46.7113 -18.0204 202.486 -15.2716 8.89008 199.141 -30.117 39.4244 196.131 -26.2411 67.9077 194.079 -5.52598 34.4373 219.575 63.9459 7.98065 6.91187 7.53398 
149.838 162.956 160.406 159.438 157.308 137.468 155.31 152.92 151.599 144.82 42.5137 170.407 46.697 -18.696 202.991 -15.294 8.43372 199.787 -30.3076 39.1239 196.485 -26.3692 67.6466 193.959 -5.48793 34.0363 219.509 63.995 8.1621 7.05414 7.70677 
149.857 163.108 160.446 159.373 157.348 137.62 155.533 153.092 151.709 145.016 42.2228 170.376 46.7039 -19.306 203.658 -15.2252 8.12898 200.449 -30.3674 38.9547 196.914 -26.3809 67.601 194.093 -5.47936 33.7466 219.475 64.1362 8.34905 7.17965 7.96978 
149.936 163.402 160.503 159.342 157.466 137.931 155.735 153.22 151.837 145.341 41.8152 170.277 46.9673 -19.9458 204.443 -14.9771 7.96798 201.055 -30.2489 38.9678 197.178 -26.1753 67.7573 194.001 -5.22478 33.5353 219.532 64.4283 8.61374 7.35518 8.38119 
150.012 163.791 160.436 159.172 157.531 138.384 156.22 153.224 151.699 145.329 41.384 170.126 47.3626 -20.5057 205.74 -14.7354 8.2122 201.661 -29.9773 39.3648 197.22 -25.6608 68.2658 193.658 -4.55294 33.452 219.633 64.8333 8.96805 7.57832 9.08127 
150.459 163.965 159.568 158.071 156.59 138.914 156.63 152.977 151.309 145.416 40.1649 169.482 48.1579 -21.7307 208.38 -14.4093 8.46772 203.296 -29.8639 40.1366 197.712 -25.0839 69.6331 193.1 -3.62195 33.2621 219.672 65.3648 10.0732 8.18671 10.4046 
150.777 163.89 158.646 156.94 155.826 139.306 156.606 152.743 150.589 145.094 39.236 168.91 48.6173 -22.3228 210.036 -14.2337 8.97087 204.497 -29.9082 41.0035 197.857 -24.5878 70.9305 192.526 -2.83713 33.2751 219.613 65.5998 10.9556 8.72898 11.361 
151.014 163.743 157.806 155.675 154.98 139.449 156.549 152.647 149.91 144.676 38.33 168.279 49.1408 -23.1756 211.64 -14.1092 9.07079 205.805 -30.1145 41.5199 198.069 -24.2893 71.8035 191.913 -2.21631 33.0359 219.415 65.7559 11.7955 9.34069 12.2136 
151.128 163.559 157.019 154.358 154.046 139.427 156.511 152.558 149.197 144.085 37.8054 167.767 49.7044 -23.9545 212.935 -13.9982 9.18332 206.859 -30.3044 42.0364 198.174 -24.0079 72.6108 191.313 -1.59273 32.8082 219.161 65.8616 12.5694 9.93922 13.0114 
151.185 163.265 156.411 153.003 153.159 139.294 156.452 152.53 148.269 143.475 37.5432 167.433 50.2182 -24.4985 213.963 -13.9699 9.2735 207.811 -30.4975 42.4347 198.14 -23.6148 73.3281 190.874 -0.990923 32.5615 218.949 65.9553 13.2392 10.5221 13.5621 
151.174 163.024 156.171 151.81 152.283 139.14 156.383 152.373 147.235 142.932 37.4866 167.32 50.5357 -24.9129 214.893 -14.015 9.38337 208.67 -30.7004 42.8114 198.157 -23.2633 74.0162 190.707 -0.528555 32.3715 218.845 65.997 13.789 11.0457 14.0068 
151.103 162.824 156.065 150.745 151.514 139.005 156.321 152.304 146.216 142.529 37.4996 167.186 50.7842 -25.2963 215.451 -14.0166 9.42476 209.301 -30.8634 43.1002 197.998 -22.8732 74.5973 190.632 -0.149854 32.1707 218.726 66.0356 14.2007 11.5766 14.3573 
151.003 162.605 156.109 150.035 150.99 138.902 156.084 152.131 145.458 142.256 37.5702 167.049 50.9755 -25.5421 215.722 -14.0496 9.41589 209.704 -31.0007 43.3104 197.91 -22.6354 75.0672 190.614 0.0780449 31.9867 218.595 66.0229 14.5495 11.9581 14.5442 
150.836 162.533 156.434 149.596 150.675 138.733 155.791 151.923 144.796 142.097 37.7123 166.965 51.1825 -25.7198 215.715 -14.0207 9.38185 209.821 -31.0468 43.4836 197.742 -22.3966 75.4499 190.688 0.233734 31.8523 218.474 66.0125 14.7701 12.2542 14.6644 
150.699 162.501 156.924 149.564 150.622 138.587 155.497 151.838 144.582 142.274 37.7993 166.91 51.3813 -25.8221 215.516 -13.9952 9.25799 209.803 -31.0915 43.572 197.695 -22.3359 75.7116 190.856 0.231245 31.7531 218.414 65.9874 14.9155 12.4155 14.6456 
150.566 162.507 157.24 149.527 150.577 138.476 155.317 151.746 144.391 142.517 37.8972 166.815 51.5309 -25.9126 215.307 -13.9595 9.14902 209.679 -31.0903 43.5815 197.622 -22.2762 75.8828 191.106 0.151952 31.6752 218.318 65.9782 14.9852 12.4823 14.6369 
150.408 162.536 157.531 149.569 150.631 138.349 155.202 151.739 144.282 142.821 38.1719 166.787 51.6039 -25.9625 215.128 -13.9453 9.09232 209.653 -31.1225 43.6287 197.65 -22.2775 76.1103 191.428 0.0148015 31.6217 218.227 65.9573 15.0795 12.5399 14.6287 
