153.499 163.726 160.736 166.465 163.655 144.171 157.283 155.953 163.643 160.937 94.5219 148.81 21.1058 78.7875 165.711 -65.4437 114.357 161.753 -68.3647 147.359 165.931 -52.0577 166.973 169.517 -17.534 95.548 200.199 23.9935 13.286 12.8174 11.4495 
153.388 164.249 160.897 166.467 163.726 144.121 157.493 155.852 163.624 160.904 94.9043 148.816 20.7991 79.1309 165.825 -65.9098 114.59 161.702 -68.6495 147.551 165.915 -52.4026 167.182 169.514 -17.9187 95.8223 200.191 23.6383 13.2781 12.7915 11.3495 
153.263 164.771 160.977 166.488 163.726 144.019 157.802 155.804 163.584 160.856 95.4399 148.748 20.4852 79.4847 165.905 -66.505 114.881 161.737 -69.1084 147.841 165.987 -52.8617 167.473 169.627 -18.4067 96.076 200.127 23.1843 13.2701 12.7879 11.2851 
153.143 165.747 161.264 166.647 163.822 143.941 158.381 155.959 163.741 160.995 95.8965 148.562 20.3132 79.7024 165.906 -67.1467 115.053 161.739 -69.6651 148.099 166.009 -53.3698 167.769 169.67 -18.8818 96.282 199.997 22.758 13.3026 12.8331 11.2329 
153.011 166.726 161.6 166.907 163.974 143.928 158.871 156.2 163.928 161.151 96.2732 148.352 20.1731 79.8929 165.938 -67.7526 115.245 161.745 -70.2126 148.378 165.977 -53.8133 168.071 169.695 -19.29 96.4816 199.883 22.3986 13.3189 12.8567 11.2038 
152.954 168.188 161.961 167.223 164.192 143.937 159.667 156.51 164.197 161.447 96.6996 148.139 20.1105 80.0056 165.914 -68.3947 115.316 161.734 -70.8291 148.62 165.987 -54.3808 168.394 169.729 -19.7852 96.676 199.752 22.0492 13.3653 12.9389 11.1479 
152.896 169.59 162.128 167.424 164.341 143.941 160.361 156.755 164.386 161.703 97.0243 148.024 19.943 80.1452 165.939 -69.0038 115.396 161.814 -71.4397 148.809 165.981 -54.8991 168.613 169.704 -20.2634 96.8411 199.648 21.7051 13.3641 12.9802 11.0835 
152.906 171.377 162.295 167.63 164.52 143.963 161.455 156.999 164.553 161.964 97.3593 147.902 19.9317 80.2569 166.071 -69.6846 115.372 161.882 -72.0089 148.926 165.976 -55.4096 168.782 169.675 -20.7414 96.9887 199.564 21.4083 13.3677 13.0436 10.9617 
152.978 172.944 162.253 167.63 164.59 143.995 162.368 157.068 164.632 162.152 97.553 147.776 19.7997 80.3259 166.134 -70.2719 115.236 161.884 -72.479 148.93 165.935 -55.8829 168.839 169.531 -21.1734 97.101 199.464 21.106 13.3806 13.1335 10.8135 
152.977 174.261 162.258 167.67 164.693 144.026 163.247 157.136 164.765 162.323 97.6371 147.68 19.6468 80.4023 166.144 -70.7617 115.111 161.808 -72.8581 148.9 165.875 -56.3175 168.855 169.368 -21.56 97.1992 199.377 20.8391 13.3934 13.2019 10.668 
152.971 175.169 162.324 167.717 164.765 144.059 163.711 157.187 164.877 162.447 97.697 147.619 19.4472 80.3975 165.942 -71.0769 115.005 161.667 -73.2176 148.886 165.783 -56.7581 168.895 169.187 -21.9435 97.314 199.319 20.5512 13.4181 13.2655 10.6022 
152.964 175.897 162.243 167.694 164.783 144.011 163.968 157.159 164.863 162.471 97.6988 147.642 19.1768 80.4413 165.84 -71.3701 114.988 161.573 -73.5233 148.899 165.634 -57.1033 168.937 168.95 -22.2583 97.4241 199.283 20.2759 13.4285 13.2809 10.5667 
152.87 176.938 162.039 167.586 164.727 144 163.562 156.883 164.709 162.358 98.0031 147.613 18.2442 80.6916 165.637 -72.0201 115.262 161.411 -74.1615 149.065 165.236 -57.738 169.03 168.411 -22.9389 97.7303 199.153 19.5464 13.3533 13.1997 10.613 
152.855 176.78 161.858 167.45 164.573 144.088 162.98 156.46 164.399 161.985 98.144 147.679 17.5757 80.9138 165.665 -72.2136 115.455 161.232 -74.2274 149.042 164.819 -57.8308 168.928 167.95 -23.153 97.9565 199.174 19.1874 13.2797 13.0622 10.6244 
152.844 176.809 161.524 167.148 164.373 144.116 162.459 155.998 163.943 161.545 98.1909 147.667 16.7376 81.2457 165.83 -72.6563 115.732 160.984 -74.3756 148.999 164.173 -57.9102 168.802 167.248 -23.3673 98.2032 199.105 18.7367 13.2081 12.8507 10.6161 
152.858 177.479 161.225 166.895 164.083 144.144 162.782 155.657 163.608 161.172 98.3379 147.483 16.2903 81.7826 166.063 -73.2444 116.044 160.675 -74.516 149.074 163.656 -58.0028 168.84 166.719 -23.5115 98.4627 198.954 18.3803 13.1986 12.7044 10.4643 
152.805 178.446 161.241 166.822 163.886 144.162 163.539 155.664 163.53 160.971 98.6969 147.305 16.1417 82.3486 166.24 -73.8682 116.447 160.43 -74.8006 149.366 163.308 -58.2086 169.076 166.36 -23.6759 98.7817 198.788 18.0808 13.1952 12.6336 10.3515 
152.77 179.374 161.47 166.863 163.88 144.151 164.486 156 163.662 161.068 99.131 147.058 16.3795 82.8405 166.343 -74.3616 116.759 160.204 -75.1144 149.658 163.059 -58.4545 169.368 166.103 -23.8595 99.1008 198.619 17.9273 13.194 12.5984 10.209 
152.681 179.679 161.637 166.915 163.902 144.067 165.325 156.317 163.834 161.245 99.6073 146.792 16.728 83.2417 166.302 -74.7062 117.028 159.992 -75.3992 149.958 162.855 -58.6919 169.681 165.904 -24.0582 99.4316 198.395 17.8287 13.1812 12.594 10.1016 
152.533 179.296 161.893 167.069 164.093 143.98 165.629 156.718 164.18 161.542 99.9338 146.573 17.1012 83.3884 165.681 -74.5543 117.176 159.62 -75.5 150.318 162.768 -58.9242 170.166 165.933 -24.2528 99.8097 198.229 17.8189 13.2212 12.7087 10.0632 
152.439 178.753 161.935 167.15 164.163 143.904 165.309 156.823 164.34 161.66 100.235 146.436 17.1484 83.4982 164.98 -74.2771 117.461 159.338 -75.5492 150.804 162.73 -59.0904 170.71 165.923 -24.3586 100.219 198.057 17.7968 13.2627 12.8474 10.1673 
152.373 178.381 161.873 167.212 164.075 143.797 164.674 156.674 164.296 161.532 100.596 146.445 16.9 83.8886 164.636 -74.1845 118.091 159.245 -75.5621 151.472 162.72 -59.1247 171.267 165.886 -24.3364 100.667 197.916 17.7238 13.2505 12.9154 10.3571 
152.393 177.297 161.707 167.155 163.942 143.804 164.06 156.448 164.2 161.363 100.918 146.314 16.5068 84.3286 164.096 -74.0615 118.739 158.996 -75.5361 152.158 162.55 -59.1031 171.847 165.654 -24.2154 101.124 197.673 17.6165 13.28 13.0046 10.5417 
152.409 177.221 161.578 167.072 163.82 143.796 163.966 156.286 164.058 161.16 101.115 146.175 16.2022 84.8747 164.103 -74.2144 119.291 158.759 -75.4879 152.637 162.196 -59.0235 172.229 165.252 -24.1222 101.542 197.468 17.5302 13.2642 12.9819 10.5693 
152.437 177.283 161.532 167.074 163.766 143.816 164.182 156.313 164.003 161.102 101.447 145.963 16.1068 85.3679 163.985 -74.3539 119.77 158.496 -75.4951 153.083 161.815 -58.9444 172.606 164.879 -24.041 101.904 197.22 17.4921 13.2414 12.9608 10.5629 
152.551 176.603 161.663 167.138 163.862 143.855 164.33 156.478 164.148 161.271 101.691 145.547 16.2292 85.6253 163.401 -74.2085 119.977 158.056 -75.4576 153.392 161.468 -58.9401 172.965 164.606 -24.0434 102.206 196.879 17.5181 13.2646 13.0359 10.5269 
152.568 176.555 161.745 167.231 163.985 143.833 164.367 156.675 164.323 161.479 101.862 145.097 16.5004 85.8137 162.801 -73.9937 120.148 157.642 -75.422 153.693 161.191 -58.9476 173.366 164.417 -24.0543 102.476 196.54 17.5853 13.311 13.1155 10.5038 
152.536 176.297 161.863 167.457 164.146 143.768 164.257 156.784 164.526 161.71 102.167 144.802 16.7214 86.0254 162.16 -73.7581 120.441 157.263 -75.3998 154.149 161.077 -59.0274 173.916 164.444 -24.1441 102.787 196.292 17.5881 13.3607 13.2238 10.5495 
152.46 176.163 161.9 167.703 164.261 143.623 163.597 156.756 164.679 161.822 102.387 144.794 16.6487 86.2719 161.733 -73.4933 120.886 157.101 -75.3597 154.723 161.089 -59.0564 174.511 164.562 -24.1797 103.197 196.23 17.5686 13.384 13.3181 10.7049 
152.384 175.665 161.936 167.786 164.258 143.524 163.166 156.763 164.743 161.85 102.535 144.871 16.4127 86.617 161.688 -73.4876 121.375 157.16 -75.4685 155.204 161.127 -59.1508 174.932 164.58 -24.248 103.561 196.225 17.4685 13.3743 13.3249 10.8252 
152.363 175.301 161.805 167.667 164.197 143.486 162.796 156.684 164.681 161.794 102.53 144.829 16.0153 86.8735 161.765 -73.639 121.692 157.13 -75.616 155.51 160.981 -59.2882 175.217 164.342 -24.362 103.88 196.149 17.2946 13.3865 13.3256 10.8894 
152.43 175.022 161.646 167.485 164.097 143.528 162.506 156.605 164.562 161.693 102.508 144.767 15.7146 87.003 161.873 -73.8209 121.843 157.057 -75.7993 155.602 160.744 -59.4676 175.32 163.978 -24.5351 104.149 196.056 17.0996 13.3995 13.2859 10.9266 
152.407 175.911 161.583 167.374 164.005 143.559 162.828 156.52 164.493 161.619 102.505 144.641 15.5915 87.3202 162.197 -74.2345 121.982 156.968 -75.9794 155.655 160.529 -59.6337 175.41 163.671 -24.672 104.359 195.966 16.923 13.4426 13.2259 10.7841 
152.339 176.513 161.442 167.193 163.929 143.543 162.814 156.44 164.375 161.572 102.568 144.499 15.521 87.515 162.347 -74.5644 122.057 156.868 -76.2282 155.686 160.267 -59.8204 175.503 163.297 -24.8138 104.53 195.832 16.7287 13.5005 13.1793 10.6885 
152.281 176.97 161.366 167.01 163.897 143.474 162.844 156.436 164.279 161.545 102.586 144.383 15.702 87.6066 162.458 -74.7412 122.023 156.771 -76.3689 155.603 160.036 -59.9346 175.521 163.022 -24.9449 104.667 195.749 16.6321 13.5424 13.1072 10.5827 
152.261 177.217 161.481 166.97 163.987 143.505 162.734 156.531 164.251 161.605 102.677 144.336 15.6173 87.6327 162.459 -74.9062 122.023 156.711 -76.59 155.527 159.808 -60.1089 175.489 162.762 -25.1606 104.792 195.704 16.4806 13.5248 13.0137 10.5538 
152.242 177.552 161.645 166.975 164.094 143.566 162.762 156.667 164.33 161.714 102.808 144.309 15.6547 87.5762 162.369 -75.001 121.924 156.656 -76.8192 155.454 159.742 -60.3661 175.533 162.694 -25.4278 104.932 195.713 16.3354 13.5584 12.992 10.508 
152.172 178.025 161.919 167.027 164.239 143.583 162.78 156.855 164.347 161.801 103.088 144.389 15.7492 87.5626 162.524 -75.2274 121.913 156.725 -77.1175 155.381 159.678 -60.6164 175.515 162.611 -25.7096 105.079 195.809 16.1744 13.5365 12.8952 10.4911 
152.147 178.018 162.187 167.014 164.42 143.607 162.521 156.995 164.304 161.871 103.289 144.47 15.5895 87.35 162.671 -75.5227 121.763 156.733 -77.4654 155.139 159.481 -60.939 175.305 162.35 -26.0947 105.149 195.907 15.9118 13.4807 12.78 10.5397 
152.065 178.204 162.555 167.137 164.553 143.651 162.456 157.147 164.34 161.955 103.603 144.67 15.443 87.2047 163.022 -75.9151 121.703 156.945 -77.8698 155.044 159.593 -61.323 175.251 162.408 -26.484 105.246 196.119 15.6619 13.4599 12.7153 10.5996 
151.953 178.261 163.008 167.326 164.761 143.637 162.419 157.484 164.543 162.226 103.887 144.757 15.3907 87.0399 163.14 -76.1962 121.628 157.107 -78.2972 154.969 159.7 -61.7407 175.216 162.476 -26.8839 105.316 196.241 15.4751 13.425 12.6594 10.6424 
151.876 178.239 163.342 167.477 164.901 143.62 162.494 157.732 164.718 162.468 104.065 144.772 15.3064 86.8638 163.198 -76.5138 121.47 157.203 -78.7177 154.825 159.758 -62.1658 175.11 162.468 -27.2726 105.329 196.303 15.2951 13.3973 12.624 10.6358 
151.793 178.333 163.61 167.687 165.037 143.624 162.689 157.969 164.941 162.727 104.222 144.705 15.3155 86.7299 163.196 -76.7794 121.33 157.224 -79.0645 154.75 159.84 -62.5566 175.103 162.54 -27.628 105.355 196.322 15.168 13.3868 12.6219 10.6062 
151.696 178.22 163.762 167.789 165.113 143.549 162.757 158.16 165.092 162.912 104.296 144.694 15.4052 86.622 163.33 -77.0506 121.24 157.333 -79.401 154.694 159.916 -62.8636 175.077 162.562 -27.8762 105.357 196.346 15.0692 13.3772 12.601 10.5971 
151.629 178.351 163.949 167.924 165.197 143.551 163.104 158.313 165.263 163.083 104.424 144.643 15.4176 86.6329 163.502 -77.3888 121.24 157.445 -79.6945 154.7 159.996 -63.1288 175.077 162.597 -28.0835 105.365 196.341 14.9595 13.3613 12.5772 10.5745 
151.62 178.398 164.028 168.051 165.259 143.577 163.389 158.387 165.356 163.211 104.465 144.656 15.3494 86.5952 163.765 -77.7509 121.159 157.525 -79.9614 154.602 159.97 -63.3775 174.968 162.507 -28.3134 105.362 196.395 14.8195 13.3208 12.5349 10.5418 
151.602 178.284 164.023 168.14 165.258 143.563 163.459 158.382 165.383 163.225 104.462 144.737 15.2263 86.5625 164.029 -78.048 121.099 157.62 -80.1916 154.482 159.921 -63.6075 174.804 162.387 -28.5599 105.373 196.483 14.6479 13.2496 12.4703 10.531 
151.615 178.106 164.009 168.15 165.225 143.575 163.618 158.382 165.369 163.201 104.403 144.805 15.1105 86.5742 164.299 -78.3023 121.024 157.68 -80.3307 154.297 159.848 -63.7713 174.572 162.294 -28.8012 105.371 196.573 14.4984 13.1515 12.3742 10.4835 
151.624 177.808 163.982 168.149 165.171 143.552 163.678 158.356 165.33 163.133 104.388 144.872 15.0448 86.5912 164.545 -78.5363 120.969 157.751 -80.4668 154.117 159.762 -63.9133 174.332 162.186 -29.0225 105.365 196.646 14.3472 13.0511 12.2728 10.4489 
151.595 177.497 163.911 168.119 165.061 143.532 163.499 158.334 165.286 163.047 104.335 144.934 14.9833 86.5595 164.744 -78.6964 120.953 157.838 -80.588 154.039 159.719 -64.0159 174.219 162.114 -29.1568 105.38 196.713 14.2213 12.9998 12.2182 10.478 
151.556 177.119 163.83 168.109 164.976 143.58 163.297 158.32 165.239 162.962 104.369 144.993 14.8772 86.5695 164.831 -78.7809 121.036 157.923 -80.6729 154.015 159.671 -64.0638 174.11 162.044 -29.2464 105.415 196.76 14.1158 12.9146 12.1359 10.5399 
151.579 176.863 163.773 168.1 164.879 143.625 163.338 158.341 165.204 162.903 104.376 145.025 14.8012 86.6223 164.964 -78.9077 121.089 157.99 -80.7419 153.968 159.64 -64.1112 173.997 162.024 -29.353 105.436 196.808 14.0269 12.8277 12.0571 10.5504 
151.593 176.528 163.577 167.997 164.783 143.638 163.182 158.223 165.091 162.815 104.358 144.997 14.7471 86.5922 164.98 -78.94 121.013 157.98 -80.7479 153.838 159.524 -64.106 173.856 161.902 -29.4012 105.426 196.807 13.9536 12.7915 12.0188 10.5339 
151.601 176.302 163.418 167.943 164.634 143.675 163.186 158.091 164.972 162.668 104.311 145 14.6327 86.5671 165.147 -79.0903 120.95 158.024 -80.8039 153.701 159.432 -64.1336 173.657 161.759 -29.4524 105.378 196.817 13.8645 12.7401 11.9756 10.5324 
151.612 175.804 163.315 167.884 164.56 143.736 163.157 157.962 164.862 162.542 104.323 144.955 14.5108 86.4379 165.136 -79.1413 120.773 157.953 -80.8089 153.448 159.216 -64.1431 173.346 161.491 -29.5108 105.288 196.768 13.7909 12.6716 11.9293 10.5215 
151.597 175.582 163.228 167.817 164.508 143.747 163.226 157.902 164.765 162.422 104.391 144.934 14.49 86.2329 165.041 -79.1687 120.5 157.845 -80.86 153.146 158.991 -64.2124 173.038 161.233 -29.6091 105.178 196.729 13.7019 12.6393 11.9028 10.4825 
151.577 175.302 163.145 167.752 164.43 143.747 163.169 157.89 164.706 162.338 104.36 144.879 14.5539 85.8364 164.677 -78.9695 120.092 157.639 -80.8352 152.781 158.772 -64.272 172.731 161.028 -29.715 105.053 196.654 13.687 12.6271 11.9159 10.4722 
151.545 175.366 163.176 167.715 164.394 143.717 163.201 158.004 164.677 162.254 104.315 144.811 14.7009 85.5317 164.363 -78.7975 119.767 157.406 -80.7888 152.432 158.496 -64.282 172.409 160.817 -29.81 104.936 196.568 13.6917 12.5703 11.8738 10.4561 
151.509 175.365 163.14 167.727 164.33 143.738 163.355 158.095 164.72 162.267 104.259 144.638 14.8736 85.2501 163.99 -78.5996 119.427 157.124 -80.7314 152.11 158.238 -64.3166 172.158 160.63 -29.9177 104.852 196.436 13.7311 12.5342 11.8517 10.4069 
151.49 175.355 163.166 167.784 164.274 143.766 163.333 158.144 164.764 162.309 104.198 144.508 14.9655 84.8996 163.528 -78.3643 119.115 156.839 -80.6767 151.889 158.068 -64.3598 172.038 160.536 -29.9846 104.777 196.311 13.7632 12.561 11.8945 10.4317 
151.501 175.146 163.18 167.848 164.216 143.808 163.342 158.163 164.83 162.372 104.153 144.27 15.101 84.6097 163.016 -78.1308 118.876 156.557 -80.6323 151.776 157.964 -64.4046 172.025 160.493 -30.0065 104.707 196.12 13.8206 12.6192 11.9717 10.4628 
151.529 174.96 163.232 167.968 164.222 143.895 163.223 158.152 164.905 162.481 104.125 144.031 15.19 84.2682 162.45 -77.8564 118.646 156.275 -80.59 151.733 157.903 -64.4566 172.127 160.523 -30.0268 104.658 195.944 13.8681 12.7205 12.0965 10.5466 
151.586 175.099 163.42 168.131 164.316 143.979 163.232 158.209 164.982 162.615 104.103 143.804 15.1994 83.9778 161.956 -77.6625 118.455 155.945 -80.55 151.721 157.742 -64.4709 172.263 160.435 -29.9981 104.614 195.711 13.9329 12.8411 12.2243 10.6304 
151.653 175.257 163.534 168.171 164.392 143.996 163.307 158.294 165.047 162.755 103.94 143.464 15.3346 83.6821 161.435 -77.4215 118.195 155.537 -80.4762 151.614 157.456 -64.449 172.324 160.196 -29.9454 104.537 195.385 14.0403 12.9652 12.3252 10.6632 
151.69 175.478 163.506 168.146 164.396 143.974 163.112 158.278 165.021 162.775 103.665 142.968 15.5703 83.4006 160.805 -77.0351 117.947 154.979 -80.2626 151.431 156.965 -64.2906 172.268 159.761 -29.8089 104.43 194.956 14.2006 13.0395 12.356 10.6917 
151.713 175.621 163.443 168.192 164.429 143.972 162.824 158.186 164.999 162.825 103.512 142.395 15.793 83.0803 159.97 -76.5377 117.676 154.313 -79.9984 151.252 156.415 -64.1106 172.242 159.297 -29.6744 104.301 194.426 14.3745 13.1236 12.4066 10.7355 
151.702 175.954 163.419 168.266 164.422 143.949 162.526 158.136 165.014 162.841 103.388 141.822 16.0041 82.8258 159.036 -76.0147 117.504 153.643 -79.7317 151.182 155.917 -63.9233 172.288 158.922 -29.5126 104.179 193.879 14.5511 13.1992 12.4675 10.802 
151.655 176.022 163.405 168.279 164.425 143.967 162.411 158.141 165.055 162.903 103.253 141.219 16.1337 82.6312 158.201 -75.6421 117.393 153.064 -79.603 151.084 155.473 -63.8432 172.241 158.499 -29.4188 104.032 193.284 14.6696 13.2472 12.4781 10.8717 
151.607 176.159 163.445 168.306 164.466 143.958 162.223 158.121 165.116 162.913 103 140.709 16.276 82.376 157.26 -75.1215 117.18 152.362 -79.3397 150.904 154.942 -63.6907 172.127 158.035 -29.2782 103.898 192.757 14.8004 13.2966 12.5061 10.9297 
151.526 176.274 163.595 168.5 164.508 143.944 162.219 158.223 165.319 163.021 102.784 140.257 16.5237 82.2168 156.295 -74.5649 117.091 151.705 -79.0947 150.89 154.563 -63.5784 172.174 157.783 -29.1618 103.803 192.289 14.9579 13.3452 12.5612 11.0005 
151.475 176.639 163.685 168.697 164.544 143.971 162.056 158.277 165.465 163.128 102.685 139.87 16.7221 82.0295 155.353 -74.0392 117.066 151.121 -78.9056 150.951 154.244 -63.5161 172.302 157.585 -29.0818 103.759 191.87 15.0746 13.4035 12.6245 11.1611 
151.538 176.837 163.92 168.878 164.469 143.923 161.546 158.492 165.697 163.153 102.44 139.313 16.7994 81.7629 153.924 -73.3075 117.112 150.236 -78.7167 151.119 153.721 -63.5139 172.462 157.248 -29.0976 103.781 191.195 15.151 13.4005 12.7236 11.4909 
151.534 176.97 163.908 168.87 164.418 143.948 161.144 158.48 165.803 163.139 102.209 138.972 16.7325 81.6504 153.03 -72.8532 117.173 149.794 -78.6033 151.28 153.547 -63.5363 172.598 157.153 -29.0937 103.807 190.839 15.1631 13.4123 12.8232 11.721 
151.522 176.697 163.855 168.905 164.388 143.921 160.929 158.451 165.898 163.118 102.003 138.738 16.6232 81.7276 152.442 -72.6001 117.356 149.498 -78.5524 151.55 153.467 -63.5805 172.833 157.139 -29.0971 103.891 190.56 15.1732 13.424 12.9062 11.8532 
151.494 176.867 163.851 168.947 164.409 143.872 160.94 158.434 165.984 163.108 101.776 138.603 16.5112 81.8779 152.159 -72.5591 117.53 149.312 -78.5329 151.789 153.418 -63.6159 173.034 157.114 -29.083 103.949 190.383 15.1667 13.4398 12.9684 11.8728 
151.506 176.874 163.698 168.802 164.373 143.805 160.821 158.365 165.971 163.029 101.459 138.514 16.3822 81.9347 151.988 -72.5101 117.565 149.151 -78.4771 151.821 153.264 -63.5872 173.003 156.921 -29.0444 103.952 190.23 15.1598 13.4192 12.9808 11.8659 
151.55 176.74 163.609 168.683 164.344 143.775 160.857 158.294 165.952 162.941 101.205 138.483 16.3528 81.954 151.887 -72.4865 117.534 148.989 -78.3937 151.828 153.146 -63.5424 172.994 156.798 -28.9789 103.941 190.152 15.1642 13.4393 13.0254 11.8231 
151.637 176.529 163.571 168.573 164.405 143.784 160.8 158.309 165.974 162.939 100.932 138.457 16.3244 81.9178 151.885 -72.4903 117.461 148.874 -78.3371 151.748 152.986 -63.4703 172.883 156.594 -28.8824 103.879 190.095 15.1789 13.4441 13.0342 11.7898 
151.713 176.112 163.55 168.501 164.475 143.815 160.694 158.238 165.893 162.847 100.754 138.492 16.2255 81.9036 151.934 -72.532 117.434 148.802 -78.2577 151.702 152.887 -63.3651 172.781 156.467 -28.7676 103.792 190.094 15.1933 13.4369 13.039 11.7627 
151.824 175.67 163.467 168.442 164.554 143.837 160.625 158.111 165.828 162.788 100.618 138.508 16.1226 81.9089 152.032 -72.5925 117.368 148.737 -78.1261 151.586 152.821 -63.2326 172.584 156.389 -28.6683 103.646 190.127 15.2006 13.3922 13.03 11.6789 
151.912 174.82 163.271 168.316 164.528 143.812 160.183 157.959 165.703 162.673 100.415 138.6 16.0865 81.833 152.234 -72.5799 117.276 148.783 -78.0184 151.42 152.753 -63.0704 172.317 156.275 -28.5466 103.479 190.223 15.1995 13.3347 12.9953 11.6581 
151.992 173.81 163.04 168.154 164.471 143.736 160.066 157.77 165.491 162.519 100.271 138.789 16.1432 81.8035 152.874 -72.84 117.167 148.941 -77.9624 151.191 152.676 -62.8947 171.97 156.124 -28.4296 103.287 190.401 15.1753 13.2641 12.9218 11.5295 
152.029 173.323 162.638 167.93 164.387 143.733 159.889 157.356 165.166 162.316 100.262 138.909 16.0593 81.7913 153.35 -73.1108 117.013 149.042 -77.8735 150.943 152.624 -62.7262 171.656 156.006 -28.3037 103.07 190.538 15.0748 13.2589 12.9024 11.3959 
152.121 173.707 162.4 167.826 164.416 143.826 160.295 157.058 164.976 162.285 100.325 139.02 15.9967 81.7932 153.928 -73.5964 116.772 149.197 -77.9136 150.689 152.7 -62.7075 171.438 156.045 -28.2935 102.858 190.738 14.9182 13.3262 12.9354 11.172 
152.185 174.117 162.19 167.77 164.488 143.887 160.943 156.787 164.77 162.272 100.512 139.175 15.9886 81.7971 154.468 -74.0971 116.473 149.341 -77.9919 150.387 152.781 -62.7607 171.195 156.105 -28.3787 102.648 190.959 14.7485 13.3749 12.9625 10.9132 
152.219 174.875 162.158 167.805 164.561 143.908 161.646 156.661 164.633 162.247 100.765 139.466 15.9526 81.8028 155.146 -74.6613 116.177 149.545 -78.1322 150.056 152.85 -62.8685 170.879 156.167 -28.5578 102.489 191.254 14.5716 13.347 12.9442 10.66 
152.222 175.496 162.028 167.744 164.588 143.871 162.186 156.59 164.522 162.219 100.897 139.735 15.8763 81.7482 155.774 -75.145 115.859 149.737 -78.2809 149.656 152.871 -63.0123 170.493 156.165 -28.8037 102.363 191.537 14.3882 13.2787 12.8727 10.4552 
152.206 175.419 161.886 167.648 164.515 143.856 162.757 156.434 164.369 162.087 101.037 139.88 15.7472 81.8782 156.305 -75.5756 115.68 149.887 -78.3516 149.337 152.909 -63.1097 170.149 156.241 -29.0521 102.277 191.758 14.1996 13.1691 12.7698 10.2233 
152.126 175.882 161.884 167.728 164.515 143.826 163.342 156.486 164.371 162.122 101.347 140.15 15.6869 82.0425 156.798 -76.0204 115.802 150.238 -78.5821 149.454 153.305 -63.3143 170.277 156.703 -29.2678 102.296 192.039 14.0504 13.1555 12.7599 10.1778 
152.018 176.15 161.914 167.802 164.5 143.761 163.828 156.557 164.447 162.173 101.699 140.465 15.697 82.2768 157.322 -76.33 115.987 150.619 -78.7359 149.607 153.71 -63.4487 170.389 157.137 -29.4079 102.388 192.362 13.9692 13.1011 12.726 10.1304 
