148.424 165.77 167.806 168.249 166.77 137.136 161.352 157.773 154.862 151.811 -74.6607 158.062 39.4922 -19.3879 174.6 -35.7443 -49.3132 166.804 -48.7463 -83.4639 164.736 -41.5006 -116.935 171.986 -20.5866 -68.8277 210.407 40.4589 14.2552 10.2077 9.96382 
148.377 165.716 168.018 168.167 166.758 136.993 161.285 157.75 154.9 151.753 -74.9567 158.427 39.5016 -19.5142 175.071 -35.447 -49.4318 167.377 -48.5058 -83.5662 165.461 -41.3918 -117.068 172.69 -20.478 -68.9672 210.69 40.8372 14.2592 10.1417 9.9507 
148.166 165.691 168.143 168.091 166.805 136.79 161.168 157.658 154.857 151.609 -75.5245 158.905 39.4818 -19.6777 175.374 -35.0745 -49.6283 167.81 -48.1922 -83.6879 166.02 -41.1713 -117.17 173.223 -20.252 -69.0857 210.973 41.1711 14.237 10.0613 9.95694 
147.982 165.618 168.245 168.055 166.75 136.641 161.036 157.491 154.804 151.495 -75.9401 159.45 39.5434 -19.9029 175.856 -34.7014 -49.8185 168.41 -47.8391 -83.8157 166.811 -40.9565 -117.301 173.959 -20.0276 -69.2022 211.342 41.6178 14.2332 9.96612 9.91105 
147.78 165.561 168.289 168.054 166.74 136.402 160.908 157.366 154.79 151.448 -76.5886 160.017 39.7301 -20.2044 176.117 -34.2253 -50.0069 168.885 -47.3979 -83.9611 167.522 -40.6889 -117.471 174.667 -19.7697 -69.3067 211.683 42.0497 14.2623 9.88686 9.78397 
147.597 165.637 168.427 168.146 166.805 136.206 160.944 157.333 154.86 151.471 -77.3517 160.691 40.0556 -20.5206 176.445 -33.6951 -50.3304 169.42 -46.8962 -84.2187 168.306 -40.3215 -117.676 175.49 -19.4033 -69.4133 212.125 42.586 14.2346 9.80003 9.74033 
147.355 165.582 168.498 168.175 166.743 135.922 160.813 157.242 154.876 151.43 -77.9566 161.254 40.4248 -20.7739 176.775 -33.2952 -50.5807 169.916 -46.5087 -84.4414 168.987 -40.0263 -117.828 176.099 -19.0325 -69.4625 212.412 43.0986 14.2042 9.74784 9.6923 
147.208 165.534 168.555 168.191 166.711 135.635 160.683 157.235 154.959 151.443 -78.4593 161.934 40.785 -20.8794 177.226 -32.8337 -50.6423 170.502 -46.0991 -84.5517 169.649 -39.71 -117.922 176.588 -18.6269 -69.5369 212.814 43.6056 14.2044 9.75004 9.60982 
147.11 165.415 168.5 168.098 166.57 135.465 160.472 157.073 154.843 151.306 -78.6893 162.403 41.29 -20.9013 177.706 -32.3648 -50.6753 171.032 -45.638 -84.6495 170.23 -39.3018 -118.057 176.985 -18.1131 -69.5983 213.111 44.1735 14.2694 9.77555 9.59846 
147.089 165.417 168.294 167.953 166.407 135.481 160.452 156.838 154.662 151.175 -78.4553 162.666 41.879 -20.9561 178.369 -32.0027 -50.7014 171.512 -45.1641 -84.7224 170.693 -38.8489 -118.205 177.336 -17.6192 -69.7241 213.411 44.7454 14.3425 9.79999 9.62263 
147.152 165.478 168.138 167.826 166.294 135.58 160.483 156.638 154.462 151.072 -78.3378 162.837 42.4841 -21.0836 178.544 -31.4027 -50.7837 171.645 -44.5078 -84.884 170.852 -38.2121 -118.429 177.549 -17.0226 -69.8982 213.636 45.342 14.3979 9.85608 9.60591 
147.114 165.743 168.154 167.818 166.303 135.645 160.874 156.583 154.385 151.164 -78.3925 163.008 43.1297 -21.092 179.038 -31.0122 -50.93 171.906 -43.9777 -85.1206 171.093 -37.6582 -118.761 177.892 -16.5043 -70.0895 213.869 45.9452 14.4753 9.92393 9.78314 
147.2 166.004 168.284 167.964 166.479 135.834 161.196 156.824 154.602 151.564 -78.2765 163.128 43.7291 -21.183 179.437 -30.4198 -50.9311 172.258 -43.4005 -85.1897 171.333 -37.1028 -118.91 178.083 -15.9987 -70.2948 214.136 46.5643 14.5038 9.97125 9.72476 
147.33 166.038 168.264 167.98 166.531 136.033 161.315 156.948 154.633 151.75 -77.9111 162.972 44.4443 -21.2592 179.743 -29.8202 -50.8702 172.502 -42.819 -85.2142 171.287 -36.4636 -119.027 177.993 -15.4352 -70.5382 214.256 47.1506 14.538 10.0687 9.64724 
147.683 166.111 167.854 167.919 166.422 136.094 161.289 156.668 154.467 151.695 -78.0071 162.994 45.9149 -21.7303 180.696 -28.992 -51.2929 173.048 -41.7257 -85.8402 171.248 -35.1404 -119.699 177.708 -13.9767 -71.2602 214.497 48.4101 14.5861 10.2839 9.6686 
147.867 166.073 167.375 167.872 166.463 136.366 161.225 156.396 154.348 151.616 -77.9003 162.495 46.6215 -22.0286 180.645 -28.5665 -51.7437 172.666 -41.1536 -86.3062 170.518 -34.3391 -120.019 176.976 -13.1041 -71.6452 214.187 48.9872 14.4793 10.3801 9.86779 
149.095 165.466 166.371 167.737 166.398 138.127 160.88 156.63 154.367 152.629 -77.246 160.347 47.4399 -22.6103 179.733 -27.6682 -52.3043 171.642 -40.3563 -86.6462 169.106 -33.2291 -120.406 175.476 -12.0993 -71.9756 213.496 49.6664 14.501 10.3285 9.8291 
149.847 165.117 165.715 167.694 166.495 139.477 160.371 156.697 154.29 153.35 -76.7144 158.689 48.2519 -23.2224 178.37 -26.5945 -52.7633 170.205 -39.3463 -86.8218 167.409 -32.0001 -120.587 173.746 -11.0292 -72.3412 212.759 50.3001 14.458 10.2109 9.67605 
150.389 164.604 164.893 167.653 166.439 140.312 159.561 156.43 154.089 153.585 -76.5027 157.658 49.1521 -24.0001 177.324 -25.5855 -53.4438 169.371 -38.3831 -87.4365 166.567 -30.8862 -121.202 172.855 -9.91629 -72.9085 212.32 51.0129 14.5032 10.1907 9.48867 
151.048 164.609 164.973 167.773 166.463 140.568 159.615 156.348 154.222 153.281 -77.0259 156.963 50.1722 -24.5306 176.741 -24.9703 -54.1663 169.166 -37.9376 -88.4329 166.534 -30.5249 -122.177 173.112 -9.47068 -73.6831 211.984 51.6315 14.52 10.3581 9.57668 
150.717 164.489 164.72 167.995 167.084 140.976 159.664 156.567 154.306 153.998 -77.3218 156.052 51.1342 -25.3459 176.476 -24.5023 -55.0802 168.646 -37.4003 -89.1988 165.73 -29.6888 -122.969 172.243 -8.602 -74.3595 211.523 52.3295 14.5484 10.3409 9.67445 
150.772 164.42 164.636 168.131 167.719 141.785 159.644 156.681 154.26 154.599 -77.4823 154.653 51.6577 -25.9792 175.471 -24.0347 -55.7826 167.201 -36.7895 -89.5998 164.133 -28.8564 -123.394 170.58 -7.70818 -74.8597 210.427 52.9279 14.5536 10.173 9.79626 
150.925 164.148 164.366 168.157 167.96 142.598 159.484 156.786 154.072 154.582 -77.1677 153.259 52.3966 -26.7343 174.465 -23.4465 -56.3808 166.229 -36.2065 -90.1358 163.037 -28.0945 -124.051 169.536 -6.92533 -75.5511 209.587 53.49 14.655 10.1972 9.68206 
151.055 164.047 164.47 168.437 168.363 143.221 159.392 157.065 154.111 154.611 -76.9285 152.298 53.2953 -27.6903 173.749 -23.0237 -57.4369 165.515 -35.731 -91.1613 162.069 -27.2646 -124.911 168.729 -6.06915 -76.3762 209.163 53.9741 14.536 10.3227 9.73707 
151.745 164.221 164.911 168.889 168.847 144.176 159.645 157.509 154.464 155.052 -76.5687 151.008 53.957 -28.487 173.023 -22.844 -58.539 164.58 -35.4177 -92.1415 160.939 -26.5675 -125.668 167.698 -5.26752 -76.9928 208.434 54.5211 14.3673 10.3435 9.95479 
153.787 164.862 164.751 169.119 169.209 145.44 160.942 158.22 155.678 155.342 -76.5252 149.609 54.7495 -29.249 171.544 -22.4663 -59.909 163.027 -34.8249 -93.2192 159.549 -25.8019 -125.894 166.699 -4.2872 -77.5672 207.753 55.0934 13.6533 10.2359 10.4011 
154.246 164.73 164.564 169.404 169.259 146.156 160.656 158.003 155.358 154.909 -76.335 148.405 55.6438 -29.9323 170.547 -22.0617 -60.538 162.147 -34.387 -93.9059 158.483 -25.0999 -126.558 165.532 -3.52631 -78.127 206.84 55.5791 13.6956 10.3897 10.3095 
154.522 164.653 164.543 169.423 169.276 146.666 160.31 157.885 155.225 154.886 -75.839 147.748 56.231 -30.5719 170.518 -21.8169 -61.0603 162.046 -34.1217 -94.5218 158.174 -24.7514 -127.27 164.945 -3.07675 -78.7838 206.43 56.0714 13.801 10.4757 10.2079 
155.721 165.176 164.792 169.634 169.263 147.691 160.956 158.403 156.229 155.294 -75.6516 147.158 56.5185 -31.0894 169.75 -21.2765 -62.0974 161.23 -33.5693 -95.4154 157.363 -24.1433 -127.52 164.521 -2.513 -79.3161 206.128 56.6538 13.2149 10.4608 10.5866 
157.493 165.576 164.97 169.857 169.251 148.686 161.395 158.77 157.25 155.883 -75.5097 146.5 56.756 -31.5396 168.627 -20.599 -62.9097 160.258 -32.9104 -96.1765 156.563 -23.5339 -127.752 164.094 -2.00644 -79.7194 205.743 57.1497 12.7403 10.447 10.8088 
159.091 166.059 165.199 170.368 169.521 149.878 161.827 158.922 158.444 156.582 -75.5101 145.682 57.7967 -32.4072 167.443 -19.4709 -64.2405 159.288 -31.7094 -97.5612 155.952 -22.3781 -128.638 163.647 -0.812837 -80.4979 205.215 58.2568 12.4032 10.4471 11.0716 
160.102 166.046 165.088 170.575 169.482 150.499 161.957 158.753 158.878 156.622 -75.0711 145.388 58.2208 -32.4971 166.879 -18.9098 -64.5603 159.009 -31.1887 -98.0436 156.066 -22.0294 -128.96 163.855 -0.459082 -80.6768 205.133 58.622 12.331 10.4613 11.1885 
161.136 165.92 164.844 170.329 169.274 151.255 161.959 158.529 159.051 156.519 -74.6511 144.894 58.8269 -32.8395 166.389 -18.222 -65.07 158.897 -30.6416 -98.7349 156.352 -21.7021 -129.568 164.18 -0.0218096 -81.0412 204.947 59.1377 12.3521 10.4816 11.261 
161.771 165.885 164.771 170.415 169.049 151.966 161.974 158.407 159.314 156.447 -73.9912 144.56 59.4369 -33.0315 166.239 -17.684 -65.4472 158.945 -30.212 -99.2813 156.716 -21.4711 -130.108 164.571 0.254782 -81.403 204.955 59.5322 12.403 10.5039 11.3845 
161.769 165.935 164.921 170.626 169.012 152.383 161.991 158.493 159.745 156.71 -73.779 144.497 59.8785 -33.1329 166.275 -17.1384 -65.5629 159.078 -29.836 -99.5034 157.093 -21.3731 -130.41 164.955 0.290167 -81.758 205.123 59.8642 12.428 10.4487 11.3842 
161.49 166.001 165.115 170.731 168.99 152.62 162.076 158.611 160.138 157.056 -73.6788 144.538 60.1958 -33.1075 166.482 -16.7926 -65.6523 159.348 -29.6511 -99.6915 157.537 -21.3847 -130.64 165.268 0.325318 -82.0087 205.293 60.1763 12.4457 10.3961 11.4312 
161.193 166.101 165.189 170.74 169.042 152.808 162.083 158.593 160.338 157.231 -73.6224 144.643 60.3397 -33.0457 166.469 -16.314 -65.5878 159.401 -29.3287 -99.6807 157.814 -21.3444 -130.715 165.404 0.365713 -82.1937 205.457 60.3662 12.4904 10.3031 11.4019 
160.677 166.118 165.268 170.799 169.238 152.738 162.013 158.535 160.484 157.429 -73.9777 144.866 60.3874 -33.0654 166.454 -15.8633 -65.5734 159.371 -28.9268 -99.6711 157.994 -21.2025 -130.755 165.48 0.497389 -82.3396 205.585 60.6055 12.504 10.196 11.3623 
160.215 166.066 165.265 170.74 169.411 152.682 161.902 158.438 160.516 157.485 -74.1443 145.108 60.492 -33.1147 166.529 -15.5188 -65.529 159.418 -28.6074 -99.6267 158.197 -21.0861 -130.724 165.543 0.670305 -82.4245 205.758 60.8025 12.5085 10.1156 11.2835 
159.838 165.988 165.226 170.6 169.625 152.538 161.785 158.372 160.494 157.528 -74.3058 145.448 60.5998 -33.1585 166.618 -15.1706 -65.4701 159.454 -28.2692 -99.5602 158.298 -20.9 -130.617 165.533 0.930171 -82.5 205.972 60.9894 12.4694 10.063 11.2091 
159.669 165.935 165.187 170.405 169.765 152.479 161.751 158.35 160.452 157.543 -74.3796 145.748 60.6861 -33.182 166.738 -14.8107 -65.3757 159.607 -27.9852 -99.4671 158.547 -20.782 -130.512 165.681 1.10311 -82.5529 206.214 61.1817 12.4475 10.015 11.1181 
159.333 165.845 165.206 170.233 169.791 152.171 161.652 158.357 160.396 157.518 -74.716 146.191 60.531 -33.1777 167.023 -14.6297 -65.2222 159.885 -27.8632 -99.276 158.88 -20.8048 -130.326 165.851 1.15058 -82.5622 206.433 61.3091 12.4315 9.93851 11.0042 
159.135 165.804 165.22 170.043 169.84 151.939 161.619 158.323 160.318 157.5 -75.012 146.599 60.3427 -33.2289 167.269 -14.466 -65.1473 160.099 -27.7115 -99.1341 159.189 -20.7813 -130.168 166.015 1.24373 -82.5367 206.62 61.4497 12.4113 9.84371 10.9067 
159.157 165.705 165.131 169.872 169.875 151.78 161.559 158.209 160.173 157.393 -75.2911 146.929 60.2739 -33.3109 167.512 -14.372 -65.0927 160.292 -27.5545 -99.0057 159.44 -20.6922 -130.015 166.161 1.38973 -82.5078 206.79 61.6127 12.3855 9.76486 10.8042 
159.141 165.585 165.135 169.647 169.834 151.513 161.51 158.255 160.181 157.425 -75.3977 147.349 60.2689 -33.2911 168.003 -14.4055 -64.9041 160.733 -27.5636 -98.8394 159.835 -20.7585 -129.839 166.326 1.52319 -82.4385 207.043 61.7994 12.3923 9.74673 10.6588 
159.445 165.4 165.105 169.395 169.794 151.359 161.515 158.305 160.089 157.337 -75.437 147.582 60.1678 -33.2211 168.295 -14.401 -64.6736 161.04 -27.5649 -98.5513 160.043 -20.7516 -129.521 166.33 1.66488 -82.3005 207.166 61.9149 12.3705 9.70114 10.5205 
160.075 165.23 165.023 169.109 169.76 151.319 161.513 158.39 160.004 157.214 -75.3236 147.597 60.1719 -33.1454 168.362 -14.3493 -64.4619 161.214 -27.5557 -98.2805 160.112 -20.7055 -129.173 166.252 1.86245 -82.1116 207.178 62.0274 12.3265 9.67173 10.3924 
160.492 165.076 165.006 168.926 169.609 151.081 161.541 158.556 159.97 157.064 -75.3111 147.629 60.19 -33.0333 168.436 -14.3853 -64.2603 161.442 -27.6387 -97.9855 160.165 -20.659 -128.738 166.146 2.07574 -81.8042 207.125 62.1447 12.248 9.64266 10.2774 
161.38 164.979 164.948 168.758 169.5 151.088 161.552 158.708 159.825 156.873 -75.1331 147.282 60.1866 -32.7956 167.986 -14.2471 -63.9308 161.306 -27.6219 -97.5529 159.909 -20.5253 -128.24 165.969 2.19566 -81.3828 206.859 62.1932 12.1859 9.63048 10.1717 
161.946 164.967 164.993 168.784 169.406 150.847 161.407 158.812 159.682 156.684 -75.2015 147.083 60.0939 -32.5867 167.591 -14.2247 -63.6537 161.289 -27.676 -97.1954 159.712 -20.3689 -127.806 165.909 2.29094 -80.9243 206.61 62.2693 12.103 9.65546 10.055 
162.434 164.856 164.973 168.674 169.334 150.545 161.16 158.861 159.454 156.455 -75.0443 147.002 60.0827 -32.2397 167.478 -14.2545 -63.3016 161.436 -27.7505 -96.8071 159.548 -20.2236 -127.35 165.764 2.43398 -80.4656 206.461 62.3416 12.0547 9.73046 10.0025 
162.787 164.839 165.108 168.761 169.299 150.259 161.055 159.071 159.399 156.362 -74.8497 147.058 60.0426 -31.8396 167.509 -14.2672 -62.934 161.713 -27.8772 -96.4324 159.539 -20.1553 -126.929 165.805 2.44398 -80.0268 206.462 62.4098 11.9951 9.81327 9.98406 
162.945 164.758 165.224 168.748 169.323 149.982 160.977 159.294 159.254 156.163 -74.8543 147.049 59.7575 -31.3464 167.587 -14.3534 -62.3713 161.956 -28.0731 -95.8097 159.483 -20.2134 -126.291 165.81 2.26776 -79.5585 206.401 62.378 11.9105 9.86218 9.92431 
162.592 164.66 165.337 168.695 169.351 149.71 160.972 159.52 159.193 155.931 -75.0096 147.333 59.5519 -30.8962 168.084 -14.6036 -61.7989 162.534 -28.3766 -95.2699 159.762 -20.3872 -125.721 166.067 2.13182 -79.1701 206.656 62.3844 11.8457 9.9609 9.82227 
162.511 164.562 165.363 168.717 169.315 149.743 161.142 159.729 159.196 155.685 -74.7445 147.514 59.6212 -30.507 168.547 -14.791 -61.3162 162.941 -28.5645 -94.7964 159.964 -20.4458 -125.243 166.296 2.12346 -78.868 206.976 62.3812 11.8173 10.0371 9.76838 
163.032 164.471 165.272 168.639 169.253 149.726 161.514 159.981 159.277 155.542 -74.5073 147.508 59.5941 -29.7591 168.651 -15.0208 -60.6219 162.943 -28.6759 -93.9333 159.914 -20.4427 -124.285 166.435 2.13067 -78.1108 207.134 62.3087 11.6847 9.97814 9.82351 
162.942 164.585 165.301 168.743 169.28 149.556 161.974 160.223 159.496 155.577 -74.9487 147.53 59.5763 -29.6367 168.482 -15.1648 -60.612 162.695 -28.7112 -93.8361 159.722 -20.4154 -124.07 166.358 2.20748 -77.9505 207.082 62.2232 11.5961 9.9406 9.91784 
163.099 164.692 165.368 168.802 169.34 149.443 162.28 160.383 159.685 155.645 -74.8835 147.523 59.5219 -29.283 168.479 -15.3718 -60.3653 162.46 -28.771 -93.4574 159.525 -20.448 -123.566 166.217 2.22707 -77.5855 207.059 62.1021 11.485 9.85298 10.0277 
163.21 164.906 165.509 169.034 169.332 149.191 162.682 160.647 160.076 156.013 -74.8286 147.682 59.5117 -28.8128 168.741 -15.7351 -60.1918 162.408 -29.0192 -93.2819 159.487 -20.6694 -123.272 166.282 2.04791 -77.2898 207.155 61.9791 11.3618 9.82852 10.2787 
163.434 165.092 165.716 169.29 169.554 149 162.961 160.854 160.375 156.487 -74.6921 147.784 59.3908 -28.3248 168.793 -15.9558 -59.9607 162.111 -29.1229 -92.9553 159.229 -20.7803 -122.826 166.227 1.79507 -76.9524 207.224 61.7757 11.1729 9.73589 10.5126 
163.688 165.176 165.834 169.462 169.612 148.927 163.073 160.894 160.487 156.715 -74.354 147.864 59.1221 -27.8672 169.042 -16.2864 -59.6756 161.956 -29.2846 -92.6393 159.105 -20.9439 -122.454 166.266 1.47371 -76.6074 207.318 61.5212 11.0544 9.68959 10.7102 
163.962 165.256 166.034 169.731 169.674 148.878 163.236 160.978 160.627 156.914 -73.7286 147.946 58.8237 -27.3324 169.532 -16.6881 -59.1698 162.024 -29.5624 -92.1629 159.151 -21.2445 -122.019 166.421 1.00066 -76.255 207.495 61.2273 11.0005 9.68809 10.8319 
161.44 164.86 166.181 169.707 169.672 148.439 162.22 160.285 159.517 156.403 -73.3045 147.795 58.4796 -26.7361 170.581 -17.3128 -58.1004 162.587 -30.1314 -91.2999 159.525 -21.8649 -121.94 166.381 0.29602 -75.8081 207.369 60.808 11.6167 9.76428 10.6305 
159.221 164.555 166.18 169.639 169.478 148.465 161.32 159.561 158.432 155.879 -72.3663 147.689 58.3292 -26.2462 171.616 -17.8334 -57.1815 163.473 -30.6882 -90.7215 160.383 -22.4365 -122.223 166.987 -0.338292 -75.4594 207.447 60.5868 12.342 9.92479 10.395 
157.614 164.222 166.155 169.506 169.316 148.203 160.796 158.987 157.447 155.404 -71.8542 147.713 58.229 -25.7933 172.513 -18.4039 -56.3821 164.27 -31.2635 -90.2027 161.138 -22.9636 -122.416 167.473 -0.813533 -75.0344 207.412 60.3931 12.9948 10.0826 10.2068 
156.211 164.031 166.18 169.364 169.113 147.662 160.455 158.615 156.755 155.217 -71.8186 147.917 58.062 -25.2716 173.233 -18.9899 -55.6818 165.031 -31.899 -89.7779 161.92 -23.5527 -122.611 167.901 -1.21782 -74.5418 207.285 60.2269 13.6161 10.2168 10.0733 
154.979 164.091 166.37 169.299 169.04 147.044 160.443 158.587 156.541 155.409 -71.9998 148.313 57.8945 -24.6541 174.031 -19.6108 -55.1079 165.725 -32.5903 -89.4667 162.566 -24.2072 -122.749 168.148 -1.53003 -74.0131 207.223 60.1007 14.1109 10.3408 10.103 
154.026 164.095 166.523 169.17 168.967 146.509 160.228 158.382 156.202 155.578 -71.7934 148.641 57.9082 -24.183 174.545 -19.9165 -54.6825 165.941 -32.8414 -89.1278 162.776 -24.4209 -122.737 168.157 -1.63266 -73.5107 207.173 60.0019 14.4743 10.3635 10.1784 
153.306 164.095 166.624 168.982 168.9 146.056 159.898 158.15 155.83 155.622 -71.5212 148.987 57.6417 -23.6983 175.153 -20.1082 -54.1397 166.185 -32.9513 -88.5896 162.937 -24.5399 -122.452 168.186 -1.79371 -73.0189 207.179 59.9168 14.7051 10.3478 10.2245 
152.841 164.059 166.62 168.696 168.72 145.7 159.552 157.883 155.454 155.559 -71.2203 149.26 57.4442 -23.079 175.751 -20.2175 -53.4584 166.54 -33.0475 -87.9819 163.113 -24.6468 -122.053 168.252 -1.94546 -72.5181 207.234 59.896 14.8704 10.4055 10.2556 
152.912 164.077 166.558 168.411 168.513 145.782 159.504 157.857 155.166 155.485 -70.4521 149.217 57.3725 -22.4967 176.184 -20.2784 -52.7549 166.839 -33.1859 -87.35 163.12 -24.7406 -121.598 168.168 -2.07973 -72.0793 207.228 59.9046 14.9809 10.5055 10.2356 
152.617 164.172 166.466 168.179 168.189 145.532 159.671 157.835 154.83 155.544 -69.4223 149.192 57.3925 -21.0347 176.538 -20.5541 -51.3255 166.805 -33.4435 -85.9338 162.701 -24.8566 -120.503 167.628 -2.1404 -70.8488 206.941 59.8892 15.2312 10.5854 10.377 
152.586 164.492 166.703 168.283 168.239 145.251 160.204 158.178 155.12 155.912 -69.4904 149.471 57.0892 -20.2914 176.525 -20.6246 -50.8766 166.499 -33.4966 -85.344 162.18 -24.8049 -119.809 167.098 -2.10357 -70.3015 206.751 59.8696 15.1112 10.5358 10.642 
152.769 164.78 166.878 168.362 168.269 145.127 160.564 158.362 155.356 156.199 -69.3305 149.698 56.8011 -19.5585 176.382 -20.4489 -50.3508 166.082 -33.2867 -84.5968 161.778 -24.6598 -118.923 166.742 -2.08152 -69.6758 206.658 59.8496 14.9438 10.3757 10.8639 
152.983 165.048 166.977 168.391 168.291 145.11 160.781 158.44 155.448 156.297 -69.1921 149.712 56.5411 -18.9307 175.873 -20.0897 -49.7616 165.492 -32.8946 -83.7974 161.266 -24.3884 -118.013 166.414 -2.04199 -69.063 206.497 59.8458 14.776 10.226 10.9349 
153.227 165.288 167.116 168.414 168.145 145.193 161.193 158.72 155.573 156.287 -69.0075 149.698 56.3702 -18.1843 175.631 -19.9681 -49.0187 165.343 -32.8101 -83.0141 161.074 -24.3288 -117.206 166.393 -2.11823 -68.4437 206.402 59.8746 14.6758 10.2306 10.9514 
153.267 165.432 167.161 168.357 167.908 145.062 161.467 159.011 155.571 156.072 -69.0299 149.624 56.3232 -17.5842 174.981 -19.7205 -48.3701 165.148 -32.7023 -82.3099 160.715 -24.1314 -116.381 166.111 -1.95569 -67.7578 206.128 59.9507 14.5511 10.2943 10.8062 
153.459 165.605 167.282 168.438 167.752 145.095 161.798 159.373 155.701 155.92 -68.3381 149.314 56.2229 -16.7349 174.417 -19.5999 -47.5038 164.78 -32.6809 -81.3878 160.066 -23.9947 -115.28 165.472 -1.87985 -66.9997 205.819 59.8918 14.3443 10.3719 10.7486 
153.514 165.904 167.604 168.719 167.784 145.006 162.19 159.849 156.02 156.01 -67.9473 149.382 56.2485 -15.9045 174.026 -19.4723 -46.78 164.442 -32.5626 -80.6453 159.438 -23.7052 -114.369 164.894 -1.63798 -66.32 205.762 59.9074 14.1621 10.464 10.7726 
153.53 166.007 167.594 168.699 167.641 144.911 162.229 159.985 156.01 155.847 -67.3115 149.209 56.139 -15.043 173.197 -19.0915 -45.8349 163.674 -32.1914 -79.5788 158.478 -23.3187 -113.136 163.936 -1.41714 -65.5935 205.441 59.7835 13.9656 10.4646 10.6945 
153.528 166.076 167.641 168.622 167.408 144.878 162.444 160.277 156.023 155.544 -66.753 149.186 55.697 -14.3244 173.037 -19.0801 -44.9313 163.627 -32.2334 -78.6267 158.242 -23.3255 -112.079 163.617 -1.48835 -64.9435 205.207 59.6912 13.8223 10.5171 10.5769 
153.414 166.293 167.887 168.68 167.21 144.634 162.853 160.696 156.152 155.472 -66.6891 149.233 55.3333 -13.4565 173.144 -19.4316 -43.994 163.747 -32.6013 -77.7475 158.113 -23.5883 -111.231 163.361 -1.70582 -64.2211 204.91 59.5846 13.8201 10.6373 10.5481 
153.218 166.443 168.102 168.742 167.16 144.27 163.264 161.136 156.346 155.441 -66.6954 149.498 55.0848 -12.6905 173.528 -19.7094 -43.28 164.062 -32.9344 -77.0629 158.096 -23.7839 -110.464 163.132 -1.74575 -63.5389 204.782 59.5583 13.7731 10.7668 10.6126 
152.982 166.469 168.175 168.729 167.191 143.852 163.474 161.496 156.416 155.232 -66.5426 149.813 55.1391 -11.9594 173.754 -19.7501 -42.6005 164.284 -33.0799 -76.3974 157.825 -23.7312 -109.529 162.59 -1.5142 -62.9207 204.809 59.5442 13.5899 10.9684 10.6431 
152.813 166.32 168.007 168.564 166.976 143.578 163.295 161.482 156.221 154.728 -65.7149 149.7 55.2359 -11.0479 173.386 -19.4226 -41.5668 163.998 -32.9126 -75.3872 157.236 -23.5297 -108.396 161.794 -1.32628 -62.2442 204.642 59.4542 13.4993 11.1104 10.5511 
152.92 166.173 167.765 168.323 166.651 143.719 163.047 161.333 155.932 154.2 -64.4045 149.202 55.1883 -10.3391 172.549 -19.0839 -40.6265 163.335 -32.6395 -74.4281 156.55 -23.2877 -107.373 161.086 -1.16401 -61.5719 204.273 59.3448 13.4337 11.1434 10.3691 
153.08 166.261 167.695 168.253 166.434 143.838 163.173 161.437 155.929 153.95 -63.2704 149.056 55.2184 -9.83393 171.949 -19.0479 -40.0683 162.84 -32.5436 -73.7875 156.074 -23.1247 -106.524 160.574 -0.934529 -60.9188 204.091 59.2677 13.2883 11.1164 10.2757 
153.38 166.522 167.943 168.396 166.278 143.775 163.224 161.789 156.169 153.783 -60.9502 148.977 55.5321 -8.10095 171.197 -18.5443 -38.1935 162.093 -32.1664 -71.8715 155.053 -22.7269 -104.325 159.386 -0.539483 -59.3658 203.973 59.3119 13.0287 11.1732 10.1252 
153.63 166.592 167.968 168.345 166.069 143.903 162.925 161.835 156.184 153.557 -59.3802 148.663 55.6199 -7.2799 170.122 -17.9673 -37.1068 161.354 -31.8258 -70.8171 154.447 -22.5971 -103.235 158.737 -0.554543 -58.7437 203.75 59.2272 12.9394 11.1228 9.85588 
154.138 166.549 167.916 168.271 165.786 144.422 162.626 161.794 156.271 153.429 -57.6117 148.218 55.5981 -6.47609 168.789 -17.5235 -36.0607 160.401 -31.5025 -69.8606 153.959 -22.583 -102.313 158.508 -0.71372 -57.9834 203.541 59.0238 12.8875 11.0016 9.60912 
