157.747 174.346 168.699 169.638 164.298 134.218 169.8 166.157 167.1 154.353 -6.66697 166.371 -16.419 7.17281 190.764 -116.243 -7.94455 166.833 -117.774 -20.9691 154.009 -101.997 -30.1291 148.778 -67.5654 -15.6231 213.22 -21.0291 9.44645 4.39643 7.04176 
157.776 174.32 168.678 169.569 164.193 134.045 169.727 166.125 167.041 154.138 -6.66648 166.698 -16.5279 7.34563 191.171 -116.323 -7.86318 167.293 -117.904 -20.8814 154.383 -102.109 -29.9997 149.141 -67.5851 -15.5895 213.463 -21.1368 9.48447 4.41951 6.98793 
157.739 174.251 168.661 169.538 164.049 133.992 169.607 166.143 167.034 153.858 -6.69664 166.852 -16.6931 7.62216 191.454 -116.404 -7.70176 167.692 -118.116 -20.7418 154.692 -102.337 -29.7849 149.347 -67.6519 -15.5592 213.574 -21.2672 9.628 4.42885 6.86698 
157.68 174.091 168.619 169.516 163.924 133.929 169.504 166.18 167.031 153.65 -6.69305 167.03 -16.9098 7.81322 191.892 -116.561 -7.6009 168.183 -118.415 -20.5931 155.03 -102.647 -29.5921 149.572 -67.8641 -15.5335 213.659 -21.3961 9.67524 4.46644 6.77569 
157.603 173.959 168.506 169.419 163.899 133.75 169.341 166.164 166.961 153.602 -6.54046 167.342 -17.0914 7.9409 192.184 -116.63 -7.52727 168.489 -118.546 -20.3942 155.189 -102.717 -29.421 149.734 -67.992 -15.5214 213.739 -21.5088 9.55404 4.54022 6.70933 
157.508 173.893 168.485 169.44 164.039 133.593 169.285 166.237 167.017 153.696 -6.32641 167.635 -17.352 8.0675 192.298 -116.68 -7.46808 168.671 -118.687 -20.2698 155.294 -102.841 -29.4035 149.849 -68.181 -15.5083 213.782 -21.6246 9.40993 4.5734 6.61426 
157.44 173.813 168.459 169.486 164.316 133.385 169.187 166.264 167.073 153.988 -6.05853 168.018 -17.5807 8.11946 192.322 -116.647 -7.42281 168.786 -118.719 -20.1725 155.396 -102.861 -29.4552 150.035 -68.4001 -15.5282 213.85 -21.6876 9.11467 4.55832 6.49744 
157.358 173.728 168.456 169.595 164.781 133.169 169.1 166.311 167.179 154.477 -5.90236 168.514 -17.8133 8.11356 192.411 -116.602 -7.41504 168.997 -118.775 -20.1403 155.632 -102.944 -29.6107 150.357 -68.7711 -15.5755 213.989 -21.727 8.72562 4.50219 6.35637 
157.287 173.644 168.411 169.665 165.214 132.624 169.055 166.371 167.269 155.012 -5.67044 169.201 -18.1648 8.06799 192.563 -116.56 -7.42204 169.277 -118.854 -20.0797 155.9 -103.038 -29.7663 150.759 -69.2361 -15.6456 214.131 -21.7656 8.23927 4.47302 6.20589 
157.194 173.556 168.386 169.791 165.617 132.082 169.064 166.457 167.422 155.622 -5.40265 169.91 -18.5634 8.06015 192.74 -116.528 -7.41338 169.599 -118.999 -20.0626 156.224 -103.26 -30.0588 151.192 -69.8412 -15.7458 214.255 -21.7869 7.70558 4.40364 6.04158 
157.028 173.527 168.407 169.93 166.016 131.575 169.095 166.563 167.597 156.264 -5.17954 170.627 -18.8933 7.95682 193.005 -116.523 -7.41425 169.986 -119.18 -20.0521 156.589 -103.509 -30.3465 151.622 -70.4186 -15.8935 214.421 -21.805 7.22424 4.3419 5.88403 
156.858 173.499 168.368 169.941 166.229 131.36 169.032 166.509 167.55 156.574 -5.09048 171.238 -19.2829 7.88894 193.359 -116.538 -7.51013 170.352 -119.303 -20.148 156.883 -103.641 -30.678 151.943 -70.7732 -16.0807 214.637 -21.8178 6.92089 4.34344 5.83022 
156.814 173.401 168.322 169.904 166.388 131.331 168.933 166.411 167.472 156.923 -5.18975 171.624 -19.5462 7.785 193.436 -116.442 -7.67258 170.4 -119.272 -20.3685 156.933 -103.644 -31.1996 152.047 -70.9952 -16.3476 214.815 -21.8184 6.63511 4.3026 5.80541 
156.999 173.4 168.346 169.772 166.322 131.758 168.871 166.297 167.205 156.871 -5.75558 171.514 -19.4756 7.70828 193.358 -116.291 -7.93303 170.181 -119.063 -20.7554 156.665 -103.381 -31.716 151.889 -70.8057 -16.6754 214.991 -21.7841 6.62734 4.35751 5.91317 
157.208 173.379 168.421 169.581 166.004 132.315 168.879 166.228 166.87 156.467 -6.44553 171.212 -19.3699 7.48023 193.121 -116.151 -8.36718 169.766 -118.806 -21.2563 156.181 -102.985 -32.1763 151.538 -70.3067 -17.0235 215.172 -21.7872 6.88767 4.5199 6.09103 
157.542 173.285 168.428 169.244 165.655 133.005 168.755 166.028 166.351 155.538 -7.48389 170.568 -19.1161 7.09036 192.779 -115.933 -9.11363 169.214 -118.357 -22.0059 155.577 -102.29 -32.6095 151.051 -69.2413 -17.4397 215.303 -21.7584 7.49056 4.75963 6.34421 
157.73 173.166 168.389 168.901 164.828 133.731 168.508 165.784 165.853 154.12 -8.64556 169.95 -18.7984 6.59746 192.63 -115.719 -9.89729 168.978 -117.962 -22.7917 155.302 -101.705 -32.8605 150.652 -67.9793 -17.8934 215.485 -21.6887 8.44172 4.94542 6.50156 
157.859 173.014 168.39 168.69 163.93 134.315 168.373 165.654 165.522 152.822 -9.90661 169.555 -18.6099 6.06844 192.647 -115.581 -10.6513 168.922 -117.684 -23.5159 155.191 -101.285 -33.067 150.358 -66.9352 -18.359 215.671 -21.623 9.35602 5.11485 6.64325 
157.959 172.885 168.364 168.594 163.305 134.669 168.223 165.522 165.309 151.855 -11.0944 169.364 -18.5115 5.62512 192.973 -115.548 -11.2574 169.249 -117.637 -24.1361 155.437 -101.209 -33.2879 150.362 -66.4088 -18.8157 215.893 -21.5815 10.0397 5.21103 6.70689 
157.963 172.76 168.358 168.538 162.893 134.656 168.063 165.446 165.209 151.268 -11.9675 169.265 -18.5996 5.37736 193.457 -115.541 -11.6479 169.863 -117.807 -24.5883 155.97 -101.491 -33.5696 150.542 -66.4404 -19.2597 216.018 -21.5768 10.5025 5.24201 6.66395 
157.887 172.697 168.351 168.369 162.215 134.432 167.867 165.256 164.848 150.129 -12.5775 169.209 -18.6635 5.34591 194.096 -115.533 -11.8261 170.537 -117.935 -24.8235 156.471 -101.626 -33.607 150.643 -66.1579 -19.6746 216.206 -21.5983 11.2616 5.418 6.74218 
157.73 172.558 168.318 168.06 161.275 134.212 167.684 165.006 164.295 148.672 -13.2191 168.945 -18.8748 5.36066 194.697 -115.351 -11.9241 171.155 -117.909 -25.0233 156.868 -101.568 -33.6503 150.592 -65.7237 -20.0872 216.298 -21.5746 12.216 5.72534 6.92586 
157.603 172.341 168.118 167.597 160.175 134.083 167.339 164.481 163.405 146.665 -14.1775 168.553 -19.128 5.3762 195.375 -114.984 -12.162 171.774 -117.638 -25.3916 157.286 -101.263 -33.7962 150.616 -64.9442 -20.5064 216.445 -21.4765 13.4238 6.12455 7.28908 
157.437 171.957 167.713 166.981 159.215 134.265 166.772 163.612 162.115 143.966 -15.2428 168.33 -19.3764 5.31876 196.272 -114.365 -12.5014 172.616 -117.033 -25.8962 157.974 -100.6 -33.9395 151.042 -63.6459 -20.9012 216.926 -21.2486 14.8514 6.55119 7.7216 
157.188 171.62 167.265 166.384 158.59 134.843 166.193 162.76 160.83 141.666 -16.3838 168.045 -19.7854 5.35864 197.52 -113.897 -12.8494 173.616 -116.524 -26.5234 158.554 -99.977 -34.2172 151.545 -62.5276 -21.3491 217.428 -21.1004 15.9794 7.01734 8.2404 
156.912 171.462 166.995 165.875 158.713 135.466 165.913 162.321 159.898 139.958 -17.6069 168.066 -20.0571 5.88341 199.324 -113.381 -13.0758 175.249 -116.197 -27.2831 159.665 -99.6233 -34.9202 152.567 -61.9547 -21.7357 218.137 -20.8651 16.7243 7.46589 8.72267 
156.536 171.621 167.169 165.805 159.808 136.343 166.008 162.274 159.252 139.046 -18.8463 167.938 -20.4494 7.27104 201.139 -112.836 -12.6413 177.031 -116.179 -27.8986 160.72 -99.6455 -35.8251 153.694 -62.0825 -22.0018 218.848 -20.6197 17.0566 8.01791 9.15148 
155.792 171.346 167.282 165.173 161.926 136.904 166.275 162.286 158.227 137.841 -20.4092 168.176 -20.9549 9.22954 203.313 -111.811 -11.7871 179.615 -116.064 -28.3674 162.797 -99.7662 -37.1913 155.813 -62.8148 -22.1406 219.726 -20.1867 17.2337 8.758 9.636 
154.577 171.089 167.352 164.61 164.516 136.926 166.934 162.449 157.611 136.626 -21.767 168.904 -21.5788 11.1256 204.924 -110.203 -10.7324 182.448 -115.609 -28.8217 165.938 -100.027 -38.674 159.262 -64.0261 -22.1664 220.515 -19.409 17.2652 9.18529 9.84595 
152.693 170.544 167.422 163.831 167.796 136.047 167.111 162.297 156.43 136.01 -23.06 170.283 -21.8879 12.9235 206.26 -108.205 -9.30206 185.368 -114.805 -29.1097 169.535 -99.9587 -39.7097 163.687 -65.3369 -22.1369 221.54 -18.5122 17.1317 9.62439 9.93006 
150.831 169.313 166.801 162.375 174.383 135.379 166.429 161.11 154.171 136.065 -23.6397 171.645 -22.835 14.8805 207.194 -106.302 -7.20477 187.64 -113.744 -28.3917 172.647 -99.647 -40.4208 168.079 -67.499 -21.995 222.495 -18.0454 15.7603 10.0149 10.1508 
149.561 167.891 166.074 161.277 179.761 135.242 165.432 159.711 152.131 136.669 -23.4926 172.722 -24.1032 16.643 207.785 -104.696 -5.07336 189.196 -112.625 -27.012 175.059 -99.2718 -40.4096 171.644 -69.3905 -21.7991 223.225 -17.7893 14.3023 10.1267 10.3666 
148.54 166.237 165.504 160.826 175.382 135.17 164.208 158.449 150.868 136.898 -23.7617 173.634 -25.3932 17.8789 207.19 -102.909 -3.23239 189.882 -111.306 -25.7561 177.295 -99.0711 -40.2965 174.877 -70.9249 -21.6323 223.62 -17.5492 13.2057 9.59224 10.2357 
147.928 164.896 165.393 161.462 174.27 135.088 163.009 157.531 150.644 136.634 -24.2358 174.557 -26.2739 18.6127 206.072 -101.173 -1.62048 190.088 -109.965 -24.502 179.353 -99.0956 -39.8351 177.831 -72.0721 -21.503 224.001 -17.2557 12.4126 8.57118 9.83098 
147.468 163.715 165.315 162.202 174.27 135.043 161.796 156.886 150.844 136.845 -24.8869 175.058 -26.6915 18.9419 204.156 -99.2374 -0.358124 189.757 -108.498 -23.4231 181.025 -98.9855 -39.8009 180.084 -72.8786 -21.4495 224.087 -16.8017 11.6841 7.394 9.15187 
147.113 163.365 165.686 163.294 174.27 134.76 161.151 156.538 151.472 137.417 -25.6808 175.824 -26.8722 18.9536 202.768 -97.6954 0.541473 189.538 -107.22 -22.6303 182.56 -98.9521 -39.9464 182.207 -73.6849 -21.4855 224.344 -16.3397 10.8621 6.30977 8.74858 
147.141 163.816 166.233 164.412 174.27 134.472 161.139 156.745 152.509 138.309 -26.4858 176.597 -26.9235 18.8097 201.931 -96.5791 1.10605 189.544 -106.302 -22.0756 183.826 -98.9685 -40.0125 183.727 -74.0615 -21.6028 224.623 -15.8002 10.4823 5.47687 8.45205 
147.429 164.887 166.845 165.133 174.27 134.243 161.62 157.281 153.566 138.722 -27.1734 177.291 -26.8705 18.6051 201.583 -95.9454 1.25194 189.719 -105.789 -21.9478 184.696 -98.9591 -39.9966 184.549 -73.7916 -21.8193 224.887 -15.2989 10.7627 5.01156 8.23004 
147.867 166.133 167.521 165.726 174.27 134.249 162.336 157.971 154.49 138.936 -27.6436 177.815 -26.855 18.4733 201.575 -95.4928 1.2322 190.06 -105.45 -21.9365 185.413 -98.8809 -39.9404 185.145 -73.3081 -22.0591 225.152 -14.7894 11.2407 4.80445 8.10168 
148.521 167.99 168.361 166.776 174.27 134.239 163.897 159.114 155.964 140.646 -28.2325 178.639 -26.788 17.7433 202.234 -95.0792 1.02727 190.754 -105.017 -22.0508 186.543 -98.7741 -40.1201 186.224 -73.1164 -22.7592 225.664 -14.0021 11.3774 4.51762 8.29989 
148.73 168.125 168.367 166.922 174.27 134.366 164.097 159.851 156.908 142.264 -28.6335 178.932 -26.9676 17.3923 202.282 -94.821 0.832633 191.551 -105.237 -22.2813 187.631 -99.1841 -40.5569 187.262 -73.8555 -23.1027 225.86 -13.6945 11.0044 4.36805 7.81608 
149.065 168.401 168.437 167.169 174.27 134.642 164.387 160.576 157.87 143.646 -28.9526 178.814 -27.1219 16.9293 202.089 -94.486 0.50265 191.978 -105.343 -22.4915 188.232 -99.442 -40.9632 187.727 -74.3863 -23.5323 225.669 -13.3689 10.6534 4.18015 7.33284 
149.484 168.401 168.434 167.063 174.27 134.933 164.273 160.892 158.348 143.881 -29.3875 178.52 -27.4356 16.4863 201.772 -94.203 0.0733409 192.247 -105.431 -22.776 188.557 -99.6066 -41.2574 187.811 -74.5728 -23.8996 225.303 -13.1434 10.5615 4.02097 6.80502 
149.744 168.65 168.359 166.521 174.27 134.964 164.537 161.001 158.272 143.338 -29.9445 178.16 -27.4263 16.06 201.87 -94.352 -0.559418 192.362 -105.598 -23.4344 188.259 -99.559 -41.5878 187.155 -74.1142 -24.267 224.93 -12.988 11.0033 4.24602 6.6764 
149.96 168.802 168.278 165.909 174.27 134.829 164.631 160.704 157.649 142.312 -31.001 178.283 -27.591 15.5874 202.149 -94.5652 -1.26406 192.386 -105.636 -24.3047 187.889 -99.3248 -42.1183 186.684 -73.4683 -24.6959 224.845 -12.9058 11.4559 4.58294 6.84783 
149.909 168.853 168.246 165.732 174.27 134.553 164.72 160.701 157.576 141.7 -31.9155 178.36 -27.5073 14.9149 202.218 -94.7534 -2.02317 192.479 -105.752 -25.1165 187.925 -99.313 -42.7743 186.525 -73.0533 -25.184 224.755 -12.8304 11.8086 4.63739 6.8363 
149.562 169.473 168.497 166.059 174.27 134.127 165.424 161.129 157.943 142.215 -32.6202 178.636 -27.0674 14.0925 202.89 -95.0076 -2.96955 193.008 -105.941 -26.0767 188.405 -99.3726 -43.6796 187.075 -73.0893 -25.7949 224.88 -12.5769 11.7123 4.7576 7.06436 
149.124 169.81 168.574 166.136 174.27 133.726 166.022 161.518 158.18 142.884 -33.2127 178.979 -26.6419 13.2619 204.102 -95.2352 -3.94548 194.009 -106.135 -27.0328 189.2 -99.3572 -44.6933 187.89 -73.2377 -26.4555 225.029 -12.1739 11.3767 4.94891 7.33943 
148.78 169.457 168.633 166.282 174.27 133.609 165.885 161.869 158.526 143.187 -33.5987 179.189 -26.4444 12.3166 204.701 -95.089 -4.95359 194.962 -106.264 -27.8927 190.083 -99.3982 -45.5253 188.525 -73.2975 -27.1059 225.041 -11.801 11.2238 4.90294 7.03955 
148.612 168.899 168.607 166.328 174.27 133.551 165.485 162.079 158.679 142.988 -34.2586 179.297 -26.308 11.3715 204.651 -94.7632 -5.81898 195.373 -106.177 -28.6032 190.501 -99.27 -46.1155 188.71 -73.0188 -27.64 224.905 -11.4493 11.271 4.78251 6.6196 
148.624 168.544 168.757 166.561 174.27 133.612 165.166 162.275 158.809 142.761 -34.8504 179.473 -26.2549 10.6387 204.445 -94.5218 -6.47329 195.537 -106.089 -29.311 190.603 -99.1132 -46.5595 188.549 -72.4178 -28.1789 224.87 -11.1769 11.695 4.76178 6.25436 
148.628 168.431 168.888 166.788 174.27 133.619 164.935 162.313 158.896 142.352 -35.3525 179.848 -26.3105 10.0222 204.394 -94.3191 -7.04471 195.775 -105.995 -29.8891 191.01 -99.0696 -47.0079 188.761 -72.0081 -28.7299 225.033 -10.9726 12.0356 4.61501 6.01567 
148.309 168.657 169.037 167.305 174.27 133.446 165.186 162.718 159.546 142.845 -35.53 179.93 -25.9146 9.31393 204.371 -94.092 -7.59742 196.099 -105.914 -30.3575 191.678 -99.1157 -47.5835 189.405 -72.0542 -29.3034 225.048 -10.6378 11.9197 4.37857 5.85228 
147.896 169.014 169.235 167.592 174.27 133.218 165.597 163.159 160.006 144.799 -35.5229 179.856 -25.4374 8.52273 204.298 -93.8527 -8.27023 196.266 -105.775 -30.9321 192.035 -98.9542 -48.2962 190.025 -72.3845 -29.9397 224.933 -10.2587 11.4354 4.35586 5.84271 
147.859 169.051 169.258 167.63 174.201 133.164 165.696 163.291 160.165 146.321 -35.6716 179.676 -25.1168 7.8407 204.298 -93.5352 -8.95592 196.314 -105.565 -31.4558 192.08 -98.73 -49.1591 190.152 -72.7078 -30.4938 224.72 -9.95417 10.8332 4.33477 5.82052 
148.19 168.932 169.431 167.727 174.267 133.203 165.399 163.416 160.433 146.892 -36.6111 179.345 -24.5077 6.43112 203.544 -92.9398 -10.0307 195.841 -105.075 -32.8185 191.56 -98.2524 -50.2932 189.296 -71.9188 -31.7654 224.346 -9.45349 11.1906 4.24869 5.50217 
148.25 168.855 169.518 167.725 174.705 133.208 165.027 163.36 160.419 146.124 -37.3066 179.189 -24.5648 5.76459 203.003 -92.8087 -10.6263 195.696 -105.049 -33.6372 191.547 -98.2349 -50.8463 188.812 -71.2331 -32.3304 224.126 -9.39309 11.9782 4.16917 5.21511 
148.029 169.032 169.414 167.533 176.298 132.87 165.092 163.166 160.118 145.698 -38.0996 179.347 -24.5413 4.74929 203.16 -92.8443 -11.728 195.798 -104.944 -34.6114 191.736 -98.0519 -51.6132 188.957 -70.8751 -33.1224 224.047 -9.31783 12.2865 4.17844 5.38104 
147.619 168.854 169.206 167.18 176.564 132.619 164.668 162.854 159.513 144.759 -38.7672 179.707 -24.6712 3.77139 203.312 -92.5813 -12.8955 196.216 -104.771 -35.6671 192.111 -97.7201 -52.501 189.22 -70.3279 -33.8973 224.134 -9.22274 12.7284 4.34757 5.31119 
147.469 169.029 169.371 167.554 175.794 132.719 164.897 163.262 159.86 144.856 -39.2242 179.668 -24.5556 2.8468 203.144 -92.2652 -13.9154 196.281 -104.61 -36.4986 192.179 -97.5259 -53.1874 189.123 -69.941 -34.6266 224.005 -9.005 13.049 4.35946 5.15446 
147.618 168.77 169.515 167.72 175.432 132.884 164.46 163.233 159.791 144.473 -39.777 179.854 -24.6598 2.108 202.841 -91.9611 -14.5978 196.256 -104.429 -37.1887 192.069 -97.295 -53.5917 188.746 -69.299 -35.2594 224.051 -8.91801 13.5935 4.35361 4.85482 
147.604 168.848 169.711 167.998 174.27 132.968 164.403 163.43 159.979 143.215 -40.4514 180.12 -24.978 1.243 202.769 -91.9628 -15.5613 196.563 -104.563 -38.1027 192.437 -97.3922 -53.8453 188.608 -68.4408 -35.903 224.06 -8.89833 14.7763 4.28806 4.55142 
147.434 169.056 169.944 168.296 174.27 132.924 164.488 163.773 160.324 141.319 -41.1135 180.22 -25.026 0.332104 202.563 -91.9397 -16.5988 196.899 -104.753 -39.0927 192.955 -97.53 -54.4184 188.388 -67.3604 -36.572 223.995 -8.83877 16.2268 4.2287 4.21581 
147.121 169.236 169.981 168.314 174.27 132.72 164.714 163.975 160.305 139.658 -41.6924 180.412 -25.0427 -0.782681 202.517 -91.8278 -17.8007 197.239 -104.717 -40.0779 193.403 -97.3873 -55.1627 188.746 -66.7449 -37.2276 223.952 -8.69399 16.814 4.31147 4.13376 
147.102 169.384 170.111 168.479 174.27 132.833 164.62 164.234 160.541 139.253 -42.0728 180.399 -25.0202 -1.64253 202.075 -91.4577 -18.6885 197.171 -104.547 -40.8834 193.475 -97.2205 -55.7748 188.602 -66.198 -37.9071 223.846 -8.52023 17.3055 4.22992 3.86407 
147.141 169.1 170.105 168.451 174.27 133.045 164.253 164.255 160.578 137.201 -42.6122 180.511 -25.1607 -2.2699 201.685 -91.0699 -19.2997 197.156 -104.353 -41.4578 193.543 -97.1203 -55.9886 187.969 -65.0436 -38.5292 223.741 -8.39491 18.5797 4.0628 3.50469 
147.212 168.682 169.894 168.312 174.27 133.264 163.62 163.973 160.431 134.88 -43.1339 180.675 -25.2523 -2.88012 201.336 -90.6927 -19.7578 197.171 -104.142 -41.9362 193.674 -97.0289 -56.1489 187.389 -63.8611 -39.0599 223.781 -8.30903 19.8267 3.82195 3.17964 
147.288 168.84 169.935 168.765 174.27 133.379 163.593 164.315 161.123 131.505 -43.825 180.531 -25.1872 -3.74788 200.988 -90.6256 -20.493 197.554 -104.34 -42.5939 194.564 -97.415 -56.5771 187.233 -62.5257 -39.6266 223.741 -8.22769 21.6335 3.41297 2.84348 
147.173 169.259 170.149 169.131 174.27 133.184 163.827 164.713 161.75 128.651 -44.5352 180.463 -25.1389 -4.71436 201.287 -90.8923 -21.2984 198.474 -104.774 -43.378 195.904 -97.9434 -57.3431 187.709 -61.7783 -40.2128 223.717 -8.16822 22.8996 3.14512 2.75861 
146.933 169.725 170.216 169.251 174.27 132.818 164.052 164.807 161.802 127.751 -45.2909 180.915 -25.1855 -5.70419 201.792 -91.0598 -22.1305 199.297 -104.983 -44.1637 196.997 -98.1447 -58.3151 188.773 -61.8587 -40.8138 223.921 -8.08015 22.8639 3.0701 2.86355 
146.759 170.21 170.286 169.338 174.27 132.811 164.094 164.95 162.03 127.815 -45.6171 181.06 -25.1446 -6.4735 201.892 -90.8256 -22.6561 199.791 -104.953 -44.5966 197.764 -98.2022 -58.878 189.509 -62.0792 -41.3512 224.06 -7.9282 22.5585 2.84036 2.88208 
146.901 169.792 170.401 169.633 174.27 133.238 163.279 165.46 162.903 127.474 -46.6222 180.666 -24.9545 -8.01756 200.795 -89.9482 -23.5968 199.982 -104.795 -45.433 198.525 -98.3693 -59.872 189.506 -61.7812 -42.3124 223.887 -7.6165 23.0334 2.29471 3.05949 
146.645 169.794 170.471 170.01 176.682 133.314 163.158 166.252 164.084 127.867 -47.0495 180.115 -24.5032 -8.82634 199.795 -89.2514 -23.7524 200.221 -104.757 -45.4804 199.547 -98.7378 -60.5161 190.179 -62.3424 -42.5339 223.583 -7.3449 22.5364 1.66633 3.7099 
146.477 169.594 170.506 170.164 175.36 133.127 162.615 166.466 164.746 127.754 -47.7042 179.627 -24.0331 -9.74192 198.917 -88.7188 -23.997 200.243 -104.649 -45.5875 200.408 -99.057 -61.0411 191.179 -63.0117 -42.92 223.303 -7.17786 21.672 1.0064 4.46274 
146.266 169.765 170.619 170.42 170.255 132.895 162.411 166.754 165.487 128.19 -48.6688 179.367 -23.8219 -10.8311 197.894 -88.3331 -24.4012 200.281 -104.708 -45.8946 201.58 -99.5705 -61.8496 192.941 -64.3224 -43.3042 223.068 -7.1243 20.098 0.282096 5.30018 
145.807 170.178 170.659 170.529 173.509 132.465 162.49 166.94 166.043 136.232 -49.415 179.312 -23.6368 -11.9478 197.553 -88.0526 -24.9658 200.961 -104.8 -46.2723 203.315 -100.084 -63.4717 196.681 -68.648 -43.7584 223.018 -7.06189 15.0649 0.614696 6.06427 
145.268 170.442 170.585 170.492 167.885 132.037 162.384 166.984 166.33 139.427 -49.8947 179.58 -23.5437 -13.0296 197.795 -87.7739 -25.602 201.897 -104.87 -46.7714 204.925 -100.365 -64.7066 199.38 -70.4843 -44.2083 223.146 -6.93967 12.5456 1.09209 6.67709 
144.738 170.45 170.391 170.33 164.566 131.811 162.227 167.321 166.733 142.985 -50.2231 179.622 -23.3024 -14.2181 197.525 -87.2952 -26.3491 202.676 -104.963 -47.4879 206.369 -100.659 -66.1105 201.718 -72.0281 -44.7114 223.235 -6.76656 10.5147 1.49049 7.45658 
144.248 170.207 170.34 170.312 162.554 131.729 161.865 167.86 167.347 145.942 -50.3407 179.593 -23.0577 -15.4213 197.347 -86.7206 -27.0734 203.664 -105.142 -48.088 207.898 -100.989 -67.2338 203.715 -73.2235 -45.1873 223.338 -6.54122 9.06949 1.87697 8.39662 
143.922 169.509 170.583 170.343 159.954 131.621 161.669 168.372 167.753 146.745 -50.7765 179.703 -23.0827 -16.595 197.099 -86.3177 -27.8912 204.621 -105.438 -48.8338 209.363 -101.413 -68.1548 204.578 -73.3679 -45.6023 223.402 -6.42527 9.2126 2.25234 9.34187 
143.551 168.559 170.642 170.09 158.198 131.357 161.121 168.424 167.49 143.615 -51.3347 180.17 -23.4281 -17.6174 197.538 -86.2444 -28.8095 205.63 -105.832 -49.8249 210.291 -101.752 -68.5352 202.95 -71.6326 -45.9701 223.508 -6.47105 12.3399 2.2613 9.86742 
143.08 167.829 170.705 170.051 150.332 130.917 161.054 168.583 167.264 133.254 -51.9566 180.797 -23.7369 -18.6751 198.732 -86.6107 -29.8704 207.059 -106.392 -50.8215 211.467 -102.126 -68.3427 200.355 -67.4923 -46.3183 223.777 -6.60001 18.1007 2.1686 10.0852 
142.43 168.017 171.049 170.466 139.934 130.355 161.87 169.238 167.661 124.022 -52.5066 181.347 -23.8875 -19.8781 200.664 -87.5861 -31.278 208.817 -107.14 -51.9253 212.941 -102.568 -68.0384 198.876 -63.2898 -46.6768 223.982 -6.70993 23.642 2.04709 9.77093 
141.616 167.971 171.235 171.287 136.007 129.999 162.701 170.082 168.775 121.408 -52.9031 181.27 -23.8372 -21.2938 201.693 -88.3091 -32.5981 210.002 -107.718 -52.7001 214.544 -103.012 -67.9883 199.535 -62.3429 -46.9478 223.875 -6.78082 25.1964 2.38314 9.77381 
140.352 166.663 171.209 172.024 146.745 129.339 163.643 170.705 169.541 137.21 -52.9823 180.441 -23.449 -22.9601 201.995 -88.9826 -33.4482 209.91 -107.6 -52.8546 215.31 -102.844 -70.4846 203.912 -68.9757 -47.3142 223.273 -6.67118 16.9949 2.87394 9.73888 
139.255 167.339 171.649 172.998 167.181 129.103 164.088 171.436 170.652 153.9 -52.6241 179.437 -22.844 -24.4452 201.619 -88.989 -34.2009 209.463 -107.294 -52.9412 216.059 -102.552 -72.9734 210.661 -74.8971 -47.6733 222.684 -6.39982 8.1438 3.51621 9.95098 
138.512 168.691 172.014 173.642 171.71 129.051 164.229 171.764 171.167 161.228 -51.9425 178.961 -22.5503 -25.7981 201.726 -88.868 -35.001 209.261 -106.961 -53.0103 216.599 -102.176 -74.2896 215.137 -77.4396 -48.0419 222.466 -6.209 3.53391 3.95634 10.1027 
138.123 169.744 172.402 173.938 173.604 128.998 163.904 172.021 171.276 164.009 -51.2633 178.807 -22.5808 -26.8766 202.709 -88.9691 -35.8152 209.842 -106.964 -53.2034 217.236 -102.011 -74.8233 218.031 -78.8649 -48.3577 222.498 -6.17819 1.16833 4.10141 10.1317 
138.135 170.06 172.799 174.382 174.599 128.944 163.725 172.384 171.565 164.883 -50.6802 178.75 -22.6566 -27.7412 204.15 -89.2288 -36.5744 210.789 -107.155 -53.4406 217.997 -102.019 -74.856 219.788 -79.634 -48.6778 222.672 -6.22235 0.704864 4.21234 10.1018 
138.503 169.863 172.981 174.524 175.051 128.829 163.632 172.533 171.669 164.186 -50.3307 178.93 -22.6602 -28.345 205.435 -89.4603 -37.2296 211.627 -107.304 -53.7715 218.619 -102.042 -74.6771 220.504 -79.7667 -48.9446 222.989 -6.23965 1.17668 4.2784 10.0074 
