149.465 162.484 162.096 165.718 164.643 138.299 158.886 159.263 159.17 154.337 -65.1531 111.458 -13.3097 8.82723 133.464 -50.4557 -5.42299 128.46 -77.6567 -37.1887 125.925 -93.1962 -70.7478 133.255 -93.3096 -74.4294 163.764 -15.6069 8.89179 10.8672 7.82637 
149.717 162.403 161.991 165.761 164.889 138.712 158.602 159.338 159.252 154.095 -65.5691 111.496 -13.043 7.84743 133.066 -50.1778 -6.22728 128.44 -77.4846 -37.8718 125.963 -92.9658 -71.3409 133.175 -92.969 -75.1129 163.96 -15.6321 8.68404 10.7796 7.70853 
149.791 162.261 161.993 165.585 164.646 138.881 158.316 159.299 158.911 153.525 -65.7455 111.447 -12.824 7.53694 132.895 -49.9651 -6.53238 128.312 -77.3943 -38.0956 125.666 -92.6072 -71.4348 132.928 -92.5821 -75.3322 164.039 -15.6136 8.50794 10.6736 7.77321 
149.868 162.231 161.996 165.463 164.366 139.062 158.184 159.215 158.672 153.117 -65.9437 111.387 -12.688 7.17659 132.71 -49.9149 -6.89065 128.088 -77.3315 -38.3576 125.4 -92.3688 -71.5966 132.769 -92.3481 -75.603 164.078 -15.6489 8.39507 10.5692 7.78002 
149.874 162.103 162.061 165.391 164.093 139.084 158.073 159.187 158.623 153.078 -66.1103 111.382 -12.5415 6.89711 132.797 -50.0128 -7.20738 128.094 -77.4148 -38.5595 125.489 -92.367 -71.7737 132.993 -92.4004 -75.8754 164.125 -15.6581 8.41617 10.4523 7.81415 
149.907 162.007 162.043 165.425 163.97 139.157 158.032 159.044 158.582 153.076 -66.2589 111.386 -12.4296 6.57514 132.822 -50.1652 -7.56401 127.932 -77.4205 -38.7603 125.501 -92.3507 -71.9357 133.169 -92.4694 -76.1223 164.187 -15.6882 8.44447 10.3171 7.79753 
149.907 161.888 161.932 165.413 163.802 139.155 157.992 158.77 158.398 153.008 -66.4596 111.34 -12.3649 6.29035 132.776 -50.3208 -7.93606 127.601 -77.3652 -38.9501 125.36 -92.2586 -72.075 133.265 -92.5355 -76.3232 164.18 -15.7128 8.51736 10.1648 7.81764 
149.86 161.808 161.836 165.367 163.647 139.002 158.062 158.546 158.314 153.059 -66.7094 111.326 -12.4032 6.11794 132.926 -50.6253 -8.22448 127.488 -77.4614 -39.1115 125.466 -92.3754 -72.2351 133.564 -92.7503 -76.4857 164.16 -15.7502 8.63102 10.0605 7.86703 
149.74 161.863 161.765 165.485 163.689 138.883 158.236 158.312 158.366 153.292 -66.9379 111.372 -12.4504 5.93327 133.038 -50.9271 -8.52465 127.309 -77.4904 -39.2839 125.634 -92.5503 -72.4128 133.948 -93.0265 -76.6592 164.194 -15.7777 8.75541 9.97912 7.90787 
149.627 161.953 161.713 165.712 163.88 138.852 158.507 158.207 158.557 153.66 -67.1562 111.363 -12.4095 5.7541 133.101 -51.1749 -8.80417 127.106 -77.4811 -39.4566 125.789 -92.7271 -72.5996 134.325 -93.3079 -76.8326 164.213 -15.7946 8.8857 9.93473 7.97033 
149.625 162.072 161.662 165.973 164.11 138.82 158.723 158.097 158.787 154.033 -67.3743 111.423 -12.4281 5.57605 133.258 -51.4114 -9.05591 127.077 -77.4931 -39.6574 126.098 -92.9653 -72.8342 134.778 -93.5924 -77.0108 164.301 -15.8014 9.00173 9.94767 8.00603 
149.579 162.151 161.533 166.252 164.374 138.762 158.967 157.977 159.125 154.527 -67.5906 111.479 -12.3845 5.41201 133.311 -51.5307 -9.28688 126.933 -77.379 -39.8466 126.402 -93.2116 -73.0802 135.223 -93.8881 -77.1836 164.342 -15.7751 9.14615 10.0172 8.05338 
149.494 162.183 161.293 166.447 164.567 138.668 159.054 157.788 159.429 154.984 -67.8259 111.56 -12.3821 5.22617 133.329 -51.6195 -9.5093 126.861 -77.2654 -40.0236 126.81 -93.4934 -73.3464 135.734 -94.2126 -77.3369 164.399 -15.7639 9.311 10.1168 8.06646 
149.407 162.085 161.099 166.67 164.776 138.551 159.021 157.641 159.748 155.38 -67.9872 111.648 -12.4276 5.06877 133.35 -51.6892 -9.68519 126.854 -77.2223 -40.1654 127.221 -93.7889 -73.5742 136.17 -94.5037 -77.4441 164.421 -15.7599 9.43789 10.2204 8.07047 
149.325 162.156 160.964 166.915 165.006 138.46 159.153 157.561 160.071 155.759 -68.1413 111.76 -12.4477 4.88155 133.293 -51.7461 -9.89851 126.791 -77.1496 -40.3809 127.558 -94.0342 -73.8405 136.563 -94.7277 -77.5643 164.475 -15.7365 9.52741 10.3524 8.06093 
149.246 162.176 160.91 167.088 165.189 138.353 159.173 157.533 160.345 156.031 -68.29 111.937 -12.5042 4.67934 133.23 -51.742 -10.0865 126.862 -77.1347 -40.626 127.932 -94.2741 -74.1562 136.917 -94.9074 -77.6938 164.559 -15.7187 9.59182 10.5026 8.00607 
149.18 162.077 160.868 167.22 165.328 138.292 159.125 157.531 160.47 156.144 -68.3887 112.043 -12.4996 4.51528 133.204 -51.6908 -10.2414 126.947 -77.1083 -40.8656 128.141 -94.3686 -74.4345 137.108 -94.9658 -77.7895 164.618 -15.6719 9.64269 10.6177 7.97101 
149.061 162.033 160.717 167.288 165.38 138.176 158.99 157.455 160.694 156.352 -68.4865 112.306 -12.2856 4.1625 133.219 -51.5051 -10.6216 127.135 -77.0071 -41.2972 128.653 -94.5177 -74.9408 137.569 -95.0418 -78.0287 164.784 -15.536 9.72756 10.78 7.9637 
149.063 162.118 160.573 167.391 165.461 138.267 158.856 157.435 160.942 156.522 -68.5796 112.38 -12.1459 3.84691 132.918 -51.2412 -10.9406 127.068 -76.8553 -41.6431 128.884 -94.6038 -75.2899 137.737 -95.0196 -78.1956 164.852 -15.417 9.69105 10.9227 7.92485 
149.117 162.128 160.446 167.48 165.477 138.327 158.694 157.438 161.172 156.69 -68.639 112.502 -12.0797 3.58961 132.735 -51.0015 -11.2621 127.075 -76.7702 -41.9715 129.147 -94.731 -75.6255 137.917 -95.0246 -78.3659 164.95 -15.3129 9.64252 11.0426 7.95268 
149.054 162.193 160.28 167.514 165.482 138.322 158.65 157.486 161.473 156.963 -68.6317 112.593 -11.8926 3.41132 132.607 -50.8095 -11.6024 127.04 -76.7419 -42.2898 129.451 -94.9308 -75.9867 138.154 -95.1025 -78.5198 164.99 -15.1993 9.64371 11.1618 8.08999 
149.112 162.272 160.163 167.647 165.55 138.339 158.629 157.568 161.873 157.307 -68.6393 112.685 -11.7639 3.29317 132.57 -50.6674 -11.8612 127.027 -76.6883 -42.4834 129.81 -95.1366 -76.1918 138.409 -95.1579 -78.6357 165.026 -15.0683 9.59645 11.277 8.19533 
149.195 162.432 159.982 167.71 165.556 138.399 158.53 157.528 162.153 157.514 -68.6206 112.715 -11.6632 3.1588 132.438 -50.5411 -12.0957 126.934 -76.5809 -42.6622 130.083 -95.3059 -76.3954 138.541 -95.1756 -78.7309 165.039 -14.9542 9.53993 11.4176 8.2324 
149.215 162.646 159.874 167.821 165.619 138.465 158.564 157.576 162.463 157.757 -68.6347 112.789 -11.5127 2.99652 132.3 -50.3988 -12.3789 126.792 -76.457 -42.8247 130.326 -95.396 -76.5788 138.696 -95.1456 -78.8606 165.076 -14.8038 9.48458 11.4935 8.29998 
149.338 162.718 159.9 167.938 165.666 138.58 158.437 157.577 162.672 157.873 -68.6403 112.797 -11.4173 2.80773 132.087 -50.2325 -12.5832 126.702 -76.3546 -42.9321 130.476 -95.3931 -76.684 138.728 -95.0328 -78.9542 165.081 -14.651 9.39949 11.5181 8.2733 
149.429 162.677 159.824 167.951 165.572 138.632 158.371 157.614 162.82 157.922 -68.6677 112.76 -11.2114 2.69312 131.978 -50.1093 -12.8009 126.537 -76.2327 -43.0413 130.559 -95.3773 -76.7851 138.732 -94.905 -79.0463 165.049 -14.479 9.31877 11.5418 8.34433 
149.564 162.657 159.758 167.913 165.416 138.655 158.271 157.594 162.868 157.831 -68.658 112.724 -11.0274 2.61155 131.914 -50.0143 -12.9869 126.369 -76.1127 -43.1157 130.574 -95.3128 -76.8308 138.637 -94.7168 -79.1145 164.995 -14.3084 9.20997 11.5355 8.40971 
149.778 162.699 159.795 167.858 165.247 138.684 158.21 157.631 162.854 157.706 -68.7072 112.698 -10.9597 2.55625 131.984 -49.9838 -13.1581 126.32 -76.0722 -43.1676 130.583 -95.2236 -76.8463 138.497 -94.4925 -79.1698 164.964 -14.1153 9.08091 11.456 8.47092 
149.951 162.678 159.796 167.729 164.996 138.616 158.022 157.472 162.744 157.503 -68.7729 112.648 -10.8959 2.49695 132.007 -49.9438 -13.3305 126.25 -76.0385 -43.2085 130.571 -95.1054 -76.8211 138.38 -94.2527 -79.201 164.878 -13.9069 8.9545 11.3534 8.53808 
150.079 162.547 159.692 167.696 164.812 138.574 157.957 157.554 162.821 157.487 -68.9038 112.5 -10.7594 2.46632 132.063 -49.9018 -13.492 126.188 -76.0017 -43.2502 130.641 -95.0464 -76.8082 138.359 -94.0592 -79.2462 164.743 -13.6713 8.84317 11.2995 8.64282 
150.222 162.353 159.784 167.733 164.7 138.584 157.923 157.677 162.895 157.518 -68.9552 112.354 -10.6347 2.52616 132.369 -49.9707 -13.5887 126.287 -76.0637 -43.2685 130.823 -95.0516 -76.8182 138.439 -93.942 -79.2888 164.645 -13.4413 8.78356 11.2418 8.78543 
150.235 162.201 159.83 167.886 164.655 138.585 157.891 157.79 162.987 157.543 -69.1072 112.123 -10.4633 2.49512 132.544 -50.0339 -13.7571 126.263 -76.0585 -43.3555 130.931 -95.0199 -76.857 138.548 -93.8384 -79.3447 164.507 -13.2373 8.7391 11.2062 8.92413 
150.278 162.211 160.015 168.052 164.693 138.565 157.889 157.805 162.988 157.551 -69.3139 111.94 -10.3174 2.37294 132.694 -50.0938 -13.9823 126.261 -76.0346 -43.5184 130.987 -94.8793 -76.9626 138.66 -93.6744 -79.4306 164.413 -13.0134 8.72613 11.1254 9.01605 
150.252 162.432 160.298 168.277 164.885 138.608 158.029 157.904 163.084 157.699 -69.408 111.845 -10.1251 2.21637 132.783 -50.1394 -14.1608 126.247 -75.9505 -43.6632 131.037 -94.7095 -77.0633 138.771 -93.5025 -79.5194 164.372 -12.779 8.73286 11.0756 9.00275 
150.239 162.516 160.521 168.44 165.002 138.625 158.104 157.919 163.034 157.663 -69.5294 111.714 -9.93594 2.11954 132.873 -50.1334 -14.3034 126.16 -75.8169 -43.7752 130.887 -94.427 -77.1145 138.693 -93.2459 -79.567 164.314 -12.5743 8.73125 10.977 9.03953 
150.205 162.614 160.625 168.592 165.068 138.549 158.215 157.814 162.949 157.556 -69.6277 111.624 -9.74399 2.03798 132.908 -50.1142 -14.4519 125.952 -75.6076 -43.8487 130.623 -94.073 -77.1037 138.504 -92.9218 -79.571 164.238 -12.3741 8.71515 10.8661 9.08396 
150.184 162.745 160.748 168.728 165.142 138.499 158.399 157.683 162.823 157.459 -69.7374 111.547 -9.54088 1.94269 132.956 -50.0933 -14.6089 125.744 -75.3981 -43.9584 130.295 -93.6844 -77.1134 138.287 -92.5851 -79.5853 164.192 -12.1722 8.70393 10.739 9.13252 
150.162 162.814 160.778 168.856 165.192 138.437 158.608 157.634 162.659 157.292 -69.8416 111.428 -9.17164 1.8371 132.936 -49.9554 -14.7698 125.484 -75.1198 -44.1003 129.808 -93.1769 -77.1125 137.942 -92.1364 -79.5978 164.111 -11.9237 8.67151 10.5839 9.20108 
150.109 162.751 160.76 168.966 165.228 138.375 158.714 157.489 162.498 157.124 -69.8422 111.309 -8.76322 1.78769 132.958 -49.8141 -14.8667 125.245 -74.8538 -44.1734 129.375 -92.6963 -77.0758 137.623 -91.7072 -79.5672 164.027 -11.6838 8.65811 10.4425 9.28462 
150.009 162.676 160.661 169.026 165.26 138.282 158.878 157.339 162.343 156.978 -69.9096 111.189 -8.29129 1.65818 132.993 -49.6949 -15.0634 125.028 -74.5805 -44.3683 129.011 -92.2275 -77.1489 137.412 -91.2757 -79.5683 163.951 -11.4064 8.65659 10.3339 9.39709 
149.953 162.696 160.507 169.068 165.254 138.219 159.054 157.171 162.186 156.855 -69.9052 111.061 -7.898 1.54687 133.035 -49.6285 -15.2569 124.865 -74.3934 -44.584 128.703 -91.8543 -77.2391 137.243 -90.9179 -79.5368 163.882 -11.167 8.65003 10.2482 9.51207 
149.899 162.861 160.461 169.066 165.282 138.171 159.335 157.184 162.04 156.798 -69.898 111.004 -7.56409 1.43493 133.07 -49.5809 -15.4302 124.727 -74.2234 -44.7947 128.397 -91.5097 -77.3023 137.103 -90.5962 -79.4978 163.875 -10.9512 8.62965 10.1699 9.59556 
149.853 163.055 160.354 169.015 165.275 138.128 159.587 157.179 161.973 156.808 -69.8606 110.996 -7.23827 1.32578 133.119 -49.5184 -15.5805 124.623 -74.0184 -45.0046 128.238 -91.2628 -77.4103 137.053 -90.345 -79.4659 163.891 -10.7479 8.629 10.1905 9.65616 
149.916 163.213 160.301 168.989 165.307 138.159 159.812 157.174 161.979 156.883 -69.8225 110.991 -7.00937 1.28987 133.214 -49.4825 -15.6788 124.542 -73.8351 -45.1522 128.182 -91.1136 -77.4822 137.068 -90.1646 -79.4003 163.937 -10.5681 8.62203 10.2512 9.7373 
149.937 163.336 160.178 168.882 165.262 138.201 160.062 157.189 162.045 156.994 -69.8062 110.977 -6.7731 1.25033 133.332 -49.4668 -15.8073 124.489 -73.7085 -45.3653 128.232 -91.1004 -77.6803 137.174 -90.0974 -79.3866 163.967 -10.4308 8.65764 10.3822 9.86594 
149.946 163.476 160.047 168.85 165.298 138.241 160.326 157.207 162.181 157.17 -69.7384 110.961 -6.52057 1.21831 133.44 -49.4785 -15.9064 124.429 -73.6064 -45.5348 128.303 -91.1334 -77.8313 137.284 -90.0701 -79.3782 163.982 -10.3299 8.67416 10.5176 9.98665 
149.991 163.718 160.05 168.937 165.353 138.375 160.652 157.432 162.368 157.347 -69.6297 111.003 -6.19858 1.13227 133.477 -49.412 -16.0098 124.404 -73.4811 -45.7199 128.369 -91.1241 -77.9839 137.402 -90.0089 -79.4297 164.065 -10.2221 8.65977 10.6343 10.0357 
150.049 164.077 160.07 168.977 165.39 138.564 160.822 157.507 162.504 157.492 -69.5488 111.051 -5.87172 0.949933 133.306 -49.2365 -16.1536 124.307 -73.2564 -45.934 128.386 -91.0405 -78.1467 137.499 -89.8891 -79.5365 164.16 -10.1 8.62924 10.7586 9.97521 
150.226 164.486 160.276 169.217 165.596 138.956 161.087 157.758 162.783 157.755 -69.4273 111.1 -5.52571 0.708129 133.084 -49.0614 -16.3533 124.172 -73.0614 -46.226 128.335 -90.9678 -78.38 137.511 -89.7619 -79.7165 164.307 -9.99825 8.56202 10.8756 9.88165 
150.444 164.802 160.397 169.352 165.689 139.394 161.317 157.976 163.051 158.004 -69.3615 111.015 -5.19482 0.473857 132.888 -48.9753 -16.6387 124.051 -73.0247 -46.5875 128.372 -91.0319 -78.7219 137.603 -89.7331 -79.9076 164.375 -9.90348 8.52191 10.9845 9.89142 
150.692 165.083 160.504 169.523 165.806 139.915 161.339 158.023 163.188 158.118 -69.2579 110.816 -4.97005 0.173082 132.569 -48.9399 -17.0049 123.918 -73.0714 -47.0306 128.367 -91.0697 -79.1481 137.64 -89.6672 -80.0918 164.372 -9.80454 8.48944 11.0431 9.85132 
151.016 165.305 160.557 169.643 165.926 140.51 161.232 157.993 163.156 158.097 -69.139 110.58 -4.71994 -0.208482 132.248 -48.9168 -17.4504 123.88 -73.2203 -47.5508 128.275 -90.9717 -79.696 137.592 -89.5091 -80.282 164.397 -9.68473 8.51072 10.963 9.77001 
150.265 166.564 163.991 169.129 164.694 140.095 160.587 156.376 161.933 157.322 -69.7963 110.354 -4.70043 -0.846943 131.788 -49.0673 -18.4574 123.105 -72.967 -48.0795 128.238 -90.7229 -80.3306 137.793 -89.3973 -80.435 164.246 -9.44303 8.78073 10.8413 10.052 
149.684 167.365 165.821 168.463 163.72 139.853 159.847 154.299 160.714 156.53 -70.2629 110.082 -4.57873 -1.49274 131.234 -49.1709 -19.449 122.135 -72.4481 -48.5491 128.025 -90.337 -80.8917 137.826 -89.1937 -80.5376 164.095 -9.20992 9.05872 10.8147 10.3231 
149.246 167.787 166.802 167.693 162.987 139.602 159.023 152.332 159.639 155.898 -70.6574 109.835 -4.49732 -2.01893 130.841 -49.2957 -20.2918 121.325 -71.9398 -48.9287 127.933 -90.0175 -81.3801 137.908 -89.0261 -80.6102 163.953 -8.97125 9.32196 10.8861 10.5944 
148.898 168.019 166.864 166.972 162.435 139.497 158.328 150.531 158.789 155.454 -70.9934 109.566 -4.29716 -2.4972 130.367 -49.2841 -21.0011 120.511 -71.2946 -49.2124 127.812 -89.6527 -81.7886 137.963 -88.8481 -80.6882 163.814 -8.72662 9.59346 11.0518 10.8083 
148.73 168.016 166.397 166.427 162.108 139.415 157.853 148.82 158.234 155.251 -71.317 109.409 -4.04338 -2.93668 130.059 -49.2517 -21.7117 119.704 -70.5461 -49.4989 127.772 -89.34 -82.1798 138.102 -88.6978 -80.8151 163.749 -8.44705 9.83643 11.358 11.1556 
148.655 167.958 165.97 166.103 161.917 139.427 157.489 146.981 157.899 155.2 -71.542 109.204 -3.67572 -3.3164 129.756 -49.1269 -22.4769 118.622 -69.4854 -49.7332 127.768 -89.0472 -82.4926 138.277 -88.537 -80.9681 163.654 -8.13251 10.0419 11.9568 11.7712 
148.71 167.86 165.178 166.119 161.905 139.577 157.234 145.25 157.698 155.22 -71.7319 108.966 -3.22361 -3.67069 129.494 -48.9461 -23.2414 117.512 -68.3172 -49.9972 127.697 -88.7256 -82.8083 138.386 -88.3116 -81.151 163.58 -7.78399 10.1956 12.6568 12.4977 
148.68 167.56 164.564 166.142 161.816 139.642 156.849 143.46 157.48 155.192 -71.8835 108.573 -2.70544 -3.96482 129.249 -48.8183 -24.0178 116.243 -67.0699 -50.2377 127.589 -88.4483 -83.0522 138.475 -88.0967 -81.3011 163.341 -7.44212 10.3291 13.5259 13.4896 
148.725 167.286 163.78 166.219 161.831 139.704 156.651 141.82 157.489 155.358 -72.0453 108.255 -2.14825 -4.19595 129.321 -48.7446 -24.7819 115.262 -65.9188 -50.4998 127.751 -88.2949 -83.3602 138.748 -87.9394 -81.5069 163.155 -7.05698 10.4571 14.4752 14.5865 
148.815 167.331 162.995 166.891 161.977 139.705 156.731 140.394 157.654 155.541 -72.2097 108.021 -1.63365 -4.40174 129.621 -48.7609 -25.5098 114.368 -64.7585 -50.7275 127.879 -88.1376 -83.5331 138.963 -87.7258 -81.717 163.008 -6.67215 10.474 15.414 15.8199 
148.709 167.452 162.043 167.445 162.003 139.647 156.908 138.667 157.831 155.706 -72.3608 107.557 -1.04188 -4.65259 129.681 -48.7978 -26.4265 113.195 -63.4705 -50.9854 127.881 -88.016 -83.6677 139.113 -87.532 -81.8771 162.619 -6.28848 10.4755 16.5134 17.3044 
148.698 167.569 160.811 167.899 161.949 139.552 157.313 136.926 158.079 155.927 -72.5418 107.249 -0.433574 -4.88568 129.842 -48.8387 -27.3923 112.103 -62.1687 -51.2968 127.875 -87.8931 -83.8202 139.29 -87.3493 -82.0559 162.312 -5.9278 10.4893 17.6271 18.8768 
148.634 167.718 159.193 168.311 161.893 139.314 157.829 135.029 158.318 156.089 -72.8672 106.976 0.085043 -5.12595 129.943 -48.8809 -28.3865 111.103 -60.9171 -51.61 127.772 -87.7465 -83.942 139.339 -87.1349 -82.188 161.952 -5.58881 10.4783 18.6528 20.397 
148.64 167.903 156.719 168.802 162.001 139.199 158.515 133.962 158.687 156.327 -73.0394 106.679 0.648949 -5.41906 129.892 -48.9233 -29.0244 110.522 -60.1366 -51.9161 127.574 -87.5891 -84.0468 139.264 -86.9105 -82.2888 161.582 -5.26206 10.4324 19.1785 21.2566 
148.657 168.087 154.468 169.153 162.161 139.196 159.394 133.309 159.107 156.657 -73.158 106.365 1.20114 -5.71765 129.836 -49.0079 -29.5693 110.163 -59.6619 -52.3023 127.427 -87.5089 -84.2747 139.265 -86.7856 -82.3961 161.241 -4.97644 10.438 19.4858 21.875 
148.669 168.473 152.591 169.563 162.366 139.138 160.339 133.176 159.562 156.928 -73.3583 106.159 1.55427 -6.02624 129.713 -49.0773 -29.9414 109.994 -59.4859 -52.6722 127.308 -87.4539 -84.5039 139.212 -86.6281 -82.4849 160.958 -4.71299 10.3754 19.5609 22.1147 
148.679 168.924 151.02 169.869 162.45 139.074 161.25 133.723 159.911 157.069 -73.5613 105.976 1.78208 -6.27308 129.575 -49.1673 -30.025 110.091 -59.7376 -53.0052 127.143 -87.4166 -84.7369 139.085 -86.4789 -82.5285 160.693 -4.5052 10.3123 19.251 21.9331 
148.656 169.429 150.14 169.84 162.458 138.977 162.029 134.553 160.067 157.108 -73.81 105.944 1.90805 -6.48485 129.497 -49.2221 -29.9934 110.365 -60.1773 -53.3482 126.972 -87.3346 -85.0392 138.936 -86.3175 -82.5859 160.574 -4.33502 10.2803 18.7437 21.5132 
148.622 169.99 149.623 169.652 162.503 139 162.68 135.964 160.177 157.143 -74.0303 105.91 1.90311 -6.65042 129.248 -49.2246 -29.7608 110.795 -60.9167 -53.6434 126.766 -87.269 -85.3411 138.741 -86.1897 -82.6186 160.491 -4.22199 10.2537 17.9906 20.6806 
148.538 170.534 149.594 169.333 162.501 139.065 163.032 137.408 160.199 157.185 -74.1495 105.87 1.88521 -6.81306 128.89 -49.1951 -29.4998 111.267 -61.7001 -53.9147 126.631 -87.2384 -85.6608 138.648 -86.1376 -82.6355 160.437 -4.15702 10.2911 17.2703 19.7251 
148.367 170.931 149.858 168.961 162.477 139.077 163.204 138.715 160.18 157.205 -74.2964 105.838 1.79074 -6.91345 128.593 -49.1787 -29.2321 111.741 -62.5134 -54.1178 126.559 -87.2613 -85.946 138.612 -86.1379 -82.6372 160.372 -4.12461 10.3461 16.5988 18.8618 
148.182 171.277 150.568 168.463 162.461 139.077 163.236 140.397 160.103 157.229 -74.4794 105.903 1.655 -7.01264 128.243 -49.0566 -28.8411 112.412 -63.4526 -54.3123 126.52 -87.2452 -86.2369 138.62 -86.1295 -82.6613 160.395 -4.08619 10.4147 15.7967 17.722 
147.975 171.469 151.525 167.895 162.506 139.196 163.167 142.001 160.024 157.311 -74.583 105.919 1.57402 -7.07726 127.883 -48.9532 -28.4837 113.039 -64.3877 -54.4533 126.514 -87.264 -86.5196 138.69 -86.1794 -82.6817 160.453 -4.07194 10.5201 15.0543 16.6624 
147.848 171.554 152.62 167.409 162.596 139.307 163.092 143.843 159.975 157.415 -74.7035 105.923 1.47758 -7.09561 127.532 -48.8547 -28.0299 113.73 -65.4063 -54.5213 126.43 -87.2829 -86.7614 138.638 -86.2383 -82.6905 160.493 -4.08637 10.6219 14.2463 15.5435 
147.697 171.986 154.149 166.815 162.787 139.559 163.192 147.064 159.838 157.459 -74.7924 105.946 1.25614 -7.27729 127.043 -48.9375 -27.3518 115.053 -67.272 -54.6122 126.152 -87.2812 -87.0856 138.355 -86.3022 -82.6818 160.588 -4.20577 10.7139 12.7374 13.6824 
147.641 171.968 155.731 166.409 162.905 139.796 162.926 149.026 159.712 157.478 -74.6626 105.959 1.37024 -7.36151 126.893 -48.934 -26.8925 115.921 -68.3039 -54.5838 125.953 -87.149 -87.2399 138.129 -86.2352 -82.6672 160.719 -4.21861 10.7877 11.8413 12.6498 
147.483 171.901 156.797 165.891 162.899 140.046 162.718 150.525 159.469 157.377 -74.5565 105.932 1.46173 -7.44876 126.818 -49.0305 -26.6116 116.676 -69.2302 -54.6167 125.817 -87.0682 -87.4736 138.003 -86.2221 -82.6435 160.827 -4.28299 10.9114 11.1104 11.9334 
147.193 171.684 157.526 165.313 162.86 140.114 162.398 151.835 159.189 157.254 -74.5763 106.042 1.31848 -7.51345 126.964 -49.2815 -26.3738 117.625 -70.2449 -54.6897 125.868 -87.1092 -87.7558 138.003 -86.2721 -82.5937 161.001 -4.38305 11.0214 10.4701 11.2915 
146.879 171.387 158.359 164.69 162.863 140.257 161.992 153.038 158.893 157.192 -74.5971 106.142 1.1439 -7.65645 127.057 -49.5385 -26.2046 118.55 -71.2125 -54.7603 125.963 -87.1616 -88.0726 138.05 -86.3771 -82.5424 161.2 -4.51252 11.1839 9.90661 10.6612 
146.746 170.812 158.929 163.974 163.024 140.586 161.681 154.165 158.723 157.367 -74.4899 106.101 1.14603 -7.79058 127.371 -50.0273 -26.1206 119.545 -72.3165 -55.0372 126.172 -87.4503 -88.6816 138.191 -86.6596 -82.5269 161.443 -4.68393 11.4213 9.53627 10.1817 
146.207 170.326 158.928 163.192 162.901 140.694 161.171 154.727 158.514 157.339 -74.4608 106.225 0.996436 -8.10218 127.67 -50.5326 -26.2936 120.597 -73.2674 -55.4078 126.817 -87.8302 -89.3536 138.722 -86.9215 -82.5363 161.711 -4.82492 11.6175 9.32536 9.77989 
145.755 169.624 158.666 162.404 162.681 140.742 160.276 154.666 158.211 157.219 -74.4366 106.406 0.659534 -8.42732 127.912 -51.0632 -26.5548 121.446 -74.0482 -55.8031 127.433 -88.26 -90.0387 139.144 -87.1916 -82.5091 161.987 -5.03284 11.7951 9.2429 9.43438 
145.317 168.875 158.302 161.67 162.449 140.722 159.319 154.45 157.964 157.116 -74.4715 106.629 0.295938 -8.8056 128.078 -51.5564 -26.8801 122.193 -74.7039 -56.1847 128.097 -88.6775 -90.698 139.573 -87.4188 -82.4689 162.267 -5.22021 11.9503 9.19879 9.09295 
144.971 168.003 158.152 160.924 162.244 140.716 158.06 154.018 157.646 157.011 -74.5432 106.941 -0.126414 -9.28918 128.114 -52.0357 -27.2369 122.868 -75.2936 -56.638 128.756 -89.0937 -91.4449 140.007 -87.6544 -82.4338 162.645 -5.45174 12.1486 9.22647 8.63217 
144.779 167.102 157.967 160.41 161.996 140.645 156.744 153.196 157.295 156.797 -74.5879 107.321 -0.430595 -9.70345 127.983 -52.2038 -27.6069 123.097 -75.3837 -56.9898 129.243 -89.2945 -91.9577 140.354 -87.7166 -82.395 163.058 -5.59686 12.2608 9.35492 8.31867 
144.531 165.983 157.669 159.881 161.832 140.67 155.282 152.501 157.088 156.7 -74.5788 107.603 -0.740889 -10.1484 127.67 -52.3663 -27.9818 123.313 -75.5746 -57.3216 129.787 -89.5968 -92.512 140.72 -87.8276 -82.3077 163.416 -5.76098 12.3931 9.49201 7.95827 
144.35 165.037 157.425 159.463 161.667 140.609 153.913 151.686 156.922 156.592 -74.7153 108.075 -1.26844 -10.507 127.451 -52.5372 -28.3521 123.472 -75.7318 -57.6031 130.373 -89.9401 -92.9704 141.112 -87.9443 -82.202 163.842 -5.96927 12.4747 9.6723 7.70476 
144.133 164.308 156.874 159.258 161.614 140.557 152.984 151.109 157.006 156.623 -74.9406 108.614 -1.78287 -10.8078 127.152 -52.6374 -28.7029 123.532 -75.8388 -57.8705 130.92 -90.2956 -93.3611 141.512 -88.0573 -82.0739 164.261 -6.1599 12.5133 9.90544 7.52668 
