145.099 162.599 170.64 165.098 159.195 132.504 161.309 160.617 168.484 149.893 124.819 315.819 7.69652 80.0317 339.494 -94.1776 120.242 337.109 -98.0534 152.896 337.974 -79.4267 175.324 333.808 -42.4564 103.67 361.365 1.28786 16.9286 11.8292 14.6646 
144.634 162.584 171.042 169.599 159.409 132.486 161.398 161.103 168.95 150.222 125.415 315.49 7.41635 80.8469 338.81 -94.3224 121.272 337.088 -98.3279 153.909 338.24 -79.7517 176.137 333.877 -42.7184 104.249 360.92 1.15245 16.8505 11.8003 14.7683 
143.957 162.194 170.727 167.523 159.853 132.26 160.917 160.782 169.717 150.387 125.593 315.078 7.09677 81.5768 337.84 -94.1642 122.04 336.465 -98.2598 154.795 338.212 -79.861 176.994 333.882 -42.8438 104.858 360.475 1.04043 16.8343 11.8714 14.8118 
143.279 164.285 169.988 165.406 161.107 131.527 162.14 160.426 166.121 150.353 125.873 314.56 6.60073 81.0719 337.384 -94.5335 122.001 335.929 -98.4335 155.508 338.22 -80.1619 177.902 334.598 -43.1164 105.373 359.636 0.953521 16.7893 12.3896 15.3023 
142.768 165.373 168.774 164.415 162.629 131.309 162.577 159.849 163.884 150.885 125.823 313.78 6.19255 80.566 336.64 -94.5793 121.801 335.187 -98.4991 156.04 338.659 -80.5114 178.807 335.642 -43.387 105.766 358.917 0.926743 16.9195 12.9201 15.6581 
143.142 166.02 167.792 164.346 164.124 131.146 162.611 158.972 161.857 151.259 126.067 313.632 5.98956 80.2714 336.622 -94.6009 121.738 334.425 -98.3809 156.306 338.746 -80.7316 179.359 336.294 -43.6456 106.247 358.805 0.939831 16.928 13.1647 15.9615 
143.875 166.455 167.158 164.367 165.402 130.9 162.819 158.223 160.082 151.348 126.406 313.792 6.23731 80.2135 337.484 -94.7205 121.782 334.067 -98.1963 156.451 338.678 -80.7605 179.657 336.623 -43.7245 106.686 359.059 1.05936 16.8852 13.2227 16.1918 
143.964 165.885 168.471 163.783 165.999 131.115 162.742 158.681 161.469 151.495 126.448 314.206 6.62345 80.9421 338.507 -94.4666 122.187 334.674 -98.0005 156.509 338.591 -80.4941 179.58 336.224 -43.5053 107.029 359.584 1.20231 16.8191 12.935 15.9682 
144.445 165.343 169.058 164.746 166.603 131.539 162.893 158.935 162.62 151.286 126.925 314.834 6.95537 81.8605 339.486 -94.2882 122.61 335.136 -97.8079 156.622 338.613 -80.2523 179.616 335.964 -43.2292 107.387 360.189 1.39726 16.8372 12.6783 15.6003 
144.571 165.168 169.375 166.172 166.358 131.937 162.771 159.394 163.048 151.501 127.402 315.036 7.17698 82.8796 339.547 -94.161 123.254 335.375 -97.8066 156.84 338.346 -80.0468 179.85 335.732 -43.1653 107.718 360.333 1.50666 16.759 12.3668 15.1956 
145.92 164.088 167.424 167.256 165.551 130.867 161.817 159.445 161.884 151.465 128.468 315.482 8.16437 83.0403 340.359 -94.3019 123.111 336.097 -97.8319 156.809 337.711 -79.8373 180.162 335.083 -42.7963 107.977 360.296 1.6479 17.106 12.4406 14.933 
147.349 163.351 165.354 167.537 164.745 130.141 160.447 158.773 160.791 151.598 129.784 315.778 8.73315 83.2717 340.522 -94.2885 123.191 336.347 -97.6754 156.876 337.088 -79.5995 180.516 334.488 -42.4757 108.226 359.979 1.73155 17.4129 12.4683 14.808 
148.432 162.544 164.032 166.973 163.742 129.666 159.369 158.352 159.819 151.78 130.986 316.2 9.3767 83.7154 340.597 -94.1888 123.482 336.645 -97.4919 157.241 336.724 -79.2764 181.158 334.393 -42.0518 108.582 359.917 1.85823 17.7185 12.5763 14.6721 
149.121 161.66 162.936 165.937 162.603 129.408 158.229 158.14 159.081 152.379 132.158 316.398 9.52063 84.2555 340.082 -94.099 124.051 336.923 -97.471 157.934 336.896 -79.1207 182.275 334.85 -41.757 109.002 359.574 1.88273 18.1584 12.732 14.648 
150.253 160.981 161.202 164.983 161.729 129.515 156.988 157.428 158.054 153.395 133.729 316.399 9.10664 85.2912 339.641 -94.3754 125.329 337.062 -97.4001 159.192 336.855 -78.883 183.847 335.559 -41.5339 109.7 359.218 1.60198 18.512 12.84 14.8549 
150.43 160.852 160.353 164.075 161.642 129.885 156.403 157.03 157.83 153.947 133.771 315.579 8.48353 85.919 338.858 -94.323 126.19 336.724 -97.1838 160.038 336.615 -78.5761 184.691 335.877 -41.3444 110.154 358.878 1.46945 18.5395 12.9082 15.07 
148.745 163.105 162.187 164.819 164.693 130.216 158.536 157.675 158.578 154.711 133.902 314.602 7.96022 86.233 337.198 -94.6082 127.154 335.498 -97.3086 161.314 337.269 -78.9155 185.647 337.278 -41.9835 110.614 358.248 1.33338 18.0018 13.0866 15.5486 
147.554 164.657 162.799 165.091 166.279 130.921 159.804 157.755 159.055 155.158 133.538 313.646 7.119 86.4656 336.038 -94.734 128.023 334.574 -97.3388 162.347 337.768 -79.1093 186.327 338.112 -42.3159 110.988 357.765 1.27697 17.5905 13.2271 16.0345 
146.853 165.62 163.376 164.93 167.155 131.754 160.713 157.887 159.491 155.397 133.216 312.737 6.15919 86.5785 335.103 -94.8502 128.635 333.99 -97.5017 163.129 338.311 -79.416 186.712 338.665 -42.6404 111.274 357.266 1.18308 17.2323 13.4056 16.4087 
147.168 164.305 162.315 164.462 166.848 131.395 160.722 158.16 159.634 155.612 132.594 312.375 6.06043 87.2923 335.717 -94.951 129.134 334.281 -97.4872 163.517 338.428 -79.3436 187.275 338.814 -42.4647 111.624 357.19 1.17197 17.4852 13.3521 16.2781 
146.646 165.709 163.544 164.137 167.137 131.532 163.146 158.772 160.222 156.603 132.88 312.273 5.5946 87.744 335.702 -95.329 129.493 334.059 -97.8184 164.096 339.074 -79.8949 187.944 339.495 -43.041 112.116 357.541 0.99344 17.4235 13.5222 16.158 
147.465 164.202 163.103 164.514 166.661 131.306 162.761 159.028 160.831 157.119 133.015 312.554 5.69681 88.2715 336.386 -95.4481 129.614 334.466 -97.976 164.191 339.13 -80.0912 188.301 339.499 -43.205 112.48 357.769 0.95027 17.6168 13.4628 15.8356 
148.066 163.446 163.207 164.561 165.663 130.907 162.789 159.505 161.298 157.648 132.962 312.752 6.19718 88.8318 337.355 -95.6126 129.674 334.922 -98.2386 164.168 338.799 -80.2845 188.56 339.046 -43.3158 112.9 358.032 1.00919 17.8115 13.2918 15.4232 
148.759 163.137 163.372 164.433 164.75 130.544 162.529 159.596 161.475 158.082 133.211 313.168 6.67359 89.4465 337.725 -95.6859 129.974 335.002 -98.3172 164.354 338.366 -80.2946 188.941 338.68 -43.344 113.355 358.303 1.03508 17.9437 13.1596 15.1422 
149.472 162.817 163.536 164.339 164.039 130.3 162.165 159.723 161.776 158.602 133.632 313.557 7.13396 90.0999 338.016 -95.7352 130.266 335.235 -98.458 164.538 338.153 -80.4102 189.32 338.53 -43.4888 113.826 358.555 1.04639 18.0417 13.0315 14.8138 
150.354 162.771 163.916 164.114 163.442 130.271 161.727 159.693 161.984 159.003 134.321 313.824 7.2363 90.6454 338.423 -96.0049 130.618 335.592 -98.7376 164.7 337.798 -80.5781 189.5 338.01 -43.6279 114.218 358.645 0.913762 18.0819 12.8708 14.6144 
150.759 162.581 164.131 164.19 163.099 130.391 161.024 159.508 162.086 159.104 135.213 314.117 7.31638 91.1529 338.232 -96.1136 131.071 335.564 -98.8763 165.087 337.304 -80.5899 189.814 337.584 -43.6698 114.654 358.695 0.738074 18.0584 12.8381 14.5437 
150.857 162.164 163.978 164.417 163.281 130.596 160.058 159.318 162.044 159.103 135.805 313.913 7.49817 91.6379 337.151 -95.8502 131.583 334.988 -98.7249 165.469 336.363 -80.3212 190.097 337.098 -43.6668 115.122 358.556 0.641011 17.8837 12.7665 14.5592 
150.815 162.021 163.829 164.562 163.429 130.793 159.401 159.238 162.341 159.479 136.295 313.497 7.18237 92.1625 336.226 -95.8423 132.132 334.644 -98.7876 165.992 335.947 -80.3296 190.638 336.962 -43.7455 115.489 358.146 0.426206 17.8953 12.7774 14.5916 
150.593 161.179 163.327 164.854 163.684 131.029 158.081 158.861 162.248 159.594 136.786 313.04 6.60063 92.5952 334.582 -95.4734 132.583 334.026 -98.6888 166.591 335.609 -80.1859 191.354 337.082 -43.7092 115.921 357.644 0.207314 18.0232 12.9499 14.6785 
149.196 162.975 163.973 165.205 165.432 131.773 159.576 159.252 162.5 159.102 136.79 311.988 5.59386 92.858 332.756 -95.5847 133.366 332.742 -98.8147 167.696 335.757 -80.4689 192.098 337.517 -44.0998 116.525 357.143 -0.0922852 17.6364 13.2109 15.0999 
148.098 164.548 164.427 165.245 166.503 132.643 160.841 159.154 162.45 158.745 136.788 310.959 4.38161 93.0835 331.444 -95.9395 134.011 331.512 -99.0282 168.553 335.705 -80.8185 192.559 337.463 -44.4931 116.974 356.568 -0.442199 17.2597 13.424 15.4278 
148.283 163.831 163.155 165.488 166.746 132.765 160.794 158.689 162.357 158.813 136.302 310.067 3.66648 93.8635 332.065 -96.4725 134.635 331.411 -99.1184 169.081 335.412 -80.8408 193.012 336.965 -44.4895 117.306 356.057 -0.644191 17.2805 13.4023 15.3343 
147.511 165.519 163.814 164.903 166.875 133.358 161.478 158.136 162.087 158.637 136.339 309.507 2.58302 94.5282 332.229 -97.2214 135.602 331.064 -99.4577 170.11 336.139 -81.3713 193.691 337.463 -45.04 117.89 355.834 -0.998174 16.9486 13.5415 15.5755 
147.644 164.552 163.156 164.731 165.949 133.031 161.18 157.76 161.785 158.354 136.646 309.706 2.24147 95.5378 333.432 -97.7791 136.308 331.598 -99.7132 170.818 336.624 -81.5195 194.601 337.657 -44.9645 118.403 355.8 -1.24274 17.3128 13.6272 15.3911 
148.153 163.769 162.821 164.302 164.792 132.592 160.092 157.103 161.255 157.851 137.026 310.518 2.22164 96.3698 334.306 -97.9717 136.737 332.13 -99.8505 171.314 336.853 -81.6051 195.391 337.587 -44.8049 119.035 356.25 -1.46849 17.7772 13.7272 15.1002 
148.6 162.406 162.619 163.705 163.588 132.024 158.737 156.49 160.858 157.755 137.694 311.282 2.20578 96.9856 334.429 -97.819 136.997 332.281 -99.9046 171.739 336.953 -81.6657 196.299 337.541 -44.6187 119.645 356.491 -1.68651 18.3956 13.9231 14.8462 
147.456 163.26 164.412 163.172 163.777 131.658 159.878 156.741 160.379 157.74 138.478 311.546 1.96193 97.5364 333.677 -97.9089 137.835 331.603 -99.9616 172.67 337.005 -81.9502 197.231 337.867 -45.0486 120.459 356.931 -2.07221 18.303 14.045 15.0536 
146.171 163.806 163.969 162.457 164.407 131.726 159.427 155.974 160.054 157.465 138.31 311.237 1.4009 97.6789 332.163 -97.6626 138.279 330.553 -99.9208 173.372 337.086 -82.3185 197.932 338.065 -45.4972 121.13 356.789 -2.42281 18.2117 14.3532 15.3294 
144.934 164.69 163.165 161.822 164.849 131.767 159.19 155.481 159.61 156.375 138.121 310.845 0.882287 97.9271 330.546 -97.349 138.97 329.604 -99.7713 174.11 336.67 -82.3269 198.317 337.552 -45.4984 121.77 356.47 -2.64572 17.9748 14.4401 15.709 
143.072 165.231 161.979 160.743 164.996 131.958 159.062 154.657 158.963 155.102 137.915 309.51 -0.464883 98.5614 329.044 -97.6541 140.257 328.713 -99.9954 175.362 336.232 -82.6017 198.702 336.275 -45.6793 122.564 355.263 -3.19533 17.5069 14.5387 16.2789 
143.296 166.145 161.505 160.678 165.481 132.328 159.639 154.689 158.823 154.847 138.388 308.952 -1.41564 99.1673 329.062 -98.3565 141.251 329.18 -100.455 176.315 336.767 -82.8809 199.18 336.126 -45.8642 122.881 354.605 -3.42154 17.2698 14.5465 16.5437 
143.577 166.743 161.127 160.591 165.448 132.49 160.903 155.5 159.324 155.57 138.698 308.602 -2.17898 99.9259 329.653 -99.0072 142.319 329.97 -100.94 177.269 337.403 -83.2153 199.91 336.382 -46.1912 123.286 354.571 -3.58329 17.1071 14.415 16.6955 
144.574 166.817 161.106 160.733 165.816 132.911 160.903 155.078 158.935 155.52 139.165 308.706 -3.09206 100.659 330.663 -99.6601 143.108 330.576 -101.284 178.064 338.045 -83.4837 200.639 336.667 -46.4544 123.801 354.614 -3.78791 17.0767 14.4678 16.7175 
145.368 166.855 161.829 161.135 165.83 133.013 161.232 155.323 159.302 156.279 139.659 309.061 -3.49883 101.395 331.328 -99.898 143.649 330.857 -101.454 178.696 338.545 -83.8548 201.419 337.123 -46.9157 124.405 355.254 -3.9159 17.0576 14.5294 16.5148 
145.978 166.698 162.564 161.53 166.418 133.548 161.23 155.572 159.564 156.951 140.165 309.106 -3.71179 101.831 331.449 -100.025 143.84 330.921 -101.802 179.122 338.954 -84.2576 202.115 337.558 -47.3622 124.909 355.328 -3.97154 17.1072 14.7445 16.2896 
146.599 166.407 162.666 161.809 166.766 133.817 160.883 155.683 159.715 157.229 140.871 309.393 -3.48694 102.19 331.549 -99.9499 144.1 331.169 -101.999 179.469 339.266 -84.5062 202.652 338.017 -47.674 125.445 355.608 -4.0069 17.1213 14.7881 16.1985 
146.882 166.27 163.751 162.383 167.129 133.838 160.522 155.759 159.779 157.144 141.725 309.729 -3.01539 102.731 331.133 -99.681 144.456 330.778 -101.935 179.827 338.977 -84.5737 202.99 338.061 -47.8258 126.016 355.847 -3.98539 17.0021 14.7692 16.0351 
146.451 166.463 164.267 162.894 167.494 133.699 160.358 156.049 159.993 157.101 142.247 309.879 -2.52941 103.182 330.15 -99.2367 144.869 330.188 -101.782 180.221 338.408 -84.504 203.369 338.039 -47.8869 126.551 355.906 -3.95479 16.8868 14.6855 16.0021 
145.68 166.409 164.49 163.052 167.801 133.521 159.945 156.393 160.251 156.925 142.406 309.768 -2.15471 103.437 328.903 -98.6489 145.091 329.642 -101.613 180.393 337.802 -84.3557 203.476 337.705 -47.7519 126.913 355.724 -3.86966 16.8289 14.5977 16.0045 
144.707 166.693 164.432 163.061 167.999 133.268 159.879 156.832 160.444 156.5 142.513 309.498 -1.91174 103.763 327.673 -98.2567 145.593 329.182 -101.49 180.72 337.101 -84.1337 203.506 337.11 -47.5184 127.266 355.32 -3.83739 16.667 14.4275 16.1917 
143.811 166.631 164.051 162.675 168.124 133.136 159.82 157.1 160.466 155.921 142.422 308.902 -1.92945 103.981 326.893 -98.0551 146.148 328.906 -101.389 181.04 336.459 -83.865 203.389 336.316 -47.2334 127.515 354.758 -3.8464 16.4503 14.2197 16.5111 
143.587 166.844 163.633 162.443 167.996 133.174 159.798 156.974 160.195 155.122 142.617 308.591 -2.2115 104.368 326.393 -98.0148 146.822 328.582 -101.211 181.494 335.822 -83.5047 203.357 335.553 -46.8498 127.752 354.339 -3.84312 16.2187 14.054 16.7554 
143.388 166.758 163.06 162.044 167.882 133.375 159.698 157.089 160.208 154.66 142.576 307.907 -2.46568 104.742 326.207 -98.047 147.558 328.821 -101.195 182.011 335.711 -83.3163 203.506 335.107 -46.5659 127.992 353.848 -3.84581 16.1099 13.883 17.0744 
143.331 167.395 163.204 162.065 167.986 133.588 160.288 157.837 160.708 154.606 142.826 307.506 -2.62837 105.061 326.181 -98.2782 148.52 329.537 -101.341 182.807 336.152 -83.1899 203.997 335.221 -46.2755 128.226 353.367 -3.78538 16.0817 13.7718 17.6005 
143.69 168.099 163.052 162.124 168.168 133.671 160.82 158.28 160.91 154.799 142.823 307.404 -2.82268 105.329 326.688 -98.6628 149.153 330.245 -101.554 183.421 336.577 -83.1608 204.572 335.429 -46.1181 128.514 353.285 -3.74777 16.1691 13.7442 17.8572 
143.931 168.496 163.295 161.926 168.315 133.972 161.377 159.099 161.307 155.263 143.196 307.126 -3.07908 106.142 327.59 -99.1882 150.419 331.759 -101.927 184.577 337.756 -83.1714 205.705 336.107 -45.955 129.046 353.056 -3.69046 16.3154 13.6987 18.2023 
144.72 168.551 163.717 162.429 168.415 134.092 161.596 158.712 161.337 155.968 143.76 307.312 -3.05093 106.684 328.942 -99.6741 150.768 332.144 -101.993 184.978 338.213 -83.2454 206.375 336.571 -46.0576 129.378 353.304 -3.68779 16.447 13.7745 17.9436 
145.241 168.157 163.929 162.56 168.307 134.237 161.639 158.534 161.307 156.391 144.052 307.377 -2.824 107.048 330.091 -99.8807 150.932 332.628 -102.075 185.206 338.597 -83.34 206.849 336.889 -46.1405 129.689 353.579 -3.61405 16.5676 13.8163 17.7337 
145.553 167.773 164.261 162.553 168.169 134.191 161.595 158.452 161.461 156.926 144.378 307.283 -2.49588 107.347 330.711 -99.9667 150.984 332.811 -102.191 185.407 338.955 -83.5237 207.392 337.308 -46.3474 130.006 353.706 -3.61029 16.7295 13.9389 17.5155 
145.821 167.076 165.412 162.799 168.327 133.966 161.28 158.013 161.428 157.334 144.803 307.366 -1.95393 107.571 331.415 -99.9902 150.861 332.656 -102.132 185.434 339.139 -83.6338 207.788 337.6 -46.4866 130.266 353.912 -3.56452 16.9196 14.096 17.223 
145.85 166.278 165.547 162.808 168.406 133.82 160.891 157.683 161.581 157.773 144.881 307.29 -1.30085 107.786 331.527 -99.7779 150.67 332.381 -102.076 185.541 339.471 -83.7239 208.28 338.08 -46.6137 130.521 354.129 -3.47331 17.11 14.397 16.8989 
145.904 165.099 165.642 163.036 168.464 133.538 159.8 156.87 161.448 157.89 145.01 307.587 -0.599731 107.95 330.961 -99.1742 150.409 331.728 -101.762 185.581 339.43 -83.6602 208.657 338.307 -46.64 130.838 354.49 -3.33882 17.2616 14.7147 16.5902 
145.507 164.001 165.323 162.972 168.512 133.201 159.022 156.959 161.604 158.035 144.857 307.666 0.0502294 108.024 330.256 -98.5361 150.24 331.519 -101.646 185.555 339.379 -83.6258 208.847 338.405 -46.6397 131.06 354.588 -3.19811 17.3637 14.8495 16.4419 
145.119 163.228 164.741 163 168.497 132.801 158.28 156.562 161.407 157.863 144.85 307.988 0.820838 108.097 329.64 -97.841 150.171 331.048 -101.279 185.624 339.118 -83.422 209.046 338.449 -46.5584 131.385 354.862 -3.02215 17.3838 14.9881 16.3808 
144.682 162.622 164.137 163.027 168.413 132.554 157.633 156.164 161.073 157.433 145.039 308.359 1.42942 108.201 328.978 -97.1055 150.214 330.454 -100.811 185.686 338.585 -83.1139 209.066 338.311 -46.3932 131.741 355.103 -2.82206 17.2908 15.0118 16.392 
142.669 161.09 165.231 161.907 167.952 132.027 156.106 155.325 162.856 156.348 144.324 308.539 2.42366 108.905 328.054 -95.9285 150.538 329.608 -99.973 185.841 338.012 -82.38 208.998 337.486 -45.7987 132.142 355.54 -2.70362 17.1865 15.0127 16.1767 
141.496 160.287 166.054 160.045 166.783 132.117 154.875 154.692 165.012 155.146 144.159 308.696 2.81988 109.786 327.234 -95.1372 151.072 328.964 -99.334 186.067 337.533 -81.734 208.939 336.653 -45.2951 132.536 355.943 -2.70874 17.051 14.8971 15.9508 
140.377 158.402 165.211 157.493 165.412 132.234 153.004 153.46 166.987 153.986 143.811 308.936 2.69123 110.559 326.232 -94.3173 151.375 328.073 -98.6515 186.169 337.034 -81.1447 208.92 335.822 -44.8451 132.901 356.31 -2.83228 17.0604 14.9503 15.6733 
139.126 159.51 164.347 158.163 165.302 131.962 153.132 153.363 165.09 153.573 143.246 308.726 2.38016 110.143 325.575 -94.1386 151.273 327.636 -98.5375 186.131 336.457 -81.0823 208.832 335.42 -44.735 133.088 356.109 -2.92647 17.0986 14.9952 16.0423 
138.015 160.598 163.048 158.717 165.522 131.817 153.239 152.783 163.214 153.192 142.842 308.695 2.01773 109.837 324.949 -94.0756 151.14 327.162 -98.3523 186.119 335.911 -81.0035 208.793 335.04 -44.5777 133.249 355.947 -2.99695 17.1744 15.1064 16.2914 
137.311 161.433 161.895 158.715 165.512 131.875 153.225 152.412 161.539 152.87 142.684 308.721 1.53465 109.708 324.269 -94.0138 151.2 326.796 -98.206 186.206 335.448 -80.9057 208.884 334.841 -44.4471 133.432 355.871 -3.06449 17.2376 15.1144 16.533 
137.266 162.926 161.127 158.811 165.661 132.167 153.841 152.207 160.103 152.363 142.726 308.873 0.796113 109.854 324.125 -94.3395 151.598 326.603 -98.1269 186.515 334.986 -80.795 209.029 334.608 -44.3106 133.733 355.966 -3.16019 17.1782 14.9791 16.7081 
137.613 163.621 160.213 158.636 165.767 132.588 154.215 151.973 158.858 151.967 142.612 308.847 0.0951874 109.886 324.227 -94.5593 151.956 326.576 -98.0337 186.744 334.649 -80.6561 209.139 334.392 -44.1622 133.982 356.027 -3.20719 17.1415 14.8213 16.9456 
138.179 164.581 159.637 158.675 165.854 132.872 154.863 151.93 158.088 152.02 142.853 308.819 -0.64791 110.126 324.402 -94.9649 152.529 326.8 -98.0734 187.225 334.711 -80.6241 209.519 334.496 -44.0883 134.222 355.959 -3.26 17.1301 14.726 17.1806 
139.09 165.143 159.22 158.685 166.005 133.198 155.409 151.893 157.461 152.016 143.306 309.031 -1.44083 110.483 324.717 -95.2902 153.114 327.115 -98.085 187.751 334.955 -80.5636 209.955 334.839 -44.0053 134.537 356.09 -3.29732 17.1103 14.6658 17.3293 
139.547 165.531 158.841 158.557 166.304 133.383 155.857 151.915 157.087 151.972 143.512 309.006 -2.2387 110.807 325.132 -95.7443 153.772 327.538 -98.2187 188.295 335.183 -80.613 210.251 334.822 -43.9291 134.796 355.994 -3.40711 17.0578 14.5614 17.5676 
140.063 165.733 158.571 158.685 166.65 133.699 156.324 152.109 157.013 152.057 143.678 308.742 -2.9812 111.192 325.792 -96.2617 154.585 328.213 -98.4243 189.021 335.666 -80.671 210.685 334.933 -43.7885 134.996 355.763 -3.46978 17.0231 14.4884 17.873 
140.654 165.971 158.742 158.944 167.047 134.001 156.811 152.672 157.28 152.484 143.943 308.553 -3.41281 111.797 326.526 -96.6223 155.458 328.986 -98.6215 189.779 336.309 -80.6958 211.246 335.311 -43.6611 135.239 355.664 -3.40418 16.9924 14.3768 18.0225 
141.4 165.945 158.925 158.979 167.411 134.136 157.259 153.333 157.463 152.996 144.321 308.565 -3.61053 112.439 327.703 -97.0754 156.546 330.341 -98.8719 190.647 337.354 -80.6408 211.973 336.021 -43.4948 135.533 355.741 -3.32563 17.0069 14.2123 18.3306 
141.563 166.151 159.529 158.858 167.8 134.008 158.04 154.482 157.998 153.789 144.434 308.331 -3.33417 113.079 328.839 -97.4278 157.541 331.678 -99.1574 191.447 338.32 -80.5045 212.725 336.725 -43.308 135.793 355.659 -3.17831 17.0534 14.0663 18.5506 
141.488 166.327 161.239 160.712 168.639 133.737 159.382 156.906 159.42 154.655 144.648 308.281 -2.68544 114.011 331.006 -98.106 159.385 334.643 -99.8545 192.722 340.593 -80.3201 213.991 338.085 -42.9923 136.25 355.767 -3.00595 17.2529 13.738 19.1878 
141.235 165.98 162.291 162.547 169.288 133.228 159.847 158.304 160.913 155.695 144.506 308.135 -1.68833 114.477 332.008 -98.2171 159.833 335.995 -100.242 193.205 341.772 -80.3429 214.729 338.882 -42.8546 136.472 355.825 -2.78517 17.4946 13.793 19.1281 
140.886 165.511 162.934 164.801 170.212 132.643 159.791 159.028 162.477 156.667 144.356 308.07 -0.829299 114.948 332.727 -98.2886 160.188 336.971 -100.462 193.676 342.863 -80.4672 215.293 339.556 -42.8093 136.68 355.952 -2.70202 17.6465 13.9184 19.0298 
140.719 164.984 163.627 165.538 171.137 132.378 159.902 159.913 163.345 157.812 144.204 308.104 -0.0608809 115.3 333.374 -98.2764 160.504 338.04 -100.637 194.046 343.674 -80.4508 215.731 340.289 -42.7419 136.839 356.144 -2.54361 17.6846 13.9455 19.008 
140.26 164.191 164.253 167.983 171.773 132.324 159.64 160.754 165.742 158.828 143.905 307.933 0.445147 115.593 333.592 -98.1731 160.794 338.91 -100.832 194.556 345.061 -80.7093 216.119 340.923 -42.7002 137.003 356.256 -2.48988 17.7756 14.1679 19.0703 
139.58 163.195 164.639 170.492 172.466 132.279 159.117 161.052 167.495 159.595 143.608 307.929 0.919971 115.669 333.593 -97.8793 160.726 339.387 -100.929 194.871 346.074 -80.9365 216.3 341.406 -42.754 137.156 356.429 -2.41629 17.7643 14.499 19.0561 
138.796 162.181 164.743 171.558 173 132.278 158.149 160.866 168.743 160.159 143.296 307.883 1.18349 115.694 333.115 -97.4831 160.556 339.407 -100.928 195.114 346.717 -81.0804 216.476 341.777 -42.8116 137.308 356.547 -2.40205 17.7477 14.8886 19.0574 
137.714 160.895 164.69 171.606 173.26 132.173 158.187 161.201 169.868 160.861 143.076 307.837 1.59275 115.869 332.814 -97.1841 160.563 339.348 -100.926 195.378 346.928 -81.2021 216.6 341.897 -42.847 137.326 356.867 -2.39717 17.7002 15.0945 19.0015 
136.928 160.377 164.671 170.878 173.394 132.215 157.961 160.895 170.37 160.82 142.798 307.803 1.77892 116.03 332.777 -97.066 160.469 339.357 -100.9 195.34 347.124 -81.2867 216.412 341.837 -42.8526 137.374 356.949 -2.36919 17.6368 15.1753 18.8586 
