144.456 163.895 161.376 163.058 162.977 133.48 147.529 148.503 147.185 138.584 -10.5875 307.222 9.81933 -34.6992 321.929 -73.6012 -0.460796 309.281 -81.3176 26.2661 297.102 -64.7993 45.7713 297.413 -35.7016 5.83494 352.692 9.75614 8.55576 10.7411 12.5794 
145.062 164.631 161.726 163.33 163.686 132.159 148.365 149.457 148.166 139.965 -12.543 307.144 10.3273 -36.1629 321.898 -73.9476 -2.19436 308.995 -81.6903 24.5189 296.512 -65.2228 44.2125 296.529 -36.3228 4.35931 352.013 9.82383 8.41354 10.7166 12.3814 
144.32 164.044 162.203 162.646 163.875 131.245 149.385 151.179 148.913 141.133 -12.4492 306.543 11.0605 -38.1553 322.037 -74.1588 -4.37915 308.667 -82.6792 22.3617 295.562 -65.9213 42.7191 294.878 -36.8244 2.98703 350.75 10.2126 8.74233 10.8592 12.2823 
145.821 164.629 163.138 163.172 164.454 131.804 150.115 152.486 149.853 142.685 -12.4526 304.71 12.2698 -39.8097 321.843 -74.4142 -6.06931 308.419 -83.5622 20.9088 295.007 -66.6963 41.9458 294.112 -37.3105 1.78632 350.507 10.1293 9.29569 11.0882 12.2133 
146.942 165.866 164.599 164.425 165.25 132.278 151.443 153.938 151.23 144.659 -13.8049 304.919 12.4607 -40.9974 321.793 -74.5759 -7.3288 308.328 -84.0702 19.7813 294.947 -67.2324 41.2806 294.272 -37.7886 0.75532 351.098 10.1286 9.44956 11.0815 12.0634 
143.19 167.285 166.088 165.422 165.921 130.898 153.476 156.219 153.264 146.928 -15.9221 306.916 12.4751 -41.8185 321.256 -74.8783 -8.23232 307.818 -84.6331 18.9576 294.531 -67.7808 40.6248 293.888 -38.1335 -0.163304 351.072 10.2726 9.53574 10.9845 11.8575 
140.657 167.733 166.543 165.711 165.929 130.693 154.611 157.395 154.43 148.165 -19.7347 307.982 12.3895 -42.6164 320.645 -75.3561 -9.04751 306.515 -85.0212 17.8769 293.053 -68.014 39.6335 292.194 -37.9471 -1.14941 350.173 10.3669 9.80379 10.8775 11.9152 
138.83 167.217 166.094 165.341 165.226 130.578 154.848 157.623 154.577 148.128 -20.6491 307.276 12.6999 -43.6689 320.555 -75.8288 -9.78674 305.76 -85.4934 16.8849 291.831 -68.3885 38.6224 290.508 -37.8726 -2.07881 348.88 10.3377 10.2233 11.0222 12.3389 
138.971 166.133 164.838 164.598 164.008 130.445 154.116 156.869 153.945 147.159 -20.527 306.289 12.431 -44.8283 321.088 -76.2315 -10.6858 305.965 -86.0934 15.8384 291.629 -69.1656 37.4936 289.673 -38.3712 -3.05101 348.041 9.97901 10.5718 11.0877 12.6836 
139.492 165.47 164.089 164.171 163.273 130.733 153.733 156.295 153.579 146.607 -21.7606 305.172 12.5871 -45.7833 321.142 -76.6605 -11.4981 305.766 -86.6194 14.9997 291.253 -69.7518 36.4669 289.072 -38.7123 -3.91659 347.65 9.58163 10.8126 11.1953 12.8792 
139.495 165.446 163.757 164.097 163.012 130.939 153.79 155.976 153.608 146.677 -23.5965 305.684 12.2403 -46.7578 320.833 -76.8018 -12.3173 305.516 -86.801 14.3719 291.282 -70.0937 35.8124 289.328 -39.0758 -4.62482 348.027 9.23681 10.7958 11.1332 12.9502 
138.356 165.674 163.914 164.105 162.754 131.026 154.355 156.175 153.952 147.15 -26.16 306.438 12.0809 -47.5756 319.694 -76.8299 -13.0873 304.382 -86.7547 13.8361 290.559 -70.0814 35.3365 289.038 -39.1541 -5.24725 348.028 8.98433 10.7052 11.057 12.936 
138.28 165.801 164.124 163.966 162.578 131.939 154.681 156.273 154.142 147.703 -28.7678 306.774 11.3433 -48.3842 318.471 -76.9711 -13.8455 303.076 -86.7726 13.1718 289.671 -70.0896 34.817 288.659 -39.3849 -5.94281 347.776 8.67249 10.4812 10.9211 12.9541 
139.562 165.38 164.23 163.666 162.335 133.731 154.099 156.107 154.079 148.129 -30.1985 305.644 10.3408 -49.2148 317.302 -77.0997 -14.5365 301.772 -86.9116 12.4086 288.579 -70.224 34.2161 287.743 -39.7134 -6.63071 346.992 8.3043 10.3537 10.7617 13.0738 
140.134 164.369 163.702 162.957 161.495 135.165 153.007 155.532 153.352 147.197 -30.4294 303.921 9.78215 -49.9363 316.844 -77.3244 -14.9689 301.283 -87.2089 11.7481 287.782 -70.272 33.3184 286.835 -39.6348 -7.27547 346.112 7.96549 10.3983 10.9371 13.3375 
140.203 163.36 163.063 162.16 160.211 134.547 152.216 155.666 153.283 146.268 -29.5833 301.427 9.66146 -51.7862 316.419 -77.9725 -16.7302 301.076 -88.3952 9.8723 287.056 -71.6332 31.0654 285.21 -40.5113 -8.72707 344.295 7.29684 10.7082 11.011 13.4325 
141.99 163.547 163.092 162.008 160.032 132.975 151.986 155.661 153.233 145.858 -28.7071 300.646 10.1303 -52.5307 316.822 -78.2339 -17.4784 301.605 -88.9417 9.03908 287.551 -72.4273 30.0614 285.433 -41.3202 -9.22692 344.054 7.0209 10.5326 10.8401 13.4423 
143.229 163.783 163.041 162.051 160.023 132.349 152.189 155.919 153.549 145.722 -28.5057 300.099 10.3496 -53.5012 316.681 -78.3421 -18.5169 301.727 -89.3061 8.00979 287.829 -73.1978 28.9585 285.571 -42.0976 -9.90042 343.867 6.70108 10.3889 10.5805 13.3489 
143.646 163.76 162.921 162.045 159.668 132.093 152.077 155.786 153.412 144.972 -28.3915 299.604 10.2851 -54.3234 316.315 -78.3522 -19.3988 301.653 -89.4802 7.06077 287.86 -73.5734 27.8694 285.538 -42.4489 -10.5711 343.642 6.42883 10.3696 10.4628 13.2493 
143.738 163.279 162.385 161.495 159.121 131.799 151.43 155.189 152.752 144.014 -28.4626 299.299 9.81848 -55.038 316.533 -78.325 -20.1164 302.196 -89.6682 6.19979 288.45 -74.0016 26.9326 285.991 -43.1218 -11.2422 343.458 6.19104 10.2209 10.3525 13.2268 
144.278 163.114 162.181 161.056 158.823 131.529 151.243 155.011 152.499 143.618 -28.0073 298.515 9.70307 -55.5064 316.01 -78.136 -20.7152 301.959 -89.5952 5.57509 288.614 -74.2078 26.419 286.254 -43.6646 -11.7316 343.024 6.04266 9.99174 10.1037 13.1043 
144.42 162.706 161.8 160.448 158.262 130.887 150.937 154.788 152.2 143.022 -27.9486 297.964 9.39561 -55.8245 315.262 -78.0236 -21.1635 301.396 -89.5338 5.03535 288.462 -74.3678 25.8712 286.201 -44.0875 -12.134 342.374 5.80213 9.75062 9.82516 13.0034 
143.626 162.354 161.33 159.928 157.846 130.684 150.719 154.688 151.931 142.396 -28.4728 297.522 9.25696 -56.1361 315.188 -78.2001 -21.3348 301.263 -89.7016 4.6875 288.267 -74.5194 25.4594 285.785 -44.1654 -12.4712 341.677 5.66153 9.85202 9.81546 13.1681 
142.382 162.075 160.901 159.542 157.655 130.132 150.465 154.58 151.785 141.999 -28.8375 297.424 9.11374 -56.412 315.239 -78.5618 -21.4429 301.151 -90.0441 4.53375 288.049 -74.8677 25.3033 285.204 -44.3547 -12.6759 340.987 5.4223 10.0488 9.80908 13.375 
142.414 161.983 160.725 159.396 157.772 130.185 150.266 154.518 151.811 141.994 -28.9138 296.869 8.65937 -56.65 314.87 -78.817 -21.5548 300.755 -90.3243 4.48392 287.718 -75.2202 25.351 284.625 -44.6518 -12.7303 340.311 5.17032 10.1686 9.72265 13.5005 
143.076 161.965 160.691 159.406 158.177 130.363 149.927 154.357 151.815 142.193 -28.1827 296.23 8.1103 -56.8035 314.576 -79.0298 -21.5912 300.586 -90.6259 4.55262 287.683 -75.6519 25.5791 284.385 -45.1363 -12.7167 339.856 4.90793 10.2128 9.59254 13.5758 
143.95 161.837 160.652 159.514 158.59 130.788 149.473 154.097 151.783 142.297 -27.7605 295.452 7.88988 -56.8386 314.142 -79.1393 -21.5291 300.278 -90.8032 4.7103 287.548 -75.9238 25.8803 284.089 -45.3562 -12.6768 339.586 4.64788 10.3592 9.46735 13.6204 
144.676 161.939 160.84 159.711 158.982 131.217 149.308 154.157 151.941 142.456 -27.2819 294.897 7.85528 -56.598 313.651 -79.1974 -21.1594 299.937 -90.8701 5.12283 287.4 -76.0033 26.3185 283.89 -45.3171 -12.5551 339.466 4.48565 10.4959 9.37789 13.6559 
145.401 161.836 161.037 159.794 159.168 132.013 148.985 154.172 151.895 142.362 -26.4903 294.097 7.69064 -56.1651 312.657 -79.1129 -20.5949 299.399 -90.9267 5.86665 287.157 -76.0651 27.1106 283.7 -45.2407 -12.2419 339.288 4.25932 10.6764 9.34209 13.6309 
146.146 161.662 161.203 159.976 159.307 132.467 148.464 153.919 151.67 142.251 -25.7735 293.571 7.49915 -55.7063 311.872 -79.1226 -19.9767 298.81 -91.0536 6.69415 286.722 -76.1671 28.0098 283.302 -45.1618 -11.8043 339.184 3.95098 10.884 9.35753 13.6939 
146.743 161.696 161.395 160.122 159.094 132.419 148.406 154.096 151.824 142.31 -25.0848 293.481 7.58037 -55.0623 310.913 -79.2546 -19.2281 297.971 -91.2453 7.65472 286.053 -76.2537 28.9469 282.678 -44.8936 -11.1916 339.061 3.70978 11.1152 9.37457 13.7087 
147.285 161.706 161.398 160.101 158.966 132.281 148.233 154.278 151.971 142.67 -24.1435 293.395 7.03543 -54.2737 309.88 -79.6617 -18.4066 297.049 -91.7504 8.58441 285.296 -76.697 29.9551 281.936 -45.1864 -10.4032 338.645 3.24755 11.1621 9.28102 13.6917 
147.351 161.798 161.489 160.108 159.017 132.155 148.229 154.127 151.772 142.795 -23.2207 293.567 6.40299 -53.3126 308.898 -80.0465 -17.4663 296.136 -92.0037 9.66769 284.625 -76.8202 31.2364 281.512 -45.3258 -9.57135 338.427 2.82888 11.1791 9.26113 13.6305 
147.773 161.213 160.377 159.645 158.836 132.256 147.554 152.934 150.839 142.005 -22.2315 293.232 5.7235 -52.147 307.727 -80.1892 -16.3262 294.872 -91.7967 10.9583 283.702 -76.6266 32.6661 280.991 -45.2827 -8.56174 338.152 2.20674 11.1604 9.22458 13.6322 
147.407 160.308 158.984 159.074 158.488 131.899 146.503 151.473 149.606 140.923 -21.3327 292.934 5.29558 -50.9845 306.546 -79.9787 -15.2788 293.929 -91.4152 12.3113 283.087 -76.3697 34.2209 280.8 -45.318 -7.47411 337.936 1.58125 11.1533 9.29769 13.5665 
146.995 160.028 158.43 159.072 158.765 132.101 145.829 150.446 148.759 140.789 -20.6638 292.64 4.89125 -49.97 306.084 -79.86 -14.4913 293.539 -91.2209 13.4226 282.743 -76.3117 35.7861 280.78 -45.7083 -6.34579 337.967 1.11943 11.1544 9.45262 13.4383 
146.39 160.996 159.147 159.691 159.135 131.728 146.562 151.278 149.715 142.318 -20.5094 292.697 4.97208 -49.0404 305.789 -80.2863 -13.5404 292.96 -91.6796 14.5575 282.128 -76.8194 37.2473 280.221 -46.3503 -5.10637 337.729 0.771024 11.1699 9.48091 13.5012 
148.58 161.969 159.939 160.064 159.233 131.626 147.321 152.003 149.989 143.069 -18.7546 291.659 5.0071 -47.7625 305.294 -80.7973 -12.1157 292.231 -92.0947 15.8979 281.26 -76.9661 38.7411 279.732 -46.7532 -3.74512 337.42 0.327435 10.9875 9.58002 13.6231 
149.621 161.737 159.745 159.86 159.098 131.392 146.792 151.379 149.353 142.336 -17.1186 291.092 3.93939 -46.6485 304.976 -81.1709 -10.6459 291.842 -92.4687 17.4012 280.85 -77.2799 40.2421 279.326 -47.0986 -2.40839 336.956 -0.402727 11.0465 9.64203 13.9861 
149.482 161.314 160.071 159.913 159.19 131.502 146.014 150.252 148.496 141.941 -15.3942 290.389 2.90631 -45.1292 304.583 -81.2221 -9.40019 291.795 -92.5941 18.7598 281.008 -77.5798 42.0317 279.656 -47.7875 -0.944377 336.664 -0.805393 11.0803 9.61184 13.7853 
149.513 161.456 160.707 160.059 159.399 131.04 145.954 150.145 148.47 142.421 -14.2096 290.976 2.0222 -43.3913 304.233 -81.3045 -7.95989 291.545 -92.6595 20.093 280.994 -77.6537 43.6843 279.805 -48.18 0.506149 336.518 -0.853623 11.0104 9.42123 13.5242 
149.063 161.313 161.183 160.059 159.458 130.424 145.896 149.775 147.746 141.412 -12.7376 291.1 0.895777 -41.5839 303.356 -81.3975 -6.34287 290.593 -92.656 21.5789 280.213 -77.5203 45.3372 279.256 -48.2352 2.15065 335.717 -0.975122 10.98 9.31148 13.363 
148.344 161.275 161.215 160.43 159.949 131.407 144.977 148.582 146.948 140.879 -11.1213 291.269 -0.246363 -39.9623 302.437 -80.8184 -4.97355 290.108 -92.0382 23.1608 280.261 -77.1691 47.147 279.782 -48.2547 3.75058 335.931 -1.23229 10.9118 9.21311 13.1592 
147.597 161.226 161.621 160.973 160.601 132.549 144.191 147.926 146.718 141.115 -9.92342 292.194 -1.10845 -37.9182 301.664 -80.0925 -3.29701 289.576 -91.2523 24.7375 280.164 -76.539 48.814 280.111 -47.9165 5.46259 336.548 -1.27089 10.7656 8.95486 12.8437 
147.745 161.225 160.774 160.723 160.099 133.351 143.11 146.351 145.681 139.584 -6.97013 292.097 -1.54963 -35.2375 301.03 -80.0168 -0.750083 288.714 -90.0796 26.861 279.559 -75.3457 50.0266 279.804 -46.7479 7.15763 336.678 -1.45287 10.2812 8.7296 12.6785 
146.888 161.434 160.242 160.674 160.151 134.491 142.523 145.088 144.474 137.096 -3.68903 290.82 -1.08918 -32.933 300.579 -79.9705 1.62219 288.435 -89.2134 29.1532 279.338 -74.2935 51.3586 279.921 -45.4356 8.95018 336.611 -1.52437 10.0006 8.94428 12.6948 
145.801 161.297 159.794 160.737 160.392 134.715 141.622 144.225 143.775 136.094 -1.64544 290.926 -0.667559 -30.6438 300.374 -79.4985 3.68203 288.441 -88.3816 31.3024 279.493 -73.4934 53.1323 280.18 -44.6214 10.7742 336.638 -1.22121 9.91179 9.02657 12.4986 
145.757 161.184 159.201 160.635 160.496 135.337 140.511 143.63 143.324 135.245 1.06741 289.646 0.336794 -28.0834 299.791 -79.015 6.32366 287.982 -87.611 33.5093 278.94 -72.5346 54.7658 279.714 -43.4497 12.7367 336.292 -0.831137 9.86557 9.01908 12.5218 
146.877 161.395 159.824 161.46 161.315 136.872 140.622 144.209 143.747 137.006 2.78261 288.972 0.524909 -26.9292 299.27 -78.1107 7.40182 288.017 -87.5303 34.9295 279.137 -72.6084 57.1703 280.212 -43.9887 14.705 336.763 -0.64048 10.0631 9.11898 12.4142 
147.45 162.407 160.58 161.627 161.505 137.09 142.211 146.51 145.743 138.777 4.1824 289.935 1.37115 -25.5285 299.011 -77.178 8.62259 288.316 -87.4691 36.5642 279.83 -72.6515 59.0302 280.826 -43.9476 16.6221 337.581 0.0590689 10.1088 9.03512 12.1735 
147.481 162.46 160.037 161.462 161.788 137.285 142.101 146.189 145.61 138.98 7.05381 289.299 2.3347 -23.5863 299.24 -76.7522 10.5375 288.556 -86.721 38.2695 279.961 -71.9957 60.6766 281.035 -43.5959 18.4995 337.622 0.564175 9.85955 8.97538 12.1495 
146.59 162.624 160.322 161.873 162.47 137.28 142.752 145.793 145.697 139.714 8.67126 289.739 1.95071 -21.9251 299.977 -76.5896 12.0709 289.507 -86.4225 40.1182 281.313 -72.2978 63.0437 282.589 -44.565 20.3228 338.145 0.893462 9.62906 8.77448 12.02 
146.205 163.189 161.087 162.631 162.803 137.287 144.221 147.137 147.115 141.465 10.9023 290.53 2.63261 -20.3967 300.755 -76.2511 13.4245 290.761 -86.3296 41.8505 282.637 -72.5035 65.1791 283.994 -44.9825 22.2104 338.905 1.5945 9.56892 8.82892 11.8377 
145.473 162.903 160.866 162.516 162.443 136.979 145.689 147.868 147.498 142.229 13.2214 290.433 3.68807 -18.88 302.104 -76.6809 15.0888 291.628 -86.3544 43.5444 283.009 -72.3362 67.1729 284.416 -45.0038 24.0791 338.877 2.2491 9.56174 9.09398 11.9909 
145.225 163.182 161.054 162.584 162.35 136.669 147.303 147.986 147.499 142.784 14.2199 290.803 3.68262 -17.4839 303.328 -77.1213 16.6098 292.319 -86.2607 45.2861 283.792 -72.291 69.4757 285.613 -45.343 25.8947 339.138 2.7899 9.56821 9.17404 12.1592 
145.373 163.334 161.15 162.642 162.387 137.121 148.782 149.328 148.526 143.703 16.5102 291.371 4.89929 -15.9832 303.865 -76.781 18.1937 293.462 -86.1064 47.4571 285.373 -72.2713 72.0469 287.417 -45.2448 27.5721 339.9 3.61995 9.79839 9.34179 12.1125 
144.83 162.702 160.011 161.78 161.644 137.005 148.807 148.938 147.846 143.486 18.562 291.006 6.06631 -14.4393 304.866 -76.8356 19.9508 294.231 -85.8689 49.1737 285.911 -71.8898 74.0628 287.989 -45.0284 29.1415 339.761 4.26424 9.93148 9.46073 12.3387 
140.105 164.153 160.403 161.218 161.448 135.397 151.468 150.637 147.905 145.313 25.1415 292.036 9.30214 -12.4352 306.354 -76.4379 22.2614 296.338 -85.7577 52.36 288.303 -71.4836 79.3578 290.975 -45.117 32.2389 340.807 5.60671 11.259 9.96593 12.4909 
141.131 163.645 159.941 160.013 159.522 135.276 152.539 150.222 146.684 145.134 28.4906 292.422 10.0972 -11.3737 307.194 -76.0331 23.1648 297.073 -84.9935 53.8847 289.406 -70.5077 81.7537 293.245 -44.9447 33.4057 341.768 5.92482 11.7498 10.3886 12.4839 
140.609 164.365 159.761 159.821 160.174 134.92 153.585 151.332 147.385 146.613 30.5045 292.524 12.011 -10.5983 308.751 -76.229 24.1788 298.159 -85.1948 55.1705 290.655 -70.7363 84.2118 294.457 -45.054 34.7063 342.026 6.70322 12.7685 10.3974 12.7688 
139.796 164.51 160.042 159.661 160.224 134.933 153.768 151.298 147.472 147.257 31.8239 292.181 13.3783 -9.66975 309.834 -76.232 25.0892 298.675 -85.0835 56.4165 291.662 -70.8417 86.5233 295.413 -44.9411 35.8563 341.973 7.42745 13.7771 10.3039 12.9062 
141.701 162.977 158.841 158.741 158.693 135.696 153.37 150.54 146.999 147.01 33.2227 291.255 13.8341 -8.03659 310.38 -76.1095 26.5689 298.83 -84.4934 58.1528 292.189 -70.4087 88.4049 296.46 -44.6302 36.9826 341.835 7.79615 14.0137 10.3863 13.0182 
144.073 161.683 158.92 158.598 157.829 136.46 153.766 150.714 147.4 147.118 33.7208 291.502 14.4101 -6.56466 310.378 -75.4739 28.1033 298.772 -83.7022 59.9982 292.634 -69.7019 90.1059 297.485 -43.8662 38.1714 342.505 8.17508 14.0302 10.4818 13.1271 
145.245 159.828 158.655 158.145 157.035 137.424 154.341 150.656 147.444 147.397 34.0036 291.471 14.7059 -5.42772 311.352 -75.2873 29.5537 299.412 -83.3612 61.685 293.471 -69.3428 91.8174 298.653 -43.481 39.2723 343.063 8.50696 14.1979 10.6174 13.5124 
146.296 157.047 157.882 157.271 156.094 138.302 155.269 150.269 147.077 147.611 34.5054 290.452 15.3431 -4.48696 312.882 -75.4779 30.7019 299.997 -83.1515 63.0235 293.977 -69.0264 93.4025 299.318 -43.1942 40.2476 343.008 8.90261 14.5441 10.8154 14.0816 
146.488 155.187 157.232 156.543 155.174 138.428 155.402 149.658 146.688 147.617 35.8089 289.772 15.6647 -3.25369 314.289 -75.661 31.9729 300.732 -83.0119 64.3084 294.864 -68.9712 94.7828 300.089 -43.0629 41.1028 342.738 9.35373 14.8075 10.7625 14.4392 
146.43 153.428 156.623 155.851 153.807 138.823 154.681 148.815 146.023 146.179 37.5444 289.359 15.7292 -1.65471 314.452 -75.1804 33.6009 301.153 -82.4822 65.6866 295.649 -68.5257 95.6995 300.54 -42.3902 42.0839 342.691 9.82363 14.5403 10.5264 14.4246 
147.001 153.526 156.584 155.538 153.377 139.498 154.837 148.794 145.767 145.287 38.9069 289.281 15.9622 -0.282609 314.849 -74.6872 35.3529 301.885 -81.9757 67.2872 296.409 -67.7982 96.6755 301.137 -41.4673 43.154 343.098 10.4452 14.1002 10.5181 14.5834 
147.987 155.836 157.353 156.01 154.346 140.631 155.121 149.319 145.729 144.737 39.8228 289.591 16.0245 0.648458 315.251 -74.2221 37.0803 302.626 -81.4831 68.8716 296.642 -66.7071 97.5942 301.423 -40.3364 44.3643 343.987 11.025 13.5253 10.76 14.9697 
148.629 157.858 158.187 156.401 155.151 141.378 155.293 149.809 146.006 145.752 40.3738 290.358 16.2782 1.51362 315.916 -73.6497 38.1573 303.451 -80.9128 70.1021 297.052 -65.7245 98.8821 302.167 -39.6145 45.5152 344.98 11.7508 13.5225 11.0614 14.973 
148.965 158.299 158.326 156.652 155.523 142.024 155.015 149.695 146.572 147.116 40.9921 290.533 16.6535 2.74112 316.626 -73.0915 39.3326 303.922 -80.2321 71.4174 297.804 -65.2557 100.489 303.117 -39.1492 46.6598 345.408 12.601 13.8155 10.9506 14.9721 
148.957 159.009 158.701 157.16 155.979 142.546 154.516 149.633 147.504 148.16 42.2766 290.443 17.0026 4.28241 315.845 -72.3647 41.0117 303.317 -79.3725 73.2927 297.954 -64.7116 102.226 303.533 -38.382 47.7271 345.342 13.357 13.8693 10.7801 14.9356 
149.003 159.462 159.401 157.344 156.178 143.129 154.409 149.745 147.738 147.723 43.4305 289.929 17.1065 5.75141 314.776 -71.796 42.9094 302.781 -78.8033 75.0812 297.565 -63.9482 103.743 303.521 -37.4411 48.8298 345.183 13.774 13.8423 10.7468 15.0165 
147.93 160.232 160.154 157.948 156.765 143.542 153.417 150.017 148.694 148.443 46.6805 290.312 16.9777 9.21619 314.632 -70.6012 46.8009 303.927 -78.1753 78.8806 299.255 -63.3965 106.905 304.883 -36.391 51.4724 345.323 15.0423 13.581 10.5037 14.9007 
146.642 161.04 160.53 158.507 156.878 143.001 152.784 149.716 149.281 148.6 48.4446 290.591 16.4893 11.1724 313.357 -70.2988 48.343 303.234 -77.8354 80.367 299.552 -63.4357 107.903 304.687 -35.9162 52.386 344.894 15.3231 13.3686 10.152 14.3335 
145.943 163.14 161.244 158.858 157.42 142.892 153.661 150.067 149.61 147.743 50.5006 290.685 16.0356 13.122 312.505 -70.3861 50.2195 302.672 -77.4919 81.7218 298.857 -62.7358 108.71 303.918 -34.9319 53.4321 344.618 15.552 13.0466 9.8986 14.091 
145.373 166.249 161.385 158.712 156.639 143.099 154.543 150.635 149.56 146.671 52.0395 290.407 16.2071 15.0751 311.574 -70.151 52.2839 302.841 -77.1995 83.4927 299.064 -61.8053 109.942 304.439 -33.8926 54.5153 344.488 16.0155 12.7619 9.89726 13.9145 
145.289 169.088 161.423 158.518 156.262 143.113 154.741 150.847 149.229 145.667 53.6018 291 16.2112 17.2442 311.84 -69.8185 54.4841 303.773 -76.7002 85.2601 299.7 -60.7928 111.021 305.18 -32.8531 55.7393 344.999 16.613 12.2735 9.84829 13.779 
145.345 171.364 161.589 158.738 155.875 143.338 155.159 151.33 149.81 145.648 54.3413 291.62 16.8075 19.1127 311.686 -69.0316 56.0333 304.266 -75.9991 86.9627 300.421 -60.1055 112.338 305.837 -31.8977 56.8822 345.836 17.2374 12.0525 9.90867 13.3825 
145.387 171.962 161.43 158.852 155.372 143.339 154.843 151.268 149.915 145.535 55.3001 292.233 17.648 20.6605 311.462 -68.2463 57.1038 304.273 -75.1928 88.2873 300.861 -59.4285 113.628 306.238 -30.9394 58.0284 346.573 17.7672 12.1101 9.96517 12.9571 
144.958 172.196 161.618 159.524 155.425 143.016 154.694 151.586 150.35 144.475 57.0087 293.444 18.0917 22.2771 311.423 -67.6232 58.749 304.624 -74.6283 90.0625 301.413 -58.872 114.571 306.02 -29.4501 59.2615 347.309 18.2424 11.7636 10.0193 12.8922 
144.714 170.319 161.604 159.789 155.214 143.121 154.641 152.571 150.585 143.434 58.3567 293.944 18.6113 23.9789 311.651 -67.4489 60.87 305.485 -74.7159 92.0812 301.926 -58.3597 115.784 306.013 -28.0945 60.5086 347.862 18.5548 11.5691 10.2192 13.1214 
144.917 169.022 161.085 159.618 154.447 143.326 153.922 152.757 150.469 142.286 59.6271 294.303 18.9265 26.1072 311.99 -67.074 63.3824 306.479 -74.4919 94.4507 302.786 -57.8045 117.26 306.588 -26.9686 61.8906 348.369 18.8999 11.3106 10.3383 13.3659 
145.821 168.291 161.091 159.77 154.586 143.493 152.949 152.525 150.666 143.146 60.7455 295.304 19.086 27.4189 312.194 -66.2775 64.4478 307.223 -74.1052 95.8592 303.851 -57.668 118.891 307.613 -26.824 63.3341 349.5 19.1291 11.4574 10.4133 13.2099 
146.24 167.677 161.528 159.944 154.895 143.619 152.675 152.562 150.818 143.791 62.1222 296.022 18.7963 28.6114 312.357 -66.0049 65.3006 307.494 -74.0211 96.9833 304.237 -57.7071 120.326 307.978 -26.8323 64.7804 350.143 19.2187 11.641 10.4771 12.9745 
146.246 166.748 162.19 160.341 155.495 143.661 153.405 153.546 151.169 143.664 64.2206 296.801 18.7682 30.5388 313.554 -66.5479 67.4553 308.698 -74.4222 99.0724 304.979 -57.5947 121.858 308.253 -26.1625 66.3179 350.819 19.346 11.6067 10.6531 13.0777 
146.06 166.036 162.612 160.519 155.806 143.414 153.525 154.214 151.73 144.385 66.3302 297.403 18.9826 32.9914 313.872 -66.5287 70.0828 309.542 -74.5078 101.681 306.135 -57.5663 124.131 309.458 -26.0159 67.9271 351.274 19.5522 11.4882 10.6421 13.1509 
145.958 167.065 162.635 160.684 156.226 142.867 153.64 154.222 152.172 145.729 68.2177 298.529 19.0669 34.4567 315.248 -66.6379 71.4425 310.736 -74.7244 103.295 307.503 -58.0236 126.155 310.754 -26.5463 69.5259 352.114 19.6325 11.6816 10.657 13.0949 
145.794 166.348 162.489 160.693 156.582 142.694 153.963 154.243 152.042 145.952 69.3744 299.533 19.0643 35.9428 316.602 -67.0907 72.737 311.779 -75.0274 104.791 308.374 -58.2916 127.955 311.489 -26.7419 71.3171 352.97 19.5492 11.9256 10.7871 12.9482 
145.525 165.853 162.755 160.854 156.538 142.654 155.283 155.342 152.767 145.572 70.9519 299.7 19.2565 37.9524 317.613 -68.0369 75.0978 312.925 -75.832 107.378 309.375 -58.7645 129.844 311.619 -26.3158 72.9867 353.189 19.425 12.0813 11.0592 13.125 
