143.373 162.868 161.029 163.904 156.237 136.534 156.025 155.479 153.426 148.872 107.11 309.036 30.8007 73.2465 343.483 -63.5319 113.311 336.354 -68.5555 142.733 328.29 -48.7927 166.903 327.031 -17.21 102.764 360.248 30.7703 14.6596 11.1704 15.1916 
142.998 162.233 160.729 163.096 155.401 137.092 156.099 155.605 153.496 148.825 106.665 309.736 30.9865 73.6567 344.028 -62.7082 114.11 337.04 -67.6993 143.404 328.975 -47.9577 167.256 327.672 -16.3561 103.132 361.256 31.406 14.4468 11.1059 15.4667 
143.286 162.201 160.315 162.058 154.642 138.297 156.165 155.629 153.22 148.533 105.447 309.936 30.9075 73.9249 344.284 -61.8949 114.629 337.449 -66.8217 143.895 329.225 -46.9963 167.493 327.876 -15.3748 103.434 361.978 32.0924 14.2943 11.183 15.643 
143.514 162.503 160.29 161.302 155.034 139.761 155.942 155.727 152.772 148.715 104.099 310.48 31.0199 74.2688 344.444 -61.0386 115.303 338.133 -66.0925 144.656 330.041 -46.0752 168.438 328.892 -14.3341 103.932 362.717 32.9499 14.5003 11.2771 15.8302 
143.566 163.474 160.979 161.503 155.769 140.606 156.164 156.186 152.721 149.886 103.243 311.283 31.6024 74.6364 344.933 -60.3214 115.87 338.83 -65.485 145.209 330.584 -45.2319 169.427 329.971 -13.6091 104.429 363.526 33.8709 14.7067 11.3707 15.9183 
144.426 164.247 162.041 163.168 157.08 141.063 156.341 156.879 153.45 150.455 104.061 312.407 32.3203 75.2877 346.085 -59.5803 116.937 340.038 -64.8186 145.935 331.443 -44.3191 169.754 330.65 -12.5508 104.92 364.521 34.9215 14.4151 11.3004 16.1612 
144.893 164.527 161.89 163.793 157.33 141.525 155.89 156.502 153.506 150.033 104.523 313.145 32.636 75.9935 347.095 -58.8666 118.062 340.676 -63.8814 146.868 332.042 -43.2755 170.03 330.816 -11.236 105.421 365.281 35.78 14.1026 11.2155 16.5118 
145.473 164.16 161.031 163.263 157.36 142.276 154.952 155.808 153.252 149.024 103.4 314.036 32.5401 76.2338 347.864 -57.9277 118.675 341.12 -62.8395 147.417 332.301 -42.2348 169.665 330.191 -9.65684 105.827 366.041 36.6007 13.8361 11.2074 16.8631 
146.234 163.841 160.176 163.388 156.515 143.273 154.065 154.902 152.981 147.139 102.19 314.539 32.3083 76.688 348.325 -57.1089 119.522 341.389 -61.7029 148.337 332.788 -41.0836 169.386 329.844 -8.00956 106.164 366.6 37.3495 13.4623 11.2237 17.2289 
146.69 163.714 159.012 162.454 155.778 144.064 153.147 153.856 152.158 145.462 100.454 315.235 32.3257 76.9223 348.837 -56.1415 119.936 341.576 -60.4913 148.734 333.038 -39.8755 169.16 329.373 -6.41659 106.398 367.133 38.1671 13.4997 11.2182 17.4612 
147.42 162.864 157.124 161.064 154.662 144.92 151.586 152.315 150.963 143.424 98.0507 315.506 32.4363 77.0784 349.074 -54.9415 120.142 341.3 -59.1011 148.834 332.928 -38.5453 168.706 328.544 -4.69496 106.547 367.421 38.9953 13.6558 11.1105 17.6573 
148.726 162.379 157.217 161.098 154.521 144.921 151.865 152.098 151.787 141.279 98.0467 316.789 32.9724 77.5235 349.904 -54.0427 120.343 341.719 -57.916 149.09 333.289 -37.3094 167.818 327.906 -2.71472 106.678 368.292 40.1851 13.6276 11.0764 17.4717 
150.925 161.629 158.012 162.052 154.279 145.089 151.225 151.82 151.576 140.854 98.1654 317.067 34.1298 78.0553 350.488 -52.9783 120.12 341.932 -57.0854 148.88 333.885 -36.3607 167.71 328.068 -1.52246 106.826 368.925 41.2415 13.8982 10.9213 16.9067 
150.196 160.749 158.553 161.134 153.937 144.125 150.564 151.78 152.153 141.542 98.9302 317.261 36.1459 78.6086 350.3 -51.4754 120.006 341.822 -56.009 149.255 334.746 -35.7639 168.263 329.034 -0.793072 107.163 369.295 42.4021 13.8955 10.7765 16.3693 
149.269 160.732 159.585 162.111 155.267 142.898 150.464 152.036 153.578 142.984 100.795 318.043 38.6373 79.2695 349.183 -49.792 119.933 341.208 -54.7621 150.056 335.558 -35.2714 169.348 330.295 -0.0530276 107.641 369.937 43.6587 13.9275 10.7775 15.6748 
148.735 160.169 160.182 161.843 155.968 141.709 150.026 152 154.238 144.287 102.667 317.785 41.052 80.1287 347.847 -48.3175 120.095 340.23 -53.5935 150.537 335.696 -34.6333 170.078 330.671 0.765732 107.852 369.764 44.8244 13.9766 10.6373 15.0401 
147.953 160.694 161.099 162.035 157.263 140.568 150.556 152.578 155.201 146.117 104.17 317.711 44.0631 81.03 346.404 -47.029 120.381 339.433 -52.6126 151.273 336.176 -34.1912 171.607 331.949 1.29842 108.332 369.879 45.9813 14.1735 10.607 14.4115 
147.914 160.429 161.054 161.615 158.103 140.353 149.744 152.221 154.835 147.325 104.871 317.988 44.6694 82.0265 345.444 -45.8625 121.036 338.61 -51.5592 151.819 335.995 -33.419 172.758 332.475 1.91788 108.881 369.794 46.777 14.2942 10.4394 14.1421 
147.232 160.36 161.333 161.53 159.477 139.84 149.588 152.151 154.488 147.513 105.929 318.712 45.8007 83.6343 345.242 -44.9462 122.501 338.544 -50.4544 152.874 335.934 -32.4528 173.615 332.896 2.85962 109.555 370.048 47.7206 14.0328 10.1285 13.9566 
146.549 159.556 160.316 160.371 158.596 139.694 148.597 150.837 152.396 146.277 105.273 319.309 45.69 84.8916 344.958 -43.7498 123.33 338.001 -49.0113 153.342 335.338 -31.0291 174.41 333.143 3.8697 110.351 370.322 48.5693 13.9935 9.94784 13.7033 
146.564 159.647 160.495 160.204 158.501 139.287 148.583 150.859 152.774 147.226 106.261 318.545 47.4835 85.8893 343.662 -42.501 124.033 337.088 -47.8371 154.322 335.087 -30.1578 175.668 333.334 4.6498 110.926 369.983 49.495 14.0714 10.0403 13.4126 
145.88 160.297 160.61 159.625 158.029 138.479 148.131 150.816 152.916 147.727 107.04 318.755 48.5196 87.611 342.739 -41.5227 125.411 336.831 -46.9789 155.768 335.496 -29.4604 177.219 333.79 5.55563 111.626 369.633 50.2951 14.3154 10.0977 13.073 
145.916 160.801 160.77 159.213 158.181 138.145 147.884 151.085 153.03 148.091 106.799 318.797 49.2891 88.9474 342.549 -40.8438 126.46 336.929 -46.4101 156.724 335.44 -28.7906 178.035 333.472 6.57139 112.202 369.477 50.9519 14.4847 10.1022 12.8355 
145.267 161.953 160.876 159.307 158.354 137.808 148.121 151.088 153.151 148.842 107.116 318.995 49.6487 90.066 341.702 -40.3472 127.094 336.157 -45.8307 157.248 335.045 -28.2581 179.129 333.63 6.94788 112.859 369.143 51.4743 14.7542 10.016 12.424 
145.749 163.295 161.112 160.42 159.725 139.143 148.506 151.176 153.458 149.701 105.659 319.967 48.3658 90.9942 342.076 -40.2414 127.736 335.884 -45.5063 158.125 334.542 -27.7565 180.126 333.41 7.55978 113.626 369.359 51.9809 14.8891 10.2147 12.2051 
146.576 163.932 161.29 160.706 160.082 140.193 149.155 151.637 153.857 150.309 104.169 319.31 48.6908 91.7681 342.318 -39.9378 128.742 335.79 -44.8686 159.236 334.242 -26.9281 181.234 333.281 8.41821 114.297 369.222 52.6651 14.9067 10.3171 12.3717 
147.455 164.154 161.371 161.032 160.063 141.19 148.939 152.011 154.703 150.814 103.027 318.7 49.0201 92.4899 341.802 -39.326 129.739 335.541 -44.407 160.43 334.209 -26.4846 182.263 333.094 9.22138 115 369.038 53.1528 15.0131 10.477 12.5769 
148.27 164.182 161.436 161.605 161.475 141.783 150.124 152.354 155.147 151.281 102.722 317.905 49.407 93.3959 341.83 -39.4784 130.483 334.666 -43.8832 161.055 332.798 -25.7422 182.602 331.923 9.94205 115.764 368.831 53.511 14.7928 10.4222 12.4784 
147.606 164.899 160.055 160.938 159.48 141.706 150.116 151.442 154.143 149.817 103.482 317.704 49.4475 94.6702 342.285 -39.2819 131.712 334.591 -43.1011 161.684 332.414 -24.8322 183.094 331.771 10.5123 116.57 368.741 53.7307 14.6222 10.0812 12.5117 
146.324 165.599 159.251 160.423 158.916 141.152 150.06 151.068 153.648 149.209 105.041 318.012 49.0083 95.7081 342.971 -39.5006 132.868 334.71 -42.84 161.935 331.638 -24.2114 183.229 330.902 10.9603 117.171 368.44 53.8268 14.5559 9.62896 12.6884 
146.255 167.316 159.388 160.302 158.763 140.98 150.68 151.492 153.754 149.109 106.43 318.01 49.1739 96.4507 343.468 -39.5876 133.945 335.008 -42.7501 162.748 331.278 -23.7803 183.732 330.533 11.3366 117.736 368.299 54.0715 14.3281 9.59643 12.9541 
146.117 167.253 158.434 159.654 158.218 140.784 150.026 150.584 152.579 148.341 106.672 318.641 47.8699 97.6633 343.863 -39.6748 135.216 335.05 -42.3344 163.53 330.816 -23.0212 184.226 330.143 11.811 118.337 368.084 54.2007 14.1381 9.48246 13.0816 
145.982 165.885 157.939 159.661 158.378 140.707 149.215 149.917 151.654 147.665 107.319 320.347 46.6802 98.31 344.548 -39.4453 136.026 334.999 -41.8688 164.233 330.278 -22.3332 184.627 329.676 12.2075 119.121 368.579 54.3923 13.8441 9.55791 13.3414 
146.708 165.584 158.424 160.37 158.765 140.543 150.355 150.219 152.136 147.8 108.68 320.958 47.1171 98.6996 344.913 -39.4728 136.465 334.429 -41.3647 164.793 329.487 -21.798 184.709 328.743 12.6201 119.81 368.937 54.6917 13.3913 9.66687 13.5617 
147.956 165.23 160.077 162.076 159.182 140.701 151.483 151.628 154.244 149.255 109.634 319.515 48.5981 98.9951 344.948 -39.6035 137.138 334.537 -41.6423 166.211 329.802 -22.1653 185.684 328.154 12.8643 120.381 368.832 54.9343 13.3831 10.0549 13.7702 
148.383 164.743 160.732 162.319 159.279 140.028 152.572 152.115 154.605 149.324 110.723 319.753 49.5729 99.5582 345.621 -39.8917 137.613 334.558 -41.5972 166.8 329.681 -22.1646 185.985 327.758 12.939 120.916 369.038 55.0818 13.2267 10.1141 13.8279 
148.467 164.501 162.441 163.783 159.948 139.962 153.687 153.236 155.957 150.192 111.992 319.394 50.5922 100.506 346.152 -40.4378 138.733 334.981 -42.0231 168.396 330.157 -22.4762 186.923 327.637 13.2169 121.561 369.254 55.1645 13.1696 10.4151 13.9063 
148.246 164.58 163.739 164.192 160.228 139.598 154.865 154.517 156.708 150.719 113.182 318.659 52.3561 101.174 346.335 -40.7635 139.78 335.389 -42.3889 169.802 330.461 -22.5482 188.069 327.679 13.6151 122.163 369.411 55.2697 13.3244 10.6994 14.0752 
147.606 164.628 164.59 164.598 160.442 138.566 155.968 155.518 157.203 150.477 113.65 317.56 53.917 101.445 346.071 -41.1019 140.307 335.233 -42.7313 170.474 329.983 -22.7435 188.29 326.837 13.6289 122.461 368.962 55.2319 13.233 10.849 14.1808 
146.767 162.696 163.53 163.587 159.744 137.915 155.368 155.091 156.797 149.981 114.595 316.316 54.3087 102.103 345.177 -41.3302 140.836 334.692 -42.9576 170.571 329.461 -22.9479 188.185 325.875 13.5375 122.643 367.979 54.8077 13.3318 10.6208 14.0453 
145.856 161.275 162.884 163.067 159.214 137.38 155.152 155.056 157.04 149.743 115.125 315.555 55.0315 102.722 343.669 -41.2185 141.182 333.774 -42.9903 170.877 328.756 -23.0609 188.273 324.938 13.6267 122.879 367.199 54.5422 13.4365 10.5729 13.73 
145.642 160.682 162.228 162.642 158.557 137.55 154.611 154.873 157.12 149.512 115.771 314.948 55.5914 103.644 342.96 -40.8505 142.406 333.573 -42.6938 171.939 328.975 -22.7608 189.2 325.168 13.8963 123.354 366.844 54.4514 13.4703 10.4804 13.8812 
145.779 160.38 161.661 162.254 158.163 137.975 154.295 154.837 157.31 149.783 116.032 314.694 55.8218 104.338 342.428 -40.5134 143.392 333.379 -42.3917 172.903 329.238 -22.4558 190.262 325.587 14.0968 123.778 366.622 54.4354 13.5436 10.4679 14.0537 
146.187 160.129 160.63 161.543 157.965 138.407 154.093 154.42 157.051 149.715 115.96 315.079 55.7738 104.77 342.331 -40.1054 143.879 333.283 -41.8943 173.368 329.559 -22.0763 191.07 326.222 14.2567 124.247 366.818 54.4485 13.6497 10.4473 14.143 
146.246 159.695 159.24 160.757 157.623 138.605 153.677 153.827 156.686 149.484 115.838 315.698 55.2507 105.16 342.725 -39.9957 144.351 333.42 -41.6154 173.798 329.919 -21.9204 191.711 326.56 14.3416 124.678 367.048 54.3273 13.8443 10.4468 14.2998 
146.439 159.115 157.662 159.905 157.214 139.067 153.301 153.102 156.227 149.068 115.309 316.183 54.6486 105.207 342.863 -39.8916 144.383 333.271 -41.38 173.977 330.027 -21.8483 192.248 326.715 14.3907 125.107 367.297 54.1342 14.1521 10.5563 14.4099 
147.754 159.496 158.154 160.027 157.243 139.77 153.728 153.35 156.195 149.031 115.589 315.306 54.5966 105.179 342.429 -39.9557 144.198 332.987 -41.5517 173.714 329.433 -21.995 191.894 326.421 13.9049 125.304 367.253 54.0212 13.7329 10.4628 14.2509 
148.205 159.983 158.684 160.066 157.26 139.851 154.19 153.595 156.158 149.098 115.884 314.471 54.7327 105.164 341.82 -40.1265 143.994 332.645 -41.8509 173.611 328.889 -22.223 191.84 326.159 13.4625 125.474 367.002 53.8659 13.5086 10.5091 14.0529 
148.296 159.664 157.41 159.11 156.562 140.166 154.191 152.774 155.302 148.221 115.385 314.725 54.1893 105.501 342.644 -40.4742 144.23 332.792 -41.7555 173.767 328.895 -22.0262 192.091 326.084 13.6565 125.793 367.152 53.6797 13.6967 10.5476 14.171 
148.035 159.671 157.661 159.232 155.918 139.749 154.3 152.846 155.338 148.146 116.577 314.484 54.2813 105.483 341.887 -40.5901 144.181 332.427 -42.0431 173.768 328.547 -22.358 191.988 325.786 13.2571 126.001 366.965 53.4409 13.5254 10.5268 14.0656 
147.462 159.808 157.041 158.851 155.685 139.602 154.616 152.615 155.139 147.728 116.007 315.014 53.8475 105.662 342.668 -41.1223 144.225 332.739 -42.3482 174.056 328.629 -22.5291 192.38 325.543 13.3119 126.336 367.123 53.2042 13.8531 10.7662 14.0855 
146.609 159.694 157.653 159.423 155.688 138.733 154.615 152.647 155.315 147.957 117.143 315.151 53.4763 105.803 342.478 -41.6768 144.161 332.753 -43.0356 173.991 328.376 -23.2118 192.119 325.139 12.5829 126.483 366.875 52.7832 13.6405 10.7634 13.8686 
146.307 159.992 157.525 159.087 155.731 139.009 154.95 152.849 155.289 147.785 116.159 315.609 52.7965 105.94 342.946 -42.203 144.337 332.902 -43.4698 174.272 328.329 -23.4854 192.554 324.856 12.5016 126.796 366.95 52.4595 13.9657 10.9052 13.9587 
146.17 159.611 157.087 158.569 155.421 139.316 154.885 152.71 155.133 147.486 114.886 315.524 52.0722 105.99 342.854 -42.6339 144.311 332.648 -43.8736 174.392 328.125 -23.7821 192.91 324.472 12.4029 127.024 366.723 52.0814 14.3355 11.0377 13.9458 
146.235 159.525 157.189 158.428 155.252 139.647 155.019 152.937 155.296 147.204 113.642 315.281 51.5226 106.162 342.631 -43.0907 144.482 332.587 -44.4036 174.741 328.126 -24.1861 193.28 324.277 12.286 127.196 366.462 51.7396 14.61 11.1797 13.8933 
145.567 159.096 157.117 158.282 154.899 139.543 154.919 153.024 155.399 146.583 112.991 315.276 51.1889 106.574 342.321 -43.4202 144.89 332.589 -44.8595 175.184 328.204 -24.6051 193.517 324.049 12.2428 127.4 366.195 51.4156 14.8255 11.2048 13.8023 
144.607 158.237 156.641 157.866 154.338 139.256 154.432 152.863 155.288 146.008 112.473 315.268 50.7136 107.006 341.854 -43.6599 145.235 332.54 -45.2656 175.403 328.242 -25.0099 193.624 323.874 12.0638 127.502 365.86 51.0248 14.9883 11.1264 13.6421 
143.998 156.657 155.443 157.393 153.632 139.377 153.101 152.307 155.343 145.405 111.101 314.956 49.8521 107.188 340.876 -43.5342 145.172 332.146 -45.6109 175.286 328.13 -25.5389 193.34 323.348 11.9009 127.41 365.251 50.6034 15.2299 11.0384 13.3529 
143.452 155.791 155.009 157.339 153.582 139.235 151.981 151.943 155.162 145.306 110.617 315.165 49.1867 107.286 340.15 -43.3523 145.172 331.912 -45.8068 175.163 327.988 -25.8696 193.269 323.255 11.5198 127.374 364.946 50.3302 15.1949 10.927 13.2055 
142.925 155.899 154.943 157.455 153.688 138.857 151.193 151.874 155.192 145.097 111.118 315.145 49.0408 107.23 339.524 -43.2232 145.13 331.73 -46.0504 174.983 327.756 -26.1674 192.967 322.961 11.2258 127.375 364.664 50.0963 15.1066 10.8282 13.1667 
142.608 155.897 154.776 157.714 153.994 138.67 150.001 151.502 155.082 145.426 111.429 314.95 48.6458 107.044 338.634 -43.0757 144.862 331.09 -46.2295 174.547 327.168 -26.4378 192.636 322.518 10.8278 127.254 364.24 49.845 14.9951 10.6861 13.1002 
142.704 156.573 155.127 158.512 155.025 138.719 149.219 151.534 155.322 146.218 111.562 315.153 48.2531 106.737 337.839 -42.8304 144.521 330.539 -46.3438 174.164 326.629 -26.6361 192.462 322.359 10.4162 127.2 364.138 49.7261 14.8128 10.6145 13.0667 
143.241 157.127 155.548 159.184 155.712 138.982 148.85 151.687 155.598 146.703 111.886 314.403 48.3575 106.341 336.973 -42.758 144.126 329.834 -46.5094 173.66 325.831 -26.827 191.978 321.838 10.1279 127.044 363.853 49.5806 14.6189 10.5096 13.0628 
144.703 157.458 156 159.526 156.295 139.544 148.708 151.987 156.012 147.63 112.216 313.093 48.5683 105.866 336.103 -42.7584 143.658 329.175 -46.7205 173.079 325.151 -27.0402 191.646 321.461 9.64223 126.767 363.431 49.3883 14.4709 10.4102 13.0553 
145.408 158.003 156.268 160.021 156.767 139.772 148.328 152.093 156.262 148.132 112.699 312.349 48.5743 105.272 335.45 -42.7915 143.085 328.605 -46.9701 172.398 324.488 -27.3372 191.01 320.908 9.21484 126.434 363.098 49.1446 14.3216 10.3177 13.0933 
146.351 158.711 156.94 160.48 157.213 140.274 148.553 152.442 156.628 148.859 112.889 311.415 48.3167 104.589 334.903 -43.1597 142.461 328.104 -47.4047 171.784 323.932 -27.7238 190.518 320.504 8.60136 126.028 362.687 48.8303 14.1614 10.3196 13.1474 
146.776 159.192 157.555 161.048 157.897 140.397 148.88 152.732 156.847 149.704 113.209 310.826 48.1663 103.63 334.397 -43.6779 141.555 327.402 -47.9272 170.981 323.111 -28.1757 190.023 319.999 7.90225 125.603 362.366 48.3986 14.0845 10.3896 13.2247 
147.065 159.792 158.144 161.396 158.58 140.741 149.213 152.945 156.926 150.598 112.865 310.413 47.7885 102.621 333.932 -44.1668 140.617 326.609 -48.3583 170.192 322.317 -28.5494 189.677 319.72 7.21991 125.144 362.103 48.0242 14.033 10.4719 13.31 
147.17 160.526 158.599 161.651 159.037 141.002 149.253 153.126 157.163 151.518 112.547 310.19 47.3229 101.598 333.422 -44.4625 139.621 326.064 -48.7985 169.358 321.851 -29.0158 189.253 319.648 6.4901 124.541 361.867 47.6768 14.0163 10.539 13.3599 
147.015 161.757 158.609 161.63 159.241 140.848 149.313 152.9 156.839 151.943 112.087 310.284 46.3426 100.791 333.118 -45.0045 138.649 325.51 -49.2238 168.292 321.148 -29.3978 188.583 319.368 5.6829 123.835 361.486 47.2373 13.9509 10.5009 13.2854 
146.767 163.025 158.703 161.384 159.389 141.133 149.583 152.991 156.168 152.159 110.301 310.281 45.2266 99.9198 333.17 -45.8146 137.714 325.246 -50.0233 167.213 320.251 -29.8094 188.055 318.847 5.04212 123.084 361.001 46.7274 14.16 10.5719 13.2648 
146.757 164.183 158.185 160.369 158.885 141.053 149.11 152.542 154.9 151.967 108.657 310.118 44.2306 99.2918 332.921 -46.4361 137.075 324.845 -50.5637 166.265 319.585 -30.1097 187.764 318.562 4.47883 122.246 360.367 46.1503 14.5202 10.4985 13.2725 
147.612 165.682 157.45 159.579 158.306 141.342 148.042 151.805 153.186 151.276 106.416 309.907 42.3651 98.7851 332.957 -47.257 136.763 324.696 -51.2373 165.346 318.966 -30.3759 187.186 318.113 3.87301 121.363 359.677 45.3101 14.7411 10.3612 13.4577 
147.009 163.421 155.385 157.575 156.95 140.846 146 150.367 150.589 149.803 102.78 310.602 39.2513 96.3498 332.116 -48.3279 134.602 323.633 -52.2636 162.353 317.319 -31.1677 184.637 316.548 2.50361 119.262 358.68 43.5476 15.0036 10.1056 13.8093 
145.341 160.808 153.897 156.332 156.293 140.112 144.054 149.213 149.243 148.616 102.257 310.667 38.9527 94.9469 331.15 -48.1099 133.436 322.959 -52.3397 161.225 316.723 -31.423 183.731 316.107 2.06648 118.377 358.32 42.8074 15.1563 10.1342 14.0593 
147.707 162.443 154.41 157.624 156.953 140.531 143.702 149.324 149.938 148.757 102.877 309.669 39.4362 93.1765 330.391 -47.9499 131.904 322.572 -52.5899 160.259 316.722 -32.033 182.698 316.451 1.37585 117.361 358.646 42.2843 14.9361 10.3046 14.2368 
146.44 165.858 154.758 157.682 157.196 140.289 143.783 149.421 150.279 148.86 102.171 309.437 39.7013 91.792 330.35 -48.3989 130.635 322.648 -53.1963 159.256 316.914 -32.8318 181.612 316.713 0.641532 116.287 358.714 41.7554 14.8205 10.3808 14.3322 
145.548 169.019 155.307 157.849 157.311 139.665 143.894 149.869 150.756 148.719 101.068 310.045 40.0061 90.4776 331.086 -48.9626 129.41 323.153 -53.8943 158.004 317.03 -33.5285 180.041 316.69 0.246615 115.102 359.134 41.2631 14.6888 10.4199 14.4214 
145.611 168.965 154.883 157.492 157.125 140.087 143.302 149.559 150.579 148.454 99.5472 309.453 38.9554 88.9564 330.721 -49.4929 127.62 322.608 -54.4471 155.993 316.281 -34.2463 178 315.827 -0.317502 113.594 358.711 40.5984 14.7127 10.2549 14.2711 
145.554 166.967 154.058 157.032 156.477 140.296 142.023 148.843 150.866 148.262 97.785 308.643 38.8425 86.6276 328.429 -48.8243 124.649 321.038 -54.533 153.955 315.968 -35.0195 176.397 315.507 -0.824992 111.89 358.141 40.0855 15.115 10.4361 13.8478 
144.818 170.352 153.551 156.135 155.96 140.34 141.563 148.06 150.102 147.322 95.8361 308.865 38.2699 85.0136 327.015 -48.6684 122.817 320.415 -54.6062 152.483 316.034 -35.3395 175.273 315.71 -0.960003 110.471 357.945 39.6703 15.4874 10.543 13.7114 
145.389 171.933 153.121 155.083 155.446 140.606 140.893 147.356 149.143 146.742 93.2532 309.055 36.509 83.3368 327.3 -49.4264 121.02 320.591 -55.3269 150.391 315.952 -36.0019 173.545 315.414 -1.56099 108.935 357.819 38.9185 15.8881 10.4116 13.7122 
146.179 170.792 152.402 154.788 155.004 140.272 140.765 146.835 148.848 145.456 90.1788 309.618 35.0983 81.2642 327.67 -50.1748 118.657 320.407 -55.9687 148.11 315.297 -36.7719 170.731 313.873 -1.63407 107.222 357.75 38.1614 16.0545 10.5193 13.6398 
145.385 171.561 151.661 154.379 154.31 140.336 139.934 146.241 148.913 144.508 88.6301 309.246 34.8734 78.8671 326.078 -49.9701 116.392 319.513 -56.2048 146.617 315.283 -37.4821 169.049 313.586 -1.9777 105.507 357.294 37.6101 16.1258 10.844 13.8365 
144.336 169.863 152.081 154.497 153.87 139.739 139.939 146.788 149.529 143.94 87.6863 309.29 35.4197 77.3443 324.786 -49.9845 115.177 319.054 -56.6771 145.584 315.446 -38.1786 167.763 313.942 -2.4545 103.931 357.069 37.1527 15.9887 10.8144 14.0128 
142.687 169.415 153.171 154.755 154.114 138.487 140.666 147.852 150.185 143.924 86.8823 310.183 36.0201 75.7945 325.209 -50.5494 113.628 319.537 -57.476 143.716 315.34 -38.8637 165.656 313.953 -3.09273 102.308 357.31 36.7979 15.7116 10.5986 13.9127 
144.134 168.876 153.653 155.814 154.709 139.175 141.729 148.639 151.12 143.922 85.4495 310.086 36.5285 73.5039 325.811 -50.9563 111.296 319.645 -57.9589 141.683 315.02 -39.4098 163.006 313.111 -3.47535 100.728 357.769 36.3906 15.3671 10.8089 13.9376 
145.323 167.396 154.256 156.562 155.227 139.303 142.358 149.494 151.804 144.03 85.0233 309.367 37.9547 71.2073 325.309 -50.6535 109.332 319.28 -58.033 140.051 314.657 -39.5483 161.035 312.821 -3.69064 99.2078 358.093 36.1776 15.0285 10.9901 14.2697 
144.943 165.64 155.766 157.51 155.521 138.24 144.151 150.891 152.946 145.247 85.3534 309.028 39.8363 69.3828 324.942 -50.9742 107.697 318.95 -58.5021 138.61 314.594 -40.1863 159.735 313.138 -4.49187 97.8098 358.215 36.0102 14.791 10.9477 14.2625 
144.734 164.868 156.795 157.964 155.613 136.383 145.592 151.768 153.675 146.241 85.6955 308.278 40.6192 67.7903 324.606 -51.9488 105.974 318.47 -59.348 136.82 314.133 -41.07 158.041 312.738 -5.48383 95.9062 357.351 35.6053 14.6765 10.8576 14.1255 
