145.039 178.835 161.679 158.781 162.901 148.28 151.34 155.215 162.56 160.322 147.17 308.392 9.83761 136.588 310.872 -66.764 174.937 317.916 -79.7568 210.887 327.497 -65.8028 239.762 336.655 -32.6594 167.085 360.433 12.6194 20.0712 14.4327 17.1327 
146.009 176.951 161.564 157.845 162.05 149.673 153.831 154.804 162.439 160.601 147.319 309.299 8.69816 136.742 313.196 -67.609 175.064 319.977 -79.8782 211.022 329.261 -65.5315 240.254 338.039 -32.4375 167.177 361.75 12.5889 20.3801 14.5275 16.9646 
145.285 174.27 162.154 156.538 161.343 150.501 152.967 154.238 161.878 160.504 147.926 310.536 8.24548 136.451 314.801 -67.5739 175.392 322.129 -79.8649 211.392 331.072 -65.1122 240.684 339.518 -31.8233 167.372 362.887 12.8993 20.4687 14.5552 17.5987 
143.617 174.27 162.583 155.282 160.618 150.67 152.43 153.711 161.262 160.369 148.356 311.865 8.3987 136.595 316.803 -67.7254 175.943 324.478 -79.7643 211.969 333.165 -64.6428 241.185 341.274 -31.0433 167.567 364.113 13.3094 20.5667 14.6055 17.9004 
145.403 174.27 162.413 154.81 161.485 150.764 151.292 152.951 161.302 159.922 149.824 312.531 7.76347 137.378 317.921 -67.3732 176.182 326.283 -79.3375 211.439 334.455 -63.8986 240.691 342.315 -30.1377 167.301 364.931 13.8431 20.7318 14.0213 17.7568 
145.35 174.27 163.047 155.541 163.554 150.005 151.51 153.45 160.913 159.411 152.259 313.851 8.43238 137.96 318.955 -66.5191 176.37 328.191 -78.8135 211.298 335.634 -63.0288 240.061 343.733 -29.5253 167.199 366.076 14.618 20.2697 13.6393 17.8206 
147.4 174.27 161.488 155.717 165.467 148.346 149.648 153.43 159.411 158.813 155.826 317.113 9.21107 139.333 322.299 -65.5866 177.176 332.029 -77.881 210.757 337.718 -61.5176 238.545 346.082 -28.1697 166.909 368.492 15.8127 19.6562 12.5016 17.5977 
149.011 174.27 163.719 157.348 168.008 146.855 151.102 155.173 160.21 159.567 157.78 318.713 10.9712 139.802 322.96 -64.2625 176.544 332.585 -77.2269 209.663 337.79 -60.785 236.893 346.839 -27.9072 166.483 370.084 16.874 18.7659 11.9193 16.8107 
148.788 174.27 163.388 159.748 167.52 147.45 150.811 154.795 159.468 158.564 156.209 319.723 12.2206 139.79 323.973 -62.7977 176.059 333.539 -76.2541 208.937 338.622 -59.4768 235.871 347.661 -26.9991 166.088 371.835 17.6664 18.3077 11.7903 16.8083 
151.208 177.799 162.63 161.011 166.236 147.199 151.159 155.474 158.264 158.178 155.758 321.465 13.7442 139.085 325.431 -61.4043 176.422 335.015 -75.2487 208.758 339.399 -57.3541 235.571 349.692 -26.1746 165.701 373.734 18.7799 18.058 11.5541 17.2959 
152.798 169.74 161.925 160.848 166.147 146.904 148.994 154.687 157.022 157.355 154.554 323.086 15.1519 138.149 326.603 -59.6133 175.447 335.889 -74.2207 207.4 339.585 -55.7956 234.342 349.559 -24.7887 164.92 375.57 19.4501 18.0986 11.3803 17.7076 
149.869 159.761 161.378 158.206 165.004 146.403 146.287 155.981 158.681 157.252 153.029 324.184 17.876 137.027 327.237 -56.79 174.51 337.869 -73.4707 207.33 341.872 -55.0328 233.629 351.096 -23.4953 163.911 377.054 20.8781 17.4046 11.9766 18.9767 
148.669 150.934 160.217 160.87 165.01 147.761 144.513 155.422 160.308 158.439 149.165 324.354 20.1446 135.204 327.58 -53.8199 172.158 338.326 -71.9509 205.781 343.31 -54.2408 232.681 352.309 -22.8607 162.864 378.252 22.1031 17.5924 12.424 19.5163 
147.631 143.955 160.304 160.843 165.813 146.657 143.226 156.236 161.064 159.278 149.944 325.195 22.9305 133.773 328.271 -51.2782 170.515 339.772 -71.1163 204.374 344.919 -53.4173 231.348 353.699 -22.312 161.504 379.341 23.4151 17.2791 12.5449 20.3756 
146.152 139.476 159.961 161.644 166.099 146.104 142.395 156.227 161.415 159.045 148.431 326.023 24.9444 131.621 330.474 -49.9442 169.41 341.678 -69.9114 203.447 346.62 -52.1628 230.208 354.941 -20.9659 159.979 380.517 24.8451 17.0286 12.6958 20.7717 
146.03 135.158 159.781 162.26 166.703 145.967 141.514 156.657 162.566 159.888 146.751 327.357 27.8958 129.415 332.611 -47.473 167.162 343.577 -68.4768 201.674 348.844 -51.2434 228.782 356.896 -20.0058 158.664 382.46 26.5355 17.0622 12.8869 21.0137 
143.927 131.166 160.357 162.232 167.639 146.397 142.06 157.498 163.212 160.168 144.501 328.819 29.3145 128.098 334.891 -45.6392 165.842 346.423 -67.1792 200.385 351.729 -50.2325 227.194 359.446 -18.7504 157.279 383.944 28.4627 16.7426 12.8391 21.3422 
143.782 129.653 160.235 162.704 168.022 146.193 141.471 157.195 162.923 159.801 143.454 329.732 31.6699 126.722 336.824 -43.5997 164.512 348.151 -65.2812 198.733 353.496 -48.9449 225.327 360.713 -17.2632 155.675 385.34 30.3208 16.455 12.4948 21.2756 
142.578 124.824 158.799 163.938 166.767 145.619 139.396 157.117 163.129 158.933 142.147 331.07 34.1316 124.739 339.412 -41.5366 163.365 350.616 -63.6803 197.694 356.107 -47.3138 223.971 362.458 -15.2031 154.143 386.687 32.3143 16.2861 12.6178 21.6733 
142.32 123.835 159.652 165.383 167.894 144.948 140.657 157.623 164.42 159.327 141.531 332.068 36.4785 123.25 341.629 -40.642 162.152 352.575 -62.0105 196.355 358.063 -45.6524 222.384 363.524 -12.8821 152.268 387.673 34.379 16.2962 12.5374 21.223 
143.083 123.099 159.609 165.279 168.473 145.153 139.674 157.167 164.082 158.523 140.788 332.671 38.3715 122.123 343.017 -38.687 160.942 354.145 -60.1685 194.681 359.55 -44.0702 220.247 363.98 -10.8444 150.382 388.634 36.2022 16.0512 12.1952 21.3705 
141.202 125.445 159.105 164.918 168.11 145.207 141.63 156.133 164.188 157.011 138.424 334.292 38.4127 121.361 346.825 -40.1679 160.501 356.51 -58.8896 193.549 361.381 -42.4837 218.816 364.462 -8.56745 148.527 389.621 37.64 16.2234 11.816 19.8226 
141.76 126.606 159.353 162.871 165.974 146.243 140.981 156.267 162.866 156.235 134.806 334.926 39.4892 120.347 349.682 -40.0399 159.984 359.236 -57.7826 192.264 363.596 -40.987 217.407 366 -6.64794 146.71 390.661 39.4225 16.3593 11.3221 19.5729 
143.113 127.464 159.632 162.153 165.455 147.753 140.825 156.086 162.613 156.466 131.567 335.537 41.19 118.859 351.305 -38.3869 158.398 360.602 -56.0061 190.581 365.174 -39.6036 215.686 367.33 -5.03988 144.999 391.945 41.469 16.2974 11.1604 19.2973 
144.29 129.038 159.809 160.88 164.438 147.12 140.319 155.872 161.66 155.413 129.469 336.034 42.9325 117.213 352.624 -37.5341 156.715 361.601 -54.6839 188.781 366.171 -38.2683 213.84 367.948 -3.30312 143.105 392.528 43.05 16.5088 11.0941 18.9834 
144.58 132.436 161.362 161.108 163.873 148.058 141.157 156.443 161.668 156.003 126.548 336.57 44.0063 115.892 353.769 -37.3994 155.775 363.043 -53.6502 187.983 367.73 -36.8704 212.916 369.262 -1.36321 141.221 393.078 44.7817 16.684 11.2499 18.8627 
145.696 134.685 160.592 160.578 162.898 148.369 140.701 155.349 159.967 156.047 123.941 337.705 43.4273 114.901 356.017 -37.6425 154.633 364.341 -52.8465 186.376 368.735 -35.8315 211.704 370.11 -0.159313 139.428 393.79 45.8946 17.1151 11.0319 18.2803 
146.704 140.38 159.869 159.521 162.862 148.625 141.975 154.232 158.335 155.322 120.219 337.739 44.9541 113.34 357.736 -37.856 152.751 364.077 -51.0839 184.204 367.996 -34.0513 209.784 369.682 1.5349 137.691 394.119 47.4048 17.3235 10.8026 16.8811 
147.915 142.637 158.912 158.586 160.998 149.397 141.026 152.907 156.558 153.924 117.181 337.67 45.1495 111.931 358.737 -37.0454 151.429 364.453 -49.5565 182.953 368.409 -32.3873 208.144 370.205 3.07814 135.961 394.504 48.7609 17.0777 10.9607 16.6788 
149.553 147.337 159.718 159.655 161.081 149.484 143.494 152.983 156.381 153.489 115.299 338.747 47.3392 110.73 361.053 -36.696 149.851 365.189 -47.571 181.438 369.017 -30.4362 206.327 371.235 4.74782 134.529 395.792 50.7987 16.6485 10.9262 15.4585 
150.954 152.001 160.603 161.044 161.994 149.174 145.524 153.14 155.929 153.031 113.305 339.901 49.5482 109.215 361.85 -35.4897 147.47 364.238 -45.3348 178.784 367.244 -28.3364 203.235 370.144 6.22474 133.073 397.081 52.6255 15.8228 10.5106 14.2409 
149.934 154.735 160.757 160.986 161.899 147.326 147.053 153.117 155.516 152.57 113.08 342.516 51.3706 107.568 362.935 -34.1658 145.376 363.586 -43.1252 176.326 366.185 -26.2682 200.635 369.539 8.00899 131.582 398.479 54.2919 15.5174 10.1681 13.5156 
149.691 155.838 160.598 160.22 160.878 146.697 147.081 152.949 155.128 152.121 111.145 342.49 52.5318 105.915 363.471 -33.2004 143.468 363.449 -41.6691 174.182 365.752 -24.6859 198.34 368.854 9.61313 129.636 398.08 55.8115 15.4324 10.0384 13.1696 
149.888 158.819 161.228 160.838 161.331 145.723 148.757 153.391 155.551 152.21 109.752 344.207 54.8413 103.625 364.032 -31.5725 140.638 362.488 -39.5603 171.49 364.806 -22.8637 195.804 368.077 11.3023 128.094 398.966 57.7582 15.3048 10.0072 12.5259 
150.21 159.111 161.202 160.58 160.503 145.94 148.918 153.323 155.195 151.541 107.126 344.929 55.9947 102.096 364.594 -30.177 138.937 362.532 -37.9477 169.853 364.735 -21.3071 194.034 368.01 12.9712 126.664 399.533 59.3973 15.1577 10.0081 12.3333 
150.16 160.521 161.478 161.069 160.225 146.047 150.466 153.994 156.064 151.826 105.016 344.803 58.2689 100.322 363.771 -28.5859 137.374 361.137 -35.9319 168.614 363.972 -19.5458 192.654 367.447 14.8816 125.094 399.451 61.1372 15.0531 10.1817 12.3221 
149.32 160.441 161.555 161.252 160.106 145.035 150.488 153.934 156.339 152.012 105.214 345.797 58.657 98.9132 362.886 -26.9838 136.013 359.987 -34.3868 167.412 363.547 -18.3159 191.45 367.288 16.2053 123.88 399.479 62.3464 15.0754 10.3364 12.3781 
149.79 160.41 161.304 160.814 159.747 145.607 150.146 153.623 156 151.808 102.635 345.882 59.1932 97.6223 362.346 -25.6429 134.572 359.019 -32.8998 166.021 362.626 -16.9408 190.207 366.523 17.5993 122.732 399.395 63.4047 15.2078 10.3793 12.2807 
150.163 161.292 161.922 161.346 160.13 145.999 151.06 154.095 156.578 152.395 101.249 345.595 61.1116 95.9898 361.004 -23.6637 132.74 358.054 -31.2364 164.75 362.17 -15.4302 189.207 366.393 18.9707 121.717 399.507 64.8237 15.286 10.7434 12.206 
150.336 161.818 162.425 161.702 160.445 146.08 151.784 154.776 157.364 153.174 99.536 345.316 62.7388 94.5646 358.776 -21.7377 130.894 356.413 -29.8047 163.231 361.148 -14.3335 188.017 365.869 19.9273 120.659 399.303 65.9321 15.3574 10.927 12.0096 
150.409 161.941 162.31 161.701 160.418 146.314 151.862 155.027 157.814 153.196 97.7156 344.029 64.9492 93.5594 357.465 -20.1445 130.149 355.456 -28.3445 162.54 360.564 -13.0263 187.171 365.465 21.2369 119.572 398.714 67.1071 15.2462 10.947 12.1873 
150.338 163.275 163.302 163.012 161.314 145.896 153.137 156.468 159.465 154.207 98.1614 343.783 66.4987 92.7762 356.872 -19.1118 129.555 354.763 -27.3569 161.708 359.811 -12.0281 185.759 364.616 22.277 118.539 398.459 68.1791 14.7548 10.7072 12.2087 
150.405 161.291 162.955 162.547 160.811 146.029 153.092 155.911 159.139 153.969 96.4314 343.167 66.0698 91.9605 355.885 -18.5934 128.28 353.954 -27.0841 160.361 358.983 -11.6542 184.25 363.322 22.8886 117.272 397.632 68.4297 14.7817 10.7747 12.0263 
151.648 161.562 162.355 162.257 160.784 147.256 153.266 155.42 159.006 154.148 93.2884 341.612 65.857 90.4452 354.601 -18.1129 126.487 352.679 -26.6687 159.054 357.749 -11.2566 183.105 361.973 23.3859 115.98 396.391 68.7804 14.9663 11.1642 11.9358 
152.49 161.668 161.753 161.68 160.368 148.044 152.921 155.054 158.558 153.68 90.1464 340.119 66.0066 88.9336 354.041 -17.9059 125.311 351.867 -26.3002 157.788 356.413 -10.6813 181.867 360.466 24.0313 114.647 395.019 69.1706 15.0879 11.0771 12.1476 
153.026 160.108 160.737 160.72 159.907 149.039 152.01 153.748 157.37 152.813 88.121 339.117 65.2337 87.5131 353.512 -17.2575 123.68 351.145 -25.7914 156.204 355.717 -10.2475 180.611 359.749 24.3581 113.429 394.146 69.3241 15.3718 11.1839 12.1 
153.36 159.734 159.78 159.904 159.784 149.653 152.942 153.198 156.547 152.492 86.0274 337.915 65.1193 86.3628 353.474 -17.3276 121.779 350.848 -25.616 154.385 354.764 -9.78648 179.118 358.735 24.5566 112.064 393.195 69.4758 15.5717 11.2236 11.5261 
153.35 163.162 159.607 159.475 159.52 150.297 154.673 153.134 155.794 152.068 84.3153 336.557 65.2793 85.42 353.698 -17.9455 120.768 350.574 -25.4796 153.444 354.055 -9.12876 178.56 358.651 25.0643 110.815 392.307 69.7977 15.9749 11.3102 11.3148 
151.93 157.934 158.075 158.245 158.928 149.649 152.461 150.428 152.75 150.397 82.8982 334.57 63.3758 84.3947 353.514 -18.6152 118.515 349.77 -25.4681 150.495 352.436 -8.58789 175.818 356.954 24.9339 108.418 390.294 69.3309 16.1343 11.0168 10.4106 
151.416 159.789 158.07 158.918 159.41 149.213 152.374 150.438 152.465 149.582 82.1158 335.359 63.564 83.3314 354.278 -18.7743 118.074 349.828 -25.1768 149.981 352.246 -8.10371 175.388 357.136 25.3217 107.85 390.735 69.4798 16.3492 11.0118 10.8704 
151.466 161.728 158.575 160.212 160.018 149.04 152.741 150.747 153.611 150.46 81.5795 335.105 64.4417 81.9691 353.922 -18.6642 117.336 349.138 -24.9168 149.557 352.192 -8.0768 174.808 357.229 25.492 106.987 390.714 69.6065 16.2747 11.2366 11.3263 
151.571 162.082 158.883 160.619 160.22 148.988 151.39 150.718 153.596 150.221 81.6703 334.817 64.7151 80.9382 354.369 -18.7847 117.888 350.026 -25.152 149.919 352.987 -7.96207 174.702 357.957 25.7507 106.274 390.941 69.3436 16.1646 11.1957 12.5553 
150.183 161.653 159.016 160.894 160.231 147.07 150.272 151.39 154.036 150.432 82.4427 335.231 66.312 79.1709 355.036 -18.8012 117.039 350.828 -25.6071 148.832 352.81 -8.0759 173.338 357.039 25.8987 105.206 391.033 69.1693 16.0511 11.0307 13.3358 
150.316 162.372 159.261 161.506 160.681 146.198 149.094 151.406 153.911 150.218 81.9921 336.195 67.4564 78.056 355.74 -18.8316 116.256 351.009 -25.7047 147.679 352.141 -7.8319 171.84 356.234 26.1135 104.467 391.925 68.8949 15.7657 10.7845 13.6034 
149.529 162.138 159.382 161.548 160.428 144.722 148.535 151.489 153.873 150.453 82.9423 335.51 68.1847 76.8348 356.559 -19.7392 115.415 351.39 -26.3849 146.223 351.735 -8.24068 169.871 355.227 25.8384 103.019 391.657 68.4861 15.404 10.4173 13.8757 
148.885 159.359 158.592 161.012 159.855 143.947 144.618 150.156 153.29 149.719 82.1213 336.956 67.3644 75.6498 356.834 -18.8296 114.259 351.929 -26.3079 144.924 352.247 -8.38723 168.38 355.272 25.76 101.884 392.172 68.1008 15.3949 10.3695 14.1084 
148.613 157.187 158.495 161.025 159.92 143.085 142.723 149.423 152.846 149.676 82.0707 337.761 66.3962 75.0659 357.596 -19.1513 113.445 352.667 -26.4845 143.701 352.795 -8.55246 166.76 355.667 25.4666 100.423 392.489 67.7398 15.1356 10.1725 13.9689 
148.32 155.545 157.983 160.006 159.182 142.412 142.503 148.92 151.72 148.636 80.9452 338.734 65.8781 75.0369 358.983 -20.0515 112.949 353.953 -26.7249 142.575 353.335 -8.43626 165.16 356.289 25.291 99.184 393.174 67.3606 14.6889 9.82811 13.4741 
149.028 155.16 158.826 160.875 159.847 142.676 142.708 149.495 152.422 149.215 80.9863 339.271 66.0167 73.7817 360.18 -20.2948 111.757 355.214 -26.9602 140.984 354.098 -8.60447 162.979 356.705 25.0006 97.7046 394.107 67.2295 14.0982 9.57556 13.5165 
149.309 154.467 158.811 160.239 159.296 142.383 141.936 148.793 151.762 148.582 80.1138 339.619 65.6051 72.4701 361.34 -20.9713 110.501 356.177 -27.4213 139.634 354.988 -9.02058 161.154 357.084 24.7722 96.1538 394.688 66.7353 13.8957 9.56266 13.5747 
149.132 155.95 160.047 161.071 159.223 142.346 144.159 150.13 152.935 148.887 79.9548 340.175 66.4303 72.0023 362.919 -22.4342 109.71 357.557 -28.0823 138.499 355.686 -9.24087 159.324 357.172 25.3464 94.5304 395.193 66.6661 13.8131 9.46005 13.157 
149.299 155.695 160.04 160.438 158.562 141.388 144.082 150.125 152.846 148.398 78.3083 341.71 66.5912 70.349 364.428 -22.8903 107.625 358.658 -28.4919 136.387 356.487 -9.66887 157.302 357.37 25.2854 92.8955 396.089 66.5091 14.0397 9.4373 12.8225 
148.59 155.283 160.267 160.445 158.49 140.545 144.795 150.566 153.289 148.671 77.3221 342.528 67.053 68.597 366.075 -23.7043 105.901 359.909 -28.971 134.824 357.379 -9.9413 155.54 357.837 25.3832 90.8338 396.428 66.4524 14.1877 9.6388 12.8127 
147.978 156.282 160.735 160.653 158.644 139.607 145.683 150.868 152.976 148.712 76.6329 342.935 66.1353 66.3397 366.509 -24.5528 102.979 360.506 -29.7901 132.216 357.597 -10.4818 153.04 357.928 24.7703 88.7826 396.673 66.058 14.1314 9.92238 12.3538 
147.685 159.317 161.851 162.018 159.208 138.596 147.741 150.804 152.927 149.384 74.2664 345.428 64.8792 60.6404 369.272 -25.6648 96.2904 362.546 -30.6151 126.607 359.149 -11.2004 147.567 359.129 24.0313 83.6622 398.297 65.7828 14.1546 10.7518 11.8494 
147.547 158.919 161.718 162.824 159.365 137.294 147.346 151.121 154.503 151.163 73.2029 345.329 66.1127 57.0058 368.657 -24.7907 92.2759 362.243 -30.5877 123.28 359.623 -11.9224 144.815 359.132 23.3114 80.851 397.967 66.1651 14.3983 11.0038 11.6956 
150.365 157.974 162.129 163.393 159.987 137.802 147.173 151.819 155.188 152.169 70.9164 345.243 66.239 53.0745 368.99 -23.9562 87.7656 362.793 -30.6859 119.62 360.128 -12.4946 142.056 359.712 22.5729 78.1301 398.477 66.5739 14.6867 11.3516 11.3241 
152.131 158.73 163.199 165.293 161.595 136.647 148.685 153.471 157.406 154.172 70.1918 346.039 67.0688 49.6508 370.235 -24.5455 84.2487 363.621 -31.4652 116.651 360.753 -13.5068 138.766 359.801 21.7352 75.2616 399.17 66.6862 14.2992 11.5758 11.2051 
153.284 159.821 164.108 166.21 163.606 135.934 150.307 154.528 157.605 154.24 69.1008 346.859 67.1482 46.0201 371.774 -25.1399 80.7523 363.773 -31.9095 113.02 359.745 -13.98 134.648 358.445 20.6683 72.5002 399.745 66.2979 13.4939 11.4309 11.2798 
151.059 160.416 164.253 166.242 163.918 135.195 150.516 154.833 157.639 154.778 67.9325 347.31 67.9224 41.8275 371.527 -25.0062 76.0887 363.322 -32.2732 108.321 359.071 -14.8464 130.772 357.851 19.2567 69.672 399.904 65.9248 13.5378 11.1833 10.9766 
151.299 160.321 164.271 166.454 163.645 136.784 149.014 154.372 157.52 154.656 62.4715 348.453 66.5813 38.5726 373.105 -24.4186 71.8844 364.143 -32.1266 104.324 358.851 -14.913 127.104 356.904 19.1975 67.2353 400.956 65.9049 13.8563 11.3661 10.4546 
154.351 160.587 164.877 166.57 163.692 136.646 149.569 155.578 157.916 154.565 59.5676 348.707 67.095 35.8421 374.202 -24.5543 68.8678 365.482 -32.6179 101.156 359.381 -15.3839 124.237 356.944 18.8183 64.784 401.564 65.9348 14.0325 11.2481 10.1639 
154.018 161.236 165.562 166.783 163.155 136.024 149.291 156.817 158.918 155.105 57.8085 349.212 68.9792 32.7081 373.835 -23.9497 65.3906 365.444 -32.7216 97.8223 358.84 -15.5999 121.13 356.386 18.6247 62.3893 402.022 66.1184 13.984 11.2736 9.90793 
151.698 161.802 165.499 166.809 163.5 136.343 149.149 156.594 158.86 155.086 55.3918 349.629 69.2291 30.9458 373.774 -23.5287 62.8926 365.289 -32.3974 95.4418 358.56 -15.4795 118.837 356.225 18.6181 60.6598 402.591 66.2748 13.8288 11.2744 9.31669 
152.512 164.399 166.022 167.463 165.357 136.605 150.987 156.972 159.785 156.979 52.9497 349.713 69.2723 29.1986 374.127 -23.5861 59.8976 364.939 -32.4934 92.6111 358.375 -15.9905 116.979 356.427 17.9556 59.0352 403.007 66.3303 14.1506 11.1813 8.39802 
153.024 167.381 166.025 168.137 166.46 136.809 151.705 157.054 160.818 158.925 50.8079 349.463 68.8718 28.1657 373.44 -23.5429 57.9801 364.253 -32.3347 90.9263 358.302 -16.1098 115.8 356.658 17.6605 57.4653 402.512 66.5708 14.3722 11.1936 7.70032 
152.108 167.599 166.037 168.251 166.162 137.354 151.534 157.301 161.05 158.571 48.5037 349.976 68.7856 27.0447 371.78 -22.7387 56.7064 363.484 -32.1327 90.192 358.307 -16.0508 115.658 357.404 17.8506 56.6674 402.599 66.717 14.6763 11.3807 7.56024 
153.799 168.208 167.204 169.343 166.873 138.81 152.735 158.632 162.511 159.626 45.4702 350.037 69.494 25.8248 371.453 -22.1539 55.5291 363.877 -32.1819 89.9046 358.713 -16.0071 115.542 358.281 18.0254 56.3706 403.701 67.131 14.6126 11.8662 7.64694 
154.628 169.895 167.539 169.128 166.78 139.375 154.118 159.145 162.865 159.832 44.0922 349.876 69.5355 24.9905 371.048 -22.1797 54.4882 363.63 -32.328 89.2506 358.619 -16.2215 115.16 358.488 17.7219 56.1071 403.993 67.0945 14.5829 12.0191 7.49231 
154.912 171.848 167.527 168.843 166.566 139.17 155.141 158.972 162.825 159.722 43.6049 350.221 69.4633 24.6966 371.005 -22.1589 53.8238 363.475 -32.1497 88.8008 358.514 -16.181 114.964 358.416 17.708 56.2007 404.119 67.204 14.6534 12.1052 7.22632 
155.155 173.927 167.63 168.671 166.479 139.704 156.55 158.985 162.917 159.86 43.6189 349.913 69.2628 24.4661 371.044 -22.3411 53.3032 363.382 -32.1776 88.4905 358.541 -16.4137 114.92 358.52 17.3581 56.3234 404.109 67.2001 14.6701 12.164 6.9983 
155.298 174.379 167.93 168.724 166.662 140.29 157.396 159.692 163.569 160.372 43.6311 349.715 69.5923 24.1192 370.162 -21.9481 53.1327 362.788 -31.9839 88.4403 358.22 -16.3976 115.033 358.481 17.2742 56.5641 404.07 67.3316 14.6154 12.1366 7.13666 
154.948 174.43 167.516 168.169 166.486 140.563 157.216 159.429 163.119 159.727 43.7725 349.957 68.9104 24.822 369.251 -21.5843 53.9977 362.432 -31.6366 89.1013 358.47 -16.2903 115.914 359.171 17.1268 57.3178 403.938 67.3603 14.6171 11.909 7.2128 
153.622 174.703 167.002 167.575 166.085 140.387 156.259 158.8 162.845 159.092 44.7536 350.142 67.2046 26.1337 368.442 -21.8585 55.5332 362.066 -32.1849 90.3708 358.482 -16.9567 116.855 358.759 16.6142 58.4078 403.033 66.904 14.5094 11.7189 7.46959 
152.324 171.353 166.52 167.239 166.313 140.845 155.355 158.244 161.915 158.134 46.2237 350.065 66.5542 27.4715 369.031 -22.0639 57.3625 362.837 -32.2841 92.1261 358.711 -16.913 118.36 358.627 16.6495 59.7372 402.758 66.7704 14.5029 11.7981 7.78243 
151.057 169.737 166.12 166.616 165.82 140.703 154.657 157.68 161.148 157.282 47.7495 349.499 65.5983 29.4033 368.324 -22.9588 59.646 362.162 -33.0206 94.161 357.937 -17.3624 119.912 357.643 16.3354 61.2401 401.729 66.0725 14.3728 11.7292 7.99438 
150.39 167.863 165.537 165.926 165.553 140.316 154.095 156.889 159.838 155.492 48.757 350.113 65.2251 31.7036 368.954 -23.5713 62.6539 362.294 -32.8763 97.0932 357.544 -16.6615 121.995 357.415 16.8348 63.3642 402.007 65.5749 13.9469 11.9576 8.38839 
148.982 166.336 165.232 165.659 165.676 139.136 153.259 156.333 158.698 154.134 51.0062 350.75 63.8982 34.1067 370.337 -24.917 65.8258 363.312 -33.614 99.9189 357.67 -16.8484 124.006 356.96 16.6201 65.3995 401.844 64.7441 13.7038 12.0654 8.93963 
151.225 165.514 165.424 165.719 165.547 139.964 153.852 156.849 158.392 153.019 53.5512 349.647 63.956 36.3843 370.22 -25.1096 68.9528 363.281 -33.5384 102.623 357.805 -16.6146 126.064 357.104 16.7111 67.5141 401.48 64.613 13.2827 11.8633 9.56551 
152.558 165.264 165.311 166.096 165.343 141.136 155.194 157.758 158.626 152.309 56.5193 348.634 64.7129 38.2781 370.324 -25.2044 72.2436 363.522 -33.6463 105.656 358.472 -16.8364 128.662 357.983 16.4745 70.088 401.727 64.4432 12.9435 11.6258 10.5728 
