151.883 147.449 165.596 165.692 164.196 147.921 151.787 160.354 165.482 160.772 101.995 417.305 67.3036 106.118 418.447 -10.3526 137.178 423.744 -29.4077 170.519 435.755 -17.7154 196.28 445.121 15.2948 130.184 472.282 66.4225 14.7434 12.2604 13.7256 
152.221 144.857 165.425 165.648 163.991 148.423 153.18 160.194 165.091 160.424 99.2126 416.976 67.5317 105.664 418.627 -10.5464 136.135 423.101 -29.3197 169.705 434.813 -17.5633 195.73 444.286 15.5773 129.456 471.697 66.6438 15.0659 12.3705 13.0582 
152.723 143.676 164.91 165.387 163.771 149.006 153.554 159.771 164.539 160.052 96.9726 416.661 67.8888 104.964 419.168 -10.4903 135.07 423.238 -29.2277 168.832 434.598 -17.4482 195.101 443.99 15.7503 129.039 471.433 66.9307 15.2498 12.3953 12.6952 
153.57 145.054 164.866 164.948 163.561 148.503 154.296 159.838 164.399 160.136 96.5969 416.017 67.3344 104.677 419.322 -11.0357 134.568 423.008 -29.302 168.267 434.157 -17.4704 194.636 443.594 15.6574 128.769 471.166 66.8347 15.3174 12.3216 12.2694 
154.036 145.466 164.327 164.192 163.15 148.368 154.433 159.451 163.826 159.654 95.7657 415.46 67.1762 104.112 419.144 -10.9145 133.68 422.67 -29.198 167.506 433.656 -17.3566 194.086 443.139 15.7276 128.388 470.716 66.8094 15.5343 12.3978 12.1544 
153.701 146.037 163.901 163.53 162.651 148.301 152.531 159.033 163.211 159.434 95.2076 415.155 67.2602 103.199 418.449 -10.3462 132.879 422.535 -29.1478 166.865 433.296 -17.2024 193.63 442.996 15.7966 127.944 470.245 66.9895 15.6278 12.3726 12.6152 
153.476 145.215 163.37 162.641 162.391 148.848 151.152 158.412 162.437 159.275 94.0905 414.596 67.3624 102.471 417.865 -10.036 132.059 422.026 -29.0012 166.13 432.507 -17.0079 193.214 442.552 15.7752 127.506 469.65 66.9978 15.8274 12.3029 12.6254 
153.181 142.391 162.823 161.779 162.115 148.961 149.794 157.665 161.681 158.929 92.7247 413.757 67.87 101.991 417.336 -9.79366 131.121 421.31 -28.8092 165.133 431.712 -16.9258 192.606 441.91 15.7313 126.896 468.816 67.0439 16.0746 12.2369 12.307 
152.429 139.199 161.922 161.11 161.774 148.466 148.874 156.215 160.552 157.986 92.3137 412.872 67.5789 101.644 416.986 -9.97579 130.436 420.265 -28.4406 164.305 430.433 -16.6207 191.77 440.559 15.7892 126.328 468.016 66.7204 16.0507 12.1727 11.743 
151.493 136.192 160.684 160.478 160.88 147.201 148.49 154.892 159.063 155.983 92.7506 412.308 67.3531 101.424 417.431 -10.4589 130.198 419.962 -28.2944 163.915 429.413 -16.3561 191.161 439.142 15.9173 126.006 467.611 66.1865 15.9348 12.0165 11.2967 
151.036 132.905 160.119 159.682 159.915 147.206 148.197 154.413 158.114 154.653 92.4931 411.321 67.2107 101.034 417.837 -10.9132 129.951 420.155 -28.6832 163.591 429.229 -16.4951 190.722 438.604 15.8575 125.539 466.969 65.8261 15.9509 11.9464 11.1893 
150.754 130.208 159.828 159.058 159.247 147.519 147.547 154.041 157.292 153.624 92.268 409.752 67.2852 100.679 417.945 -11.3662 130.152 420.426 -29.0774 163.461 429.121 -16.5284 190.349 438.224 16.0131 124.873 466.074 65.6248 15.9699 11.7329 11.4464 
151.195 129.337 160.362 159.019 159.308 148.446 147.552 154.359 156.929 152.758 91.4052 409.183 67.3952 100.391 418.513 -11.7217 130.274 421.084 -29.3607 163.287 428.941 -16.2871 189.876 437.586 16.3318 124.404 465.729 65.6098 15.7911 11.383 11.5507 
151.872 132.837 160.56 158.966 159.059 148.1 149.807 154.631 156.472 151.775 92.009 409.294 67.7456 100.285 419.939 -13.4204 130.617 421.988 -29.6363 163.337 428.769 -15.9695 189.455 437.065 16.6056 124.185 465.797 65.5318 15.444 10.996 10.7978 
151.133 136.492 161.284 159.188 158.874 147.234 148.631 155.533 157.011 151.901 92.9012 409.195 67.8361 99.6026 420.118 -14.0886 130.646 422.442 -30.3359 163.008 428.892 -16.3846 188.788 436.765 16.3442 123.67 465.384 65.3735 15.2059 10.7215 11.2258 
150.25 137.547 161.309 159.103 158.516 145.875 148.315 155.48 156.825 151.379 93.7258 409.297 67.3541 99.2463 420.353 -14.6332 130.581 422.644 -30.7075 162.542 428.654 -16.5533 187.976 436.22 16.1563 123.32 465.137 65.1132 14.9634 10.4456 11.4272 
151.112 140.179 161.248 159.2 158.242 146.113 149.005 155.35 156.607 150.974 92.3993 409.766 66.3577 98.6732 421.095 -15.7319 130.628 423.134 -31.1352 162.468 428.63 -16.7813 187.629 435.936 15.8779 123.057 465.158 64.7617 14.776 10.3404 11.5176 
151.402 142.38 161.892 158.984 157.717 146.367 149.53 156.233 156.667 150.989 92.5167 409.114 66.2553 98.3085 421.255 -16.4447 130.697 424.078 -31.9098 162.506 429.096 -17.0468 187.431 436.469 15.565 122.617 464.724 64.7462 14.6149 10.2533 11.8622 
151.888 142.55 162.714 159.47 158.177 147.122 150.422 157.072 157.306 151.641 92.8347 408.375 65.725 98.0276 420.983 -16.8296 130.672 424.377 -32.4488 162.405 429.345 -17.4537 187.169 436.955 15.0686 122.151 464.286 64.6531 14.462 10.1744 12.1214 
151.671 141.722 162.89 160.08 159.077 147.171 150.854 156.559 157.227 151.286 93.7297 408.638 64.7375 98.3563 421.36 -17.2613 130.786 424.276 -32.3046 162.079 429.021 -17.2745 186.443 436.53 15.065 121.811 464.242 64.5003 14.1035 9.89203 11.669 
151.448 139.993 162.961 160.238 158.994 147.245 151.996 156.369 157.176 150.872 94.1682 408.857 63.9714 98.6741 421.664 -17.7623 131 424.051 -32.3162 161.812 428.775 -17.3326 185.875 436.349 14.9149 121.572 464.259 64.2402 13.8656 9.58106 11.2825 
151.105 144.125 163.472 160.464 158.919 147.247 155.035 156.779 157.528 151.118 94.1907 408.766 63.8271 98.4837 422.412 -19.4367 131.129 424.168 -32.637 161.937 428.828 -17.4737 185.823 436.425 14.7665 121.242 464.233 64.0164 13.7578 9.57357 10.7207 
150.86 146.953 163.751 160.732 158.758 147.11 155.979 156.747 157.562 151.124 94.3658 408.708 63.6994 97.8089 422.96 -20.495 130.926 424.333 -33.0464 161.956 429.068 -17.8095 185.844 436.535 14.5451 121.092 464.374 63.7416 13.7852 9.73364 10.7255 
150.696 146.156 164.044 161.519 159.009 146.96 156.09 156.946 158.192 151.643 94.8894 408.873 63.3585 97.3734 423.454 -21.0423 130.679 424.603 -33.6501 161.7 429.477 -18.5717 185.527 436.637 13.9762 120.842 464.487 63.4453 13.6729 9.70256 10.7505 
151.542 149.622 164.166 162.213 159.213 146.298 157.052 157.362 158.646 152.07 95.0663 409.231 63.3395 97.0737 424.378 -21.9929 130.489 425.141 -34.3829 161.597 429.826 -19.3212 185.538 436.78 13.4069 120.812 465.028 63.0534 13.7104 9.6897 10.6149 
152.57 153.339 164.005 162.849 159.21 145.536 155.827 157.009 158.828 152.303 95.0263 409.551 62.1528 96.3328 424.081 -22.6521 130.21 424.602 -34.9031 161.415 429.537 -20.0338 185.392 436.454 12.8029 120.693 465.264 62.3593 13.7318 9.77392 10.9676 
153.396 156.722 164.882 163.381 159.482 145.838 156.197 158.191 159.729 153.121 95.0807 409.57 62.0561 95.5582 423.815 -23.2539 129.907 424.668 -35.705 161.227 429.363 -20.6505 185.224 436.157 12.3803 120.539 465.406 61.9647 13.7049 9.78614 11.4372 
152.415 159.271 164.749 163.426 159.667 145.092 155.788 158.219 159.901 153.43 94.5689 409.885 61.3385 94.7432 423.95 -24.5191 129.521 424.191 -36.1927 160.671 428.478 -20.9544 184.513 435.072 12.148 120.225 465.25 61.409 13.5697 9.6315 11.4759 
151.533 161.052 164.954 163.079 159.188 145.125 156.579 159.017 159.89 153.201 93.0929 409.994 61.4705 93.7231 424.954 -26.229 129.063 424.578 -37.0893 160.143 427.812 -21.2838 183.847 434.226 11.8098 119.924 464.987 61.0164 13.3855 9.49546 11.5098 
151.7 162.012 164.721 162.933 158.652 145.916 156.533 159.039 159.18 152.007 92.2162 410.292 61.5245 92.9152 425.918 -27.49 128.667 424.875 -37.5213 159.683 427.193 -21.2566 183.373 433.835 11.8363 119.636 465.22 60.562 13.4468 9.47929 11.599 
152.646 163.523 164.911 162.588 158.294 145.722 156.926 159.33 158.825 151.944 92.5375 410.112 61.9036 92.1496 426.772 -28.7456 128.313 425.022 -38.0297 158.942 426.422 -21.2774 182.434 433.045 11.8145 119.216 465.403 60.1472 13.2581 9.27383 11.6905 
152.04 164.253 164.735 162.443 157.828 144.84 156.216 158.669 158.443 151.857 93.5649 410.622 61.0188 91.4332 426.504 -29.6584 127.749 424.38 -38.3366 158.15 425.721 -21.4015 181.541 432.379 11.7277 118.789 465.573 59.4853 13.2185 9.15282 11.7647 
152.059 164.879 165.044 162.469 158.057 144.732 156.192 158.409 158.316 151.92 93.8214 410.674 59.6199 90.6338 426.246 -30.597 127.034 423.843 -38.6633 157.289 425.186 -21.6425 180.561 432.123 11.2232 118.226 465.549 58.9914 13.001 9.04915 11.7704 
151.207 164.605 164.362 161.993 157.263 144.218 154.606 157.031 157.249 150.198 93.8721 410.424 58.4363 89.9037 426.016 -30.895 126.926 423.977 -38.6736 156.759 425.316 -21.7026 179.568 432.09 11.1222 117.679 465.369 58.5516 12.6667 8.80741 12.3094 
150.559 164.436 163.636 161.027 156.522 144.132 154.462 156.646 156.24 148.986 92.7984 410.096 58.5109 89.4979 426.99 -31.3996 126.67 424.745 -38.7673 156.117 425.246 -21.3457 178.719 432.054 11.2349 116.973 465.144 58.5149 12.4945 8.73973 12.3617 
150.374 163.001 162.49 159.526 155.456 144.641 153.259 155.788 154.633 147.188 92.1711 408.339 58.3259 88.8183 428.051 -31.7557 126.623 426.009 -39.1288 155.92 425.827 -21.3017 178.151 432.201 11.2446 116.134 464.352 58.4389 12.3389 8.88287 12.8572 
150.778 161.922 161.865 158.225 154.878 144.969 152.146 155.139 153.301 145.596 91.6604 407.732 58.2352 88.2398 429.505 -31.7626 126.53 427.357 -39.1929 155.712 426.385 -20.9142 177.31 432.509 11.3131 115.446 464.357 58.4381 11.8 9.12727 13.2262 
151.245 161.111 161.368 157.479 154.441 145.715 151.504 154.385 152.44 144.349 91.209 406.844 57.843 87.6658 430.32 -31.7924 126.337 427.887 -39.0068 155.435 426.769 -20.674 176.638 432.552 11.5706 114.677 464.243 58.3385 11.5974 9.18055 13.5575 
152.169 160.588 161.405 157.379 154.591 146.726 151.214 154.148 151.972 144.422 90.8009 406.356 57.1088 87.0184 431.14 -31.6651 125.679 428.596 -38.9186 154.732 427.157 -20.4839 175.892 432.92 11.4736 114.019 464.396 58.3732 11.4681 9.25723 13.5964 
152.867 159.473 161.384 157.553 154.464 147.587 150.577 153.615 151.263 143.812 90.5926 406.232 55.4082 87.1733 433.206 -32.3933 125.691 430.41 -39.295 154.33 428.216 -20.5809 174.96 433.414 11.4299 113.342 464.584 58.2361 11.1218 9.22168 13.4733 
153.207 157.786 161.4 157.81 153.906 147.948 148.931 153.384 151.326 142.949 90.0151 406.852 54.6764 85.8777 433.975 -31.838 124.346 431.659 -39.7444 153.208 429.175 -21.3368 173.538 433.58 10.822 112.695 465.041 58.0327 10.7448 9.25 13.5768 
153.13 158.262 162.28 158.437 155.372 148.24 150.233 153.876 151.259 142.609 90.4564 407.383 53.8336 86.0147 435.893 -32.9307 124.111 433.36 -40.3769 152.775 429.646 -21.4059 172.524 433.678 10.9645 112.079 465.56 57.9777 10.3091 9.55146 13.2128 
152.721 157.964 161.948 157.852 155.362 147.289 150.24 153.125 150.188 141.505 90.3034 408.352 52.6565 85.4084 437.928 -33.707 123.518 434.533 -40.528 152.1 429.931 -21.2362 171.839 433.718 11.1601 111.57 466.295 57.5765 10.3934 9.88738 13.2906 
152.371 157.45 161.403 157.107 154.84 146.989 150.113 152.802 149.697 141.621 89.5878 409.471 51.0177 84.7463 439.277 -34.1914 122.785 436.072 -40.9605 151.364 430.976 -21.5927 171.189 434.323 10.7402 110.988 466.955 57.1751 10.4715 10.0424 13.2612 
152.151 157.852 161.672 158.888 156.21 147.125 149.591 152.733 150.729 142.524 89.0789 411.166 50.206 83.9158 440.644 -34.5113 121.774 437.714 -41.399 150.683 432.065 -22.1978 170.011 434.006 10.8324 110.301 468.217 56.937 10.4532 10.2332 13.1267 
151.817 157.968 161.395 159.575 156.49 146.759 149.784 153.034 151.913 143.418 88.1013 412.486 50.4732 82.8912 441.11 -34.3183 120.576 438.455 -41.5715 149.934 433.141 -22.7 169.364 434.375 10.6839 109.585 469.223 56.8449 10.7619 10.2373 13.0152 
151.153 157.311 160.718 159.616 155.991 146.27 149.904 153.13 152.869 144.806 88.2907 412.944 50.4845 81.9277 442.098 -34.6599 119.763 439.554 -42.0047 149.434 434.494 -23.3804 169.018 435.402 10.1488 108.553 469.499 56.8578 10.9137 10.2056 13.1385 
151.011 157.663 161.263 160.172 156.801 145.919 150.883 154.137 154.046 146.107 89.0784 413.267 50.4844 80.8235 443.438 -35.4527 119.15 441.179 -42.8543 149.324 436.189 -24.1501 168.992 436.173 9.96817 107.67 469.772 56.7694 11.4444 10.4623 13.4799 
149.684 158.302 160.786 160.655 157.262 145.227 151.307 154.195 154.942 146.945 88.5287 413.905 49.9375 78.9522 445.326 -35.8774 117.857 442.695 -43.3685 148.427 437.585 -24.9021 168.197 436.302 9.46791 106.675 469.983 56.5641 11.8276 10.6207 14.0029 
149.297 158.942 160.398 160.41 156.772 145.462 151.746 153.913 155.079 147.082 87.3364 413.565 49.7489 77.5555 446.491 -35.8502 116.311 443.335 -43.345 147.313 438.433 -25.032 167.451 436.422 9.38976 105.588 469.818 56.6521 12.2686 10.8027 13.9461 
149.43 159.386 160.279 161.142 158.003 145.609 151.426 154.06 156.057 148.185 86.117 413.898 50.139 76.1347 446.977 -35.1648 114.654 443.951 -43.2075 146.157 439.335 -25.243 166.693 436.799 9.18243 104.567 470.067 56.972 12.5782 10.9511 13.8268 
149.513 158.074 159.154 160.824 158.853 145.656 149.486 153.209 155.484 147.688 84.6099 414.899 49.4715 74.7524 447.718 -34.4298 113.384 444.905 -42.668 144.931 439.754 -24.7539 165.469 436.66 9.55015 103.528 470.5 57.2217 12.7036 11.0932 14.0411 
149.961 157.056 157.993 159.595 158.654 146.112 147.862 151.893 153.98 146.73 83.3109 414.889 48.8836 73.8162 448.12 -33.9733 112.466 444.79 -41.9136 143.713 439.337 -23.8965 164.305 436.176 10.2288 102.423 470.347 57.5087 12.7795 11.022 14.1113 
151.179 156.569 158.071 159.319 158.122 147.079 147.958 151.84 153.799 147.086 82.23 414.165 48.5327 72.126 447.225 -33.3819 111.019 443.791 -41.4763 142.467 438.651 -23.6199 163.173 435.939 10.0462 101.174 469.877 57.7596 12.4993 11.0523 14.3416 
151.265 155.512 157.605 159.488 158.967 147.622 148.155 151.38 153.616 147.448 81.8911 413.599 48.3338 70.937 447.634 -33.1989 109.665 443.662 -40.9423 141.177 438.984 -23.2789 162.24 436.472 10.0859 99.8299 469.308 58.2281 12.5236 10.9858 14.2364 
151 156.089 157.999 160.475 160.544 147.373 148.67 151.71 153.715 147.363 81.5185 413.646 47.7547 70.706 449.085 -33.8599 109.308 444.482 -41.001 140.375 438.717 -22.9701 160.592 435.383 10.4315 98.6984 468.769 58.5473 12.1191 10.9474 14.0333 
151.092 157.691 160.181 161.434 162.131 147.336 148.797 151.793 152.695 147.125 80.6961 413.66 46.6836 69.7575 449.718 -34.5696 108.324 444.227 -41.1395 138.86 436.816 -22.5708 158.777 433.31 10.7273 97.6504 468.465 58.5067 11.9146 11.0697 14.0233 
149.92 160.459 160.908 162.315 162.522 146.586 150.168 152.45 154.236 147.982 79.1332 414.31 46.398 66.7874 451 -34.8184 105.317 445.186 -41.5028 136.224 437.397 -23.3956 155.885 432.616 10.2735 95.5196 468.138 58.8504 11.9591 11.1155 14.0546 
148.894 160.398 160.965 162.523 163.485 145.12 149.863 152.707 154.652 149.165 79.6082 415.242 46.4628 65.5765 450.54 -34.3084 104.184 445.08 -41.1784 135.314 436.836 -23.0855 154.612 431.746 10.7305 94.6616 468.059 59.1635 11.9352 11.3569 14.1085 
150.342 159.579 160.285 162.041 165.274 142.956 148.314 152.159 154.432 149.048 80.4436 415.909 46.0545 64.5187 449.909 -33.7903 103.397 444.834 -40.8852 134.615 436.097 -22.6848 153.374 430.261 11.447 93.5906 467.35 59.3596 12.1127 11.5704 14.3494 
150.553 159.295 160.757 163.212 165.395 142.158 148.84 153.76 156.595 147.938 80.2093 415.19 49.185 62.9027 447.23 -32.0354 101.749 443.548 -40.2255 134.246 436.151 -22.3872 152.541 430.389 12.6524 92.7532 467.374 60.1602 12.3616 11.9859 14.3336 
150.878 158.278 160.363 163.086 165.863 142.577 149.473 154.333 157.604 148.785 81.1663 414.491 50.4863 61.3849 445.985 -31.2593 100.329 442.751 -39.8741 133.339 436.157 -22.2031 151.648 430.736 12.8437 91.7728 467.157 60.4566 12.263 12.1468 14.4518 
151.977 159.152 161.096 164.004 168.087 142.925 150.529 155.107 158.589 151.564 80.7376 415.179 50.4755 59.8433 446.975 -31.2278 99.0133 442.912 -39.7611 132.142 435.824 -22.1717 150.318 430.357 12.5099 91.1316 467.731 60.6522 11.9434 12.2581 14.6203 
151.237 159.415 161.339 164.117 168.421 142.396 151.007 155.651 159.105 152.507 80.14 415.709 51.7272 58.0192 447.156 -30.3435 97.3003 442.623 -39.4101 130.558 435.539 -22.0348 149.03 430.457 12.2727 90.3657 468.109 61.0983 11.5715 12.2417 14.8357 
150.752 159.326 161.152 163.667 167.247 142.228 150.694 155.684 159.102 152.031 78.694 415.66 51.9829 57.2599 446.522 -29.9042 96.2583 442.238 -39.2205 129.424 435.316 -21.8711 148.328 430.299 12.4367 89.6394 468.003 61.2074 11.8181 12.1428 14.6417 
150.081 159.559 161.123 163.778 168.171 141.886 150.566 155.736 158.922 151.9 78.0175 415.931 52.0451 56.4871 446.026 -29.4326 95.5735 442.24 -38.8263 128.611 435.458 -21.5482 147.802 430.695 12.6333 88.7679 467.991 61.3975 11.91 12.046 14.7113 
149.595 159.772 161.136 163.48 168.92 141.426 149.584 155.017 158.029 151.156 76.7377 416.687 52.2108 55.8303 445.194 -28.9793 94.5877 441.665 -38.4277 127.531 435.091 -21.2349 147.251 430.714 13.0604 88.0532 468.261 61.4825 12.2646 11.9292 14.4973 
148.331 160.905 161.606 164.006 169.667 140.676 150.875 155.806 158.685 151.369 76.4634 417.763 53.2291 55.0364 445.685 -28.9189 93.5016 441.91 -38.2761 126.293 435.133 -21.1375 145.84 430.68 13.2424 87.2424 468.88 61.7453 12.1904 11.8194 14.187 
147.652 161.732 161.622 163.906 165.931 140.705 150.851 156.142 158.996 151.864 74.9307 418.425 53.1823 53.5884 445.677 -28.4321 92.083 441.996 -38.3239 124.805 435.234 -21.3886 144.855 430.909 12.6144 86.4193 469.112 61.8723 12.1219 11.6701 14.2839 
146.83 162.058 162.266 164.139 164.335 140.803 151.244 156.794 159.632 152.408 74.5923 418.154 53.8383 52.5668 443.836 -28.0504 91.0447 440.695 -38.2968 124.027 434.641 -21.4414 144.722 430.658 12.672 85.5843 468.864 61.8787 12.5419 11.6694 14.31 
147.041 162.448 163.756 164.968 164.034 141.133 151.947 158.091 160.515 153.069 73.6012 418.021 55.0928 51.4679 442.828 -27.7519 90.0181 440.367 -38.557 123.271 434.159 -21.6823 143.885 430.312 12.5024 84.7926 469.216 61.9647 12.4329 11.8187 14.4195 
146.985 162.397 164.371 165.137 163.38 140.768 153.092 159.08 161.235 152.113 73.672 417.46 57.0406 50.7129 442.66 -27.8533 89.0447 440.719 -38.9506 122.68 434.392 -21.9661 142.676 429.686 12.9703 83.9333 469.148 62.1337 12.7224 12.0743 14.244 
146.345 161.887 164.643 164.893 163.224 139.998 153.417 159.79 161.541 151.515 73.6518 416.922 59.0475 49.8777 442.214 -27.6064 88.01 441.015 -39.1816 121.829 434.721 -22.223 142.015 429.746 13.0584 83.1003 469.082 62.2068 13.1316 12.17 14.1882 
145.943 161.17 164.313 164.713 162.337 139.199 152.996 159.06 160.986 150.801 73.3986 416.469 59.6804 48.9531 442.376 -27.6762 86.4555 441.316 -39.3352 120.481 435.518 -22.5661 141.451 430.517 12.4498 82.2402 468.618 62.2448 13.2055 12.1529 13.9139 
146.985 160.696 163.919 164.341 161.575 139.076 152.48 158.555 160.497 150.84 72.227 415.965 59.2053 48.478 442.785 -28.3241 85.9622 442.004 -40.0429 119.968 435.97 -23.0983 141.074 430.712 11.9069 81.4983 468.25 61.9411 13.2911 12.199 13.9572 
147.783 160.792 164.125 164.397 161.148 139.499 151.868 158.21 160.185 151.33 71.3611 415.632 58.1598 48.1026 442.774 -28.9125 86.0736 442.404 -40.6808 119.935 436.578 -23.6764 141.166 431.444 11.3022 80.8088 468.019 61.5822 13.2718 12.0745 14.3745 
148.422 161.371 165.047 165.429 162.504 139.31 151.611 158.622 160.661 151.75 70.5965 416.392 57.2783 47.7674 443.153 -29.3271 85.4781 442.904 -41.0723 119.429 436.587 -23.8615 140.143 431.136 11.1987 80.0599 468.306 61.4123 13.0409 12.2301 14.2778 
148.703 161.266 165.065 165.397 162.385 139.568 151.644 158.735 160.531 152.133 70.9533 416.326 57.1265 47.3784 442.932 -29.5201 84.8047 442.868 -41.1575 118.698 436.475 -23.759 139.548 431.122 11.0662 79.3067 468.194 61.2671 13.0295 12.258 14.1098 
150.12 162.074 165.817 166.038 163.112 139.246 151.742 159.42 161.009 153.69 70.3824 415.836 57.6077 46.722 442.832 -29.6519 84.0688 442.786 -41.547 117.626 436.107 -24.0464 138.811 431.235 10.3311 78.447 468.063 61.1759 12.7759 12.0552 14.1142 
150.812 164.171 166.869 167.002 164.531 139.724 151.63 160.002 161.834 155.735 70.0876 415.321 57.8726 45.391 441.176 -28.6491 82.7901 441.662 -41.1882 116.071 435.425 -23.8867 137.689 431.257 9.70586 77.3839 467.923 61.2278 12.4128 11.7531 14.6448 
151.496 164.192 167.295 167.703 165.677 139.906 151.837 160.641 162.291 156.787 69.2909 415.178 58.4355 44.4085 440.503 -28.0433 81.4097 441.008 -41.0767 114.572 434.369 -23.972 136.193 430.72 9.39468 76.4972 468.129 61.392 12.0457 11.6313 14.5002 
151.784 164.647 167.209 167.588 166.044 139.782 152.69 160.319 161.56 156.186 68.0356 415.773 58.3541 44.1498 441.345 -28.265 80.2126 441.082 -40.7388 113.021 433.47 -23.5249 134.382 430.045 9.57573 75.6561 468.774 61.5683 11.6516 11.5769 13.5235 
151.621 165.693 166.82 167.725 165.426 139.426 153.037 160.043 161.323 156.239 67.7327 415.684 58.9909 42.9519 442.032 -27.7688 78.4129 441.158 -40.1374 111.509 432.972 -23.0185 133.219 429.741 9.59943 74.759 468.804 61.9014 11.6321 11.8688 12.9822 
151.516 165.186 167.275 168.48 166.387 139.68 154.232 161.199 162.731 158.428 67.6193 415.095 60.1025 41.4028 441.752 -27.4499 75.9187 440.755 -40.282 110.02 433.113 -23.6766 132.884 429.733 8.77532 73.8189 468.189 62.3577 12.1783 12.1927 12.3877 
150.747 164.129 167.238 168.743 168.128 139.995 154.975 161.81 163.727 160.398 66.7786 415.266 61.1402 39.6894 441.91 -26.9212 73.0338 440.639 -40.4493 108.221 433.459 -24.11 132.71 430.196 8.51539 73.0209 468.489 62.7253 13.1845 12.6722 11.7997 
151.694 162.408 168.281 167.478 166.332 139.918 155.381 161.295 162.599 158.838 66.1002 415.506 61.2057 38.9474 442.104 -26.045 71.646 440.026 -39.5958 106.604 432.643 -23.3879 131.329 429.647 9.04512 72.3335 469.18 62.6468 13.3063 12.5848 11.3673 
152.383 168.535 167.528 166.474 165.967 140.115 155.46 159.513 161.204 158.2 64.2529 417.019 59.7882 38.1088 443.176 -26.1871 70.5374 439.222 -38.709 105.261 431.704 -22.6323 130.45 429.188 9.74594 71.8342 470.001 62.4471 13.7419 12.5019 10.7503 
153.78 174.143 166.727 166.129 165.836 139.51 156.387 158.591 161.133 157.776 62.8971 417.692 60.9575 37.3619 443.53 -25.2385 68.8888 438.205 -37.3625 103.865 431.156 -21.8295 129.393 429.21 10.5839 71.2149 470.773 62.9592 13.9271 12.5156 9.83279 
153.672 177.988 166.118 166.215 166.962 138.89 154.618 158.048 161.595 158.828 62.2692 418.253 61.5394 37.4901 443.2 -24.2986 67.2179 436.755 -36.5173 101.924 430.733 -21.671 128.103 428.73 10.6839 70.6339 471.28 63.4508 14.1757 12.0373 8.5392 
155.028 173.016 166.294 167.142 167.172 137.594 156.22 159.116 162.785 159.848 62.2241 418.52 63.0595 37.2336 443.837 -24.2146 65.7615 436.868 -36.3862 100.801 430.64 -21.5847 126.836 428.337 10.9503 70.0928 471.905 63.9833 14.006 12.2294 7.72874 
