145.5 165.592 172.659 164.786 169.794 137.136 168.659 164.773 167.123 163.07 100.059 467.276 39.7175 64.3763 499.648 -57.2184 103.697 498.523 -64.6419 141.153 501.855 -47.6454 166.807 502.285 -12.5278 96.0722 519.98 38.0616 16.4658 14.4078 14.6935 
145.747 164.916 173.559 165.505 169.864 138.32 170.286 165.969 168.142 163.408 100.504 467.994 40.3758 66.0578 499.694 -55.988 104.083 498.923 -63.8682 141.292 502.351 -47.1044 166.851 502.696 -11.799 96.8023 521.564 38.7414 16.456 14.1441 13.6763 
145.656 165.386 175.775 166.664 169.61 139.261 170.971 166.609 168.818 163.625 100.82 469.216 40.1723 67.3932 500.283 -55.3092 104.508 499.621 -63.3785 141.465 503.141 -46.7353 166.941 503.679 -11.411 97.3962 523.293 39.1333 16.3342 13.9063 12.9425 
145.501 166.496 176.819 166.883 170.098 140.112 170.827 166.803 169.597 164.328 100.2 470.34 39.9124 68.557 500.689 -54.7552 104.921 500.026 -62.9714 141.705 503.865 -46.462 167.136 504.382 -10.9348 98.0861 525.001 39.3347 16.4313 13.7369 12.3339 
146.274 168.472 177.641 167.514 170.055 141.85 168.875 166.835 169.688 164.211 99.0152 471.643 39.7932 68.922 499.99 -53.6779 105.249 500.118 -62.4151 141.941 504.105 -46.0869 167.413 504.78 -10.4816 98.9289 527.096 39.587 16.4748 13.5858 12.2132 
146.747 169.879 177.371 167.336 168.942 142.91 165.889 166.045 168.64 162.626 97.8027 471.79 40.2638 69.1665 498.879 -52.3029 105.352 500.32 -62.071 141.906 504.264 -45.7916 167.397 504.87 -10.1169 99.4632 528.258 39.7897 16.511 13.4475 12.1524 
147.435 168.098 178.351 167.372 166.858 143.226 162.027 165.594 167.3 160.267 98.8983 472.272 40.22 69.1305 497.803 -51.3352 106.233 501.424 -62.0573 142.309 505.388 -45.6934 167.848 506.182 -10.2777 99.8429 529.003 39.8037 16.346 13.1437 13.1173 
146.844 167.905 178.065 167.389 166.074 143.199 160.868 165.52 166.813 160.052 99.2374 473.505 40.3474 68.5211 497.666 -50.7464 106.166 501.591 -61.8282 142.436 505.891 -45.5396 168.362 507.312 -10.5094 100.125 530.135 39.9457 16.3033 13.2316 13.6354 
147.054 166.805 179.657 166.969 164.963 143.093 159.292 165.854 166.647 160.642 100.788 474.01 40.0113 68.6449 496.216 -50.1955 106.613 501.911 -62.0329 142.823 506.703 -45.7655 169.062 508.528 -11.0252 100.332 530.341 39.9389 16.2548 13.1823 14.2928 
146.658 166.357 180 166.764 164.294 142.982 158.442 165.69 166.363 160.152 99.5644 475.202 40.2544 68.8352 495.997 -49.4849 107.252 502.529 -61.6746 143.503 507.499 -45.4273 169.64 509.794 -10.8752 100.81 531.421 40.1864 16.0618 13.2214 14.8782 
146.636 165.531 180 166.198 163.925 142.876 157.776 165.5 165.814 159.571 99.9521 476.194 39.8039 69.21 496.271 -49.3061 108.2 503.89 -61.6347 144.443 508.591 -45.1218 170.229 510.944 -10.5885 101.163 531.968 40.291 15.8918 13.3021 15.566 
146.772 167.027 180 166.939 164.228 142.757 159.188 166.34 166.398 159.759 99.3265 478.989 40.0414 69.1462 497.933 -49.0526 108.368 504.881 -61.0586 144.628 509.118 -44.6579 170.06 511.515 -10.3079 101.559 534.052 40.6968 15.4548 13.2264 15.535 
147.114 166.956 179.551 167.208 164.146 142.806 159.181 166.406 166.197 159.615 98.0399 480.59 39.9645 69.1284 498.971 -48.6919 108.286 505.598 -60.7204 144.498 509.323 -44.2903 169.762 511.884 -10.1398 101.662 535.433 40.8865 15.1513 13.1638 15.4868 
146.5 167.278 178.229 167.205 164.126 142.713 160.311 166.716 166.242 159.817 96.6068 482.162 40.129 69.5447 500.541 -48.9284 108.556 506.546 -60.5288 144.787 509.772 -43.9313 169.74 512.455 -9.80118 101.789 536.678 41.1938 14.8788 13.1729 15.1153 
145.094 166.642 175.892 166.793 163.569 142.568 159.919 166.347 165.988 160.198 94.7157 483.952 40.3261 69.2945 501.954 -48.5974 108.577 507.598 -60.3425 144.858 510.482 -43.7136 170.09 513.481 -9.49072 101.999 538.18 41.416 15.0546 13.1776 15.3237 
144.694 166.444 174.478 166.706 163.655 142.182 160.239 166.287 165.454 159.46 95.6578 485.31 40.4893 69.6353 503.521 -48.5193 109.391 509.419 -60.1589 145.881 512.415 -43.2759 171.096 516.08 -9.02877 102.167 539.505 41.72 15.16 13.4181 15.6097 
144.065 166.588 172.773 166.519 163.657 141.087 160.966 165.728 164.849 159.252 96.9777 486.855 39.8188 70.5495 506.377 -49.5598 110.351 511.866 -60.3228 146.704 514.804 -43.2507 172.05 518.788 -8.79566 102.252 540.361 41.7871 15.4995 13.4316 15.3314 
145.86 166.694 170.538 166.131 163.141 139.73 161.259 164.574 163.542 157.421 98.7405 488.955 39.6071 71.7732 510.386 -51.2685 111.758 515.033 -60.9845 147.527 517.376 -43.4784 172.435 520.837 -8.52839 102.319 541.766 41.4543 15.6147 13.1639 15.0823 
145.905 166.57 169.757 165.879 163.234 139.002 160.527 163.877 162.904 156.454 100.725 490.247 39.8334 71.5162 511.97 -51.8519 111.804 516.831 -61.3209 147.781 519.193 -43.5978 172.921 522.489 -8.45564 102.188 542.679 41.1323 16.0197 13.3994 15.3669 
145.527 166.915 168.969 166.223 163.441 140.267 160.413 163.726 163.665 157.285 100.038 490.461 39.3579 70.7703 512.851 -52.1451 111.269 518.154 -61.8195 147.702 521.056 -44.197 173.05 524.127 -8.79032 102.009 543.636 40.8349 16.2668 13.6796 15.6428 
143.574 166.342 167.998 165.745 163.122 140.877 159.908 163.011 163.195 157.523 98.9394 491.734 38.9412 70.5916 514.716 -52.6525 111.498 520.202 -62.1908 148.312 523.055 -44.4206 173.658 526.351 -8.73399 101.994 545.07 40.6622 16.4603 13.9921 15.9515 
143.799 167.524 168.079 165.89 162.879 141.612 160.347 163.495 163.322 158.235 98.9948 492.577 38.7337 69.9145 516.247 -53.0553 111.149 521.679 -62.4636 148.114 523.769 -44.5444 172.831 526.836 -9.12684 101.81 546.343 40.2635 15.8781 14.1885 16.2111 
145.853 170.046 169.503 166.622 162.814 142.719 163.083 165.284 164.173 158.587 98.3514 493.322 40.1159 69.8338 517.824 -53.5547 111.168 522.846 -62.5095 148.508 523.944 -44.2037 171.99 526.407 -8.29833 101.605 548.047 40.4118 15.2908 14.5716 16.0595 
148.535 168.986 169.864 166.485 162.703 143.879 162.71 165.714 164.244 157.39 98.1661 496.017 37.9795 69.0861 519.933 -53.3604 110.529 524.706 -62.4052 147.908 524.757 -44.0441 170.721 526.073 -7.67491 101.263 550.1 40.2933 15.1897 14.6683 16.1842 
148.197 168.992 168.689 165.702 162.907 135.832 159.833 164.343 163.26 157.76 105.877 501.954 36.3645 67.5528 522.307 -53.9817 109.5 529.789 -63.2512 146.915 530.395 -44.8453 170.445 530.135 -8.50257 100.724 551.669 39.8108 15.7363 14.6372 17.2929 
150.139 167.297 167.629 166.275 159.197 136.725 160.659 166.185 164.197 155.106 106.111 503.475 37.1717 66.9937 526.031 -54.3614 108.905 533.487 -63.6083 146.744 532.43 -45.0424 168.454 530.083 -8.19417 100.025 553.523 39.752 15.0751 15.102 17.2903 
148.458 166.375 166.579 166.313 154.677 135.663 163.543 167.684 164.525 150.527 106.978 504.845 37.5468 67.7749 529.011 -56.253 109.491 536.238 -64.3863 147.294 534.04 -45.2573 167.423 529.215 -7.41575 99.4831 554.471 39.2286 15.7898 15.431 16.8055 
146.986 167.283 168.923 166.393 155.007 135.662 167.657 169.636 165.582 153.219 103.851 505.756 38.9067 67.6258 531.062 -57.1936 109.074 537.342 -64.9823 146.938 535.189 -45.7995 167.746 531.026 -8.25074 98.822 555.892 39.2164 15.7943 15.4209 16.1997 
163.659 168.075 171.265 167.561 158.794 147.675 170.228 171.224 166.483 154.844 94.6066 501.853 32.7304 67.4801 532.647 -57.529 108.789 538.35 -65.2544 146.635 536.076 -46.1837 168.008 532.64 -8.83667 98.5358 557.72 39.1558 15.6696 15.2992 15.9064 
164.828 168.632 172.319 167.242 163.739 148.979 168.524 170.162 164.636 155.108 88.5389 508.392 20.917 64.2628 538.049 -58.2162 107.449 544.436 -66.2939 145.248 541.608 -47.4068 168.03 537.342 -10.9053 97.5696 560.165 38.5117 15.771 15.1433 17.5961 
167.455 165.975 171.132 166.599 164.45 151.092 165.969 169.117 164.519 155.434 86.0523 510.234 13.9086 61.7069 540.001 -58.3249 106.165 548.417 -66.7541 144.263 546.024 -48.077 167.916 540.591 -11.9423 96.7474 560.836 38.2506 16.0041 15.1349 19.2189 
170.509 166.035 169.842 165.506 164.595 153.94 164.569 168.025 164.3 156.417 82.9404 511.578 8.78017 60.8517 540.039 -58.2467 106.226 549.401 -66.6112 144.802 549.591 -47.7549 168.809 544.721 -11.6134 96.2834 561.62 37.9678 16.2932 15.4851 20.12 
168.14 164.222 170.401 165.293 165.096 149.755 166.949 170.042 165.608 158.388 81.5108 507.324 19.6678 61.1499 539.512 -57.4006 105.878 548.606 -65.9608 144.471 549.785 -47.5532 168.963 547.04 -11.4256 95.7928 563.082 38.4944 16.3425 15.3817 19.4414 
168.2 162.433 173.982 166.355 166.142 147.024 168.43 172.694 167.596 160.252 80.2043 505.764 27.9359 60.8039 540.432 -56.4677 104.912 549.193 -65.7411 143.612 549.44 -47.6338 168.194 547.249 -11.4505 95.2303 565.047 38.8509 16.2505 15.328 18.9801 
161.014 162.056 174.234 167.367 168.765 143.544 170.206 172.12 167.647 160.601 80.6157 508.154 34.1766 60.4453 542.119 -56.9957 103.619 548.508 -65.9376 142.475 548.309 -48.0114 166.572 546.609 -11.9186 94.447 566.956 38.6357 15.7438 15.3568 17.7048 
162.143 160.578 177.444 167.395 170.138 145.54 171.192 172.417 167.747 158.779 73.5977 506.845 39.7146 59.8029 544.422 -57.4239 102.455 549.562 -66.3818 141.305 548.627 -48.4229 165.611 546.203 -11.8788 93.8164 568.5 38.2985 16.3354 15.4097 17.0828 
176.745 163.769 172.943 166.922 171.026 144.86 168.685 168.793 166.291 159.572 65.3976 509.111 43.3014 60.4237 544.923 -58.2278 102.876 549.984 -66.4494 141.972 551.753 -48.2182 166.724 549.924 -11.6067 93.4455 569.059 38.4442 16.682 15.5762 16.8253 
178.628 165.279 171.413 166.711 171.901 143.366 166.854 166.918 165.623 159.502 46.9661 516.568 47.5623 59.4276 547.581 -58.9112 101.993 552.277 -66.4736 141.607 554.949 -47.9025 166.766 552.31 -11.1038 92.6378 570.547 38.6913 17.2695 16.088 16.8932 
173.315 165.385 170.219 166.34 172.207 143.209 164.88 164.43 164.447 158.47 49.9952 516.4 45.0194 58.1906 550.9 -59.8617 100.403 554.042 -67.0714 140.251 556.868 -48.4577 165.952 552.876 -11.3635 91.8086 571.245 38.2324 17.8898 16.3283 16.5723 
158.863 166.519 168.979 165.212 171.191 143.09 163.18 163.163 163.431 158.158 39.9336 519.202 44.8328 56.8098 552.277 -59.8223 99.4446 556.926 -67.6264 139.201 559.871 -48.8317 165.409 554.817 -11.7779 91.3472 571.778 38.0132 18.2927 16.3872 17.2694 
161.875 167.592 168.449 165.258 171.562 143.742 162.498 163.063 163.347 158.195 34.7157 521.205 45.9933 55.6883 553.31 -60.2548 98.381 558.316 -67.8377 138.314 561.333 -49.1909 164.737 556.624 -12.1451 90.9646 572.837 37.8658 18.3395 16.4776 17.3634 
145.623 167.485 169.04 166.657 173.731 139.962 163.471 164.27 164.851 160.472 12.8722 545.116 41.7957 55.2262 556.201 -60.466 97.7494 560.088 -67.9899 137.853 562.067 -49.2292 164.484 557.641 -11.9705 90.6183 574.67 37.7179 18.6391 16.5846 17.1318 
134.364 169.14 170.027 168.634 176.188 146.954 166.833 165.765 166.078 163.243 21.5897 535.085 45.8255 55.7249 557.595 -60.9366 97.9385 560.432 -67.8535 137.339 561.449 -48.7649 163.654 558.682 -11.6189 90.0194 575.316 37.927 18.3145 16.1144 16.6299 
173.747 168.757 169.484 167.724 175.832 144.644 165.584 165.834 166.244 164.772 34.3777 526.277 42.1166 55.4022 558.91 -61.3136 96.667 561.294 -68.2186 135.799 562.76 -49.2888 162.458 560.052 -12.2262 89.1377 575.113 37.8168 18.4105 15.9301 15.9307 
168.092 170.844 169.006 167.471 175.677 154.321 168.179 166.368 166.394 165.352 40.2968 523.146 40.4126 56.2033 558.928 -60.4798 95.7894 559.619 -67.7132 134.903 561.529 -49.264 161.746 561.003 -12.5909 88.8222 576.214 37.9148 18.0939 15.6994 14.4795 
160.519 171.716 167.205 167.165 173.168 161.195 168.11 164.187 165.261 163.92 36.9207 526.478 38.1159 55.2173 559.833 -59.731 94.7567 558.279 -66.7487 134.199 562.664 -48.7926 161.314 563.079 -12.3104 88.5866 577.583 38.4168 18.1928 15.997 14.5308 
135.355 168.667 167.037 170.085 173.072 159.786 169.87 165.421 167.277 166.9 35.8658 529.354 43.0813 54.6313 560.836 -58.7399 94.0216 558.147 -65.9732 132.971 562.702 -48.5996 160.428 564.617 -12.6707 88.394 579.605 38.7882 18.0822 15.5023 14.5415 
145.623 172.4 167.305 170.402 171.17 139.953 169.696 165.874 168.264 168.753 13.1285 548.672 44.7545 53.7023 561.177 -58.6439 93.1144 559.566 -66.2469 132.824 564.932 -48.9258 160.771 567.299 -13.0012 88.2582 581.461 38.8484 18.3967 16.0365 14.4279 
145.623 172.584 167.554 170.639 171.938 139.787 169.255 166.33 168.808 168.984 7.92648 554.394 43.4895 53.0209 561.223 -58.578 91.9592 559.736 -66.3665 131.872 565.612 -49.3676 160.252 567.99 -13.5746 88.1331 583.055 38.6455 18.512 16.1273 14.0039 
145.623 171.847 168.199 173.9 173.248 140.181 170.853 167.764 170.009 172.452 8.21393 550.829 51.2856 53.0208 561.821 -57.9626 91.3854 559.23 -65.8208 130.81 564.438 -49.1481 159.835 568.381 -13.6931 88.0416 584.481 38.78 18.8216 15.5616 13.6211 
145.623 172.52 169.756 175.547 174.678 139.828 172.356 169.827 170.753 172.824 5.18919 558.699 47.8903 52.1615 561.061 -56.9406 90.2638 558.319 -65.3105 130.386 562.731 -48.6932 160 567.395 -13.0978 87.9261 586.219 38.9045 19.1738 15.778 13.4225 
139.712 173.148 171.856 177.615 177.352 142.896 172.11 168.88 170.368 171.287 8.73878 551.849 52.6209 51.4326 560.911 -56.1438 88.4532 557.388 -65.0182 128.952 560.598 -48.3182 158.415 564.979 -12.7967 87.5954 587.469 38.9495 18.7307 15.8552 12.7 
145.622 171.179 173.244 178.749 176.993 139.927 168.69 167.314 169.645 169.162 4.43709 560.74 47.6586 49.5346 559.062 -55.1458 87.004 556.946 -65.1217 128.388 559.32 -48.2807 158.252 562.792 -12.0712 87.4509 587.942 38.8294 19.2078 16.4226 13.2045 
145.622 171.863 173.297 178.213 177.853 139.962 169.342 165.641 168.568 166.691 5.10319 559.24 47.5774 48.6775 558.82 -54.8274 85.6331 556.22 -65.052 127.306 558.364 -48.3482 157.38 560.697 -11.8592 87.2247 589.383 38.4113 19.2159 16.5189 12.9294 
145.623 170.435 172.275 177.426 176.382 145.563 169.445 164.411 167.914 166.39 5.94916 556.465 49.3603 47.868 559.013 -54.2469 84.7346 555.967 -64.9104 126.534 557.274 -48.2917 156.553 559.379 -11.918 86.9727 590.824 38.3134 18.9073 16.5113 12.9915 
145.622 168.704 170.985 177.131 174.983 151.844 169.992 163.368 167.052 165.566 6.39526 557.715 46.7317 47.2184 559.808 -53.9897 84.3803 556.157 -64.9543 126.09 556.553 -48.2833 156.038 558.402 -11.8637 86.7585 592.283 38.1623 18.7231 16.3893 13.2706 
145.622 168.932 169.228 176.288 173.661 154.875 168.429 162.016 165.826 163.756 9.0694 559.748 44.2774 47.1851 560.27 -53.8155 84.2557 556.113 -64.9775 125.562 555.375 -48.18 154.914 555.953 -11.4881 86.6545 593.211 38.0276 18.3949 16.1418 13.3119 
145.623 164.891 168.658 176.412 172.682 164.106 171.041 161.386 165.391 163.251 14.6972 557.42 41.0779 47.8894 563.243 -55.655 84.3652 557.514 -65.7768 124.979 556.063 -48.8043 154.035 555.399 -11.7147 86.2795 593.927 38.0701 18.2967 15.6236 12.5983 
161.901 162.031 167.19 175.119 171.645 157.007 173.539 160.485 164.661 163.498 22.343 551.417 43.6572 48.8996 566.823 -57.0062 84.2438 559.989 -66.484 124.411 558.072 -49.5073 153.262 556.708 -12.4385 86.0976 594.647 38.1153 18.0682 15.3203 11.7327 
170.813 163.532 168.871 173.896 172.523 152.874 174.191 164.269 162.724 161.976 30.8194 545.578 43.3455 50.4468 571.189 -58.6254 87.416 565.611 -67.4523 126.754 561.19 -48.4857 154.168 559.024 -11.2174 85.929 594.276 37.9577 17.9845 15.6222 12.7618 
162.295 166.801 167.581 174.49 172.345 149.41 169.661 164.98 163.881 161.047 37.8985 542.838 41.5967 49.3086 571.048 -58.8115 88.0973 568.522 -68.1121 129.423 565.94 -48.6499 155.818 561.52 -9.99934 85.5645 593.461 37.8234 18.9001 17.0584 14.0772 
150.921 168.725 166.499 173.004 169.398 145.032 168.78 165.192 164.7 158.132 45.0345 539.199 43.5997 49.8083 571.864 -60.2952 89.261 570.081 -68.5474 131.122 569.876 -48.8741 156.712 563.076 -9.12136 85.3216 592.561 37.6862 19.8332 17.4731 14.3541 
144.888 168.923 166.028 170.619 165.452 142.415 166.748 165.454 165.585 155.461 47.9663 537.254 45.0323 49.292 570.968 -60.6244 89.3945 571.018 -68.8745 130.939 572.685 -49.5513 156.517 563.946 -9.04274 84.8112 591.661 37.507 20.7943 17.2454 14.8362 
142.712 166.07 165.207 171.242 165.484 144.436 166.456 166.668 167.253 154.866 46.4678 537.977 45.5684 49.808 571.916 -59.9995 90.196 572.682 -68.1084 130.247 574.539 -49.4976 156.408 565.42 -8.67604 84.79 591.999 37.678 21.5073 16.2203 15.1267 
136.833 165.178 165.704 173.517 168.21 142.526 168.654 168.059 168.423 155.911 48.3818 538.257 47.3034 50.2962 574.202 -60.3289 90.865 574.204 -67.8774 129.633 575.5 -49.5398 156.217 566.645 -8.95824 84.6465 592.562 37.6103 21.5845 15.3233 15.1724 
131.99 168.157 166.898 171.651 161.122 144.307 169.579 169.047 169.523 154.722 49.1678 538.279 47.0494 49.8295 575.06 -60.6482 90.23 575.002 -68.0004 129.224 578.009 -49.9196 156.442 569.035 -8.85454 84.6055 592.642 37.6809 22.2532 15.4562 15.0289 
127.198 171.336 168.823 170.641 157.237 146.568 170.159 169.921 171.234 156.272 47.0574 539.539 46.5211 49.2686 574.402 -60.89 89.1235 575.059 -68.3171 128.76 580.329 -50.4976 156.86 571.439 -9.42556 84.3787 592.832 37.6684 22.6052 15.9848 14.5992 
132.224 172.097 170.153 169.296 154.599 150.743 167.034 168.564 171.998 159.195 43.7272 539.727 44.0699 48.1782 571.977 -60.4566 88.1118 575.085 -68.4123 128.916 582.935 -50.5408 157.894 574.579 -9.85038 84.2191 592.871 37.5257 22.7648 17.2387 14.9433 
135.898 172.867 172.151 169.749 155.446 152.662 166.154 166.692 172.131 160.95 42.3046 538.204 44.4528 47.4679 570.403 -59.7255 86.6312 572.948 -68.0225 128.299 584.231 -50.5214 157.562 576.825 -10.3621 83.8687 592.827 37.3854 22.385 18.5973 14.5287 
144.129 175.057 174.456 171.504 156.567 151.794 167.906 165.767 174.605 165.16 44.9345 536.133 43.304 47.4645 567.451 -58.3183 85.5343 569.451 -67.3363 127.387 582.457 -50.5565 156.072 577.161 -11.4068 83.5931 593.553 37.2021 20.8895 19.053 13.8607 
145.895 176.188 175.479 175.19 159.13 152.847 166.992 163.162 174.865 170.917 45.4507 536.38 41.9683 46.4008 564.356 -56.8179 83.4883 565.439 -66.3278 126.348 578.38 -50.0036 154.757 576.394 -12.3529 83.2655 594.535 36.9974 19.4898 19.5903 13.2922 
157.059 175.894 176.668 177.925 177.195 156.322 166.731 162.011 175.201 176.614 39.5355 537.405 40.5389 44.7561 561.179 -55.0957 81.6531 563.756 -65.8314 125.519 576.733 -49.6585 154.581 577.011 -12.6776 83.0293 595.809 36.849 19.5333 20.1626 13.728 
130.823 176.118 173.981 174.27 174.27 157.879 167.829 163.22 171.812 178.982 32.3509 541.267 43.8775 43.9381 562.491 -56.0879 82.2253 564.838 -66.0866 125.004 574.108 -49.556 154.163 576.172 -13.0877 82.4852 596.435 36.6739 19.2509 18.5195 14.4822 
144.059 171.899 171.563 179.965 174.27 157.344 166.736 163.94 172.287 179.444 31.1557 540.66 43.0399 44.0549 564.931 -56.6741 82.6623 567.948 -67.2044 124.933 577.102 -50.8598 155.024 579.161 -14.3745 82.1656 596.754 36.566 19.7799 18.0588 14.7355 
149.171 167.578 167.674 173.844 177.389 153.233 165.343 162.561 169.983 176.68 36.3848 540.51 42.6098 44.2072 568.144 -57.2864 83.0296 569.842 -67.3932 124.801 578.909 -51.2894 154.765 580.449 -15.3701 82.0873 597.421 36.3441 19.4419 17.7408 14.6242 
137.334 165.722 165.157 170.554 177.282 149.925 166.87 162.097 168.381 174.919 39.6367 540.775 43.3222 44.8352 572.859 -58.9607 83.1677 572.415 -67.7095 124.572 580.746 -51.6014 154.361 581.946 -16.131 81.8252 597.932 36.155 19.1077 17.4133 13.9916 
127.396 165.377 163.524 168.439 176.053 146.321 168.576 163.731 168.63 174.578 44.7575 539.498 45.0303 44.7088 575.605 -60.0618 83.6403 575.585 -68.2543 125.029 582.999 -51.8034 154.701 584.232 -16.6121 81.5968 597.795 36.1524 18.9146 17.2463 14.3643 
125.395 165.439 161.944 167.05 178.254 143.896 169.04 164.113 168.465 174.881 46.6244 538.617 46.0764 44.1038 577.918 -60.9568 82.9368 576.744 -68.8502 124.809 584.144 -52.4305 154.154 584.957 -17.4087 81.1421 597.577 35.8647 18.517 17.5485 14.3622 
122.47 166.2 159.726 166.386 178.58 144.481 169.25 163.336 167.594 173.503 48.7299 537.299 45.6281 44.5165 579.016 -61.7242 83.9332 577.608 -68.6642 125.274 585.159 -52.2399 153.935 586.201 -17.4833 80.897 596.808 35.7653 18.0528 17.3159 14.8437 
120.664 165.86 158.655 165.139 177.301 145.813 168.247 163.288 167.316 172.76 49.7946 536.737 43.3958 44.7405 580.378 -62.0642 84.5527 579.805 -68.7287 125.72 586.888 -51.9247 154.149 587.728 -17.2522 80.5078 596.064 35.7265 18.0365 17.3141 15.142 
120.371 166.487 159.911 164.732 177.169 146.787 166.888 163.647 167.234 171.906 48.7332 535.57 43.897 44.2892 579.26 -61.728 84.1348 579.556 -68.7591 125.164 586.82 -51.8458 153.66 587.935 -17.1445 80.0517 595.281 35.7377 18.1538 17.2801 15.1684 
111.906 168.236 163.362 165.776 175.899 146.772 164.341 162.113 166.754 169.418 47.6035 538.379 43.9819 44.3583 577.238 -61.6621 84.0796 577.915 -68.5657 125.045 586.874 -51.874 153.702 588.393 -17.1673 79.9512 595.708 35.5674 18.3562 17.5152 15.0183 
130.085 170.104 164.933 166.494 176.054 139.881 164.546 162.056 165.554 168.641 50.8108 535.434 44.6479 44.972 574.669 -61.6735 84.0683 576.352 -68.7689 124.753 585.692 -51.986 153.064 588.146 -17.722 79.8367 595.728 35.4799 17.8252 17.2723 14.4177 
138.94 172.531 166.766 167.798 177.405 138.811 164.733 161.776 165.326 168.598 52.1341 535.602 43.9745 44.4344 572.64 -60.7904 83.2317 573.984 -68.351 123.815 584.237 -51.9586 152.064 587.155 -18.0673 79.5459 595.809 35.6036 17.4824 17.2906 14.2544 
146.088 172.145 170.983 168.359 179.188 140.948 164.757 162.854 167.81 172.298 51.9074 536.281 42.9812 43.1979 569.951 -59.2453 81.8566 572.483 -68.2815 123.262 582.501 -51.7233 151.04 586.28 -18.2328 79.4907 596.623 35.8457 16.8324 17.6725 14.3241 
136.967 178.908 174.619 171.573 177.937 140.584 163.183 163.507 170.113 174.966 50.1391 540.919 43.2628 41.8869 567.333 -57.8355 80.7188 570.329 -68.0445 122.143 579.853 -51.8935 150.177 583.854 -18.3281 79.4847 597.956 35.9159 16.7691 17.387 14.6512 
133.42 179.091 175.717 178.269 174.27 142.202 160.72 163.248 170.781 179.432 49.6113 542.688 43.2075 41.868 564.751 -56.3914 79.8083 568.812 -67.8054 120.904 577.287 -51.8502 149.931 580.92 -17.6484 79.1977 598.57 35.9974 17.5193 16.8301 14.4259 
120.324 177.683 174.99 178.233 174.27 144.987 159.27 163.396 170.974 178.746 45.2922 543.58 44.9936 41.136 562.144 -54.6549 78.4864 568.124 -67.5746 119.703 575.782 -51.6223 149.866 577.244 -16.5638 79.0698 598.815 36.4104 18.5059 16.6403 14.8638 
132.288 175.174 174.482 178.236 174.271 145.968 156.81 163.602 170.57 176.842 45.5191 541.485 44.2332 41.4174 560.743 -52.9472 77.9555 567.869 -67.2605 118.565 574.571 -51.2989 149.122 574.205 -15.7837 78.9671 599.193 36.5081 19.0703 16.0394 15.1258 
134.22 170.06 174.85 179.943 174.27 146.073 154.129 163.431 169.472 175.472 47.6992 542.157 42.5677 40.8167 558.892 -51.3755 77.4378 567.277 -67.1563 117.672 572.82 -51.0859 148.224 571.518 -15.1915 78.7863 599.503 36.398 19.3016 15.6311 16.2943 
