145.147 162.852 163.974 166.158 164.164 132.803 154.104 157.314 157.635 151.213 -67.1785 177.054 -38.3162 -146.04 183.526 -92.9162 -125.215 198.125 -110.206 -97.9034 211.73 -108.44 -67.8449 220.923 -90.0767 -97.8755 206.505 -12.9984 9.09961 6.64286 6.74631 
144.845 162.736 163.882 165.954 163.883 132.442 153.98 157.19 157.483 151.093 -68.0391 176.923 -38.4511 -146.87 183.657 -93.0466 -126.074 198.323 -110.339 -98.6117 211.814 -108.607 -68.4277 220.842 -90.266 -98.4317 206.355 -13.2046 9.15844 6.70462 6.77079 
144.725 162.336 163.493 165.41 163.33 132.365 153.243 156.509 156.821 150.421 -69.0089 176.828 -38.829 -147.226 183.62 -93.2117 -126.507 198.379 -110.441 -99.1179 211.864 -108.69 -68.9463 220.84 -90.3593 -99.043 206.31 -13.4838 9.18437 6.68875 6.75915 
144.721 162.036 163.189 164.865 162.772 132.472 152.695 155.894 156.006 149.314 -69.9779 177.097 -39.1294 -147.719 183.861 -93.2937 -126.883 198.518 -110.481 -99.4808 211.749 -108.669 -69.4803 220.517 -90.257 -99.7483 206.51 -13.6481 9.02772 6.60948 6.77277 
144.732 161.982 163.058 164.51 162.323 132.554 152.618 155.667 155.52 148.328 -70.6609 177.402 -39.437 -148.193 184.01 -93.499 -127.192 198.585 -110.638 -99.7736 211.577 -108.73 -70.0016 220.025 -90.1386 -100.398 206.601 -13.8329 8.78779 6.52409 6.80824 
144.82 162.3 163.194 164.692 162.265 132.684 153.071 156.048 155.769 148.28 -71.3429 177.355 -39.5905 -149.055 184.278 -93.8511 -127.919 198.762 -111.033 -100.304 211.558 -109.117 -70.5642 219.716 -90.3794 -101.095 206.69 -14.0646 8.69497 6.5609 6.84413 
144.936 162.489 163.41 164.838 162.442 132.851 153.681 156.528 156.039 148.563 -72.2079 177.132 -39.6831 -149.918 184.436 -94.0247 -128.678 198.944 -111.295 -100.84 211.523 -109.366 -71.034 219.584 -90.6124 -101.771 206.795 -14.1454 8.7379 6.61149 6.92275 
144.902 162.363 163.34 164.699 162.255 132.897 153.649 156.579 155.957 148.477 -73.2545 176.884 -39.8098 -150.457 184.157 -93.9321 -129.406 199.003 -111.244 -101.493 211.444 -109.321 -71.5697 219.367 -90.6342 -102.408 206.846 -14.1816 8.81182 6.61916 6.98124 
144.909 162.055 163.088 164.362 161.923 132.985 153.036 156.133 155.511 148.039 -74.2185 176.419 -40.0076 -150.713 183.733 -93.817 -129.825 198.691 -111.089 -101.998 211.029 -109.164 -72.0447 218.848 -90.5289 -102.919 206.73 -14.2568 8.81837 6.54664 6.9634 
145.059 162.005 163.029 164.314 161.874 132.932 152.736 155.894 155.289 147.756 -75.2618 176.369 -40.0557 -151.646 183.198 -94.0322 -130.778 197.948 -111.301 -103.052 210.236 -109.369 -73.3183 218.171 -90.7293 -104.198 206.653 -14.5339 8.65414 6.46291 6.86384 
145.124 162.241 163.221 164.507 161.967 132.862 153.109 156.223 155.476 147.782 -75.3403 176.357 -39.9769 -152.205 183.125 -94.2019 -131.2 197.707 -111.483 -103.322 209.819 -109.538 -73.6462 217.699 -90.8316 -104.583 206.585 -14.6495 8.59926 6.49187 6.86649 
145.11 162.554 163.561 164.875 162.273 132.693 154.004 156.999 156.085 148.36 -75.5422 176.062 -39.8482 -153.261 182.987 -94.2439 -132.222 197.679 -111.62 -104.121 209.678 -109.749 -74.2049 217.553 -91.1039 -105.084 206.256 -14.6937 8.76628 6.59019 6.96291 
144.971 162.68 163.687 165.101 162.529 132.59 154.307 157.308 156.39 148.752 -76.0099 175.763 -39.9336 -154.033 182.583 -94.2153 -133.113 197.523 -111.69 -104.982 209.535 -109.92 -74.8181 217.466 -91.4142 -105.571 205.986 -14.8338 8.94314 6.61206 7.05335 
144.72 162.362 163.423 164.913 162.46 132.478 153.497 156.767 156.073 148.566 -76.5094 175.408 -40.221 -154.314 181.696 -93.9883 -133.714 197.031 -111.512 -105.774 209.292 -109.857 -75.4289 217.386 -91.5472 -105.959 205.566 -15.0192 9.10758 6.58806 7.12655 
144.549 162.055 163.234 164.823 162.709 132.551 152.557 156.127 155.813 148.563 -77.0708 175.262 -40.6273 -154.324 180.802 -93.8237 -134.043 196.446 -111.422 -106.545 209.24 -109.856 -76.1954 217.728 -91.7519 -106.341 205.207 -15.2125 9.16737 6.51071 7.17175 
144.541 162.026 163.202 164.844 162.835 132.619 152.206 155.854 155.717 148.518 -77.3021 175.333 -41.0086 -154.444 180.162 -94.0067 -134.285 195.838 -111.582 -107.082 208.901 -110.033 -76.8846 217.647 -91.9916 -106.771 204.839 -15.4646 9.08109 6.42779 7.11936 
144.517 162.277 163.321 165.176 163.265 132.638 152.309 156.136 156.192 149.086 -77.4319 175.147 -41.2222 -154.881 179.688 -94.2311 -134.955 195.421 -111.863 -107.888 208.767 -110.405 -77.6419 217.713 -92.4473 -107.159 204.487 -15.7369 9.10776 6.44886 7.04567 
144.65 162.512 163.355 165.391 163.388 132.735 152.585 156.566 156.69 149.576 -77.6484 174.279 -41.1554 -155.569 179.411 -94.3669 -135.728 195.01 -112.073 -108.529 208.242 -110.714 -78.125 217.066 -92.7863 -107.478 204.019 -15.8986 9.1401 6.47853 6.95553 
144.717 162.497 163.284 165.411 163.275 132.817 152.914 156.971 157.023 149.847 -78.0958 173.306 -41.1632 -156.099 178.938 -94.5554 -136.346 194.72 -112.336 -108.989 207.762 -111.024 -78.3902 216.396 -93.1021 -107.826 203.595 -16.1082 9.23744 6.50537 7.04498 
144.639 162.404 162.991 165.19 163.087 132.846 152.534 156.776 156.945 149.804 -78.6835 172.241 -41.254 -156.401 178.315 -94.5831 -136.827 194.272 -112.378 -109.499 207.331 -111.111 -78.7959 215.941 -93.2386 -108.093 203.074 -16.296 9.30001 6.50968 7.08704 
144.647 162.4 162.785 164.971 162.999 132.792 152.146 156.476 156.758 149.737 -79.0659 171.596 -41.2316 -156.606 177.698 -94.6269 -137.052 193.702 -112.456 -109.813 206.885 -111.19 -79.137 215.715 -93.3487 -108.407 202.663 -16.4394 9.34924 6.50898 7.12141 
144.828 162.43 162.787 164.611 162.722 133.101 151.746 155.892 156.104 149.007 -79.7373 171.502 -41.8343 -156.887 177.194 -94.6986 -137.125 193.084 -112.518 -110.019 206.261 -111.205 -79.5525 215.146 -93.3633 -108.803 202.288 -16.6173 9.20622 6.4257 7.16719 
144.965 162.575 162.902 164.59 162.675 133.422 151.531 155.684 155.966 148.771 -80.4479 171.559 -42.4488 -157.254 176.682 -94.7774 -137.561 192.572 -112.65 -110.546 205.926 -111.364 -80.1158 214.729 -93.5244 -109.251 201.957 -16.7756 9.12975 6.43651 7.15329 
144.985 162.64 163.091 164.663 162.72 133.485 151.511 155.819 156.087 148.865 -80.9633 171.371 -42.7019 -157.682 176.151 -94.9141 -138.153 192.169 -112.896 -111.04 205.589 -111.652 -80.4996 214.296 -93.8058 -109.665 201.647 -16.9464 9.17857 6.51436 7.18379 
144.988 162.649 163.311 164.744 162.549 133.605 152.018 156.353 156.364 148.829 -81.4923 170.652 -42.8554 -158.406 175.59 -95.0258 -138.999 191.876 -113.117 -111.554 205.016 -111.918 -80.7372 213.269 -94.0006 -110.073 201.215 -17.1249 9.28305 6.60093 7.34338 
145 162.636 163.198 164.723 162.418 133.687 152.458 156.68 156.539 148.862 -81.6816 169.751 -42.8615 -158.819 174.753 -95.1957 -139.461 191.249 -113.327 -111.893 204.334 -112.157 -80.8876 212.559 -94.2064 -110.394 200.711 -17.3292 9.44555 6.64759 7.46819 
144.984 162.747 163.182 164.67 162.526 133.538 152.696 156.661 156.478 148.952 -81.8272 169.276 -42.7947 -159.215 174.146 -95.3904 -139.687 190.537 -113.521 -112.119 203.75 -112.348 -81.1271 212.333 -94.4291 -110.803 200.366 -17.5051 9.54519 6.69196 7.48291 
144.892 162.708 163.042 164.467 162.468 133.281 152.505 156.318 156.158 148.791 -81.9667 169.001 -42.854 -159.364 173.559 -95.6998 -139.676 189.672 -113.78 -112.253 203.008 -112.581 -81.4796 211.971 -94.6956 -111.154 199.984 -17.7957 9.46978 6.64254 7.37503 
144.896 162.728 163.033 164.546 162.641 133.195 152.361 156.219 156.169 148.911 -82.145 169.016 -43.2056 -159.51 173.014 -96.0772 -139.786 189.115 -114.126 -112.578 202.658 -112.898 -81.9764 211.888 -95.0287 -111.5 199.534 -18.0954 9.39167 6.58301 7.34663 
144.905 162.699 163.142 164.791 162.787 133.194 152.125 156.416 156.519 149.266 -82.4133 168.796 -43.5066 -159.698 172.349 -96.3169 -140.306 188.883 -114.437 -113.179 202.654 -113.235 -82.4975 211.855 -95.3739 -111.813 199.024 -18.3315 9.4243 6.61983 7.43549 
144.958 162.443 163.086 164.764 162.616 133.333 152.027 156.64 156.701 149.368 -82.9825 168.077 -43.784 -160.1 171.74 -96.4297 -140.959 188.64 -114.643 -113.706 202.278 -113.489 -82.8266 211.189 -95.6392 -112.156 198.473 -18.5327 9.49657 6.65139 7.5917 
145.026 162.314 163.066 164.844 162.505 133.327 152.178 157.073 157.06 149.622 -83.2896 167.248 -43.9114 -160.54 171.127 -96.6162 -141.754 188.488 -114.898 -114.344 201.98 -113.796 -83.1746 210.583 -95.9517 -112.485 197.885 -18.7571 9.63598 6.68874 7.75565 
145.113 162.287 162.996 164.617 162.257 133.387 152.189 156.889 156.763 149.226 -83.6557 166.85 -44.1827 -161.066 170.692 -96.8057 -142.188 188.006 -115.081 -114.739 201.467 -113.984 -83.514 210.138 -96.132 -112.943 197.513 -18.9858 9.71952 6.69547 7.7551 
145.314 162.721 163.212 164.737 162.487 133.597 152.629 156.99 156.918 149.456 -84.1712 166.817 -44.6237 -161.629 170.488 -97.1971 -142.638 187.633 -115.466 -115.341 201.274 -114.377 -84.161 210.22 -96.5541 -113.498 197.371 -19.2709 9.72385 6.6606 7.67663 
145.54 163.191 163.558 165.139 162.918 133.867 153.132 157.323 157.413 150.145 -84.7875 166.884 -45.2298 -162.119 170.195 -97.6018 -143.255 187.438 -115.91 -116.136 201.378 -114.86 -84.9106 210.518 -97.097 -113.998 197.217 -19.549 9.74986 6.66335 7.678 
145.674 163.5 163.858 165.486 163.216 134.19 153.297 157.628 157.842 150.651 -85.549 166.958 -45.8391 -162.605 169.972 -97.9403 -144.007 187.536 -116.316 -116.988 201.589 -115.309 -85.6755 210.664 -97.5982 -114.552 197.103 -19.8387 9.75274 6.64736 7.78217 
145.774 163.692 164.08 165.635 163.262 134.531 153.296 157.843 158.012 150.689 -86.2171 166.949 -46.2736 -162.886 169.51 -98.1399 -144.545 187.469 -116.575 -117.495 201.393 -115.571 -86.1515 210.182 -97.8302 -115.091 196.971 -20.074 9.69612 6.61275 7.98739 
145.67 163.742 164.201 165.604 163.043 134.561 153.101 157.858 157.879 150.28 -86.6484 166.862 -46.5702 -163.32 169.18 -98.3057 -145.073 187.233 -116.769 -117.864 200.854 -115.778 -86.5478 209.212 -97.948 -115.499 196.617 -20.3242 9.56739 6.57396 8.02059 
145.484 163.77 164.109 165.465 162.932 134.274 152.807 157.594 157.56 149.845 -86.8508 166.672 -46.5644 -163.786 168.943 -98.5119 -145.415 186.745 -116.967 -118.142 200.197 -115.979 -86.9673 208.524 -98.1137 -115.934 196.294 -20.5981 9.46035 6.54155 7.879 
145.377 163.831 164.088 165.561 163.189 134.006 152.611 157.477 157.542 149.925 -87.0129 166.754 -46.5206 -164.111 168.773 -98.8873 -145.771 186.389 -117.337 -118.641 199.953 -116.342 -87.6134 208.57 -98.4887 -116.474 196.162 -20.9026 9.39354 6.48841 7.7083 
145.341 163.741 164.059 165.595 163.361 133.955 152.273 157.393 157.577 150.107 -87.5922 166.615 -46.7228 -164.599 168.843 -99.3321 -146.309 186.422 -117.824 -119.214 200.006 -116.818 -88.2804 208.678 -98.9777 -117.048 196.093 -21.3027 9.32103 6.47501 7.65323 
145.289 163.792 164.179 165.868 163.742 133.914 152.153 157.675 158.014 150.72 -88.243 166.407 -46.9009 -165.205 168.883 -99.6874 -147.096 186.638 -118.253 -120.026 200.207 -117.297 -89.0372 208.822 -99.5329 -117.587 195.917 -21.6441 9.31365 6.45921 7.70481 
145.164 163.884 164.281 166.075 163.996 133.736 152.135 157.937 158.401 151.253 -89.0245 166.223 -47.0809 -166.083 169.064 -99.904 -148.094 186.893 -118.511 -120.96 200.319 -117.653 -89.8819 208.76 -100.006 -118.112 195.661 -21.9064 9.28508 6.45082 7.71194 
145.002 163.777 164.183 165.829 163.69 133.528 152.044 157.838 158.195 150.963 -89.7399 165.936 -47.2429 -166.785 169.126 -100.08 -148.672 186.747 -118.634 -121.38 199.884 -117.795 -90.3556 208.098 -100.152 -118.562 195.326 -22.1154 9.19114 6.44114 7.59828 
145.01 164.087 164.337 165.815 163.582 133.238 152.55 158.044 158.276 150.956 -90.0854 165.838 -47.3642 -167.775 169.361 -100.355 -149.376 186.641 -118.817 -121.982 199.642 -117.984 -90.9661 207.82 -100.318 -119.021 194.918 -22.2321 9.15546 6.43735 7.39743 
145.031 164.174 164.349 165.844 163.734 133.133 152.554 157.917 158.306 151.165 -90.7346 165.934 -47.5212 -168.627 169.561 -100.567 -150.149 186.625 -119.038 -122.839 199.814 -118.244 -91.8125 208.223 -100.655 -119.683 194.917 -22.4102 9.18658 6.4484 7.27348 
145.142 164.351 164.501 165.993 163.945 133.233 152.752 158.041 158.557 151.596 -91.7058 166.051 -47.8852 -169.569 169.748 -100.797 -151.105 186.807 -119.325 -123.834 200.156 -118.586 -92.7314 208.662 -101.076 -120.377 194.983 -22.6065 9.22297 6.47821 7.26772 
145.041 164.356 164.668 165.984 163.774 133.19 152.778 158.164 158.584 151.494 -92.6668 166.276 -48.2974 -170.475 169.906 -100.949 -152.093 187.111 -119.516 -124.696 200.343 -118.826 -93.4542 208.575 -101.328 -121.018 194.965 -22.8274 9.24845 6.50823 7.33384 
144.893 164.22 164.754 165.779 163.418 133.054 152.63 158.154 158.38 151.073 -93.4819 166.361 -48.6775 -170.941 169.618 -101.086 -152.701 187.02 -119.654 -125.245 200.067 -118.965 -94.0103 208.01 -101.451 -121.577 194.784 -23.0797 9.18422 6.47892 7.41588 
144.494 163.862 164.707 165.407 162.76 132.554 152.291 157.792 157.757 150.076 -94.1496 166.521 -48.8135 -171.504 169.346 -101.103 -153.23 186.61 -119.667 -125.609 199.382 -118.998 -94.3564 207.027 -101.432 -122.14 194.621 -23.3337 9.18957 6.49407 7.38032 
144.282 163.845 164.603 165.233 162.548 132.136 152.309 157.507 157.402 149.589 -94.7138 166.625 -48.8668 -172.27 169.165 -101.216 -153.771 186.097 -119.805 -126.123 198.862 -119.164 -94.9442 206.576 -101.605 -122.771 194.534 -23.5719 9.15948 6.50783 7.28045 
143.991 163.527 164.523 165.316 162.542 131.656 152.08 157.665 157.605 149.716 -96.1399 166.187 -49.0647 -173.572 168.661 -101.593 -155.372 185.827 -120.321 -127.681 198.567 -119.794 -96.3053 206.098 -102.295 -123.983 194.154 -24.147 9.24773 6.53443 7.36734 
144.035 163.375 164.569 165.231 162.502 132.036 151.63 157.471 157.439 149.402 -97.0658 166.143 -49.6819 -173.727 168.194 -101.69 -155.845 185.643 -120.499 -128.269 198.464 -120 -96.9254 205.934 -102.527 -124.464 194.153 -24.4719 9.19087 6.49964 7.49662 
143.919 162.833 164.328 164.887 162 132.099 151.013 157.109 156.92 148.719 -98.2063 165.976 -50.2352 -174.049 167.669 -101.798 -156.39 185.348 -120.639 -128.731 198.021 -120.155 -97.4087 205.236 -102.686 -125.082 193.985 -24.8198 9.17143 6.51763 7.64723 
143.969 162.841 164.287 164.954 162.125 132.239 151.133 157.287 157.072 148.865 -98.9543 165.467 -50.6626 -174.875 167.406 -101.882 -157.179 185.165 -120.777 -129.451 197.813 -120.378 -98.042 205.009 -103.004 -125.536 193.645 -25.1009 9.20567 6.56393 7.75345 
144.371 163.19 164.4 165.12 162.505 132.627 151.416 157.459 157.275 149.211 -99.766 165.176 -51.1162 -175.85 167.536 -102.08 -157.974 185.178 -121.021 -130.218 197.729 -120.669 -98.7598 204.987 -103.394 -126.128 193.565 -25.2983 9.21097 6.54245 7.74672 
144.611 163.233 164.297 165.126 162.754 132.879 151.299 157.35 157.306 149.464 -100.678 165.103 -51.5242 -176.632 167.592 -102.251 -158.785 185.274 -121.23 -131.167 198.019 -120.925 -99.6551 205.56 -103.792 -126.847 193.684 -25.5522 9.27068 6.52587 7.77796 
144.818 163.379 164.354 165.259 163.009 133.079 151.525 157.605 157.576 149.817 -101.379 164.886 -51.7663 -177.451 167.651 -102.389 -159.61 185.436 -121.409 -132.006 198.187 -121.144 -100.395 205.799 -104.09 -127.445 193.621 -25.6818 9.33162 6.51505 7.84216 
144.997 163.446 164.305 165.199 162.988 133.261 151.53 157.521 157.495 149.711 -102.234 164.85 -52.0631 -178.122 167.661 -102.487 -160.297 185.413 -121.512 -132.68 198.051 -121.271 -101.041 205.567 -104.263 -128.086 193.672 -25.8111 9.32587 6.48009 7.83407 
145.01 163.444 164.273 165.019 162.801 133.479 151.471 157.405 157.209 149.269 -103.315 164.84 -52.5721 -178.727 167.678 -102.571 -160.901 185.423 -121.575 -133.17 197.692 -121.321 -101.527 204.813 -104.322 -128.665 193.61 -25.9836 9.27864 6.42548 7.85845 
144.81 163.493 164.242 164.938 162.729 133.43 151.505 157.383 157.112 149.207 -104.234 164.706 -52.9224 -179.358 167.565 -102.61 -161.612 185.409 -121.599 -133.848 197.572 -121.371 -102.161 204.636 -104.472 -129.13 193.4 -26.1253 9.28646 6.40903 7.89005 
144.372 163.455 164.001 164.869 162.811 132.771 151.462 157.335 157.208 149.506 -104.758 164.284 -52.4955 -180.129 167.231 -102.538 -162.425 185.034 -121.598 -134.639 197.317 -121.473 -102.75 204.658 -104.71 -129.628 193.156 -26.2166 9.473 6.46969 7.88027 
143.945 163.721 163.941 164.915 162.956 131.907 151.614 157.395 157.377 149.859 -104.955 164.148 -51.8749 -180.91 167.031 -102.532 -163.195 184.747 -121.642 -135.448 197.204 -121.583 -103.465 204.908 -104.929 -130.143 193.004 -26.2488 9.5807 6.49614 7.81085 
143.472 163.885 163.857 164.9 162.882 131.035 151.833 157.458 157.456 149.938 -105.124 164.19 -51.3404 -181.649 166.913 -102.637 -163.947 184.572 -121.76 -136.249 197.18 -121.732 -104.249 205.097 -105.114 -130.722 192.869 -26.2972 9.60868 6.50125 7.71763 
143.12 163.649 163.619 164.815 162.761 130.52 151.504 157.26 157.412 149.863 -105.782 164.094 -51.0975 -182.169 166.675 -102.67 -164.719 184.396 -121.83 -137.086 197.031 -121.879 -105.034 204.865 -105.319 -131.343 192.806 -26.4131 9.59677 6.47278 7.701 
143.119 163.58 163.561 164.778 162.611 130.687 151.439 157.263 157.376 149.669 -106.63 163.708 -51.2945 -182.685 166.528 -102.794 -165.375 184.315 -121.958 -137.635 196.764 -122.034 -105.526 204.271 -105.437 -131.872 192.697 -26.5602 9.57363 6.47898 7.72674 
143.266 163.213 163.333 164.573 162.473 131.048 150.94 156.924 157.087 149.372 -107.548 163.294 -51.6955 -183.152 166.211 -102.803 -165.976 184.056 -122.01 -138.197 196.33 -122.15 -106.018 203.668 -105.618 -132.458 192.606 -26.8028 9.6079 6.46645 7.81613 
143.329 162.942 163.121 164.52 162.638 130.929 150.564 156.655 156.953 149.347 -108.664 163.198 -51.7856 -183.812 165.378 -102.817 -166.831 183.346 -122.066 -139.214 195.883 -122.236 -107.078 203.54 -105.805 -133.53 192.325 -26.9956 9.63647 6.47197 7.92524 
143.615 162.85 163.035 164.529 162.755 131.067 150.257 156.368 156.799 149.244 -108.861 163.698 -51.9313 -183.781 165.114 -102.702 -166.904 183.098 -121.939 -139.44 195.791 -122.132 -107.387 203.67 -105.761 -133.849 192.453 -26.9875 9.61386 6.44859 7.96885 
143.947 162.794 162.926 164.489 162.804 131.249 150.169 156.175 156.68 149.19 -109.461 163.97 -52.1186 -184.027 164.995 -102.801 -167.095 182.881 -122.015 -139.694 195.57 -122.184 -107.735 203.486 -105.806 -134.396 192.544 -27.0353 9.56421 6.41759 7.96831 
144.169 163.021 163.064 164.645 162.944 131.274 150.543 156.369 156.863 149.348 -109.912 164.277 -52.2486 -184.547 165.104 -102.956 -167.546 182.811 -122.141 -140.128 195.374 -122.314 -108.243 203.236 -105.945 -134.895 192.616 -27.0897 9.46545 6.37995 7.89917 
144.412 163.428 163.305 164.822 163.137 131.53 151.137 156.707 157.097 149.543 -110.462 164.528 -52.6205 -185.194 165.415 -103.228 -167.999 183.052 -122.367 -140.498 195.384 -122.499 -108.733 203.114 -106.104 -135.342 192.658 -27.1769 9.32077 6.33413 7.87406 
144.395 163.714 163.562 164.979 163.253 131.605 151.688 157.095 157.346 149.77 -111.033 164.642 -52.9314 -185.797 165.506 -103.394 -168.534 183.194 -122.515 -140.866 195.319 -122.643 -109.129 202.855 -106.274 -135.647 192.483 -27.2606 9.24376 6.35544 7.90477 
144.924 163.379 163.944 165.086 163.112 131.487 151.725 157.323 157.407 149.768 -111.615 165.03 -53.567 -186.266 165.755 -103.591 -169.219 183.896 -122.709 -141.335 195.898 -122.864 -109.451 203.063 -106.487 -135.832 192.162 -27.3742 9.27309 6.44943 8.10899 
145.327 163.099 164.196 165.204 163.091 131.336 151.637 157.426 157.537 149.927 -112.314 165.103 -53.9962 -186.661 165.707 -103.604 -169.918 184.255 -122.749 -141.886 196.329 -123.013 -109.745 203.197 -106.696 -135.989 191.84 -27.4585 9.39503 6.584 8.34559 
145.571 162.682 164.137 164.978 162.778 131.164 151.16 157.015 157.207 149.578 -113.105 165.199 -54.2775 -187.017 165.581 -103.462 -170.388 184.268 -122.624 -142.222 196.376 -123.009 -109.964 202.99 -106.717 -136.236 191.675 -27.5202 9.4525 6.71127 8.47506 
146.029 162.361 164.059 164.77 162.637 131.157 150.701 156.61 156.998 149.518 -113.788 165.194 -54.6765 -187.184 165.215 -103.346 -170.778 184.081 -122.557 -142.681 196.526 -123.054 -110.325 203.217 -106.854 -136.464 191.452 -27.6164 9.52668 6.81268 8.59679 
145.715 162.63 163.962 164.58 162.573 131.004 150.493 156.392 156.766 149.338 -114.318 165.225 -54.5794 -187.159 164.537 -103.315 -170.785 183.293 -122.579 -142.828 195.85 -123.04 -110.6 202.956 -106.865 -136.789 191.428 -27.733 9.51888 6.75623 8.55269 
145.194 163.066 163.853 164.547 162.684 130.77 150.482 156.213 156.679 149.399 -114.449 165.273 -54.3231 -187.251 164.077 -103.321 -170.826 182.579 -122.615 -143.075 195.32 -123.066 -110.967 202.954 -106.955 -137.087 191.444 -27.8225 9.51868 6.68569 8.3982 
144.515 163.562 163.78 164.564 162.77 130.35 150.678 156.221 156.794 149.557 -114.346 165.293 -53.9439 -187.313 163.71 -103.408 -170.849 182.064 -122.686 -143.314 195.059 -123.111 -111.31 203.126 -107.022 -137.295 191.418 -27.9051 9.5175 6.63517 8.27011 
144.692 163.382 163.885 164.7 162.852 129.805 150.627 156.206 156.926 149.721 -114.223 165.613 -53.9336 -187.377 163.579 -103.53 -171.118 182.052 -122.866 -143.74 195.385 -123.338 -111.66 203.596 -107.293 -137.373 191.197 -28.0181 9.57157 6.68178 8.30328 
145.084 163.145 163.982 164.729 162.84 129.238 150.517 156.121 156.955 149.839 -114.301 165.977 -54.0428 -187.579 163.66 -103.658 -171.425 182.197 -123.068 -144.085 195.664 -123.588 -111.941 203.86 -107.584 -137.478 191.087 -28.161 9.59044 6.72677 8.35417 
145.121 163.126 164.198 164.835 162.858 128.578 150.743 156.34 157.13 150.07 -114.477 166.251 -53.8284 -187.999 163.903 -103.794 -171.81 182.41 -123.271 -144.373 195.807 -123.81 -112.197 203.982 -107.83 -137.683 191.08 -28.234 9.59453 6.75018 8.34595 
145.389 163.141 164.415 164.982 162.883 128.128 151.082 156.664 157.345 150.269 -114.46 166.405 -53.6836 -188.365 164.05 -103.956 -172.159 182.633 -123.48 -144.623 195.963 -124.01 -112.427 204.077 -108.004 -137.871 191.077 -28.2812 9.57798 6.76349 8.37661 
145.473 163.214 164.698 165.22 162.988 127.736 151.46 157.106 157.718 150.638 -114.5 166.423 -53.5096 -188.739 164.158 -104.069 -172.583 182.903 -123.665 -144.923 196.156 -124.219 -112.6 204.127 -108.202 -137.987 191.005 -28.3141 9.6185 6.79821 8.48015 
145.495 163.362 165.008 165.486 163.184 127.497 151.857 157.518 158.102 151.065 -114.853 166.472 -53.6077 -189.296 164.457 -104.226 -173.148 183.342 -123.89 -145.348 196.474 -124.489 -112.889 204.252 -108.502 -138.102 190.939 -28.4236 9.64038 6.82819 8.56968 
145.796 163.539 165.263 165.668 163.327 127.31 152.295 157.85 158.365 151.353 -115.001 166.458 -53.7096 -189.718 164.64 -104.376 -173.459 183.548 -124.074 -145.522 196.596 -124.692 -112.984 204.268 -108.699 -138.17 190.862 -28.4915 9.66311 6.86371 8.57811 
145.836 163.672 165.411 165.719 163.38 127.246 152.569 157.977 158.447 151.447 -115.158 166.66 -53.8944 -190.02 164.843 -104.486 -173.62 183.681 -124.201 -145.574 196.63 -124.83 -112.978 204.234 -108.843 -138.19 190.814 -28.567 9.69427 6.88099 8.53405 
145.858 163.691 165.447 165.699 163.389 127.153 152.652 157.958 158.391 151.403 -115.228 166.71 -53.9397 -190.208 165.019 -104.522 -173.692 183.746 -124.249 -145.555 196.596 -124.885 -112.906 204.169 -108.9 -138.235 190.854 -28.6128 9.74657 6.89747 8.48172 
145.615 163.616 165.362 165.596 163.318 127.055 152.518 157.759 158.189 151.152 -115.335 166.688 -53.9509 -190.143 165.032 -104.547 -173.566 183.616 -124.244 -145.394 196.329 -124.882 -112.754 203.809 -108.892 -138.205 190.835 -28.6726 9.73717 6.87424 8.41398 
