141.126 177.617 171.909 174.27 174.263 159.679 163.653 172.5 178.26 175.736 140.209 290.315 7.92001 128.556 278.275 -58.3556 165.258 299.282 -84.4448 201.612 319.377 -76.7252 228.615 325.05 -47.1541 171.74 334.287 12.7211 13.4898 16.7947 25.1789 
163.51 179.892 180 174.27 174.27 166.622 167.882 179.987 178.211 175.866 145.412 287.202 9.37036 132.74 279.096 -60.2149 173.701 305.094 -84.5115 210.747 324.066 -75.1891 231.022 328.642 -46.1603 174.059 335.696 13.3913 8.33635 16.6229 28.0906 
165.82 176.698 177.313 174.27 174.27 168.217 167.594 172.216 178.199 176.782 143.818 285.55 10.0174 136.902 279.113 -64.0082 176.402 303.34 -83.1739 216.293 327.143 -73.7339 232.877 329.733 -45.0972 174.64 335.369 13.8342 6.77769 20.3873 24.2036 
174.784 179.303 174.684 174.27 174.27 165.638 169.703 171.944 178.166 177.626 145.093 285.423 8.85961 137.479 280.891 -67.2937 177.316 303.837 -83.8878 214.093 327.027 -75.0026 235.978 332.652 -44.6971 174.637 334.847 13.8828 11.1447 17.9915 22.6009 
111.228 176.923 173.116 174.635 174.27 159.985 171.426 169.932 173.936 178.255 148.73 290.701 8.09932 137.928 282.941 -69.4575 175.901 303.834 -84.3097 212.395 323.897 -75.2994 238.415 335.477 -44.6025 174.734 334.427 13.8976 15.4293 16.3295 19.9026 
99.7859 179.372 172.848 172.159 174.27 160.728 173.232 171.396 174.061 178.674 152.502 287.065 12.729 140.863 284.323 -71.8305 177.427 306.066 -84.2713 214.939 324.98 -74.1578 241.503 337.501 -42.3863 175.039 334.624 14.0771 17.0977 16.7718 18.649 
99.7859 179.304 174.307 167.736 174.27 164.868 174.234 173.62 173.835 179.327 149.097 285.72 11.8486 142.865 285.329 -73.5075 179.194 308.627 -84.4585 216.991 326.296 -73.0903 244.691 339.173 -40.2405 175.241 334.64 14.2053 19.0491 16.8763 18.7508 
99.7859 178.672 180 163.862 174.27 165.743 174.341 179.82 173.853 179.587 146.05 285.139 11.3371 144.451 286.146 -74.2201 180.277 312.889 -85.0441 218.433 327.329 -72.2503 247.189 339.983 -38.1386 175.56 334.922 14.1583 20.8127 16.7808 20.1268 
99.7859 178.776 180 164.716 174.27 164.436 175.734 179.834 174.163 179.762 144.296 284.301 11.9937 143.963 286.976 -75.1845 180.663 312.832 -85.3764 217.802 327.267 -72.6907 247.98 339.367 -37.8399 175.326 334.674 13.9607 22.0296 15.9406 19.984 
99.7859 179.435 180 163.882 174.27 160.964 176.879 179.842 173.882 179.484 145.596 283.641 12.7996 143.709 287.481 -75.497 180.991 312.536 -85.7266 216.859 326.857 -72.8507 247.846 338.84 -37.3065 174.92 334.324 13.8971 22.9536 14.9492 19.9594 
99.7859 176.324 180 161.315 174.27 157.874 177.605 179.839 173.039 178.649 148.145 283.899 13.8127 143.291 287.919 -74.7517 180.875 312.063 -85.6718 215.694 326.132 -72.5995 247.521 339.403 -36.617 174.665 334.335 14.0403 24.2232 14.1481 19.9314 
99.7859 175.106 177.429 159.164 174.27 156.484 177.282 179.136 172.361 177.913 149.331 283.856 15.1311 142.753 287.513 -73.9064 180.369 310.887 -85.4486 215.123 325.283 -72.3184 247.412 339.979 -36.0897 174.511 334.325 14.1451 25.2612 14.1481 19.8097 
99.7859 175.583 174.031 158.035 174.27 154.069 176.432 177.994 171.981 177.508 150.706 284.099 16.2857 142.389 286.362 -73.0934 179.32 309.284 -85.1591 214.841 324.365 -72.1432 247.396 340.556 -35.8747 174.366 334.367 14.172 26.0966 14.796 19.4093 
99.7859 177.097 180 159.459 174.27 155.288 178.247 179.823 172.388 177.891 150.19 285.051 14.431 143.156 287.464 -73.991 181.268 310.939 -84.895 215.278 324.683 -71.3355 247.949 340.261 -35.2301 174.664 334.915 14.4875 25.8898 13.6101 19.8403 
99.786 176.762 178.22 158.401 174.27 153.978 178.239 179.401 171.773 176.172 151.448 284.919 15.8258 142.403 286.897 -73.8655 180.976 309.881 -84.8544 215.214 323.531 -71.1777 248.196 338.825 -34.8742 174.588 335.018 14.4938 26.1087 13.7086 19.8809 
99.7859 177.291 174.707 157.924 174.27 153.871 177.112 178.219 171.404 171.645 151.264 284.777 17.596 141.587 286.546 -73.5987 179.833 308.382 -84.8251 215.142 322.295 -71.1899 248.241 335.97 -34.089 174.295 335.068 14.4267 26.167 14.4181 19.3346 
99.7859 178.619 170.281 156.887 174.27 151.451 175.552 176.657 171.029 164.652 152.548 285.752 18.8445 141.028 286.792 -72.8522 177.981 306.949 -84.387 214.834 320.844 -70.9758 247.767 333.1 -33.2893 174.021 335.386 14.3732 26.1166 15.437 18.132 
99.7859 179.446 180 156.229 174.27 167.012 176.137 174.029 171.067 170.572 137.726 283.34 18.8402 139.034 287.75 -73.2896 175.862 306.289 -84.1885 213.021 320.665 -71.2383 246.215 334.064 -35.117 173.067 335.697 13.8999 25.6642 15.6808 17.2736 
145.623 178.038 171.266 155.686 166.768 170.823 175.993 177.024 171.49 171.341 121.211 279.6 24.6603 137.861 288.604 -72.9276 173.974 306.114 -84.7531 210.79 319.28 -72.124 243.469 331.682 -37.7246 172.025 335.727 13.1008 24.0407 15.1169 16.9103 
145.623 178.38 177.418 153.632 161.516 176.16 173.533 172.232 170.993 169.291 117.156 282.925 22.6115 135.501 290.169 -72.7786 171.176 306.449 -85.488 209.447 319.811 -73.0853 241.557 330.329 -39.8432 171.017 335.935 12.5089 22.5008 16.1192 16.5125 
145.623 179.015 173.817 155.077 160.505 174.923 172.164 170.109 171.175 168.798 113.721 283.982 23.2908 133.32 292.455 -73.2208 168.938 307.358 -86.4076 208.225 320.892 -74.2669 241.75 329.185 -40.0611 169.848 335.84 11.8093 23.7966 16.8782 16.1343 
145.623 177.401 170.92 158.24 164.063 175.038 171.247 168.568 170.777 163.575 114.615 283.857 23.7744 131.228 295.427 -74.0536 166.863 308.622 -87.1543 206.967 321.818 -75.2722 241.229 327.241 -39.7294 169.071 336.333 11.3556 24.7969 17.3279 15.4937 
145.623 177.396 170.61 160.346 159.273 176.29 169.405 167.651 169.986 156.41 116.265 286.12 21.0774 129.153 297.921 -74.4544 163.939 309.485 -87.8804 203.906 321.455 -76.5023 237.927 322.97 -40.0155 168.118 336.867 10.7142 24.8822 16.881 14.6261 
145.623 178.98 169.136 162.107 154.148 177.08 168.431 166.844 169.533 152.484 115.208 287.084 18.8234 126.595 299.665 -74.8107 161.202 310.12 -88.6974 201.442 321.457 -77.8317 235.168 319.919 -40.61 167.002 336.957 9.88116 25.1244 16.8993 14.4181 
145.623 178.304 166.827 158.66 148.07 171.692 166.759 165.825 170.413 154.36 111.45 287.048 19.3621 124.084 300.612 -75.289 158.989 310.89 -90.0166 199.529 321.407 -78.9832 232.864 318.913 -42.3233 165.609 336.979 8.84921 24.3095 16.9434 14.9943 
145.623 175.923 165.445 155.927 144.846 168.34 165.127 165.093 169.964 154.479 108.481 287.308 19.9064 122.695 302.367 -76.17 158.318 312.973 -91.2389 199.431 322.743 -79.3221 231.784 319.304 -43.0815 164.579 337.731 7.97486 23.6047 17.3835 15.7771 
138.33 176.42 165.792 156.077 146.068 156.613 164.028 164.383 168.227 152.969 115.943 282.172 24.9088 121.253 303.837 -77.0696 157.415 314.618 -91.5617 198.875 324.001 -79.4415 230.712 319.964 -43.2509 163.47 338.113 7.26195 23.4765 17.7984 16.2168 
131.8 176.682 165.522 157.076 148.164 153.044 163.106 164.441 167.316 152.21 120.645 281.171 23.8435 119.957 304.629 -77.7309 156.314 315.355 -91.9017 197.765 324.855 -79.7996 229.284 320.487 -43.6395 162.051 338.005 6.72594 23.3608 17.9513 16.285 
133.401 176.72 165.362 156.658 149.178 154.046 162.187 163.994 167.555 154.184 123.468 280.879 21.9999 117.786 304.617 -77.5468 154.57 315.618 -92.3782 195.861 325.193 -80.2042 227.334 320.949 -44.8061 160.687 338.63 6.2018 22.6991 17.8844 17.0202 
124.411 174.815 164.524 155.91 152.454 156.563 162.646 163.275 167.918 156.509 125.145 281.266 20.4865 117.053 305.726 -78.7087 153.821 316.758 -92.8722 195.288 327.275 -80.8128 227.006 324.288 -45.9899 159.509 338.831 5.6213 22.4804 18.2398 16.6695 
145.623 174.35 164.815 156.547 156.286 170.539 164.894 163.351 168.082 159.503 124.342 285.923 4.33361 116.246 307.858 -80.4042 153.57 318.083 -93.3368 194.879 329.13 -81.1471 226.967 327.625 -46.9478 158.372 339.297 5.20358 22.3656 18.306 16.3446 
145.623 172.033 165.312 158.649 159.043 167.652 164.462 163.121 165.514 158.518 129.314 287.928 -0.14453 114.814 309.168 -81.5742 152.309 318.16 -93.9976 192.665 328.65 -81.9703 225.09 327.584 -47.9146 157.07 339.537 4.42702 22.4369 17.5045 16.043 
145.623 173.414 165.604 160.238 160.706 166.416 164.187 162.85 164.335 154.348 127.495 288.776 -2.31069 112.856 310.186 -82.2951 150.306 318.247 -94.7151 190.118 328.063 -83.139 221.774 325.196 -48.8259 155.848 339.633 3.61946 21.923 16.9201 15.849 
145.623 173.392 165.83 160.374 160.059 165.716 163.086 161.797 163.06 151.79 126.065 289.835 -5.06123 111.678 311.162 -83.4684 149.178 318.707 -95.5642 188.472 328.038 -84.0702 219.817 324.405 -49.5386 154.712 339.639 2.6075 21.8747 16.523 15.7915 
145.623 173.105 165.741 160.001 158.47 165.364 162.425 160.732 162.1 152.334 125.113 291.222 -7.28106 111.263 312.409 -84.0886 148.828 319.814 -95.7833 187.812 328.965 -84.1635 219.278 325.612 -49.9936 153.809 339.691 2.21644 21.8411 16.3915 15.7768 
145.623 172.047 165.762 160.118 158.828 165.419 162.615 159.896 161.68 154.692 124.283 292.785 -8.34316 111.273 314.056 -84.4103 148.837 321.158 -95.63 187.593 330.272 -83.9243 219.265 328.074 -50.4642 153.071 340.034 2.31111 21.5853 16.2941 15.5974 
145.623 171.144 166.224 160.343 162.295 166.195 162.462 159.755 161.648 156.739 122.758 293.35 -8.14594 110.532 315.598 -84.3635 147.891 321.706 -95.4642 186.345 330.132 -83.8273 218.24 328.899 -51.0513 152.194 340.437 2.3922 21.2798 15.9451 15.2716 
145.623 170.38 166.104 160.674 164.731 165.783 162.615 160.298 161.736 156.6 123.006 294.236 -8.01203 109.43 315.938 -84.2977 146.658 321.268 -95.5783 184.805 329.054 -84.061 216.792 328.248 -51.3802 151.196 340.66 2.31208 21.1889 15.525 15.0845 
145.623 171.428 165.869 160.68 165.427 165.127 162.14 160.079 161.334 157.346 124.375 294.781 -8.45774 108.237 316.218 -84.6519 145.287 321.061 -95.9522 183.092 328.453 -84.5108 215.665 327.863 -52.1164 149.915 340.652 1.93369 21.4286 15.205 14.9193 
145.623 170.358 165.064 160.234 164.583 163.747 162.471 160.004 161.374 159.115 125.977 294.787 -8.52955 107.617 317.036 -85.3313 144.896 321.726 -96.2982 182.497 328.952 -84.6659 215.38 328.57 -52.4125 148.676 340.222 1.68838 21.6776 15.1165 15.0057 
129.371 170.664 163.38 160.22 163.843 149.219 164.298 160.248 161.784 161.516 125.431 288.348 6.76379 107.345 318.893 -86.0615 145.066 323.327 -96.4582 182.504 330.427 -84.5865 215.39 330.524 -52.4426 147.707 340.287 1.81913 21.6702 15.0231 15.1571 
150.174 169.608 163.23 160.344 164.082 145.256 164.915 160.708 162.046 163.516 126.168 288.833 4.67433 106.742 320.814 -86.3389 144.687 324.897 -96.6586 182.087 331.426 -84.5396 215.159 332.059 -52.6425 146.882 340.941 1.86746 21.7021 14.9083 15.2219 
132.428 168.595 163.616 159.897 164.627 141.703 164.266 160.476 161.378 162.473 128.535 290.872 3.82781 104.705 322.458 -87.0014 142.565 325.883 -97.0795 179.611 331.388 -84.7449 212.566 331.65 -52.6245 144.241 341.15 1.41398 21.7928 14.5672 15.0831 
129.949 166.592 163.045 158.825 166.183 139.991 162.864 160.088 161.18 162.401 130.44 291.506 1.7356 103.918 323.015 -87.4856 142.088 326.772 -97.3253 178.846 331.574 -84.6995 211.462 331.226 -52.4565 142.944 340.644 0.992753 21.7106 14.4187 15.3859 
127.977 165.527 162.841 158.367 166.929 139.546 162.385 160.217 161.621 161.959 129.49 291.617 1.75311 103.354 323.959 -87.7648 141.823 327.745 -97.3057 178.549 332.18 -84.3795 210.678 331.489 -52.066 141.763 340.94 0.946122 21.4755 14.4605 15.601 
127.749 165.636 163.408 157.76 167.797 140.278 162.24 160.781 161.243 159.992 128.189 291.657 1.2971 102.496 324.855 -88.1857 141.013 328.415 -97.565 177.613 331.545 -84.2349 209.332 330.381 -51.9717 140.726 341.554 0.852168 21.1417 14.2777 15.5811 
129.885 166.087 164.324 157.078 168.2 139.92 162.224 160.972 160.164 158.183 128.503 292.67 0.417313 101.38 325.746 -88.6761 139.833 328.094 -97.8724 176.025 329.492 -84.1864 207.243 327.498 -51.654 139.543 342.336 0.673263 20.8358 13.8804 15.3937 
132.524 165.669 164.251 157.357 167.926 138.886 161.355 160.407 159.687 156.845 129.022 293.71 -1.08407 100.326 326.465 -89.1845 138.515 328.145 -98.1786 174.366 328.587 -84.4279 204.527 324.888 -51.5056 138.077 342.655 0.332326 20.2527 13.6217 15.1379 
130.567 165.851 163.429 157.636 167.156 136.545 161.566 160.819 160.525 157.041 129.317 294.503 0.00191887 99.3331 326.874 -89.4658 137.627 328.163 -98.2281 173.44 328.591 -84.4146 203.023 324.14 -51.2741 136.721 342.715 0.366897 19.9482 13.6109 15.1609 
128.19 166.492 163.147 157.213 168.244 134.868 162.249 161.641 161.155 157.596 128.822 295.345 1.07654 97.9515 327.178 -89.5108 136.284 328.101 -98.4195 172.037 327.674 -84.3805 201.23 323.677 -51.4753 135.462 343.059 0.452516 19.3642 13.5435 15.1563 
128.603 166.624 164.007 156.565 168.328 134.439 162.636 162.022 160.482 156.472 128.562 296.379 1.58652 96.4242 328.248 -89.5935 134.525 327.981 -98.6184 169.901 325.994 -84.3439 198.515 322.033 -51.6267 134.195 343.982 0.523729 18.6502 13.2713 14.9072 
130.353 165.781 163.321 156.335 166.369 133.229 161.916 161.15 159.461 154.761 128.295 297.212 1.38357 94.9083 328.979 -89.5578 132.43 327.574 -98.6104 167.512 324.692 -84.3731 195.215 319.387 -51.3687 132.759 344.174 0.438079 18.24 13.0745 14.4734 
128.926 165.107 162.02 156.119 165.312 130.94 161.304 160.2 158.706 153.822 127.875 298.727 2.22122 93.4914 329.124 -89.2763 130.63 327.135 -98.3536 165.675 324.439 -84.365 193.238 318.811 -51.3959 131.466 344.593 0.422155 18.1594 12.9812 14.2249 
130.185 165.982 161.495 155.296 162.108 132.1 161.968 160.46 160.443 154.207 124.857 298.593 2.66358 91.7019 329.224 -89.0261 128.539 326.313 -98.3802 163.696 323.248 -84.7066 190.639 318.003 -52.0534 130.253 345.014 0.511649 17.1862 12.9435 14.0233 
130.936 165.728 161.753 153.614 160.436 132.026 161.492 160.552 160.213 152.744 124.367 298.992 2.52864 90.1011 329.552 -88.7195 126.766 325.944 -98.3288 161.434 321.588 -84.5407 187.632 316.612 -52.2959 129.022 345.268 0.569365 16.2086 12.69 13.9494 
132.724 164.595 161.248 154.052 158.674 131.556 160.975 160.261 159.324 150.17 125.177 299.486 1.41362 88.375 330.119 -88.7079 124.669 326.035 -98.455 159.156 320.919 -84.6104 184.534 314.287 -51.8392 127.483 344.819 0.499201 16.2517 12.6332 13.72 
133.28 163.549 160.071 153.868 158.589 129.716 160.271 159.496 158.204 149.628 125.144 299.687 1.55062 87.1105 329.943 -88.6124 123.299 325.682 -98.252 157.714 320.656 -84.367 183.161 313.559 -51.6564 126.063 344.325 0.446859 16.4933 12.6056 13.6769 
132.633 163.276 159.607 154.259 159.115 127.446 160.074 159.361 157.133 149.271 125.105 300.055 2.66881 86.0479 330.081 -88.3386 122.205 325.923 -98.032 156.417 320.897 -84.1735 181.974 313.914 -51.8047 124.815 344.23 0.636482 16.3813 12.4654 13.6549 
133.7 162.288 161.159 154.805 158.522 126.255 159.417 159.007 155.602 146.759 125.415 302.193 2.37034 83.5661 331.403 -88.0291 119.022 326.347 -97.827 152.885 319.38 -83.5977 177.051 312.205 -51.1149 122.438 345.246 0.909242 15.3777 12.5298 13.1707 
136.394 162.002 161.224 154.985 157.997 128.488 159.414 159.502 156.122 145.353 123.654 301.057 0.922855 82.5613 331.4 -87.9833 118.17 326.208 -97.7038 151.682 318.624 -83.1413 174.542 310.298 -50.1812 121.154 344.851 1.11768 15.2621 12.4734 13.2556 
137.287 162.234 160.124 154.569 156.547 128.997 159.392 159.052 154.995 144.055 120.938 299.738 1.28049 81.5325 331.23 -87.8504 117.369 325.728 -97.2824 150.419 317.907 -82.5303 173.044 309.478 -49.6073 119.843 344.522 1.31109 15.3142 12.3105 13.444 
137.259 162.96 159.45 153.054 153.025 130.392 159.721 159.006 156.376 142.976 116.861 297.737 2.07167 80.4937 331.189 -87.6634 116.4 325.291 -96.9134 149.472 317.476 -82.4106 171.633 309.414 -49.2815 118.552 344.323 1.70487 14.9835 12.3035 13.5187 
136.461 163.133 159.858 152.421 150.823 132.024 160.509 159.823 157.941 142.242 114.514 296.99 1.87679 79.4073 331.819 -87.7544 115.409 325.581 -97.0614 148.498 317.499 -82.6333 170.002 309.372 -49.1335 117.477 344.314 1.97408 14.7474 12.3366 13.6148 
135.657 164.583 160.31 151.362 146.599 132.12 159.012 158.658 158.481 140.792 111.954 297.132 1.56534 77.5917 332.44 -87.5406 113.753 326.129 -96.7962 147.002 317.139 -82.2065 167.565 308.848 -48.4212 116.183 344.302 2.18116 14.306 12.679 13.7424 
133.865 163.2 159.892 150.274 143.414 130.513 157.637 158.195 157.545 139.157 109.388 296.51 2.46389 76.1955 333.25 -87.2099 112.722 326.671 -96.4351 145.225 316.325 -81.2502 165.414 307.597 -47.6002 114.733 343.68 2.41868 14.2517 12.7295 14.0962 
134.949 162.623 159.709 149.861 142.172 129.094 157.195 158.37 156.02 139.072 106.774 295.458 3.44974 74.8454 333.99 -87.1082 111.893 327.087 -96.2872 143.356 315.135 -80.2993 163.627 306.335 -47.2207 113.362 342.891 2.64166 14.0139 12.8126 14.5601 
136.945 162.726 159.583 150.442 141.688 127.731 157.711 158.488 154.364 138.955 105.139 294.897 4.46108 73.6333 334.846 -87.1424 110.868 327.332 -96.1651 141.516 314.084 -79.5552 162.118 305.481 -46.9375 112.109 342.435 2.91287 13.9159 13.0058 14.7649 
138.29 162.374 159.661 153.231 141.771 127.652 158.093 158.637 153.487 137.773 104.187 295.234 5.41012 72.1885 336.144 -86.7953 109.333 328.006 -95.9326 139.568 313.902 -79.3515 160.129 304.609 -46.2064 111.116 342.961 3.30147 14.5555 13.1044 14.7933 
140.006 162.214 159.582 154.831 141.783 126.816 158.308 158.807 152.908 137.484 104.136 295.577 6.78235 70.8703 337.28 -86.3483 108.103 328.943 -95.6742 138.325 314.179 -79.061 158.914 304.191 -45.5105 110.161 343.403 3.85211 15.1089 13.3038 14.8691 
142.03 161.924 160.43 156.055 144.235 124.952 158.619 159.386 152.545 138.374 105.143 295.906 8.18109 69.5585 338.013 -86.0904 107.024 329.503 -95.5622 137.182 314.186 -78.8468 158.064 303.547 -45.1527 109.03 343.47 4.25714 15.644 13.4484 15.0513 
144.083 162.261 161.523 158.561 147.43 123.093 159.286 159.663 152.742 140.213 106.492 296.06 9.07635 68.5856 338.716 -86.2879 106.2 329.466 -95.5301 136.029 313.736 -78.859 157.001 302.537 -45.1308 107.761 343.143 4.56223 15.9037 13.3434 15.2088 
145.432 162.577 162.673 161.025 149.706 121.721 160.147 160.134 153.032 141.096 107.01 296.448 9.36527 67.7135 339.369 -86.7023 105.12 329.605 -95.6822 134.539 313.208 -79.0363 155.164 301.412 -45.1561 106.353 342.79 4.7293 16.0306 13.3506 15.0498 
144.612 162.743 162.974 162.225 151.006 121.66 160.788 160.46 153.252 140.606 107.272 296.82 9.93901 66.2253 340.676 -86.6098 103.344 330.563 -95.676 132.698 313.556 -79.3068 152.859 300.726 -45.0067 105.11 343.153 4.9799 16.5488 13.4517 14.8748 
144.527 162.491 162.983 162.378 152.257 121.212 160.725 160.323 152.981 140.212 107.011 297.732 10.4224 65.0297 342.399 -86.2281 101.981 331.672 -95.3057 131.144 313.994 -79.1508 150.746 300.272 -44.7589 103.92 343.642 5.45947 16.6958 13.4777 14.8579 
144.13 162.114 163.51 163.063 154.575 120.51 160.994 160.127 152.694 141.342 103.654 300.304 9.77867 62.9687 344.241 -86.3255 99.2818 332.086 -95.116 127.498 313.262 -78.8201 146.729 299.277 -44.8372 101.108 344.186 5.91094 16.22 13.4275 14.6032 
142.71 162.076 163.687 163.135 155.249 121.213 161.024 160.014 152.457 141.057 102.742 301.217 9.97457 61.7952 345.185 -85.9177 97.5069 332.65 -94.7419 125.423 313.288 -78.4865 144.425 299.181 -44.4782 100.005 345.219 6.32133 16.1964 13.4863 14.2188 
142.602 161.627 163.582 162.354 155.804 121.715 159.969 159.239 151.644 140.774 100.874 302.905 10.1719 60.3558 345.462 -84.9231 95.7922 332.484 -93.8471 123.442 312.838 -77.4667 142.414 299.164 -43.7016 98.8077 346.398 6.93652 15.8353 13.5079 14.1308 
144.407 160.912 163.293 161.353 156.294 122.986 159.089 158.432 150.888 141.631 96.3 303.075 8.39377 59.2316 345.267 -84.5906 94.363 331.722 -93.4358 121.359 311.602 -76.78 140.63 298.614 -43.8008 97.235 346.22 7.24817 15.0809 13.5257 14.0336 
144.167 160.641 163.033 160.314 155.723 123.744 158.659 157.938 150.179 141.324 91.7107 302.55 7.17961 57.9809 345.283 -84.5921 93.1012 331.576 -93.3272 119.497 310.69 -76.2168 138.794 298.287 -43.7545 95.5119 345.632 7.43458 14.5015 13.8807 14.0513 
143.701 160.263 162.133 158.78 155.276 124.257 157.808 156.716 148.789 140.855 88.4697 302.534 7.42684 55.8906 346.424 -83.713 90.7401 332.334 -92.7172 116.807 310.557 -75.3114 137.32 299.063 -43.9853 93.9458 345.961 7.9205 13.9445 14.4109 14.0604 
141.974 159.774 161.643 157.841 154.82 124.68 156.932 155.659 147.882 140.803 86.2 302.444 7.93337 53.9518 347.265 -82.8378 88.9706 332.602 -91.963 114.562 310.226 -74.345 135.775 299.575 -44.0272 92.4077 346.366 8.39184 13.4004 14.7573 14.4243 
142.587 159.642 161.095 157.182 154.15 126.313 156.241 154.873 146.696 140.106 82.5378 301.89 6.6133 52.0568 347.695 -82.3793 87.3361 332.825 -91.5752 112.436 309.629 -73.6862 133.662 299.284 -43.7311 90.6997 346.172 8.6291 13.1549 15.277 14.7345 
142.956 159.08 159.545 154.928 152.059 128.554 155.337 153.382 144.372 137.872 80.683 301.635 5.99213 49.5628 348.366 -81.4482 84.7215 333.218 -90.7691 109.859 309.697 -72.7669 131.323 299.826 -43.037 88.9481 346.546 8.96132 13.0362 15.6524 14.8841 
143.906 158.639 158.859 153.749 151.581 129.527 154.237 152.623 143.118 137.37 78.5514 302.855 6.28609 47.4499 349.721 -80.3806 82.574 333.969 -89.9858 107.207 309.641 -71.7487 129.043 300.102 -42.5607 87.5876 347.753 9.45545 12.845 16.1133 15.1452 
143.818 158.344 158.261 153.675 152.87 129.85 152.83 151.733 142.339 137.471 75.828 303.537 5.96231 45.8813 349.542 -79.8638 80.7826 333.525 -89.3861 104.759 309.009 -71.1851 126.772 299.55 -42.4269 85.8973 347.97 9.64038 12.6384 15.8987 15.0761 
144.302 158.052 157.633 153.606 152.309 130.289 152.135 150.984 141.186 135.86 74.1289 303.99 5.99909 44.1076 349.856 -79.1906 78.4923 333.856 -88.6634 102.305 309.372 -70.6477 124.113 299.386 -41.6774 84.2193 348.335 9.89126 12.8655 15.7195 14.7698 
144.699 157.988 156.823 153.03 153.032 130.466 151.254 150.152 140.325 135.779 72.3209 305.666 6.41098 42.3652 351.355 -78.2012 76.1807 335.062 -87.846 99.6016 310.209 -70.0915 121.693 300.051 -41.6153 82.8149 349.627 10.3986 12.7639 15.7004 14.5295 
145.079 158.373 156.836 153.553 154.57 130.323 151.042 150.332 140.663 137.223 71.0558 306.722 6.65306 41.0706 352.03 -77.7164 74.6211 335.653 -87.413 97.5393 310.803 -70.0071 119.837 300.632 -42.0711 81.2716 350.399 10.7353 12.4936 15.353 14.3401 
145.72 159.189 157.267 154.788 155.131 131.152 151.613 150.918 141.444 137.854 70.1009 306.383 6.86927 39.8428 352.558 -77.5714 73.2189 336.365 -87.1517 96.0438 311.712 -70.1221 117.857 301.122 -41.9272 79.6809 350.987 11.0515 12.3783 14.9997 14.0948 
146.73 159.328 157.098 155.089 155.841 131.518 151.749 151.147 141.604 138.339 69.2394 306.473 7.38447 38.2292 354.04 -77.054 71.2112 337.919 -86.7897 94.0858 313.216 -70.2168 116.27 302.165 -42.1581 78.1213 351.808 11.4438 12.6443 14.8544 13.829 
