173.112 173.541 173.265 173.566 172.35 172.552 172.914 175.276 174.099 172.576 -251.522 236.513 -12.6935 -209.082 202.392 -101.895 -180.336 177.794 -111.429 -154.091 164.973 -99.0307 -128.423 159.435 -68.2116 -169.726 220.611 -12.154 12.353 7.36194 11.8915 
172.45 173.532 173.197 173.521 172.256 172.527 172.756 175.32 174.125 172.435 -251.493 235.426 -12.432 -209.229 202.332 -102.002 -180.32 177.962 -111.586 -153.993 165.073 -99.0366 -128.314 159.442 -67.9819 -169.827 220.522 -12.2586 12.5629 7.47296 11.9025 
171.494 173.56 173.103 173.467 172.13 172.385 172.594 175.348 174.145 172.215 -251.354 234.172 -12.1852 -209.315 202.305 -102.161 -180.248 178.149 -111.751 -153.779 165.205 -99.0036 -128.1 159.485 -67.6536 -169.93 220.478 -12.41 12.8274 7.63048 11.9236 
170.597 173.473 172.932 173.354 171.982 172.218 172.281 175.264 174.116 171.995 -251.081 233.049 -11.9269 -209.532 202.41 -102.296 -180.388 178.43 -111.957 -153.757 165.394 -99.128 -128.081 159.471 -67.5639 -169.987 220.441 -12.6111 13.0455 7.78133 11.9325 
169.838 173.368 172.786 173.273 171.869 171.944 172.038 175.225 174.132 171.838 -250.697 231.72 -11.767 -209.7 202.496 -102.535 -180.544 178.729 -112.277 -153.725 165.614 -99.4067 -128.038 159.508 -67.6949 -170.008 220.343 -12.9068 13.2297 7.93446 11.894 
168.928 173.178 172.628 173.165 171.718 171.384 171.785 175.145 174.101 171.601 -250.212 230.108 -11.2018 -209.653 202.518 -102.779 -180.518 178.896 -112.552 -153.541 165.672 -99.6147 -127.862 159.393 -67.7555 -169.846 220.159 -13.1627 13.402 8.08473 11.8644 
168.244 172.97 172.557 173.13 171.639 170.522 171.593 175.134 174.135 171.479 -249.593 228.145 -10.5108 -209.522 202.649 -103.117 -180.368 179.164 -112.927 -153.255 165.855 -99.9354 -127.567 159.407 -67.903 -169.719 220.097 -13.4306 13.5749 8.20759 11.84 
167.298 172.774 172.573 173.17 171.656 168.994 171.451 175.15 174.202 171.474 -248.827 225.771 -9.64058 -209.28 202.859 -103.621 -180.001 179.416 -113.451 -152.753 166.053 -100.398 -127.162 159.509 -68.2286 -169.571 220.093 -13.7501 13.613 8.31259 11.8973 
161.545 172.598 172.593 173.206 171.719 165.386 171.316 175.148 174.206 171.464 -247.413 221.73 -8.13085 -208.972 202.928 -104.291 -179.47 179.586 -114.172 -152.047 166.194 -101.074 -126.375 159.535 -68.7889 -169.359 219.935 -14.2018 13.7525 8.42902 11.9861 
158.272 172.507 172.633 173.277 171.887 161.865 171.202 175.096 174.191 171.529 -246.364 218.668 -6.79832 -208.388 203.338 -105.41 -178.742 179.751 -115.194 -151.27 166.164 -101.996 -125.738 159.205 -69.4662 -169.108 219.741 -14.8569 13.8354 8.52919 12.1573 
159.869 172.321 172.52 173.184 171.906 159.643 170.869 174.752 173.889 171.314 -246.152 217.347 -6.28463 -207.838 203.636 -106.526 -178.275 179.739 -116.12 -150.8 165.938 -102.814 -125.46 158.803 -70.1868 -168.971 219.65 -15.6575 13.808 8.62387 12.2325 
160.488 172.046 172.237 172.923 171.779 157.764 170.364 174.221 173.413 170.95 -246.076 216.602 -5.78082 -207.44 203.803 -107.51 -178.038 179.681 -116.997 -150.515 165.627 -103.658 -125.267 158.335 -71.0358 -168.77 219.441 -16.4958 13.7844 8.7456 12.2596 
160.079 171.581 171.848 172.542 171.51 156.391 169.561 173.562 172.803 170.463 -246.522 216.747 -5.18166 -207.276 204.074 -108.292 -177.907 179.802 -117.816 -150.362 165.462 -104.472 -125.093 158.021 -71.966 -168.576 219.285 -17.3099 13.7736 8.86247 12.3509 
160.409 171.168 171.42 172.098 171.192 155.03 168.716 172.828 172.084 169.847 -246.822 217.069 -5.2023 -207.056 204.147 -109.027 -177.804 179.662 -118.47 -150.369 165.049 -105.067 -125.114 157.473 -72.6674 -168.402 219.086 -18.1064 13.7663 8.92428 12.421 
159.539 170.643 170.952 171.622 170.903 154.534 167.722 172.034 171.303 169.263 -246.79 217.844 -6.00053 -206.914 204.435 -109.784 -177.661 179.754 -119.177 -150.326 164.859 -105.718 -125.043 157.124 -73.4627 -168.258 219.077 -18.9325 13.7745 8.99475 12.5498 
157.418 169.799 170.39 170.978 170.501 154.73 166.35 171.041 170.339 168.549 -246.646 219.126 -7.41976 -206.718 204.961 -110.644 -177.409 180.107 -119.984 -150.214 164.898 -106.443 -125.064 156.967 -74.3 -168.228 219.229 -19.8307 13.7238 9.0676 12.6869 
154.49 169.185 169.988 170.499 170.277 154.385 165.313 170.279 169.585 168.04 -246.356 220.489 -8.7866 -206.582 205.925 -111.542 -177.138 180.93 -120.796 -149.983 165.422 -107.138 -125.007 157.295 -75.0132 -168.358 219.762 -20.6494 13.7076 9.19947 12.856 
152.786 168.981 169.786 170.229 170.133 154.752 164.884 169.925 169.173 167.72 -246.765 222.618 -10.5399 -206.364 207.125 -112.554 -176.586 182.021 -121.702 -149.436 166.241 -107.847 -124.599 158.044 -75.5913 -168.516 220.442 -21.4055 13.7485 9.36051 13.1195 
152.54 168.681 169.479 169.895 169.914 153.776 164.327 169.482 168.665 167.283 -247.006 224.098 -11.824 -206.249 208.497 -113.355 -176.019 183.305 -122.442 -148.952 167.245 -108.387 -124.378 158.936 -75.9356 -168.758 221.396 -22.0451 13.7659 9.48761 13.435 
155.018 168.158 169.312 169.785 169.94 154.611 163.971 169.4 168.462 167.314 -248.479 226.562 -13.0015 -206.283 210.229 -114.2 -175.547 184.935 -123.498 -148.403 168.484 -109.391 -124.135 159.945 -76.8214 -169.034 222.411 -22.7902 13.6858 9.68857 13.8011 
155.941 167.335 169.128 169.681 169.971 155.629 163.378 169.225 168.249 167.351 -250.28 229.967 -13.9042 -206.326 212.159 -115.072 -175.169 186.757 -124.64 -147.998 169.864 -110.455 -124.058 161.069 -77.7306 -169.425 223.632 -23.5622 13.5994 9.87597 14.1016 
159.036 166.886 168.989 169.734 170.109 156.66 163.224 169.15 168.229 167.455 -251.298 232.997 -15.6741 -206.23 214.378 -116.06 -174.745 189.001 -125.707 -147.443 171.779 -111.414 -123.852 162.671 -78.4295 -170.029 225.211 -24.3788 13.6825 10.1059 14.2761 
161.259 166.272 168.863 169.681 170.242 156.89 162.894 168.94 168.139 167.692 -251.851 235.413 -17.0917 -206.535 217.163 -117.071 -174.968 191.798 -127.07 -147.443 174.067 -112.934 -124.052 164.349 -80.0803 -170.551 226.646 -25.37 13.6702 10.3739 14.3897 
162.479 165.603 168.686 169.526 170.197 157.472 162.36 168.686 167.93 167.723 -251.919 237.049 -18.3829 -206.958 219.959 -117.871 -175.325 194.728 -128.348 -147.602 176.43 -114.434 -124.281 166.08 -81.813 -170.863 227.87 -26.2665 13.6782 10.6418 14.4809 
164.151 165.385 168.722 169.616 170.323 157.588 162.519 168.866 168.061 167.914 -251.914 237.123 -19.0128 -207.26 222.196 -118.389 -175.511 197.239 -129.241 -147.528 178.593 -115.554 -124.281 167.636 -82.9712 -171.081 228.972 -26.8339 13.7834 10.8548 14.5156 
164.472 164.926 168.501 169.479 170.336 159.132 162.34 168.794 167.969 167.858 -252.414 237.42 -19.6152 -207.569 223.604 -118.918 -175.534 199.012 -130.063 -147.202 180.159 -116.449 -124.079 168.783 -83.7246 -171.312 229.928 -27.4422 13.9274 11.0977 14.5682 
163.054 164.381 168.239 169.2 170.22 160.755 161.778 168.469 167.666 167.588 -252.96 238.175 -20.1428 -207.908 224.884 -119.426 -175.606 200.743 -130.898 -146.995 181.664 -117.349 -123.987 169.844 -84.5667 -171.509 230.809 -28.1081 14.0541 11.3243 14.5955 
161.737 163.807 167.865 168.764 170.073 162.14 161.237 168.045 167.327 167.314 -253.389 239.189 -20.6696 -208.085 225.327 -119.76 -175.478 201.583 -131.43 -146.549 182.371 -117.817 -123.583 170.167 -84.7799 -171.576 231.442 -28.6522 14.3404 11.57 14.6404 
160.698 163.351 167.52 168.369 169.947 163.763 160.47 167.565 167.034 167.073 -253.647 241.394 -21.9082 -208.083 225.436 -120.145 -175.322 201.906 -131.932 -146.312 182.652 -118.268 -123.381 170.181 -85.0576 -171.489 231.836 -29.2372 14.5202 11.6455 14.664 
159.121 162.886 167.267 168.193 169.939 165.377 159.871 167.28 166.892 166.927 -253.965 244.318 -23.0317 -208.257 225.457 -120.444 -175.299 202.183 -132.408 -146.191 183.028 -118.781 -123.132 170.387 -85.4424 -171.418 232.196 -29.8032 14.721 11.6596 14.7153 
159.197 162.572 167.148 168.13 169.962 166.66 159.525 167.135 166.774 166.739 -254.235 246.326 -24.2508 -208.569 225.282 -120.805 -175.451 202.341 -132.951 -146.164 183.357 -119.367 -122.856 170.762 -86.0386 -171.38 232.522 -30.4756 14.8474 11.695 14.7201 
158.886 162.894 167.226 168.396 170.109 168.367 159.86 167.37 167.048 166.86 -254.1 247.729 -26.2666 -208.825 225.616 -121.611 -175.248 203.577 -134.108 -145.418 185.017 -120.789 -121.708 172.316 -87.5362 -171.041 233.225 -31.6252 15.0895 11.7955 14.7432 
158.874 163.734 167.543 168.813 170.371 169.144 160.809 167.928 167.52 167.009 -254.303 247.269 -27.2376 -208.87 225.091 -121.934 -175.131 203.831 -134.442 -145.015 185.781 -121.141 -121.022 173.276 -87.9672 -170.976 233.367 -32.0437 15.2326 11.7976 14.5633 
158.851 164.423 167.701 169.069 170.336 169.46 161.514 168.299 167.867 166.881 -254.154 247.121 -28.2652 -208.561 225.325 -122.601 -174.619 204.661 -135.117 -144.272 186.871 -121.82 -120.239 174.174 -88.5124 -170.691 233.557 -32.6812 15.5164 11.8697 14.5074 
159.732 164.195 167.527 168.962 170.134 169.406 161.03 168.062 167.767 166.523 -253.995 247.271 -28.9483 -208.216 225.781 -123.172 -174.174 205.304 -135.717 -143.736 187.563 -122.411 -119.758 174.747 -89.0173 -170.4 233.804 -33.3856 15.6877 11.947 14.5547 
160.98 163.24 166.793 168.395 169.776 169.131 159.588 167.094 167.136 165.898 -253.711 247.447 -29.5159 -208.4 226.155 -123.529 -174.225 205.789 -136.295 -143.779 187.949 -123.146 -119.691 175.082 -89.9136 -170.024 233.998 -34.1642 15.7066 11.9894 14.7286 
160.336 161.856 165.68 167.58 169.309 167.529 157.531 165.76 166.266 165.281 -253.082 247.055 -29.7829 -208.861 226.386 -123.512 -174.512 206.119 -136.691 -143.957 188.247 -123.858 -119.564 175.43 -90.9844 -169.431 234.137 -34.9209 15.6539 12.0362 15.0167 
161.14 161.02 164.898 167.054 169.03 165.208 156.267 165.039 165.842 165.084 -252.38 246.409 -29.9251 -209.185 226.314 -123.343 -174.654 206.029 -136.859 -143.916 188.23 -124.279 -119.065 175.68 -91.7192 -168.738 234.163 -35.4821 15.6361 12.0994 15.3314 
164.22 160.939 164.555 166.847 168.887 164.304 155.975 164.859 165.779 165.339 -251.929 246.482 -30.8238 -209.457 226.119 -123.179 -174.744 205.979 -137.068 -143.644 188.432 -124.873 -118.166 176.271 -92.6539 -168.017 234.154 -35.9341 15.6028 12.1575 15.5635 
166.763 160.877 164.086 166.684 168.743 163.73 155.889 164.571 165.721 165.525 -251.768 247.097 -31.4812 -210.028 226.224 -123.04 -175.307 206.221 -137.261 -143.781 189.032 -125.62 -117.574 177.264 -93.9032 -167.442 234.236 -36.4472 15.5753 12.2026 15.7167 
168.505 161.148 163.885 166.475 168.474 163.058 156.185 164.586 165.668 165.7 -251.532 247.417 -31.8454 -210.884 226.767 -122.856 -176.036 207.19 -137.523 -143.979 190.392 -126.424 -116.893 179.003 -95.2814 -166.938 234.425 -36.9002 15.6719 12.3229 15.8972 
168.923 161.31 163.506 166.142 168.159 162.266 156.156 164.348 165.412 165.706 -251.139 247.281 -31.9326 -211.692 227.217 -122.586 -176.658 208.059 -137.707 -144.151 191.62 -127.088 -116.316 180.668 -96.6075 -166.394 234.415 -37.3185 15.7017 12.4419 16.1416 
168.5 161.888 163.417 166.002 168.014 161.772 156.349 164.252 165.279 165.859 -250.669 247.14 -32.2585 -212.225 227.402 -122.523 -177.038 208.587 -138.018 -144.066 192.442 -127.791 -115.567 181.961 -97.8912 -165.817 234.257 -37.7719 15.705 12.5963 16.3334 
166.475 162.585 163.479 165.913 167.869 161.08 156.51 164.292 165.231 166.064 -249.966 246.904 -32.6295 -212.407 227.439 -122.623 -177.037 209.03 -138.449 -143.695 193.068 -128.488 -114.778 182.868 -99.0345 -165.162 233.921 -38.2185 15.6957 12.7447 16.481 
164.404 162.998 163.5 165.851 167.695 160.689 156.596 164.386 165.313 166.274 -248.983 245.97 -33.348 -211.777 227.102 -122.98 -176.276 209.038 -138.972 -142.766 193.233 -129.154 -113.637 183.242 -99.8658 -164.246 233.242 -38.6636 15.7061 12.7921 16.5511 
162.061 163.453 163.643 165.858 167.593 160.878 157.018 164.642 165.444 166.439 -247.88 245.275 -34.2102 -210.693 226.272 -123.497 -175.258 208.65 -139.423 -141.722 193.121 -129.638 -112.474 183.391 -100.478 -163.341 232.43 -38.9986 15.6671 12.7238 16.354 
159.016 163.857 163.641 165.781 167.445 161.31 157.456 164.635 165.406 166.446 -246.767 244.54 -34.714 -209.613 225.191 -124.025 -174.417 207.797 -139.794 -140.891 192.522 -130.061 -111.498 183.095 -101.077 -162.395 231.446 -39.3411 15.6031 12.6343 16.0891 
156.322 163.868 163.478 165.559 167.193 161.945 157.398 164.481 165.238 166.297 -245.783 243.97 -35.1736 -208.765 224.139 -124.386 -173.729 207.042 -140.111 -140.229 191.971 -130.425 -110.671 182.762 -101.622 -161.611 230.416 -39.6871 15.618 12.5643 15.9006 
154.184 163.621 163.197 165.225 166.916 162.658 157.148 164.279 165.038 166.169 -244.934 243.539 -35.423 -208.109 222.855 -124.451 -173.206 206.005 -140.206 -139.655 191.219 -130.568 -109.827 182.172 -101.925 -160.899 229.323 -39.9181 15.7599 12.5239 15.7663 
154.044 163.419 162.974 164.949 166.747 164.081 156.876 164.278 165.049 166.222 -244.142 243.447 -35.6401 -207.657 221.506 -124.301 -172.734 204.874 -140.185 -139.068 190.254 -130.58 -108.913 181.347 -102.052 -160.116 228.083 -40.0461 15.9821 12.5656 15.7896 
155.77 162.862 162.615 164.532 166.381 165.247 156.307 164.088 164.926 166.061 -243.253 243.266 -35.7418 -207.077 220.043 -124.106 -172.027 203.608 -140.233 -138.248 188.969 -130.648 -107.927 179.931 -102.121 -159.106 226.413 -40.1213 16.1975 12.6499 15.8966 
158.55 162.363 162.483 164.274 166.063 166.344 155.943 164.027 164.928 165.905 -242.252 242.872 -35.8416 -206.218 218.393 -123.901 -171.064 201.889 -140.234 -137.137 187.098 -130.611 -106.842 177.818 -101.924 -157.869 224.478 -40.0944 16.3601 12.7884 16.0332 
162.036 161.711 162.196 163.942 165.665 167.563 155.357 163.894 164.831 165.654 -241.094 241.957 -35.3866 -205.401 216.366 -123.228 -170.115 199.875 -139.933 -135.945 185.057 -130.373 -105.466 175.668 -101.65 -156.4 222.307 -39.8738 16.5917 12.9458 16.2367 
165.828 161.579 161.892 163.661 165.575 168.955 154.836 163.742 164.791 165.684 -239.753 239.876 -34.6275 -204.71 213.841 -122.267 -169.187 197.54 -139.386 -134.539 182.826 -130.012 -103.667 173.681 -101.471 -154.775 219.841 -39.4993 16.7942 13.2123 16.5101 
167.511 162.09 161.976 163.702 165.679 170.087 154.914 163.964 165.05 165.902 -238.079 236.922 -34.0012 -203.563 210.776 -121.491 -167.911 194.929 -138.858 -132.84 180.472 -129.628 -101.644 171.72 -101.265 -153.037 217.252 -39.0466 16.8934 13.3946 16.5464 
167.865 162.51 161.714 163.403 165.551 171.096 154.618 163.901 165.107 165.853 -236.046 233.483 -33.3502 -202.298 207.477 -120.417 -166.57 192.237 -138.063 -131.255 178.098 -129.016 -99.6963 169.751 -100.905 -151.171 214.421 -38.4272 17.0351 13.4609 16.5572 
169.168 162.28 161.486 163.063 165.342 172.338 153.956 163.65 164.952 165.561 -233.634 230.108 -33.2997 -200.413 203.945 -119.319 -164.636 189.069 -137.142 -129.27 175.025 -128.084 -97.6442 166.892 -99.9982 -149.111 211.298 -37.6195 17.1089 13.4836 16.5644 
170.766 161.54 160.631 162.159 164.738 173.608 152.438 162.54 163.992 164.465 -230.922 226.042 -33.4006 -198.188 200.101 -117.943 -162.495 185.355 -135.626 -127.093 171.38 -126.355 -95.7045 163.703 -98.3293 -146.99 208.154 -36.4991 16.9795 13.5716 16.5091 
173.911 160.797 160.092 161.471 164.326 174.292 151.208 161.623 162.985 163.275 -228.214 221.19 -33.7364 -195.258 196.114 -116.695 -159.772 181.412 -133.935 -124.725 167.526 -124.238 -93.8149 160.34 -96.1519 -144.915 204.995 -35.116 16.6903 13.4221 16.2556 
178.871 160.928 160.216 161.168 164.13 174.584 151.277 161.348 162.234 162.182 -225.686 216.36 -34.1344 -191.88 192.235 -116.141 -156.672 177.377 -132.653 -122.326 163.492 -122.431 -92.0699 156.623 -94.1694 -142.898 201.595 -33.8292 16.2933 13.0455 15.831 
179.939 162.13 160.987 161.621 164.662 174.436 152.432 161.604 162.266 161.926 -223.645 211.086 -33.4822 -188.65 188.148 -115.468 -153.782 172.78 -131.073 -119.717 158.939 -120.351 -89.7979 152.529 -91.8001 -140.893 198.108 -32.3192 16.1423 12.9337 15.441 
179.874 163.82 162.201 162.599 165.559 173.606 154.535 162.641 163.071 162.535 -222.062 205.865 -31.5724 -185.153 184.782 -114.689 -150.659 168.719 -129.26 -117.037 154.816 -118.038 -87.3497 148.912 -89.2304 -138.922 194.781 -30.3886 16.0257 12.75 15.0853 
177.635 165.21 163.126 163.495 166.055 172.412 156.407 163.356 163.756 163.005 -220.656 201.234 -29.6161 -182.042 181.598 -113.902 -147.59 164.824 -127.656 -114.245 150.961 -116.062 -84.8157 145.262 -86.7854 -136.928 191.446 -28.5478 16.0054 12.6035 15.0493 
174.38 166.124 163.948 164.131 166.339 171.204 157.834 164.042 164.28 163.039 -218.783 196.823 -27.9929 -178.708 177.969 -112.875 -144.157 160.935 -125.937 -111.156 147.031 -113.763 -82.2724 141.389 -83.874 -134.917 188.089 -26.6082 15.9582 12.501 14.9682 
169.96 167.797 165.354 165.205 167.073 170.372 160.053 165.589 165.408 163.636 -216.331 191.401 -25.8415 -175.846 175.387 -111.554 -141.19 158.421 -124.197 -108.353 144.225 -111.581 -79.9728 138.526 -81.3674 -132.983 184.935 -24.4284 15.8142 12.6045 14.9141 
166.631 168.979 166.478 165.982 167.582 169.363 161.803 166.905 166.1 163.928 -214.455 186.37 -23.318 -173.952 173.622 -110.008 -138.951 156.684 -122.588 -106.474 142.231 -109.702 -78.5219 136.256 -79.3119 -131.483 182.488 -22.3066 15.6139 12.5244 15.0749 
163.088 169.304 166.945 166.307 167.458 168.059 162.928 168.013 166.603 164.098 -212.812 182.248 -20.7147 -172.784 172.151 -108.155 -137.341 155.736 -121.022 -105.131 141.139 -108.08 -77.4011 134.711 -77.5998 -130.294 180.378 -20.2167 15.5504 12.4196 15.1923 
159.852 169.528 167.537 166.829 167.178 166.896 163.897 169.297 167.573 164.682 -210.737 179.234 -18.3746 -171.601 170.818 -106.269 -135.841 154.93 -119.587 -103.755 140.12 -106.801 -76.2101 132.919 -76.1996 -128.909 178.119 -18.1772 15.5729 12.3382 15.2277 
158.131 169.211 168.176 167.307 166.705 167.414 164.762 170.332 168.43 164.823 -209.463 177.951 -15.6174 -170.321 169.083 -104.731 -134.395 154.028 -118.503 -102.234 138.835 -105.966 -74.9785 130.642 -75.097 -127.434 175.274 -16.3853 15.6633 12.4237 15.0751 
159.159 168.696 168.501 167.423 166.028 168.539 165.154 170.902 168.95 164.886 -208.627 176.852 -13.6865 -169.221 166.761 -103.341 -133.189 152.467 -117.591 -100.892 137.082 -105.323 -73.6382 128.124 -74.2494 -125.988 172.187 -14.9861 15.9094 12.4856 14.9552 
162.846 167.898 168.398 167.18 165.25 169.837 164.939 170.98 168.967 164.591 -207.825 175.282 -12.2874 -168.124 164.112 -101.886 -132.035 150.683 -116.6 -99.6132 135.202 -104.551 -72.2427 125.727 -73.425 -124.55 169.082 -13.6838 16.137 12.5532 14.8228 
165.896 166.742 167.779 166.852 164.524 170.517 163.796 170.215 168.574 164.218 -206.874 173.532 -11.0987 -167.222 160.089 -100.156 -131.029 147.143 -115.385 -98.3103 131.84 -103.461 -70.6906 122.415 -72.415 -123.045 165.822 -12.4626 16.2578 12.6358 14.8397 
169.274 166.971 167.737 166.504 164.148 171.896 164.454 170.344 168.535 164.096 -205.732 171.403 -8.80455 -166.121 154.596 -98.3914 -129.666 141.899 -113.832 -96.564 127.171 -101.9 -68.3675 118.486 -70.877 -120.906 162.069 -10.9827 16.4913 12.6604 14.9248 
171.104 165.893 166.638 165.37 163.394 172.545 164.439 169.423 167.709 163.69 -204.396 167.044 -5.44846 -164.008 143.473 -94.9726 -127.877 131.266 -110.413 -93.6861 117.617 -98.2231 -64.7801 110.572 -67.2607 -117.771 155.545 -8.4461 16.7399 13.0481 14.5141 
173.082 165.787 166.632 164.969 163.39 173.364 164.564 169.192 167.101 163.592 -204.033 164.027 -4.3072 -163.439 137.569 -93.4211 -126.915 125.715 -108.954 -91.8988 112.918 -96.5832 -62.1858 106.511 -65.4247 -116.281 151.727 -7.26957 17.3296 13.3296 14.7483 
174.117 165.59 166.854 165.116 164.149 173.428 165.051 169.588 167.218 164.163 -203.801 162.518 -2.45037 -163.1 133.883 -92.0509 -126.422 122.13 -107.861 -90.7531 109.655 -95.5721 -60.1755 103.116 -64.1934 -114.998 148.428 -6.12801 18.0521 13.5864 14.9174 
174.941 165.916 167.147 165.309 164.67 173.811 165.635 170.217 167.617 164.806 -202.836 160.511 -1.18939 -162.85 130.553 -90.55 -126.249 119 -106.69 -90.2799 106.67 -94.694 -58.8126 99.9494 -63.1667 -113.821 145.567 -5.04205 18.7153 13.6445 14.9229 
177.155 165.658 166.844 164.827 164.541 174.665 165.171 170.086 167.184 164.843 -201.321 158.091 -0.407045 -162.589 126.819 -88.8733 -126.054 115.794 -105.487 -89.7731 103.63 -93.7603 -57.4658 97.005 -62.3087 -112.531 142.524 -3.94989 19.1427 13.7103 14.9505 
177.669 164.81 166.073 163.997 164.253 174.536 164.182 169.417 166.296 164.532 -200.277 156.447 0.575263 -162.565 123.646 -87.4845 -126.246 113.122 -104.647 -89.5937 101.175 -93.2462 -56.5558 94.8963 -62.1696 -111.46 139.916 -3.26743 19.2603 13.8047 14.9465 
178.047 163.753 165.31 163.28 164.037 174.325 162.801 168.483 165.517 164.351 -198.93 154.183 1.81966 -163.264 120.842 -85.7862 -127.011 110.881 -103.953 -89.7412 99.1463 -93.2906 -55.9273 92.8474 -62.8255 -110.298 137.273 -2.82904 19.337 14.0011 15.2418 
177.978 163.847 165.29 163.16 164.24 174.059 162.652 168.124 165.311 164.419 -197.498 151.424 2.67107 -163.565 118.74 -84.6054 -126.883 109.102 -103.436 -89.3081 97.5515 -93.3569 -55.1742 91.0051 -63.4208 -109.091 134.727 -2.4017 19.2642 14.0564 15.8002 
177.877 163.84 165.806 163.646 164.848 174.14 162.962 168.239 165.5 164.77 -196.809 149.453 3.44451 -163.554 116.583 -83.6886 -126.886 106.978 -102.772 -89.1882 95.6231 -93.028 -54.8147 89.2136 -63.4842 -108.304 132.716 -1.86059 19.0996 14.0224 15.9013 
177.382 164.354 166.565 164.44 165.578 174.055 163.939 168.756 166.09 165.42 -196.462 147.894 4.74196 -164.064 115.276 -82.7573 -127.417 105.705 -102.085 -89.566 94.4039 -92.7493 -54.9316 88.0302 -63.5951 -107.871 131.142 -1.20707 18.9752 14.0298 15.9985 
175.486 164.982 167.343 165.161 166.136 173.178 164.778 169.161 166.692 166.077 -196.237 145.556 6.54671 -164.883 114.256 -81.8451 -128.16 104.974 -101.645 -90.0829 93.7833 -92.9687 -54.9887 87.2673 -64.2896 -107.482 129.529 -0.756141 18.963 14.0491 16.2177 
174.106 165.42 167.968 165.648 166.45 171.899 165.177 169.493 167.161 166.54 -195.843 142.369 8.29978 -165.344 112.735 -81.0424 -128.22 103.776 -101.301 -90.0111 92.8041 -93.124 -54.6013 86.3046 -64.7851 -107.047 127.656 -0.365069 18.9524 14.021 16.6232 
171.847 166.165 168.963 166.345 166.857 170.906 165.568 170.089 167.721 166.931 -195.509 139.697 8.91314 -164.887 110.275 -80.8988 -127.256 101.525 -101.139 -88.9591 90.7624 -92.8964 -53.6174 84.4454 -64.44 -106.566 125.722 -0.0961549 18.8992 14.0342 16.9177 
170.024 166.746 169.604 166.802 167.155 170.043 165.621 170.218 167.86 167.087 -195.194 137.018 9.17854 -164.448 108.023 -80.7473 -126.479 99.1418 -100.985 -88.2171 88.3382 -92.6782 -52.9979 82.1436 -64.2752 -106.135 123.834 0.0528919 18.6838 14.0196 17.1564 
168.671 167.045 169.511 166.585 167.065 169.379 165.462 169.754 167.431 166.87 -194.46 133.386 9.07421 -163.56 105.472 -80.8855 -125.421 96.2438 -100.912 -87.4413 85.4616 -92.4904 -52.4402 79.5783 -64.3753 -105.572 121.747 0.00592465 18.2869 13.8411 17.2092 
166.853 167.685 169.882 166.507 167.008 168.889 165.564 169.87 167.275 166.674 -193.757 130.005 8.68576 -161.754 102.249 -81.4849 -123.499 92.7411 -100.825 -86.0347 82.0008 -91.8066 -51.5158 76.602 -63.6255 -104.985 119.532 0.112897 17.9199 13.5609 17.0085 
168.024 168.151 170.359 167.126 167.455 168.958 166.224 170.344 167.92 167.176 -192.479 123.661 8.44758 -160.489 98.2519 -80.708 -122.505 88.238 -99.8119 -85.2122 77.7155 -91.0194 -50.7886 72.2589 -62.8744 -104.237 116.169 0.719473 17.76 13.3871 16.8188 
