139.199 171.516 172.474 171.252 168.391 131.644 166.757 167.211 175.189 174.894 -220.141 226.2 -25.4338 -179.057 235.662 -108.619 -208.064 235.549 -122.862 -246.929 238.434 -117.89 -277.749 236.085 -86.4577 -232.755 270.588 -24.7803 14.6023 13.9673 9.89583 
138.136 171.493 172.531 172.446 167.42 130.977 166.744 167.23 174.78 174.643 -219.983 226.083 -24.8076 -178.985 235.529 -108.598 -207.594 235.956 -123.097 -246.304 238.729 -118.038 -277.198 236.084 -86.6682 -232.653 270.697 -24.8979 14.5884 13.7414 9.86471 
136.794 171.596 172.497 173.07 163.237 130.077 166.984 167.344 174.063 173.117 -219.74 225.8 -23.8483 -178.833 235.358 -108.766 -206.93 236.344 -123.404 -245.835 239.17 -118.104 -276.957 236.3 -86.9534 -232.498 270.703 -25.0397 14.7427 13.7503 9.71763 
136.516 171.703 172.16 173.2 155.874 129.976 167.247 167.128 173.544 170.162 -218.506 225.241 -22.766 -178.666 235.138 -108.705 -205.81 236.263 -123.157 -245.089 239.701 -118.11 -276.378 236.81 -87.341 -232.414 270.815 -25.1303 14.68 14.0149 9.11821 
136.209 171.89 171.563 173.22 157.924 130.035 167.629 166.892 173.327 167.798 -217.326 224.996 -22.0318 -178.418 234.955 -108.722 -204.587 235.74 -122.689 -244.347 240.127 -118.186 -276.042 237.51 -88.2439 -232.376 270.983 -25.2752 14.6359 14.4465 8.23474 
135.272 172.04 170.977 173.05 160.865 129.861 167.968 166.606 172.956 166.373 -216.969 224.961 -21.4314 -178.195 234.94 -108.773 -203.558 235.327 -122.196 -243.59 240.436 -118.208 -275.666 238.109 -89.1046 -232.378 271.232 -25.4501 14.5792 14.7273 7.4193 
134.635 172.069 170.266 172.579 162.487 129.718 168.101 166.395 172.494 165.13 -216.607 225.136 -20.9445 -177.855 234.965 -108.688 -202.679 235.15 -121.72 -243.101 241.015 -118.203 -275.471 238.842 -89.7162 -232.426 271.598 -25.6186 14.6046 15.1194 6.86203 
133.934 172.013 169.235 171.938 164.352 129.611 168.079 166.948 172.177 164.672 -216.732 225.442 -20.952 -177.699 235.162 -108.65 -202.205 235.577 -121.667 -243.016 242.104 -118.311 -275.594 240.024 -90.7693 -232.519 272.028 -25.8819 14.5422 15.4871 6.7046 
132.869 171.801 168.374 171.373 166.164 129.419 167.782 167.744 171.887 164.726 -217.218 225.903 -21.1791 -177.526 235.354 -108.542 -202.231 236.521 -122.128 -243.223 243.404 -118.35 -275.976 241.412 -92.0568 -232.648 272.529 -26.2051 14.446 15.5809 7.19426 
132.881 171.694 167.638 170.494 167.488 129.712 167.579 168.176 171.335 164.717 -217.599 226.551 -21.9008 -177.401 235.578 -108.629 -202.651 237.782 -122.989 -244.112 244.957 -118.661 -276.757 243.039 -93.2738 -232.918 273.215 -26.6032 14.2425 15.8302 8.00425 
133.087 171.128 167.429 169.368 168.845 130.732 166.791 166.956 170.368 164.683 -218.261 228.105 -23.9802 -177.772 236.459 -108.988 -203.603 239.905 -124.218 -245.658 247.875 -119.268 -278.406 246.255 -95.5495 -233.557 274.843 -27.4825 14.0668 16.2865 8.88922 
133.921 171.407 167.826 168.441 169.425 131.918 167.268 166.741 170.174 165.479 -218.942 228.662 -25.3223 -178.473 237.972 -109.994 -205.331 242.016 -125.458 -246.724 249.344 -119.734 -279.809 248.615 -96.797 -234.058 275.85 -27.8814 14.1485 15.542 9.4522 
135.281 171.392 168.579 168.017 169.943 133.184 167.261 167.009 170.656 166.105 -219.61 229.307 -26.7644 -179.193 239.588 -110.673 -206.675 244.37 -126.675 -247.586 250.843 -120.662 -280.661 250.842 -97.7745 -234.581 277.071 -28.3196 14.0153 14.9485 10.0939 
134.791 171.362 169.379 167.725 169.907 133.854 167.34 167.803 170.845 166.83 -220.35 229.793 -27.5121 -179.841 241.003 -111.139 -207.975 247.175 -128.039 -248.498 253.351 -121.461 -281.366 253.213 -98.7669 -234.803 277.972 -28.601 13.7897 14.5805 11.1276 
133.494 171.301 170.439 167.505 169.769 134.444 167.442 168.886 171.091 167.758 -220.578 230.081 -27.9277 -180.392 242.5 -111.298 -208.844 249.811 -129.083 -248.974 255.829 -122.609 -281.733 255.582 -99.8146 -234.782 278.619 -28.8283 13.6403 14.2896 11.9212 
134.108 171.27 171.329 167.699 169.729 135.563 167.488 169.663 171.144 168.41 -220.594 230.337 -28.4058 -180.821 243.773 -111.232 -209.309 251.853 -129.638 -249.187 257.769 -123.496 -281.888 257.533 -100.392 -234.905 279.343 -28.9139 13.5503 14.0962 12.3913 
136.156 171.502 171.875 168.158 169.76 136.901 167.87 170.048 171.371 168.843 -220.427 230.77 -28.9117 -181.335 245.167 -111.439 -209.662 253.328 -129.898 -249.498 259.382 -124.089 -281.949 259.193 -100.866 -235.178 280.32 -29.0459 13.2876 14.077 12.2685 
141.089 171.72 171.851 168.66 169.814 137.612 168.093 169.586 170.81 169.134 -221.448 231.699 -29.8074 -182.034 246.236 -111.676 -210.161 253.67 -129.66 -249.342 259.724 -123.803 -281.899 260.425 -101.084 -235.608 281.598 -29.1793 13.2247 13.5704 11.6141 
144.2 171.96 172.02 168.905 169.767 138.439 168.497 169.485 170.806 168.964 -222.081 233.207 -31.0526 -182.648 247.451 -111.822 -210.651 254.426 -129.526 -249.82 261.083 -123.921 -282.301 262.114 -101.107 -236.083 282.89 -29.1653 13.1503 13.6235 11.1301 
147.731 171.969 172.075 169.155 169.673 139.168 168.396 169.126 170.774 168.711 -222.863 235.03 -32.8342 -183.033 248.194 -111.874 -211.045 255.089 -129.552 -250.232 262.505 -123.892 -282.758 263.882 -101.201 -236.492 284.167 -29.2765 13.2019 13.7365 11.0026 
151.927 172.114 172.105 168.569 169.451 139.574 168.398 168.757 170.609 168.246 -224.317 236.753 -34.2183 -183.31 249.096 -112.196 -211.485 255.692 -129.618 -250.337 263.345 -123.908 -283.088 265.178 -101.192 -236.838 285.468 -29.5265 13.4312 13.5302 10.8391 
155.098 172 172.267 168.073 169.256 140.234 168.275 168.605 171.194 168.023 -225.584 238.11 -35.4524 -183.393 250.427 -112.659 -211.634 256.791 -129.797 -250.327 264.66 -124.242 -283.251 266.464 -101.336 -237.038 286.609 -29.8683 13.636 13.5204 10.7125 
156.552 171.868 172.334 167.941 168.982 140.713 168.252 168.888 171.382 168.21 -226.288 239.23 -36.5557 -183.547 251.867 -113.217 -211.848 258.314 -130.409 -250.766 266.644 -124.988 -283.372 268.156 -101.775 -237.078 287.572 -30.2352 13.4507 13.847 10.7956 
157.07 171.682 172.382 168.279 168.858 140.822 168.08 169.242 171.557 168.554 -226.422 240.152 -37.4183 -183.853 253.605 -113.507 -211.874 259.807 -130.672 -250.822 268.232 -125.556 -283.097 269.644 -101.887 -237.062 288.399 -30.5163 13.2715 13.996 10.6014 
158.23 171.675 172.187 168.686 168.784 141.059 168.049 168.952 171.416 168.616 -226.564 241.314 -38.0914 -184.304 255.195 -113.774 -211.875 260.874 -130.577 -250.995 269.54 -125.948 -283.043 270.867 -101.831 -237.382 289.553 -30.6601 13.1228 14.2393 10.0767 
158.845 171.791 172.216 169.23 168.714 141.167 168.169 168.806 171.396 168.689 -226.113 242.236 -38.3274 -184.475 256.347 -113.877 -211.724 261.59 -130.263 -250.957 270.52 -126.104 -282.992 271.917 -101.711 -237.44 290.48 -30.7105 13.1614 14.4304 9.58823 
158.934 171.911 172.455 169.711 168.807 141.16 168.305 168.627 171.62 168.864 -225.124 243.542 -38.3242 -183.952 257.398 -113.798 -211.155 262.42 -129.848 -250.501 271.999 -126.009 -283.159 273.666 -102.002 -237.108 291.763 -30.8289 13.7102 14.697 9.30665 
158.051 171.965 172.496 169.579 168.758 140.989 168.312 168.939 171.802 168.941 -224.553 243.687 -37.9483 -183.102 256.882 -113.532 -210.415 262.468 -129.955 -249.721 272.055 -125.745 -283.232 274.016 -102.305 -236.65 291.906 -30.8485 14.3845 14.5515 9.63083 
157.024 171.749 172.355 169.206 168.593 141.098 167.869 169.077 172.465 169.044 -223.96 243.782 -38.1516 -182.144 256.55 -113.449 -209.54 262.795 -130.263 -248.856 272.614 -125.878 -283.112 274.771 -102.868 -236.024 291.978 -31.0924 14.9903 14.5914 10.0548 
156.245 171.457 172.263 168.654 168.534 140.914 167.394 169.205 173.002 168.992 -223.473 243.708 -38.0304 -181.175 256.326 -113.293 -208.476 263.053 -130.623 -247.877 272.781 -126.13 -282.577 275.077 -103.439 -235.423 291.995 -31.3493 15.2933 14.5714 10.3903 
155.614 171.092 172.118 168.385 168.313 141.356 166.832 169.278 172.522 168.752 -222.84 243.505 -38.3232 -180.387 256.512 -113.392 -207.56 263.889 -131.201 -247.135 273.438 -126.308 -281.977 275.463 -103.979 -234.735 292.066 -31.6907 15.3679 14.6245 10.8046 
155.948 170.551 171.542 168.21 168.254 141.895 166.046 168.638 171.765 168.335 -222.349 243.331 -38.7488 -179.734 256.83 -113.227 -206.7 264.256 -131.256 -246.907 273.944 -126.497 -281.192 275.758 -104.178 -234.183 292.243 -31.8617 14.902 15.1483 10.8814 
156.291 170.204 170.99 168.204 168.228 142.222 165.545 168.012 171.071 167.941 -221.668 243.509 -38.7136 -179.219 257.396 -112.854 -205.908 264.553 -130.933 -246.517 274.261 -126.565 -280.304 275.897 -104.033 -233.782 292.796 -31.8148 14.4624 15.4813 10.7357 
156.07 170.214 170.731 168.542 168.082 141.852 165.398 167.437 170.534 167.585 -220.912 244.186 -38.7932 -178.619 257.902 -112.658 -205.131 264.749 -130.41 -246.016 274.3 -126.423 -279.546 275.85 -103.605 -233.103 293.215 -31.7231 14.3253 15.7077 10.4424 
155.976 170.659 171.098 167.844 168.324 141.326 165.726 167.244 170.46 167.784 -219.779 244.602 -38.1401 -177.782 258.185 -112.291 -203.925 264.291 -129.225 -244.731 273.65 -125.848 -278.597 275.552 -103.158 -232.279 293.667 -31.503 14.6347 15.6864 9.67883 
154.54 171.1 171.253 167.44 168.966 140.869 166.328 167.301 171.525 168.464 -218.107 244.126 -37.1168 -176.158 257.845 -111.978 -202.087 263.173 -128.224 -243.347 272.992 -125.727 -277.173 275.041 -103.122 -230.965 293.512 -31.384 14.5855 16.1959 8.99789 
154.233 171.152 171.099 167.374 168.957 140.234 166.523 167.672 171.314 168.307 -217.327 244.329 -36.4151 -174.693 258.406 -111.7 -200.483 263.644 -128.157 -241.361 272.773 -125.415 -275.414 274.938 -103.312 -229.822 293.862 -31.2638 14.5883 15.6695 8.97674 
154.432 171.138 170.709 167.404 168.775 140.627 166.605 168.056 170.41 168.022 -215.46 244.812 -36.4463 -173.293 259.337 -111.688 -199.149 264.556 -128.478 -239.995 273.091 -125.667 -273.756 274.99 -103.298 -228.675 294.323 -31.1231 14.2388 15.4524 9.15185 
154.03 171.23 171.177 167.623 168.419 140.785 166.674 168.45 170.48 168.101 -213.604 245.079 -36.1587 -171.878 259.403 -111.189 -198.18 265.727 -128.705 -239.141 274.099 -125.508 -272.783 275.567 -102.849 -227.133 294.499 -30.7447 14.2648 15.452 10.0166 
153.625 171.172 171.363 168.009 168.076 139.673 166.564 168.482 170.45 167.836 -213.212 245.271 -35.7426 -170.272 259.155 -110.547 -196.708 266.121 -128.626 -237.595 274.578 -125.428 -270.869 275.649 -102.658 -225.389 294.572 -30.4282 13.9352 15.4031 10.5062 
152.812 170.909 170.643 168.249 168.022 139.672 166.283 169.251 170.315 167.783 -210.917 245.285 -35.2074 -168.582 259.863 -110.139 -194.696 266.624 -128.563 -235.45 274.906 -125.408 -268.363 275.725 -102.84 -223.9 294.803 -30.1652 13.4148 15.2491 10.4595 
152.129 170.715 170.76 168.387 167.795 139.709 165.947 168.694 169.898 167.68 -207.956 245.616 -34.9987 -167.263 260.669 -109.71 -193.395 267.178 -128.124 -233.62 275.31 -125.263 -266.505 275.737 -102.518 -222.399 295.038 -29.8134 13.3401 14.9404 10.4032 
152.16 170.738 171.28 168.438 167.761 139.805 166.004 168.806 170.537 167.76 -205.492 245.305 -33.9253 -165.595 260.308 -108.87 -191.467 266.907 -127.639 -231.157 275.192 -124.821 -264.593 275.749 -102.275 -220.627 294.969 -29.2452 13.6587 14.5387 10.3928 
152.19 170.86 171.566 168.2 167.856 139.367 166.278 169.379 170.62 167.676 -203.536 245.332 -32.7218 -163.766 260.32 -107.932 -189.022 265.714 -126.845 -227.907 273.629 -124.428 -261.828 274.93 -102.397 -219.265 295.215 -28.9278 13.6746 13.8079 9.68563 
151.446 170.935 170.874 168.547 168.454 139.375 166.395 169.762 171.133 168.391 -200.63 244.947 -31.3509 -161.691 260.109 -106.692 -186.046 264.256 -125.322 -224.489 271.587 -123.25 -258.54 274.024 -102.232 -217.532 295.119 -28.2147 13.386 13.3669 8.82601 
150.369 170.446 171.887 167.971 168.984 139.586 165.829 170.169 172.306 169.431 -197.057 244.016 -28.9638 -159.39 259.531 -104.804 -183.648 263.576 -123.855 -221.699 270.587 -122.439 -255.943 273.684 -101.516 -215.361 294.579 -27.0428 13.4405 13.1639 9.05847 
149.912 170.065 172.952 168.592 169.009 139.731 165.467 170.472 172.454 169.358 -194.445 243.705 -27.245 -157.268 258.826 -103.204 -181.374 263.182 -122.916 -219.245 269.881 -121.747 -253.774 273.209 -100.986 -213.569 294.473 -26.2044 13.5277 12.976 9.48878 
150.204 170.374 173.543 169.64 169.411 139.728 165.984 170.986 172.566 169.202 -191.834 244.129 -25.7601 -155.552 258.636 -102.02 -179.667 262.429 -121.585 -217.561 268.949 -120.493 -251.099 272.313 -99.6628 -211.964 294.711 -25.074 12.5982 12.963 9.31157 
149.886 170.435 172.111 169.605 169.562 139.723 166.166 171.546 172.86 169.234 -188.604 243.863 -24.0014 -153.799 257.875 -100.9 -177.681 261.343 -120.386 -215.238 267.687 -119.517 -248.73 271.505 -98.7004 -209.972 294.378 -24.0297 12.4787 12.6987 9.07977 
150.13 170.314 170.791 169.976 169.782 139.854 165.67 172.266 172.128 169.289 -186.155 243.061 -22.4988 -151.719 256.803 -99.4676 -175.349 260.589 -119.266 -212.866 267.069 -118.939 -246.448 270.656 -97.7637 -207.815 293.785 -23.0407 12.4532 12.7963 9.31964 
150.136 170.525 171.507 170.206 169.821 139.9 165.97 171.518 172.496 169.459 -183.177 243.075 -20.779 -149.437 256.373 -98.2729 -173.115 259.642 -117.688 -210.616 266.25 -117.778 -244.411 269.878 -96.621 -205.901 293.572 -21.8321 12.5476 12.9021 9.06995 
150.209 171.793 171.601 169.899 169.309 140.698 166.938 170.471 172.46 169.639 -178.112 241.855 -17.3992 -145.83 254.927 -96.0334 -169.737 258.278 -115.02 -207.47 265.956 -115.49 -241.329 269.814 -94.4163 -201.735 292.733 -19.3768 12.7114 13.406 8.97105 
150.452 172.056 171.701 169.267 168.867 141.074 167.384 170.645 172.137 170.089 -176.048 240.514 -16.5859 -143.627 253.434 -95.6422 -168.253 257.585 -114.362 -206.904 266.553 -115.248 -240.331 269.883 -93.1944 -199.217 291.346 -18.2955 12.6276 14.466 9.44267 
150.632 172.106 171.528 169.685 169.05 140.928 167.455 169.273 172.425 170.429 -174.095 240.612 -14.6766 -141.705 253.361 -94.3774 -166.403 257.181 -112.561 -205.523 266.697 -113.233 -239.167 269.712 -91.2602 -197.248 291.421 -16.7697 12.9897 14.9762 9.2024 
150.579 173.4 171.003 169.157 168.492 141.547 168.399 168.475 172.409 170.338 -172.552 240.612 -13.1899 -140.484 253.069 -93.2648 -165.378 257.423 -111.306 -205.101 267.917 -112.027 -238.544 270.763 -89.7779 -195.472 291.691 -15.5115 13.0528 15.6366 9.31543 
150.069 174.013 170.731 168.963 167.94 141.969 168.604 167.913 173.033 170.648 -169.745 239.31 -11.6333 -138.575 252.299 -92.2234 -163.885 257.05 -110.139 -204.179 268.915 -111.115 -237.184 271.416 -88.309 -192.827 290.762 -14.3069 13.0121 16.4929 9.45527 
149.879 174.82 170.538 169.367 166.211 142.141 168.943 167.097 173.605 169.354 -169.158 239.942 -10.7578 -136.919 252.832 -91.1917 -162.75 257.788 -108.821 -204.028 270.556 -109.596 -235.875 271.949 -85.5796 -190.777 291.28 -13.0372 12.5953 17.4977 9.6518 
149.773 175.925 170.988 170.22 165.87 142.427 169.306 167.278 173.915 169.154 -166.633 239.319 -9.54294 -134.753 252.621 -90.3242 -161.018 257.899 -108.506 -202.198 270.07 -108.601 -233.813 271.374 -83.8165 -188.245 290.781 -12.1095 12.7004 17.1136 10.1247 
149.181 175.641 170.519 169.731 165.191 142.61 168.876 167.185 174.536 169.549 -163.281 238.802 -6.71676 -132.524 252.834 -88.4484 -159.044 258.133 -107.188 -200.293 270.517 -106.913 -232.121 271.589 -82.4307 -185.876 290.707 -10.7845 13.0171 17.2175 10.4153 
148.725 176.522 169.8 169.812 164.772 142.767 168.171 166.389 174.221 169.011 -160.559 239.022 -5.2336 -130.478 253.803 -86.8933 -156.918 258.853 -105.895 -197.895 270.524 -105.218 -229.952 271.407 -80.4706 -183.447 290.92 -9.65746 13.4421 16.8843 10.409 
147.697 176.249 169.413 169.398 164.407 142.271 167.71 166.073 174.174 168.835 -157.788 238.424 -3.25925 -127.981 253.658 -85.6771 -154.635 258.645 -104.931 -195.661 270.566 -104.046 -227.751 271.351 -78.9746 -180.637 290.466 -8.63099 13.7346 16.9764 10.472 
147.045 175.874 169.266 169.799 164.096 141.765 167.395 165.83 173.62 167.778 -156.063 238.972 -2.22223 -125.606 254.725 -84.8918 -152.558 259.329 -104.191 -193.406 270.556 -102.906 -225.398 271.456 -77.4218 -178.109 290.98 -7.75685 13.8548 16.5692 10.3977 
146.189 175.103 169.157 169.803 164.228 140.908 166.771 165.393 173.52 167.787 -153.931 239.549 -1.41595 -122.86 255.043 -84.0977 -150.098 259.185 -103.356 -190.979 270.757 -102.095 -223.174 271.841 -76.4485 -175.381 291.254 -7.1337 14.1901 16.7169 10.3486 
146.027 173.664 168.387 170.267 164.87 140.154 166.212 164.56 172.234 166.623 -151.626 240.469 -0.705555 -120.115 255.952 -83.2028 -147.291 258.758 -102.183 -187.544 269.334 -100.962 -219.821 271.111 -75.682 -172.886 291.802 -6.51465 14.0671 15.9803 9.80108 
146.34 172.211 168.341 169.302 163.618 139.689 165.683 164.441 172.044 166.692 -149.249 240.885 -0.873687 -116.965 255.781 -82.6942 -144.719 258.382 -101.782 -185.03 269.612 -100.979 -217.373 271.728 -75.6749 -170.114 291.869 -6.19282 14.0999 16.2283 10.1123 
146.748 170.697 166.946 169.662 164.287 138.874 164.825 162.995 170.883 164.856 -147.253 242.15 -1.4547 -114.078 256.833 -82.337 -141.483 258.01 -100.709 -181.847 268.407 -100.05 -213.739 270.449 -74.8199 -167.491 292.595 -5.93074 13.6366 16.0969 9.41182 
147.12 170.549 167.03 168.234 164.377 138.502 164.622 163.09 170.879 165.478 -145.335 242.456 -1.73486 -111.265 256.937 -81.8986 -138.922 258.169 -100.328 -179.266 269.245 -99.9775 -210.968 271.17 -74.6146 -164.742 292.622 -5.57558 13.4841 16.3744 9.62402 
146.76 169.613 167.418 168.667 165.239 136.65 164.228 162.887 170.178 165.895 -142.553 243.612 -3.20938 -105.737 258.09 -82.2277 -133.552 258.524 -100.106 -173.311 269.48 -99.8428 -205.239 271.806 -74.6606 -159.118 292.878 -5.27799 13.527 16.0348 9.4028 
147.77 169.761 165.876 168.972 165.425 135.98 163.712 160.98 169.224 163.702 -142.32 244.993 -4.96541 -103.241 259.553 -82.8749 -130.545 257.843 -99.1027 -170.507 268.025 -98.9845 -201.629 269.264 -73.3853 -156.335 293.785 -5.62988 13.0077 16.2482 8.41826 
148.116 169.883 166.645 168.799 165.591 135.591 163.856 161.39 168.535 163.786 -140.914 244.835 -5.38344 -100.538 260.276 -83.3825 -127.643 258.083 -99.3956 -166.659 267.35 -98.9609 -197.8 268.99 -73.835 -153.403 293.654 -5.62856 12.6993 15.3218 8.16154 
148.262 169.502 165.885 167.942 164.671 134.956 162.868 159.955 167.05 162.627 -139.924 245.595 -6.56356 -97.4322 261.289 -83.7147 -124.712 257.84 -98.8673 -163.387 266.604 -98.3669 -194.48 268.109 -73.3628 -150.398 294.098 -6.0515 12.7662 15.2135 8.11168 
148.778 169.426 165.83 167.659 164.409 134.677 162.583 159.193 165.763 161.685 -138.276 245.464 -7.55239 -94.1642 261.559 -84.139 -121.016 257.026 -98.4785 -159.139 265.143 -98.0237 -190.397 267.052 -73.4639 -147.235 293.865 -6.33531 12.7125 14.778 7.67391 
148.513 169.12 165.878 167.215 163.797 134.368 162.019 158.561 164.403 160.447 -136.577 246.056 -8.06727 -91.3396 262.141 -84.2716 -118.371 257.037 -98.3233 -155.874 264.475 -97.5936 -187.396 266.687 -73.4333 -144.438 294.238 -6.62047 12.9121 14.2284 7.80565 
148.549 169.357 166.322 167.17 163.452 134.106 162.284 158.27 163.984 160.245 -135.118 246.233 -8.38957 -88.4681 262.691 -84.7425 -115.675 256.693 -98.2239 -152.896 264.279 -97.5225 -184.558 266.824 -73.6146 -141.565 294.294 -6.73593 13.0298 14.1293 7.89817 
148.31 169.272 166.646 166.741 162.75 134.244 162.192 158.182 162.759 158.479 -132.769 246.909 -8.49327 -85.7566 263.226 -84.7046 -113.216 256.838 -98.0623 -149.88 263.438 -96.851 -181.541 265.978 -73.0639 -138.995 294.848 -6.84849 13.0064 13.4382 8.11276 
148.68 169.275 167.004 166.726 162.747 134.869 162.188 157.964 162.614 158.633 -130.221 246.98 -8.97422 -83.0369 263.261 -84.9158 -110.681 256.324 -98.0357 -147.182 263.354 -96.9628 -179.014 266 -73.2465 -136.317 294.904 -6.90523 13.1654 13.5189 8.25207 
148.1 169.036 166.467 166.234 162.646 134.72 161.775 156.973 160.885 156.499 -127.805 247.216 -9.7346 -80.2745 263.592 -85.4144 -108.191 255.92 -97.9517 -144.315 262.014 -96.3932 -175.893 264.559 -72.6567 -133.501 294.868 -7.2619 13.0528 13.0391 8.47562 
147.117 169.034 166.456 166.078 161.83 134.879 161.677 156.589 160.775 156.181 -125.323 247.189 -9.59241 -77.8236 262.915 -85.1489 -106.035 255.078 -97.4879 -142.102 261.935 -96.1626 -173.653 264.765 -72.4766 -130.937 294.701 -7.20687 13.1244 13.2551 8.7111 
146.43 168.834 166.082 165.802 161.921 134.708 161.438 155.956 159.392 154.504 -122.898 247.347 -9.88665 -75.3633 262.811 -85.3325 -103.779 254.635 -97.337 -139.436 260.794 -95.5841 -170.768 263.711 -72.032 -128.316 294.743 -7.43276 12.9511 12.7282 8.87319 
146.47 168.789 165.986 165.705 161.842 135.263 161.426 155.631 158.977 153.962 -119.387 247.006 -9.72007 -72.9203 261.967 -85.0714 -101.486 253.291 -96.8449 -136.806 259.446 -95.0959 -168.317 262.633 -71.6749 -125.89 294.543 -7.50899 13.1027 12.4765 9.05741 
145.528 168.68 165.985 165.737 162.04 135.198 161.4 155.488 157.93 152.405 -116.589 247.318 -10.0101 -70.6622 261.742 -85.1972 -99.1398 252.992 -96.8303 -134.027 258.375 -94.6013 -165.457 261.574 -71.2227 -123.486 294.663 -7.70922 12.9497 11.8434 8.98199 
145.43 168.802 166.141 165.943 162.515 136.108 161.579 155.167 157.128 151.735 -112.691 246.79 -9.74678 -68.3533 260.981 -85.0325 -96.724 251.284 -96.1025 -130.929 256.108 -93.7253 -162.587 259.851 -70.7498 -121.113 294.405 -7.75675 12.9866 11.173 9.08994 
144.989 168.662 166.409 165.545 162.271 135.564 161.462 155.798 157.119 151.699 -110.508 246.826 -9.34821 -65.891 260.31 -84.6052 -94.0516 251.364 -96.3146 -128.16 255.631 -93.6987 -160.175 259.179 -70.7688 -118.824 294.275 -7.74727 13.1802 10.8666 8.77469 
145.151 168.855 166.883 166.151 162.872 136.571 161.73 155.547 156.284 150.294 -106.999 246.306 -9.67819 -63.6284 259.3 -84.7474 -91.6576 249.283 -95.6561 -125.113 252.583 -92.5645 -156.531 256.534 -69.8638 -116.449 293.94 -8.07271 12.4615 10.1249 8.84743 
145.822 168.869 167.258 166.304 162.955 136.863 161.757 156.015 156.559 150.251 -104.712 246.035 -9.49245 -61.5228 258.241 -84.3762 -89.2962 248.479 -95.5156 -122.414 251.443 -92.2713 -153.882 255.121 -69.4658 -114.337 293.675 -8.09831 12.3749 9.78096 8.55363 
146.338 169.153 167.557 166.66 163.597 137.36 162.251 156.504 156.852 150.205 -102.131 245.385 -9.05409 -59.2882 257.285 -84.085 -86.9637 247.311 -95.1408 -119.833 249.752 -91.6245 -151.066 253.52 -68.8823 -112.111 293.338 -8.08364 12.0341 9.41429 8.51906 
147.293 169.488 167.913 167.214 164.091 138.112 162.731 156.876 157.139 150.114 -99.4388 245.268 -9.19422 -57.211 256.757 -84.0314 -84.9767 246.177 -94.7964 -117.309 248.172 -91.0933 -148.182 252.11 -68.3913 -110.065 293.284 -8.11063 11.5246 8.90012 8.68704 
147.995 169.712 168.104 167.389 164.33 138.133 162.964 156.992 157.401 150.314 -97.0957 244.75 -9.36039 -54.8923 256.015 -84.0217 -82.3733 245.058 -94.5272 -114.52 246.762 -90.8167 -145.237 250.708 -68.2122 -107.79 292.837 -8.22151 11.245 8.71467 8.54753 
148.431 169.995 168.078 167.42 164.376 139.007 163.704 157.579 157.963 150.445 -93.6485 244.137 -8.84313 -52.7406 255.405 -83.6152 -80.5037 244.361 -94.2124 -112.493 245.864 -90.3651 -142.949 249.822 -67.6608 -105.688 292.451 -7.88727 10.9767 8.4886 8.8067 
148.829 170.054 168.014 167.329 164.339 139.422 163.773 157.896 158.141 150.443 -90.4665 243.373 -8.27828 -50.3464 254.233 -83.0544 -78.0556 243.313 -93.8782 -109.94 244.596 -89.9756 -140.327 248.601 -67.2764 -103.455 291.908 -7.75919 10.8251 8.32456 8.74283 
