157.792 113.388 176.411 171.589 168.553 152.36 111.502 82.3749 163.031 166.008 -338.355 506.965 -41.5075 -350.403 472.318 -73.8414 -320.242 495.578 -40.1329 -310.104 424.884 -102.617 -275.246 421.943 -84.1821 -311.743 454.555 -8.3677 13.0885 88.3475 51.8525 
159.979 121.675 178.012 167.667 170.134 152.635 113.327 86.9533 160.017 166.447 -339.478 504.512 -45.026 -351.524 473.225 -75.3651 -320.871 497.424 -40.2663 -311.395 428.281 -103.079 -279.976 422.079 -85.1786 -314.14 454.243 -9.03275 12.0986 86.5119 51.8915 
158.555 137.361 180 164.108 169.09 150.695 107.624 87.6981 160.264 165.348 -338.792 504.445 -45.1277 -349.812 476.972 -72.9041 -322.391 496.772 -41.7543 -313.985 426.071 -104.443 -280.507 422.467 -86.3331 -314.676 452.972 -10.0453 12.1014 87.1325 44.7593 
152.117 152.485 177.937 160.786 168.514 149.202 105.292 86.4259 158.163 164.3 -338.922 504.473 -44.1188 -347.219 480.546 -70.0022 -323.506 494.745 -42.9146 -315.518 426.595 -105.137 -281.492 422.434 -87.6431 -314.852 451.165 -11.1523 12.5464 85.6724 37.1292 
150.737 136.687 153.908 158.884 167.394 156.305 106.646 94.9502 160.152 166.513 -341.62 504.506 -42.9857 -349.038 477.538 -71.7736 -323.99 488.291 -64.2338 -315.527 422.859 -105.303 -281.386 419.726 -87.8858 -314.183 449.915 -11.0816 12.1407 66.3407 20.1149 
151.427 140.512 153.236 156.689 167.187 158.894 106.848 95.1998 159.484 166.6 -343.098 505.063 -42.2908 -347.71 478.219 -72.3552 -324.201 485.678 -67.1109 -316.27 422.642 -105.876 -280.944 419.298 -88.6762 -313.765 448.84 -11.5362 12.9315 62.9269 16.1345 
145.433 139.706 158.527 154.319 166.53 158.063 107.37 94.1814 156.527 165.342 -343.556 503.444 -40.1935 -350.387 475.79 -73.6894 -323.796 485.645 -66.0902 -314.914 424.724 -105.436 -280.053 419.267 -88.4123 -312.992 448.22 -11.177 13.3813 61.7765 20.8398 
139.909 139.33 168.476 155.245 166.65 157.82 112.012 88.5724 155.443 164.368 -343.666 502.174 -39.1664 -353.008 472.484 -76.2974 -322.12 485.572 -62.1461 -313.714 425.481 -105.263 -278.871 419.508 -88.1326 -312.453 447.87 -10.9173 13.5516 64.2238 29.453 
138.173 144.157 175.118 156.855 167.671 157.857 119.422 76.7492 155.692 164.601 -343.211 501.724 -39.035 -354.993 469.809 -79.212 -317.518 485.201 -51.1242 -313.247 425.916 -105.218 -278.587 419.576 -88.0784 -312.222 447.764 -10.7077 13.52 74.5494 44.664 
136.182 151.589 176.11 159.796 168.611 156.111 124.369 73.2758 157.489 165.024 -341.929 501.573 -39.0569 -356.332 468.516 -80.8297 -315.807 485.737 -43.4212 -312.573 424.846 -106.092 -277.715 419.693 -88.4529 -312.104 447.55 -10.7708 13.1807 83.8158 54.8961 
135.224 156.508 177.653 160.145 168.495 155.017 128.573 73.9605 157.819 164.87 -341.113 501.204 -38.9711 -357.66 465.966 -82.642 -315.552 486.604 -40.319 -311.713 424.688 -106.835 -276.76 419.802 -89.0835 -311.707 446.99 -11.1869 13.1755 87.7836 61.3607 
136.69 157.478 177.837 162.074 168.42 154.748 128.666 74.3299 159.264 164.738 -341.854 501.421 -39.0989 -358.639 464.611 -83.2611 -315.304 486.851 -39.3644 -310.907 423.12 -107.396 -275.418 420.059 -88.887 -311.733 447.005 -11.228 13.1158 89.9372 64.0601 
138.159 160.269 178.616 162.844 168.889 155.912 130.541 74.2186 159.729 165.103 -342.949 501.573 -39.2223 -359.041 463.765 -83.9735 -316.473 486.668 -38.9962 -310.378 423.005 -107.764 -274.973 420.207 -89.1951 -311.71 446.741 -11.3749 13.0426 90.2124 64.4795 
140.135 161.694 179.141 163.74 169.043 156.37 131.472 74.9602 160.959 165.65 -343.9 501.722 -38.7936 -359.333 463.245 -84.3927 -317.682 486.449 -41.9677 -310.028 421.785 -108.294 -274.008 419.805 -89.6999 -311.478 446.326 -11.6029 13.3161 87.8235 61.2684 
142.012 162.502 177.831 164.326 168.979 157.031 132.656 73.6915 161.812 165.886 -345.18 501.473 -38.2262 -360.057 462.142 -84.9875 -319.204 483.923 -47.1288 -308.994 420.163 -108.472 -273.05 419.114 -89.7838 -311.115 445.863 -11.6329 13.1283 82.4167 55.7313 
143.625 159.673 177.685 164.651 169.121 157.796 131.39 73.6231 162.272 165.953 -345.683 500.896 -38.6517 -359.775 461.536 -85.1241 -318.55 482.995 -48.1383 -307.699 418.488 -108.538 -271.806 418.03 -89.4774 -310.827 445.24 -11.7215 13.1244 82.0703 54.9039 
142.415 157.973 177.632 165.848 169.559 156.439 130.79 74.1243 163.673 166.447 -343.69 499.848 -39.5209 -358.58 460.612 -85.0109 -318.327 481.964 -49.4155 -307.085 415.689 -108.15 -271.222 416.159 -88.6767 -310.369 444.416 -11.6925 13.0394 82.0275 53.021 
138.606 156.072 176.248 167.616 170.397 153.804 129.468 74.4901 164.892 167.077 -340.077 499.057 -41.0467 -356.204 461.441 -84.4748 -319.852 479.963 -52.0859 -306.716 413.477 -108.506 -270.365 414.565 -88.2598 -310.081 443.482 -11.9604 13.4291 79.6428 46.4694 
147.258 157.69 176.983 168.377 170.813 151.61 126.44 74.1319 165.298 167.417 -337.982 498.362 -43.3026 -354.142 461.768 -84.2091 -319.336 479.141 -51.6531 -305.544 411.594 -109.104 -269.509 413.184 -88.0916 -310.001 442.782 -12.5042 13.34 81.3196 45.2592 
155.978 159.232 178.485 168.68 170.995 151.714 123.182 73.7898 165.437 167.674 -337.802 497.197 -45.2206 -353.239 461.996 -84.0278 -316.842 480.033 -47.1971 -304.895 410.812 -110.022 -268.894 412.342 -88.8224 -309.863 442.085 -13.1902 13.3672 87.3719 50.3736 
161.341 160.199 179.824 169.69 171.939 152.098 122.013 73.2463 165.832 168.674 -338.387 495.953 -47.4513 -352.695 461.637 -84.7929 -315.347 480.214 -42.5523 -304.025 410.154 -111.134 -268.472 411.413 -89.7927 -309.944 441.545 -14.3149 13.2121 93.83 56.0531 
166.294 162.38 180 170.585 172.886 152.651 121.505 71.7753 166.377 169.685 -339.745 496.218 -48.0418 -352.506 461.358 -85.4938 -315.097 479.459 -37.7602 -304.597 409.661 -112.318 -268.477 410.723 -91.11 -309.984 441.079 -15.378 13.6114 100.351 61.8184 
175.433 174.27 180 172.107 172.69 154.357 119.636 73.3157 166.956 170.859 -342.466 498.435 -48.8573 -353.446 463.895 -84.0155 -323.213 479.819 -29.5628 -304.784 408.498 -113.298 -267.672 409.07 -92.3631 -310.46 440.956 -16.4081 14.5313 109.737 64.896 
177.981 166.775 180 173.391 172.886 158.415 111.209 64.3711 166.581 170.503 -343.589 498.691 -50.5473 -350.027 467.171 -80.1164 -321.574 472.159 -52.7752 -304.913 408.157 -113.178 -267.613 408.974 -92.3429 -310.616 441.065 -17.3759 14.7298 83.662 33.1091 
176.122 153.494 180 177.661 171.596 158.206 110.011 89.8227 166.326 169.292 -345.654 499.374 -50.2902 -349.248 466.845 -80.2499 -326.185 462.487 -88.0787 -304.547 407.329 -113.735 -266.184 408.955 -93.231 -310.591 440.722 -18.5262 15.4655 48.7836 5.06326 
174.32 132.147 173.091 178.857 171.631 157.208 106.902 135.927 167.583 170.018 -346.602 497.497 -51.1771 -346.366 464.876 -79.9456 -330.695 442.802 -114.369 -302.415 406.062 -114.285 -265.858 408.62 -94.3238 -310.499 440.063 -19.3083 14.092 26.7393 26.3106 
175.269 120.196 153.188 175.715 171.109 157.658 105.089 160.6 168.628 170.096 -349.303 494.791 -50.7787 -344.165 461.709 -80.4748 -330.768 425.712 -123.252 -300.221 403.573 -114.686 -264.667 407.203 -94.5091 -310.074 438.858 -20.0277 13.454 16.802 36.7371 
175.385 120.676 157.097 174.27 172.224 164.524 95.822 167.548 168.206 171.283 -348.616 493.92 -50.2526 -339.151 463.231 -76.0229 -324.541 414.597 -123.842 -299.317 403.549 -114.656 -264.267 406.561 -95.3569 -309.511 437.724 -20.5436 13.1014 8.54134 50.476 
167.392 119.58 180 174.27 173.273 159.155 91.4528 179.925 165.05 172.026 -347.389 494.546 -48.8763 -337.053 460.246 -76.1148 -328.406 409.774 -119.001 -298.006 404.211 -115.892 -263.048 405.444 -96.9787 -309.114 436.313 -21.4328 13.4747 7.85851 53.1496 
170.082 112.73 134.709 178.637 172.772 159.745 88.253 159.93 169.451 171.381 -348.459 491.994 -47.5726 -336.232 457.159 -74.8308 -323.63 420.753 -121.313 -295.032 400.964 -118.834 -261.785 404.464 -98.4288 -307.953 433.951 -22.2094 11.8919 14.7063 43.8112 
166.223 103.564 146.363 178.885 172.521 158.535 87.2396 146.671 170.054 171.206 -348.024 489.519 -47.4566 -335.289 453.088 -75.4932 -325.652 426.861 -118.685 -292.325 398.715 -119.187 -260.966 401.809 -98.9803 -306.819 432.153 -22.4777 10.5514 21.6581 35.4844 
170.817 100.806 153.644 178.329 172.869 163.302 89.0795 150.717 169.757 171.452 -344.956 486.959 -48.0881 -333.979 452.248 -75.2373 -327.28 422.111 -119.669 -291.021 398.349 -118.676 -260.567 400.268 -99.1291 -305.836 430.823 -22.3405 9.96514 19.7666 39.2557 
171.063 94.9835 159.31 179.722 173.525 164.431 89.0204 152.908 169.194 171.322 -344.224 484.726 -46.6557 -332.675 450.325 -75.0904 -327.422 419.535 -121.237 -288.692 397.834 -119.06 -260.184 400.124 -99.3546 -305.208 429.909 -22.5328 8.59252 19.5495 40.408 
155.268 174.27 171.653 175.644 178.232 149.706 136.583 167.021 174.434 169.686 -352.083 482.432 -35.63 -341.915 424.785 -97.9989 -324.971 406.906 -123.96 -285.264 391.136 -118.626 -259.6 401.783 -97.4427 -305.633 430.91 -22.5029 6.64079 17.1835 9.09183 
153.787 174.27 173.137 176.542 179.982 147.149 142.737 166.343 176.082 168.507 -353.492 480.306 -35.2484 -344.935 415.429 -100.702 -328.169 404 -123.857 -279.782 387.677 -116.602 -257.642 402.946 -95.9119 -305.541 431.115 -22.8634 5.78999 22.7616 2.22121 
155.582 174.27 180 176.133 178.463 143.666 160.69 169.172 173.774 166.126 -355.418 477.776 -33.346 -342.671 403.591 -103.951 -321.899 402.288 -122.995 -280.76 387.063 -118.721 -256.089 403.444 -96.431 -304.126 429.92 -23.4007 7.8364 18.0309 6.86225 
161.921 157.438 180 177.581 178.068 143.296 172.124 178.8 173.481 167.433 -357.842 475.787 -34.3209 -339.661 396.49 -105.481 -315.506 398.987 -124.677 -281.327 386.342 -120.721 -254.978 401.962 -98.1221 -302.771 428.297 -24.1941 8.54249 12.9629 10.7341 
171.503 158.655 180 178.547 176.799 146.352 172.53 172.958 173.822 171.466 -353.958 472.471 -43.2344 -337.774 394.085 -107.854 -312.453 403.111 -126.347 -282.064 385.556 -121.46 -254.934 398.5 -100.21 -301.514 426.808 -24.6564 8.01152 13.9734 14.9704 
151.112 159.407 169.72 153.643 159.504 156.539 156.931 168.195 170.032 158.748 -246.36 369.456 -2.14111 -238.564 366.855 -80.8744 -260.677 374.593 -105.367 -299.087 383.901 -101.439 -331.506 390.703 -80.6401 -291.133 423.429 -17.7316 12.3105 13.0162 14.1773 
151.336 164.436 169.251 163.812 162.053 156.58 162.773 171.286 174.494 168.43 -241.882 365.616 2.42904 -235.794 362.99 -83.2616 -260.209 371.84 -108.066 -299.761 381.474 -104.472 -333.886 391.439 -84.5135 -287.873 416.905 -15.0767 14.7622 13.574 13.3556 
168 169.192 171.701 174.38 174.27 164.891 167.937 177.207 178.611 172.431 -234.264 365.006 5.76379 -231.713 367.634 -87.3339 -256.088 376.275 -108.951 -299.592 388.474 -106.373 -335.299 396.06 -81.9248 -288.033 414.679 -14.2911 16.8639 16.9933 11.0747 
173.712 178.071 170.66 177.395 161.292 164.051 174.223 172.108 179.11 171.131 -237.409 368.184 1.62741 -230.123 370.079 -89.0818 -253.956 372.276 -106.967 -295.874 384.178 -105.501 -334.007 392.467 -80.7239 -287.435 414.013 -13.9316 18.8506 15.8131 6.8724 
152.841 174.27 168.731 167.956 154.579 156.318 174.655 170.141 175.892 169.67 -243.31 366.951 0.0296745 -229.612 369.014 -89.4545 -254.119 369.9 -106.323 -295.418 381.427 -104.554 -334.122 389.638 -81.2361 -286.667 413 -13.7281 19.0737 15.3157 6.52622 
174.522 179.039 172.952 174.89 174.27 162.054 169.88 171.879 178.256 173.32 -238.563 364.257 4.69843 -227.676 367.226 -87.2549 -250.899 368.38 -104.229 -294.468 380.29 -104.379 -332.949 388.843 -80.3625 -286.277 411.798 -13.5856 19.1963 17.3545 6.26307 
161.189 177.143 170.378 173.218 147.848 158.366 171.267 170.758 177.237 166.914 -239.87 363.68 5.06105 -227.647 365.469 -86.605 -252.046 365.638 -104.05 -293.311 376.334 -103.066 -332.311 383.804 -78.7891 -285.781 410.889 -13.058 19.1441 15.1978 6.80416 
174.862 174.621 172.947 176.02 169.495 164.615 168.941 172.19 178.642 170.562 -232.44 364.22 7.09973 -225.917 363.485 -86.3846 -250.366 364.775 -103.569 -293.522 374.415 -102.62 -331.281 382.298 -77.473 -285.334 409.497 -12.9166 18.4742 16.3245 7.22489 
173.221 173.673 169.418 174.323 140.314 162.209 168.332 170.816 175.539 163.762 -233.038 363.391 7.06925 -227.022 360.399 -85.8514 -252.073 361.838 -104.147 -292.5 370.32 -101.56 -330.084 377.419 -75.6571 -285.082 408.586 -12.5687 17.8023 13.7701 7.92164 
151.959 170.993 168.703 169.838 154.144 156.752 166.045 169.118 175.871 165.801 -237.162 363.118 4.35048 -227.702 356.414 -84.516 -253.308 358.32 -104.47 -292.908 366.137 -101.302 -330.378 375.227 -78.7773 -284.576 407.41 -12.4374 17.0915 12.9171 9.08329 
150.914 168.515 169.044 166.999 155.971 154.726 163.6 168.184 173.532 168.684 -238.259 361.267 5.67417 -228.063 353.715 -82.2732 -252.107 354.919 -102.932 -291.859 362.441 -100.83 -329.506 372.834 -79.7322 -284.656 406.5 -12.449 16.831 13.0109 8.7334 
150.093 165.202 167.726 163.12 158.951 153.119 162.136 167.216 173.781 168.236 -238.937 358.843 7.44298 -228.413 351.047 -80.77 -252.31 352.272 -102.293 -291.961 359.31 -100.234 -329.042 369.309 -80.0766 -284.502 405.19 -12.7158 16.0361 12.8815 9.17841 
147.187 163.604 167.821 166.861 161.354 152.76 161.987 167.815 175.52 170.876 -239.25 356.101 8.93665 -228.265 348.238 -80.1467 -252.803 350.361 -102.655 -292.888 356.924 -99.4251 -329.157 367.483 -81.0597 -284.012 403.205 -12.8164 15.4723 13.0351 10.0818 
146.007 162.742 168.61 174.998 165.582 152.378 161.573 168.578 178.291 172.574 -239.615 351.84 9.94504 -227.422 344.976 -79.4738 -251.933 348.651 -103.023 -292.808 356.708 -100.711 -328.723 365.827 -81.6908 -283.083 400.712 -12.9193 15.0199 13.929 11.1761 
146.391 162.574 169.315 179.116 168.452 150.692 160.567 167.907 179.698 172.35 -243.041 348.541 7.24505 -226.579 342.663 -78.607 -250.997 347.078 -103.026 -292.231 356.698 -101.342 -327.874 364.621 -81.7991 -282.479 398.938 -13.0263 14.7007 14.5561 11.9622 
146.357 161.844 167.939 178.348 168.317 147.929 159.443 166.857 179.436 171.213 -246.025 346.896 4.62373 -226.177 342.388 -78.9057 -251.257 346.316 -103.31 -292.499 356.647 -101.308 -327.706 362.993 -80.9636 -282.124 397.617 -13.2656 14.4995 14.8417 12.1143 
146.33 163.008 168.955 178.796 167.479 145.171 161.012 167.869 179.589 172.286 -248.392 345.473 2.90806 -226.171 342.068 -81.0713 -251.522 346.072 -104.976 -292.673 356.982 -102.305 -327.37 360.926 -80.5979 -281.65 396.194 -13.5753 14.2826 14.9233 12.012 
145.742 164.142 169.239 177.085 167.168 143.544 161.903 168.097 179.254 172.936 -249.917 344.483 1.56984 -226.193 342.095 -83.1142 -251.989 346.055 -106.481 -292.956 357.444 -103.351 -327.65 359.61 -80.4114 -281.472 395.128 -14.0853 14.6758 14.9937 11.9846 
146.436 164.689 169.657 176.555 168.941 143.395 161.869 168.432 179.104 171.533 -251.922 342.163 -0.957539 -226.597 341.026 -84.9746 -252.974 346.187 -108.83 -293.357 358.47 -105.345 -328.471 359.385 -81.0975 -281.364 393.825 -15.1253 15.4628 14.9046 12.8735 
145.52 166.933 170.069 174.27 172.802 143.437 163.603 170.229 178.765 170.512 -253.603 341.313 -2.45216 -228.946 342.438 -88.629 -256.047 348.612 -111.855 -297.34 360.918 -105.965 -330.952 361.05 -80.7577 -281.867 393.27 -15.7706 15.221 15.3637 12.7285 
146.441 168.211 170.376 174.27 175.731 143.367 162.957 169.241 178.699 169.668 -255.403 340.224 -5.47229 -229.986 340.881 -89.4408 -256.834 347.336 -112.755 -298.273 360.665 -107.012 -331.232 360.916 -81.3389 -281.678 392.595 -16.6604 14.8387 15.8344 12.8536 
148.058 168.605 170.704 174.386 178.245 143.422 163.087 168.304 178.577 170.617 -256.753 339.663 -9.85288 -230.416 339.65 -91.0053 -257.843 345.488 -113.1 -299.015 359.735 -107.391 -331.742 360.172 -82.0298 -281.331 391.665 -17.5517 14.6746 16.1146 12.4357 
146.312 170.486 171.304 165.252 179.592 142.675 165.36 169.759 174.963 171.875 -259.317 338.162 -12.9691 -231.639 339.645 -95.481 -259.977 345.796 -115.71 -300.801 359.258 -108.177 -332.928 359.752 -82.8486 -280.246 389.705 -18.5539 14.6262 15.7332 11.8035 
144.66 170.721 172.007 167.019 173.884 142.613 164.904 169.171 171.525 169.18 -260.024 336.978 -14.9089 -231.328 338.403 -97.0739 -260.16 345.563 -116.59 -302.259 360.155 -109.086 -332.881 360.248 -83.942 -279.082 388.22 -19.3296 13.6728 17.2452 12.1746 
143.241 171.007 171.633 167.493 169.409 142.171 164.904 168.449 170.01 166.794 -258.726 336.912 -17.3919 -231.06 338.275 -99.1275 -260.641 345.598 -117.898 -303.247 361.541 -110.505 -333.744 360.686 -84.4112 -278.218 387 -20.1715 14.1599 18.3397 12.3723 
143.854 170.379 170.352 167.694 166.345 142.775 163.688 166.621 169.429 165.156 -255.994 336.388 -20.0949 -230.545 337.893 -100.49 -260.242 344.507 -118.386 -302.824 361.488 -111.54 -333.925 360.782 -84.8671 -277.344 385.912 -21.0497 14.8395 19.0006 12.0211 
145.761 170.236 170.151 168.503 165.526 144.006 163.529 165.638 168.775 163.33 -253.586 335.83 -22.2689 -230.421 337.814 -101.802 -259.874 342.826 -118.642 -301.907 359.565 -111.638 -333.292 359.239 -84.2429 -276.581 385.121 -21.6486 15.3755 18.6379 10.9839 
146.552 170.496 170.356 168.961 165.345 144.576 163.754 165.596 168.919 162.143 -251.524 335.155 -24.1064 -230.474 337.767 -103.15 -260.023 341.796 -119.17 -301.605 358.325 -111.783 -332.603 357.897 -83.6032 -275.575 383.918 -22.0184 15.4837 18.3893 10.3995 
146.256 170.308 171.743 169.018 165.598 145.447 163.857 165.661 169.315 161.311 -249.469 334.827 -26.209 -230.491 337.366 -104.394 -260.227 340.997 -119.335 -301.243 357.418 -111.612 -331.96 357.311 -83.3056 -274.659 382.875 -22.4461 15.4474 18.1504 10.0381 
146.772 170.787 172.202 168.117 165.911 144.972 165.525 168.171 171.026 162.328 -247.298 334.824 -27.1735 -230.244 337.987 -105.614 -260.219 342.181 -120.553 -300.948 357.293 -111.596 -331.878 357.638 -83.3284 -273.932 382.173 -22.5203 15.7022 17.3693 10.1779 
146.709 170.943 172.705 166.742 166.2 144.98 166.535 168.655 172.168 163.59 -244.916 334.842 -27.7266 -229.973 337.948 -106.157 -259.789 342.125 -120.6 -300.913 357.032 -111.274 -332.037 358.082 -83.1841 -273.242 381.609 -22.3728 15.9272 17.532 9.83712 
146.395 171.113 172.776 165.9 165.87 144.936 166.873 168.493 172.711 163.795 -243.265 334.252 -27.3555 -229.195 337.214 -105.748 -259.192 341.221 -119.875 -300.695 356.394 -110.513 -331.64 357.678 -82.1195 -272.139 380.773 -21.9224 16.1246 17.9221 9.74272 
145.878 170.403 173.085 164.439 164.854 144.917 166.215 167.792 172.65 163.633 -241.695 333.575 -27.373 -228.338 335.873 -105.016 -258.779 339.807 -118.676 -300.54 355.742 -109.642 -331.203 357.205 -81.0387 -270.906 379.683 -21.5173 16.2811 18.5396 9.87069 
144.83 170.545 173.096 163.557 164.768 145.065 165.653 167.819 173.632 164.679 -240.046 332.903 -27.0382 -227.127 334.143 -104.013 -257.762 338.535 -118.026 -299.787 354.918 -108.851 -330.404 356.739 -80.4235 -269.664 378.605 -21.0907 16.379 18.9276 10.2511 
144.246 171.924 174.73 164.618 165.625 145.666 165.693 167.773 173.909 165.885 -238.592 331.745 -26.447 -225.155 331.89 -102.755 -255.811 337.103 -117.369 -298.473 353.536 -108.397 -329.358 356.272 -80.2089 -268.572 377.704 -20.6414 16.4984 19.3051 10.8292 
144.322 172.351 176.434 165.263 165.382 146.124 164.834 167.388 173.319 165.571 -237.331 330.257 -25.9336 -223.076 329.609 -101.278 -253.878 335.556 -116.561 -297.075 351.87 -107.751 -327.674 354.6 -79.6031 -267.327 376.551 -20.2865 16.2741 19.708 11.6218 
146.124 172.737 176.276 172.286 166.172 146.974 162.817 167.913 177.365 167.846 -234.119 328.135 -23.9999 -221.27 326.792 -98.387 -251.497 334.353 -115.851 -296.397 350.696 -106.596 -325.802 352.737 -78.7439 -266.084 375.546 -19.7492 15.2786 20.9503 13.142 
144.88 174.06 173.645 166.659 165.632 146.85 163.78 167.715 175.45 167.102 -232.69 326.897 -22.1517 -220.682 326 -98.0021 -250.282 333.288 -115.411 -294.439 348.009 -105.158 -324.691 351.258 -78.0866 -265.311 374.775 -19.2228 15.8327 19.746 12.6362 
143.891 174.573 171.742 164.561 164.9 147.41 163.902 167.259 174.737 166.372 -231.214 325.649 -20.8123 -219.66 324.965 -97.2705 -249.54 332.483 -114.788 -293.454 347.747 -104.537 -324.032 351.102 -77.6615 -264.271 373.604 -18.6053 16.1164 19.8149 12.8593 
142.934 173.922 169.913 162.425 163.921 146.489 164.694 167.103 174.011 165.317 -230.657 325.557 -19.3191 -219.179 324.864 -96.8398 -248.909 332.042 -114.282 -292.022 347.216 -104.242 -323.339 350.695 -77.3698 -263.906 373.248 -18.0309 16.5914 19.1256 12.4836 
146.5 173.557 170.83 174.27 164.994 149.812 164.869 168.737 178.997 166.732 -226.423 324.451 -17.9491 -218.435 323.222 -95.03 -248.25 331.5 -113.677 -291.834 347.831 -103.972 -322.388 349.673 -76.8507 -263.316 372.797 -17.1991 15.7488 19.7922 13.5274 
147.338 173.98 168.381 174.27 164.748 151.323 166.131 168.323 179.195 166.076 -224.226 323.661 -17.0839 -218.068 323.355 -95.1271 -247.831 330.664 -113.073 -290.663 345.918 -103.189 -321.691 348.589 -76.6232 -262.761 371.985 -16.7796 15.982 18.8826 12.7295 
147.165 173.364 167.277 174.27 164.089 152.197 166.421 168.074 179.283 165.011 -222.787 322.789 -16.3175 -217.39 323.041 -94.9513 -247.597 330.136 -112.69 -289.944 344.594 -102.713 -321.121 347.488 -76.0319 -261.979 370.863 -16.2107 16.1588 18.2947 12.6683 
146.358 172.346 166.58 176.284 164.352 152.056 166.384 166.435 179.174 163.244 -222.934 321.88 -15.8908 -216.775 322.417 -94.6239 -247.023 328.309 -111.593 -288.642 343.114 -102.255 -320.295 345.228 -74.7756 -261.253 369.864 -15.6159 16.7 17.9129 11.9025 
144.092 171.498 166.208 172.936 165.068 151.051 166.232 165.568 177.588 161.547 -224.226 320.88 -15.2482 -216.283 321.584 -94.3743 -246.602 326.694 -110.91 -287.33 340.064 -101.397 -319.589 342.741 -73.4371 -260.656 368.919 -15.1305 17.3312 16.7161 11.422 
142.928 171.06 166.427 167.118 166.257 150.787 165.165 164.056 175.607 160.898 -225 319.924 -15.8674 -215.141 320.234 -93.4686 -245.282 324.869 -109.806 -285.748 337.941 -100.778 -318.536 340.729 -72.8317 -260.051 367.932 -14.738 17.6269 16.441 11.2197 
144.225 171.145 168.726 174.529 167.647 149.865 163.771 165.065 178.132 162.063 -224.747 318.955 -14.9759 -214.357 317.442 -90.6441 -243.702 323.109 -108.599 -284.988 335.709 -99.3722 -317.129 338.379 -71.813 -259.605 367.2 -13.8778 16.8526 16.7495 12.0217 
148.115 170.446 169.993 177.56 167.43 150.254 162.202 164.611 179.413 162.99 -224.479 317.751 -15.2784 -213.353 315.071 -88.5879 -241.775 321.048 -107.5 -283.626 334.08 -99.068 -315.32 336.517 -71.8806 -259.278 366.507 -13.5892 16.0425 17.2513 12.5014 
150.187 168.586 169.759 174.27 168.257 149.845 160.119 163.655 179.337 162.779 -225.025 317.145 -15.3862 -212.807 313.494 -86.8579 -240.854 319.355 -106.362 -282.668 331.924 -98.1642 -313.905 334.362 -71.5313 -259.258 366.107 -13.5379 15.3669 17.1659 12.9962 
150.429 166.998 169.248 174.27 168.378 148.873 159.155 163.868 179.297 162.876 -224.36 315.917 -14.0372 -211.927 312.085 -85.4218 -239.79 317.706 -105.463 -281.574 330.121 -97.5403 -312.569 332.21 -71.2206 -259.103 365.182 -13.3204 14.9633 17.1251 13.2952 
150.503 165.812 169.223 174.27 168.677 148.566 157.706 162.999 179.659 163.062 -224.294 315.019 -13.2045 -210.87 310.664 -83.6023 -238.295 315.979 -104.105 -280.686 327.972 -96.774 -311.781 330.69 -71.0342 -259.114 364.465 -13.2659 14.863 17.5116 13.5701 
149.283 165.341 170.245 174.27 169.88 147.336 157.138 162.596 179.748 163.974 -224.574 314.202 -12.7695 -210.057 309.31 -82.4431 -237.276 314.383 -103.058 -278.554 326.093 -96.2204 -311.598 329.712 -71.2322 -259.052 363.245 -13.0439 16.2726 16.6726 13.5962 
