156.643 168.578 168.98 169.284 168.52 144.687 160.263 164.308 164.518 162.121 147.97 172.381 -30.5259 126.476 226.538 -103.969 172.02 226.376 -107.463 205.373 211.037 -88.1631 220.231 189.083 -54.3419 146.53 215.539 -4.6182 15.0179 14.3655 19.4282 
156.746 168.54 169.013 169.303 168.54 144.68 160.201 164.28 164.494 162.112 148.009 172.491 -30.5241 126.493 226.261 -103.92 171.944 226.207 -107.448 205.388 210.98 -88.108 220.352 189.175 -54.2507 146.578 215.57 -4.591 15.0296 14.4137 19.3852 
156.932 168.511 169.056 169.337 168.562 144.811 160.134 164.323 164.497 162.097 147.916 172.576 -30.68 126.495 226.046 -103.872 171.926 226.155 -107.422 205.397 210.982 -88.0627 220.426 189.271 -54.1824 146.599 215.564 -4.57253 15.0335 14.423 19.3985 
157.129 168.473 169.124 169.389 168.612 144.936 160.13 164.443 164.549 162.136 147.902 172.551 -30.7197 126.467 225.919 -103.833 171.897 226.177 -107.418 205.361 210.999 -88.061 220.459 189.345 -54.1569 146.586 215.539 -4.54327 15.0425 14.4071 19.408 
157.267 168.452 169.173 169.414 168.622 145.014 160.08 164.51 164.566 162.125 147.884 172.527 -30.7335 126.412 225.761 -103.81 171.867 226.132 -107.434 205.318 210.925 -88.0892 220.417 189.316 -54.1755 146.602 215.531 -4.54425 15.0293 14.3962 19.4494 
157.37 168.44 169.225 169.418 168.603 145.075 160.044 164.562 164.545 162.054 147.872 172.514 -30.7324 126.346 225.66 -103.754 171.829 226.111 -107.412 205.245 210.82 -88.0881 220.317 189.223 -54.1763 146.602 215.51 -4.51148 15.0113 14.3815 19.4922 
157.705 168.403 169.235 169.413 168.595 145.246 159.944 164.545 164.496 161.988 147.95 172.543 -30.8099 126.348 225.521 -103.697 171.771 226.1 -107.397 205.193 210.818 -88.0946 220.313 189.264 -54.1887 146.641 215.533 -4.48339 15.0046 14.3735 19.472 
158.181 168.331 169.24 169.447 168.639 145.476 159.924 164.558 164.504 161.982 147.997 172.526 -30.9237 126.266 225.419 -103.692 171.62 225.991 -107.434 205.039 210.715 -88.175 220.248 189.234 -54.2482 146.628 215.538 -4.4734 15.0068 14.3501 19.4154 
158.279 168.335 169.252 169.471 168.662 145.538 160.039 164.611 164.528 161.994 148.062 172.475 -30.8711 126.198 225.475 -103.716 171.547 225.955 -107.456 204.956 210.665 -88.2177 220.165 189.191 -54.2765 146.615 215.57 -4.47537 15.0109 14.3366 19.3879 
158.33 168.308 169.241 169.462 168.622 145.539 160.079 164.627 164.523 161.986 148.071 172.382 -30.7524 126.196 225.458 -103.726 171.51 225.894 -107.453 204.92 210.601 -88.2241 220.133 189.139 -54.2631 146.621 215.59 -4.46551 15.0215 14.3353 19.3546 
158.245 168.352 169.261 169.502 168.628 145.485 160.168 164.683 164.584 162.016 148.026 172.325 -30.6668 126.172 225.466 -103.753 171.483 225.885 -107.467 204.924 210.575 -88.2237 220.099 189.086 -54.2567 146.609 215.58 -4.47644 15.0252 14.3644 19.3567 
157.923 168.364 169.29 169.566 168.672 145.287 160.363 164.776 164.695 162.125 148.012 172.273 -30.472 126.303 225.77 -103.836 171.563 226.068 -107.489 205.02 210.756 -88.2198 220.233 189.251 -54.1947 146.567 215.614 -4.47929 15.0673 14.3721 19.2672 
157.462 168.321 169.269 169.545 168.627 144.985 160.409 164.772 164.713 162.138 148.049 172.181 -30.2235 126.407 225.906 -103.937 171.625 226.202 -107.541 205.112 210.92 -88.2498 220.312 189.407 -54.1939 146.532 215.649 -4.54088 15.0798 14.3878 19.22 
156.994 168.338 169.293 169.576 168.648 144.743 160.464 164.814 164.76 162.17 148.102 172.166 -30.0939 126.488 226.144 -104.087 171.728 226.498 -107.621 205.219 211.193 -88.3102 220.374 189.667 -54.2327 146.475 215.729 -4.64377 15.0705 14.3938 19.2209 
156.426 168.333 169.275 169.532 168.607 144.479 160.544 164.825 164.737 162.112 147.988 172.074 -29.9129 126.529 226.513 -104.243 171.727 226.721 -107.714 205.147 211.305 -88.4118 220.23 189.75 -54.3192 146.372 215.824 -4.76905 15.0677 14.373 19.1645 
155.86 168.367 169.253 169.482 168.571 144.194 160.639 164.843 164.703 162.034 147.903 172.01 -29.7169 126.573 226.891 -104.395 171.741 226.927 -107.799 205.057 211.392 -88.4975 220.049 189.822 -54.4054 146.249 215.912 -4.88922 15.0431 14.3338 19.107 
155.343 168.446 169.244 169.464 168.555 143.989 160.749 164.887 164.75 162.051 147.805 172.034 -29.65 126.588 227.415 -104.614 171.795 227.331 -107.946 205.03 211.662 -88.6401 219.91 189.957 -54.5573 146.111 216.045 -5.06727 15.0496 14.3116 19.104 
154.749 168.465 169.224 169.423 168.507 143.757 160.942 164.976 164.796 162.039 147.593 172.006 -29.5416 126.709 228.19 -104.871 171.932 227.844 -108.093 204.992 211.965 -88.829 219.76 190.12 -54.7401 145.996 216.232 -5.26081 15.066 14.2349 19.0537 
154.027 168.407 169.108 169.301 168.414 143.416 161.134 164.983 164.743 161.936 147.348 172.014 -29.2812 126.832 229.149 -105.094 171.954 228.356 -108.232 204.802 212.23 -89.0474 219.476 190.26 -54.9638 145.898 216.544 -5.43812 15.0859 14.141 18.9104 
153.408 168.406 168.969 169.185 168.301 143.144 161.383 165.03 164.761 161.892 147.024 171.987 -29.0835 126.948 230.249 -105.372 171.99 228.949 -108.412 204.66 212.547 -89.3169 219.266 190.416 -55.2397 145.839 216.926 -5.67759 15.1418 14.0808 18.7918 
152.778 168.424 168.895 169.161 168.233 142.825 161.689 165.073 164.859 162.011 146.506 172.004 -28.9836 126.857 231.307 -105.663 171.778 229.365 -108.636 204.362 212.83 -89.6294 219.056 190.528 -55.5065 145.655 217.23 -5.91823 15.278 14.052 18.652 
152.583 168.441 168.803 169.124 168.205 142.689 161.897 164.929 164.892 162.127 146.161 172.094 -28.9653 126.616 232.09 -105.869 171.268 229.391 -108.788 203.951 213.052 -89.84 218.945 190.776 -55.6297 145.464 217.565 -6.11684 15.4645 14.0929 18.4334 
152.517 168.476 168.709 169.119 168.229 142.529 161.952 164.786 164.927 162.227 145.867 172.22 -28.9885 126.218 232.549 -106.069 170.649 229.294 -108.989 203.481 213.135 -90.0816 218.771 190.937 -55.7995 145.269 217.893 -6.34192 15.6323 14.1752 18.2902 
152.193 169.242 168.803 168.985 168.119 141.991 162.106 164.317 164.698 162.214 145.165 172.701 -29.1198 124.852 232.725 -106.531 169.123 228.425 -109.48 202.204 212.69 -90.5033 217.879 190.841 -56.1607 144.686 218.529 -6.83575 15.8588 14.3214 18.1793 
152.225 169.766 168.856 168.997 168.157 141.521 161.847 163.939 164.633 162.387 145.06 173.118 -29.1141 124.043 232.306 -106.523 168.204 227.724 -109.632 201.558 212.22 -90.6678 217.415 190.517 -56.3694 144.478 218.74 -6.95855 15.9449 14.4821 18.1547 
151.92 169.856 168.741 168.901 168.067 141.141 161.413 163.521 164.371 162.242 144.459 173.558 -29.1359 123.395 232.169 -106.491 167.462 227.273 -109.758 200.782 211.754 -90.8379 216.626 190.204 -56.5949 144.192 219.136 -7.07818 15.92 14.4759 18.1283 
151.87 169.709 168.663 168.881 167.98 141.044 161.152 163.522 164.282 162.133 143.955 173.725 -29.2495 122.865 232.146 -106.522 167.075 227.266 -109.888 200.185 211.505 -91.0275 215.84 189.879 -56.8441 143.775 219.271 -7.2295 15.8746 14.3666 18.2411 
151.648 169.507 168.664 168.743 167.835 141.125 161.058 163.768 164.196 161.822 143.251 173.807 -29.637 122.461 232.512 -106.599 166.941 227.825 -110.035 199.693 211.511 -91.25 214.899 189.555 -57.1793 143.312 219.245 -7.44652 15.7547 14.2461 18.499 
151.435 169.191 168.477 168.521 167.582 141.211 161.014 163.838 163.929 161.299 142.594 173.688 -29.9264 122.037 232.783 -106.751 166.605 228.093 -110.237 199.038 211.322 -91.5682 214.033 189.183 -57.5609 142.882 219.164 -7.74196 15.7219 14.1309 18.6198 
151.028 168.967 168.42 168.493 167.437 141.045 161.283 164.062 163.847 160.974 142.082 173.577 -30.0076 121.899 233.559 -107.043 166.386 228.714 -110.538 198.542 211.415 -91.9955 213.413 189.004 -58.0116 142.508 219.159 -8.02731 15.7358 14.0476 18.5604 
150.733 168.889 168.539 168.615 167.459 140.922 161.686 164.422 163.991 161 141.803 173.542 -30.1332 121.905 234.421 -107.452 166.351 229.415 -110.918 198.324 211.73 -92.4529 213.223 189.109 -58.4169 142.231 219.189 -8.3378 15.8008 13.9904 18.4883 
150.791 168.73 168.467 168.668 167.524 140.949 161.753 164.432 163.988 161.077 141.801 173.536 -30.3661 121.747 234.734 -107.804 166.104 229.624 -111.278 198.062 211.929 -92.8718 213.185 189.329 -58.7997 142.014 219.221 -8.65801 15.8572 13.9582 18.3996 
150.871 168.594 168.374 168.71 167.599 140.942 161.829 164.382 163.96 161.127 141.865 173.641 -30.4856 121.628 234.898 -108.107 165.798 229.581 -111.565 197.79 211.97 -93.1694 213.178 189.534 -59.0324 141.84 219.332 -8.92334 15.9147 13.9555 18.2469 
150.961 168.482 168.274 168.714 167.617 140.882 161.89 164.306 163.934 161.165 141.864 173.768 -30.4257 121.412 234.892 -108.344 165.494 229.283 -111.78 197.577 211.834 -93.3434 213.171 189.652 -59.1331 141.709 219.513 -9.13273 15.9499 13.9942 18.1904 
150.971 168.493 168.217 168.757 167.674 140.818 161.867 164.209 163.936 161.259 141.974 173.914 -30.6267 121.391 234.713 -108.63 165.428 229.019 -112.044 197.61 211.746 -93.5687 213.345 189.724 -59.3312 141.737 219.599 -9.39423 15.9634 14.0304 18.1667 
150.962 168.495 168.191 168.782 167.719 140.839 161.75 164.166 163.954 161.322 141.997 173.993 -30.9304 121.363 234.433 -108.88 165.441 228.833 -112.283 197.647 211.652 -93.7724 213.393 189.73 -59.5325 141.751 219.625 -9.63321 15.9221 14.0375 18.2116 
150.995 168.476 168.255 168.809 167.731 140.905 161.645 164.251 163.984 161.34 142.055 174.073 -31.2981 121.417 234.086 -109.16 165.595 228.768 -112.562 197.772 211.584 -94.0031 213.464 189.73 -59.7553 141.789 219.614 -9.89355 15.8617 14.0267 18.2906 
151.265 168.387 168.314 168.827 167.736 141.087 161.533 164.318 164.002 161.357 142.16 174.073 -31.605 121.566 233.756 -109.443 165.754 228.703 -112.862 197.896 211.549 -94.278 213.561 189.772 -60.0069 141.866 219.628 -10.1315 15.8007 13.9873 18.2861 
151.415 168.302 168.355 168.83 167.731 141.187 161.456 164.377 164.054 161.412 142.265 174.076 -31.9668 121.786 233.657 -109.766 165.948 228.795 -113.201 198.074 211.667 -94.6116 213.715 189.877 -60.3085 141.964 219.651 -10.4232 15.7808 13.962 18.2584 
151.59 168.21 168.431 168.832 167.728 141.305 161.398 164.499 164.111 161.477 142.386 174.026 -32.269 122.034 233.469 -110.078 166.224 228.884 -113.493 198.298 211.792 -94.8714 213.891 189.997 -60.5331 142.022 219.652 -10.6881 15.7572 13.9153 18.2648 
151.595 168.135 168.581 168.874 167.738 141.195 161.33 164.648 164.188 161.652 142.509 173.744 -32.4222 122.369 233.089 -110.507 166.631 228.795 -113.872 198.603 211.663 -95.1712 214.138 189.921 -60.7408 142.1 219.59 -11.0028 15.7683 13.8394 18.2278 
151.504 168.17 168.722 168.939 167.803 141.256 161.401 164.86 164.344 161.792 142.419 173.573 -32.8072 122.578 232.952 -110.929 166.928 228.868 -114.284 198.86 211.672 -95.5125 214.279 189.84 -61.0365 142.136 219.459 -11.3291 15.7445 13.8286 18.2668 
151.478 168.232 168.811 168.979 167.876 141.349 161.524 165.018 164.43 161.829 142.307 173.495 -33.08 122.726 232.688 -111.323 167.139 228.795 -114.651 199.054 211.592 -95.8061 214.356 189.772 -61.2735 142.188 219.404 -11.6146 15.6931 13.8238 18.2989 
151.369 168.282 168.903 169.062 167.971 141.402 161.641 165.147 164.57 161.955 142.237 173.343 -33.3745 122.917 232.453 -111.696 167.296 228.708 -114.983 199.248 211.618 -96.0596 214.487 189.799 -61.4625 142.166 219.269 -11.8948 15.6728 13.827 18.2563 
151.445 168.345 168.943 169.084 168.093 141.455 161.724 165.164 164.573 161.971 142.296 173.255 -33.6083 123.065 232.081 -112.118 167.364 228.439 -115.379 199.34 211.513 -96.3866 214.572 189.815 -61.718 142.169 219.192 -12.221 15.6387 13.8052 18.1682 
151.397 168.37 168.956 169.139 168.205 141.408 161.855 165.192 164.677 162.115 142.347 173.058 -33.7362 123.242 231.779 -112.568 167.444 228.187 -115.767 199.546 211.499 -96.6977 214.848 189.904 -61.9234 142.174 219.1 -12.5694 15.6644 13.8379 18.0765 
151.404 168.416 168.892 169.176 168.324 141.34 161.954 165.1 164.745 162.283 142.467 172.911 -33.8228 123.375 231.554 -113.008 167.497 227.821 -116.116 199.719 211.438 -96.9783 215.114 190.023 -62.1024 142.179 219.08 -12.9152 15.6786 13.8624 17.9928 
151.341 168.454 168.787 169.178 168.399 141.211 161.941 164.92 164.737 162.391 142.607 172.868 -34.0182 123.555 231.397 -113.453 167.634 227.531 -116.462 199.966 211.408 -97.2485 215.406 190.17 -62.3129 142.227 219.124 -13.2899 15.6597 13.8997 17.9433 
151.334 168.424 168.586 169.104 168.358 141.186 161.758 164.554 164.611 162.353 142.801 173.056 -34.4912 123.708 231.381 -113.875 167.767 227.297 -116.773 200.235 211.46 -97.4793 215.679 190.399 -62.5182 142.272 219.246 -13.7087 15.6232 13.9654 17.9246 
151.239 168.426 168.424 168.976 168.255 141.187 161.572 164.279 164.507 162.3 142.662 173.145 -34.9606 123.648 231.309 -114.262 167.708 227.115 -117.13 200.289 211.469 -97.7884 215.706 190.499 -62.8274 142.264 219.371 -14.1428 15.6003 14.0373 17.9629 
151.244 168.359 168.248 168.823 168.113 141.278 161.39 163.977 164.317 162.081 142.458 173.295 -35.4593 123.613 231.236 -114.628 167.56 226.936 -117.448 200.238 211.529 -98.0612 215.683 190.702 -63.0817 142.228 219.579 -14.5752 15.6128 14.0918 17.9152 
151.098 168.307 168.131 168.675 167.99 141.117 161.291 163.77 164.163 161.875 142.174 173.405 -35.8479 123.511 231.244 -115.025 167.353 226.786 -117.82 200.035 211.442 -98.3983 215.399 190.711 -63.4487 142.103 219.727 -15.0066 15.5565 14.1159 17.8628 
150.834 168.266 167.985 168.538 167.864 140.931 161.19 163.549 164.067 161.757 141.76 173.537 -36.1756 123.332 231.26 -115.401 167.094 226.613 -118.169 199.836 211.388 -98.7156 215.18 190.747 -63.7639 141.959 219.91 -15.4274 15.5544 14.1671 17.8392 
150.696 168.248 167.925 168.479 167.792 140.793 161.305 163.607 164.058 161.692 141.445 173.626 -36.3984 123.141 231.378 -115.81 166.995 226.676 -118.535 199.646 211.364 -99.0526 214.958 190.78 -64.0731 141.722 220.024 -15.8327 15.558 14.1446 17.9167 
150.489 168.254 167.827 168.428 167.732 140.665 161.339 163.618 164.028 161.601 141.206 173.682 -36.553 122.893 231.429 -116.177 166.883 226.722 -118.844 199.452 211.378 -99.3218 214.728 190.889 -64.3315 141.459 220.146 -16.238 15.5511 14.1264 18.042 
150.323 168.375 167.879 168.43 167.664 140.557 161.481 163.782 163.955 161.34 141.118 173.864 -36.6271 122.649 231.445 -116.585 166.843 226.792 -119.199 199.163 211.217 -99.6424 214.233 190.811 -64.6646 141.167 220.298 -16.6241 15.4441 14.0292 18.2034 
150.108 168.519 167.908 168.483 167.694 140.399 161.543 163.898 164.043 161.289 141.024 173.959 -36.7474 122.369 231.126 -117.056 166.761 226.672 -119.596 199.054 211.211 -99.9217 214.006 190.968 -64.889 140.876 220.428 -17.0577 15.3815 14.0207 18.3574 
149.756 168.768 167.957 168.454 167.658 140.203 161.516 163.91 163.95 161.07 140.906 174.119 -37.0196 121.993 230.732 -117.45 166.643 226.502 -119.915 198.862 211.025 -100.096 213.592 190.944 -65.0824 140.53 220.51 -17.4912 15.2695 14.0297 18.5821 
149.457 168.785 167.877 168.389 167.621 139.896 161.211 163.532 163.801 160.949 140.759 174.302 -37.3428 121.615 230.314 -117.747 166.24 226.04 -120.166 198.698 210.997 -100.222 213.516 191.164 -65.1789 140.237 220.629 -17.9316 15.3088 14.1622 18.6126 
148.908 168.824 167.908 168.295 167.565 139.24 160.772 163.068 163.588 160.907 140.698 174.518 -37.4189 121.145 229.794 -118.05 165.65 225.563 -120.469 198.358 210.904 -100.435 213.276 191.305 -65.3762 139.923 220.888 -18.3499 15.3683 14.2755 18.5192 
147.928 168.712 167.777 168.248 167.521 138.595 160.392 162.624 163.536 161.073 140.25 174.492 -37.4077 120.702 229.577 -118.214 164.903 225.198 -120.668 197.861 210.948 -100.653 212.968 191.428 -65.5694 139.517 221.034 -18.6545 15.4997 14.3591 18.2818 
147.022 168.569 167.612 168.204 167.501 138.138 160.062 162.332 163.577 161.3 139.464 174.208 -37.2784 119.882 229.138 -118.315 163.902 224.773 -120.876 197.094 210.911 -100.912 212.455 191.456 -65.7702 138.968 221.01 -18.8692 15.6543 14.4165 18.146 
146.325 168.557 167.66 168.274 167.497 137.86 160.025 162.376 163.664 161.407 138.945 174.182 -37.3538 119.136 228.856 -118.522 163.119 224.726 -121.161 196.376 210.991 -101.235 211.845 191.504 -66.0598 138.385 220.955 -19.0564 15.7231 14.3898 18.0779 
146.237 168.553 167.621 168.262 167.481 137.979 160.209 162.505 163.702 161.367 138.54 174.201 -37.4393 118.464 228.623 -118.688 162.43 224.618 -121.376 195.745 210.871 -101.468 211.217 191.397 -66.3042 137.869 220.892 -19.186 15.6816 14.4193 18.0841 
146.538 168.644 167.799 168.361 167.584 138.396 160.457 162.939 163.902 161.482 138.19 174.122 -37.724 117.814 228.348 -118.978 162.046 224.692 -121.703 195.28 210.75 -101.763 210.66 191.22 -66.5803 137.318 220.702 -19.3884 15.6176 14.3913 18.2985 
147.136 168.749 167.907 168.433 167.683 138.914 160.617 163.146 164.013 161.483 137.941 173.96 -37.9446 117.126 227.736 -119.232 161.522 224.451 -121.987 194.862 210.628 -101.998 210.221 191.176 -66.7816 136.81 220.526 -19.614 15.5656 14.4461 18.4621 
147.726 168.835 168.25 168.607 167.799 139.213 160.522 163.434 164.247 161.704 137.756 173.754 -38.0417 116.439 226.775 -119.496 161.129 224.164 -122.328 194.532 210.415 -102.255 209.835 191.06 -66.9711 136.322 220.359 -19.803 15.5179 14.4387 18.6594 
148.362 168.945 168.413 168.58 167.828 139.585 160.358 163.418 164.229 161.641 137.456 173.513 -38.3122 115.681 225.688 -119.628 160.437 223.566 -122.56 194.066 210.124 -102.4 209.331 190.906 -67.1193 135.805 220.14 -20.0239 15.4382 14.5588 18.7964 
148.781 168.922 168.572 168.702 167.937 139.617 160.107 163.328 164.376 161.908 136.979 172.926 -38.3707 114.855 224.32 -119.735 159.571 222.715 -122.787 193.524 209.795 -102.568 208.936 190.691 -67.1993 135.145 219.707 -20.1698 15.5037 14.6628 18.7717 
149.331 168.733 168.682 168.798 168.03 139.725 159.762 163.167 164.496 162.235 136.544 172.379 -38.3898 114.134 223.051 -119.744 158.624 221.875 -122.898 192.931 209.601 -102.645 208.631 190.701 -67.1589 134.445 219.31 -20.2313 15.6049 14.7716 18.6006 
149.899 168.464 168.7 168.695 167.941 139.874 159.397 162.795 164.381 162.276 135.96 171.794 -38.2904 113.511 222.123 -119.798 157.604 220.923 -123.012 192.141 209.177 -102.786 208.137 190.565 -67.1822 133.838 219.098 -20.3472 15.7079 14.83 18.2871 
150.329 168.314 168.641 168.523 167.82 140.162 159.345 162.492 164.135 162.053 135.182 171.356 -38.3079 112.878 221.542 -119.802 156.562 219.896 -123.011 191.172 208.551 -102.826 207.385 190.304 -67.1572 133.233 218.89 -20.4182 15.7191 14.8529 17.9921 
150.728 168.382 168.495 168.321 167.638 140.463 159.418 162.256 163.901 161.72 134.433 170.912 -38.1653 112.089 220.658 -119.755 155.661 218.876 -122.929 190.375 207.859 -102.718 206.617 189.928 -67.0047 132.61 218.622 -20.4598 15.6854 14.9322 17.9748 
151.287 168.526 168.39 168.118 167.491 140.715 159.433 161.856 163.633 161.399 133.939 170.682 -37.9482 111.284 219.654 -119.703 154.722 217.758 -122.85 189.686 207.295 -102.622 206.01 189.712 -66.874 132.083 218.521 -20.5189 15.6661 15.0954 17.9515 
151.901 168.475 168.099 168.011 167.482 141.021 159.361 161.638 163.662 161.434 133.417 170.281 -37.8454 110.353 218.632 -119.691 153.774 216.877 -122.87 189.071 207.01 -102.665 205.53 189.669 -66.8755 131.442 218.285 -20.6485 15.6816 15.2908 18.0224 
152.346 168.296 168.007 168.096 167.6 141.269 159.408 161.605 163.843 161.612 132.989 169.843 -37.786 109.53 217.653 -119.793 153.035 216.226 -122.959 188.736 206.986 -102.663 205.304 189.814 -66.7666 130.718 217.925 -20.7644 15.7261 15.5472 18.1279 
152.853 168.235 168.093 168.213 167.731 141.44 159.561 161.6 164.108 161.897 132.553 169.417 -37.4975 108.626 216.496 -119.802 152.185 215.299 -122.961 188.302 206.891 -102.616 205.04 190.046 -66.6019 129.956 217.579 -20.7751 15.7344 15.7931 18.1862 
153.042 168.128 168.136 168.268 167.783 141.34 159.717 161.508 164.322 162.142 132.039 168.924 -37.1063 107.886 215.684 -119.867 151.395 214.417 -122.919 187.866 206.642 -102.512 204.697 190.116 -66.3831 129.193 217.206 -20.797 15.7279 16.0372 18.1387 
153.184 168.214 168.245 168.157 167.749 141.332 159.793 161.257 164.335 162.125 131.508 168.497 -36.5699 106.952 214.664 -119.805 150.492 213.35 -122.794 187.247 206.239 -102.359 204.115 190.099 -66.161 128.473 217.018 -20.7891 15.6754 16.2329 18.1751 
153.318 168.407 168.257 168.026 167.625 141.392 159.772 161.099 164.207 161.9 130.88 168.361 -36.2785 106.028 213.811 -119.673 149.749 212.62 -122.645 186.582 205.778 -102.156 203.312 189.961 -65.9693 127.787 216.955 -20.7538 15.5275 16.2965 18.3524 
153.616 168.599 168.273 167.815 167.405 141.583 159.604 160.802 163.946 161.553 130.25 168.305 -36.2693 104.955 212.926 -119.546 148.846 211.836 -122.557 185.749 205.317 -102.094 202.384 189.785 -65.9709 127.072 216.939 -20.8409 15.3954 16.3547 18.5474 
153.803 168.651 168.456 167.621 167.173 141.682 159.482 160.559 163.64 161.128 129.494 168.126 -36.0208 103.78 211.916 -119.304 147.563 210.788 -122.417 184.565 204.675 -102.054 201.268 189.581 -65.9838 126.297 216.979 -20.8589 15.3036 16.4052 18.5065 
154.104 168.557 168.924 167.51 167.197 141.857 159.446 160.42 163.565 161.136 128.593 167.755 -35.6291 102.431 210.985 -118.995 145.89 209.295 -122.122 183.067 203.928 -101.938 200.182 189.376 -65.8172 125.323 216.894 -20.7529 15.415 16.5117 18.2188 
154.159 168.547 168.867 167.305 167.117 142.004 159.431 159.916 163.45 160.953 127.678 167.141 -34.9699 100.957 209.909 -118.634 144.168 207.668 -121.721 181.574 203.049 -101.769 198.958 189.026 -65.6349 124.323 216.694 -20.6536 15.4494 16.6444 18.0012 
154.418 168.924 168.524 167.237 167.05 142.246 159.577 159.57 163.35 160.655 126.909 167.025 -34.7099 99.6437 208.819 -118.359 142.887 206.817 -121.463 180.392 202.602 -101.651 197.646 188.857 -65.6169 123.371 216.671 -20.5777 15.2394 16.6777 18.0639 
154.704 169.091 168.316 167.326 167.086 142.557 159.626 159.521 163.35 160.504 126.192 166.914 -34.6707 98.3829 207.423 -118.086 141.554 206.048 -121.395 179.175 202.28 -101.719 196.458 188.927 -65.7461 122.406 216.648 -20.5616 15.0656 16.6712 18.0559 
154.913 168.964 168.928 167.106 166.993 142.82 159.33 159.458 162.991 160.387 125.085 166.672 -34.5864 97.0223 206.616 -117.667 139.743 204.782 -121.111 177.36 201.428 -101.666 195.07 188.559 -65.7355 121.378 216.648 -20.4647 15.139 16.6472 17.7009 
154.937 168.847 169.27 166.963 166.978 142.944 159.126 158.977 162.717 160.091 124.308 166.49 -34.1579 95.6929 205.893 -117.273 138.094 203.418 -120.646 175.857 200.669 -101.414 193.808 188.311 -65.5447 120.433 216.679 -20.3605 15.1382 16.7599 17.4197 
155.07 168.888 168.517 167.101 167.146 143.164 159.421 158.758 162.904 160.081 123.734 166.277 -33.5517 94.1812 204.185 -116.837 136.613 202.123 -120.317 174.616 200.148 -101.333 192.671 188.368 -65.4764 119.406 216.583 -20.1993 14.9893 16.8322 17.4333 
155.289 169.063 168.042 167.437 167.318 143.225 159.381 159.011 163.287 160.322 123.252 166.149 -32.9801 92.7649 202.341 -116.424 135.629 201.411 -120.246 173.609 199.814 -101.359 191.598 188.412 -65.48 118.334 216.501 -20.0134 14.8128 16.6213 17.742 
