148.397 157.474 159.324 164.807 152.774 143.231 151.672 152.148 150.524 153.924 86.3461 406.47 -31.7934 81.4081 358.514 -108.466 124.224 368.08 -90.2725 138.64 377.812 -67.2079 141.379 387.49 -33.9554 66.7482 363.384 -10.3309 8.26033 5.55814 21.0652 
148.381 157.157 158.88 164.362 152.721 143.494 151.3 151.561 150.131 153.768 86.3907 406.493 -32.0406 81.3201 358.514 -108.647 124.041 368.066 -90.4108 138.549 377.294 -67.352 141.423 386.842 -34.0764 66.6925 363.147 -10.6001 8.28918 5.43968 21.0831 
148.417 157.121 158.642 164.231 153.233 143.794 151.094 151.231 150.005 153.831 86.4977 406.357 -32.3154 81.3728 358.585 -108.842 123.881 368.1 -90.6107 138.462 376.895 -67.5622 141.523 386.242 -34.2726 66.6333 362.849 -10.8753 8.29398 5.33989 20.965 
148.325 157.297 158.504 164.066 153.794 143.901 151.141 151.074 150.047 154.024 86.8432 406.233 -32.4175 81.5009 358.5 -109.144 123.725 368.037 -90.9753 138.448 376.305 -67.9565 141.691 385.556 -34.674 66.6131 362.634 -11.2088 8.29078 5.22494 20.7734 
148.237 157.329 158.367 163.866 154.672 144.025 151.007 150.88 150.059 154.185 86.9948 405.91 -32.727 81.6029 358.21 -109.385 123.633 367.647 -91.3814 138.497 375.451 -68.4231 141.991 384.681 -35.1018 66.6339 362.323 -11.5301 8.34891 5.12006 20.5818 
148.213 157.257 158.123 163.518 155.469 144.096 150.981 150.659 149.902 154.229 86.7474 405.452 -33.3278 81.6916 357.474 -109.666 123.68 366.966 -91.7048 138.615 374.508 -68.798 142.319 383.697 -35.4754 66.6685 361.888 -11.8255 8.36889 5.05772 20.5681 
148.169 157.266 157.886 163.352 156.746 144.147 150.907 150.404 149.762 154.085 86.6392 404.746 -34.1178 81.8115 356.369 -109.863 123.663 365.846 -92.0981 138.681 373.397 -69.3146 142.596 382.713 -36.0342 66.7389 361.452 -12.1206 8.39111 5.02414 20.418 
147.92 157.269 157.791 163.244 157.917 143.999 150.715 150.481 149.842 154.039 86.796 404.014 -34.715 82.0763 355.327 -110.022 123.835 364.353 -92.6314 138.895 372.077 -69.9427 142.915 381.74 -36.7205 66.9018 361.02 -12.4634 8.42235 5.01282 20.1174 
147.676 157.308 157.949 163.287 158.664 143.732 150.483 150.721 150.092 154.161 87.2257 403.113 -35.0739 82.6229 354.306 -110.101 124.197 362.72 -93.1476 139.275 370.619 -70.5215 143.315 380.622 -37.2861 67.138 360.46 -12.7901 8.46776 5.0051 19.6884 
147.137 157.442 158.349 163.517 159.289 143.105 150.323 151.4 150.56 154.281 87.983 402.338 -35.0044 83.4918 353.29 -110.146 124.936 360.864 -93.688 139.878 369.393 -71.0661 143.828 379.877 -37.8538 67.5458 360.02 -13.1379 8.50453 5.06476 19.2247 
146.919 157.727 158.836 163.753 161.065 142.875 149.752 151.487 150.761 154.278 89.2145 401.022 -35.1816 84.8961 352.659 -110.347 125.984 359.546 -94.1781 140.848 368.245 -71.466 144.68 378.594 -38.3189 68.2765 358.906 -13.6729 8.34169 5.10802 18.7187 
146.295 158.263 160.049 164.335 163.115 141.903 150.49 152.66 151.591 154.379 90.7537 399.369 -34.5341 86.8658 350.882 -110.804 127.898 357.762 -94.5964 142.446 367.4 -71.7321 145.792 377.864 -38.8276 69.319 357.811 -14.2254 8.04284 5.3049 18.5738 
146.262 158.796 160.849 164.738 163.637 140.896 151.517 153.969 152.448 155.26 92.4005 397.56 -34.0615 88.5762 348.411 -111.73 130.127 355.436 -95.0814 144.453 366.008 -72.0647 147.383 376.798 -39.3412 70.6788 356.488 -14.8807 7.91562 5.57932 19.0176 
146.983 158.591 160.97 164.608 164.62 140.681 151.253 154.063 152.445 155.834 93.8804 395.931 -33.7331 89.9547 346.548 -112.039 131.933 353.516 -95.0637 146.205 364.483 -71.8547 148.948 375.189 -39.1957 72.0139 354.993 -15.2269 7.83183 5.80406 19.492 
146.712 158.782 161.411 165.144 166.327 140.395 150.728 153.921 152.502 155.603 95.8202 393.405 -33.3359 91.7127 344.561 -112.154 133.673 351.522 -95.1274 147.864 362.574 -71.967 150.382 373.284 -39.5581 73.463 352.87 -15.6472 7.62147 5.7742 19.498 
146.815 159.316 161.748 165.438 166.805 139.627 151.06 154.02 152.805 155.637 98.2534 391.021 -32.4595 93.938 342.402 -112.544 135.835 349.761 -95.2252 149.929 360.956 -72.0823 152.122 371.808 -39.8988 75.2413 351.011 -16.1264 7.4585 5.77127 19.5738 
146.65 159.141 161.452 165.432 168.204 139.282 150.74 153.809 152.654 154.966 100.363 389.288 -31.5213 95.6536 340.999 -112.257 137.431 348.239 -94.8594 151.579 359.12 -71.6643 153.679 369.932 -39.553 76.7334 349.345 -16.097 7.40906 5.73127 19.5468 
146.578 159.002 161.291 165.336 170.924 139.303 149.891 153.303 152.398 154.513 102.81 386.992 -30.7987 97.573 339.308 -111.945 139.025 346.121 -94.7204 153.305 356.436 -71.4797 155.45 367.103 -39.43 78.3827 347.061 -16.2008 7.34792 5.63215 19.2512 
146.533 158.56 160.565 165.099 171.551 139.402 149.354 152.455 152.025 153.621 105.09 385.555 -30.4277 99.3733 338.014 -111.484 140.504 344.991 -94.1743 154.993 354.808 -70.9376 157.053 365.497 -39.0216 80.0532 345.625 -16.0762 7.28236 5.60552 19.1453 
147.064 157.964 159.859 164.468 173.212 139.527 148.67 151.71 151.436 152.657 107.624 384.462 -29.1664 101.378 336.866 -110.457 141.993 343.331 -93.2001 156.583 352.495 -69.8062 158.678 363.173 -37.8661 81.4893 344.391 -15.4695 7.32867 5.59167 18.767 
147.106 157.337 159.56 164.2 174.465 139.434 148.015 151.895 151.463 152.619 109.701 382.555 -27.9847 104.263 335.198 -109.704 144.503 341.039 -92.4282 158.998 350.259 -68.5183 160.627 360.997 -36.4259 83.2511 342.536 -15.0887 7.36452 5.86982 18.4839 
146.772 157.666 160.163 164.481 174.922 139.318 148.212 152.48 151.895 152.598 111.68 380.912 -27.2108 106.457 333.946 -109.223 146.692 339.322 -91.7648 161.061 348.775 -67.5784 162.295 359.506 -35.4932 84.728 341.105 -14.7372 7.29357 6.0214 18.4278 
146.546 157.574 160.292 164.407 175.491 139.29 148.332 152.874 152.202 152.667 113.701 379.283 -26.772 108.619 332.708 -108.928 149.049 337.41 -91.1562 163.37 346.692 -66.6591 164.323 357.54 -34.4587 86.4197 339.51 -14.5031 7.43059 6.13962 18.5833 
146.526 157.789 160.46 164.346 174.567 139.335 148.738 153.361 152.588 152.806 115.3 378.162 -26.4563 110.748 331.347 -108.378 151.169 335.695 -90.3189 165.449 345.051 -65.5333 166.08 356.142 -33.3573 87.8816 338.405 -14.021 7.47407 6.30791 18.613 
146.394 158.347 161.139 164.743 175.567 139.452 148.699 154.203 153.118 152.827 116.738 376.234 -25.9197 112.565 329.948 -107.576 152.934 333.007 -89.6086 167.141 342.531 -64.5058 167.349 353.891 -32.3804 88.9223 336.634 -13.5285 7.43129 6.48424 18.4326 
146.274 158.796 161.469 164.947 175.372 139.614 148.859 154.897 153.764 153.261 118.348 374.919 -26.1349 114.554 328.88 -107.093 154.827 331.109 -89.1967 168.979 340.743 -64.0035 168.87 352.58 -31.9572 90.3665 335.549 -13.2797 7.45899 6.52752 18.3022 
146.127 158.874 161.204 164.47 175.897 139.637 149.193 154.935 153.666 153.4 119.157 374.103 -26.9934 116.114 327.746 -106.808 156.283 329.85 -88.8144 170.44 339.592 -63.5547 170.379 351.369 -31.5684 91.67 334.794 -12.9803 7.39036 6.59384 18.2467 
145.857 159.456 161.91 164.735 176.285 139.438 149.728 155.885 154.146 153.304 119.254 372.821 -27.5982 117.112 325.754 -106.262 157.356 327.678 -88.449 171.512 338.415 -63.1448 171.373 350.729 -31.203 92.5255 333.983 -12.42 7.49073 6.85082 18.2233 
145.812 159.787 162.219 164.829 177.227 139.368 149.938 156.315 154.383 153.404 120.086 371.534 -27.7789 118.402 324.472 -105.834 158.522 325.977 -88.2118 172.656 337.117 -62.9031 172.57 349.573 -30.7986 93.5613 332.976 -12.0227 7.61854 6.93489 18.0524 
146.122 160.102 162.322 164.69 176.463 139.372 150.649 156.699 154.613 153.818 121.264 371.193 -27.8045 119.907 323.933 -105.767 160.066 325.628 -87.8957 174.12 336.972 -62.5544 174.047 349.262 -30.3924 94.9009 332.625 -11.736 7.59472 6.97999 18.1366 
146.299 160.564 162.833 164.951 176.044 139.218 151.501 157.405 155.16 154.437 122.238 370.564 -27.9688 121.563 323.43 -105.86 161.924 325.401 -87.7157 175.893 337.135 -62.3136 175.735 349.314 -30.1167 96.3863 332.283 -11.5976 7.57947 7.09666 18.3499 
146.571 160.657 163.296 165.032 177.155 138.812 151.515 157.857 155.25 154.612 122.934 369.753 -27.7754 122.872 322.356 -105.435 163.157 324.285 -87.4505 177.104 336.695 -62.0236 177.051 348.907 -29.6329 97.6008 331.911 -11.1337 7.72168 7.30545 18.2722 
146.522 160.757 163.32 164.997 177.037 138.616 151.304 157.965 155.232 154.398 123.717 369.278 -27.4682 123.923 322.238 -104.983 164.104 323.733 -87.1847 178.07 336.317 -61.741 178.139 348.563 -29.1324 98.6156 331.484 -10.7278 7.93414 7.3814 18.1553 
146.438 160.723 163.148 164.756 176.751 138.188 151.63 158.227 155.313 154.523 124.721 369.508 -26.8747 125.614 322.366 -104.649 165.812 323.834 -86.6685 179.683 336.678 -61.0923 179.855 348.871 -28.2102 100.037 331.649 -10.2923 8.21914 7.51517 18.2251 
146.299 160.713 163.292 164.8 176.434 137.599 151.893 158.696 155.592 154.925 125.704 369.521 -26.2313 127.115 321.881 -104.268 167.474 323.629 -86.1755 181.238 337.078 -60.5966 181.429 349.48 -27.6367 101.5 331.871 -9.82198 8.3978 7.67863 18.3967 
146.381 160.291 163.358 164.557 176.922 136.412 151.559 158.551 155.132 154.135 126.184 369.322 -25.5115 128.473 320.627 -103.647 168.854 323.149 -85.4821 182.473 337.442 -59.9646 182.616 349.915 -26.942 102.824 331.95 -9.20714 8.49763 7.90912 18.4987 
146.334 160.149 163.292 164.468 176.922 135.948 151.04 158.17 154.74 152.795 127.062 368.679 -24.9533 129.957 320.017 -102.807 170.196 322.583 -84.6709 183.726 336.903 -59.202 183.681 349.45 -26.1723 103.981 331.377 -8.63839 8.50465 7.87499 18.3974 
146.658 160.335 163.582 164.785 176.139 135.455 151.026 158.644 155.238 152.736 127.888 368.21 -24.1076 131.301 319.391 -101.957 171.763 322.268 -83.6493 185.268 336.919 -58.1743 184.93 349.91 -25.1244 105.2 331.135 -7.87038 8.67406 7.9744 18.6607 
146.976 160.408 163.568 164.69 175.019 135.084 151.358 158.587 155.146 152.299 128.992 368.645 -22.8596 132.653 319.215 -100.947 173.039 322.758 -82.4507 186.446 337.695 -57.0612 186.014 350.827 -24.0337 106.413 331.658 -6.8936 8.73672 8.0131 18.7114 
148.04 160.528 163.746 164.786 173.58 134.974 151.665 158.445 155.121 151.808 130.214 369.018 -21.8661 133.903 318.992 -100.116 174.3 323.079 -81.3125 187.65 338.204 -55.9775 186.778 351.557 -23.1124 107.559 331.836 -6.00154 8.5779 8.05951 18.8473 
148.369 160.907 163.861 165.027 173.897 135.082 151.601 158.057 154.818 150.656 131.921 368.861 -20.6643 135.338 319.082 -99.314 175.475 323.364 -80.298 188.708 338.419 -55.0661 187.321 351.891 -22.3999 108.654 331.641 -5.35471 8.34962 7.97888 18.7449 
148.427 161.282 164.238 165.301 173.402 135.545 151.863 158.416 155.162 150.226 133.661 369.246 -19.5332 136.876 319.709 -98.7673 176.942 323.802 -79.546 190.077 338.707 -54.2421 188.411 352.373 -21.346 109.823 331.749 -4.80453 8.57477 7.93734 18.7229 
148.929 161.416 164.477 165.491 172.228 135.673 152.048 158.573 155.347 149.984 135.366 369.718 -18.3624 138.484 319.781 -98.2071 178.563 324.057 -78.6996 191.545 339.062 -53.3967 189.645 353.027 -20.3161 111.103 332.059 -4.27509 8.82553 7.93565 18.8413 
151.393 160.925 164.148 165.079 170.799 135.415 151.445 157.975 154.776 148.765 138.076 371.247 -16.8544 141.107 319.535 -97.1022 181.018 324.58 -77.4358 193.844 339.933 -52.1476 191.591 354.218 -18.9721 113.608 332.695 -3.19019 8.93811 8.00582 18.8988 
153.149 160.677 163.849 164.596 169.136 135.248 151.331 157.176 154.309 148.334 139 372.209 -16.1403 141.877 319.171 -96.6518 181.747 325.009 -76.8033 194.455 340.38 -51.6277 191.821 354.979 -18.5977 114.439 332.705 -2.73887 8.93077 7.93246 19.0108 
153.45 160.476 163.68 164.246 168.944 135.189 151.051 156.656 153.706 148.338 140.36 373.098 -15.3718 142.866 319.77 -96.0882 182.709 325.621 -76.0369 195.244 340.932 -50.8831 192.572 355.394 -17.8214 115.513 333.26 -2.0907 8.88889 7.8857 19.0945 
154.004 160.481 163.731 164.341 170.522 135.41 151.146 156.709 153.907 149.119 141.156 373.679 -14.7993 143.494 319.605 -95.5165 183.537 325.519 -75.3211 196.027 340.937 -50.2412 193.294 355.675 -17.1921 116.228 333.288 -1.48999 9.0317 7.88056 19.2964 
154.808 160.494 163.851 164.394 171.452 135.69 151.75 157.072 154.177 150.07 141.796 374.688 -14.2424 143.988 319.421 -95.1294 184.373 325.747 -74.6575 196.749 341.49 -49.629 194.1 356.386 -16.5131 116.886 333.602 -0.873668 9.22762 7.96217 19.6406 
155.243 160.705 163.998 164.484 172.979 136.021 152.573 157.592 154.516 150.998 142.6 375.741 -13.5524 145.007 319.628 -94.9264 185.568 326.408 -74.0986 197.695 342.495 -49.0278 195.12 357.307 -15.7124 117.696 333.986 -0.394354 9.42655 8.07797 19.8712 
154.712 161.42 162.837 163.222 177.931 137.262 154.097 158.417 154.313 151.491 143.672 376.381 -12.9031 146.784 320.337 -95.1485 187.156 327.299 -73.455 198.638 344.15 -48.2736 196.198 358.939 -14.2574 118.529 334.769 -0.0402943 10.1395 8.37781 19.9661 
154.332 161.416 162.821 162.822 178.933 137.29 154.352 158.325 154.223 150.2 144.187 377.165 -12.6511 147.816 320.132 -94.9485 188.16 327.929 -73.1776 199.499 345.256 -48.091 196.906 360.297 -13.9204 119.435 335.347 0.215542 10.3709 8.52157 20.0437 
154.039 161.287 162.596 162.276 177.938 137.078 154.142 157.819 153.735 148.058 144.372 377.429 -12.6175 148.373 319.906 -94.7967 188.561 328.081 -73.2381 199.814 345.653 -48.2497 196.907 360.97 -13.9926 120.102 335.268 0.381458 10.4918 8.58151 19.9113 
153.881 161.082 162.377 161.92 175.524 136.781 153.818 157.309 153.409 146.305 144.758 377.663 -12.727 148.995 320.174 -94.7115 188.969 328.423 -73.4149 200.287 345.843 -48.4512 197.095 361.307 -14.1549 120.85 335.199 0.440663 10.505 8.49791 19.6976 
153.595 161.033 162.395 161.976 173.233 136.752 153.486 157.028 153.391 144.984 145.323 377.604 -12.8053 149.592 320.578 -94.6549 189.419 328.738 -73.5982 200.826 345.901 -48.5937 197.291 361.481 -14.2394 121.616 334.944 0.473974 10.5342 8.3964 19.5233 
153.485 161.457 161.477 161.217 170.981 137.667 154.597 157.64 153.379 142.828 146.313 377.372 -12.2844 151.19 321.52 -95.0312 190.64 329.493 -73.4927 201.687 346.691 -48.2005 197.411 362.84 -13.1366 122.394 334.985 0.488782 11.405 8.48731 19.3718 
153.414 161.775 162.25 162.036 167.904 137.656 154.655 157.923 153.94 141.788 147.415 377.163 -11.8392 152.017 321.038 -94.7187 191.429 329.084 -73.3687 202.63 346.371 -48.2165 197.776 363.191 -13.1878 123.224 335.046 0.690127 11.6341 8.48523 19.273 
153.368 162.296 161.624 161.308 165.129 138.253 155.606 158.444 153.719 139.613 149.058 376.669 -11.2891 153.731 321.294 -94.7501 192.77 329.479 -72.9727 203.622 347.02 -47.8511 198.143 364.349 -12.5043 124.209 335.375 0.781575 12.2233 8.54591 19.1516 
153.048 162.09 162.048 160.41 161.79 138.041 156.886 158.894 153.337 138.572 150.203 376.509 -10.7457 155.271 320.972 -94.8647 194.613 329.697 -72.5838 204.964 347.398 -47.3963 199.102 364.939 -11.7089 125.2 335.634 0.870147 12.6295 8.55357 19.4973 
152.708 161.88 162.51 160.171 160.682 137.817 157.692 159.158 153.328 138.679 151.165 376.068 -10.4629 156.872 320.699 -94.9365 196.208 329.674 -72.5096 206.351 347.381 -47.0886 200.236 364.995 -11.1525 126.103 335.429 0.778626 12.919 8.62299 19.4828 
152.312 162.051 163.128 160.287 159.341 137.82 159.029 159.716 153.904 139.489 152.836 375.764 -10.8688 159.593 320.124 -95.1344 198.853 329.404 -72.6851 209.021 346.918 -46.8866 202.673 364.92 -10.7346 128.054 335.195 0.615241 13.3099 8.64165 19.3634 
152.979 162.249 162.551 160.247 158.612 138.3 158.843 160.247 154.151 138.141 153.777 375.222 -10.6472 160.674 320.327 -95.2076 199.716 329.34 -72.6335 209.704 346.927 -46.9131 202.761 365.621 -10.6153 128.853 335.185 0.520152 13.8366 8.59553 19.2824 
153.509 162.461 162.163 160.366 157.374 138.797 158.783 160.94 154.678 136.746 154.791 374.661 -10.1917 162.027 320.612 -95.4093 201.108 329.287 -72.5268 210.889 346.914 -46.6945 202.892 366.426 -10.2035 129.88 334.758 0.391954 14.5848 8.6191 19.4269 
153.703 162.621 161.716 160.275 156.402 139.14 158.525 160.981 154.574 135.347 155.938 373.973 -10.3913 163.349 320.613 -95.6846 202.206 329.332 -72.7075 211.823 347.225 -46.933 203.389 366.941 -10.2809 131.101 334.301 0.120903 14.9283 8.72271 19.3916 
153.228 162.792 162.515 160.743 156.365 138.814 159.48 161.199 154.602 136.769 156.741 373.927 -11.0207 164.664 319.659 -95.982 203.752 328.938 -72.9942 213.316 346.905 -47.0782 205.384 366.054 -10.5621 132.38 333.944 -0.088096 14.3436 8.77415 19.5678 
153.611 162.824 162.295 160.963 156.334 139.28 159.11 161.403 154.844 136.162 158.21 373.619 -11.2486 165.618 320.009 -96.1473 204.795 328.725 -73.2136 214.436 346.359 -47.3175 206.389 365.865 -10.8286 133.668 333.713 -0.254575 14.5364 8.58222 19.5969 
154.037 162.814 162.778 159.774 154.097 138.981 160.087 162.292 155.721 136.462 158.995 373.596 -10.8218 166.726 319.174 -96.2516 206.162 327.825 -73.4937 215.706 345.913 -47.3129 207.697 366.299 -10.4702 134.855 333.811 -0.136851 15.1368 8.75707 19.6882 
154.423 162.989 163.242 159.291 153.287 138.769 160.86 162.941 156.599 138.078 159.819 373.159 -10.5827 168.374 318.652 -96.3496 207.821 327.381 -73.7754 217.234 345.682 -47.3104 209.466 366.345 -10.1187 136.172 333.537 -0.131778 15.3746 8.83647 19.6257 
154.511 162.505 162.629 159.18 153.974 139.131 159.782 162.332 156.199 137.181 161.248 372.309 -11.1984 169.607 319.094 -96.74 208.867 327.199 -74.1874 218.315 344.955 -47.7751 210.435 365.405 -10.5637 137.493 332.637 -0.581055 15.2765 8.59278 19.5049 
154.742 162.715 162.562 160.124 155.03 139.521 159.282 162.462 156.596 137.159 162.827 371.794 -11.5033 170.572 319.495 -97.0795 209.856 326.881 -74.7057 219.51 344.065 -48.3434 211.696 364.761 -11.1385 138.757 332.199 -1.00666 15.3723 8.33332 19.4625 
155.009 162.816 162.459 160.906 156.444 139.83 158.972 162.538 156.927 137.768 164.424 371.225 -11.5416 171.876 319.52 -97.2979 211.164 326.687 -74.8933 220.971 343.419 -48.5155 213.252 364.113 -11.3823 139.996 331.71 -1.39926 15.3231 8.18438 19.5066 
155.188 163.008 162.528 161.773 158.119 139.942 158.633 162.627 157.357 138.988 166.118 370.039 -11.6632 173.78 319.407 -97.3649 212.485 326.627 -75.2587 222.475 343.128 -48.9282 214.943 363.489 -11.9335 141.311 331.08 -1.90286 14.9995 8.12418 19.0387 
155.215 163.158 162.141 161.847 158.781 140.188 158.242 162.292 157.196 139.225 167.755 369.426 -12.2672 175.306 319.908 -97.8194 213.782 326.967 -75.6539 223.888 343.017 -49.294 216.395 362.759 -12.4425 142.683 330.471 -2.56218 14.6245 8.02367 18.9245 
155.33 163.17 161.689 161.83 159.187 140.168 157.968 162.224 157.235 139.158 169.032 369.105 -12.3096 176.235 320.077 -98.2827 214.685 326.578 -76.1172 224.929 342.296 -49.8109 217.632 361.909 -12.8388 143.763 330.033 -3.0576 14.6557 7.93094 18.898 
155.356 163.081 161.06 161.57 159.26 140.101 157.722 162.081 157.181 139.109 170.315 369.035 -12.254 177.302 320.135 -98.5706 215.674 326.142 -76.418 225.982 341.67 -50.1911 218.888 361.277 -13.0721 144.861 329.808 -3.41462 14.7813 7.85897 18.8223 
155.417 163.159 160.879 161.636 159.362 140.215 157.685 162.082 157.157 139.53 171.642 369.08 -12.3741 178.559 320.292 -98.8316 216.843 326.144 -76.6009 227.143 341.738 -50.3701 220.153 361.088 -13.1831 145.978 329.706 -3.72784 14.7394 7.92612 18.7745 
155.43 163.608 161.122 162.026 159.787 140.523 157.813 162.257 157.399 140.304 173.225 368.994 -12.9683 180.289 320.597 -99.1271 218.358 326.422 -76.8168 228.62 342.066 -50.6101 221.59 361.13 -13.5423 147.335 329.588 -4.15545 14.563 7.95479 18.6318 
155.5 163.955 161.637 162.259 159.967 140.472 158.277 162.877 158.015 140.869 174.28 369.704 -13.156 181.848 321.299 -99.5888 219.914 327.065 -77.261 230.119 342.589 -50.9409 223.191 361.588 -13.5643 148.624 330.019 -4.48849 14.7167 7.93182 18.579 
155.587 163.949 161.922 162.595 160.091 140.421 158.39 163.214 158.477 141.74 175.231 369.898 -13.4968 183.439 321.33 -99.8024 221.312 327.461 -77.6908 231.563 343.007 -51.3221 224.827 361.993 -13.7806 149.901 330.27 -4.79315 14.7495 7.94284 18.3783 
155.774 164.014 162.361 163.159 160.426 140.524 158.461 163.646 159.167 142.909 176.352 369.664 -13.8381 185.222 321.361 -99.98 222.778 327.832 -78.1393 233.058 343.356 -51.7556 226.445 362.285 -14.0332 151.175 330.268 -5.18147 14.7741 7.92129 18.0784 
155.908 163.362 162.54 161.779 158.589 140.323 159.293 164.68 159.59 143.844 177.472 370.293 -14.4066 186.705 320.799 -100.375 224.669 327.495 -78.6215 234.316 343.725 -52.3264 227.953 363.213 -14.3043 152.709 330.678 -5.48267 15.2433 7.92431 18.333 
155.89 162.982 163.008 160.549 156.912 140.153 159.775 165.296 160.065 145.004 178.114 370.49 -15.5449 187.96 320.068 -100.829 226.251 326.913 -79.2987 235.461 343.495 -53.0639 229.432 363.476 -14.7873 154.069 330.751 -5.86106 15.5868 7.81218 18.5002 
156.012 162.656 163.502 159.89 155.859 140.2 160.076 165.823 160.414 146.15 178.872 370.567 -16.4992 189.226 319.518 -100.97 227.79 326.638 -79.6247 236.69 343.461 -53.3932 230.955 363.685 -15.0713 155.397 330.861 -6.10814 15.7095 7.73629 18.692 
156.107 162.316 163.514 159.28 155.518 140.522 160.329 166.101 160.715 147.215 179.819 370.732 -17.4434 190.509 319.564 -101.289 229.444 326.936 -79.8496 238.18 343.724 -53.428 232.499 363.915 -15.0913 156.777 330.838 -6.51733 15.7642 7.7267 19.0782 
156.139 162.224 163.84 159.256 155.775 140.516 160.772 166.554 161.222 148.865 180.645 370.521 -18.2725 191.883 318.983 -101.443 231.103 326.984 -79.8722 239.586 344.214 -53.3665 233.835 364.434 -15.1774 158.093 330.691 -6.72694 15.7431 7.87355 19.4096 
157.999 174.27 180 174.27 174.292 154.665 179.061 179.97 178.033 176.048 180.771 348.094 -48.3981 209.793 290.218 -75.8813 226.127 312.782 -78.6991 230.712 346.252 -67.2196 231.579 362.989 -31.2751 170.219 340.708 4.63853 6.2289 13.6338 7.43234 
163.768 148.138 159.166 161.186 157.21 162.522 130.695 149.413 157.959 152.292 180.605 391.733 -23.3396 228.037 379.996 -32.8543 244.431 349.807 -63.9198 227.382 326.767 -80.5218 187.513 310.335 -88.4079 165.378 327.942 -3.85404 16.3185 10.3886 25.0979 
151.254 151.02 161.694 163.521 163.106 149.034 149.193 156.679 159.994 157.882 172.237 390.723 -18.2522 242.698 375.406 -29.7867 250.743 351.402 -59.4388 230.76 331.561 -78.1856 189.407 314.637 -89.9252 165.296 328.208 -3.15808 18.3428 9.29672 15.4166 
148.831 151.613 162.211 164.233 164.106 154.799 154.954 158.486 161.495 159.91 171.844 391.024 -18.4481 245.575 373.434 -30.1914 251.612 351.191 -59.3182 231.267 331.102 -78.3463 189.45 314.433 -90.3218 165.602 328.125 -3.02745 18.6699 9.56119 13.2378 
145.433 151.105 162.876 164.896 164.635 154.896 158.106 159.56 162.241 160.657 172.672 390.584 -18.0624 247.886 372.247 -29.8521 253.045 350.537 -59.4081 232.406 330.666 -78.5346 190.454 315.002 -90.4372 166.525 327.776 -3.13679 18.3498 9.61296 12.9119 
142.219 152.194 163.921 165.656 165.285 154.205 159.998 160.684 163.601 161.512 172.029 389.906 -18.3517 250.529 371.196 -29.4623 254.541 350.247 -58.9174 233.906 330.22 -78.0226 191.582 314.757 -90.2839 167.111 327.669 -2.98187 18.5806 9.54172 11.7934 
