155.823 172.825 172.43 173.271 171.984 148.494 165.163 165.554 163.612 157.629 -134.748 236.744 -56.7388 -108.848 205.97 -102.907 -125.154 193.197 -123.593 -158.454 195.384 -128.228 -195.909 205.098 -119.21 -182.424 221.479 -36.839 11.1156 7.78698 6.68829 
156.258 170.924 171.337 172.402 171.287 149.45 164.38 164.721 163.165 157.846 -135.229 236.88 -57.6744 -108.702 205.748 -102.823 -124.479 192.507 -123.267 -157.213 194.55 -128.265 -195.268 203.281 -119.674 -182.72 220.891 -37.3858 11.3501 7.46337 6.76979 
156.659 170.611 170.512 171.648 170.643 150.197 164.131 164.269 163.042 157.856 -135.698 236.554 -58.6306 -108.8 205.099 -103.368 -124.587 191.784 -123.658 -156.884 193.843 -128.756 -195.181 202.131 -120.339 -183.082 220.521 -38.1396 11.44 7.19189 6.76668 
156.406 172.156 170.441 171.293 170.35 149.521 165.345 164.365 162.96 156.974 -136.866 235.792 -59.378 -109.206 203.249 -104.032 -125.029 190.858 -124.086 -157.233 193.256 -129.286 -195.242 202.106 -120.93 -183.46 220.492 -38.8623 11.2086 7.13178 6.02654 
156.284 173.582 170.936 171.405 170.49 148.972 166.659 164.72 163.141 156.917 -137.58 234.769 -59.6052 -109.748 201.609 -104.417 -125.441 189.977 -124.403 -157.527 192.567 -129.613 -195.265 201.683 -121.471 -183.751 220.34 -39.3807 11.0407 7.04472 5.41161 
156.317 174.599 171.406 171.751 170.973 148.501 167.729 165.225 163.413 157.051 -138.039 233.893 -59.9048 -110.168 200.598 -105.143 -126.093 189.371 -125.254 -158.11 192.239 -130.127 -195.716 201.599 -122.006 -183.968 220.178 -39.8836 11.0279 6.90362 5.22113 
156.979 176.007 172.157 172.566 172.279 148.069 168.733 165.641 163.653 157.441 -138.329 232.66 -60.1184 -110.987 199.77 -106.068 -126.837 189.242 -126.24 -158.765 192.293 -130.792 -195.818 201.902 -122.641 -184.089 220.076 -40.363 10.6869 6.78057 4.82596 
157.188 176.348 172.555 173.007 172.874 147.728 169.129 165.908 163.744 157.538 -138.646 231.902 -60.3762 -111.525 199.47 -106.79 -127.295 189.219 -127.039 -159.188 192.439 -131.301 -196.075 202.274 -123.036 -184.206 219.879 -40.7116 10.6065 6.68632 4.68113 
157.384 176.107 172.56 173 172.932 147.589 169.008 166.024 163.564 157.132 -138.541 231.651 -60.7392 -111.681 199.566 -107.624 -127.638 189.287 -127.891 -159.584 192.683 -131.754 -196.469 202.667 -123.176 -184.187 219.638 -40.9843 10.625 6.6176 4.7555 
157.764 175.602 172.451 172.995 172.893 147.937 168.382 165.86 163.211 156.455 -138.042 231.479 -61.1617 -111.681 200.122 -108.32 -127.839 189.594 -128.584 -159.825 192.961 -132.081 -196.76 202.973 -123.178 -184.078 219.376 -41.2342 10.6575 6.5607 4.95943 
157.761 175.436 172.525 173.075 172.718 148.035 168.213 165.787 163.02 155.964 -137.926 231.534 -61.5079 -111.639 200.551 -108.646 -127.843 189.971 -128.925 -159.913 193.175 -132.269 -196.817 203.172 -123.097 -183.961 219.269 -41.3606 10.6009 6.58537 4.99182 
157.842 175.329 172.489 173.1 172.4 148.166 168.137 165.755 162.885 155.55 -137.597 231.618 -61.7116 -111.456 200.856 -108.937 -127.774 190.197 -129.238 -159.924 193.306 -132.477 -196.823 203.32 -123.104 -183.799 219.232 -41.5097 10.5877 6.61563 5.07356 
157.718 175.182 172.515 173.023 171.984 148.125 168.052 165.74 162.697 154.985 -137.455 231.975 -61.908 -111.095 201.062 -109.107 -127.523 190.42 -129.436 -159.883 193.438 -132.708 -196.689 203.557 -123.122 -183.536 219.324 -41.64 10.5179 6.76767 5.10899 
157.66 174.849 172.202 172.731 171.574 148.236 167.427 165.44 162.409 154.731 -137.215 232.62 -62.3086 -110.335 201.774 -109.056 -126.88 190.768 -129.502 -159.441 193.717 -132.913 -196.247 203.772 -123.261 -182.97 219.425 -41.7669 10.5471 6.94397 5.4425 
158.353 174.467 171.931 172.508 171.455 149.175 166.393 165.208 162.351 154.953 -135.726 232.969 -62.4241 -109.165 203.022 -109.081 -125.745 191.044 -129.706 -158.33 193.886 -133.112 -195.323 203.674 -123.501 -182.047 219.338 -41.9087 10.676 6.94202 6.11452 
158.618 174.337 171.991 172.541 171.735 149.974 165.691 165.083 162.453 155.601 -133.835 233.442 -62.0254 -107.594 204.358 -108.454 -124.055 191.623 -129.44 -156.62 194.136 -133.058 -193.828 203.38 -123.624 -180.887 219.172 -41.8238 10.7769 6.96604 6.69575 
158.946 174.185 172.247 172.847 172.139 150.785 164.777 164.988 162.734 156.295 -131.628 234.103 -61.2637 -105.766 205.929 -107.456 -122.042 192.378 -128.769 -154.714 194.379 -132.798 -192.229 203.205 -123.61 -179.65 218.964 -41.4953 10.9691 7.13974 7.35898 
157.576 173.485 172.489 173.192 172.666 150.871 164.312 165.105 163.029 156.918 -130.52 234.662 -60.4782 -104.492 207.149 -106.868 -120.743 193.217 -128.139 -153.607 194.804 -132.651 -191.291 203.335 -123.693 -178.508 219.207 -41.2223 11.1849 7.44793 7.65783 
156.699 173.952 172.878 173.539 173.48 151.075 164.74 165.17 163.05 157.94 -129.847 234.559 -59.8485 -103.635 207.4 -106.289 -119.763 194.271 -127.581 -152.487 195.791 -132.555 -189.989 203.784 -123.87 -177.469 219.626 -41.0301 11.0691 7.53519 7.24284 
156.773 174.722 173.296 173.986 173.904 150.625 165.529 165.253 163.012 158.89 -128.611 233.891 -59.1707 -102.813 206.962 -105.988 -118.825 195.093 -127.265 -151.264 196.61 -132.43 -188.509 204.064 -123.985 -176.344 219.974 -40.8349 10.9072 7.44231 6.50432 
155.863 173.561 172.606 173.264 172.8 149.693 165.185 165.132 163.052 159.161 -126.185 234.26 -58.1571 -102.1 207.116 -106.139 -118.467 195.197 -127.31 -149.746 196.597 -131.889 -186.688 203.78 -123.659 -174.892 220.264 -40.862 10.731 6.62026 6.70112 
154.563 172.778 172.368 172.501 171.815 147.115 165.163 165.505 162.918 159.694 -125.137 235.245 -57.7718 -101.442 207.357 -105.938 -117.639 195.359 -127 -148.091 196.703 -131.349 -184.615 203.452 -123.33 -173.585 220.731 -40.8472 10.4078 6.05666 6.71212 
153.992 171.286 172.378 172.115 171.179 144.953 164.601 165.967 162.708 159.77 -123.469 236.025 -57.0427 -100.128 208.063 -105.186 -115.968 195.413 -126.358 -145.928 196.578 -130.661 -182.452 202.681 -122.837 -172.073 220.867 -40.588 10.4073 5.71636 7.0504 
152.76 169.449 172.76 171.558 171.014 142.658 163.497 166.274 161.987 159.814 -122.244 235.834 -56.4212 -98.7635 209.158 -104.208 -114.013 195.567 -125.432 -143.568 196.592 -129.76 -179.919 201.838 -122.193 -170.276 220.757 -40.222 10.3318 5.43963 7.56552 
149.939 169.337 174.608 172.056 171.135 142.027 163.686 167.881 162.267 161.046 -120.921 235.731 -55.1582 -98.1929 210.179 -103.168 -112.385 195.51 -124.237 -141.258 196.779 -128.77 -177.577 201.601 -121.491 -169.037 221.157 -39.6417 10.2039 4.96302 8.08688 
147.594 169.434 178.129 173.264 171.488 141.675 164.185 170.482 163.377 162.072 -119.511 234.162 -53.927 -97.2776 210.038 -102.194 -110.678 194.342 -123.165 -138.992 196.679 -128.053 -175.557 201.893 -121.351 -167.969 221.768 -39.2447 10.2905 4.56566 8.69245 
145.685 168.422 177.805 173.596 171.575 141.954 163.491 172.457 163.455 162.437 -117.655 233.334 -52.3879 -95.6783 210.023 -100.904 -108.895 193.313 -121.912 -137.391 196.306 -127.28 -173.804 201.557 -120.981 -166.903 222.27 -38.8071 10.2105 4.77421 9.32833 
144.474 169.349 173.587 174.531 171.075 143.306 164.838 174.536 164.188 162.82 -115.653 232.218 -50.4961 -94.4716 209.377 -99.9555 -107.723 193.02 -120.826 -136.021 196.65 -126.494 -172.864 202.083 -120.51 -166.045 223.023 -38.1568 10.5929 4.74172 9.02491 
144.912 169.476 172.053 175.179 171.499 144.877 165.842 175.314 164.612 162.632 -113.589 231.015 -49.0406 -93.4962 209.446 -99.629 -106.701 192.979 -120.424 -135.483 196.989 -126.229 -171.971 202.912 -119.972 -165.144 223.526 -37.6065 10.1553 5.10569 8.97873 
145.989 170.406 171.413 175.241 172.07 146.781 167.038 175.465 164.866 162.871 -111.203 229.656 -47.4819 -92.4789 209.466 -99.0586 -105.887 193.015 -120.117 -134.831 196.994 -125.846 -170.769 203.255 -119.523 -164.045 223.855 -37.1361 9.68155 5.1846 9.00084 
147.491 171.462 171.018 175.617 172.902 149.063 167.847 175.605 165.284 163.313 -109.008 228.434 -45.7699 -91.6047 210.355 -98.2834 -105.003 193.585 -119.615 -133.938 197.122 -125.148 -169.574 203.545 -118.788 -162.946 224.266 -36.479 9.38081 5.09615 9.26508 
150.016 173.532 172.536 175.802 173.694 152.706 170.451 176.032 166.537 164.14 -105.305 226.812 -43.0563 -89.3684 211.062 -97.2513 -102.31 194.045 -118.965 -131.724 197.844 -124.578 -167.158 205.149 -117.744 -161.044 225.119 -35.3746 8.90221 5.34929 9.43523 
151.95 173.205 171.557 175.168 173.678 154.93 169.661 175.143 166.098 163.994 -102.606 227.894 -41.862 -87.6718 212.197 -96.2236 -100.743 194.085 -118.195 -130.96 197.974 -124.12 -167.083 204.95 -117.414 -160.057 225.162 -34.6705 9.59773 5.94317 10.2063 
154.632 174.124 171.001 174.757 173.899 156.407 170.22 174.857 165.991 163.965 -100.689 227.663 -40.5609 -85.6706 212.92 -95.0671 -98.9352 194.581 -117.303 -129.476 198.272 -123.42 -166.041 204.818 -116.997 -158.837 225.395 -34.0343 10.0581 6.16876 10.3848 
156.215 176.182 172.022 175.33 174.335 158.498 170.872 175.053 166.691 164.563 -98.9363 226.581 -39.0707 -84.2922 213.797 -94.6487 -97.6577 195.452 -117.288 -127.586 199.37 -123.149 -164.367 205.67 -116.663 -157.596 225.781 -33.6621 10.1999 5.68722 10.5756 
158.847 176.707 173.056 175.904 175.052 159.982 170.666 174.865 167.369 164.866 -97.5776 225.797 -37.9313 -83.216 214.016 -93.9358 -96.725 196.102 -116.611 -126.346 199.965 -122.593 -162.939 206.445 -116.158 -156.637 226.245 -33.3005 9.9874 5.53818 10.3748 
160.821 176.261 173.99 176.338 175.907 160.566 169.6 174.392 167.313 164.769 -96.2384 226.41 -36.928 -81.8674 214.893 -92.6631 -95.3046 196.822 -115.368 -124.713 200.475 -121.53 -161.461 206.499 -115.298 -155.564 226.599 -32.7223 10.1163 5.45335 10.4878 
162.737 175.289 176.416 177.014 177.125 161.919 169.272 174.019 167.808 165.232 -95.0428 225.871 -35.5609 -80.6207 215.308 -91.6899 -93.7282 197.836 -114.454 -122.738 201.707 -120.785 -159.478 207.66 -114.657 -154.519 227.139 -32.3268 10.0186 5.24217 10.159 
164.18 174.863 179.862 177.848 177.522 160.832 167.889 173.184 168.354 165.761 -95.7113 229.079 -37.2409 -79.1003 217.055 -90.4188 -92.3532 199.469 -113.731 -121.843 202.94 -120.463 -158.057 209.018 -114.376 -153.524 227.905 -31.7409 9.58468 5.64881 10.4718 
166.179 173.36 180 178.607 178.664 161.087 165.824 171.026 167.545 165.347 -94.9117 230.584 -36.7028 -78.111 217.717 -88.7033 -90.4823 201.068 -111.889 -119.217 203.975 -118.677 -155.646 209.397 -113.101 -152.469 228.572 -31.1528 9.73217 5.13728 9.77788 
167.554 171.837 180 178.302 179.341 162.408 164.159 169.331 167.254 165.006 -93.1896 231.671 -34.9676 -77.0774 218.837 -87.6553 -88.5355 202.955 -110.976 -116.263 205.557 -117.591 -154.013 210.328 -112.722 -151.275 229.34 -30.93 10.8749 4.39359 9.25018 
168.628 169.659 180 179.24 179.484 163.21 163.461 167.049 167.749 165.529 -92.3124 232.53 -34.3315 -75.5626 218.787 -86.6247 -87.1726 204.476 -109.83 -114.679 206.323 -116.739 -152.653 210.615 -112.057 -150.256 230.065 -30.516 11.0817 4.38489 8.03501 
169.07 168.848 180 179.665 177.541 163.563 163.117 165.804 167.797 166.357 -91.6346 233.477 -34.1961 -74.0519 219.554 -85.9077 -85.7313 206.188 -108.979 -113.21 207.547 -116.157 -151.238 211.106 -111.466 -149.165 230.862 -30.1807 11.1865 4.49369 7.33211 
168.024 165.935 180 179.857 174.27 164.518 160.452 165.836 167.925 167.349 -90.4217 234.797 -32.2988 -73.5539 221.255 -84.9061 -84.5107 207.242 -107.972 -111.251 209.209 -115.042 -150.264 212.571 -111.204 -148.131 231.969 -29.7517 12.1518 3.94526 7.80328 
169.541 167.113 180 178.845 174.27 166.695 159.313 165.221 168.38 167.515 -88.911 236.313 -30.6311 -72.8491 222.196 -83.9339 -83.2769 208.551 -106.915 -109.22 210.915 -114.082 -148.478 215.089 -111.044 -147.229 233.026 -29.3397 12.2926 3.46398 7.80373 
168.419 168.401 180 177.826 174.27 169.285 158.614 164.757 168.899 167.384 -87.2814 237.577 -29.047 -71.9151 223.12 -82.9911 -81.8178 209.661 -105.903 -106.871 212.378 -112.978 -147.157 217.224 -110.905 -146.286 234.039 -28.9967 13.1582 2.84284 7.87823 
160.506 166.77 180 177.924 174.27 169.224 157.382 164.952 168.821 167.421 -87.7696 240.457 -29.499 -71.6151 225.664 -82.3352 -80.9232 211.617 -105.361 -105.551 214.684 -112.129 -146.353 219.625 -111.243 -145.698 235.444 -28.4568 13.8574 2.42664 8.38938 
163.353 162.694 180 176.793 174.27 167.29 156.74 164.766 170.019 167.488 -87.8215 244.389 -30.105 -70.0835 229.408 -81.1657 -79.4514 214.766 -104.386 -103.878 217.409 -111.625 -143.971 223.08 -110.534 -144.689 238.315 -28.1808 12.8841 2.45575 8.96187 
164.766 164.21 180 173.981 174.27 165.267 159.281 165.175 173.621 168.837 -88.8623 245.902 -30.9805 -68.9229 230.071 -81.0026 -79.1964 216.156 -104.206 -103.433 217.173 -111.514 -143.002 224.316 -110.096 -144.604 240.071 -28.1436 12.0144 2.61322 8.3018 
164.165 165.182 180 177.248 174.27 162.014 159.982 165.704 175.426 170.024 -89.602 248.009 -32.4113 -67.5542 231.281 -80.7918 -78.5991 217.374 -104.215 -103.008 217.894 -111.82 -142.609 225.379 -110.183 -144.261 241.583 -28.15 11.8844 2.94045 8.25452 
161.666 163.693 178.193 173.532 174.27 156.086 158.315 164.962 175.827 171.765 -92.6208 253.212 -36.5478 -66.4171 234.001 -80.3457 -78.1716 219.974 -104.38 -103.666 219.297 -112.422 -142.129 225.888 -110.489 -143.93 243.033 -27.8747 11.067 4.00434 8.43157 
158.425 162.902 176.14 167.722 175.289 150.741 157.442 164.081 175.554 173.656 -95.4433 257.916 -39.9661 -65.4007 236.286 -80.2414 -77.6016 222.609 -104.756 -103.806 220.695 -113.177 -140.85 226.284 -110.734 -143.334 244.447 -27.7824 9.94765 4.88084 8.25934 
155.38 162.357 174.026 165.234 178.262 146.356 157.074 163.301 174.974 173.087 -97.7809 262.239 -42.3945 -64.6317 238.14 -80.2097 -77.3718 225.049 -105.314 -104.334 222.235 -114.272 -139.93 228.091 -111.311 -142.774 245.991 -27.7962 8.74717 5.77747 8.10796 
153.686 161.907 172.237 163.914 174.045 144.223 156.581 162.426 173.9 172.053 -98.354 265.361 -43.4854 -63.8251 239.278 -79.9289 -76.7686 226.908 -105.527 -104.614 223.388 -115.146 -138.606 229.507 -111.586 -142.137 247.356 -27.8255 7.38254 6.7118 7.8029 
152.798 161.755 171.435 163.02 171.714 142.693 156.144 161.679 172.713 171.194 -98.8048 267.698 -44.6314 -63.0017 240.513 -79.7006 -76.0694 228.826 -105.546 -104.846 224.621 -115.681 -137.455 230.897 -111.673 -141.399 248.573 -27.7988 6.22251 7.58494 7.45969 
152.539 161.266 170.731 162.084 169.411 141.691 155.578 160.81 171.526 170.398 -98.7686 269.393 -45.1219 -61.982 241.36 -79.0009 -75.1045 230.32 -105.111 -104.107 225.768 -115.402 -136.022 231.949 -111.437 -140.536 249.72 -27.6154 5.68018 7.85104 7.15301 
151.713 160.812 170.014 161.402 167.996 140.894 155.399 160.357 170.705 169.302 -98.3589 271.139 -45.2082 -60.7499 241.92 -78.4902 -73.9937 231.442 -104.926 -102.96 226.781 -115.213 -134.445 233.348 -111.321 -139.524 250.759 -27.5605 5.25711 7.85835 6.9801 
151.862 160.235 169.636 161.69 166.77 140.567 155.233 159.883 169.985 168.612 -97.8386 272.768 -45.5248 -59.6595 242.792 -78.2757 -72.9636 232.891 -104.788 -101.752 227.873 -115.017 -133.083 234.574 -111.095 -138.38 251.783 -27.4593 5.0535 7.85997 6.71183 
154.068 159.597 169.31 162.414 165.455 141.032 155.485 159.659 169.434 168.4 -96.2898 274.348 -45.5997 -58.0732 243.339 -77.966 -71.6331 233.768 -104.784 -100.175 228.908 -114.788 -131.624 235.693 -110.963 -137.116 252.902 -27.5104 5.10445 7.59461 6.77943 
154.309 158.792 168.85 163.119 165.124 141.248 155.192 159.42 169.054 168.168 -94.5403 275.567 -44.8285 -56.8202 243.885 -77.4225 -70.3013 234.41 -104.275 -98.5923 229.582 -114.277 -130.334 236.138 -110.552 -135.993 253.677 -27.3479 5.29019 7.40578 6.70129 
155.492 158.087 168.785 163.923 165.016 141.018 154.895 159.107 168.742 167.899 -93.5059 277.189 -45.0058 -55.4429 245.176 -76.9802 -68.756 235.888 -103.925 -96.8596 230.73 -113.953 -128.724 237.203 -110.288 -134.645 254.993 -27.2557 5.32063 7.41434 6.58654 
155.584 157.968 168.208 164.166 164.494 141.154 154.84 158.896 168.488 167.598 -91.3885 278.846 -44.3926 -53.777 245.823 -76.5879 -66.967 236.81 -103.538 -94.8578 231.835 -113.509 -126.88 238.151 -109.982 -133.141 256.127 -27.2568 5.41461 7.20116 6.42922 
156.427 157.15 167.962 165.307 165.099 141.532 154.27 158.526 168.385 167.711 -89.4464 280.282 -44.0235 -52.231 247.144 -76.0742 -65.1843 238.298 -103.161 -92.9874 233.266 -113.246 -125.305 239.403 -109.874 -131.64 257.452 -27.2286 5.67437 7.20702 6.36031 
157.699 157.074 167.95 166.243 166.109 142.421 153.887 158.101 168.101 167.561 -86.6557 281.169 -43.4833 -50.3494 248.098 -75.8519 -63.2322 239.343 -102.926 -90.757 234.469 -112.979 -123.316 240.602 -109.692 -129.792 258.335 -27.1735 5.83023 7.00116 6.32163 
156.226 155.93 167.732 168.112 168.077 142.962 153.267 157.409 167.453 166.645 -84.6061 282.25 -42.9965 -48.4456 249.224 -75.0844 -60.9048 240.905 -102.023 -87.7925 236.148 -112.219 -120.943 242.199 -109.319 -127.891 259.527 -26.9728 6.25145 6.66245 5.97527 
151.494 154.807 166.992 170.467 170.204 142.816 152.88 157.518 166.229 165.183 -82.9252 283.228 -41.6107 -46.6134 250.536 -74.4922 -58.3516 241.474 -100.439 -84.2439 238.147 -110.149 -118.475 243.991 -108.145 -126.269 261.116 -26.8088 7.03022 5.30994 5.49379 
149.918 154.377 166.988 173.217 170.856 144.21 152.427 156.904 164.59 162.796 -79.7098 284.322 -40.0812 -44.5808 251.696 -74.0771 -56.0765 243.171 -99.7611 -81.856 240.508 -109.796 -116.361 246.321 -107.902 -124.355 262.273 -26.6212 7.20826 5.05025 5.08103 
149.556 153.895 166.445 173.957 170.789 145.941 151.564 155.77 162.266 160.164 -76.2597 285.579 -38.7473 -42.7563 253.031 -73.8497 -53.9262 244.99 -99.2226 -79.474 242.962 -109.429 -114.161 248.462 -107.624 -122.308 263.349 -26.5052 7.34402 4.71941 4.61147 
150.235 154.215 166.803 174.596 170.843 147.401 151.579 154.915 160.54 158.179 -73.0372 286.427 -37.5415 -40.7713 254.288 -73.6011 -51.75 246.835 -98.755 -77.0856 245.481 -109.065 -111.979 250.791 -107.472 -120.326 264.348 -26.3765 7.54816 4.40194 4.23335 
149.409 152.819 168.153 175.175 170.875 149.242 151.332 153.964 157.748 154.338 -70.1643 288.756 -35.3816 -39.2049 257.068 -73.5495 -49.9421 248.879 -98.0131 -74.5809 248.123 -108.146 -110.022 253.589 -106.969 -118.705 266.437 -26.6803 7.88531 3.65079 3.99698 
149.655 149.247 169.129 173.987 171.122 150.423 151.036 153.345 155.988 151.898 -68.2626 291.483 -34.5081 -37.6332 260.635 -73.7578 -48.16 251.737 -97.7026 -72.1629 251.187 -107.533 -107.939 256.24 -106.285 -116.915 268.098 -26.5551 7.99215 3.06419 3.81926 
150.549 147.556 168.818 172.235 169.83 150.74 150.571 152.92 155.079 151.355 -65.9299 293.18 -33.3589 -36.1796 263.548 -73.6733 -46.5613 254.164 -97.7324 -70.6895 253.692 -107.801 -106.312 258.161 -106.297 -115.237 269.379 -26.3066 7.83334 3.25186 4.03823 
148.586 146.7 169.596 170.922 169.314 150.093 150.724 152.905 154.326 150.227 -65.1837 295.547 -33.1701 -34.4826 265.895 -73.1023 -44.4204 256.08 -96.8549 -68.1738 255.731 -106.832 -104.074 260.16 -105.618 -113.705 270.976 -26.0333 7.99969 2.99997 3.91593 
148.504 147.77 169.726 170.007 168.454 149.661 151.282 153.174 154.376 151.359 -64.3656 296.985 -32.7759 -33.1124 268.01 -72.5474 -43.0887 257.805 -96.3801 -66.9522 257.167 -106.591 -102.643 260.97 -105.51 -112.634 272.768 -25.6131 7.82764 3.14267 4.10818 
149.095 148.346 169.582 169.214 168.839 149.758 151.207 153.323 154.98 152.837 -63.3691 298.764 -32.5439 -31.839 270.148 -71.9326 -41.5736 259.516 -95.7999 -65.3625 258.018 -106.272 -100.884 261.214 -105.423 -111.421 274.15 -25.1568 7.71298 3.18605 4.19921 
150.029 148.487 169.369 168.736 171.457 149.768 151.386 153.686 155.413 154.931 -62.6796 299.908 -32.7622 -30.4015 272.717 -71.6192 -40.0409 261.626 -95.665 -63.7728 259.422 -106.326 -99.1032 261.46 -105.665 -110.06 275.262 -24.8268 7.64808 3.26829 4.44656 
147.914 148.644 169.352 166.379 171.851 148.727 149.981 153.202 155.238 155.603 -62.3262 301.292 -33.0399 -28.0172 274.106 -70.3871 -38.069 263.382 -94.9558 -61.378 259.983 -106.17 -96.5087 262.496 -105.666 -108.362 276.141 -24.599 7.42439 3.46173 4.73375 
145.54 147.146 169.093 164.983 171.632 147.769 149.012 152.584 155.246 155.753 -61.6897 303.607 -33.4901 -25.8376 274.918 -69.6134 -36.3564 264.907 -94.7636 -59.1393 260.495 -106.629 -94.0425 263.723 -106.102 -106.659 277.104 -24.769 7.15417 3.84512 4.98508 
144.383 144.592 169.857 164.231 170.815 146.577 149.061 152.366 155.337 155.561 -61.6932 306.544 -35.3593 -23.7718 276.104 -69.2611 -34.874 266.598 -94.902 -57.2332 261.212 -107.357 -92.1523 264.882 -106.771 -105.016 278.04 -25.1432 7.12929 4.33913 5.39678 
145.286 141.68 168.877 163.865 170.568 146.718 148.834 151.696 155.477 155.228 -60.9749 310.087 -37.1896 -22.023 277.257 -69.4109 -33.3642 268.143 -95.2401 -55.4733 261.711 -107.956 -90.4784 265.854 -107.202 -103.457 278.715 -25.5446 7.13159 4.83526 5.50507 
147.09 141.314 167.514 163.864 169.864 146.761 148.727 151.554 155.649 154.863 -61.2197 314.628 -39.4033 -20.5117 278.936 -69.594 -31.9131 269.23 -95.6343 -54.1468 262.821 -108.435 -89.1948 267.354 -107.501 -102.201 279.492 -25.8085 7.15022 4.86176 5.88186 
149.926 141.272 166.764 163.947 168.628 146.825 148.269 151.039 154.981 153.602 -60.2531 317.924 -41.3682 -19.0543 280.083 -69.7324 -30.331 270.047 -95.8321 -52.577 263.465 -108.727 -87.6132 268.159 -107.854 -100.815 279.98 -26.4585 7.13786 5.01838 6.09391 
151.248 142.435 165.822 164.064 169.206 147.584 148.357 151.157 155.155 154.251 -59.0724 320.268 -41.9638 -17.8682 280.998 -69.7543 -29.1291 270.413 -95.9821 -51.5049 264.282 -108.882 -86.3657 269.045 -108.175 -99.881 280.882 -26.6689 7.06558 4.81899 6.36294 
152.591 143.834 165.053 164.332 169.489 148.428 148.386 151.262 155.302 154.394 -57.5678 321.484 -41.9594 -16.7011 281.507 -69.4041 -27.8553 270.404 -95.7813 -50.4316 265.265 -108.803 -85.1798 270.441 -108.236 -99.0712 281.622 -26.6997 7.06697 4.50753 6.6481 
153.755 145.043 164.788 164.749 169.562 149.261 148.485 151.976 155.711 154.591 -56.3779 323.063 -42.2557 -15.5398 282.63 -69.4681 -26.3313 270.868 -96.0215 -49.2036 266.54 -109.096 -83.9273 271.993 -108.56 -98.1862 282.34 -26.972 7.0816 4.32467 6.94239 
155.297 145.634 164.499 165.132 169.932 150.053 148.072 152.685 155.814 154.538 -55.1441 324.267 -42.8408 -14.3714 283.733 -69.6805 -24.7252 271.342 -96.3877 -47.8557 267.436 -109.405 -82.631 272.86 -108.87 -97.0688 282.62 -27.2664 7.11642 4.24407 7.20349 
155.275 146.16 164.058 165.459 170.94 150.275 148.088 153.089 155.908 154.831 -53.6376 324.963 -42.8878 -13.232 284.243 -69.9798 -23.2896 271.616 -96.7422 -46.6889 268.265 -109.813 -81.3911 273.757 -109.399 -96.0568 283.323 -27.7679 7.09705 4.23913 7.26563 
155.714 146.555 163.475 165.712 172.598 150.769 147.955 153.238 155.764 155.44 -51.9072 325.549 -42.9111 -12.067 284.787 -70.0354 -21.8974 271.831 -96.9153 -45.5531 269.105 -110.058 -80.0606 274.457 -109.86 -95.0487 283.974 -28.1698 6.98701 4.25211 7.44099 
155.683 146.615 163.012 165.957 173.628 150.053 147.759 153.02 155.185 154.733 -50.9879 326.142 -43.676 -10.6677 285.593 -70.2361 -20.2806 272.108 -97.1133 -44.2213 269.81 -110.402 -78.6794 275.113 -110.326 -93.8685 284.821 -28.9434 6.96509 4.3851 7.69191 
155.062 145.916 162.598 166.471 175.815 149.056 147.708 153.696 155.425 155.146 -49.5212 327.917 -45.3904 -8.25048 287.24 -70.8862 -17.6086 272.99 -98.0136 -41.8231 270.773 -111.346 -76.4572 275.871 -111.364 -91.6437 286.178 -29.9887 7.11808 4.51223 8.03146 
