151.619 151.337 164.313 158.671 174.27 154.368 119.423 135.869 153.254 127.781 -262.893 369.817 -167.304 -241.787 408.284 -192.962 -266.461 411.95 -210.597 -294.909 406.054 -206.312 -309.426 381.129 -183.34 -280.997 399.827 -120.589 13.9315 8.59807 12.3113 
151.218 149.623 165.444 158.672 174.27 154.077 118.96 134.625 151.882 124.221 -263.283 371.021 -168.38 -242.704 409.953 -193.303 -267.103 412.546 -210.944 -294.882 406.482 -206.794 -309.207 381.438 -183.283 -281.346 400.298 -121.314 14.0418 8.234 11.614 
151.328 148.584 164.939 154.461 174.27 154.792 118.779 134.702 152.137 120.527 -262.966 372.027 -169.664 -243.517 410.237 -193.637 -268.142 413.917 -211.484 -295.452 407.882 -207.105 -310.414 383.348 -183.126 -281.822 400.821 -121.886 12.9061 8.03267 12.6678 
151.483 149.17 165.18 151.93 174.27 154.692 119.509 136.762 154.421 121.489 -263.514 372.454 -170.264 -243.852 410.399 -194.34 -269.321 415.939 -212.658 -296.564 409.47 -207.825 -311.45 383.968 -183.526 -282.072 401.012 -122.294 13.4176 7.83039 14.2705 
151.538 148.192 165.031 155.87 174.27 155.319 118.302 138.937 155.406 119.185 -262.706 372.793 -170.783 -244.124 409.985 -194.222 -270.295 418.468 -213.73 -298.115 411.935 -208.729 -312.066 384.196 -183.127 -282.267 401.082 -122.687 15.1728 8.27403 16.8506 
151.521 147.158 166.591 162.941 174.27 156.432 116.744 141.512 152.883 122.5 -260.753 373.015 -171.093 -243.568 407.582 -193.355 -270.624 420.744 -214.739 -298.404 413.591 -209.105 -313.518 387.009 -184.522 -282.145 400.975 -122.976 12.502 8.13252 21.2951 
151.471 147.085 166.618 162.114 176.57 156.386 115.668 143.212 155.905 133.523 -260.818 372.843 -171.17 -242.94 406.325 -192.898 -270.948 421.895 -215.615 -299.037 415.192 -210.051 -315.247 389.59 -186.56 -282.24 401.279 -123.392 10.7223 8.49114 23.9738 
151.712 148.675 163.988 163.235 149.997 155.985 115.897 141.676 156.513 128.618 -261 373.138 -171.358 -242.574 406.621 -193.422 -270.95 419.803 -215.871 -298.339 414.523 -210.832 -313.102 388.274 -185.567 -282.053 401.664 -123.822 11.8731 8.53373 22.531 
151.074 149.165 161.225 162.597 132.376 153.854 117.653 140.814 157.282 122.342 -261.877 373.328 -170.669 -243.259 409.01 -195.08 -270.306 416.925 -215.872 -296.807 413.01 -210.89 -310.077 386.022 -182.87 -281.672 402.051 -123.955 14.6751 8.42495 17.4909 
151.139 149.836 153.094 158.602 115.15 153.068 118.295 137.15 157.158 115.7 -262.025 373.3 -170.973 -243.568 410.359 -196.468 -268.166 413.043 -214.711 -294.213 410.833 -210.592 -308.087 384.871 -179.408 -280.856 402.246 -124.246 16.0411 8.8845 12.0174 
152.331 152.204 153.841 153.707 99.2032 153.402 119.753 134.418 158.263 110.449 -262.01 373.62 -171.488 -243.402 411.546 -197.292 -265.308 410.247 -213.159 -291.085 408.867 -209.992 -305.235 383.202 -174.862 -279.781 402.453 -124.042 19.2538 9.09056 7.34625 
154.157 148.932 150.574 151.998 97.1377 153.849 121.91 125.559 155.596 98.7422 -262.051 373.602 -171.955 -243.281 413.53 -198.526 -262.181 402.362 -209.074 -283.973 400.958 -207.757 -300.262 379.341 -168.897 -278.415 402.876 -124.231 21.7792 7.80096 3.5133 
156.151 147.39 148.864 164.49 99.5567 153.564 124.239 122.25 158.066 92.1249 -261.76 374.382 -172.172 -243.213 414.921 -199.89 -257.692 395.091 -205.239 -278.769 393.716 -205.142 -295.726 376.501 -163.911 -276.605 402.943 -124.315 23.6568 7.97985 11.748 
158.041 150.173 138.006 174.27 99.0682 152.712 127.922 128.054 123.479 82.9311 -261.807 373.344 -171.277 -241.829 415.386 -200.962 -256.126 392.73 -204.556 -269.542 381.298 -191.343 -292.537 374.05 -157.643 -274.224 402.749 -123.962 17.0463 7.46137 14.4949 
158.165 150.601 136.104 174.27 90.0457 150.585 130.375 128.391 96.6759 99.0704 -260.159 372.133 -169.521 -238.967 414.744 -200.363 -251.261 391.698 -203.278 -264.749 371.963 -176.302 -290.461 373.759 -164.425 -271.739 402.138 -123.674 6.85699 20.6999 14.8967 
157.804 150.203 118.344 174.27 90.0457 149.731 129.28 131.609 85.2969 107.944 -258.886 372.052 -168.693 -237.013 413.52 -199.803 -248.818 392.077 -200.184 -261.067 363.949 -156.69 -287.023 371.782 -164.797 -269.441 402.109 -123.272 26.6629 41.1209 14.5365 
156.538 154.715 123.597 174.27 90.0456 150.608 125.753 128.249 80.1239 101.589 -255.018 372.15 -168.297 -233.376 408.879 -197.36 -243.321 387.905 -196.796 -259.583 365.145 -155.155 -282.447 369.847 -161.959 -266.866 401.281 -122.61 24.13 36.6119 14.0265 
152.927 157.273 180 174.27 90.0456 147.774 125.82 138.759 75.9784 94.4665 -251.45 370.754 -164.793 -228.271 408.018 -195.038 -237.357 392.739 -202.325 -255.424 365.087 -150.607 -277.855 368.492 -158.328 -263.696 399.681 -120.88 24.879 45.3568 7.65192 
152.243 159.663 180 148.816 94.4675 147.154 127.859 147.594 66.851 81.0133 -248.623 367.924 -161.87 -223.677 406.605 -193.582 -234.844 397.039 -204.625 -255.981 367.286 -148.373 -277.012 367.634 -154.097 -260.148 397.473 -118.782 22.7945 49.6163 3.69751 
151.096 157.388 180 145.517 90.0457 147.347 127.416 146.602 67.6807 121.698 -244.172 363.818 -158.92 -217.881 402.3 -189.954 -233.713 400.13 -204.611 -255.628 373.411 -161.445 -276.664 370.148 -166.893 -257.039 395.316 -116.418 18.538 31.1883 6.50509 
151.659 154.803 180 90.0456 108.226 147.233 124.399 145.9 102.667 146.091 -241.572 359.629 -156.206 -214.123 398.475 -186.759 -232.785 399.957 -204.138 -256.736 383.348 -178.298 -280.073 376.169 -174.404 -253.387 392.68 -114.057 9.6723 8.4398 9.9649 
150.71 152.684 172.142 115.09 133.777 144.161 123.136 148.643 153.275 156.095 -240.438 354.903 -151.735 -210.58 396.142 -184.065 -233.113 403.047 -204.09 -260.917 394.501 -195.051 -280.782 377.523 -177.004 -249.707 390.001 -111.526 5.60531 7.20765 14.9477 
148.721 148.919 157.678 132.154 148.103 141.631 123.92 146.431 157.765 143.932 -237.649 352.442 -147.195 -207.245 394.511 -181.144 -230.719 398.497 -201.192 -260 392.432 -197.083 -275.693 371.453 -174.496 -246.35 387.815 -109.098 7.75007 9.84157 14.2043 
147.641 148.805 162.431 131.864 136.548 139.814 122.522 143.654 151.962 126.385 -233.66 349.647 -144.116 -207.27 394.406 -180.427 -227.298 389.99 -198.374 -255.271 383.412 -193.153 -271.164 366.378 -168.738 -241.714 384.126 -106.636 5.19309 8.54945 5.56518 
146.258 151.421 165.959 140.369 144.981 139.276 124.31 145.523 153.383 118.329 -229.24 348.79 -142.018 -204.609 393.943 -179.555 -224.359 387.475 -196.419 -252.991 382.01 -192.063 -266.243 362.806 -165.63 -238.349 382.366 -105.12 7.60318 9.84176 4.21336 
146.589 158.798 178.065 144.485 158.896 139.115 125.448 143.022 155.859 121.275 -225.311 347.926 -140.38 -201.909 394.755 -179.066 -220.7 384.625 -193.856 -249.222 379.373 -190.538 -264.695 361.608 -166.571 -235.099 380.89 -103.498 5.12939 10.105 2.41733 
145.877 158.975 177.217 166.764 162.655 138.378 128.624 134.889 162.639 126.462 -221.924 346.204 -138.328 -198.475 395.977 -178.947 -217.169 380.978 -190.074 -247.83 380.319 -190.398 -263.932 361.993 -166.934 -231.144 379.062 -101.796 5.26422 13.73 6.30493 
145.855 156.969 158.913 173.749 165.554 139.459 123.892 128.209 152.821 134.558 -216.949 345.374 -136.132 -192.12 390.966 -174.503 -212.778 378.282 -185.508 -244.745 381.645 -187.728 -263.246 364.919 -166.527 -227.984 378.08 -99.7936 4.97217 17.4254 4.85083 
146.705 155.411 144.364 160.133 175.907 140.186 121.415 132.793 153.187 146.598 -212.898 343.888 -133.995 -187.02 387.265 -171.41 -210.445 381.713 -186.294 -242.846 384.434 -186.594 -263.993 368.661 -166.618 -224.803 377.073 -98.2771 7.60617 17.028 7.62421 
145.817 152.787 151.905 163.275 179.51 140.308 120.199 140.547 156.866 149.358 -209.447 343.295 -133.397 -183.96 385.997 -170.237 -210.119 387.277 -189.184 -241.683 386.573 -186.67 -261.518 369.208 -165.815 -221.513 376.428 -97.4259 6.59574 13.9299 13.1787 
144.996 147.938 159.407 169.581 172.469 138.724 120.813 144.261 153.521 150.047 -205.434 341.565 -131.31 -180.946 385.055 -168.837 -207.504 389.975 -190.037 -238.002 385.593 -185.786 -259.262 369.766 -164.99 -217.929 375.032 -96.091 8.00457 11.5237 15.6011 
146.617 139.43 163.395 173.049 177.739 142.311 118.594 144.327 150.525 152.371 -197.926 343.025 -131.941 -176.081 381.638 -164.885 -203.661 388.15 -188.986 -233.617 383.51 -184.138 -255.704 368.97 -164.213 -215.484 375.435 -95.0006 8.60539 11.2732 19.465 
146.15 136.193 160.283 168.493 177.28 141.276 117.513 140.114 145.8 145.668 -193.487 343.414 -130.452 -172.876 382.036 -163.442 -198.943 386.498 -187.206 -228.191 380.905 -182.888 -248.385 365.6 -163.211 -212.223 374.346 -94.0496 6.545 10.796 17.6941 
146.492 132.879 157.779 163.274 170.198 141.217 119.072 143.511 150.225 145.62 -189.838 341.733 -127.695 -168.566 378.215 -160.812 -196.866 386.945 -186.762 -225.435 380.671 -182.347 -243.375 363.297 -161.627 -209.215 373.347 -92.3464 4.59865 10.2278 22.9835 
146.138 128.635 158.619 160.255 165.363 140.5 116.481 147.41 154.394 147.905 -186.625 339.539 -125.085 -165.423 376.245 -158.201 -194.974 388.945 -186.43 -223.277 382.16 -181.342 -240.843 362.907 -160.484 -206.25 372.139 -91.0081 4.84529 9.97189 27.0308 
146.308 130.464 160.157 162.088 162.734 140.887 113.221 148.17 153.531 147.704 -183.319 339.183 -123.577 -162.15 372.758 -155.004 -192.912 387.824 -185.268 -220.909 379.531 -179.866 -238.689 360.433 -159.089 -203.202 371.079 -89.5281 5.4853 9.47286 30.6056 
148.187 131.97 162.07 167.217 162.183 142.857 112.78 149.01 152.877 147.741 -178.718 339.881 -123.547 -159.671 370.75 -153.078 -191.407 386.859 -184.257 -217.994 377.094 -178.616 -234.861 358.31 -157.825 -200.985 370.213 -88.4362 4.63902 8.34917 32.8247 
149.6 140.331 164.344 168.21 166.786 144.662 113.883 151.505 157.231 154.329 -173.778 339.94 -122.692 -155.832 368.852 -151.825 -188.536 386.654 -184.398 -215.483 377.196 -178.924 -234.005 357.509 -158.222 -198.951 369.933 -87.4371 6.49321 8.91139 35.1332 
150.061 141.051 164.149 171.167 168.512 146.184 114.494 153.544 158.04 154.82 -171.017 340.924 -122.973 -154.65 369.401 -152.138 -188.367 387.69 -184.019 -214.556 376.052 -178.265 -231.266 356.146 -157.159 -197.032 369.619 -86.5713 5.08429 7.90953 35.1292 
148.171 149.722 161.107 169.501 164.443 144.92 118.005 147.797 151.288 150.492 -168.356 342.778 -124.223 -151.767 371.705 -154.542 -183.744 385.923 -182 -210.223 374.255 -177.187 -228.284 355.316 -157.021 -193.398 370.008 -86.603 6.18541 8.42577 30.2709 
148.467 153.893 162.869 166.563 164.922 143.859 121.216 144.397 150.53 150.017 -168.368 342.521 -124.341 -150.838 372.96 -155.777 -180.744 384.28 -180.353 -208.926 374.537 -176.378 -228.302 355.571 -156.57 -192.079 370.271 -86.2441 7.53179 10.2673 26.5883 
149.569 158.007 162.349 163.419 165.329 143.684 127.964 146.275 151.995 149.969 -167.16 344.452 -124.333 -150.084 374.413 -158.581 -180.553 384.516 -180.202 -208.438 374.099 -175.704 -226.833 354.294 -155.662 -189.995 369.581 -85.6025 7.26087 10.0348 24.5573 
150.531 159.278 165.09 166.323 166.45 145.059 131.146 146.226 152.157 149.678 -163.764 346.822 -124.87 -149.064 374.199 -159.399 -178.289 382.239 -179.25 -206.031 372.298 -174.714 -224.503 353.036 -154.65 -187.658 368.267 -84.8077 7.14833 10.0683 21.9712 
151.811 158.677 165.178 162.345 166.921 145.735 132.703 146.184 154.095 151.029 -160.462 348.165 -124.715 -146.973 372.44 -158.709 -176.306 381.845 -178.247 -204.674 373.55 -173.503 -223.567 353.629 -153.437 -185.241 367.295 -83.8139 7.68128 10.908 22.7493 
152.116 156.74 165.187 162.062 168.001 145.647 134.252 147.457 154.68 150.885 -158.149 348.393 -124.138 -146.403 372.455 -159.746 -175.514 380.923 -178.073 -203.499 372.406 -172.554 -221.698 353.231 -152.14 -182.84 366.122 -83.1295 6.89301 10.3084 21.0862 
152.235 157.793 162.992 160.256 167.544 145.273 135.741 146.544 152.792 147.977 -156.56 350.696 -123.553 -146.323 375.042 -161.029 -174.866 381.177 -177.621 -202.471 372.167 -171.717 -219.403 353.029 -151.169 -181.067 366.483 -82.67 5.81905 9.78862 18.4004 
154.324 161.633 162.773 160.012 167.363 144.3 140.743 149.023 154.172 146.5 -157.197 349.165 -122.753 -145.908 377.92 -163.139 -174.724 382.528 -177.539 -201.965 372.138 -171.254 -216.137 352.182 -149.998 -179.061 366.357 -81.9927 4.14535 9.01525 16.2877 
153.105 161.677 161.841 160.005 165.789 142.815 142.281 150.046 154.697 143.943 -156.195 348.928 -121.414 -144.957 379.458 -163.916 -174.433 383.161 -177.373 -200.967 371.435 -170.95 -212.429 349.898 -149.026 -176.965 366.184 -81.4489 4.84108 8.18023 15.4355 
152.812 163.403 161.526 160.34 164.695 142.164 140.762 150.549 155.697 143.257 -154.818 348.115 -120.424 -143.183 378.913 -163.428 -173.405 383.33 -177.289 -199.601 371.891 -170.822 -209.776 349.474 -148.359 -175.174 366.423 -80.9876 5.72712 7.93827 16.2477 
152.431 160.218 159.903 160.521 163.543 142.258 138.798 148.682 153.851 142.348 -152.312 350.064 -120.785 -141.867 380.135 -163.374 -172.094 384.248 -176.989 -197.531 372.144 -170.694 -207.767 349.254 -148.593 -173.353 366.334 -81.191 5.92679 7.4512 16.1116 
153.379 161.883 160.836 162.455 164.296 141.853 138.375 151.461 156.52 143.929 -150.845 351.228 -119.614 -139.651 378.143 -162.805 -171.022 384.148 -176.688 -195.928 372.039 -170.181 -205.672 348.658 -147.977 -171.062 365.153 -80.4667 6.10263 7.09087 17.8525 
151.879 162.047 159.396 161.48 163.64 140.759 140.206 151.915 156.31 143.408 -149.303 352.497 -118.442 -139.28 380.791 -163.785 -170.548 385.248 -176.404 -194.811 371.987 -169.742 -203.901 348.261 -147.549 -168.887 364.829 -80.2881 6.47342 6.52829 16.2851 
150.711 160.348 159.036 160.873 164.025 139.704 138.008 150.195 154.584 143.367 -147.838 353.202 -117.224 -137.841 381.043 -163.191 -168.948 385.207 -175.763 -192.864 372.048 -168.9 -203.018 349.161 -147.02 -167.087 365.222 -79.9561 5.64018 6.26776 15.9947 
151.64 160.792 161.128 163.418 164.645 140.185 137.577 151.063 154.843 143.151 -146.559 353.193 -116.188 -136.319 379.314 -162.201 -167.379 383.996 -174.848 -190.771 370.809 -167.825 -200.475 348.299 -145.801 -164.83 364.135 -78.8707 5.29853 5.9107 16.3053 
152.089 160.758 162.295 163.902 163.823 139.583 137.035 150.827 154.252 144.672 -145.264 353.927 -115.216 -135.172 378.455 -161.885 -165.51 383.353 -174.392 -188.446 370.297 -167.349 -199.519 348.662 -145.701 -162.599 363.241 -78.4429 4.34189 5.54321 15.8829 
150.657 157.391 161.604 161.764 164.019 137.947 132.342 148.203 151.414 143.541 -142.754 351.455 -114.476 -130.736 378.288 -160.017 -160.875 382.467 -173.447 -184.541 370.148 -166.202 -197.105 350.164 -144.839 -158.748 363.109 -78.2969 3.3855 6.09414 15.5145 
143.096 157.837 161.488 157.271 162.419 132.513 133.081 149.056 152.569 144.167 -141.183 352.343 -110.888 -128.958 378.274 -159.746 -158.853 381.462 -173.5 -182.919 370.655 -165.686 -196.7 350.443 -144.036 -156.974 362.36 -77.9573 4.22753 6.64904 14.7001 
140.477 159.84 160.903 157.642 163.613 132.324 133.234 148.08 151.933 143.868 -138.969 353.711 -110.417 -128.132 378.509 -160.058 -157.143 380.862 -173.185 -181.361 369.782 -165.364 -195.245 350.371 -143.704 -155.012 362.374 -77.8088 4.01121 6.60966 13.4092 
135.562 160.711 160.579 158.198 162.887 131.941 134.22 147.615 151.144 141.489 -136.681 356.094 -108.854 -125.649 378.344 -159.84 -154.321 379.014 -172.852 -178.459 368.011 -165.03 -192.09 348.592 -143.094 -152.995 361.99 -77.5774 3.89903 6.57757 12.4392 
134.13 163.799 161.683 162.963 166.406 132.969 137.278 150.341 155.666 146.148 -132.853 361.298 -107.241 -124.749 379.912 -159.783 -152.903 379.008 -172.793 -177.372 369.101 -165.005 -191.41 350.042 -142.944 -150.396 360.578 -76.8672 3.93936 7.04132 10.7138 
136.032 166.697 162.915 168.016 166.635 139 138.953 150.143 155.283 144.292 -128.014 367.825 -106.796 -123.306 378.997 -159.994 -151.021 377.501 -172.289 -175.14 367.341 -164.385 -188.515 348.421 -141.89 -148.218 359.923 -76.3004 3.4127 6.59109 9.91403 
146.638 167.857 163.047 167.264 164.442 144.64 139.386 148.901 152.601 142.517 -123.61 373.18 -107.322 -121.25 377.874 -159.762 -148.493 375.736 -171.864 -171.718 365.457 -163.811 -185.528 347.028 -141.437 -146.07 359.465 -75.9949 3.41098 5.95416 9.49707 
160.072 168.188 163.467 163.485 164.337 148.621 141.735 150.144 153.965 144.176 -119.674 378.141 -106.407 -119.494 378.468 -159.899 -146.705 375.832 -171.741 -169.748 365.824 -163.386 -184.274 347.201 -140.939 -143.676 358.842 -75.4118 4.14949 5.98325 9.06656 
166.25 165.451 163.653 164.277 164.928 153.055 141.745 150.646 155.535 146.852 -114.258 386.244 -103.122 -117.804 378.25 -158.921 -144.963 375.759 -171.164 -168.166 366.493 -162.819 -183.224 348.484 -140.595 -141.149 358.574 -74.593 4.59165 6.4139 9.0651 
173.27 165.995 164.09 165.131 166.716 155.167 144.467 151.862 158.064 149.813 -109.216 390.03 -99.9628 -115.818 379.351 -158.298 -142.725 375.968 -170.322 -166.285 367.272 -161.937 -181.337 349.51 -140.136 -138.299 357.644 -73.7007 4.6819 6.94339 8.26771 
173.693 166.38 166.36 165.369 168.471 157.323 147.908 154.691 162.002 153.847 -103.972 394.229 -96.0377 -114.948 381.157 -158.063 -141.487 378.231 -169.973 -165.356 370.11 -161.235 -180.612 351.712 -139.558 -135.49 356.869 -72.845 5.4021 7.56623 7.81324 
175.016 167.424 168.133 166.656 170.778 159.851 150.135 157.212 165.569 157.633 -98.5602 397.487 -92.2964 -112.559 382.055 -157.216 -139.703 380.239 -169.042 -163.834 372.32 -160.083 -179.445 352.889 -138.727 -132.652 356.059 -71.9267 6.11833 8.01111 8.57354 
179.609 167.425 168.124 167.855 171.795 157.376 152.229 158.989 166.828 159.098 -97.7385 397.988 -89.2314 -109.999 383.796 -156.209 -137.437 382.118 -167.618 -161.345 373.549 -158.652 -177.599 353.173 -137.488 -129.823 355.766 -70.599 6.92145 7.70685 8.62304 
178.151 166.841 167.626 169.115 172.294 155.7 152.018 158.685 166.106 158.744 -95.4575 397.958 -87.516 -107.223 384.908 -154.756 -134.296 383.096 -166.038 -157.886 374.2 -157.257 -174.588 353.316 -136.429 -127.32 355.943 -69.3305 7.2385 7.41863 8.32787 
172.834 166.585 167.313 168.137 171.791 155.106 153.744 159.583 167.245 159.99 -90.9107 397.879 -85.2599 -104.158 386.075 -153.391 -130.679 383.596 -164.724 -154.76 374.533 -155.989 -171.855 353.101 -135.425 -124.342 355.111 -68.0464 7.80041 7.81677 7.67256 
170.627 167.774 166.994 168.799 171.002 156.151 153.685 158.761 166.192 160.58 -86.9163 398.102 -84.8978 -100.432 388.011 -152.558 -126.954 385.148 -164.007 -151.104 375.443 -155.594 -169.122 353.065 -135.413 -121.81 355.335 -67.7492 8.82083 7.84028 7.77682 
171.844 168.661 166.416 167.937 168.33 158.235 153.451 158.116 164.179 158.786 -79.3475 395.808 -85.5841 -96.2762 387.322 -151.281 -122.461 384.344 -163.072 -146.396 373.623 -155.057 -165.031 350.982 -134.888 -118.974 354.613 -66.9382 9.4423 7.46103 7.87646 
171.001 168.975 166.809 169.858 168.035 159.136 152.394 157.286 163.158 158.461 -74.8262 394.368 -86.3734 -92.9983 388.404 -150.258 -118.984 385.537 -161.928 -142.567 374.128 -154.417 -161.401 350.961 -134.564 -116.318 354.871 -66.355 9.64318 7.11127 7.98757 
178.521 170.174 168.425 172.512 168.951 161.301 152.469 158.137 164.027 159.521 -70.8634 394.587 -85.0823 -89.0788 388.558 -148.737 -115.179 386.231 -160.51 -138.904 374.471 -153.519 -158.255 350.769 -133.878 -113.434 354.355 -65.462 10.136 7.12202 8.47423 
179.219 168.804 168.268 173.281 168.066 158.757 150.935 156.903 161.961 158.431 -67.9039 392.795 -84.9794 -85.1986 389.934 -146.762 -110.784 387.375 -158.828 -133.878 374.502 -152.804 -153.836 350.545 -133.636 -110.65 354.454 -64.4793 10.4677 6.47432 8.32425 
171.73 169.043 169.445 173.651 168.713 162.613 151.882 157.631 162.699 159.173 -62.9732 394.807 -82.5385 -81.968 390.911 -145.309 -107.481 388.422 -157.374 -130.548 374.938 -151.822 -150.495 350.736 -132.73 -107.718 354.103 -63.2561 10.406 6.32962 8.28419 
169.814 167.581 168.659 172.875 168.331 162.504 150.578 156.479 161.105 158.085 -58.893 395.057 -81.5983 -78.784 392.733 -143.92 -103.953 390.028 -156.133 -126.47 375.46 -151.218 -146.417 351.038 -132.534 -104.899 354.579 -62.538 10.3352 5.87564 8.11956 
160.391 167.381 168.774 171.996 167.974 164.811 149.815 156.355 160.682 158.024 -54.189 395.247 -79.7777 -75.2505 392.613 -142.673 -100.402 389.771 -155.048 -122.663 374.259 -150.32 -142.324 350.026 -131.812 -102.178 354.895 -61.5446 10.0842 5.74369 8.41634 
157.695 166.202 168.267 171.099 167.269 161.935 148.617 155.797 159.978 157.429 -50.7608 392.911 -79.6683 -72.284 392.438 -141.82 -97.1887 389.629 -154.332 -118.817 373.514 -149.715 -138.095 349.4 -131.44 -99.3771 354.899 -60.9645 9.58202 5.30357 8.4106 
160.377 165.748 169.08 171.016 167.786 161.783 148.364 156.366 160.65 158.124 -47.9898 393.613 -78.7459 -69.702 392.428 -140.866 -94.2302 390.049 -153.578 -115.246 373.453 -149.183 -134.061 349.056 -131.214 -96.6689 354.725 -60.2949 9.24817 5.05171 8.73908 
164.394 163.992 168.545 173.72 168.239 163.04 146.243 154.989 158.515 156.381 -42.4337 396.77 -76.0057 -64.1022 393.127 -138.802 -87.6541 391.255 -151.549 -107.566 373.893 -147.735 -126.299 349.653 -130.331 -91.6497 355.524 -59.0976 8.62661 4.33233 8.74553 
169.192 163.969 168.708 173.871 168.212 163.141 144.995 154.197 157.861 155.542 -39.6736 398.273 -72.8863 -61.2846 391.594 -137.386 -84.0166 389.394 -150.384 -103.891 371.317 -146.922 -122.271 347.462 -129.596 -89.1967 355.173 -57.9269 8.04038 4.40338 8.26097 
172.573 163.145 167.774 172.775 167.302 162.372 143.183 151.807 154.908 152.742 -36.9002 398.837 -71.4004 -58.621 391.512 -136.254 -80.263 388.51 -149.354 -99.4362 370.093 -146.096 -117.842 346.772 -128.927 -86.7497 355.376 -57.2149 7.53503 3.96587 7.25221 
178.68 162.366 167.182 171.651 167.098 159.945 141.518 150.169 153.469 151.138 -35.0847 399.661 -70.1852 -55.443 390.233 -135.294 -76.2252 386.046 -148.555 -95.0256 367.538 -145.293 -113.501 344.408 -128.182 -84.172 355.509 -56.4899 7.43162 3.7751 6.37401 
178.087 161.72 166.441 170.811 166.573 160.078 140.232 148.277 151.551 148.652 -32.9735 400.477 -68.9001 -52.9736 389.933 -134.868 -73.0065 384.173 -148.215 -91.1971 365.42 -144.819 -109.384 342.428 -127.68 -81.8159 355.721 -56.2208 7.1679 3.53115 5.32799 
175.757 161.669 166.473 171.274 166.352 161.855 139.09 146.98 150.55 146.791 -30.2517 402.211 -67.5984 -50.2764 390.149 -134.143 -69.8831 383.092 -147.541 -87.6095 363.964 -144.204 -105.382 340.735 -126.947 -79.5958 356.358 -55.7007 7.01286 3.49116 4.70989 
176.609 162.302 167.432 171.183 167.466 163.493 140.099 147.319 151.463 146.71 -27.6636 404.896 -64.9251 -48.4317 390.955 -133.82 -67.6752 382.493 -147.314 -85.3076 362.912 -143.921 -102.694 339.708 -126.271 -77.3329 357.198 -54.9382 6.97762 3.71468 3.91363 
176.947 164.152 169.179 171.62 168.469 164.907 142.435 148.651 152.813 147.101 -25.0231 404.858 -62.9645 -46.6538 391.907 -133.575 -65.7919 382.759 -147.03 -83.3994 362.929 -143.615 -100.333 339.579 -125.642 -75.0645 357.149 -54.1534 6.7091 3.81207 3.29566 
176.89 166.262 169.835 171.46 169.719 165.757 145.14 149.908 154.025 147.805 -22.7108 405.852 -61.0727 -44.8142 391.827 -133.569 -63.8976 381.807 -146.627 -81.4742 361.813 -142.969 -98.1726 338.467 -124.566 -72.7494 356.992 -53.1505 6.73934 3.94228 2.73437 
178.938 167.245 170.352 171.775 170.135 165.497 146.706 150.691 154.575 148.389 -22.1011 406.849 -59.6978 -42.8441 392.718 -133.287 -61.5566 382.317 -146.388 -78.7546 362.598 -142.746 -95.898 339.033 -124.424 -70.5337 357.019 -52.5739 6.94413 3.58329 2.35979 
