157.14 158.673 152.152 152.578 154.787 129.394 146.54 144.762 144.353 138.167 12.106 149.008 -6.64653 61.7761 163.087 -88.3719 29.8272 146.204 -98.0777 1.90821 136.091 -86.3091 -23.7401 136.651 -62.2586 5.00908 196.408 -15.9225 8.43446 8.51571 13.2389 
157.009 158.596 152.555 152.824 154.855 128.01 146.636 145.123 144.478 137.674 13.5156 149.827 -6.87762 62.5695 163.208 -88.574 30.5664 146.233 -98.4293 2.70932 135.866 -86.3349 -22.7556 136.378 -61.958 5.83228 196.317 -15.8926 8.46835 8.65396 13.2692 
156.614 158.935 152.929 153.217 155.254 126.884 146.848 145.493 144.964 138.005 14.8282 151.041 -6.90872 63.375 163.794 -88.6571 31.4621 146.72 -98.586 3.69628 136.212 -86.4629 -21.7136 136.625 -62.0227 6.65115 196.695 -15.861 8.41661 8.62139 13.2285 
155.794 159.139 153.149 153.645 155.717 125.989 147.132 145.637 145.374 138.502 16.2337 152.289 -7.19985 64.5245 164.851 -88.9165 32.653 147.48 -98.872 5.01275 136.751 -86.7936 -20.4983 136.997 -62.4215 7.53903 197.189 -15.9092 8.41091 8.58009 13.2993 
155.406 160.032 153.394 154.577 156.051 125.271 148.391 147.778 146.961 139.22 18.0823 153.056 -7.09572 65.9921 165.602 -88.9709 33.5675 148.341 -99.8526 6.14443 136.673 -87.1888 -18.9506 136.991 -62.1786 8.41019 197.995 -16.1026 8.35172 8.98266 13.6202 
154.051 160.439 153.771 154.901 156.363 123.788 148.506 148.199 147.55 139.743 20.0701 154.642 -7.14165 66.5919 165.953 -88.8388 34.1944 148.437 -99.6187 7.00015 136.531 -86.7807 -17.732 136.694 -61.6467 9.22299 198.075 -15.8046 8.17632 8.95587 13.6636 
151.908 160.87 154.696 155.559 157.022 120.33 149.544 149.406 148.618 140.541 23.1749 157.988 -7.5761 68.2528 167.009 -88.9862 35.8497 149.223 -99.8549 9.02148 136.912 -86.6808 -15.4163 137.137 -61.6686 10.9932 198.601 -15.5746 7.82223 9.06722 13.7381 
148.593 161.129 154.777 155.655 157.415 117 149.786 149.821 149.073 140.671 25.6774 161.815 -8.17771 68.4059 167.679 -88.9753 36.0483 149.723 -99.6796 9.6314 137.107 -86.1115 -14.3835 137.273 -60.9637 11.5591 198.971 -15.2811 7.63817 9.15983 13.7455 
141.515 161.338 154.961 156.021 157.87 115.882 149.636 149.986 149.72 140.843 29.8256 166.018 -8.85204 68.4935 168.025 -88.838 36.2461 150.104 -99.3216 10.188 137.353 -85.4164 -13.379 137.404 -59.7667 12.3038 199.654 -14.9386 7.69353 9.13916 13.5963 
131.773 161.631 155.193 156.413 158.242 117.406 149.606 150.283 150.43 141.146 34.5657 170.109 -9.58552 68.8094 168.163 -88.7581 36.5347 150.18 -98.9583 10.6371 137.338 -84.7329 -12.5937 137.405 -58.6144 13.052 200.25 -14.6669 7.81192 9.21032 13.5806 
124.465 161.61 154.886 156.21 158.279 118.432 149.498 150.4 150.487 140.732 37.7527 173.144 -10.0058 69.364 168.117 -88.758 36.9052 150.108 -98.7489 11.1778 137.311 -84.2569 -11.8258 137.595 -57.9529 13.8405 200.568 -14.6566 7.78985 9.3043 13.7181 
119.766 161.613 155.306 156.351 158.577 119.774 149.706 150.694 150.683 140.716 40.5281 175.811 -10.9383 70.0502 169.086 -89.1462 37.5677 151.016 -99.167 12.0357 138.105 -84.54 -10.8522 138.428 -58.1702 14.723 201.11 -14.5806 7.69527 9.38599 13.7541 
117.416 162.419 156.549 157.245 158.902 125.474 151.131 153.025 152.16 141.231 45.3377 177.472 -11.458 71.0573 169.851 -89.482 38.3354 152.339 -100.308 12.6999 138.801 -85.1719 -9.89068 139.31 -57.9197 15.7402 202.131 -14.3022 7.78742 9.78598 13.6765 
113.764 162.94 157.27 158.373 159.255 130.902 152.007 154.786 153.383 141.649 48.3381 178.008 -11.063 72.0291 170.082 -89.719 39.0736 153.081 -101.183 13.2177 139.131 -85.7802 -9.00297 139.834 -57.6649 16.7302 202.79 -14.2091 7.8646 10.0276 13.6962 
110.611 163.411 158.208 159.397 159.975 135.253 153.063 156.55 154.315 141.515 51.2903 179.439 -11.3495 72.9943 170.715 -90.1411 39.9477 154.19 -102.276 13.9678 139.578 -86.4238 -7.76292 140.562 -57.513 17.7257 203.428 -14.0962 7.84117 10.4814 13.6444 
110.805 163.984 159.317 160.229 160.036 138.291 154.341 158.102 155.066 141.282 52.6422 179.306 -11.3591 74.0089 170.839 -90.561 40.8703 154.863 -103.263 14.4437 140.049 -87.2951 -7.3044 141.503 -57.8112 18.7298 203.902 -14.0663 7.88803 10.7905 13.5541 
111.41 164.356 160.064 160.937 160.263 137.299 155.075 159.083 155.572 141.404 52.5818 179.413 -10.866 74.9457 171.223 -90.5839 41.7061 155.663 -103.589 14.9534 140.837 -87.5319 -6.74342 142.615 -57.7788 19.8171 204.668 -13.86 7.8057 10.9306 13.5197 
109.486 164.786 160.845 161.753 160.681 141.588 155.806 159.981 156.476 141.917 55.6057 181.268 -12.1408 75.8094 172.065 -90.9011 42.7202 156.477 -103.981 15.8688 141.303 -87.822 -5.67339 143.078 -57.6455 20.8437 205.24 -13.6965 7.81656 11.045 13.3931 
103.487 165.169 161.17 162.573 161.016 147.96 156.472 160.529 157.107 142.26 59.6125 184.734 -14.0002 76.7083 172.832 -91.5651 43.5228 157.137 -104.646 16.493 141.61 -88.3749 -5.03878 143.266 -57.7748 21.9357 205.558 -13.7578 8.00605 11.1995 13.4488 
99.7859 165.048 160.782 162.19 161.668 149.213 156.314 160.227 156.504 142.021 59.3197 189.41 -18.0458 77.4486 172.909 -91.2926 44.15 157.704 -104.295 16.7716 142.501 -88.019 -4.74248 144.284 -57.8271 23.0863 206.008 -13.6739 7.85736 11.285 13.4405 
99.7859 165.543 161.46 162.885 162.363 151.267 156.635 160.617 157.38 143.369 61.2955 191.979 -19.5134 78.1328 173.559 -91.1661 44.8619 158.23 -103.965 17.586 142.982 -87.6122 -3.88001 144.605 -57.3023 24.3922 206.852 -13.2569 8.02548 11.1893 13.3546 
102.421 165.772 161.77 163.323 162.871 151.662 156.721 160.94 157.808 144.143 65.3974 191.648 -17.3209 79.0381 173.506 -90.6898 45.5198 158.169 -103.347 18.1444 142.76 -86.5712 -3.19476 144.334 -56.1343 25.6248 207.222 -12.7338 8.27922 11.4255 13.487 
119.026 166 163.101 164.307 163.887 161.711 156.983 162.075 158.561 145.466 74.6331 195.635 -19.2211 80.677 174.573 -90.1931 46.592 159.138 -102.925 19.6465 143.225 -85.2737 -1.38383 144.63 -54.5581 28.2036 208.495 -11.7549 8.54345 11.6786 13.845 
103.347 165.272 162.559 163.96 163.312 153.936 156.313 161.832 158.053 145.605 77.5245 197.494 -15.0444 82.312 175.258 -89.5692 47.854 159.301 -102.454 20.9827 143.035 -84.5587 -0.82551 143.976 -54.1816 29.2512 208.335 -11.5117 8.98857 11.8214 14.3457 
103.991 164.381 161.565 163.247 162.852 154.869 155.293 160.996 157.271 145.387 81.8375 199.852 -14.1777 83.6881 175.585 -88.6074 48.9977 159.699 -101.607 21.8891 143.574 -83.7976 -0.503209 144.495 -53.7668 30.5353 208.884 -11.1761 9.32691 11.8561 14.5903 
106.038 163.616 160.977 162.753 163.039 152.038 154.526 160.527 156.687 144.345 84.1039 199.827 -13.4118 84.7297 175.746 -88.1684 49.9326 159.953 -101.101 22.7546 143.758 -83.0915 0.524535 144.606 -52.9117 31.8238 209.21 -11.1327 9.58041 12.0594 14.6934 
104.011 163.437 161.444 162.689 162.611 148.245 154.585 160.927 156.946 145.065 86.1357 201.099 -11.5607 86.1666 176.461 -87.556 51.5071 160.377 -100.406 24.1515 144.159 -82.3549 1.27877 144.857 -52.3965 33.0784 209.693 -10.7117 9.97829 12.1113 14.6967 
105.984 162.88 161.2 162.324 162.537 148.277 154.206 160.633 156.764 144.903 87.8697 201.759 -11.6519 87.2819 176.533 -86.8668 52.8038 160.552 -99.4275 24.9447 144.509 -81.3763 1.9721 145.395 -51.4405 34.3864 210.375 -10.4139 10.1872 12.3133 14.5482 
104.607 162.423 160.796 161.79 162.467 146.607 153.741 160.355 156.259 143.706 87.7239 201.228 -11.289 88.4621 176.811 -86.743 53.7665 161.001 -99.2503 25.6639 144.778 -80.792 3.03394 145.647 -50.5925 35.6476 210.684 -10.4147 10.3394 12.7283 14.7232 
105.619 162.558 162.183 161.769 162.026 145.403 154.245 161.199 156.714 144.64 89.7454 202.783 -10.5354 89.6949 177.763 -86.7905 55.1634 161.68 -99.1332 26.7434 145.197 -80.2149 3.7833 145.956 -50.1497 36.9015 211.094 -10.0699 10.6112 13.0837 14.6723 
109.854 162.286 163.032 162.176 162.221 144.278 154.757 161.81 157.095 144.358 91.8732 204.003 -11.1382 91.1133 178.893 -87.3929 56.8142 162.869 -99.8598 27.8986 145.916 -80.6434 5.03728 146.551 -50.3735 38.2391 211.428 -10.2494 10.721 13.5898 14.5317 
112.362 161.74 162.25 161.888 161.484 144.42 154.495 161.299 156.578 142.944 94.7545 205.617 -11.4402 92.9172 179.952 -87.9503 58.5009 164.149 -100.703 28.9816 147.087 -81.5966 6.07082 147.605 -51.2439 39.6516 211.833 -10.8675 10.9205 13.9497 14.6366 
120.812 161.371 162.988 162.4 161.824 142.527 155.242 161.943 157.044 143.284 97.1631 206.59 -12.6516 94.17 181.843 -88.474 59.9909 166.093 -101.341 30.2066 148.554 -82.025 7.33251 148.584 -51.5694 41.0501 212.589 -10.796 11.1096 14.355 14.4252 
121.777 160.964 163.055 162.709 161.459 141.708 155.666 162.03 157.205 143.297 99.8804 207.924 -13.1247 95.8354 183.66 -89.1169 62.0631 167.913 -102.298 31.9064 149.976 -83.4534 8.61408 149.493 -53.1606 42.2586 212.8 -11.1741 11.2857 14.5164 14.1876 
117.989 159.824 161.585 162.205 161.232 141.801 155.278 161.392 156.834 143.038 102.258 210.034 -12.7648 97.5975 185.222 -89.0768 63.8512 169.726 -102.624 33.2198 151.731 -84.2828 9.87257 150.765 -54.103 43.7131 213.533 -11.3345 11.43 14.6784 14.189 
118.733 159.295 161.588 162.558 162.236 142.577 155.895 161.737 157.327 143.541 104.39 211.272 -13.273 98.8476 186.628 -89.518 65.3773 171.268 -103.134 34.4677 152.965 -84.9523 11.4618 151.57 -54.8361 45.0918 213.806 -11.2605 11.2249 14.8878 13.9591 
115.778 158.99 160.938 162.698 162.358 142.223 156.115 161.711 157.515 144.014 106.111 212.376 -13.3401 100.609 187.864 -89.7962 67.2368 172.591 -103.651 36.1573 154.109 -85.779 12.9373 152.343 -55.7031 46.5844 214.258 -11.4494 11.3999 14.9518 13.9071 
114.085 158.185 159.929 162.455 163.79 142.526 156.252 161.778 157.575 144.103 107.966 213.669 -13.2331 102.292 188.962 -89.8088 68.8786 173.874 -103.795 37.7077 155.335 -86.1055 14.9217 153.326 -56.1273 48.2475 214.962 -11.567 11.2281 15.069 13.916 
110.239 157.754 159.094 162.498 164.002 141.709 156.726 161.882 157.866 144.411 108.671 213.681 -12.9632 104.14 190.327 -90.2625 70.8501 174.928 -104.294 39.7356 155.819 -86.7929 17.0629 153.152 -56.5712 49.6908 214.958 -11.6962 11.457 15.2014 13.9314 
111.853 157.09 158.225 162.299 164.612 143.743 157.042 161.96 157.968 144.736 111.294 215.052 -13.2185 106.077 191.787 -90.3427 72.8296 176.448 -104.546 41.6861 157.246 -87.3004 19.072 154.158 -57.1062 51.4124 215.778 -11.6969 11.5566 15.1984 13.9071 
112.673 155.468 156.648 161.278 164.5 144.893 157.027 161.582 157.411 143.654 113.516 215.602 -13.3842 107.857 193.134 -90.4731 74.5268 177.724 -104.629 43.4266 158.084 -87.3136 21.1222 154.216 -56.393 53.0552 216.352 -11.8707 12.4 15.5233 14.0504 
109.932 155.315 155.832 161.323 166.626 142.666 157.478 161.724 157.818 144.694 112.279 214.667 -13.3183 109.375 194.344 -90.7436 76.2049 178.626 -104.642 45.4145 158.845 -87.3667 23.3549 154.636 -56.5984 54.5671 217.015 -11.7363 12.2028 15.3636 13.9688 
113.566 154.18 155.08 160.595 167.486 142.956 157.868 161.749 157.602 143.884 113.682 214.609 -13.7049 110.972 195.616 -90.969 77.5486 179.636 -104.72 47.01 159.497 -87.1907 25.2404 154.65 -55.5734 56.1533 217.722 -11.7023 13.105 15.5618 14.2114 
111.776 153.198 153.914 159.362 168.204 143.992 157.816 161.06 156.792 142.852 114.922 215.937 -14.3373 112.853 196.5 -91.0653 79.1069 180.231 -104.702 48.7935 159.966 -87.0183 26.9937 154.377 -54.59 57.6719 218.147 -11.9032 14.2386 15.6309 14.5897 
101.956 154.926 154.547 158.123 165.362 143.933 159.213 162.091 156.636 143.365 113.26 217.545 -13.787 114.536 197.4 -90.6969 80.9907 180.766 -104.242 51.6234 160.403 -86.299 29.5069 154.939 -54.0612 58.7728 218.926 -11.5135 13.9922 15.2572 14.5815 
99.7859 156.049 155.411 157.213 168.978 149.205 159.148 161.974 155.136 142.387 112.607 222.578 -17.7476 116.461 198.311 -90.6397 82.8321 181.436 -104.435 54.0748 160.503 -85.944 32.3509 154.719 -53.3869 59.9837 219.521 -11.7311 14.4468 15.5134 14.814 
103.677 157.212 156.447 157.454 168.242 154.798 159.575 162.236 155.545 143.119 119.107 223.266 -15.1964 118.351 199.092 -90.2609 84.7534 181.56 -104.205 56.1749 160.432 -85.8182 34.3461 154.418 -53.0959 61.1638 219.835 -11.6339 14.554 15.3442 15.0624 
128.455 158.524 156.281 157.057 162.682 161.801 159.357 161.871 155.94 142.981 130.716 230.036 -14.9319 122.209 200.653 -89.7336 89.0269 182.269 -103.896 60.3614 161.234 -86.381 37.9062 154.861 -53.8666 64.0785 220.486 -11.7156 14.4479 14.7961 15.1296 
137.971 159.61 156.412 158.4 160.751 169.583 159.46 161.891 157.265 145.35 135.631 237.314 -16.1981 123.251 200.528 -89.1542 90.582 181.74 -103.033 61.5223 161.187 -86.1494 38.1663 154.857 -53.9679 65.2266 220.856 -11.3008 14.2842 14.3114 14.8357 
141.467 160.505 156.166 159.332 159.153 171.515 159.278 161.586 157.888 147.244 137.969 240.843 -16.5508 124.562 200.597 -88.621 92.6196 181.696 -102.139 63.1416 161.697 -85.8139 38.9756 155.694 -54.3603 66.7316 221.81 -10.9826 13.9441 13.9594 14.2618 
137.62 160.741 155.796 159.566 158.254 174.925 158.553 160.884 157.544 147.483 138.806 243.971 -17.9602 126.167 201.07 -88.4816 94.9344 182.265 -101.907 65.1009 162.415 -85.8783 40.2609 156.642 -55.0854 68.2316 222.593 -11.1872 13.7676 13.9251 13.745 
144.51 161.499 156.189 160.606 158.649 174.519 158.702 160.967 158.49 149.657 141.045 246.721 -17.6084 127.225 201.091 -87.8298 96.6078 182.171 -100.981 66.388 162.546 -85.2197 40.8959 156.947 -54.8306 69.4675 223.219 -10.6036 13.7859 13.8268 13.2897 
148.75 162.184 156.756 161.6 160.287 178.085 158.944 161.154 159.237 151.323 142.1 249.77 -17.4484 128.188 201.054 -87.3492 98.106 182.348 -100.369 67.4437 163.079 -84.7989 41.432 158.058 -54.8972 70.7412 224.15 -10.0796 13.6057 13.7716 12.7468 
147.991 162.674 157.321 161.953 161.463 178.576 158.826 161.203 159.268 151.699 142.963 253.982 -17.6334 129.188 201.443 -87.3835 99.4854 182.916 -100.322 68.6252 163.65 -84.6871 42.3122 159.061 -55.247 71.9212 224.751 -9.96405 13.4058 13.8523 12.3862 
141.68 163.185 158.081 162.089 162.712 178.958 158.759 161.348 159.572 152.558 143.338 256.342 -17.0924 130.288 202.034 -87.2501 100.723 183.45 -100.184 69.7839 164.084 -84.6287 43.1176 159.513 -55.5356 72.9833 225.068 -9.70048 13.4629 13.8576 12.3148 
135.77 163.463 158.763 162.066 164.242 176.156 158.561 161.278 159.62 153.311 143.377 258.08 -17.191 131.496 202.378 -86.7572 102.051 183.778 -99.6547 70.8382 164.511 -84.1892 43.8477 160.242 -55.4079 74.0819 225.728 -9.32361 13.4844 13.9117 12.2165 
131.947 163.174 158.901 161.722 166.002 175.142 157.841 160.779 159.244 153.826 143.307 258.378 -17.3427 132.735 202.256 -86.1325 103.261 183.759 -99.038 71.7829 164.936 -83.7794 44.3644 161.209 -55.4408 75.1718 226.511 -9.10398 13.4839 13.8218 12.1814 
130.098 163.102 158.808 161.053 167.204 173.935 157.293 160.34 158.563 153.539 144.075 258.62 -17.0849 133.664 202.211 -85.9837 104.102 183.745 -98.7999 72.6958 165.203 -83.6013 45.0805 161.789 -55.6429 76.0764 226.693 -9.07257 13.4265 13.6857 12.1858 
126.282 163.103 158.781 160.512 168.47 175.595 156.961 160.261 158.29 153.653 144.457 256.993 -16.9899 134.556 202.785 -85.7433 104.847 184.36 -98.5681 73.7145 166.044 -83.5333 46.0489 162.639 -55.8896 77.0137 227.242 -8.85252 13.313 13.4076 12.2483 
121.322 163.502 159.117 160.247 168.974 177.237 157.094 160.572 158.392 154.009 144.819 255.239 -16.5715 135.337 203.359 -85.6129 105.334 184.927 -98.3717 74.3736 166.747 -83.2601 46.7894 163.407 -55.6972 77.9141 228.022 -8.56833 13.2139 13.2797 12.3934 
99.7859 162.298 159.587 159.442 167.297 170.337 156.174 160.666 157.584 153.38 143.67 245.753 -12.2274 135.752 204.175 -85.2258 105.272 186.235 -98.5267 74.5962 167.887 -83.3067 47.0274 163.725 -55.1727 78.7567 228.507 -8.17452 13.7721 13.321 12.613 
99.7859 161.411 160.25 159.224 166.012 168.224 155.578 160.705 157.272 152.835 145.455 244.986 -10.1316 136.146 205.226 -85.338 105.456 187.596 -99.137 74.8883 169.141 -84.076 47.1282 163.814 -54.958 79.405 228.699 -8.14329 14.8175 13.3278 12.7047 
170.287 160.551 160.59 158.957 164.973 166.433 154.956 160.478 156.679 151.838 159.407 247.172 -1.00832 136.48 206.147 -85.5527 105.577 188.759 -99.7069 74.9699 170.225 -84.6826 46.9594 163.932 -54.5184 79.9277 228.93 -8.1194 15.9928 13.436 12.8155 
143.682 160.681 159.26 156.857 162.387 158.731 154.592 159.921 155.2 149.268 161.282 245.938 4.94727 137.388 207.207 -86.0836 106.128 189.656 -100.176 75.9937 170.811 -84.7317 48.5608 164.643 -54.4937 80.4162 229.354 -8.74743 15.6891 13.5215 13.1605 
135.765 160.954 158.369 156.266 161.115 154.779 154.44 159.506 154.516 147.475 161.077 246.484 6.6501 137.266 207.068 -86.1844 105.914 189.47 -99.9846 75.8734 170.428 -84.0798 49.0865 164.649 -53.6916 80.2678 229.502 -8.95547 15.3002 13.7681 13.2272 
145.623 161.279 157.736 156.165 160.576 160.578 154.312 159.228 154.182 146.177 161.787 256.366 0.734151 136.903 206.957 -86.3739 105.488 189.355 -99.8118 75.4694 170.157 -83.4216 49.3097 164.776 -52.9041 80.1837 229.795 -9.13312 14.9523 14.0452 13.2309 
145.623 161.614 157.623 156.581 160.623 160.92 154.495 159.309 154.372 145.949 161.267 256.843 -0.713858 136.421 207.133 -86.5975 104.883 189.42 -99.7352 74.9713 170.074 -82.9124 49.3152 164.987 -52.3365 79.955 230.419 -9.24968 14.5987 14.1998 13.2997 
145.623 162.36 158.324 157.703 161.328 160.984 155.08 159.906 155.252 146.821 160.598 257.502 -2.3894 135.8 207.529 -86.8466 104.107 189.497 -99.6663 74.2742 169.968 -82.3798 48.9096 165.098 -51.5623 79.634 231.377 -9.24471 14.4657 14.3201 13.4344 
145.623 163.063 159.334 159.06 161.856 161.592 155.961 160.677 156.333 147.842 159.818 258.762 -4.17585 135.325 208.01 -86.888 103.462 189.54 -99.518 73.6042 169.778 -81.9152 48.3617 165.155 -50.7769 79.1832 232.277 -9.15343 14.4361 14.4654 13.6407 
145.623 163.716 160.157 160.231 162.268 162.437 156.719 161.278 157.181 148.345 158.704 259.309 -5.62329 134.757 208.391 -86.8967 102.697 189.565 -99.4776 72.7887 169.596 -81.6538 47.6575 165.197 -50.3304 78.4517 232.766 -9.09344 14.3527 14.6154 13.8729 
145.623 163.862 160.214 160.619 162.453 163.43 156.873 161.451 157.482 148.091 157.447 259.416 -6.57346 134.069 208.665 -86.9143 101.826 189.729 -99.6015 72.0057 169.664 -81.7257 46.9906 165.284 -50.4743 77.5336 232.806 -9.20758 14.2132 14.6308 14.0882 
145.623 163.537 160.334 161.007 163.013 164.099 156.813 161.439 157.781 148.442 156.054 259.821 -7.64913 133.21 208.996 -86.7886 100.774 189.768 -99.4153 70.8857 169.589 -81.3895 45.8559 165.334 -49.9945 76.5978 233.378 -9.21218 14.3033 14.7542 14.3224 
145.623 163.432 160.727 161.717 163.324 165.343 156.941 161.626 158.477 149.217 154.262 260.169 -8.91933 132.425 209.465 -86.7631 99.7178 190.054 -99.5274 69.8358 169.946 -81.6384 44.6619 165.932 -50.2392 75.6707 234.175 -9.27059 14.208 14.6221 14.5673 
145.623 162.626 160.056 162.708 163.769 169.158 157.373 161.589 158.931 149.237 151.209 257.827 -10.8125 131.356 210.129 -87.3218 97.8133 190.792 -100.232 67.8681 170.394 -82.1287 42.9334 166.28 -50.43 74.6347 234.642 -9.34872 14.3295 14.8714 15.0811 
145.623 161.728 158.937 163.252 164.149 171.559 157.166 161.153 159.112 149.561 148.249 257.197 -12.4162 129.9 210.601 -87.6659 95.8052 191.177 -100.509 65.9926 170.55 -82.2018 41.2506 166.375 -50.3921 73.3507 235.134 -9.42586 14.3493 14.9651 15.4718 
145.623 161.175 158.702 163.796 165.155 174.138 157.221 161.321 159.677 150.081 145.148 256.049 -13.5451 128.009 211.212 -87.6655 93.5251 192.099 -100.557 63.8508 171.516 -82.1033 39.2742 167.376 -50.1671 71.9851 236.18 -9.22623 14.3899 14.9612 15.6138 
145.623 160.087 157.021 163.069 164.98 173.88 155.997 160.435 159.171 149.405 142.504 257.1 -14.8701 125.99 211.426 -87.6914 91.2805 192.711 -100.678 61.7694 172.056 -82.2543 37.4443 167.699 -50.2843 70.2197 236.523 -9.43906 14.4247 14.9535 15.7477 
145.623 160.039 157.206 163.064 164.841 172.08 155.706 160.429 159.342 149.117 139.615 258.321 -16.5975 123.559 212.049 -88.1707 88.7607 193.611 -101.101 59.5313 172.892 -82.4342 35.5167 168.537 -50.1802 68.4338 237.4 -9.55204 14.395 14.9205 15.7077 
145.623 159.785 156.395 162.361 164.078 169.018 154.988 159.962 159.006 148.318 136.839 260.385 -18.1359 121.202 212.687 -88.5709 86.3771 194.457 -101.434 57.3561 173.666 -82.6418 33.7233 169.143 -50.2224 66.454 237.983 -9.85645 14.3701 14.9167 15.7163 
145.623 159.144 155.683 161.63 163.809 163.075 154.188 159.679 158.879 147.911 131.718 265.005 -20.7833 116.589 214.629 -89.2418 81.712 196.99 -102.199 52.7916 176.051 -83.3239 29.5103 171.351 -50.6935 62.4134 239.851 -10.3316 14.3762 15.01 15.6836 
145.622 159.039 155.6 161.467 163.879 167.941 153.302 159.543 159.064 147.964 126.194 261.505 -21.5617 114.429 216.028 -89.0161 79.7403 198.858 -101.974 50.7379 178.344 -83.1347 27.7916 174.081 -50.7423 60.8338 242.037 -10.2668 13.8862 14.8849 15.4562 
145.623 158.761 156.135 161.229 164.155 169.685 153.41 160.113 159.292 147.275 121.985 257.603 -21.9457 111.802 217.25 -89.434 76.919 200.553 -102.337 48.143 179.86 -82.859 26.1088 175.524 -49.816 58.9484 243.608 -10.345 14.0258 15.1826 15.4435 
145.623 159.558 157.477 159.139 159.887 168.56 152.586 159.069 157.997 143.177 117.525 255.293 -22.5137 108.957 218.028 -89.793 74.3572 201.257 -102.082 45.9614 180.693 -81.8448 25.7066 176.424 -47.6945 56.4806 244.9 -10.6666 14.1979 15.3081 15.2464 
145.623 160.417 158.256 158.688 160.045 163.931 151.776 158.297 157.086 141.002 112.77 253.744 -22.9574 106.719 219.682 -89.7666 72.2727 203.04 -101.849 43.9085 182.731 -81.4308 24.4086 178.803 -47.1793 54.391 246.815 -10.8705 13.9312 15.3156 15.1502 
145.623 160.923 158.82 158.217 160.234 165.475 150.863 157.345 155.869 139.114 108.59 252.477 -22.9174 104.667 221.595 -89.87 70.3389 205.039 -101.858 42.2143 184.692 -81.3152 23.3799 180.768 -47.0499 52.2712 248.502 -11.1026 13.7797 15.3466 15.1301 
99.7859 161.847 158.798 158.507 161.874 161.159 150.628 156.99 155.614 137.927 96.121 244.707 -19.9201 102.43 223.132 -89.6741 68.2397 206.947 -101.435 39.8822 186.904 -81.0306 21.426 183.031 -46.4309 50.2491 250.263 -11.0605 13.946 15.3193 14.9566 
99.7859 162.86 158.62 158.809 163.495 156.442 150.597 156.607 155.275 136.837 91.3582 243.051 -18.1892 100.451 224.724 -89.5014 66.3452 208.915 -101.201 37.6882 189.37 -81.3903 19.0253 185.629 -46.9573 48.1648 251.91 -11.0394 13.7557 15.0772 14.8084 
99.7859 163.735 158.53 159.034 163.75 140.712 150.679 156.083 154.651 135.788 84.1598 239.687 -14.1756 98.6514 226.559 -89.632 64.5769 210.709 -101.086 35.9441 191.128 -81.3371 17.7926 187.492 -46.7752 46.1545 253.522 -11.1517 13.7186 15.1214 14.7751 
99.7859 164.361 158.282 159.426 163.322 136.569 150.9 155.895 154.349 135.829 81.2527 240.828 -13.4019 97.0555 228.214 -89.7914 63.1211 212.358 -101.296 34.3214 193.108 -82.2088 15.5179 189.456 -47.9618 44.2445 254.826 -11.372 13.4364 14.7895 14.6715 
99.7859 165.034 158.574 160.004 163.128 127.788 151.022 155.739 154.452 137.212 77.7344 244.668 -12.8449 95.6946 230.799 -89.7863 61.9885 214.527 -101.215 33.2987 195.481 -82.5535 13.9449 191.902 -48.8955 42.7282 257.058 -11.4616 12.9165 14.4251 14.5915 
