155.107 172.169 168.119 170.93 167.71 139.598 164.649 163.164 163.184 137.454 -55.5761 231.591 43.2368 -83.6607 218.6 -37.1761 -48.2169 209.453 -39.8102 -22.2046 207.711 -23.3151 -15.772 216.094 20.2351 -51.185 278.175 38.8918 21.6683 7.03969 11.4213 
155.151 172.089 168.021 170.825 166.993 139.697 164.534 163.063 163.121 136.971 -55.5816 231.337 43.3497 -83.529 218.382 -37.0609 -48.2407 209.393 -39.8361 -22.1297 207.752 -23.4167 -15.6534 216.182 20.2284 -51.1482 278.122 38.8712 21.7133 7.04271 11.2833 
155.219 172.046 168.004 170.796 167.121 139.826 164.501 162.972 163.07 136.79 -55.59 231.168 43.3532 -83.5616 218.37 -37.1176 -48.3244 209.434 -39.9543 -22.1539 207.822 -23.6066 -15.6053 216.218 20.093 -51.129 278.112 38.8174 21.7232 7.03569 11.2395 
155.154 172.004 167.947 170.705 167.242 139.669 164.518 162.93 163.03 136.905 -55.7754 231.268 43.3 -83.6294 218.489 -37.1755 -48.4559 209.59 -40.0873 -22.2901 207.93 -23.7627 -15.691 216.225 19.9189 -51.1645 278.136 38.8038 21.6934 7.02764 11.1894 
155.143 171.952 167.906 170.628 167.287 139.569 164.492 162.856 163.011 136.754 -55.8525 231.328 43.2457 -83.5422 218.447 -37.1456 -48.5502 209.7 -40.1728 -22.3052 208.131 -23.9549 -15.6931 216.34 19.8059 -51.1537 278.179 38.7711 21.7748 7.0034 11.0366 
155.195 171.883 167.85 170.556 166.914 139.626 164.433 162.79 162.933 136.745 -55.936 231.318 43.206 -83.5723 218.398 -37.1665 -48.6852 209.74 -40.2475 -22.3915 208.201 -24.0513 -15.6084 216.402 19.6445 -51.211 278.22 38.7102 21.6408 7.0145 10.9496 
155.157 171.927 167.895 170.597 166.726 139.543 164.516 162.864 162.97 136.745 -56.1785 231.459 42.9785 -83.7566 218.495 -37.3526 -48.9065 209.81 -40.4121 -22.6224 208.187 -24.1732 -15.7423 216.412 19.3782 -51.3505 278.241 38.6068 21.4212 7.03091 10.9267 
155.082 171.981 167.957 170.64 166.783 139.409 164.538 162.928 163.048 137.569 -56.7704 231.658 42.6479 -83.9474 218.633 -37.5404 -49.2126 210.017 -40.7056 -22.8425 208.445 -24.537 -15.5839 216.531 18.4676 -51.6046 278.336 38.4524 20.7083 7.01708 10.8295 
154.993 172.024 168.007 170.635 167.36 139.3 164.537 162.958 163.081 138.582 -57.4068 231.921 42.2877 -84.1867 218.846 -37.7046 -49.5981 210.353 -41.0022 -23.1189 208.863 -24.8986 -15.4442 216.734 17.5539 -51.9953 278.495 38.346 19.9778 7.00954 10.7039 
154.96 172.014 167.915 170.542 167.69 139.467 164.298 162.776 162.946 139.335 -58.0734 232.005 42.1097 -84.6074 219.299 -37.8777 -49.996 210.822 -41.2503 -23.5147 209.281 -25.1416 -15.5727 216.883 16.929 -52.4577 278.721 38.1941 19.5299 7.00871 10.7317 
154.788 172.008 167.867 170.379 167.721 139.442 164.149 162.631 162.861 139.971 -59.0015 232.152 41.6308 -84.9765 219.59 -38.1248 -50.5057 211.269 -41.6578 -23.9823 209.755 -25.5828 -15.7853 217.063 16.2137 -52.9975 278.873 37.9728 19.1954 6.99343 10.6177 
154.797 172.053 167.901 170.436 168.111 139.441 164.015 162.674 163.058 140.955 -59.8098 232.391 41.2581 -85.3531 219.839 -38.2714 -50.9594 211.683 -41.9042 -24.3957 210.322 -25.9143 -16.0039 217.295 15.5787 -53.5928 279.056 37.8075 18.8333 6.93335 10.56 
154.798 172.07 167.91 170.471 169.29 139.491 163.873 162.841 163.335 142.184 -60.6472 232.503 41.1475 -86.0702 220.249 -38.5423 -51.51 212.166 -42.2725 -25.0001 210.867 -26.3697 -16.3801 217.452 14.9388 -54.2591 279.189 37.6427 18.5783 6.8415 10.7047 
154.801 172.042 167.964 170.525 171.214 139.374 163.682 163.002 163.431 143.399 -61.3132 233.076 41.0443 -86.8021 220.855 -38.6314 -52.0189 212.823 -42.4316 -25.5996 211.602 -26.5546 -16.6946 218.012 14.4264 -54.9878 279.637 37.5972 18.2203 6.77408 10.8803 
155.023 172.01 167.982 170.498 172.807 139.333 163.706 163.03 163.339 143.89 -60.9422 233.173 41.4631 -87.5902 221.41 -38.7879 -52.5918 213.529 -42.6205 -26.0966 212.384 -26.8555 -16.8866 218.705 13.7728 -55.6767 279.941 37.6298 17.8832 6.80254 11.0346 
155.116 172.144 168.238 170.6 173.778 139.329 163.628 163.134 163.397 144.978 -60.5841 233.332 41.6296 -88.3328 222.088 -39.0189 -53.1794 214.348 -42.9346 -26.6039 213.2 -27.1845 -17.1155 219.326 12.9189 -56.4205 280.201 37.7336 17.3039 6.84822 11.1437 
155.225 172.126 168.324 170.443 173.371 139.303 163.235 162.981 163.231 145.528 -60.3845 233.294 41.598 -89.0482 222.738 -39.2646 -53.9137 215.329 -43.6175 -27.1115 214.177 -27.9717 -17.105 219.961 11.5753 -57.1097 280.295 37.7614 16.6011 6.93261 11.1258 
155.424 172.162 168.512 170.373 172.786 138.852 162.747 162.868 162.935 145.14 -60.4359 233.444 41.539 -89.6719 223.485 -39.427 -54.6043 216.366 -44.1046 -27.7648 215.168 -28.4466 -17.5199 220.657 10.6932 -57.8704 280.408 37.986 16.0493 6.94035 11.0699 
155.446 172.008 168.272 169.93 173.924 138.839 162.261 162.332 162.344 144.25 -60.463 233.191 41.4873 -90.3243 223.961 -39.6892 -55.2561 217.12 -44.5959 -28.4199 215.76 -28.9465 -18.2031 220.882 10.5136 -58.5387 280.334 37.9413 16.4159 6.97313 11.0846 
155.536 171.942 168.139 169.667 174.106 138.81 162 162.13 162.162 144.33 -60.9889 232.981 41.578 -91.1549 224.517 -40.0527 -55.991 217.648 -44.9524 -29.2552 216.074 -29.2726 -19.1538 220.939 10.3408 -59.2363 280.294 37.8668 16.5938 6.95942 11.1854 
155.548 171.98 168.165 169.629 174.732 138.896 161.955 162.059 162.082 143.926 -61.1798 233.082 41.7697 -91.8525 224.773 -39.9771 -56.561 218.021 -44.8735 -29.8167 216.435 -29.2625 -19.9355 221.207 10.6716 -59.9138 280.45 37.9611 17.0314 6.96949 11.2811 
155.503 171.903 168.045 169.419 174.431 138.908 161.849 161.739 161.652 142.47 -61.5468 233.144 41.8393 -92.8914 225.385 -40.1449 -57.3605 218.582 -45.0132 -30.5297 216.893 -29.4508 -20.7533 221.561 10.9252 -60.6655 280.615 38.0326 17.5554 7.05604 11.4624 
155.539 172 168.048 169.465 173.243 138.993 161.688 161.574 161.577 141.868 -61.5317 233.133 41.7368 -93.5439 225.542 -40.1814 -57.8804 218.798 -45.1056 -30.952 217.033 -29.5866 -21.4166 221.722 10.9483 -61.3493 280.616 38.086 17.7175 7.12916 11.5473 
155.524 172.036 168.314 169.587 172.263 138.531 161.643 161.755 161.585 141.241 -61.9912 233.497 41.5944 -94.1601 225.789 -39.9955 -58.5299 219.182 -45.1137 -31.5865 217.424 -29.6627 -21.8801 222.139 10.736 -61.9278 280.675 38.4743 17.4568 7.09859 11.4949 
155.466 171.866 168.138 169.385 170.674 138.542 161.388 161.448 161.315 140.602 -62.3732 233.406 41.7615 -94.9845 225.913 -39.9218 -59.3321 219.493 -45.3287 -32.0608 217.771 -30.0442 -22.0118 222.238 10.562 -62.5072 280.561 38.6257 17.5794 7.22909 11.521 
155.33 171.708 168.033 169.182 170.453 138.292 161.091 161.203 161.184 139.852 -63.0774 233.321 41.5649 -95.6093 225.758 -39.9033 -60.0592 219.651 -45.6569 -32.5752 218.13 -30.6594 -22.3571 222.305 10.2174 -63.0456 280.309 38.592 17.7784 7.21213 11.4636 
155.176 171.499 167.778 168.922 170.755 137.845 160.868 160.961 160.934 139.13 -63.4317 233.346 41.6359 -96.0073 225.338 -39.6895 -60.4718 219.542 -45.6703 -32.8772 218.198 -30.8545 -22.5397 222.334 10.2465 -63.4762 280.061 38.5959 18.0722 7.22651 11.4557 
155.092 171.346 167.585 168.68 170.159 137.35 160.771 160.729 160.476 138.231 -63.9691 233.706 41.637 -96.4831 225.239 -39.5129 -60.9546 219.631 -45.6156 -33.3627 218.394 -30.7881 -22.7229 222.744 10.2077 -63.9801 280.103 38.6098 18.0378 7.26529 11.4448 
155.157 171.216 167.286 168.48 171.001 137.449 160.617 160.495 160.244 138.281 -64.2335 233.566 41.841 -96.9731 225.074 -39.3233 -61.4004 219.557 -45.4206 -33.7735 218.271 -30.6226 -23.1841 222.639 10.5062 -64.4715 280.066 38.6461 18.3577 7.33372 11.4733 
155.272 171.252 167.28 168.556 171.427 137.794 160.796 160.594 160.379 138.813 -64.5078 233.334 41.9591 -97.3834 224.876 -39.29 -61.7375 219.321 -45.2519 -34.08 217.935 -30.4211 -23.7129 222.349 10.8725 -64.9168 279.987 38.7005 18.6239 7.40224 11.5079 
155.335 171.301 167.454 168.642 171.45 137.903 160.954 160.703 160.451 139.074 -64.6022 233.361 41.9092 -97.824 225.011 -39.3639 -62.1386 219.344 -45.1993 -34.4292 217.88 -30.3362 -24.1732 222.362 10.8635 -65.4318 280.004 38.78 18.5372 7.46387 11.5162 
155.305 171.357 167.661 168.816 171.134 137.897 161.151 160.913 160.745 140.028 -65.0468 233.536 41.6784 -98.1664 225.099 -39.3887 -62.5532 219.372 -45.1862 -34.7566 217.907 -30.3558 -24.2841 222.392 10.473 -65.9201 279.977 38.9231 18.0734 7.4903 11.4415 
155.008 171.218 167.568 168.776 170.263 137.611 160.878 160.663 160.573 140.019 -65.7725 233.603 41.3754 -98.6929 225.259 -39.484 -63.1312 219.537 -45.3836 -35.3582 217.885 -30.5318 -24.7283 222.244 10.0516 -66.4208 279.764 38.9857 17.7887 7.50364 11.4088 
154.912 171.103 167.484 168.63 169.626 137.453 160.617 160.374 160.221 139.921 -66.1535 233.205 41.4213 -99.2666 225.349 -39.5593 -63.749 219.638 -45.5843 -35.9877 217.844 -30.7372 -24.9636 222.137 9.47214 -66.8628 279.403 39.0655 17.3698 7.52145 11.3887 
154.829 170.981 167.34 168.416 169.016 137.324 160.267 160.018 159.877 139.631 -66.8054 232.702 41.4949 -99.5096 225.17 -39.4935 -64.1741 219.502 -45.6132 -36.4953 217.717 -30.811 -25.2804 221.899 9.19289 -67.2641 279 39.1609 17.1041 7.43901 11.2611 
155.07 170.921 167.345 168.314 168.831 137.066 159.91 159.864 159.689 138.93 -67.3335 231.843 41.8256 -99.7554 224.808 -39.3849 -64.6407 219.148 -45.5541 -37.13 217.457 -30.8346 -25.7502 221.638 9.028 -67.5952 278.441 39.3657 16.8124 7.25779 11.0985 
155.072 170.816 167.237 168.064 168.516 136.838 159.801 159.663 159.372 138.705 -68.0218 231.446 42.0284 -99.9937 224.35 -39.3093 -65.1029 218.719 -45.4699 -37.6993 217.236 -30.7941 -26.0149 221.675 8.64252 -68.0018 278.074 39.4089 16.2703 7.14701 10.9286 
155.054 170.82 167.421 168.139 168.52 136.191 159.864 159.843 159.344 138.086 -68.5459 231.459 42.0412 -100.367 224.154 -39.2361 -65.5447 218.65 -45.4859 -38.256 217.336 -30.8275 -26.4375 221.948 8.41504 -68.5121 277.86 39.6291 15.9732 7.03986 10.8461 
154.759 170.861 167.339 168.15 168.85 136.14 159.701 159.662 159.188 137.759 -69.0451 231.601 42.0722 -100.858 224.111 -39.1233 -65.95 218.705 -45.3771 -38.7357 217.296 -30.6099 -27.101 221.869 8.79138 -69.1365 277.861 39.6752 16.1939 7.06884 10.9145 
154.521 170.873 167.293 168.178 169.152 136.199 159.737 159.66 159.118 137.616 -69.5357 231.685 42.0708 -101.378 223.921 -38.9541 -66.2622 218.601 -45.1953 -39.0743 217.036 -30.2762 -27.6965 221.552 9.42825 -69.749 277.8 39.7626 16.6894 7.18125 11.0582 
154.388 170.802 167.324 168.167 169.287 136.144 159.778 159.699 159.02 138.604 -70.7261 231.315 42.4413 -102.755 223.666 -38.6625 -67.5389 218.671 -45.1564 -40.1943 217.156 -30.215 -28.2879 221.667 8.98279 -71.1874 277.542 40.0552 16.3033 7.32598 11.1159 
154.557 170.786 167.206 168.164 168.987 136.542 159.886 159.83 159.067 139.086 -70.8287 230.74 43.047 -103.341 223.474 -38.4325 -67.8271 218.63 -45.0255 -40.3419 217.098 -30.0087 -28.3279 221.557 9.17073 -71.6415 277.379 40.2735 16.4488 7.4966 11.3343 
154.533 170.808 167.129 168.052 169.379 136.564 159.981 159.932 159.124 139.504 -71.3549 230.362 43.1734 -104.06 222.994 -38.3928 -68.4242 218.349 -45.1355 -40.8147 216.916 -30.1543 -28.6093 221.367 8.91287 -72.2798 276.982 40.2838 16.3434 7.55995 11.4338 
154.516 170.885 166.946 167.869 170.262 136.487 160.049 159.912 159.086 139.794 -71.7852 230.1 43.3148 -104.718 222.607 -38.3132 -68.9494 218.18 -45.0907 -41.2995 216.813 -30.1293 -29.0032 221.206 8.86277 -72.9118 276.62 40.3514 16.3424 7.59912 11.5464 
154.776 171.004 166.897 167.869 171.977 136.547 160.259 160.016 159.213 140.369 -71.7253 229.953 43.6082 -105.52 222.701 -38.3601 -69.5571 218.307 -45.0436 -41.8434 216.888 -30.1507 -29.7434 221.158 8.93196 -73.5657 276.498 40.465 16.5628 7.66285 11.6922 
154.894 171.202 166.972 168.092 173.177 136.634 160.724 160.344 159.485 140.477 -71.8098 230.13 43.9029 -106.35 222.799 -38.3588 -70.128 218.379 -44.9237 -42.303 216.867 -29.9607 -30.4899 221.2 9.40323 -74.2551 276.625 40.5691 17.0049 7.83907 11.8684 
154.999 171.203 167.011 168.181 173.085 136.644 161.043 160.502 159.402 140.216 -71.8028 230.205 44.4036 -107.243 223.139 -38.2762 -70.8521 218.742 -44.8407 -42.8883 217.049 -29.7191 -31.1065 221.504 9.69974 -74.9771 276.758 40.8612 17.1891 8.09329 11.9831 
154.844 171.242 167.046 168.108 172.247 136.521 161.286 160.663 159.412 140.391 -72.2919 229.974 44.5462 -108.033 223.079 -38.2257 -71.6134 218.79 -44.8997 -43.5061 217.023 -29.7331 -31.4772 221.565 9.37641 -75.6083 276.488 41.0447 16.8806 8.23724 12.011 
154.855 171.327 167.256 168.196 172.283 136.44 161.343 160.863 159.603 141.162 -72.8277 229.828 44.6224 -108.704 222.905 -38.1627 -72.3988 218.722 -45.0058 -44.2221 217.025 -29.9159 -31.9413 221.629 8.77063 -76.2414 276.316 41.085 16.3588 8.21078 11.9337 
154.798 171.366 167.204 168.117 172.995 136.297 161.147 160.729 159.558 141.869 -73.3606 229.795 44.3828 -109.326 222.64 -38.237 -72.9667 218.498 -45.1217 -44.7835 216.804 -30.0585 -32.5021 221.36 8.3673 -76.8835 275.969 41.0357 16.0106 8.17213 11.9864 
154.656 171.38 167.236 168.046 173.674 135.922 160.993 160.606 159.411 141.884 -74.0239 230.135 43.9637 -109.983 222.495 -38.2794 -73.627 218.496 -45.2648 -45.4532 216.82 -30.2573 -33.2261 221.323 8.09907 -77.5467 275.815 40.9567 15.8976 8.12849 12.0005 
154.614 171.479 167.3 168.084 175.436 135.586 161.079 160.71 159.579 142.734 -74.6518 230.539 43.762 -110.902 222.839 -38.4693 -74.3491 218.825 -45.5036 -46.2325 217.012 -30.573 -34.2394 221.291 7.80377 -78.2384 275.784 41.0113 15.9164 8.07793 12.1556 
154.661 171.712 167.598 168.38 176.328 135.512 161.557 161.19 159.918 143.108 -74.9591 230.983 43.7745 -111.775 222.98 -38.436 -75.0614 219.103 -45.6134 -46.8291 217.254 -30.6461 -35.0027 221.455 7.84327 -78.9828 275.95 41.15 16.1147 8.18874 12.2633 
154.735 171.774 167.719 168.46 175.814 135.579 161.745 161.468 160.118 143.314 -75.2582 230.752 43.9643 -112.725 223.007 -38.4839 -75.8625 219.235 -45.888 -47.4134 217.276 -30.8967 -35.5911 221.432 7.62372 -79.5955 275.819 41.2 16.1817 8.36821 12.3867 
154.445 171.818 167.959 168.479 174.667 135.068 161.952 161.802 160.543 144.027 -76.434 230.827 43.8586 -113.834 223.138 -38.5568 -77.0812 219.386 -46.337 -48.3802 217.46 -31.558 -36.0493 221.545 6.73214 -80.15 275.663 41.2385 15.7263 8.37314 12.3444 
154.638 171.655 168.028 168.446 174.148 135.246 161.827 161.852 160.697 144.829 -76.7345 230.064 44.0537 -114.449 222.356 -38.3277 -77.948 218.674 -46.374 -49.0623 216.995 -31.8511 -36.2937 221.31 6.02626 -80.596 275.2 41.168 15.2284 8.33309 12.1841 
154.504 171.618 167.95 168.368 174.615 135.142 161.653 161.694 160.68 145.885 -77.5351 229.597 43.9967 -114.868 221.639 -38.386 -78.4533 217.994 -46.4249 -49.5969 216.448 -31.9889 -36.6639 220.817 5.54064 -81.0762 274.705 41.0078 14.8266 8.23406 12.1294 
154.388 171.585 167.9 168.355 175.634 134.797 161.471 161.491 160.623 146.375 -78.2335 229.615 43.7176 -115.234 221.245 -38.3962 -78.8824 217.658 -46.3983 -50.1429 216.199 -32.0361 -37.2721 220.57 5.31898 -81.5893 274.404 40.9432 14.6456 8.11269 12.0873 
154.313 171.715 168.146 168.492 177.353 134.414 161.528 161.639 160.999 147.794 -79.3146 230.025 43.3779 -115.998 221.713 -38.5578 -79.6892 218.105 -46.6437 -51.0112 216.714 -32.473 -38.1856 220.884 4.53893 -82.2949 274.519 40.9956 14.2092 7.94263 12.0687 
154.412 171.93 168.283 168.749 175.831 134.598 161.891 162.057 161.655 149.115 -80.2334 230.109 43.3334 -116.643 221.895 -38.5067 -80.1532 218.322 -46.5879 -51.5479 216.922 -32.5419 -39.1991 220.76 4.78491 -82.9621 274.658 41.181 14.5528 7.8294 12.1927 
154.472 172.089 168.527 168.93 175.787 134.768 162.306 162.489 162.164 150.02 -80.9388 230.092 43.6124 -117.378 221.768 -38.2204 -80.8892 218.332 -46.4422 -52.063 217.092 -32.497 -39.6987 220.922 4.72617 -83.6631 274.765 41.4262 14.4668 7.90172 12.1918 
154.548 172.17 168.616 168.951 175.986 134.829 162.452 162.59 162.433 150.601 -81.5452 229.918 43.853 -118.017 221.553 -37.9771 -81.6696 218.135 -46.2533 -52.6807 217.021 -32.4483 -40.2138 220.971 4.60266 -84.2383 274.69 41.6253 14.2165 7.92137 12.0914 
154.428 172.05 168.531 168.794 175.262 134.81 162.352 162.405 162.308 150.665 -82.1671 229.374 44.2747 -118.635 221.018 -37.7592 -82.5084 217.497 -46.0576 -53.3508 216.485 -32.3486 -40.3796 220.725 4.40296 -84.7597 274.323 41.6833 13.8439 7.98365 11.9322 
154.201 171.873 168.227 168.485 175.057 134.626 161.976 161.881 161.859 149.86 -82.9344 228.875 44.383 -119.216 220.432 -37.742 -83.1886 216.823 -46.0373 -53.9696 215.895 -32.3965 -40.7115 220.281 4.39868 -85.2667 273.791 41.6147 13.7994 7.99199 11.8663 
154.375 171.764 168.005 168.298 174.579 134.804 161.558 161.472 161.655 149.237 -83.552 227.92 44.4674 -119.649 219.671 -37.8541 -83.7861 216.025 -46.113 -54.5043 215.237 -32.585 -41.1502 219.665 4.40289 -85.7496 273.12 41.4226 13.8656 7.96595 11.7568 
153.976 171.698 168.077 168.304 173.621 134.326 161.378 161.394 161.682 148.999 -84.7932 227.953 44.432 -120.154 219.508 -37.9029 -84.4199 215.85 -46.1643 -55.2208 215.221 -32.7317 -41.898 219.682 4.27151 -86.3892 272.878 41.4219 13.7541 7.85057 11.6658 
153.687 171.541 168.034 168.26 173.025 133.897 161.316 161.392 161.692 148.271 -86.0597 228.178 44.3938 -120.59 219.277 -37.6665 -85.0363 215.758 -46.0035 -55.9689 215.417 -32.7564 -42.6343 219.983 4.27948 -87.1159 272.889 41.4657 13.8167 7.7025 11.5237 
153.62 171.572 168.161 168.373 171.807 134.006 161.526 161.588 161.817 147.229 -86.8429 228.076 44.5857 -121.3 219.04 -37.452 -85.7723 215.652 -45.8743 -56.5894 215.407 -32.6482 -43.2463 219.959 4.79566 -87.8107 272.899 41.5835 14.2698 7.7793 11.5033 
153.7 171.684 168.861 168.601 170.619 134.121 161.659 162.419 161.944 146.154 -88.1095 227.555 44.3978 -121.701 218.489 -37.186 -86.8916 215.608 -46.0986 -57.9731 215.191 -32.8981 -44.5856 219.762 4.59628 -88.441 272.654 41.5702 14.2316 7.60351 11.058 
153.23 171.529 168.474 168.267 169.033 133.985 161.396 161.862 161.58 145.579 -89.1764 227.111 44.2321 -122.146 217.887 -37.3426 -87.4093 214.918 -46.0474 -58.454 214.585 -32.832 -44.9261 219.256 4.79734 -89.0072 272.165 41.3237 14.2993 7.62188 11.0009 
153.087 171.735 169.035 168.532 168.327 134.138 161.538 162.496 161.779 144.885 -90.832 226.763 43.2935 -122.362 217.247 -37.4585 -88.1236 214.525 -46.3839 -59.5137 213.955 -33.1124 -46.2586 218.582 4.70814 -89.5723 271.664 41.1647 14.3122 7.40684 10.6937 
152.834 171.994 169.387 168.702 167.957 134.177 161.734 162.914 161.911 145.064 -92.1484 226.431 42.6949 -122.533 216.729 -37.6753 -88.7948 214.251 -46.6999 -60.5706 213.41 -33.3618 -47.7784 218.048 4.38174 -90.1255 271.229 40.9565 14.2476 7.21886 10.3706 
152.775 172.352 170.097 169.238 168.266 133.92 162.359 163.788 162.46 145.547 -93.2506 226.673 42.1561 -122.742 216.356 -37.6848 -89.4221 214.133 -46.8611 -61.5476 213.243 -33.5752 -49.0906 218.018 3.98842 -90.7369 271.105 40.8936 14.1344 7.0089 10.0808 
152.824 172.651 170.771 169.657 168.682 133.378 162.919 164.538 162.924 146.101 -94.6686 227.282 41.8003 -123.17 216.277 -37.5459 -90.2731 214.285 -46.9195 -62.6606 213.447 -33.7244 -50.087 218.455 3.37623 -91.4878 271.299 40.9094 13.6279 6.81759 9.81267 
152.884 172.833 171.251 169.914 169.58 133.364 163.354 165.061 163.16 147.12 -95.8391 227.701 41.596 -123.438 216.008 -37.2839 -90.8339 214.21 -46.7645 -63.348 213.605 -33.5885 -50.333 218.947 2.84782 -92.3107 271.516 41.0484 12.9182 6.7115 9.59283 
152.862 172.901 171.471 169.966 169.382 133.634 163.503 165.255 163.13 147.111 -96.8466 227.666 41.3386 -123.944 215.8 -37.3238 -91.5948 213.983 -46.8157 -64.1967 213.319 -33.5673 -50.8445 218.853 2.65608 -93.0951 271.545 40.9115 12.6777 6.69974 9.39625 
152.6 172.801 171.331 169.848 169.452 133.654 163.403 165.024 162.828 146.764 -97.8881 227.521 40.9505 -124.528 215.575 -37.503 -92.3242 213.587 -46.892 -65.0011 212.823 -33.5653 -51.6724 218.488 2.533 -93.8359 271.348 40.648 12.6116 6.70906 9.24802 
152.47 172.824 171.36 169.84 169.429 133.774 163.286 164.947 162.817 146.759 -98.9275 227.542 40.6106 -125.267 215.674 -37.787 -93.1875 213.533 -47.0817 -65.9205 212.677 -33.7634 -52.7596 218.31 2.32975 -94.6066 271.346 40.3833 12.5946 6.66742 9.14666 
151.581 172.86 171.485 169.982 169.445 132.804 163.555 165.102 162.992 146.793 -100.672 228.482 40.0272 -125.987 216.035 -37.8588 -94.1693 213.669 -47.0875 -66.9691 212.834 -33.8534 -53.7234 218.702 1.86369 -95.2493 271.557 40.3376 12.1735 6.58348 8.91531 
150.5 172.997 171.72 170.151 169.842 132.499 163.975 165.316 163.163 146.841 -102.348 229.614 39.3877 -126.597 216.365 -37.9849 -94.8492 213.784 -46.9657 -67.6232 213.007 -33.6654 -54.4352 219.059 1.94133 -95.9909 271.955 40.3903 12.0566 6.605 8.77351 
150.55 172.915 171.75 170.084 169.656 133.017 164.028 165.137 162.929 146.94 -103.489 229.578 39.2959 -127.175 216.482 -37.9393 -95.4798 213.738 -46.7879 -68.217 213.047 -33.4274 -54.5543 219.399 1.81441 -96.6763 272.244 40.428 11.6728 6.63974 8.66812 
150.375 173.003 171.892 170.209 170.461 133.616 164.34 165.228 163.05 147.883 -104.755 229.703 38.7657 -127.788 216.397 -37.9945 -96.2492 213.483 -46.7605 -68.9456 212.887 -33.3955 -54.6577 219.555 1.32047 -97.285 272.396 40.3863 11.066 6.61334 8.51515 
149.915 173.062 171.434 170.588 171.402 132.859 162.92 164.149 163.185 148.937 -106.378 230.35 38.2236 -129.795 217.499 -38.277 -97.7228 213.769 -46.8566 -70.3489 212.662 -33.3692 -55.3604 219.026 0.45783 -98.5336 272.21 40.2275 10.2602 6.72178 8.91329 
150.162 173.254 170.962 170.87 172.771 132.269 162.326 163.452 163.422 149.861 -107.271 230.943 37.4276 -130.43 218.074 -38.508 -98.1683 213.899 -46.8393 -70.8151 212.541 -33.287 -55.4571 218.816 -0.172725 -98.887 272.016 40.1387 9.54596 6.72801 9.06135 
149.922 173.244 170.524 170.979 173.023 131.262 161.756 162.789 163.469 150.394 -108.29 231.92 36.8685 -131.395 218.897 -38.6267 -98.9589 214.457 -46.8843 -71.6431 212.845 -33.3642 -55.865 218.995 -0.961244 -99.4289 272.085 40.0227 8.94744 6.72473 9.2337 
149.922 173.319 170.311 171.192 173.267 130.484 161.615 162.514 163.702 151.139 -109.173 232.918 36.4171 -132.191 219.773 -38.7653 -99.6884 215.224 -46.9795 -72.4389 213.417 -33.5077 -56.3633 219.493 -1.68168 -99.9947 272.401 39.9912 8.47469 6.70262 9.30216 
149.309 173.63 170.239 171.447 173.956 129.855 161.671 162.522 164.142 152.4 -109.804 233.868 35.8416 -132.634 220.151 -38.9467 -100.044 215.464 -46.9756 -72.8244 213.432 -33.4461 -56.6923 219.442 -2.02335 -100.401 272.46 39.9509 8.12107 6.72524 9.36836 
148.811 173.665 170.034 171.455 174.252 129.383 161.536 162.367 164.282 152.913 -110.377 234.421 35.7129 -133.309 220.497 -39.0579 -100.619 215.739 -47.0394 -73.2984 213.548 -33.4786 -56.9941 219.472 -2.25575 -100.821 272.533 39.925 7.98138 6.81797 9.46857 
148.306 173.616 169.902 171.433 174.061 129.056 161.452 162.183 164.217 152.869 -110.921 235.032 35.741 -133.902 220.819 -38.9955 -101.173 216.137 -47.0544 -73.8144 213.999 -33.5421 -57.2806 220.033 -2.52944 -101.278 272.929 39.8631 7.86093 6.83581 9.51392 
148.007 173.445 169.719 171.343 172.978 128.971 161.439 161.932 164.034 152.516 -111.04 235.372 35.6909 -134.459 221.102 -39.0499 -101.591 216.45 -47.1221 -74.1507 214.36 -33.6277 -57.3975 220.483 -2.72796 -101.731 273.226 39.7576 7.88111 6.89853 9.61055 
