118.317 168.948 163.599 163.781 163.264 117.603 157.29 158.644 157.162 138.536 -165.406 244.543 0.555907 -188.493 225.726 -76.6533 -151.711 225.735 -88.4276 -122.993 221.374 -72.8645 -107.566 223.948 -37.7594 -154.642 269.428 5.41469 11.8223 9.36887 13.3311 
120.462 169.121 163.612 163.983 163.378 119.713 157.731 158.861 157.285 138.103 -165.704 243.877 0.25952 -188.566 225.854 -76.5646 -151.777 225.841 -88.2049 -123.071 221.326 -72.4806 -107.813 223.845 -37.0364 -154.866 269.554 5.72675 12.1403 9.48717 13.2813 
123.112 169.269 163.679 164.145 163.598 120.884 158.024 158.999 157.454 137.8 -165.693 243.268 0.111795 -188.83 226.127 -76.5621 -151.926 226.013 -88.1003 -123.171 221.309 -72.2709 -108.084 223.633 -36.3884 -155.094 269.717 5.91773 12.5723 9.6034 13.33 
125.721 169.402 163.82 164.352 163.721 122.374 158.429 159.189 157.679 137.868 -165.623 242.586 0.020706 -188.732 226.015 -76.3932 -151.796 225.933 -87.7765 -123.074 221.251 -71.8671 -108.018 223.557 -35.6756 -155.322 269.933 6.19692 12.8705 9.61579 13.3003 
127.868 169.52 163.963 164.611 163.898 122.64 158.806 159.464 157.997 138.338 -165.409 241.87 0.354985 -188.67 225.904 -76.2941 -151.756 225.806 -87.5429 -123.09 221.125 -71.5733 -107.919 223.468 -35.3416 -155.497 269.996 6.40247 12.8687 9.59284 13.2469 
128.365 169.643 164.142 164.861 164.039 122.404 159.178 159.723 158.263 138.689 -165.269 241.907 0.910523 -188.68 225.949 -76.0727 -151.741 225.866 -87.2506 -123.11 221.257 -71.2573 -107.876 223.687 -34.9715 -155.725 270.26 6.68674 12.8733 9.56099 13.23 
129.32 169.779 164.247 165.008 164.022 122.747 159.411 159.821 158.239 138.742 -164.819 241.659 1.41212 -188.797 226.308 -75.9669 -151.886 226.323 -87.1096 -123.335 221.632 -71.0284 -108.092 224.115 -34.7673 -156.024 270.645 6.89973 12.8679 9.60148 13.1882 
132.314 170.165 164.61 165.382 164.244 123.255 159.879 160.18 158.586 139.233 -163.658 241.058 1.7415 -188.885 226.647 -75.8344 -151.974 226.722 -86.9278 -123.445 222.082 -70.8422 -108.282 224.564 -34.5729 -156.325 271.054 7.13938 12.8516 9.57423 13.1597 
133.831 170.448 164.97 165.614 164.449 123.748 160.098 160.388 158.778 139.805 -162.733 240.547 2.29954 -188.951 226.975 -75.7007 -151.919 227.055 -86.723 -123.455 222.361 -70.535 -108.331 224.779 -34.2185 -156.603 271.466 7.37908 12.9183 9.57949 13.2163 
136.983 170.728 165.428 165.92 164.708 125.026 160.295 160.591 158.948 140.179 -161.05 239.123 2.99855 -189.069 227.24 -75.6116 -152.023 227.419 -86.6177 -123.56 222.657 -70.3447 -108.661 224.919 -33.8478 -156.905 271.858 7.55397 13.146 9.62503 13.212 
139.167 170.803 165.806 166.109 164.899 125.482 160.32 160.609 159.027 140.372 -159.676 238.213 3.62473 -189.189 227.387 -75.381 -152.306 227.561 -86.3821 -123.849 222.844 -70.176 -109.009 225.038 -33.6253 -157.137 272.104 7.72718 13.1974 9.55489 13.0954 
140.85 170.733 166.131 166.197 165.072 125.97 160.136 160.459 158.957 140.533 -158.38 237.261 4.42859 -189.273 227.443 -75.093 -152.578 227.668 -86.1048 -124.104 223.099 -70.0183 -109.298 225.251 -33.4612 -157.388 272.372 7.88511 13.2213 9.45511 12.9661 
145.024 170.045 166.496 166.466 165.794 126.562 159.42 160.135 158.864 143.258 -157.179 236.029 4.82137 -188.803 227.85 -74.8769 -152.958 227.806 -85.5604 -125.037 223.575 -69.8291 -109.652 226.03 -34.8879 -157.71 272.636 8.18645 11.8121 8.91436 12.2074 
145.105 170.098 166.404 166.297 166.469 126.166 159.248 159.866 158.762 143.267 -156.266 236.173 5.21008 -188.945 227.99 -74.6798 -153.241 227.886 -85.3255 -125.176 223.79 -69.7566 -109.961 226.145 -34.7689 -157.921 272.684 8.28764 11.8806 8.89456 12.1081 
144.649 170.199 166.47 166.107 166.863 125.35 159.078 159.651 158.553 142.81 -155.463 236.718 5.63245 -189.126 227.844 -74.4316 -153.408 227.773 -85.0624 -125.206 223.799 -69.5313 -110.423 226.104 -34.3826 -158.12 272.704 8.36191 12.054 8.92663 12.1394 
142.415 170.244 166.316 165.856 166.762 124.004 158.806 159.352 158.268 142.03 -156.03 237.891 5.8079 -189.388 227.744 -74.1797 -153.559 227.749 -84.8496 -125.231 223.875 -69.347 -110.723 226.104 -33.9943 -158.286 272.735 8.42963 12.2594 8.95217 12.2696 
141.216 170.336 166.32 165.739 166.84 123.291 158.84 159.323 158.204 141.364 -156.035 238.659 5.8964 -189.652 227.586 -73.9933 -153.735 227.722 -84.7274 -125.256 223.927 -69.2966 -111.142 226.008 -33.6531 -158.424 272.68 8.49048 12.5535 8.98333 12.3881 
141.812 170.448 166.309 165.604 167.136 123.713 158.88 159.247 158.027 140.693 -155.248 238.37 6.15808 -190.068 227.623 -73.8783 -154.037 227.914 -84.732 -125.402 224.081 -69.3179 -111.736 225.922 -33.393 -158.536 272.621 8.5363 12.9355 9.08475 12.5359 
141.855 170.594 166.248 165.512 167.143 123.169 158.9 159.202 157.943 140.018 -155.021 238.864 6.16351 -190.62 227.716 -73.8346 -154.434 228.052 -84.7956 -125.667 224.141 -69.4012 -112.193 225.799 -33.2094 -158.674 272.573 8.54546 13.2166 9.15427 12.7084 
140.237 170.642 166.125 165.415 167.194 122.05 158.866 159.119 157.881 139.074 -155.936 240.106 6.09649 -191.212 227.856 -73.6656 -154.896 228.192 -84.6902 -126.04 224.251 -69.3477 -112.8 225.777 -32.852 -158.93 272.627 8.65971 13.4977 9.17779 12.8503 
134.798 170.602 165.9 165.316 167.066 119.699 158.951 159.156 157.958 138.224 -158.331 241.961 6.49231 -191.626 227.998 -73.492 -155.243 228.232 -84.5029 -126.37 224.237 -69.2321 -113.275 225.66 -32.5546 -159.108 272.495 8.88109 13.6036 9.15242 12.9246 
133.639 170.465 165.547 165.118 166.839 119.244 158.721 158.903 157.777 137.696 -159.427 242.484 6.17753 -192.147 228.126 -73.3284 -155.711 228.183 -84.3102 -126.866 224.052 -69.1485 -113.633 225.391 -32.5584 -159.275 272.213 8.97075 13.5297 9.12468 12.9897 
134.637 170.464 165.295 165.138 166.764 120.242 158.562 158.748 157.772 137.584 -159.944 241.546 6.26804 -192.748 228.381 -73.1182 -156.145 228.256 -84.1077 -127.28 223.976 -69.0194 -114.043 225.128 -32.377 -159.534 272.074 9.19816 13.6269 9.13994 13.117 
136.006 170.504 164.979 165.155 166.757 120.825 158.628 158.829 157.721 137.133 -160.141 240.685 6.54695 -193.299 228.593 -72.9853 -156.567 228.505 -84.0425 -127.691 224.066 -68.919 -114.509 225.079 -32.1328 -159.84 271.934 9.42608 13.8733 9.24255 13.2143 
135.915 170.431 164.596 165.184 166.464 121.182 158.357 158.807 157.696 136.794 -161.023 239.876 7.26676 -193.975 229.018 -72.8113 -157.004 228.872 -83.911 -128.072 224.173 -68.6321 -114.749 224.922 -31.5869 -160.225 271.908 9.7803 14.2069 9.41704 13.3932 
134.684 170.385 164.616 165.183 165.945 120.923 158.294 158.878 157.817 136.793 -162.087 239.877 7.60311 -194.314 229.023 -72.6823 -157.13 228.835 -83.7596 -128.116 224.029 -68.368 -114.761 224.545 -31.0364 -160.54 271.793 10.0415 14.5467 9.52649 13.5345 
135.294 170.449 164.684 165.337 165.658 122.161 158.55 159.219 157.986 136.805 -162.596 239.068 8.02404 -194.651 228.894 -72.5269 -157.51 228.933 -83.6446 -128.498 224.098 -68.1212 -115.017 224.623 -30.576 -161.051 271.871 10.3121 14.795 9.6268 13.487 
136.722 170.681 164.886 165.475 165.625 122.856 158.792 159.515 158.115 136.727 -162.409 238.643 8.46251 -194.725 228.796 -72.423 -157.577 229.019 -83.4573 -128.594 224.132 -67.7552 -115.194 224.65 -29.9268 -161.47 272.021 10.5575 15.1308 9.73916 13.4511 
136.981 170.65 165.174 165.541 165.579 122.451 158.904 159.736 158.143 136.42 -162.281 238.914 8.85826 -194.859 228.817 -72.3158 -157.819 229.201 -83.3485 -128.832 224.258 -67.4591 -115.457 224.766 -29.3627 -161.869 272.177 10.782 15.4427 9.85903 13.3463 
138.288 170.872 165.461 165.757 165.692 122.368 159.304 160.116 158.402 136.509 -161.839 239.372 8.71887 -194.862 228.612 -72.2062 -157.892 229.179 -83.1418 -128.964 224.414 -67.1587 -115.753 225.149 -29.0666 -162.341 272.409 10.8891 15.423 9.84804 13.2549 
141.873 171.047 165.741 165.807 166.194 124.067 159.429 160.168 158.381 136.795 -160.382 237.776 9.03984 -194.945 228.364 -72.0751 -158.041 229.102 -82.8892 -129.068 224.389 -66.8494 -116.319 225.239 -28.8064 -162.687 272.545 10.9127 15.5379 9.94077 13.1897 
144.834 171.113 165.838 165.765 166.404 125.503 159.526 160.262 158.471 137.312 -158.97 236.139 9.278 -194.831 227.813 -71.9177 -157.901 228.691 -82.5864 -128.896 224.105 -66.5206 -116.427 225.055 -28.579 -162.879 272.386 10.9296 15.5573 9.98045 13.1938 
145.706 171.34 165.944 165.845 167.113 125.265 159.623 160.327 158.655 137.612 -158.246 235.914 9.23359 -194.923 227.336 -71.822 -157.952 228.258 -82.4187 -128.862 223.795 -66.4217 -116.87 224.733 -28.4682 -163.063 272.133 10.9254 15.6583 9.96809 13.2204 
145.168 171.528 165.965 165.758 167.837 124.611 159.733 160.305 158.643 137.76 -158.172 236.636 9.01285 -194.945 227.017 -71.6361 -157.977 227.988 -82.1197 -128.907 223.645 -66.1435 -117.262 224.718 -28.3933 -163.227 272.067 10.9783 15.5547 9.937 13.2167 
144.679 171.7 165.889 165.677 168.358 123.643 159.588 160.183 158.637 137.696 -158.572 237.51 8.71355 -195.056 226.829 -71.3599 -158.166 227.747 -81.7903 -129.157 223.506 -65.9184 -117.672 224.651 -28.3172 -163.406 271.96 11.0917 15.4264 9.82654 13.1692 
141.865 171.751 165.623 165.599 169.33 122.28 159.413 160.04 158.375 136.739 -159.828 238.485 8.14623 -194.811 226.627 -71.2857 -158.005 227.376 -81.4941 -129.244 223.108 -65.6503 -117.975 224.302 -28.1569 -163.273 271.43 11.2932 15.3347 9.67852 13.0466 
141.712 171.888 165.481 165.642 169.823 121.497 159.332 159.993 158.359 136.579 -160.192 238.99 8.19618 -195.038 226.806 -71.0429 -158.222 227.563 -81.3174 -129.494 223.341 -65.5866 -118.252 224.576 -28.2472 -163.407 271.41 11.4734 15.1437 9.60342 13.0786 
141.33 172.017 165.463 165.717 170.098 121.059 159.374 160.132 158.584 137.126 -160.681 239.466 8.16609 -195.239 227.029 -70.9194 -158.363 227.829 -81.2756 -129.661 223.589 -65.6342 -118.355 224.76 -28.5195 -163.52 271.416 11.6432 14.871 9.53776 13.1491 
141.834 172.064 165.477 165.755 170.675 121.382 159.308 160.162 158.741 137.857 -160.671 239.295 8.19002 -195.294 227.108 -70.7186 -158.422 228.016 -81.1631 -129.735 223.918 -65.6752 -118.387 225.1 -28.907 -163.578 271.497 11.7427 14.5029 9.41579 13.1865 
142.215 172.04 165.385 165.685 171.086 121.765 159.179 160.094 158.803 138.736 -160.595 239.013 8.37039 -195.202 227.083 -70.5137 -158.229 228.057 -80.9611 -129.551 224.112 -65.5528 -118.113 225.371 -29.1595 -163.607 271.571 11.8458 14.0817 9.32961 13.2831 
141.987 171.968 165.243 165.579 171.357 121.895 159.101 160.057 158.791 139.286 -160.754 238.969 8.52678 -195.096 227.064 -70.3839 -158.05 228.093 -80.8052 -129.41 224.267 -65.4077 -117.803 225.638 -29.3284 -163.625 271.641 11.9178 13.7171 9.27736 13.3458 
141.695 172.024 165.223 165.577 171.973 121.653 159.098 160.083 158.828 139.831 -160.931 239.399 8.47976 -194.985 227.312 -70.4031 -157.917 228.373 -80.7941 -129.275 224.555 -65.3505 -117.638 225.927 -29.479 -163.64 271.816 11.9601 13.5165 9.29291 13.3589 
141.725 172.046 165.316 165.627 172.96 122.333 158.97 160.014 158.874 140.585 -160.768 239.06 8.53846 -194.659 227.456 -70.3896 -157.471 228.459 -80.6588 -128.824 224.57 -65.1042 -117.374 225.843 -29.2977 -163.496 271.953 12.0312 13.5969 9.36107 13.4105 
142.211 171.978 165.504 165.899 173.303 122.932 159.06 160.215 159.12 141.055 -160.372 238.926 8.51475 -194.307 227.797 -70.6745 -157.054 228.64 -80.8827 -128.413 224.579 -65.1297 -116.968 225.727 -29.0997 -163.266 272.187 11.998 13.7786 9.44153 13.3999 
142.548 171.864 165.803 166.185 172.872 123.605 159.113 160.248 159.12 141.279 -159.977 238.8 8.78683 -194.143 228.215 -70.8877 -156.86 228.88 -81.0785 -128.243 224.581 -65.0626 -116.518 225.83 -28.9113 -163.118 272.601 11.9984 13.763 9.56798 13.3679 
142.859 171.69 165.884 166.337 172.275 125.06 159.239 160.318 159.031 141.127 -159.092 238.135 9.17482 -193.741 228.772 -71.1217 -156.37 229.404 -81.3096 -127.765 224.76 -64.9536 -115.969 225.839 -28.3297 -162.79 272.979 12.0903 14.2859 9.81337 13.3756 
142.697 171.642 165.91 166.483 171.869 125.848 159.401 160.451 159.212 140.933 -158.812 237.658 9.6017 -193.376 229.306 -71.3149 -155.836 229.793 -81.4715 -127.163 224.834 -64.8802 -115.402 225.575 -27.5819 -162.327 273.279 12.1847 14.9389 9.99798 13.4743 
139.488 171.485 165.542 166.353 170.955 125.33 159.314 160.127 159.072 140.139 -160.144 238.651 9.44344 -193.206 229.851 -71.3207 -155.59 230.012 -81.4684 -126.817 224.913 -64.8632 -114.957 225.498 -27.2492 -161.74 273.48 12.2006 15.1998 10.0483 13.5516 
134.378 171.483 165.425 166.438 170.108 123.44 159.522 160.235 159.376 139.561 -161.985 240.347 9.68322 -192.894 230.438 -71.3299 -155.319 230.201 -81.5308 -126.453 225 -65.0485 -114.358 225.396 -27.1339 -161.056 273.539 12.3482 15.2809 9.97958 13.5277 
131.578 171.228 165.241 166.265 169.367 121.749 159.3 160.002 159.361 138.968 -163.792 241.413 9.99144 -192.626 231.134 -71.3518 -154.986 230.502 -81.5927 -126.017 225.243 -65.1979 -113.632 225.44 -27.1073 -160.428 273.673 12.4602 15.2447 9.91744 13.5875 
131.507 170.837 165.078 165.897 167.978 120.778 158.982 159.68 159.111 138.284 -165.228 242.822 8.8364 -191.931 231.658 -71.4608 -154.389 230.803 -81.6677 -125.464 225.415 -65.2275 -112.825 225.5 -27.0764 -159.722 273.771 12.4182 15.1972 9.8858 13.5237 
128.775 170.548 164.867 165.619 167.464 120.921 158.309 159.169 158.818 138.055 -166.774 244.971 7.2106 -191.549 232.253 -71.7136 -153.696 231.172 -81.8947 -124.77 225.668 -65.3256 -112.046 225.639 -27.0641 -159.213 274.147 12.1814 15.2363 9.91064 13.7667 
127.814 170.395 164.824 165.714 166.712 122.253 158.228 159.178 158.819 138.205 -167.568 245.435 6.63644 -191.22 232.883 -71.9298 -153.078 231.814 -82.2048 -124.106 226.07 -65.3706 -111.179 226.247 -27.0462 -158.841 274.856 12.0885 15.1888 10.1013 13.9544 
129.002 170.454 165.003 166.031 165.984 124.584 158.167 159.306 158.997 138.888 -167.795 244.827 6.00236 -190.771 233.509 -72.0808 -152.523 232.526 -82.4059 -123.572 226.784 -65.5284 -110.514 227.121 -27.4268 -158.515 275.637 11.9606 14.853 10.0785 14.027 
133.164 170.561 165.152 166.324 165.522 126.201 158.319 159.517 159.323 139.92 -166.174 243.04 5.76244 -190.13 233.703 -72.2176 -152.038 232.657 -82.5414 -123.142 227.032 -65.8183 -109.917 227.59 -28.1572 -157.87 275.948 11.7239 14.3489 9.94125 13.9102 
143.257 170.084 164.791 165.904 165.252 128.13 157.333 158.787 158.737 140.105 -160.914 238.811 5.79799 -188.754 233.937 -72.7281 -150.38 232.697 -82.9672 -121.594 227.024 -66.35 -108.251 227.406 -28.8462 -156.279 275.895 10.9839 14.2797 9.84173 14.1544 
144.204 169.652 164.272 165.46 165.46 128.626 156.597 158.153 158.089 139.878 -159.103 237.562 6.08808 -188.324 233.69 -72.7533 -149.704 232.571 -83.0834 -120.959 227.108 -66.5499 -107.621 227.499 -29.2101 -155.759 275.667 10.693 14.2368 9.77802 14.3781 
143.064 169.063 163.897 165.084 165.329 128.787 155.802 157.513 157.564 139.882 -158.323 236.81 6.52431 -187.635 233.502 -72.6647 -148.998 232.362 -83.0373 -120.288 227.168 -66.5977 -106.568 227.779 -29.5479 -155.068 275.547 10.5645 13.9871 9.68962 14.398 
141.263 168.555 163.5 164.721 164.826 127.942 155.19 156.916 156.945 139.587 -158.036 236.91 7.1305 -187.179 233.493 -72.5924 -148.507 232.345 -83.0064 -119.858 227.277 -66.4759 -105.794 228.295 -29.689 -154.652 275.729 10.4598 13.7998 9.73415 14.4037 
140.624 168.189 163.307 164.521 164.447 128.174 154.882 156.509 156.627 139.921 -157.937 236.599 7.63183 -186.688 233.328 -72.4218 -148.113 232.074 -82.7702 -119.513 227.166 -66.151 -105.187 228.675 -29.7025 -154.307 275.954 10.525 13.4545 9.74593 14.2858 
141.071 168.079 163.357 164.556 165.016 128.97 155.019 156.5 156.659 140.924 -157.164 236.191 7.91959 -186.087 233.23 -72.3474 -147.514 231.952 -82.5986 -118.997 227.161 -65.8504 -104.736 229.103 -29.8418 -153.933 276.225 10.6283 12.9968 9.7637 14.2259 
141.539 168.191 163.497 164.878 166.666 129.459 155.66 156.938 157.232 142.394 -157.391 235.943 8.20841 -185.498 233.041 -72.1185 -147.111 231.694 -82.2447 -118.669 227.162 -65.5451 -104.512 229.507 -29.9461 -153.682 276.485 10.9545 12.4831 9.64158 14.0012 
142.847 168.376 163.725 165.172 169.468 129.84 156.362 157.396 157.64 144.127 -157.433 235.836 8.23534 -184.957 232.902 -71.9149 -146.909 231.57 -81.9382 -118.581 227.311 -65.3073 -104.447 230.173 -30.4271 -153.535 276.753 11.2388 11.6866 9.502 13.6701 
143.614 168.848 164.103 165.609 171.835 129.633 157.387 158.179 158.292 145.7 -157.566 236.383 7.92951 -184.263 232.53 -71.7721 -146.582 231.325 -81.7096 -118.384 227.425 -65.184 -104.282 230.754 -30.8588 -153.36 276.888 11.4714 10.9877 9.29646 13.3288 
144.06 169.253 164.563 165.967 173.32 129.313 158.065 158.715 158.701 147.045 -157.598 236.916 7.67239 -183.592 232.201 -71.5532 -146.261 231.002 -81.3685 -118.226 227.323 -64.8878 -104.165 230.983 -31.1349 -153.185 276.816 11.7672 10.3414 9.11972 13.0104 
145.733 169.333 165.358 166.785 170.4 128.647 158.56 159.123 159.081 148.883 -157.287 237.154 8.11326 -182.848 232.869 -71.5398 -146.209 231.039 -80.8213 -118.926 227.543 -64.6658 -104.052 231.546 -32.0272 -153.286 276.961 12.1956 9.32116 8.54926 12.3157 
150.415 170.121 167.102 168.571 170.461 132.701 159.935 161.169 160.827 152.208 -156.469 234.192 8.78395 -181.885 232.598 -71.6848 -145.439 230.863 -80.9287 -118.589 227.336 -64.6795 -104.023 231.229 -31.9853 -153.377 277.216 12.4947 9.20968 8.27483 12.0292 
151.448 169.909 167.842 168.825 169.651 132.206 159.773 161.146 160.85 152.6 -155.872 234.186 9.41376 -181.317 232.936 -71.5803 -145.474 230.883 -80.4167 -119.112 227.432 -64.4158 -103.882 231.344 -32.2409 -153.507 277.35 12.8288 8.8235 7.87095 11.4806 
152.769 170.343 168.879 169.857 169.367 134.502 160.574 162.469 161.958 154.642 -155.643 233.197 9.5788 -180.676 232.579 -71.4536 -145.005 230.657 -80.3307 -118.85 227.285 -64.2883 -104.064 231.134 -31.9831 -153.607 277.594 13.0691 8.79642 7.7002 11.2893 
153.705 170.888 169.694 170.676 169.709 136.65 161.274 163.649 162.887 156.231 -155.336 232.101 9.71078 -180.055 231.779 -71.2531 -144.422 230.236 -80.2687 -118.369 226.933 -64.0963 -104.103 230.666 -31.5905 -153.621 277.549 13.2988 8.91278 7.64101 11.2377 
154.729 171.261 170.292 171.156 170.273 138.479 161.69 164.508 163.431 157.016 -155.079 231.09 10.0999 -179.719 230.961 -70.9188 -144.039 229.908 -80.1489 -118.065 226.608 -63.7904 -104.169 230.223 -30.9784 -153.773 277.557 13.5705 9.14153 7.64017 11.2996 
154.809 171.547 170.697 171.405 170.966 139.472 161.973 165.06 163.771 157.057 -155.262 230.831 10.2168 -179.637 230.287 -70.6365 -143.965 229.629 -80.0482 -118.03 226.418 -63.5853 -104.548 229.949 -30.3783 -154.032 277.604 13.7995 9.42881 7.60903 11.3314 
154.279 170.725 170.703 170.784 169.278 137.517 161.051 164.066 162.906 155.571 -155.356 231.514 10.7052 -179.956 230.448 -70.1804 -145.021 229.587 -79.3784 -119.281 226.45 -63.2226 -104.818 230.102 -30.3444 -154.373 277.422 14.1475 9.26468 7.40514 10.7858 
153.075 169.711 170.434 169.92 167.945 135.658 159.562 162.706 161.753 153.799 -154.783 231.892 11.5671 -180.559 230.619 -69.6864 -146.241 229.371 -78.7056 -120.58 226.226 -62.8508 -105.247 229.779 -30.1137 -154.725 276.909 14.5484 9.36278 7.26618 10.3255 
152.145 168.93 170.029 169.311 167.054 134.119 158.319 161.547 160.881 152.24 -154.868 232.284 12.0101 -181.075 230.812 -69.362 -147.188 229.286 -78.2025 -121.479 226.098 -62.6684 -105.678 229.368 -29.9628 -155.171 276.342 14.7682 9.56823 7.19087 10.0051 
151.078 168.366 169.582 168.865 167.19 132.213 156.988 160.542 160.089 150.792 -154.562 232.792 12.3367 -181.716 230.83 -68.9481 -148.04 229.179 -77.7286 -122.395 225.855 -62.4966 -106.398 228.64 -29.7709 -155.526 275.484 15.0847 9.71786 7.04555 9.9113 
153.134 168.986 170.317 169.584 168.769 133.562 157.559 161.595 160.875 151.536 -154.047 231.557 12.7058 -182.201 230.355 -68.8403 -148.105 229.268 -77.9931 -122.57 225.642 -62.5811 -107.725 227.589 -29.0864 -156.062 275.037 15.2603 10.4604 7.1382 10.322 
153.706 169.884 170.771 170.351 169.988 134.604 158.764 162.678 161.875 151.94 -154.222 230.762 13.2852 -182.785 229.598 -68.6437 -148.463 229.011 -78.0218 -122.84 225.291 -62.5024 -109.192 226.893 -28.2754 -156.749 274.847 15.5529 11.0923 7.25381 10.5504 
153.866 169.941 170.793 170.051 170.43 133.836 158.444 162.13 161.506 150.696 -154.086 230.605 14.0567 -183.795 229.79 -68.2717 -149.765 229.128 -77.4826 -124.055 225.378 -62.1484 -110.226 226.94 -28.0077 -157.587 274.704 15.958 11.1171 7.28112 10.3171 
153.456 170.546 170.781 170.341 171.851 134.801 159.285 162.906 161.934 150.881 -154.404 229.807 14.6066 -184.694 229.42 -68.2019 -150.243 229.308 -77.6874 -124.376 225.229 -62.0503 -111.188 226.493 -27.1788 -158.347 274.664 16.1506 11.8966 7.63753 10.7036 
151.531 170.85 170.523 170.422 173.369 134.586 159.856 163.533 162.2 149.679 -155.176 230.146 14.7547 -185.647 228.993 -68.1705 -150.602 229.403 -77.9773 -124.474 224.953 -61.9593 -112.127 225.574 -25.838 -159.005 274.403 16.2499 13.2696 8.05264 11.2588 
150.484 171.009 170.327 170.529 172.994 134.159 160.323 164.094 162.585 147.838 -156.611 230.659 14.6959 -186.571 228.438 -68.0249 -151.115 229.165 -78.1566 -124.685 224.41 -61.934 -113.217 224.423 -24.4935 -159.551 273.943 16.4023 14.5958 8.32521 11.6944 
148.554 171.321 170.377 170.737 171.904 133.055 160.963 164.832 163.041 146.254 -158.17 231.298 14.9697 -187.516 227.935 -67.8243 -151.682 228.898 -78.2641 -124.917 223.804 -61.7938 -114.185 223.37 -23.2799 -159.996 273.368 16.7147 15.6748 8.64809 12.0849 
146.918 171.417 170.08 170.756 170.339 132.44 161.039 165.001 163.236 144.945 -158.822 231.973 15.0519 -188.474 227.19 -67.2946 -152.465 228.289 -78.0028 -125.3 223.158 -61.4659 -114.802 222.674 -22.326 -160.469 272.927 16.9265 16.2188 8.84817 12.3543 
145.831 171.618 169.849 170.666 168.938 131.714 161.06 164.996 163.182 143.935 -159.395 232.441 15.072 -189.425 226.621 -66.9704 -153.294 227.828 -77.8524 -125.832 222.642 -61.2013 -115.384 222.279 -21.7418 -161.045 272.657 16.959 16.4653 9.04951 12.5516 
146.576 171.669 169.547 170.453 168.189 132.839 160.841 164.745 162.796 142.844 -159.551 231.566 15.1506 -190.172 226.17 -66.7068 -153.861 227.626 -77.6496 -126.212 222.353 -60.7573 -116.044 222.065 -20.9453 -161.689 272.628 16.8909 16.988 9.33291 12.7574 
148.747 170.66 169.174 169.493 168.762 132.062 159.724 163.414 161.416 142.174 -157.698 231.132 15.9159 -190.899 226.8 -66.3719 -154.856 227.831 -76.827 -127.334 222.42 -60.0256 -116.596 222.443 -21.0518 -162.365 272.606 16.9848 16.5017 9.45899 12.4188 
149.804 169.748 168.621 168.593 169.68 131.4 158.377 162.055 160.352 141.494 -156.545 231.241 15.7636 -191.044 226.479 -65.9688 -155.299 227.369 -76.0492 -127.97 222.189 -59.3983 -116.906 222.413 -20.9412 -162.837 272.262 17.0687 16.2303 9.33651 12.1325 
147.024 169.695 168.227 168.563 170.634 129.847 158.153 161.937 160.512 141.257 -157.706 232.04 15.5906 -191.287 225.499 -65.5514 -155.381 226.424 -75.7187 -127.927 221.391 -59.0945 -117.323 221.562 -20.2368 -163.089 271.728 17.1124 16.7649 9.34815 12.2934 
143.607 170.02 168.354 168.99 171.1 128.908 158.538 162.36 161.09 141.361 -160.129 233.148 14.8818 -191.428 224.884 -65.2502 -155.314 225.887 -75.56 -127.756 220.97 -58.9413 -117.668 221.189 -19.7733 -163.304 271.485 17.2765 17.0846 9.34421 12.4588 
