155.126 169.566 165.496 170.008 170.229 149.428 161.636 157.429 163.92 160.912 159.632 158.33 63.0081 130.704 193.584 -4.33665 172.135 193.922 -13.6154 209.342 198.758 -1.22803 237.502 195.792 29.21 169.443 205.831 87.4315 16.0727 14.2663 16.5023 
154.115 169.878 166.619 170.73 170.84 147.635 161.944 158.321 164.403 161.593 160.467 159.434 62.7229 129.973 193.418 -5.37051 171.109 194.045 -14.7713 209.08 199.216 -2.15123 237.158 195.691 28.6687 168.838 205.562 86.884 16.1164 14.84 16.2251 
153.545 169.731 166.534 170.968 171.272 147.465 161.793 158.238 164.374 161.682 159.974 159.381 62.5314 129.525 193.555 -5.66161 170.508 193.999 -15.0623 208.329 198.858 -2.46713 236.409 195.318 28.3212 168.362 205.547 86.5795 16.0985 14.6729 16.1059 
153.298 169.408 166.493 170.626 171.246 147.326 161.772 158.278 164.151 161.587 159.841 159.01 62.7253 129.054 193.579 -5.81926 169.907 193.817 -15.2921 207.509 198.398 -2.77796 235.62 195.039 27.9455 167.926 205.564 86.3764 16.039 14.4285 16.001 
153.106 169.154 166.462 170.221 171.037 147.221 161.733 158.317 163.765 161.294 159.848 158.711 62.8809 128.565 193.661 -5.8854 169.413 193.612 -15.4376 206.689 197.814 -2.9922 234.811 194.7 27.6246 167.529 205.589 86.2289 15.9368 14.0828 15.9981 
153.095 169.02 166.467 170.025 170.764 147.272 161.684 158.285 163.571 161.117 160.042 158.403 62.9377 128.092 193.356 -5.89918 168.928 193.181 -15.5282 205.957 197.334 -3.17787 234.088 194.523 27.3284 167.053 205.529 86.0919 15.8311 13.8511 15.9918 
153.035 169.087 166.529 169.934 170.571 147.256 161.876 158.252 163.333 161.009 160.266 158.134 62.9919 127.538 193.181 -6.03474 168.298 192.651 -15.6677 205.085 196.705 -3.43718 233.307 194.229 26.9291 166.565 205.454 85.9146 15.7624 13.6023 15.9222 
152.844 169.051 166.409 169.993 170.342 147.17 161.875 157.988 163.112 160.803 160.165 157.935 62.6937 127.075 193.044 -6.41761 167.671 192.109 -15.9242 204.23 196.09 -3.77836 232.533 193.797 26.4704 166.014 205.323 85.532 15.7369 13.4078 15.7878 
152.671 169.258 166.43 169.866 170.213 147.019 161.994 157.855 162.875 160.668 160.015 157.883 62.5751 126.504 193.022 -6.63422 166.986 191.734 -16.1309 203.486 195.601 -4.06361 231.949 193.494 26.0636 165.594 205.3 85.2325 15.7788 13.3184 15.723 
152.555 169.451 166.413 169.828 170.132 146.838 162.022 157.752 162.765 160.69 159.794 157.906 62.2532 125.984 193.067 -7.00266 166.259 191.502 -16.4966 202.652 195.184 -4.49781 231.274 193.094 25.5201 165.133 205.282 84.8117 15.8282 13.2068 15.5771 
152.408 169.761 166.38 169.922 170.192 146.7 162.164 157.705 162.752 160.785 159.451 157.856 61.83 125.478 192.991 -7.40165 165.511 191.262 -16.8705 201.792 194.74 -4.94248 230.563 192.622 24.9787 164.634 205.176 84.3648 15.8788 13.0912 15.4019 
152.252 169.658 166.443 169.725 170.127 146.479 162.257 157.837 162.716 160.817 159.134 157.915 61.3102 125.148 193.176 -8.03643 165.05 191.371 -17.4541 201.279 194.624 -5.47395 230.025 192.355 24.4747 164.164 205.1 83.8553 15.8742 13.0305 15.279 
152.156 169.62 166.587 169.517 170.051 146.264 162.623 158.147 162.833 160.938 158.723 157.919 60.9695 124.724 193.488 -8.64319 164.68 191.581 -18.0116 200.962 194.759 -5.95009 229.688 192.401 24.0477 163.724 205.011 83.434 15.8934 13.0588 15.2959 
152.08 169.66 166.825 169.414 170.041 146.286 163.12 158.553 163.105 161.152 158.089 157.759 60.5986 124.406 193.718 -9.28086 164.475 191.751 -18.5437 200.849 194.996 -6.36166 229.529 192.588 23.7468 163.265 204.834 83.0963 15.9145 13.1325 15.3383 
152.157 169.323 167.072 169.298 170.03 146.436 163.341 158.898 163.336 161.243 157.608 157.666 60.344 124.183 193.814 -9.61047 164.375 191.898 -18.8823 200.837 195.326 -6.65216 229.426 192.932 23.5413 162.977 204.793 82.8833 15.8734 13.2057 15.4142 
151.576 169.488 167.49 170.414 170.81 144.5 163.731 159.332 164.056 162.011 158.444 158.819 60.1139 123.288 193.912 -10.4986 163.758 191.972 -19.8651 201.204 196.861 -7.66131 229.702 194.314 22.8713 162.342 204.605 82.3372 15.8949 14.0984 15.6065 
151.787 169.651 167.672 170.778 171.023 143.389 163.698 159.607 164.466 162.294 159.176 159.922 60.0915 122.847 194.005 -10.6609 163.772 192.307 -20.2461 201.87 198.244 -8.03237 230.281 195.549 22.8185 162.17 204.545 82.2937 15.933 14.6955 15.956 
152.211 169.711 167.635 170.636 170.888 142.623 163.744 159.719 164.508 162.053 159.202 160.868 59.6219 122.64 194.353 -10.9674 163.878 192.85 -20.5967 202.367 199.454 -8.30872 230.72 196.426 22.8291 162.012 204.528 82.0675 16.0981 15.1265 16.1862 
152.482 169.893 167.564 170.605 170.962 142.035 163.82 159.785 164.77 162.241 159.718 161.615 59.52 122.494 194.592 -11.2024 163.944 193.162 -20.8572 202.931 200.488 -8.4436 231.182 197.268 22.9747 161.87 204.558 82.0128 16.1658 15.6089 16.3412 
153.035 170.055 167.29 170.575 171.011 142.077 163.892 159.617 165.008 162.448 159.574 162.187 59.0305 122.537 194.989 -11.4672 164.152 193.354 -21.0042 203.601 201.452 -8.46068 231.687 198.053 23.1837 161.822 204.608 81.9776 16.185 16.114 16.4627 
153.371 170.197 167.403 170.525 170.998 141.989 164.104 159.779 165.176 162.551 159.632 162.733 58.7035 122.546 195.675 -11.7669 164.496 194.049 -21.2247 204.17 202.327 -8.45545 232.09 198.676 23.4043 161.813 204.702 81.954 16.2013 16.3172 16.6919 
153.721 170.421 167.309 170.497 171.004 141.974 164.325 159.784 165.311 162.616 159.663 163.248 58.3196 122.554 196.508 -12.1148 164.636 194.588 -21.4666 204.51 203.082 -8.50599 232.327 199.157 23.5199 161.798 204.847 81.8718 16.2382 16.5329 16.7871 
153.888 170.706 167.337 170.554 171.039 141.795 164.782 159.776 165.488 162.728 159.975 163.739 58.0567 122.606 197.52 -12.556 164.694 195.085 -21.716 204.813 203.821 -8.56789 232.592 199.599 23.6018 161.839 205.018 81.7633 16.3203 16.802 16.799 
154.077 170.932 167.396 170.561 171.021 141.704 165.195 159.954 165.597 162.77 160.306 164.23 57.7557 122.63 198.566 -12.9394 164.795 195.93 -22.0027 205.004 204.494 -8.63852 232.749 199.968 23.6413 161.884 205.216 81.6624 16.3826 16.8569 16.8394 
154.255 171.206 167.502 170.588 171.045 141.701 165.594 160.089 165.719 162.862 160.588 164.552 57.5551 122.529 199.578 -13.1591 164.698 196.579 -22.2058 204.947 204.958 -8.72559 232.748 200.176 23.6 161.914 205.363 81.609 16.4573 16.8694 16.8614 
154.21 171.424 167.652 170.602 171.054 141.391 166.067 160.332 165.807 162.893 160.961 164.849 57.6776 122.257 200.691 -13.273 164.429 197.336 -22.3651 204.705 205.343 -8.77854 232.631 200.229 23.5856 161.911 205.497 81.6357 16.5774 16.819 16.8914 
154.111 171.637 167.849 170.642 171.125 141.087 166.616 160.636 165.851 162.967 161.291 165.074 57.8027 122.048 201.854 -13.3941 164.16 198.059 -22.5621 204.353 205.507 -8.92274 232.412 200.105 23.4376 161.908 205.61 81.6322 16.66 16.6328 16.8861 
154.105 171.875 168.059 170.771 171.191 140.911 167.307 160.928 166.014 163.116 161.554 165.174 57.8303 121.924 203.007 -13.5735 163.971 198.702 -22.7496 204.157 205.753 -9.04273 232.241 200.058 23.2458 161.914 205.653 81.62 16.6447 16.5424 16.8805 
154.063 172.018 168.294 170.873 171.236 140.519 167.834 161.332 166.136 163.175 162.034 165.443 58.0532 121.84 204.092 -13.5801 163.917 199.602 -22.8911 203.99 206.075 -9.1606 232.11 200.121 23.0267 162.035 205.826 81.685 16.5985 16.312 16.9121 
154.047 172.112 168.377 170.924 171.304 140.252 168.178 161.457 166.121 163.242 162.353 165.638 58.2814 121.828 205.159 -13.4451 163.823 200.265 -22.9062 203.759 206.227 -9.27242 231.979 200.115 22.7411 162.242 206.08 81.7798 16.5484 16.0764 16.9153 
154.092 172.229 168.452 171.034 171.407 140.113 168.427 161.504 166.191 163.376 162.614 165.781 58.5011 121.845 205.83 -13.2919 163.696 200.673 -22.8777 203.62 206.368 -9.38511 231.938 200.123 22.451 162.51 206.363 81.8611 16.4991 15.9829 16.8526 
154.047 172.387 168.652 171.107 171.535 139.987 168.491 161.321 166.242 163.512 162.945 165.902 58.7583 121.841 206.287 -12.9472 163.496 200.833 -22.7025 203.466 206.499 -9.45842 231.949 200.184 22.145 162.866 206.693 81.9458 16.4784 15.9782 16.8057 
154.084 172.473 168.899 171.2 171.663 140.002 168.413 161.096 166.317 163.73 163.306 166.033 58.9738 121.876 206.635 -12.5516 163.345 200.976 -22.4733 203.419 206.677 -9.45997 232.018 200.276 21.9147 163.23 207.017 82.0637 16.4421 16.0467 16.7439 
154.101 172.488 169.118 171.306 171.804 139.954 168.267 160.859 166.41 163.961 163.686 166.197 59.2979 121.879 206.899 -12.1599 163.156 201.07 -22.2292 203.433 206.904 -9.40805 232.166 200.415 21.7647 163.61 207.352 82.2076 16.4432 16.2155 16.667 
154.056 172.535 169.273 171.35 171.852 139.884 167.999 160.582 166.412 164.081 164.136 166.415 59.5119 121.913 207.137 -11.7706 163.009 201.287 -21.9761 203.416 207.099 -9.36421 232.284 200.457 21.6093 163.997 207.71 82.2947 16.4677 16.3207 16.5721 
153.945 172.575 169.226 171.351 171.933 139.916 167.727 160.346 166.416 164.253 164.347 166.495 59.6087 121.859 207.365 -11.4385 162.849 201.607 -21.8066 203.417 207.315 -9.35944 232.436 200.495 21.4381 164.336 208.023 82.3263 16.5212 16.4304 16.5142 
153.797 172.606 169.29 171.319 172.002 139.957 167.453 160.124 166.424 164.409 164.415 166.649 59.6856 121.747 207.612 -11.0761 162.644 201.935 -21.6221 203.373 207.575 -9.38022 232.573 200.622 21.264 164.672 208.389 82.3542 16.5965 16.5439 16.4824 
153.636 172.55 169.294 171.223 172.013 139.929 167.096 159.919 166.404 164.493 164.438 166.808 59.7609 121.653 207.641 -10.7693 162.482 202.274 -21.4505 203.421 207.883 -9.33107 232.783 200.717 21.2216 164.98 208.683 82.3817 16.7208 16.7191 16.4168 
153.45 172.553 169.194 171.169 172.039 139.921 166.867 159.878 166.438 164.603 164.593 166.889 59.8036 121.57 207.715 -10.6018 162.41 202.698 -21.4332 203.499 208.199 -9.41087 232.977 200.854 21.069 165.262 208.95 82.3309 16.7948 16.8147 16.402 
153.331 172.64 169.306 171.105 172.012 139.932 166.741 159.896 166.568 164.749 164.584 166.944 59.8152 121.503 207.964 -10.4064 162.448 203.231 -21.3781 203.704 208.742 -9.39866 233.223 201.179 21.0376 165.474 209.171 82.3395 16.8397 16.9499 16.4792 
153.25 172.704 169.427 171.041 171.967 139.976 166.682 159.901 166.701 164.856 164.513 166.925 59.7391 121.449 208.266 -10.3058 162.538 203.699 -21.3775 203.93 209.26 -9.42245 233.445 201.477 20.9853 165.64 209.335 82.298 16.8618 17.0706 16.5975 
153.23 172.707 169.7 170.982 171.906 139.908 166.639 159.882 166.73 164.864 164.757 166.958 59.7387 121.53 208.637 -10.2782 162.654 204.118 -21.3983 204.124 209.685 -9.48916 233.659 201.712 20.8846 165.847 209.51 82.242 16.8893 17.1342 16.636 
153.248 172.661 169.551 170.915 171.802 139.739 166.596 159.897 166.67 164.777 165.206 167.078 59.7988 121.636 209.05 -10.2816 162.79 204.618 -21.4422 204.275 210.009 -9.52452 233.8 201.841 20.8375 166.016 209.673 82.2129 16.906 17.1171 16.6514 
153.238 172.477 169.421 170.847 171.697 139.648 166.528 159.869 166.582 164.717 165.494 167.254 59.7116 121.815 209.46 -10.4552 162.94 205.045 -21.5463 204.433 210.264 -9.59071 233.954 201.907 20.793 166.147 209.858 82.1176 16.9516 17.1126 16.6041 
153.2 172.325 169.233 170.812 171.609 139.529 166.553 160.015 166.572 164.713 165.757 167.395 59.5689 121.991 209.917 -10.7147 163.166 205.619 -21.7306 204.616 210.519 -9.6788 234.072 201.931 20.7346 166.216 209.954 81.9939 16.9627 17.0446 16.5907 
153.136 172.25 169.091 170.779 171.541 139.337 166.627 160.215 166.605 164.681 166.091 167.582 59.5113 122.19 210.42 -10.9129 163.493 206.273 -21.8801 204.919 210.907 -9.70059 234.287 202.107 20.7679 166.319 210.07 81.9123 16.9719 16.9987 16.6461 
153.074 172.181 168.931 170.793 171.509 139.231 166.69 160.517 166.711 164.693 166.372 167.799 59.3771 122.361 210.922 -11.1359 163.954 207.04 -22.0517 205.315 211.341 -9.68876 234.517 202.348 20.8421 166.384 210.177 81.8223 16.9281 16.9197 16.8095 
153.072 172.209 168.69 170.781 171.474 139.191 166.717 160.787 166.82 164.719 166.575 168.052 59.2024 122.568 211.49 -11.2777 164.521 207.932 -22.1865 205.81 211.868 -9.62614 234.84 202.652 20.9608 166.489 210.324 81.7536 16.8938 16.8389 17.0325 
153.047 172.252 168.463 170.787 171.425 139.214 166.888 160.993 167.001 164.783 166.566 168.276 58.8488 122.807 212.253 -11.5618 165.11 208.777 -22.3948 206.375 212.485 -9.58176 235.204 202.995 21.0751 166.546 210.424 81.6104 16.8662 16.8383 17.2635 
153.04 172.232 168.209 170.761 171.336 139.275 166.948 160.926 167.029 164.721 166.419 168.505 58.4736 123.145 212.976 -11.8549 165.684 209.344 -22.5023 206.934 212.912 -9.47576 235.547 203.197 21.2414 166.625 210.553 81.4868 16.8323 16.8728 17.4236 
153.047 172.072 168.011 170.683 171.165 139.302 166.961 160.807 166.888 164.509 166.431 168.97 57.952 123.593 214.002 -12.2661 166.264 210.051 -22.661 207.381 213.279 -9.44862 235.746 203.252 21.2868 166.733 210.796 81.2971 16.7687 16.799 17.5011 
152.952 172.02 168.495 170.655 171.066 139.209 167.057 160.748 166.825 164.353 166.499 169.347 57.5941 123.924 214.856 -12.5799 166.709 210.354 -22.7682 207.737 213.582 -9.45553 235.958 203.38 21.3068 166.833 211.01 81.1192 16.7547 16.7982 17.6194 
152.854 171.889 168.42 170.475 170.875 139.12 166.911 160.454 166.533 164.054 166.436 169.859 57.2229 124.252 215.53 -12.8088 167.004 210.623 -22.8477 207.895 213.668 -9.49922 236.005 203.304 21.2583 166.969 211.289 80.9609 16.7356 16.7269 17.6213 
152.79 171.874 168.703 170.379 170.787 139.082 167.009 160.221 166.417 163.944 166.352 170.098 56.9617 124.536 216.131 -13.002 167.163 210.622 -22.8905 208.064 213.826 -9.50563 236.12 203.377 21.2391 167.033 211.486 80.8164 16.7524 16.8166 17.6015 
152.906 171.886 168.947 170.421 170.793 139.05 167.147 160.079 166.375 163.856 166.488 170.38 56.7636 124.728 216.554 -13.2071 167.287 210.562 -22.987 208.269 214.024 -9.53518 236.285 203.604 21.2296 167.126 211.713 80.7065 16.7542 16.9459 17.6077 
153.038 171.912 169.154 170.491 170.805 139.056 167.355 160.001 166.392 163.833 166.536 170.513 56.6119 124.989 216.877 -13.4182 167.446 210.452 -23.0798 208.477 214.168 -9.53233 236.452 203.812 21.2584 167.19 211.852 80.612 16.7539 17.0484 17.5895 
152.992 171.917 169.404 170.494 170.805 138.952 167.438 159.828 166.359 163.807 166.426 170.645 56.501 125.158 217.27 -13.5403 167.426 210.442 -23.1119 208.514 214.37 -9.52651 236.506 204.047 21.244 167.191 212.042 80.5261 16.7774 17.1467 17.5298 
152.885 171.904 169.901 170.46 170.794 139.139 167.554 159.87 166.397 163.927 166.025 170.816 55.8975 125.187 217.886 -13.9929 167.376 210.673 -23.4784 208.437 214.789 -9.80765 236.427 204.446 20.9454 167.021 212.297 80.1332 16.7897 17.1986 17.5455 
152.887 171.898 170.13 170.361 170.794 139.427 167.52 159.77 166.435 164.075 165.439 170.824 55.5646 125.08 218.239 -14.2007 167.089 210.855 -23.6827 208.216 215.102 -9.99484 236.273 204.648 20.7505 166.832 212.46 79.9138 16.863 17.297 17.4548 
153.049 171.97 170.743 170.38 170.889 140.008 167.481 159.75 166.668 164.388 164.57 170.797 54.9758 124.921 218.325 -14.485 166.92 210.861 -23.8877 208.312 215.613 -10.0771 236.408 205.134 20.6815 166.644 212.614 79.6457 16.951 17.6365 17.4731 
153.327 172.051 171.51 170.494 171.092 140.544 167.439 159.791 167.006 164.781 163.851 170.947 54.392 124.656 218.255 -14.8121 166.46 210.813 -24.1183 208.227 216.156 -10.1913 236.417 205.599 20.5955 166.346 212.771 79.3585 17.0994 18.0834 17.3233 
153.656 172.114 172.212 170.594 171.191 141.242 167.327 159.649 167.373 165.124 163.074 171.388 53.5946 124.481 218.548 -15.1442 166.102 210.959 -24.3293 208.227 216.879 -10.3242 236.418 206.038 20.4746 166.113 213.095 79.0524 17.2112 18.5592 17.1981 
154.074 172.042 173.019 170.606 171.138 141.878 166.954 159.452 167.662 165.359 162.459 172.203 52.5197 124.351 218.847 -15.6542 165.682 211.18 -24.6185 208.255 217.852 -10.5085 236.372 206.6 20.3039 165.827 213.527 78.6317 17.3114 19.1918 16.9512 
154.393 172.152 172.945 170.691 171.165 142.213 166.739 159.141 168.051 165.588 162.266 173.129 51.7755 123.905 218.877 -16.0664 165.003 211.314 -24.9068 208.179 218.752 -10.7187 236.176 207.077 20.1303 165.444 213.914 78.308 17.3615 19.9174 16.6993 
154.69 172.074 172.841 170.817 171.264 142.334 166.577 158.81 168.192 165.661 162.17 173.925 51.3212 123.459 219.194 -16.3178 164.403 211.205 -25.1425 207.928 219.187 -10.9902 235.812 207.342 19.838 165.111 214.353 78.0286 17.3195 20.3799 16.6437 
154.868 171.928 172.91 170.978 171.373 142.448 166.559 158.773 168.225 165.649 161.537 174.215 51.0778 122.791 219.208 -16.4759 163.637 210.721 -25.2737 207.254 219.12 -11.2443 235.092 207.386 19.5614 164.595 214.651 77.8873 17.2287 20.5613 16.6516 
155.03 172.029 174.367 171.1 171.525 142.332 166.888 159.539 168.204 165.641 160.756 174.346 51.1559 122.016 219.42 -16.4785 162.872 210.633 -25.4513 206.243 218.888 -11.5478 234.28 207.363 19.2111 164.122 214.988 77.82 17.2572 20.2848 16.7285 
155.122 171.984 176.339 171.199 171.624 142.094 167.05 160.213 168.071 165.612 159.88 174.266 51.341 121.243 219.653 -16.43 162.031 210.67 -25.6005 205.078 218.587 -11.8427 233.308 207.25 18.8379 163.561 215.257 77.7805 17.261 19.8902 16.7369 
155.382 171.84 177.641 171.157 171.729 141.826 166.994 160.811 167.988 165.724 159.326 174.351 51.5922 120.256 219.611 -16.3282 160.856 210.996 -25.7949 203.82 218.544 -12.1116 232.323 207.298 18.5062 162.933 215.549 77.7485 17.3525 19.6505 16.5398 
155.584 171.594 176.901 171.177 171.782 141.421 166.846 160.561 167.989 165.827 159.292 174.387 51.7783 119.31 219.528 -16.3952 159.714 210.877 -25.9666 202.896 218.64 -12.337 231.479 207.384 18.2554 162.209 215.653 77.6303 17.3719 19.8288 16.413 
155.094 171.404 176.88 171.033 171.59 140.742 166.872 160.622 167.995 165.961 159.487 174.252 52.4786 118.293 219.096 -16.2795 158.673 210.305 -25.9504 201.841 218.359 -12.6079 230.641 207.354 17.9842 161.635 216.03 77.5415 17.4626 19.8646 16.4338 
154.524 171.41 176.528 170.967 171.62 140.139 166.931 160.317 167.684 165.795 158.77 173.878 52.9035 117.181 218.817 -16.1679 157.508 209.462 -25.9733 200.564 217.623 -12.9251 229.519 207.034 17.5955 160.856 215.979 77.4065 17.4268 19.7565 16.5781 
154.167 171.585 175.702 170.958 171.714 139.549 167.11 159.971 167.517 165.836 157.801 173.422 53.1851 116.016 218.311 -16.2182 156.166 208.688 -26.1277 199.315 216.902 -13.3045 228.481 206.703 17.1779 159.961 215.754 77.1658 17.4731 19.7584 16.5724 
153.966 171.68 174.468 171.035 171.887 139.119 167.338 159.589 167.44 165.9 156.893 173.221 53.519 115.01 218.266 -16.2425 154.821 208.284 -26.2483 198.094 216.47 -13.6687 227.461 206.527 16.7763 159.195 215.767 77.0505 17.4936 19.7376 16.4676 
153.811 171.626 172.791 171.102 172.038 138.583 167.167 159.288 167.426 165.937 156.394 173.426 53.9479 113.911 217.731 -16.1857 153.307 208.065 -26.3185 196.829 216.169 -14.0191 226.385 206.352 16.3885 158.514 215.905 77.0265 17.4957 19.7826 16.0965 
153.65 171.445 172.218 171.208 172.094 138.495 166.97 158.697 167.332 165.898 155.534 173.545 53.9017 113.138 217.57 -16.2543 152.226 207.539 -26.2848 195.793 215.87 -14.2439 225.292 206.212 16.075 157.803 216.076 76.9251 17.3395 19.8539 15.9649 
153.241 171.356 170.817 171.07 171.979 138.279 166.835 158.093 167.029 165.706 154.641 173.397 53.8715 112.264 217.172 -16.2937 151.192 207.162 -26.2661 194.684 215.416 -14.4411 224.194 206.013 15.7928 156.977 216.017 76.7355 17.2584 19.7584 15.8829 
152.992 171.52 169.609 170.932 172.05 138.392 166.734 157.399 166.914 165.753 153.396 173.084 53.7347 111.267 216.351 -16.1531 150.098 206.585 -26.1751 193.649 215.098 -14.6077 223.28 206.11 15.5401 156.112 215.865 76.4846 17.2846 19.8512 15.8483 
152.674 171.374 168.16 170.868 172.062 138.138 166.58 156.978 167.03 165.9 152.735 172.854 53.675 110.426 215.943 -16.3138 149.098 206.591 -26.4198 192.775 215.08 -14.9965 222.398 206.09 15.1172 155.282 215.644 76.1472 17.2538 19.9258 15.6689 
152.45 171.406 167.174 170.989 172.209 137.84 166.681 156.58 167.322 166.131 151.984 172.779 53.7739 109.769 215.861 -16.4754 148.29 206.497 -26.5541 192.295 215.42 -15.2282 221.831 206.509 14.8613 154.596 215.619 75.961 17.1559 20.2544 15.5963 
152.341 171.357 166.546 171.223 172.381 137.399 166.787 156.368 167.538 166.171 151.876 173.134 54.0411 109.375 216.022 -16.5571 147.945 206.568 -26.574 192.104 215.937 -15.2617 221.508 207.17 14.8744 154.095 215.809 76.0087 17.0224 20.4262 15.6671 
152.128 171.432 166.344 171.384 172.455 137.128 166.939 156.275 167.562 166.18 151.538 173.301 53.9825 109.007 216.336 -16.7711 147.683 206.663 -26.6759 191.788 216.174 -15.3201 221.034 207.585 14.7937 153.557 215.855 75.9596 16.8447 20.3895 15.8102 
151.953 171.373 166.38 171.371 172.3 136.896 166.901 156.132 167.251 165.839 151.314 173.455 53.8343 108.613 216.451 -16.9443 147.293 206.612 -26.7556 191.025 215.858 -15.5016 220.205 207.466 14.5209 152.975 215.89 75.796 16.7037 20.0198 15.878 
151.749 171.334 166.242 171.326 172.205 136.681 166.691 155.883 166.91 165.656 151.104 173.517 53.7165 108.189 216.236 -17.0428 146.846 206.469 -26.7771 190.409 215.567 -15.5743 219.622 207.441 14.3815 152.404 215.832 75.6209 16.6897 19.8581 15.8707 
151.602 171.201 165.869 171.091 171.999 136.586 166.219 155.818 166.573 165.476 150.756 173.705 53.2739 107.735 215.993 -17.2894 146.391 206.816 -27.052 189.724 215.447 -15.8199 218.96 207.307 14.1067 151.782 215.758 75.2904 16.7216 19.602 15.6965 
151.424 171.051 165.491 170.89 171.882 136.355 165.798 155.644 166.33 165.332 150.519 174.026 53.0954 107.311 215.932 -17.4215 145.727 207.052 -27.2045 189.001 215.36 -16.0568 218.319 207.137 13.8182 151.292 215.861 75.0432 16.787 19.5107 15.433 
151.348 170.973 165.343 170.793 171.798 136.214 165.533 155.869 166.281 165.277 150.338 174.432 52.7659 106.999 215.956 -17.7999 145.367 207.614 -27.597 188.572 215.636 -16.3758 217.851 207.209 13.5249 150.856 216.012 74.7744 16.7855 19.3917 15.2073 
151.314 170.874 165.44 170.708 171.761 136.088 165.275 156.22 166.219 165.22 150.282 174.845 52.5795 106.766 215.963 -18.1243 145.088 208.161 -27.9301 188.182 215.749 -16.6542 217.396 207.16 13.2796 150.504 216.198 74.5592 16.7577 19.2071 14.9905 
151.188 170.93 165.777 170.73 171.744 136.068 165.287 156.587 166.196 165.159 150.165 175.333 52.3623 106.351 216.005 -18.4617 144.662 208.452 -28.2495 187.669 215.792 -16.9529 216.829 207.166 12.9999 150.148 216.468 74.3725 16.693 19.0624 14.8718 
151.114 170.86 166.368 170.836 171.801 135.87 165.253 156.676 166.06 165.047 150.238 175.768 52.4312 105.989 216.035 -18.5359 144.156 208.328 -28.3173 187.066 215.658 -17.1239 216.263 207.235 12.7603 149.89 216.807 74.3037 16.613 18.9564 14.7899 
