159.221 161.748 163.999 164.99 159.181 138.699 154.713 158.337 155.897 145.002 75.2366 213.377 8.64307 66.6808 267.419 -66.7958 98.772 249.138 -72.7777 114.965 227.031 -58.2556 120.738 210.636 -28.1215 85.0172 257.59 27.9392 7.69807 7.3543 12.2089 
159.295 161.869 164.233 165.15 159.536 138.689 154.686 158.414 156.028 145.582 74.8922 213.539 8.58271 66.204 267.5 -66.8602 98.1927 249.269 -72.9095 114.467 227.251 -58.455 120.703 210.845 -28.4444 84.6724 257.741 27.8486 7.53891 7.27569 12.1415 
159.208 161.844 164.366 165.203 159.766 138.413 154.615 158.407 156.148 146.249 74.4542 213.712 8.61249 65.8759 267.691 -66.9348 97.5704 249.408 -73.0521 113.875 227.423 -58.7166 120.584 210.944 -28.8699 84.342 257.764 27.7674 7.38692 7.1893 11.9756 
159.332 161.767 164.307 165.124 159.838 138.403 154.352 158.206 155.993 146.381 73.8455 213.772 8.48943 65.4479 267.798 -66.9582 97.009 249.408 -73.0951 113.229 227.336 -58.8093 120.119 210.813 -29.0572 83.9548 257.72 27.6814 7.3418 7.19043 11.9478 
159.429 161.693 164.161 165.037 160.002 138.315 154.148 158.01 155.888 146.636 73.1743 214.076 8.23363 65.1893 268.042 -66.9614 96.609 249.508 -73.1142 112.719 227.37 -58.8925 119.74 210.777 -29.2823 83.5853 257.693 27.6029 7.25217 7.14957 11.9291 
159.255 161.813 164.179 165.091 160.045 138.4 154.457 158.244 156.026 146.702 72.3719 213.981 7.93308 64.2992 268.118 -67.2278 95.7376 249.513 -73.3583 111.745 227.222 -59.1538 118.658 210.515 -29.549 82.7109 257.543 27.3843 7.34073 7.20697 11.9661 
159.199 162.005 164.23 165.138 160.019 138.333 154.655 158.384 156.111 146.571 72.1586 214.045 7.70873 63.9564 268.19 -67.3377 95.5403 249.606 -73.4561 111.501 227.121 -59.2707 118.173 210.303 -29.6512 82.4133 257.377 27.2901 7.44009 7.31399 12.0678 
159.043 162.007 164.307 165.125 159.681 138.358 154.778 158.531 156.151 146.161 71.8662 213.842 7.6711 63.3999 267.888 -67.3832 95.2162 249.486 -73.5081 111.229 226.879 -59.2786 117.547 209.96 -29.495 82.0308 257.165 27.2442 7.68977 7.44454 12.1709 
159.053 161.986 164.471 165.194 159.524 138.569 154.657 158.594 156.122 145.837 71.4655 213.701 7.65958 62.7547 267.29 -67.2927 94.73 249.116 -73.4624 110.754 226.443 -59.1595 116.786 209.519 -29.2196 81.6441 257.055 27.2613 7.92566 7.54391 12.2177 
158.976 161.975 164.483 165.177 159.469 138.61 154.484 158.518 156.036 145.689 71.043 213.72 7.62325 62.1931 266.715 -67.1695 94.3086 248.744 -73.3791 110.363 226.023 -59.0254 116.242 209.133 -29.0202 81.296 256.939 27.2833 8.04348 7.61567 12.2737 
158.902 161.866 164.413 165.1 159.488 138.621 154.226 158.347 156.031 145.871 70.4916 213.629 7.82254 61.3442 265.965 -66.9536 93.5836 248.24 -73.2642 109.84 225.7 -58.9052 115.888 208.895 -28.8523 80.8772 256.855 27.3767 8.03536 7.56205 12.3241 
158.908 161.668 164.147 164.886 159.285 138.718 153.952 158.009 155.846 145.714 70.0857 213.358 8.08844 60.6433 265.293 -66.7344 92.8536 247.765 -73.0733 109.289 225.418 -58.6972 115.46 208.717 -28.5837 80.467 256.769 27.494 8.04343 7.51157 12.269 
159.048 161.459 163.942 164.69 159.187 138.809 153.503 157.576 155.535 145.644 69.6851 213.153 8.20833 59.8519 264.706 -66.5137 92.0603 247.338 -72.9094 108.657 225.166 -58.5446 115.085 208.564 -28.4688 80.0472 256.698 27.5351 7.98794 7.45777 12.2662 
159.067 161.179 163.579 164.421 159.003 138.912 153.039 157.169 155.19 145.455 69.2829 212.827 8.18171 59.2029 264.267 -66.3119 91.4204 247.033 -72.743 108.102 224.994 -58.3942 114.721 208.388 -28.382 79.6255 256.484 27.5425 7.97651 7.40512 12.2811 
158.943 161.029 163.319 164.223 158.94 138.78 152.766 156.825 154.893 145.286 68.7498 212.78 8.30999 58.7783 264.26 -66.1496 90.9094 246.885 -72.5145 107.544 224.807 -58.1779 114.262 208.203 -28.2305 79.1565 256.36 27.6416 7.95832 7.42191 12.2711 
158.793 161.033 162.984 164.087 158.917 138.769 152.928 156.798 154.941 145.405 68.2421 212.531 8.43013 58.4241 264.457 -66.1206 90.5 246.884 -72.4164 107.1 224.739 -58.1264 113.834 208.03 -28.2166 78.6747 256.15 27.7296 7.98081 7.43418 12.2798 
158.837 161.164 162.957 164.165 158.93 138.749 153.219 156.937 155.091 145.347 67.8444 212.525 8.50613 58.2887 264.963 -66.233 90.2859 247.033 -72.4201 106.727 224.657 -58.1446 113.134 207.826 -28.1838 78.2244 256.079 27.7907 8.07164 7.51328 12.2985 
158.873 161.533 163.24 164.432 159.158 138.692 153.698 157.225 155.29 145.464 67.6351 212.849 8.46137 58.2187 265.396 -66.3565 90.0407 247.18 -72.4318 106.318 224.584 -58.1616 112.56 207.791 -28.2387 77.7902 256.097 27.876 8.00641 7.59314 12.2149 
158.792 161.699 163.465 164.601 159.069 138.659 154.021 157.521 155.521 145.498 67.3629 212.829 8.53247 57.9829 265.296 -66.4546 89.7242 246.867 -72.4341 105.922 224.179 -58.1121 111.955 207.48 -28.1179 77.3565 255.951 27.9172 8.00897 7.64116 12.1903 
158.889 161.847 163.664 164.759 159.183 138.852 154.072 157.667 155.681 145.689 66.9722 212.754 8.33825 57.3831 264.788 -66.4664 89.2138 246.498 -72.4632 105.456 223.951 -58.1353 111.488 207.314 -28.1327 76.8747 255.798 27.8933 7.98907 7.5655 12.2066 
158.79 161.768 163.765 164.826 159.127 139.063 153.884 157.609 155.695 145.736 66.6376 212.401 8.45681 56.5789 264.167 -66.3444 88.5628 245.988 -72.403 104.903 223.586 -58.0623 111.013 207.018 -27.9888 76.4086 255.682 27.9194 8.02646 7.51371 12.296 
158.749 161.696 163.784 164.755 159.007 139.173 153.679 157.475 155.553 145.567 66.1648 212.234 8.50272 55.6539 263.537 -66.206 87.7817 245.499 -72.3256 104.222 223.248 -57.9424 110.382 206.772 -27.7874 75.9033 255.597 27.9537 8.0873 7.47822 12.3728 
158.582 161.493 163.73 164.627 158.842 139.129 153.21 157.109 155.165 145.094 65.8217 212.201 8.5939 54.8514 263.236 -66.0182 87.1284 245.252 -72.1873 103.55 222.984 -57.7721 109.669 206.551 -27.5762 75.3916 255.592 27.9481 8.1784 7.51635 12.4968 
158.417 161.377 163.401 164.334 158.523 139.036 152.946 156.749 154.818 144.55 65.3558 212.297 8.61662 54.2361 263.371 -65.8795 86.566 245.287 -72.0291 102.929 222.91 -57.6235 108.914 206.451 -27.4215 74.8862 255.545 27.9668 8.24616 7.57767 12.5992 
158.246 161.445 163.218 164.245 158.364 138.89 153.078 156.842 154.842 144.297 64.9143 212.379 8.54245 53.7724 263.949 -66.0084 86.104 245.654 -72.1358 102.343 223.007 -57.7786 108.023 206.427 -27.5888 74.3235 255.481 27.866 8.33193 7.69398 12.6741 
158.066 161.555 163.143 164.247 158.26 138.65 153.598 157.141 155.093 144.229 64.5792 212.591 8.48311 53.6622 264.91 -66.2547 85.8969 246.326 -72.2948 101.951 223.323 -58.0266 107.266 206.543 -27.8594 73.7779 255.455 27.7832 8.42863 7.82918 12.6735 
158.011 161.961 163.473 164.449 158.349 138.445 154.04 157.455 155.251 144.029 64.155 213.098 8.1528 53.6042 265.536 -66.497 85.6442 246.764 -72.4798 101.48 223.443 -58.2459 106.358 206.588 -28.0811 73.2589 255.45 27.672 8.48834 7.94166 12.5758 
158.161 162.312 163.821 164.617 158.468 138.529 154.483 157.787 155.523 144.156 63.8343 213.452 7.88431 53.2953 265.566 -66.733 85.2309 246.841 -72.6652 101.058 223.516 -58.4242 105.783 206.716 -28.2274 72.7596 255.485 27.5754 8.45287 7.9283 12.4655 
158.306 162.425 164.05 164.66 158.42 138.65 154.488 157.811 155.482 143.907 63.5922 213.64 7.63603 52.5783 265.244 -66.8051 84.5979 246.706 -72.7721 100.515 223.51 -58.5138 105.161 206.862 -28.2824 72.3006 255.585 27.4329 8.44037 7.88534 12.4757 
158.04 162.08 163.923 164.38 158.159 138.74 154.051 157.418 155.158 143.56 63.2325 213.528 7.60919 51.5634 264.693 -66.7394 83.7017 246.499 -72.8214 99.8276 223.488 -58.5475 104.648 206.906 -28.2502 71.7808 255.655 27.293 8.5215 7.86354 12.4816 
157.997 161.514 163.76 164.047 158.021 138.861 152.944 156.668 154.359 142.993 62.9919 213.705 7.3387 50.4055 263.947 -66.3721 82.7775 246.284 -72.6708 99.0654 223.56 -58.3936 104.288 207.116 -28.1937 71.325 255.857 27.1612 8.4801 7.7801 12.5636 
157.509 161.022 163.235 163.592 157.622 138.737 152.27 156.037 153.763 142.346 62.6998 213.762 7.41706 49.3744 263.476 -66.1149 81.8764 246.21 -72.5348 98.291 223.674 -58.2628 103.77 207.25 -28.0177 70.7916 256.021 27.054 8.62308 7.7561 12.5954 
157.142 160.908 162.656 163.277 157.32 138.522 152.111 155.67 153.5 141.877 62.1264 213.992 7.44297 48.7702 263.927 -66.099 81.2695 246.582 -72.4949 97.6103 223.89 -58.2745 102.932 207.31 -27.9849 70.2566 256.19 26.9784 8.86306 7.84982 12.6324 
156.939 161.049 162.341 163.18 157.18 138.53 152.231 155.586 153.594 142.012 61.5578 213.823 7.75459 48.061 264.281 -66.2815 80.6497 246.729 -72.5798 97.1282 223.906 -58.3836 102.394 207.259 -28.0226 69.5864 256.243 26.9354 9.00192 7.9909 12.7244 
157.037 161.367 162.352 163.205 157.211 138.47 152.662 155.844 153.84 142.181 60.775 214.021 7.66907 47.6688 265.005 -66.5759 80.286 247.112 -72.7882 96.6372 223.974 -58.5983 101.665 207.194 -28.1989 69.005 256.263 26.8523 9.1182 8.14691 12.8203 
157.096 161.52 162.405 163.179 157.305 138.286 152.738 155.913 153.885 142.486 60.048 214.229 7.39387 47.1656 265.076 -66.7903 79.7967 247.188 -73.0092 96.1192 224.024 -58.8243 101.262 207.229 -28.5087 68.4828 256.212 26.6781 9.01371 8.14397 12.8324 
157.159 161.341 162.272 163.098 157.357 138.136 152.303 155.62 153.81 142.784 59.3498 214.42 7.25561 46.5879 264.849 -66.7613 79.1195 247.118 -73.0615 95.5454 224.206 -58.964 101.038 207.463 -28.7699 67.9992 256.25 26.5571 8.77875 7.9739 12.7499 
157.215 161.04 162.182 163.089 157.437 138.35 151.451 155.114 153.561 142.857 58.7586 214.587 7.25162 45.6096 264.287 -66.5786 78.1979 246.819 -72.9996 94.8742 224.169 -58.9173 100.752 207.569 -28.7567 67.4156 256.426 26.4842 8.67806 7.90211 12.7533 
157.011 160.696 161.954 162.947 157.35 138.49 150.665 154.632 153.134 142.415 58.4963 214.774 7.20774 44.6428 263.545 -66.4862 77.3447 246.498 -72.9984 94.2394 224.068 -58.8603 100.399 207.595 -28.6022 66.8429 256.639 26.3267 8.80221 7.90737 12.7266 
156.727 160.428 161.306 162.633 156.913 138.5 150.087 154.099 152.805 141.998 57.8796 214.582 7.29537 44.039 263.669 -66.5336 76.7263 246.643 -73.0215 93.629 224.151 -58.9293 99.7336 207.512 -28.5962 66.2432 256.651 26.1824 9.01997 7.96568 12.7269 
156.907 160.648 161.149 162.705 156.785 138.531 150.287 154.177 152.859 141.711 57.3191 214.713 7.08638 43.6366 264.337 -66.9247 76.3759 247.035 -73.2818 93.1797 224.178 -59.1725 98.878 207.341 -28.7333 65.6338 256.676 25.9855 9.27931 8.17529 12.8183 
156.891 161.034 161.101 162.715 156.783 138.344 150.917 154.54 153.169 141.762 56.478 215.214 6.74636 43.3904 265.824 -67.2841 76.2102 248.102 -73.594 92.8167 224.735 -59.5693 98.1558 207.543 -29.1328 65.1114 256.803 25.8637 9.47849 8.39634 12.9756 
156.819 161.324 161.209 162.714 156.74 138.276 151.337 154.846 153.304 141.628 55.6923 215.692 6.38907 42.9993 266.939 -67.5358 75.9756 248.927 -73.8663 92.4333 225.182 -59.8499 97.4853 207.794 -29.3956 64.6266 257.005 25.7423 9.64571 8.59251 13.1547 
156.597 161.414 161.383 162.666 156.715 138.152 151.458 154.941 153.228 141.433 54.8962 216.342 6.00509 42.4609 267.379 -67.7232 75.4887 249.22 -74.0956 91.854 225.326 -60.0227 96.7981 207.964 -29.5606 64.166 257.237 25.5609 9.66895 8.67731 13.2401 
156.553 161.42 161.484 162.663 156.893 138.213 151.116 154.7 153.026 141.548 54.4262 216.994 5.77264 41.6631 267.18 -67.7338 74.6381 249.112 -74.1399 91.1393 225.393 -60.0565 96.4222 208.228 -29.7094 63.6361 257.475 25.4425 9.46308 8.61952 13.1903 
156.554 161.066 161.629 162.664 157.133 138.166 150.476 154.393 152.722 141.712 54.0981 217.827 5.38348 40.8736 266.48 -67.662 73.6291 248.776 -74.1867 90.2713 225.402 -60.0871 96.1124 208.539 -29.9578 63.0638 257.696 25.2507 9.09578 8.45022 12.9518 
156.294 160.773 161.531 162.651 157.278 138.089 149.964 154.108 152.591 142.215 53.726 218.204 5.1924 40.0959 266.103 -67.5233 72.6809 248.678 -74.1842 89.461 225.53 -60.1934 95.9383 208.735 -30.3166 62.4609 257.705 25.1181 8.78969 8.30626 12.8001 
155.92 160.853 161.37 162.676 157.256 138.134 149.979 154.037 152.568 142.108 53.3103 218.294 5.03078 39.499 266.366 -67.7128 72.0987 248.915 -74.3425 88.8506 225.68 -60.3856 95.2934 208.747 -30.4875 61.8542 257.792 24.9219 8.92327 8.35544 12.8238 
155.462 161.119 161.384 162.731 157.297 138.035 150.461 154.206 152.681 142.21 52.7183 218.552 4.94009 39.0632 267.103 -68.0099 71.6003 249.288 -74.539 88.2409 225.81 -60.6111 94.6313 208.83 -30.7378 61.2035 257.882 24.821 8.94867 8.48385 12.8352 
155.092 161.462 161.361 162.637 156.996 137.957 150.738 154.244 152.737 141.933 52.0893 218.722 4.92631 38.5969 267.987 -68.2877 71.2768 249.823 -74.706 87.8323 226.027 -60.774 93.7923 208.874 -30.7794 60.641 258.074 24.7179 9.21762 8.68195 13.0232 
155.229 161.826 161.67 162.835 157.26 137.997 151.15 154.525 152.983 142.223 51.629 219.106 4.91109 38.135 268.557 -68.4794 70.763 250.194 -74.8574 87.3295 226.331 -60.9194 93.2336 209.27 -30.9753 60.0742 258.386 24.6993 9.10979 8.72353 13.0135 
155.376 161.772 161.837 162.902 157.459 138.047 150.972 154.419 152.932 142.289 51.337 219.32 4.92628 37.4853 268.413 -68.4366 70.008 250.232 -74.8781 86.7226 226.57 -60.9515 92.7871 209.661 -31.07 59.5826 258.67 24.6684 8.95841 8.62664 12.8866 
155.637 161.527 162.031 163.087 157.784 138.149 150.523 154.333 152.954 142.595 51.217 219.385 4.87992 36.645 267.757 -68.2679 68.9814 250.08 -74.9185 85.9481 226.798 -61.0589 92.3942 210.066 -31.3132 59.0811 258.912 24.5794 8.71097 8.41777 12.6354 
156.424 161.404 162.23 163.297 158.111 138.387 150.163 154.329 152.957 142.777 51.0719 219.73 4.16357 35.9482 267.056 -68.1987 68.0826 249.831 -75.0516 85.1923 226.76 -61.23 91.912 210.162 -31.6225 58.5917 258.94 24.3471 8.51724 8.28965 12.4065 
156.201 161.355 162.173 163.276 157.999 138.361 150.129 154.26 152.835 142.607 50.8411 219.521 4.08968 35.4562 266.759 -68.2507 67.4769 249.524 -75.1019 84.5451 226.44 -61.254 91.3358 209.88 -31.6053 58.1013 258.822 24.2019 8.55588 8.30102 12.3338 
155.906 161.546 161.933 163.122 157.691 138.354 150.34 154.168 152.791 142.243 50.4418 219.214 4.13033 34.9924 267.097 -68.4563 67.1384 249.568 -75.1784 84.0911 226.286 -61.3219 90.5384 209.578 -31.5148 57.5709 258.768 24.0821 8.79899 8.39782 12.5073 
155.593 161.839 161.87 163.139 157.621 138.308 150.865 154.367 153.086 142.41 50.0205 219.171 4.19709 34.6804 267.775 -68.7591 66.7731 249.871 -75.3696 83.6928 226.413 -61.5944 89.956 209.572 -31.745 57.0508 258.789 23.9913 8.86655 8.45934 12.5518 
155.23 162.258 161.913 163.106 157.297 138.223 151.617 154.706 153.32 142.055 49.6101 219.07 4.2968 34.2964 268.724 -69.1578 66.4862 250.268 -75.6142 83.2672 226.404 -61.8201 88.9266 209.398 -31.7578 56.5604 258.804 23.9031 9.19697 8.6835 12.759 
155.052 162.585 162.027 163.067 157.055 138.218 152.22 154.914 153.444 141.684 49.434 218.529 4.65294 33.9074 269.386 -69.4548 66.0999 250.561 -75.7703 82.8373 226.487 -61.9539 88.0563 209.437 -31.6968 56.124 258.921 23.8448 9.46506 8.83183 12.851 
155.114 162.557 161.889 162.905 157.017 138.165 152.157 154.665 153.266 141.454 49.0255 218.613 4.62094 33.4783 269.426 -69.533 65.5578 250.649 -75.7966 82.3355 226.674 -61.9935 87.5023 209.657 -31.7399 55.7038 259.04 23.7534 9.47496 8.78368 12.7628 
155.154 162.495 161.82 162.884 157.185 138.074 151.957 154.472 153.156 141.452 48.6827 218.716 4.75436 32.9911 268.961 -69.4672 64.8683 250.388 -75.7301 81.7382 226.629 -61.9127 87.0856 209.805 -31.7046 55.2863 259.139 23.7413 9.31289 8.68051 12.5601 
155.329 162.093 161.566 162.777 157.368 138.045 151.265 154.014 152.972 141.741 48.4092 218.907 4.70939 32.4166 268.397 -69.2804 64.0568 250.156 -75.6403 81.0264 226.707 -61.9064 86.8627 209.995 -31.8658 54.8983 259.235 23.6584 9.03718 8.48759 12.332 
155.495 161.791 161.386 162.74 157.584 137.954 150.784 153.724 152.846 141.95 48.1589 219.186 4.56829 31.9943 267.87 -69.1782 63.4208 249.94 -75.6018 80.3855 226.77 -61.9276 86.6204 210.122 -32.0202 54.4988 259.266 23.5615 8.84068 8.29042 12.1082 
155.133 161.327 161.225 162.658 157.69 137.813 150.158 153.429 152.597 142.075 47.7677 219.056 4.4706 31.2596 266.961 -69.1075 62.6708 249.383 -75.6764 79.6856 226.453 -61.9759 86.4043 209.968 -32.1769 54.0678 259.154 23.3436 8.65009 8.1733 12.0313 
154.045 161.148 160.731 162.327 157.591 137.386 149.896 152.998 152.427 142.22 46.8766 218.512 4.62404 30.0498 266.97 -69.3738 61.5656 249.335 -75.9735 78.7543 226.601 -62.3683 85.8492 210.1 -32.6653 53.1658 259.114 22.9618 8.56488 8.08699 12.1442 
154.251 161.194 160.345 162.096 157.553 137.34 148.756 151.921 152.16 142.426 46.4161 218.367 4.70758 29.5037 266.847 -69.4663 61.0862 248.924 -76.0214 78.5031 226.518 -62.5413 85.877 210.09 -32.8552 52.8711 258.811 22.9538 8.52681 7.97998 12.2373 
154.382 161.607 160.423 162.241 157.324 137.241 149.061 152.049 152.12 142.076 45.8104 218.907 4.31994 29.3322 267.711 -69.8091 61.0023 249.39 -76.2886 78.3252 226.549 -62.7893 85.3982 210.037 -33.0438 52.5358 258.876 22.8123 8.59456 8.21273 12.4167 
154.569 162.153 160.603 162.306 157.238 137.248 149.77 152.496 152.312 141.952 45.2213 219.243 3.97221 29.0772 268.467 -70.242 60.9522 249.73 -76.6383 78.1688 226.436 -63.0209 84.8681 209.888 -33.1461 52.2864 259.032 22.6268 8.76058 8.4957 12.6791 
154.95 162.486 160.715 162.282 157.096 137.354 150.233 152.694 152.242 141.602 44.7075 219.503 3.48736 28.7944 269.076 -70.5557 60.7623 250.064 -76.9134 77.8971 226.314 -63.1897 84.2974 209.674 -33.1886 52.0748 259.16 22.4501 9.01377 8.79724 12.8293 
155.332 162.689 160.68 162.186 156.933 137.392 150.39 152.724 152.176 141.417 44.1285 219.793 3.03632 28.4084 269.413 -70.7869 60.4614 250.321 -77.1489 77.6184 226.357 -63.3825 83.9099 209.658 -33.3339 51.8699 259.292 22.237 9.16899 8.96595 12.9254 
155.471 162.797 160.634 162.094 156.848 137.477 150.421 152.667 152.113 141.315 43.5005 220.173 2.71844 27.942 269.554 -70.9364 60.0991 250.367 -77.3071 77.2769 226.285 -63.4733 83.5949 209.614 -33.3534 51.6853 259.483 22.0787 9.27645 9.08884 13.041 
155.789 162.734 160.531 162.056 156.74 137.783 150.127 152.472 151.977 141.177 42.9555 220.282 2.42312 27.5304 269.473 -70.9559 59.6307 250.279 -77.3789 76.8584 226.086 -63.4825 83.1908 209.424 -33.2678 51.5348 259.66 21.9549 9.40685 9.19875 13.0283 
156.245 162.575 160.502 162.042 156.694 138.051 149.86 152.354 151.851 140.897 42.5399 220.537 2.10904 27.086 268.854 -70.9836 59.2177 249.916 -77.4611 76.5512 225.795 -63.4387 82.9044 209.254 -33.0697 51.4286 259.855 21.8017 9.52739 9.23195 12.9762 
156.526 162.469 160.557 162.117 156.763 138.398 149.652 152.405 151.901 140.877 42.2505 220.453 1.99917 26.6381 268.021 -71.0052 58.9496 249.359 -77.5401 76.3915 225.371 -63.3608 82.7584 208.992 -32.8402 51.3358 259.991 21.663 9.59471 9.2278 13.0273 
156.552 162.259 160.597 162.138 156.77 138.567 149.396 152.452 151.905 140.863 42.0367 220.227 1.9405 26.3817 267.131 -70.9986 58.8489 248.743 -77.5849 76.3413 224.895 -63.2576 82.6823 208.643 -32.6313 51.261 259.944 21.5331 9.63048 9.19405 13.0715 
157.135 162.287 160.875 162.406 157.142 139.01 149.356 152.653 152.077 141.245 41.8266 220.233 1.55303 26.167 266.253 -71.0387 58.6761 248.122 -77.6899 76.2405 224.39 -63.2399 82.7388 208.346 -32.6195 51.2019 259.905 21.4122 9.49756 9.16448 13.0277 
157.497 162.328 161.052 162.582 157.301 139.405 149.429 152.805 152.277 141.443 41.6884 220.302 1.22822 26.0795 265.482 -71.1013 58.643 247.484 -77.7485 76.252 223.892 -63.1947 82.7398 207.983 -32.4954 51.1756 259.863 21.3054 9.47381 9.10008 13.0323 
157.608 162.361 161.176 162.757 157.441 139.724 149.574 153.002 152.565 141.798 41.569 220.101 1.06074 25.9308 264.603 -71.1456 58.5102 246.788 -77.7976 76.2269 223.434 -63.1986 82.7792 207.646 -32.4717 51.1124 259.699 21.2276 9.37569 8.96903 13.0031 
157.467 162.362 161.27 162.877 157.5 139.986 149.69 153.16 152.774 141.954 41.5475 219.681 0.943822 25.7806 263.87 -71.2641 58.4135 246.119 -77.8878 76.217 222.96 -63.2384 82.758 207.278 -32.4548 51.0359 259.479 21.0861 9.33367 8.87372 13.0322 
157.541 162.428 161.394 163.052 157.736 140.198 149.858 153.344 153.085 142.5 41.4922 219.635 0.700765 25.6345 263.184 -71.3428 58.2638 245.54 -77.9692 76.1992 222.606 -63.3205 82.9541 207.086 -32.6401 50.9339 259.278 20.9676 9.09968 8.75863 13.0078 
157.273 162.431 161.497 163.183 157.835 140.355 150.076 153.52 153.36 142.647 41.5361 219.423 0.629769 25.4867 262.448 -71.3972 58.1132 244.971 -78.0046 76.1608 222.325 -63.3483 82.9186 206.942 -32.635 50.801 259.08 20.9017 9.02272 8.61692 12.9519 
157.089 162.341 161.55 163.291 157.912 140.409 150.158 153.643 153.564 142.795 41.6426 219.14 0.651447 25.4133 261.742 -71.4425 58.0068 244.475 -78.0517 76.1592 222.136 -63.4039 82.9436 206.872 -32.6833 50.6716 258.908 20.8247 8.93322 8.45944 12.8611 
156.956 162.294 161.612 163.443 158.057 140.496 150.349 153.838 153.78 142.891 41.9453 218.752 0.717133 25.4372 261.058 -71.5844 57.9788 243.963 -78.1259 76.189 221.927 -63.4564 82.9775 206.794 -32.6983 50.5225 258.742 20.7202 8.8671 8.30754 12.7465 
156.75 162.282 161.744 163.602 158.262 140.719 150.531 154.095 154.003 143.072 42.1297 218.336 0.693547 25.3227 260.364 -71.7113 57.9076 243.466 -78.2373 76.1993 221.654 -63.5103 83.0386 206.673 -32.7381 50.3717 258.594 20.6009 8.80975 8.22975 12.6967 
156.521 162.129 161.806 163.669 158.284 140.828 150.575 154.21 154.032 142.936 42.4215 217.879 0.794857 25.1706 259.59 -71.7426 57.7792 242.913 -78.2561 76.1295 221.374 -63.4623 83.0443 206.588 -32.6418 50.2133 258.453 20.5056 8.77913 8.13414 12.6291 
155.943 161.849 161.782 163.718 158.334 140.806 150.483 154.312 154.079 142.963 42.6692 217.218 0.988074 24.9682 258.91 -71.7681 57.6997 242.444 -78.3157 76.0886 221.174 -63.488 83.1314 206.537 -32.6661 50.0133 258.264 20.3653 8.73292 8.02876 12.6435 
155.416 161.675 161.714 163.736 158.331 140.739 150.592 154.402 154.135 143.12 42.9759 216.509 1.31325 24.7709 258.4 -71.8992 57.6276 242.041 -78.396 76.0753 221.065 -63.5685 83.3582 206.568 -32.7676 49.7768 258.092 20.2449 8.6501 7.90747 12.6567 
155.388 161.731 161.762 163.868 158.608 140.812 150.803 154.525 154.203 143.512 43.2689 216.022 1.4057 24.6522 258.083 -72.1601 57.5426 241.747 -78.5637 76.0436 221.048 -63.7434 83.6822 206.716 -33.0598 49.5793 258.013 20.0587 8.45496 7.78049 12.6227 
155.39 161.711 161.826 163.987 158.757 140.939 150.942 154.754 154.268 143.704 43.4802 215.574 1.37298 24.3822 257.652 -72.3126 57.4845 241.475 -78.704 76.0134 220.949 -63.8242 83.8368 206.764 -33.204 49.3548 257.916 19.8809 8.36269 7.73339 12.7147 
155.26 161.718 161.877 164.064 158.861 140.866 151.179 154.936 154.347 143.941 43.7256 215.174 1.44826 24.1909 257.539 -72.6233 57.4311 241.403 -78.9574 75.9815 221.019 -64.0714 84.0152 206.938 -33.5082 49.1155 257.899 19.641 8.2527 7.67333 12.7699 
