153.478 161.152 167.965 165.985 163.794 143.401 167.533 160.405 159.193 149.871 59.6742 195.944 20.0022 26.2228 226.476 -61.3234 62.1507 217.131 -64.2928 88.1319 213.814 -48.6397 101.38 212.773 -19.2092 49.0106 245.322 32.4205 4.23148 6.40699 12.42 
153.401 160.999 167.908 165.978 163.622 143.24 167.883 160.359 159.124 149.799 59.7699 196.062 20.3372 26.1303 226.764 -61.4066 62.1262 217.143 -64.2156 88.0934 213.819 -48.4922 101.332 212.823 -18.9916 48.8398 245.363 32.5257 4.28203 6.42353 12.575 
153.3 160.889 167.786 165.89 163.447 143.037 168.198 160.344 159.047 149.644 59.672 196.06 20.7555 26.1002 226.982 -61.436 62.1248 217.129 -64.112 88.0306 213.724 -48.2819 101.176 212.704 -18.6629 48.6475 245.347 32.6625 4.39717 6.4369 12.6965 
153.145 160.677 167.685 165.771 163.209 142.804 168.337 160.243 158.847 149.325 59.6063 196.026 21.0785 26.0822 227.003 -61.428 62.0495 217.061 -64.0295 87.9345 213.544 -48.0862 100.991 212.482 -18.3633 48.4757 245.316 32.724 4.53657 6.48866 12.7084 
152.985 160.698 167.619 165.683 163.077 142.562 168.637 160.214 158.717 149.107 59.4538 196.131 21.4517 26.134 227.282 -61.4697 62.0793 217.192 -63.9416 87.8846 213.549 -47.8626 100.812 212.479 -18.0437 48.2779 245.406 32.8385 4.63464 6.51704 12.7718 
152.802 160.586 167.552 165.59 162.848 142.298 168.921 160.221 158.645 149.062 59.316 196.135 21.9153 26.1726 227.491 -61.4551 62.0855 217.303 -63.8046 87.8452 213.561 -47.5959 100.728 212.517 -17.724 48.0519 245.429 33.0016 4.70724 6.56649 12.8184 
152.644 160.657 167.56 165.511 162.689 142.104 169.14 160.37 158.689 149.104 59.0343 196.04 22.2644 26.2091 227.425 -61.4182 62.0663 217.376 -63.7279 87.7771 213.567 -47.4054 100.582 212.531 -17.4741 47.7785 245.375 33.1324 4.76099 6.60271 12.7471 
152.512 160.456 167.53 165.42 162.46 141.949 169.257 160.482 158.729 149.191 58.8132 195.98 22.5828 26.1543 227.327 -61.3126 61.9242 217.49 -63.6575 87.6629 213.737 -47.2959 100.529 212.741 -17.3278 47.4905 245.302 33.2563 4.76976 6.6331 12.6279 
152.349 160.144 167.454 165.36 162.226 141.788 169.204 160.561 158.803 149.345 58.2122 195.979 22.8588 25.7859 227.42 -61.1628 61.3576 217.897 -63.6385 87.1475 214.145 -47.2995 100.148 213.086 -17.2832 46.8423 245.317 33.3802 4.81364 6.66017 12.3764 
152.328 160.166 167.556 165.394 162.438 141.92 169.199 160.792 158.969 149.624 57.9727 195.92 22.7701 25.5909 227.511 -61.1333 61.1222 218.323 -63.7257 86.933 214.516 -47.416 100.019 213.355 -17.4405 46.5235 245.263 33.4169 4.75337 6.66096 12.2047 
152.361 160.187 167.705 165.486 162.635 142.055 169.037 161.029 159.14 149.813 57.6495 195.95 22.8142 25.2609 227.448 -60.9734 60.8034 218.569 -63.7374 86.6083 214.648 -47.4401 99.685 213.363 -17.4598 46.199 245.347 33.4801 4.79287 6.6701 12.0814 
152.408 160.304 167.861 165.614 162.9 142.233 168.858 161.079 159.194 149.884 57.5411 196.21 22.7109 25.0212 227.593 -60.8922 60.5972 218.86 -63.7019 86.3891 214.88 -47.4029 99.409 213.521 -17.4468 45.9201 245.559 33.5249 4.78474 6.66849 12.0374 
152.432 160.338 167.89 165.638 162.991 142.372 168.647 160.998 159.143 149.897 57.5157 196.398 22.4411 24.8123 227.769 -60.9025 60.47 219.163 -63.7092 86.2449 215.201 -47.4385 99.2645 213.773 -17.5327 45.638 245.649 33.493 4.75348 6.64103 12.0479 
152.39 160.369 167.831 165.626 163.041 142.384 168.453 160.922 159.118 149.924 57.3611 196.52 22.4305 24.543 227.964 -60.9013 60.2581 219.478 -63.7217 86.0125 215.534 -47.463 99.0377 214.053 -17.5869 45.3281 245.736 33.5131 4.73471 6.61922 12.0555 
152.324 160.324 167.748 165.594 163.153 142.3 168.279 160.667 158.892 149.771 57.1775 196.723 22.5427 24.2679 228.315 -60.8364 60.0014 219.538 -63.528 85.7135 215.536 -47.2579 98.7267 214.057 -17.4239 45.0283 245.861 33.6091 4.71948 6.60931 12.1631 
152.281 160.391 167.651 165.532 163.236 142.175 168.225 160.469 158.693 149.68 57.0981 196.81 22.7137 24.0685 228.356 -60.8494 59.6967 219.288 -63.3671 85.3644 215.324 -47.064 98.3592 213.945 -17.2784 44.7132 245.85 33.6523 4.66154 6.58649 12.1926 
152.263 160.436 167.613 165.506 163.354 141.996 168.307 160.384 158.632 149.782 56.9033 196.834 23.0352 23.7796 228.316 -60.7998 59.2747 218.998 -63.1954 84.9115 215.046 -46.8688 97.9414 213.789 -17.1294 44.3503 245.835 33.7404 4.60891 6.57257 12.1847 
152.262 160.365 167.664 165.486 163.369 141.808 168.573 160.497 158.715 150.056 56.5959 196.702 23.3665 23.4815 228.451 -60.8705 58.8793 218.832 -63.1754 84.4422 214.811 -46.8046 97.5241 213.657 -17.1138 43.953 245.711 33.8195 4.50604 6.54347 12.2107 
152.199 160.186 167.606 165.441 163.405 141.61 168.563 160.421 158.669 150.25 56.166 196.538 23.6903 23.0719 228.249 -60.7334 58.2931 218.449 -62.9777 83.8264 214.48 -46.6422 97.0807 213.54 -17.0763 43.5352 245.583 33.9372 4.3736 6.49955 12.1563 
152.153 159.969 167.572 165.377 163.423 141.436 168.545 160.476 158.785 150.722 55.68 196.249 24.069 22.6435 227.917 -60.5688 57.6713 218.136 -62.8919 83.2431 214.28 -46.598 96.777 213.578 -17.1478 43.0937 245.383 34.075 4.2658 6.47894 12.0062 
152.072 159.723 167.546 165.326 163.512 141.291 168.424 160.502 158.91 151.213 55.2172 195.959 24.441 22.2515 227.367 -60.2727 57.0469 217.823 -62.7355 82.6445 214.177 -46.53 96.4687 213.741 -17.236 42.6512 245.178 34.2375 4.14614 6.42114 11.7513 
151.996 159.658 167.66 165.354 163.626 141.185 168.191 160.682 159.171 151.803 54.6967 195.767 24.7046 21.7403 226.561 -59.8515 56.4059 217.68 -62.6386 82.104 214.282 -46.5419 96.2309 214.058 -17.3592 42.2108 245.06 34.4014 4.12224 6.40319 11.4152 
152.098 159.6 167.707 165.403 163.703 141.362 167.829 160.669 159.283 151.989 54.116 195.665 24.597 21.1395 225.98 -59.4869 55.8605 217.52 -62.4707 81.6234 214.295 -46.461 95.8669 214.094 -17.3132 41.7872 244.983 34.5406 4.145 6.38818 11.3069 
152.299 159.718 167.771 165.455 163.698 141.582 167.608 160.665 159.349 151.893 53.6145 195.678 24.3101 20.6628 225.931 -59.4022 55.548 217.621 -62.439 81.2716 214.4 -46.4619 95.3843 214.058 -17.286 41.4031 244.984 34.5856 4.1153 6.34851 11.368 
152.501 159.98 167.855 165.529 163.866 141.677 167.512 160.521 159.254 151.647 53.0029 195.649 24.1079 19.757 226.28 -59.4705 54.7822 217.613 -62.3767 80.4456 214.339 -46.4458 94.3851 213.806 -17.2598 40.6556 244.846 34.6744 4.04949 6.29103 11.5732 
152.657 159.902 167.611 165.285 163.597 141.646 167.302 160.192 158.987 151.316 52.7047 195.315 24.0741 19.4854 226.267 -59.5184 54.5644 217.271 -62.267 80.1987 214.051 -46.336 94.0612 213.494 -17.1325 40.417 244.558 34.683 4.04921 6.27184 11.7498 
152.739 159.884 167.416 165.086 163.413 141.626 167.266 159.929 158.739 150.86 52.2447 194.902 24.1368 19.1686 226.194 -59.5195 54.3269 216.864 -62.0847 79.9063 213.65 -46.1036 93.5889 213.07 -16.8543 40.0883 244.213 34.7576 4.02555 6.26239 11.9564 
152.84 160.01 167.345 165.022 163.284 141.632 167.238 159.914 158.725 150.795 51.7842 194.496 24.4158 18.7883 225.783 -59.3204 54.0186 216.378 -61.871 79.6041 213.203 -45.8599 93.2518 212.725 -16.6074 39.7876 243.893 34.9441 4.00198 6.27729 12.0551 
152.923 160.137 167.302 164.998 163.207 141.698 167.171 159.829 158.631 150.61 51.3067 194.319 24.6183 18.407 225.485 -59.094 53.749 216.095 -61.6342 79.3287 212.91 -45.585 92.9181 212.482 -16.3034 39.4921 243.756 35.1509 4.00217 6.29401 12.1397 
152.938 160.049 167.221 164.982 163.141 141.77 166.823 159.729 158.567 150.499 50.818 194.06 24.6839 18.0614 224.883 -58.7346 53.3731 215.675 -61.3425 78.9713 212.54 -45.3108 92.5492 212.149 -16.0251 39.1551 243.526 35.3392 4.00198 6.29767 12.0491 
152.968 160.155 167.276 165.092 163.263 141.927 166.59 159.713 158.617 150.549 50.3711 193.936 24.737 17.7309 224.255 -58.3705 53.0061 215.211 -61.018 78.5868 212.123 -45.0293 92.1413 211.786 -15.7538 38.8371 243.405 35.5325 3.9831 6.26666 11.9447 
152.988 160.349 167.257 165.176 163.418 142.169 166.389 159.672 158.606 150.398 49.8861 193.802 24.5441 17.4932 223.395 -58.0095 52.7157 214.608 -60.671 78.2522 211.603 -44.7087 91.6556 211.277 -15.3902 38.5006 243.24 35.6642 3.98676 6.223 11.7991 
153.053 160.609 167.274 165.253 163.336 142.39 166.221 159.786 158.683 150.304 49.2068 193.632 24.3812 17.1315 222.732 -57.6974 52.3248 214.22 -60.4437 77.8319 211.155 -44.4773 91.1206 210.723 -15.0702 38.1008 243.045 35.8444 4.07422 6.21116 11.661 
153.154 160.918 167.341 165.389 163.377 142.641 166.123 160.034 158.974 150.765 48.4952 193.271 24.3527 16.6799 221.835 -57.3563 51.8033 213.655 -60.2114 77.3602 210.715 -44.3028 90.783 210.394 -14.9436 37.6235 242.722 36.0593 4.05041 6.20202 11.485 
153.343 161.083 167.39 165.548 163.478 142.982 166.013 160.17 159.219 150.881 47.8342 192.903 24.2788 16.2582 221.271 -57.1285 51.3375 213.147 -60.0028 76.8583 210.179 -44.1218 90.1617 209.723 -14.6894 37.1466 242.43 36.2418 4.11031 6.16544 11.398 
153.465 161.047 167.393 165.629 163.407 143.17 165.899 160.158 159.243 150.619 47.416 192.55 24.1872 15.7729 221.066 -57.1124 50.8516 212.738 -59.8884 76.3507 209.58 -43.9803 89.442 208.923 -14.4849 36.7114 242.133 36.2979 4.18622 6.18048 11.4379 
153.585 160.812 167.256 165.573 163.287 143.249 165.806 160.059 159.168 150.478 46.9976 192.013 24.4737 15.2088 220.704 -57.0062 50.3037 212.09 -59.6779 75.7866 208.767 -43.7266 88.7912 208.019 -14.182 36.2755 241.743 36.4114 4.28739 6.20835 11.5306 
153.62 160.624 167.085 165.415 163.067 143.144 165.911 159.977 159.062 150.496 46.6607 191.41 24.9897 14.7754 220.385 -56.946 49.8382 211.472 -59.521 75.2842 208.056 -43.5185 88.3482 207.414 -14.0094 35.8831 241.263 36.5563 4.25914 6.21706 11.609 
153.626 160.356 167.012 165.281 162.864 142.992 166.193 159.952 159.002 150.668 46.5502 190.932 25.5807 14.3135 220.156 -56.8907 49.4511 210.986 -59.398 74.9244 207.646 -43.3924 88.1975 207.217 -13.9472 35.5085 240.786 36.7275 4.17684 6.22709 11.7681 
153.601 160.269 167.125 165.352 162.941 142.842 166.498 160.012 159.107 151.017 46.5098 190.655 26.1565 13.8993 220.2 -56.807 49.1159 210.823 -59.2934 74.6375 207.521 -43.3094 88.0873 207.239 -13.956 35.1798 240.505 36.9462 4.08476 6.24267 11.9009 
153.581 160.154 167.169 165.353 162.94 142.692 166.663 159.959 159.103 151.265 46.7071 190.536 26.531 13.561 220.25 -56.7843 48.8872 210.746 -59.2131 74.4641 207.59 -43.2864 88.1182 207.51 -14.0636 34.8958 240.289 37.0578 3.99 6.24416 12.0526 
153.564 160.179 167.261 165.388 162.974 142.508 166.936 160.045 159.166 151.498 46.828 190.435 26.8385 13.2447 220.341 -56.7995 48.6222 210.689 -59.174 74.2623 207.635 -43.2874 88.0684 207.696 -14.1466 34.6296 240.066 37.1628 3.93997 6.26062 12.1741 
153.541 160.114 167.298 165.415 162.944 142.35 167.007 160.128 159.263 151.793 46.9668 190.28 27.0366 12.8629 220.231 -56.7265 48.2728 210.621 -59.1599 74.0226 207.73 -43.3814 88.0704 207.942 -14.3487 34.3459 239.792 37.2234 3.93566 6.28098 12.2186 
153.5 160.246 167.402 165.526 163.061 142.27 167.013 160.219 159.376 152.021 47.0153 190.232 27.0725 12.4557 220.071 -56.6718 47.9094 210.554 -59.1631 73.7737 207.782 -43.4746 88.0017 208.094 -14.5148 34.0975 239.609 37.2403 3.95514 6.3156 12.2438 
153.482 160.407 167.499 165.641 163.186 142.261 166.938 160.269 159.553 152.358 46.9341 190.245 27.0981 12.1034 219.885 -56.5542 47.5895 210.488 -59.1073 73.5818 207.926 -43.543 88.024 208.345 -14.6286 33.8631 239.519 37.306 4.0069 6.33831 12.2301 
153.543 160.441 167.482 165.665 163.175 142.304 166.744 160.225 159.625 152.452 46.6268 190.233 26.9784 11.7872 219.733 -56.4716 47.3072 210.345 -59.0472 73.3652 207.913 -43.5664 87.9255 208.383 -14.6638 33.663 239.473 37.3208 4.05132 6.34543 12.2504 
153.62 160.389 167.384 165.63 163.114 142.378 166.263 160.076 159.649 152.445 46.2338 190.127 26.8795 11.4783 219.333 -56.2299 46.943 209.996 -58.8508 73.0313 207.706 -43.488 87.6958 208.19 -14.6041 33.4495 239.399 37.3639 4.09799 6.32256 12.1774 
153.704 160.448 167.334 165.62 163.103 142.463 165.946 160.026 159.702 152.369 45.8235 189.969 26.6835 11.2227 219.011 -56.1339 46.6755 209.713 -58.7703 72.7636 207.46 -43.4549 87.3917 207.827 -14.519 33.2434 239.258 37.3705 4.12819 6.30701 12.1339 
153.746 160.711 167.383 165.698 163.209 142.501 165.844 160.156 159.803 152.28 45.5673 189.901 26.5417 11.0275 218.666 -56.1334 46.4773 209.473 -58.7912 72.5781 207.152 -43.4347 87.069 207.357 -14.389 33.1049 239.154 37.3544 4.15744 6.32696 12.0788 
153.809 160.815 167.366 165.735 163.242 142.567 165.783 160.232 159.891 152.206 45.2973 189.795 26.4543 10.888 218.353 -56.1328 46.2724 209.221 -58.799 72.351 206.854 -43.4226 86.705 206.932 -14.2854 32.9479 239.071 37.3348 4.17371 6.31684 11.9935 
153.879 160.809 167.335 165.773 163.296 142.701 165.705 160.295 159.959 152.118 45.0739 189.643 26.3887 10.792 218.06 -56.0918 46.16 208.964 -58.7876 72.1852 206.511 -43.3759 86.3622 206.463 -14.1516 32.836 239.003 37.3138 4.18974 6.29499 11.9496 
153.907 160.932 167.391 165.887 163.389 142.774 165.715 160.449 160.137 152.299 44.9475 189.523 26.437 10.6821 217.632 -55.9908 46.0171 208.736 -58.777 72.0428 206.338 -43.3737 86.2002 206.349 -14.1581 32.7239 238.93 37.3319 4.15328 6.28294 11.8485 
153.924 161.257 167.47 165.995 163.467 142.804 165.88 160.609 160.288 152.459 44.7263 189.51 26.5386 10.4856 217.426 -55.9455 45.869 208.589 -58.7623 71.9135 206.206 -43.3502 86.0752 206.25 -14.1112 32.5944 238.906 37.3922 4.16072 6.2913 11.8535 
153.915 161.603 167.577 166.124 163.597 142.906 166.049 160.769 160.428 152.593 44.5921 189.474 26.5567 10.3705 217.355 -55.9515 45.8285 208.548 -58.7649 71.8289 206.113 -43.3214 85.9062 206.144 -14.0908 32.4751 238.879 37.4289 4.12018 6.27169 11.8846 
153.885 161.638 167.553 166.124 163.583 142.945 166.091 160.724 160.38 152.463 44.4305 189.333 26.5387 10.357 217.25 -55.9741 45.8004 208.357 -58.694 71.734 205.859 -43.202 85.6716 205.878 -13.9732 32.3499 238.809 37.4167 4.08492 6.25025 11.898 
153.879 161.607 167.457 166.094 163.508 142.966 166.228 160.732 160.323 152.28 44.3339 189.185 26.6348 10.2186 217.159 -55.9518 45.7582 208.26 -58.6296 71.6488 205.666 -43.0834 85.4346 205.61 -13.8028 32.207 238.707 37.4401 4.12712 6.25326 11.9843 
153.916 161.558 167.452 166.109 163.485 143.018 166.329 160.735 160.294 152.249 44.2328 189.035 26.6263 10.0193 217.093 -55.969 45.6544 208.08 -58.5845 71.5427 205.446 -43.0088 85.315 205.422 -13.7423 32.06 238.6 37.4282 4.14847 6.26961 12.1019 
153.971 161.349 167.386 166.084 163.445 143.097 166.277 160.574 160.155 152.101 44.1531 188.865 26.5918 9.90363 216.987 -55.928 45.5629 207.859 -58.4738 71.3994 205.212 -42.8892 85.1189 205.204 -13.6498 31.9275 238.476 37.4239 4.13824 6.24611 12.167 
153.991 161.113 167.338 166.034 163.383 143.112 166.264 160.404 160.018 151.969 44.1408 188.738 26.5441 9.75876 216.972 -55.9134 45.4644 207.731 -58.3879 71.2871 205.109 -42.8123 84.9915 205.137 -13.6235 31.8045 238.378 37.3858 4.11607 6.24064 12.2593 
154.046 160.898 167.281 165.989 163.341 143.161 166.171 160.23 159.867 151.712 44.0504 188.634 26.4529 9.61451 217.058 -55.9354 45.3479 207.677 -58.3455 71.1393 204.967 -42.7561 84.7323 204.879 -13.5457 31.6548 238.301 37.3383 4.14853 6.24018 12.3264 
154.052 160.865 167.241 165.949 163.319 143.152 166.224 160.066 159.673 151.435 44.149 188.661 26.3457 9.58366 217.239 -56.058 45.3577 207.784 -58.3636 71.0987 205.001 -42.7396 84.583 204.83 -13.5106 31.5348 238.256 37.2749 4.15795 6.23192 12.3885 
154.059 160.76 167.141 165.878 163.303 143.176 166.109 159.883 159.461 151.156 44.1866 188.673 26.2471 9.44093 217.345 -56.0737 45.3118 207.899 -58.347 71.0158 205.018 -42.6958 84.4205 204.742 -13.4362 31.4211 238.239 37.2368 4.21837 6.2354 12.4683 
154.081 160.573 167.041 165.801 163.245 143.215 166.048 159.732 159.3 150.92 44.1381 188.606 26.2262 9.28973 217.454 -56.0677 45.2115 207.916 -58.2771 70.8801 204.995 -42.6129 84.2344 204.663 -13.3267 31.2865 238.195 37.2338 4.26773 6.22931 12.5576 
154.068 160.493 166.974 165.754 163.114 143.151 166.088 159.599 159.151 150.742 44.1251 188.569 26.3849 8.99229 217.537 -56.0656 44.9499 207.87 -58.2344 70.6581 204.963 -42.5727 84.0676 204.668 -13.2751 31.1222 238.155 37.2641 4.3088 6.25649 12.6584 
154.071 160.568 167.026 165.778 163.067 143.117 166.203 159.573 159.086 150.772 44.1535 188.614 26.5063 8.66812 217.556 -56.0979 44.6888 207.78 -58.2158 70.4458 204.944 -42.5706 83.9721 204.762 -13.2892 30.9225 238.116 37.2962 4.30202 6.27429 12.764 
154.1 160.61 167.061 165.763 163.043 143.02 166.196 159.529 159.034 150.921 43.987 188.626 26.6437 8.24911 217.671 -56.1302 44.2606 207.706 -58.2246 70.1073 204.894 -42.6054 83.852 204.859 -13.3928 30.6975 238.11 37.3286 4.2692 6.31667 12.8369 
154.023 160.512 166.97 165.606 162.807 142.839 165.95 159.418 158.946 150.979 43.7229 188.52 26.8576 7.9119 217.489 -56.0512 43.832 207.61 -58.2319 69.767 204.881 -42.6354 83.7144 204.975 -13.4441 30.4648 238.037 37.3673 4.279 6.35567 12.7626 
153.953 160.343 166.845 165.43 162.574 142.675 165.73 159.313 158.866 151.031 43.2959 188.493 27.0606 7.41474 217.473 -55.9752 43.3024 207.807 -58.3331 69.3386 205.089 -42.7681 83.4894 205.18 -13.5699 30.1832 238.079 37.3939 4.34147 6.40623 12.6736 
153.839 160.188 166.71 165.271 162.333 142.534 165.469 159.165 158.709 150.892 43.0488 188.578 27.2322 6.9302 217.404 -55.8205 42.8215 207.961 -58.3279 68.9798 205.302 -42.8055 83.2828 205.402 -13.5765 29.9282 238.132 37.4527 4.40813 6.46591 12.6178 
153.816 160.106 166.597 165.146 162.135 142.45 165.332 159.149 158.667 150.894 42.6535 188.633 27.3674 6.3859 217.383 -55.7036 42.3313 208.078 -58.3458 68.6067 205.449 -42.8503 83.0735 205.55 -13.5807 29.6718 238.193 37.5016 4.49591 6.52984 12.6246 
153.784 160.082 166.552 165.08 162.045 142.392 165.257 159.233 158.704 150.954 42.2435 188.687 27.5465 5.95184 217.411 -55.5344 41.938 208.227 -58.3214 68.2939 205.584 -42.8322 82.8591 205.679 -13.5319 29.4418 238.252 37.6346 4.54316 6.57822 12.617 
153.776 160.062 166.5 165.043 161.963 142.329 164.995 159.329 158.789 151.054 41.8291 188.684 27.6192 5.61194 217.259 -55.344 41.5694 208.353 -58.3431 68.0343 205.685 -42.8543 82.6789 205.747 -13.532 29.2515 238.274 37.7363 4.59255 6.64751 12.5069 
153.831 160.272 166.573 165.148 162.079 142.4 164.914 159.564 158.959 151.165 41.4185 188.798 27.605 5.29497 217.255 -55.2107 41.319 208.52 -58.3572 67.8208 205.721 -42.8418 82.4154 205.697 -13.491 29.079 238.385 37.8412 4.59933 6.68743 12.4825 
153.904 160.627 166.559 165.185 162.149 142.536 164.793 159.718 159.025 150.997 40.8361 188.807 27.3433 5.06875 217.239 -55.1736 41.1813 208.586 -58.3585 67.6331 205.579 -42.771 81.9834 205.366 -13.338 28.8992 238.394 37.9039 4.60523 6.69715 12.5032 
153.94 160.881 166.542 165.219 162.222 142.592 164.652 159.855 159.134 151.036 40.3268 188.786 27.2534 4.91959 217.126 -55.0826 41.0511 208.513 -58.2908 67.4604 205.455 -42.6775 81.7057 205.242 -13.2418 28.742 238.385 37.994 4.54913 6.68023 12.4913 
154.034 161.215 166.622 165.349 162.384 142.733 164.744 160.116 159.276 150.999 39.8968 188.825 27.1877 4.74783 217.17 -55.0256 40.995 208.507 -58.1958 67.2874 205.276 -42.5154 81.2959 204.991 -13.0519 28.5201 238.411 38.1192 4.50971 6.64684 12.5678 
154.164 161.482 166.766 165.554 162.631 142.896 164.896 160.433 159.533 151.205 39.5727 188.796 27.3113 4.54245 217.269 -54.9664 40.908 208.42 -58.0748 67.0924 205.019 -42.3327 80.9217 204.754 -12.9057 28.2973 238.461 38.2608 4.42808 6.6197 12.6836 
154.259 161.715 166.829 165.641 162.715 142.994 164.899 160.566 159.572 151.255 39.2409 188.735 27.3976 4.32365 217.276 -54.8874 40.7901 208.221 -57.9245 66.8767 204.683 -42.1208 80.6003 204.507 -12.775 28.0772 238.458 38.3794 4.33757 6.59977 12.8016 
154.36 161.957 166.9 165.751 162.876 143.092 165 160.712 159.59 151.175 39.0362 188.623 27.4577 4.16733 217.247 -54.8403 40.769 207.948 -57.7219 66.7168 204.245 -41.828 80.2199 204.062 -12.4832 27.8436 238.357 38.4986 4.33541 6.57825 12.9679 
154.414 162.07 166.915 165.82 162.924 143.067 165.058 160.784 159.566 151.11 38.8623 188.395 27.6387 3.98566 217.077 -54.799 40.6125 207.598 -57.5682 66.4913 203.774 -41.5987 79.8899 203.623 -12.2851 27.6313 238.218 38.5622 4.35112 6.59236 13.0454 
154.444 162.108 166.956 165.87 162.955 143.063 164.95 160.656 159.453 151.061 38.7685 188.169 27.7015 3.85938 216.887 -54.765 40.4672 207.257 -57.4209 66.2792 203.414 -41.4402 79.6782 203.307 -12.1907 27.4282 238.045 38.5962 4.34215 6.56368 13.0808 
154.477 162.128 166.981 165.915 163.027 143.083 164.971 160.572 159.352 150.967 38.8312 187.981 27.7503 3.75342 216.809 -54.8241 40.3915 207.005 -57.3198 66.126 203.09 -41.2931 79.4355 202.93 -12.0414 27.2115 237.848 38.6075 4.39359 6.55125 13.1641 
154.49 162.152 167.003 165.904 163.034 143.132 164.795 160.349 159.123 150.749 38.767 187.887 27.6614 3.50248 216.689 -54.8417 40.1845 206.746 -57.2177 65.8679 202.779 -41.171 79.1632 202.581 -11.9133 26.9742 237.73 38.5684 4.44904 6.53733 13.241 
154.446 162.059 166.971 165.78 162.827 142.981 164.709 160.169 158.916 150.641 38.2911 187.803 27.8887 2.65466 216.727 -54.7777 39.3204 206.655 -57.1388 65.0509 202.63 -41.1225 78.4854 202.376 -11.832 26.311 237.601 38.6574 4.51723 6.55799 13.2725 
154.344 161.958 166.855 165.589 162.636 142.833 164.531 159.954 158.792 150.71 37.9004 187.708 28.0089 2.25604 216.707 -54.6858 38.7911 206.68 -57.125 64.6276 202.766 -41.2124 78.3013 202.526 -11.932 26.0335 237.54 38.7178 4.50106 6.5518 13.1575 
154.233 162.026 166.739 165.401 162.411 142.69 164.357 159.829 158.711 150.724 37.2792 187.56 28.1246 1.75161 216.5 -54.5643 38.1695 206.662 -57.1441 64.1142 202.857 -41.3144 77.9799 202.625 -12.014 25.6809 237.395 38.8086 4.47924 6.55484 12.9998 
154.182 162.05 166.658 165.277 162.264 142.627 164.124 159.73 158.646 150.598 36.7617 187.457 28.2671 1.25087 216.233 -54.3988 37.6317 206.634 -57.1259 63.6424 202.897 -41.3343 77.5407 202.572 -11.9505 25.3345 237.279 38.9353 4.52113 6.55992 12.8883 
154.134 162.21 166.728 165.386 162.382 142.695 163.919 159.76 158.743 150.679 36.4905 187.467 28.4441 0.729428 215.749 -54.0606 37.1926 206.376 -56.9015 63.2422 202.771 -41.1683 77.145 202.556 -11.8238 24.9997 237.22 39.1058 4.42843 6.54086 12.8705 
154.117 162.402 166.823 165.503 162.502 142.706 163.885 159.893 158.991 150.99 36.0634 187.387 28.6255 0.36026 215.299 -53.832 36.8328 206.132 -56.748 62.8791 202.671 -41.0502 76.7939 202.555 -11.7486 24.6494 237.115 39.2906 4.32148 6.49502 12.795 
154.149 162.691 166.908 165.61 162.608 142.779 163.945 160.107 159.22 151.107 35.7791 187.211 28.7083 -0.0464476 214.837 -53.6622 36.5289 205.858 -56.6473 62.5981 202.439 -40.9391 76.3917 202.28 -11.5922 24.3214 236.917 39.4379 4.31856 6.50023 12.7986 
